{
    "translation": "Restored Name King James Version",
    "abbreviation": "rnkjv",
    "lang": "en",
    "language": "English",
    "direction": "LTR",
    "encoding": "UTF-8",
    "book_nr": 41,
    "book_name": "Mark",
    "chapter": 14,
    "name": "Mark 14",
    "verses": [
        {
            "chapter": 14,
            "verse": 1,
            "name": "Mark 14:1",
            "text": "After two days was the feast of the passover, and of unleavened bread: and the chief priests and the scribes sought how they might take him by craft, and put him to death. "
        },
        {
            "chapter": 14,
            "verse": 2,
            "name": "Mark 14:2",
            "text": "But they said, Not on the feast day, lest there be an uproar of the people. "
        },
        {
            "chapter": 14,
            "verse": 3,
            "name": "Mark 14:3",
            "text": "And being in Bethany in the house of Simon the leper, as he sat at meat, there came a woman having an alabaster box of ointment of spikenard very precious; and she brake the box, and poured it on his head. "
        },
        {
            "chapter": 14,
            "verse": 4,
            "name": "Mark 14:4",
            "text": "And there were some that had indignation within themselves, and said, Why was this waste of the ointment made? "
        },
        {
            "chapter": 14,
            "verse": 5,
            "name": "Mark 14:5",
            "text": "For it might have been sold for more than three hundred pence, and have been given to the poor. And they murmured against her. "
        },
        {
            "chapter": 14,
            "verse": 6,
            "name": "Mark 14:6",
            "text": "And Yahushua said, Let her alone; why trouble ye her? she hath wrought a good work on me. "
        },
        {
            "chapter": 14,
            "verse": 7,
            "name": "Mark 14:7",
            "text": "For ye have the poor with you always, and whensoever ye will ye may do them good: but me ye have not always. "
        },
        {
            "chapter": 14,
            "verse": 8,
            "name": "Mark 14:8",
            "text": "She hath done what she could: she is come aforehand to anoint my body to the burying. "
        },
        {
            "chapter": 14,
            "verse": 9,
            "name": "Mark 14:9",
            "text": "Verily I say unto you, Wheresoever this gospel shall be preached throughout the whole world, this also that she hath done shall be spoken of for a memorial of her. "
        },
        {
            "chapter": 14,
            "verse": 10,
            "name": "Mark 14:10",
            "text": "And Judas Iscariot, one of the twelve, went unto the chief priests, to betray him unto them. "
        },
        {
            "chapter": 14,
            "verse": 11,
            "name": "Mark 14:11",
            "text": "And when they heard it, they were glad, and promised to give him money. And he sought how he might conveniently betray him. "
        },
        {
            "chapter": 14,
            "verse": 12,
            "name": "Mark 14:12",
            "text": "And the first day of unleavened bread, when they killed the passover, his disciples said unto him, Where wilt thou that we go and prepare that thou mayest eat the passover? "
        },
        {
            "chapter": 14,
            "verse": 13,
            "name": "Mark 14:13",
            "text": "And he sendeth forth two of his disciples, and saith unto them, Go ye into the city, and there shall meet you a man bearing a pitcher of water: follow him. "
        },
        {
            "chapter": 14,
            "verse": 14,
            "name": "Mark 14:14",
            "text": "And wheresoever he shall go in, say ye to the goodman of the house, The Rabbi saith, Where is the guestchamber, where I shall eat the passover with my disciples? "
        },
        {
            "chapter": 14,
            "verse": 15,
            "name": "Mark 14:15",
            "text": "And he will shew you a large upper room furnished and prepared: there make ready for us. "
        },
        {
            "chapter": 14,
            "verse": 16,
            "name": "Mark 14:16",
            "text": "And his disciples went forth, and came into the city, and found as he had said unto them: and they made ready the passover. "
        },
        {
            "chapter": 14,
            "verse": 17,
            "name": "Mark 14:17",
            "text": "And in the evening he cometh with the twelve. "
        },
        {
            "chapter": 14,
            "verse": 18,
            "name": "Mark 14:18",
            "text": "And as they sat and did eat, Yahushua said, Verily I say unto you, One of you which eateth with me shall betray me. "
        },
        {
            "chapter": 14,
            "verse": 19,
            "name": "Mark 14:19",
            "text": "And they began to be sorrowful, and to say unto him one by one, Is it I? and another said, Is it I? "
        },
        {
            "chapter": 14,
            "verse": 20,
            "name": "Mark 14:20",
            "text": "And he answered and said unto them, It is one of the twelve, that dippeth with me in the dish. "
        },
        {
            "chapter": 14,
            "verse": 21,
            "name": "Mark 14:21",
            "text": "The Son of man indeed goeth, as it is written of him: but woe to that man by whom the Son of man is betrayed! good were it for that man if he had never been born. "
        },
        {
            "chapter": 14,
            "verse": 22,
            "name": "Mark 14:22",
            "text": "And as they did eat, Yahushua took bread, and blessed, and brake it, and gave to them, and said, Take, eat: this is my body. "
        },
        {
            "chapter": 14,
            "verse": 23,
            "name": "Mark 14:23",
            "text": "And he took the cup, and when he had given thanks, he gave it to them: and they all drank of it. "
        },
        {
            "chapter": 14,
            "verse": 24,
            "name": "Mark 14:24",
            "text": "And he said unto them, This is my blood of the new testament, which is shed for many. "
        },
        {
            "chapter": 14,
            "verse": 25,
            "name": "Mark 14:25",
            "text": "Verily I say unto you, I will drink no more of the fruit of the vine, until that day that I drink it new in the kingdom of \u05d9\u05d4\u05d5\u05d4. "
        },
        {
            "chapter": 14,
            "verse": 26,
            "name": "Mark 14:26",
            "text": "And when they had sung an hymn, they went out into the mount of Olives. "
        },
        {
            "chapter": 14,
            "verse": 27,
            "name": "Mark 14:27",
            "text": "And Yahushua saith unto them, All ye shall be offended because of me this night: for it is written, I will smite the shepherd, and the sheep shall be scattered. "
        },
        {
            "chapter": 14,
            "verse": 28,
            "name": "Mark 14:28",
            "text": "But after that I am risen, I will go before you into Galilee. "
        },
        {
            "chapter": 14,
            "verse": 29,
            "name": "Mark 14:29",
            "text": "But Kepha said unto him, Although all shall be offended, yet will not I. "
        },
        {
            "chapter": 14,
            "verse": 30,
            "name": "Mark 14:30",
            "text": "And Yahushua saith unto him, Verily I say unto thee, That this day, even in this night, before the cock crow twice, thou shalt deny me thrice. "
        },
        {
            "chapter": 14,
            "verse": 31,
            "name": "Mark 14:31",
            "text": "But he spake the more vehemently, If I should die with thee, I will not deny thee in any wise. Likewise also said they all. "
        },
        {
            "chapter": 14,
            "verse": 32,
            "name": "Mark 14:32",
            "text": "And they came to a place which was named Gethsemane: and he saith to his disciples, Sit ye here, while I shall pray. "
        },
        {
            "chapter": 14,
            "verse": 33,
            "name": "Mark 14:33",
            "text": "And he taketh with him Kepha and James and John, and began to be sore amazed, and to be very heavy; "
        },
        {
            "chapter": 14,
            "verse": 34,
            "name": "Mark 14:34",
            "text": "And saith unto them, My soul is exceeding sorrowful unto death: tarry ye here, and watch. "
        },
        {
            "chapter": 14,
            "verse": 35,
            "name": "Mark 14:35",
            "text": "And he went forward a little, and fell on the ground, and prayed that, if it were possible, the hour might pass from him. "
        },
        {
            "chapter": 14,
            "verse": 36,
            "name": "Mark 14:36",
            "text": "And he said, Abba, Father, all things are possible unto thee; take away this cup from me: nevertheless not what I will, but what thou wilt. "
        },
        {
            "chapter": 14,
            "verse": 37,
            "name": "Mark 14:37",
            "text": "And he cometh, and findeth them sleeping, and saith unto Kepha, Simon, sleepest thou? couldest not thou watch one hour? "
        },
        {
            "chapter": 14,
            "verse": 38,
            "name": "Mark 14:38",
            "text": "Watch ye and pray, lest ye enter into temptation. The spirit truly is ready, but the flesh is weak. "
        },
        {
            "chapter": 14,
            "verse": 39,
            "name": "Mark 14:39",
            "text": "And again he went away, and prayed, and spake the same words. "
        },
        {
            "chapter": 14,
            "verse": 40,
            "name": "Mark 14:40",
            "text": "And when he returned, he found them asleep again, (for their eyes were heavy,) and they knew not what to answer him. "
        },
        {
            "chapter": 14,
            "verse": 41,
            "name": "Mark 14:41",
            "text": "And he cometh the third time, and saith unto them, Sleep on now, and take your rest: it is enough, the hour is come; behold, the Son of man is betrayed into the hands of sinners. "
        },
        {
            "chapter": 14,
            "verse": 42,
            "name": "Mark 14:42",
            "text": "Rise up, let us go; lo, he that betrayeth me is at hand. "
        },
        {
            "chapter": 14,
            "verse": 43,
            "name": "Mark 14:43",
            "text": "And immediately, while he yet spake, cometh Judas, one of the twelve, and with him a great multitude with swords and staves, from the chief priests and the scribes and the elders. "
        },
        {
            "chapter": 14,
            "verse": 44,
            "name": "Mark 14:44",
            "text": "And he that betrayed him had given them a token, saying, Whomsoever I shall kiss, that same is he; take him, and lead him away safely. "
        },
        {
            "chapter": 14,
            "verse": 45,
            "name": "Mark 14:45",
            "text": "And as soon as he was come, he goeth straightway to him, and saith, Rabbi, Rabbi; and kissed him. "
        },
        {
            "chapter": 14,
            "verse": 46,
            "name": "Mark 14:46",
            "text": "And they laid their hands on him, and took him. "
        },
        {
            "chapter": 14,
            "verse": 47,
            "name": "Mark 14:47",
            "text": "And one of them that stood by drew a sword, and smote a servant of the high priest, and cut off his ear. "
        },
        {
            "chapter": 14,
            "verse": 48,
            "name": "Mark 14:48",
            "text": "And Yahushua answered and said unto them, Are ye come out, as against a thief, with swords and with staves to take me? "
        },
        {
            "chapter": 14,
            "verse": 49,
            "name": "Mark 14:49",
            "text": "I was daily with you in the temple teaching, and ye took me not: but the scriptures must be fulfilled. "
        },
        {
            "chapter": 14,
            "verse": 50,
            "name": "Mark 14:50",
            "text": "And they all forsook him, and fled. "
        },
        {
            "chapter": 14,
            "verse": 51,
            "name": "Mark 14:51",
            "text": "And there followed him a certain young man, having a linen cloth cast about his naked body; and the young men laid hold on him: "
        },
        {
            "chapter": 14,
            "verse": 52,
            "name": "Mark 14:52",
            "text": "And he left the linen cloth, and fled from them naked. "
        },
        {
            "chapter": 14,
            "verse": 53,
            "name": "Mark 14:53",
            "text": "And they led Yahushua away to the high priest: and with him were assembled all the chief priests and the elders and the scribes. "
        },
        {
            "chapter": 14,
            "verse": 54,
            "name": "Mark 14:54",
            "text": "And Kepha followed him afar off, even into the palace of the high priest: and he sat with the servants, and warmed himself at the fire. "
        },
        {
            "chapter": 14,
            "verse": 55,
            "name": "Mark 14:55",
            "text": "And the chief priests and all the council sought for witness against Yahushua to put him to death; and found none. "
        },
        {
            "chapter": 14,
            "verse": 56,
            "name": "Mark 14:56",
            "text": "For many bare false witness against him, but their witness agreed not together. "
        },
        {
            "chapter": 14,
            "verse": 57,
            "name": "Mark 14:57",
            "text": "And there arose certain, and bare false witness against him, saying, "
        },
        {
            "chapter": 14,
            "verse": 58,
            "name": "Mark 14:58",
            "text": "We heard him say, I will destroy this temple that is made with hands, and within three days I will build another made without hands. "
        },
        {
            "chapter": 14,
            "verse": 59,
            "name": "Mark 14:59",
            "text": "But neither so did their witness agree together. "
        },
        {
            "chapter": 14,
            "verse": 60,
            "name": "Mark 14:60",
            "text": "And the high priest stood up in the midst, and asked Yahushua, saying, Answerest thou nothing? what is it which these witness against thee? "
        },
        {
            "chapter": 14,
            "verse": 61,
            "name": "Mark 14:61",
            "text": "But he held his peace, and answered nothing. Again the high priest asked him, and said unto him, Art thou the Messiah, the Son of the Blessed? "
        },
        {
            "chapter": 14,
            "verse": 62,
            "name": "Mark 14:62",
            "text": "And Yahushua said, I am: and ye shall see the Son of man sitting on the right hand of power, and coming in the clouds of heaven. "
        },
        {
            "chapter": 14,
            "verse": 63,
            "name": "Mark 14:63",
            "text": "Then the high priest rent his clothes, and saith, What need we any further witnesses? "
        },
        {
            "chapter": 14,
            "verse": 64,
            "name": "Mark 14:64",
            "text": "Ye have heard the blasphemy: what think ye? And they all condemned him to be guilty of death. "
        },
        {
            "chapter": 14,
            "verse": 65,
            "name": "Mark 14:65",
            "text": "And some began to spit on him, and to cover his face, and to buffet him, and to say unto him, Prophesy: and the servants did strike him with the palms of their hands. "
        },
        {
            "chapter": 14,
            "verse": 66,
            "name": "Mark 14:66",
            "text": "And as Kepha was beneath in the palace, there cometh one of the maids of the high priest: "
        },
        {
            "chapter": 14,
            "verse": 67,
            "name": "Mark 14:67",
            "text": "And when she saw Kepha warming himself, she looked upon him, and said, And thou also wast with Yahushua of Nazareth. "
        },
        {
            "chapter": 14,
            "verse": 68,
            "name": "Mark 14:68",
            "text": "But he denied, saying, I know not, neither understand I what thou sayest. And he went out into the porch; and the cock crew. "
        },
        {
            "chapter": 14,
            "verse": 69,
            "name": "Mark 14:69",
            "text": "And a maid saw him again, and began to say to them that stood by, This is one of them. "
        },
        {
            "chapter": 14,
            "verse": 70,
            "name": "Mark 14:70",
            "text": "And he denied it again. And a little after, they that stood by said again to Kepha, Surely thou art one of them: for thou art a Galilaean, and thy speech agreeth thereto. "
        },
        {
            "chapter": 14,
            "verse": 71,
            "name": "Mark 14:71",
            "text": "But he began to curse and to swear, saying, I know not this man of whom ye speak. "
        },
        {
            "chapter": 14,
            "verse": 72,
            "name": "Mark 14:72",
            "text": "And the second time the cock crew. And Kepha called to mind the word that Yahushua said unto him, Before the cock crow twice, thou shalt deny me thrice. And when he thought thereon, he wept.  "
        }
    ]
}