{
    "translation": "\u0423\u043a\u0440\u0430\u0457\u043d\u0441\u044c\u043a\u0430 \u0411\u0456\u0431\u043b\u0456\u044f. \u041f\u0435\u0440\u0435\u043a\u043b\u0430\u0434 \u0406\u0432\u0430\u043d\u0430 \u041e\u0433\u0456\u0454\u043d\u043a\u0430.",
    "abbreviation": "ukrainian",
    "lang": "uk",
    "language": "Ukrainian",
    "direction": "LTR",
    "encoding": "UTF-8",
    "book_nr": 21,
    "book_name": "Ecclesiastes",
    "chapter": 8,
    "name": "Ecclesiastes 8",
    "verses": [
        {
            "chapter": 8,
            "verse": 1,
            "name": "Ecclesiastes 8:1",
            "text": "\u0425\u0442\u043e, \u044f\u043a \u0442\u043e\u0439 \u043c\u0443\u0434\u0440\u0438\u0439, \u0456 \u0437\u043d\u0430\u0447\u0435\u043d\u043d\u044f \u0440\u0435\u0447\u0456 \u0445\u0442\u043e \u0437\u043d\u0430\u0454? \u0420\u043e\u0437\u0441\u0432\u0456\u0442\u043b\u044e\u0454 \u043c\u0443\u0434\u0440\u0456\u0441\u0442\u044c \u043b\u044e\u0434\u0438\u043d\u0438 \u043e\u0431\u043b\u0438\u0447\u0447\u044f \u0457\u0457, \u0456 \u0441\u0443\u0432\u043e\u0440\u0456\u0441\u0442\u044c \u043b\u0438\u0446\u044f \u0457\u0457 \u0437\u043c\u0456\u043d\u044e\u0454\u0442\u044c\u0441\u044f."
        },
        {
            "chapter": 8,
            "verse": 2,
            "name": "Ecclesiastes 8:2",
            "text": "\u042f \u0440\u0430\u0434\u0436\u0443: \u041d\u0430\u043a\u0430\u0437\u0430 \u0446\u0430\u0440\u0441\u044c\u043a\u043e\u0433\u043e \u0432\u0438\u043a\u043e\u043d\u0443\u0439, \u0456 \u0442\u043e \u0440\u0430\u0434\u0438 \u043f\u0440\u0438\u0441\u044f\u0433\u0438 \u043f\u0435\u0440\u0435\u0434 \u0411\u043e\u0433\u043e\u043c."
        },
        {
            "chapter": 8,
            "verse": 3,
            "name": "Ecclesiastes 8:3",
            "text": "\u041d\u0435 \u043a\u0432\u0430\u043f\u0441\u044f \u0432\u0456\u0434 \u043d\u044c\u043e\u0433\u043e \u0432\u0456\u0434\u0445\u043e\u0434\u0438\u0442\u0438, \u043d\u0435 \u0441\u0442\u0456\u0439 \u043f\u0440\u0438 \u0437\u043b\u0456\u0439 \u0441\u043f\u0440\u0430\u0432\u0456, \u0431\u043e \u0432\u0441\u0435, \u0449\u043e \u0437\u0430\u0445\u043e\u0447\u0435, \u0432\u0456\u043d \u0437\u0440\u043e\u0431\u0438\u0442\u044c,"
        },
        {
            "chapter": 8,
            "verse": 4,
            "name": "Ecclesiastes 8:4",
            "text": "\u0431\u043e \u0441\u043b\u043e\u0432\u043e \u0446\u0430\u0440\u0435\u0432\u0435 \u0442\u043e \u0432\u043b\u0430\u0434\u0430, \u0456 \u0445\u0442\u043e \u0439\u043e\u043c\u0443 \u0441\u043a\u0430\u0436\u0435: \u0429\u043e \u0440\u043e\u0431\u0438\u0448?"
        },
        {
            "chapter": 8,
            "verse": 5,
            "name": "Ecclesiastes 8:5",
            "text": "\u0425\u0442\u043e \u0432\u0438\u043a\u043e\u043d\u0443\u0454 \u0437\u0430\u043f\u043e\u0432\u0456\u0434\u044c, \u0442\u043e\u0439 \u043d\u0435 \u043f\u0456\u0437\u043d\u0430\u0454 \u043d\u0456\u0447\u043e\u0433\u043e \u043b\u0438\u0445\u043e\u0433\u043e, \u0441\u0435\u0440\u0446\u0435 \u0436 \u043c\u0443\u0434\u0440\u043e\u0433\u043e \u0437\u043d\u0430\u0454 \u0447\u0430\u0441 \u0456 \u043f\u0440\u0430\u0432\u043e."
        },
        {
            "chapter": 8,
            "verse": 6,
            "name": "Ecclesiastes 8:6",
            "text": "\u0411\u043e \u0434\u043b\u044f \u043a\u043e\u0436\u043d\u043e\u0457 \u0440\u0435\u0447\u0456 \u0447\u0430\u0441 \u0456 \u043f\u0440\u0430\u0432\u043e \u0441\u0432\u043e\u0454, \u0431\u043e \u043b\u0438\u0445\u043e \u043b\u044e\u0434\u0438\u043d\u0438 \u0447\u0438\u0441\u043b\u0435\u043d\u043d\u0435 \u043d\u0430 \u043d\u0456\u0439,"
        },
        {
            "chapter": 8,
            "verse": 7,
            "name": "Ecclesiastes 8:7",
            "text": "\u0431\u043e \u043d\u0435 \u0437\u043d\u0430\u0454, \u0449\u043e \u0431\u0443\u0434\u0435, \u0456 \u044f\u043a \u0441\u0430\u043c\u0435 \u0431\u0443\u0434\u0435, \u0445\u0442\u043e \u0457\u0439 \u0440\u043e\u0437\u043f\u043e\u0432\u0456\u0441\u0442\u044c?"
        },
        {
            "chapter": 8,
            "verse": 8,
            "name": "Ecclesiastes 8:8",
            "text": "\u041d\u0435\u043c\u0430\u0454 \u043b\u044e\u0434\u0438\u043d\u0438, \u044f\u043a\u0430 \u043f\u0430\u043d\u0443\u0432\u0430\u043b\u0430 \u0431 \u043d\u0430\u0434 \u0432\u0456\u0442\u0440\u043e\u043c, \u0449\u043e\u0431 \u0441\u0442\u0440\u0438\u043c\u0430\u0442\u0438 \u0432\u0456\u0442\u0435\u0440, \u0456 \u0432\u043b\u0430\u0434\u0438 \u043d\u0435\u043c\u0430 \u043d\u0430\u0434 \u0434\u043d\u0435\u043c \u0441\u043c\u0435\u0440\u0442\u0438, \u0456 \u043d\u0430 \u0432\u0456\u0439\u043d\u0456 \u043d\u0435\u043c\u0430 \u0437\u0432\u0456\u043b\u044c\u043d\u0435\u043d\u043d\u044f, \u0456 \u043f\u0430\u043d\u0430 \u0441\u0432\u043e\u0433\u043e \u043d\u0435 \u0432\u0440\u044f\u0442\u0443\u0454 \u0431\u0435\u0437\u0431\u043e\u0436\u043d\u0456\u0441\u0442\u044c."
        },
        {
            "chapter": 8,
            "verse": 9,
            "name": "Ecclesiastes 8:9",
            "text": "\u0423\u0441\u0435 \u0446\u0435 \u044f \u0431\u0430\u0447\u0438\u0432, \u0456 \u0441\u0435\u0440\u0446\u0435 \u0441\u0432\u043e\u0454 \u043f\u0440\u0438\u043a\u043b\u0430\u0434\u0430\u0432 \u044f \u0434\u043e \u043a\u043e\u0436\u043d\u043e\u0433\u043e \u0447\u0438\u043d\u0443, \u0449\u043e \u0432\u0456\u0434\u0431\u0443\u0432\u0430\u0432\u0441\u044f \u043f\u0456\u0434 \u0441\u043e\u043d\u0446\u0435\u043c. \u0406 \u0431\u0443\u0432 \u0447\u0430\u0441, \u043a\u043e\u043b\u0438 \u0437\u0430\u043f\u0430\u043d\u0443\u0432\u0430\u043b\u0430 \u043b\u044e\u0434\u0438\u043d\u0430 \u043d\u0430\u0434 \u043b\u044e\u0434\u0438\u043d\u043e\u044e \u043d\u0430 \u043b\u0438\u0445\u043e \u0434\u043b\u044f \u043d\u0435\u0457."
        },
        {
            "chapter": 8,
            "verse": 10,
            "name": "Ecclesiastes 8:10",
            "text": "\u0406 \u044f \u0431\u0430\u0447\u0438\u0432 \u0431\u0435\u0437\u0431\u043e\u0436\u043d\u0438\u0445 \u043f\u043e\u0445\u043e\u0432\u0430\u043d\u0438\u0445, \u0456 \u0434\u043e \u0457\u0445\u043d\u044c\u043e\u0433\u043e \u0433\u0440\u043e\u0431\u0443 \u043f\u0440\u0438\u0445\u043e\u0434\u0438\u043b\u0438, \u0430 \u0442\u0456, \u0449\u043e \u0447\u0438\u043d\u0438\u043b\u0438 \u0434\u043e\u0431\u0440\u043e, \u043f\u043e\u0432\u0438\u043a\u0438\u0434\u0430\u043d\u0456 \u0437 \u043c\u0456\u0441\u0446\u044f \u0441\u0432\u044f\u0442\u043e\u0433\u043e, \u0456 \u0432 \u043c\u0456\u0441\u0442\u0456 \u0437\u0430\u0431\u0443\u0442\u0456... \u041c\u0430\u0440\u043d\u043e\u0442\u0430 \u0439 \u043e\u0446\u0435!"
        },
        {
            "chapter": 8,
            "verse": 11,
            "name": "Ecclesiastes 8:11",
            "text": "\u0429\u043e \u0441\u043a\u043e\u0440\u043e \u043d\u0435 \u0447\u0438\u043d\u0438\u0442\u044c\u0441\u044f \u043f\u0440\u0438\u0441\u0443\u0434 \u0437\u0430 \u0432\u0447\u0438\u043d\u043e\u043a \u043b\u0438\u0445\u0438\u0439, \u0442\u043e\u043c\u0443 \u0441\u0435\u0440\u0446\u0435 \u043b\u044e\u0434\u0441\u044c\u043a\u0438\u0445 \u0441\u0438\u043d\u0456\u0432 \u043f\u043e\u0432\u043d\u0435 \u043d\u0438\u043c\u0438, \u0449\u043e\u0431 \u0447\u0438\u043d\u0438\u0442\u0438 \u043b\u0438\u0445\u0435."
        },
        {
            "chapter": 8,
            "verse": 12,
            "name": "Ecclesiastes 8:12",
            "text": "\u0425\u043e\u0447 \u0441\u0442\u043e \u0440\u0430\u0437 \u0447\u0438\u043d\u0438\u0442\u044c \u0433\u0440\u0456\u0448\u043d\u0438\u0439 \u043b\u0438\u0445\u0435, \u0430 \u0411\u043e\u0433 \u0441\u0443\u0434 \u0432\u0456\u0434\u043a\u043b\u0430\u0434\u0430\u0454 \u0439\u043e\u043c\u0443, \u043e\u0434\u043d\u0430\u043a\u043e \u044f \u0437\u043d\u0430\u044e, \u0449\u043e \u0442\u0438\u043c \u0431\u0443\u0434\u0435 \u0434\u043e\u0431\u0440\u0435, \u0445\u0442\u043e \u0411\u043e\u0433\u0430 \u0431\u043e\u0457\u0442\u044c\u0441\u044f, \u0445\u0442\u043e \u043f\u0435\u0440\u0435\u0434 \u043e\u0431\u043b\u0438\u0447\u0447\u044f\u043c \u0419\u043e\u0433\u043e \u043c\u0430\u0454 \u0441\u0442\u0440\u0430\u0445!"
        },
        {
            "chapter": 8,
            "verse": 13,
            "name": "Ecclesiastes 8:13",
            "text": "\u0410 \u0431\u0435\u0437\u0431\u043e\u0436\u043d\u043e\u043c\u0443 \u0434\u043e\u0431\u0440\u0435 \u043d\u0435 \u0431\u0443\u0434\u0435, \u0456 \u043c\u043e\u0432 \u0442\u0456\u043d\u044c, \u0434\u043e\u0432\u0433\u0438\u0445 \u0434\u043d\u0456\u0432 \u0432\u0456\u043d \u043d\u0435 \u043c\u0430\u0442\u0438\u043c\u0435, \u0431\u043e \u0432\u0456\u043d \u043f\u0435\u0440\u0435\u0434 \u0411\u043e\u0436\u0438\u043c \u043b\u0438\u0446\u0435\u043c \u0441\u0442\u0440\u0430\u0445\u0443 \u043d\u0435 \u043c\u0430\u0454!"
        },
        {
            "chapter": 8,
            "verse": 14,
            "name": "Ecclesiastes 8:14",
            "text": "\u0404 \u043c\u0430\u0440\u043d\u043e\u0442\u0430, \u044f\u043a\u0430 \u043d\u0430 \u0437\u0435\u043c\u043b\u0456 \u0434\u0456\u0454\u0442\u044c\u0441\u044f, \u0449\u043e \u0454 \u0441\u043f\u0440\u0430\u0432\u0435\u0434\u043b\u0438\u0432\u0456, \u0449\u043e \u043b\u0438\u0445\u043e \u0441\u043f\u0430\u0434\u0430\u0454 \u043d\u0430 \u043d\u0438\u0445, \u043c\u043e\u0432 \u0437\u0430 \u0432\u0447\u0438\u043d\u043e\u043a \u0431\u0435\u0437\u0431\u043e\u0436\u043d\u0438\u0445, \u0430 \u0454 \u0431\u0435\u0437\u0431\u043e\u0436\u043d\u0456, \u0449\u043e \u0434\u043e\u0431\u0440\u043e \u0441\u043f\u0430\u0434\u0430\u0454 \u043d\u0430 \u043d\u0438\u0445, \u043c\u043e\u0432 \u0437\u0430 \u0447\u0438\u043d \u0441\u043f\u0440\u0430\u0432\u0435\u0434\u043b\u0438\u0432\u0438\u0445! \u042f \u0441\u043a\u0430\u0437\u0430\u0432, \u0449\u043e \u043c\u0430\u0440\u043d\u043e\u0442\u0430 \u0439 \u043e\u0446\u0435!..."
        },
        {
            "chapter": 8,
            "verse": 15,
            "name": "Ecclesiastes 8:15",
            "text": "\u0406 \u0440\u0430\u0434\u0456\u0441\u0442\u044c \u044f \u043f\u043e\u0445\u0432\u0430\u043b\u044f\u0432: \u0449\u043e \u043d\u0435\u043c\u0430\u0454 \u043b\u044e\u0434\u0438\u043d\u0456 \u043f\u0456\u0434 \u0441\u043e\u043d\u0446\u0435\u043c \u0434\u043e\u0431\u0440\u0430, \u0445\u0456\u0431\u0430 \u0442\u0456\u043b\u044c\u043a\u0438 \u0449\u043e\u0431 \u0457\u0441\u0442\u0438, \u0442\u0430 \u043f\u0438\u0442\u0438 \u0442\u0430 \u0442\u0456\u0448\u0438\u0442\u0438\u0441\u044f, \u0456 \u043e\u0446\u0435 \u0441\u0443\u043f\u0440\u043e\u0432\u043e\u0434\u0438\u0442\u044c \u0457\u0457 \u0432 \u0457\u0457 \u043f\u0440\u0430\u0446\u0456 \u0437\u0430 \u0447\u0430\u0441\u0443 \u0436\u0438\u0442\u0442\u044f \u0457\u0457, \u0449\u043e \u043f\u0456\u0434 \u0441\u043e\u043d\u0446\u0435\u043c \u0411\u043e\u0433 \u0434\u0430\u0432 \u0431\u0443\u0432 \u0457\u0439."
        },
        {
            "chapter": 8,
            "verse": 16,
            "name": "Ecclesiastes 8:16",
            "text": "\u041a\u043e\u043b\u0438 \u044f \u043f\u043e\u043a\u043b\u0430\u0432 \u0441\u0432\u043e\u0454 \u0441\u0435\u0440\u0446\u0435, \u0449\u043e\u0431 \u043c\u0443\u0434\u0440\u0456\u0441\u0442\u044c \u043f\u0456\u0437\u043d\u0430\u0442\u0438, \u0456 \u043f\u043e\u0431\u0430\u0447\u0438\u0442\u0438 \u0447\u0438\u043d, \u0449\u043e \u0434\u0456\u0454\u0442\u044c\u0441\u044f \u0432\u0456\u043d \u043d\u0430 \u0437\u0435\u043c\u043b\u0456, \u0431\u043e \u043d\u0456 \u0432\u0434\u0435\u043d\u044c \u043d\u0456 \u0432\u043d\u043e\u0447\u0456 \u0441\u043d\u0443 \u043d\u0435 \u0431\u0430\u0447\u0438\u0442\u044c \u043b\u044e\u0434\u0438\u043d\u0430 \u0441\u0432\u043e\u0457\u043c\u0438 \u043e\u0447\u0438\u043c\u0430,"
        },
        {
            "chapter": 8,
            "verse": 17,
            "name": "Ecclesiastes 8:17",
            "text": "\u0456 \u043a\u043e\u043b\u0438 \u044f \u043f\u043e\u0431\u0430\u0447\u0438\u0432 \u0443\u0441\u044f\u043a\u0438\u0439 \u0447\u0438\u043d \u0411\u043e\u0433\u0430, \u0442\u043e\u0434\u0456 \u044f \u043f\u0456\u0437\u043d\u0430\u0432, \u0449\u043e \u043d\u0435 \u043c\u043e\u0436\u0435 \u043b\u044e\u0434\u0438\u043d\u0430 \u0437\u0431\u0430\u0433\u043d\u0443\u0442\u0438 \u0447\u0438\u043d\u0443, \u043f\u0456\u0434 \u0441\u043e\u043d\u0446\u0435\u043c \u0443\u0447\u0438\u043d\u0435\u043d\u043e\u0433\u043e! \u0422\u043e\u043c\u0443 \u0441\u043a\u0456\u043b\u044c\u043a\u0438 \u043b\u044e\u0434\u0438\u043d\u0430 \u043d\u0435 \u0442\u0440\u0443\u0434\u0438\u0442\u044c\u0441\u044f, \u0449\u043e\u0431 \u0434\u043e\u0448\u0443\u043a\u0430\u0442\u0438\u0441\u044c \u0446\u044c\u043e\u0433\u043e, \u0442\u043e \u043d\u0435 \u0437\u043d\u0430\u0439\u0434\u0435, \u0456 \u043a\u043e\u043b\u0438 \u0439 \u043c\u0443\u0434\u0440\u0438\u0439 \u0441\u043a\u0430\u0436\u0435, \u0449\u043e \u0437\u043d\u0430\u0454, \u043d\u0435 \u0437\u043c\u043e\u0436\u0435 \u0437\u043d\u0430\u0439\u0442\u0438!... "
        }
    ]
}