{
    "translation": "The New Testament in the Original Greek: Byzantine Textform 2005",
    "abbreviation": "byz",
    "lang": "grc",
    "language": "Greek",
    "direction": "LTR",
    "encoding": "UTF-8",
    "book_nr": 40,
    "book_name": "Matthew",
    "chapter": 5,
    "name": "Matthew 5",
    "verses": [
        {
            "chapter": 5,
            "verse": 1,
            "name": "Matthew 5:1",
            "text": "\u03b9\u03b4\u03c9\u03bd \u03b4\u03b5 \u03c4\u03bf\u03c5\u03c2 \u03bf\u03c7\u03bb\u03bf\u03c5\u03c2 \u03b1\u03bd\u03b5\u03b2\u03b7 \u03b5\u03b9\u03c2 \u03c4\u03bf \u03bf\u03c1\u03bf\u03c2 \u03ba\u03b1\u03b9 \u03ba\u03b1\u03b8\u03b9\u03c3\u03b1\u03bd\u03c4\u03bf\u03c2 \u03b1\u03c5\u03c4\u03bf\u03c5 \u03c0\u03c1\u03bf\u03c3\u03b7\u03bb\u03b8\u03bf\u03bd \u03b1\u03c5\u03c4\u03c9 \u03bf\u03b9 \u03bc\u03b1\u03b8\u03b7\u03c4\u03b1\u03b9 \u03b1\u03c5\u03c4\u03bf\u03c5 "
        },
        {
            "chapter": 5,
            "verse": 2,
            "name": "Matthew 5:2",
            "text": "\u03ba\u03b1\u03b9 \u03b1\u03bd\u03bf\u03b9\u03be\u03b1\u03c2 \u03c4\u03bf \u03c3\u03c4\u03bf\u03bc\u03b1 \u03b1\u03c5\u03c4\u03bf\u03c5 \u03b5\u03b4\u03b9\u03b4\u03b1\u03c3\u03ba\u03b5\u03bd \u03b1\u03c5\u03c4\u03bf\u03c5\u03c2 \u03bb\u03b5\u03b3\u03c9\u03bd "
        },
        {
            "chapter": 5,
            "verse": 3,
            "name": "Matthew 5:3",
            "text": "\u03bc\u03b1\u03ba\u03b1\u03c1\u03b9\u03bf\u03b9 \u03bf\u03b9 \u03c0\u03c4\u03c9\u03c7\u03bf\u03b9 \u03c4\u03c9 \u03c0\u03bd\u03b5\u03c5\u03bc\u03b1\u03c4\u03b9 \u03bf\u03c4\u03b9 \u03b1\u03c5\u03c4\u03c9\u03bd \u03b5\u03c3\u03c4\u03b9\u03bd \u03b7 \u03b2\u03b1\u03c3\u03b9\u03bb\u03b5\u03b9\u03b1 \u03c4\u03c9\u03bd \u03bf\u03c5\u03c1\u03b1\u03bd\u03c9\u03bd "
        },
        {
            "chapter": 5,
            "verse": 4,
            "name": "Matthew 5:4",
            "text": "\u03bc\u03b1\u03ba\u03b1\u03c1\u03b9\u03bf\u03b9 \u03bf\u03b9 \u03c0\u03b5\u03bd\u03b8\u03bf\u03c5\u03bd\u03c4\u03b5\u03c2 \u03bf\u03c4\u03b9 \u03b1\u03c5\u03c4\u03bf\u03b9 \u03c0\u03b1\u03c1\u03b1\u03ba\u03bb\u03b7\u03b8\u03b7\u03c3\u03bf\u03bd\u03c4\u03b1\u03b9 "
        },
        {
            "chapter": 5,
            "verse": 5,
            "name": "Matthew 5:5",
            "text": "\u03bc\u03b1\u03ba\u03b1\u03c1\u03b9\u03bf\u03b9 \u03bf\u03b9 \u03c0\u03c1\u03b1\u03b5\u03b9\u03c2 \u03bf\u03c4\u03b9 \u03b1\u03c5\u03c4\u03bf\u03b9 \u03ba\u03bb\u03b7\u03c1\u03bf\u03bd\u03bf\u03bc\u03b7\u03c3\u03bf\u03c5\u03c3\u03b9\u03bd \u03c4\u03b7\u03bd \u03b3\u03b7\u03bd "
        },
        {
            "chapter": 5,
            "verse": 6,
            "name": "Matthew 5:6",
            "text": "\u03bc\u03b1\u03ba\u03b1\u03c1\u03b9\u03bf\u03b9 \u03bf\u03b9 \u03c0\u03b5\u03b9\u03bd\u03c9\u03bd\u03c4\u03b5\u03c2 \u03ba\u03b1\u03b9 \u03b4\u03b9\u03c8\u03c9\u03bd\u03c4\u03b5\u03c2 \u03c4\u03b7\u03bd \u03b4\u03b9\u03ba\u03b1\u03b9\u03bf\u03c3\u03c5\u03bd\u03b7\u03bd \u03bf\u03c4\u03b9 \u03b1\u03c5\u03c4\u03bf\u03b9 \u03c7\u03bf\u03c1\u03c4\u03b1\u03c3\u03b8\u03b7\u03c3\u03bf\u03bd\u03c4\u03b1\u03b9 "
        },
        {
            "chapter": 5,
            "verse": 7,
            "name": "Matthew 5:7",
            "text": "\u03bc\u03b1\u03ba\u03b1\u03c1\u03b9\u03bf\u03b9 \u03bf\u03b9 \u03b5\u03bb\u03b5\u03b7\u03bc\u03bf\u03bd\u03b5\u03c2 \u03bf\u03c4\u03b9 \u03b1\u03c5\u03c4\u03bf\u03b9 \u03b5\u03bb\u03b5\u03b7\u03b8\u03b7\u03c3\u03bf\u03bd\u03c4\u03b1\u03b9 "
        },
        {
            "chapter": 5,
            "verse": 8,
            "name": "Matthew 5:8",
            "text": "\u03bc\u03b1\u03ba\u03b1\u03c1\u03b9\u03bf\u03b9 \u03bf\u03b9 \u03ba\u03b1\u03b8\u03b1\u03c1\u03bf\u03b9 \u03c4\u03b7 \u03ba\u03b1\u03c1\u03b4\u03b9\u03b1 \u03bf\u03c4\u03b9 \u03b1\u03c5\u03c4\u03bf\u03b9 \u03c4\u03bf\u03bd \u03b8\u03b5\u03bf\u03bd \u03bf\u03c8\u03bf\u03bd\u03c4\u03b1\u03b9 "
        },
        {
            "chapter": 5,
            "verse": 9,
            "name": "Matthew 5:9",
            "text": "\u03bc\u03b1\u03ba\u03b1\u03c1\u03b9\u03bf\u03b9 \u03bf\u03b9 \u03b5\u03b9\u03c1\u03b7\u03bd\u03bf\u03c0\u03bf\u03b9\u03bf\u03b9 \u03bf\u03c4\u03b9 \u03b1\u03c5\u03c4\u03bf\u03b9 \u03c5\u03b9\u03bf\u03b9 \u03b8\u03b5\u03bf\u03c5 \u03ba\u03bb\u03b7\u03b8\u03b7\u03c3\u03bf\u03bd\u03c4\u03b1\u03b9 "
        },
        {
            "chapter": 5,
            "verse": 10,
            "name": "Matthew 5:10",
            "text": "\u03bc\u03b1\u03ba\u03b1\u03c1\u03b9\u03bf\u03b9 \u03bf\u03b9 \u03b4\u03b5\u03b4\u03b9\u03c9\u03b3\u03bc\u03b5\u03bd\u03bf\u03b9 \u03b5\u03bd\u03b5\u03ba\u03b5\u03bd \u03b4\u03b9\u03ba\u03b1\u03b9\u03bf\u03c3\u03c5\u03bd\u03b7\u03c2 \u03bf\u03c4\u03b9 \u03b1\u03c5\u03c4\u03c9\u03bd \u03b5\u03c3\u03c4\u03b9\u03bd \u03b7 \u03b2\u03b1\u03c3\u03b9\u03bb\u03b5\u03b9\u03b1 \u03c4\u03c9\u03bd \u03bf\u03c5\u03c1\u03b1\u03bd\u03c9\u03bd "
        },
        {
            "chapter": 5,
            "verse": 11,
            "name": "Matthew 5:11",
            "text": "\u03bc\u03b1\u03ba\u03b1\u03c1\u03b9\u03bf\u03b9 \u03b5\u03c3\u03c4\u03b5 \u03bf\u03c4\u03b1\u03bd \u03bf\u03bd\u03b5\u03b9\u03b4\u03b9\u03c3\u03c9\u03c3\u03b9\u03bd \u03c5\u03bc\u03b1\u03c2 \u03ba\u03b1\u03b9 \u03b4\u03b9\u03c9\u03be\u03c9\u03c3\u03b9\u03bd \u03ba\u03b1\u03b9 \u03b5\u03b9\u03c0\u03c9\u03c3\u03b9\u03bd \u03c0\u03b1\u03bd \u03c0\u03bf\u03bd\u03b7\u03c1\u03bf\u03bd \u03c1\u03b7\u03bc\u03b1 \u03ba\u03b1\u03b8 \u03c5\u03bc\u03c9\u03bd \u03c8\u03b5\u03c5\u03b4\u03bf\u03bc\u03b5\u03bd\u03bf\u03b9 \u03b5\u03bd\u03b5\u03ba\u03b5\u03bd \u03b5\u03bc\u03bf\u03c5 "
        },
        {
            "chapter": 5,
            "verse": 12,
            "name": "Matthew 5:12",
            "text": "\u03c7\u03b1\u03b9\u03c1\u03b5\u03c4\u03b5 \u03ba\u03b1\u03b9 \u03b1\u03b3\u03b1\u03bb\u03bb\u03b9\u03b1\u03c3\u03b8\u03b5 \u03bf\u03c4\u03b9 \u03bf \u03bc\u03b9\u03c3\u03b8\u03bf\u03c2 \u03c5\u03bc\u03c9\u03bd \u03c0\u03bf\u03bb\u03c5\u03c2 \u03b5\u03bd \u03c4\u03bf\u03b9\u03c2 \u03bf\u03c5\u03c1\u03b1\u03bd\u03bf\u03b9\u03c2 \u03bf\u03c5\u03c4\u03c9\u03c2 \u03b3\u03b1\u03c1 \u03b5\u03b4\u03b9\u03c9\u03be\u03b1\u03bd \u03c4\u03bf\u03c5\u03c2 \u03c0\u03c1\u03bf\u03c6\u03b7\u03c4\u03b1\u03c2 \u03c4\u03bf\u03c5\u03c2 \u03c0\u03c1\u03bf \u03c5\u03bc\u03c9\u03bd "
        },
        {
            "chapter": 5,
            "verse": 13,
            "name": "Matthew 5:13",
            "text": "\u03c5\u03bc\u03b5\u03b9\u03c2 \u03b5\u03c3\u03c4\u03b5 \u03c4\u03bf \u03b1\u03bb\u03b1\u03c2 \u03c4\u03b7\u03c2 \u03b3\u03b7\u03c2 \u03b5\u03b1\u03bd \u03b4\u03b5 \u03c4\u03bf \u03b1\u03bb\u03b1\u03c2 \u03bc\u03c9\u03c1\u03b1\u03bd\u03b8\u03b7 \u03b5\u03bd \u03c4\u03b9\u03bd\u03b9 \u03b1\u03bb\u03b9\u03c3\u03b8\u03b7\u03c3\u03b5\u03c4\u03b1\u03b9 \u03b5\u03b9\u03c2 \u03bf\u03c5\u03b4\u03b5\u03bd \u03b9\u03c3\u03c7\u03c5\u03b5\u03b9 \u03b5\u03c4\u03b9 \u03b5\u03b9 \u03bc\u03b7 \u03b2\u03bb\u03b7\u03b8\u03b7\u03bd\u03b1\u03b9 \u03b5\u03be\u03c9 \u03ba\u03b1\u03b9 \u03ba\u03b1\u03c4\u03b1\u03c0\u03b1\u03c4\u03b5\u03b9\u03c3\u03b8\u03b1\u03b9 \u03c5\u03c0\u03bf \u03c4\u03c9\u03bd \u03b1\u03bd\u03b8\u03c1\u03c9\u03c0\u03c9\u03bd "
        },
        {
            "chapter": 5,
            "verse": 14,
            "name": "Matthew 5:14",
            "text": "\u03c5\u03bc\u03b5\u03b9\u03c2 \u03b5\u03c3\u03c4\u03b5 \u03c4\u03bf \u03c6\u03c9\u03c2 \u03c4\u03bf\u03c5 \u03ba\u03bf\u03c3\u03bc\u03bf\u03c5 \u03bf\u03c5 \u03b4\u03c5\u03bd\u03b1\u03c4\u03b1\u03b9 \u03c0\u03bf\u03bb\u03b9\u03c2 \u03ba\u03c1\u03c5\u03b2\u03b7\u03bd\u03b1\u03b9 \u03b5\u03c0\u03b1\u03bd\u03c9 \u03bf\u03c1\u03bf\u03c5\u03c2 \u03ba\u03b5\u03b9\u03bc\u03b5\u03bd\u03b7 "
        },
        {
            "chapter": 5,
            "verse": 15,
            "name": "Matthew 5:15",
            "text": "\u03bf\u03c5\u03b4\u03b5 \u03ba\u03b1\u03b9\u03bf\u03c5\u03c3\u03b9\u03bd \u03bb\u03c5\u03c7\u03bd\u03bf\u03bd \u03ba\u03b1\u03b9 \u03c4\u03b9\u03b8\u03b5\u03b1\u03c3\u03b9\u03bd \u03b1\u03c5\u03c4\u03bf\u03bd \u03c5\u03c0\u03bf \u03c4\u03bf\u03bd \u03bc\u03bf\u03b4\u03b9\u03bf\u03bd \u03b1\u03bb\u03bb \u03b5\u03c0\u03b9 \u03c4\u03b7\u03bd \u03bb\u03c5\u03c7\u03bd\u03b9\u03b1\u03bd \u03ba\u03b1\u03b9 \u03bb\u03b1\u03bc\u03c0\u03b5\u03b9 \u03c0\u03b1\u03c3\u03b9\u03bd \u03c4\u03bf\u03b9\u03c2 \u03b5\u03bd \u03c4\u03b7 \u03bf\u03b9\u03ba\u03b9\u03b1 "
        },
        {
            "chapter": 5,
            "verse": 16,
            "name": "Matthew 5:16",
            "text": "\u03bf\u03c5\u03c4\u03c9\u03c2 \u03bb\u03b1\u03bc\u03c8\u03b1\u03c4\u03c9 \u03c4\u03bf \u03c6\u03c9\u03c2 \u03c5\u03bc\u03c9\u03bd \u03b5\u03bc\u03c0\u03c1\u03bf\u03c3\u03b8\u03b5\u03bd \u03c4\u03c9\u03bd \u03b1\u03bd\u03b8\u03c1\u03c9\u03c0\u03c9\u03bd \u03bf\u03c0\u03c9\u03c2 \u03b9\u03b4\u03c9\u03c3\u03b9\u03bd \u03c5\u03bc\u03c9\u03bd \u03c4\u03b1 \u03ba\u03b1\u03bb\u03b1 \u03b5\u03c1\u03b3\u03b1 \u03ba\u03b1\u03b9 \u03b4\u03bf\u03be\u03b1\u03c3\u03c9\u03c3\u03b9\u03bd \u03c4\u03bf\u03bd \u03c0\u03b1\u03c4\u03b5\u03c1\u03b1 \u03c5\u03bc\u03c9\u03bd \u03c4\u03bf\u03bd \u03b5\u03bd \u03c4\u03bf\u03b9\u03c2 \u03bf\u03c5\u03c1\u03b1\u03bd\u03bf\u03b9\u03c2 "
        },
        {
            "chapter": 5,
            "verse": 17,
            "name": "Matthew 5:17",
            "text": "\u03bc\u03b7 \u03bd\u03bf\u03bc\u03b9\u03c3\u03b7\u03c4\u03b5 \u03bf\u03c4\u03b9 \u03b7\u03bb\u03b8\u03bf\u03bd \u03ba\u03b1\u03c4\u03b1\u03bb\u03c5\u03c3\u03b1\u03b9 \u03c4\u03bf\u03bd \u03bd\u03bf\u03bc\u03bf\u03bd \u03b7 \u03c4\u03bf\u03c5\u03c2 \u03c0\u03c1\u03bf\u03c6\u03b7\u03c4\u03b1\u03c2 \u03bf\u03c5\u03ba \u03b7\u03bb\u03b8\u03bf\u03bd \u03ba\u03b1\u03c4\u03b1\u03bb\u03c5\u03c3\u03b1\u03b9 \u03b1\u03bb\u03bb\u03b1 \u03c0\u03bb\u03b7\u03c1\u03c9\u03c3\u03b1\u03b9 "
        },
        {
            "chapter": 5,
            "verse": 18,
            "name": "Matthew 5:18",
            "text": "\u03b1\u03bc\u03b7\u03bd \u03b3\u03b1\u03c1 \u03bb\u03b5\u03b3\u03c9 \u03c5\u03bc\u03b9\u03bd \u03b5\u03c9\u03c2 \u03b1\u03bd \u03c0\u03b1\u03c1\u03b5\u03bb\u03b8\u03b7 \u03bf \u03bf\u03c5\u03c1\u03b1\u03bd\u03bf\u03c2 \u03ba\u03b1\u03b9 \u03b7 \u03b3\u03b7 \u03b9\u03c9\u03c4\u03b1 \u03b5\u03bd \u03b7 \u03bc\u03b9\u03b1 \u03ba\u03b5\u03c1\u03b1\u03b9\u03b1 \u03bf\u03c5 \u03bc\u03b7 \u03c0\u03b1\u03c1\u03b5\u03bb\u03b8\u03b7 \u03b1\u03c0\u03bf \u03c4\u03bf\u03c5 \u03bd\u03bf\u03bc\u03bf\u03c5 \u03b5\u03c9\u03c2 \u03b1\u03bd \u03c0\u03b1\u03bd\u03c4\u03b1 \u03b3\u03b5\u03bd\u03b7\u03c4\u03b1\u03b9 "
        },
        {
            "chapter": 5,
            "verse": 19,
            "name": "Matthew 5:19",
            "text": "\u03bf\u03c2 \u03b5\u03b1\u03bd \u03bf\u03c5\u03bd \u03bb\u03c5\u03c3\u03b7 \u03bc\u03b9\u03b1\u03bd \u03c4\u03c9\u03bd \u03b5\u03bd\u03c4\u03bf\u03bb\u03c9\u03bd \u03c4\u03bf\u03c5\u03c4\u03c9\u03bd \u03c4\u03c9\u03bd \u03b5\u03bb\u03b1\u03c7\u03b9\u03c3\u03c4\u03c9\u03bd \u03ba\u03b1\u03b9 \u03b4\u03b9\u03b4\u03b1\u03be\u03b7 \u03bf\u03c5\u03c4\u03c9\u03c2 \u03c4\u03bf\u03c5\u03c2 \u03b1\u03bd\u03b8\u03c1\u03c9\u03c0\u03bf\u03c5\u03c2 \u03b5\u03bb\u03b1\u03c7\u03b9\u03c3\u03c4\u03bf\u03c2 \u03ba\u03bb\u03b7\u03b8\u03b7\u03c3\u03b5\u03c4\u03b1\u03b9 \u03b5\u03bd \u03c4\u03b7 \u03b2\u03b1\u03c3\u03b9\u03bb\u03b5\u03b9\u03b1 \u03c4\u03c9\u03bd \u03bf\u03c5\u03c1\u03b1\u03bd\u03c9\u03bd \u03bf\u03c2 \u03b4 \u03b1\u03bd \u03c0\u03bf\u03b9\u03b7\u03c3\u03b7 \u03ba\u03b1\u03b9 \u03b4\u03b9\u03b4\u03b1\u03be\u03b7 \u03bf\u03c5\u03c4\u03bf\u03c2 \u03bc\u03b5\u03b3\u03b1\u03c2 \u03ba\u03bb\u03b7\u03b8\u03b7\u03c3\u03b5\u03c4\u03b1\u03b9 \u03b5\u03bd \u03c4\u03b7 \u03b2\u03b1\u03c3\u03b9\u03bb\u03b5\u03b9\u03b1 \u03c4\u03c9\u03bd \u03bf\u03c5\u03c1\u03b1\u03bd\u03c9\u03bd "
        },
        {
            "chapter": 5,
            "verse": 20,
            "name": "Matthew 5:20",
            "text": "\u03bb\u03b5\u03b3\u03c9 \u03b3\u03b1\u03c1 \u03c5\u03bc\u03b9\u03bd \u03bf\u03c4\u03b9 \u03b5\u03b1\u03bd \u03bc\u03b7 \u03c0\u03b5\u03c1\u03b9\u03c3\u03c3\u03b5\u03c5\u03c3\u03b7 \u03b7 \u03b4\u03b9\u03ba\u03b1\u03b9\u03bf\u03c3\u03c5\u03bd\u03b7 \u03c5\u03bc\u03c9\u03bd \u03c0\u03bb\u03b5\u03b9\u03bf\u03bd \u03c4\u03c9\u03bd \u03b3\u03c1\u03b1\u03bc\u03bc\u03b1\u03c4\u03b5\u03c9\u03bd \u03ba\u03b1\u03b9 \u03c6\u03b1\u03c1\u03b9\u03c3\u03b1\u03b9\u03c9\u03bd \u03bf\u03c5 \u03bc\u03b7 \u03b5\u03b9\u03c3\u03b5\u03bb\u03b8\u03b7\u03c4\u03b5 \u03b5\u03b9\u03c2 \u03c4\u03b7\u03bd \u03b2\u03b1\u03c3\u03b9\u03bb\u03b5\u03b9\u03b1\u03bd \u03c4\u03c9\u03bd \u03bf\u03c5\u03c1\u03b1\u03bd\u03c9\u03bd "
        },
        {
            "chapter": 5,
            "verse": 21,
            "name": "Matthew 5:21",
            "text": "\u03b7\u03ba\u03bf\u03c5\u03c3\u03b1\u03c4\u03b5 \u03bf\u03c4\u03b9 \u03b5\u03c1\u03c1\u03b5\u03b8\u03b7 \u03c4\u03bf\u03b9\u03c2 \u03b1\u03c1\u03c7\u03b1\u03b9\u03bf\u03b9\u03c2 \u03bf\u03c5 \u03c6\u03bf\u03bd\u03b5\u03c5\u03c3\u03b5\u03b9\u03c2 \u03bf\u03c2 \u03b4 \u03b1\u03bd \u03c6\u03bf\u03bd\u03b5\u03c5\u03c3\u03b7 \u03b5\u03bd\u03bf\u03c7\u03bf\u03c2 \u03b5\u03c3\u03c4\u03b1\u03b9 \u03c4\u03b7 \u03ba\u03c1\u03b9\u03c3\u03b5\u03b9 "
        },
        {
            "chapter": 5,
            "verse": 22,
            "name": "Matthew 5:22",
            "text": "\u03b5\u03b3\u03c9 \u03b4\u03b5 \u03bb\u03b5\u03b3\u03c9 \u03c5\u03bc\u03b9\u03bd \u03bf\u03c4\u03b9 \u03c0\u03b1\u03c2 \u03bf \u03bf\u03c1\u03b3\u03b9\u03b6\u03bf\u03bc\u03b5\u03bd\u03bf\u03c2 \u03c4\u03c9 \u03b1\u03b4\u03b5\u03bb\u03c6\u03c9 \u03b1\u03c5\u03c4\u03bf\u03c5 \u03b5\u03b9\u03ba\u03b7 \u03b5\u03bd\u03bf\u03c7\u03bf\u03c2 \u03b5\u03c3\u03c4\u03b1\u03b9 \u03c4\u03b7 \u03ba\u03c1\u03b9\u03c3\u03b5\u03b9 \u03bf\u03c2 \u03b4 \u03b1\u03bd \u03b5\u03b9\u03c0\u03b7 \u03c4\u03c9 \u03b1\u03b4\u03b5\u03bb\u03c6\u03c9 \u03b1\u03c5\u03c4\u03bf\u03c5 \u03c1\u03b1\u03ba\u03b1 \u03b5\u03bd\u03bf\u03c7\u03bf\u03c2 \u03b5\u03c3\u03c4\u03b1\u03b9 \u03c4\u03c9 \u03c3\u03c5\u03bd\u03b5\u03b4\u03c1\u03b9\u03c9 \u03bf\u03c2 \u03b4 \u03b1\u03bd \u03b5\u03b9\u03c0\u03b7 \u03bc\u03c9\u03c1\u03b5 \u03b5\u03bd\u03bf\u03c7\u03bf\u03c2 \u03b5\u03c3\u03c4\u03b1\u03b9 \u03b5\u03b9\u03c2 \u03c4\u03b7\u03bd \u03b3\u03b5\u03b5\u03bd\u03bd\u03b1\u03bd \u03c4\u03bf\u03c5 \u03c0\u03c5\u03c1\u03bf\u03c2 "
        },
        {
            "chapter": 5,
            "verse": 23,
            "name": "Matthew 5:23",
            "text": "\u03b5\u03b1\u03bd \u03bf\u03c5\u03bd \u03c0\u03c1\u03bf\u03c3\u03c6\u03b5\u03c1\u03b7\u03c2 \u03c4\u03bf \u03b4\u03c9\u03c1\u03bf\u03bd \u03c3\u03bf\u03c5 \u03b5\u03c0\u03b9 \u03c4\u03bf \u03b8\u03c5\u03c3\u03b9\u03b1\u03c3\u03c4\u03b7\u03c1\u03b9\u03bf\u03bd \u03ba\u03b1\u03b9 \u03b5\u03ba\u03b5\u03b9 \u03bc\u03bd\u03b7\u03c3\u03b8\u03b7\u03c2 \u03bf\u03c4\u03b9 \u03bf \u03b1\u03b4\u03b5\u03bb\u03c6\u03bf\u03c2 \u03c3\u03bf\u03c5 \u03b5\u03c7\u03b5\u03b9 \u03c4\u03b9 \u03ba\u03b1\u03c4\u03b1 \u03c3\u03bf\u03c5 "
        },
        {
            "chapter": 5,
            "verse": 24,
            "name": "Matthew 5:24",
            "text": "\u03b1\u03c6\u03b5\u03c2 \u03b5\u03ba\u03b5\u03b9 \u03c4\u03bf \u03b4\u03c9\u03c1\u03bf\u03bd \u03c3\u03bf\u03c5 \u03b5\u03bc\u03c0\u03c1\u03bf\u03c3\u03b8\u03b5\u03bd \u03c4\u03bf\u03c5 \u03b8\u03c5\u03c3\u03b9\u03b1\u03c3\u03c4\u03b7\u03c1\u03b9\u03bf\u03c5 \u03ba\u03b1\u03b9 \u03c5\u03c0\u03b1\u03b3\u03b5 \u03c0\u03c1\u03c9\u03c4\u03bf\u03bd \u03b4\u03b9\u03b1\u03bb\u03bb\u03b1\u03b3\u03b7\u03b8\u03b9 \u03c4\u03c9 \u03b1\u03b4\u03b5\u03bb\u03c6\u03c9 \u03c3\u03bf\u03c5 \u03ba\u03b1\u03b9 \u03c4\u03bf\u03c4\u03b5 \u03b5\u03bb\u03b8\u03c9\u03bd \u03c0\u03c1\u03bf\u03c3\u03c6\u03b5\u03c1\u03b5 \u03c4\u03bf \u03b4\u03c9\u03c1\u03bf\u03bd \u03c3\u03bf\u03c5 "
        },
        {
            "chapter": 5,
            "verse": 25,
            "name": "Matthew 5:25",
            "text": "\u03b9\u03c3\u03b8\u03b9 \u03b5\u03c5\u03bd\u03bf\u03c9\u03bd \u03c4\u03c9 \u03b1\u03bd\u03c4\u03b9\u03b4\u03b9\u03ba\u03c9 \u03c3\u03bf\u03c5 \u03c4\u03b1\u03c7\u03c5 \u03b5\u03c9\u03c2 \u03bf\u03c4\u03bf\u03c5 \u03b5\u03b9 \u03b5\u03bd \u03c4\u03b7 \u03bf\u03b4\u03c9 \u03bc\u03b5\u03c4 \u03b1\u03c5\u03c4\u03bf\u03c5 \u03bc\u03b7\u03c0\u03bf\u03c4\u03b5 \u03c3\u03b5 \u03c0\u03b1\u03c1\u03b1\u03b4\u03c9 \u03bf \u03b1\u03bd\u03c4\u03b9\u03b4\u03b9\u03ba\u03bf\u03c2 \u03c4\u03c9 \u03ba\u03c1\u03b9\u03c4\u03b7 \u03ba\u03b1\u03b9 \u03bf \u03ba\u03c1\u03b9\u03c4\u03b7\u03c2 \u03c3\u03b5 \u03c0\u03b1\u03c1\u03b1\u03b4\u03c9 \u03c4\u03c9 \u03c5\u03c0\u03b7\u03c1\u03b5\u03c4\u03b7 \u03ba\u03b1\u03b9 \u03b5\u03b9\u03c2 \u03c6\u03c5\u03bb\u03b1\u03ba\u03b7\u03bd \u03b2\u03bb\u03b7\u03b8\u03b7\u03c3\u03b7 "
        },
        {
            "chapter": 5,
            "verse": 26,
            "name": "Matthew 5:26",
            "text": "\u03b1\u03bc\u03b7\u03bd \u03bb\u03b5\u03b3\u03c9 \u03c3\u03bf\u03b9 \u03bf\u03c5 \u03bc\u03b7 \u03b5\u03be\u03b5\u03bb\u03b8\u03b7\u03c2 \u03b5\u03ba\u03b5\u03b9\u03b8\u03b5\u03bd \u03b5\u03c9\u03c2 \u03b1\u03bd \u03b1\u03c0\u03bf\u03b4\u03c9\u03c2 \u03c4\u03bf\u03bd \u03b5\u03c3\u03c7\u03b1\u03c4\u03bf\u03bd \u03ba\u03bf\u03b4\u03c1\u03b1\u03bd\u03c4\u03b7\u03bd "
        },
        {
            "chapter": 5,
            "verse": 27,
            "name": "Matthew 5:27",
            "text": "\u03b7\u03ba\u03bf\u03c5\u03c3\u03b1\u03c4\u03b5 \u03bf\u03c4\u03b9 \u03b5\u03c1\u03c1\u03b5\u03b8\u03b7 \u03bf\u03c5 \u03bc\u03bf\u03b9\u03c7\u03b5\u03c5\u03c3\u03b5\u03b9\u03c2 "
        },
        {
            "chapter": 5,
            "verse": 28,
            "name": "Matthew 5:28",
            "text": "\u03b5\u03b3\u03c9 \u03b4\u03b5 \u03bb\u03b5\u03b3\u03c9 \u03c5\u03bc\u03b9\u03bd \u03bf\u03c4\u03b9 \u03c0\u03b1\u03c2 \u03bf \u03b2\u03bb\u03b5\u03c0\u03c9\u03bd \u03b3\u03c5\u03bd\u03b1\u03b9\u03ba\u03b1 \u03c0\u03c1\u03bf\u03c2 \u03c4\u03bf \u03b5\u03c0\u03b9\u03b8\u03c5\u03bc\u03b7\u03c3\u03b1\u03b9 \u03b1\u03c5\u03c4\u03b7\u03bd \u03b7\u03b4\u03b7 \u03b5\u03bc\u03bf\u03b9\u03c7\u03b5\u03c5\u03c3\u03b5\u03bd \u03b1\u03c5\u03c4\u03b7\u03bd \u03b5\u03bd \u03c4\u03b7 \u03ba\u03b1\u03c1\u03b4\u03b9\u03b1 \u03b1\u03c5\u03c4\u03bf\u03c5 "
        },
        {
            "chapter": 5,
            "verse": 29,
            "name": "Matthew 5:29",
            "text": "\u03b5\u03b9 \u03b4\u03b5 \u03bf \u03bf\u03c6\u03b8\u03b1\u03bb\u03bc\u03bf\u03c2 \u03c3\u03bf\u03c5 \u03bf \u03b4\u03b5\u03be\u03b9\u03bf\u03c2 \u03c3\u03ba\u03b1\u03bd\u03b4\u03b1\u03bb\u03b9\u03b6\u03b5\u03b9 \u03c3\u03b5 \u03b5\u03be\u03b5\u03bb\u03b5 \u03b1\u03c5\u03c4\u03bf\u03bd \u03ba\u03b1\u03b9 \u03b2\u03b1\u03bb\u03b5 \u03b1\u03c0\u03bf \u03c3\u03bf\u03c5 \u03c3\u03c5\u03bc\u03c6\u03b5\u03c1\u03b5\u03b9 \u03b3\u03b1\u03c1 \u03c3\u03bf\u03b9 \u03b9\u03bd\u03b1 \u03b1\u03c0\u03bf\u03bb\u03b7\u03c4\u03b1\u03b9 \u03b5\u03bd \u03c4\u03c9\u03bd \u03bc\u03b5\u03bb\u03c9\u03bd \u03c3\u03bf\u03c5 \u03ba\u03b1\u03b9 \u03bc\u03b7 \u03bf\u03bb\u03bf\u03bd \u03c4\u03bf \u03c3\u03c9\u03bc\u03b1 \u03c3\u03bf\u03c5 \u03b2\u03bb\u03b7\u03b8\u03b7 \u03b5\u03b9\u03c2 \u03b3\u03b5\u03b5\u03bd\u03bd\u03b1\u03bd "
        },
        {
            "chapter": 5,
            "verse": 30,
            "name": "Matthew 5:30",
            "text": "\u03ba\u03b1\u03b9 \u03b5\u03b9 \u03b7 \u03b4\u03b5\u03be\u03b9\u03b1 \u03c3\u03bf\u03c5 \u03c7\u03b5\u03b9\u03c1 \u03c3\u03ba\u03b1\u03bd\u03b4\u03b1\u03bb\u03b9\u03b6\u03b5\u03b9 \u03c3\u03b5 \u03b5\u03ba\u03ba\u03bf\u03c8\u03bf\u03bd \u03b1\u03c5\u03c4\u03b7\u03bd \u03ba\u03b1\u03b9 \u03b2\u03b1\u03bb\u03b5 \u03b1\u03c0\u03bf \u03c3\u03bf\u03c5 \u03c3\u03c5\u03bc\u03c6\u03b5\u03c1\u03b5\u03b9 \u03b3\u03b1\u03c1 \u03c3\u03bf\u03b9 \u03b9\u03bd\u03b1 \u03b1\u03c0\u03bf\u03bb\u03b7\u03c4\u03b1\u03b9 \u03b5\u03bd \u03c4\u03c9\u03bd \u03bc\u03b5\u03bb\u03c9\u03bd \u03c3\u03bf\u03c5 \u03ba\u03b1\u03b9 \u03bc\u03b7 \u03bf\u03bb\u03bf\u03bd \u03c4\u03bf \u03c3\u03c9\u03bc\u03b1 \u03c3\u03bf\u03c5 \u03b2\u03bb\u03b7\u03b8\u03b7 \u03b5\u03b9\u03c2 \u03b3\u03b5\u03b5\u03bd\u03bd\u03b1\u03bd "
        },
        {
            "chapter": 5,
            "verse": 31,
            "name": "Matthew 5:31",
            "text": "\u03b5\u03c1\u03c1\u03b5\u03b8\u03b7 \u03b4\u03b5 \u03bf\u03c4\u03b9 \u03bf\u03c2 \u03b1\u03bd \u03b1\u03c0\u03bf\u03bb\u03c5\u03c3\u03b7 \u03c4\u03b7\u03bd \u03b3\u03c5\u03bd\u03b1\u03b9\u03ba\u03b1 \u03b1\u03c5\u03c4\u03bf\u03c5 \u03b4\u03bf\u03c4\u03c9 \u03b1\u03c5\u03c4\u03b7 \u03b1\u03c0\u03bf\u03c3\u03c4\u03b1\u03c3\u03b9\u03bf\u03bd "
        },
        {
            "chapter": 5,
            "verse": 32,
            "name": "Matthew 5:32",
            "text": "\u03b5\u03b3\u03c9 \u03b4\u03b5 \u03bb\u03b5\u03b3\u03c9 \u03c5\u03bc\u03b9\u03bd \u03bf\u03c4\u03b9 \u03bf\u03c2 \u03b1\u03bd \u03b1\u03c0\u03bf\u03bb\u03c5\u03c3\u03b7 \u03c4\u03b7\u03bd \u03b3\u03c5\u03bd\u03b1\u03b9\u03ba\u03b1 \u03b1\u03c5\u03c4\u03bf\u03c5 \u03c0\u03b1\u03c1\u03b5\u03ba\u03c4\u03bf\u03c2 \u03bb\u03bf\u03b3\u03bf\u03c5 \u03c0\u03bf\u03c1\u03bd\u03b5\u03b9\u03b1\u03c2 \u03c0\u03bf\u03b9\u03b5\u03b9 \u03b1\u03c5\u03c4\u03b7\u03bd \u03bc\u03bf\u03b9\u03c7\u03b1\u03c3\u03b8\u03b1\u03b9 \u03ba\u03b1\u03b9 \u03bf\u03c2 \u03b5\u03b1\u03bd \u03b1\u03c0\u03bf\u03bb\u03b5\u03bb\u03c5\u03bc\u03b5\u03bd\u03b7\u03bd \u03b3\u03b1\u03bc\u03b7\u03c3\u03b7 \u03bc\u03bf\u03b9\u03c7\u03b1\u03c4\u03b1\u03b9 "
        },
        {
            "chapter": 5,
            "verse": 33,
            "name": "Matthew 5:33",
            "text": "\u03c0\u03b1\u03bb\u03b9\u03bd \u03b7\u03ba\u03bf\u03c5\u03c3\u03b1\u03c4\u03b5 \u03bf\u03c4\u03b9 \u03b5\u03c1\u03c1\u03b5\u03b8\u03b7 \u03c4\u03bf\u03b9\u03c2 \u03b1\u03c1\u03c7\u03b1\u03b9\u03bf\u03b9\u03c2 \u03bf\u03c5\u03ba \u03b5\u03c0\u03b9\u03bf\u03c1\u03ba\u03b7\u03c3\u03b5\u03b9\u03c2 \u03b1\u03c0\u03bf\u03b4\u03c9\u03c3\u03b5\u03b9\u03c2 \u03b4\u03b5 \u03c4\u03c9 \u03ba\u03c5\u03c1\u03b9\u03c9 \u03c4\u03bf\u03c5\u03c2 \u03bf\u03c1\u03ba\u03bf\u03c5\u03c2 \u03c3\u03bf\u03c5 "
        },
        {
            "chapter": 5,
            "verse": 34,
            "name": "Matthew 5:34",
            "text": "\u03b5\u03b3\u03c9 \u03b4\u03b5 \u03bb\u03b5\u03b3\u03c9 \u03c5\u03bc\u03b9\u03bd \u03bc\u03b7 \u03bf\u03bc\u03bf\u03c3\u03b1\u03b9 \u03bf\u03bb\u03c9\u03c2 \u03bc\u03b7\u03c4\u03b5 \u03b5\u03bd \u03c4\u03c9 \u03bf\u03c5\u03c1\u03b1\u03bd\u03c9 \u03bf\u03c4\u03b9 \u03b8\u03c1\u03bf\u03bd\u03bf\u03c2 \u03b5\u03c3\u03c4\u03b9\u03bd \u03c4\u03bf\u03c5 \u03b8\u03b5\u03bf\u03c5 "
        },
        {
            "chapter": 5,
            "verse": 35,
            "name": "Matthew 5:35",
            "text": "\u03bc\u03b7\u03c4\u03b5 \u03b5\u03bd \u03c4\u03b7 \u03b3\u03b7 \u03bf\u03c4\u03b9 \u03c5\u03c0\u03bf\u03c0\u03bf\u03b4\u03b9\u03bf\u03bd \u03b5\u03c3\u03c4\u03b9\u03bd \u03c4\u03c9\u03bd \u03c0\u03bf\u03b4\u03c9\u03bd \u03b1\u03c5\u03c4\u03bf\u03c5 \u03bc\u03b7\u03c4\u03b5 \u03b5\u03b9\u03c2 \u03b9\u03b5\u03c1\u03bf\u03c3\u03bf\u03bb\u03c5\u03bc\u03b1 \u03bf\u03c4\u03b9 \u03c0\u03bf\u03bb\u03b9\u03c2 \u03b5\u03c3\u03c4\u03b9\u03bd \u03c4\u03bf\u03c5 \u03bc\u03b5\u03b3\u03b1\u03bb\u03bf\u03c5 \u03b2\u03b1\u03c3\u03b9\u03bb\u03b5\u03c9\u03c2 "
        },
        {
            "chapter": 5,
            "verse": 36,
            "name": "Matthew 5:36",
            "text": "\u03bc\u03b7\u03c4\u03b5 \u03b5\u03bd \u03c4\u03b7 \u03ba\u03b5\u03c6\u03b1\u03bb\u03b7 \u03c3\u03bf\u03c5 \u03bf\u03bc\u03bf\u03c3\u03b7\u03c2 \u03bf\u03c4\u03b9 \u03bf\u03c5 \u03b4\u03c5\u03bd\u03b1\u03c3\u03b1\u03b9 \u03bc\u03b9\u03b1\u03bd \u03c4\u03c1\u03b9\u03c7\u03b1 \u03bb\u03b5\u03c5\u03ba\u03b7\u03bd \u03b7 \u03bc\u03b5\u03bb\u03b1\u03b9\u03bd\u03b1\u03bd \u03c0\u03bf\u03b9\u03b7\u03c3\u03b1\u03b9 "
        },
        {
            "chapter": 5,
            "verse": 37,
            "name": "Matthew 5:37",
            "text": "\u03b5\u03c3\u03c4\u03c9 \u03b4\u03b5 \u03bf \u03bb\u03bf\u03b3\u03bf\u03c2 \u03c5\u03bc\u03c9\u03bd \u03bd\u03b1\u03b9 \u03bd\u03b1\u03b9 \u03bf\u03c5 \u03bf\u03c5 \u03c4\u03bf \u03b4\u03b5 \u03c0\u03b5\u03c1\u03b9\u03c3\u03c3\u03bf\u03bd \u03c4\u03bf\u03c5\u03c4\u03c9\u03bd \u03b5\u03ba \u03c4\u03bf\u03c5 \u03c0\u03bf\u03bd\u03b7\u03c1\u03bf\u03c5 \u03b5\u03c3\u03c4\u03b9\u03bd "
        },
        {
            "chapter": 5,
            "verse": 38,
            "name": "Matthew 5:38",
            "text": "\u03b7\u03ba\u03bf\u03c5\u03c3\u03b1\u03c4\u03b5 \u03bf\u03c4\u03b9 \u03b5\u03c1\u03c1\u03b5\u03b8\u03b7 \u03bf\u03c6\u03b8\u03b1\u03bb\u03bc\u03bf\u03bd \u03b1\u03bd\u03c4\u03b9 \u03bf\u03c6\u03b8\u03b1\u03bb\u03bc\u03bf\u03c5 \u03ba\u03b1\u03b9 \u03bf\u03b4\u03bf\u03bd\u03c4\u03b1 \u03b1\u03bd\u03c4\u03b9 \u03bf\u03b4\u03bf\u03bd\u03c4\u03bf\u03c2 "
        },
        {
            "chapter": 5,
            "verse": 39,
            "name": "Matthew 5:39",
            "text": "\u03b5\u03b3\u03c9 \u03b4\u03b5 \u03bb\u03b5\u03b3\u03c9 \u03c5\u03bc\u03b9\u03bd \u03bc\u03b7 \u03b1\u03bd\u03c4\u03b9\u03c3\u03c4\u03b7\u03bd\u03b1\u03b9 \u03c4\u03c9 \u03c0\u03bf\u03bd\u03b7\u03c1\u03c9 \u03b1\u03bb\u03bb \u03bf\u03c3\u03c4\u03b9\u03c2 \u03c3\u03b5 \u03c1\u03b1\u03c0\u03b9\u03c3\u03b5\u03b9 \u03b5\u03c0\u03b9 \u03c4\u03b7\u03bd \u03b4\u03b5\u03be\u03b9\u03b1\u03bd \u03b4\u03b5\u03be\u03b9\u03b1\u03bd \u03c3\u03bf\u03c5 \u03c3\u03b9\u03b1\u03b3\u03bf\u03bd\u03b1 \u03c3\u03c4\u03c1\u03b5\u03c8\u03bf\u03bd \u03b1\u03c5\u03c4\u03c9 \u03ba\u03b1\u03b9 \u03c4\u03b7\u03bd \u03b1\u03bb\u03bb\u03b7\u03bd "
        },
        {
            "chapter": 5,
            "verse": 40,
            "name": "Matthew 5:40",
            "text": "\u03ba\u03b1\u03b9 \u03c4\u03c9 \u03b8\u03b5\u03bb\u03bf\u03bd\u03c4\u03b9 \u03c3\u03bf\u03b9 \u03ba\u03c1\u03b9\u03b8\u03b7\u03bd\u03b1\u03b9 \u03ba\u03b1\u03b9 \u03c4\u03bf\u03bd \u03c7\u03b9\u03c4\u03c9\u03bd\u03b1 \u03c3\u03bf\u03c5 \u03bb\u03b1\u03b2\u03b5\u03b9\u03bd \u03b1\u03c6\u03b5\u03c2 \u03b1\u03c5\u03c4\u03c9 \u03ba\u03b1\u03b9 \u03c4\u03bf \u03b9\u03bc\u03b1\u03c4\u03b9\u03bf\u03bd "
        },
        {
            "chapter": 5,
            "verse": 41,
            "name": "Matthew 5:41",
            "text": "\u03ba\u03b1\u03b9 \u03bf\u03c3\u03c4\u03b9\u03c2 \u03c3\u03b5 \u03b1\u03b3\u03b3\u03b1\u03c1\u03b5\u03c5\u03c3\u03b5\u03b9 \u03bc\u03b9\u03bb\u03b9\u03bf\u03bd \u03b5\u03bd \u03c5\u03c0\u03b1\u03b3\u03b5 \u03bc\u03b5\u03c4 \u03b1\u03c5\u03c4\u03bf\u03c5 \u03b4\u03c5\u03bf "
        },
        {
            "chapter": 5,
            "verse": 42,
            "name": "Matthew 5:42",
            "text": "\u03c4\u03c9 \u03b1\u03b9\u03c4\u03bf\u03c5\u03bd\u03c4\u03b9 \u03c3\u03b5 \u03b4\u03b9\u03b4\u03bf\u03c5 \u03ba\u03b1\u03b9 \u03c4\u03bf\u03bd \u03b8\u03b5\u03bb\u03bf\u03bd\u03c4\u03b1 \u03b1\u03c0\u03bf \u03c3\u03bf\u03c5 \u03b4\u03b1\u03bd\u03b5\u03b9\u03c3\u03b1\u03c3\u03b8\u03b1\u03b9 \u03bc\u03b7 \u03b1\u03c0\u03bf\u03c3\u03c4\u03c1\u03b1\u03c6\u03b7\u03c2 "
        },
        {
            "chapter": 5,
            "verse": 43,
            "name": "Matthew 5:43",
            "text": "\u03b7\u03ba\u03bf\u03c5\u03c3\u03b1\u03c4\u03b5 \u03bf\u03c4\u03b9 \u03b5\u03c1\u03c1\u03b5\u03b8\u03b7 \u03b1\u03b3\u03b1\u03c0\u03b7\u03c3\u03b5\u03b9\u03c2 \u03c4\u03bf\u03bd \u03c0\u03bb\u03b7\u03c3\u03b9\u03bf\u03bd \u03c3\u03bf\u03c5 \u03ba\u03b1\u03b9 \u03bc\u03b9\u03c3\u03b7\u03c3\u03b5\u03b9\u03c2 \u03c4\u03bf\u03bd \u03b5\u03c7\u03b8\u03c1\u03bf\u03bd \u03c3\u03bf\u03c5 "
        },
        {
            "chapter": 5,
            "verse": 44,
            "name": "Matthew 5:44",
            "text": "\u03b5\u03b3\u03c9 \u03b4\u03b5 \u03bb\u03b5\u03b3\u03c9 \u03c5\u03bc\u03b9\u03bd \u03b1\u03b3\u03b1\u03c0\u03b1\u03c4\u03b5 \u03c4\u03bf\u03c5\u03c2 \u03b5\u03c7\u03b8\u03c1\u03bf\u03c5\u03c2 \u03c5\u03bc\u03c9\u03bd \u03b5\u03c5\u03bb\u03bf\u03b3\u03b5\u03b9\u03c4\u03b5 \u03c4\u03bf\u03c5\u03c2 \u03ba\u03b1\u03c4\u03b1\u03c1\u03c9\u03bc\u03b5\u03bd\u03bf\u03c5\u03c2 \u03c5\u03bc\u03b1\u03c2 \u03ba\u03b1\u03bb\u03c9\u03c2 \u03c0\u03bf\u03b9\u03b5\u03b9\u03c4\u03b5 \u03c4\u03bf\u03b9\u03c2 \u03bc\u03b9\u03c3\u03bf\u03c5\u03c3\u03b9\u03bd \u03c5\u03bc\u03b1\u03c2 \u03ba\u03b1\u03b9 \u03c0\u03c1\u03bf\u03c3\u03b5\u03c5\u03c7\u03b5\u03c3\u03b8\u03b5 \u03c5\u03c0\u03b5\u03c1 \u03c4\u03c9\u03bd \u03b5\u03c0\u03b7\u03c1\u03b5\u03b1\u03b6\u03bf\u03bd\u03c4\u03c9\u03bd \u03c5\u03bc\u03b1\u03c2 \u03ba\u03b1\u03b9 \u03b4\u03b9\u03c9\u03ba\u03bf\u03bd\u03c4\u03c9\u03bd \u03c5\u03bc\u03b1\u03c2 "
        },
        {
            "chapter": 5,
            "verse": 45,
            "name": "Matthew 5:45",
            "text": "\u03bf\u03c0\u03c9\u03c2 \u03b3\u03b5\u03bd\u03b7\u03c3\u03b8\u03b5 \u03c5\u03b9\u03bf\u03b9 \u03c4\u03bf\u03c5 \u03c0\u03b1\u03c4\u03c1\u03bf\u03c2 \u03c5\u03bc\u03c9\u03bd \u03c4\u03bf\u03c5 \u03b5\u03bd \u03c4\u03bf\u03b9\u03c2  \u03bf\u03c5\u03c1\u03b1\u03bd\u03bf\u03b9\u03c2 \u03bf\u03c4\u03b9 \u03c4\u03bf\u03bd \u03b7\u03bb\u03b9\u03bf\u03bd \u03b1\u03c5\u03c4\u03bf\u03c5 \u03b1\u03bd\u03b1\u03c4\u03b5\u03bb\u03bb\u03b5\u03b9 \u03b5\u03c0\u03b9 \u03c0\u03bf\u03bd\u03b7\u03c1\u03bf\u03c5\u03c2 \u03ba\u03b1\u03b9 \u03b1\u03b3\u03b1\u03b8\u03bf\u03c5\u03c2 \u03ba\u03b1\u03b9 \u03b2\u03c1\u03b5\u03c7\u03b5\u03b9 \u03b5\u03c0\u03b9 \u03b4\u03b9\u03ba\u03b1\u03b9\u03bf\u03c5\u03c2 \u03ba\u03b1\u03b9 \u03b1\u03b4\u03b9\u03ba\u03bf\u03c5\u03c2 "
        },
        {
            "chapter": 5,
            "verse": 46,
            "name": "Matthew 5:46",
            "text": "\u03b5\u03b1\u03bd \u03b3\u03b1\u03c1 \u03b1\u03b3\u03b1\u03c0\u03b7\u03c3\u03b7\u03c4\u03b5 \u03c4\u03bf\u03c5\u03c2 \u03b1\u03b3\u03b1\u03c0\u03c9\u03bd\u03c4\u03b1\u03c2 \u03c5\u03bc\u03b1\u03c2 \u03c4\u03b9\u03bd\u03b1 \u03bc\u03b9\u03c3\u03b8\u03bf\u03bd \u03b5\u03c7\u03b5\u03c4\u03b5 \u03bf\u03c5\u03c7\u03b9 \u03ba\u03b1\u03b9 \u03bf\u03b9 \u03c4\u03b5\u03bb\u03c9\u03bd\u03b1\u03b9 \u03c4\u03bf \u03b1\u03c5\u03c4\u03bf \u03c0\u03bf\u03b9\u03bf\u03c5\u03c3\u03b9\u03bd "
        },
        {
            "chapter": 5,
            "verse": 47,
            "name": "Matthew 5:47",
            "text": "\u03ba\u03b1\u03b9 \u03b5\u03b1\u03bd \u03b1\u03c3\u03c0\u03b1\u03c3\u03b7\u03c3\u03b8\u03b5 \u03c4\u03bf\u03c5\u03c2 \u03c6\u03b9\u03bb\u03bf\u03c5\u03c2 \u03c5\u03bc\u03c9\u03bd \u03bc\u03bf\u03bd\u03bf\u03bd \u03c4\u03b9 \u03c0\u03b5\u03c1\u03b9\u03c3\u03c3\u03bf\u03bd \u03c0\u03bf\u03b9\u03b5\u03b9\u03c4\u03b5 \u03bf\u03c5\u03c7\u03b9 \u03ba\u03b1\u03b9 \u03bf\u03b9 \u03c4\u03b5\u03bb\u03c9\u03bd\u03b1\u03b9 \u03bf\u03c5\u03c4\u03c9\u03c2 \u03c0\u03bf\u03b9\u03bf\u03c5\u03c3\u03b9\u03bd "
        },
        {
            "chapter": 5,
            "verse": 48,
            "name": "Matthew 5:48",
            "text": "\u03b5\u03c3\u03b5\u03c3\u03b8\u03b5 \u03bf\u03c5\u03bd \u03c5\u03bc\u03b5\u03b9\u03c2 \u03c4\u03b5\u03bb\u03b5\u03b9\u03bf\u03b9 \u03c9\u03c3\u03c0\u03b5\u03c1 \u03bf \u03c0\u03b1\u03c4\u03b7\u03c1 \u03c5\u03bc\u03c9\u03bd \u03bf \u03b5\u03bd \u03c4\u03bf\u03b9\u03c2 \u03bf\u03c5\u03c1\u03b1\u03bd\u03bf\u03b9\u03c2 \u03c4\u03b5\u03bb\u03b5\u03b9\u03bf\u03c2 \u03b5\u03c3\u03c4\u03b9\u03bd  "
        }
    ]
}