{
    "translation": "Urdu Geo Version (UGV)",
    "abbreviation": "urdugeo",
    "lang": "ur",
    "language": "Urdu",
    "direction": "RTL",
    "encoding": "UTF-8",
    "book_nr": 9,
    "book_name": "1 Samuel",
    "chapter": 30,
    "name": "1 Samuel 30",
    "verses": [
        {
            "chapter": 30,
            "verse": 1,
            "name": "1 Samuel 30:1",
            "text": " \u062a\u06cc\u0633\u0631\u06d2 \u062f\u0646 \u062c\u0628 \u062f\u0627\u0624\u062f \u0635\u0650\u0642\u0644\u0627\u062c \u067e\u06c1\u0646\u0686\u0627 \u062a\u0648 \u062f\u06cc\u06a9\u06be\u0627 \u06a9\u06c1 \u0634\u06c1\u0631 \u06a9\u0627 \u0633\u062a\u06cc\u0627\u0646\u0627\u0633 \u06c1\u0648 \u06af\u06cc\u0627 \u06c1\u06d2\u06d4 \u0627\u064f\u0646 \u06a9\u06cc \u063a\u06cc\u0631\u0645\u0648\u062c\u0648\u062f\u06af\u06cc \u0645\u06cc\u06ba \u0639\u0645\u0627\u0644\u06cc\u0642\u06cc\u0648\u06ba \u0646\u06d2 \u062f\u0634\u062a\u0650 \u0646\u062c\u0628 \u0645\u06cc\u06ba \u0622 \u06a9\u0631 \u0635\u0650\u0642\u0644\u0627\u062c \u067e\u0631 \u0628\u06be\u06cc \u062d\u0645\u0644\u06c1 \u06a9\u06cc\u0627 \u062a\u06be\u0627\u06d4 \u0634\u06c1\u0631 \u06a9\u0648 \u062c\u0644\u0627 \u06a9\u0631"
        },
        {
            "chapter": 30,
            "verse": 2,
            "name": "1 Samuel 30:2",
            "text": "\u0648\u06c1 \u062a\u0645\u0627\u0645 \u0628\u0627\u0634\u0646\u062f\u0648\u06ba \u06a9\u0648 \u0686\u06be\u0648\u0679\u0648\u06ba \u0633\u06d2 \u0644\u06d2 \u06a9\u0631 \u0628\u0691\u0648\u06ba \u062a\u06a9 \u0627\u067e\u0646\u06d2 \u0633\u0627\u062a\u06be \u0644\u06d2 \u06af\u0626\u06d2 \u062a\u06be\u06d2\u06d4 \u0644\u06cc\u06a9\u0646 \u06a9\u0648\u0626\u06cc \u06c1\u0644\u0627\u06a9 \u0646\u06c1\u06cc\u06ba \u06c1\u0648\u0627 \u062a\u06be\u0627 \u0628\u0644\u06a9\u06c1 \u0648\u06c1 \u0633\u0628 \u06a9\u0648 \u0627\u067e\u0646\u06d2 \u0633\u0627\u062a\u06be \u0644\u06d2 \u06af\u0626\u06d2 \u062a\u06be\u06d2\u06d4"
        },
        {
            "chapter": 30,
            "verse": 3,
            "name": "1 Samuel 30:3",
            "text": "\u0686\u0646\u0627\u0646\u0686\u06c1 \u062c\u0628 \u062f\u0627\u0624\u062f \u0627\u0648\u0631 \u0627\u064f\u0633 \u06a9\u06d2 \u0622\u062f\u0645\u06cc \u0648\u0627\u067e\u0633 \u0622\u0626\u06d2 \u062a\u0648 \u062f\u06cc\u06a9\u06be\u0627 \u06a9\u06c1 \u0634\u06c1\u0631 \u0628\u06be\u0633\u0645 \u06c1\u0648 \u06af\u06cc\u0627 \u06c1\u06d2 \u0627\u0648\u0631 \u062a\u0645\u0627\u0645 \u0628\u0627\u0644 \u0628\u0686\u06d2 \u0686\u06be\u0646 \u06af\u0626\u06d2 \u06c1\u06cc\u06ba\u06d4"
        },
        {
            "chapter": 30,
            "verse": 4,
            "name": "1 Samuel 30:4",
            "text": "\u0648\u06c1 \u067e\u06be\u0648\u0679 \u067e\u06be\u0648\u0679 \u06a9\u0631 \u0631\u0648\u0646\u06d2 \u0644\u06af\u06d2\u060c \u0627\u0650\u062a\u0646\u06d2 \u0631\u0648\u0626\u06d2 \u06a9\u06c1 \u0622\u062e\u0631\u06a9\u0627\u0631 \u0631\u0648\u0646\u06d2 \u06a9\u06cc \u0633\u06a9\u062a \u06c1\u06cc \u0646\u06c1 \u0631\u06c1\u06cc\u06d4"
        },
        {
            "chapter": 30,
            "verse": 5,
            "name": "1 Samuel 30:5",
            "text": "\u062f\u0627\u0624\u062f \u06a9\u06cc \u062f\u0648 \u0628\u06cc\u0648\u06cc\u0648\u06ba \u0627\u062e\u06cc \u0646\u0648\u0639\u0645 \u06cc\u0632\u0631\u0639\u06cc\u0644\u06cc \u0627\u0648\u0631 \u0627\u0628\u06cc \u062c\u06cc\u0644 \u06a9\u0631\u0645\u0644\u06cc \u06a9\u0648 \u0628\u06be\u06cc \u0627\u0633\u06cc\u0631 \u06a9\u0631 \u0644\u06cc\u0627 \u06af\u06cc\u0627 \u062a\u06be\u0627\u06d4"
        },
        {
            "chapter": 30,
            "verse": 6,
            "name": "1 Samuel 30:6",
            "text": "\u062f\u0627\u0624\u062f \u06a9\u06cc \u062c\u0627\u0646 \u0628\u0691\u06d2 \u062e\u0637\u0631\u06d2 \u0645\u06cc\u06ba \u0622 \u06af\u0626\u06cc\u060c \u06a9\u06cc\u0648\u0646\u06a9\u06c1 \u0627\u064f\u0633 \u06a9\u06d2 \u0645\u0631\u062f \u063a\u0645 \u06a9\u06d2 \u0645\u0627\u0631\u06d2 \u0622\u067e\u0633 \u0645\u06cc\u06ba \u0627\u064f\u0633\u06d2 \u0633\u0646\u06af\u0633\u0627\u0631 \u06a9\u0631\u0646\u06d2 \u06a9\u06cc \u0628\u0627\u062a\u06cc\u06ba \u06a9\u0631\u0646\u06d2 \u0644\u06af\u06d2\u06d4 \u06a9\u06cc\u0648\u0646\u06a9\u06c1 \u0628\u06cc\u0679\u06d2 \u0628\u06cc\u0679\u06cc\u0648\u06ba \u06a9\u06d2 \u0686\u06be\u0646 \u062c\u0627\u0646\u06d2 \u06a9\u06d2 \u0628\u0627\u0639\u062b \u0633\u0628 \u0633\u062e\u062a \u0631\u0646\u062c\u06cc\u062f\u06c1 \u062a\u06be\u06d2\u06d4 \u0644\u06cc\u06a9\u0646 \u062f\u0627\u0624\u062f \u0646\u06d2 \u0631\u0628 \u0627\u067e\u0646\u06d2 \u062e\u062f\u0627 \u0645\u06cc\u06ba \u067e\u0646\u0627\u06c1 \u0644\u06d2 \u06a9\u0631 \u062a\u0642\u0648\u06cc\u062a \u067e\u0627\u0626\u06cc\u06d4"
        },
        {
            "chapter": 30,
            "verse": 7,
            "name": "1 Samuel 30:7",
            "text": "\u0627\u064f\u0633 \u0646\u06d2 \u0627\u0628\u06cc\u0627\u062a\u0631 \u0628\u0646 \u0627\u062e\u06cc \u0645\u064e\u0644\u0650\u06a9 \u06a9\u0648 \u062d\u06a9\u0645 \u062f\u06cc\u0627\u060c \u201d\u0642\u0631\u0639\u06c1 \u0688\u0627\u0644\u0646\u06d2 \u06a9\u06d2 \u0644\u0626\u06d2 \u0627\u0645\u0627\u0645 \u06a9\u0627 \u0628\u0627\u0644\u0627\u067e\u0648\u0634 \u0644\u06d2 \u0622\u0626\u06cc\u06ba\u06d4\u201c \u062c\u0628 \u0627\u0645\u0627\u0645 \u0628\u0627\u0644\u0627\u067e\u0648\u0634 \u0644\u06d2 \u0622\u06cc\u0627"
        },
        {
            "chapter": 30,
            "verse": 8,
            "name": "1 Samuel 30:8",
            "text": "\u062a\u0648 \u062f\u0627\u0624\u062f \u0646\u06d2 \u0631\u0628 \u0633\u06d2 \u062f\u0631\u06cc\u0627\u0641\u062a \u06a9\u06cc\u0627\u060c \u201d\u06a9\u06cc\u0627 \u0645\u064e\u06cc\u06ba \u0644\u0679\u06cc\u0631\u0648\u06ba \u06a9\u0627 \u062a\u0639\u0627\u0642\u0628 \u06a9\u0631\u0648\u06ba\u061f \u06a9\u06cc\u0627 \u0645\u064e\u06cc\u06ba \u0627\u064f\u0646 \u06a9\u0648 \u062c\u0627 \u0644\u0648\u06ba \u06af\u0627\u061f\u201c \u0631\u0628 \u0646\u06d2 \u062c\u0648\u0627\u0628 \u062f\u06cc\u0627\u060c \u201d\u0627\u064f\u0646 \u06a9\u0627 \u062a\u0639\u0627\u0642\u0628 \u06a9\u0631! \u062a\u064f\u0648 \u0646\u06c1 \u0635\u0631\u0641 \u0627\u064f\u0646\u06c1\u06cc\u06ba \u062c\u0627 \u0644\u06d2 \u06af\u0627 \u0628\u0644\u06a9\u06c1 \u0627\u067e\u0646\u06d2 \u0644\u0648\u06af\u0648\u06ba \u06a9\u0648 \u0628\u0686\u0627 \u0628\u06be\u06cc \u0644\u06d2 \u06af\u0627\u06d4\u201c"
        },
        {
            "chapter": 30,
            "verse": 9,
            "name": "1 Samuel 30:9",
            "text": "\u062a\u0628 \u062f\u0627\u0624\u062f \u0627\u067e\u0646\u06d2 600 \u0645\u0631\u062f\u0648\u06ba \u06a9\u06d2 \u0633\u0627\u062a\u06be \u0631\u0648\u0627\u0646\u06c1 \u06c1\u0648\u0627\u06d4 \u0686\u0644\u062a\u06d2 \u0686\u0644\u062a\u06d2 \u0648\u06c1 \u0628\u0633\u0648\u0631 \u0646\u062f\u06cc \u06a9\u06d2 \u067e\u0627\u0633 \u067e\u06c1\u0646\u0686 \u06af\u0626\u06d2\u06d4 200 \u0627\u0641\u0631\u0627\u062f \u0627\u0650\u062a\u0646\u06d2 \u0646\u0688\u06be\u0627\u0644 \u06c1\u0648 \u06af\u0626\u06d2 \u062a\u06be\u06d2 \u06a9\u06c1 \u0648\u06c1 \u0648\u06c1\u06cc\u06ba \u0631\u064f\u06a9 \u06af\u0626\u06d2\u06d4 \u0628\u0627\u0642\u06cc 400 \u0645\u0631\u062f \u0646\u062f\u06cc \u06a9\u0648 \u067e\u0627\u0631 \u06a9\u0631 \u06a9\u06d2 \u0622\u06af\u06d2 \u0628\u0691\u06be\u06d2\u06d4"
        },
        {
            "chapter": 30,
            "verse": 10,
            "name": "1 Samuel 30:10",
            "text": "\u062a\u0628 \u062f\u0627\u0624\u062f \u0627\u067e\u0646\u06d2 600 \u0645\u0631\u062f\u0648\u06ba \u06a9\u06d2 \u0633\u0627\u062a\u06be \u0631\u0648\u0627\u0646\u06c1 \u06c1\u0648\u0627\u06d4 \u0686\u0644\u062a\u06d2 \u0686\u0644\u062a\u06d2 \u0648\u06c1 \u0628\u0633\u0648\u0631 \u0646\u062f\u06cc \u06a9\u06d2 \u067e\u0627\u0633 \u067e\u06c1\u0646\u0686 \u06af\u0626\u06d2\u06d4 200 \u0627\u0641\u0631\u0627\u062f \u0627\u0650\u062a\u0646\u06d2 \u0646\u0688\u06be\u0627\u0644 \u06c1\u0648 \u06af\u0626\u06d2 \u062a\u06be\u06d2 \u06a9\u06c1 \u0648\u06c1 \u0648\u06c1\u06cc\u06ba \u0631\u064f\u06a9 \u06af\u0626\u06d2\u06d4 \u0628\u0627\u0642\u06cc 400 \u0645\u0631\u062f \u0646\u062f\u06cc \u06a9\u0648 \u067e\u0627\u0631 \u06a9\u0631 \u06a9\u06d2 \u0622\u06af\u06d2 \u0628\u0691\u06be\u06d2\u06d4"
        },
        {
            "chapter": 30,
            "verse": 11,
            "name": "1 Samuel 30:11",
            "text": "\u0631\u0627\u0633\u062a\u06d2 \u0645\u06cc\u06ba \u0627\u064f\u0646\u06c1\u06cc\u06ba \u06a9\u06be\u0644\u06d2 \u0645\u06cc\u062f\u0627\u0646 \u0645\u06cc\u06ba \u0627\u06cc\u06a9 \u0645\u0635\u0631\u06cc \u0622\u062f\u0645\u06cc \u0645\u0644\u0627 \u0627\u0648\u0631 \u0627\u064f\u0633\u06d2 \u062f\u0627\u0624\u062f \u06a9\u06d2 \u067e\u0627\u0633 \u0644\u0627 \u06a9\u0631 \u06a9\u0686\u06be \u067e\u0627\u0646\u06cc \u067e\u0644\u0627\u06cc\u0627 \u0627\u0648\u0631 \u06a9\u0686\u06be \u0631\u0648\u0679\u06cc\u060c"
        },
        {
            "chapter": 30,
            "verse": 12,
            "name": "1 Samuel 30:12",
            "text": "\u0627\u0646\u062c\u06cc\u0631 \u06a9\u06cc \u0679\u06a9\u06cc \u06a9\u0627 \u0679\u06a9\u0691\u0627 \u0627\u0648\u0631 \u06a9\u0634\u0645\u0634 \u06a9\u06cc \u062f\u0648 \u0679\u06a9\u06cc\u0627\u06ba \u06a9\u06be\u0644\u0627\u0626\u06cc\u06ba\u06d4 \u062a\u0628 \u0627\u064f\u0633 \u06a9\u06cc \u062c\u0627\u0646 \u0645\u06cc\u06ba \u062c\u0627\u0646 \u0622 \u06af\u0626\u06cc\u06d4 \u0627\u064f\u0633\u06d2 \u062a\u06cc\u0646 \u062f\u0646 \u0627\u0648\u0631 \u0631\u0627\u062a \u0633\u06d2 \u0646\u06c1 \u06a9\u06be\u0627\u0646\u0627\u060c \u0646\u06c1 \u067e\u0627\u0646\u06cc \u0645\u0644\u0627 \u062a\u06be\u0627\u06d4"
        },
        {
            "chapter": 30,
            "verse": 13,
            "name": "1 Samuel 30:13",
            "text": "\u062f\u0627\u0624\u062f \u0646\u06d2 \u067e\u0648\u0686\u06be\u0627\u060c \u201d\u062a\u0645\u06c1\u0627\u0631\u0627 \u0645\u0627\u0644\u06a9 \u06a9\u0648\u0646 \u06c1\u06d2\u060c \u0627\u0648\u0631 \u062a\u0645 \u06a9\u06c1\u0627\u06ba \u06a9\u06d2 \u06c1\u0648\u061f\u201c \u0627\u064f\u0633 \u0646\u06d2 \u062c\u0648\u0627\u0628 \u062f\u06cc\u0627\u060c \u201d\u0645\u064e\u06cc\u06ba \u0645\u0635\u0631\u06cc \u063a\u0644\u0627\u0645 \u06c1\u0648\u06ba\u060c \u0627\u0648\u0631 \u0627\u06cc\u06a9 \u0639\u0645\u0627\u0644\u06cc\u0642\u06cc \u0645\u06cc\u0631\u0627 \u0645\u0627\u0644\u06a9 \u06c1\u06d2\u06d4 \u062c\u0628 \u0645\u064e\u06cc\u06ba \u0633\u0641\u0631 \u06a9\u06d2 \u062f\u0648\u0631\u0627\u0646 \u0628\u06cc\u0645\u0627\u0631 \u06c1\u0648 \u06af\u06cc\u0627 \u062a\u0648 \u0627\u064f\u0633 \u0646\u06d2 \u0645\u062c\u06be\u06d2 \u06cc\u06c1\u0627\u06ba \u0686\u06be\u0648\u0691 \u062f\u06cc\u0627\u06d4 \u0627\u0628 \u0645\u064e\u06cc\u06ba \u062a\u06cc\u0646 \u062f\u0646 \u0633\u06d2 \u06cc\u06c1\u0627\u06ba \u067e\u0691\u0627 \u06c1\u0648\u06ba\u06d4"
        },
        {
            "chapter": 30,
            "verse": 14,
            "name": "1 Samuel 30:14",
            "text": "\u067e\u06c1\u0644\u06d2 \u06c1\u0645 \u0646\u06d2 \u06a9\u0631\u06cc\u062a\u06cc\u0648\u06ba \u06cc\u0639\u0646\u06cc \u0641\u0644\u0633\u062a\u06cc\u0648\u06ba \u06a9\u06d2 \u062c\u0646\u0648\u0628\u06cc \u0639\u0644\u0627\u0642\u06d2 \u0627\u0648\u0631 \u067e\u06be\u0631 \u06cc\u06c1\u0648\u062f\u0627\u06c1 \u06a9\u06d2 \u0639\u0644\u0627\u0642\u06d2 \u067e\u0631 \u062d\u0645\u0644\u06c1 \u06a9\u06cc\u0627 \u062a\u06be\u0627\u060c \u062e\u0627\u0635 \u06a9\u0631 \u06cc\u06c1\u0648\u062f\u0627\u06c1 \u06a9\u06d2 \u062c\u0646\u0648\u0628\u06cc \u062d\u0635\u06d2 \u067e\u0631 \u062c\u06c1\u0627\u06ba \u06a9\u0627\u0644\u0628 \u06a9\u06cc \u0627\u0648\u0644\u0627\u062f \u0622\u0628\u0627\u062f \u06c1\u06d2\u06d4 \u0634\u06c1\u0631 \u0635\u0650\u0642\u0644\u0627\u062c \u06a9\u0648 \u06c1\u0645 \u0646\u06d2 \u0628\u06be\u0633\u0645 \u06a9\u0631 \u062f\u06cc\u0627 \u062a\u06be\u0627\u06d4\u201c"
        },
        {
            "chapter": 30,
            "verse": 15,
            "name": "1 Samuel 30:15",
            "text": "\u062f\u0627\u0624\u062f \u0646\u06d2 \u0633\u0648\u0627\u0644 \u06a9\u06cc\u0627\u060c \u201d\u06a9\u06cc\u0627 \u062a\u0645 \u0645\u062c\u06be\u06d2 \u0628\u062a\u0627 \u0633\u06a9\u062a\u06d2 \u06c1\u0648 \u06a9\u06c1 \u06cc\u06c1 \u0644\u0679\u06cc\u0631\u06d2 \u06a9\u0633 \u0637\u0631\u0641 \u06af\u0626\u06d2 \u06c1\u06cc\u06ba\u061f\u201c \u0645\u0635\u0631\u06cc \u0646\u06d2 \u062c\u0648\u0627\u0628 \u062f\u06cc\u0627\u060c \u201d\u067e\u06c1\u0644\u06d2 \u0627\u0644\u0644\u06c1 \u06a9\u06cc \u0642\u064e\u0633\u0645 \u06a9\u06be\u0627 \u06a9\u0631 \u0648\u0639\u062f\u06c1 \u06a9\u0631\u06cc\u06ba \u06a9\u06c1 \u0622\u067e \u0645\u062c\u06be\u06d2 \u0646\u06c1 \u06c1\u0644\u0627\u06a9 \u06a9\u0631\u06cc\u06ba \u06af\u06d2\u060c \u0646\u06c1 \u0645\u06cc\u0631\u06d2 \u0645\u0627\u0644\u06a9 \u06a9\u06d2 \u062d\u0648\u0627\u0644\u06d2 \u06a9\u0631\u06cc\u06ba \u06af\u06d2\u06d4 \u067e\u06be\u0631 \u0645\u064e\u06cc\u06ba \u0622\u067e \u06a9\u0648 \u0627\u064f\u0646 \u06a9\u06d2 \u067e\u0627\u0633 \u0644\u06d2 \u062c\u0627\u0624\u06ba \u06af\u0627\u06d4\u201c"
        },
        {
            "chapter": 30,
            "verse": 16,
            "name": "1 Samuel 30:16",
            "text": "\u0686\u0646\u0627\u0646\u0686\u06c1 \u0648\u06c1 \u062f\u0627\u0624\u062f \u06a9\u0648 \u0639\u0645\u0627\u0644\u06cc\u0642\u06cc \u0644\u0679\u06cc\u0631\u0648\u06ba \u06a9\u06d2 \u067e\u0627\u0633 \u0644\u06d2 \u06af\u06cc\u0627\u06d4 \u062c\u0628 \u0648\u06c1\u0627\u06ba \u067e\u06c1\u0646\u0686\u06d2 \u062a\u0648 \u062f\u06cc\u06a9\u06be\u0627 \u06a9\u06c1 \u0639\u0645\u0627\u0644\u06cc\u0642\u06cc \u0627\u0650\u062f\u06be\u0631 \u0627\u064f\u062f\u06be\u0631 \u0628\u06a9\u06be\u0631\u06d2 \u06c1\u0648\u0626\u06d2 \u0628\u0691\u0627 \u062c\u0634\u0646 \u0645\u0646\u0627 \u0631\u06c1\u06d2 \u06c1\u06cc\u06ba\u06d4 \u0648\u06c1 \u06c1\u0631 \u0637\u0631\u0641 \u06a9\u06be\u0627\u0646\u0627 \u06a9\u06be\u0627\u062a\u06d2 \u0627\u0648\u0631 \u0645\u064e\u06d2 \u067e\u06cc\u062a\u06d2 \u06c1\u0648\u0626\u06d2 \u0646\u0638\u0631 \u0622 \u0631\u06c1\u06d2 \u062a\u06be\u06d2\u060c \u06a9\u06cc\u0648\u0646\u06a9\u06c1 \u062c\u0648 \u0645\u0627\u0644 \u0627\u064f\u0646\u06c1\u0648\u06ba \u0646\u06d2 \u0641\u0644\u0633\u062a\u06cc\u0648\u06ba \u0627\u0648\u0631 \u06cc\u06c1\u0648\u062f\u0627\u06c1 \u06a9\u06d2 \u0639\u0644\u0627\u0642\u06d2 \u0633\u06d2 \u0644\u064f\u0648\u0679 \u0644\u06cc\u0627 \u062a\u06be\u0627 \u0648\u06c1 \u0628\u06c1\u062a \u0632\u06cc\u0627\u062f\u06c1 \u062a\u06be\u0627\u06d4"
        },
        {
            "chapter": 30,
            "verse": 17,
            "name": "1 Samuel 30:17",
            "text": "\u0635\u0628\u062d \u0633\u0648\u06cc\u0631\u06d2 \u062c\u0628 \u0627\u0628\u06be\u06cc \u062a\u06be\u0648\u0691\u06cc \u0631\u0648\u0634\u0646\u06cc \u062a\u06be\u06cc \u062f\u0627\u0624\u062f \u0646\u06d2 \u0627\u064f\u0646 \u067e\u0631 \u062d\u0645\u0644\u06c1 \u06a9\u06cc\u0627\u06d4 \u0644\u0691\u062a\u06d2 \u0644\u0691\u062a\u06d2 \u0627\u06af\u0644\u06d2 \u062f\u0646 \u06a9\u06cc \u0634\u0627\u0645 \u06c1\u0648 \u06af\u0626\u06cc\u06d4 \u062f\u0634\u0645\u0646 \u06c1\u0627\u0631 \u06af\u06cc\u0627 \u0627\u0648\u0631 \u0633\u0628 \u06a9\u06d2 \u0633\u0628 \u06c1\u0644\u0627\u06a9 \u06c1\u0648\u0626\u06d2\u06d4 \u0635\u0631\u0641 400 \u062c\u0648\u0627\u0646 \u0628\u0686 \u06af\u0626\u06d2 \u062c\u0648 \u0627\u0648\u0646\u0679\u0648\u06ba \u067e\u0631 \u0633\u0648\u0627\u0631 \u06c1\u0648 \u06a9\u0631 \u0641\u0631\u0627\u0631 \u06c1\u0648 \u06af\u0626\u06d2\u06d4"
        },
        {
            "chapter": 30,
            "verse": 18,
            "name": "1 Samuel 30:18",
            "text": "\u062f\u0627\u0624\u062f \u0646\u06d2 \u0633\u0628 \u06a9\u0686\u06be \u0686\u06be\u0691\u0627 \u0644\u06cc\u0627 \u062c\u0648 \u0639\u0645\u0627\u0644\u06cc\u0642\u06cc\u0648\u06ba \u0646\u06d2 \u0644\u064f\u0648\u0679 \u0644\u06cc\u0627 \u062a\u06be\u0627\u06d4 \u0627\u064f\u0633 \u06a9\u06cc \u062f\u0648 \u0628\u06cc\u0648\u06cc\u0627\u06ba \u0628\u06be\u06cc \u0635\u062d\u06cc\u062d \u0633\u0644\u0627\u0645\u062a \u0645\u0644 \u06af\u0626\u06cc\u06ba\u06d4"
        },
        {
            "chapter": 30,
            "verse": 19,
            "name": "1 Samuel 30:19",
            "text": "\u0646\u06c1 \u0628\u0686\u06c1 \u0646\u06c1 \u0628\u0632\u0631\u06af\u060c \u0646\u06c1 \u0628\u06cc\u0679\u0627 \u0646\u06c1 \u0628\u06cc\u0679\u06cc\u060c \u0646\u06c1 \u0645\u0627\u0644 \u06cc\u0627 \u06a9\u0648\u0626\u06cc \u0627\u064e\u0648\u0631 \u0644\u064f\u0648\u0679\u06cc \u06c1\u0648\u0626\u06cc \u0686\u06cc\u0632 \u0631\u06c1\u06cc \u062c\u0648 \u062f\u0627\u0624\u062f \u0648\u0627\u067e\u0633 \u0646\u06c1 \u0644\u0627\u06cc\u0627\u06d4"
        },
        {
            "chapter": 30,
            "verse": 20,
            "name": "1 Samuel 30:20",
            "text": "\u0639\u0645\u0627\u0644\u06cc\u0642\u06cc\u0648\u06ba \u06a9\u06d2 \u06af\u0627\u0626\u06d2\u0628\u064e\u06cc\u0644 \u0627\u0648\u0631 \u0628\u06be\u06cc\u0691\u0628\u06a9\u0631\u06cc\u0627\u06ba \u062f\u0627\u0624\u062f \u06a9\u0627 \u062d\u0635\u06c1 \u0628\u0646 \u06af\u0626\u06cc\u06ba\u060c \u0627\u0648\u0631 \u0627\u064f\u0633 \u06a9\u06d2 \u0644\u0648\u06af\u0648\u06ba \u0646\u06d2 \u0627\u064f\u0646\u06c1\u06cc\u06ba \u0627\u067e\u0646\u06d2 \u0631\u06cc\u0648\u0691\u0648\u06ba \u06a9\u06d2 \u0622\u06af\u06d2 \u0622\u06af\u06d2 \u06c1\u0627\u0646\u06a9 \u06a9\u0631 \u06a9\u06c1\u0627\u060c \u201d\u06cc\u06c1 \u0644\u064f\u0648\u0679\u06d2 \u06c1\u0648\u0626\u06d2 \u0645\u0627\u0644 \u0645\u06cc\u06ba \u0633\u06d2 \u062f\u0627\u0624\u062f \u06a9\u0627 \u062d\u0635\u06c1 \u06c1\u06d2\u06d4\u201c"
        },
        {
            "chapter": 30,
            "verse": 21,
            "name": "1 Samuel 30:21",
            "text": " \u062c\u0628 \u062f\u0627\u0624\u062f \u0627\u067e\u0646\u06d2 \u0622\u062f\u0645\u06cc\u0648\u06ba \u06a9\u06d2 \u0633\u0627\u062a\u06be \u0648\u0627\u067e\u0633 \u0622 \u0631\u06c1\u0627 \u062a\u06be\u0627 \u062a\u0648 \u062c\u0648 200 \u0622\u062f\u0645\u06cc \u0646\u0688\u06be\u0627\u0644 \u06c1\u0648\u0646\u06d2 \u06a9\u06d2 \u0628\u0627\u0639\u062b \u0628\u0633\u0648\u0631 \u0646\u062f\u06cc \u0633\u06d2 \u0622\u06af\u06d2 \u0646\u06c1 \u062c\u0627 \u0633\u06a9\u06d2 \u0648\u06c1 \u0628\u06be\u06cc \u0627\u064f\u0646 \u0633\u06d2 \u0622\u0645\u0644\u06d2\u06d4 \u062f\u0627\u0624\u062f \u0646\u06d2 \u0633\u0644\u0627\u0645 \u06a9\u0631 \u06a9\u06d2 \u0627\u064f\u0646 \u06a9\u0627 \u062d\u0627\u0644 \u067e\u0648\u0686\u06be\u0627\u06d4"
        },
        {
            "chapter": 30,
            "verse": 22,
            "name": "1 Samuel 30:22",
            "text": "\u0644\u06cc\u06a9\u0646 \u0628\u0627\u0642\u06cc \u0622\u062f\u0645\u06cc\u0648\u06ba \u0645\u06cc\u06ba \u06a9\u0686\u06be \u0634\u0631\u0627\u0631\u062a\u06cc \u0644\u0648\u06af \u0628\u0691\u0628\u0691\u0627\u0646\u06d2 \u0644\u06af\u06d2\u060c \u201d\u06cc\u06c1 \u06c1\u0645\u0627\u0631\u06d2 \u0633\u0627\u062a\u06be \u0644\u0691\u0646\u06d2 \u06a9\u06d2 \u0644\u0626\u06d2 \u0622\u06af\u06d2 \u0646\u06c1 \u0646\u06a9\u0644\u06d2\u060c \u0627\u0650\u0633 \u0644\u0626\u06d2 \u0627\u0650\u0646\u06c1\u06cc\u06ba \u0644\u064f\u0648\u0679\u06d2 \u06c1\u0648\u0626\u06d2 \u0645\u0627\u0644 \u06a9\u0627 \u062d\u0635\u06c1 \u067e\u0627\u0646\u06d2 \u06a9\u0627 \u062d\u0642 \u0646\u06c1\u06cc\u06ba\u06d4 \u0628\u0633 \u0648\u06c1 \u0627\u067e\u0646\u06d2 \u0628\u0627\u0644 \u0628\u0686\u0648\u06ba \u06a9\u0648 \u0644\u06d2 \u06a9\u0631 \u0686\u0644\u06d2 \u062c\u0627\u0626\u06cc\u06ba\u06d4\u201c"
        },
        {
            "chapter": 30,
            "verse": 23,
            "name": "1 Samuel 30:23",
            "text": "\u0644\u06cc\u06a9\u0646 \u062f\u0627\u0624\u062f \u0646\u06d2 \u0627\u0646\u06a9\u0627\u0631 \u06a9\u06cc\u0627\u06d4 \u201d\u0646\u06c1\u06cc\u06ba\u060c \u0645\u06cc\u0631\u06d2 \u0628\u06be\u0627\u0626\u06cc\u0648\u060c \u0627\u06cc\u0633\u0627 \u0645\u062a \u06a9\u0631\u0646\u0627! \u06cc\u06c1 \u0633\u0628 \u06a9\u0686\u06be \u0631\u0628 \u06a9\u06cc \u0637\u0631\u0641 \u0633\u06d2 \u06c1\u06d2\u06d4 \u0627\u064f\u0633\u06cc \u0646\u06d2 \u06c1\u0645\u06cc\u06ba \u0645\u062d\u0641\u0648\u0638 \u0631\u06a9\u06be \u06a9\u0631 \u062d\u0645\u0644\u06c1 \u0622\u0648\u0631 \u0644\u0679\u06cc\u0631\u0648\u06ba \u067e\u0631 \u0641\u062a\u062d \u0628\u062e\u0634\u06cc\u06d4"
        },
        {
            "chapter": 30,
            "verse": 24,
            "name": "1 Samuel 30:24",
            "text": "\u062a\u0648 \u067e\u06be\u0631 \u06c1\u0645 \u0622\u067e \u06a9\u06cc \u0628\u0627\u062a \u06a9\u0633 \u0637\u0631\u062d \u0645\u0627\u0646\u06cc\u06ba\u061f \u062c\u0648 \u067e\u06cc\u0686\u06be\u06d2 \u0631\u06c1 \u06a9\u0631 \u0633\u0627\u0645\u0627\u0646 \u06a9\u06cc \u062d\u0641\u0627\u0638\u062a \u06a9\u0631 \u0631\u06c1\u0627 \u062a\u06be\u0627 \u0627\u064f\u0633\u06d2 \u0628\u06be\u06cc \u0627\u064f\u062a\u0646\u0627 \u06c1\u06cc \u0645\u0644\u06d2 \u06af\u0627 \u062c\u062a\u0646\u0627 \u06a9\u06c1 \u0627\u064f\u0633\u06d2 \u062c\u0648 \u062f\u0634\u0645\u0646 \u0633\u06d2 \u0644\u0691\u0646\u06d2 \u06af\u06cc\u0627 \u062a\u06be\u0627\u06d4 \u06c1\u0645 \u06cc\u06c1 \u0633\u0628 \u06a9\u0686\u06be \u0628\u0631\u0627\u0628\u0631 \u0628\u0631\u0627\u0628\u0631 \u062a\u0642\u0633\u06cc\u0645 \u06a9\u0631\u06cc\u06ba \u06af\u06d2\u06d4\u201c"
        },
        {
            "chapter": 30,
            "verse": 25,
            "name": "1 Samuel 30:25",
            "text": "\u0627\u064f\u0633 \u0648\u0642\u062a \u0633\u06d2 \u06cc\u06c1 \u0627\u0635\u0648\u0644 \u0628\u0646 \u06af\u06cc\u0627\u06d4 \u062f\u0627\u0624\u062f \u0646\u06d2 \u0627\u0650\u0633\u06d2 \u0627\u0633\u0631\u0627\u0626\u06cc\u0644\u06cc \u0642\u0627\u0646\u0648\u0646 \u06a9\u0627 \u062d\u0635\u06c1 \u0628\u0646\u0627 \u062f\u06cc\u0627 \u062c\u0648 \u0622\u062c \u062a\u06a9 \u062c\u0627\u0631\u06cc \u06c1\u06d2\u06d4"
        },
        {
            "chapter": 30,
            "verse": 26,
            "name": "1 Samuel 30:26",
            "text": "\u0635\u0650\u0642\u0644\u0627\u062c \u0648\u0627\u067e\u0633 \u067e\u06c1\u0646\u0686\u0646\u06d2 \u067e\u0631 \u062f\u0627\u0624\u062f \u0646\u06d2 \u0644\u064f\u0648\u0679\u06d2 \u06c1\u0648\u0626\u06d2 \u0645\u0627\u0644 \u06a9\u0627 \u0627\u06cc\u06a9 \u062d\u0635\u06c1 \u06cc\u06c1\u0648\u062f\u0627\u06c1 \u06a9\u06d2 \u0628\u0632\u0631\u06af\u0648\u06ba \u06a9\u06d2 \u067e\u0627\u0633 \u0628\u06be\u06cc\u062c \u062f\u06cc\u0627 \u062c\u0648 \u0627\u064f\u0633 \u06a9\u06d2 \u062f\u0648\u0633\u062a \u062a\u06be\u06d2\u06d4 \u0633\u0627\u062a\u06be \u0633\u0627\u062a\u06be \u0627\u064f\u0633 \u0646\u06d2 \u067e\u06cc\u063a\u0627\u0645 \u0628\u06be\u06cc\u062c\u0627\u060c \u201d\u0622\u067e \u06a9\u06d2 \u0644\u0626\u06d2 \u06cc\u06c1 \u062a\u062d\u0641\u06c1 \u0631\u0628 \u06a9\u06d2 \u062f\u0634\u0645\u0646\u0648\u06ba \u0633\u06d2 \u0644\u064f\u0648\u0679 \u0644\u06cc\u0627 \u06af\u06cc\u0627 \u06c1\u06d2\u06d4\u201c"
        },
        {
            "chapter": 30,
            "verse": 27,
            "name": "1 Samuel 30:27",
            "text": "\u06cc\u06c1 \u062a\u062d\u0641\u06d2 \u0627\u064f\u0633 \u0646\u06d2 \u0630\u06cc\u0644 \u06a9\u06d2 \u0634\u06c1\u0631\u0648\u06ba \u0645\u06cc\u06ba \u0628\u06be\u06cc\u062c \u062f\u06cc\u0626\u06d2: \u0628\u06cc\u062a \u0627\u06cc\u0644\u060c \u0631\u0627\u0645\u0627\u062a \u0646\u062c\u0628\u060c \u06cc\u062a\u06cc\u0631\u060c"
        },
        {
            "chapter": 30,
            "verse": 28,
            "name": "1 Samuel 30:28",
            "text": "\u0639\u0631\u0648\u0639\u06cc\u0631\u060c \u0633\u0650\u0641\u0645\u0648\u062a\u060c \u0627\u0650\u0633\u062a\u0645\u0648\u0639\u060c"
        },
        {
            "chapter": 30,
            "verse": 29,
            "name": "1 Samuel 30:29",
            "text": "\u0631\u06a9\u0644\u060c \u062d\u064f\u0631\u0645\u06c1\u060c \u0628\u0648\u0631\u0639\u0633\u0627\u0646\u060c \u0639\u062a\u0627\u06a9 \u0627\u0648\u0631 \u062d\u0628\u0631\u0648\u0646\u06d4 \u0627\u0650\u0633 \u06a9\u06d2 \u0639\u0644\u0627\u0648\u06c1 \u0627\u064f\u0633 \u0646\u06d2 \u062a\u062d\u0641\u06d2 \u06cc\u0631\u062d\u0645\u0626\u06cc\u0644\u06cc\u0648\u06ba\u060c \u0642\u06cc\u0646\u06cc\u0648\u06ba \u0627\u0648\u0631 \u0628\u0627\u0642\u06cc \u0627\u064f\u0646 \u062a\u0645\u0627\u0645 \u0634\u06c1\u0631\u0648\u06ba \u06a9\u0648 \u0628\u06be\u06cc\u062c \u062f\u06cc\u0626\u06d2 \u062c\u0646 \u0645\u06cc\u06ba \u0648\u06c1 \u06a9\u0628\u06be\u06cc \u0679\u06be\u06c1\u0631\u0627 \u062a\u06be\u0627\u06d4  "
        },
        {
            "chapter": 30,
            "verse": 30,
            "name": "1 Samuel 30:30",
            "text": "\u0631\u06a9\u0644\u060c \u062d\u064f\u0631\u0645\u06c1\u060c \u0628\u0648\u0631\u0639\u0633\u0627\u0646\u060c \u0639\u062a\u0627\u06a9 \u0627\u0648\u0631 \u062d\u0628\u0631\u0648\u0646\u06d4 \u0627\u0650\u0633 \u06a9\u06d2 \u0639\u0644\u0627\u0648\u06c1 \u0627\u064f\u0633 \u0646\u06d2 \u062a\u062d\u0641\u06d2 \u06cc\u0631\u062d\u0645\u0626\u06cc\u0644\u06cc\u0648\u06ba\u060c \u0642\u06cc\u0646\u06cc\u0648\u06ba \u0627\u0648\u0631 \u0628\u0627\u0642\u06cc \u0627\u064f\u0646 \u062a\u0645\u0627\u0645 \u0634\u06c1\u0631\u0648\u06ba \u06a9\u0648 \u0628\u06be\u06cc\u062c \u062f\u06cc\u0626\u06d2 \u062c\u0646 \u0645\u06cc\u06ba \u0648\u06c1 \u06a9\u0628\u06be\u06cc \u0679\u06be\u06c1\u0631\u0627 \u062a\u06be\u0627\u06d4  "
        },
        {
            "chapter": 30,
            "verse": 31,
            "name": "1 Samuel 30:31",
            "text": "\u0631\u06a9\u0644\u060c \u062d\u064f\u0631\u0645\u06c1\u060c \u0628\u0648\u0631\u0639\u0633\u0627\u0646\u060c \u0639\u062a\u0627\u06a9 \u0627\u0648\u0631 \u062d\u0628\u0631\u0648\u0646\u06d4 \u0627\u0650\u0633 \u06a9\u06d2 \u0639\u0644\u0627\u0648\u06c1 \u0627\u064f\u0633 \u0646\u06d2 \u062a\u062d\u0641\u06d2 \u06cc\u0631\u062d\u0645\u0626\u06cc\u0644\u06cc\u0648\u06ba\u060c \u0642\u06cc\u0646\u06cc\u0648\u06ba \u0627\u0648\u0631 \u0628\u0627\u0642\u06cc \u0627\u064f\u0646 \u062a\u0645\u0627\u0645 \u0634\u06c1\u0631\u0648\u06ba \u06a9\u0648 \u0628\u06be\u06cc\u062c \u062f\u06cc\u0626\u06d2 \u062c\u0646 \u0645\u06cc\u06ba \u0648\u06c1 \u06a9\u0628\u06be\u06cc \u0679\u06be\u06c1\u0631\u0627 \u062a\u06be\u0627\u06d4  "
        }
    ]
}