{
    "translation": "Sagradas Escrituras (1569)",
    "abbreviation": "sse",
    "lang": "es",
    "language": "Spanish",
    "direction": "LTR",
    "encoding": "",
    "book_nr": 26,
    "book_name": "Ezekiel",
    "chapter": 18,
    "name": "Ezekiel 18",
    "verses": [
        {
            "chapter": 18,
            "verse": 1,
            "name": "Ezekiel 18:1",
            "text": "Y vino Palabra del SE\u00d1OR a m\u00ed, diciendo:"
        },
        {
            "chapter": 18,
            "verse": 2,
            "name": "Ezekiel 18:2",
            "text": "\u00bfQu\u00e9 pens\u00e1is vosotros, vosotros que us\u00e1is este refr\u00e1n sobre la tierra de Israel, diciendo: Los padres comieron el agraz, y los dientes de los hijos tienen la dentera?"
        },
        {
            "chapter": 18,
            "verse": 3,
            "name": "Ezekiel 18:3",
            "text": "Vivo yo, dijo el Se\u00f1or DIOS, que nunca m\u00e1s tendr\u00e9is <FI>por qu\u00e9<Fi> usar este refr\u00e1n en Israel."
        },
        {
            "chapter": 18,
            "verse": 4,
            "name": "Ezekiel 18:4",
            "text": "He aqu\u00ed que todas las almas son m\u00edas; como el alma del padre, as\u00ed el alma del hijo es m\u00eda; el alma que pecare, esa morir\u00e1."
        },
        {
            "chapter": 18,
            "verse": 5,
            "name": "Ezekiel 18:5",
            "text": "Y el hombre que fuere justo, e hiciere juicio y justicia;"
        },
        {
            "chapter": 18,
            "verse": 6,
            "name": "Ezekiel 18:6",
            "text": "que no comiere sobre los montes, ni alzare sus ojos a los \u00eddolos de la Casa de Israel, ni violare la mujer de su pr\u00f3jimo, ni <FI>se<Fi> llegare a la mujer menstruosa,"
        },
        {
            "chapter": 18,
            "verse": 7,
            "name": "Ezekiel 18:7",
            "text": "ni oprimiere a ninguno; al deudor tornare su prenda, no cometiere robo, diere de su pan al hambriento, y cubriere al desnudo con vestido,"
        },
        {
            "chapter": 18,
            "verse": 8,
            "name": "Ezekiel 18:8",
            "text": "no prestare a inter\u00e9s, ni recibiere m\u00e1s <FI>de lo que hubiere dado<Fi> ; de la maldad retrajere su mano, e hiciere juicio de verdad entre hombre y hombre,"
        },
        {
            "chapter": 18,
            "verse": 9,
            "name": "Ezekiel 18:9",
            "text": "en mis ordenanzas caminare, y guardare mis derechos para hacer <FI>seg\u00fan la<Fi> verdad, \u00e9ste es justo; \u00e9ste vivir\u00e1, dijo el Se\u00f1or DIOS."
        },
        {
            "chapter": 18,
            "verse": 10,
            "name": "Ezekiel 18:10",
            "text": "Mas si engendrare hijo ladr\u00f3n, derramador de sangre, o que haga alguna cosa de \u00e9stas,"
        },
        {
            "chapter": 18,
            "verse": 11,
            "name": "Ezekiel 18:11",
            "text": "Y que no haga las otras; antes comiere sobre los montes, o violare la mujer de su pr\u00f3jimo,"
        },
        {
            "chapter": 18,
            "verse": 12,
            "name": "Ezekiel 18:12",
            "text": "al pobre y menesteroso oprimiere, cometiere robos, no tornare la prenda, o alzare sus ojos a los \u00eddolos, o hiciere abominaci\u00f3n,"
        },
        {
            "chapter": 18,
            "verse": 13,
            "name": "Ezekiel 18:13",
            "text": "diere a usura, y recibiere m\u00e1s de lo que dio; \u00bfvivir\u00e1 \u00e9ste? No vivir\u00e1. Todas estas abominaciones hizo; de cierto morir\u00e1; su sangre ser\u00e1 sobre \u00e9l."
        },
        {
            "chapter": 18,
            "verse": 14,
            "name": "Ezekiel 18:14",
            "text": "Pero si \u00e9ste engendrare hijo, el cual viere todos los pecados que su padre hizo, y vi\u00e9ndolos no hiciere seg\u00fan ellos;"
        },
        {
            "chapter": 18,
            "verse": 15,
            "name": "Ezekiel 18:15",
            "text": "no comiere sobre los montes, ni alzare sus ojos a los \u00eddolos de la Casa de Israel; la mujer de su pr\u00f3jimo no violare,"
        },
        {
            "chapter": 18,
            "verse": 16,
            "name": "Ezekiel 18:16",
            "text": "ni oprimiere a nadie; la prenda no empe\u00f1are, ni cometiere robos; al hambriento diere de su pan, y cubriere de vestido al desnudo;"
        },
        {
            "chapter": 18,
            "verse": 17,
            "name": "Ezekiel 18:17",
            "text": "apartare su mano de <FI>oprimir<Fi> al pobre, usura ni aumento no recibiere; hiciere <FI>seg\u00fan<Fi> mis derechos, y anduviere en mis ordenanzas, \u00e9ste no morir\u00e1 por la maldad de su padre; de cierto vivir\u00e1."
        },
        {
            "chapter": 18,
            "verse": 18,
            "name": "Ezekiel 18:18",
            "text": "Su padre, por cuanto hizo agravio, despoj\u00f3 violentamente al hermano, e hizo en medio de su pueblo lo que no es bueno, he aqu\u00ed que \u00e9l morir\u00e1 por su maldad."
        },
        {
            "chapter": 18,
            "verse": 19,
            "name": "Ezekiel 18:19",
            "text": "Y si dijereis: \u00bfPor qu\u00e9 el hijo no llevar\u00e1 el pecado de su padre? Porque el hijo hizo juicio y justicia, guard\u00f3 todas mis ordenanzas, y las hizo, de cierto vivir\u00e1."
        },
        {
            "chapter": 18,
            "verse": 20,
            "name": "Ezekiel 18:20",
            "text": "El alma que pecare, esa morir\u00e1; el hijo no llevar\u00e1 el pecado del padre, ni el padre llevar\u00e1 el pecado del hijo; la justicia del justo ser\u00e1 sobre \u00e9l, y la impiedad del imp\u00edo ser\u00e1 sobre \u00e9l."
        },
        {
            "chapter": 18,
            "verse": 21,
            "name": "Ezekiel 18:21",
            "text": "Mas el imp\u00edo, si se apartare de todos sus pecados que hizo, y guardare todas mis ordenanzas, e hiciere juicio y justicia, de cierto vivir\u00e1; no morir\u00e1."
        },
        {
            "chapter": 18,
            "verse": 22,
            "name": "Ezekiel 18:22",
            "text": "Todas sus rebeliones que cometi\u00f3, no le ser\u00e1n recordadas; por su justicia que hizo vivir\u00e1."
        },
        {
            "chapter": 18,
            "verse": 23,
            "name": "Ezekiel 18:23",
            "text": "\u00bfQuiero yo por ventura la muerte del imp\u00edo? Dijo el Se\u00f1or DIOS. \u00bfNo vivir\u00e1, si se apartare de sus caminos?"
        },
        {
            "chapter": 18,
            "verse": 24,
            "name": "Ezekiel 18:24",
            "text": "Mas si el justo se apartare de su justicia, y cometiere maldad, e hiciere conforme a todas las abominaciones que el imp\u00edo hizo; \u00bfvivir\u00e1 \u00e9l? Todas las justicias que hizo no vendr\u00e1n en memoria; por su rebeli\u00f3n con que prevaric\u00f3, y por su pecado que cometi\u00f3, por ellos morir\u00e1."
        },
        {
            "chapter": 18,
            "verse": 25,
            "name": "Ezekiel 18:25",
            "text": "Y si dijereis: No es derecho el camino del Se\u00f1or, o\u00edd ahora, Casa de Israel: \u00bfNo es derecho mi camino? \u00bfNo son vuestros caminos torcidos?"
        },
        {
            "chapter": 18,
            "verse": 26,
            "name": "Ezekiel 18:26",
            "text": "Apart\u00e1ndose el justo de su justicia, y haciendo iniquidad, \u00e9l morir\u00e1 en ello; por su iniquidad que hizo, morir\u00e1."
        },
        {
            "chapter": 18,
            "verse": 27,
            "name": "Ezekiel 18:27",
            "text": "Y apart\u00e1ndose el imp\u00edo de su impiedad que hizo, y haciendo juicio y justicia, har\u00e1 vivir su alma."
        },
        {
            "chapter": 18,
            "verse": 28,
            "name": "Ezekiel 18:28",
            "text": "Porque mir\u00f3, y se apart\u00f3 de todas sus rebeliones que hizo, de cierto vivir\u00e1; no morir\u00e1."
        },
        {
            "chapter": 18,
            "verse": 29,
            "name": "Ezekiel 18:29",
            "text": "Si a\u00fan dijere la Casa de Israel: No es derecho el camino del Se\u00f1or; \u00bfno son derechos mis caminos, Casa de Israel? Cierto, vuestros caminos no son derechos."
        },
        {
            "chapter": 18,
            "verse": 30,
            "name": "Ezekiel 18:30",
            "text": "Por tanto, <FI>yo<Fi> os juzgar\u00e9 a cada uno seg\u00fan sus caminos, oh Casa de Israel, dijo el Se\u00f1or DIOS. Convert\u00edos, y haced convertir de todas vuestras iniquidades; y no os ser\u00e1 la iniquidad causa de ruina."
        },
        {
            "chapter": 18,
            "verse": 31,
            "name": "Ezekiel 18:31",
            "text": "Echad de vosotros todas vuestras iniquidades con que <FI>te<Fi> hab\u00e9is rebelado, y haceos coraz\u00f3n nuevo y esp\u00edritu nuevo. \u00bfY por qu\u00e9 morir\u00e9is, Casa de Israel?"
        },
        {
            "chapter": 18,
            "verse": 32,
            "name": "Ezekiel 18:32",
            "text": "Que no quiero la muerte del que muere, dijo el Se\u00f1or DIOS, convert\u00edos pues, y vivir\u00e9is."
        }
    ]
}