{
    "translation": "Kitaabka Quduuska Ah",
    "abbreviation": "somkqa",
    "lang": "so",
    "language": "Somali",
    "direction": "LTR",
    "encoding": "UTF-8",
    "book_nr": 4,
    "book_name": "Numbers",
    "chapter": 30,
    "name": "Numbers 30",
    "verses": [
        {
            "chapter": 30,
            "verse": 1,
            "name": "Numbers 30:1",
            "text": "    Kolkaasaa Muuse madaxdii qabiilooyinka reer binu Israa\u2019iil la hadlay, oo wuxuu ku yidhi, Intanu waa wixii Rabbigu amray. "
        },
        {
            "chapter": 30,
            "verse": 2,
            "name": "Numbers 30:2",
            "text": "Markii nin Rabbiga nidar u nidro, amase uu dhaar ugu dhaarto oo uu naftiisa sidaas ugu xidho, waa inuusan eraygiisa jebin. Waa inuu sameeyaa kulli wixii afkiisa ka soo baxay oo dhan. "
        },
        {
            "chapter": 30,
            "verse": 3,
            "name": "Numbers 30:3",
            "text": "Qof dumar ahuna markay Rabbiga nidar u nidarto oo ay sidaas nafteeda ugu xidho, oo ay gurigii aabbaheed joogto iyadoo dhallinyaro ah, "
        },
        {
            "chapter": 30,
            "verse": 4,
            "name": "Numbers 30:4",
            "text": "haddii aabbaheed maqlo nidarkeeda iyo dhaarteedii ay nafteeda ku xidhay, oo uu markaas iska aamuso, de markaas nidarradeedii oo dhammu way taagnaan doonaan, oo dhaar kastoo ay nafteeda ku xidhayna waa taagnaan doontaa. "
        },
        {
            "chapter": 30,
            "verse": 5,
            "name": "Numbers 30:5",
            "text": "Laakiinse haddii aabbaheed u diido maalintii uu maqlo, nidarradeedii iyo dhaaraheedii ay nafteeda ku xidhay midkoodna taagnaan maayo, oo Rabbiguna wuu cafiyayaa iyada, maxaa yeelay, aabbaheed baa u diiday. "
        },
        {
            "chapter": 30,
            "verse": 6,
            "name": "Numbers 30:6",
            "text": "Oo hadday nin leedahay iyadoo ay kor saaran yihiin nidarradeedii iyo hadalkii degdegga ahaa oo bushimaheeda ka baxay oo ay nafteeda ku xidhay, "
        },
        {
            "chapter": 30,
            "verse": 7,
            "name": "Numbers 30:7",
            "text": "haddii ninkeedu maqlo oo uu iska aamuso maalintii uu maqlo, markaas nidarradeedii way taagnaan doonaan, oo dhaaraheedii ay nafteeda ku xidhayna way taagnaan doonaan. "
        },
        {
            "chapter": 30,
            "verse": 8,
            "name": "Numbers 30:8",
            "text": "Laakiinse haddii ninkeedu u diido maalintii uu maqlo, markaasuu burin doonaa nidarkii saarnaa iyo hadalkii degdegga ahaa oo bushimaheeda ka baxay oo ay nafteeda ku xidhay; oo Rabbiguna iyada wuu cafiyi doonaa. "
        },
        {
            "chapter": 30,
            "verse": 9,
            "name": "Numbers 30:9",
            "text": "Laakiinse carmal laga dhintay, amase tii la furay, nidarkeeda iyo xataa waxa kastoo ay nafteeda ku xidhayba way taagnaan doonaan. "
        },
        {
            "chapter": 30,
            "verse": 10,
            "name": "Numbers 30:10",
            "text": "Oo hadday nidar gasho ama ay nafteeda dhaar ku xidho iyadoo guriga ninkeeda joogta, "
        },
        {
            "chapter": 30,
            "verse": 11,
            "name": "Numbers 30:11",
            "text": "oo haddii ninkeedu maqlo oo uu iska aamuso ee uusan iyada u diidin, markaas nidarradeedii oo dhammu way taagnaan doonaan, oo dhaar kastoo ay nafteeda ku xidhayna way taagnaan doontaa. "
        },
        {
            "chapter": 30,
            "verse": 12,
            "name": "Numbers 30:12",
            "text": "Laakiinse haddii ninkeedu uu iyaga buriyo maalintii uu maqlay, markaas wax alla wixii bushimaheeda ka soo baxay oo nidarradeeda ku saabsan amase ku saabsan dhaartii ay nafteeda ku xidhay ma ay taagnaan doonaan, waayo, ninkeedii baa buriyey, oo Rabbiguna wuu cafiyi doonaa iyada. "
        },
        {
            "chapter": 30,
            "verse": 13,
            "name": "Numbers 30:13",
            "text": "Nidar kasta iyo dhaar kasta oo nafta lagu xidho in lagu dhibo aawadeed, ninkeedaa adkayn kara ama ninkeedaa burin kara. "
        },
        {
            "chapter": 30,
            "verse": 14,
            "name": "Numbers 30:14",
            "text": "Laakiinse haddii ninkeedu maalin ka maalin ka aamuso iyada, markaas wuu adkeeyaa nidarradeedii oo dhan iyo dhaaraheedii iyada saarnaa oo dhan. Wuu adkeeyey, maxaa yeelay, wuu isaga aamusay maalintii uu maqlay. "
        },
        {
            "chapter": 30,
            "verse": 15,
            "name": "Numbers 30:15",
            "text": "Laakiinse hadduu buriyo markuu maqlay dabadeed, de markaas isagaa qaadaya dembigeedii. "
        },
        {
            "chapter": 30,
            "verse": 16,
            "name": "Numbers 30:16",
            "text": "Kuwanu waa qaynuunnadii Rabbigu ku amray Muuse, ee u dhexeeya nin iyo naagtiis, oo u dhexeeya aabbe iyo gabadhiis dhallinyaro ah oo guriga aabbaheed joogta.    "
        }
    ]
}