{
    "translation": "Magyar Bibliat\u00e1rsulat \u00fajford\u00edt\u00e1s\u00fa Bibli\u00e1ja",
    "abbreviation": "hunuj",
    "lang": "hu",
    "language": "Hungarian",
    "direction": "LTR",
    "encoding": "UTF-8",
    "book_nr": 21,
    "book_name": "Ecclesiastes",
    "chapter": 10,
    "name": "Ecclesiastes 10",
    "verses": [
        {
            "chapter": 10,
            "verse": 1,
            "name": "Ecclesiastes 10:1",
            "text": " Egy d\u00f6gl\u00f6tt l\u00e9gyt\u0151l b\u00fcd\u00f6s lesz \u00e9s megerjed a ken\u0151csk\u00e9sz\u00edt\u0151 olaja; egy kis ostobas\u00e1g hat\u00e1sosabb a b\u00f6lcsess\u00e9gn\u00e9l \u00e9s a tisztess\u00e9gn\u00e9l."
        },
        {
            "chapter": 10,
            "verse": 2,
            "name": "Ecclesiastes 10:2",
            "text": "A b\u00f6lcs ember gondolatai a j\u00f3ra, az ostoba gondolatai a rosszra ir\u00e1nyulnak."
        },
        {
            "chapter": 10,
            "verse": 3,
            "name": "Ecclesiastes 10:3",
            "text": "Ak\u00e1rmerre j\u00e1r is az ostoba, fogyat\u00e9kos az esze, m\u00e9gis mindenkir\u0151l azt gondolja, hogy az az ostoba."
        },
        {
            "chapter": 10,
            "verse": 4,
            "name": "Ecclesiastes 10:4",
            "text": "Ha az uralkod\u00f3 haragra lobban ellened, ne hagyd el helyedet, mert a higgadts\u00e1g nagy v\u00e9tkeket akad\u00e1lyoz meg!"
        },
        {
            "chapter": 10,
            "verse": 5,
            "name": "Ecclesiastes 10:5",
            "text": "L\u00e1ttam, hogy van olyan rossz dolog is a nap alatt, amely a hatalmasok t\u00e9ved\u00e9s\u00e9b\u0151l k\u00f6vetkezik:"
        },
        {
            "chapter": 10,
            "verse": 6,
            "name": "Ecclesiastes 10:6",
            "text": "az ostob\u00e1k nagy m\u00e9lt\u00f3s\u00e1gra ker\u00fclnek, az \u00e9rdemesek pedig alacsony sorsra jutnak."
        },
        {
            "chapter": 10,
            "verse": 7,
            "name": "Ecclesiastes 10:7",
            "text": "L\u00e1ttam rabszolg\u00e1kat l\u00f3h\u00e1ton \u00fclni, \u00e9s fejedelmeket gyalog j\u00e1rni, mintha rabszolg\u00e1k voln\u00e1nak."
        },
        {
            "chapter": 10,
            "verse": 8,
            "name": "Ecclesiastes 10:8",
            "text": "Aki vermet \u00e1s, beleesik abba, \u00e9s aki lerontja a k\u0151ker\u00edt\u00e9st, azt megmarja a k\u00edgy\u00f3."
        },
        {
            "chapter": 10,
            "verse": 9,
            "name": "Ecclesiastes 10:9",
            "text": "Aki k\u00f6vet fejt, megs\u00e9rtheti mag\u00e1t, \u00e9s aki f\u00e1t hasogat, veszedelemben forog."
        },
        {
            "chapter": 10,
            "verse": 10,
            "name": "Ecclesiastes 10:10",
            "text": "Ha kicsorbul a vas, \u00e9s nem k\u00f6sz\u00f6r\u00fclik ki, akkor t\u00f6bb er\u0151t kell kifejteni. A helyesen alkalmazott b\u00f6lcsess\u00e9g a hasznos!"
        },
        {
            "chapter": 10,
            "verse": 11,
            "name": "Ecclesiastes 10:11",
            "text": "Ha megmar a k\u00edgy\u00f3, miel\u0151tt megb\u0171v\u00f6lt\u00e9k, semmit sem \u00e9r azt\u00e1n a k\u00edgy\u00f3b\u0171v\u00f6l\u0151 tudom\u00e1nya."
        },
        {
            "chapter": 10,
            "verse": 12,
            "name": "Ecclesiastes 10:12",
            "text": "A b\u00f6lcs embert kedvess\u00e9 teszik saj\u00e1t szavai, az ostob\u00e1t pedig saj\u00e1t sz\u00e1ja teszi t\u00f6nkre."
        },
        {
            "chapter": 10,
            "verse": 13,
            "name": "Ecclesiastes 10:13",
            "text": "Besz\u00e9d\u00e9nek a kezdete butas\u00e1g, \u00e9s a v\u00e9ge sz\u00f6rny\u0171 ostobas\u00e1g."
        },
        {
            "chapter": 10,
            "verse": 14,
            "name": "Ecclesiastes 10:14",
            "text": "Az ostoba szapor\u00edtja a sz\u00f3t, pedig nem tudja senki, hogy mi fog t\u00f6rt\u00e9nni. Ki is tudn\u00e1 megmondani, hogy mit hoz a j\u00f6v\u0151?"
        },
        {
            "chapter": 10,
            "verse": 15,
            "name": "Ecclesiastes 10:15",
            "text": "Az ostob\u00e1t \u00fagy kif\u00e1rasztja a munk\u00e1ja, hogy a v\u00e1rosba sem tud bemenni."
        },
        {
            "chapter": 10,
            "verse": 16,
            "name": "Ecclesiastes 10:16",
            "text": "Jaj neked, orsz\u00e1g, ha kir\u00e1lyod gyermek, \u00e9s vezet\u0151id m\u00e1r reggel lakom\u00e1znak!"
        },
        {
            "chapter": 10,
            "verse": 17,
            "name": "Ecclesiastes 10:17",
            "text": "Boldog vagy, orsz\u00e1g, ha kir\u00e1lyod nemes ember, \u00e9s vezet\u0151id a rendes id\u0151ben \u00e9tkeznek, \u00f6nuralommal \u00e9s nem r\u00e9szegeskedve!"
        },
        {
            "chapter": 10,
            "verse": 18,
            "name": "Ecclesiastes 10:18",
            "text": "Ha rest az ember, megroskad a gerenda, \u00e9s ha \u00f6lbe teszi a kez\u00e9t, cs\u00f6p\u00f6g a h\u00e1ztet\u0151."
        },
        {
            "chapter": 10,
            "verse": 19,
            "name": "Ecclesiastes 10:19",
            "text": "Mulats\u00e1g kedv\u00e9\u00e9rt rendeznek lakom\u00e1t, \u00e9s vid\u00e1mm\u00e1 teszi az \u00e9letet a bor, de p\u00e9nz kell mindehhez!"
        },
        {
            "chapter": 10,
            "verse": 20,
            "name": "Ecclesiastes 10:20",
            "text": "M\u00e9g gondolatodban se \u00e1tkozd a kir\u00e1lyt, \u00e9s h\u00e1l\u00f3szob\u00e1dban se \u00e1tkozd a gazdagot! Mert az \u00e9gi mad\u00e1r is elviszi a sz\u00f3t, \u00e9s a sz\u00e1rnyas \u00e1llat is el\u00e1rulja a besz\u00e9det!   "
        }
    ]
}