{
    "translation": "Aleppo Codex",
    "abbreviation": "aleppo",
    "lang": "he",
    "language": "Hebrew",
    "direction": "RTL",
    "encoding": "UTF-8",
    "book_nr": 18,
    "book_name": "Job",
    "chapter": 21,
    "name": "Job 21",
    "verses": [
        {
            "chapter": 21,
            "verse": 1,
            "name": "Job 21:1",
            "text": "\u00a0\u00a0 \u00a0\u00a0 \u00a0\u00a0 \u00a0\u00a0 \u00a0\u00a0 \u00a0\u00a0 \u05d5\u05d9\u05e2\u05df \u05d0\u05d9\u05d5\u05d1 \u05d5\u05d9\u05d0\u05de\u05e8 "
        },
        {
            "chapter": 21,
            "verse": 2,
            "name": "Job 21:2",
            "text": "\u00a0\u00a0\u05e9\u05de\u05e2\u05d5 \u05e9\u05de\u05d5\u05e2 \u05de\u05dc\u05ea\u05d9 \u00a0\u00a0 \u05d5\u05ea\u05d4\u05d9-\u05d6\u05d0\u05ea \u05ea\u05e0\u05d7\u05d5\u05de\u05ea\u05d9\u05db\u05dd "
        },
        {
            "chapter": 21,
            "verse": 3,
            "name": "Job 21:3",
            "text": "\u00a0\u00a0\u05e9\u05d0\u05d5\u05e0\u05d9 \u05d5\u05d0\u05e0\u05db\u05d9 \u05d0\u05d3\u05d1\u05e8 \u00a0\u00a0 \u05d5\u05d0\u05d7\u05e8 \u05d3\u05d1\u05e8\u05d9 \u05ea\u05dc\u05e2\u05d9\u05d2 "
        },
        {
            "chapter": 21,
            "verse": 4,
            "name": "Job 21:4",
            "text": "\u00a0\u00a0\u05d4\u05d0\u05e0\u05db\u05d9 \u05dc\u05d0\u05d3\u05dd \u05e9\u05d9\u05d7\u05d9 \u00a0\u00a0 \u05d5\u05d0\u05dd-\u05de\u05d3\u05d5\u05e2 \u05dc\u05d0-\u05ea\u05e7\u05e6\u05e8 \u05e8\u05d5\u05d7\u05d9 "
        },
        {
            "chapter": 21,
            "verse": 5,
            "name": "Job 21:5",
            "text": "\u00a0\u00a0\u05e4\u05e0\u05d5-\u05d0\u05dc\u05d9 \u05d5\u05d4\u05e9\u05de\u05d5 \u00a0\u00a0 \u05d5\u05e9\u05d9\u05de\u05d5 \u05d9\u05d3 \u05e2\u05dc-\u05e4\u05d4 "
        },
        {
            "chapter": 21,
            "verse": 6,
            "name": "Job 21:6",
            "text": "\u00a0\u00a0\u05d5\u05d0\u05dd-\u05d6\u05db\u05e8\u05ea\u05d9 \u05d5\u05e0\u05d1\u05d4\u05dc\u05ea\u05d9 \u00a0\u00a0 \u05d5\u05d0\u05d7\u05d6 \u05d1\u05e9\u05e8\u05d9 \u05e4\u05dc\u05e6\u05d5\u05ea "
        },
        {
            "chapter": 21,
            "verse": 7,
            "name": "Job 21:7",
            "text": "\u00a0\u00a0\u05de\u05d3\u05d5\u05e2 \u05e8\u05e9\u05e2\u05d9\u05dd \u05d9\u05d7\u05d9\u05d5 \u00a0\u00a0 \u05e2\u05ea\u05e7\u05d5 \u05d2\u05dd-\u05d2\u05d1\u05e8\u05d5 \u05d7\u05d9\u05dc "
        },
        {
            "chapter": 21,
            "verse": 8,
            "name": "Job 21:8",
            "text": "\u00a0\u00a0\u05d6\u05e8\u05e2\u05dd \u05e0\u05db\u05d5\u05df \u05dc\u05e4\u05e0\u05d9\u05d4\u05dd \u05e2\u05de\u05dd \u00a0\u00a0 \u05d5\u05e6\u05d0\u05e6\u05d0\u05d9\u05d4\u05dd \u05dc\u05e2\u05d9\u05e0\u05d9\u05d4\u05dd "
        },
        {
            "chapter": 21,
            "verse": 9,
            "name": "Job 21:9",
            "text": "\u00a0\u00a0\u05d1\u05ea\u05d9\u05d4\u05dd \u05e9\u05dc\u05d5\u05dd \u05de\u05e4\u05d7\u05d3 \u00a0\u00a0 \u05d5\u05dc\u05d0 \u05e9\u05d1\u05d8 \u05d0\u05dc\u05d5\u05d4 \u05e2\u05dc\u05d9\u05d4\u05dd "
        },
        {
            "chapter": 21,
            "verse": 10,
            "name": "Job 21:10",
            "text": "\u00a0\u00a0\u05e9\u05d5\u05e8\u05d5 \u05e2\u05d1\u05e8 \u05d5\u05dc\u05d0 \u05d9\u05d2\u05e2\u05dc \u00a0\u00a0 \u05ea\u05e4\u05dc\u05d8 \u05e4\u05e8\u05ea\u05d5 \u05d5\u05dc\u05d0 \u05ea\u05e9\u05db\u05dc "
        },
        {
            "chapter": 21,
            "verse": 11,
            "name": "Job 21:11",
            "text": "\u00a0\u00a0\u05d9\u05e9\u05dc\u05d7\u05d5 \u05db\u05e6\u05d0\u05df \u05e2\u05d5\u05d9\u05dc\u05d9\u05d4\u05dd \u00a0\u00a0 \u05d5\u05d9\u05dc\u05d3\u05d9\u05d4\u05dd \u05d9\u05e8\u05e7\u05d3\u05d5\u05df "
        },
        {
            "chapter": 21,
            "verse": 12,
            "name": "Job 21:12",
            "text": "\u00a0\u00a0\u05d9\u05e9\u05d0\u05d5 \u05db\u05ea\u05e3 \u05d5\u05db\u05e0\u05d5\u05e8 \u00a0\u00a0 \u05d5\u05d9\u05e9\u05de\u05d7\u05d5 \u05dc\u05e7\u05d5\u05dc \u05e2\u05d5\u05d2\u05d1 "
        },
        {
            "chapter": 21,
            "verse": 13,
            "name": "Job 21:13",
            "text": "\u00a0\u00a0\u05d9\u05d1\u05dc\u05d5 (\u05d9\u05db\u05dc\u05d5) \u05d1\u05d8\u05d5\u05d1 \u05d9\u05de\u05d9\u05d4\u05dd \u00a0\u00a0 \u05d5\u05d1\u05e8\u05d2\u05e2 \u05e9\u05d0\u05d5\u05dc \u05d9\u05d7\u05ea\u05d5 "
        },
        {
            "chapter": 21,
            "verse": 14,
            "name": "Job 21:14",
            "text": "\u00a0\u00a0\u05d5\u05d9\u05d0\u05de\u05e8\u05d5 \u05dc\u05d0\u05dc \u05e1\u05d5\u05e8 \u05de\u05de\u05e0\u05d5 \u00a0\u00a0 \u05d5\u05d3\u05e2\u05ea \u05d3\u05e8\u05db\u05d9\u05da \u05dc\u05d0 \u05d7\u05e4\u05e6\u05e0\u05d5 "
        },
        {
            "chapter": 21,
            "verse": 15,
            "name": "Job 21:15",
            "text": "\u00a0\u00a0\u05de\u05d4-\u05e9\u05d3\u05d9 \u05db\u05d9-\u05e0\u05e2\u05d1\u05d3\u05e0\u05d5 \u00a0\u00a0 \u05d5\u05de\u05d4-\u05e0\u05d5\u05e2\u05d9\u05dc \u05db\u05d9 \u05e0\u05e4\u05d2\u05e2-\u05d1\u05d5 "
        },
        {
            "chapter": 21,
            "verse": 16,
            "name": "Job 21:16",
            "text": "\u00a0\u00a0\u05d4\u05df \u05dc\u05d0 \u05d1\u05d9\u05d3\u05dd \u05d8\u05d5\u05d1\u05dd \u00a0\u00a0 \u05e2\u05e6\u05ea \u05e8\u05e9\u05e2\u05d9\u05dd \u05e8\u05d7\u05e7\u05d4 \u05de\u05e0\u05d9 "
        },
        {
            "chapter": 21,
            "verse": 17,
            "name": "Job 21:17",
            "text": "\u00a0\u00a0\u05db\u05de\u05d4 \u05e0\u05e8-\u05e8\u05e9\u05e2\u05d9\u05dd \u05d9\u05d3\u05e2\u05da\u2014 \u00a0\u00a0 \u05d5\u05d9\u05d1\u05d0 \u05e2\u05dc\u05d9\u05de\u05d5 \u05d0\u05d9\u05d3\u05dd\u05d7\u05d1\u05dc\u05d9\u05dd \u00a0\u00a0 \u05d9\u05d7\u05dc\u05e7 \u05d1\u05d0\u05e4\u05d5 "
        },
        {
            "chapter": 21,
            "verse": 18,
            "name": "Job 21:18",
            "text": "\u00a0\u00a0\u05d9\u05d4\u05d9\u05d5 \u05db\u05ea\u05d1\u05df \u05dc\u05e4\u05e0\u05d9-\u05e8\u05d5\u05d7 \u00a0\u00a0 \u05d5\u05db\u05de\u05e5 \u05d2\u05e0\u05d1\u05ea\u05d5 \u05e1\u05d5\u05e4\u05d4 "
        },
        {
            "chapter": 21,
            "verse": 19,
            "name": "Job 21:19",
            "text": "\u00a0\u00a0\u05d0\u05dc\u05d5\u05d4 \u05d9\u05e6\u05e4\u05df-\u05dc\u05d1\u05e0\u05d9\u05d5 \u05d0\u05d5\u05e0\u05d5 \u00a0\u00a0 \u05d9\u05e9\u05dc\u05dd \u05d0\u05dc\u05d9\u05d5 \u05d5\u05d9\u05d3\u05e2 "
        },
        {
            "chapter": 21,
            "verse": 20,
            "name": "Job 21:20",
            "text": "\u00a0\u00a0\u05d9\u05e8\u05d0\u05d5 \u05e2\u05d9\u05e0\u05d5 \u05db\u05d9\u05d3\u05d5 \u00a0\u00a0 \u05d5\u05de\u05d7\u05de\u05ea \u05e9\u05d3\u05d9 \u05d9\u05e9\u05ea\u05d4 "
        },
        {
            "chapter": 21,
            "verse": 21,
            "name": "Job 21:21",
            "text": "\u00a0\u00a0\u05db\u05d9 \u05de\u05d4-\u05d7\u05e4\u05e6\u05d5 \u05d1\u05d1\u05d9\u05ea\u05d5 \u05d0\u05d7\u05e8\u05d9\u05d5 \u00a0\u00a0 \u05d5\u05de\u05e1\u05e4\u05e8 \u05d7\u05d3\u05e9\u05d9\u05d5 \u05d7\u05e6\u05e6\u05d5 "
        },
        {
            "chapter": 21,
            "verse": 22,
            "name": "Job 21:22",
            "text": "\u00a0\u00a0\u05d4\u05dc\u05d0\u05dc \u05d9\u05dc\u05de\u05d3-\u05d3\u05e2\u05ea \u00a0\u00a0 \u05d5\u05d4\u05d5\u05d0 \u05e8\u05de\u05d9\u05dd \u05d9\u05e9\u05e4\u05d5\u05d8 "
        },
        {
            "chapter": 21,
            "verse": 23,
            "name": "Job 21:23",
            "text": "\u00a0\u00a0\u05d6\u05d4\u2014\u05d9\u05de\u05d5\u05ea \u05d1\u05e2\u05e6\u05dd \u05ea\u05de\u05d5 \u00a0\u00a0 \u05db\u05dc\u05d5 \u05e9\u05dc\u05d0\u05e0\u05df \u05d5\u05e9\u05dc\u05d9\u05d5 "
        },
        {
            "chapter": 21,
            "verse": 24,
            "name": "Job 21:24",
            "text": "\u00a0\u00a0\u05e2\u05d8\u05d9\u05e0\u05d9\u05d5 \u05de\u05dc\u05d0\u05d5 \u05d7\u05dc\u05d1 \u00a0\u00a0 \u05d5\u05de\u05d7 \u05e2\u05e6\u05de\u05d5\u05ea\u05d9\u05d5 \u05d9\u05e9\u05e7\u05d4 "
        },
        {
            "chapter": 21,
            "verse": 25,
            "name": "Job 21:25",
            "text": "\u00a0\u00a0\u05d5\u05d6\u05d4\u2014\u05d9\u05de\u05d5\u05ea \u05d1\u05e0\u05e4\u05e9 \u05de\u05e8\u05d4 \u00a0\u00a0 \u05d5\u05dc\u05d0-\u05d0\u05db\u05dc \u05d1\u05d8\u05d5\u05d1\u05d4 "
        },
        {
            "chapter": 21,
            "verse": 26,
            "name": "Job 21:26",
            "text": "\u00a0\u00a0\u05d9\u05d7\u05d3 \u05e2\u05dc-\u05e2\u05e4\u05e8 \u05d9\u05e9\u05db\u05d1\u05d5 \u00a0\u00a0 \u05d5\u05e8\u05de\u05d4 \u05ea\u05db\u05e1\u05d4 \u05e2\u05dc\u05d9\u05d4\u05dd "
        },
        {
            "chapter": 21,
            "verse": 27,
            "name": "Job 21:27",
            "text": "\u00a0\u00a0\u05d4\u05df \u05d9\u05d3\u05e2\u05ea\u05d9 \u05de\u05d7\u05e9\u05d1\u05d5\u05ea\u05d9\u05db\u05dd \u00a0\u00a0 \u05d5\u05de\u05d6\u05de\u05d5\u05ea \u05e2\u05dc\u05d9 \u05ea\u05d7\u05de\u05e1\u05d5 "
        },
        {
            "chapter": 21,
            "verse": 28,
            "name": "Job 21:28",
            "text": "\u00a0\u00a0\u05db\u05d9 \u05ea\u05d0\u05de\u05e8\u05d5 \u05d0\u05d9\u05d4 \u05d1\u05d9\u05ea-\u05e0\u05d3\u05d9\u05d1 \u00a0\u00a0 \u05d5\u05d0\u05d9\u05d4 \u05d0\u05d4\u05dc \u05de\u05e9\u05db\u05e0\u05d5\u05ea \u05e8\u05e9\u05e2\u05d9\u05dd "
        },
        {
            "chapter": 21,
            "verse": 29,
            "name": "Job 21:29",
            "text": "\u00a0\u00a0\u05d4\u05dc\u05d0 \u05e9\u05d0\u05dc\u05ea\u05dd \u05e2\u05d5\u05d1\u05e8\u05d9 \u05d3\u05e8\u05da \u00a0\u00a0 \u05d5\u05d0\u05ea\u05ea\u05dd \u05dc\u05d0 \u05ea\u05e0\u05db\u05e8\u05d5 "
        },
        {
            "chapter": 21,
            "verse": 30,
            "name": "Job 21:30",
            "text": "\u00a0\u00a0\u05db\u05d9 \u05dc\u05d9\u05d5\u05dd \u05d0\u05d9\u05d3 \u05d9\u05d7\u05e9\u05da \u05e8\u05e2 \u00a0\u00a0 \u05dc\u05d9\u05d5\u05dd \u05e2\u05d1\u05e8\u05d5\u05ea \u05d9\u05d5\u05d1\u05dc\u05d5 "
        },
        {
            "chapter": 21,
            "verse": 31,
            "name": "Job 21:31",
            "text": "\u00a0\u00a0\u05de\u05d9-\u05d9\u05d2\u05d9\u05d3 \u05e2\u05dc-\u05e4\u05e0\u05d9\u05d5 \u05d3\u05e8\u05db\u05d5 \u00a0\u00a0 \u05d5\u05d4\u05d5\u05d0-\u05e2\u05e9\u05d4 \u05de\u05d9 \u05d9\u05e9\u05dc\u05dd-\u05dc\u05d5 "
        },
        {
            "chapter": 21,
            "verse": 32,
            "name": "Job 21:32",
            "text": "\u00a0\u00a0\u05d5\u05d4\u05d5\u05d0 \u05dc\u05e7\u05d1\u05e8\u05d5\u05ea \u05d9\u05d5\u05d1\u05dc \u00a0\u00a0 \u05d5\u05e2\u05dc-\u05d2\u05d3\u05d9\u05e9 \u05d9\u05e9\u05e7\u05d5\u05d3 "
        },
        {
            "chapter": 21,
            "verse": 33,
            "name": "Job 21:33",
            "text": "\u00a0\u00a0\u05de\u05ea\u05e7\u05d5-\u05dc\u05d5 \u05e8\u05d2\u05d1\u05d9-\u05e0\u05d7\u05dc \u00a0\u00a0 \u05d5\u05d0\u05d7\u05e8\u05d9\u05d5 \u05db\u05dc-\u05d0\u05d3\u05dd \u05d9\u05de\u05e9\u05d5\u05da \u05d5\u05dc\u05e4\u05e0\u05d9\u05d5 \u05d0\u05d9\u05df \u05de\u05e1\u05e4\u05e8 "
        },
        {
            "chapter": 21,
            "verse": 34,
            "name": "Job 21:34",
            "text": "\u00a0\u00a0\u05d5\u05d0\u05d9\u05da \u05ea\u05e0\u05d7\u05de\u05d5\u05e0\u05d9 \u05d4\u05d1\u05dc \u00a0\u00a0 \u05d5\u05ea\u05e9\u05d5\u05d1\u05ea\u05d9\u05db\u05dd \u05e0\u05e9\u05d0\u05e8-\u05de\u05e2\u05dc  "
        }
    ]
}