{
    "translation": "Aleppo Codex",
    "abbreviation": "aleppo",
    "lang": "he",
    "language": "Hebrew",
    "direction": "RTL",
    "encoding": "UTF-8",
    "book_nr": 18,
    "book_name": "Job",
    "chapter": 35,
    "name": "Job 35",
    "verses": [
        {
            "chapter": 35,
            "verse": 1,
            "name": "Job 35:1",
            "text": "\u00a0\u00a0 \u00a0\u00a0 \u00a0\u00a0 \u00a0\u00a0 \u00a0\u00a0 \u00a0\u00a0 \u05d5\u05d9\u05e2\u05df \u05d0\u05dc\u05d9\u05d4\u05d5 \u05d5\u05d9\u05d0\u05de\u05e8 "
        },
        {
            "chapter": 35,
            "verse": 2,
            "name": "Job 35:2",
            "text": "\u00a0\u00a0\u05d4\u05d6\u05d0\u05ea \u05d7\u05e9\u05d1\u05ea \u05dc\u05de\u05e9\u05e4\u05d8 \u00a0\u00a0 \u05d0\u05de\u05e8\u05ea \u05e6\u05d3\u05e7\u05d9 \u05de\u05d0\u05dc "
        },
        {
            "chapter": 35,
            "verse": 3,
            "name": "Job 35:3",
            "text": "\u00a0\u00a0\u05db\u05d9-\u05ea\u05d0\u05de\u05e8 \u05de\u05d4-\u05d9\u05e1\u05db\u05df-\u05dc\u05da \u00a0\u00a0 \u05de\u05d4-\u05d0\u05e2\u05d9\u05dc \u05de\u05d7\u05d8\u05d0\u05ea\u05d9 "
        },
        {
            "chapter": 35,
            "verse": 4,
            "name": "Job 35:4",
            "text": "\u00a0\u00a0\u05d0\u05e0\u05d9 \u05d0\u05e9\u05d9\u05d1\u05da \u05de\u05dc\u05d9\u05df\u2014 \u00a0\u00a0 \u05d5\u05d0\u05ea-\u05e8\u05e2\u05d9\u05da \u05e2\u05de\u05da "
        },
        {
            "chapter": 35,
            "verse": 5,
            "name": "Job 35:5",
            "text": "\u00a0\u00a0\u05d4\u05d1\u05d8 \u05e9\u05de\u05d9\u05dd \u05d5\u05e8\u05d0\u05d4 \u00a0\u00a0 \u05d5\u05e9\u05d5\u05e8 \u05e9\u05d7\u05e7\u05d9\u05dd \u05d2\u05d1\u05d4\u05d5 \u05de\u05de\u05da "
        },
        {
            "chapter": 35,
            "verse": 6,
            "name": "Job 35:6",
            "text": "\u00a0\u00a0\u05d0\u05dd-\u05d7\u05d8\u05d0\u05ea \u05de\u05d4-\u05ea\u05e4\u05e2\u05dc-\u05d1\u05d5 \u00a0\u00a0 \u05d5\u05e8\u05d1\u05d5 \u05e4\u05e9\u05e2\u05d9\u05da \u05de\u05d4-\u05ea\u05e2\u05e9\u05d4-\u05dc\u05d5 "
        },
        {
            "chapter": 35,
            "verse": 7,
            "name": "Job 35:7",
            "text": "\u00a0\u00a0\u05d0\u05dd-\u05e6\u05d3\u05e7\u05ea \u05de\u05d4-\u05ea\u05ea\u05df-\u05dc\u05d5 \u00a0\u00a0 \u05d0\u05d5 \u05de\u05d4-\u05de\u05d9\u05d3\u05da \u05d9\u05e7\u05d7 "
        },
        {
            "chapter": 35,
            "verse": 8,
            "name": "Job 35:8",
            "text": "\u00a0\u00a0\u05dc\u05d0\u05d9\u05e9-\u05db\u05de\u05d5\u05da \u05e8\u05e9\u05e2\u05da \u00a0\u00a0 \u05d5\u05dc\u05d1\u05df-\u05d0\u05d3\u05dd \u05e6\u05d3\u05e7\u05ea\u05da "
        },
        {
            "chapter": 35,
            "verse": 9,
            "name": "Job 35:9",
            "text": "\u00a0\u00a0\u05de\u05e8\u05d1 \u05e2\u05e9\u05d5\u05e7\u05d9\u05dd \u05d9\u05d6\u05e2\u05d9\u05e7\u05d5 \u00a0\u00a0 \u05d9\u05e9\u05d5\u05e2\u05d5 \u05de\u05d6\u05e8\u05d5\u05e2 \u05e8\u05d1\u05d9\u05dd "
        },
        {
            "chapter": 35,
            "verse": 10,
            "name": "Job 35:10",
            "text": "\u00a0\u00a0\u05d5\u05dc\u05d0-\u05d0\u05de\u05e8\u2014\u05d0\u05d9\u05d4 \u05d0\u05dc\u05d5\u05d4 \u05e2\u05e9\u05d9 \u00a0\u00a0 \u05e0\u05ea\u05df \u05d6\u05de\u05e8\u05d5\u05ea \u05d1\u05dc\u05d9\u05dc\u05d4 "
        },
        {
            "chapter": 35,
            "verse": 11,
            "name": "Job 35:11",
            "text": "\u00a0\u00a0\u05de\u05dc\u05e4\u05e0\u05d5 \u05de\u05d1\u05d4\u05de\u05d5\u05ea \u05d0\u05e8\u05e5 \u00a0\u00a0 \u05d5\u05de\u05e2\u05d5\u05e3 \u05d4\u05e9\u05de\u05d9\u05dd \u05d9\u05d7\u05db\u05de\u05e0\u05d5 "
        },
        {
            "chapter": 35,
            "verse": 12,
            "name": "Job 35:12",
            "text": "\u00a0\u00a0\u05e9\u05dd \u05d9\u05e6\u05e2\u05e7\u05d5 \u05d5\u05dc\u05d0 \u05d9\u05e2\u05e0\u05d4\u2014 \u00a0\u00a0 \u05de\u05e4\u05e0\u05d9 \u05d2\u05d0\u05d5\u05df \u05e8\u05e2\u05d9\u05dd "
        },
        {
            "chapter": 35,
            "verse": 13,
            "name": "Job 35:13",
            "text": "\u00a0\u00a0\u05d0\u05da-\u05e9\u05d5\u05d0 \u05dc\u05d0-\u05d9\u05e9\u05de\u05e2 \u05d0\u05dc \u00a0\u00a0 \u05d5\u05e9\u05d3\u05d9 \u05dc\u05d0 \u05d9\u05e9\u05d5\u05e8\u05e0\u05d4 "
        },
        {
            "chapter": 35,
            "verse": 14,
            "name": "Job 35:14",
            "text": "\u00a0\u00a0\u05d0\u05e3 \u05db\u05d9-\u05ea\u05d0\u05de\u05e8 \u05dc\u05d0 \u05ea\u05e9\u05d5\u05e8\u05e0\u05d5 \u00a0\u00a0 \u05d3\u05d9\u05df \u05dc\u05e4\u05e0\u05d9\u05d5 \u05d5\u05ea\u05d7\u05d5\u05dc\u05dc \u05dc\u05d5 "
        },
        {
            "chapter": 35,
            "verse": 15,
            "name": "Job 35:15",
            "text": "\u00a0\u00a0\u05d5\u05e2\u05ea\u05d4\u2014\u05db\u05d9-\u05d0\u05d9\u05df \u05e4\u05e7\u05d3 \u05d0\u05e4\u05d5 \u00a0\u00a0 \u05d5\u05dc\u05d0-\u05d9\u05d3\u05e2 \u05d1\u05e4\u05e9 \u05de\u05d0\u05d3 "
        },
        {
            "chapter": 35,
            "verse": 16,
            "name": "Job 35:16",
            "text": "\u00a0\u00a0\u05d5\u05d0\u05d9\u05d5\u05d1 \u05d4\u05d1\u05dc \u05d9\u05e4\u05e6\u05d4-\u05e4\u05d9\u05d4\u05d5 \u00a0\u00a0 \u05d1\u05d1\u05dc\u05d9-\u05d3\u05e2\u05ea \u05de\u05dc\u05d9\u05df \u05d9\u05db\u05d1\u05e8  "
        }
    ]
}