{
    "translation": "Samaritan Pentateuch with variant readings",
    "abbreviation": "spvar",
    "lang": "he",
    "language": "Hebrew",
    "direction": "RTL",
    "encoding": "UTF-8",
    "book_nr": 39,
    "book_name": "Malachi",
    "chapter": 3,
    "name": "Malachi 3",
    "verses": [
        {
            "chapter": 3,
            "verse": 1,
            "name": "Malachi 3:1",
            "text": ""
        },
        {
            "chapter": 3,
            "verse": 2,
            "name": "Malachi 3:2",
            "text": ""
        },
        {
            "chapter": 3,
            "verse": 3,
            "name": "Malachi 3:3",
            "text": ""
        },
        {
            "chapter": 3,
            "verse": 4,
            "name": "Malachi 3:4",
            "text": ""
        },
        {
            "chapter": 3,
            "verse": 5,
            "name": "Malachi 3:5",
            "text": ""
        },
        {
            "chapter": 3,
            "verse": 6,
            "name": "Malachi 3:6",
            "text": ""
        },
        {
            "chapter": 3,
            "verse": 7,
            "name": "Malachi 3:7",
            "text": ""
        },
        {
            "chapter": 3,
            "verse": 8,
            "name": "Malachi 3:8",
            "text": ""
        },
        {
            "chapter": 3,
            "verse": 9,
            "name": "Malachi 3:9",
            "text": ""
        },
        {
            "chapter": 3,
            "verse": 10,
            "name": "Malachi 3:10",
            "text": ""
        },
        {
            "chapter": 3,
            "verse": 11,
            "name": "Malachi 3:11",
            "text": ""
        },
        {
            "chapter": 3,
            "verse": 12,
            "name": "Malachi 3:12",
            "text": ""
        },
        {
            "chapter": 3,
            "verse": 13,
            "name": "Malachi 3:13",
            "text": ""
        },
        {
            "chapter": 3,
            "verse": 14,
            "name": "Malachi 3:14",
            "text": ""
        },
        {
            "chapter": 3,
            "verse": 15,
            "name": "Malachi 3:15",
            "text": ""
        },
        {
            "chapter": 3,
            "verse": 16,
            "name": "Malachi 3:16",
            "text": ""
        },
        {
            "chapter": 3,
            "verse": 17,
            "name": "Malachi 3:17",
            "text": ""
        },
        {
            "chapter": 3,
            "verse": 18,
            "name": "Malachi 3:18",
            "text": ""
        },
        {
            "chapter": 3,
            "verse": 19,
            "name": "Malachi 3:19",
            "text": ""
        },
        {
            "chapter": 3,
            "verse": 20,
            "name": "Malachi 3:20",
            "text": ""
        },
        {
            "chapter": 3,
            "verse": 21,
            "name": "Malachi 3:21",
            "text": ""
        },
        {
            "chapter": 3,
            "verse": 22,
            "name": "Malachi 3:22",
            "text": ""
        },
        {
            "chapter": 3,
            "verse": 23,
            "name": "Malachi 3:23",
            "text": ""
        },
        {
            "chapter": 3,
            "verse": 24,
            "name": "Malachi 3:24",
            "text": ""
        }
    ]
}