{
    "translation": "Vulgata Clementina, Conte editore",
    "abbreviation": "vulgconte",
    "lang": "la",
    "language": "Latin",
    "direction": "LTR",
    "encoding": "UTF-8",
    "book_nr": 38,
    "book_name": "Zechariah",
    "chapter": 6,
    "name": "Zechariah 6",
    "verses": [
        {
            "chapter": 6,
            "verse": 1,
            "name": "Zechariah 6:1",
            "text": "Et conversus sum, et levavi oculos meos, et vidi: et ecce quattuor quadrig\u00e6 egredientes de medio duorum montium: et montes, montes \u00e6rei."
        },
        {
            "chapter": 6,
            "verse": 2,
            "name": "Zechariah 6:2",
            "text": "In quadriga prima equi rufi, et in quadriga secunda equi nigri,"
        },
        {
            "chapter": 6,
            "verse": 3,
            "name": "Zechariah 6:3",
            "text": "et in quadriga tertia equi albi, et in quadriga quarta equi varii, et fortes."
        },
        {
            "chapter": 6,
            "verse": 4,
            "name": "Zechariah 6:4",
            "text": "Et respondi, et dixi ad angelum, qui loquebatur in me: Quid sunt h\u00e6c, domine mi?"
        },
        {
            "chapter": 6,
            "verse": 5,
            "name": "Zechariah 6:5",
            "text": "Et respondit angelus, et ait ad me: Isti sunt quattuor venti c\u00e6li, qui egrediuntur ut stent coram Dominatore omnis terr\u00e6."
        },
        {
            "chapter": 6,
            "verse": 6,
            "name": "Zechariah 6:6",
            "text": "In qua erant equi nigri, egrediebantur in terram Aquilonis: et albi egressi sunt post eos: et varii egressi sunt ad terram Austri."
        },
        {
            "chapter": 6,
            "verse": 7,
            "name": "Zechariah 6:7",
            "text": "Qui autem erant robustissimi, exierunt, et qu\u00e6rebant ire, et discurrere per omnem terram. Et dixit: Ite, perambulate terram. Et perambulaverunt terram."
        },
        {
            "chapter": 6,
            "verse": 8,
            "name": "Zechariah 6:8",
            "text": "Et vocavit me, et locutus est ad me, dicens: Ecce qui egrediuntur in terram Aquilonis, requiescere fecerunt spiritum meum in terra Aquilonis."
        },
        {
            "chapter": 6,
            "verse": 9,
            "name": "Zechariah 6:9",
            "text": "Et factum est verbum Domini ad me, dicens:"
        },
        {
            "chapter": 6,
            "verse": 10,
            "name": "Zechariah 6:10",
            "text": "Sume a transmigratione ab Holdai, et a Tobia, et ab Idaia; et venies tu in die illa, et intrabis domum Iosi\u00e6, filii Sophoni\u00e6, qui venerunt de Babylone."
        },
        {
            "chapter": 6,
            "verse": 11,
            "name": "Zechariah 6:11",
            "text": "Et sumes aurum, et argentum: et facies coronas, et pones in capite Iesu filii Iosedec sacerdotis magni."
        },
        {
            "chapter": 6,
            "verse": 12,
            "name": "Zechariah 6:12",
            "text": "Et loqueris ad eum, dicens: H\u00e6c ait Dominus exercituum, dicens: ECCE VIR ORIENS NOMEN EIUS: et subter eum orietur, et \u00e6dificabit templum Domino."
        },
        {
            "chapter": 6,
            "verse": 13,
            "name": "Zechariah 6:13",
            "text": "Et ipse extruet templum Domino: et ipse portabit gloriam, et sedebit, et dominabitur super solio suo: et erit sacerdos super solio suo, et consilium pacis erit inter illos duos."
        },
        {
            "chapter": 6,
            "verse": 14,
            "name": "Zechariah 6:14",
            "text": "Et coron\u00e6 erunt Helem, et Tobi\u00e6, et Idai\u00e6, et Hem, filio Sophoni\u00e6, memoriale in templo Domini."
        },
        {
            "chapter": 6,
            "verse": 15,
            "name": "Zechariah 6:15",
            "text": "Et qui procul sunt, venient, et \u00e6dificabunt in templo Domini: et scietis quia Dominus exercituum misit me ad vos. Erit autem hoc, si auditu audieritis vocem Domini Dei vestri. "
        }
    ]
}