{
    "translation": "Orya New Testament",
    "abbreviation": "ury_wbti_2005",
    "lang": "ury",
    "language": "Orya",
    "direction": "LTR",
    "encoding": "UTF-8",
    "book_nr": 66,
    "book_name": "Revelation of John",
    "chapter": 16,
    "name": "Revelation of John 16",
    "verses": [
        {
            "chapter": 16,
            "verse": 1,
            "name": "Revelation of John 16:1",
            "text": "   Ki zep Alap z\u00ebre mo gol mwa nakon ol mamkam gubiridaka:   \u201cTujukam de Abon onakore jala bare panci hona insa em okama san dep hl\u00eb-hle tas\u00efk irin.\u201d   "
        },
        {
            "chapter": 16,
            "verse": 2,
            "name": "Revelation of John 16:2",
            "text": "Nonol zini ki zep h\u00ebndep gw\u00eb halka, ki zep h\u00ebndep panci ho zemka okama san hlei yulsuk inki. Dekam zep t\u00efngare zini men zen otweran dowal yala in mo nomora mirenak ma-makan dabik \u00ebkwae-kwae gwek, hen men zen yang tas\u00efn dowal zem insa betek n\u00eb gweblakke.   "
        },
        {
            "chapter": 16,
            "verse": 3,
            "name": "Revelation of John 16:3",
            "text": "Zao de zini ki zep hen panci ho zemka hinak hlei yulsuk inki. Hina dekam zep kal kakak hap jowek\u2013 san de zi tok mo kala kiye. Dekam zep hinak de kirekam-kirekam otweranna k\u00eftak juwes\u00efk.   "
        },
        {
            "chapter": 16,
            "verse": 4,
            "name": "Revelation of John 16:4",
            "text": "Zao de zini ki zep hen panci ho zemka weya-weya san hen ho-nwe ho-nwe san hlei-hli guludaka. T\u00efngare weyana dekam zep kal hap \u00ebjowendak. "
        },
        {
            "chapter": 16,
            "verse": 5,
            "name": "Revelation of John 16:5",
            "text": "\u00cbe dekam zeb\u00eb Alap mo dam taha nakore zisi ahanaka salblak\u2013 men zen t\u00efngare weyana \u00efr\u00efk g\u00efl\u00ef dakake, zen kim gu aneka,   \u201cHare eiwa, Alap Em in Zenke\u2013 enho dam-dam Zi niye. Em angkam gw\u00eb\u2019ara hen orep mes gw\u00ebka. Karekna ansa tak gulzim innira man tangan dakast\u00efl\u00efn. "
        },
        {
            "chapter": 16,
            "verse": 6,
            "name": "Revelation of John 16:6",
            "text": "Zen mes ere mo hl\u00efl irin wenyik mo kala hen ere mo olsa de ayang gul gwizimdin hip de zi mo kala hlei-hli nul gwek, zep angkam Em kalsa de otde gwibin hibe gubiridanda. Kirekam man tangan z\u00ebbe mae hap dakast\u00eflzimnin.\u201d "
        },
        {
            "chapter": 16,
            "verse": 7,
            "name": "Revelation of John 16:7",
            "text": "Ki zep hw\u00ebna zi beyam-byana men mo ola Alap mo golak de te k\u00efl tru tas\u00efk gweblan meja \u00eflt\u00efk\u00efn n\u00efkon anakan wet sok,    \u201cBian Alap Soson Tangan Zini, eno auhu-kama zisi de karek tabinni a\u00efr\u00efs tangan, hen man tangan dakast\u00efl\u00efn!\u201d   "
        },
        {
            "chapter": 16,
            "verse": 8,
            "name": "Revelation of John 16:8",
            "text": "Hw\u00ebna ki zep dan-n\u00ebr dan-n\u00ebr zini panci ho zemka yakla nwenak hlei yul guku. Yakla nwena dekam zep s\u00ebrkam tangan sal-sal gweka\u2013 z\u00ebno sal-sala in hap dikim zi sop nik \u00ebta\u00efbl\u00efn-ta\u00efbl\u00efn gwen hap. "
        },
        {
            "chapter": 16,
            "verse": 9,
            "name": "Revelation of John 16:9",
            "text": "Dekam zep h\u00ebndep zini yakla sal-sal hap sopna \u00ebta\u00efbl\u00efn-ta\u00efbl\u00efn gwek. Zen dekam zep hen Alap mo bosena lamang nul gwek, sap Zen Zen karek-karekna insa lup gul sonezimki. Zen man ki sap karekna insa noltowe gwek, hw\u00ebna hom kim z\u00ebre mae mo karek-karek nakon \u00ebhale gwe\u2019ak, hw\u00ebna zen dekam hen b\u00ebjen Alap mo bosena anakan teip gulsublun \u201cAlap, Em eiwa teips\u00efn tanganna.\u201d   "
        },
        {
            "chapter": 16,
            "verse": 10,
            "name": "Revelation of John 16:10",
            "text": "Hw\u00ebna aha-ere taha-tap zini in ki zep panci ho zemka otweran dowala in mo \u00efr\u00efk g\u00efn \u00eb yalak hiri gul inki. Dekam zep t\u00efngare otweran dowala in mo \u00efr\u00efk g\u00efnn\u00ef kawes\u00efk. Z\u00ebno \u00efr\u00efk g\u00efn zini dekam zep a\u00efr\u00efn h\u00efp en sunu \u00ebjak-jak gwek, "
        },
        {
            "chapter": 16,
            "verse": 11,
            "name": "Revelation of John 16:11",
            "text": "hen dekam zep etan ngatan zi mo langnak de Teips\u00efn Zini Alapsa lamang da gwe\u2019ak, sap kawes\u00efnn\u00ef inkam z\u00ebno mae mo kwae-kwaena s\u00ebrkam \u00ebsang-sang gwek. Hw\u00ebna zen dekam hen hom tapbla nuk\u2013 z\u00ebre mae mo kirekam-kirekam jal-jal gulin hala seran naye.   "
        },
        {
            "chapter": 16,
            "verse": 12,
            "name": "Revelation of John 16:12",
            "text": "Zao de zini ki zep hen panci ho zemka weya yawala Efrat mo ananak hlei yul guku. Weyana in dekam zep sasa gwek. Zen mae hap ki lwak: Eijannak dikim yakla hata sezan nakon teips\u00efn-teips\u00efn nik ya\u00efng gwezan hap. "
        },
        {
            "chapter": 16,
            "verse": 13,
            "name": "Revelation of John 16:13",
            "text": "Hw\u00ebna dekam zeb\u00eb dan-ahare dowal karekna hlauludak. Z\u00ebno mae mo nwe-masena san de blina kiye. Ahana jalom yala in mo \u00ebk mwa nakon wet so zaka, ahana hi mwa nakore otweran dowal yala in mo \u00ebk mwa nakon wet soka, hen ahana okama mwa nakore dowala in mo \u00ebk mwa nakon wet soka\u2013 in zen boton gwekake, \u201c\u00cbe an Alap mo olsa\u00eb ayang gul gwizim\u2019in.\u201d "
        },
        {
            "chapter": 16,
            "verse": 14,
            "name": "Revelation of John 16:14",
            "text": "Bli makare dowal-dowala in mae hap dena: Zen de owas-owassa syal gwe-gwibin hip. Zen sa t\u00efngare langnak de teips\u00efn-teips\u00efn zi nik dep tagal gulsundan hap sek gwenda gwer\u2013 dekam de Alap mo yakla yawalak Alap z\u00ebre han zereijan hap.   "
        },
        {
            "chapter": 16,
            "verse": 15,
            "name": "Revelation of John 16:15",
            "text": "Emki \u00ebenlala gwen Yesus mensa hamal hap anakan gu-gubirida gwekake,   \u201c\u00cbe sow\u00eb zi mo kim asa hatazal! Em in zen salok-salokkam asa kara \u00eb\u00b7gwebla\u2019an, em a\u00eflya gwibinnike lowehe gwe\u2019an. Hen kirekam\u2013 em in zen Asa de hut tu ane gun hup dawemkam kara \u00eb\u00b7gwebla\u2019an. Ere mae mo pakeanna dawem enkam kara la gwibik. Ki hw\u00ebna mumuk ennak de Asa hut so gublunkam, ki irkan esa sahera ban \u00ebzaul.\u201d    "
        },
        {
            "chapter": 16,
            "verse": 16,
            "name": "Revelation of John 16:16",
            "text": "Bli makare dan-ahare dowala in dekam zep okamanak de teips\u00efn-teips\u00efn wenyaka eijan hap tagal nulsuk\u2013 lang bosena Ibrani olkam \u201cHarmagedonk.\u201d   "
        },
        {
            "chapter": 16,
            "verse": 17,
            "name": "Revelation of John 16:17",
            "text": "Zao ki zep Alap mo dam taha nakore zini tujuna panci ho zemka okamanak de asesenak hlei-hli gulu daka. Dekam zeb\u00eb etan Alap z\u00ebre mo ola sak\u2013 ol mamkam kim gu aneka,   \u201cAno jala angkam mes tap gwe henan.\u201d "
        },
        {
            "chapter": 16,
            "verse": 18,
            "name": "Revelation of John 16:18",
            "text": "Dekam zep ngl\u00ef angna zausun sr\u00ebmkam ang ta tineka, hen ngl\u00efna s\u00ebrkam tangan tadre tineka, hen s\u00ebrkam de j\u00efng\u00efl yala dekam zep gw\u00ebka. Nonol zi yang tas\u00efn n\u00efkon, hom mae kirekam de j\u00efng\u00efl\u00ef gw\u00ebka. J\u00efng\u00efl\u00ef in karek tangankam dena. "
        },
        {
            "chapter": 16,
            "verse": 19,
            "name": "Revelation of John 16:19",
            "text": "\u00cb yala Babel  dekam zep hlang-hlang gwenkam h\u00ebndep dan-ahan n\u00ebk, hen okamanak de t\u00efngare langnak de \u00eb-\u00ebna k\u00eftak zep \u00ebtimbwas gwek. Sap t\u00efngare \u00eb-\u00ebnak de zini mes \u00eb yala Babelk de zi mo kim karekna nulin halasen gwek. Z\u00ebno mae mo karekna man tangan taman k\u00efn\u00efk, in zep Alap kirekam z\u00ebre mo jala bare wiklom hona insa de otdebin hip golzimki. "
        },
        {
            "chapter": 16,
            "verse": 20,
            "name": "Revelation of John 16:20",
            "text": "J\u00efng\u00efl\u00ef in hap zep t\u00efngare hinak de kama-tek kama-tekna langa san dep \u00ebese-sek gwek, hen t\u00efngare kwatapna hen man \u00ebjek-jak gweka. "
        },
        {
            "chapter": 16,
            "verse": 21,
            "name": "Revelation of John 16:21",
            "text": "Dekam zep es kwak yawal-yawala o\u00b7makan \u00efl t\u00efka\u2013 zisi dikim karek tabin hip. Aha-ere kwakna z\u00ebno dohonna lima-pulu kilogram enkam. Zini dekam zep Alapsa lamang dak\u2013 insa es nabare ona s\u00ebrkam \u00efl t\u00efkake.    </div>"
        }
    ]
}