{
    "translation": "Le Nouveau Testament Version Synodale 1921 et le livre des Psaumes",
    "abbreviation": "fresynodale1921",
    "lang": "fr",
    "language": "French",
    "direction": "LTR",
    "encoding": "UTF-8",
    "book_nr": 26,
    "book_name": "Ezekiel",
    "chapter": 1,
    "name": "Ezekiel 1",
    "verses": [
        {
            "chapter": 1,
            "verse": 1,
            "name": "Ezekiel 1:1",
            "text": ""
        },
        {
            "chapter": 1,
            "verse": 2,
            "name": "Ezekiel 1:2",
            "text": ""
        },
        {
            "chapter": 1,
            "verse": 3,
            "name": "Ezekiel 1:3",
            "text": ""
        },
        {
            "chapter": 1,
            "verse": 4,
            "name": "Ezekiel 1:4",
            "text": ""
        },
        {
            "chapter": 1,
            "verse": 5,
            "name": "Ezekiel 1:5",
            "text": ""
        },
        {
            "chapter": 1,
            "verse": 6,
            "name": "Ezekiel 1:6",
            "text": ""
        },
        {
            "chapter": 1,
            "verse": 7,
            "name": "Ezekiel 1:7",
            "text": ""
        },
        {
            "chapter": 1,
            "verse": 8,
            "name": "Ezekiel 1:8",
            "text": ""
        },
        {
            "chapter": 1,
            "verse": 9,
            "name": "Ezekiel 1:9",
            "text": ""
        },
        {
            "chapter": 1,
            "verse": 10,
            "name": "Ezekiel 1:10",
            "text": ""
        },
        {
            "chapter": 1,
            "verse": 11,
            "name": "Ezekiel 1:11",
            "text": ""
        },
        {
            "chapter": 1,
            "verse": 12,
            "name": "Ezekiel 1:12",
            "text": ""
        },
        {
            "chapter": 1,
            "verse": 13,
            "name": "Ezekiel 1:13",
            "text": ""
        },
        {
            "chapter": 1,
            "verse": 14,
            "name": "Ezekiel 1:14",
            "text": ""
        },
        {
            "chapter": 1,
            "verse": 15,
            "name": "Ezekiel 1:15",
            "text": ""
        },
        {
            "chapter": 1,
            "verse": 16,
            "name": "Ezekiel 1:16",
            "text": ""
        },
        {
            "chapter": 1,
            "verse": 17,
            "name": "Ezekiel 1:17",
            "text": ""
        },
        {
            "chapter": 1,
            "verse": 18,
            "name": "Ezekiel 1:18",
            "text": ""
        },
        {
            "chapter": 1,
            "verse": 19,
            "name": "Ezekiel 1:19",
            "text": ""
        },
        {
            "chapter": 1,
            "verse": 20,
            "name": "Ezekiel 1:20",
            "text": ""
        },
        {
            "chapter": 1,
            "verse": 21,
            "name": "Ezekiel 1:21",
            "text": ""
        },
        {
            "chapter": 1,
            "verse": 22,
            "name": "Ezekiel 1:22",
            "text": ""
        },
        {
            "chapter": 1,
            "verse": 23,
            "name": "Ezekiel 1:23",
            "text": ""
        },
        {
            "chapter": 1,
            "verse": 24,
            "name": "Ezekiel 1:24",
            "text": ""
        },
        {
            "chapter": 1,
            "verse": 25,
            "name": "Ezekiel 1:25",
            "text": ""
        },
        {
            "chapter": 1,
            "verse": 26,
            "name": "Ezekiel 1:26",
            "text": ""
        },
        {
            "chapter": 1,
            "verse": 27,
            "name": "Ezekiel 1:27",
            "text": ""
        },
        {
            "chapter": 1,
            "verse": 28,
            "name": "Ezekiel 1:28",
            "text": ""
        }
    ]
}