{
    "translation": "Le Nouveau Testament Version Synodale 1921 et le livre des Psaumes",
    "abbreviation": "fresynodale1921",
    "lang": "fr",
    "language": "French",
    "direction": "LTR",
    "encoding": "UTF-8",
    "book_nr": 26,
    "book_name": "Ezekiel",
    "chapter": 30,
    "name": "Ezekiel 30",
    "verses": [
        {
            "chapter": 30,
            "verse": 1,
            "name": "Ezekiel 30:1",
            "text": ""
        },
        {
            "chapter": 30,
            "verse": 2,
            "name": "Ezekiel 30:2",
            "text": ""
        },
        {
            "chapter": 30,
            "verse": 3,
            "name": "Ezekiel 30:3",
            "text": ""
        },
        {
            "chapter": 30,
            "verse": 4,
            "name": "Ezekiel 30:4",
            "text": ""
        },
        {
            "chapter": 30,
            "verse": 5,
            "name": "Ezekiel 30:5",
            "text": ""
        },
        {
            "chapter": 30,
            "verse": 6,
            "name": "Ezekiel 30:6",
            "text": ""
        },
        {
            "chapter": 30,
            "verse": 7,
            "name": "Ezekiel 30:7",
            "text": ""
        },
        {
            "chapter": 30,
            "verse": 8,
            "name": "Ezekiel 30:8",
            "text": ""
        },
        {
            "chapter": 30,
            "verse": 9,
            "name": "Ezekiel 30:9",
            "text": ""
        },
        {
            "chapter": 30,
            "verse": 10,
            "name": "Ezekiel 30:10",
            "text": ""
        },
        {
            "chapter": 30,
            "verse": 11,
            "name": "Ezekiel 30:11",
            "text": ""
        },
        {
            "chapter": 30,
            "verse": 12,
            "name": "Ezekiel 30:12",
            "text": ""
        },
        {
            "chapter": 30,
            "verse": 13,
            "name": "Ezekiel 30:13",
            "text": ""
        },
        {
            "chapter": 30,
            "verse": 14,
            "name": "Ezekiel 30:14",
            "text": ""
        },
        {
            "chapter": 30,
            "verse": 15,
            "name": "Ezekiel 30:15",
            "text": ""
        },
        {
            "chapter": 30,
            "verse": 16,
            "name": "Ezekiel 30:16",
            "text": ""
        },
        {
            "chapter": 30,
            "verse": 17,
            "name": "Ezekiel 30:17",
            "text": ""
        },
        {
            "chapter": 30,
            "verse": 18,
            "name": "Ezekiel 30:18",
            "text": ""
        },
        {
            "chapter": 30,
            "verse": 19,
            "name": "Ezekiel 30:19",
            "text": ""
        },
        {
            "chapter": 30,
            "verse": 20,
            "name": "Ezekiel 30:20",
            "text": ""
        },
        {
            "chapter": 30,
            "verse": 21,
            "name": "Ezekiel 30:21",
            "text": ""
        },
        {
            "chapter": 30,
            "verse": 22,
            "name": "Ezekiel 30:22",
            "text": ""
        },
        {
            "chapter": 30,
            "verse": 23,
            "name": "Ezekiel 30:23",
            "text": ""
        },
        {
            "chapter": 30,
            "verse": 24,
            "name": "Ezekiel 30:24",
            "text": ""
        },
        {
            "chapter": 30,
            "verse": 25,
            "name": "Ezekiel 30:25",
            "text": ""
        },
        {
            "chapter": 30,
            "verse": 26,
            "name": "Ezekiel 30:26",
            "text": ""
        }
    ]
}