{
    "translation": "Br\u00f8d Nye Testamente",
    "abbreviation": "norbroed",
    "lang": "nb",
    "language": "Norwegian bokmal",
    "direction": "LTR",
    "encoding": "UTF-8",
    "book_nr": 40,
    "book_name": "Matthew",
    "chapter": 1,
    "name": "Matthew 1",
    "verses": [
        {
            "chapter": 1,
            "verse": 1,
            "name": "Matthew 1:1",
            "text": "Jesu (YHWH er redning) Salvedes slektstavle-bokrull, Davids (elsket) s\u00f8nn, Abrahams (far til en folke-mengde) s\u00f8nn."
        },
        {
            "chapter": 1,
            "verse": 2,
            "name": "Matthew 1:2",
            "text": "Abraham fikk Isak (\u00e5 le); Isak fikk Jakob (h\u00e6l-griper eller fortrenger); Jakob fikk Judas (han skal bli roset) og br\u00f8drene hans;"
        },
        {
            "chapter": 1,
            "verse": 3,
            "name": "Matthew 1:3",
            "text": "Judas fikk Peres (en gjennombrytning) og Serah (en oppstandelse) ved Tamar (palmetre); Peres fikk Hesron (innkapslet); Hesron fikk Aram (h\u00f8y);"
        },
        {
            "chapter": 1,
            "verse": 4,
            "name": "Matthew 1:4",
            "text": "Aram fikk Amminadab (en av prinsens folk); Amminadab fikk Nahson (trollmann); Nahson fikk Salmon (drakt: et klesplagg);"
        },
        {
            "chapter": 1,
            "verse": 5,
            "name": "Matthew 1:5",
            "text": "Salmon fikk Boas (i ham er styrke) ved Rahab (vid); Boas fikk Obed (tjening) ved Rut (en kvinnelig venn); Obed fikk Isai (rik);"
        },
        {
            "chapter": 1,
            "verse": 6,
            "name": "Matthew 1:6",
            "text": "Isai fikk kongen David. Kongen David fikk Salomon (fredfull) ved henne som hadde v\u00e6rt Urias (YHWH's lys);"
        },
        {
            "chapter": 1,
            "verse": 7,
            "name": "Matthew 1:7",
            "text": "Salomo fikk Rehabeam (en som gj\u00f8r folket st\u00f8rre); Rehabeam fikk Abia (min far er Jah(Jehova)); Abia fikk Asa (lege, eller kur)"
        },
        {
            "chapter": 1,
            "verse": 8,
            "name": "Matthew 1:8",
            "text": "Asa fikk Josafat (hvem YHWH d\u00f8mmer); Josafat fikk Joram (hvem YHWH har opph\u00f8yet); Joram fikk Ussia (YHWH's styrke);"
        },
        {
            "chapter": 1,
            "verse": 9,
            "name": "Matthew 1:9",
            "text": "Ussia fikk Jotam (YHWH er redelig); Jotam fikk Akas (besitter); Akas fikk Esekias (YHWH's makt);"
        },
        {
            "chapter": 1,
            "verse": 10,
            "name": "Matthew 1:10",
            "text": "Esekias fikk Manasse (glemmer); Manasse fikk Amon (bygger) Amon fikk Josias (hvem YHWH helbreder);"
        },
        {
            "chapter": 1,
            "verse": 11,
            "name": "Matthew 1:11",
            "text": "Josias fikk Jekonja (som YHWH etablerer) og br\u00f8drene hans ved landsforvisningen til Babylon (forvirring)."
        },
        {
            "chapter": 1,
            "verse": 12,
            "name": "Matthew 1:12",
            "text": "Etter landsforvisningen til Babylon, fikk Jekonja Sjealtiel (jeg har spurt gud); Sjealtiel fikk Serubabel (f\u00f8dt i Babel, dvs. Babylon);"
        },
        {
            "chapter": 1,
            "verse": 13,
            "name": "Matthew 1:13",
            "text": "Serubabel fikk Abiud (min far er majestet); Abiud fikk Eljakim (oppreisning av gud); Eljakim fikk Asor (hjelper);"
        },
        {
            "chapter": 1,
            "verse": 14,
            "name": "Matthew 1:14",
            "text": "Asor fikk Sadok (rettferdig); Sadok fikk Akim (Herren vil etablere); Akim fikk Eliud (gud hans pris);"
        },
        {
            "chapter": 1,
            "verse": 15,
            "name": "Matthew 1:15",
            "text": "Eliud fikk Eleasar (guds hjelp); Eleasar fikk Mattan (gave); Mattan fikk Jakob;"
        },
        {
            "chapter": 1,
            "verse": 16,
            "name": "Matthew 1:16",
            "text": "Jakob fikk Josef (la ham tilf\u00f8ye), Marias (deres oppr\u00f8r) mann, og fikk ved henne Jesus som kalles Salvede;"
        },
        {
            "chapter": 1,
            "verse": 17,
            "name": "Matthew 1:17",
            "text": "Slik er alle generasjonene fra Abraham inntil David, fjorten generasjoner; og fra David inntil landsforvisningen til Babylon, fjorten generasjoner; og fra landsforvisningen til Babylon inntil den Salvede, fjorten generasjoner;"
        },
        {
            "chapter": 1,
            "verse": 18,
            "name": "Matthew 1:18",
            "text": "Jesu Salvedes f\u00f8dsel var p\u00e5 denne m\u00e5ten. Da hans mor Maria var blitt forlovet med Josef, f\u00f8r de var kommet sammen ble hun funnet gravid ved den hellige \u00e5nd."
        },
        {
            "chapter": 1,
            "verse": 19,
            "name": "Matthew 1:19",
            "text": "Josef, mannen hennes, som var rettferdig og ikke ville fremvise henne til van\u00e6re, ville hemmelig fral\u00f8se henne."
        },
        {
            "chapter": 1,
            "verse": 20,
            "name": "Matthew 1:20",
            "text": "Han tenkte p\u00e5 dette, se!, en herrens budbringer viste seg for ham i en dr\u00f8m og sa, Josef, Davids s\u00f8nn, frykt ikke for \u00e5 ta Maria, din kvinne, til deg; for det som er f\u00e5tt i henne er ved den hellige \u00e5nd."
        },
        {
            "chapter": 1,
            "verse": 21,
            "name": "Matthew 1:21",
            "text": "Hun skal f\u00f8de en s\u00f8nn, og du skal kalle navnet hans Jesus; for han skal redde sitt folk fra syndene deres."
        },
        {
            "chapter": 1,
            "verse": 22,
            "name": "Matthew 1:22",
            "text": "Og alt dette skjedde for at det skulle bli fullf\u00f8rt som var sagt av herren gjennom forutsieren, da han sa,"
        },
        {
            "chapter": 1,
            "verse": 23,
            "name": "Matthew 1:23",
            "text": "Se!, jomfruen skal ha i magen og skal f\u00f8de en s\u00f8nn, og de skal kalle navnet hans Immanuel, som er oversatt, Gud er blant oss."
        },
        {
            "chapter": 1,
            "verse": 24,
            "name": "Matthew 1:24",
            "text": "Og da Josef var oppvekt fra s\u00f8vnen, gjorde han som herrens budbringer p\u00e5bydde ham; og han tok kvinnen sin,"
        },
        {
            "chapter": 1,
            "verse": 25,
            "name": "Matthew 1:25",
            "text": "og kjente henne ikke inntil hun f\u00f8dte s\u00f8nnen sin den f\u00f8rstef\u00f8dte; og han kalte navnet hans Jesus.  "
        }
    ]
}