{
    "translation": "Br\u00f8d Nye Testamente",
    "abbreviation": "norbroed",
    "lang": "nb",
    "language": "Norwegian bokmal",
    "direction": "LTR",
    "encoding": "UTF-8",
    "book_nr": 44,
    "book_name": "Acts",
    "chapter": 4,
    "name": "Acts 4",
    "verses": [
        {
            "chapter": 4,
            "verse": 1,
            "name": "Acts 4:1",
            "text": "Og idet de talte til folket, kom prestene og tempelets h\u00e6rf\u00f8rer og Saddukeerne (den rettferdige) til dem,"
        },
        {
            "chapter": 4,
            "verse": 2,
            "name": "Acts 4:2",
            "text": "idet de gremmet seg p\u00e5 grunn av at de l\u00e6rte folket og forkynte i Jesus oppstandelsen, den fra d\u00f8de;"
        },
        {
            "chapter": 4,
            "verse": 3,
            "name": "Acts 4:3",
            "text": "og de la hendene p\u00e5 dem og satt de i forvaring til morgenen; for det var kveld allerede."
        },
        {
            "chapter": 4,
            "verse": 4,
            "name": "Acts 4:4",
            "text": "Men mange av dem som h\u00f8rte ordet, trodde, og tallet p\u00e5 mennene ble omkring fem tusen."
        },
        {
            "chapter": 4,
            "verse": 5,
            "name": "Acts 4:5",
            "text": "Og det skjedde p\u00e5 morgenen at f\u00f8rerne og eldre og skriftl\u00e6rde ble brakt sammen til Jerusalem,"
        },
        {
            "chapter": 4,
            "verse": 6,
            "name": "Acts 4:6",
            "text": "og Annas (ydmyk), ypperstepresten, og Kaifas (som tekkelig) og Johannes og Aleksander (mann forsvareri), og s\u00e5 mange som var yppersteprestelig slekt."
        },
        {
            "chapter": 4,
            "verse": 7,
            "name": "Acts 4:7",
            "text": "Og da de hadde plassert dem i midten, spurte de, I hva slags kraft eller hva slags navn gjorde dere dette?"
        },
        {
            "chapter": 4,
            "verse": 8,
            "name": "Acts 4:8",
            "text": "Da Peter hadde blitt fylt av hellig \u00e5nd, sa han til dem, F\u00f8rere av folket og Israels eldre,"
        },
        {
            "chapter": 4,
            "verse": 9,
            "name": "Acts 4:9",
            "text": "hvis vi i dag blir gransket over en velgjerning mot et menneske uten styrke, ved hvem denne har blitt reddet,"
        },
        {
            "chapter": 4,
            "verse": 10,
            "name": "Acts 4:10",
            "text": "la det v\u00e6re kjent for dere alle og hele Israels folk, at i Jesu Salvedes Nasareerens navn, hvem dere korsfestet, hvem gud vekket opp fra d\u00f8de, i dette navn har denne st\u00e5tt frisk framfor dere."
        },
        {
            "chapter": 4,
            "verse": 11,
            "name": "Acts 4:11",
            "text": "Denne er steinen som ble foraktet av dere byggerne, som ble til hj\u00f8rne-hode."
        },
        {
            "chapter": 4,
            "verse": 12,
            "name": "Acts 4:12",
            "text": "Og redningen er ikke i noen andre; for det er heller ikke noe annet navn under himmelen som har blitt gitt blant mennesker, i hvilket vi m\u00e5 bli reddet."
        },
        {
            "chapter": 4,
            "verse": 13,
            "name": "Acts 4:13",
            "text": "Men idet de s\u00e5 Peters og Johannes' fritalenhet, og idet de hadde grepet at de er ul\u00e6rte mennesker og uvitende, undret de seg, \u00f3g de gjenkjente dem at de var med Jesus."
        },
        {
            "chapter": 4,
            "verse": 14,
            "name": "Acts 4:14",
            "text": "Men idet de s\u00e5 mennesket plassert med dem, som hadde blitt helbredet, hadde de ingenting \u00e5 motsi."
        },
        {
            "chapter": 4,
            "verse": 15,
            "name": "Acts 4:15",
            "text": "Men da de hadde kommandert dem til g\u00e5 bort utenfor synedriet, r\u00e5df\u00f8rte de seg med hverandre,"
        },
        {
            "chapter": 4,
            "verse": 16,
            "name": "Acts 4:16",
            "text": "mens de sier, Hva skal vi gj\u00f8re med disse menneskene? For fordi, virkelig, et kjent tegn har blitt gjort gjennom dem, synlig for alle de som bor i Jerusalem, og vi er ikke i stand til \u00e5 fornekte det;"
        },
        {
            "chapter": 4,
            "verse": 17,
            "name": "Acts 4:17",
            "text": "men for at det ikke spres mere blant folket, la oss true dem med en trussel til \u00e5 ikke lenger tale i dette navnet, til noe menneske."
        },
        {
            "chapter": 4,
            "verse": 18,
            "name": "Acts 4:18",
            "text": "Og da de hadde kalt dem, p\u00e5bydde de dem \u00e5 ikke tale i det hele tatt eller \u00e5 l\u00e6re bort i Jesu navn."
        },
        {
            "chapter": 4,
            "verse": 19,
            "name": "Acts 4:19",
            "text": "Men idet Peter og Johannes svarte dem, sa de, Om det er rettferdig framfor gud \u00e5 h\u00f8re dere mer enn gud, d\u00f8m dere selv."
        },
        {
            "chapter": 4,
            "verse": 20,
            "name": "Acts 4:20",
            "text": "For vi er ikke i stand til \u00e5 ikke tale hva vi s\u00e5 og h\u00f8rte."
        },
        {
            "chapter": 4,
            "verse": 21,
            "name": "Acts 4:21",
            "text": "Men da de hadde truet dem ytterligere, fral\u00f8ste de dem, da de hadde funnet ingenting hvordan de kunne straffe dem, p\u00e5 grunn av folket, fordi alle herliggjorde gud for det som har skjedd."
        },
        {
            "chapter": 4,
            "verse": 22,
            "name": "Acts 4:22",
            "text": "For mennesket ved hvem dette helbredelsens tegn hadde skjedd var mere enn f\u00f8rti \u00e5r."
        },
        {
            "chapter": 4,
            "verse": 23,
            "name": "Acts 4:23",
            "text": "Og da de hadde blitt fral\u00f8st, kom de til sine egne, og fortalte hva enn yppersteprestene og de eldre sa til dem."
        },
        {
            "chapter": 4,
            "verse": 24,
            "name": "Acts 4:24",
            "text": "Og da de hadde h\u00f8rt, l\u00f8ftet de opp en enstemmig r\u00f8st til gud, og sa, Hersker, du gud, som gjorde himmelen og jorden og sj\u00f8en og alle ting i dem,"
        },
        {
            "chapter": 4,
            "verse": 25,
            "name": "Acts 4:25",
            "text": "som sa gjennom din gutts, Davids, munn, Hvorfor raste nasjoner, og hvorfor tenkte folk over tomme ting?"
        },
        {
            "chapter": 4,
            "verse": 26,
            "name": "Acts 4:26",
            "text": "Jordens konger fremstilte seg, og f\u00f8rerne ble brakt sammen p\u00e5 det samme sted mot Herren og mot hans Salvede."
        },
        {
            "chapter": 4,
            "verse": 27,
            "name": "Acts 4:27",
            "text": "For de ble i sannhet brakt sammen mot din hellige gutt, Jesus, hvem du salvet, b\u00e5de Herodes (heroisk) og Pontius (av sj\u00f8en) Pilatus (v\u00e6pnet med en lanse), med nasjoner og Israels folk,"
        },
        {
            "chapter": 4,
            "verse": 28,
            "name": "Acts 4:28",
            "text": "for \u00e5 gj\u00f8re hva enn h\u00e5nden din og r\u00e5det ditt fastsatte p\u00e5 forh\u00e5nd til \u00e5 skje."
        },
        {
            "chapter": 4,
            "verse": 29,
            "name": "Acts 4:29",
            "text": "Og n\u00e5, Herre, se p\u00e5 truslene deres, og gi slavene dine \u00e5 tale ordet ditt med all fritalenhet,"
        },
        {
            "chapter": 4,
            "verse": 30,
            "name": "Acts 4:30",
            "text": "i det du utstrekker h\u00e5nden din til helbredelse og tegn og under, til \u00e5 skje gjennom din hellige gutts, Jesu, navn."
        },
        {
            "chapter": 4,
            "verse": 31,
            "name": "Acts 4:31",
            "text": "Og da de hadde bedt inntrengende, ble stedet p\u00e5 hvilket de var brakt sammen rystet, og de ble absolutt alle fylt med hellig \u00e5nd, og talte guds ord med fritalenhet."
        },
        {
            "chapter": 4,
            "verse": 32,
            "name": "Acts 4:32",
            "text": "Og av mengden av dem som trodde var hjertet og sjelen ett, og heller ikke sa \u00e9n at noe av formuen til ham var hans eget, men absolutt alle ting var alminnelig for dem."
        },
        {
            "chapter": 4,
            "verse": 33,
            "name": "Acts 4:33",
            "text": "Og utsendingene gav vitnesbyrdet med stor kraft om herren Jesu oppstandelse, \u00f3g stor n\u00e5de var over dem alle."
        },
        {
            "chapter": 4,
            "verse": 34,
            "name": "Acts 4:34",
            "text": "For det var heller ikke noen manglende blant dem; for s\u00e5 mange som var besittere av omr\u00e5der eller hus, idet de solgte dem, f\u00f8rte prisen av de ting som ble solgt,"
        },
        {
            "chapter": 4,
            "verse": 35,
            "name": "Acts 4:35",
            "text": "og la dem ved utsendingenes f\u00f8tter, og ble gitt ut til hver i samsvar med enn noen hadde behov."
        },
        {
            "chapter": 4,
            "verse": 36,
            "name": "Acts 4:36",
            "text": "Og Joses (opph\u00f8yet) som p\u00e5kaltes Barnabas (s\u00f8nn av hvile) av utsendingene, som er, da det er oversatt, tr\u00f8sts s\u00f8nn, en Levitt, en Kypriot av slekt,"
        },
        {
            "chapter": 4,
            "verse": 37,
            "name": "Acts 4:37",
            "text": "idet en mark var hans, da han hadde solgt den, f\u00f8rte han pengen og la den ved utsendingenes f\u00f8tter.  "
        }
    ]
}