{
    "translation": "NCV Traditional",
    "abbreviation": "cnt",
    "lang": "zh",
    "language": "",
    "direction": "LTR",
    "encoding": "UTF-8",
    "book_nr": 14,
    "book_name": "2 Chronicles",
    "chapter": 34,
    "name": "2 Chronicles 34",
    "verses": [
        {
            "chapter": 34,
            "verse": 1,
            "name": "2 Chronicles 34:1",
            "text": "\u7d04\u897f\u4e9e\u767b\u57fa\u7684\u6642\u5019\u662f\u516b\u6b72\uff1b\u4ed6\u5728\u8036\u8def\u6492\u51b7\u4f5c\u738b\u5171\u4e09\u5341\u4e00\u5e74\u3002"
        },
        {
            "chapter": 34,
            "verse": 2,
            "name": "2 Chronicles 34:2",
            "text": "\u4ed6\u884c\u8036\u548c\u83ef\u770b\u70ba\u6b63\u7684\u4e8b\uff0c\u6548\u6cd5\u4ed6\u5148\u7956\u5927\u885b\u6240\u884c\u7684\uff0c\u4e0d\u504f\u5de6\uff0c\u4e5f\u4e0d\u504f\u53f3\u3002"
        },
        {
            "chapter": 34,
            "verse": 3,
            "name": "2 Chronicles 34:3",
            "text": "\u4ed6\u5728\u4f4d\u7b2c\u516b\u5e74\uff0c\u9084\u662f\u5e74\u5e7c\u7684\u6642\u5019\uff0c\u5c31\u958b\u59cb\u5c0b\u6c42\u4ed6\u5148\u7956\u5927\u885b\u7684\u3000\u795e\u3002\u5230\u4e86\u7b2c\u5341\u4e8c\u5e74\uff0c\u4ed6\u5c31\u958b\u59cb\u6f54\u6de8\u7336\u5927\u548c\u8036\u8def\u6492\u51b7\uff0c\u9664\u6389\u90b1\u58c7\u3001\u4e9e\u820d\u62c9\u3001\u96d5\u50cf\u548c\u9444\u50cf\u3002"
        },
        {
            "chapter": 34,
            "verse": 4,
            "name": "2 Chronicles 34:4",
            "text": "\u773e\u4eba\u5728\u4ed6\u9762\u524d\u62c6\u6bc0\u4e86\u5df4\u529b\u7684\u796d\u58c7\uff0c\u4ed6\u89aa\u81ea\u6253\u788e\u4e86\u58c7\u4e0a\u9ad8\u9ad8\u7684\u9999\u58c7\uff0c\u53c8\u628a\u4e9e\u820d\u62c9\u3001\u96d5\u50cf\u548c\u9444\u50cf\u780d\u788e\uff0c\u6492\u5728\u5411\u9019\u4e9b\u5076\u50cf\u737b\u904e\u796d\u7684\u4eba\u7684\u58b3\u4e0a\u3002"
        },
        {
            "chapter": 34,
            "verse": 5,
            "name": "2 Chronicles 34:5",
            "text": "\u4ed6\u628a\u796d\u53f8\u7684\u9aa8\u982d\u71d2\u5728\u4ed6\u5011\u7684\u796d\u58c7\u4e0a\uff0c\u9019\u6a23\u5c31\u6f54\u6de8\u4e86\u7336\u5927\u548c\u8036\u8def\u6492\u51b7\u3002"
        },
        {
            "chapter": 34,
            "verse": 6,
            "name": "2 Chronicles 34:6",
            "text": "\u4ed6\u53c8\u5728\u746a\u62ff\u897f\u3001\u4ee5\u6cd5\u84ee\u3001\u897f\u7dec\uff0c\u4ee5\u81f3\u62ff\u5f17\u4ed6\u5229\u7684\u5404\u57ce\uff0c\u4ee5\u53ca\u5b83\u5011\u5468\u570d\u8352\u5ee2\u7684\u5730\u65b9\uff0c\u90fd\u9019\u6a23\u884c\u3002"
        },
        {
            "chapter": 34,
            "verse": 7,
            "name": "2 Chronicles 34:7",
            "text": "\u4ed6\u62c6\u6bc0\u4e86\u796d\u58c7\uff0c\u628a\u4e9e\u820d\u62c9\u548c\u96d5\u523b\u7684\u5076\u50cf\u6253\u788e\uff0c\u7834\u788e\u4e86\u4ee5\u8272\u5217\u5168\u5730\u6240\u6709\u7684\u9999\u58c7\uff0c\u5c31\u56de\u8036\u8def\u6492\u51b7\u53bb\u4e86\u3002"
        },
        {
            "chapter": 34,
            "verse": 8,
            "name": "2 Chronicles 34:8",
            "text": "\u7d04\u897f\u4e9e\u5728\u4f4d\u7b2c\u5341\u516b\u5e74\uff0c\u6f54\u6de8\u7336\u5927\u5730\u548c\u8056\u6bbf\u4ee5\u5f8c\uff0c\u5c31\u5dee\u6d3e\u4e9e\u85a9\u5229\u96c5\u7684\u5152\u5b50\u6c99\u756a\u3001\u5e02\u9577\u746a\u897f\u96c5\u548c\u7d04\u54c8\u65af\u7684\u5152\u5b50\u53f2\u5b98\u7d04\u4e9e\uff0c\u53bb\u4fee\u7bc9\u8036\u548c\u83ef\u4ed6\u7684\u3000\u795e\u7684\u6bbf\u3002"
        },
        {
            "chapter": 34,
            "verse": 9,
            "name": "2 Chronicles 34:9",
            "text": "\u65bc\u662f\u4ed6\u5011\u4f86\u898b\u5927\u796d\u53f8\u5e0c\u52d2\u5bb6\uff0c\u628a\u737b\u7d66\u3000\u795e\u7684\u6bbf\u7684\u9280\u5b50\u4ea4\u7d66\u4ed6\u3002\u9019\u9280\u5b50\u90fd\u662f\u5b88\u9580\u7684\u5229\u672a\u4eba\uff0c\u5f9e\u746a\u62ff\u897f\u3001\u4ee5\u6cd5\u84ee\u548c\u4ee5\u8272\u5217\u6240\u6709\u7684\u9918\u6c11\uff0c\u4ee5\u53ca\u7336\u5927\u3001\u4fbf\u96c5\u61ab\u548c\u8036\u8def\u6492\u51b7\u7684\u5c45\u6c11\u90a3\u88e1\u6536\u96c6\u4f86\u7684\u3002"
        },
        {
            "chapter": 34,
            "verse": 10,
            "name": "2 Chronicles 34:10",
            "text": "\u4ed6\u5011\u53c8\u628a\u9280\u5b50\u4ea4\u7d66\u5728\u8036\u548c\u83ef\u6bbf\u88e1\u8ca0\u8cac\u76e3\u5bdf\u7684\u4eba\uff1b\u4ed6\u5011\u53c8\u628a\u9280\u5b50\u767c\u7d66\u5728\u8036\u548c\u83ef\u6bbf\u88e1\u4f5c\u5de5\u7684\u5de5\u4eba\uff0c\u53bb\u4fee\u88dc\u8056\u6bbf\u3002"
        },
        {
            "chapter": 34,
            "verse": 11,
            "name": "2 Chronicles 34:11",
            "text": "\u4ed6\u5011\u628a\u9280\u5b50\u4ea4\u7d66\u6728\u5320\u548c\u77f3\u5320\uff0c\u53bb\u8cfc\u8cb7\u947f\u597d\u7684\u77f3\u982d\u548c\u4f5c\u6728\u67b6\u8207\u6a6b\u6881\u7684\u6728\u6750\uff0c\u4fee\u88dc\u7336\u5927\u5217\u738b\u6bc0\u58de\u4e86\u7684\u6bbf\u5b87\u3002"
        },
        {
            "chapter": 34,
            "verse": 12,
            "name": "2 Chronicles 34:12",
            "text": "\u9019\u4e9b\u4eba\u5fe0\u5fc3\u5730\u5de5\u4f5c\uff1b\u7ba1\u7406\u4ed6\u5011\u7684\u7763\u5de5\u662f\u5229\u672a\u4eba\u7c73\u62c9\u5229\u7684\u5b50\u5b6b\u96c5\u54c8\u548c\u4fc4\u5df4\u5e95\uff1b\u76e3\u7ba1\u4ed6\u5011\u7684\u662f\u54e5\u8f44\u7684\u5b50\u5b6b\u6492\u8fe6\u5229\u96c5\u548c\u7c73\u66f8\u862d\uff1b\u9084\u6709\u6240\u6709\u7cbe\u901a\u6a02\u5668\u7684\u5229\u672a\u4eba\uff0c"
        },
        {
            "chapter": 34,
            "verse": 13,
            "name": "2 Chronicles 34:13",
            "text": "\u7ba1\u7406\u625b\u62ac\u7684\uff0c\u4e26\u4e14\u76e3\u7ba1\u6240\u6709\u4f5c\u5404\u7a2e\u5de5\u4f5c\u7684\u4eba\uff1b\u5229\u672a\u4eba\u4e2d\uff0c\u4e5f\u6709\u4f5c\u66f8\u8a18\u3001\u4f5c\u8077\u54e1\u548c\u4f5c\u5b88\u9580\u7684\u3002"
        },
        {
            "chapter": 34,
            "verse": 14,
            "name": "2 Chronicles 34:14",
            "text": "\u4ed6\u5011\u628a\u737b\u7d66\u8036\u548c\u83ef\u6bbf\u7684\u9280\u5b50\u62ff\u51fa\u4f86\u7684\u6642\u5019\uff0c\u5e0c\u52d2\u5bb6\u796d\u53f8\u767c\u73fe\u4e86\u8036\u548c\u83ef\u85c9\u6469\u897f\u6240\u50b3\u7684\u5f8b\u6cd5\u66f8\u3002"
        },
        {
            "chapter": 34,
            "verse": 15,
            "name": "2 Chronicles 34:15",
            "text": "\u5e0c\u52d2\u5bb6\u5c0d\u66f8\u8a18\u6c99\u756a\u8aaa\uff1a\u201c\u6211\u5728\u8036\u548c\u83ef\u7684\u6bbf\u88e1\u767c\u73fe\u4e86\u5f8b\u6cd5\u66f8\u3002\u201d\u5e0c\u52d2\u5bb6\u5c31\u628a\u66f8\u4ea4\u7d66\u6c99\u756a\u3002"
        },
        {
            "chapter": 34,
            "verse": 16,
            "name": "2 Chronicles 34:16",
            "text": "\u6c99\u756a\u628a\u66f8\u5e36\u5230\u738b\u90a3\u88e1\uff0c\u540c\u6642\u5411\u738b\u5831\u544a\uff1a\u201c\u4f60\u4ea4\u8a17\u4f60\u50d5\u4eba\u7684\u4e8b\uff0c\u4ed6\u5011\u90fd\u8fa6\u59a5\u4e86\u3002"
        },
        {
            "chapter": 34,
            "verse": 17,
            "name": "2 Chronicles 34:17",
            "text": "\u4ed6\u5011\u628a\u5728\u8036\u548c\u83ef\u6bbf\u88e1\u7684\u9280\u5b50\u5012\u51fa\u4f86\uff0c\u4ea4\u7d66\u76e3\u7763\u548c\u4f5c\u5de5\u7684\u4eba\u3002\u201d"
        },
        {
            "chapter": 34,
            "verse": 18,
            "name": "2 Chronicles 34:18",
            "text": "\u66f8\u8a18\u6c99\u756a\u53c8\u544a\u8a34\u738b\uff0c\u8aaa\uff1a\u201c\u5e0c\u52d2\u5bb6\u796d\u53f8\u9084\u4ea4\u7d66\u6211\u4e00\u5377\u66f8\u5377\u3002\u201d\u65bc\u662f\u6c99\u756a\u5728\u738b\u9762\u524d\u8aa6\u8b80\u90a3\u66f8\u3002"
        },
        {
            "chapter": 34,
            "verse": 19,
            "name": "2 Chronicles 34:19",
            "text": "\u738b\u4e00\u807d\u898b\u5f8b\u6cd5\u66f8\u4e0a\u7684\u8a71\uff0c\u5c31\u6495\u88c2\u81ea\u5df1\u7684\u8863\u670d\uff0c"
        },
        {
            "chapter": 34,
            "verse": 20,
            "name": "2 Chronicles 34:20",
            "text": "\u5429\u5490\u5e0c\u52d2\u5bb6\u548c\u6c99\u756a\u7684\u5152\u5b50\u4e9e\u5e0c\u7518\u3001\u7c73\u8fe6\u7684\u5152\u5b50\u4e9e\u6bd4\u9813\u3001\u66f8\u8a18\u6c99\u756a\uff0c\u4ee5\u53ca\u738b\u7684\u81e3\u50d5\u4e9e\u6492\u96c5\uff0c\u8aaa\uff1a"
        },
        {
            "chapter": 34,
            "verse": 21,
            "name": "2 Chronicles 34:21",
            "text": "\u201c\u4f60\u5011\u53bb\uff0c\u70ba\u6211\u3001\u4e5f\u70ba\u4ee5\u8272\u5217\u548c\u7336\u5927\u7684\u9918\u6c11\uff0c\u6c42\u554f\u8036\u548c\u83ef\u95dc\u65bc\u6211\u5011\u767c\u73fe\u7684\u9019\u66f8\u4e0a\u7684\u8a71\uff1b\u56e0\u70ba\u6211\u5011\u7684\u5217\u7956\u6c92\u6709\u8b39\u5b88\u8036\u548c\u83ef\u7684\u8a71\uff0c\u4e5f\u6c92\u6709\u7167\u8457\u9019\u66f8\u4e0a\u6240\u8a18\u7684\u4e00\u5207\u53bb\u884c\uff0c\u6240\u4ee5\u8036\u548c\u83ef\u624d\u5411\u6211\u5011\u5927\u767c\u70c8\u6012\u3002\u201d"
        },
        {
            "chapter": 34,
            "verse": 22,
            "name": "2 Chronicles 34:22",
            "text": "\u65bc\u662f\u5e0c\u52d2\u5bb6\u548c\u738b\u6240\u5dee\u6d3e\u7684\u4eba\u53bb\u898b\u5973\u5148\u77e5\u6236\u52d2\u5927\u3002\u6236\u52d2\u5927\u662f\u638c\u7ba1\u79ae\u670d\u7684\u6c99\u9f8d\u7684\u59bb\u5b50\uff1b\u6c99\u9f8d\u662f\u54c8\u65af\u62c9\u7684\u5b6b\u5b50\u3001\u7279\u74e6\u7684\u5152\u5b50\uff1b\u6236\u52d2\u5927\u4f4f\u5728\u8036\u8def\u6492\u51b7\u7b2c\u4e8c\u5340\uff1b\u4ed6\u5011\u5c0d\u6236\u52d2\u5927\u9019\u6a23\u8aaa\u4e86\u3002"
        },
        {
            "chapter": 34,
            "verse": 23,
            "name": "2 Chronicles 34:23",
            "text": "\u5979\u5c31\u56de\u7b54\u4ed6\u5011\uff1a\u201c\u8036\u548c\u83ef\u4ee5\u8272\u5217\u7684\u3000\u795e\u9019\u6a23\u8aaa\uff1a\u2018\u4f60\u5011\u5c0d\u90a3\u5dee\u4f60\u5011\u4f86\u898b\u6211\u7684\u4eba\u8aaa\uff1a"
        },
        {
            "chapter": 34,
            "verse": 24,
            "name": "2 Chronicles 34:24",
            "text": "\u8036\u548c\u83ef\u9019\u6a23\u8aaa\uff1a\u6211\u8981\u6309\u8457\u5728\u7336\u5927\u738b\u9762\u524d\u8aa6\u8b80\u7684\u90a3\u5377\u66f8\u4e0a\u6240\u5beb\u7684\u4e00\u5207\u5492\u8a5b\uff0c\u964d\u707d\u5728\u9019\u5730\u548c\u9019\u5730\u7684\u5c45\u6c11\u8eab\u4e0a\u3002"
        },
        {
            "chapter": 34,
            "verse": 25,
            "name": "2 Chronicles 34:25",
            "text": "\u56e0\u70ba\u4ed6\u5011\u96e2\u68c4\u4e86\u6211\uff0c\u5411\u5225\u7684\u795e\u71d2\u9999\uff0c\u7528\u4ed6\u5011\u624b\u6240\u505a\u7684\u60f9\u6211\u767c\u6012\uff0c\u6240\u4ee5\u6211\u7684\u5fff\u6012\u5fc5\u50be\u5012\u5728\u9019\u5730\u4e0a\uff0c\u7e3d\u4e0d\u7184\u6ec5\u3002"
        },
        {
            "chapter": 34,
            "verse": 26,
            "name": "2 Chronicles 34:26",
            "text": "\u81f3\u65bc\u90a3\u6d3e\u4f60\u5011\u4f86\u6c42\u554f\u8036\u548c\u83ef\u7684\u7336\u5927\u738b\uff0c\u4f60\u5011\u8981\u9019\u6a23\u5c0d\u4ed6\u8aaa\uff1a\u8036\u548c\u83ef\u4ee5\u8272\u5217\u7684\u3000\u795e\u9019\u6a23\u8aaa\uff1a\u8ad6\u5230\u4f60\u807d\u898b\u7684\u8a71\uff1b"
        },
        {
            "chapter": 34,
            "verse": 27,
            "name": "2 Chronicles 34:27",
            "text": "\u56e0\u70ba\u4f60\u807d\u4e86\u6211\u6307\u8457\u9019\u5730\u65b9\u548c\u9019\u88e1\u7684\u5c45\u6c11\u6240\u8aaa\u7684\u8a71\uff0c\u5c31\u5fc3\u88e1\u611f\u52d5\uff0c\u5728\u3000\u795e\u9762\u524d\u8b19\u5351\uff1b\u4f60\u65e2\u7136\u5728\u6211\u7684\u9762\u524d\u8b19\u5351\uff0c\u53c8\u6495\u88c2\u8863\u670d\uff0c\u5728\u6211\u7684\u9762\u524d\u54ed\u6ce3\uff0c\u6240\u4ee5\u6211\u5c31\u5782\u807d\u4f60\u7684\u79b1\u544a\uff1b\u9019\u662f\u8036\u548c\u83ef\u7684\u5ba3\u544a\u3002"
        },
        {
            "chapter": 34,
            "verse": 28,
            "name": "2 Chronicles 34:28",
            "text": "\u6211\u5fc5\u4f7f\u4f60\u6b78\u5230\u4f60\u7684\u5217\u7956\u90a3\u88e1\u53bb\uff0c\u4f60\u5fc5\u5e73\u5e73\u5b89\u5b89\u6b78\u5165\u4f60\u7684\u58b3\u5893\u3002\u6211\u6240\u8981\u964d\u5728\u9019\u5730\u65b9\u548c\u9019\u5730\u4e0a\u7684\u5c45\u6c11\u8eab\u4e0a\u7684\u4e00\u5207\u707d\u798d\uff0c\u4f60\u5fc5\u4e0d\u6703\u89aa\u773c\u770b\u898b\u3002\u2019\u201d\u4ed6\u5011\u5c31\u628a\u9019\u756a\u8a71\u56de\u8986\u738b\u53bb\u4e86\u3002"
        },
        {
            "chapter": 34,
            "verse": 29,
            "name": "2 Chronicles 34:29",
            "text": "\u65bc\u662f\u738b\u6d3e\u4eba\u628a\u7336\u5927\u548c\u8036\u8def\u6492\u51b7\u7684\u773e\u9577\u8001\u90fd\u53ec\u96c6\u4e86\u4f86\u3002"
        },
        {
            "chapter": 34,
            "verse": 30,
            "name": "2 Chronicles 34:30",
            "text": "\u738b\u548c\u7336\u5927\u773e\u4eba\u3001\u8036\u8def\u6492\u51b7\u7684\u5c45\u6c11\u3001\u796d\u53f8\u3001\u5229\u672a\u4eba\uff0c\u4ee5\u53ca\u6240\u6709\u7684\u4eba\u6c11\uff0c\u7121\u8ad6\u5927\u5c0f\uff0c\u90fd\u4e00\u540c\u4e0a\u8036\u548c\u83ef\u7684\u6bbf\u53bb\uff1b\u738b\u5c31\u628a\u5728\u8036\u548c\u83ef\u6bbf\u88e1\u767c\u73fe\u7684\u7d04\u66f8\u4e0a\u7684\u4e00\u5207\u8a71\uff0c\u90fd\u8aa6\u8b80\u7d66\u4ed6\u5011\u807d\u3002"
        },
        {
            "chapter": 34,
            "verse": 31,
            "name": "2 Chronicles 34:31",
            "text": "\u738b\u7ad9\u5728\u4ed6\u7684\u4f4d\u4e0a\uff0c\u5728\u8036\u548c\u83ef\u9762\u524d\u7acb\u7d04\uff0c\u8981\u4e00\u5fc3\u4e00\u610f\u8ddf\u96a8\u8036\u548c\u83ef\uff0c\u8b39\u5b88\u4ed6\u7684\u8aa1\u547d\u3001\u6cd5\u5ea6\u548c\u5f8b\u4f8b\uff0c\u5be6\u884c\u9019\u66f8\u4e0a\u6240\u8a18\u7acb\u7d04\u7684\u8a93\u8a00\u3002"
        },
        {
            "chapter": 34,
            "verse": 32,
            "name": "2 Chronicles 34:32",
            "text": "\u4ed6\u53c8\u4f7f\u6240\u6709\u5728\u8036\u8def\u6492\u51b7\u548c\u4fbf\u96c5\u61ab\u7684\u4eba\uff0c\u90fd\u9806\u5f9e\u9019\u7d04\u3002\u65bc\u662f\u8036\u8def\u6492\u51b7\u7684\u5c45\u6c11\uff0c\u90fd\u9075\u7167\u4ed6\u5011\u5217\u7956\u7684\u3000\u795e\u7684\u7d04\u800c\u884c\u3002"
        },
        {
            "chapter": 34,
            "verse": 33,
            "name": "2 Chronicles 34:33",
            "text": "\u7d04\u897f\u4e9e\u5728\u4ee5\u8272\u5217\u4eba\u6240\u5c6c\u7684\u5404\u5730\uff0c\u628a\u4e00\u5207\u53ef\u618e\u7684\u7269\u76e1\u90fd\u9664\u6389\uff0c\u4f7f\u6240\u6709\u5728\u4ee5\u8272\u5217\u7684\u4eba\u90fd\u4e8b\u5949\u8036\u548c\u83ef\u4ed6\u5011\u7684\u3000\u795e\u3002\u7d04\u897f\u4e9e\u5728\u4e16\u7684\u65e5\u5b50\uff0c\u4eba\u6c11\u90fd\u8ddf\u96a8\u8036\u548c\u83ef\u4ed6\u5011\u5217\u7956\u7684\u3000\u795e\uff0c\u7e3d\u4e0d\u96e2\u958b\u3002"
        }
    ]
}