{
    "translation": "beibl.net",
    "abbreviation": "welbeiblnet",
    "lang": "cy",
    "language": "Welsh",
    "direction": "LTR",
    "encoding": "UTF-8",
    "book_nr": 19,
    "book_name": "Psalms",
    "chapter": 38,
    "name": "Psalms 38",
    "verses": [
        {
            "chapter": 38,
            "verse": 1,
            "name": "Psalms 38:1",
            "text": "    O Arglwydd, paid dal i\u2019m ceryddu fi\u2019n ddig! Paid dal i\u2019m cosbi fi\u2019n wyllt! "
        },
        {
            "chapter": 38,
            "verse": 2,
            "name": "Psalms 38:2",
            "text": "Mae dy saethau wedi fy nharo fi. Mae dy law yn fy ngwasgu i. "
        },
        {
            "chapter": 38,
            "verse": 3,
            "name": "Psalms 38:3",
            "text": "Dw i\u2019n s\u00e2l yn gorfforol o achos dy ddigofaint di! Does dim iechyd yn fy esgyrn am fy mod i wedi pechu. "
        },
        {
            "chapter": 38,
            "verse": 4,
            "name": "Psalms 38:4",
            "text": "Dw i wedi cael fy llethu gan y drwg wnes i; mae fel baich sy\u2019n rhy drwm i\u2019w gario. "
        },
        {
            "chapter": 38,
            "verse": 5,
            "name": "Psalms 38:5",
            "text": "Mae\u2019r briwiau ar fy nghorff wedi casglu ac yn dechrau drewi; a\u2019r cwbl am fy mod i wedi bod mor dwp. "
        },
        {
            "chapter": 38,
            "verse": 6,
            "name": "Psalms 38:6",
            "text": "Dw i wedi crymu. Mae gen i gywilydd ohona i\u2019n hun. Dw i\u2019n cerdded o gwmpas yn isel fy ysbryd drwy\u2019r dydd. "
        },
        {
            "chapter": 38,
            "verse": 7,
            "name": "Psalms 38:7",
            "text": "Mae fy ochrau\u2019n boenus i gyd; dw i\u2019n teimlo\u2019n s\u00e2l trwyddo i. "
        },
        {
            "chapter": 38,
            "verse": 8,
            "name": "Psalms 38:8",
            "text": "Mae rhyw boen mud yn fy llethu i\u2019n llwyr. Dw i\u2019n griddfan o achos y gwewyr meddwl. "
        },
        {
            "chapter": 38,
            "verse": 9,
            "name": "Psalms 38:9",
            "text": "O Arglwydd, rwyt ti\u2019n gwybod yn iawn be dw i eisiau! Rwyt ti wedi clywed fi\u2019n griddfan. "
        },
        {
            "chapter": 38,
            "verse": 10,
            "name": "Psalms 38:10",
            "text": "Mae fy nghalon i\u2019n curo\u2019n gyflym; does gen i ddim nerth, a dw i\u2019n colli fy ngolwg.   "
        },
        {
            "chapter": 38,
            "verse": 11,
            "name": "Psalms 38:11",
            "text": "Mae fy ffrindiau a\u2019m teulu yn cadw draw oddi wrtho i; a\u2019m cymdogion yn sefyll yn bell i ffwrdd. "
        },
        {
            "chapter": 38,
            "verse": 12,
            "name": "Psalms 38:12",
            "text": "Mae\u2019r rhai sydd am fy lladd i yn gosod trap i mi, a\u2019r rhai sydd am wneud niwed i mi yn siarad y faleisus ac yn dweud pethau twyllodrus drwy\u2019r adeg. "
        },
        {
            "chapter": 38,
            "verse": 13,
            "name": "Psalms 38:13",
            "text": "Ond dw i\u2019n ymateb fel taswn i\u2019n fyddar \u2014 yn gwrthod gwrando. Dw i\u2019n ymddwyn fel rhywun sy\u2019n fud \u2014 yn dweud dim. "
        },
        {
            "chapter": 38,
            "verse": 14,
            "name": "Psalms 38:14",
            "text": "Dw i\u2019n clywed dim, a dw i ddim am ddadlau gyda nhw.   "
        },
        {
            "chapter": 38,
            "verse": 15,
            "name": "Psalms 38:15",
            "text": "Ond, Arglwydd, dw i\u2019n disgwyl amdanat ti. Byddi di\u2019n eu hateb nhw, fy Meistr a\u2019m Duw. "
        },
        {
            "chapter": 38,
            "verse": 16,
            "name": "Psalms 38:16",
            "text": "Dw i\u2019n gwedd\u00efo, \u201cPaid rhoi\u2019r pleser iddyn nhw o gael eu ffordd!\u201d Roedden nhw mor falch, ac yn gwawdio, pan wnes i lithro! "
        },
        {
            "chapter": 38,
            "verse": 17,
            "name": "Psalms 38:17",
            "text": "Dw i\u2019n darfod amdana i! Dw i mewn poen ofnadwy drwy\u2019r adeg. "
        },
        {
            "chapter": 38,
            "verse": 18,
            "name": "Psalms 38:18",
            "text": "Dw i\u2019n cyfaddef mod i wedi gwneud drwg. Dw i\u2019n poeni am fy mhechod. "
        },
        {
            "chapter": 38,
            "verse": 19,
            "name": "Psalms 38:19",
            "text": "Ond mae gen i gymaint o elynion heb achos! Cymaint o rai sy\u2019n fy nghas\u00e1u i am ddim rheswm! "
        },
        {
            "chapter": 38,
            "verse": 20,
            "name": "Psalms 38:20",
            "text": "Pobl sy\u2019n talu drwg am dda, ac yn tynnu\u2019n groes am i mi geisio gwneud beth sy\u2019n iawn. "
        },
        {
            "chapter": 38,
            "verse": 21,
            "name": "Psalms 38:21",
            "text": "Paid gadael fi, Arglwydd! O Dduw, paid ti cadw draw! "
        },
        {
            "chapter": 38,
            "verse": 22,
            "name": "Psalms 38:22",
            "text": "Brysia! Helpa fi, O Arglwydd, fy achubwr!   "
        }
    ]
}