{
    "translation": "Today's Persian Version (Mojdeh Baraye Asre Jadid)",
    "abbreviation": "fartpv",
    "lang": "fa",
    "language": "Persian",
    "direction": "RTL",
    "encoding": "UTF-8",
    "book_nr": 29,
    "book_name": "Joel",
    "chapter": 1,
    "name": "Joel 1",
    "verses": [
        {
            "chapter": 1,
            "verse": 1,
            "name": "Joel 1:1",
            "text": "   \u0627\u06cc\u0646 \u067e\u06cc\u0627\u0645 \u0627\u0632 \u062c\u0627\u0646\u0628 \u062e\u062f\u0627\u0648\u0646\u062f \u0628\u0647 \u06cc\u0648\u0626\u06cc\u0644 \u067e\u0633\u0631 \u0641\u062a\u0648\u0626\u06cc\u0644 \u0631\u0633\u06cc\u062f:   "
        },
        {
            "chapter": 1,
            "verse": 2,
            "name": "Joel 1:2",
            "text": "\u0627\u06cc \u067e\u06cc\u0631 \u0645\u0631\u062f\u0627\u0646 \u0628\u0634\u0646\u0648\u06cc\u062f! \u0627\u06cc \u0633\u0627\u06a9\u0646\u0627\u0646 \u0631\u0648\u06cc \u0632\u0645\u06cc\u0646 \u06af\u0648\u0634 \u0628\u062f\u0647\u06cc\u062f! \u0622\u06cc\u0627 \u062f\u0631 \u0639\u0645\u0631\u062a\u0627\u0646 \u06cc\u0627 \u062f\u0631 \u062f\u0648\u0631\u0627\u0646 \u0632\u0646\u062f\u06af\u06cc \u0646\u06cc\u0627\u06a9\u0627\u0646\u062a\u0627\u0646 \u0686\u0646\u06cc\u0646 \u0648\u0627\u0642\u0639\u0647\u200c\u0627\u06cc \u0627\u062a\u0651\u0641\u0627\u0642 \u0627\u0641\u062a\u0627\u062f\u0647 \u0627\u0633\u062a\u061f  "
        },
        {
            "chapter": 1,
            "verse": 3,
            "name": "Joel 1:3",
            "text": "\u0622\u0646 \u0631\u0627 \u0628\u0631\u0627\u06cc \u0641\u0631\u0632\u0646\u062f\u0627\u0646\u062a\u0627\u0646 \u062a\u0639\u0631\u06cc\u0641 \u06a9\u0646\u06cc\u062f. \u0622\u0646\u0647\u0627 \u0646\u06cc\u0632 \u0622\u0646 \u0631\u0627 \u0628\u0647 \u0641\u0631\u0632\u0646\u062f\u0627\u0646 \u062e\u0648\u062f \u0628\u06af\u0648\u06cc\u0646\u062f \u0648 \u0628\u0647 \u0647\u0645\u06cc\u0646 \u062a\u0631\u062a\u06cc\u0628 \u0627\u06cc\u0646 \u0648\u0627\u0642\u0639\u0647 \u0628\u0631\u0627\u06cc \u0646\u0633\u0644\u0647\u0627\u06cc \u0628\u0639\u062f\u06cc \u062a\u0639\u0631\u06cc\u0641 \u0634\u0648\u062f.    "
        },
        {
            "chapter": 1,
            "verse": 4,
            "name": "Joel 1:4",
            "text": "\u0627\u0646\u0648\u0627\u0639 \u0645\u0644\u062e\u0647\u0627 \u062f\u0633\u062a\u0647\u200c\u062f\u0633\u062a\u0647 \u062e\u0648\u0627\u0647\u0646\u062f \u0622\u0645\u062f \u0648 \u062a\u0645\u0627\u0645 \u0645\u062d\u0635\u0648\u0644 \u0632\u0645\u06cc\u0646 \u0634\u0645\u0627 \u0631\u0627 \u062e\u0648\u0627\u0647\u0646\u062f \u062e\u0648\u0631\u062f.  "
        },
        {
            "chapter": 1,
            "verse": 5,
            "name": "Joel 1:5",
            "text": "\u0627\u06cc \u0645\u0633\u062a\u0627\u0646 \u0628\u06cc\u062f\u0627\u0631 \u0634\u0648\u06cc\u062f \u0648 \u06af\u0631\u06cc\u0647 \u06a9\u0646\u06cc\u062f. \u0627\u06cc \u0645\u06cc\u06af\u0633\u0627\u0631\u0627\u0646 \u0632\u0627\u0631\u06cc \u0646\u0645\u0627\u06cc\u06cc\u062f\u060c \u0632\u06cc\u0631\u0627 \u0627\u0646\u06af\u0648\u0631 \u0648 \u0634\u0631\u0627\u0628 \u0634\u0645\u0627 \u0647\u0645\u0647 \u0627\u0632 \u0628\u06cc\u0646 \u0631\u0641\u062a\u0647 \u0627\u0633\u062a.    "
        },
        {
            "chapter": 1,
            "verse": 6,
            "name": "Joel 1:6",
            "text": "\u0627\u0645\u0651\u062a\u06cc \u06a9\u0647 \u0628\u0633\u06cc\u0627\u0631 \u0642\u0648\u06cc \u0648 \u0628\u06cc\u200c\u0634\u0645\u0627\u0631\u0646\u062f \u0628\u0631 \u0633\u0631\u0632\u0645\u06cc\u0646 \u0645\u0646 \u0647\u062c\u0648\u0645 \u0622\u0648\u0631\u062f\u0647\u200c\u0627\u0646\u062f. \u062f\u0646\u062f\u0627\u0646\u0647\u0627\u06cc \u0627\u06cc\u0634\u0627\u0646 \u0645\u0627\u0646\u0646\u062f \u062f\u0646\u062f\u0627\u0646 \u0634\u06cc\u0631\u060c \u062a\u06cc\u0632 \u0627\u0633\u062a.  "
        },
        {
            "chapter": 1,
            "verse": 7,
            "name": "Joel 1:7",
            "text": "\u062a\u0627\u06a9\u0633\u062a\u0627\u0646\u0647\u0627\u06cc \u0645\u0631\u0627 \u062e\u0631\u0627\u0628 \u06a9\u0631\u062f\u0647\u200c\u0627\u0646\u062f. \u067e\u0648\u0633\u062a \u062f\u0631\u062e\u062a\u0627\u0646 \u0627\u0646\u062c\u06cc\u0631 \u0645\u0631\u0627 \u06a9\u0646\u062f\u0647 \u0648 \u0634\u0627\u062e\u0647\u200c\u0647\u0627\u06cc \u0622\u0646\u0647\u0627 \u0631\u0627 \u0633\u0641\u06cc\u062f \u0648 \u0628\u0631\u0647\u0646\u0647 \u06af\u0630\u0627\u0634\u062a\u0647\u200c\u0627\u0646\u062f.    "
        },
        {
            "chapter": 1,
            "verse": 8,
            "name": "Joel 1:8",
            "text": "\u0645\u0627\u0646\u0646\u062f \u062f\u0648\u0634\u06cc\u0632\u0647\u200c\u0627\u06cc \u06a9\u0647 \u0628\u0647\u200c\u062e\u0627\u0637\u0631 \u0645\u0631\u06af \u0646\u0627\u0645\u0632\u062f \u062c\u0648\u0627\u0646 \u062e\u0648\u062f \u0644\u0628\u0627\u0633 \u0645\u0627\u062a\u0645 \u0645\u06cc\u200c\u067e\u0648\u0634\u062f\u060c \u0633\u0648\u06af\u0648\u0627\u0631\u06cc \u06a9\u0646\u06cc\u062f.  "
        },
        {
            "chapter": 1,
            "verse": 9,
            "name": "Joel 1:9",
            "text": "\u0647\u062f\u06cc\u0647\u0654 \u0622\u0631\u062f\u06cc \u0648 \u0634\u0631\u0627\u0628 \u0628\u0631\u0627\u06cc \u0645\u0639\u0628\u062f \u0628\u0632\u0631\u06af \u0627\u0632 \u0628\u06cc\u0646 \u0631\u0641\u062a\u0647 \u0648 \u06a9\u0627\u0647\u0646\u0627\u0646 \u06a9\u0647 \u062e\u0627\u062f\u0645\u0627\u0646 \u062e\u062f\u0627\u0648\u0646\u062f \u0647\u0633\u062a\u0646\u062f\u060c \u0645\u0627\u062a\u0645 \u06af\u0631\u0641\u062a\u0647\u200c\u0627\u0646\u062f.  "
        },
        {
            "chapter": 1,
            "verse": 10,
            "name": "Joel 1:10",
            "text": "\u06a9\u0634\u062a\u0632\u0627\u0631\u0647\u0627 \u0647\u0645\u0647 \u062e\u0634\u06a9 \u0634\u062f\u0647\u200c\u0627\u0646\u062f \u0648 \u0632\u0645\u06cc\u0646 \u0639\u0632\u0627\u062f\u0627\u0631 \u0627\u0633\u062a. \u0686\u0648\u0646 \u063a\u0644\u0651\u0647 \u0627\u0632 \u0628\u06cc\u0646 \u0631\u0641\u062a\u0647 \u0627\u0633\u062a\u060c \u0627\u0646\u06af\u0648\u0631 \u062e\u0634\u06a9 \u0634\u062f\u0647 \u0648 \u062f\u0631\u062e\u062a\u0627\u0646 \u0632\u06cc\u062a\u0648\u0646 \u067e\u0698\u0645\u0631\u062f\u0647 \u06af\u0631\u062f\u06cc\u062f\u0647\u200c\u0627\u0646\u062f.    "
        },
        {
            "chapter": 1,
            "verse": 11,
            "name": "Joel 1:11",
            "text": "\u0627\u06cc \u06a9\u0634\u0627\u0648\u0631\u0632\u0627\u0646 \u06af\u0631\u06cc\u0647 \u06a9\u0646\u06cc\u062f \u0648 \u0627\u06cc \u0628\u0627\u063a\u0628\u0627\u0646\u0627\u0646 \u0634\u06cc\u0648\u0646 \u0646\u0645\u0627\u06cc\u06cc\u062f\u060c \u0632\u06cc\u0631\u0627 \u0645\u062d\u0635\u0648\u0644 \u06af\u0646\u062f\u0645 \u0648 \u062c\u0648 \u062a\u0644\u0641 \u0634\u062f\u0647 \u0627\u0633\u062a.  "
        },
        {
            "chapter": 1,
            "verse": 12,
            "name": "Joel 1:12",
            "text": "\u062a\u0627\u06a9\u0647\u0627\u06cc \u0627\u0646\u06af\u0648\u0631 \u0627\u0632 \u0628\u06cc\u0646 \u0631\u0641\u062a\u0647 \u0648 \u062f\u0631\u062e\u062a\u0627\u0646 \u0627\u0646\u062c\u06cc\u0631\u060c \u0627\u0646\u0627\u0631\u060c \u062e\u0631\u0645\u0627\u060c \u0633\u06cc\u0628 \u0648 \u062a\u0645\u0627\u0645 \u062f\u0631\u062e\u062a\u0627\u0646 \u062f\u06cc\u06af\u0631 \u062e\u0634\u06a9 \u0634\u062f\u0647\u200c\u0627\u0646\u062f. \u062e\u0648\u0634\u06cc \u0648 \u0633\u064f\u0631\u0648\u0631 \u0628\u0631\u0627\u06cc \u0645\u0631\u062f\u0645 \u0646\u0645\u0627\u0646\u062f\u0647 \u0627\u0633\u062a.  "
        },
        {
            "chapter": 1,
            "verse": 13,
            "name": "Joel 1:13",
            "text": "\u067e\u0644\u0627\u0633 \u0628\u067e\u0648\u0634\u06cc\u062f \u0648 \u06af\u0631\u06cc\u0647 \u06a9\u0646\u06cc\u062f\u060c \u0627\u06cc \u06a9\u0627\u0647\u0646\u0627\u0646\u06cc \u06a9\u0647 \u062f\u0631 \u0642\u0631\u0628\u0627\u0646\u06af\u0627\u0647 \u062e\u062f\u0645\u062a \u0645\u06cc\u200c\u06a9\u0646\u06cc\u062f! \u0628\u0647 \u0645\u0639\u0628\u062f \u0628\u0632\u0631\u06af \u0628\u0631\u0648\u06cc\u062f \u0648 \u062a\u0645\u0627\u0645 \u0634\u0628 \u0631\u0627 \u0645\u0627\u062a\u0645 \u0628\u06af\u06cc\u0631\u06cc\u062f! \u0632\u06cc\u0631\u0627 \u062f\u06cc\u06af\u0631 \u063a\u0644\u0651\u0647 \u0648 \u0634\u0631\u0627\u0628\u06cc \u0646\u06cc\u0633\u062a \u06a9\u0647 \u0628\u0647 \u062e\u062f\u0627 \u062a\u0642\u062f\u06cc\u0645 \u0634\u0648\u062f.  "
        },
        {
            "chapter": 1,
            "verse": 14,
            "name": "Joel 1:14",
            "text": "\u0641\u0631\u0645\u0627\u0646 \u0628\u062f\u0647\u06cc\u062f \u062a\u0627 \u0631\u0648\u0632\u0647 \u0628\u06af\u06cc\u0631\u0646\u062f \u0648 \u0628\u0647 \u0645\u0631\u062f\u0645 \u062e\u0628\u0631 \u0628\u062f\u0647\u06cc\u062f \u06a9\u0647 \u0647\u0645\u0647\u0654 \u0631\u0647\u0628\u0631\u0627\u0646 \u0628\u0627 \u062a\u0645\u0627\u0645 \u0645\u0631\u062f\u0645 \u06cc\u0647\u0648\u062f\u0627 \u062f\u0631 \u0645\u0639\u0628\u062f \u0628\u0632\u0631\u06af \u062e\u062f\u0627\u06cc \u062e\u0648\u062f \u062c\u0645\u0639 \u0634\u0648\u0646\u062f \u0648 \u062f\u0631 \u0622\u0646\u062c\u0627 \u062f\u0631 \u062d\u0636\u0648\u0631 \u062e\u062f\u0627\u0648\u0646\u062f \u06af\u0631\u06cc\u0647 \u0648 \u0632\u0627\u0631\u06cc \u06a9\u0646\u0646\u062f.  "
        },
        {
            "chapter": 1,
            "verse": 15,
            "name": "Joel 1:15",
            "text": "\u0648\u0627\u06cc \u0628\u0631 \u0645\u0627\u060c \u0632\u06cc\u0631\u0627 \u0631\u0648\u0632 \u062e\u062f\u0627\u0648\u0646\u062f \u0646\u0632\u062f\u06cc\u06a9 \u0627\u0633\u062a\u060c \u0631\u0648\u0632\u06cc \u06a9\u0647 \u062e\u062f\u0627\u06cc \u0642\u0627\u062f\u0631 \u0645\u0637\u0644\u0642\u060c \u0646\u0627\u0628\u0648\u062f\u06cc \u0648 \u0647\u0644\u0627\u06a9\u062a \u0628\u0631 \u0645\u0627 \u0645\u06cc\u200c\u0622\u0648\u0631\u062f.    "
        },
        {
            "chapter": 1,
            "verse": 16,
            "name": "Joel 1:16",
            "text": "\u062e\u0648\u0631\u0627\u06a9 \u0645\u0627 \u062f\u0631 \u0628\u0631\u0627\u0628\u0631 \u0686\u0634\u0645\u0627\u0646 \u0645\u0627 \u0627\u0632 \u0628\u06cc\u0646 \u0631\u0641\u062a\u0647 \u0627\u0633\u062a \u0648 \u062f\u06cc\u06af\u0631 \u062e\u0648\u0634\u06cc \u0648 \u0634\u0627\u062f\u0645\u0627\u0646\u06cc \u062f\u0631 \u062e\u0627\u0646\u0647\u0654 \u062e\u062f\u0627\u06cc \u0645\u0627 \u0646\u06cc\u0633\u062a.  "
        },
        {
            "chapter": 1,
            "verse": 17,
            "name": "Joel 1:17",
            "text": "\u0628\u0630\u0631\u0647\u0627 \u062f\u0631 \u0632\u0645\u06cc\u0646 \u062e\u0634\u06a9 \u067e\u0648\u0633\u06cc\u062f\u0647 \u0634\u062f\u0647\u200c\u0627\u0646\u062f. \u063a\u0644\u0651\u0647\u200c\u0627\u06cc \u0628\u0631\u0627\u06cc \u0630\u062e\u06cc\u0631\u0647 \u06a9\u0631\u062f\u0646 \u0646\u06cc\u0633\u062a \u0648 \u0627\u0646\u0628\u0627\u0631\u0647\u0627 \u062e\u0627\u0644\u06cc \u0627\u0632 \u063a\u0644\u0651\u0647\u060c \u062e\u0631\u0627\u0628 \u0634\u062f\u0647\u200c\u0627\u0646\u062f.  "
        },
        {
            "chapter": 1,
            "verse": 18,
            "name": "Joel 1:18",
            "text": "\u06af\u0627\u0648\u0647\u0627 \u0627\u0632 \u06af\u0631\u0633\u0646\u06af\u06cc \u0646\u0627\u0644\u0647 \u0645\u06cc\u200c\u06a9\u0646\u062f \u0648 \u06af\u0644\u0651\u0647\u200c\u0647\u0627\u06cc \u06af\u0648\u0633\u0641\u0646\u062f \u0633\u0631\u06af\u0631\u062f\u0627\u0646\u0646\u062f\u060c \u0632\u06cc\u0631\u0627 \u0686\u0631\u0627\u06af\u0627\u0647\u06cc \u0628\u0631\u0627\u06cc\u0634\u0627\u0646 \u0628\u0627\u0642\u06cc \u0646\u0645\u0627\u0646\u062f\u0647 \u0627\u0633\u062a \u0648 \u0647\u0645\u0647 \u062a\u0644\u0641 \u0645\u06cc\u200c\u0634\u0648\u0646\u062f. \u062e\u062f\u0627\u0648\u0646\u062f\u0627\u060c \u0628\u0647 \u062f\u0631\u06af\u0627\u0647 \u062a\u0648 \u0627\u0644\u062a\u0645\u0627\u0633 \u0645\u06cc\u200c\u06a9\u0646\u0645\u060c \u0632\u06cc\u0631\u0627 \u06af\u0631\u0645\u0627\u06cc \u0633\u0648\u0632\u0627\u0646\u060c \u0686\u0631\u0627\u06af\u0627\u0647\u0647\u0627 \u0631\u0627 \u062e\u0634\u06a9 \u0633\u0627\u062e\u062a\u0647 \u0648 \u0634\u0639\u0644\u0647\u200c\u0647\u0627\u06cc \u0622\u0646 \u062f\u0631\u062e\u062a\u0627\u0646 \u0631\u0627 \u0633\u0648\u0632\u0627\u0646\u062f\u0647 \u0627\u0633\u062a.  "
        },
        {
            "chapter": 1,
            "verse": 19,
            "name": "Joel 1:19",
            "text": "\u06af\u0627\u0648\u0647\u0627 \u0627\u0632 \u06af\u0631\u0633\u0646\u06af\u06cc \u0646\u0627\u0644\u0647 \u0645\u06cc\u200c\u06a9\u0646\u062f \u0648 \u06af\u0644\u0651\u0647\u200c\u0647\u0627\u06cc \u06af\u0648\u0633\u0641\u0646\u062f \u0633\u0631\u06af\u0631\u062f\u0627\u0646\u0646\u062f\u060c \u0632\u06cc\u0631\u0627 \u0686\u0631\u0627\u06af\u0627\u0647\u06cc \u0628\u0631\u0627\u06cc\u0634\u0627\u0646 \u0628\u0627\u0642\u06cc \u0646\u0645\u0627\u0646\u062f\u0647 \u0627\u0633\u062a \u0648 \u0647\u0645\u0647 \u062a\u0644\u0641 \u0645\u06cc\u200c\u0634\u0648\u0646\u062f. \u062e\u062f\u0627\u0648\u0646\u062f\u0627\u060c \u0628\u0647 \u062f\u0631\u06af\u0627\u0647 \u062a\u0648 \u0627\u0644\u062a\u0645\u0627\u0633 \u0645\u06cc\u200c\u06a9\u0646\u0645\u060c \u0632\u06cc\u0631\u0627 \u06af\u0631\u0645\u0627\u06cc \u0633\u0648\u0632\u0627\u0646\u060c \u0686\u0631\u0627\u06af\u0627\u0647\u0647\u0627 \u0631\u0627 \u062e\u0634\u06a9 \u0633\u0627\u062e\u062a\u0647 \u0648 \u0634\u0639\u0644\u0647\u200c\u0647\u0627\u06cc \u0622\u0646 \u062f\u0631\u062e\u062a\u0627\u0646 \u0631\u0627 \u0633\u0648\u0632\u0627\u0646\u062f\u0647 \u0627\u0633\u062a.  "
        },
        {
            "chapter": 1,
            "verse": 20,
            "name": "Joel 1:20",
            "text": "\u062d\u062a\u0651\u06cc \u062d\u06cc\u0648\u0627\u0646\u0627\u062a \u0648\u062d\u0634\u06cc \u0628\u0647 \u062f\u0631\u06af\u0627\u0647\u062a \u0646\u0627\u0644\u0647 \u0645\u06cc\u200c\u06a9\u0646\u0646\u062f\u060c \u0686\u0648\u0646 \u062c\u0648\u06cc\u0647\u0627\u06cc \u0622\u0628 \u062e\u0634\u06a9 \u0634\u062f\u0647 \u0648 \u0634\u0639\u0644\u0647\u200c\u0647\u0627\u06cc \u0633\u0648\u0632\u0627\u0646 \u06af\u0631\u0645\u0627 \u0686\u0631\u0627\u06af\u0627\u0647\u0647\u0627\u06cc \u0628\u06cc\u0627\u0628\u0627\u0646 \u0631\u0627 \u0627\u0632 \u0628\u06cc\u0646 \u0628\u0631\u062f\u0647 \u0627\u0633\u062a.   "
        }
    ]
}