{
    "translation": "English Standard Version",
    "abbreviation": "esv2001",
    "lang": "en",
    "language": "English",
    "direction": "LTR",
    "encoding": "UTF-8",
    "book_nr": 10,
    "book_name": "2 Samuel",
    "chapter": 2,
    "name": "2 Samuel 2",
    "verses": [
        {
            "chapter": 2,
            "verse": 1,
            "name": "2 Samuel 2:1",
            "text": "After this David inquired of the Lord, Shall I go up into any of the cities of Judah? And the Lord said to him, Go up. David said, To which shall I go up? And he said, To Hebron."
        },
        {
            "chapter": 2,
            "verse": 2,
            "name": "2 Samuel 2:2",
            "text": "So David went up there, and his two wives also, Ahinoam of Jezreel and Abigail the widow of Nabal of Carmel."
        },
        {
            "chapter": 2,
            "verse": 3,
            "name": "2 Samuel 2:3",
            "text": "And David brought up his men who were with him, everyone with his household, and they lived in the towns of Hebron."
        },
        {
            "chapter": 2,
            "verse": 4,
            "name": "2 Samuel 2:4",
            "text": "And the men of Judah came, and there they anointed David king over the house of Judah.When they told David, It was the men of Jabesh-gilead who buried Saul,"
        },
        {
            "chapter": 2,
            "verse": 5,
            "name": "2 Samuel 2:5",
            "text": "David sent messengers to the men of Jabesh-gilead and said to them, May you be blessed by the Lord, because you showed this loyalty to Saul your lord and buried him."
        },
        {
            "chapter": 2,
            "verse": 6,
            "name": "2 Samuel 2:6",
            "text": "Now may the Lord show steadfast love and faithfulness to you. And I will do good to you because you have done this thing."
        },
        {
            "chapter": 2,
            "verse": 7,
            "name": "2 Samuel 2:7",
            "text": "Now therefore let your hands be strong, and be valiant, for Saul your lord is dead, and the house of Judah has anointed me king over them.  "
        },
        {
            "chapter": 2,
            "verse": 8,
            "name": "2 Samuel 2:8",
            "text": "But Abner the son of Ner, commander of Saul's army, took Ish-bosheth the son of Saul and brought him over to Mahanaim,"
        },
        {
            "chapter": 2,
            "verse": 9,
            "name": "2 Samuel 2:9",
            "text": "and he made him king over Gilead and the Ashurites and Jezreel and Ephraim and Benjamin and all Israel."
        },
        {
            "chapter": 2,
            "verse": 10,
            "name": "2 Samuel 2:10",
            "text": "Ish-bosheth, Saul's son, was forty years old when he began to reign over Israel, and he reigned two years. But the house of Judah followed David."
        },
        {
            "chapter": 2,
            "verse": 11,
            "name": "2 Samuel 2:11",
            "text": "And the time that David was king in Hebron over the house of Judah was seven years and six months.  "
        },
        {
            "chapter": 2,
            "verse": 12,
            "name": "2 Samuel 2:12",
            "text": "Abner the son of Ner, and the servants of Ish-bosheth the son of Saul, went out from Mahanaim to Gibeon."
        },
        {
            "chapter": 2,
            "verse": 13,
            "name": "2 Samuel 2:13",
            "text": "And Joab the son of Zeruiah and the servants of David went out and met them at the pool of Gibeon. And they sat down, the one on the one side of the pool, and the other on the other side of the pool."
        },
        {
            "chapter": 2,
            "verse": 14,
            "name": "2 Samuel 2:14",
            "text": "And Abner said to Joab, Let the young men arise and compete before us. And Joab said, Let them arise."
        },
        {
            "chapter": 2,
            "verse": 15,
            "name": "2 Samuel 2:15",
            "text": "Then they arose and passed over by number, twelve for Benjamin and Ish-bosheth the son of Saul, and twelve of the servants of David."
        },
        {
            "chapter": 2,
            "verse": 16,
            "name": "2 Samuel 2:16",
            "text": "And each caught his opponent by the head and thrust his sword in his opponent's side, so they fell down together. Therefore that place was called Helkath-hazzurim, which is at Gibeon."
        },
        {
            "chapter": 2,
            "verse": 17,
            "name": "2 Samuel 2:17",
            "text": "And the battle was very fierce that day. And Abner and the men of Israel were beaten before the servants of David.  "
        },
        {
            "chapter": 2,
            "verse": 18,
            "name": "2 Samuel 2:18",
            "text": "And the three sons of Zeruiah were there, Joab, Abishai, and Asahel. Now Asahel was as swift of foot as a wild gazelle."
        },
        {
            "chapter": 2,
            "verse": 19,
            "name": "2 Samuel 2:19",
            "text": "And Asahel pursued Abner, and as he went, he turned neither to the right hand nor to the left from following Abner."
        },
        {
            "chapter": 2,
            "verse": 20,
            "name": "2 Samuel 2:20",
            "text": "Then Abner looked behind him and said, Is it you, Asahel? And he answered, It is I."
        },
        {
            "chapter": 2,
            "verse": 21,
            "name": "2 Samuel 2:21",
            "text": "Abner said to him, Turn aside to your right hand or to your left, and seize one of the young men and take his spoil. But Asahel would not turn aside from following him."
        },
        {
            "chapter": 2,
            "verse": 22,
            "name": "2 Samuel 2:22",
            "text": "And Abner said again to Asahel, Turn aside from following me. Why should I strike you to the ground? How then could I lift up my face to your brother Joab?"
        },
        {
            "chapter": 2,
            "verse": 23,
            "name": "2 Samuel 2:23",
            "text": "But he refused to turn aside. Therefore Abner struck him in the stomach with the butt of his spear, so that the spear came out at his back. And he fell there and died where he was. And all who came to the place where Asahel had fallen and died, stood still.  "
        },
        {
            "chapter": 2,
            "verse": 24,
            "name": "2 Samuel 2:24",
            "text": "But Joab and Abishai pursued Abner. And as the sun was going down they came to the hill of Ammah, which lies before Giah on the way to the wilderness of Gibeon."
        },
        {
            "chapter": 2,
            "verse": 25,
            "name": "2 Samuel 2:25",
            "text": "And the people of Benjamin gathered themselves together behind Abner and became one group and took their stand on the top of a hill."
        },
        {
            "chapter": 2,
            "verse": 26,
            "name": "2 Samuel 2:26",
            "text": "Then Abner called to Joab, Shall the sword devour forever? Do you not know that the end will be bitter? How long will it be before you tell your people to turn from the pursuit of their brothers?"
        },
        {
            "chapter": 2,
            "verse": 27,
            "name": "2 Samuel 2:27",
            "text": "And Joab said, As God lives, if you had not spoken, surely the men would not have given up the pursuit of their brothers until the morning."
        },
        {
            "chapter": 2,
            "verse": 28,
            "name": "2 Samuel 2:28",
            "text": "So Joab blew the trumpet, and all the men stopped and pursued Israel no more, nor did they fight anymore.  "
        },
        {
            "chapter": 2,
            "verse": 29,
            "name": "2 Samuel 2:29",
            "text": "And Abner and his men went all that night through the Arabah. They crossed the Jordan, and marching the whole morning, they came to Mahanaim."
        },
        {
            "chapter": 2,
            "verse": 30,
            "name": "2 Samuel 2:30",
            "text": "Joab returned from the pursuit of Abner. And when he had gathered all the people together, there were missing from David's servants nineteen men besides Asahel."
        },
        {
            "chapter": 2,
            "verse": 31,
            "name": "2 Samuel 2:31",
            "text": "But the servants of David had struck down of Benjamin 360 of Abner's men."
        },
        {
            "chapter": 2,
            "verse": 32,
            "name": "2 Samuel 2:32",
            "text": "And they took up Asahel and buried him in the tomb of his father, which was at Bethlehem. And Joab and his men marched all night, and the day broke upon them at Hebron. "
        }
    ]
}