{
    "translation": "World English Bible",
    "abbreviation": "web",
    "lang": "en",
    "language": "English",
    "direction": "LTR",
    "encoding": "UTF-8",
    "book_nr": 10,
    "book_name": "2 Samuel",
    "chapter": 12,
    "name": "2 Samuel 12",
    "verses": [
        {
            "chapter": 12,
            "verse": 1,
            "name": "2 Samuel 12:1",
            "text": "Yahweh sent Nathan to David. He came to him, and said to him, \u201cThere were two men in one city; the one rich, and the other poor."
        },
        {
            "chapter": 12,
            "verse": 2,
            "name": "2 Samuel 12:2",
            "text": "The rich man had very many flocks and herds,"
        },
        {
            "chapter": 12,
            "verse": 3,
            "name": "2 Samuel 12:3",
            "text": "but the poor man had nothing, except one little ewe lamb, which he had bought and raised. It grew up together with him, and with his children. It ate of his own food, drank of his own cup, and lay in his bosom, and was to him like a daughter."
        },
        {
            "chapter": 12,
            "verse": 4,
            "name": "2 Samuel 12:4",
            "text": "A traveler came to the rich man, and he spared to take of his own flock and of his own herd, to dress for the wayfaring man who had come to him, but took the poor man\u2019s lamb, and dressed it for the man who had come to him.\u201d  "
        },
        {
            "chapter": 12,
            "verse": 5,
            "name": "2 Samuel 12:5",
            "text": "  David\u2019s anger was greatly kindled against the man, and he said to Nathan, \u201cAs Yahweh lives, the man who has done this is worthy to die!"
        },
        {
            "chapter": 12,
            "verse": 6,
            "name": "2 Samuel 12:6",
            "text": "He shall restore the lamb fourfold, because he did this thing, and because he had no pity!\u201d  "
        },
        {
            "chapter": 12,
            "verse": 7,
            "name": "2 Samuel 12:7",
            "text": "  Nathan said to David, \u201cYou are the man. This is what Yahweh, the God of Israel, says: \u2018I anointed you king over Israel, and I delivered you out of the hand of Saul."
        },
        {
            "chapter": 12,
            "verse": 8,
            "name": "2 Samuel 12:8",
            "text": "I gave you your master\u2019s house, and your master\u2019s wives into your bosom, and gave you the house of Israel and of Judah; and if that would have been too little, I would have added to you many more such things."
        },
        {
            "chapter": 12,
            "verse": 9,
            "name": "2 Samuel 12:9",
            "text": "Why have you despised Yahweh\u2019s word, to do that which is evil in his sight? You have struck Uriah the Hittite with the sword, and have taken his wife to be your wife, and have slain him with the sword of the children of Ammon."
        },
        {
            "chapter": 12,
            "verse": 10,
            "name": "2 Samuel 12:10",
            "text": "Now therefore the sword will never depart from your house, because you have despised me, and have taken the wife of Uriah the Hittite to be your wife.\u2019  "
        },
        {
            "chapter": 12,
            "verse": 11,
            "name": "2 Samuel 12:11",
            "text": "  \u201cThis is what Yahweh says: \u2018Behold, I will raise up evil against you out of your own house; and I will take your wives before your eyes, and give them to your neighbor, and he will lie with your wives in the sight of this sun."
        },
        {
            "chapter": 12,
            "verse": 12,
            "name": "2 Samuel 12:12",
            "text": "For you did it secretly, but I will do this thing before all Israel, and before the sun.\u2019\u201d  "
        },
        {
            "chapter": 12,
            "verse": 13,
            "name": "2 Samuel 12:13",
            "text": "  David said to Nathan, \u201cI have sinned against Yahweh.\u201d   Nathan said to David, \u201cYahweh also has put away your sin. You will not die."
        },
        {
            "chapter": 12,
            "verse": 14,
            "name": "2 Samuel 12:14",
            "text": "However, because by this deed you have given great occasion to Yahweh\u2019s enemies to blaspheme, the child also who is born to you shall surely die.\u201d"
        },
        {
            "chapter": 12,
            "verse": 15,
            "name": "2 Samuel 12:15",
            "text": "Nathan departed to his house.   Yahweh struck the child that Uriah\u2019s wife bore to David, and it was very sick."
        },
        {
            "chapter": 12,
            "verse": 16,
            "name": "2 Samuel 12:16",
            "text": "David therefore begged God for the child; and David fasted, and went in, and lay all night on the earth."
        },
        {
            "chapter": 12,
            "verse": 17,
            "name": "2 Samuel 12:17",
            "text": "The elders of his house arose beside him, to raise him up from the earth: but he would not, neither did he eat bread with them."
        },
        {
            "chapter": 12,
            "verse": 18,
            "name": "2 Samuel 12:18",
            "text": "On the seventh day, the child died. The servants of David feared to tell him that the child was dead; for they said, \u201cBehold, while the child was yet alive, we spoke to him, and he didn\u2019t listen to our voice. How will he then harm himself, if we tell him that the child is dead?\u201d  "
        },
        {
            "chapter": 12,
            "verse": 19,
            "name": "2 Samuel 12:19",
            "text": "  But when David saw that his servants were whispering together, David perceived that the child was dead; and David said to his servants, \u201cIs the child dead?\u201d   They said, \u201cHe is dead.\u201d  "
        },
        {
            "chapter": 12,
            "verse": 20,
            "name": "2 Samuel 12:20",
            "text": "  Then David arose from the earth, and washed, and anointed himself, and changed his clothing; and he came into Yahweh\u2019s house, and worshiped: then he came to his own house; and when he required, they set bread before him, and he ate."
        },
        {
            "chapter": 12,
            "verse": 21,
            "name": "2 Samuel 12:21",
            "text": "Then his servants said to him, \u201cWhat is this that you have done? You fasted and wept for the child while he was alive; but when the child was dead, you rose up and ate bread.\u201d  "
        },
        {
            "chapter": 12,
            "verse": 22,
            "name": "2 Samuel 12:22",
            "text": "  He said, \u201cWhile the child was yet alive, I fasted and wept; for I said, \u2018Who knows whether Yahweh will not be gracious to me, that the child may live?\u2019"
        },
        {
            "chapter": 12,
            "verse": 23,
            "name": "2 Samuel 12:23",
            "text": "But now he is dead, why should I fast? Can I bring him back again? I shall go to him, but he will not return to me.\u201d  "
        },
        {
            "chapter": 12,
            "verse": 24,
            "name": "2 Samuel 12:24",
            "text": "  David comforted Bathsheba his wife, and went in to her, and lay with her. She bore a son, and he called his name Solomon. Yahweh loved him;"
        },
        {
            "chapter": 12,
            "verse": 25,
            "name": "2 Samuel 12:25",
            "text": "and he sent by the hand of Nathan the prophet; and he named him Jedidiah, for Yahweh\u2019s sake."
        },
        {
            "chapter": 12,
            "verse": 26,
            "name": "2 Samuel 12:26",
            "text": "Now Joab fought against Rabbah of the children of Ammon, and took the royal city."
        },
        {
            "chapter": 12,
            "verse": 27,
            "name": "2 Samuel 12:27",
            "text": "Joab sent messengers to David, and said, \u201cI have fought against Rabbah. Yes, I have taken the city of waters."
        },
        {
            "chapter": 12,
            "verse": 28,
            "name": "2 Samuel 12:28",
            "text": "Now therefore gather the rest of the people together, and encamp against the city, and take it; lest I take the city, and it be called after my name.\u201d  "
        },
        {
            "chapter": 12,
            "verse": 29,
            "name": "2 Samuel 12:29",
            "text": "  David gathered all the people together, and went to Rabbah, and fought against it, and took it."
        },
        {
            "chapter": 12,
            "verse": 30,
            "name": "2 Samuel 12:30",
            "text": "He took the crown of their king from off his head; and its weight was a talent of gold, and in it were precious stones; and it was set on David\u2019s head. He brought out the plunder of the city, exceeding much."
        },
        {
            "chapter": 12,
            "verse": 31,
            "name": "2 Samuel 12:31",
            "text": "He brought out the people who were therein, and put them under saws, and under iron picks, and under axes of iron, and made them pass through the brick kiln: and he did so to all the cities of the children of Ammon. David and all the people returned to Jerusalem.   "
        }
    ]
}