{
    "translation": "Lithuanian",
    "abbreviation": "lithuanian",
    "lang": "lt",
    "language": "Lithuanian",
    "direction": "LTR",
    "encoding": "UTF-8",
    "book_nr": 24,
    "book_name": "Jeremiah",
    "chapter": 49,
    "name": "Jeremiah 49",
    "verses": [
        {
            "chapter": 49,
            "verse": 1,
            "name": "Jeremiah 49:1",
            "text": "Vie\u0161pats sako amonitams: \u201eArgi Izraelis neturi paveld\u0117toj\u0173? Kod\u0117l Milkomas paveld\u0117jo Gad\u0105 ir jo \u017emon\u0117s apsigyveno miestuose? "
        },
        {
            "chapter": 49,
            "verse": 2,
            "name": "Jeremiah 49:2",
            "text": "Ateis diena, kai A\u0161 leisiu amonit\u0173 Rabai patirti kar\u0105. Ji pavirs griuv\u0117siais, o aplinkiniai miestai bus sudeginti; Izraelis atgaus savo nuosavyb\u0119. "
        },
        {
            "chapter": 49,
            "verse": 3,
            "name": "Jeremiah 49:3",
            "text": "Vaitok, He\u0161bone, nes Ajas sunaikintas. \u0160aukite, Rabos dukterys, apsivilkite a\u0161utin\u0117mis, raudokite, b\u0117giodamos patvoriais, nes Milkomas ir jo kunigai bei kunigaik\u0161\u010diai eis \u012f nelaisv\u0119. "
        },
        {
            "chapter": 49,
            "verse": 4,
            "name": "Jeremiah 49:4",
            "text": "Ko tu giries savo sl\u0117niais, nuklydusioji dukra? Pasitiki savo turtais, sakydama: \u2018Kas dr\u012fs eiti prie\u0161 mane?\u2019 "
        },
        {
            "chapter": 49,
            "verse": 5,
            "name": "Jeremiah 49:5",
            "text": "A\u0161 atvesiu prie\u0161 tave siaub\u0105, \u2013 sako Vie\u0161pats, kareivij\u0173 Dievas. \u2013 Apsup\u0119 prie\u0161ai taip jus i\u0161sklaidys, kad visi i\u0161b\u0117gios ir niekas j\u0173 nebesurinks. "
        },
        {
            "chapter": 49,
            "verse": 6,
            "name": "Jeremiah 49:6",
            "text": "Bet po to A\u0161 i\u0161laisvinsiu amonitus, \u2013 sako kareivij\u0173 Vie\u0161pats\u201c. "
        },
        {
            "chapter": 49,
            "verse": 7,
            "name": "Jeremiah 49:7",
            "text": "Kareivij\u0173 Vie\u0161pats sako Edomui: \u201eAr neb\u0117ra i\u0161minties Temane? Ar i\u0161min\u010diai nebeduoda patarim\u0173, ar j\u0173 i\u0161mintis i\u0161seko? "
        },
        {
            "chapter": 49,
            "verse": 8,
            "name": "Jeremiah 49:8",
            "text": "B\u0117kite ir pasisl\u0117pkite sl\u0117ptuv\u0117se, Dedano gyventojai! A\u0161 sunaikinsiu Ezav\u0105, aplankydamas j\u012f. "
        },
        {
            "chapter": 49,
            "verse": 9,
            "name": "Jeremiah 49:9",
            "text": "Ar vynuogi\u0173 skyn\u0117jai nepalikt\u0173 kiek vynuogi\u0173? Jei vagys \u012fsilau\u017et\u0173 nak\u010dia, ar jie nepavogt\u0173 tik tiek, kiek jiems reikia? "
        },
        {
            "chapter": 49,
            "verse": 10,
            "name": "Jeremiah 49:10",
            "text": "Bet A\u0161 apnuoginau Ezav\u0105, A\u0161 atidengiau jo paslaptis, ir jis nebetur\u0117s, kur pasisl\u0117pti. Jo vaikai, broliai ir kaimynai bus sunaikinti. "
        },
        {
            "chapter": 49,
            "verse": 11,
            "name": "Jeremiah 49:11",
            "text": "Palik savo na\u0161lai\u010dius, A\u0161 i\u0161saugosiu juos, tavo na\u0161l\u0117s tepasitiki manimi. "
        },
        {
            "chapter": 49,
            "verse": 12,
            "name": "Jeremiah 49:12",
            "text": "Jei nekaltieji tur\u0117s gerti taur\u0119, tai ar tu liksi nebaustas? Tu nei\u0161vengsi bausm\u0117s! "
        },
        {
            "chapter": 49,
            "verse": 13,
            "name": "Jeremiah 49:13",
            "text": "A\u0161 prisiekiau pats savimi, kad Bocra taps siaubu, virs dykuma bei keiksma\u017eod\u017eiu; visi jos miestai bus am\u017eini griuv\u0117siai, \u2013 sako Vie\u0161pats\u201c. "
        },
        {
            "chapter": 49,
            "verse": 14,
            "name": "Jeremiah 49:14",
            "text": "A\u0161 su\u017einojau i\u0161 Vie\u0161paties, kad pasiuntinys yra pasi\u0173stas tautoms. Jis kvie\u010dia visus \u012f kov\u0105 prie\u0161 j\u012f. "
        },
        {
            "chapter": 49,
            "verse": 15,
            "name": "Jeremiah 49:15",
            "text": "\u201eTu b\u016bsi ma\u017eas tarp taut\u0173 ir paniekintas \u017emon\u0117se. "
        },
        {
            "chapter": 49,
            "verse": 16,
            "name": "Jeremiah 49:16",
            "text": "Tavo smarkumas ir \u0161irdies i\u0161didumas apgavo tave. Tu gyveni uol\u0173 ply\u0161iuose, laikaisi kalv\u0173 vir\u0161\u016bn\u0117se. Jei tu susikrautum savo lizd\u0105 taip auk\u0161tai kaip erelis, A\u0161 nustum\u010diau tave \u017eemyn, \u2013 sako Vie\u0161pats. \u2013 "
        },
        {
            "chapter": 49,
            "verse": 17,
            "name": "Jeremiah 49:17",
            "text": "Edomas taps pasibais\u0117jimu; kiekvienas praeivis \u0161vilps ir bais\u0117sis jo likimu. "
        },
        {
            "chapter": 49,
            "verse": 18,
            "name": "Jeremiah 49:18",
            "text": "Kaip sunaikinta Sodoma ir Gomora bei j\u0173 apylink\u0117s, taip ir \u010dia nepasiliks ir negyvens joks \u017emogus. "
        },
        {
            "chapter": 49,
            "verse": 19,
            "name": "Jeremiah 49:19",
            "text": "Kaip li\u016btas i\u0161 Jordano tankyn\u0117s jis pakyla ir ateina prie\u0161 stipri\u0173j\u0173 buveines, bet A\u0161 j\u012f nuvysiu ir paskirsiu t\u0105, kur\u012f i\u0161sirinksiu. Kas yra man lygus ir kas gali man pasiprie\u0161inti? "
        },
        {
            "chapter": 49,
            "verse": 20,
            "name": "Jeremiah 49:20",
            "text": "\u0160tai Vie\u0161paties nutarimas Edomui ir sprendimas Temano gyventojams. I\u0161 ties\u0173 net menkiausi i\u0161 bandos juos i\u0161trems ir j\u0173 buvein\u0117s liks apleistos. "
        },
        {
            "chapter": 49,
            "verse": 21,
            "name": "Jeremiah 49:21",
            "text": "Nuo j\u0173 griuvimo trenksmo sudreb\u0117s \u017eem\u0117, ir j\u0173 \u0161auksmo balsas bus girdimas prie Raudonosios j\u016bros. "
        },
        {
            "chapter": 49,
            "verse": 22,
            "name": "Jeremiah 49:22",
            "text": "Jis pakils kaip erelis, atskris ir i\u0161sk\u0117s sparnus vir\u0161 Bocros. T\u0105 dien\u0105 Edomo kariai bus nuli\u016bd\u0119 ir i\u0161sigand\u0119 kaip moterys\u201c. "
        },
        {
            "chapter": 49,
            "verse": 23,
            "name": "Jeremiah 49:23",
            "text": "Apie Damask\u0105: \u201eS\u0105my\u0161is Hamate ir Arpade, nes bloga \u017einia pasiek\u0117 juos. Jie i\u0161sigand\u0119 nerimauja kaip neramios j\u016bros bangos. "
        },
        {
            "chapter": 49,
            "verse": 24,
            "name": "Jeremiah 49:24",
            "text": "Damaskas nusimin\u0119s b\u0117ga baim\u0117s apimtas; baim\u0117 ir skausmai u\u017egriuvo j\u012f kaip gimdyv\u0119. "
        },
        {
            "chapter": 49,
            "verse": 25,
            "name": "Jeremiah 49:25",
            "text": "Garsusis miestas i\u0161tu\u0161t\u0117jo, mano d\u017eiaugsmo miestas. "
        },
        {
            "chapter": 49,
            "verse": 26,
            "name": "Jeremiah 49:26",
            "text": "Jo jaunuoliai ir kariai \u017eus gatv\u0117se t\u0105 dien\u0105, \u2013 sako kareivij\u0173 Vie\u0161pats, \u2013 "
        },
        {
            "chapter": 49,
            "verse": 27,
            "name": "Jeremiah 49:27",
            "text": "A\u0161 \u012f\u017eiebsiu ugn\u012f Damasko sienose, ji praris Ben Hadado r\u016bmus\u201c. "
        },
        {
            "chapter": 49,
            "verse": 28,
            "name": "Jeremiah 49:28",
            "text": "Apie Kedar\u0105 ir Hacoro karalystes, kurias nugal\u0117jo Nebukadnecaras, Babilono karalius, Vie\u0161pats sako: \u201ePasiruo\u0161kite ir \u017eygiuokite prie\u0161 Kedar\u0105, apipl\u0117\u0161kite ryt\u0173 tautas. "
        },
        {
            "chapter": 49,
            "verse": 29,
            "name": "Jeremiah 49:29",
            "text": "Jie paims j\u0173 palapines ir bandas, apdangalus, indus ir kupranugarius. Ir jiems \u0161auks: \u2018Siaubas i\u0161 vis\u0173 pusi\u0173!\u2019 "
        },
        {
            "chapter": 49,
            "verse": 30,
            "name": "Jeremiah 49:30",
            "text": "Skubiai b\u0117kite ir pasisl\u0117pkite, Hacoro gyventojai. Nebukadnecaras, Babilono karalius, tar\u0117si prie\u0161 jus ir nusprend\u0117 d\u0117l j\u016bs\u0173. "
        },
        {
            "chapter": 49,
            "verse": 31,
            "name": "Jeremiah 49:31",
            "text": "Pakilk prie\u0161 \u0161it\u0105 turting\u0105, ramiai gyvenan\u010di\u0105 taut\u0105, \u2013 sako Vie\u0161pats. \u2013 Jie neturi nei vart\u0173, nei u\u017ekai\u0161\u010di\u0173, gyvena atsiskyr\u0119. "
        },
        {
            "chapter": 49,
            "verse": 32,
            "name": "Jeremiah 49:32",
            "text": "J\u0173 kupranugariai ir did\u017eiul\u0117s bandos taps grobiu. A\u0161 i\u0161sklaidysiu \u012f visas \u0161alis vyrus, kurie kerpasi plaukus, ir bausiu juos i\u0161 vis\u0173 pusi\u0173, \u2013 sako Vie\u0161pats, \u2013 "
        },
        {
            "chapter": 49,
            "verse": 33,
            "name": "Jeremiah 49:33",
            "text": "Hacore gyvens \u0161akalai, jis liks am\u017eina dykuma. Jame negyvens joks \u017emogus\u201c. "
        },
        {
            "chapter": 49,
            "verse": 34,
            "name": "Jeremiah 49:34",
            "text": "Vie\u0161pats kalb\u0117jo prana\u0161ui Jeremijui apie Elam\u0105, pradedant karaliauti Zedekijui, Judo karaliui: "
        },
        {
            "chapter": 49,
            "verse": 35,
            "name": "Jeremiah 49:35",
            "text": "\u201eA\u0161 sulau\u017eysiu Elamo lank\u0105, jo did\u017eiausi\u0105 stipryb\u0119. "
        },
        {
            "chapter": 49,
            "verse": 36,
            "name": "Jeremiah 49:36",
            "text": "A\u0161 pasi\u0173siu ant Elamo keturis v\u0117jus i\u0161 keturi\u0173 pasaulio \u0161ali\u0173 ir juos i\u0161sklaidysiu \u012f visus pasaulio kra\u0161tus taip, kad nebus tautos, kurioje Elamo i\u0161sklaidyt\u0173j\u0173 neb\u016bt\u0173. "
        },
        {
            "chapter": 49,
            "verse": 37,
            "name": "Jeremiah 49:37",
            "text": "A\u0161 sukelsiu Elame baim\u0119 prie\u0161\u0173, kurie siekia jo gyvyb\u0117s, ir atvesiu prie\u0161 juos nelaim\u0119, savo r\u016bstyb\u0119, si\u0173siu paskui juos kard\u0105 ir sunaikinsiu juos. "
        },
        {
            "chapter": 49,
            "verse": 38,
            "name": "Jeremiah 49:38",
            "text": "A\u0161 pastatysiu Elame savo sost\u0105 ir pa\u0161alinsiu j\u0173 karalius bei kunigaik\u0161\u010dius. "
        },
        {
            "chapter": 49,
            "verse": 39,
            "name": "Jeremiah 49:39",
            "text": "Bet paskutin\u0117mis dienomis A\u0161 i\u0161vaduosiu Elam\u0105, \u2013 sako Vie\u0161pats\u201c.  "
        }
    ]
}