{
    "translation": "Elzevir Textus Receptus (1624)",
    "abbreviation": "elzevir",
    "lang": "grc",
    "language": "Greek",
    "direction": "LTR",
    "encoding": "UTF-8",
    "book_nr": 58,
    "book_name": "Hebrews",
    "chapter": 10,
    "name": "Hebrews 10",
    "verses": [
        {
            "chapter": 10,
            "verse": 1,
            "name": "Hebrews 10:1",
            "text": "\u03c3\u03ba\u03b9\u03b1\u03bd \u03b3\u03b1\u03c1 \u03b5\u03c7\u03c9\u03bd \u03bf \u03bd\u03bf\u03bc\u03bf\u03c2 \u03c4\u03c9\u03bd \u03bc\u03b5\u03bb\u03bb\u03bf\u03bd\u03c4\u03c9\u03bd \u03b1\u03b3\u03b1\u03b8\u03c9\u03bd \u03bf\u03c5\u03ba \u03b1\u03c5\u03c4\u03b7\u03bd \u03c4\u03b7\u03bd \u03b5\u03b9\u03ba\u03bf\u03bd\u03b1 \u03c4\u03c9\u03bd \u03c0\u03c1\u03b1\u03b3\u03bc\u03b1\u03c4\u03c9\u03bd \u03ba\u03b1\u03c4 \u03b5\u03bd\u03b9\u03b1\u03c5\u03c4\u03bf\u03bd \u03c4\u03b1\u03b9\u03c2 \u03b1\u03c5\u03c4\u03b1\u03b9\u03c2 \u03b8\u03c5\u03c3\u03b9\u03b1\u03b9\u03c2 \u03b1\u03c2 \u03c0\u03c1\u03bf\u03c3\u03c6\u03b5\u03c1\u03bf\u03c5\u03c3\u03b9\u03bd \u03b5\u03b9\u03c2 \u03c4\u03bf \u03b4\u03b9\u03b7\u03bd\u03b5\u03ba\u03b5\u03c2 \u03bf\u03c5\u03b4\u03b5\u03c0\u03bf\u03c4\u03b5 \u03b4\u03c5\u03bd\u03b1\u03c4\u03b1\u03b9 \u03c4\u03bf\u03c5\u03c2 \u03c0\u03c1\u03bf\u03c3\u03b5\u03c1\u03c7\u03bf\u03bc\u03b5\u03bd\u03bf\u03c5\u03c2 \u03c4\u03b5\u03bb\u03b5\u03b9\u03c9\u03c3\u03b1\u03b9 "
        },
        {
            "chapter": 10,
            "verse": 2,
            "name": "Hebrews 10:2",
            "text": "\u03b5\u03c0\u03b5\u03b9 \u03b1\u03bd \u03b5\u03c0\u03b1\u03c5\u03c3\u03b1\u03bd\u03c4\u03bf \u03c0\u03c1\u03bf\u03c3\u03c6\u03b5\u03c1\u03bf\u03bc\u03b5\u03bd\u03b1\u03b9 \u03b4\u03b9\u03b1 \u03c4\u03bf \u03bc\u03b7\u03b4\u03b5\u03bc\u03b9\u03b1\u03bd \u03b5\u03c7\u03b5\u03b9\u03bd \u03b5\u03c4\u03b9 \u03c3\u03c5\u03bd\u03b5\u03b9\u03b4\u03b7\u03c3\u03b9\u03bd \u03b1\u03bc\u03b1\u03c1\u03c4\u03b9\u03c9\u03bd \u03c4\u03bf\u03c5\u03c2 \u03bb\u03b1\u03c4\u03c1\u03b5\u03c5\u03bf\u03bd\u03c4\u03b1\u03c2 \u03b1\u03c0\u03b1\u03be \u03ba\u03b5\u03ba\u03b1\u03b8\u03b1\u03c1\u03bc\u03b5\u03bd\u03bf\u03c5\u03c2 "
        },
        {
            "chapter": 10,
            "verse": 3,
            "name": "Hebrews 10:3",
            "text": "\u03b1\u03bb\u03bb \u03b5\u03bd \u03b1\u03c5\u03c4\u03b1\u03b9\u03c2 \u03b1\u03bd\u03b1\u03bc\u03bd\u03b7\u03c3\u03b9\u03c2 \u03b1\u03bc\u03b1\u03c1\u03c4\u03b9\u03c9\u03bd \u03ba\u03b1\u03c4 \u03b5\u03bd\u03b9\u03b1\u03c5\u03c4\u03bf\u03bd "
        },
        {
            "chapter": 10,
            "verse": 4,
            "name": "Hebrews 10:4",
            "text": "\u03b1\u03b4\u03c5\u03bd\u03b1\u03c4\u03bf\u03bd \u03b3\u03b1\u03c1 \u03b1\u03b9\u03bc\u03b1 \u03c4\u03b1\u03c5\u03c1\u03c9\u03bd \u03ba\u03b1\u03b9 \u03c4\u03c1\u03b1\u03b3\u03c9\u03bd \u03b1\u03c6\u03b1\u03b9\u03c1\u03b5\u03b9\u03bd \u03b1\u03bc\u03b1\u03c1\u03c4\u03b9\u03b1\u03c2 "
        },
        {
            "chapter": 10,
            "verse": 5,
            "name": "Hebrews 10:5",
            "text": "\u03b4\u03b9\u03bf \u03b5\u03b9\u03c3\u03b5\u03c1\u03c7\u03bf\u03bc\u03b5\u03bd\u03bf\u03c2 \u03b5\u03b9\u03c2 \u03c4\u03bf\u03bd \u03ba\u03bf\u03c3\u03bc\u03bf\u03bd \u03bb\u03b5\u03b3\u03b5\u03b9 \u03b8\u03c5\u03c3\u03b9\u03b1\u03bd \u03ba\u03b1\u03b9 \u03c0\u03c1\u03bf\u03c3\u03c6\u03bf\u03c1\u03b1\u03bd \u03bf\u03c5\u03ba \u03b7\u03b8\u03b5\u03bb\u03b7\u03c3\u03b1\u03c2 \u03c3\u03c9\u03bc\u03b1 \u03b4\u03b5 \u03ba\u03b1\u03c4\u03b7\u03c1\u03c4\u03b9\u03c3\u03c9 \u03bc\u03bf\u03b9 "
        },
        {
            "chapter": 10,
            "verse": 6,
            "name": "Hebrews 10:6",
            "text": "\u03bf\u03bb\u03bf\u03ba\u03b1\u03c5\u03c4\u03c9\u03bc\u03b1\u03c4\u03b1 \u03ba\u03b1\u03b9 \u03c0\u03b5\u03c1\u03b9 \u03b1\u03bc\u03b1\u03c1\u03c4\u03b9\u03b1\u03c2 \u03bf\u03c5\u03ba \u03b5\u03c5\u03b4\u03bf\u03ba\u03b7\u03c3\u03b1\u03c2 "
        },
        {
            "chapter": 10,
            "verse": 7,
            "name": "Hebrews 10:7",
            "text": "\u03c4\u03bf\u03c4\u03b5 \u03b5\u03b9\u03c0\u03bf\u03bd \u03b9\u03b4\u03bf\u03c5 \u03b7\u03ba\u03c9 \u03b5\u03bd \u03ba\u03b5\u03c6\u03b1\u03bb\u03b9\u03b4\u03b9 \u03b2\u03b9\u03b2\u03bb\u03b9\u03bf\u03c5 \u03b3\u03b5\u03b3\u03c1\u03b1\u03c0\u03c4\u03b1\u03b9 \u03c0\u03b5\u03c1\u03b9 \u03b5\u03bc\u03bf\u03c5 \u03c4\u03bf\u03c5 \u03c0\u03bf\u03b9\u03b7\u03c3\u03b1\u03b9 \u03bf \u03b8\u03b5\u03bf\u03c2 \u03c4\u03bf \u03b8\u03b5\u03bb\u03b7\u03bc\u03b1 \u03c3\u03bf\u03c5 "
        },
        {
            "chapter": 10,
            "verse": 8,
            "name": "Hebrews 10:8",
            "text": "\u03b1\u03bd\u03c9\u03c4\u03b5\u03c1\u03bf\u03bd \u03bb\u03b5\u03b3\u03c9\u03bd \u03bf\u03c4\u03b9 \u03b8\u03c5\u03c3\u03b9\u03b1\u03bd \u03ba\u03b1\u03b9 \u03c0\u03c1\u03bf\u03c3\u03c6\u03bf\u03c1\u03b1\u03bd \u03ba\u03b1\u03b9 \u03bf\u03bb\u03bf\u03ba\u03b1\u03c5\u03c4\u03c9\u03bc\u03b1\u03c4\u03b1 \u03ba\u03b1\u03b9 \u03c0\u03b5\u03c1\u03b9 \u03b1\u03bc\u03b1\u03c1\u03c4\u03b9\u03b1\u03c2 \u03bf\u03c5\u03ba \u03b7\u03b8\u03b5\u03bb\u03b7\u03c3\u03b1\u03c2 \u03bf\u03c5\u03b4\u03b5 \u03b5\u03c5\u03b4\u03bf\u03ba\u03b7\u03c3\u03b1\u03c2 \u03b1\u03b9\u03c4\u03b9\u03bd\u03b5\u03c2 \u03ba\u03b1\u03c4\u03b1 \u03c4\u03bf\u03bd \u03bd\u03bf\u03bc\u03bf\u03bd \u03c0\u03c1\u03bf\u03c3\u03c6\u03b5\u03c1\u03bf\u03bd\u03c4\u03b1\u03b9 "
        },
        {
            "chapter": 10,
            "verse": 9,
            "name": "Hebrews 10:9",
            "text": "\u03c4\u03bf\u03c4\u03b5 \u03b5\u03b9\u03c1\u03b7\u03ba\u03b5\u03bd \u03b9\u03b4\u03bf\u03c5 \u03b7\u03ba\u03c9 \u03c4\u03bf\u03c5 \u03c0\u03bf\u03b9\u03b7\u03c3\u03b1\u03b9 \u03bf \u03b8\u03b5\u03bf\u03c2 \u03c4\u03bf \u03b8\u03b5\u03bb\u03b7\u03bc\u03b1 \u03c3\u03bf\u03c5 \u03b1\u03bd\u03b1\u03b9\u03c1\u03b5\u03b9 \u03c4\u03bf \u03c0\u03c1\u03c9\u03c4\u03bf\u03bd \u03b9\u03bd\u03b1 \u03c4\u03bf \u03b4\u03b5\u03c5\u03c4\u03b5\u03c1\u03bf\u03bd \u03c3\u03c4\u03b7\u03c3\u03b7 "
        },
        {
            "chapter": 10,
            "verse": 10,
            "name": "Hebrews 10:10",
            "text": "\u03b5\u03bd \u03c9 \u03b8\u03b5\u03bb\u03b7\u03bc\u03b1\u03c4\u03b9 \u03b7\u03b3\u03b9\u03b1\u03c3\u03bc\u03b5\u03bd\u03bf\u03b9 \u03b5\u03c3\u03bc\u03b5\u03bd \u03b4\u03b9\u03b1 \u03c4\u03b7\u03c2 \u03c0\u03c1\u03bf\u03c3\u03c6\u03bf\u03c1\u03b1\u03c2 \u03c4\u03bf\u03c5 \u03c3\u03c9\u03bc\u03b1\u03c4\u03bf\u03c2 \u03c4\u03bf\u03c5 \u03b9\u03b7\u03c3\u03bf\u03c5 \u03c7\u03c1\u03b9\u03c3\u03c4\u03bf\u03c5 \u03b5\u03c6\u03b1\u03c0\u03b1\u03be "
        },
        {
            "chapter": 10,
            "verse": 11,
            "name": "Hebrews 10:11",
            "text": "\u03ba\u03b1\u03b9 \u03c0\u03b1\u03c2 \u03bc\u03b5\u03bd \u03b9\u03b5\u03c1\u03b5\u03c5\u03c2 \u03b5\u03c3\u03c4\u03b7\u03ba\u03b5\u03bd \u03ba\u03b1\u03b8 \u03b7\u03bc\u03b5\u03c1\u03b1\u03bd \u03bb\u03b5\u03b9\u03c4\u03bf\u03c5\u03c1\u03b3\u03c9\u03bd \u03ba\u03b1\u03b9 \u03c4\u03b1\u03c2 \u03b1\u03c5\u03c4\u03b1\u03c2 \u03c0\u03bf\u03bb\u03bb\u03b1\u03ba\u03b9\u03c2 \u03c0\u03c1\u03bf\u03c3\u03c6\u03b5\u03c1\u03c9\u03bd \u03b8\u03c5\u03c3\u03b9\u03b1\u03c2 \u03b1\u03b9\u03c4\u03b9\u03bd\u03b5\u03c2 \u03bf\u03c5\u03b4\u03b5\u03c0\u03bf\u03c4\u03b5 \u03b4\u03c5\u03bd\u03b1\u03bd\u03c4\u03b1\u03b9 \u03c0\u03b5\u03c1\u03b9\u03b5\u03bb\u03b5\u03b9\u03bd \u03b1\u03bc\u03b1\u03c1\u03c4\u03b9\u03b1\u03c2 "
        },
        {
            "chapter": 10,
            "verse": 12,
            "name": "Hebrews 10:12",
            "text": "\u03b1\u03c5\u03c4\u03bf\u03c2 \u03b4\u03b5 \u03bc\u03b9\u03b1\u03bd \u03c5\u03c0\u03b5\u03c1 \u03b1\u03bc\u03b1\u03c1\u03c4\u03b9\u03c9\u03bd \u03c0\u03c1\u03bf\u03c3\u03b5\u03bd\u03b5\u03b3\u03ba\u03b1\u03c2 \u03b8\u03c5\u03c3\u03b9\u03b1\u03bd \u03b5\u03b9\u03c2 \u03c4\u03bf \u03b4\u03b9\u03b7\u03bd\u03b5\u03ba\u03b5\u03c2 \u03b5\u03ba\u03b1\u03b8\u03b9\u03c3\u03b5\u03bd \u03b5\u03bd \u03b4\u03b5\u03be\u03b9\u03b1 \u03c4\u03bf\u03c5 \u03b8\u03b5\u03bf\u03c5 "
        },
        {
            "chapter": 10,
            "verse": 13,
            "name": "Hebrews 10:13",
            "text": "\u03c4\u03bf \u03bb\u03bf\u03b9\u03c0\u03bf\u03bd \u03b5\u03ba\u03b4\u03b5\u03c7\u03bf\u03bc\u03b5\u03bd\u03bf\u03c2 \u03b5\u03c9\u03c2 \u03c4\u03b5\u03b8\u03c9\u03c3\u03b9\u03bd \u03bf\u03b9 \u03b5\u03c7\u03b8\u03c1\u03bf\u03b9 \u03b1\u03c5\u03c4\u03bf\u03c5 \u03c5\u03c0\u03bf\u03c0\u03bf\u03b4\u03b9\u03bf\u03bd \u03c4\u03c9\u03bd \u03c0\u03bf\u03b4\u03c9\u03bd \u03b1\u03c5\u03c4\u03bf\u03c5 "
        },
        {
            "chapter": 10,
            "verse": 14,
            "name": "Hebrews 10:14",
            "text": "\u03bc\u03b9\u03b1 \u03b3\u03b1\u03c1 \u03c0\u03c1\u03bf\u03c3\u03c6\u03bf\u03c1\u03b1 \u03c4\u03b5\u03c4\u03b5\u03bb\u03b5\u03b9\u03c9\u03ba\u03b5\u03bd \u03b5\u03b9\u03c2 \u03c4\u03bf \u03b4\u03b9\u03b7\u03bd\u03b5\u03ba\u03b5\u03c2 \u03c4\u03bf\u03c5\u03c2 \u03b1\u03b3\u03b9\u03b1\u03b6\u03bf\u03bc\u03b5\u03bd\u03bf\u03c5\u03c2 "
        },
        {
            "chapter": 10,
            "verse": 15,
            "name": "Hebrews 10:15",
            "text": "\u03bc\u03b1\u03c1\u03c4\u03c5\u03c1\u03b5\u03b9 \u03b4\u03b5 \u03b7\u03bc\u03b9\u03bd \u03ba\u03b1\u03b9 \u03c4\u03bf \u03c0\u03bd\u03b5\u03c5\u03bc\u03b1 \u03c4\u03bf \u03b1\u03b3\u03b9\u03bf\u03bd \u03bc\u03b5\u03c4\u03b1 \u03b3\u03b1\u03c1 \u03c4\u03bf \u03c0\u03c1\u03bf\u03b5\u03b9\u03c1\u03b7\u03ba\u03b5\u03bd\u03b1\u03b9 "
        },
        {
            "chapter": 10,
            "verse": 16,
            "name": "Hebrews 10:16",
            "text": "\u03b1\u03c5\u03c4\u03b7 \u03b7 \u03b4\u03b9\u03b1\u03b8\u03b7\u03ba\u03b7 \u03b7\u03bd \u03b4\u03b9\u03b1\u03b8\u03b7\u03c3\u03bf\u03bc\u03b1\u03b9 \u03c0\u03c1\u03bf\u03c2 \u03b1\u03c5\u03c4\u03bf\u03c5\u03c2 \u03bc\u03b5\u03c4\u03b1 \u03c4\u03b1\u03c2 \u03b7\u03bc\u03b5\u03c1\u03b1\u03c2 \u03b5\u03ba\u03b5\u03b9\u03bd\u03b1\u03c2 \u03bb\u03b5\u03b3\u03b5\u03b9 \u03ba\u03c5\u03c1\u03b9\u03bf\u03c2 \u03b4\u03b9\u03b4\u03bf\u03c5\u03c2 \u03bd\u03bf\u03bc\u03bf\u03c5\u03c2 \u03bc\u03bf\u03c5 \u03b5\u03c0\u03b9 \u03ba\u03b1\u03c1\u03b4\u03b9\u03b1\u03c2 \u03b1\u03c5\u03c4\u03c9\u03bd \u03ba\u03b1\u03b9 \u03b5\u03c0\u03b9 \u03c4\u03c9\u03bd \u03b4\u03b9\u03b1\u03bd\u03bf\u03b9\u03c9\u03bd \u03b1\u03c5\u03c4\u03c9\u03bd \u03b5\u03c0\u03b9\u03b3\u03c1\u03b1\u03c8\u03c9 \u03b1\u03c5\u03c4\u03bf\u03c5\u03c2 "
        },
        {
            "chapter": 10,
            "verse": 17,
            "name": "Hebrews 10:17",
            "text": "\u03ba\u03b1\u03b9 \u03c4\u03c9\u03bd \u03b1\u03bc\u03b1\u03c1\u03c4\u03b9\u03c9\u03bd \u03b1\u03c5\u03c4\u03c9\u03bd \u03ba\u03b1\u03b9 \u03c4\u03c9\u03bd \u03b1\u03bd\u03bf\u03bc\u03b9\u03c9\u03bd \u03b1\u03c5\u03c4\u03c9\u03bd \u03bf\u03c5 \u03bc\u03b7 \u03bc\u03bd\u03b7\u03c3\u03b8\u03c9 \u03b5\u03c4\u03b9 "
        },
        {
            "chapter": 10,
            "verse": 18,
            "name": "Hebrews 10:18",
            "text": "\u03bf\u03c0\u03bf\u03c5 \u03b4\u03b5 \u03b1\u03c6\u03b5\u03c3\u03b9\u03c2 \u03c4\u03bf\u03c5\u03c4\u03c9\u03bd \u03bf\u03c5\u03ba\u03b5\u03c4\u03b9 \u03c0\u03c1\u03bf\u03c3\u03c6\u03bf\u03c1\u03b1 \u03c0\u03b5\u03c1\u03b9 \u03b1\u03bc\u03b1\u03c1\u03c4\u03b9\u03b1\u03c2 "
        },
        {
            "chapter": 10,
            "verse": 19,
            "name": "Hebrews 10:19",
            "text": "\u03b5\u03c7\u03bf\u03bd\u03c4\u03b5\u03c2 \u03bf\u03c5\u03bd \u03b1\u03b4\u03b5\u03bb\u03c6\u03bf\u03b9 \u03c0\u03b1\u03c1\u03c1\u03b7\u03c3\u03b9\u03b1\u03bd \u03b5\u03b9\u03c2 \u03c4\u03b7\u03bd \u03b5\u03b9\u03c3\u03bf\u03b4\u03bf\u03bd \u03c4\u03c9\u03bd \u03b1\u03b3\u03b9\u03c9\u03bd \u03b5\u03bd \u03c4\u03c9 \u03b1\u03b9\u03bc\u03b1\u03c4\u03b9 \u03b9\u03b7\u03c3\u03bf\u03c5 "
        },
        {
            "chapter": 10,
            "verse": 20,
            "name": "Hebrews 10:20",
            "text": "\u03b7\u03bd \u03b5\u03bd\u03b5\u03ba\u03b1\u03b9\u03bd\u03b9\u03c3\u03b5\u03bd \u03b7\u03bc\u03b9\u03bd \u03bf\u03b4\u03bf\u03bd \u03c0\u03c1\u03bf\u03c3\u03c6\u03b1\u03c4\u03bf\u03bd \u03ba\u03b1\u03b9 \u03b6\u03c9\u03c3\u03b1\u03bd \u03b4\u03b9\u03b1 \u03c4\u03bf\u03c5 \u03ba\u03b1\u03c4\u03b1\u03c0\u03b5\u03c4\u03b1\u03c3\u03bc\u03b1\u03c4\u03bf\u03c2 \u03c4\u03bf\u03c5\u03c4 \u03b5\u03c3\u03c4\u03b9\u03bd \u03c4\u03b7\u03c2 \u03c3\u03b1\u03c1\u03ba\u03bf\u03c2 \u03b1\u03c5\u03c4\u03bf\u03c5 "
        },
        {
            "chapter": 10,
            "verse": 21,
            "name": "Hebrews 10:21",
            "text": "\u03ba\u03b1\u03b9 \u03b9\u03b5\u03c1\u03b5\u03b1 \u03bc\u03b5\u03b3\u03b1\u03bd \u03b5\u03c0\u03b9 \u03c4\u03bf\u03bd \u03bf\u03b9\u03ba\u03bf\u03bd \u03c4\u03bf\u03c5 \u03b8\u03b5\u03bf\u03c5 "
        },
        {
            "chapter": 10,
            "verse": 22,
            "name": "Hebrews 10:22",
            "text": "\u03c0\u03c1\u03bf\u03c3\u03b5\u03c1\u03c7\u03c9\u03bc\u03b5\u03b8\u03b1 \u03bc\u03b5\u03c4\u03b1 \u03b1\u03bb\u03b7\u03b8\u03b9\u03bd\u03b7\u03c2 \u03ba\u03b1\u03c1\u03b4\u03b9\u03b1\u03c2 \u03b5\u03bd \u03c0\u03bb\u03b7\u03c1\u03bf\u03c6\u03bf\u03c1\u03b9\u03b1 \u03c0\u03b9\u03c3\u03c4\u03b5\u03c9\u03c2 \u03b5\u03c1\u03c1\u03b1\u03bd\u03c4\u03b9\u03c3\u03bc\u03b5\u03bd\u03bf\u03b9 \u03c4\u03b1\u03c2 \u03ba\u03b1\u03c1\u03b4\u03b9\u03b1\u03c2 \u03b1\u03c0\u03bf \u03c3\u03c5\u03bd\u03b5\u03b9\u03b4\u03b7\u03c3\u03b5\u03c9\u03c2 \u03c0\u03bf\u03bd\u03b7\u03c1\u03b1\u03c2 \u03ba\u03b1\u03b9 \u03bb\u03b5\u03bb\u03bf\u03c5\u03bc\u03b5\u03bd\u03bf\u03b9 \u03c4\u03bf \u03c3\u03c9\u03bc\u03b1 \u03c5\u03b4\u03b1\u03c4\u03b9 \u03ba\u03b1\u03b8\u03b1\u03c1\u03c9 "
        },
        {
            "chapter": 10,
            "verse": 23,
            "name": "Hebrews 10:23",
            "text": "\u03ba\u03b1\u03c4\u03b5\u03c7\u03c9\u03bc\u03b5\u03bd \u03c4\u03b7\u03bd \u03bf\u03bc\u03bf\u03bb\u03bf\u03b3\u03b9\u03b1\u03bd \u03c4\u03b7\u03c2 \u03b5\u03bb\u03c0\u03b9\u03b4\u03bf\u03c2 \u03b1\u03ba\u03bb\u03b9\u03bd\u03b7 \u03c0\u03b9\u03c3\u03c4\u03bf\u03c2 \u03b3\u03b1\u03c1 \u03bf \u03b5\u03c0\u03b1\u03b3\u03b3\u03b5\u03b9\u03bb\u03b1\u03bc\u03b5\u03bd\u03bf\u03c2 "
        },
        {
            "chapter": 10,
            "verse": 24,
            "name": "Hebrews 10:24",
            "text": "\u03ba\u03b1\u03b9 \u03ba\u03b1\u03c4\u03b1\u03bd\u03bf\u03c9\u03bc\u03b5\u03bd \u03b1\u03bb\u03bb\u03b7\u03bb\u03bf\u03c5\u03c2 \u03b5\u03b9\u03c2 \u03c0\u03b1\u03c1\u03bf\u03be\u03c5\u03c3\u03bc\u03bf\u03bd \u03b1\u03b3\u03b1\u03c0\u03b7\u03c2 \u03ba\u03b1\u03b9 \u03ba\u03b1\u03bb\u03c9\u03bd \u03b5\u03c1\u03b3\u03c9\u03bd "
        },
        {
            "chapter": 10,
            "verse": 25,
            "name": "Hebrews 10:25",
            "text": "\u03bc\u03b7 \u03b5\u03b3\u03ba\u03b1\u03c4\u03b1\u03bb\u03b5\u03b9\u03c0\u03bf\u03bd\u03c4\u03b5\u03c2 \u03c4\u03b7\u03bd \u03b5\u03c0\u03b9\u03c3\u03c5\u03bd\u03b1\u03b3\u03c9\u03b3\u03b7\u03bd \u03b5\u03b1\u03c5\u03c4\u03c9\u03bd \u03ba\u03b1\u03b8\u03c9\u03c2 \u03b5\u03b8\u03bf\u03c2 \u03c4\u03b9\u03c3\u03b9\u03bd \u03b1\u03bb\u03bb\u03b1 \u03c0\u03b1\u03c1\u03b1\u03ba\u03b1\u03bb\u03bf\u03c5\u03bd\u03c4\u03b5\u03c2 \u03ba\u03b1\u03b9 \u03c4\u03bf\u03c3\u03bf\u03c5\u03c4\u03c9 \u03bc\u03b1\u03bb\u03bb\u03bf\u03bd \u03bf\u03c3\u03c9 \u03b2\u03bb\u03b5\u03c0\u03b5\u03c4\u03b5 \u03b5\u03b3\u03b3\u03b9\u03b6\u03bf\u03c5\u03c3\u03b1\u03bd \u03c4\u03b7\u03bd \u03b7\u03bc\u03b5\u03c1\u03b1\u03bd "
        },
        {
            "chapter": 10,
            "verse": 26,
            "name": "Hebrews 10:26",
            "text": "\u03b5\u03ba\u03bf\u03c5\u03c3\u03b9\u03c9\u03c2 \u03b3\u03b1\u03c1 \u03b1\u03bc\u03b1\u03c1\u03c4\u03b1\u03bd\u03bf\u03bd\u03c4\u03c9\u03bd \u03b7\u03bc\u03c9\u03bd \u03bc\u03b5\u03c4\u03b1 \u03c4\u03bf \u03bb\u03b1\u03b2\u03b5\u03b9\u03bd \u03c4\u03b7\u03bd \u03b5\u03c0\u03b9\u03b3\u03bd\u03c9\u03c3\u03b9\u03bd \u03c4\u03b7\u03c2 \u03b1\u03bb\u03b7\u03b8\u03b5\u03b9\u03b1\u03c2 \u03bf\u03c5\u03ba\u03b5\u03c4\u03b9 \u03c0\u03b5\u03c1\u03b9 \u03b1\u03bc\u03b1\u03c1\u03c4\u03b9\u03c9\u03bd \u03b1\u03c0\u03bf\u03bb\u03b5\u03b9\u03c0\u03b5\u03c4\u03b1\u03b9 \u03b8\u03c5\u03c3\u03b9\u03b1 "
        },
        {
            "chapter": 10,
            "verse": 27,
            "name": "Hebrews 10:27",
            "text": "\u03c6\u03bf\u03b2\u03b5\u03c1\u03b1 \u03b4\u03b5 \u03c4\u03b9\u03c2 \u03b5\u03ba\u03b4\u03bf\u03c7\u03b7 \u03ba\u03c1\u03b9\u03c3\u03b5\u03c9\u03c2 \u03ba\u03b1\u03b9 \u03c0\u03c5\u03c1\u03bf\u03c2 \u03b6\u03b7\u03bb\u03bf\u03c2 \u03b5\u03c3\u03b8\u03b9\u03b5\u03b9\u03bd \u03bc\u03b5\u03bb\u03bb\u03bf\u03bd\u03c4\u03bf\u03c2 \u03c4\u03bf\u03c5\u03c2 \u03c5\u03c0\u03b5\u03bd\u03b1\u03bd\u03c4\u03b9\u03bf\u03c5\u03c2 "
        },
        {
            "chapter": 10,
            "verse": 28,
            "name": "Hebrews 10:28",
            "text": "\u03b1\u03b8\u03b5\u03c4\u03b7\u03c3\u03b1\u03c2 \u03c4\u03b9\u03c2 \u03bd\u03bf\u03bc\u03bf\u03bd \u03bc\u03c9\u03c3\u03b5\u03c9\u03c2 \u03c7\u03c9\u03c1\u03b9\u03c2 \u03bf\u03b9\u03ba\u03c4\u03b9\u03c1\u03bc\u03c9\u03bd \u03b5\u03c0\u03b9 \u03b4\u03c5\u03c3\u03b9\u03bd \u03b7 \u03c4\u03c1\u03b9\u03c3\u03b9\u03bd \u03bc\u03b1\u03c1\u03c4\u03c5\u03c3\u03b9\u03bd \u03b1\u03c0\u03bf\u03b8\u03bd\u03b7\u03c3\u03ba\u03b5\u03b9 "
        },
        {
            "chapter": 10,
            "verse": 29,
            "name": "Hebrews 10:29",
            "text": "\u03c0\u03bf\u03c3\u03c9 \u03b4\u03bf\u03ba\u03b5\u03b9\u03c4\u03b5 \u03c7\u03b5\u03b9\u03c1\u03bf\u03bd\u03bf\u03c2 \u03b1\u03be\u03b9\u03c9\u03b8\u03b7\u03c3\u03b5\u03c4\u03b1\u03b9 \u03c4\u03b9\u03bc\u03c9\u03c1\u03b9\u03b1\u03c2 \u03bf \u03c4\u03bf\u03bd \u03c5\u03b9\u03bf\u03bd \u03c4\u03bf\u03c5 \u03b8\u03b5\u03bf\u03c5 \u03ba\u03b1\u03c4\u03b1\u03c0\u03b1\u03c4\u03b7\u03c3\u03b1\u03c2 \u03ba\u03b1\u03b9 \u03c4\u03bf \u03b1\u03b9\u03bc\u03b1 \u03c4\u03b7\u03c2 \u03b4\u03b9\u03b1\u03b8\u03b7\u03ba\u03b7\u03c2 \u03ba\u03bf\u03b9\u03bd\u03bf\u03bd \u03b7\u03b3\u03b7\u03c3\u03b1\u03bc\u03b5\u03bd\u03bf\u03c2 \u03b5\u03bd \u03c9 \u03b7\u03b3\u03b9\u03b1\u03c3\u03b8\u03b7 \u03ba\u03b1\u03b9 \u03c4\u03bf \u03c0\u03bd\u03b5\u03c5\u03bc\u03b1 \u03c4\u03b7\u03c2 \u03c7\u03b1\u03c1\u03b9\u03c4\u03bf\u03c2 \u03b5\u03bd\u03c5\u03b2\u03c1\u03b9\u03c3\u03b1\u03c2 "
        },
        {
            "chapter": 10,
            "verse": 30,
            "name": "Hebrews 10:30",
            "text": "\u03bf\u03b9\u03b4\u03b1\u03bc\u03b5\u03bd \u03b3\u03b1\u03c1 \u03c4\u03bf\u03bd \u03b5\u03b9\u03c0\u03bf\u03bd\u03c4\u03b1 \u03b5\u03bc\u03bf\u03b9 \u03b5\u03ba\u03b4\u03b9\u03ba\u03b7\u03c3\u03b9\u03c2 \u03b5\u03b3\u03c9 \u03b1\u03bd\u03c4\u03b1\u03c0\u03bf\u03b4\u03c9\u03c3\u03c9 \u03bb\u03b5\u03b3\u03b5\u03b9 \u03ba\u03c5\u03c1\u03b9\u03bf\u03c2 \u03ba\u03b1\u03b9 \u03c0\u03b1\u03bb\u03b9\u03bd \u03ba\u03c5\u03c1\u03b9\u03bf\u03c2 \u03ba\u03c1\u03b9\u03bd\u03b5\u03b9 \u03c4\u03bf\u03bd \u03bb\u03b1\u03bf\u03bd \u03b1\u03c5\u03c4\u03bf\u03c5 "
        },
        {
            "chapter": 10,
            "verse": 31,
            "name": "Hebrews 10:31",
            "text": "\u03c6\u03bf\u03b2\u03b5\u03c1\u03bf\u03bd \u03c4\u03bf \u03b5\u03bc\u03c0\u03b5\u03c3\u03b5\u03b9\u03bd \u03b5\u03b9\u03c2 \u03c7\u03b5\u03b9\u03c1\u03b1\u03c2 \u03b8\u03b5\u03bf\u03c5 \u03b6\u03c9\u03bd\u03c4\u03bf\u03c2 "
        },
        {
            "chapter": 10,
            "verse": 32,
            "name": "Hebrews 10:32",
            "text": "\u03b1\u03bd\u03b1\u03bc\u03b9\u03bc\u03bd\u03b7\u03c3\u03ba\u03b5\u03c3\u03b8\u03b5 \u03b4\u03b5 \u03c4\u03b1\u03c2 \u03c0\u03c1\u03bf\u03c4\u03b5\u03c1\u03bf\u03bd \u03b7\u03bc\u03b5\u03c1\u03b1\u03c2 \u03b5\u03bd \u03b1\u03b9\u03c2 \u03c6\u03c9\u03c4\u03b9\u03c3\u03b8\u03b5\u03bd\u03c4\u03b5\u03c2 \u03c0\u03bf\u03bb\u03bb\u03b7\u03bd \u03b1\u03b8\u03bb\u03b7\u03c3\u03b9\u03bd \u03c5\u03c0\u03b5\u03bc\u03b5\u03b9\u03bd\u03b1\u03c4\u03b5 \u03c0\u03b1\u03b8\u03b7\u03bc\u03b1\u03c4\u03c9\u03bd "
        },
        {
            "chapter": 10,
            "verse": 33,
            "name": "Hebrews 10:33",
            "text": "\u03c4\u03bf\u03c5\u03c4\u03bf \u03bc\u03b5\u03bd \u03bf\u03bd\u03b5\u03b9\u03b4\u03b9\u03c3\u03bc\u03bf\u03b9\u03c2 \u03c4\u03b5 \u03ba\u03b1\u03b9 \u03b8\u03bb\u03b9\u03c8\u03b5\u03c3\u03b9\u03bd \u03b8\u03b5\u03b1\u03c4\u03c1\u03b9\u03b6\u03bf\u03bc\u03b5\u03bd\u03bf\u03b9 \u03c4\u03bf\u03c5\u03c4\u03bf \u03b4\u03b5 \u03ba\u03bf\u03b9\u03bd\u03c9\u03bd\u03bf\u03b9 \u03c4\u03c9\u03bd \u03bf\u03c5\u03c4\u03c9\u03c2 \u03b1\u03bd\u03b1\u03c3\u03c4\u03c1\u03b5\u03c6\u03bf\u03bc\u03b5\u03bd\u03c9\u03bd \u03b3\u03b5\u03bd\u03b7\u03b8\u03b5\u03bd\u03c4\u03b5\u03c2 "
        },
        {
            "chapter": 10,
            "verse": 34,
            "name": "Hebrews 10:34",
            "text": "\u03ba\u03b1\u03b9 \u03b3\u03b1\u03c1 \u03c4\u03bf\u03b9\u03c2 \u03b4\u03b5\u03c3\u03bc\u03bf\u03b9\u03c2 \u03bc\u03bf\u03c5 \u03c3\u03c5\u03bd\u03b5\u03c0\u03b1\u03b8\u03b7\u03c3\u03b1\u03c4\u03b5 \u03ba\u03b1\u03b9 \u03c4\u03b7\u03bd \u03b1\u03c1\u03c0\u03b1\u03b3\u03b7\u03bd \u03c4\u03c9\u03bd \u03c5\u03c0\u03b1\u03c1\u03c7\u03bf\u03bd\u03c4\u03c9\u03bd \u03c5\u03bc\u03c9\u03bd \u03bc\u03b5\u03c4\u03b1 \u03c7\u03b1\u03c1\u03b1\u03c2 \u03c0\u03c1\u03bf\u03c3\u03b5\u03b4\u03b5\u03be\u03b1\u03c3\u03b8\u03b5 \u03b3\u03b9\u03bd\u03c9\u03c3\u03ba\u03bf\u03bd\u03c4\u03b5\u03c2 \u03b5\u03c7\u03b5\u03b9\u03bd \u03b5\u03bd \u03b5\u03b1\u03c5\u03c4\u03bf\u03b9\u03c2 \u03ba\u03c1\u03b5\u03b9\u03c4\u03c4\u03bf\u03bd\u03b1 \u03c5\u03c0\u03b1\u03c1\u03be\u03b9\u03bd \u03b5\u03bd \u03bf\u03c5\u03c1\u03b1\u03bd\u03bf\u03b9\u03c2 \u03ba\u03b1\u03b9 \u03bc\u03b5\u03bd\u03bf\u03c5\u03c3\u03b1\u03bd "
        },
        {
            "chapter": 10,
            "verse": 35,
            "name": "Hebrews 10:35",
            "text": "\u03bc\u03b7 \u03b1\u03c0\u03bf\u03b2\u03b1\u03bb\u03b7\u03c4\u03b5 \u03bf\u03c5\u03bd \u03c4\u03b7\u03bd \u03c0\u03b1\u03c1\u03c1\u03b7\u03c3\u03b9\u03b1\u03bd \u03c5\u03bc\u03c9\u03bd \u03b7\u03c4\u03b9\u03c2 \u03b5\u03c7\u03b5\u03b9 \u03bc\u03b9\u03c3\u03b8\u03b1\u03c0\u03bf\u03b4\u03bf\u03c3\u03b9\u03b1\u03bd \u03bc\u03b5\u03b3\u03b1\u03bb\u03b7\u03bd "
        },
        {
            "chapter": 10,
            "verse": 36,
            "name": "Hebrews 10:36",
            "text": "\u03c5\u03c0\u03bf\u03bc\u03bf\u03bd\u03b7\u03c2 \u03b3\u03b1\u03c1 \u03b5\u03c7\u03b5\u03c4\u03b5 \u03c7\u03c1\u03b5\u03b9\u03b1\u03bd \u03b9\u03bd\u03b1 \u03c4\u03bf \u03b8\u03b5\u03bb\u03b7\u03bc\u03b1 \u03c4\u03bf\u03c5 \u03b8\u03b5\u03bf\u03c5 \u03c0\u03bf\u03b9\u03b7\u03c3\u03b1\u03bd\u03c4\u03b5\u03c2 \u03ba\u03bf\u03bc\u03b9\u03c3\u03b7\u03c3\u03b8\u03b5 \u03c4\u03b7\u03bd \u03b5\u03c0\u03b1\u03b3\u03b3\u03b5\u03bb\u03b9\u03b1\u03bd "
        },
        {
            "chapter": 10,
            "verse": 37,
            "name": "Hebrews 10:37",
            "text": "\u03b5\u03c4\u03b9 \u03b3\u03b1\u03c1 \u03bc\u03b9\u03ba\u03c1\u03bf\u03bd \u03bf\u03c3\u03bf\u03bd \u03bf\u03c3\u03bf\u03bd \u03bf \u03b5\u03c1\u03c7\u03bf\u03bc\u03b5\u03bd\u03bf\u03c2 \u03b7\u03be\u03b5\u03b9 \u03ba\u03b1\u03b9 \u03bf\u03c5 \u03c7\u03c1\u03bf\u03bd\u03b9\u03b5\u03b9 "
        },
        {
            "chapter": 10,
            "verse": 38,
            "name": "Hebrews 10:38",
            "text": "\u03bf \u03b4\u03b5 \u03b4\u03b9\u03ba\u03b1\u03b9\u03bf\u03c2 \u03b5\u03ba \u03c0\u03b9\u03c3\u03c4\u03b5\u03c9\u03c2 \u03b6\u03b7\u03c3\u03b5\u03c4\u03b1\u03b9 \u03ba\u03b1\u03b9 \u03b5\u03b1\u03bd \u03c5\u03c0\u03bf\u03c3\u03c4\u03b5\u03b9\u03bb\u03b7\u03c4\u03b1\u03b9 \u03bf\u03c5\u03ba \u03b5\u03c5\u03b4\u03bf\u03ba\u03b5\u03b9 \u03b7 \u03c8\u03c5\u03c7\u03b7 \u03bc\u03bf\u03c5 \u03b5\u03bd \u03b1\u03c5\u03c4\u03c9 "
        },
        {
            "chapter": 10,
            "verse": 39,
            "name": "Hebrews 10:39",
            "text": "\u03b7\u03bc\u03b5\u03b9\u03c2 \u03b4\u03b5 \u03bf\u03c5\u03ba \u03b5\u03c3\u03bc\u03b5\u03bd \u03c5\u03c0\u03bf\u03c3\u03c4\u03bf\u03bb\u03b7\u03c2 \u03b5\u03b9\u03c2 \u03b1\u03c0\u03c9\u03bb\u03b5\u03b9\u03b1\u03bd \u03b1\u03bb\u03bb\u03b1 \u03c0\u03b9\u03c3\u03c4\u03b5\u03c9\u03c2 \u03b5\u03b9\u03c2 \u03c0\u03b5\u03c1\u03b9\u03c0\u03bf\u03b9\u03b7\u03c3\u03b9\u03bd \u03c8\u03c5\u03c7\u03b7\u03c2  "
        }
    ]
}