{
    "translation": "French Bible Bovet Bonnet (1900)",
    "abbreviation": "frebbb",
    "lang": "fr",
    "language": "French",
    "direction": "LTR",
    "encoding": "UTF-8",
    "book_nr": 23,
    "book_name": "Isaiah",
    "chapter": 56,
    "name": "Isaiah 56",
    "verses": [
        {
            "chapter": 56,
            "verse": 1,
            "name": "Isaiah 56:1",
            "text": "Ainsi a dit l'Eternel : Observez le droit, et faites ce qui est juste\u00a0; car mon salut est pr\u00e8s d'arriver et ma justice de se manifester."
        },
        {
            "chapter": 56,
            "verse": 2,
            "name": "Isaiah 56:2",
            "text": "Heureux l'homme qui fera cela et le fils de l'homme qui s'y attachera, gardant le sabbat pour ne le point profaner, et gardant sa main de faire aucun mal\u00a0!"
        },
        {
            "chapter": 56,
            "verse": 3,
            "name": "Isaiah 56:3",
            "text": "Que le fils de l'\u00e9tranger qui s'est attach\u00e9 \u00e0 l'Eternel ne dise pas : L'Eternel m'exclura de son peuple\u00a0! Et que l'eunuque ne dise pas : Voil\u00e0, je suis un arbre sec\u00a0!"
        },
        {
            "chapter": 56,
            "verse": 4,
            "name": "Isaiah 56:4",
            "text": "Car voici ce que l'Eternel dit aux eunuques : Ceux qui garderont mes sabbats et qui aimeront ce qui m'est agr\u00e9able, et qui s'attacheront \u00e0 mon alliance,"
        },
        {
            "chapter": 56,
            "verse": 5,
            "name": "Isaiah 56:5",
            "text": "je leur donnerai dans ma maison et dans mes murs un monument et un nom qui vaudra mieux que des fils et des filles : je leur donnerai un nom \u00e9ternel, qui ne sera point retranch\u00e9."
        },
        {
            "chapter": 56,
            "verse": 6,
            "name": "Isaiah 56:6",
            "text": "Et les fils de l'\u00e9tranger, qui se sont attach\u00e9s \u00e0 l'Eternel pour le servir et pour aimer le nom de l'Eternel, afin d'\u00eatre ses serviteurs, qui gardent le sabbat, pour ne le point profaner, et qui s'attachent \u00e0 mon alliance,"
        },
        {
            "chapter": 56,
            "verse": 7,
            "name": "Isaiah 56:7",
            "text": "je les ferai venir \u00e0 ma montagne sainte, et je les r\u00e9jouirai dans la maison o\u00f9 l'on me prie\u00a0; leurs holocaustes et leurs sacrifices seront agr\u00e9\u00e9s sur mon autel\u00a0; car ma maison sera appel\u00e9e une maison de pri\u00e8re pour tous les peuples,"
        },
        {
            "chapter": 56,
            "verse": 8,
            "name": "Isaiah 56:8",
            "text": "dit le Seigneur, l'Eternel, qui rassemble les bannis d'Isra\u00ebl : j'en recueillerai encore d'autres vers lui avec ceux qui sont d\u00e9j\u00e0 rassembl\u00e9s."
        },
        {
            "chapter": 56,
            "verse": 9,
            "name": "Isaiah 56:9",
            "text": "Animaux des champs, approchez tous\u00a0! Venez tous pour manger, animaux de la for\u00eat\u00a0!"
        },
        {
            "chapter": 56,
            "verse": 10,
            "name": "Isaiah 56:10",
            "text": "Ses gardiens sont tous aveugles, sans intelligence\u00a0; ce sont tous des chiens muets, qui ne savent pas aboyer, qui r\u00eavent couch\u00e9s, qui aiment \u00e0 dormir\u00a0;"
        },
        {
            "chapter": 56,
            "verse": 11,
            "name": "Isaiah 56:11",
            "text": "et ces chiens sont avides, insatiables\u00a0; ce sont des bergers qui ne savent pas comprendre\u00a0; ils vont tous leur chemin \u00e0 eux, chacun apr\u00e8s son profit, du premier au dernier :"
        },
        {
            "chapter": 56,
            "verse": 12,
            "name": "Isaiah 56:12",
            "text": "Venez, j'irai chercher du vin, et nous nous remplirons de cervoise\u00a0; et demain comme aujourd'hui nous ferons tr\u00e8s grande ch\u00e8re\u00a0! "
        }
    ]
}