{
    "translation": "Catholic Public Domain Version",
    "abbreviation": "cpdv",
    "lang": "en",
    "language": "English",
    "direction": "LTR",
    "encoding": "UTF-8",
    "book_nr": 24,
    "book_name": "Jeremiah",
    "chapter": 39,
    "name": "Jeremiah 39",
    "verses": [
        {
            "chapter": 39,
            "verse": 1,
            "name": "Jeremiah 39:1",
            "text": "In the ninth year of Zedekiah, the king of Judah, in the tenth month, Nebuchadnezzar, the king of Babylon, came to Jerusalem, with his entire army, and they besieged it."
        },
        {
            "chapter": 39,
            "verse": 2,
            "name": "Jeremiah 39:2",
            "text": "Then, in the eleventh year of Zedekiah, in the fourth month, on the fifth of the month, the city was opened."
        },
        {
            "chapter": 39,
            "verse": 3,
            "name": "Jeremiah 39:3",
            "text": "And all the rulers of the king of Babylon entered and were seated at the middle gate: Nergal-Sharezer, the priest of Nebo, Sarsechim, the chief eunuch, Nergal-Sharezer, the chief magi, and all the other rulers of the king of Babylon."
        },
        {
            "chapter": 39,
            "verse": 4,
            "name": "Jeremiah 39:4",
            "text": "And when Zedekiah, the king of Judah, with all the men of war, had seen them, they fled. And they departed from the city at night, by way of the king\u2019s garden, and through the gate which was between the two walls. And they departed along the way of the desert."
        },
        {
            "chapter": 39,
            "verse": 5,
            "name": "Jeremiah 39:5",
            "text": "But the army of the Chaldeans pursued them. And they overtook Zedekiah in the plain of the desert of Jericho. And having captured him, they led him to Nebuchadnezzar, the king of Babylon, at Riblah, which is in the land of Hamath. And he declared a judgment against him"
        },
        {
            "chapter": 39,
            "verse": 6,
            "name": "Jeremiah 39:6",
            "text": "And the king of Babylon killed the sons of Zedekiah, at Riblah, before his eyes. And the king of Babylon killed all the nobles of Judah."
        },
        {
            "chapter": 39,
            "verse": 7,
            "name": "Jeremiah 39:7",
            "text": "Also, he plucked out the eyes of Zedekiah. And he bound him with fetters, to be led away to Babylon."
        },
        {
            "chapter": 39,
            "verse": 8,
            "name": "Jeremiah 39:8",
            "text": "Also, the Chaldeans burned the house of the king and the house of the people with fire, and they overturned the wall of Jerusalem."
        },
        {
            "chapter": 39,
            "verse": 9,
            "name": "Jeremiah 39:9",
            "text": "And Nebuzaradan, the leader of the military, carried away captive to Babylon the remnant of the people who had remained in the city, and the fugitives who had fled to him, and all the rest of the people who had remained."
        },
        {
            "chapter": 39,
            "verse": 10,
            "name": "Jeremiah 39:10",
            "text": "And Nebuzaradan, the leader of the military, released some of the poor people, those who had almost nothing, into the land of Judah. And he gave them vineyards and cisterns in that day."
        },
        {
            "chapter": 39,
            "verse": 11,
            "name": "Jeremiah 39:11",
            "text": "Now Nebuchadnezzar, the king of Babylon, had instructed Nebuzaradan, the leader of the military, about Jeremiah, saying:"
        },
        {
            "chapter": 39,
            "verse": 12,
            "name": "Jeremiah 39:12",
            "text": "\u201cTake him, and set your eyes on him, and you shall do no harm to him at all. But as he is willing, so shall you do with him.\u201d"
        },
        {
            "chapter": 39,
            "verse": 13,
            "name": "Jeremiah 39:13",
            "text": "Therefore, Nebuzaradan, the leader of the military, sent, and Nebushazban, the chief eunuch, and Nergal-Sharezer, the chief magi, and all the nobles of the king of Babylon sent, "
        },
        {
            "chapter": 39,
            "verse": 14,
            "name": "Jeremiah 39:14",
            "text": "and they took Jeremiah from the vestibule of the prison, and they delivered him to Gedaliah, the son of Ahikam, the son of Shaphan, so that he could enter a house and live among the people."
        },
        {
            "chapter": 39,
            "verse": 15,
            "name": "Jeremiah 39:15",
            "text": "But the word of the Lord had come to Jeremiah, when he had been confined to the vestibule of the prison, saying: \u201cGo, and speak to Ebedmelech, the Ethiopian, saying:"
        },
        {
            "chapter": 39,
            "verse": 16,
            "name": "Jeremiah 39:16",
            "text": "Thus says the Lord of hosts, the God of Israel: Behold, I will bring my words over this city for evil, and not for good; and they shall be in your sight in that day."
        },
        {
            "chapter": 39,
            "verse": 17,
            "name": "Jeremiah 39:17",
            "text": "And I will free you in that day, says the Lord. And you will not be delivered into the hands of the men whom you dread."
        },
        {
            "chapter": 39,
            "verse": 18,
            "name": "Jeremiah 39:18",
            "text": "But when delivering, I will free you. And you will not fall by the sword. Instead, your life will be saved for you, because you had faith in me, says the Lord.\u201d "
        }
    ]
}