{
    "translation": "Neue evangelistische \u00dcbersetzung",
    "abbreviation": "gerneue",
    "lang": "de",
    "language": "German",
    "direction": "LTR",
    "encoding": "UTF-8",
    "book_nr": 25,
    "book_name": "Lamentations",
    "chapter": 3,
    "name": "Lamentations 3",
    "verses": [
        {
            "chapter": 3,
            "verse": 1,
            "name": "Lamentations 3:1",
            "text": "Ich bin der Mann, der gelitten hat / durch die Rute seines Zorns."
        },
        {
            "chapter": 3,
            "verse": 2,
            "name": "Lamentations 3:2",
            "text": "Mich trieb er weg und lie\u00df mich gehen / im Dunkeln, ohne Licht."
        },
        {
            "chapter": 3,
            "verse": 3,
            "name": "Lamentations 3:3",
            "text": "Nur mich trifft seine Hand, / immer wieder, jeden Tag."
        },
        {
            "chapter": 3,
            "verse": 4,
            "name": "Lamentations 3:4",
            "text": "Er lie\u00df meine Haut verfallen - und mein Fleisch; / und er zerbrach mir meine Knochen."
        },
        {
            "chapter": 3,
            "verse": 5,
            "name": "Lamentations 3:5",
            "text": "Mit Bitterkeit und Qual / umbaute und umschloss er mich."
        },
        {
            "chapter": 3,
            "verse": 6,
            "name": "Lamentations 3:6",
            "text": "In Finsternis lie\u00df er mich wohnen / wie die Toten aus uralter Zeit."
        },
        {
            "chapter": 3,
            "verse": 7,
            "name": "Lamentations 3:7",
            "text": "Er hat mich ummauert, ich komme nicht weg, / er hat mich in schwere Ketten gelegt."
        },
        {
            "chapter": 3,
            "verse": 8,
            "name": "Lamentations 3:8",
            "text": "Auch wenn ich schrie und flehte, / er verschloss sich vor meinem Gebet."
        },
        {
            "chapter": 3,
            "verse": 9,
            "name": "Lamentations 3:9",
            "text": "Mit Quadersteinen versperrt er meinen Weg. / Ich komme nicht mehr weiter."
        },
        {
            "chapter": 3,
            "verse": 10,
            "name": "Lamentations 3:10",
            "text": "Wie ein B\u00e4r hat er mir aufgelauert, / wie ein L\u00f6we im Versteck."
        },
        {
            "chapter": 3,
            "verse": 11,
            "name": "Lamentations 3:11",
            "text": "Er hat mich vom Weg heruntergezerrt, / mich zerrissen und zerfleischt."
        },
        {
            "chapter": 3,
            "verse": 12,
            "name": "Lamentations 3:12",
            "text": "Er spannte den Bogen und stellte mich hin, / benutzte mich als Ziel f\u00fcr den Pfeil."
        },
        {
            "chapter": 3,
            "verse": 13,
            "name": "Lamentations 3:13",
            "text": "Die Geschosse seines K\u00f6chers / lie\u00df er meine Nieren treffen."
        },
        {
            "chapter": 3,
            "verse": 14,
            "name": "Lamentations 3:14",
            "text": "Die Leute meines Volkes lachten mich aus, / ihre Spottlieder h\u00f6rte ich jeden Tag."
        },
        {
            "chapter": 3,
            "verse": 15,
            "name": "Lamentations 3:15",
            "text": "Er machte mich mit Bitternissen satt / und lie\u00df mich bitteren Wermut trinken."
        },
        {
            "chapter": 3,
            "verse": 16,
            "name": "Lamentations 3:16",
            "text": "Er lie\u00df meine Z\u00e4hne auf Kiesel bei\u00dfen / und trat mich in den Staub."
        },
        {
            "chapter": 3,
            "verse": 17,
            "name": "Lamentations 3:17",
            "text": "Du hast mich aus dem Frieden versto\u00dfen. / Ich habe vergessen, was Gl\u00fcck bedeutet."
        },
        {
            "chapter": 3,
            "verse": 18,
            "name": "Lamentations 3:18",
            "text": "Ich sagte: \"Meine Zukunft ist verloren, / auch meine Hoffnung auf Jahwe.\""
        },
        {
            "chapter": 3,
            "verse": 19,
            "name": "Lamentations 3:19",
            "text": "Denke ich an mein rastloses Elend, / ist das wie Wermut und Gift."
        },
        {
            "chapter": 3,
            "verse": 20,
            "name": "Lamentations 3:20",
            "text": "Doch immer wieder muss ich es tun / und bin schwerm\u00fctig geworden."
        },
        {
            "chapter": 3,
            "verse": 21,
            "name": "Lamentations 3:21",
            "text": "Doch das will ich mir zu Herzen nehmen, / darauf darf ich hoffen:"
        },
        {
            "chapter": 3,
            "verse": 22,
            "name": "Lamentations 3:22",
            "text": "Die G\u00fcte Jahwes ist nicht zu Ende, / sein Erbarmen h\u00f6rt nicht auf."
        },
        {
            "chapter": 3,
            "verse": 23,
            "name": "Lamentations 3:23",
            "text": "An jedem Morgen ist es neu. / Deine Treue ist gro\u00df!"
        },
        {
            "chapter": 3,
            "verse": 24,
            "name": "Lamentations 3:24",
            "text": "Ich sage: \"Alles, was ich habe, ist Jahwe!\" / Darum hoffe ich nur auf ihn."
        },
        {
            "chapter": 3,
            "verse": 25,
            "name": "Lamentations 3:25",
            "text": "Gut ist Jahwe zu denen, die auf ihn hoffen, / und zu dem, der seine N\u00e4he sucht."
        },
        {
            "chapter": 3,
            "verse": 26,
            "name": "Lamentations 3:26",
            "text": "Gut ist es, schweigend / auf die Hilfe Jahwes zu hoffen."
        },
        {
            "chapter": 3,
            "verse": 27,
            "name": "Lamentations 3:27",
            "text": "Gut ist es f\u00fcr jeden, / schon in der Jugend ein Joch zu tragen."
        },
        {
            "chapter": 3,
            "verse": 28,
            "name": "Lamentations 3:28",
            "text": "Er sitze einsam und still, / wenn man es ihm auferlegt."
        },
        {
            "chapter": 3,
            "verse": 29,
            "name": "Lamentations 3:29",
            "text": "Er presse den Mund auf den Boden, / vielleicht gibt es noch Hoffnung."
        },
        {
            "chapter": 3,
            "verse": 30,
            "name": "Lamentations 3:30",
            "text": "Er halte dem die Wange hin, der ihn schl\u00e4gt, / und ertrage alle Dem\u00fctigung."
        },
        {
            "chapter": 3,
            "verse": 31,
            "name": "Lamentations 3:31",
            "text": "Denn nicht f\u00fcr immer / verwirft uns der Herr."
        },
        {
            "chapter": 3,
            "verse": 32,
            "name": "Lamentations 3:32",
            "text": "Denn wenn er betr\u00fcbt, / erbarmt er sich wieder / nach seiner gro\u00dfen G\u00fcte."
        },
        {
            "chapter": 3,
            "verse": 33,
            "name": "Lamentations 3:33",
            "text": "Denn nicht aus Herzensfreude / f\u00fcgt er Menschen Schmerz und Kummer zu."
        },
        {
            "chapter": 3,
            "verse": 34,
            "name": "Lamentations 3:34",
            "text": "Dass man mit F\u00fc\u00dfen tritt / die Gefangenen im Land,"
        },
        {
            "chapter": 3,
            "verse": 35,
            "name": "Lamentations 3:35",
            "text": "dass man das Recht des Menschen / vor den Augen des H\u00f6chsten beugt,"
        },
        {
            "chapter": 3,
            "verse": 36,
            "name": "Lamentations 3:36",
            "text": "dass man irref\u00fchrt im Prozess, / sollte der Herr das nicht sehen?"
        },
        {
            "chapter": 3,
            "verse": 37,
            "name": "Lamentations 3:37",
            "text": "Wer sonst spricht ein Wort, dass es geschieht? / War das nicht ein Befehl des Herrn?"
        },
        {
            "chapter": 3,
            "verse": 38,
            "name": "Lamentations 3:38",
            "text": "Kommt nicht aus dem Mund des H\u00f6chsten / das b\u00f6se und das gute Geschick?"
        },
        {
            "chapter": 3,
            "verse": 39,
            "name": "Lamentations 3:39",
            "text": "Was beklagt sich der, der noch am Leben ist? / Seine S\u00fcnde sollte er beklagen!"
        },
        {
            "chapter": 3,
            "verse": 40,
            "name": "Lamentations 3:40",
            "text": "Wir wollen unseren Wandel erforschen! / Und kehren wir um zu Jahwe!"
        },
        {
            "chapter": 3,
            "verse": 41,
            "name": "Lamentations 3:41",
            "text": "Lasst uns Herz und H\u00e4nde / zu Gott im Himmel erheben!"
        },
        {
            "chapter": 3,
            "verse": 42,
            "name": "Lamentations 3:42",
            "text": "Wir haben ges\u00fcndigt und dir getrotzt, / und du, du hast nicht vergeben."
        },
        {
            "chapter": 3,
            "verse": 43,
            "name": "Lamentations 3:43",
            "text": "In Zorn geh\u00fcllt hast du uns verfolgt, / ohne Mitleid uns get\u00f6tet."
        },
        {
            "chapter": 3,
            "verse": 44,
            "name": "Lamentations 3:44",
            "text": "Du hast dich mit einer Wolke umh\u00fcllt, / kein Gebet kam mehr hindurch."
        },
        {
            "chapter": 3,
            "verse": 45,
            "name": "Lamentations 3:45",
            "text": "Du hast uns zu Abfall gemacht / und zum Ekel f\u00fcr die V\u00f6lker."
        },
        {
            "chapter": 3,
            "verse": 46,
            "name": "Lamentations 3:46",
            "text": "Unsere Feinde rei\u00dfen / das Maul gegen uns auf."
        },
        {
            "chapter": 3,
            "verse": 47,
            "name": "Lamentations 3:47",
            "text": "Uns wurden Grauen und Grube zuteil, / Zusammenbruch und Untergang."
        },
        {
            "chapter": 3,
            "verse": 48,
            "name": "Lamentations 3:48",
            "text": "Meine Tr\u00e4nen str\u00f6men wie B\u00e4che, / weil mein Volk zugrunde ging."
        },
        {
            "chapter": 3,
            "verse": 49,
            "name": "Lamentations 3:49",
            "text": "Meine Augen zerflie\u00dfen in Tr\u00e4nen, / kommen nicht zur Ruhe,"
        },
        {
            "chapter": 3,
            "verse": 50,
            "name": "Lamentations 3:50",
            "text": "bis Jahwe vom Himmel / herunterschaut und es sieht."
        },
        {
            "chapter": 3,
            "verse": 51,
            "name": "Lamentations 3:51",
            "text": "Was ich sehen muss, tut meiner Seele weh, / das, was den T\u00f6chtern meiner Stadt geschieht."
        },
        {
            "chapter": 3,
            "verse": 52,
            "name": "Lamentations 3:52",
            "text": "Die grundlos meine Feinde sind, / jagten mich wie einen Vogel."
        },
        {
            "chapter": 3,
            "verse": 53,
            "name": "Lamentations 3:53",
            "text": "In der Grube wollten sie mich t\u00f6ten / und warfen Steine auf mich."
        },
        {
            "chapter": 3,
            "verse": 54,
            "name": "Lamentations 3:54",
            "text": "Das Wasser ging mir \u00fcber den Kopf. / Ich sagte: \"Jetzt bin ich verloren!\""
        },
        {
            "chapter": 3,
            "verse": 55,
            "name": "Lamentations 3:55",
            "text": "Da rief ich deinen Namen, Jahwe, / aus der Grube schrie ich zu dir."
        },
        {
            "chapter": 3,
            "verse": 56,
            "name": "Lamentations 3:56",
            "text": "Du h\u00f6rtest meinen Ruf: \"Verschlie\u00df nicht dein Ohr / meinem Seufzen, meinem Hilferuf!\""
        },
        {
            "chapter": 3,
            "verse": 57,
            "name": "Lamentations 3:57",
            "text": "Als ich rief, kamst du in meine N\u00e4he / und sagtest: \"F\u00fcrchte dich nicht!\""
        },
        {
            "chapter": 3,
            "verse": 58,
            "name": "Lamentations 3:58",
            "text": "Du hast meinen Prozess gef\u00fchrt, Herr, / du hast mein Leben erl\u00f6st."
        },
        {
            "chapter": 3,
            "verse": 59,
            "name": "Lamentations 3:59",
            "text": "Du sahst meine Entrechtung, Jahwe. / Verhilf mir doch zu meinem Recht!"
        },
        {
            "chapter": 3,
            "verse": 60,
            "name": "Lamentations 3:60",
            "text": "Du hast ihre Rachgier gesehen, / alle ihre Pl\u00e4ne gegen mich."
        },
        {
            "chapter": 3,
            "verse": 61,
            "name": "Lamentations 3:61",
            "text": "Du hast ihr Schm\u00e4hen geh\u00f6rt, Jahwe, / alle ihre Pl\u00e4ne gegen mich,"
        },
        {
            "chapter": 3,
            "verse": 62,
            "name": "Lamentations 3:62",
            "text": "ihr Gerede gegen mich / und Tag f\u00fcr Tag all ihren Spott."
        },
        {
            "chapter": 3,
            "verse": 63,
            "name": "Lamentations 3:63",
            "text": "Schau doch ihr Tun und Lassen an! / Ich bin ein Spottlied f\u00fcr sie."
        },
        {
            "chapter": 3,
            "verse": 64,
            "name": "Lamentations 3:64",
            "text": "Vergelte ihnen Jahwe, / was sie mir angetan haben!"
        },
        {
            "chapter": 3,
            "verse": 65,
            "name": "Lamentations 3:65",
            "text": "Verblende sie, verwirre ihren Sinn! / Dein Fluch soll \u00fcber sie kommen!"
        },
        {
            "chapter": 3,
            "verse": 66,
            "name": "Lamentations 3:66",
            "text": "Verfolge sie in deinem Zorn und rotte sie aus / unter dem Himmel Jahwes. "
        }
    ]
}