{
    "translation": "La Santa Biblia Reina-Valera (1865) con arreglos ortogr\u00e1ficos",
    "abbreviation": "sparv1865",
    "lang": "es",
    "language": "Spanish",
    "direction": "LTR",
    "encoding": "UTF-8",
    "book_nr": 1,
    "book_name": "Genesis",
    "chapter": 3,
    "name": "Genesis 3",
    "verses": [
        {
            "chapter": 3,
            "verse": 1,
            "name": "Genesis 3:1",
            "text": "Empero la serpiente era astuta m\u00e1s que todos los animales del campo, que Jehov\u00e1 Dios hab\u00eda hecho: la cual dijo a la mujer: Cuanto m\u00e1s que Dios dijo: No com\u00e1is de todo \u00e1rbol del huerto. "
        },
        {
            "chapter": 3,
            "verse": 2,
            "name": "Genesis 3:2",
            "text": "Y la mujer respondi\u00f3 a la serpiente: Del fruto de los \u00e1rboles del huerto comemos; "
        },
        {
            "chapter": 3,
            "verse": 3,
            "name": "Genesis 3:3",
            "text": "Mas del fruto del \u00e1rbol que est\u00e1 en medio del huerto dijo Dios; No comer\u00e9is de \u00e9l, ni tocar\u00e9is en \u00e9l, porque no mur\u00e1is. "
        },
        {
            "chapter": 3,
            "verse": 4,
            "name": "Genesis 3:4",
            "text": "Entonces la serpiente dijo a la mujer: No morir\u00e9is. "
        },
        {
            "chapter": 3,
            "verse": 5,
            "name": "Genesis 3:5",
            "text": "Mas sabe Dios, que en el d\u00eda que comiereis de \u00e9l, ser\u00e1n abiertos vuestros ojos; y ser\u00e9is como dioses, sabiendo el bien y el mal. "
        },
        {
            "chapter": 3,
            "verse": 6,
            "name": "Genesis 3:6",
            "text": "\u00b6 Y vio la mujer que el \u00e1rbol era bueno para comer, y que era deseable a los ojos, y \u00e1rbol de codicia para entender: y tom\u00f3 de su fruto, y comi\u00f3, y dio tambi\u00e9n a su marido, y comi\u00f3 con ella. "
        },
        {
            "chapter": 3,
            "verse": 7,
            "name": "Genesis 3:7",
            "text": "Y fueron abiertos los ojos de ellos ambos, y conocieron que estaban desnudos: entonces cosieron hojas de higuera, e hici\u00e9ronse delantales. "
        },
        {
            "chapter": 3,
            "verse": 8,
            "name": "Genesis 3:8",
            "text": "\u00b6 Y oyeron la voz de Jehov\u00e1 Dios, que se paseaba en el huerto al aire del d\u00eda; y escondi\u00f3se el hombre y su mujer de delante de Jehov\u00e1 Dios entre los \u00e1rboles del huerto. "
        },
        {
            "chapter": 3,
            "verse": 9,
            "name": "Genesis 3:9",
            "text": "\u00b6 Y llam\u00f3 Jehov\u00e1 Dios al hombre, y d\u00edjole: \u00bfD\u00f3nde est\u00e1s t\u00fa? "
        },
        {
            "chapter": 3,
            "verse": 10,
            "name": "Genesis 3:10",
            "text": "Y \u00e9l respondi\u00f3: O\u00ed tu voz en el huerto, y tuve miedo; porque estaba desnudo: y escond\u00edme. "
        },
        {
            "chapter": 3,
            "verse": 11,
            "name": "Genesis 3:11",
            "text": "Y d\u00edjole: \u00bfQui\u00e9n te ense\u00f1\u00f3, que estabas desnudo? \u00bfHas comido del \u00e1rbol de que yo te mand\u00e9 que no comieses? "
        },
        {
            "chapter": 3,
            "verse": 12,
            "name": "Genesis 3:12",
            "text": "Y el hombre respondi\u00f3: La mujer que diste para estar conmigo, ella me dio del \u00e1rbol, y com\u00ed. "
        },
        {
            "chapter": 3,
            "verse": 13,
            "name": "Genesis 3:13",
            "text": "Entonces Jehov\u00e1 Dios dijo a la mujer: \u00bfQu\u00e9 es esto que hiciste? Y dijo la mujer: La serpiente me enga\u00f1\u00f3, y com\u00ed. "
        },
        {
            "chapter": 3,
            "verse": 14,
            "name": "Genesis 3:14",
            "text": "Y Jehov\u00e1 Dios dijo a la serpiente: Porque hiciste esto, maldita ser\u00e1s m\u00e1s que todas las bestias, y que todos los animales del campo: sobre tu pecho andar\u00e1s, y polvo comer\u00e1s todos los d\u00edas de tu vida. "
        },
        {
            "chapter": 3,
            "verse": 15,
            "name": "Genesis 3:15",
            "text": "Y enemistad pondr\u00e9 entre ti y la mujer, y entre tu simiente y su simiente; esta te herir\u00e1 en la cabeza, y t\u00fa le herir\u00e1s en el calca\u00f1ar. "
        },
        {
            "chapter": 3,
            "verse": 16,
            "name": "Genesis 3:16",
            "text": "A la mujer dijo: Multiplicando multiplicar\u00e9 tus dolores, y tus pre\u00f1eces: con dolor parir\u00e1s los hijos, y a tu marido ser\u00e1 tu deseo, y \u00e9l se ense\u00f1orear\u00e1 de ti. "
        },
        {
            "chapter": 3,
            "verse": 17,
            "name": "Genesis 3:17",
            "text": "Y al hombre dijo: Porque obedeciste a la voz de tu mujer, y comiste del \u00e1rbol de que te mand\u00e9, diciendo: No comer\u00e1s de \u00e9l: Maldita ser\u00e1 la tierra por amor de ti: con dolor comer\u00e1s de ella todos los d\u00edas de tu vida. "
        },
        {
            "chapter": 3,
            "verse": 18,
            "name": "Genesis 3:18",
            "text": "Espinos y cardos te producir\u00e1, y comer\u00e1s yerba del campo. "
        },
        {
            "chapter": 3,
            "verse": 19,
            "name": "Genesis 3:19",
            "text": "En el sudor de tu rostro comer\u00e1s el pan, hasta que vuelvas a la tierra, porque de ella fuiste tomado: Porque polvo eres, y al polvo ser\u00e1s tornado. "
        },
        {
            "chapter": 3,
            "verse": 20,
            "name": "Genesis 3:20",
            "text": "Y llam\u00f3 el hombre el nombre de su mujer, Eva: por cuanto ella era madre de todos los vivientes. "
        },
        {
            "chapter": 3,
            "verse": 21,
            "name": "Genesis 3:21",
            "text": "\u00b6 Y Jehov\u00e1 Dios hizo al hombre y a su mujer t\u00fanicas de pieles, y visti\u00f3los. "
        },
        {
            "chapter": 3,
            "verse": 22,
            "name": "Genesis 3:22",
            "text": "Y dijo Jehov\u00e1 Dios: He aqu\u00ed, el hombre es como uno de nos, sabiendo el bien y el mal: ahora pues, porque no meta su mano, y tome tambi\u00e9n del \u00e1rbol de la vida, y coma, y viva para siempre. "
        },
        {
            "chapter": 3,
            "verse": 23,
            "name": "Genesis 3:23",
            "text": "Y sac\u00f3le Jehov\u00e1 del huerto de Ed\u00e9n, para que labrase la tierra, de que fue tomado. "
        },
        {
            "chapter": 3,
            "verse": 24,
            "name": "Genesis 3:24",
            "text": "\u00b6 Y ech\u00f3 al hombre, y puso al oriente del huerto de Ed\u00e9n querubines, y una espada flamante que andaba alrededor, para guardar el camino del \u00e1rbol de la vida.  "
        }
    ]
}