{
    "translation": "Vulgata Sistina",
    "abbreviation": "vulgsistine",
    "lang": "la",
    "language": "Latin",
    "direction": "LTR",
    "encoding": "UTF-8",
    "book_nr": 26,
    "book_name": "Ezekiel",
    "chapter": 48,
    "name": "Ezekiel 48",
    "verses": [
        {
            "chapter": 48,
            "verse": 1,
            "name": "Ezekiel 48:1",
            "text": "Et haec nomina tribuum a finibus Aquilonis iuxta viam Hethalon pergentibus Emath, atrium Enan terminus Damasci ad Aquilonem iuxta viam Emath. Et erit ei plaga Orientalis Mare, Dan una. "
        },
        {
            "chapter": 48,
            "verse": 2,
            "name": "Ezekiel 48:2",
            "text": "Et super terminum Dan, a plaga Orientali usque ad plagam Maris, Aser una: "
        },
        {
            "chapter": 48,
            "verse": 3,
            "name": "Ezekiel 48:3",
            "text": "et super terminum Aser, a plaga Orientali usque ad plagam Maris, Nephthali una. "
        },
        {
            "chapter": 48,
            "verse": 4,
            "name": "Ezekiel 48:4",
            "text": "Et super terminum Nephthali, a plaga Orientali usque ad plagam Maris, Manasse una. "
        },
        {
            "chapter": 48,
            "verse": 5,
            "name": "Ezekiel 48:5",
            "text": "Et super terminum Manasse, a plaga Orientali usque ad plagam Maris, Ephraim una. "
        },
        {
            "chapter": 48,
            "verse": 6,
            "name": "Ezekiel 48:6",
            "text": "Et super terminum Ephraim a plaga Orientali usque ad plagam Maris, Ruben una. "
        },
        {
            "chapter": 48,
            "verse": 7,
            "name": "Ezekiel 48:7",
            "text": "Et super terminum Ruben, a plaga Orientali usque ad plagam Maris, Iuda una. "
        },
        {
            "chapter": 48,
            "verse": 8,
            "name": "Ezekiel 48:8",
            "text": "Et super terminum Iuda, a plaga Orientali usque ad plagam Maris, erunt primitiae, quas separabitis, vigintiquinque millibus latitudinis et longitudinis, sicuti singulae partes a plaga Orientali usque ad plagam Maris: et erit sanctuarium in medio eius. "
        },
        {
            "chapter": 48,
            "verse": 9,
            "name": "Ezekiel 48:9",
            "text": "Primitiae, quas separabitis Domino: longitudo vigintiquinque millibus, et latitudo decem millibus. "
        },
        {
            "chapter": 48,
            "verse": 10,
            "name": "Ezekiel 48:10",
            "text": "Hae autem erunt primitiae sanctuarii sacerdotum: ad Aquilonem longitudinis vigintiquinque millia, et ad Mare latitudinis decem millia, sed et ad Orientem latitudinis decem millia, et ad Meridiem longitudinis vigintiquinque millia: et erit sanctuarium Domini in medio eius. "
        },
        {
            "chapter": 48,
            "verse": 11,
            "name": "Ezekiel 48:11",
            "text": "Sacerdotibus sanctuarium erit de filiis Sadoc, qui custodierunt ceremonias meas, et non erraverunt cum errarent filii Israel, sicut erraverunt et Levitae. "
        },
        {
            "chapter": 48,
            "verse": 12,
            "name": "Ezekiel 48:12",
            "text": "Et erunt eis primitiae de primitiis terrae sanctum sanctorum, iuxta terminum Levitarum. "
        },
        {
            "chapter": 48,
            "verse": 13,
            "name": "Ezekiel 48:13",
            "text": "Sed et Levitis similiter iuxta fines sacerdotum vigintiquinque millia longitudinis, et latitudinis decem millia. Omnis longitudo viginti et quinque millium, et latitudo decem millium. "
        },
        {
            "chapter": 48,
            "verse": 14,
            "name": "Ezekiel 48:14",
            "text": "Et non venundabunt ex eo, neque mutabunt, neque transferentur primitiae terrae, quia sanctificatae sunt Domino. "
        },
        {
            "chapter": 48,
            "verse": 15,
            "name": "Ezekiel 48:15",
            "text": "Quinque millia autem quae supersunt in latitudine per vigintiquinque millia, profana erunt urbis in habitaculum, et in suburbana: et erit civitas in medio eius. "
        },
        {
            "chapter": 48,
            "verse": 16,
            "name": "Ezekiel 48:16",
            "text": "Et hae mensurae eius: ad plagam Septentrionalem quingenta et quattuor millia: et ad plagam Meridianam, quingenta et quattuor millia: et ad plagam Orientalem, quingenta et quattuor millia: et ad plagam Occidentalem, quingenta et quattuor millia. "
        },
        {
            "chapter": 48,
            "verse": 17,
            "name": "Ezekiel 48:17",
            "text": "Erunt autem suburbana civitatis ad Aquilonem ducenta quinquaginta, et ad Meridiem ducenta quinquaginta, et ad Orientem ducenta quinquaginta, et ad Mare ducenta quinquaginta. "
        },
        {
            "chapter": 48,
            "verse": 18,
            "name": "Ezekiel 48:18",
            "text": "Quod autem reliquum fuerit in longitudine secundum primitias sanctuarii, decem millia in Orientem, et decem millia in Occidentem, erunt sicut primitiae sanctuarii: et erunt fruges eius in panes his, qui serviunt civitati. "
        },
        {
            "chapter": 48,
            "verse": 19,
            "name": "Ezekiel 48:19",
            "text": "Servientes autem civitati, operabuntur ex omnibus tribubus Israel. "
        },
        {
            "chapter": 48,
            "verse": 20,
            "name": "Ezekiel 48:20",
            "text": "Omnes primitiae, vigintiquinque millium, per vigintiquinque millia in quadrum, separabuntur in primitias sanctuarii, et in possessionem civitatis. "
        },
        {
            "chapter": 48,
            "verse": 21,
            "name": "Ezekiel 48:21",
            "text": "Quod autem reliquum fuerit, principis erit ex omni parte primitiarum sanctuarii, et possessionis civitatis e regione vigintiquinque millium primitiarum usque ad terminum Orientalem: sed et ad Mare e regione vigintiquinque millium usque ad terminum maris, similiter in partibus principis erit: et erunt primitiae sanctuarii, et sanctuarium templi in medio eius. "
        },
        {
            "chapter": 48,
            "verse": 22,
            "name": "Ezekiel 48:22",
            "text": "De possessione autem Levitarum, et de possessione civitatis in medio partium principis: erit in terminum Iuda, et in terminum Beniamin, et ad principem pertinebit. "
        },
        {
            "chapter": 48,
            "verse": 23,
            "name": "Ezekiel 48:23",
            "text": "Et reliquis tribubus: A plaga Orientali usque ad plagam Occidentalem, Beniamin una. "
        },
        {
            "chapter": 48,
            "verse": 24,
            "name": "Ezekiel 48:24",
            "text": "Et contra terminum Beniamin, a plaga Orientali usque ad plagam Occidentalem, Simeon una. "
        },
        {
            "chapter": 48,
            "verse": 25,
            "name": "Ezekiel 48:25",
            "text": "Et super terminum Simeonis, a plaga Orientali usque ad plagam Occidentalem, Issachar una. "
        },
        {
            "chapter": 48,
            "verse": 26,
            "name": "Ezekiel 48:26",
            "text": "Et super terminum Issachar, a plaga Orientali usque ad plagam Occidentalem, Zabulon una. "
        },
        {
            "chapter": 48,
            "verse": 27,
            "name": "Ezekiel 48:27",
            "text": "Et super terminum Zabulon, a plaga Orientali usque ad plagam Maris, Gad una. "
        },
        {
            "chapter": 48,
            "verse": 28,
            "name": "Ezekiel 48:28",
            "text": "Et super terminum Gad, ad plagam Austri in Meridie: et erit finis de Thamar usque ad aquas contradictionis Cades, hereditas contra mare magnum. "
        },
        {
            "chapter": 48,
            "verse": 29,
            "name": "Ezekiel 48:29",
            "text": "Haec est terra, quam mittetis in sortem tribubus Israel: et hae partitiones earum, ait Dominus Deus. "
        },
        {
            "chapter": 48,
            "verse": 30,
            "name": "Ezekiel 48:30",
            "text": "Et hi egressus civitatis: A plaga Septentrionali quingentos et quattuor millia mensurabis. "
        },
        {
            "chapter": 48,
            "verse": 31,
            "name": "Ezekiel 48:31",
            "text": "Et portae civitatis ex nominibus tribuum Israel, portae tres a Septentrione, porta Ruben una, porta Iuda una, porta Levi una. "
        },
        {
            "chapter": 48,
            "verse": 32,
            "name": "Ezekiel 48:32",
            "text": "Et ad plagam Orientalem, quingentos et quattuor millia: et portae tres, porta Ioseph una, porta Beniamin una, porta Dan una. "
        },
        {
            "chapter": 48,
            "verse": 33,
            "name": "Ezekiel 48:33",
            "text": "Et ad plagam Meridianam, quingentos et quattuor millia metieris: et portae tres, porta Simeonis una, porta Issachar una, porta Zabulon una. "
        },
        {
            "chapter": 48,
            "verse": 34,
            "name": "Ezekiel 48:34",
            "text": "Et ad plagam Occidentalem, quingentos et quattuor millia, et portae eorum tres, porta Gad una, porta Aser una, porta Nephthali una. "
        },
        {
            "chapter": 48,
            "verse": 35,
            "name": "Ezekiel 48:35",
            "text": "Per circuitum, decem et octo millia: et nomen civitatis ex illa die, Dominus ibidem.   "
        }
    ]
}