{
    "translation": "New Heart English Bible: Jehovah Edition",
    "abbreviation": "nhebje",
    "lang": "en",
    "language": "English",
    "direction": "LTR",
    "encoding": "UTF-8",
    "book_nr": 20,
    "book_name": "Proverbs",
    "chapter": 26,
    "name": "Proverbs 26",
    "verses": [
        {
            "chapter": 26,
            "verse": 1,
            "name": "Proverbs 26:1",
            "text": "Like snow in summer, and as rain in harvest, so honor is not fitting for a fool. "
        },
        {
            "chapter": 26,
            "verse": 2,
            "name": "Proverbs 26:2",
            "text": "Like a fluttering sparrow, like a darting swallow, so the undeserved curse doesn't come to rest. "
        },
        {
            "chapter": 26,
            "verse": 3,
            "name": "Proverbs 26:3",
            "text": "A whip is for the horse, a bridle for the donkey, and a rod for the back of fools! "
        },
        {
            "chapter": 26,
            "verse": 4,
            "name": "Proverbs 26:4",
            "text": "Do not answer a fool according to his folly, lest you also be like him. "
        },
        {
            "chapter": 26,
            "verse": 5,
            "name": "Proverbs 26:5",
            "text": "Answer a fool according to his folly, lest he be wise in his own eyes. "
        },
        {
            "chapter": 26,
            "verse": 6,
            "name": "Proverbs 26:6",
            "text": "One who sends a message by the hand of a fool is cutting off feet and drinking violence. "
        },
        {
            "chapter": 26,
            "verse": 7,
            "name": "Proverbs 26:7",
            "text": "Like the legs of the lame that hang loose: so is a parable in the mouth of fools. "
        },
        {
            "chapter": 26,
            "verse": 8,
            "name": "Proverbs 26:8",
            "text": "As one who binds a stone in a sling, so is he who gives honor to a fool. "
        },
        {
            "chapter": 26,
            "verse": 9,
            "name": "Proverbs 26:9",
            "text": "Like a thornbush that goes into the hand of a drunkard, so is a parable in the mouth of fools. "
        },
        {
            "chapter": 26,
            "verse": 10,
            "name": "Proverbs 26:10",
            "text": "As an archer who wounds all, so is he who hires a fool or he who hires those who pass by. "
        },
        {
            "chapter": 26,
            "verse": 11,
            "name": "Proverbs 26:11",
            "text": "As a dog that returns to his vomit, so is a fool who repeats his folly. "
        },
        {
            "chapter": 26,
            "verse": 12,
            "name": "Proverbs 26:12",
            "text": "Do you see a man wise in his own eyes? There is more hope for a fool than for him. "
        },
        {
            "chapter": 26,
            "verse": 13,
            "name": "Proverbs 26:13",
            "text": "The sluggard says, \"There is a lion in the road! A fierce lion roams the streets!\" "
        },
        {
            "chapter": 26,
            "verse": 14,
            "name": "Proverbs 26:14",
            "text": "As the door turns on its hinges, so does the sluggard on his bed. "
        },
        {
            "chapter": 26,
            "verse": 15,
            "name": "Proverbs 26:15",
            "text": "The sluggard buries his hand in the dish. He is too lazy to bring it back to his mouth. "
        },
        {
            "chapter": 26,
            "verse": 16,
            "name": "Proverbs 26:16",
            "text": "The sluggard is wiser in his own eyes than seven men who answer with discretion. "
        },
        {
            "chapter": 26,
            "verse": 17,
            "name": "Proverbs 26:17",
            "text": "Like one who grabs a dog's ears is one who passes by and meddles in a quarrel not his own. "
        },
        {
            "chapter": 26,
            "verse": 18,
            "name": "Proverbs 26:18",
            "text": "Like a madman who shoots firebrands, arrows, and death, "
        },
        {
            "chapter": 26,
            "verse": 19,
            "name": "Proverbs 26:19",
            "text": "is the man who deceives his neighbor and says, \"Am I not joking?\" "
        },
        {
            "chapter": 26,
            "verse": 20,
            "name": "Proverbs 26:20",
            "text": "For lack of wood a fire goes out. Without gossip, a quarrel dies down. "
        },
        {
            "chapter": 26,
            "verse": 21,
            "name": "Proverbs 26:21",
            "text": "As coals are to hot embers, and wood to fire, so is a contentious man to kindling strife. "
        },
        {
            "chapter": 26,
            "verse": 22,
            "name": "Proverbs 26:22",
            "text": "The words of a whisperer are as dainty morsels, they go down into the innermost parts. "
        },
        {
            "chapter": 26,
            "verse": 23,
            "name": "Proverbs 26:23",
            "text": "Like silver dross on an earthen vessel are the lips of a fervent one with an evil heart. "
        },
        {
            "chapter": 26,
            "verse": 24,
            "name": "Proverbs 26:24",
            "text": "A malicious man disguises himself with his lips, but he harbors evil in his heart. "
        },
        {
            "chapter": 26,
            "verse": 25,
            "name": "Proverbs 26:25",
            "text": "When his speech is charming, do not believe him; for there are seven abominations in his heart. "
        },
        {
            "chapter": 26,
            "verse": 26,
            "name": "Proverbs 26:26",
            "text": "His malice may be concealed by deception, but his wickedness will be exposed in the assembly. "
        },
        {
            "chapter": 26,
            "verse": 27,
            "name": "Proverbs 26:27",
            "text": "Whoever digs a pit shall fall into it. Whoever rolls a stone, it will come back on him. "
        },
        {
            "chapter": 26,
            "verse": 28,
            "name": "Proverbs 26:28",
            "text": "A lying tongue hates those it hurts; and a flattering mouth works ruin.  "
        }
    ]
}