{
    "translation": "Belarusian Bible",
    "abbreviation": "bela",
    "lang": "be",
    "language": "Belarusian",
    "direction": "LTR",
    "encoding": "UTF-8",
    "book_nr": 19,
    "book_name": "Psalms",
    "chapter": 123,
    "name": "Psalms 123",
    "verses": [
        {
            "chapter": 123,
            "verse": 1,
            "name": "Psalms 123:1",
            "text": "  \u041a\u0430\u043b\u0456 \u0431 \u043d\u0435 \u0413\u0430\u0441\u043f\u043e\u0434\u0437\u044c \u0431\u044b\u045e \u0437 \u043d\u0430\u043c\u0456, \u2014 \u0445\u0430\u0439 \u0441\u043a\u0430\u0436\u0430 \u0406\u0437\u0440\u0430\u0456\u043b\u044c, \u2014"
        },
        {
            "chapter": 123,
            "verse": 2,
            "name": "Psalms 123:2",
            "text": "\u043a\u0430\u043b\u0456 \u0431 \u043d\u0435 \u0413\u0430\u0441\u043f\u043e\u0434\u0437\u044c \u0431\u044b\u045e \u0437 \u043d\u0430\u043c\u0456, \u043a\u0430\u043b\u0456 \u043f\u0430\u045e\u0441\u0442\u0430\u043b\u0456 \u043d\u0430 \u043d\u0430\u0441 \u043b\u044e\u0434\u0437\u0456, \u2014"
        },
        {
            "chapter": 123,
            "verse": 3,
            "name": "Psalms 123:3",
            "text": "\u0434\u044b\u043a \u0436\u044b\u0432\u044b\u0445 \u043d\u0430\u0441 \u044f\u043d\u044b \u043f\u0440\u0430\u0433\u043b\u044b\u043d\u0443\u043b\u0456 \u0431, \u043a\u0430\u043b\u0456 \u0437\u0430\u0433\u0430\u0440\u044d\u043b\u0430\u0441\u044f \u045e \u0456\u0445 \u044f\u0442\u0440\u0430 \u043d\u0430 \u043d\u0430\u0441;"
        },
        {
            "chapter": 123,
            "verse": 4,
            "name": "Psalms 123:4",
            "text": "\u0432\u043e\u0434\u044b \u043f\u0430\u0442\u0430\u043f\u0456\u043b\u0456 \u0431 \u043d\u0430\u0441, \u043f\u0430\u0442\u043e\u043a \u043f\u0440\u0430\u0439\u0448\u043e\u045e \u0431\u044b \u043d\u0430\u0434 \u0434\u0443\u0448\u043e\u044e \u043d\u0430\u0448\u0430\u044e;"
        },
        {
            "chapter": 123,
            "verse": 5,
            "name": "Psalms 123:5",
            "text": "\u043f\u0440\u0430\u0439\u0448\u043b\u0456 \u0431 \u043d\u0430\u0434 \u0434\u0443\u0448\u043e\u044e \u043d\u0430\u0448\u0430\u044e \u0432\u043e\u0434\u044b \u0431\u0443\u0440\u043b\u0456\u0432\u044b\u044f."
        },
        {
            "chapter": 123,
            "verse": 6,
            "name": "Psalms 123:6",
            "text": "\u0414\u0430\u0431\u0440\u0430\u0441\u043b\u0430\u0432\u0451\u043d\u044b \u0413\u0430\u0441\u043f\u043e\u0434\u0437\u044c, \u042f\u043a\u0456 \u043d\u044f \u0434\u0430\u045e \u043d\u0430\u0441 \u043d\u0430 \u0437\u0434\u0430\u0431\u044b\u0447\u0443 \u0456\u0445\u043d\u0456\u043c \u0437\u0443\u0431\u0430\u043c!"
        },
        {
            "chapter": 123,
            "verse": 7,
            "name": "Psalms 123:7",
            "text": "\u0414\u0443\u0448\u0430 \u043d\u0430\u0448\u0430 \u0432\u044b\u0437\u0432\u0430\u043b\u0456\u043b\u0430\u0441\u044f, \u044f\u043a \u043f\u0442\u0443\u0448\u043a\u0430, \u0437\u044c \u0441\u0435\u0442\u043a\u0456 \u043b\u0430\u0432\u0435\u0446\u043a\u0430\u0439; \u0441\u0435\u0442\u043a\u0430 \u043f\u0430\u0440\u0432\u0430\u043d\u0430, \u0456 \u043c\u044b \u0432\u044b\u0437\u0432\u0430\u043b\u0456\u043b\u0456\u0441\u044f."
        },
        {
            "chapter": 123,
            "verse": 8,
            "name": "Psalms 123:8",
            "text": "\u0414\u0430\u043f\u0430\u043c\u043e\u0433\u0430 \u043d\u0430\u0448\u0430\u044f \u045e \u0456\u043c\u0435\u043d\u0456 \u0413\u043e\u0441\u043f\u0430\u0434\u0430, \u042f\u043a\u0456 \u0441\u0442\u0432\u0430\u0440\u044b\u045e \u043d\u0435\u0431\u0430 \u0439 \u0437\u044f\u043c\u043b\u044e. "
        }
    ]
}