{
    "translation": "Swedish (1917)",
    "abbreviation": "swedish",
    "lang": "sv",
    "language": "Swedish",
    "direction": "LTR",
    "encoding": "UTF-8",
    "book_nr": 19,
    "book_name": "Psalms",
    "chapter": 12,
    "name": "Psalms 12",
    "verses": [
        {
            "chapter": 12,
            "verse": 1,
            "name": "Psalms 12:1",
            "text": "B\u00f6n mot den \u00f6verhandtagande ondskan.F\u00f6r s\u00e5ngm\u00e4staren, till Semin\u00edt; en psalm av David."
        },
        {
            "chapter": 12,
            "verse": 2,
            "name": "Psalms 12:2",
            "text": " \u00a0Fr\u00e4ls, HERRE;  \u00a0 \u00a0 \u00a0ty de fromma \u00e4ro borta,  \u00a0de trogna \u00e4ro f\u00f6rsvunna  \u00a0 \u00a0 \u00a0ifr\u00e5n m\u00e4nniskors barn."
        },
        {
            "chapter": 12,
            "verse": 3,
            "name": "Psalms 12:3",
            "text": " \u00a0De tala l\u00f6gn,  \u00a0 \u00a0 \u00a0den ene med den andre;  \u00a0med hala l\u00e4ppar tala de,  \u00a0 \u00a0 \u00a0och med dubbelt hj\u00e4rta."
        },
        {
            "chapter": 12,
            "verse": 4,
            "name": "Psalms 12:4",
            "text": " \u00a0HERREN utrote  \u00a0 \u00a0 \u00a0alla hala l\u00e4ppar,  \u00a0den tunga som talar stora ord,"
        },
        {
            "chapter": 12,
            "verse": 5,
            "name": "Psalms 12:5",
            "text": " \u00a0dem som s\u00e4ga:  \u00a0 \u00a0 \u00a0\u00bbGenom v\u00e5r tunga \u00e4ro vi starka,  \u00a0v\u00e5ra l\u00e4ppar st\u00e5 oss bi;  \u00a0 \u00a0 \u00a0vem \u00e4r herre \u00f6ver oss?\u00bb"
        },
        {
            "chapter": 12,
            "verse": 6,
            "name": "Psalms 12:6",
            "text": " \u00a0\u00bbEftersom de arma lida \u00f6verv\u00e5ld  \u00a0 \u00a0 \u00a0och de fattiga klaga,  \u00a0vill jag nu st\u00e5 upp\u00bb,  \u00a0 \u00a0 \u00a0s\u00e4ger HERREN;  \u00a0\u00bbjag vill skaffa fr\u00e4lsning  \u00a0 \u00a0 \u00a0\u00e5t den som l\u00e4ngtar d\u00e4refter.\u00bb"
        },
        {
            "chapter": 12,
            "verse": 7,
            "name": "Psalms 12:7",
            "text": " \u00a0HERRENS tal  \u00a0 \u00a0 \u00a0\u00e4r ett rent tal,  \u00a0likt silver som rinner ned mot jorden,  \u00a0 \u00a0 \u00a0luttrat i degeln,  \u00a0 \u00a0 \u00a0renat sju g\u00e5nger."
        },
        {
            "chapter": 12,
            "verse": 8,
            "name": "Psalms 12:8",
            "text": " \u00a0Du, HERRE, skall bevara dem,  \u00a0du skall beskydda dem  \u00a0 \u00a0 \u00a0f\u00f6r detta sl\u00e4kte evinnerligen. [ (Psalms 12:9)  \u00a0Ty runt omkring dem vandra de ogudaktiga,  \u00a0d\u00e5 nu uselheten \u00e4r r\u00e5dande  \u00a0 \u00a0 \u00a0bland m\u00e4nniskors barn. ] "
        }
    ]
}