{
    "translation": "Hebrew Modern",
    "abbreviation": "modernhebrew",
    "lang": "he",
    "language": "Hebrew",
    "direction": "RTL",
    "encoding": "UTF-8",
    "book_nr": 56,
    "book_name": "Titus",
    "chapter": 1,
    "name": "Titus 1",
    "verses": [
        {
            "chapter": 1,
            "verse": 1,
            "name": "Titus 1:1",
            "text": "\u05e4\u05d5\u05dc\u05d5\u05e1 \u05e2\u05d1\u05d3 \u05d0\u05dc\u05d4\u05d9\u05dd \u05d5\u05e9\u05dc\u05d9\u05d7 \u05d9\u05e9\u05d5\u05e2 \u05d4\u05de\u05e9\u05d9\u05d7 \u05dc\u05e4\u05d9 \u05d0\u05de\u05d5\u05e0\u05ea \u05d1\u05d7\u05d9\u05e8\u05d9 \u05d0\u05dc\u05d4\u05d9\u05dd \u05d5\u05d3\u05e2\u05ea \u05d4\u05d0\u05de\u05ea \u05d0\u05e9\u05e8 \u05dc\u05d7\u05e1\u05d9\u05d3\u05d5\u05ea\u05c3"
        },
        {
            "chapter": 1,
            "verse": 2,
            "name": "Titus 1:2",
            "text": "\u05e2\u05dc\u05d9 \u05ea\u05e7\u05d5\u05ea \u05d7\u05d9\u05d9 \u05d4\u05e2\u05d5\u05dc\u05dd \u05d0\u05e9\u05e8 \u05d4\u05d1\u05d8\u05d9\u05d7 \u05dc\u05e4\u05e0\u05d9 \u05d9\u05de\u05d5\u05ea \u05e2\u05d5\u05dc\u05dd \u05d4\u05d0\u05dc \u05d0\u05e9\u05e8 \u05dc\u05d0 \u05d9\u05e9\u05e7\u05e8\u05c3"
        },
        {
            "chapter": 1,
            "verse": 3,
            "name": "Titus 1:3",
            "text": "\u05d5\u05d2\u05dc\u05d4 \u05d1\u05de\u05d5\u05e2\u05d3\u05d5 \u05d0\u05ea \u05d3\u05d1\u05e8\u05d5 \u05e2\u05dc \u05d9\u05d3\u05d9 \u05d4\u05e7\u05e8\u05d9\u05d0\u05d4 \u05d4\u05de\u05e4\u05e7\u05d3\u05d4 \u05d1\u05d9\u05d3\u05d9 \u05e2\u05dc \u05e4\u05d9 \u05de\u05e6\u05d5\u05ea \u05d4\u05d0\u05dc\u05d4\u05d9\u05dd \u05de\u05d5\u05e9\u05d9\u05e2\u05e0\u05d5\u05c3"
        },
        {
            "chapter": 1,
            "verse": 4,
            "name": "Titus 1:4",
            "text": "\u05d0\u05dc \u05d8\u05d9\u05d8\u05d5\u05e1 \u05d1\u05e0\u05d5 \u05d4\u05d0\u05de\u05ea\u05d9 \u05dc\u05e4\u05d9 \u05d0\u05de\u05d5\u05e0\u05d4 \u05d0\u05d7\u05ea \u05d7\u05e1\u05d3 \u05d5\u05e8\u05d7\u05de\u05d9\u05dd \u05d5\u05e9\u05dc\u05d5\u05dd \u05de\u05d0\u05ea \u05d4\u05d0\u05dc\u05d4\u05d9\u05dd \u05d0\u05d1\u05d9\u05e0\u05d5 \u05d5\u05d0\u05d3\u05e0\u05d9\u05e0\u05d5 \u05d9\u05e9\u05d5\u05e2 \u05d4\u05de\u05e9\u05d9\u05d7 \u05de\u05d5\u05e9\u05d9\u05e2\u05e0\u05d5\u05c3"
        },
        {
            "chapter": 1,
            "verse": 5,
            "name": "Titus 1:5",
            "text": "\u05dc\u05d6\u05d0\u05ea \u05e2\u05d6\u05d1\u05ea\u05d9\u05da \u05d1\u05e7\u05e8\u05d9\u05d8\u05d9 \u05dc\u05de\u05e2\u05df \u05ea\u05e9\u05dc\u05d9\u05dd \u05d0\u05ea \u05d4\u05d7\u05e1\u05d3 \u05d5\u05ea\u05e9\u05d9\u05dd \u05d6\u05e7\u05e0\u05d9\u05dd \u05d1\u05db\u05dc \u05e2\u05d9\u05e8 \u05d5\u05e2\u05d9\u05e8 \u05db\u05d0\u05e9\u05e8 \u05e6\u05d5\u05d9\u05ea\u05d9\u05da\u05c3"
        },
        {
            "chapter": 1,
            "verse": 6,
            "name": "Titus 1:6",
            "text": "\u05d0\u05dd \u05d9\u05de\u05e6\u05d0 \u05d0\u05d9\u05e9 \u05ea\u05dd \u05d5\u05d1\u05e2\u05dc \u05d0\u05e9\u05d4 \u05d0\u05d7\u05ea \u05d5\u05d9\u05e9 \u05dc\u05d5 \u05d1\u05e0\u05d9\u05dd \u05de\u05d0\u05de\u05d9\u05e0\u05d9\u05dd \u05d5\u05d0\u05d9\u05df \u05e2\u05dc\u05d9\u05d4\u05dd \u05d8\u05e2\u05e0\u05ea \u05e4\u05e8\u05d9\u05e6\u05d5\u05ea \u05d5\u05d0\u05d9\u05e0\u05dd \u05e1\u05d5\u05e8\u05e8\u05d9\u05dd\u05c3"
        },
        {
            "chapter": 1,
            "verse": 7,
            "name": "Titus 1:7",
            "text": "\u05db\u05d9 \u05e4\u05e7\u05d9\u05d3 \u05d4\u05e2\u05d3\u05d4 \u05e6\u05e8\u05d9\u05da \u05dc\u05d4\u05d9\u05d5\u05ea \u05d0\u05d9\u05e9 \u05ea\u05dd \u05db\u05e1\u05db\u05df \u05dc\u05d0\u05dc\u05d4\u05d9\u05dd \u05dc\u05d0 \u05e2\u05de\u05d3 \u05e2\u05dc \u05d3\u05e2\u05ea\u05d5 \u05d5\u05dc\u05d0 \u05e8\u05d2\u05d6\u05df \u05d5\u05dc\u05d0 \u05d0\u05d4\u05d1 \u05d9\u05d9\u05df \u05d5\u05dc\u05d0 \u05d1\u05e2\u05dc \u05d0\u05d2\u05e8\u05e3 \u05d5\u05dc\u05d0 \u05e0\u05d8\u05d4 \u05d0\u05d7\u05e8\u05d9 \u05d4\u05d1\u05e6\u05e2\u05c3"
        },
        {
            "chapter": 1,
            "verse": 8,
            "name": "Titus 1:8",
            "text": "\u05db\u05d9 \u05d0\u05dd \u05d9\u05d4\u05d9 \u05de\u05db\u05e0\u05d9\u05e1 \u05d0\u05e8\u05d7\u05d9\u05dd \u05d5\u05d0\u05d4\u05d1 \u05d8\u05d5\u05d1 \u05d5\u05e6\u05e0\u05d5\u05e2 \u05d5\u05e6\u05d3\u05d9\u05e7 \u05d5\u05e7\u05d3\u05d5\u05e9 \u05d5\u05db\u05d1\u05e9 \u05d0\u05ea \u05d9\u05e6\u05e8\u05d5\u05c3"
        },
        {
            "chapter": 1,
            "verse": 9,
            "name": "Titus 1:9",
            "text": "\u05d5\u05de\u05d7\u05d6\u05d9\u05e7 \u05d1\u05d3\u05d1\u05e8 \u05d4\u05e0\u05d0\u05de\u05df \u05db\u05e4\u05d9 \u05d4\u05d4\u05d5\u05e8\u05d0\u05d4 \u05dc\u05de\u05e2\u05df \u05d9\u05d4\u05d9\u05d4 \u05d1\u05db\u05d7\u05d5 \u05dc\u05d4\u05d6\u05d4\u05d9\u05e8 \u05d1\u05dc\u05e7\u05d7 \u05d4\u05d1\u05e8\u05d9\u05d0 \u05d5\u05dc\u05d4\u05d5\u05db\u05d9\u05d7 \u05d0\u05ea \u05d4\u05de\u05e8\u05d9\u05d1\u05d9\u05dd\u05c3"
        },
        {
            "chapter": 1,
            "verse": 10,
            "name": "Titus 1:10",
            "text": "\u05db\u05d9 \u05d9\u05e9 \u05d4\u05e8\u05d1\u05d4 \u05de\u05e8\u05d3\u05d9\u05dd \u05de\u05d3\u05d1\u05e8\u05d9 \u05d4\u05d1\u05dc \u05d5\u05de\u05ea\u05e2\u05d9 \u05e0\u05e4\u05e9 \u05d5\u05d1\u05e4\u05e8\u05d8 \u05de\u05df \u05d4\u05de\u05d5\u05dc\u05d9\u05dd\u05c3"
        },
        {
            "chapter": 1,
            "verse": 11,
            "name": "Titus 1:11",
            "text": "\u05d0\u05e9\u05e8 \u05e1\u05db\u05d5\u05e8 \u05d9\u05e1\u05db\u05e8 \u05e4\u05d9\u05d4\u05dd \u05d4\u05d4\u05e4\u05db\u05d9\u05dd \u05d1\u05ea\u05d9\u05dd \u05db\u05dc\u05dd \u05d1\u05d4\u05d5\u05e8\u05d5\u05ea\u05dd \u05d3\u05d1\u05e8\u05d9\u05dd \u05dc\u05d0 \u05db\u05e0\u05d9\u05dd \u05e2\u05e7\u05d1 \u05d1\u05e6\u05e2\u05c3"
        },
        {
            "chapter": 1,
            "verse": 12,
            "name": "Titus 1:12",
            "text": "\u05d5\u05db\u05d1\u05e8 \u05d0\u05de\u05e8 \u05d0\u05d7\u05d3 \u05de\u05d4\u05dd \u05e0\u05d1\u05d9\u05d0\u05dd \u05d0\u05e9\u05e8 \u05d1\u05ea\u05d5\u05db\u05dd \u05d1\u05e0\u05d9 \u05e7\u05e8\u05d9\u05d8\u05d9 \u05db\u05d6\u05d1\u05d9\u05dd \u05d4\u05dd \u05de\u05e2\u05d5\u05dc\u05dd \u05d5\u05d7\u05d9\u05d5\u05ea \u05e8\u05e2\u05d5\u05ea \u05d5\u05db\u05e8\u05e9\u05d9\u05dd \u05e2\u05e6\u05dc\u05d9\u05dd\u05c3"
        },
        {
            "chapter": 1,
            "verse": 13,
            "name": "Titus 1:13",
            "text": "\u05d5\u05d4\u05e2\u05d3\u05d5\u05ea \u05d4\u05d6\u05d0\u05ea \u05d0\u05de\u05ea \u05d4\u05d9\u05d0 \u05d5\u05d1\u05e2\u05d1\u05d5\u05e8 \u05db\u05df \u05ea\u05d5\u05db\u05d9\u05d7\u05dd \u05ea\u05d5\u05db\u05d7\u05d4 \u05e7\u05e9\u05d4 \u05dc\u05de\u05e2\u05df \u05d9\u05d4\u05d9\u05d5 \u05d1\u05e8\u05d9\u05d0\u05d9\u05dd \u05d1\u05d0\u05de\u05d5\u05e0\u05d4\u05c3"
        },
        {
            "chapter": 1,
            "verse": 14,
            "name": "Titus 1:14",
            "text": "\u05d5\u05dc\u05d0 \u05d9\u05e9\u05d9\u05de\u05d5 \u05dc\u05d1 \u05d0\u05dc \u05d4\u05d2\u05d3\u05d5\u05ea \u05d4\u05d9\u05d4\u05d5\u05d3\u05d9\u05dd \u05d5\u05d0\u05dc \u05de\u05e6\u05d5\u05ea \u05d4\u05d0\u05e0\u05e9\u05d9\u05dd \u05d4\u05e1\u05e8\u05d9\u05dd \u05de\u05df \u05d4\u05d0\u05de\u05ea\u05c3"
        },
        {
            "chapter": 1,
            "verse": 15,
            "name": "Titus 1:15",
            "text": "\u05d4\u05df \u05d4\u05db\u05dc \u05d8\u05d4\u05d5\u05e8 \u05dc\u05d8\u05d4\u05d5\u05e8\u05d9\u05dd \u05d0\u05d1\u05dc \u05dc\u05e0\u05d8\u05de\u05d0\u05d9\u05dd \u05d5\u05dc\u05d0\u05d9\u05e0\u05dd \u05de\u05d0\u05de\u05d9\u05e0\u05d9\u05dd \u05d0\u05d9\u05df \u05d3\u05d1\u05e8 \u05d8\u05d4\u05d5\u05e8 \u05db\u05d9 \u05e0\u05d8\u05de\u05d0\u05d4 \u05d2\u05dd \u05d3\u05e2\u05ea\u05dd \u05d2\u05dd \u05e8\u05d5\u05d7\u05dd\u05c3"
        },
        {
            "chapter": 1,
            "verse": 16,
            "name": "Titus 1:16",
            "text": "\u05d0\u05de\u05e8\u05d9\u05dd \u05d4\u05de\u05d4 \u05db\u05d9 \u05d9\u05d3\u05e2\u05d5 \u05d0\u05ea \u05d4\u05d0\u05dc\u05d4\u05d9\u05dd \u05d5\u05d1\u05de\u05e2\u05e9\u05d9\u05d4\u05dd \u05db\u05d5\u05e4\u05e8\u05d9\u05dd \u05d1\u05d5 \u05db\u05d9 \u05de\u05ea\u05e2\u05d1\u05d9\u05dd \u05d5\u05de\u05de\u05e8\u05d9\u05dd \u05d4\u05dd \u05d5\u05dc\u05d0 \u05d9\u05e6\u05dc\u05d7\u05d5 \u05dc\u05db\u05dc \u05de\u05e2\u05e9\u05d4 \u05d8\u05d5\u05d1\u05c3"
        }
    ]
}