{
  "translation": "Twentieth Century New Testament",
  "abbreviation": "twenty",
  "lang": "en",
  "language": "English",
  "direction": "LTR",
  "encoding": "",
  "nr": 54,
  "name": "1 Timothy",
  "chapters": [
    {
      "chapter": 1,
      "name": "1 Timothy 1",
      "verses": [
        {
          "chapter": 1,
          "verse": 1,
          "name": "1 Timothy 1:1",
          "text": "From Paul, an Apostle of Christ Jesus by the appointment of God, our Savior, and Christ Jesus, our Hope."
        },
        {
          "chapter": 1,
          "verse": 2,
          "name": "1 Timothy 1:2",
          "text": "To Timothy, my true Child in the Faith. May God, the Father, and Christ Jesus, our Lord, bless you, and be merciful to you, and give you peace."
        },
        {
          "chapter": 1,
          "verse": 3,
          "name": "1 Timothy 1:3",
          "text": "I beg you, as I did when I was on my way into Macedonia, to remain at Ephesus; that you may instruct certain people there not to teach new and strange doctrines,"
        },
        {
          "chapter": 1,
          "verse": 4,
          "name": "1 Timothy 1:4",
          "text": "nor to devote their attention to legends and interminable genealogies, which tend to give rise to argument rather than to further that divine plan which is revealed in the Faith."
        },
        {
          "chapter": 1,
          "verse": 5,
          "name": "1 Timothy 1:5",
          "text": "The object of all instruction is to call forth that love which comes from a pure heart, a clear conscience, and a sincere faith."
        },
        {
          "chapter": 1,
          "verse": 6,
          "name": "1 Timothy 1:6",
          "text": "And it is because they have not aimed at these things that the attention of certain people has been diverted to unprofitable subjects."
        },
        {
          "chapter": 1,
          "verse": 7,
          "name": "1 Timothy 1:7",
          "text": "They want to be Teachers of the Law, and yet do not understand either the words they use, or the subjects on which they speak so confidently."
        },
        {
          "chapter": 1,
          "verse": 8,
          "name": "1 Timothy 1:8",
          "text": "We know, of course, that the Law is excellent, when used legitimately,"
        },
        {
          "chapter": 1,
          "verse": 9,
          "name": "1 Timothy 1:9",
          "text": "by one who recognizes that laws were not made for good men, but for the lawless and disorderly, for irreligious and wicked people, for those who are irreverent and profane, for those who ill-treat their fathers or mothers, for murderers,"
        },
        {
          "chapter": 1,
          "verse": 10,
          "name": "1 Timothy 1:10",
          "text": "for the immoral, for people guilty of sodomy, for slave-dealers, for liars, for perjurers, and for whatever else is opposed to sound Christian teaching--"
        },
        {
          "chapter": 1,
          "verse": 11,
          "name": "1 Timothy 1:11",
          "text": "as is taught in the glorious Good News of the ever-blessed God, with which I was entrusted."
        },
        {
          "chapter": 1,
          "verse": 12,
          "name": "1 Timothy 1:12",
          "text": "I am thankful to Christ Jesus, our Lord, who has been my strength, for showing that he thought me worthy of trust by appointing me to his ministry,"
        },
        {
          "chapter": 1,
          "verse": 13,
          "name": "1 Timothy 1:13",
          "text": "though I once used to blaspheme, and to persecute, and to insult. Yet mercy was shown me, because I acted in ignorance, while still an unbeliever;"
        },
        {
          "chapter": 1,
          "verse": 14,
          "name": "1 Timothy 1:14",
          "text": "and the loving-kindness of our Lord was boundless, and filled me with that faith and love which come from union with Christ Jesus."
        },
        {
          "chapter": 1,
          "verse": 15,
          "name": "1 Timothy 1:15",
          "text": "How true the saying is, and worthy of the fullest acceptance, that 'Christ Jesus came into the world to save sinners'!And there is no greater sinner than I!"
        },
        {
          "chapter": 1,
          "verse": 16,
          "name": "1 Timothy 1:16",
          "text": "Yet mercy was shown me for the express purpose that Christ Jesus might exhibit in my case, beyond all others, his exhaustless patience, as an example for those who were afterwards to believe on him and attain Immortal Life."
        },
        {
          "chapter": 1,
          "verse": 17,
          "name": "1 Timothy 1:17",
          "text": "To the Immortal King, ever-living, invisible, the one God, be ascribed honour and glory for ever and ever. Amen."
        },
        {
          "chapter": 1,
          "verse": 18,
          "name": "1 Timothy 1:18",
          "text": "This, then, is the charge that I lay upon you, Timothy, my Child, in accordance with what was predicted of you--Fight the good fight in the spirit of those predictions,"
        },
        {
          "chapter": 1,
          "verse": 19,
          "name": "1 Timothy 1:19",
          "text": "with faith, and with a clear conscience; and it is because they have thrust this aside, that, as regards the Faith, some have wrecked their lives."
        },
        {
          "chapter": 1,
          "verse": 20,
          "name": "1 Timothy 1:20",
          "text": "Hymenaeus and Alexander are instances--the men whom I delivered over to Satan, that they might be taught not to blaspheme."
        }
      ]
    },
    {
      "chapter": 2,
      "name": "1 Timothy 2",
      "verses": [
        {
          "chapter": 2,
          "verse": 1,
          "name": "1 Timothy 2:1",
          "text": "First of all, then, I urge that petitions, prayers, intercessions, and thanksgivings should be offered for every one,"
        },
        {
          "chapter": 2,
          "verse": 2,
          "name": "1 Timothy 2:2",
          "text": "especially for kings and all who are in high positions, in order that we may lead a quiet and peaceful life in a deeply religious and reverent spirit."
        },
        {
          "chapter": 2,
          "verse": 3,
          "name": "1 Timothy 2:3",
          "text": "This will be good and acceptable in the eyes of God, our Savior,"
        },
        {
          "chapter": 2,
          "verse": 4,
          "name": "1 Timothy 2:4",
          "text": "whose will is that every one should be saved, and attain to a full knowledge of the Truth."
        },
        {
          "chapter": 2,
          "verse": 5,
          "name": "1 Timothy 2:5",
          "text": "There is but one God, and one mediator between God and men--the man, Christ Jesus,"
        },
        {
          "chapter": 2,
          "verse": 6,
          "name": "1 Timothy 2:6",
          "text": "who gave himself as a ransom on behalf of all men. This must be our testimony, as opportunities present themselves;"
        },
        {
          "chapter": 2,
          "verse": 7,
          "name": "1 Timothy 2:7",
          "text": "and it was for this that I was myself appointed a Herald and an Apostle (I am telling the simple truth and no lie)--a Teacher of the Gentiles in the Faith and Truth."
        },
        {
          "chapter": 2,
          "verse": 8,
          "name": "1 Timothy 2:8",
          "text": "My desire, then, is that it should be the custom everywhere for the men to lead the prayers, with hands reverently uplifted, avoiding heated controversy."
        },
        {
          "chapter": 2,
          "verse": 9,
          "name": "1 Timothy 2:9",
          "text": "I also desire that women should adorn themselves with appropriate dress, worn quietly and modestly, and not with wreaths or gold ornaments for the hair, or pearls, or costly clothing,"
        },
        {
          "chapter": 2,
          "verse": 10,
          "name": "1 Timothy 2:10",
          "text": "but--as is proper for women who profess to be religious--with good actions."
        },
        {
          "chapter": 2,
          "verse": 11,
          "name": "1 Timothy 2:11",
          "text": "A woman should listen silently to her teachers, and show them all deference."
        },
        {
          "chapter": 2,
          "verse": 12,
          "name": "1 Timothy 2:12",
          "text": "I do not consent to a woman's becoming a teacher, or exercising authority over a man; she ought to be silent."
        },
        {
          "chapter": 2,
          "verse": 13,
          "name": "1 Timothy 2:13",
          "text": "Adam was formed first, not Eve."
        },
        {
          "chapter": 2,
          "verse": 14,
          "name": "1 Timothy 2:14",
          "text": "And it was not Adam who was deceived; it was the woman who was entirely deceived and fell into sin."
        },
        {
          "chapter": 2,
          "verse": 15,
          "name": "1 Timothy 2:15",
          "text": "But women will find their salvation in motherhood, if they never abandon faith, love, or holiness, and behave with modesty."
        }
      ]
    },
    {
      "chapter": 3,
      "name": "1 Timothy 3",
      "verses": [
        {
          "chapter": 3,
          "verse": 1,
          "name": "1 Timothy 3:1",
          "text": "How true is that saying! When a man aspires to be a Presiding- Officer in the Church, he is ambitious for a noble task."
        },
        {
          "chapter": 3,
          "verse": 2,
          "name": "1 Timothy 3:2",
          "text": "The Presiding-Officer should be a man of blameless character; a faithful husband; living a temperate, discreet, and well-ordered life; hospitable, and a skillful teacher,"
        },
        {
          "chapter": 3,
          "verse": 3,
          "name": "1 Timothy 3:3",
          "text": "not addicted to drink or brawling, but of a forbearing and peaceable disposition, and not a lover of money;"
        },
        {
          "chapter": 3,
          "verse": 4,
          "name": "1 Timothy 3:4",
          "text": "he should be a man who rules his own household well, and whose children are kept under control and are well-behaved."
        },
        {
          "chapter": 3,
          "verse": 5,
          "name": "1 Timothy 3:5",
          "text": "If a man does not know how to rule his own household, how can he take charge of the Church of God?"
        },
        {
          "chapter": 3,
          "verse": 6,
          "name": "1 Timothy 3:6",
          "text": "The Presiding-Officer should not be a recent convert, that he may not be blinded by pride and fall under the same condemnation as the Devil."
        },
        {
          "chapter": 3,
          "verse": 7,
          "name": "1 Timothy 3:7",
          "text": "He should also be well spoken of by outsiders, that he may not incur censure and so fall into the snares of the Devil."
        },
        {
          "chapter": 3,
          "verse": 8,
          "name": "1 Timothy 3:8",
          "text": "So, too, Assistant-Officers should be serious and straightforward men, not given to taking much drink or to questionable money-making,"
        },
        {
          "chapter": 3,
          "verse": 9,
          "name": "1 Timothy 3:9",
          "text": "but men who hold the deep truths of the Faith and have a clear conscience."
        },
        {
          "chapter": 3,
          "verse": 10,
          "name": "1 Timothy 3:10",
          "text": "They should be tested first, and only appointed to their Office if no objection is raised against them."
        },
        {
          "chapter": 3,
          "verse": 11,
          "name": "1 Timothy 3:11",
          "text": "It should be the same with the women. They should be serious, not gossips, sober, and trustworthy in all respects."
        },
        {
          "chapter": 3,
          "verse": 12,
          "name": "1 Timothy 3:12",
          "text": "Assistant-Officers should be faithful husbands, and men who rule their children and their households well."
        },
        {
          "chapter": 3,
          "verse": 13,
          "name": "1 Timothy 3:13",
          "text": "Those who have filled that post with honour gain for themselves an honorable position, as well as great confidence through the faith that they place in Christ Jesus."
        },
        {
          "chapter": 3,
          "verse": 14,
          "name": "1 Timothy 3:14",
          "text": "I am writing this to you, though I hope that I shall come to see you before long;"
        },
        {
          "chapter": 3,
          "verse": 15,
          "name": "1 Timothy 3:15",
          "text": "but in case I should be delayed, I want you to know what your conduct ought to be in the Household of God, which is the Church of the Living God--the pillar and stay of the Truth."
        },
        {
          "chapter": 3,
          "verse": 16,
          "name": "1 Timothy 3:16",
          "text": "Yes, and confessedly wonderful are the deep truths of our religion; for--'He was revealed in our nature, pronounced righteous in spirit, seen by angels, proclaimed among the Gentiles, believed on in the world, taken up into glory.'"
        }
      ]
    },
    {
      "chapter": 4,
      "name": "1 Timothy 4",
      "verses": [
        {
          "chapter": 4,
          "verse": 1,
          "name": "1 Timothy 4:1",
          "text": "But the Spirit distinctly says that in later times there will be some who will fall away from the Faith, and devote their attention to misleading spirits, and to the teaching of demons,"
        },
        {
          "chapter": 4,
          "verse": 2,
          "name": "1 Timothy 4:2",
          "text": "who will make use of the hypocrisy of lying teachers. These men's consciences are seared,"
        },
        {
          "chapter": 4,
          "verse": 3,
          "name": "1 Timothy 4:3",
          "text": "and they discourage marriage and enjoin abstinence from certain kinds of food; though God created these foods to be enjoyed thankfully by those who hold the Faith and have attained a full knowledge of the Truth."
        },
        {
          "chapter": 4,
          "verse": 4,
          "name": "1 Timothy 4:4",
          "text": "Everything created by God is good, and there in nothing that need be rejected--provided only that it is received thankfully;"
        },
        {
          "chapter": 4,
          "verse": 5,
          "name": "1 Timothy 4:5",
          "text": "for it is consecrated by God's blessing and by prayer."
        },
        {
          "chapter": 4,
          "verse": 6,
          "name": "1 Timothy 4:6",
          "text": "Put all this before the Brethren, and you will be a good servant of Christ Jesus, sustained by the precepts of the Faith and of that Good Teaching by which you have guided your life."
        },
        {
          "chapter": 4,
          "verse": 7,
          "name": "1 Timothy 4:7",
          "text": "As for profane legends and old wives' tales, leave them alone. Train yourself to lead a religious life;"
        },
        {
          "chapter": 4,
          "verse": 8,
          "name": "1 Timothy 4:8",
          "text": "for while the training of the body is of service in some respects, religion is of service in all, carrying with it, as it does, a promise of Life both here and hereafter."
        },
        {
          "chapter": 4,
          "verse": 9,
          "name": "1 Timothy 4:9",
          "text": "How true that saying is and worthy of the fullest acceptance!"
        },
        {
          "chapter": 4,
          "verse": 10,
          "name": "1 Timothy 4:10",
          "text": "With that aim we toil and struggle, for we have set our hopes on the Living God, who is the Savior of all men, and especially of those who hold the Faith."
        },
        {
          "chapter": 4,
          "verse": 11,
          "name": "1 Timothy 4:11",
          "text": "Dwell upon these things in your teaching."
        },
        {
          "chapter": 4,
          "verse": 12,
          "name": "1 Timothy 4:12",
          "text": "Do not let any one look down on you because you are young, but, by your conversation, your conduct, your love, your faith, and your purity, be an example to those who hold the Faith."
        },
        {
          "chapter": 4,
          "verse": 13,
          "name": "1 Timothy 4:13",
          "text": "Till I come, apply yourself to public reading, preaching, and teaching."
        },
        {
          "chapter": 4,
          "verse": 14,
          "name": "1 Timothy 4:14",
          "text": "Do not neglect the divine gift within you, which was given you, amid many a prediction, when the hands of the Officers of the Church were laid on your head."
        },
        {
          "chapter": 4,
          "verse": 15,
          "name": "1 Timothy 4:15",
          "text": "Practice these things, devote yourself to them, so that your progress may be plain to every one."
        },
        {
          "chapter": 4,
          "verse": 16,
          "name": "1 Timothy 4:16",
          "text": "Look to yourself as well as to your teaching. Persevere in this, for your doing so will mean Salvation for yourself as well as for your hearers."
        }
      ]
    },
    {
      "chapter": 5,
      "name": "1 Timothy 5",
      "verses": [
        {
          "chapter": 5,
          "verse": 1,
          "name": "1 Timothy 5:1",
          "text": "Do not reprimand an older man, but plead with him as if he were your father. Treat the young men as brothers,"
        },
        {
          "chapter": 5,
          "verse": 2,
          "name": "1 Timothy 5:2",
          "text": "the older women as mothers, and the younger women as sisters--with all purity."
        },
        {
          "chapter": 5,
          "verse": 3,
          "name": "1 Timothy 5:3",
          "text": "Show consideration for widows--I mean those who are really widowed."
        },
        {
          "chapter": 5,
          "verse": 4,
          "name": "1 Timothy 5:4",
          "text": "but, if a widow has children or grand-children, let them learn to show proper regard for the members of their own family first, and to make some return to their parents; for that is pleasing in God's sight."
        },
        {
          "chapter": 5,
          "verse": 5,
          "name": "1 Timothy 5:5",
          "text": "As for the woman who is really widowed and left quite alone, her hopes are fixed on God, and she devotes herself to prayers and supplications night and day."
        },
        {
          "chapter": 5,
          "verse": 6,
          "name": "1 Timothy 5:6",
          "text": "But the life of a widow who is devoted to pleasure is a living death."
        },
        {
          "chapter": 5,
          "verse": 7,
          "name": "1 Timothy 5:7",
          "text": "Those are the points on which you should dwell, that there may be no call for your censure."
        },
        {
          "chapter": 5,
          "verse": 8,
          "name": "1 Timothy 5:8",
          "text": "Any one who fails to provide for his own relations, and especially for those under his own roof, has disowned the Faith, and is worse than an unbeliever."
        },
        {
          "chapter": 5,
          "verse": 9,
          "name": "1 Timothy 5:9",
          "text": "A widow, when her name is added to the list, should not be less than sixty years old; she should have been a faithful wife,"
        },
        {
          "chapter": 5,
          "verse": 10,
          "name": "1 Timothy 5:10",
          "text": "and be well spoken of for her kind actions. She should have brought up children, have shown hospitality to strangers, have washed the feet of her fellow Christians, have relieved those who were in distress, and devoted herself to every kind of good action."
        },
        {
          "chapter": 5,
          "verse": 11,
          "name": "1 Timothy 5:11",
          "text": "But you should exclude the younger widows from the list; for, when they grow restive under the yoke of the Christ, they want to marry,"
        },
        {
          "chapter": 5,
          "verse": 12,
          "name": "1 Timothy 5:12",
          "text": "and so they bring condemnation upon themselves for having broken their previous promise."
        },
        {
          "chapter": 5,
          "verse": 13,
          "name": "1 Timothy 5:13",
          "text": "And not only that, but they learn to be idle as they go about from house to house. Nor are they merely idle, but they also become gossips and busy-bodies, and talk of what they ought not."
        },
        {
          "chapter": 5,
          "verse": 14,
          "name": "1 Timothy 5:14",
          "text": "Therefore I advise young widows to marry, bear children, and attend to their homes, and so avoid giving the enemy an opportunity for scandal."
        },
        {
          "chapter": 5,
          "verse": 15,
          "name": "1 Timothy 5:15",
          "text": "There are some who have already left us, to follow Satan."
        },
        {
          "chapter": 5,
          "verse": 16,
          "name": "1 Timothy 5:16",
          "text": "Any Christian woman, who has relations who are widows, ought to relieve them and not allow them to become a burden to the Church, so that the Church may relieve those widows who are really widowed."
        },
        {
          "chapter": 5,
          "verse": 17,
          "name": "1 Timothy 5:17",
          "text": "Those Officers of the Church who fill their office well should be held deserving of especial consideration, particularly those whose work lies in preaching and teaching."
        },
        {
          "chapter": 5,
          "verse": 18,
          "name": "1 Timothy 5:18",
          "text": "The words of Scripture are--'Thou shalt not muzzle the ox while it is treading out the grain.' and again--'The worker is worth his wages.'"
        },
        {
          "chapter": 5,
          "verse": 19,
          "name": "1 Timothy 5:19",
          "text": "Do not receive a charge against an Officer of the Church, unless it is supported by two or three witnesses;"
        },
        {
          "chapter": 5,
          "verse": 20,
          "name": "1 Timothy 5:20",
          "text": "but rebuke offenders publicly, so that others may take warning."
        },
        {
          "chapter": 5,
          "verse": 21,
          "name": "1 Timothy 5:21",
          "text": "I charge you solemnly, before God and Christ Jesus and the Chosen Angels, to carry out these directions, unswayed by prejudice, never acting with partiality."
        },
        {
          "chapter": 5,
          "verse": 22,
          "name": "1 Timothy 5:22",
          "text": "Never ordain any one hastily, and take no part in the wrong-doing of others. Keep your life pure."
        },
        {
          "chapter": 5,
          "verse": 23,
          "name": "1 Timothy 5:23",
          "text": "Do not continue to drink water only, but take a little wine on account of the weakness of your stomach, and your frequent ailments."
        },
        {
          "chapter": 5,
          "verse": 24,
          "name": "1 Timothy 5:24",
          "text": "There are some men whose sins are conspicuous and lead on to judgement, while there are others whose sins dog their steps."
        },
        {
          "chapter": 5,
          "verse": 25,
          "name": "1 Timothy 5:25",
          "text": "In the same way noble deeds become conspicuous, and those which are otherwise cannot be concealed."
        }
      ]
    },
    {
      "chapter": 6,
      "name": "1 Timothy 6",
      "verses": [
        {
          "chapter": 6,
          "verse": 1,
          "name": "1 Timothy 6:1",
          "text": "All who are in the position of slaves should regard their masters as deserving of the greatest respect, so that the Name of God, and our Teaching, may not be maligned."
        },
        {
          "chapter": 6,
          "verse": 2,
          "name": "1 Timothy 6:2",
          "text": "Those who have Christian masters should not think less of them because they are their Brothers, but on the contrary they should serve them all the better, because those who are to benefit by their good work are dear to them as their fellow Christians. Those are the things to insist upon in your teaching."
        },
        {
          "chapter": 6,
          "verse": 3,
          "name": "1 Timothy 6:3",
          "text": "Any one who teaches otherwise, and refuses his assent to sound instruction--the instruction of our Lord Jesus Christ--and to the teaching of religion,"
        },
        {
          "chapter": 6,
          "verse": 4,
          "name": "1 Timothy 6:4",
          "text": "is puffed up with conceit, not really knowing anything, but having a morbid craving for discussions and arguments. Such things only give rise to envy, quarreling, recriminations, base suspicions,"
        },
        {
          "chapter": 6,
          "verse": 5,
          "name": "1 Timothy 6:5",
          "text": "and incessant wrangling on the part of these corrupt-minded people who have lost all hold on the Truth, and who think of religion only as a source of gain."
        },
        {
          "chapter": 6,
          "verse": 6,
          "name": "1 Timothy 6:6",
          "text": "And a great source of gain religion is, when it brings contentment with it!"
        },
        {
          "chapter": 6,
          "verse": 7,
          "name": "1 Timothy 6:7",
          "text": "For we brought nothing into the world, because we cannot even carry anything out of it."
        },
        {
          "chapter": 6,
          "verse": 8,
          "name": "1 Timothy 6:8",
          "text": "So, with food and shelter, we will be content."
        },
        {
          "chapter": 6,
          "verse": 9,
          "name": "1 Timothy 6:9",
          "text": "Those who want to be rich fall into the snares of temptation, and become the prey of many foolish and harmful ambitions, which plunge people into Destruction and Ruin."
        },
        {
          "chapter": 6,
          "verse": 10,
          "name": "1 Timothy 6:10",
          "text": "Love of money is a source of all kinds of evil; and in their eagerness to be rich some have wandered away from the Faith, and have been pierced to the heart by many a regret."
        },
        {
          "chapter": 6,
          "verse": 11,
          "name": "1 Timothy 6:11",
          "text": "But do you, Servant of God, avoid all this. Aim at righteousness, piety, faith, love, endurance, gentleness."
        },
        {
          "chapter": 6,
          "verse": 12,
          "name": "1 Timothy 6:12",
          "text": "Run the great race of the Faith, and win the Immortal Life. It was for this that you received the Call, and, in the presence of many witnesses, made the great profession of Faith."
        },
        {
          "chapter": 6,
          "verse": 13,
          "name": "1 Timothy 6:13",
          "text": "I urge you, as in the sight of God, the source of all life, and of Christ Jesus who before Pontius Pilate made the great profession of Faith--"
        },
        {
          "chapter": 6,
          "verse": 14,
          "name": "1 Timothy 6:14",
          "text": "I urge you to keep his Command free from stain or reproach, until the Appearing of our Lord Jesus Christ."
        },
        {
          "chapter": 6,
          "verse": 15,
          "name": "1 Timothy 6:15",
          "text": "This will be brought about in his own time by the one ever-blessed Potentate, the King of all kings and Lord of all lords,"
        },
        {
          "chapter": 6,
          "verse": 16,
          "name": "1 Timothy 6:16",
          "text": "who alone is possessed of immortality and dwells in unapproachable light, whom no man has ever seen or ever can see--to whom be ascribed honour and power for ever. Amen."
        },
        {
          "chapter": 6,
          "verse": 17,
          "name": "1 Timothy 6:17",
          "text": "Urge upon those who are wealthy in this life not to pride themselves, or fix their hopes, on so uncertain a thing as wealth, but on God, who gives us a wealth of enjoyment on every side."
        },
        {
          "chapter": 6,
          "verse": 18,
          "name": "1 Timothy 6:18",
          "text": "Urge upon them to show kindness, to exhibit a wealth of good actions, to be open-handed and generous,"
        },
        {
          "chapter": 6,
          "verse": 19,
          "name": "1 Timothy 6:19",
          "text": "storing up for themselves what in the future will prove to be a good foundation, that they may gain the only true Life."
        },
        {
          "chapter": 6,
          "verse": 20,
          "name": "1 Timothy 6:20",
          "text": "Timothy, guard what has been entrusted to you. Avoid the profane prattle and contradictions of what some miscall 'theology,'"
        },
        {
          "chapter": 6,
          "verse": 21,
          "name": "1 Timothy 6:21",
          "text": "for there are those who, while asserting their proficiency in it, have yet, as regards the Faith, gone altogether astray. God bless you all."
        }
      ]
    }
  ]
}
