{
    "translation": "Swedish (1917)",
    "abbreviation": "swedish",
    "lang": "sv",
    "language": "Swedish",
    "direction": "LTR",
    "encoding": "UTF-8",
    "book_nr": 20,
    "book_name": "Proverbs",
    "chapter": 18,
    "name": "Proverbs 18",
    "verses": [
        {
            "chapter": 18,
            "verse": 1,
            "name": "Proverbs 18:1",
            "text": "Forts\u00e4ttning av den f\u00f6rsta samlingen av salomoniska ordspr\u00e5k. \u00a0Den egensinnige f\u00f6ljer sin egen lystnad,  \u00a0med all makt s\u00f6ker han strid."
        },
        {
            "chapter": 18,
            "verse": 2,
            "name": "Proverbs 18:2",
            "text": " \u00a0D\u00e5ren fr\u00e5gar ej efter f\u00f6rst\u00e5nd,  \u00a0allenast efter att f\u00e5 l\u00e4gga fram vad han har i hj\u00e4rtat."
        },
        {
            "chapter": 18,
            "verse": 3,
            "name": "Proverbs 18:3",
            "text": " \u00a0D\u00e4r den ogudaktige kommer, d\u00e4r kommer f\u00f6rakt,  \u00a0och med skamlig vandel f\u00f6ljer sm\u00e4lek."
        },
        {
            "chapter": 18,
            "verse": 4,
            "name": "Proverbs 18:4",
            "text": " \u00a0Orden i en mans mun \u00e4ro s\u00e5som ett djupt vatten,  \u00a0s\u00e5som en fl\u00f6dande b\u00e4ck, en vishetens k\u00e4lla."
        },
        {
            "chapter": 18,
            "verse": 5,
            "name": "Proverbs 18:5",
            "text": " \u00a0Att vara partisk f\u00f6r den skyldige \u00e4r icke tillb\u00f6rligt  \u00a0ej heller att vr\u00e4nga r\u00e4tten f\u00f6r den oskyldige."
        },
        {
            "chapter": 18,
            "verse": 6,
            "name": "Proverbs 18:6",
            "text": " \u00a0D\u00e5rens l\u00e4ppar komma med kiv,  \u00a0och hans mun ropar efter slag."
        },
        {
            "chapter": 18,
            "verse": 7,
            "name": "Proverbs 18:7",
            "text": " \u00a0D\u00e5rens mun \u00e4r honom sj\u00e4lv till olycka,  \u00a0och hans l\u00e4ppar \u00e4ro en snara hans liv."
        },
        {
            "chapter": 18,
            "verse": 8,
            "name": "Proverbs 18:8",
            "text": " \u00a0\u00d6rontasslarens ord \u00e4ro s\u00e5som l\u00e4ckerbitar  \u00a0och tr\u00e4nga ned till hj\u00e4rtats innand\u00f6men."
        },
        {
            "chapter": 18,
            "verse": 9,
            "name": "Proverbs 18:9",
            "text": " \u00a0Den som \u00e4r f\u00f6rsumlig i sitt arbete,  \u00a0han \u00e4r allaredan en broder till r\u00f6varen."
        },
        {
            "chapter": 18,
            "verse": 10,
            "name": "Proverbs 18:10",
            "text": " \u00a0HERRENS namn \u00e4r ett starkt torn;  \u00a0den r\u00e4ttf\u00e4rdige hastar dit och varder beskyddad."
        },
        {
            "chapter": 18,
            "verse": 11,
            "name": "Proverbs 18:11",
            "text": " \u00a0Den rikes skatter \u00e4ro honom en fast stad,  \u00a0h\u00f6ga murar likna de, i hans inbillning."
        },
        {
            "chapter": 18,
            "verse": 12,
            "name": "Proverbs 18:12",
            "text": " \u00a0F\u00f6re fall g\u00e5r h\u00f6gmod i mannens hj\u00e4rta,  \u00a0och \u00f6dmjukhet g\u00e5r f\u00f6re \u00e4ra."
        },
        {
            "chapter": 18,
            "verse": 13,
            "name": "Proverbs 18:13",
            "text": " \u00a0Om n\u00e5gon giver svar, f\u00f6rr\u00e4n han har h\u00f6rt,  \u00a0s\u00e5 tillr\u00e4knas det honom s\u00e5som of\u00f6rnuft och skam."
        },
        {
            "chapter": 18,
            "verse": 14,
            "name": "Proverbs 18:14",
            "text": " \u00a0Mod uppeh\u00e5ller mannen i hans svaghet;  \u00a0men ett brutet mod, vem kan b\u00e4ra det?"
        },
        {
            "chapter": 18,
            "verse": 15,
            "name": "Proverbs 18:15",
            "text": " \u00a0Den f\u00f6rst\u00e5ndiges hj\u00e4rta f\u00f6rv\u00e4rvar kunskap,  \u00a0och de visas \u00f6ron s\u00f6ka kunskap."
        },
        {
            "chapter": 18,
            "verse": 16,
            "name": "Proverbs 18:16",
            "text": " \u00a0G\u00e5vor \u00f6ppna v\u00e4g f\u00f6r en m\u00e4nniska  \u00a0och f\u00f6ra henne fram inf\u00f6r de store."
        },
        {
            "chapter": 18,
            "verse": 17,
            "name": "Proverbs 18:17",
            "text": " \u00a0Den som f\u00f6rst l\u00e4gger fram sin sak har r\u00e4tt;  \u00a0sedan kommer vederparten och uppdagar huru det \u00e4r."
        },
        {
            "chapter": 18,
            "verse": 18,
            "name": "Proverbs 18:18",
            "text": " \u00a0Lottkastning g\u00f6r en \u00e4nde p\u00e5 tr\u00e4tor,  \u00a0den skiljer mellan m\u00e4ktiga m\u00e4n."
        },
        {
            "chapter": 18,
            "verse": 19,
            "name": "Proverbs 18:19",
            "text": " \u00a0En f\u00f6ror\u00e4ttad broder \u00e4r sv\u00e5rare att vinna \u00e4n en fast stad,  \u00a0och tr\u00e4tor \u00e4ro s\u00e5som bommar f\u00f6r ett slott."
        },
        {
            "chapter": 18,
            "verse": 20,
            "name": "Proverbs 18:20",
            "text": " \u00a0Av sin muns frukt f\u00e5r envar sin buk m\u00e4ttad,  \u00a0han varder m\u00e4ttad av sina l\u00e4ppars gr\u00f6da."
        },
        {
            "chapter": 18,
            "verse": 21,
            "name": "Proverbs 18:21",
            "text": " \u00a0D\u00f6d och liv har tungan i sitt v\u00e5ld,  \u00a0de som g\u00e4rna bruka henne f\u00e5 \u00e4ta hennes frukt."
        },
        {
            "chapter": 18,
            "verse": 22,
            "name": "Proverbs 18:22",
            "text": " \u00a0Den som har funnit en r\u00e4tt hustru, han har funnit lycka  \u00a0och har undf\u00e5tt n\u00e5d av HERREN."
        },
        {
            "chapter": 18,
            "verse": 23,
            "name": "Proverbs 18:23",
            "text": " \u00a0B\u00f6nfallande \u00e4r den fattiges tal,  \u00a0men den rike svarar med h\u00e5rda ord."
        },
        {
            "chapter": 18,
            "verse": 24,
            "name": "Proverbs 18:24",
            "text": " \u00a0Den som \u00e4vlas att f\u00e5 v\u00e4nner, han kommer i olycka;  \u00a0men v\u00e4nner finnas, mer trogna \u00e4n en broder."
        }
    ]
}