{
    "translation": "Masoretic Text parallel to the Samaritan Pentateuch",
    "abbreviation": "spmt",
    "lang": "he",
    "language": "Hebrew",
    "direction": "RTL",
    "encoding": "UTF-8",
    "book_nr": 23,
    "book_name": "Isaiah",
    "chapter": 44,
    "name": "Isaiah 44",
    "verses": [
        {
            "chapter": 44,
            "verse": 1,
            "name": "Isaiah 44:1",
            "text": ""
        },
        {
            "chapter": 44,
            "verse": 2,
            "name": "Isaiah 44:2",
            "text": ""
        },
        {
            "chapter": 44,
            "verse": 3,
            "name": "Isaiah 44:3",
            "text": ""
        },
        {
            "chapter": 44,
            "verse": 4,
            "name": "Isaiah 44:4",
            "text": ""
        },
        {
            "chapter": 44,
            "verse": 5,
            "name": "Isaiah 44:5",
            "text": ""
        },
        {
            "chapter": 44,
            "verse": 6,
            "name": "Isaiah 44:6",
            "text": ""
        },
        {
            "chapter": 44,
            "verse": 7,
            "name": "Isaiah 44:7",
            "text": ""
        },
        {
            "chapter": 44,
            "verse": 8,
            "name": "Isaiah 44:8",
            "text": ""
        },
        {
            "chapter": 44,
            "verse": 9,
            "name": "Isaiah 44:9",
            "text": ""
        },
        {
            "chapter": 44,
            "verse": 10,
            "name": "Isaiah 44:10",
            "text": ""
        },
        {
            "chapter": 44,
            "verse": 11,
            "name": "Isaiah 44:11",
            "text": ""
        },
        {
            "chapter": 44,
            "verse": 12,
            "name": "Isaiah 44:12",
            "text": ""
        },
        {
            "chapter": 44,
            "verse": 13,
            "name": "Isaiah 44:13",
            "text": ""
        },
        {
            "chapter": 44,
            "verse": 14,
            "name": "Isaiah 44:14",
            "text": ""
        },
        {
            "chapter": 44,
            "verse": 15,
            "name": "Isaiah 44:15",
            "text": ""
        },
        {
            "chapter": 44,
            "verse": 16,
            "name": "Isaiah 44:16",
            "text": ""
        },
        {
            "chapter": 44,
            "verse": 17,
            "name": "Isaiah 44:17",
            "text": ""
        },
        {
            "chapter": 44,
            "verse": 18,
            "name": "Isaiah 44:18",
            "text": ""
        },
        {
            "chapter": 44,
            "verse": 19,
            "name": "Isaiah 44:19",
            "text": ""
        },
        {
            "chapter": 44,
            "verse": 20,
            "name": "Isaiah 44:20",
            "text": ""
        },
        {
            "chapter": 44,
            "verse": 21,
            "name": "Isaiah 44:21",
            "text": ""
        },
        {
            "chapter": 44,
            "verse": 22,
            "name": "Isaiah 44:22",
            "text": ""
        },
        {
            "chapter": 44,
            "verse": 23,
            "name": "Isaiah 44:23",
            "text": ""
        },
        {
            "chapter": 44,
            "verse": 24,
            "name": "Isaiah 44:24",
            "text": ""
        },
        {
            "chapter": 44,
            "verse": 25,
            "name": "Isaiah 44:25",
            "text": ""
        },
        {
            "chapter": 44,
            "verse": 26,
            "name": "Isaiah 44:26",
            "text": ""
        },
        {
            "chapter": 44,
            "verse": 27,
            "name": "Isaiah 44:27",
            "text": ""
        },
        {
            "chapter": 44,
            "verse": 28,
            "name": "Isaiah 44:28",
            "text": ""
        }
    ]
}