{
    "translation": "Hungarian Karoli",
    "abbreviation": "karoli",
    "lang": "hu",
    "language": "Hungarian",
    "direction": "LTR",
    "encoding": "UTF-8",
    "book_nr": 14,
    "book_name": "2 Chronicles",
    "chapter": 2,
    "name": "2 Chronicles 2",
    "verses": [
        {
            "chapter": 2,
            "verse": 1,
            "name": "2 Chronicles 2:1",
            "text": "Elv\u00e9gez\u00e9 Salamon mag\u00e1ban, hogy az \u00dar nev\u00e9nek h\u00e1zat \u00e9p\u00edtene, \u00e9s mag\u00e1nak kir\u00e1lyi palot\u00e1t. "
        },
        {
            "chapter": 2,
            "verse": 2,
            "name": "2 Chronicles 2:2",
            "text": "\u00c9s rendele Salamon hetvenezer f\u00e9rfit teherhord\u00e1sra, nyolczvanezer f\u00e9rfit fav\u00e1g\u00e1sra a hegyen; h\u00e1romezerhatsz\u00e1z fel\u00fcgyel\u0151t azokhoz. "
        },
        {
            "chapter": 2,
            "verse": 3,
            "name": "2 Chronicles 2:3",
            "text": "\u00c9s k\u00fclde Salamon a t\u00edrusbeli Hir\u00e1m kir\u00e1lyhoz, mondv\u00e1n: A mint az \u00e9n aty\u00e1mmal, D\u00e1viddal cselekedt\u00e9l, a kinek k\u00fcld\u00f6tt\u00e9l cz\u00e9drusf\u00e1kat, hogy \u00e9p\u00edtene mag\u00e1nak h\u00e1zat, melyben lakn\u00e9k; "
        },
        {
            "chapter": 2,
            "verse": 4,
            "name": "2 Chronicles 2:4",
            "text": "\u00dagy \u00e9n az \u00e9n Uram Istenem nev\u00e9nek akarok h\u00e1zat \u00e9p\u00edteni, hogy n\u00e9ki szenteljem, \u00e9s abban f\u00fcst\u00f6l\u0151 szerekkel j\u00f3 illatot gerjeszszek, hogy folytonosan szent kenyerek \u00e1lljanak el\u0151tte, s minden reggel \u00e9s este \u00e9g\u0151\u00e1ldozatot \u00e1ldozzak szombatnapokon, az \u00faj holdnak napjain, \u00e9s az \u00darnak a mi Isten\u00fcnknek szentelt \u00fcnnepeken, melyeket \u00f6r\u00f6kk\u00e9 kell cselekedni\u00f6k az Izr\u00e1elit\u00e1knak. "
        },
        {
            "chapter": 2,
            "verse": 5,
            "name": "2 Chronicles 2:5",
            "text": "A h\u00e1z pedig, a melyet \u00e9p\u00edteni sz\u00e1nd\u00e9kozom, igen nagy lesz, mert a mi Isten\u00fcnk nagyobb minden istenekn\u00e9l. "
        },
        {
            "chapter": 2,
            "verse": 6,
            "name": "2 Chronicles 2:6",
            "text": "De kinek volna annyi ereje, hogy n\u00e9ki h\u00e1zat csin\u00e1lhatna? Az \u00e9g \u00e9s az egeknek egei \u0151t be nem foghatj\u00e1k, s ki vagyok \u00e9n is, hogy n\u00e9ki h\u00e1zat csin\u00e1lhassak? hanem hogy csak j\u00f3illatot tegyenek abban \u0151 el\u0151tte. "
        },
        {
            "chapter": 2,
            "verse": 7,
            "name": "2 Chronicles 2:7",
            "text": "Most az\u00e9rt k\u00fcldj hozz\u00e1m tud\u00f3s mesterembert, a ki tudjon k\u00e9sz\u00edteni aranyb\u00f3l, ez\u00fcstb\u0151l, r\u00e9zb\u0151l, vasb\u00f3l, b\u00edborb\u00f3l, karmazsinb\u00f3l \u00e9s k\u00e9k b\u00edborb\u00f3l; a ki tudjon metsz\u00e9seket metszeni az \u00e9n mesterembereimmel egy\u00fctt, a kik J\u00fad\u00e1ban \u00e9s Jeruzs\u00e1lemben vannak, a kiket az \u00e9n aty\u00e1m, D\u00e1vid szerzett. "
        },
        {
            "chapter": 2,
            "verse": 8,
            "name": "2 Chronicles 2:8",
            "text": "Annakfelette k\u00fcldj cz\u00e9drusf\u00e1kat, feny\u0151f\u00e1kat \u00e9s \u00e9benf\u00e1kat a Lib\u00e1nusr\u00f3l, mert tudom, hogy a te szolg\u00e1id tudj\u00e1k v\u00e1gni a Lib\u00e1nusnak f\u00e1it; \u00e9s \u00edm\u00e9 az \u00e9n szolg\u00e1im is a te szolg\u00e1iddal lesznek. "
        },
        {
            "chapter": 2,
            "verse": 9,
            "name": "2 Chronicles 2:9",
            "text": "Hogy k\u00e9sz\u00edtsenek n\u00e9kem sok f\u00e1t, mert a h\u00e1z, a melyet \u00e9p\u00edtek, nagy \u00e9s csud\u00e1latos l\u00e9szen. "
        },
        {
            "chapter": 2,
            "verse": 10,
            "name": "2 Chronicles 2:10",
            "text": "\u00c9s \u00edm\u00e9 a munk\u00e1soknak, a fav\u00e1g\u00f3knak, a te szolg\u00e1idnak adok h\u00faszezer v\u00e9ka cs\u00e9plett b\u00faz\u00e1t \u00e9s h\u00faszezer v\u00e9ka \u00e1rp\u00e1t, h\u00faszezer b\u00e1th bort \u00e9s h\u00faszezer b\u00e1th olajat. "
        },
        {
            "chapter": 2,
            "verse": 11,
            "name": "2 Chronicles 2:11",
            "text": "Felele pedig H\u00edr\u00e1m, a T\u00edrus kir\u00e1lya lev\u00e9lben, melyet k\u00fclde Salamonnak: Mivelhogy az \u00dar szerette az \u0151 n\u00e9p\u00e9t, az\u00e9rt adott t\u00e9ged n\u00e9kik kir\u00e1lyul. "
        },
        {
            "chapter": 2,
            "verse": 12,
            "name": "2 Chronicles 2:12",
            "text": "Ism\u00e9t monda H\u00edr\u00e1m: \u00c1ldott az \u00dar, az Izr\u00e1el Istene, a ki mind a mennyet, mind a f\u00f6ldet teremtette; a ki ilyen b\u00f6lcs, tud\u00f3s, okos \u00e9s \u00e9rtelmes fiat adott volt D\u00e1vid kir\u00e1lynak, a ki mind az \u00darnak h\u00e1zat, mind mag\u00e1nak kir\u00e1lyi palot\u00e1t akar \u00e9p\u00edteni. "
        },
        {
            "chapter": 2,
            "verse": 13,
            "name": "2 Chronicles 2:13",
            "text": "\u00cdm\u00e9 k\u00fcld\u00f6ttem az\u00e9rt b\u00f6lcs, tud\u00f3s \u00e9s \u00e9rtelmes f\u00e9rfit, a ki az \u00e9n aty\u00e1m\u00e9, H\u00far\u00e1m\u00e9 volt; "
        },
        {
            "chapter": 2,
            "verse": 14,
            "name": "2 Chronicles 2:14",
            "text": "A D\u00e1n nemzets\u00e9g\u00e9nek le\u00e1nyai k\u00f6z\u00fcl val\u00f3 asszony fi\u00e1t (\u00e9s az \u0151 atyja T\u00edrus v\u00e1ros\u00e1b\u00f3l val\u00f3), a ki tud k\u00e9sz\u00edteni aranyb\u00f3l, ez\u00fcstb\u0151l, r\u00e9zb\u0151l, vasb\u00f3l, k\u00f6vekb\u0151l, f\u00e1kb\u00f3l, b\u00edborb\u00f3l, k\u00e9k b\u00edborb\u00f3l, lenb\u0151l \u00e9s karmazsinb\u00f3l \u00e9s mindenf\u00e9le metsz\u00e9st metszeni \u00e9s minden remekm\u0171vet elk\u00e9sz\u00edteni, a melyekkel megb\u00edzatik, a te tud\u00f3s mesterembereiddel \u00e9s az \u00e9n uramnak, D\u00e1vid kir\u00e1lynak, a te aty\u00e1dnak tud\u00f3s mestereivel egyben. "
        },
        {
            "chapter": 2,
            "verse": 15,
            "name": "2 Chronicles 2:15",
            "text": "Az\u00e9rt most, a mely b\u00faz\u00e1t, \u00e1rp\u00e1t, olajat \u00e9s bort ig\u00e9rt az \u00e9n uram, k\u00fcldje el az \u0151 szolg\u00e1inak; "
        },
        {
            "chapter": 2,
            "verse": 16,
            "name": "2 Chronicles 2:16",
            "text": "Mi pedig a Lib\u00e1nuson v\u00e1gunk f\u00e1t, a mennyire n\u00e9ked sz\u00fcks\u00e9ged lesz, \u00e9s elviszsz\u00fck azokat sz\u00e1lakon a tengeren Jopp\u00e9hoz, \u00e9s te onn\u00e9t vitessed Jeruzs\u00e1lembe. "
        },
        {
            "chapter": 2,
            "verse": 17,
            "name": "2 Chronicles 2:17",
            "text": "Megsz\u00e1ml\u00e1ltata az\u00e9rt Salamon minden idegen f\u00e9rfit az Izr\u00e1el f\u00f6ld\u00e9n, az \u0151 atyj\u00e1nak, D\u00e1vidnak megsz\u00e1ml\u00e1ltat\u00e1sa ut\u00e1n \u00e9s tal\u00e1ltat\u00e1nak sz\u00e1z\u00f6tvenh\u00e1romezerhatsz\u00e1zan. "
        },
        {
            "chapter": 2,
            "verse": 18,
            "name": "2 Chronicles 2:18",
            "text": "\u00c9s v\u00e1laszta azok k\u00f6z\u00fcl hetvenezer teherhord\u00f3t, fav\u00e1g\u00e1sra pedig a hegyen nyolczvanezeret; pall\u00e9rokul, a kik a n\u00e9pet szorgalmaztatn\u00e1k, rendele h\u00e1romezerhatsz\u00e1zat.  "
        }
    ]
}