{
    "translation": "The Lexham English Bible",
    "abbreviation": "leb",
    "lang": "en",
    "language": "English",
    "direction": "LTR",
    "encoding": "UTF-8",
    "book_nr": 38,
    "book_name": "Zechariah",
    "chapter": 5,
    "name": "Zechariah 5",
    "verses": [
        {
            "chapter": 5,
            "verse": 1,
            "name": "Zechariah 5:1",
            "text": "  \u231eI looked up again\u231f, and I saw, and look!\u2014a flying scroll!"
        },
        {
            "chapter": 5,
            "verse": 2,
            "name": "Zechariah 5:2",
            "text": "And he asked me, \u201cWhat are you seeing?\u201d And I said, \u201cI am seeing a flying scroll twenty cubits long and ten cubits wide.\u201d"
        },
        {
            "chapter": 5,
            "verse": 3,
            "name": "Zechariah 5:3",
            "text": "And he said to me, \u201cThis is the curse going out over the surface of the whole earth. For everyone who steals has gone unpunished according to it, and likewise everyone who swears falsely has gone unpunished according to it."
        },
        {
            "chapter": 5,
            "verse": 4,
            "name": "Zechariah 5:4",
            "text": "\u2018I have sent it out,\u2019 \u231edeclares\u231f Yahweh of hosts, \u2018and it will go into the house of the thief and into the house of the one swearing \u231efalsely by my name\u231f, and it will spend the night in that house and will destroy it, with its timber and its stone.\u2019\u00a0\u201d  "
        },
        {
            "chapter": 5,
            "verse": 5,
            "name": "Zechariah 5:5",
            "text": "  And the angel who was speaking to me went out, and he said to me, \u201c\u231ePlease look up\u231f! See what this is going out.\u201d"
        },
        {
            "chapter": 5,
            "verse": 6,
            "name": "Zechariah 5:6",
            "text": "And I asked, \u201cWhat is it?\u201d And he said, \u201cThis is a basket going out. And he said, \u201cThis is their iniquity throughout all the earth."
        },
        {
            "chapter": 5,
            "verse": 7,
            "name": "Zechariah 5:7",
            "text": "And look, the lead cover was lifted and a woman was sitting inside the basket."
        },
        {
            "chapter": 5,
            "verse": 8,
            "name": "Zechariah 5:8",
            "text": "And he said, \u201cThis is Wickedness!\u201d And he thrust her back down into the basket, and threw the lead cover on top of it."
        },
        {
            "chapter": 5,
            "verse": 9,
            "name": "Zechariah 5:9",
            "text": "And I \u231elooked up\u231f and saw, and look!\u2014two women coming forward, and the wind was in their wings, and they had wings like those of a stork, and they lifted up the basket between the earth and the sky."
        },
        {
            "chapter": 5,
            "verse": 10,
            "name": "Zechariah 5:10",
            "text": "And I asked the angel who was talking to me, \u201cWhere are they taking the basket?\u201d"
        },
        {
            "chapter": 5,
            "verse": 11,
            "name": "Zechariah 5:11",
            "text": "And he said to me, \u201cTo build for it a house in the land of Shinar, and when it is put in place, it will be placed there on its site.\u201d   "
        }
    ]
}