{
    "translation": "World English Bible: Messianic Edition",
    "abbreviation": "webme",
    "lang": "en",
    "language": "English",
    "direction": "LTR",
    "encoding": "UTF-8",
    "book_nr": 11,
    "book_name": "1 Kings",
    "chapter": 1,
    "name": "1 Kings 1",
    "verses": [
        {
            "chapter": 1,
            "verse": 1,
            "name": "1 Kings 1:1",
            "text": "Now king David was old and stricken in years; and they covered him with clothes, but he couldn\u2019t keep warm."
        },
        {
            "chapter": 1,
            "verse": 2,
            "name": "1 Kings 1:2",
            "text": "Therefore his servants said to him, \u201cLet there be sought for my lord the king a young virgin. Let her stand before the king, and cherish him; and let her lie in your bosom, that my lord the king may keep warm.\u201d"
        },
        {
            "chapter": 1,
            "verse": 3,
            "name": "1 Kings 1:3",
            "text": "So they sought for a beautiful young lady throughout all the borders of Israel, and found Abishag the Shunammite, and brought her to the king."
        },
        {
            "chapter": 1,
            "verse": 4,
            "name": "1 Kings 1:4",
            "text": "The young lady was very beautiful; and she cherished the king, and ministered to him; but the king didn\u2019t know her intimately."
        },
        {
            "chapter": 1,
            "verse": 5,
            "name": "1 Kings 1:5",
            "text": "Then Adonijah the son of Haggith exalted himself, saying, \u201cI will be king.\u201d Then he prepared him chariots and horsemen, and fifty men to run before him."
        },
        {
            "chapter": 1,
            "verse": 6,
            "name": "1 Kings 1:6",
            "text": "His father had not displeased him at any time in saying, \u201cWhy have you done so?\u201d and he was also a very handsome man; and he was born after Absalom."
        },
        {
            "chapter": 1,
            "verse": 7,
            "name": "1 Kings 1:7",
            "text": "He conferred with Joab the son of Zeruiah, and with Abiathar the priest: and they following Adonijah helped him."
        },
        {
            "chapter": 1,
            "verse": 8,
            "name": "1 Kings 1:8",
            "text": "But Zadok the priest, and Benaiah the son of Jehoiada, and Nathan the prophet, and Shimei, and Rei, and the mighty men who belonged to David, were not with Adonijah."
        },
        {
            "chapter": 1,
            "verse": 9,
            "name": "1 Kings 1:9",
            "text": "Adonijah killed sheep and cattle and fatlings by the stone of Zoheleth, which is beside En Rogel; and he called all his brothers, the king\u2019s sons, and all the men of Judah, the king\u2019s servants:"
        },
        {
            "chapter": 1,
            "verse": 10,
            "name": "1 Kings 1:10",
            "text": "but Nathan the prophet, and Benaiah, and the mighty men, and Solomon his brother, he didn\u2019t call."
        },
        {
            "chapter": 1,
            "verse": 11,
            "name": "1 Kings 1:11",
            "text": "Then Nathan spoke to Bathsheba the mother of Solomon, saying, \u201cHaven\u2019t you heard that Adonijah the son of Haggith reigns, and David our lord doesn\u2019t know it?"
        },
        {
            "chapter": 1,
            "verse": 12,
            "name": "1 Kings 1:12",
            "text": "Now therefore come, please let me give you counsel, that you may save your own life, and the life of your son Solomon."
        },
        {
            "chapter": 1,
            "verse": 13,
            "name": "1 Kings 1:13",
            "text": "Go in to king David, and tell him, \u2018Didn\u2019t you, my lord, king, swear to your handmaid, saying, Assuredly Solomon your son shall reign after me, and he shall sit on my throne? Why then does Adonijah reign?\u2019"
        },
        {
            "chapter": 1,
            "verse": 14,
            "name": "1 Kings 1:14",
            "text": "Behold, while you yet talk there with the king, I also will come in after you, and confirm your words.\u201d  "
        },
        {
            "chapter": 1,
            "verse": 15,
            "name": "1 Kings 1:15",
            "text": "  Bathsheba went in to the king into the room. The king was very old; and Abishag the Shunammite was ministering to the king."
        },
        {
            "chapter": 1,
            "verse": 16,
            "name": "1 Kings 1:16",
            "text": "Bathsheba bowed, and showed respect to the king. The king said, \u201cWhat would you like?\u201d"
        },
        {
            "chapter": 1,
            "verse": 17,
            "name": "1 Kings 1:17",
            "text": "She said to him, \u201cMy lord, you swore by the LORD your God to your handmaid, \u2018Assuredly Solomon your son shall reign after me, and he shall sit on my throne.\u2019"
        },
        {
            "chapter": 1,
            "verse": 18,
            "name": "1 Kings 1:18",
            "text": "Now, behold, Adonijah reigns; and you, my lord the king, don\u2019t know it."
        },
        {
            "chapter": 1,
            "verse": 19,
            "name": "1 Kings 1:19",
            "text": "He has slain cattle and fatlings and sheep in abundance, and has called all the sons of the king, and Abiathar the priest, and Joab the captain of the army; but he hasn\u2019t called Solomon your servant."
        },
        {
            "chapter": 1,
            "verse": 20,
            "name": "1 Kings 1:20",
            "text": "You, my lord the king, the eyes of all Israel are on you, that you should tell them who shall sit on the throne of my lord the king after him."
        },
        {
            "chapter": 1,
            "verse": 21,
            "name": "1 Kings 1:21",
            "text": "Otherwise it will happen, when my lord the king shall sleep with his fathers, that I and my son Solomon shall be counted offenders.\u201d  "
        },
        {
            "chapter": 1,
            "verse": 22,
            "name": "1 Kings 1:22",
            "text": "  Behold, while she yet talked with the king, Nathan the prophet came in."
        },
        {
            "chapter": 1,
            "verse": 23,
            "name": "1 Kings 1:23",
            "text": "They told the king, saying, \u201cBehold, Nathan the prophet!\u201d   When he had come in before the king, he bowed himself before the king with his face to the ground."
        },
        {
            "chapter": 1,
            "verse": 24,
            "name": "1 Kings 1:24",
            "text": "Nathan said, \u201cMy lord, king, have you said, \u2018Adonijah shall reign after me, and he shall sit on my throne?\u2019"
        },
        {
            "chapter": 1,
            "verse": 25,
            "name": "1 Kings 1:25",
            "text": "For he is gone down this day, and has slain cattle and fatlings and sheep in abundance, and has called all the king\u2019s sons, and the captains of the army, and Abiathar the priest. Behold, they are eating and drinking before him, and say, \u2018Long live king Adonijah!\u2019"
        },
        {
            "chapter": 1,
            "verse": 26,
            "name": "1 Kings 1:26",
            "text": "But he hasn\u2019t called me, even me your servant, and Zadok the priest, and Benaiah the son of Jehoiada, and your servant Solomon."
        },
        {
            "chapter": 1,
            "verse": 27,
            "name": "1 Kings 1:27",
            "text": "Is this thing done by my lord the king, and you haven\u2019t shown to your servants who should sit on the throne of my lord the king after him?\u201d  "
        },
        {
            "chapter": 1,
            "verse": 28,
            "name": "1 Kings 1:28",
            "text": "  Then king David answered, \u201cCall to me Bathsheba.\u201d She came into the king\u2019s presence, and stood before the king."
        },
        {
            "chapter": 1,
            "verse": 29,
            "name": "1 Kings 1:29",
            "text": "The king swore, and said, \u201cAs the LORD lives, who has redeemed my soul out of all adversity,"
        },
        {
            "chapter": 1,
            "verse": 30,
            "name": "1 Kings 1:30",
            "text": "most certainly as I swore to you by the LORD, the God of Israel, saying, \u2018Assuredly Solomon your son shall reign after me, and he shall sit on my throne in my place;\u2019 most certainly so will I do this day.\u201d  "
        },
        {
            "chapter": 1,
            "verse": 31,
            "name": "1 Kings 1:31",
            "text": "  Then Bathsheba bowed with her face to the earth, and showed respect to the king, and said, \u201cLet my lord king David live forever!\u201d  "
        },
        {
            "chapter": 1,
            "verse": 32,
            "name": "1 Kings 1:32",
            "text": "  King David said, \u201cCall to me Zadok the priest, Nathan the prophet, and Benaiah the son of Jehoiada.\u201d They came before the king."
        },
        {
            "chapter": 1,
            "verse": 33,
            "name": "1 Kings 1:33",
            "text": "The king said to them, \u201cTake with you the servants of your lord, and cause Solomon my son to ride on my own mule, and bring him down to Gihon."
        },
        {
            "chapter": 1,
            "verse": 34,
            "name": "1 Kings 1:34",
            "text": "Let Zadok the priest and Nathan the prophet anoint him there king over Israel. Blow the shofar, and say, \u2018Long live king Solomon!\u2019"
        },
        {
            "chapter": 1,
            "verse": 35,
            "name": "1 Kings 1:35",
            "text": "Then you shall come up after him, and he shall come and sit on my throne; for he shall be king in my place. I have appointed him to be prince over Israel and over Judah.\u201d  "
        },
        {
            "chapter": 1,
            "verse": 36,
            "name": "1 Kings 1:36",
            "text": "  Benaiah the son of Jehoiada answered the king, and said, \u201cAmen. May the LORD, the God of my lord the king, say so."
        },
        {
            "chapter": 1,
            "verse": 37,
            "name": "1 Kings 1:37",
            "text": "As the LORD has been with my lord the king, even so may he be with Solomon, and make his throne greater than the throne of my lord king David.\u201d  "
        },
        {
            "chapter": 1,
            "verse": 38,
            "name": "1 Kings 1:38",
            "text": "  So Zadok the priest, and Nathan the prophet, and Benaiah the son of Jehoiada, and the Cherethites and the Pelethites, went down, and caused Solomon to ride on king David\u2019s mule, and brought him to Gihon."
        },
        {
            "chapter": 1,
            "verse": 39,
            "name": "1 Kings 1:39",
            "text": "Zadok the priest took the horn of oil from the Tent, and anointed Solomon. They blew the shofar; and all the people said, \u201cLong live king Solomon!\u201d  "
        },
        {
            "chapter": 1,
            "verse": 40,
            "name": "1 Kings 1:40",
            "text": "  All the people came up after him, and the people piped with pipes, and rejoiced with great joy, so that the earth shook with their sound."
        },
        {
            "chapter": 1,
            "verse": 41,
            "name": "1 Kings 1:41",
            "text": "Adonijah and all the guests who were with him heard it as they had made an end of eating. When Joab heard the sound of the shofar, he said, \u201cWhy is this noise of the city being in an uproar?\u201d  "
        },
        {
            "chapter": 1,
            "verse": 42,
            "name": "1 Kings 1:42",
            "text": "  While he yet spoke, behold, Jonathan the son of Abiathar the priest came: and Adonijah said, \u201cCome in; for you are a worthy man, and bring good news.\u201d  "
        },
        {
            "chapter": 1,
            "verse": 43,
            "name": "1 Kings 1:43",
            "text": "  Jonathan answered Adonijah, \u201cMost certainly our lord king David has made Solomon king."
        },
        {
            "chapter": 1,
            "verse": 44,
            "name": "1 Kings 1:44",
            "text": "The king has sent with him Zadok the priest, Nathan the prophet, Benaiah the son of Jehoiada, and the Cherethites and the Pelethites; and they have caused him to ride on the king\u2019s mule."
        },
        {
            "chapter": 1,
            "verse": 45,
            "name": "1 Kings 1:45",
            "text": "Zadok the priest and Nathan the prophet have anointed him king in Gihon. They have come up from there rejoicing, so that the city rang again. This is the noise that you have heard."
        },
        {
            "chapter": 1,
            "verse": 46,
            "name": "1 Kings 1:46",
            "text": "Also, Solomon sits on the throne of the kingdom."
        },
        {
            "chapter": 1,
            "verse": 47,
            "name": "1 Kings 1:47",
            "text": "Moreover the king\u2019s servants came to bless our lord king David, saying, \u2018May your God make the name of Solomon better than your name, and make his throne greater than your throne;\u2019 and the king bowed himself on the bed."
        },
        {
            "chapter": 1,
            "verse": 48,
            "name": "1 Kings 1:48",
            "text": "Also thus said the king, \u2018Blessed be the LORD, the God of Israel, who has given one to sit on my throne this day, my eyes even seeing it.\u2019\u201d  "
        },
        {
            "chapter": 1,
            "verse": 49,
            "name": "1 Kings 1:49",
            "text": "  All the guests of Adonijah were afraid, and rose up, and each man went his way."
        },
        {
            "chapter": 1,
            "verse": 50,
            "name": "1 Kings 1:50",
            "text": "Adonijah feared because of Solomon; and he arose, and went, and caught hold on the horns of the altar."
        },
        {
            "chapter": 1,
            "verse": 51,
            "name": "1 Kings 1:51",
            "text": "It was told Solomon, saying, \u201cBehold, Adonijah fears king Solomon; for, behold, he has laid hold on the horns of the altar, saying, \u2018Let king Solomon swear to me first that he will not kill his servant with the sword.\u2019\u201d  "
        },
        {
            "chapter": 1,
            "verse": 52,
            "name": "1 Kings 1:52",
            "text": "  Solomon said, \u201cIf he shows himself a worthy man, not a hair of him shall fall to the earth; but if wickedness be found in him, he shall die.\u201d  "
        },
        {
            "chapter": 1,
            "verse": 53,
            "name": "1 Kings 1:53",
            "text": "  So king Solomon sent, and they brought him down from the altar. He came and bowed down to king Solomon; and Solomon said to him, \u201cGo to your house.\u201d   "
        }
    ]
}