{
    "translation": "World English Bible: British Edition",
    "abbreviation": "webbe",
    "lang": "en",
    "language": "English",
    "direction": "LTR",
    "encoding": "UTF-8",
    "book_nr": 6,
    "book_name": "Joshua",
    "chapter": 6,
    "name": "Joshua 6",
    "verses": [
        {
            "chapter": 6,
            "verse": 1,
            "name": "Joshua 6:1",
            "text": "Now Jericho was tightly shut up because of the children of Israel. No one went out, and no one came in."
        },
        {
            "chapter": 6,
            "verse": 2,
            "name": "Joshua 6:2",
            "text": "The LORD said to Joshua, \u201cBehold, I have given Jericho into your hand, with its king and the mighty men of valor."
        },
        {
            "chapter": 6,
            "verse": 3,
            "name": "Joshua 6:3",
            "text": "All your men of war shall march around the city, going around the city once. You shall do this six days."
        },
        {
            "chapter": 6,
            "verse": 4,
            "name": "Joshua 6:4",
            "text": "Seven priests shall bear seven trumpets of rams\u2019 horns before the ark. On the seventh day, you shall march around the city seven times, and the priests shall blow the trumpets."
        },
        {
            "chapter": 6,
            "verse": 5,
            "name": "Joshua 6:5",
            "text": "It shall be that when they make a long blast with the ram\u2019s horn, and when you hear the sound of the trumpet, all the people shall shout with a great shout; and the wall of the city shall fall down flat, and the people shall go up every man straight before him.\u201d  "
        },
        {
            "chapter": 6,
            "verse": 6,
            "name": "Joshua 6:6",
            "text": "  Joshua the son of Nun called the priests, and said to them, \u201cTake up the ark of the covenant, and let seven priests bear seven trumpets of rams\u2019 horns before the LORD\u2019s ark.\u201d  "
        },
        {
            "chapter": 6,
            "verse": 7,
            "name": "Joshua 6:7",
            "text": "  They said to the people, \u201cAdvance! March around the city, and let the armed men pass on before the LORD\u2019s ark.\u201d  "
        },
        {
            "chapter": 6,
            "verse": 8,
            "name": "Joshua 6:8",
            "text": "  It was so, that when Joshua had spoken to the people, the seven priests bearing the seven trumpets of rams\u2019 horns before the LORD advanced, and blew the trumpets; and the ark of the covenant of the LORD followed them."
        },
        {
            "chapter": 6,
            "verse": 9,
            "name": "Joshua 6:9",
            "text": "The armed men went before the priests who blew the trumpets, and the ark went after them. The trumpets sounded as they went.  "
        },
        {
            "chapter": 6,
            "verse": 10,
            "name": "Joshua 6:10",
            "text": "  Joshua commanded the people, saying, \u201cYou shall not shout, nor let your voice be heard, neither shall any word proceed out of your mouth, until the day I tell you to shout. Then you shall shout.\u201d"
        },
        {
            "chapter": 6,
            "verse": 11,
            "name": "Joshua 6:11",
            "text": "So he caused the LORD\u2019s ark to go around the city, going about it once. Then they came into the camp, and lodged in the camp."
        },
        {
            "chapter": 6,
            "verse": 12,
            "name": "Joshua 6:12",
            "text": "Joshua rose early in the morning, and the priests took up the LORD\u2019s ark."
        },
        {
            "chapter": 6,
            "verse": 13,
            "name": "Joshua 6:13",
            "text": "The seven priests bearing the seven trumpets of rams\u2019 horns before the LORD\u2019s ark went on continually, and blew the trumpets: and the armed men went before them. The rear guard came after the LORD\u2019s ark. The trumpets sounded as they went."
        },
        {
            "chapter": 6,
            "verse": 14,
            "name": "Joshua 6:14",
            "text": "The second day they marched around the city once, and returned into the camp. They did this six days.  "
        },
        {
            "chapter": 6,
            "verse": 15,
            "name": "Joshua 6:15",
            "text": "  On the seventh day, they rose early at the dawning of the day, and marched around the city in the same way seven times. Only on this day they marched around the city seven times."
        },
        {
            "chapter": 6,
            "verse": 16,
            "name": "Joshua 6:16",
            "text": "At the seventh time, when the priests blew the trumpets, Joshua said to the people, \u201cShout, for the LORD has given you the city!"
        },
        {
            "chapter": 6,
            "verse": 17,
            "name": "Joshua 6:17",
            "text": "The city shall be devoted, even it and all that is in it, to the LORD. Only Rahab the prostitute shall live, she and all who are with her in the house, because she hid the messengers that we sent."
        },
        {
            "chapter": 6,
            "verse": 18,
            "name": "Joshua 6:18",
            "text": "But as for you, only keep yourselves from the devoted thing, lest when you have devoted it, you take of the devoted thing; so would you make the camp of Israel accursed, and trouble it."
        },
        {
            "chapter": 6,
            "verse": 19,
            "name": "Joshua 6:19",
            "text": "But all the silver, and gold, and vessels of brass and iron, are holy to the LORD. They shall come into the LORD\u2019s treasury.\u201d  "
        },
        {
            "chapter": 6,
            "verse": 20,
            "name": "Joshua 6:20",
            "text": "  So the people shouted, and the priests blew the trumpets. When the people heard the sound of the trumpet, the people shouted with a great shout, and the wall fell down flat, so that the people went up into the city, every man straight before him, and they took the city."
        },
        {
            "chapter": 6,
            "verse": 21,
            "name": "Joshua 6:21",
            "text": "They utterly destroyed all that was in the city, both man and woman, both young and old, and ox, and sheep, and donkey, with the edge of the sword."
        },
        {
            "chapter": 6,
            "verse": 22,
            "name": "Joshua 6:22",
            "text": "Joshua said to the two men who had spied out the land, \u201cGo into the prostitute\u2019s house, and bring out from there the woman and all that she has, as you swore to her.\u201d"
        },
        {
            "chapter": 6,
            "verse": 23,
            "name": "Joshua 6:23",
            "text": "The young men who were spies went in, and brought out Rahab with her father, her mother, her brothers, and all that she had. They also brought out all her relatives, and they set them outside of the camp of Israel."
        },
        {
            "chapter": 6,
            "verse": 24,
            "name": "Joshua 6:24",
            "text": "They burnt the city with fire, and all that was in it. Only they put the silver, the gold, and the vessels of brass and of iron into the treasury of the LORD\u2019s house."
        },
        {
            "chapter": 6,
            "verse": 25,
            "name": "Joshua 6:25",
            "text": "But Rahab the prostitute, her father\u2019s household, and all that she had, Joshua saved alive. She lived in the midst of Israel to this day, because she hid the messengers, whom Joshua sent to spy out Jericho.  "
        },
        {
            "chapter": 6,
            "verse": 26,
            "name": "Joshua 6:26",
            "text": "  Joshua commanded them with an oath at that time, saying, \u201cCursed is the man before the LORD, who rises up and builds this city Jericho. With the loss of his firstborn shall he lay its foundation, and with the loss of his youngest son shall he set up its gates.\u201d"
        },
        {
            "chapter": 6,
            "verse": 27,
            "name": "Joshua 6:27",
            "text": "So the LORD was with Joshua; and his fame was in all the land.   "
        }
    ]
}