{
    "translation": "B\u00edblia Livre",
    "abbreviation": "porblivre",
    "lang": "pt",
    "language": "Portuguese",
    "direction": "LTR",
    "encoding": "UTF-8",
    "book_nr": 13,
    "book_name": "1 Chronicles",
    "chapter": 1,
    "name": "1 Chronicles 1",
    "verses": [
        {
            "chapter": 1,
            "verse": 1,
            "name": "1 Chronicles 1:1",
            "text": "Ad\u00e3o, Sete, Enos, "
        },
        {
            "chapter": 1,
            "verse": 2,
            "name": "1 Chronicles 1:2",
            "text": "Cain\u00e3, Maalalel, Jarede, "
        },
        {
            "chapter": 1,
            "verse": 3,
            "name": "1 Chronicles 1:3",
            "text": "Enoque, Matusal\u00e9m, Lameque, "
        },
        {
            "chapter": 1,
            "verse": 4,
            "name": "1 Chronicles 1:4",
            "text": "No\u00e9, Sem, Cam, e Jaf\u00e9. "
        },
        {
            "chapter": 1,
            "verse": 5,
            "name": "1 Chronicles 1:5",
            "text": "Os filhos de Jaf\u00e9 foram: G\u00f4mer, Magogue, Dadai, Jav\u00e3, Tubal, Meseque, e Tiras. "
        },
        {
            "chapter": 1,
            "verse": 6,
            "name": "1 Chronicles 1:6",
            "text": "Os filhos de G\u00f4mer: Asquenaz, Rifate, e Togarma. "
        },
        {
            "chapter": 1,
            "verse": 7,
            "name": "1 Chronicles 1:7",
            "text": "Os filhos de Jav\u00e3: Elis\u00e1, T\u00e1rsis, Quitim, e Dodanim. "
        },
        {
            "chapter": 1,
            "verse": 8,
            "name": "1 Chronicles 1:8",
            "text": "Os filhos de Cam: Cuxe, Misraim, Pute, e Cana\u00e3. "
        },
        {
            "chapter": 1,
            "verse": 9,
            "name": "1 Chronicles 1:9",
            "text": "Os filhos de Cuxe: Seb\u00e1, Havil\u00e1, Sabt\u00e1, Raam\u00e1, e Sabtec\u00e1. E os filhos de Raam\u00e1 foram: Seb\u00e1 e Ded\u00e3. "
        },
        {
            "chapter": 1,
            "verse": 10,
            "name": "1 Chronicles 1:10",
            "text": "E Cuxe gerou a Ninrode: este come\u00e7ou a ser poderoso na terra. "
        },
        {
            "chapter": 1,
            "verse": 11,
            "name": "1 Chronicles 1:11",
            "text": "Misraim gerou aos ludeus, aos ananeus, aos leabeus, aos leabeus, aos naftueus, "
        },
        {
            "chapter": 1,
            "verse": 12,
            "name": "1 Chronicles 1:12",
            "text": "Aos patrusitas, e aos caslu\u00edtas (destes sa\u00edram os Filisteus), e os caftoreus. "
        },
        {
            "chapter": 1,
            "verse": 13,
            "name": "1 Chronicles 1:13",
            "text": "E Cana\u00e3 gerou a Sidom, seu primog\u00eanito; e a Hete; "
        },
        {
            "chapter": 1,
            "verse": 14,
            "name": "1 Chronicles 1:14",
            "text": "E aos jebuseus, aos amorreus, aos girgaseus; "
        },
        {
            "chapter": 1,
            "verse": 15,
            "name": "1 Chronicles 1:15",
            "text": "Aos heveus, aos arqueus, ao sineus; "
        },
        {
            "chapter": 1,
            "verse": 16,
            "name": "1 Chronicles 1:16",
            "text": "Aos arvadeus, aos zemareus, e aos hamateus. "
        },
        {
            "chapter": 1,
            "verse": 17,
            "name": "1 Chronicles 1:17",
            "text": "Os filhos de Sem foram: El\u00e3o, Assur, Arfaxade, Lude, Ar\u00e3, Uz, Hul, Geter, e Meseque. "
        },
        {
            "chapter": 1,
            "verse": 18,
            "name": "1 Chronicles 1:18",
            "text": "Arfaxade gerou a Sel\u00e1, e Sel\u00e1 gerou a H\u00e9ber. "
        },
        {
            "chapter": 1,
            "verse": 19,
            "name": "1 Chronicles 1:19",
            "text": "E a H\u00e9ber nasceram dois filhos: o nome do um foi Pelegue, pois em seus dias a terra foi dividida; e o nome de seu irm\u00e3o foi Joct\u00e3. "
        },
        {
            "chapter": 1,
            "verse": 20,
            "name": "1 Chronicles 1:20",
            "text": "E Joct\u00e3 gerou a Almod\u00e1, Salefe, Hazarmav\u00e9, e Jer\u00e1, "
        },
        {
            "chapter": 1,
            "verse": 21,
            "name": "1 Chronicles 1:21",
            "text": "E a Ador\u00e3o, Uzal, Dicla, "
        },
        {
            "chapter": 1,
            "verse": 22,
            "name": "1 Chronicles 1:22",
            "text": "Ebal, Abimael, Seb\u00e1, "
        },
        {
            "chapter": 1,
            "verse": 23,
            "name": "1 Chronicles 1:23",
            "text": "Ofir, Havil\u00e1, e a Jobabe: todos filhos de Joct\u00e3. "
        },
        {
            "chapter": 1,
            "verse": 24,
            "name": "1 Chronicles 1:24",
            "text": "Sem, Arfaxade, Sel\u00e1, "
        },
        {
            "chapter": 1,
            "verse": 25,
            "name": "1 Chronicles 1:25",
            "text": "H\u00e9ber, Pelegue, Re\u00fa, "
        },
        {
            "chapter": 1,
            "verse": 26,
            "name": "1 Chronicles 1:26",
            "text": "Serugue, Naor, Ter\u00e1, "
        },
        {
            "chapter": 1,
            "verse": 27,
            "name": "1 Chronicles 1:27",
            "text": "E Abr\u00e3o, o qual \u00e9 Abra\u00e3o. "
        },
        {
            "chapter": 1,
            "verse": 28,
            "name": "1 Chronicles 1:28",
            "text": "Os filhos de Abra\u00e3o foram: Isaque e Ismael. "
        },
        {
            "chapter": 1,
            "verse": 29,
            "name": "1 Chronicles 1:29",
            "text": "E estas s\u00e3o suas gera\u00e7\u00f5es: o primog\u00eanito de Ismael foi Nebaiote; depois Quedar, Adbeel, Mibs\u00e3o, "
        },
        {
            "chapter": 1,
            "verse": 30,
            "name": "1 Chronicles 1:30",
            "text": "Misma, Dum\u00e1, Mass\u00e1, Hadade, Tem\u00e1, "
        },
        {
            "chapter": 1,
            "verse": 31,
            "name": "1 Chronicles 1:31",
            "text": "Jetur, Nafis, e Quedem\u00e1. Estes foram os filhos de Ismael. "
        },
        {
            "chapter": 1,
            "verse": 32,
            "name": "1 Chronicles 1:32",
            "text": "Quanto aos filhos de Quetura, concubina de Abra\u00e3o, esta deu \u00e0 luz Zinr\u00e3, Jocs\u00e3, Med\u00e3, Midi\u00e3, Isbaque, e a Su\u00e1. Os filhos de Jobs\u00e3: Seb\u00e1 e Ded\u00e3. "
        },
        {
            "chapter": 1,
            "verse": 33,
            "name": "1 Chronicles 1:33",
            "text": "Os filhos de Midi\u00e3: Ef\u00e1, Efer, Enoque, Abida, e Elda; todos estes foram filhos de Quetura. "
        },
        {
            "chapter": 1,
            "verse": 34,
            "name": "1 Chronicles 1:34",
            "text": "E Abra\u00e3o gerou a Isaque: e os filhos de Isaque foram Esa\u00fa e Israel. "
        },
        {
            "chapter": 1,
            "verse": 35,
            "name": "1 Chronicles 1:35",
            "text": "Os filhos de Esa\u00fa: Elifaz, Reuel, Je\u00fas, Jal\u00e3o, e Cor\u00e1. "
        },
        {
            "chapter": 1,
            "verse": 36,
            "name": "1 Chronicles 1:36",
            "text": "Os filhos de Elifaz: Tem\u00e3, Omar, Zefi, Gat\u00e3, Quenaz, Timna, e Amaleque. "
        },
        {
            "chapter": 1,
            "verse": 37,
            "name": "1 Chronicles 1:37",
            "text": "Os filhos de Reuel: Naate, Zer\u00e1, Sam\u00e1, e Miz\u00e1. "
        },
        {
            "chapter": 1,
            "verse": 38,
            "name": "1 Chronicles 1:38",
            "text": "Os filhos de Seir: Lot\u00e3, Sobal, Zibe\u00e3o, Ana, Disom, Eser, e Dis\u00e3. "
        },
        {
            "chapter": 1,
            "verse": 39,
            "name": "1 Chronicles 1:39",
            "text": "Os filhos de Lot\u00e3: Hori, e Hom\u00e3: e Timna foi irm\u00e3 de Lot\u00e3. "
        },
        {
            "chapter": 1,
            "verse": 40,
            "name": "1 Chronicles 1:40",
            "text": "Os filhos de Sobal: Ali\u00e3, Manaate, Ebal, Sefi e On\u00e3. Os filhos de Zibe\u00e3o foram: Ai\u00e1, e An\u00e1. "
        },
        {
            "chapter": 1,
            "verse": 41,
            "name": "1 Chronicles 1:41",
            "text": "Disom foi filho de An\u00e1: e os filhos de Disom foram Hanr\u00e3o, Esb\u00e3, Itr\u00e3 e Quer\u00e3. "
        },
        {
            "chapter": 1,
            "verse": 42,
            "name": "1 Chronicles 1:42",
            "text": "Os filhos de Eser foram: Bil\u00e3, Zaav\u00e3, e Jaac\u00e3. Os filhos de Dis\u00e3: Uz e Ar\u00e3. "
        },
        {
            "chapter": 1,
            "verse": 43,
            "name": "1 Chronicles 1:43",
            "text": "E estes s\u00e3o os reis que reinaram na terra de Edom, antes que reinasse algum rei sobre os filhos de Israel: Bel\u00e1, filho de Beor; e o nome de sua cidade era Dinab\u00e1. "
        },
        {
            "chapter": 1,
            "verse": 44,
            "name": "1 Chronicles 1:44",
            "text": "Bel\u00e1 morreu, e reinou em seu lugar Jobabe, filho de Zer\u00e1, de Bozra. "
        },
        {
            "chapter": 1,
            "verse": 45,
            "name": "1 Chronicles 1:45",
            "text": "Jobabe morreu, e reinou em seu lugar Hus\u00e3o, da terra dos Temanitas. "
        },
        {
            "chapter": 1,
            "verse": 46,
            "name": "1 Chronicles 1:46",
            "text": "Hus\u00e3o morreu, e reinou em seu lugar Hadade, filho de Bedade, o qual feriu aos midianitas no campo de Moabe; e o nome de sua cidade era Avite. "
        },
        {
            "chapter": 1,
            "verse": 47,
            "name": "1 Chronicles 1:47",
            "text": "Hadade morreu, e reinou em seu lugar Sanl\u00e1, de Masreca. "
        },
        {
            "chapter": 1,
            "verse": 48,
            "name": "1 Chronicles 1:48",
            "text": "Sanl\u00e1 morreu, e reinou em seu lugar Saul de Reobote, que est\u00e1 junto ao rio. "
        },
        {
            "chapter": 1,
            "verse": 49,
            "name": "1 Chronicles 1:49",
            "text": "E Saul morreu, e reinou em seu lugar Baal-Han\u00e3, filho de Acbor. "
        },
        {
            "chapter": 1,
            "verse": 50,
            "name": "1 Chronicles 1:50",
            "text": "E Baal-Han\u00e3 morreu, e reinou em seu lugar Hadade, cuja cidade tinha por nome Pa\u00ed; e o nome de sua mulher era Meetabel, filha de Matrede, a filha de Mezaabe. "
        },
        {
            "chapter": 1,
            "verse": 51,
            "name": "1 Chronicles 1:51",
            "text": "Hadade morreu. E os pr\u00edncipes em Edom foram: o pr\u00edncipe Timna, o pr\u00edncipe Ali\u00e1, o pr\u00edncipe Jetete, "
        },
        {
            "chapter": 1,
            "verse": 52,
            "name": "1 Chronicles 1:52",
            "text": "O pr\u00edncipe Oolibama, o pr\u00edncipe El\u00e1, o pr\u00edncipe Pinom, "
        },
        {
            "chapter": 1,
            "verse": 53,
            "name": "1 Chronicles 1:53",
            "text": "O pr\u00edncipe Quenaz, o pr\u00edncipe Tem\u00e3, o pr\u00edncipe Mibzar, "
        },
        {
            "chapter": 1,
            "verse": 54,
            "name": "1 Chronicles 1:54",
            "text": "O pr\u00edncipe Magdiel, o pr\u00edncipe Ir\u00e3. Estes foram os pr\u00edncipe de Edom. "
        }
    ]
}