{
    "translation": "K'ekchi' Bible",
    "abbreviation": "kekchi",
    "lang": "kek",
    "language": "Kekchi",
    "direction": "LTR",
    "encoding": "UTF-8",
    "book_nr": 13,
    "book_name": "1 Chronicles",
    "chapter": 19,
    "name": "1 Chronicles 19",
    "verses": [
        {
            "chapter": 19,
            "verse": 1,
            "name": "1 Chronicles 19:1",
            "text": "Mokon chic quicam laj Nahas, lix reyeb li ralal xc\u02c8ajol laj Am\u00f3n. Ut a\u02c8 chic laj Han\u00fan li ralal qui-oc chok\u02c8 xreyeb laj Siria chok\u02c8 re\u0331kaj lix yucua\u02c8. "
        },
        {
            "chapter": 19,
            "verse": 2,
            "name": "1 Chronicles 19:2",
            "text": "Li rey David quixye: \u2014La\u0331in tincua\u0331nk sa\u02c8 usilal riq\u02c8uin laj Han\u00fan jo\u02c8 nak quicuan sa\u02c8 usilal cuiq\u02c8uin laj Nahas lix yucua\u02c8, chan. Jo\u02c8can nak quixtaklaheb lix takl riq\u02c8uin laj Han\u00fan chixc\u02c8ojobanquil xch\u02c8o\u0331l xban xcamic lix yucua\u02c8. Que\u02c8cuulac lix takl laj David sa\u02c8 xna\u02c8ajeb li ralal xc\u02c8ajol laj Am\u00f3n, chi xc\u02c8ojobanquil xch\u02c8o\u0331l laj Han\u00fan. "
        },
        {
            "chapter": 19,
            "verse": 3,
            "name": "1 Chronicles 19:3",
            "text": "Abanan eb li cuanqueb xcuanquil sa\u02c8 xya\u0331nkeb li ralal xc\u02c8ajol laj Am\u00f3n que\u02c8xye re laj Han\u00fan: \u2014\u00bfMa nacapa\u0331b la\u0331at nak li rey David xtaklaheb chak lix takl arin yal re xq\u02c8uebal xlok\u02c8al la\u0331 yucua\u02c8 ut re xc\u02c8ojobanquil a\u0331ch\u02c8o\u0331l? \u00bfMa inc\u02c8a\u02c8 nacaq\u02c8ue retal nak quixtaklaheb chak arin chixq\u02c8uebal retal li katenamit? chanqueb. "
        },
        {
            "chapter": 19,
            "verse": 4,
            "name": "1 Chronicles 19:4",
            "text": "Jo\u02c8can nak laj Han\u00fan quixchapeb lix takl laj David ut quixtakla xjobal lix macheb ut que\u02c8xjach sa\u02c8 xyi li rak\u02c8eb. Quicuulac toj chiru li ra\u02c8eb. Quixtaklaheb cui\u02c8chic sa\u02c8 lix tenamiteb. "
        },
        {
            "chapter": 19,
            "verse": 5,
            "name": "1 Chronicles 19:5",
            "text": "Eb a\u02c8an que\u02c8co\u0331eb. Nak laj David quirabi li c\u02c8a\u02c8ru que\u02c8xc\u02c8ul, quixtakla xc\u02c8ulbaleb xban nak yo\u0331 xxuta\u0331neb. Quixtakla xyebal reheb nak te\u02c8cana\u0331k Jeric\u00f3 toj ta\u0331chamok\u02c8 cui\u02c8chic lix macheb. Chirix a\u02c8an te\u02c8suk\u02c8i\u0331k sa\u02c8 lix tenamiteb. "
        },
        {
            "chapter": 19,
            "verse": 6,
            "name": "1 Chronicles 19:6",
            "text": "Eb li ralal xc\u02c8ajol laj Am\u00f3n que\u02c8xq\u02c8ue retal nak xic\u02c8 chic te\u02c8ilek\u02c8 xban laj David. Jo\u02c8can nak laj Han\u00fan ut eb li ralal xc\u02c8ajol laj Am\u00f3n que\u02c8xtakla cuakib ciento riq\u02c8uin oxc\u02c8a\u0331l (660) quintal li plata re xtojbal li carruaje re pletic jo\u02c8 eb ajcui\u02c8 li te\u02c8ch\u02c8e\u02c8ok reheb re te\u02c8xic chi pletic riq\u02c8uin laj David. Eb a\u02c8an que\u02c8chal chak sa\u02c8 eb li na\u02c8ajej Mesopotamia, ut Siria, Maaca ut Soba. "
        },
        {
            "chapter": 19,
            "verse": 7,
            "name": "1 Chronicles 19:7",
            "text": "Que\u02c8xtoj cablaju xca\u02c8c\u02c8a\u0331l mil (32,000) chi carruaje, jo\u02c8 eb ajcui\u02c8 li te\u02c8ch\u02c8e\u02c8ok reheb li carruajes. Ut que\u02c8xtoj ajcui\u02c8 li rey re Maaca. Eb a\u02c8an que\u02c8chal ut que\u02c8xyi\u0331b lix na\u02c8ajeb sa\u02c8 xca\u02c8yaba\u0331l li tenamit Medeba. Ut que\u02c8xch\u02c8utub ajcui\u02c8 ribeb laj Am\u00f3n sa\u02c8 lix tenamiteb ut que\u02c8co\u0331eb chi pletic. "
        },
        {
            "chapter": 19,
            "verse": 8,
            "name": "1 Chronicles 19:8",
            "text": "Laj David quirabi resil ut quixtakla laj Joab rochbeneb chixjunileb li soldado li cauheb rib chi pletic. "
        },
        {
            "chapter": 19,
            "verse": 9,
            "name": "1 Chronicles 19:9",
            "text": "Eb li ralal xc\u02c8ajol laj Am\u00f3n que\u02c8co\u0331eb chi pletic ut que\u02c8xxakab ribeb sa\u02c8 li oqueba\u0331l re lix tenamiteb. Ut eb li rey li que\u02c8chal chi pletic rochbeneb, jalan que\u02c8xq\u02c8ue cui\u02c8 ribeb sa\u02c8 li c\u02c8aleba\u0331l. "
        },
        {
            "chapter": 19,
            "verse": 10,
            "name": "1 Chronicles 19:10",
            "text": "Laj Joab quiril nak te\u02c8cha\u0331lk chiru ut chirix chi pletic. Jo\u02c8can nak quixsic\u02c8 ruheb lix soldado li k\u02c8axal cauheb rib sa\u02c8 xya\u0331nkeb laj Israel. Ut quixye reheb nak te\u02c8xic chi pletic riq\u02c8uineb laj Siria. "
        },
        {
            "chapter": 19,
            "verse": 11,
            "name": "1 Chronicles 19:11",
            "text": "Ut quixcanabeb li jun ch\u02c8u\u0331tal chic chi soldado rubel xtakl laj Abisai li ri\u0331tz\u02c8in ut quixye reheb nak te\u02c8xic chi pletic riq\u02c8uineb laj Am\u00f3n. "
        },
        {
            "chapter": 19,
            "verse": 12,
            "name": "1 Chronicles 19:12",
            "text": "Quixye re laj Abisai: \u2014Cui ta\u0331cuil nak eb li soldado laj Siria yo\u0331keb chi numta\u0331c sa\u02c8 inbe\u0331n, la\u0331at tattenk\u02c8a\u0331nk cue. Ut cui eb li ralal xc\u02c8ajol laj Am\u00f3n yo\u0331keb chi numta\u0331c sa\u02c8 a\u0331be\u0331n, la\u0331in tintenk\u02c8a\u0331nk a\u0331cue. "
        },
        {
            "chapter": 19,
            "verse": 13,
            "name": "1 Chronicles 19:13",
            "text": "Cauhak taxak a\u0331ch\u02c8o\u0331l. Chikacacuubresi kach\u02c8o\u0331l chi pletic. Chikacolak rix li katenamit la\u0331o aj Israel, lix tenamit li Dios. Ut li Ka\u0331cua\u02c8 taxak tixba\u0331nu li c\u02c8a\u02c8ru naraj a\u02c8an, chan. "
        },
        {
            "chapter": 19,
            "verse": 14,
            "name": "1 Chronicles 19:14",
            "text": "Laj Joab ut eb li soldado li cuanqueb rochben que\u02c8nach\u02c8oc riq\u02c8uineb li soldado aj Siria re te\u02c8pletik riq\u02c8uineb. Abanan eb laj Siria que\u02c8e\u0331lelic chiruheb. "
        },
        {
            "chapter": 19,
            "verse": 15,
            "name": "1 Chronicles 19:15",
            "text": "Eb li ralal xc\u02c8ajol laj Am\u00f3n que\u02c8ril nak que\u02c8e\u0331lelic eb li soldado laj Siria. Jo\u02c8can nak que\u02c8e\u0331lelic ajcui\u02c8 eb a\u02c8an chiruheb laj Abisai. Que\u02c8oc sa\u02c8 lix tenamit re te\u02c8xcol ribeb. Ut laj Joab quisuk\u02c8i cui\u02c8chic Jerusal\u00e9n. "
        },
        {
            "chapter": 19,
            "verse": 16,
            "name": "1 Chronicles 19:16",
            "text": "Eb laj Siria que\u02c8xq\u02c8ue retal nak que\u02c8numta laj Israel sa\u02c8 xbe\u0331neb. Jo\u02c8can nak que\u02c8xtakla lix takleb riq\u02c8uineb laj Siria li cuanqueb jun pac\u02c8al li nima\u02c8 Eufrates. Laj Sofac, li nataklan sa\u02c8 xbe\u0331neb lix soldado laj Hadad-ezer, a\u02c8an li yo\u0331 chi c\u02c8amoc xbeheb. "
        },
        {
            "chapter": 19,
            "verse": 17,
            "name": "1 Chronicles 19:17",
            "text": "Nak li rey David quirabi resil, que\u02c8xch\u02c8utub ribeb chixjunileb li solda\u0331deb laj Israel ut que\u02c8co\u0331eb jun pac\u02c8al li nima\u02c8 Jord\u00e1n. Ut que\u02c8xcauresi ribeb re te\u02c8pletik riq\u02c8uineb. Ut nak ac xtaklaheb que\u02c8oc chi pletic. "
        },
        {
            "chapter": 19,
            "verse": 18,
            "name": "1 Chronicles 19:18",
            "text": "Ut eb laj Siria que\u02c8e\u0331lelic cui\u02c8chic chiruheb laj Israel. Abanan laj David ut eb lix soldado que\u02c8xcamsiheb cuukub mil (7,000) xcomoneb li neque\u02c8xic sa\u02c8 li carruaje. Ut que\u02c8xcamsiheb ajcui\u02c8 ca\u02c8c\u02c8a\u0331l mil (40,000) chi cui\u0331nk li neque\u02c8xic chi rokeb. Ut que\u02c8xcamsi ajcui\u02c8 laj Sofac li nataklan sa\u02c8 xbe\u0331neb lix solda\u0331deb laj Siria. "
        },
        {
            "chapter": 19,
            "verse": 19,
            "name": "1 Chronicles 19:19",
            "text": "Eb li rey li cuanqueb rubel xcuanquil laj Hadad-ezer que\u02c8ril nak eb laj Israel que\u02c8numta sa\u02c8 xbe\u0331neb. Jo\u02c8can nak que\u02c8xq\u02c8ue ribeb rubel xcuanquileb laj Israel. Ut que\u02c8xc\u02c8am cui\u02c8chic ribeb sa\u02c8 usilal riq\u02c8uin li rey David. Ut eb laj Siria inc\u02c8a\u02c8 chic que\u02c8raj xtenk\u02c8anquileb laj Am\u00f3n. "
        }
    ]
}