{
    "translation": "Masoretic Text parallel to the Samaritan Pentateuch",
    "abbreviation": "spmt",
    "lang": "he",
    "language": "Hebrew",
    "direction": "RTL",
    "encoding": "UTF-8",
    "book_nr": 9,
    "book_name": "1 Samuel",
    "chapter": 8,
    "name": "1 Samuel 8",
    "verses": [
        {
            "chapter": 8,
            "verse": 1,
            "name": "1 Samuel 8:1",
            "text": ""
        },
        {
            "chapter": 8,
            "verse": 2,
            "name": "1 Samuel 8:2",
            "text": ""
        },
        {
            "chapter": 8,
            "verse": 3,
            "name": "1 Samuel 8:3",
            "text": ""
        },
        {
            "chapter": 8,
            "verse": 4,
            "name": "1 Samuel 8:4",
            "text": ""
        },
        {
            "chapter": 8,
            "verse": 5,
            "name": "1 Samuel 8:5",
            "text": ""
        },
        {
            "chapter": 8,
            "verse": 6,
            "name": "1 Samuel 8:6",
            "text": ""
        },
        {
            "chapter": 8,
            "verse": 7,
            "name": "1 Samuel 8:7",
            "text": ""
        },
        {
            "chapter": 8,
            "verse": 8,
            "name": "1 Samuel 8:8",
            "text": ""
        },
        {
            "chapter": 8,
            "verse": 9,
            "name": "1 Samuel 8:9",
            "text": ""
        },
        {
            "chapter": 8,
            "verse": 10,
            "name": "1 Samuel 8:10",
            "text": ""
        },
        {
            "chapter": 8,
            "verse": 11,
            "name": "1 Samuel 8:11",
            "text": ""
        },
        {
            "chapter": 8,
            "verse": 12,
            "name": "1 Samuel 8:12",
            "text": ""
        },
        {
            "chapter": 8,
            "verse": 13,
            "name": "1 Samuel 8:13",
            "text": ""
        },
        {
            "chapter": 8,
            "verse": 14,
            "name": "1 Samuel 8:14",
            "text": ""
        },
        {
            "chapter": 8,
            "verse": 15,
            "name": "1 Samuel 8:15",
            "text": ""
        },
        {
            "chapter": 8,
            "verse": 16,
            "name": "1 Samuel 8:16",
            "text": ""
        },
        {
            "chapter": 8,
            "verse": 17,
            "name": "1 Samuel 8:17",
            "text": ""
        },
        {
            "chapter": 8,
            "verse": 18,
            "name": "1 Samuel 8:18",
            "text": ""
        },
        {
            "chapter": 8,
            "verse": 19,
            "name": "1 Samuel 8:19",
            "text": ""
        },
        {
            "chapter": 8,
            "verse": 20,
            "name": "1 Samuel 8:20",
            "text": ""
        },
        {
            "chapter": 8,
            "verse": 21,
            "name": "1 Samuel 8:21",
            "text": ""
        },
        {
            "chapter": 8,
            "verse": 22,
            "name": "1 Samuel 8:22",
            "text": ""
        }
    ]
}