{
    "translation": "Svenska Folkbibeln (1998)",
    "abbreviation": "swefolk1998",
    "lang": "sv",
    "language": "Swedish",
    "direction": "LTR",
    "encoding": "UTF-8",
    "book_nr": 1,
    "book_name": "Genesis",
    "chapter": 34,
    "name": "Genesis 34",
    "verses": [
        {
            "chapter": 34,
            "verse": 1,
            "name": "Genesis 34:1",
            "text": "Men Dina, den dotter som Lea hade f\u00f6tt \u00e5t Jakob, gick ut f\u00f6r att tr\u00e4ffa flickorna i landet."
        },
        {
            "chapter": 34,
            "verse": 2,
            "name": "Genesis 34:2",
            "text": "Sikem som var son till hiveen Hamor, fursten i landet, fick se henne och tog henne till sig. Han l\u00e5g med henne och f\u00f6rnedrade henne."
        },
        {
            "chapter": 34,
            "verse": 3,
            "name": "Genesis 34:3",
            "text": "Men hans hj\u00e4rta f\u00e4ste sig vid Jakobs dotter Dina. Han \u00e4lskade flickan och talade v\u00e4nligt med henne."
        },
        {
            "chapter": 34,
            "verse": 4,
            "name": "Genesis 34:4",
            "text": "Och Sikem sade till sin fader Hamor: \"Skaffa mig den flickan till hustru.\" "
        },
        {
            "chapter": 34,
            "verse": 5,
            "name": "Genesis 34:5",
            "text": "Jakob fick h\u00f6ra att hans dotter Dina hade blivit orenad, men eftersom hans s\u00f6ner var ute p\u00e5 marken med boskapen teg Jakob till dess de kom hem."
        },
        {
            "chapter": 34,
            "verse": 6,
            "name": "Genesis 34:6",
            "text": "Men Sikems fader Hamor gick ut till Jakob f\u00f6r att tala med honom."
        },
        {
            "chapter": 34,
            "verse": 7,
            "name": "Genesis 34:7",
            "text": "N\u00e4r Jakobs s\u00f6ner kom hem fr\u00e5n marken och fick h\u00f6ra vad som h\u00e4nt, k\u00e4nde de sorg och vrede \u00f6ver vad Sikem gjort. Att han hade legat med Jakobs dotter var en galenskap i Israel, n\u00e5got som inte fick ske. "
        },
        {
            "chapter": 34,
            "verse": 8,
            "name": "Genesis 34:8",
            "text": "Men Hamor talade med dem och sade: \"Min son Sikem har f\u00e4st sig vid er syster. Ge henne \u00e5t honom till hustru."
        },
        {
            "chapter": 34,
            "verse": 9,
            "name": "Genesis 34:9",
            "text": "Gift in er hos oss. Ge oss era d\u00f6ttrar s\u00e5 kan ni ta v\u00e5ra d\u00f6ttrar till hustrur."
        },
        {
            "chapter": 34,
            "verse": 10,
            "name": "Genesis 34:10",
            "text": "Sl\u00e5 er ner hos oss och landet skall ligga \u00f6ppet f\u00f6r er. Bo h\u00e4r och flytta omkring och skaffa er \u00e4godelar.\""
        },
        {
            "chapter": 34,
            "verse": 11,
            "name": "Genesis 34:11",
            "text": "Och Sikem sade till hennes far och hennes br\u00f6der: \"L\u00e5t mig finna n\u00e5d f\u00f6r era \u00f6gon. Det ni beg\u00e4r vill jag ge er."
        },
        {
            "chapter": 34,
            "verse": 12,
            "name": "Genesis 34:12",
            "text": "Beg\u00e4r av mig hur stor brudg\u00e5va och annan g\u00e5va som helst. Jag vill ge vad ni fordrar av mig. Ge mig bara flickan till hustru.\" "
        },
        {
            "chapter": 34,
            "verse": 13,
            "name": "Genesis 34:13",
            "text": "Jakobs s\u00f6ner svarade Sikem och hans fader Hamor med list, eftersom han hade orenat deras syster Dina."
        },
        {
            "chapter": 34,
            "verse": 14,
            "name": "Genesis 34:14",
            "text": "De sade till dem: \"Vi kan inte g\u00e5 med p\u00e5 att ge v\u00e5r syster \u00e5t en man som har f\u00f6rhud. S\u00e5dant h\u00e5ller vi f\u00f6r skamligt."
        },
        {
            "chapter": 34,
            "verse": 15,
            "name": "Genesis 34:15",
            "text": "Vi kan g\u00f6ra er till viljes bara p\u00e5 det villkoret att ni blir som vi och att alla m\u00e4n bland er l\u00e5ter omsk\u00e4ra sig."
        },
        {
            "chapter": 34,
            "verse": 16,
            "name": "Genesis 34:16",
            "text": "D\u00e5 skall vi ge v\u00e5ra d\u00f6ttrar \u00e5t er och sj\u00e4lva ta era d\u00f6ttrar till hustrur. Vi skall d\u00e5 bo bland er och bli ett enda folk med er."
        },
        {
            "chapter": 34,
            "verse": 17,
            "name": "Genesis 34:17",
            "text": "Men om ni inte lyssnar till oss och inte l\u00e5ter er omsk\u00e4ras, kommer vi att ta v\u00e5r syster och dra bort.\""
        },
        {
            "chapter": 34,
            "verse": 18,
            "name": "Genesis 34:18",
            "text": "Hamor och hans son Sikem tyckte att deras f\u00f6rslag l\u00e4t bra."
        },
        {
            "chapter": 34,
            "verse": 19,
            "name": "Genesis 34:19",
            "text": "Och den unge mannen dr\u00f6jde inte med att g\u00f6ra som de sade, ty han var k\u00e4r i Jakobs dotter. Och han var mer ansedd i sin fars hus \u00e4n n\u00e5gon annan. "
        },
        {
            "chapter": 34,
            "verse": 20,
            "name": "Genesis 34:20",
            "text": "Hamor och hans son Sikem gick till stadsporten och talade till m\u00e4nnen i staden. De sade:"
        },
        {
            "chapter": 34,
            "verse": 21,
            "name": "Genesis 34:21",
            "text": "\"Dessa m\u00e4n \u00e4r fredligt sinnade mot oss. Vi b\u00f6r d\u00e4rf\u00f6r l\u00e5ta dem bo i landet och flytta omkring h\u00e4r. Landet har ju gott om utrymme f\u00f6r dem. Vi tar deras d\u00f6ttrar till hustrur \u00e5t oss och ger dem v\u00e5ra d\u00f6ttrar."
        },
        {
            "chapter": 34,
            "verse": 22,
            "name": "Genesis 34:22",
            "text": "Men endast p\u00e5 ett villkor kommer m\u00e4nnen att g\u00f6ra oss till viljes och bo bland oss och bli ett enda folk med oss: att alla m\u00e4n hos oss l\u00e5ter omsk\u00e4ra sig liksom de sj\u00e4lva \u00e4r omskurna."
        },
        {
            "chapter": 34,
            "verse": 23,
            "name": "Genesis 34:23",
            "text": "D\u00e5 kommer deras boskap och egendom och alla deras dragdjur att tillh\u00f6ra oss. L\u00e5t oss d\u00e4rf\u00f6r g\u00f6ra dem till viljes s\u00e5 att de bor kvar bland oss.\""
        },
        {
            "chapter": 34,
            "verse": 24,
            "name": "Genesis 34:24",
            "text": "Och folket lydde Hamor och hans son Sikem. Alla m\u00e4n, s\u00e5 m\u00e5nga som bodde innanf\u00f6r stadsporten, l\u00e4t omsk\u00e4ra sig. "
        },
        {
            "chapter": 34,
            "verse": 25,
            "name": "Genesis 34:25",
            "text": "Men p\u00e5 tredje dagen, n\u00e4r m\u00e4nnen var sjuka av s\u00e5ren, tog Jakobs tv\u00e5 s\u00f6ner Simeon och Levi, Dinas br\u00f6der, var sitt sv\u00e4rd och \u00f6verf\u00f6ll ov\u00e4ntat staden och d\u00f6dade alla som var av manligt k\u00f6n."
        },
        {
            "chapter": 34,
            "verse": 26,
            "name": "Genesis 34:26",
            "text": "Ocks\u00e5 Hamor och hans son Sikem d\u00f6dade de med sv\u00e4rd och tog med sig Dina ut ur Sikems hus och gav sig i v\u00e4g."
        },
        {
            "chapter": 34,
            "verse": 27,
            "name": "Genesis 34:27",
            "text": "Och Jakobs s\u00f6ner gick fram \u00f6ver de slagna och plundrade staden, d\u00e4rf\u00f6r att deras syster hade blivit orenad."
        },
        {
            "chapter": 34,
            "verse": 28,
            "name": "Genesis 34:28",
            "text": "De tog deras f\u00e5r, n\u00f6tboskap och \u00e5snor, b\u00e5de det som fanns i staden och det som fanns ute p\u00e5 f\u00e4lten."
        },
        {
            "chapter": 34,
            "verse": 29,
            "name": "Genesis 34:29",
            "text": "Alla deras \u00e4godelar och alla deras barn och kvinnor f\u00f6rde de bort som byte tillsammans med allt annat som fanns i husen."
        },
        {
            "chapter": 34,
            "verse": 30,
            "name": "Genesis 34:30",
            "text": "Men Jakob sade till Simeon och Levi: \"Ni har dragit olycka \u00f6ver mig och gjort mig f\u00f6rhatlig f\u00f6r dem som bor i landet, kananeerna och perisseerna. Mitt folk \u00e4r bara en liten skara. De kommer nu att g\u00e5 samman mot mig och sl\u00e5 ihj\u00e4l mig. B\u00e5de jag och mitt hus kommer att f\u00f6rg\u00f6ras.\""
        },
        {
            "chapter": 34,
            "verse": 31,
            "name": "Genesis 34:31",
            "text": "Men de svarade: \"Skulle man d\u00e5 f\u00e5 behandla v\u00e5r syster som en hora?\""
        }
    ]
}