{
    "translation": "\u8056\u7d93 (\u6587\u7406\u548c\u5408)",
    "abbreviation": "chiunl",
    "lang": "zh",
    "language": "Chinese",
    "direction": "LTR",
    "encoding": "UTF-8",
    "book_nr": 17,
    "book_name": "Esther",
    "chapter": 3,
    "name": "Esther 3",
    "verses": [
        {
            "chapter": 3,
            "verse": 1,
            "name": "Esther 3:1",
            "text": "\u53a5\u5f8c\u3001\u738b\u64e2\u4e9e\u7532\u65cf\u4eba\u3001\u54c8\u7c73\u5927\u4ed6\u5b50\u54c8\u66fc\u3001\u5c0a\u4e4b\u3001\u4f7f\u5176\u4f4d\u9ad8\u65bc\u5de6\u53f3\u8af8\u7267\u4f2f\u3001"
        },
        {
            "chapter": 3,
            "verse": 2,
            "name": "Esther 3:2",
            "text": "\u5728\u5fa1\u9580\u4e4b\u81e3\u50d5\u3001\u4ff1\u9075\u738b\u547d\u3001\u8dea\u62dc\u54c8\u66fc\u3001\u60df\u672b\u5e95\u6539\u4e0d\u8dea\u4e0d\u62dc\u3001"
        },
        {
            "chapter": 3,
            "verse": 3,
            "name": "Esther 3:3",
            "text": "\u5fa1\u9580\u81e3\u50d5\u554f\u4e4b\u66f0\u3001\u723e\u595a\u9055\u738b\u547d\u3001"
        },
        {
            "chapter": 3,
            "verse": 4,
            "name": "Esther 3:4",
            "text": "\u65e5\u8aeb\u672b\u5e95\u6539\u3001\u672b\u5e95\u6539\u4e0d\u807d\u3001\u8846\u4ee5\u544a\u54c8\u66fc\u3001\u6b32\u89c0\u672b\u5e95\u6539\u4e8b\u4e4b\u7a76\u7adf\u3001\u84cb\u672b\u5e95\u6539\u4ee5\u5df1\u7232\u7336\u5927\u4eba\u544a\u4e4b\u4e5f\u3001"
        },
        {
            "chapter": 3,
            "verse": 5,
            "name": "Esther 3:5",
            "text": "\u54c8\u66fc\u898b\u672b\u5e95\u6539\u4e0d\u8dea\u4e0d\u62dc\u3001\u5247\u6012\u751a\u3001"
        },
        {
            "chapter": 3,
            "verse": 6,
            "name": "Esther 3:6",
            "text": "\u8846\u4ee5\u672b\u5e95\u6539\u570b\u65cf\u544a\u54c8\u66fc\u3001\u54c8\u66fc\u4ee5\u7232\u6bba\u6b64\u4e00\u4eba\u3001\u7336\u5fae\u4e8b\u8033\u3001\u6b32\u5c07\u4e9e\u54c8\u96a8\u9b6f\u738b\u901a\u570b\u3001\u672b\u5e95\u6539\u4e4b\u540c\u5b97\u7336\u5927\u4eba\u3001\u76e1\u884c\u6bb2\u6ec5\u3001"
        },
        {
            "chapter": 3,
            "verse": 7,
            "name": "Esther 3:7",
            "text": "\u4e9e\u54c8\u96a8\u9b6f\u738b\u5341\u4e8c\u5e74\u6b63\u6708\u3001\u537d\u5c3c\u6563\u6708\u3001\u4eba\u5728\u54c8\u66fc\u524d\u3001\u6309\u65e5\u8207\u6708\u63a3\u666e\u73e5\u3001\u537d\u7c64\u3001\u81f3\u5341\u4e8c\u6708\u3001\u537d\u4e9e\u9054\u6708\u7232\u5409\u3001"
        },
        {
            "chapter": 3,
            "verse": 8,
            "name": "Esther 3:8",
            "text": "\u54c8\u66fc\u594f\u738b\u66f0\u3001\u6709\u4e00\u65cf\u3001\u6563\u8655\u723e\u570b\u8af8\u5dde\u3001\u5176\u5f8b\u7570\u4e4e\u842c\u6c11\u3001\u4e0d\u9075\u738b\u5f8b\u3001\u5bb9\u4e4b\u65bc\u738b\u7121\u76ca\u3001"
        },
        {
            "chapter": 3,
            "verse": 9,
            "name": "Esther 3:9",
            "text": "\u5982\u738b\u6085\u4e4b\u3001\u53ef\u9812\u660e\u8a54\u3001\u7fe6\u6ec5\u65af\u65cf\u3001\u6211\u5c07\u4ee5\u9280\u4e00\u842c\u4ed6\u9023\u5f97\u3001\u4ed8\u65bc\u638c\u570b\u5e11\u8005\u3001\u4ee5\u5132\u738b\u5eab\u3001"
        },
        {
            "chapter": 3,
            "verse": 10,
            "name": "Esther 3:10",
            "text": "\u738b\u812b\u6307\u74b0\u3001\u7d66\u4e9e\u7532\u65cf\u4eba\u3001\u54c8\u7c73\u5927\u4ed6\u5b50\u54c8\u66fc\u3001\u537d\u7336\u5927\u4eba\u4e4b\u6575\u3001"
        },
        {
            "chapter": 3,
            "verse": 11,
            "name": "Esther 3:11",
            "text": "\u66f0\u3001\u6b64\u9280\u8cdc\u723e\u3001\u65af\u6c11\u4ea6\u4ed8\u723e\u3001\u96a8\u610f\u5f85\u4e4b\u3001"
        },
        {
            "chapter": 3,
            "verse": 12,
            "name": "Esther 3:12",
            "text": "\u6b63\u6708\u5341\u4e09\u65e5\u3001\u9042\u53ec\u738b\u4e4b\u7e55\u5beb\u3001\u5f9e\u54c8\u66fc\u6240\u547d\u66f8\u8a54\u3001\u4f9d\u5404\u5dde\u6587\u5b57\u3001\u5404\u65cf\u65b9\u8a00\u3001\u7e55\u4ee5\u5fa1\u540d\u3001\u9210\u4ee5\u738b\u4e4b\u6307\u74b0\u3001\u666e\u544a\u738b\u81e3\u3001\u5404\u5dde\u65b9\u4f2f\u3001\u5404\u65cf\u6c11\u9577\u3001"
        },
        {
            "chapter": 3,
            "verse": 13,
            "name": "Esther 3:13",
            "text": "\u9063\u90f5\u50b3\u8a54\u5404\u5dde\u3001\u4f7f\u65bc\u5341\u4e8c\u6708\u3001\u537d\u4e9e\u9054\u6708\u5341\u4e09\u65e5\u3001\u4e00\u65e5\u4e4b\u9593\u3001\u5c07\u7336\u5927\u4eba\u3001\u7121\u8ad6\u8001\u5e7c\u3001\u5b30\u5b69\u5a66\u5973\u3001\u76e1\u884c\u6bba\u622e\u7fe6\u6ec5\u3001\u4ffe\u5176\u9695\u4ea1\u3001\u53d6\u5176\u8ca8\u8ca1\u3001\u4ee5\u7232\u5df1\u6709\u3001"
        },
        {
            "chapter": 3,
            "verse": 14,
            "name": "Esther 3:14",
            "text": "\u6240\u9304\u4e4b\u8a54\u3001\u9812\u884c\u5404\u5dde\u3001\u5ba3\u544a\u5404\u65cf\u3001\u4f7f\u4e4b\u9810\u5099\u3001\u4ee5\u5f85\u662f\u65e5\u3001"
        },
        {
            "chapter": 3,
            "verse": 15,
            "name": "Esther 3:15",
            "text": "\u5728\u66f8\u73ca\u5bae\u964d\u8a54\u3001\u90f5\u9a5b\u9075\u547d\u3001\u5176\u884c\u751a\u901f\u3001\u738b\u8207\u54c8\u66fc\u5750\u800c\u98f2\u3001\u60df\u66f8\u73ca\u9091\u3001\u5247\u7d1b\u64fe\u7109\u3001"
        }
    ]
}