{
    "translation": "King James Version (1769) including Apocrypha, with Strongs Numbers and Morphology",
    "abbreviation": "kjva",
    "lang": "en",
    "language": "English",
    "direction": "LTR",
    "encoding": "UTF-8",
    "book_nr": 14,
    "book_name": "2 Chronicles",
    "chapter": 13,
    "name": "2 Chronicles 13",
    "verses": [
        {
            "chapter": 13,
            "verse": 1,
            "name": "2 Chronicles 13:1",
            "text": "Now in the eighteenth year of king Jeroboam began Abijah to reign over Judah."
        },
        {
            "chapter": 13,
            "verse": 2,
            "name": "2 Chronicles 13:2",
            "text": "He reigned three years in Jerusalem. His mother's name also was Michaiah the daughter of Uriel of Gibeah. And there was war between Abijah and Jeroboam."
        },
        {
            "chapter": 13,
            "verse": 3,
            "name": "2 Chronicles 13:3",
            "text": "And Abijah set the battle in array with an army of valiant men of war, even four hundred thousand chosen men: Jeroboam also set the battle in array against him with eight hundred thousand chosen men, being mighty men of valour."
        },
        {
            "chapter": 13,
            "verse": 4,
            "name": "2 Chronicles 13:4",
            "text": "And Abijah stood up upon mount Zemaraim, which is in mount Ephraim, and said, Hear me, thou Jeroboam, and all Israel;"
        },
        {
            "chapter": 13,
            "verse": 5,
            "name": "2 Chronicles 13:5",
            "text": "Ought ye not to know that the Lord God of Israel gave the kingdom over Israel to David for ever, even to him and to his sons by a covenant of salt?"
        },
        {
            "chapter": 13,
            "verse": 6,
            "name": "2 Chronicles 13:6",
            "text": "Yet Jeroboam the son of Nebat, the servant of Solomon the son of David, is risen up, and hath rebelled against his lord."
        },
        {
            "chapter": 13,
            "verse": 7,
            "name": "2 Chronicles 13:7",
            "text": "And there are gathered unto him vain men, the children of Belial, and have strengthened themselves against Rehoboam the son of Solomon, when Rehoboam was young and tenderhearted, and could not withstand them."
        },
        {
            "chapter": 13,
            "verse": 8,
            "name": "2 Chronicles 13:8",
            "text": "And now ye think to withstand the kingdom of the Lord in the hand of the sons of David; and ye be a great multitude, and there are with you golden calves, which Jeroboam made you for gods."
        },
        {
            "chapter": 13,
            "verse": 9,
            "name": "2 Chronicles 13:9",
            "text": "Have ye not cast out the priests of the Lord, the sons of Aaron, and the Levites, and have made you priests after the manner of the nations of other lands? so that whosoever cometh to consecrate himself with a young bullock and seven rams, the same may be a priest of them that are no gods."
        },
        {
            "chapter": 13,
            "verse": 10,
            "name": "2 Chronicles 13:10",
            "text": "But as for us, the Lord is our God, and we have not forsaken him; and the priests, which minister unto the Lord, are the sons of Aaron, and the Levites wait upon their business:"
        },
        {
            "chapter": 13,
            "verse": 11,
            "name": "2 Chronicles 13:11",
            "text": "And they burn unto the Lord every morning and every evening burnt sacrifices and sweet incense: the shewbread also set they in order upon the pure table; and the candlestick of gold with the lamps thereof, to burn every evening: for we keep the charge of the Lord our God; but ye have forsaken him."
        },
        {
            "chapter": 13,
            "verse": 12,
            "name": "2 Chronicles 13:12",
            "text": "And, behold, God himself is with us for our captain, and his priests with sounding trumpets to cry alarm against you. O children of Israel, fight ye not against the Lord God of your fathers; for ye shall not prosper."
        },
        {
            "chapter": 13,
            "verse": 13,
            "name": "2 Chronicles 13:13",
            "text": "But Jeroboam caused an ambushment to come about behind them: so they were before Judah, and the ambushment was behind them."
        },
        {
            "chapter": 13,
            "verse": 14,
            "name": "2 Chronicles 13:14",
            "text": "And when Judah looked back, behold, the battle was before and behind: and they cried unto the Lord, and the priests sounded with the trumpets."
        },
        {
            "chapter": 13,
            "verse": 15,
            "name": "2 Chronicles 13:15",
            "text": "Then the men of Judah gave a shout: and as the men of Judah shouted, it came to pass, that God smote Jeroboam and all Israel before Abijah and Judah."
        },
        {
            "chapter": 13,
            "verse": 16,
            "name": "2 Chronicles 13:16",
            "text": "And the children of Israel fled before Judah: and God delivered them into their hand."
        },
        {
            "chapter": 13,
            "verse": 17,
            "name": "2 Chronicles 13:17",
            "text": "And Abijah and his people slew them with a great slaughter: so there fell down slain of Israel five hundred thousand chosen men."
        },
        {
            "chapter": 13,
            "verse": 18,
            "name": "2 Chronicles 13:18",
            "text": "Thus the children of Israel were brought under at that time, and the children of Judah prevailed, because they relied upon the Lord God of their fathers."
        },
        {
            "chapter": 13,
            "verse": 19,
            "name": "2 Chronicles 13:19",
            "text": "And Abijah pursued after Jeroboam, and took cities from him, Beth\u2013el with the towns thereof, and Jeshanah with the towns thereof, and Ephrain with the towns thereof."
        },
        {
            "chapter": 13,
            "verse": 20,
            "name": "2 Chronicles 13:20",
            "text": "Neither did Jeroboam recover strength again in the days of Abijah: and the Lord struck him, and he died."
        },
        {
            "chapter": 13,
            "verse": 21,
            "name": "2 Chronicles 13:21",
            "text": "But Abijah waxed mighty, and married fourteen wives, and begat twenty and two sons, and sixteen daughters."
        },
        {
            "chapter": 13,
            "verse": 22,
            "name": "2 Chronicles 13:22",
            "text": "And the rest of the acts of Abijah, and his ways, and his sayings, are written in the story of the prophet Iddo. "
        }
    ]
}