{
    "translation": "Danish OT1871 + NT1907 with original orthography",
    "abbreviation": "daot1871nt1907",
    "lang": "da",
    "language": "Danish",
    "direction": "LTR",
    "encoding": "UTF-8",
    "book_nr": 14,
    "book_name": "2 Chronicles",
    "chapter": 9,
    "name": "2 Chronicles 9",
    "verses": [
        {
            "chapter": 9,
            "verse": 1,
            "name": "2 Chronicles 9:1",
            "text": "Og Dronningen af Seba h\u00f8rte Salomos Rygte og kom for at pr\u00f8ve Salomo med m\u00f8rke Taler til Jerusalem med en saare stor Skare af Kameler, som bare vellugtende Urter og Guld i Mangfoldighed og dyrebare Stene; og hun kom til Salomo og talte med ham alt det, som var i hendes Hjerte. "
        },
        {
            "chapter": 9,
            "verse": 2,
            "name": "2 Chronicles 9:2",
            "text": "Og Salomo udtydede hende alle hendes Ord, og der var ikke et Ord skjult for Salomo, som han ej udtydede hende. "
        },
        {
            "chapter": 9,
            "verse": 3,
            "name": "2 Chronicles 9:3",
            "text": "Da Dronningen af Seba saa Salomos Visdom og det Hus, som han havde bygget, "
        },
        {
            "chapter": 9,
            "verse": 4,
            "name": "2 Chronicles 9:4",
            "text": "og Maden til hans Bord og hans Tjeneres Bolig, og hvordan de stode, som opvartede ham, og deres Kl\u00e6der og hans Mundsk\u00e6nke og deres Kl\u00e6der og hans Opgang, ad hvilken han gik op til Herrens Hus: Da var hun ude af sig selv. "
        },
        {
            "chapter": 9,
            "verse": 5,
            "name": "2 Chronicles 9:5",
            "text": "Og hun sagde til Kongen: Det Ord er sandt, som jeg har h\u00f8rt i mit Land om dine Sager og om din Visdom; "
        },
        {
            "chapter": 9,
            "verse": 6,
            "name": "2 Chronicles 9:6",
            "text": "og jeg vilde ikke tro deres Ord, f\u00f8rend jeg kom, og mine \u00d8jne have set det, og se, ikke Halvdelen er mig forkyndt af din megen Visdom; du har mere end efter Rygtet, som jeg har h\u00f8rt. "
        },
        {
            "chapter": 9,
            "verse": 7,
            "name": "2 Chronicles 9:7",
            "text": "Salige ere dine M\u00e6nd, og salige ere disse dine Tjenere, som stedse staa for dit Ansigt, og som h\u00f8re din Visdom! "
        },
        {
            "chapter": 9,
            "verse": 8,
            "name": "2 Chronicles 9:8",
            "text": "Lovet v\u00e6re Herren din Gud, som havde Lyst til dig, at s\u00e6tte dig paa sin Trone til Konge for Herren, din Gud! Fordi din Gud elsker Israel og vil bef\u00e6ste det evindelig, derfor satte han dig til Konge over dem, til at g\u00f8re Ret og Retf\u00e6rdighed. "
        },
        {
            "chapter": 9,
            "verse": 9,
            "name": "2 Chronicles 9:9",
            "text": "Og hun gav Kongen hundrede og tyve Centner Guld og saare mange vellugtende Urter og dyrebare Stene; der var ikke saadanne Urter som disse, hvilke Dronningen af Seba gav Kong Salomo. "
        },
        {
            "chapter": 9,
            "verse": 10,
            "name": "2 Chronicles 9:10",
            "text": "Dertil med havde Hurams Tjenere og Salomos Tjenere bragt Guld fra Ofir og bragt Hebentr\u00e6 og dyrebare Stene. "
        },
        {
            "chapter": 9,
            "verse": 11,
            "name": "2 Chronicles 9:11",
            "text": "Og af Hebentr\u00e6et lod Kongen g\u00f8re Gange til Herrens Hus og til Kongens Hus, samt Harper og Psaltre til Sangerne; og der blev ikke tilforn set saadant som dette i Judas Land. "
        },
        {
            "chapter": 9,
            "verse": 12,
            "name": "2 Chronicles 9:12",
            "text": "Og Kong Salomo gav Dronningen af Seba alt det, hun havde Lyst til, som hun beg\u00e6rede, foruden Gaver for det, som hun havde medbragt til Kongen; og hun vendte om og drog til sit Land, hun og hendes Tjenere."
        },
        {
            "chapter": 9,
            "verse": 13,
            "name": "2 Chronicles 9:13",
            "text": " Og V\u00e6gten paa det Guld, som kom til Salomo paa eet Aar, var seks Hundrede og seks og tresindstyve Centner Guld "
        },
        {
            "chapter": 9,
            "verse": 14,
            "name": "2 Chronicles 9:14",
            "text": "foruden det, som indkom fra Toldbetjentene, og det, som K\u00f8bm\u00e6ndene bragte; og alle Kongerne af Arabia og Fyrsterne i Landet bragte Guld og S\u00f8lv til Salomo. "
        },
        {
            "chapter": 9,
            "verse": 15,
            "name": "2 Chronicles 9:15",
            "text": "Og Kong Salomo lod g\u00f8re to Hundrede Skjolde af drevet Guld; seks Hundrede Sekel drevet Guld lod han gaa paa hvert Skjold; "
        },
        {
            "chapter": 9,
            "verse": 16,
            "name": "2 Chronicles 9:16",
            "text": "og tre Hundrede smaa Skjolde af drevet Guld, tre Hundrede Sekel Guld lod han gaa paa hvert Skjold; og Kongen lagde dem i Libanons Skovhus. "
        },
        {
            "chapter": 9,
            "verse": 17,
            "name": "2 Chronicles 9:17",
            "text": "Og Kongen lod g\u00f8re en stor Trone af Elfenben og beslog den med purt Guld. "
        },
        {
            "chapter": 9,
            "verse": 18,
            "name": "2 Chronicles 9:18",
            "text": "Og Tronen havde seks Trin og en Skammel, som med Guld vare fastgjorte til Tronen, og der var Arme paa begge Sider omkring S\u00e6dets Sted, og to L\u00f8ver stode ved Armene. "
        },
        {
            "chapter": 9,
            "verse": 19,
            "name": "2 Chronicles 9:19",
            "text": "Og der stod tolv L\u00f8ver paa de seks Trin paa begge Sider; saadant er ikke gjort i noget Rige. "
        },
        {
            "chapter": 9,
            "verse": 20,
            "name": "2 Chronicles 9:20",
            "text": "Og alle Kong Salomos Drikkekar vare af Guld, og alle Karrene i Libanons Skovhus vare af fint Guld; S\u00f8lv agtedes ikke for noget i Salomos Dage. "
        },
        {
            "chapter": 9,
            "verse": 21,
            "name": "2 Chronicles 9:21",
            "text": "Thi Kongens Skibe fore til Tharsis med Hurams Tjenere; een Gang i tre Aar kom de Tharsis Skibe, som bragte Guld og S\u00f8lv, Elfenben, Aber og Paafugle."
        },
        {
            "chapter": 9,
            "verse": 22,
            "name": "2 Chronicles 9:22",
            "text": " Og Kong Salomo blev st\u00f8rre end alle Konger paa Jorden ved Rigdom og Visdom. "
        },
        {
            "chapter": 9,
            "verse": 23,
            "name": "2 Chronicles 9:23",
            "text": "Og alle Jordens Konger s\u00f8gte Salomos Ansigt for at h\u00f8re hans Visdom, som Gud havde givet i hans Hjerte. "
        },
        {
            "chapter": 9,
            "verse": 24,
            "name": "2 Chronicles 9:24",
            "text": "Og de f\u00f8rte hver sin Sk\u00e6nk: S\u00f8lvkar og Guldkar og Kl\u00e6der, Rustninger og vellugtende Urter, Heste og Muler, hvilket skete aarligt. "
        },
        {
            "chapter": 9,
            "verse": 25,
            "name": "2 Chronicles 9:25",
            "text": "Og Salomo havde fire Tusinde Stalde til Heste og Vogne og tolv Tusinde Ryttere, og han lod dem blive i Vognst\u00e6derne og hos Kongen i Jerusalem. "
        },
        {
            "chapter": 9,
            "verse": 26,
            "name": "2 Chronicles 9:26",
            "text": "Og han herskede over alle Kongerne, fra Floden og indtil Filisternes Land og indtil \u00c6gyptens Landem\u00e6rke. "
        },
        {
            "chapter": 9,
            "verse": 27,
            "name": "2 Chronicles 9:27",
            "text": "Og Kongen gjorde S\u00f8lvet i Jerusalem som Stenene og gjorde Cedertr\u00e6erne som Morb\u00e6rtr\u00e6erne, der ere i Lavlandet i Mangfoldighed."
        },
        {
            "chapter": 9,
            "verse": 28,
            "name": "2 Chronicles 9:28",
            "text": "Og man udf\u00f8rte Heste til Salomo fra \u00c6gypten og fra alle Landene."
        },
        {
            "chapter": 9,
            "verse": 29,
            "name": "2 Chronicles 9:29",
            "text": "Men det \u00f8vrige af Salomos Handeler, de f\u00f8rste og de sidste, ere de Ting ikke skrevne i Profeten Nathans Kr\u00f8nike og i Siloniten Ahias Profeti og i Seeren Jeddis Syn imod Jeroboam, Nebats S\u00f8n? "
        },
        {
            "chapter": 9,
            "verse": 30,
            "name": "2 Chronicles 9:30",
            "text": "Og Salomo regerede i Jerusalem over al Israel fyrretyve Aar. "
        },
        {
            "chapter": 9,
            "verse": 31,
            "name": "2 Chronicles 9:31",
            "text": "Og Salomo laa med sine F\u00e6dre, og de begrove ham i Davids, hans Faders, Stad; og Roboam, hans S\u00f8n, blev Konge i hans Sted."
        }
    ]
}