{
    "translation": "beibl.net",
    "abbreviation": "welbeiblnet",
    "lang": "cy",
    "language": "Welsh",
    "direction": "LTR",
    "encoding": "UTF-8",
    "book_nr": 38,
    "book_name": "Zechariah",
    "chapter": 5,
    "name": "Zechariah 5",
    "verses": [
        {
            "chapter": 5,
            "verse": 1,
            "name": "Zechariah 5:1",
            "text": ""
        },
        {
            "chapter": 5,
            "verse": 2,
            "name": "Zechariah 5:2",
            "text": ""
        },
        {
            "chapter": 5,
            "verse": 3,
            "name": "Zechariah 5:3",
            "text": ""
        },
        {
            "chapter": 5,
            "verse": 4,
            "name": "Zechariah 5:4",
            "text": ""
        },
        {
            "chapter": 5,
            "verse": 5,
            "name": "Zechariah 5:5",
            "text": ""
        },
        {
            "chapter": 5,
            "verse": 6,
            "name": "Zechariah 5:6",
            "text": ""
        },
        {
            "chapter": 5,
            "verse": 7,
            "name": "Zechariah 5:7",
            "text": ""
        },
        {
            "chapter": 5,
            "verse": 8,
            "name": "Zechariah 5:8",
            "text": ""
        },
        {
            "chapter": 5,
            "verse": 9,
            "name": "Zechariah 5:9",
            "text": ""
        },
        {
            "chapter": 5,
            "verse": 10,
            "name": "Zechariah 5:10",
            "text": ""
        },
        {
            "chapter": 5,
            "verse": 11,
            "name": "Zechariah 5:11",
            "text": ""
        }
    ]
}