{
    "translation": "Kitab Awal-Jaman maka Kitab Injil",
    "abbreviation": "sml_bl_2008",
    "lang": "sml",
    "language": "Sama",
    "direction": "LTR",
    "encoding": "UTF-8",
    "book_nr": 46,
    "book_name": "1 Corinthians",
    "chapter": 1,
    "name": "1 Corinthians 1",
    "verses": [
        {
            "chapter": 1,
            "verse": 1,
            "name": "1 Corinthians 1:1",
            "text": "Sulat itu min aku, si Paul, maka min si Sostenes dakayu' danakantam. Tapene' aku sabab min kahandak Tuhan, kawakilan aku e' si Isa Al-Masi magnasihat lapalna.  "
        },
        {
            "chapter": 1,
            "verse": 2,
            "name": "1 Corinthians 1:2",
            "text": "  Ka'am saga jama'a suku' Tuhan magtipun ma da'ira Kurintu ya pamasampayan kami sulat itu. Bay kam tapene' asal e' Tuhan bo' kam tahinang a'ana sussi, palsuku'anna ma sabab si Isa Al-Masi ya parakayu'anbi. Pinasampay isab sulat itu ni saga a'a kamemon ma sabarang lahat, sasuku amudji Pangh\u016b' Isa Al-Masi, ya Pangh\u016b' sig\u0101m maka Pangh\u016b'tam.  "
        },
        {
            "chapter": 1,
            "verse": 3,
            "name": "1 Corinthians 1:3",
            "text": "  Mura-murahan, bang pa'in kam pinaniya'an tatabangan maka kasannangan atay min Mma'tam Tuhan maka min si Isa Al-Masi Pangh\u016b'tam.  "
        },
        {
            "chapter": 1,
            "verse": 4,
            "name": "1 Corinthians 1:4",
            "text": "    Magsukul aku ni Tuhan sakahaba' waktu ma pasalanbi, ma sabab ase'na maka lasana, ya pamuwanna ma ka'am bay min si Isa Al-Masi."
        },
        {
            "chapter": 1,
            "verse": 5,
            "name": "1 Corinthians 1:5",
            "text": "Mamarahi heka kah\u0101panbi indaginis ma sabab Al-Masi ya parakayu'anbi, luba'-lagi'na ma bissalabi maka ma pangita'ubi kamemon."
        },
        {
            "chapter": 1,
            "verse": 6,
            "name": "1 Corinthians 1:6",
            "text": "Ahogot na pandu' pasal Al-Masi ma deyom pangatayanbi,"
        },
        {
            "chapter": 1,
            "verse": 7,
            "name": "1 Corinthians 1:7",
            "text": "angkan tubus na kam ma kapandayan indaginis, hinabubi angalagaran waktu pamatuwa' si Isa Al-Masi Pangh\u016b'tam."
        },
        {
            "chapter": 1,
            "verse": 8,
            "name": "1 Corinthians 1:8",
            "text": "Pinahogot e'na imanbi sampay ni llaw kahinapusan bo' supaya halam aniya' tamak ataybi bang ta'abut llaw pangahukum manusiya' e' Pangh\u016b'tam si Isa Al-Masi."
        },
        {
            "chapter": 1,
            "verse": 9,
            "name": "1 Corinthians 1:9",
            "text": "Kapangandolan asal Tuhan, ya bay amene' ka'am bo' supaya kam makapagda'atay maka Anakna si Isa Al-Masi ya Pangh\u016b'tam.   "
        },
        {
            "chapter": 1,
            "verse": 10,
            "name": "1 Corinthians 1:10",
            "text": "    Saga dauranakanku, kabuwanan aku kapatut e' si Isa Al-Masi Pangh\u016b'tam, angkan aku angamu' junjung itu ni ka'am kamemon: magsulut-siyuluti kam. Da'a kam magkaniya-kaniya. Subay kam dauyunan to'ongan ma maksudbi maka ma niyatbi."
        },
        {
            "chapter": 1,
            "verse": 11,
            "name": "1 Corinthians 1:11",
            "text": "Angkan tasambatku palkala' itu, saga dauranakanku, sabab aniya' min luma' si Kaluya bay angahaka'an aku aniya' palsagga'an ma ka'am dansehe'an."
        },
        {
            "chapter": 1,
            "verse": 12,
            "name": "1 Corinthians 1:12",
            "text": "Hatina mbal maguyun pamikilbi, sabab aniya' ilu magpina'in: \u201cAku itu ameya' ma si Paul.\u201d Aniya' isab ah'lling: \u201cAku itu ameya' ma si Apollos.\u201d Aniya' ah'lling: \u201cAku itu ameya' ma si Petros.\u201d Maka aniya' gi' isab magpina'in, yuk-i,\u201cAku itu ameya' ma Al-Masi.\u201d"
        },
        {
            "chapter": 1,
            "verse": 13,
            "name": "1 Corinthians 1:13",
            "text": "Pagka buwatt\u0113', b\u0101'nu Al-Masi bay pinagsalik-salik! Sai bah\u0101' bay amatay ma h\u0101g ma sababbi? Aku bah\u0101'? Bay bah\u0101' kam pinandi tanda' in ka'am suku'ku?  "
        },
        {
            "chapter": 1,
            "verse": 14,
            "name": "1 Corinthians 1:14",
            "text": "  Magsukul to'ongan aku ni Tuhan sabab halam aniya' sai-sai bay pandiku, haliyu min si Krispus maka si Gayus."
        },
        {
            "chapter": 1,
            "verse": 15,
            "name": "1 Corinthians 1:15",
            "text": "Angkan halam aniya' makapah'lling in iya bay pinandi bo' beya' ma aku."
        },
        {
            "chapter": 1,
            "verse": 16,
            "name": "1 Corinthians 1:16",
            "text": "\u0100, yamboho' taentomku si Estepanos magtai'anak in\u0101n. Bay sig\u0101m tapandiku, sag\u014d' halam aniya' taentomku sadd\u012b min sig\u0101m."
        },
        {
            "chapter": 1,
            "verse": 17,
            "name": "1 Corinthians 1:17",
            "text": "Sabab halam aku bay sinoho' e' Al-Masi magpandi. Sin\u014d' sadja aku magpasaplag lapalna ah\u0101p. Maka subay mbal paggunaku bissala alalom luwas bay min pangita'uku. Halam aniya' kawasa ma pagnasihatku liyu min kamatay Al-Masi ma h\u0101g.   "
        },
        {
            "chapter": 1,
            "verse": 18,
            "name": "1 Corinthians 1:18",
            "text": "    Ya lapal pasal kamatay Al-Masi ma h\u0101g, ni\u014dnan lapal karupangan e' saga a'a ya anudju nalka'. Sag\u014d' bang ma kitam ya anudju sulga', in lapal itu pamatuwa'an kawasa Tuhan."
        },
        {
            "chapter": 1,
            "verse": 19,
            "name": "1 Corinthians 1:19",
            "text": "Aniya' tasulat ma deyom Kitab, yukna,  \u201cPaka'atku pangita'u saga a'a alalom pangita'una. La'ananku akkal sig\u0101m, sasuku alanga pangadji'na.\u201d "
        },
        {
            "chapter": 1,
            "verse": 20,
            "name": "1 Corinthians 1:20",
            "text": "Manjari ai kamattihan saga a'a alalom pangita'una, maka saga a'a alanga pangadji'na? Ai isab kamattihan saga a'a apanday magjawab ma dunya pinjaman itu? Ai dapat sig\u0101m? Sabab pinahati kitam e' Tuhan in akkal manusiya' itu halam aniya' kap\u016bsanna.  "
        },
        {
            "chapter": 1,
            "verse": 21,
            "name": "1 Corinthians 1:21",
            "text": "  Alalom to'ongan asal panahu'an Tuhan angkan halam aniya' makata'uwan iya bang luwas sadja min ta'u manusiya'. Ya kagara'an Tuhan in manusiya' subay lappasan min mulka' bang pa'in pagsab'nnalanna lapal ya pagnasihat kami itu, minsan ni\u014dnan lapal karupangan e' saga a'a kasehe'an."
        },
        {
            "chapter": 1,
            "verse": 22,
            "name": "1 Corinthians 1:22",
            "text": "Saga bangsa Yahudi bilahi to'ongan ang'nda' saga hinang kawasahan bo' supaya sig\u0101m am'nnal, maka saga bangsa Gir\u012bk bilahi pinakalehan pangita'u alalom."
        },
        {
            "chapter": 1,
            "verse": 23,
            "name": "1 Corinthians 1:23",
            "text": "Sag\u014d' ya pagnasihat kami Al-Masi nilansang ni h\u0101g pinapatay pamapuwas dusa manusiya'. Ala'at atay saga bangsa Yahudi ma lapal itu, maka binista karupangan e' saga bangsa ngga'i ka Yahudi."
        },
        {
            "chapter": 1,
            "verse": 24,
            "name": "1 Corinthians 1:24",
            "text": "Sag\u014d' saga a'a bay tapene' e' Tuhan tahinang suku'na, bangsa Yahudi maka bangsa sadd\u012b, magkahagad ma Al-Masi in iya kawasa maka pangita'u Tuhan."
        },
        {
            "chapter": 1,
            "verse": 25,
            "name": "1 Corinthians 1:25",
            "text": "Sabab kagara'an Tuhan itu, minsan binista sali' karupangan e' saga a'a, alalom gi' pangita'una min pangita'u manusiya' kamemon. Maka minsan yuk saga a'a in Tuhan mbal makaga'os pagka si Isa Al-Masi bay pasagaranna amatay, aga'os du to'ongan iya labi min ga'osan manusiya'.  "
        },
        {
            "chapter": 1,
            "verse": 26,
            "name": "1 Corinthians 1:26",
            "text": "  Na, saga dauranakanku, entomunbi bay kah\u0101lanbi tagna' ma halam gi' kam tapene' e' Tuhan. Kulang pangadji'bi, kulang ga'osbi, maka kulang isab kabangsabi."
        },
        {
            "chapter": 1,
            "verse": 27,
            "name": "1 Corinthians 1:27",
            "text": "Sag\u014d' minsan na, tu'ud pinagtu'uran e' Tuhan subay pene'na sasuku binista e' manusiya' halam taga-pangita'u, bo' supaya magkaiya'an saga a'a taga-pangita'u. Pinene' e'na saga a'a ya binista e' manusiya' halam aniya' ga'osanna, bo' supaya magkaiya'an saga a'a ga'osan."
        },
        {
            "chapter": 1,
            "verse": 28,
            "name": "1 Corinthians 1:28",
            "text": "Pinene' e' Tuhan saga a'a pinaggunyak-gunyak e' kasehe'an, saga a'a binista halam taga-p\u016bs, supaya kinata'uwan ai-ai ahalga' ma bistahan manusiya', halam aniya' halga'na ma Tuhan."
        },
        {
            "chapter": 1,
            "verse": 29,
            "name": "1 Corinthians 1:29",
            "text": "Manjari halam aniya' makapagmalangkahi bang paharap ma Tuhan."
        },
        {
            "chapter": 1,
            "verse": 30,
            "name": "1 Corinthians 1:30",
            "text": "Ka'am ilu tabowa e' Tuhan parakayu' ni Al-Masi, maka Al-Masi ya tahinang po'onan pangita'u e' Tuhan. Min Al-Masi isab ya angkan kitam taitung abontol e' Tuhan, tahinang a'ana sussi. Jari apuwas na kitam min pang'ntanan dusa."
        },
        {
            "chapter": 1,
            "verse": 31,
            "name": "1 Corinthians 1:31",
            "text": "Angkan taluwa' ya bay binissala ma deyom Kitab, ya yuk-i, \u201cSai-sai bilahi magmalangkahi, subay pagmalangkahianna ya bay tahinang e' Pangh\u016b'.\u201d   "
        }
    ]
}