{
    "translation": "Kitab Awal-Jaman maka Kitab Injil",
    "abbreviation": "sml_bl_2008",
    "lang": "sml",
    "language": "Sama",
    "direction": "LTR",
    "encoding": "UTF-8",
    "book_nr": 46,
    "book_name": "1 Corinthians",
    "chapter": 7,
    "name": "1 Corinthians 7",
    "verses": [
        {
            "chapter": 7,
            "verse": 1,
            "name": "1 Corinthians 7:1",
            "text": "    Na, in pasal bay tilawbi aku ma lapal sulatbi, buwattitu panambungku. Bang ma aku, ah\u0101p bang l'lla mbal magh'nda."
        },
        {
            "chapter": 7,
            "verse": 2,
            "name": "1 Corinthians 7:2",
            "text": "Sag\u014d' aheka tabowa-bowa maghinang kala'atan d'nda maka l'lla, angkan kam d'nda maka l'lla subay pinahola'an kamemon."
        },
        {
            "chapter": 7,
            "verse": 3,
            "name": "1 Corinthians 7:3",
            "text": "In a'a maglakibini subay magd\u016bl-baya' d'nda maka l'lla, subay sig\u0101 mbal magkahukaw."
        },
        {
            "chapter": 7,
            "verse": 4,
            "name": "1 Corinthians 7:4",
            "text": "Sabab in d'nda mbal makapagbaya' ma baranna, subay h'llana. Damikiyanna du in l'lla isab mbal makapagbaya' ma baranna, subay isab h'ndana."
        },
        {
            "chapter": 7,
            "verse": 5,
            "name": "1 Corinthians 7:5",
            "text": "Ka'am maglakibini, da'a kahukawinbi batin. Makajari bang asal bay pagsulutanbi subay da'a magbihing daka pilambahangi bo' supaya aniya' waktu pangarapbi ni Tuhan. Sag\u014d' da'a tangguhinbi pagbihing pabalik, bo' supaya kam mbal tabowa e' sasat saitan bang ganta' mbal kasandalan napsu baranbi."
        },
        {
            "chapter": 7,
            "verse": 6,
            "name": "1 Corinthians 7:6",
            "text": "Patut isab kam magh'nda atawa magh'lla, sag\u014d' ngga'i ka panoho'anku."
        },
        {
            "chapter": 7,
            "verse": 7,
            "name": "1 Corinthians 7:7",
            "text": "Ya kabaya'anku in ka'am subay buwat aku mbal magh'nda. Sag\u014d' magsadd\u012b ya pangangganta' Tuhan ma dangan maka ma dangan, mbal magsali'-sali' kamemon.  "
        },
        {
            "chapter": 7,
            "verse": 8,
            "name": "1 Corinthians 7:8",
            "text": "  Na, ka'am saga subul maka budjang, maka ka'am saga balu, ya na itu pah'llingku ma ka'am: ah\u0101p bang kam mbal pinahola'an, buwat aku."
        },
        {
            "chapter": 7,
            "verse": 9,
            "name": "1 Corinthians 7:9",
            "text": "Sag\u014d' bang mbal tapaggatbi napsubi, magh'nda kam atawa magh'lla. Ah\u0101p lagi' kam pinahola'an min atiksa' anandalan napsu baranbi.  "
        },
        {
            "chapter": 7,
            "verse": 10,
            "name": "1 Corinthians 7:10",
            "text": "  Ka'am maglaulakibini, ya na itu panoho'anku ma ka'am, panoho'an deyo' bay min Pangh\u016b' Isa Al-Masi, ngga'i ka min baranku. Yukna in d'nda mbal manjari patiman min h'llana."
        },
        {
            "chapter": 7,
            "verse": 11,
            "name": "1 Corinthians 7:11",
            "text": "Sag\u014d' bang aniya' d'nda ganta' pabutas min h'llana, subay iya mbal maghola' pabalik, luwal bang pab\u012bng ni bay h'llana tagna'. Ya du l'lla subay da'a animanan h'ndana.  "
        },
        {
            "chapter": 7,
            "verse": 12,
            "name": "1 Corinthians 7:12",
            "text": "  Ya itu pah'llingku ma ka'am kasehe'an, lling min baranku sadja, ngga'i ka min Pangh\u016b' Isa. Saupamaku a'a maglakibini: bang l'lla iya bebeya'an si Isa, bo' h'ndana ngga'i ka, subay mbal tinimanan e'na h'ndana sat'ggol bilahi magdakayu' maka iya."
        },
        {
            "chapter": 7,
            "verse": 13,
            "name": "1 Corinthians 7:13",
            "text": "Damikiyanna bang d'nda ya bebeya'an si Isa, bo' h'llana ngga'i ka. Subay mbal tinimanan e'na h'llana sat'ggol h'llana bilahi magdakayu' maka iya."
        },
        {
            "chapter": 7,
            "verse": 14,
            "name": "1 Corinthians 7:14",
            "text": "Bang ka angandol ma si Isa, bo' paghola'nu mbal, tahalal iya e' Tuhan ma sabab pangandolnu. Tahalal isab e' Tuhan saga anakbi, jari mbal ka\u014dnan onde'-onde' halam tuhanna."
        },
        {
            "chapter": 7,
            "verse": 15,
            "name": "1 Corinthians 7:15",
            "text": "Malaingkan bang aniya' bebeya'an si Isa taga-h'nda atawa h'lla mbal angandol ma si Isa, bo' bilahi tu'ud patiman min iya, makajari sadja. Halam aniya' dusabi, aluhaya kam magtiman bang buwatt\u0113'. Ya kabaya'an Tuhan subay kam pasulut sadja."
        },
        {
            "chapter": 7,
            "verse": 16,
            "name": "1 Corinthians 7:16",
            "text": "Mbal isab kata'uwanbi bang ai kas\u014dnganna, kalu tabowa paghola'bi angandol ma si Isa ma sabab kah\u0101p kaul-pi'ilbi, ati lappasan na.   "
        },
        {
            "chapter": 7,
            "verse": 17,
            "name": "1 Corinthians 7:17",
            "text": "    Ya itu pamituwaku ma saga jama'a si Isa kamemon ma lahat dakayu' maka dakayu': ai-ai pamat'nna' Pangh\u016b' ma ka'am pakaniya-pakaniya, akuhinbi. Ai-ai bay katanamanbi tagna' kam pinene' e' Tuhan, da'a kam angangut papinda ni sadd\u012b."
        },
        {
            "chapter": 7,
            "verse": 18,
            "name": "1 Corinthians 7:18",
            "text": "Bang aniya' a'a asal magislam dah\u016b gi' min kapangaho'na ma Tuhan, mbal subay la'ananna bainatna pagislam. Damikiyanna isab bang a'a halam bay taislam, bo' angaho' na ma pangabbit Tuhan, da'a ya subay magpa'islam."
        },
        {
            "chapter": 7,
            "verse": 19,
            "name": "1 Corinthians 7:19",
            "text": "Sabab mbal aheya ma atay Tuhan magislam kitam atawa mbal. Ya sadja aheya ma atayna bang beya'tam saga panoho'anna."
        },
        {
            "chapter": 7,
            "verse": 20,
            "name": "1 Corinthians 7:20",
            "text": "Da'a kam apinda min bay kah\u0101lanbi tagna' kapangaho'bi ma Tuhan."
        },
        {
            "chapter": 7,
            "verse": 21,
            "name": "1 Corinthians 7:21",
            "text": "Bang ka bay banyaga' waktu kapamene' Tuhan ma ka'a, imaninbi. Sag\u014d' bang aniya' waktu kaluwasnu min pagbanyaga'an, na, paluwas ka."
        },
        {
            "chapter": 7,
            "verse": 22,
            "name": "1 Corinthians 7:22",
            "text": "Sabab bang banyaga' maka'aho' ameya' ma Pangh\u016b' Isa, alimaya iya ma bistahan Pangh\u016b'. Damikiyanna bang a'a ngga'i ka banyaga' maka'aho' ameya' ma Al-Masi, tabista iya banyaga' Pangh\u016b'na."
        },
        {
            "chapter": 7,
            "verse": 23,
            "name": "1 Corinthians 7:23",
            "text": "Ahalga' ya bay pangal'kkat ka'am min pang'ntanan dusa, angkan kam subay da'a pabanyaga' ni sai-sai, subay Tuhan sadja ya pabanyaga'anbi."
        },
        {
            "chapter": 7,
            "verse": 24,
            "name": "1 Corinthians 7:24",
            "text": "Saga dauranakanku, subay kam pat'ttog ma bay katanamanbi tagna' kam pinene' e' Tuhan. Pataptapunbi ataybi ni Tuhan.   "
        },
        {
            "chapter": 7,
            "verse": 25,
            "name": "1 Corinthians 7:25",
            "text": "    Na, in bay tilawbi pasal a'a halam taga-paghola', halam aniya' panoho'anku deyo' bay min Pangh\u016b' Isa, sag\u014d' paluwasku bang ai ma pamikilanku. Sag\u014d' kapangandol aku ma sabab ka'ase' Pangh\u016b' ma aku."
        },
        {
            "chapter": 7,
            "verse": 26,
            "name": "1 Corinthians 7:26",
            "text": "Bang ma aku, ah\u0101p lagi' mbal apinda min kabuwattilubi, sabab aheka kasusahan tum'kka ma patahunan \u012btu."
        },
        {
            "chapter": 7,
            "verse": 27,
            "name": "1 Corinthians 7:27",
            "text": "Sasuku kam taga-h'nda, da'a timaninbi. Sasuku kam halam taga-h'nda, da'a kam atuyu' magh'nda."
        },
        {
            "chapter": 7,
            "verse": 28,
            "name": "1 Corinthians 7:28",
            "text": "Sag\u014d' bang kam ganta' magh'nda ngga'i ka dusa. Saga budjang isab bang magh'lla, mbal magdusa. Ya po'on kam gara'anku da'a magh'nda atawa magh'lla, sabab kabaya'anku ma ka'am subay mbal pinananaman kasusahan ya maumu kalabayan e' a'a maglaulakibini.  "
        },
        {
            "chapter": 7,
            "verse": 29,
            "name": "1 Corinthians 7:29",
            "text": "  Saga dauranakan, mbal kitam at'ggol maitu ma dunya. Puwas minnitu a'a taga-anak-h'nda subay mbal sakit abimbang ma sig\u0101m bo' supaya alimaya maghinang ni Tuhan."
        },
        {
            "chapter": 7,
            "verse": 30,
            "name": "1 Corinthians 7:30",
            "text": "Bang a'a magdukka, subay ni'bbahan karukka'anna. Bang a'a magkalasigan, subay pasengod ni a'a halam aniya' kalasiganna. Bang a'a am'lli ai-ai subay mbal parulina bay b'llina he', sali' ngga'i ka dapuna."
        },
        {
            "chapter": 7,
            "verse": 31,
            "name": "1 Corinthians 7:31",
            "text": "Maka bang a'a angangguna kapanyapan dunya itu, subay mbal paheyana ma atay, sabab in dunya itu maka kajarihanna palabay sadja.  "
        },
        {
            "chapter": 7,
            "verse": 32,
            "name": "1 Corinthians 7:32",
            "text": "  Kabaya'anku subay halam aniya' makabimbang ka'am. Bang l'lla halam taga-paghola', ya sadja tapikilna hinangna ma Pangh\u016b' Isa bang buwattingga e'na makasulut atay Pangh\u016b'na."
        },
        {
            "chapter": 7,
            "verse": 33,
            "name": "1 Corinthians 7:33",
            "text": "Sag\u014d' bang a'a taga-h'nda, abimbang iya e' kalluman anak-h'ndana. Ya tapikilna na pa'in bang buwattingga e'na makasulut atay h'ndana he'."
        },
        {
            "chapter": 7,
            "verse": 34,
            "name": "1 Corinthians 7:34",
            "text": "Sali' abahagi' duwa pamikilna. Damikiyanna isab bang d'nda halam taga-h'lla, ya sadja tapikilna hinangna ma Pangh\u016b' Isa sabab kabaya'anna subay pinama-Tuhan ginhawa-baranna sampay pangatayanna. Sag\u014d' bang d'nda taga-h'lla na, ya na pa'in tapikilna saga kahinanganna ma anak-h'llana, sabab kabaya'anna subay makasulut atay h'llana."
        },
        {
            "chapter": 7,
            "verse": 35,
            "name": "1 Corinthians 7:35",
            "text": "Amissala aku buwattitu sabab aheya baya'ku anabangan ka'am, ngga'i ka ma sabab aniya' baya'ku amahunitan ka'am. Ya kabaya'anku to'ongan subay tahinangbi ai-ai ya apatut nihinang, bo' supaya ahantap palantarabi bo' supaya magmalilla' maghinang ma Pangh\u016b' Isa ma halam aniya' duwa-ruwabi.  "
        },
        {
            "chapter": 7,
            "verse": 36,
            "name": "1 Corinthians 7:36",
            "text": "  Na, in pasal pagtunang. Bang aniya' at'ggol kapagtunang sig\u0101, bo' ala'un-la'un na d'nda, ati makapikil l'lla in hinangna ma tunangna he' kulang asaltun, bang kabaya'anna magp\u016bn, patut sig\u0101 magkawin. Ngga'i ka dusa."
        },
        {
            "chapter": 7,
            "verse": 37,
            "name": "1 Corinthians 7:37",
            "text": "Sag\u014d' bang a'a magniyat subay mbal magp\u016bn maka tunangna, ati mbal abowa-bowa e' napsu baranna sabab tahatul e'na, taluwa' isab hinangna."
        },
        {
            "chapter": 7,
            "verse": 38,
            "name": "1 Corinthians 7:38",
            "text": "Ya hatulanna, ah\u0101p du bang a'a bilahi magkawin maka budjang ya tunangna, sag\u014d' labi gi' ah\u0101p bang iya mbal pakawin  "
        },
        {
            "chapter": 7,
            "verse": 39,
            "name": "1 Corinthians 7:39",
            "text": "  Na, balikanta lagi' pasal pagtiman. Bang d'nda taga-h'lla, mbal iya makaluhaya pakawin ni l'lla sadd\u012b sat'ggol allum bay h'llana tagna'. Sag\u014d' bang amatay na h'llana, puwas na iya, aluhaya iya magh'lla pab\u012bng ni l'lla kabaya'anna, bang pa'in pagkahina angandol ma Pangh\u016b' Isa."
        },
        {
            "chapter": 7,
            "verse": 40,
            "name": "1 Corinthians 7:40",
            "text": "Bang aku anganggara', labi ah\u0101p palasahan d'nda in\u0101n bang iya mbal pinahola'an pab\u012bng. Bang aku mbal as\u0101' anguyun isab R\u016b Tuhan.    "
        }
    ]
}