{
    "translation": "Lithuanian",
    "abbreviation": "lithuanian",
    "lang": "lt",
    "language": "Lithuanian",
    "direction": "LTR",
    "encoding": "UTF-8",
    "book_nr": 59,
    "book_name": "James",
    "chapter": 1,
    "name": "James 1",
    "verses": [
        {
            "chapter": 1,
            "verse": 1,
            "name": "James 1:1",
            "text": "Jok\u016bbas, Dievo ir Vie\u0161paties J\u0117zaus Kristaus tarnas, siun\u010dia sveikinimus dvylikai pasklidusi\u0173 gimini\u0173. "
        },
        {
            "chapter": 1,
            "verse": 2,
            "name": "James 1:2",
            "text": "Mano broliai, laikykite did\u017eiausiu d\u017eiaugsmu, kai patenkate \u012f visokius i\u0161bandymus. "
        },
        {
            "chapter": 1,
            "verse": 3,
            "name": "James 1:3",
            "text": "\u017dinokite, kad j\u016bs\u0173 tik\u0117jimo i\u0161bandymas ugdo i\u0161tverm\u0119, "
        },
        {
            "chapter": 1,
            "verse": 4,
            "name": "James 1:4",
            "text": "o i\u0161tverm\u0117 tesubr\u0119sta iki galo, kad b\u016btum\u0117te tobuli, subrend\u0119 ir nieko nestokotum\u0117te. "
        },
        {
            "chapter": 1,
            "verse": 5,
            "name": "James 1:5",
            "text": "Jei kuriam i\u0161 j\u016bs\u0173 tr\u016bksta i\u0161minties, tepra\u0161o Diev\u0105, kuris visiems dosniai duoda ir nepriekai\u0161tauja, ir jam bus suteikta. "
        },
        {
            "chapter": 1,
            "verse": 6,
            "name": "James 1:6",
            "text": "Bet tegul pra\u0161o tik\u0117damas, n\u0117 kiek neabejodamas, nes abejojantis pana\u0161us \u012f j\u016bros bang\u0105, varin\u0117jam\u0105 ir bla\u0161kom\u0105 v\u0117jo. "
        },
        {
            "chapter": 1,
            "verse": 7,
            "name": "James 1:7",
            "text": "Toksai \u017emogus tenemano k\u0105 nors gausi\u0105s i\u0161 Vie\u0161paties, \u2013 "
        },
        {
            "chapter": 1,
            "verse": 8,
            "name": "James 1:8",
            "text": "toks svyruojantis, visuose savo keliuose nepastovus \u017emogus. "
        },
        {
            "chapter": 1,
            "verse": 9,
            "name": "James 1:9",
            "text": "Tesigiria pa\u017eemintas brolis savo i\u0161auk\u0161tinimu, "
        },
        {
            "chapter": 1,
            "verse": 10,
            "name": "James 1:10",
            "text": "o turtuolis savo pa\u017eeminimu, nes jis i\u0161nyks kaip lauko g\u0117l\u0117. "
        },
        {
            "chapter": 1,
            "verse": 11,
            "name": "James 1:11",
            "text": "Juk pakyla saul\u0117, jos kaitra i\u0161d\u017eiovina \u017eolyn\u0105, ir jo \u017eiedas nubyra, jo i\u0161vaizdos gro\u017eis pranyksta. Taip ir turtuolis sunyks savo keliuose. "
        },
        {
            "chapter": 1,
            "verse": 12,
            "name": "James 1:12",
            "text": "Palaimintas \u017emogus, kuris i\u0161tveria pagundym\u0105, nes, kai bus i\u0161bandytas, jis gaus gyvenimo vainik\u0105, kur\u012f Vie\u0161pats pa\u017ead\u0117jo J\u012f mylintiems. "
        },
        {
            "chapter": 1,
            "verse": 13,
            "name": "James 1:13",
            "text": "N\u0117 vienas gundomas tenesako: \u201eEsu Dievo gundomas\u201c. Dievas negali b\u016bti gundomas blogiu ir pats nieko negundo. "
        },
        {
            "chapter": 1,
            "verse": 14,
            "name": "James 1:14",
            "text": "Kiekvienas yra gundomas, savo paties geismo pagrobtas ir suviliotas. "
        },
        {
            "chapter": 1,
            "verse": 15,
            "name": "James 1:15",
            "text": "Paskui u\u017esimezg\u0119s geismas pagimdo nuod\u0117m\u0119, o u\u017ebaigta nuod\u0117m\u0117 gimdo mirt\u012f. "
        },
        {
            "chapter": 1,
            "verse": 16,
            "name": "James 1:16",
            "text": "Neapsigaukite, mano mylimi broliai! "
        },
        {
            "chapter": 1,
            "verse": 17,
            "name": "James 1:17",
            "text": "Kiekvienas geras davinys ir kiekviena tobula dovana yra i\u0161 auk\u0161tybi\u0173, nu\u017eengia nuo \u0161viesybi\u0173 T\u0117vo, kuriame n\u0117ra permain\u0173 ir n\u0117 \u0161e\u0161\u0117lio keitimosi. "
        },
        {
            "chapter": 1,
            "verse": 18,
            "name": "James 1:18",
            "text": "Savo valia Jis pagimd\u0117 mus tiesos \u017eod\u017eiu, kad b\u016btume tarsi Jo k\u016brini\u0173 pirmieji vaisiai. "
        },
        {
            "chapter": 1,
            "verse": 19,
            "name": "James 1:19",
            "text": "\u017dinokite, mano mylimi broliai: kiekvienas \u017emogus teb\u016bna greitas klausyti, l\u0117tas kalb\u0117ti, l\u0117tas pykti. "
        },
        {
            "chapter": 1,
            "verse": 20,
            "name": "James 1:20",
            "text": "\u017dmogaus r\u016bstyb\u0117 nedaro Dievo teisumo. "
        },
        {
            "chapter": 1,
            "verse": 21,
            "name": "James 1:21",
            "text": "Tod\u0117l, atmet\u0119 vis\u0105 ne\u0161var\u0105 bei piktyb\u0117s gaus\u0105, su romumu priimkite \u012fdiegt\u0105j\u012f \u017eod\u012f, kuris gali i\u0161gelb\u0117ti j\u016bs\u0173 sielas. "
        },
        {
            "chapter": 1,
            "verse": 22,
            "name": "James 1:22",
            "text": "B\u016bkite \u017eod\u017eio vykdytojai, o ne vien klausytojai, apgaudin\u0117jantys patys save. "
        },
        {
            "chapter": 1,
            "verse": 23,
            "name": "James 1:23",
            "text": "Jei kas t\u0117ra \u017eod\u017eio klausytojas, o ne vykdytojas, tai jis pana\u0161us \u012f \u017emog\u0173, kuris \u017ei\u016bri \u012f savo gimt\u0105j\u012f veid\u0105 veidrodyje. "
        },
        {
            "chapter": 1,
            "verse": 24,
            "name": "James 1:24",
            "text": "Pasi\u017ei\u016br\u0117jo \u012f save ir nu\u0117jo, ir bematant pamir\u0161o, koks buvo. "
        },
        {
            "chapter": 1,
            "verse": 25,
            "name": "James 1:25",
            "text": "Bet kas \u012fsi\u017ei\u016bri \u012f tobul\u0105j\u012f laisv\u0117s \u012fstatym\u0105 ir j\u012f vykdo, kas tampa nebe klausytojas u\u017euomar\u0161a, bet darbo vykdytojas, tas bus palaimintas savo darbuose. "
        },
        {
            "chapter": 1,
            "verse": 26,
            "name": "James 1:26",
            "text": "Jei kas i\u0161 j\u016bs\u0173 mano es\u0105s pamaldus ir nepa\u017eaboja savo lie\u017euvio, bet apgaudin\u0117ja savo \u0161ird\u012f, to pamaldumas tu\u0161\u010dias. "
        },
        {
            "chapter": 1,
            "verse": 27,
            "name": "James 1:27",
            "text": "Tyras ir nesuteptas pamaldumas prie\u0161 Diev\u0105 ir T\u0117v\u0105 yra: lankyti na\u0161lai\u010dius ir na\u0161les j\u0173 sielvarte ir saugoti save nesuter\u0161t\u0105 \u0161iuo pasauliu.  "
        }
    ]
}