{
    "translation": "Urdu Geo Version (UGV)",
    "abbreviation": "urdugeo",
    "lang": "ur",
    "language": "Urdu",
    "direction": "RTL",
    "encoding": "UTF-8",
    "book_nr": 60,
    "book_name": "1 Peter",
    "chapter": 5,
    "name": "1 Peter 5",
    "verses": [
        {
            "chapter": 5,
            "verse": 1,
            "name": "1 Peter 5:1",
            "text": " \u0627\u0628 \u0645\u064e\u06cc\u06ba \u0622\u067e \u06a9\u0648 \u062c\u0648 \u062c\u0645\u0627\u0639\u062a\u0648\u06ba \u06a9\u06d2 \u0628\u0632\u0631\u06af \u06c1\u06cc\u06ba \u0646\u0635\u06cc\u062d\u062a \u06a9\u0631\u0646\u0627 \u0686\u0627\u06c1\u062a\u0627 \u06c1\u0648\u06ba\u06d4 \u0645\u064e\u06cc\u06ba \u062e\u0648\u062f \u0628\u06be\u06cc \u0628\u0632\u0631\u06af \u06c1\u0648\u06ba \u0628\u0644\u06a9\u06c1 \u0645\u0633\u06cc\u062d \u06a9\u06d2 \u062f\u064f\u06a9\u06be\u0648\u06ba \u06a9\u0627 \u06af\u0648\u0627\u06c1 \u0628\u06be\u06cc \u06c1\u0648\u06ba\u060c \u0627\u0648\u0631 \u0645\u064e\u06cc\u06ba \u0622\u067e \u06a9\u06d2 \u0633\u0627\u062a\u06be \u0627\u064f\u0633 \u0622\u0646\u06d2 \u0648\u0627\u0644\u06d2 \u062c\u0644\u0627\u0644 \u0645\u06cc\u06ba \u0634\u0631\u06cc\u06a9 \u06c1\u0648 \u062c\u0627\u0624\u06ba \u06af\u0627 \u062c\u0648 \u0638\u0627\u06c1\u0631 \u06c1\u0648 \u062c\u0627\u0626\u06d2 \u06af\u0627\u06d4 \u0627\u0650\u0633 \u062d\u06cc\u062b\u06cc\u062a \u0633\u06d2 \u0645\u064e\u06cc\u06ba \u0622\u067e \u0633\u06d2 \u0627\u067e\u06cc\u0644 \u06a9\u0631\u062a\u0627 \u06c1\u0648\u06ba\u060c"
        },
        {
            "chapter": 5,
            "verse": 2,
            "name": "1 Peter 5:2",
            "text": "\u06af\u0644\u06c1 \u0628\u0627\u0646 \u06c1\u0648\u062a\u06d2 \u06c1\u0648\u0626\u06d2 \u0627\u0644\u0644\u06c1 \u06a9\u06d2 \u0627\u064f\u0633 \u06af\u0644\u06d2 \u06a9\u06cc \u062f\u06cc\u06a9\u06be \u0628\u06be\u0627\u0644 \u06a9\u0631\u06cc\u06ba \u062c\u0648 \u0622\u067e \u06a9\u06d2 \u0633\u067e\u0631\u062f \u06a9\u06cc\u0627 \u06af\u06cc\u0627 \u06c1\u06d2\u06d4 \u06cc\u06c1 \u062e\u062f\u0645\u062a \u0645\u062c\u0628\u0648\u0631\u0627\u064b \u0646\u06c1 \u06a9\u0631\u06cc\u06ba \u0628\u0644\u06a9\u06c1 \u062e\u0648\u0634\u06cc \u0633\u06d2\u060c \u06a9\u06cc\u0648\u0646\u06a9\u06c1 \u06cc\u06c1 \u0627\u0644\u0644\u06c1 \u06a9\u06cc \u0645\u0631\u0636\u06cc \u06c1\u06d2\u06d4 \u0644\u0627\u0644\u0686 \u06a9\u06d2 \u0628\u063a\u06cc\u0631 \u067e\u0648\u0631\u06cc \u0644\u06af\u0646 \u0633\u06d2 \u06cc\u06c1 \u062e\u062f\u0645\u062a \u0633\u0631\u0627\u0646\u062c\u0627\u0645 \u062f\u06cc\u06ba\u06d4"
        },
        {
            "chapter": 5,
            "verse": 3,
            "name": "1 Peter 5:3",
            "text": "\u062c\u0646\u06c1\u06cc\u06ba \u0622\u067e \u06a9\u06d2 \u0633\u067e\u0631\u062f \u06a9\u06cc\u0627 \u06af\u06cc\u0627 \u06c1\u06d2 \u0627\u064f\u0646 \u067e\u0631 \u062d\u06a9\u0648\u0645\u062a \u0645\u062a \u06a9\u0631\u0646\u0627 \u0628\u0644\u06a9\u06c1 \u06af\u0644\u06d2 \u06a9\u06d2 \u0644\u0626\u06d2 \u0627\u0686\u06be\u0627 \u0646\u0645\u0648\u0646\u06c1 \u0628\u0646\u06cc\u06ba\u06d4"
        },
        {
            "chapter": 5,
            "verse": 4,
            "name": "1 Peter 5:4",
            "text": "\u067e\u06be\u0631 \u062c\u0628 \u06c1\u0645\u0627\u0631\u0627 \u0633\u0631\u062f\u0627\u0631 \u06af\u0644\u06c1 \u0628\u0627\u0646 \u0638\u0627\u06c1\u0631 \u06c1\u0648 \u06af\u0627 \u062a\u0648 \u0622\u067e \u06a9\u0648 \u062c\u0644\u0627\u0644 \u06a9\u0627 \u063a\u06cc\u0631\u0641\u0627\u0646\u06cc \u062a\u0627\u062c \u0645\u0644\u06d2 \u06af\u0627\u06d4"
        },
        {
            "chapter": 5,
            "verse": 5,
            "name": "1 Peter 5:5",
            "text": "\u0627\u0650\u0633\u06cc \u0637\u0631\u062d \u0644\u0627\u0632\u0645 \u06c1\u06d2 \u06a9\u06c1 \u0622\u067e \u062c\u0648 \u062c\u0648\u0627\u0646 \u06c1\u06cc\u06ba \u0628\u0632\u0631\u06af\u0648\u06ba \u06a9\u06d2 \u062a\u0627\u0628\u0639 \u0631\u06c1\u06cc\u06ba\u06d4 \u0633\u0628 \u0627\u0646\u06a9\u0633\u0627\u0631\u06cc \u06a9\u0627 \u0644\u0628\u0627\u0633 \u067e\u06c1\u0646 \u06a9\u0631 \u0627\u06cc\u06a9 \u062f\u0648\u0633\u0631\u06d2 \u06a9\u06cc \u062e\u062f\u0645\u062a \u06a9\u0631\u06cc\u06ba\u060c \u06a9\u06cc\u0648\u0646\u06a9\u06c1 \u0627\u0644\u0644\u06c1 \u0645\u063a\u0631\u0648\u0631\u0648\u06ba \u06a9\u0627 \u0645\u0642\u0627\u0628\u0644\u06c1 \u06a9\u0631\u062a\u0627 \u0644\u06cc\u06a9\u0646 \u0641\u0631\u0648\u062a\u0646\u0648\u06ba \u067e\u0631 \u0645\u06c1\u0631\u0628\u0627\u0646\u06cc \u06a9\u0631\u062a\u0627 \u06c1\u06d2\u06d4"
        },
        {
            "chapter": 5,
            "verse": 6,
            "name": "1 Peter 5:6",
            "text": "\u0686\u0646\u0627\u0646\u0686\u06c1 \u0627\u0644\u0644\u06c1 \u06a9\u06d2 \u0642\u0627\u062f\u0631 \u06c1\u0627\u062a\u06be \u06a9\u06d2 \u0646\u06cc\u0686\u06d2 \u062c\u06be\u06a9 \u062c\u0627\u0626\u06cc\u06ba \u062a\u0627\u06a9\u06c1 \u0648\u06c1 \u0645\u0648\u0632\u0648\u06ba \u0648\u0642\u062a \u067e\u0631 \u0622\u067e \u06a9\u0648 \u0633\u0631\u0641\u0631\u0627\u0632 \u06a9\u0631\u06d2\u06d4"
        },
        {
            "chapter": 5,
            "verse": 7,
            "name": "1 Peter 5:7",
            "text": "\u0627\u067e\u0646\u06cc \u062a\u0645\u0627\u0645 \u067e\u0631\u06cc\u0634\u0627\u0646\u06cc\u0627\u06ba \u0627\u064f\u0633 \u067e\u0631 \u0688\u0627\u0644 \u062f\u06cc\u06ba\u060c \u06a9\u06cc\u0648\u0646\u06a9\u06c1 \u0648\u06c1 \u0622\u067e \u06a9\u06cc \u0641\u06a9\u0631 \u06a9\u0631\u062a\u0627 \u06c1\u06d2\u06d4"
        },
        {
            "chapter": 5,
            "verse": 8,
            "name": "1 Peter 5:8",
            "text": "\u06c1\u0648\u0634 \u0645\u0646\u062f \u0631\u06c1\u06cc\u06ba\u060c \u062c\u0627\u06af\u062a\u06d2 \u0631\u06c1\u06cc\u06ba\u06d4 \u0622\u067e \u06a9\u0627 \u062f\u0634\u0645\u0646 \u0627\u0628\u0644\u06cc\u0633 \u06af\u0631\u062c\u062a\u06d2 \u06c1\u0648\u0626\u06d2 \u0634\u06cc\u0631\u0628\u0628\u0631 \u06a9\u06cc \u0637\u0631\u062d \u06af\u06be\u0648\u0645\u062a\u0627 \u067e\u06be\u0631\u062a\u0627 \u0627\u0648\u0631 \u06a9\u0633\u06cc \u06a9\u0648 \u06c1\u0691\u067e \u06a9\u0631 \u0644\u06cc\u0646\u06d2 \u06a9\u06cc \u062a\u0644\u0627\u0634 \u0645\u06cc\u06ba \u0631\u06c1\u062a\u0627 \u06c1\u06d2\u06d4"
        },
        {
            "chapter": 5,
            "verse": 9,
            "name": "1 Peter 5:9",
            "text": "\u0627\u06cc\u0645\u0627\u0646 \u0645\u06cc\u06ba \u0645\u0636\u0628\u0648\u0637 \u0631\u06c1 \u06a9\u0631 \u0627\u064f\u0633 \u06a9\u0627 \u0645\u0642\u0627\u0628\u0644\u06c1 \u06a9\u0631\u06cc\u06ba\u06d4 \u0622\u067e \u06a9\u0648 \u062a\u0648 \u0645\u0639\u0644\u0648\u0645 \u06c1\u06d2 \u06a9\u06c1 \u067e\u0648\u0631\u06cc \u062f\u0646\u06cc\u0627 \u0645\u06cc\u06ba \u0622\u067e \u06a9\u06d2 \u0628\u06be\u0627\u0626\u06cc \u0627\u0650\u0633\u06cc \u0642\u0633\u0645 \u06a9\u0627 \u062f\u064f\u06a9\u06be \u0627\u064f\u0679\u06be\u0627 \u0631\u06c1\u06d2 \u06c1\u06cc\u06ba\u06d4"
        },
        {
            "chapter": 5,
            "verse": 10,
            "name": "1 Peter 5:10",
            "text": "\u0644\u06cc\u06a9\u0646 \u0622\u067e \u06a9\u0648 \u0632\u06cc\u0627\u062f\u06c1 \u062f\u06cc\u0631 \u06a9\u06d2 \u0644\u0626\u06d2 \u062f\u064f\u06a9\u06be \u0627\u064f\u0679\u06be\u0627\u0646\u0627 \u0646\u06c1\u06cc\u06ba \u067e\u0691\u06d2 \u06af\u0627\u06d4 \u06a9\u06cc\u0648\u0646\u06a9\u06c1 \u06c1\u0631 \u0637\u0631\u062d \u06a9\u06d2 \u0641\u0636\u0644 \u06a9\u0627 \u062e\u062f\u0627 \u062c\u0633 \u0646\u06d2 \u0622\u067e \u06a9\u0648 \u0645\u0633\u06cc\u062d \u0645\u06cc\u06ba \u0627\u067e\u0646\u06d2 \u0627\u0628\u062f\u06cc \u062c\u0644\u0627\u0644 \u0645\u06cc\u06ba \u0634\u0631\u06cc\u06a9 \u06c1\u0648\u0646\u06d2 \u06a9\u06d2 \u0644\u0626\u06d2 \u0628\u064f\u0644\u0627\u06cc\u0627 \u06c1\u06d2 \u0648\u06c1 \u062e\u0648\u062f \u0622\u067e \u06a9\u0648 \u06a9\u0627\u0645\u0644\u06cc\u062a \u062a\u06a9 \u067e\u06c1\u0646\u0686\u0627\u0626\u06d2 \u06af\u0627\u060c \u0645\u0636\u0628\u0648\u0637 \u0628\u0646\u0627\u0626\u06d2 \u06af\u0627\u060c \u062a\u0642\u0648\u06cc\u062a \u062f\u06d2 \u06af\u0627 \u0627\u0648\u0631 \u0627\u06cc\u06a9 \u0679\u06be\u0648\u0633 \u0628\u0646\u06cc\u0627\u062f \u067e\u0631 \u06a9\u06be\u0691\u0627 \u06a9\u0631\u06d2 \u06af\u0627\u06d4"
        },
        {
            "chapter": 5,
            "verse": 11,
            "name": "1 Peter 5:11",
            "text": "\u0627\u0628\u062f \u062a\u06a9 \u0642\u062f\u0631\u062a \u0627\u064f\u0633\u06cc \u06a9\u0648 \u062d\u0627\u0635\u0644 \u0631\u06c1\u06d2\u06d4 \u0622\u0645\u06cc\u0646\u06d4"
        },
        {
            "chapter": 5,
            "verse": 12,
            "name": "1 Peter 5:12",
            "text": " \u0645\u064e\u06cc\u06ba \u0622\u067e \u06a9\u0648 \u06cc\u06c1 \u0645\u062e\u062a\u0635\u0631 \u062e\u0637 \u0633\u0644\u0648\u0627\u0646\u0633 \u06a9\u06cc \u0645\u062f\u062f \u0633\u06d2 \u0644\u06a9\u06be \u0631\u06c1\u0627 \u06c1\u0648\u06ba \u062c\u0633\u06d2 \u0645\u064e\u06cc\u06ba \u0648\u0641\u0627\u062f\u0627\u0631 \u0628\u06be\u0627\u0626\u06cc \u0633\u0645\u062c\u06be\u062a\u0627 \u06c1\u0648\u06ba\u06d4 \u0645\u064e\u06cc\u06ba \u0627\u0650\u0633 \u0633\u06d2 \u0622\u067e \u06a9\u06cc \u062d\u0648\u0635\u0644\u06c1 \u0627\u0641\u0632\u0627\u0626\u06cc \u0627\u0648\u0631 \u0627\u0650\u0633 \u06a9\u06cc \u062a\u0635\u062f\u06cc\u0642 \u06a9\u0631\u0646\u0627 \u0686\u0627\u06c1\u062a\u0627 \u06c1\u0648\u06ba \u06a9\u06c1 \u06cc\u06c1\u06cc \u0627\u0644\u0644\u06c1 \u06a9\u0627 \u062d\u0642\u06cc\u0642\u06cc \u0641\u0636\u0644 \u06c1\u06d2\u06d4 \u0627\u0650\u0633 \u067e\u0631 \u0642\u0627\u0626\u0645 \u0631\u06c1\u06cc\u06ba\u06d4"
        },
        {
            "chapter": 5,
            "verse": 13,
            "name": "1 Peter 5:13",
            "text": "\u0628\u0627\u0628\u0644 \u0645\u06cc\u06ba \u062c\u0648 \u062c\u0645\u0627\u0639\u062a \u0627\u0644\u0644\u06c1 \u0646\u06d2 \u0622\u067e \u06a9\u06cc \u0637\u0631\u062d \u0686\u0646\u06cc \u06c1\u06d2 \u0648\u06c1 \u0622\u067e \u06a9\u0648 \u0633\u0644\u0627\u0645 \u06a9\u06c1\u062a\u06cc \u06c1\u06d2\u060c \u0627\u0648\u0631 \u0627\u0650\u0633\u06cc \u0637\u0631\u062d \u0645\u06cc\u0631\u0627 \u0628\u06cc\u0679\u0627 \u0645\u0631\u0642\u0633 \u0628\u06be\u06cc\u06d4"
        },
        {
            "chapter": 5,
            "verse": 14,
            "name": "1 Peter 5:14",
            "text": "\u0627\u06cc\u06a9 \u062f\u0648\u0633\u0631\u06d2 \u06a9\u0648 \u0645\u062d\u0628\u062a \u06a9\u0627 \u0628\u0648\u0633\u06c1 \u062f\u06cc\u0646\u0627\u06d4 \u0622\u067e \u0633\u0628 \u06a9\u06cc \u062c\u0648 \u0645\u0633\u06cc\u062d \u0645\u06cc\u06ba \u06c1\u06cc\u06ba \u0633\u0644\u0627\u0645\u062a\u06cc \u06c1\u0648\u06d4   "
        }
    ]
}