{
    "translation": "Free version of New English Translation with limited notes",
    "abbreviation": "netfree",
    "lang": "en",
    "language": "English",
    "direction": "LTR",
    "encoding": "UTF-8",
    "book_nr": 1,
    "book_name": "Genesis",
    "chapter": 2,
    "name": "Genesis 2",
    "verses": [
        {
            "chapter": 2,
            "verse": 1,
            "name": "Genesis 2:1",
            "text": "The heavens and the earth were completed with everything that was in them."
        },
        {
            "chapter": 2,
            "verse": 2,
            "name": "Genesis 2:2",
            "text": "By the seventh day God finished the work that he had been doing, and he ceased on the seventh day all the work that he had been doing."
        },
        {
            "chapter": 2,
            "verse": 3,
            "name": "Genesis 2:3",
            "text": "God blessed the seventh day and made it holy because on it he ceased all the work that he had been doing in creation. "
        },
        {
            "chapter": 2,
            "verse": 4,
            "name": "Genesis 2:4",
            "text": "This is the account of the heavens andthe earth when they were created - when the LORD God made the earth and heavens. "
        },
        {
            "chapter": 2,
            "verse": 5,
            "name": "Genesis 2:5",
            "text": "Now no shrub of the field had yet grown on the earth, and no plant of the field had yet sprouted, for the LORD God had not caused it to rain on the earth, and there was no man to cultivate the ground."
        },
        {
            "chapter": 2,
            "verse": 6,
            "name": "Genesis 2:6",
            "text": "Springs would well up from the earth and water the whole surface of the ground."
        },
        {
            "chapter": 2,
            "verse": 7,
            "name": "Genesis 2:7",
            "text": "The LORD God formed the man from the soil of the ground and breathed into his nostrils the breath of life, and the man became a living being. "
        },
        {
            "chapter": 2,
            "verse": 8,
            "name": "Genesis 2:8",
            "text": "The LORD God planted an orchard in the east, in Eden; and there he placed the man he had formed."
        },
        {
            "chapter": 2,
            "verse": 9,
            "name": "Genesis 2:9",
            "text": "The LORD God made all kinds of trees grow from the soil, every tree that was pleasing to look at and good for food. (Now the tree of life and the tree of the knowledge of good and evil were in the middle of the orchard.)"
        },
        {
            "chapter": 2,
            "verse": 10,
            "name": "Genesis 2:10",
            "text": "Now a river flows from Eden towater the orchard, and from there it divides into four headstreams."
        },
        {
            "chapter": 2,
            "verse": 11,
            "name": "Genesis 2:11",
            "text": "The name of the first is Pishon; it runs through the entire land of Havilah, where there is gold."
        },
        {
            "chapter": 2,
            "verse": 12,
            "name": "Genesis 2:12",
            "text": "(The gold of that land is pure; pearls and lapis lazuli are also there)."
        },
        {
            "chapter": 2,
            "verse": 13,
            "name": "Genesis 2:13",
            "text": "The name of the second river is Gihon; it runs through the entire land of Cush."
        },
        {
            "chapter": 2,
            "verse": 14,
            "name": "Genesis 2:14",
            "text": "The name of the third river is Tigris; it runs along the east side of Assyria. The fourth river is the Euphrates."
        },
        {
            "chapter": 2,
            "verse": 15,
            "name": "Genesis 2:15",
            "text": "The LORD God took the man and placed him in the orchard in Eden to care for it and to maintain it."
        },
        {
            "chapter": 2,
            "verse": 16,
            "name": "Genesis 2:16",
            "text": "Then the LORD God commanded the man, \"You may freely eat fruit from every tree of the orchard,"
        },
        {
            "chapter": 2,
            "verse": 17,
            "name": "Genesis 2:17",
            "text": "but you must not eat from the tree of the knowledge of good and evil, for when you eat from it you will surely die.\" "
        },
        {
            "chapter": 2,
            "verse": 18,
            "name": "Genesis 2:18",
            "text": "The LORD God said, \"It is not good for the man to be alone. I will make a companion for him who corresponds to him.\""
        },
        {
            "chapter": 2,
            "verse": 19,
            "name": "Genesis 2:19",
            "text": "The LORD God formed out of the ground every living animal of the field and every bird of the air. He brought them to the man to see what he would name them, and whatever the man called each living creature, that was its name."
        },
        {
            "chapter": 2,
            "verse": 20,
            "name": "Genesis 2:20",
            "text": "So the man named all the animals, the birds of the air, and the living creatures of the field, but for Adam no companion who corresponded to him was found."
        },
        {
            "chapter": 2,
            "verse": 21,
            "name": "Genesis 2:21",
            "text": "So the LORD God caused the man to fall into a deep sleep, and while he was asleep, he took part of the man's side and closed up the place with flesh."
        },
        {
            "chapter": 2,
            "verse": 22,
            "name": "Genesis 2:22",
            "text": "Then the LORD God made a woman from the part he had taken out of the man, and he brought her to the man."
        },
        {
            "chapter": 2,
            "verse": 23,
            "name": "Genesis 2:23",
            "text": "Then the man said,\"This one at last is bone of my bones and flesh of my flesh; this one will be called 'woman,' for she was taken out of man.\" "
        },
        {
            "chapter": 2,
            "verse": 24,
            "name": "Genesis 2:24",
            "text": "That is why a man leaves his father and mother and unites with his wife, and they become a new family."
        },
        {
            "chapter": 2,
            "verse": 25,
            "name": "Genesis 2:25",
            "text": "The man and his wife were both naked, but they were not ashamed.  </div>"
        }
    ]
}