{
    "translation": "Raamattu Kansalle (2012)",
    "abbreviation": "finrk",
    "lang": "fi",
    "language": "Finnish",
    "direction": "LTR",
    "encoding": "UTF-8",
    "book_nr": 2,
    "book_name": "Exodus",
    "chapter": 35,
    "name": "Exodus 35",
    "verses": [
        {
            "chapter": 35,
            "verse": 1,
            "name": "Exodus 35:1",
            "text": "Mooses kutsui koolle koko israelilaisten seurakunnan ja sanoi heille: \u201dN\u00e4m\u00e4 ovat ne sanat, joiden mukaan Herra on k\u00e4skenyt teid\u00e4n toimia:"
        },
        {
            "chapter": 35,
            "verse": 2,
            "name": "Exodus 35:2",
            "text": "Kuutena p\u00e4iv\u00e4n\u00e4 tehk\u00e4\u00e4 ty\u00f6t\u00e4, mutta seitsem\u00e4nten\u00e4 p\u00e4iv\u00e4n\u00e4 olkoon teill\u00e4 pyh\u00e4 sapatti, Herran levon p\u00e4iv\u00e4. Jokainen, joka silloin tekee ty\u00f6t\u00e4, on surmattava. "
        },
        {
            "chapter": 35,
            "verse": 3,
            "name": "Exodus 35:3",
            "text": "\u00c4lk\u00e4\u00e4 sytytt\u00e4k\u00f6 tulta sapatinp\u00e4iv\u00e4n\u00e4 miss\u00e4\u00e4n asuinpaikoissanne.\u201d "
        },
        {
            "chapter": 35,
            "verse": 4,
            "name": "Exodus 35:4",
            "text": "  Mooses sanoi koko Israelin seurakunnalle: \u201dN\u00e4in on Herra k\u00e4skenyt:"
        },
        {
            "chapter": 35,
            "verse": 5,
            "name": "Exodus 35:5",
            "text": "Kootkaa Herralle uhrilahja keskuudestanne. Jokainen, joka syd\u00e4mest\u00e4\u00e4n haluaa, tuokoon uhrilahjaksi Herralle kultaa, hopeaa ja vaskea, "
        },
        {
            "chapter": 35,
            "verse": 6,
            "name": "Exodus 35:6",
            "text": "sinipunaisia, purppuranpunaisia ja helakanpunaisia lankoja, pellavaa, vuohenkarvaa,"
        },
        {
            "chapter": 35,
            "verse": 7,
            "name": "Exodus 35:7",
            "text": "punaiseksi v\u00e4rj\u00e4ttyj\u00e4 p\u00e4ssinnahkoja, merilehm\u00e4nnahkoja, akasiapuuta,"
        },
        {
            "chapter": 35,
            "verse": 8,
            "name": "Exodus 35:8",
            "text": "\u00f6ljy\u00e4 valaisemista varten, tuoksuaineita voitelu\u00f6ljy\u00e4 ja hyv\u00e4ntuoksuista suitsuketta varten"
        },
        {
            "chapter": 35,
            "verse": 9,
            "name": "Exodus 35:9",
            "text": "sek\u00e4 onyksi-kivi\u00e4 ja kasukkaan ja rintakilpeen kiinnitett\u00e4vi\u00e4 kivi\u00e4."
        },
        {
            "chapter": 35,
            "verse": 10,
            "name": "Exodus 35:10",
            "text": "Kaikki keskuudessanne olevat taitajat tulkoot ja tehk\u00f6\u00f6t kaiken, mit\u00e4 Herra on k\u00e4skenyt:"
        },
        {
            "chapter": 35,
            "verse": 11,
            "name": "Exodus 35:11",
            "text": "asumuksen telttoineen ja peitteineen, hakasineen, lautoineen, poikkitankoineen, pylv\u00e4ineen ja jalustoineen, "
        },
        {
            "chapter": 35,
            "verse": 12,
            "name": "Exodus 35:12",
            "text": "arkun kantotankoineen, armoistuimen ja sit\u00e4 verhoavan esiripun,"
        },
        {
            "chapter": 35,
            "verse": 13,
            "name": "Exodus 35:13",
            "text": "p\u00f6yd\u00e4n kantotankoineen ja kaikkine varusteineen sek\u00e4 pyh\u00e4t leiv\u00e4t,"
        },
        {
            "chapter": 35,
            "verse": 14,
            "name": "Exodus 35:14",
            "text": "lampunjalan varusteineen ja lamppuineen valaisemista varten sek\u00e4 \u00f6ljyn lamppuja varten,"
        },
        {
            "chapter": 35,
            "verse": 15,
            "name": "Exodus 35:15",
            "text": "suitsutusalttarin kantotankoineen, voitelu\u00f6ljyn ja hyv\u00e4ntuoksuisen suitsukkeen, oviverhon asumuksen ovelle,"
        },
        {
            "chapter": 35,
            "verse": 16,
            "name": "Exodus 35:16",
            "text": "polttouhrialttarin ja kaikki sen varusteet, vaskiritil\u00e4n ja kantotangot sek\u00e4 altaan ja sen jalustan,"
        },
        {
            "chapter": 35,
            "verse": 17,
            "name": "Exodus 35:17",
            "text": "esipihan verhot pylv\u00e4ineen ja jalustoineen sek\u00e4 verhon esipihan porttiin,"
        },
        {
            "chapter": 35,
            "verse": 18,
            "name": "Exodus 35:18",
            "text": "asumuksen vaarnat ja esipihan vaarnat k\u00f6ysineen,"
        },
        {
            "chapter": 35,
            "verse": 19,
            "name": "Exodus 35:19",
            "text": "virkapuvut pyh\u00e4kk\u00f6palvelusta varten ja pappi Aaronin pyh\u00e4t vaatteet sek\u00e4 h\u00e4nen poikiensa pappispuvut.\u201d"
        },
        {
            "chapter": 35,
            "verse": 20,
            "name": "Exodus 35:20",
            "text": "Sitten koko israelilaisten seurakunta l\u00e4hti pois Mooseksen luota,"
        },
        {
            "chapter": 35,
            "verse": 21,
            "name": "Exodus 35:21",
            "text": "ja jokainen, jonka syd\u00e4n h\u00e4nt\u00e4 siihen kehotti, jokainen, jonka henki oli altis, tuli ja toi uhrinsa Herralle ilmestysmajan valmistamista varten, kaikkea sen palvelusta varten sek\u00e4 pyhi\u00e4 vaatteita varten."
        },
        {
            "chapter": 35,
            "verse": 22,
            "name": "Exodus 35:22",
            "text": "Miehet ja naiset, jokainen, jonka syd\u00e4n oli altis, tulivat ja toivat solkia, korvarenkaita, sormuksia, kaulakoristeita ja kaikenlaisia muita kultaesineit\u00e4, kultaa heilutusuhrina Herralle."
        },
        {
            "chapter": 35,
            "verse": 23,
            "name": "Exodus 35:23",
            "text": "Samoin jokainen, jolla oli sinipunaisia, purppuranpunaisia ja helakanpunaisia lankoja, pellavaa, vuohenkarvoja, punaiseksi v\u00e4rj\u00e4ttyj\u00e4 p\u00e4ssinnahkoja tai merilehm\u00e4nnahkoja, toi niit\u00e4."
        },
        {
            "chapter": 35,
            "verse": 24,
            "name": "Exodus 35:24",
            "text": "Jokainen, joka voi antaa hopeaa tai vaskea uhriksi, toi lahjan Herralle, niin ik\u00e4\u00e4n jokainen, jolla oli akasiapuuta, toi sit\u00e4 kaikenlaista rakennusty\u00f6t\u00e4 varten."
        },
        {
            "chapter": 35,
            "verse": 25,
            "name": "Exodus 35:25",
            "text": "Jokainen viisas ja taitava nainen kehr\u00e4si ja toi sinipunaisia, purppuranpunaisia ja helakanpunaisia lankoja ja pellavalankoja."
        },
        {
            "chapter": 35,
            "verse": 26,
            "name": "Exodus 35:26",
            "text": "Kaikki naiset, joita heid\u00e4n syd\u00e4mens\u00e4 kehotti, kehr\u00e4siv\u00e4t taitavasti vuohenkarvoja."
        },
        {
            "chapter": 35,
            "verse": 27,
            "name": "Exodus 35:27",
            "text": "P\u00e4\u00e4miehet toivat onyksi-kivi\u00e4 ja kasukkaan ja rintakilpeen kiinnitett\u00e4vi\u00e4 kivi\u00e4."
        },
        {
            "chapter": 35,
            "verse": 28,
            "name": "Exodus 35:28",
            "text": "He toivat my\u00f6s \u00f6ljy\u00e4 valaisemista ja voitelu\u00f6ljyn valmistamista varten sek\u00e4 tuoksuaineita voitelu\u00f6ljyn ja hyv\u00e4ntuoksuisen suitsukkeen valmistamiseksi."
        },
        {
            "chapter": 35,
            "verse": 29,
            "name": "Exodus 35:29",
            "text": "Kaikki israelilaiset, miehet ja naiset, jotka olivat syd\u00e4mest\u00e4\u00e4n halukkaita tuomaan vapaaehtoisia lahjoja Herralle, toivat niit\u00e4 kaikenlaisia t\u00f6it\u00e4 varten, jotka Herra oli Mooseksen kautta k\u00e4skenyt tehd\u00e4. "
        },
        {
            "chapter": 35,
            "verse": 30,
            "name": "Exodus 35:30",
            "text": "  Mooses sanoi israelilaisille: \u201dHerra on kutsunut nimelt\u00e4 Besalelin, Uurin pojan, Huurin pojanpojan Juudan heimosta. "
        },
        {
            "chapter": 35,
            "verse": 31,
            "name": "Exodus 35:31",
            "text": "Herra on t\u00e4ytt\u00e4nyt h\u00e4net Jumalan Hengell\u00e4, niin ett\u00e4 h\u00e4nell\u00e4 on viisautta, ymm\u00e4rryst\u00e4, tietoa ja kaikenlaista taitoa"
        },
        {
            "chapter": 35,
            "verse": 32,
            "name": "Exodus 35:32",
            "text": "suunnitella ja valmistaa esineit\u00e4 kullasta, hopeasta ja vaskesta,"
        },
        {
            "chapter": 35,
            "verse": 33,
            "name": "Exodus 35:33",
            "text": "ty\u00f6st\u00e4\u00e4 ja kiinnitt\u00e4\u00e4 jalokivi\u00e4, veist\u00e4\u00e4 puuta ja tehd\u00e4 kaikenlaisia taitoa vaativia t\u00f6it\u00e4."
        },
        {
            "chapter": 35,
            "verse": 34,
            "name": "Exodus 35:34",
            "text": "H\u00e4nelle ja Oholiabille, Ahisamakin pojalle Daanin heimosta, Herra on antanut my\u00f6s kyvyn opettaa muita."
        },
        {
            "chapter": 35,
            "verse": 35,
            "name": "Exodus 35:35",
            "text": "H\u00e4n on t\u00e4ytt\u00e4nyt heid\u00e4t viisaudella, niin ett\u00e4 he osaavat tehd\u00e4 kaikenlaisia t\u00f6it\u00e4, niin sep\u00e4n, suunnittelijan, kankurin kuin kirjokankaiden kutojankin, joka kutoo kankaita sinipunaisista, purppuranpunaisista ja helakanpunaisista langoista sek\u00e4 pellavalangoista. He pystyv\u00e4t suunnittelemaan ja tekem\u00e4\u00e4n kaikenlaisia t\u00f6it\u00e4.\u201d  "
        }
    ]
}