{
    "translation": "Webster's Bible",
    "abbreviation": "wb",
    "lang": "en",
    "language": "English",
    "direction": "LTR",
    "encoding": "",
    "book_nr": 10,
    "book_name": "2 Samuel",
    "chapter": 16,
    "name": "2 Samuel 16",
    "verses": [
        {
            "chapter": 16,
            "verse": 1,
            "name": "2 Samuel 16:1",
            "text": "And when David was a little past the top [of the hill], behold, Ziba the servant of Mephibosheth met him, with a couple of asses saddled, and upon them two hundred [loaves] of bread, and a hundred bunches of raisins, and a hundred of summer fruits, and a bottle of wine."
        },
        {
            "chapter": 16,
            "verse": 2,
            "name": "2 Samuel 16:2",
            "text": "And the king said to Ziba, What meanest thou by these? And Ziba said, The asses [are] for the king's household to ride on; and the bread and summer fruit for the young men to eat; and the wine, that such as are faint in the wilderness may drink."
        },
        {
            "chapter": 16,
            "verse": 3,
            "name": "2 Samuel 16:3",
            "text": "And the king said, And where [is] thy master's son? And Ziba said to the king, Behold, he abideth at Jerusalem: for he said, To-day shall the house of Israel restore to me the kingdom of my father."
        },
        {
            "chapter": 16,
            "verse": 4,
            "name": "2 Samuel 16:4",
            "text": "Then said the king to Ziba, Behold, thine [are] all that [pertained] to Mephibosheth. And Ziba said, I humbly beseech thee [that] I may find grace in thy sight, my lord, O king."
        },
        {
            "chapter": 16,
            "verse": 5,
            "name": "2 Samuel 16:5",
            "text": "And when king David came to Bahurim, behold, thence came out a man of the family of the house of Saul, whose name [was] Shimei, the son of Gera: he came forth, and cursed still as he came."
        },
        {
            "chapter": 16,
            "verse": 6,
            "name": "2 Samuel 16:6",
            "text": "And he cast stones at David, and at all the servants of king David: and all the people and all the mighty men [were] on his right hand and on his left."
        },
        {
            "chapter": 16,
            "verse": 7,
            "name": "2 Samuel 16:7",
            "text": "And thus said Shimei when he cursed, Come out, come out, thou bloody man, and thou man of Belial:"
        },
        {
            "chapter": 16,
            "verse": 8,
            "name": "2 Samuel 16:8",
            "text": "The LORD hath returned upon thee all the blood of the house of Saul, in whose stead thou hast reigned; and the LORD hath delivered the kingdom into the hand of Absalom thy son: and behold, thou [art taken] in thy mischief, because thou [art] a bloody man."
        },
        {
            "chapter": 16,
            "verse": 9,
            "name": "2 Samuel 16:9",
            "text": "Then said Abishai the son of Zeruiah to the king, Why should this dead dog curse my lord the king? let me go over, I pray thee, and take off his head."
        },
        {
            "chapter": 16,
            "verse": 10,
            "name": "2 Samuel 16:10",
            "text": "And the king said, What have I to do with you, ye sons of Zeruiah? so let him curse, because the LORD hath said to him, Curse David. Who shall then say, Why hast thou done so?"
        },
        {
            "chapter": 16,
            "verse": 11,
            "name": "2 Samuel 16:11",
            "text": "And David said to Abishai, and to all his servants, Behold, my son, who came forth from my bowels, seeketh my life: how much more now [may this] Benjaminite [do it]? let him alone, and let him curse; for the LORD hath bidden him."
        },
        {
            "chapter": 16,
            "verse": 12,
            "name": "2 Samuel 16:12",
            "text": "It may be that the LORD will look on my affliction, and that the LORD will requite me good for his cursing this day."
        },
        {
            "chapter": 16,
            "verse": 13,
            "name": "2 Samuel 16:13",
            "text": "And as David and his men went by the way, Shimei went along on the hill's side over against him, and cursed as he went, and threw stones at him, and cast dust."
        },
        {
            "chapter": 16,
            "verse": 14,
            "name": "2 Samuel 16:14",
            "text": "And the king, and all the people that [were] with him, came weary, and refreshed themselves there."
        },
        {
            "chapter": 16,
            "verse": 15,
            "name": "2 Samuel 16:15",
            "text": "And Absalom, and all the people the men of Israel, came to Jerusalem, and Ahithophel with him."
        },
        {
            "chapter": 16,
            "verse": 16,
            "name": "2 Samuel 16:16",
            "text": "And it came to pass, when Hushai the Archite, David's friend, had come to Absalom, that Hushai said to Absalom, God save the king, God save the king."
        },
        {
            "chapter": 16,
            "verse": 17,
            "name": "2 Samuel 16:17",
            "text": "And Absalom said to Hushai, [Is] this thy kindness to thy friend? why wentest thou not with thy friend?"
        },
        {
            "chapter": 16,
            "verse": 18,
            "name": "2 Samuel 16:18",
            "text": "And Hushai said to Absalom, Nay; but whom the LORD, and this people, and all the men of Israel choose, his will I be, and with him will I abide."
        },
        {
            "chapter": 16,
            "verse": 19,
            "name": "2 Samuel 16:19",
            "text": "And again, whom should I serve? [should I] not [serve] in the presence of his son? as I have served in thy father's presence, so will I be in thy presence."
        },
        {
            "chapter": 16,
            "verse": 20,
            "name": "2 Samuel 16:20",
            "text": "Then said Absalom to Ahithophel, Give counsel among you what we shall do."
        },
        {
            "chapter": 16,
            "verse": 21,
            "name": "2 Samuel 16:21",
            "text": "And Ahithophel said to Absalom, Go in to thy father's concubines, which he hath left to keep the house; and all Israel shall hear that thou art abhorred by thy father: then shall the hands of all that [are] with thee be strong."
        },
        {
            "chapter": 16,
            "verse": 22,
            "name": "2 Samuel 16:22",
            "text": "So they spread Absalom a tent upon the top of the house; and Absalom went in to his father's concubines in the sight of all Israel."
        },
        {
            "chapter": 16,
            "verse": 23,
            "name": "2 Samuel 16:23",
            "text": "And the counsel of Ahithophel, which he counseled in those days, [was] as if a man had inquired at the oracle of God: so [was] all the counsel of Ahithophel both with David and with Absalom."
        }
    ]
}