{
    "translation": "Finnish Bible (1776)",
    "abbreviation": "finnish1776",
    "lang": "fi",
    "language": "Finnish",
    "direction": "LTR",
    "encoding": "",
    "book_nr": 14,
    "book_name": "2 Chronicles",
    "chapter": 35,
    "name": "2 Chronicles 35",
    "verses": [
        {
            "chapter": 35,
            "verse": 1,
            "name": "2 Chronicles 35:1",
            "text": "Ja Josia piti Jerusalemissa p\u00e4\u00e4si\u00e4ist\u00e4 Herralle ja he teurastivat p\u00e4\u00e4si\u00e4isen nelj\u00e4nten\u00e4 p\u00e4iv\u00e4n\u00e4 toistakymment\u00e4, ensimm\u00e4isell\u00e4 kuulla."
        },
        {
            "chapter": 35,
            "verse": 2,
            "name": "2 Chronicles 35:2",
            "text": "Ja h\u00e4n asetti papit vartioihinsa ja vahvisti heit\u00e4 virkaansa Herran huoneessa."
        },
        {
            "chapter": 35,
            "verse": 3,
            "name": "2 Chronicles 35:3",
            "text": "Ja h\u00e4n sanoi Levil\u00e4isille, jotka koko Israelia opettivat ja Herran pyhitetyt olivat: pankaat pyh\u00e4 arkki huoneesen, jonka Salomo Davidin poika Israelin kuningas on rakentaa antanut, ja ei teid\u00e4n pid\u00e4 sit\u00e4 kantaman teid\u00e4n olallanne. Niin palvelkaat nyt Herraa teid\u00e4n Jumalaanne ja h\u00e4nen kansaansa Israelia."
        },
        {
            "chapter": 35,
            "verse": 4,
            "name": "2 Chronicles 35:4",
            "text": "Ja valmistakaat teit\u00e4nne is\u00e4inne huoneen j\u00e4rjestyksen j\u00e4lkeen, niinkuin se on kirjoitettu Davidilta Israelin kuninkaalta, ja niinkuin se on kirjoitettu h\u00e4nen pojaltansa Salomolta."
        },
        {
            "chapter": 35,
            "verse": 5,
            "name": "2 Chronicles 35:5",
            "text": "Ja seisokaat pyh\u00e4ss\u00e4, is\u00e4in huoneen j\u00e4rjestyksen j\u00e4lkeen, teid\u00e4n veljeinne seassa, jotka ovat kansasta syntyneet, ja Levil\u00e4isten is\u00e4in huoneen j\u00e4rjestyksen j\u00e4lkeen."
        },
        {
            "chapter": 35,
            "verse": 6,
            "name": "2 Chronicles 35:6",
            "text": "Teurastakaat p\u00e4\u00e4si\u00e4inen ja pyhitt\u00e4k\u00e4\u00e4t teit\u00e4nne, valmistakaat my\u00f6s veljenne, tekem\u00e4\u00e4n Herran sanan j\u00e4lkeen Moseksen kautta."
        },
        {
            "chapter": 35,
            "verse": 7,
            "name": "2 Chronicles 35:7",
            "text": "Ja Josia antoi ylennysuhriksi yhteisen kansan edest\u00e4 karitsoita ja vohlia, (kaikki p\u00e4\u00e4si\u00e4iseksi niille, jotka l\u00e4sn\u00e4 olivat,) kolmekymment\u00e4 tuhatta, niin my\u00f6s kolmetuhatta h\u00e4rk\u00e4\u00e4. Ja n\u00e4m\u00e4t olivat kuninkaan hyvyydest\u00e4."
        },
        {
            "chapter": 35,
            "verse": 8,
            "name": "2 Chronicles 35:8",
            "text": "Ja h\u00e4nen p\u00e4\u00e4miehens\u00e4 antoivat my\u00f6s mielell\u00e4ns\u00e4 kansan edest\u00e4 ylennykseksi papeille ja Levil\u00e4isille, (jotka olivat: Hilkia, Sakaria ja Jehiel p\u00e4\u00e4miehet Jumalan huoneessa, papeille antoivat he) p\u00e4\u00e4si\u00e4isuhriksi, kaksituhatta ja kuusisataa (karitsaa ja vohlaa), niin my\u00f6s kolmesataa h\u00e4rk\u00e4\u00e4."
        },
        {
            "chapter": 35,
            "verse": 9,
            "name": "2 Chronicles 35:9",
            "text": "Mutta Kanania ja Semaja, ja Netaneel h\u00e4nen veljens\u00e4, ja Hasabia, Jejel ja Josabad Levil\u00e4isten ylimm\u00e4iset antoivat ylennyksen Levil\u00e4isille p\u00e4\u00e4si\u00e4isuhriksi, viisituhatta (karitsaa ja vohlaa), niin my\u00f6s viisisataa h\u00e4rk\u00e4\u00e4."
        },
        {
            "chapter": 35,
            "verse": 10,
            "name": "2 Chronicles 35:10",
            "text": "Ja niin palvelus asetettiin; ja papit seisoivat siassansa ja Levil\u00e4iset j\u00e4rjestyksess\u00e4ns\u00e4, kuninkaan k\u00e4skyn j\u00e4lkeen."
        },
        {
            "chapter": 35,
            "verse": 11,
            "name": "2 Chronicles 35:11",
            "text": "Ja he teurastivat p\u00e4\u00e4si\u00e4isen, ja papit priiskottivat niiden veren, ja Levil\u00e4iset ottivat pois nahan."
        },
        {
            "chapter": 35,
            "verse": 12,
            "name": "2 Chronicles 35:12",
            "text": "Ja he eroittivat polttouhrin, antaaksensa is\u00e4in huonetten j\u00e4rjestyksen j\u00e4lkeen yhteiselle joukolle, uhrattaa Herralle, niinkuin kirjoitettu on Moseksen kirjassa; niin tekiv\u00e4t he my\u00f6s h\u00e4rk\u00e4in kanssa."
        },
        {
            "chapter": 35,
            "verse": 13,
            "name": "2 Chronicles 35:13",
            "text": "Ja he paistivat p\u00e4\u00e4si\u00e4islampaan tulella, lain j\u00e4lkeen, mutta pyhitetyn keittiv\u00e4t he padoissa, kattiloissa ja pannuissa, ja tekiv\u00e4t sen kiiruusti tariten kaikelle kansalle."
        },
        {
            "chapter": 35,
            "verse": 14,
            "name": "2 Chronicles 35:14",
            "text": "Sitte valmistivat he itsellens\u00e4 ja papeille; sill\u00e4 papeilla Aaronin pojilla oli tekemist\u00e4 polttouhrin ja lihavuuden kanssa, hamaan y\u00f6h\u00f6n asti; sent\u00e4hden Levil\u00e4isten piti itsellens\u00e4 ja papeille Aaronin pojille jotain valmistaman."
        },
        {
            "chapter": 35,
            "verse": 15,
            "name": "2 Chronicles 35:15",
            "text": "Ja viesaajat Asaphin lapset seisoivat siassansa Davidin k\u00e4skyn j\u00e4lkeen, ja Asaphin ja Hemanin ja Jedutunin kuninkaan n\u00e4ki\u00e4n, ja ovenvartiat jokaisen oven tyk\u00f6n\u00e4, eik\u00e4 l\u00e4hteneet virastansa, sill\u00e4 Levil\u00e4iset heid\u00e4n veljens\u00e4 valmistivat heid\u00e4n eteens\u00e4."
        },
        {
            "chapter": 35,
            "verse": 16,
            "name": "2 Chronicles 35:16",
            "text": "Niin oli kaikki Herran palvelus toimitettu sin\u00e4 p\u00e4iv\u00e4n\u00e4, pidett\u00e4\u00e4 p\u00e4\u00e4si\u00e4ist\u00e4 ja uhrata polttouhria Herran alttarilla, kuningas Josian k\u00e4skyn j\u00e4lkeen."
        },
        {
            "chapter": 35,
            "verse": 17,
            "name": "2 Chronicles 35:17",
            "text": "Niin pitiv\u00e4t Israelin lapset, jotka siin\u00e4 l\u00e4sn\u00e4 olivat, p\u00e4\u00e4si\u00e4ist\u00e4 siihen aikaan, ja happamattoman leiv\u00e4n juhlaa, seitsem\u00e4n p\u00e4iv\u00e4\u00e4."
        },
        {
            "chapter": 35,
            "verse": 18,
            "name": "2 Chronicles 35:18",
            "text": "Ei yht\u00e4\u00e4n senkaltaista p\u00e4\u00e4si\u00e4ist\u00e4 ollut Israelissa pidetty, niinkuin t\u00e4m\u00e4, hamasta Samuel prophetan ajasta. Ja ei yksik\u00e4\u00e4n kuningas Israelissa ollut senkaltaista p\u00e4\u00e4si\u00e4ist\u00e4 pit\u00e4nyt, kuin Josia piti, ja papit, Levil\u00e4iset ja koko Juuda, ne jotka l\u00e4sn\u00e4 olivat Israelista ja asuivat Jerusalemissa."
        },
        {
            "chapter": 35,
            "verse": 19,
            "name": "2 Chronicles 35:19",
            "text": "Josian valtakunnan kahdeksantena vuonna toistakymment\u00e4 pidettiin t\u00e4m\u00e4 p\u00e4\u00e4si\u00e4inen."
        },
        {
            "chapter": 35,
            "verse": 20,
            "name": "2 Chronicles 35:20",
            "text": "Kaikkein n\u00e4iden j\u00e4lkeen, kuin Josia oli valmistanut huoneen, meni Neko Egyptin kuningas sotimaan Karkemesta vastaan Phratin tyk\u00f6n\u00e4, ja Josia meni h\u00e4nt\u00e4 vastaan."
        },
        {
            "chapter": 35,
            "verse": 21,
            "name": "2 Chronicles 35:21",
            "text": "Mutta h\u00e4n l\u00e4hetti sanan h\u00e4nen tyk\u00f6ns\u00e4 ja k\u00e4ski h\u00e4nelle sanoa: mit\u00e4 minun on sinun kanssas tekemist\u00e4, Juudan kuningas? En min\u00e4 tule sinua vastaan t\u00e4n\u00e4p\u00e4n\u00e4, mutta sit\u00e4 huonetta, joka sotii minua vastaan. Ja Jumala on sanonut, ett\u00e4 minun pit\u00e4\u00e4 rient\u00e4m\u00e4n: lakkaa tekem\u00e4st\u00e4 Jumalaa vastaan, joka minun kanssani on, ettei h\u00e4n sinua hukuttaisi."
        },
        {
            "chapter": 35,
            "verse": 22,
            "name": "2 Chronicles 35:22",
            "text": "Mutta ei Josia k\u00e4\u00e4nt\u00e4nyt kasvojansa h\u00e4nest\u00e4, vaan asetti itsens\u00e4 sotimaan h\u00e4nt\u00e4 vastaan, ja ei totellut Nekon sanoja Jumalan suusta, vaan tuli sotimaan Megiddon kedolle."
        },
        {
            "chapter": 35,
            "verse": 23,
            "name": "2 Chronicles 35:23",
            "text": "Ja ampujat ampuivat kuningas Josiaa. Ja kuningas sanoi palvelioillensa: viek\u00e4\u00e4t minut t\u00e4st\u00e4 pois, sill\u00e4 min\u00e4 olen sangen pahoin haavoitettu."
        },
        {
            "chapter": 35,
            "verse": 24,
            "name": "2 Chronicles 35:24",
            "text": "Ja h\u00e4nen palveliansa ottivat h\u00e4nen vaunusta ja panivat h\u00e4nen toiseen vaunuunsa, ja veiv\u00e4t h\u00e4nen Jerusalemiin. Ja h\u00e4n kuoli ja haudattiin is\u00e4ins\u00e4 hautoihin. Ja koko Juuda ja Jerusalem itkiv\u00e4t Josiaa."
        },
        {
            "chapter": 35,
            "verse": 25,
            "name": "2 Chronicles 35:25",
            "text": "Ja Jeremia itki Josiaa, ja kaikki laulajat, miehet ja vaimot, murehtivat h\u00e4nt\u00e4 itkuvirsill\u00e4 hamaan t\u00e4h\u00e4n p\u00e4iv\u00e4\u00e4n asti. Ja he tekiv\u00e4t siit\u00e4 tavan Israelissa; katso, se on kirjoitettu valitusvirsiss\u00e4."
        },
        {
            "chapter": 35,
            "verse": 26,
            "name": "2 Chronicles 35:26",
            "text": "Mit\u00e4 enemp\u00e4\u00e4 Josiasta sanomista on ja h\u00e4nen laupiudestansa kirjoituksen j\u00e4lkeen Herran laissa,"
        },
        {
            "chapter": 35,
            "verse": 27,
            "name": "2 Chronicles 35:27",
            "text": "Ja h\u00e4nen teoistansa, ensim\u00e4isist\u00e4 ja viimeisist\u00e4: katso, se on kirjoitettu Israelin ja Juudan kuningasten kirjassa."
        }
    ]
}