{
    "translation": "Finnish Bible (1776)",
    "abbreviation": "finnish1776",
    "lang": "fi",
    "language": "Finnish",
    "direction": "LTR",
    "encoding": "",
    "book_nr": 1,
    "book_name": "Genesis",
    "chapter": 43,
    "name": "Genesis 43",
    "verses": [
        {
            "chapter": 43,
            "verse": 1,
            "name": "Genesis 43:1",
            "text": "Mutta kallis aika ahdisti maata."
        },
        {
            "chapter": 43,
            "verse": 2,
            "name": "Genesis 43:2",
            "text": "Ja koska he loppivat sy\u00f6d\u00e4 ne jyv\u00e4t kuin he Egyptist\u00e4 tuoneet olivat, sanoi heid\u00e4n is\u00e4ns\u00e4 heille: menk\u00e4\u00e4t j\u00e4llens\u00e4 sinne, ja ostakaat meille jotakin elatusta."
        },
        {
            "chapter": 43,
            "verse": 3,
            "name": "Genesis 43:3",
            "text": "Niin vastasi h\u00e4nt\u00e4 Juuda, sanoen: se mies haastoi meit\u00e4 sangen kovin, ja sanoi: ei pid\u00e4 teid\u00e4n n\u00e4kem\u00e4n minun kasvojani, jollei teid\u00e4n veljenne ole teid\u00e4n kanssanne."
        },
        {
            "chapter": 43,
            "verse": 4,
            "name": "Genesis 43:4",
            "text": "Jos siis sin\u00e4 nyt l\u00e4het\u00e4t meid\u00e4n veljemme meid\u00e4n kanssamme, niin me menemme alas ja osatmme sinulle elatusta."
        },
        {
            "chapter": 43,
            "verse": 5,
            "name": "Genesis 43:5",
            "text": "Vaan jolles h\u00e4nt\u00e4 l\u00e4het\u00e4, niin emme mek\u00e4\u00e4n mene; sill\u00e4 se mies sanoi meille: ei teid\u00e4n pid\u00e4 n\u00e4kem\u00e4n minun kasvojani, jollei teid\u00e4n veljenne ole teid\u00e4n kanssanne."
        },
        {
            "chapter": 43,
            "verse": 6,
            "name": "Genesis 43:6",
            "text": "Israel sanoi: miksi te teitte minua vastaan niin pahoin, ett\u00e4 te sanoitte sille miehelle teill\u00e4nne viel\u00e4 olevan veljen."
        },
        {
            "chapter": 43,
            "verse": 7,
            "name": "Genesis 43:7",
            "text": "He vastasivat: se mies kysyi meist\u00e4 niin visusti, ja meid\u00e4n suvustamme, sanoen: viel\u00e4k\u00f6 teid\u00e4n is\u00e4nne el\u00e4\u00e4? Onko teill\u00e4 viel\u00e4 velje\u00e4? Niin me vastasimme h\u00e4nt\u00e4 kuin h\u00e4n kysyi. Taitaisimmeko me ratki tiet\u00e4\u00e4 h\u00e4nen sanovan: tuokaat veljenne t\u00e4nne."
        },
        {
            "chapter": 43,
            "verse": 8,
            "name": "Genesis 43:8",
            "text": "Niin sanoi Juuda is\u00e4llens\u00e4 Israelille: l\u00e4het\u00e4 nuorukainen minun kanssani, niin me valmistamme ja l\u00e4hdemme matkaan: ett\u00e4 me el\u00e4isimme ja emme kuolisi, sek\u00e4 me ett\u00e4 sin\u00e4 ja meid\u00e4n lapsemme."
        },
        {
            "chapter": 43,
            "verse": 9,
            "name": "Genesis 43:9",
            "text": "Min\u00e4 takaan h\u00e4nen edest\u00e4ns\u00e4, kaipaa h\u00e4nt\u00e4 minun k\u00e4sist\u00e4ni; jollen min\u00e4 tuo h\u00e4nt\u00e4 j\u00e4lleen sinun tyk\u00f6s, ja pane h\u00e4nt\u00e4 sinun etees, niin min\u00e4 olen vikap\u00e4\u00e4 sinun edess\u00e4s kaikkena minun elinaikanani."
        },
        {
            "chapter": 43,
            "verse": 10,
            "name": "Genesis 43:10",
            "text": "Sill\u00e4 jollei meill\u00e4 olisi ollut viivytyst\u00e4, totisesti me olisimme jo toisen kerran tulleet j\u00e4llens\u00e4."
        },
        {
            "chapter": 43,
            "verse": 11,
            "name": "Genesis 43:11",
            "text": "Niin sanoi Israel heid\u00e4n is\u00e4ns\u00e4 heille: jos nyt kumminkin niin pit\u00e4\u00e4 oleman, tehk\u00e4\u00e4t siis n\u00e4in: ottakaat maan parhaista hedelmist\u00e4 teid\u00e4n astioihinne, ja viek\u00e4\u00e4t sille miehelle lahjoja: jotakin mastiksia ja hunajaa, ja styraksia, ja ladanumia, ja dadelia ja mandelia."
        },
        {
            "chapter": 43,
            "verse": 12,
            "name": "Genesis 43:12",
            "text": "Ottakaat my\u00f6s toinen raha teid\u00e4n my\u00f6t\u00e4nne, ja se raha, jonka te toitte j\u00e4llens\u00e4 s\u00e4kkein suussa, viek\u00e4\u00e4t my\u00f6t\u00e4nne; taitaa olla, ett\u00e4 se on ep\u00e4huomiosta tapahtunut."
        },
        {
            "chapter": 43,
            "verse": 13,
            "name": "Genesis 43:13",
            "text": "Ottakaat my\u00f6s teid\u00e4n veljenne; ja valmistakaat, ja menk\u00e4\u00e4t j\u00e4lleen sen miehen tyk\u00f6."
        },
        {
            "chapter": 43,
            "verse": 14,
            "name": "Genesis 43:14",
            "text": "Jumala kaikkivaltias antakoon teid\u00e4n l\u00f6yt\u00e4\u00e4 laupiuden sen miehen edess\u00e4, ett\u00e4 h\u00e4n p\u00e4\u00e4st\u00e4is j\u00e4lleen teille toisen teid\u00e4n veljenne, ja (t\u00e4m\u00e4n) BenJaminin. Mutta min\u00e4, niinkuin min\u00e4 olen lapsettomaksi joutunut, olen lapsetonna."
        },
        {
            "chapter": 43,
            "verse": 15,
            "name": "Genesis 43:15",
            "text": "Niin ottivat miehet n\u00e4m\u00e4t lahjat, ja ottivat kaksi sen vertaa rahaa my\u00f6t\u00e4ns\u00e4, ja BenJaminin: valmistivat itsens\u00e4 ja meniv\u00e4t Egyptiin, ja seisoivat Josephin edess\u00e4."
        },
        {
            "chapter": 43,
            "verse": 16,
            "name": "Genesis 43:16",
            "text": "Ja kun Joseph n\u00e4ki BenJaminin heid\u00e4n kanssansa, sanoi h\u00e4n huoneensa haltialle: vie n\u00e4m\u00e4t miehet huoneesen, ja tee ja teurasta ja valmista; sill\u00e4 heid\u00e4n pit\u00e4\u00e4 minun kanssani p\u00e4iv\u00e4llist\u00e4 sy\u00f6m\u00e4n."
        },
        {
            "chapter": 43,
            "verse": 17,
            "name": "Genesis 43:17",
            "text": "Ja se mies teki niinkuin Joseph oli h\u00e4nelle k\u00e4skenyt, ja vei miehet Josephin huoneesen."
        },
        {
            "chapter": 43,
            "verse": 18,
            "name": "Genesis 43:18",
            "text": "Ja he pelk\u00e4siv\u00e4t, ett\u00e4 he vietiin Josephin huoneesen, ja sanoivat: me vied\u00e4\u00e4n t\u00e4nne sen rahan t\u00e4hden jonka me t\u00e4t\u00e4 ennen l\u00f6ysimme meid\u00e4n s\u00e4keist\u00e4mme: ett\u00e4 h\u00e4n soimais meit\u00e4, ja saattais meit\u00e4 oikeuden alle, ja ottais meit\u00e4 orjiksensa, ja meid\u00e4n aasimme."
        },
        {
            "chapter": 43,
            "verse": 19,
            "name": "Genesis 43:19",
            "text": "Sent\u00e4hden he meniv\u00e4t Josephin huoneenhaltian tyk\u00f6, ja puhuttelivat h\u00e4nt\u00e4 huoneen oven edess\u00e4,"
        },
        {
            "chapter": 43,
            "verse": 20,
            "name": "Genesis 43:20",
            "text": "Ja sanoivat: ah, minun herrani, me olimme ennen t\u00e4nne tulleet ostamaan jyvi\u00e4."
        },
        {
            "chapter": 43,
            "verse": 21,
            "name": "Genesis 43:21",
            "text": "Ja koska me tulimme y\u00f6sialle, ja avasimme meid\u00e4n s\u00e4kkimme, katso, niin oli itsekunkin raha s\u00e4kkins\u00e4 suussa t\u00e4ydell\u00e4 painolla: sent\u00e4hden olemme me ne j\u00e4llens\u00e4 my\u00f6t\u00e4mme tuoneet."
        },
        {
            "chapter": 43,
            "verse": 22,
            "name": "Genesis 43:22",
            "text": "Olemme my\u00f6s toisen rahan my\u00f6t\u00e4mme tuoneet ostaaksemme jyvi\u00e4; emme sit\u00e4 tied\u00e4, kuka on pannut j\u00e4llens\u00e4 meid\u00e4n rahamme meid\u00e4n s\u00e4kkiimme."
        },
        {
            "chapter": 43,
            "verse": 23,
            "name": "Genesis 43:23",
            "text": "Mutta h\u00e4n sanoi: olkaat hyv\u00e4ss\u00e4 turvassa, \u00e4lk\u00e4\u00e4t pelj\u00e4tk\u00f6: teid\u00e4n Jumalanne ja teid\u00e4n is\u00e4nne Jumala on teille tavaran antanut teid\u00e4n s\u00e4kkiinne: teid\u00e4n rahanne olen min\u00e4 saanut. Ja h\u00e4n toi Simeonin heid\u00e4n tyk\u00f6ns\u00e4."
        },
        {
            "chapter": 43,
            "verse": 24,
            "name": "Genesis 43:24",
            "text": "Ja se mies vei heid\u00e4t Josephin huoneesen, antoi heille vett\u00e4 pest\u00e4 heid\u00e4n jalkojansa, ja antoi ruokaa heid\u00e4n aaseillensa."
        },
        {
            "chapter": 43,
            "verse": 25,
            "name": "Genesis 43:25",
            "text": "Mutta he valmistivat lahjojansa, siihen asti kuin Joseph tuli p\u00e4iv\u00e4lliselle; sill\u00e4 he olivat kuulleet, ett\u00e4 heid\u00e4n piti siell\u00e4 sy\u00f6m\u00e4n."
        },
        {
            "chapter": 43,
            "verse": 26,
            "name": "Genesis 43:26",
            "text": "Koska Joseph tuli huoneesen, kantoivat he lahjoja huoneesen h\u00e4nelle k\u00e4siss\u00e4ns\u00e4, ja kumarsivat maahan h\u00e4nen eteens\u00e4."
        },
        {
            "chapter": 43,
            "verse": 27,
            "name": "Genesis 43:27",
            "text": "Ja h\u00e4n tervehti heit\u00e4 rakkaasti, ja sanoi: onko teid\u00e4n vanha is\u00e4nne rauhassa, josta te minulle sanoitte? Viel\u00e4k\u00f6 h\u00e4n el\u00e4\u00e4?"
        },
        {
            "chapter": 43,
            "verse": 28,
            "name": "Genesis 43:28",
            "text": "He vastasivat: sinun palvelias meid\u00e4n is\u00e4mme on rauhassa, ja el\u00e4\u00e4 viel\u00e4; ja he kumarsivat ja maahan lankesivat h\u00e4nen edess\u00e4ns\u00e4."
        },
        {
            "chapter": 43,
            "verse": 29,
            "name": "Genesis 43:29",
            "text": "Niin h\u00e4n nosti silm\u00e4ns\u00e4 ja n\u00e4ki veljens\u00e4 BenJaminin, \u00e4itins\u00e4 pojan, ja sanoi: onko t\u00e4m\u00e4 teid\u00e4n nuorin veljenne, josta te sanoitte minlle? Ja sanoi viel\u00e4: Jumala olkoon sinulle armollinen, minun poikani."
        },
        {
            "chapter": 43,
            "verse": 30,
            "name": "Genesis 43:30",
            "text": "Ja Joseph kiiruhti itsens\u00e4; sill\u00e4 h\u00e4nen syd\u00e4mens\u00e4 paloi velje\u00e4ns\u00e4 kohtaan, ja etsi siaa itke\u00e4ksens\u00e4; ja meni kamariinsa, ja itki siell\u00e4."
        },
        {
            "chapter": 43,
            "verse": 31,
            "name": "Genesis 43:31",
            "text": "Ja kuin h\u00e4n oli pessyt kasvona, tuli h\u00e4n ulos; ja pid\u00e4tti itsens\u00e4, ja sanoi: tuokaat leip\u00e4\u00e4."
        },
        {
            "chapter": 43,
            "verse": 32,
            "name": "Genesis 43:32",
            "text": "Ja pantiin erin\u00e4ns\u00e4 h\u00e4nelle ja erin\u00e4ns\u00e4 heille, niin my\u00f6s Egyptil\u00e4isille, jotka h\u00e4nen kanssansa atrioitsivat, erin\u00e4ns\u00e4; sill\u00e4 Egyptil\u00e4iset ei saa sy\u00f6d\u00e4 Hebrealaisten kanssa, sill\u00e4 se on Egyptil\u00e4isille kauhistus."
        },
        {
            "chapter": 43,
            "verse": 33,
            "name": "Genesis 43:33",
            "text": "Ja he istutettiin h\u00e4nen kohdallensa, esikoinen esikoisuutensa j\u00e4lkeen, ja nuorin nuoruutensa j\u00e4lkeen: sit\u00e4 miehet ihmetteliv\u00e4t kesken\u00e4ns\u00e4."
        },
        {
            "chapter": 43,
            "verse": 34,
            "name": "Genesis 43:34",
            "text": "Ja heille kannettiin ruokaa h\u00e4nen p\u00f6yd\u00e4lt\u00e4ns\u00e4, mutta BenJaminille viisi kertaa enemm\u00e4n kuin muille. Ja he joivat ja juopuivat h\u00e4nen kanssansa."
        }
    ]
}