{
    "translation": "Sveto pismo Kralja Jakoba (1769)",
    "abbreviation": "slokjva",
    "lang": "sl",
    "language": "Slovene",
    "direction": "LTR",
    "encoding": "UTF-8",
    "book_nr": 21,
    "book_name": "Ecclesiastes",
    "chapter": 6,
    "name": "Ecclesiastes 6",
    "verses": [
        {
            "chapter": 6,
            "verse": 1,
            "name": "Ecclesiastes 6:1",
            "text": "Je zlo, katerega sem videl pod soncem in to je pogosto med ljudmi: "
        },
        {
            "chapter": 6,
            "verse": 2,
            "name": "Ecclesiastes 6:2",
            "text": "\u010dlovek, kateremu je Bog dal bogastva, premo\u017eenje in \u010dast, tako da za svojo du\u0161o ne potrebuje ni\u010desar od tega, kar si \u017eeli, pa mu vendar Bog ne daje mo\u010di, da od tega j\u00e9, temve\u010d to j\u00e9 tujec: to je ne\u010dimrnost in to je zla bolezen. "
        },
        {
            "chapter": 6,
            "verse": 3,
            "name": "Ecclesiastes 6:3",
            "text": " \u010ce \u010dlovek zaplodi sto otrok in \u017eivi mnogo let, tako da je njegovega \u017eivljenja veliko let in njegova du\u0161a ne bo nasi\u010dena z dobrinami in tudi da nima pogreba; pravim, da je prezgodaj rojeni bolj\u0161i kakor on. "
        },
        {
            "chapter": 6,
            "verse": 4,
            "name": "Ecclesiastes 6:4",
            "text": "Kajti vstopa z ne\u010dimrnostjo in odhaja v temi in njegovo ime bo prekrito s temo. "
        },
        {
            "chapter": 6,
            "verse": 5,
            "name": "Ecclesiastes 6:5",
            "text": "Poleg tega ni videl sonca, niti ni poznal nobene stvari: ta ima ve\u010d po\u010ditka kakor drugi. "
        },
        {
            "chapter": 6,
            "verse": 6,
            "name": "Ecclesiastes 6:6",
            "text": " Da, \u010deprav je bilo re\u010deno, da \u017eivi dvakrat tiso\u010d let, vendar ni videl dobrega: ali ne gredo vsi na en kraj? "
        },
        {
            "chapter": 6,
            "verse": 7,
            "name": "Ecclesiastes 6:7",
            "text": " Vse \u010dlovekovo delo je za njegova usta, pa vendar apetit ni pote\u0161en. "
        },
        {
            "chapter": 6,
            "verse": 8,
            "name": "Ecclesiastes 6:8",
            "text": "Kajti kaj ima modri ve\u010d kakor bedak? Kaj ima ubogi, da zna hoditi pred \u017eive\u010dimi? "
        },
        {
            "chapter": 6,
            "verse": 9,
            "name": "Ecclesiastes 6:9",
            "text": " Bolj\u0161i je pogled o\u010di kakor tavanje po\u017eelenja: tudi to je ne\u010dimrnost in dra\u017eenje duha. "
        },
        {
            "chapter": 6,
            "verse": 10,
            "name": "Ecclesiastes 6:10",
            "text": "To, kar je bilo, je \u017ee imenovano in je znano, da je to \u010dlovek: niti se ne sme pri\u010dkati s tistim, ki je mogo\u010dnej\u0161i kakor on. "
        },
        {
            "chapter": 6,
            "verse": 11,
            "name": "Ecclesiastes 6:11",
            "text": " Vide\u010d, da je tukaj mnogo stvari, ki pove\u010dujejo ne\u010dimrnost, kaj je \u010dlovek bolj\u0161i? "
        },
        {
            "chapter": 6,
            "verse": 12,
            "name": "Ecclesiastes 6:12",
            "text": "Kajti kdo ve kaj je bolj\u0161e za \u010dloveka v tem \u017eivljenju, vse dni njegovega praznega \u017eivljenja, ki jih pre\u017eivlja kakor senca? Kajti kdo lahko \u010dloveku pove kaj bo za njim pod soncem? "
        }
    ]
}