{
    "translation": "Ndebele Bible",
    "abbreviation": "ndebele",
    "lang": "nd",
    "language": "Ndebele",
    "direction": "LTR",
    "encoding": "UTF-8",
    "book_nr": 43,
    "book_name": "John",
    "chapter": 3,
    "name": "John 3",
    "verses": [
        {
            "chapter": 3,
            "verse": 1,
            "name": "John 3:1",
            "text": "    Kwakukhona-ke umuntu wakubaFarisi, nguNikodima ibizo lakhe, isikhulu samaJuda; "
        },
        {
            "chapter": 3,
            "verse": 2,
            "name": "John 3:2",
            "text": "lo weza kuJesu ebusuku, wathi kuye: Rabi*, siyazi ukuthi ungumfundisi ovela kuNkulunkulu; ngoba kakho ongenza lezizibonakaliso ozenzayo wena, uba uNkulunkulu engelaye. "
        },
        {
            "chapter": 3,
            "verse": 3,
            "name": "John 3:3",
            "text": "UJesu waphendula wathi kuye: Ngiqinisile, ngiqinisile, ngithi kuwe: Ngaphandle kokuthi umuntu azalwe ngokutsha, angewubone umbuso kaNkulunkulu. "
        },
        {
            "chapter": 3,
            "verse": 4,
            "name": "John 3:4",
            "text": "UNikodima wathi kuye: Umuntu angazalwa njani esemdala? Angangena yini ngokwesibili esiswini sikanina azalwe? "
        },
        {
            "chapter": 3,
            "verse": 5,
            "name": "John 3:5",
            "text": "UJesu waphendula wathi: Ngiqinisile, ngiqinisile, ngithi kuwe: Uba umuntu engazalwanga ngamanzi langoMoya, angengene embusweni kaNkulunkulu. "
        },
        {
            "chapter": 3,
            "verse": 6,
            "name": "John 3:6",
            "text": "Lokho okuzelwe yinyama kuyinyama; lalokho okuzelwe nguMoya kungumoya. "
        },
        {
            "chapter": 3,
            "verse": 7,
            "name": "John 3:7",
            "text": "Ungamangali ukuthi ngithe kuwe: Kufanele ukuthi lizalwe ngokutsha. "
        },
        {
            "chapter": 3,
            "verse": 8,
            "name": "John 3:8",
            "text": "Umoya uphephethela lapho othanda khona, uyawuzwa umdumo wawo, kodwa kawazi lapho ovela khona lalapho oya khona; unjalo wonke ozelwe nguMoya. "
        },
        {
            "chapter": 3,
            "verse": 9,
            "name": "John 3:9",
            "text": "UNikodima waphendula wathi kuye: Lezizinto zingenzeka njani? "
        },
        {
            "chapter": 3,
            "verse": 10,
            "name": "John 3:10",
            "text": "UJesu waphendula wathi kuye: Wena ungumfundisi wakoIsrayeli, kodwa kawuzazi lezizinto yini? "
        },
        {
            "chapter": 3,
            "verse": 11,
            "name": "John 3:11",
            "text": "Ngiqinisile, ngiqinisile, ngithi kuwe: Sikhuluma esikwaziyo, sifakaze esikubonileyo; kodwa kalibemukeli ubufakazi bethu. "
        },
        {
            "chapter": 3,
            "verse": 12,
            "name": "John 3:12",
            "text": "Nxa ngilitshelile izinto zomhlaba njalo lingakholwa, lizakholwa njani, uba ngilitshela izinto zezulwini? "
        },
        {
            "chapter": 3,
            "verse": 13,
            "name": "John 3:13",
            "text": "Njalo kakho owake wenyukela ezulwini, ngaphandle kowehla ezulwini, iNdodana yomuntu esezulwini. "
        },
        {
            "chapter": 3,
            "verse": 14,
            "name": "John 3:14",
            "text": "Futhi njengoba uMozisi waphakamisa inyoka enkangala, ngokunjalo iNdodana yomuntu imele ukuphakanyiswa; "
        },
        {
            "chapter": 3,
            "verse": 15,
            "name": "John 3:15",
            "text": "ukuze wonke okholwa kuyo angabhubhi, kodwa abe lempilo elaphakade. "
        },
        {
            "chapter": 3,
            "verse": 16,
            "name": "John 3:16",
            "text": "Ngoba uNkulunkulu wawuthanda umhlaba ngokunjalo, ngakho wanika iNdodana yakhe ezelwe yodwa, ukuze wonke okholwa kuyo angabhubhi, kodwa abe lempilo elaphakade. "
        },
        {
            "chapter": 3,
            "verse": 17,
            "name": "John 3:17",
            "text": "Ngoba uNkulunkulu kayithumanga iNdodana yakhe emhlabeni ukuthi iwulahle umhlaba, kodwa ukuze umhlaba usindiswe ngayo. "
        },
        {
            "chapter": 3,
            "verse": 18,
            "name": "John 3:18",
            "text": "Okholwa kiyo kalahlwa; kodwa ongakholwayo uselahliwe, ngoba engakholwanga ebizweni leNdodana kaNkulunkulu ezelwe yodwa. "
        },
        {
            "chapter": 3,
            "verse": 19,
            "name": "John 3:19",
            "text": "Ukulahlwa kuyilokhu, ukuthi ukukhanya kufikile emhlabeni, kodwa abantu bathanda ubumnyama kulokukhanya; ngoba imisebenzi yabo yayimibi. "
        },
        {
            "chapter": 3,
            "verse": 20,
            "name": "John 3:20",
            "text": "Ngoba wonke owenza okubi uzonda ukukhanya, njalo kezi ekukhanyeni, ukuze imisebenzi yakhe ingasolwa. "
        },
        {
            "chapter": 3,
            "verse": 21,
            "name": "John 3:21",
            "text": "Kodwa owenza iqiniso uyeza ekukhanyeni, ukuze imisebenzi yakhe ibonakale, ukuthi yenziwe kuNkulunkulu.      "
        },
        {
            "chapter": 3,
            "verse": 22,
            "name": "John 3:22",
            "text": "Emva kwalezizinto uJesu weza elizweni leJudiya labafundi bakhe; njalo wahlala khona kanye labo njalo wabhabhathiza.   "
        },
        {
            "chapter": 3,
            "verse": 23,
            "name": "John 3:23",
            "text": "UJohane laye wayebhabhathiza eEnoni eduze leSalima, ngoba kwakulamanzi amanengi khona; njalo babesiza bebhabhathizwa. "
        },
        {
            "chapter": 3,
            "verse": 24,
            "name": "John 3:24",
            "text": "Ngoba uJohane wayengakaphoselwa entolongweni.   "
        },
        {
            "chapter": 3,
            "verse": 25,
            "name": "John 3:25",
            "text": "Kwasekusiba khona ukuphikisana phakathi kwabafundi bakaJohane lamaJuda ngokuhlambulula. "
        },
        {
            "chapter": 3,
            "verse": 26,
            "name": "John 3:26",
            "text": "Basebesiza kuJohane bathi kuye: Rabi, lowo owawulaye ngaphetsheya kweJordani, owamfakazelayo, khangela yena uyabhabhathiza, njalo bayeza kuye bonke. "
        },
        {
            "chapter": 3,
            "verse": 27,
            "name": "John 3:27",
            "text": "UJohane waphendula wathi: Umuntu angemukele ulutho, ngaphandle kokuthi alunikwe luvela ezulwini. "
        },
        {
            "chapter": 3,
            "verse": 28,
            "name": "John 3:28",
            "text": "Lina ngokwenu liyangifakazela ukuthi ngathi: Kangisuye uKristu mina, kodwa ukuthi ngithunyiwe ngaphambi kwakhe. "
        },
        {
            "chapter": 3,
            "verse": 29,
            "name": "John 3:29",
            "text": "Olomakoti ungumyeni; kodwa umngane womyeni, esimiyo simuzwa, sithokoza ngentokozo ngelizwi lomyeni; ngakho lintokozo yami isiphelele. "
        },
        {
            "chapter": 3,
            "verse": 30,
            "name": "John 3:30",
            "text": "Umele ukukhula yena, kodwa mina nginciphe.      "
        },
        {
            "chapter": 3,
            "verse": 31,
            "name": "John 3:31",
            "text": "Ovela phezulu uphezu kwakho konke. Ovela emhlabeni, ungowomhlaba, njalo ukhuluma okomhlaba; ovela ezulwini uphezu kwakho konke. "
        },
        {
            "chapter": 3,
            "verse": 32,
            "name": "John 3:32",
            "text": "Lalokho akubonileyo lakuzwileyo, ufakaza khona; kodwa kakho owemukela ubufakazi bakhe. "
        },
        {
            "chapter": 3,
            "verse": 33,
            "name": "John 3:33",
            "text": "Owemukele ubufakazi bakhe uphawulile ukuthi uNkulunkulu uqinisile. "
        },
        {
            "chapter": 3,
            "verse": 34,
            "name": "John 3:34",
            "text": "Ngoba lowo uNkulunkulu amthumileyo, ukhuluma amazwi kaNkulunkulu; ngoba uNkulunkulu umnika uMoya kungeyisikho ngesilinganiso. "
        },
        {
            "chapter": 3,
            "verse": 35,
            "name": "John 3:35",
            "text": "UYise uyayithanda iNdodana, njalo unikele izinto zonke esandleni sayo. "
        },
        {
            "chapter": 3,
            "verse": 36,
            "name": "John 3:36",
            "text": "Yena okholwa eNdodaneni ulempilo elaphakade; kodwa yena ongakholwayo eNdodaneni, kayikubona impilo, kodwa ulaka lukaNkulunkulu luhlezi phezu kwakhe.    "
        }
    ]
}