{
    "translation": "Masoretic Text parallel to the Samaritan Pentateuch",
    "abbreviation": "spmt",
    "lang": "he",
    "language": "Hebrew",
    "direction": "RTL",
    "encoding": "UTF-8",
    "book_nr": 2,
    "book_name": "Exodus",
    "chapter": 14,
    "name": "Exodus 14",
    "verses": [
        {
            "chapter": 14,
            "verse": 1,
            "name": "Exodus 14:1",
            "text": "\u05d5\u05d9\u05d3\u05d1\u05e8 \u05d9\u05d4\u05d5\u05d4 \u05d0\u05dc \u05de\u05e9\u05d4 \u05dc\u05d0\u05de\u05e8"
        },
        {
            "chapter": 14,
            "verse": 2,
            "name": "Exodus 14:2",
            "text": "\u05d3\u05d1\u05e8 \u05d0\u05dc \u05d1\u05e0\u05d9 \u05d9\u05e9\u05e8\u05d0\u05dc \u05d5\u05d9\u05e9\u05d1\u05d5 \u05d5\u05d9\u05d7\u05e0\u05d5 \u05dc\u05e4\u05e0\u05d9 \u05e4\u05d9 \u05d4\u05d7\u05d9\u05e8\u05ea \u05d1\u05d9\u05df \u05de\u05d2\u05d3\u05dc \u05d5\u05d1\u05d9\u05df \u05d4\u05d9\u05dd \u05dc\u05e4\u05e0\u05d9 \u05d1\u05e2\u05dc \u05e6\u05e4\u05df \u05e0\u05db\u05d7\u05d5 \u05ea\u05d7\u05e0\u05d5 \u05e2\u05dc \u05d4\u05d9\u05dd"
        },
        {
            "chapter": 14,
            "verse": 3,
            "name": "Exodus 14:3",
            "text": "\u05d5\u05d0\u05de\u05e8 \u05e4\u05e8\u05e2\u05d4 . \u05dc\u05d1\u05e0\u05d9 \u05d9\u05e9\u05e8\u05d0\u05dc \u05e0\u05d1\u05db\u05d9\u05dd \u05d4\u05dd \u05d1\u05d0\u05e8\u05e5 \u05e1\u05d2\u05e8 \u05e2\u05dc\u05d9\u05d4\u05dd \u05d4\u05de\u05d3\u05d1\u05e8"
        },
        {
            "chapter": 14,
            "verse": 4,
            "name": "Exodus 14:4",
            "text": "\u05d5\u05d7\u05d6\u05e7\u05ea\u05d9 \u05d0\u05ea \u05dc\u05d1 \u05e4\u05e8\u05e2\u05d4 \u05d5\u05e8\u05d3\u05e3 \u05d0\u05d7\u05e8\u05d9\u05d4\u05dd \u05d5\u05d0\u05db\u05d1\u05d3\u05d4 \u05d1\u05e4\u05e8\u05e2\u05d4 \u05d5\u05d1\u05db\u05dc \u05d7\u05d9\u05dc\u05d5 \u05d5\u05d9\u05d3\u05e2\u05d5 \u05de\u05e6\u05e8\u05d9\u05dd \u05db\u05d9 \u05d0\u05e0\u05d9 \u05d9\u05d4\u05d5\u05d4 \u05d5\u05d9\u05e2\u05e9\u05d5 \u05db\u05df"
        },
        {
            "chapter": 14,
            "verse": 5,
            "name": "Exodus 14:5",
            "text": "\u05d5\u05d9\u05d2\u05d3 \u05dc\u05de\u05dc\u05da \u05de\u05e6\u05e8\u05d9\u05dd \u05db\u05d9 \u05d1\u05e8\u05d7 \u05d4\u05e2\u05dd \u05d5\u05d9\u05d4\u05e4\u05da \u05dc\u05d1\u05d1 \u05e4\u05e8\u05e2\u05d4 \u05d5\u05e2\u05d1\u05d3\u05d9\u05d5 \u05d0\u05dc \u05d4\u05e2\u05dd \u05d5\u05d9\u05d0\u05de\u05e8\u05d5 \u05de\u05d4 \u05d6\u05d0\u05ea \u05e2\u05e9\u05d9\u05e0\u05d5 \u05db\u05d9 \u05e9\u05dc\u05d7\u05e0\u05d5 \u05d0\u05ea \u05d9\u05e9\u05e8\u05d0\u05dc \u05de\u05e2\u05d1\u05d3\u05e0\u05d5"
        },
        {
            "chapter": 14,
            "verse": 6,
            "name": "Exodus 14:6",
            "text": "\u05d5\u05d9\u05d0\u05e1\u05e8 \u05d0\u05ea \u05e8\u05db\u05d1\u05d5 \u05d5\u05d0\u05ea \u05e2\u05de\u05d5 \u05dc\u05e7\u05d7 \u05e2\u05de\u05d5"
        },
        {
            "chapter": 14,
            "verse": 7,
            "name": "Exodus 14:7",
            "text": "\u05d5\u05d9\u05e7\u05d7 \u05e9\u05e9 \u05de\u05d0\u05d5\u05ea \u05e8\u05db\u05d1 \u05d1\u05d7\u05d5\u05e8 \u05d5\u05db\u05dc \u05e8\u05db\u05d1 \u05de\u05e6\u05e8\u05d9\u05dd \u05d5\u05e9\u05dc\u05e9\u05dd \u05e2\u05dc \u05db\u05dc\u05d5"
        },
        {
            "chapter": 14,
            "verse": 8,
            "name": "Exodus 14:8",
            "text": "\u05d5\u05d9\u05d7\u05d6\u05e7 \u05d9\u05d4\u05d5\u05d4 \u05d0\u05ea \u05dc\u05d1 \u05e4\u05e8\u05e2\u05d4 \u05de\u05dc\u05da \u05de\u05e6\u05e8\u05d9\u05dd \u05d5\u05d9\u05e8\u05d3\u05e3 \u05d0\u05d7\u05e8\u05d9 \u05d1\u05e0\u05d9 \u05d9\u05e9\u05e8\u05d0\u05dc \u05d5\u05d1\u05e0\u05d9 \u05d9\u05e9\u05e8\u05d0\u05dc \u05d9\u05e6\u05d0\u05d9\u05dd \u05d1\u05d9\u05d3 \u05e8\u05de\u05d4"
        },
        {
            "chapter": 14,
            "verse": 9,
            "name": "Exodus 14:9",
            "text": "\u05d5\u05d9\u05e8\u05d3\u05e4\u05d5 \u05de\u05e6\u05e8\u05d9\u05dd \u05d0\u05d7\u05e8\u05d9\u05d4\u05dd \u05d5\u05d9\u05e9\u05d9\u05d2\u05d5 \u05d0\u05d5\u05ea\u05dd \u05d7\u05e0\u05d9\u05dd \u05e2\u05dc \u05d4\u05d9\u05dd \u05db\u05dc \u05e1\u05d5\u05e1 \u05e8\u05db\u05d1 \u05e4\u05e8\u05e2\u05d4 \u05d5\u05e4\u05e8\u05e9\u05d9\u05d5 \u05d5\u05d7\u05d9\u05dc\u05d5 \u05e2\u05dc \u05e4\u05d9 \u05d4\u05d7\u05d9\u05e8\u05ea \u05dc\u05e4\u05e0\u05d9 \u05d1\u05e2\u05dc \u05e6\u05e4\u05df"
        },
        {
            "chapter": 14,
            "verse": 10,
            "name": "Exodus 14:10",
            "text": "\u05d5\u05e4\u05e8\u05e2\u05d4 \u05d4\u05e7\u05e8\u05d9\u05d1 \u05d5\u05d9\u05e9\u05d0\u05d5 \u05d1\u05e0\u05d9 \u05d9\u05e9\u05e8\u05d0\u05dc \u05d0\u05ea \u05e2\u05d9\u05e0\u05d9\u05d4\u05dd . \u05d5\u05d4\u05e0\u05d4 \u05de\u05e6\u05e8\u05d9\u05dd \u05e0\u05e1\u05e2 \u05d0\u05d7\u05e8\u05d9\u05d4\u05dd \u05d5\u05d9\u05d9\u05e8\u05d0\u05d5 \u05de\u05d0\u05d3 \u05d5\u05d9\u05e6\u05e2\u05e7\u05d5 \u05d1\u05e0\u05d9 \u05d9\u05e9\u05e8\u05d0\u05dc \u05d0\u05dc \u05d9\u05d4\u05d5\u05d4"
        },
        {
            "chapter": 14,
            "verse": 11,
            "name": "Exodus 14:11",
            "text": "\u05d5\u05d9\u05d0\u05de\u05e8\u05d5 \u05d0\u05dc \u05de\u05e9\u05d4 \u05d4\u05de\u05d1\u05dc\u05d9 \u05d0\u05d9\u05df \u05e7\u05d1\u05e8\u05d9\u05dd \u05d1\u05de\u05e6\u05e8\u05d9\u05dd \u05dc\u05e7\u05d7\u05ea\u05e0\u05d5 \u05dc\u05de\u05d5\u05ea \u05d1\u05de\u05d3\u05d1\u05e8 \u05de\u05d4 \u05d6\u05d0\u05ea \u05e2\u05e9\u05d9\u05ea \u05dc\u05e0\u05d5 \u05dc\u05d4\u05d5\u05e6\u05d9\u05d0\u05e0\u05d5 \u05de\u05de\u05e6\u05e8\u05d9\u05dd"
        },
        {
            "chapter": 14,
            "verse": 12,
            "name": "Exodus 14:12",
            "text": "\u05d4\u05dc\u05d0 \u05d6\u05d4 \u05d4\u05d3\u05d1\u05e8 \u05d0\u05e9\u05e8 \u05d3\u05d1\u05e8\u05e0\u05d5 \u05d0\u05dc\u05d9\u05da \u05d1\u05de\u05e6\u05e8\u05d9\u05dd \u05dc\u05d0\u05de\u05e8 \u05d7\u05d3\u05dc . \u05de\u05de\u05e0\u05d5 \u05d5\u05e0\u05e2\u05d1\u05d3\u05d4 \u05d0\u05ea \u05de\u05e6\u05e8\u05d9\u05dd \u05db\u05d9 \u05d8\u05d5\u05d1 \u05dc\u05e0\u05d5 \u05e2\u05d1\u05d3 \u05d0\u05ea \u05de\u05e6\u05e8\u05d9\u05dd \u05de\u05de\u05ea\u05e0\u05d5 \u05d1\u05de\u05d3\u05d1\u05e8"
        },
        {
            "chapter": 14,
            "verse": 13,
            "name": "Exodus 14:13",
            "text": "\u05d5\u05d9\u05d0\u05de\u05e8 \u05de\u05e9\u05d4 \u05d0\u05dc \u05d4\u05e2\u05dd \u05d0\u05dc \u05ea\u05d9\u05e8\u05d0\u05d5 \u05d4\u05ea\u05d9\u05e6\u05d1\u05d5 \u05d5\u05e8\u05d0\u05d5 \u05d0\u05ea \u05d9\u05e9\u05d5\u05e2\u05ea \u05d9\u05d4\u05d5\u05d4 \u05d0\u05e9\u05e8 \u05d9\u05e2\u05e9\u05d4 \u05dc\u05db\u05dd \u05d4\u05d9\u05d5\u05dd \u05db\u05d9 \u05d0\u05e9\u05e8 \u05e8\u05d0\u05d9\u05ea\u05dd \u05d0\u05ea \u05de\u05e6\u05e8\u05d9\u05dd \u05d4\u05d9\u05d5\u05dd \u05dc\u05d0 \u05ea\u05e1\u05e4\u05d5 \u05dc\u05e8\u05d0\u05ea\u05dd \u05e2\u05d5\u05d3 \u05e2\u05d3 \u05e2\u05d5\u05dc\u05dd"
        },
        {
            "chapter": 14,
            "verse": 14,
            "name": "Exodus 14:14",
            "text": "\u05d9\u05d4\u05d5\u05d4 \u05d9\u05dc\u05d7\u05dd \u05dc\u05db\u05dd \u05d5\u05d0\u05ea\u05dd \u05ea\u05d7\u05e8\u05e9\u05d5\u05df"
        },
        {
            "chapter": 14,
            "verse": 15,
            "name": "Exodus 14:15",
            "text": "\u05d5\u05d9\u05d0\u05de\u05e8 \u05d9\u05d4\u05d5\u05d4 \u05d0\u05dc \u05de\u05e9\u05d4 \u05de\u05d4 \u05ea\u05e6\u05e2\u05e7 \u05d0\u05dc\u05d9 \u05d3\u05d1\u05e8 \u05d0\u05dc \u05d1\u05e0\u05d9 \u05d9\u05e9\u05e8\u05d0\u05dc \u05d5\u05d9\u05e1\u05e2\u05d5"
        },
        {
            "chapter": 14,
            "verse": 16,
            "name": "Exodus 14:16",
            "text": "\u05d5\u05d0\u05ea\u05d4 \u05d4\u05e8\u05dd \u05d0\u05ea \u05de\u05d8\u05da \u05d5\u05e0\u05d8\u05d4 \u05d0\u05ea \u05d9\u05d3\u05da \u05e2\u05dc \u05d4\u05d9\u05dd \u05d5\u05d1\u05e7\u05e2\u05d4\u05d5 \u05d5\u05d9\u05d1\u05d0\u05d5 \u05d1\u05e0\u05d9 \u05d9\u05e9\u05e8\u05d0\u05dc \u05d1\u05ea\u05d5\u05da \u05d4\u05d9\u05dd \u05d1\u05d9\u05d1\u05e9\u05d4"
        },
        {
            "chapter": 14,
            "verse": 17,
            "name": "Exodus 14:17",
            "text": "\u05d5\u05d0\u05e0\u05d9 \u05d4\u05e0\u05e0\u05d9 \u05de\u05d7\u05d6\u05e7 \u05d0\u05ea \u05dc\u05d1 \u05de\u05e6\u05e8\u05d9\u05dd \u05d5\u05d9\u05d1\u05d0\u05d5 \u05d0\u05d7\u05e8\u05d9\u05d4\u05dd \u05d5\u05d0\u05db\u05d1\u05d3\u05d4 \u05d1\u05e4\u05e8\u05e2\u05d4 \u05d5\u05d1\u05db\u05dc \u05d7\u05d9\u05dc\u05d5 \u05d1\u05e8\u05db\u05d1\u05d5 \u05d5\u05d1\u05e4\u05e8\u05e9\u05d9\u05d5"
        },
        {
            "chapter": 14,
            "verse": 18,
            "name": "Exodus 14:18",
            "text": "\u05d5\u05d9\u05d3\u05e2\u05d5 . \u05de\u05e6\u05e8\u05d9\u05dd \u05db\u05d9 \u05d0\u05e0\u05d9 \u05d9\u05d4\u05d5\u05d4 \u05d1\u05d4\u05db\u05d1\u05d3\u05d9 \u05d1\u05e4\u05e8\u05e2\u05d4 . . \u05d1\u05e8\u05db\u05d1\u05d5 \u05d5\u05d1\u05e4\u05e8\u05e9\u05d9\u05d5"
        },
        {
            "chapter": 14,
            "verse": 19,
            "name": "Exodus 14:19",
            "text": "\u05d5\u05d9\u05e1\u05e2 \u05de\u05dc\u05d0\u05da \u05d4\u05d0\u05dc\u05d4\u05d9\u05dd \u05d4\u05d4\u05dc\u05da \u05dc\u05e4\u05e0\u05d9 \u05de\u05d7\u05e0\u05d4 \u05d9\u05e9\u05e8\u05d0\u05dc \u05d5\u05d9\u05dc\u05da \u05de\u05d0\u05d7\u05e8\u05d9\u05d4\u05dd \u05d5\u05d9\u05e1\u05e2 \u05e2\u05de\u05d5\u05d3 \u05d4\u05e2\u05e0\u05df \u05de\u05e4\u05e0\u05d9\u05d4\u05dd \u05d5\u05d9\u05e2\u05de\u05d3 \u05de\u05d0\u05d7\u05e8\u05d9\u05d4\u05dd"
        },
        {
            "chapter": 14,
            "verse": 20,
            "name": "Exodus 14:20",
            "text": "\u05d5\u05d9\u05d1\u05d0 \u05d1\u05d9\u05df \u05de\u05d7\u05e0\u05d4 \u05de\u05e6\u05e8\u05d9\u05dd \u05d5\u05d1\u05d9\u05df \u05de\u05d7\u05e0\u05d4 \u05d9\u05e9\u05e8\u05d0\u05dc \u05d5\u05d9\u05d4\u05d9 \u05d4\u05e2\u05e0\u05df \u05d5\u05d4\u05d7\u05e9\u05da \u05d5\u05d9\u05d0\u05e8 \u05d0\u05ea \u05d4\u05dc\u05d9\u05dc\u05d4 \u05d5\u05dc\u05d0 \u05e7\u05e8\u05d1 \u05d6\u05d4 \u05d0\u05dc \u05d6\u05d4 \u05db\u05dc \u05d4\u05dc\u05d9\u05dc\u05d4"
        },
        {
            "chapter": 14,
            "verse": 21,
            "name": "Exodus 14:21",
            "text": "\u05d5\u05d9\u05d8 \u05de\u05e9\u05d4 \u05d0\u05ea \u05d9\u05d3\u05d5 \u05e2\u05dc \u05d4\u05d9\u05dd \u05d5\u05d9\u05d5\u05dc\u05da \u05d9\u05d4\u05d5\u05d4 \u05d0\u05ea \u05d4\u05d9\u05dd \u05d1\u05e8\u05d5\u05d7 \u05e7\u05d3\u05d9\u05dd \u05e2\u05d6\u05d4 \u05db\u05dc \u05d4\u05dc\u05d9\u05dc\u05d4 \u05d5\u05d9\u05e9\u05dd \u05d0\u05ea \u05d4\u05d9\u05dd \u05dc\u05d7\u05e8\u05d1\u05d4 \u05d5\u05d9\u05d1\u05e7\u05e2\u05d5 \u05d4\u05de\u05d9\u05dd"
        },
        {
            "chapter": 14,
            "verse": 22,
            "name": "Exodus 14:22",
            "text": "\u05d5\u05d9\u05d1\u05d0\u05d5 \u05d1\u05e0\u05d9 \u05d9\u05e9\u05e8\u05d0\u05dc \u05d1\u05ea\u05d5\u05da \u05d4\u05d9\u05dd \u05d1\u05d9\u05d1\u05e9\u05d4 \u05d5\u05d4\u05de\u05d9\u05dd \u05dc\u05d4\u05dd \u05d7\u05d5\u05de\u05d4 \u05de\u05d9\u05de\u05d9\u05e0\u05dd \u05d5\u05de\u05e9\u05de\u05d0\u05dc\u05dd"
        },
        {
            "chapter": 14,
            "verse": 23,
            "name": "Exodus 14:23",
            "text": "\u05d5\u05d9\u05e8\u05d3\u05e4\u05d5 \u05de\u05e6\u05e8\u05d9\u05dd \u05d5\u05d9\u05d1\u05d0\u05d5 \u05d0\u05d7\u05e8\u05d9\u05d4\u05dd \u05db\u05dc \u05e1\u05d5\u05e1 \u05e4\u05e8\u05e2\u05d4 \u05e8\u05db\u05d1\u05d5 \u05d5\u05e4\u05e8\u05e9\u05d9\u05d5 \u05d0\u05dc \u05ea\u05d5\u05da \u05d4\u05d9\u05dd"
        },
        {
            "chapter": 14,
            "verse": 24,
            "name": "Exodus 14:24",
            "text": "\u05d5\u05d9\u05d4\u05d9 \u05d1\u05d0\u05e9\u05de\u05e8\u05ea \u05d4\u05d1\u05e7\u05e8 \u05d5\u05d9\u05e9\u05e7\u05e3 \u05d9\u05d4\u05d5\u05d4 \u05d0\u05dc \u05de\u05d7\u05e0\u05d4 \u05de\u05e6\u05e8\u05d9\u05dd \u05d1\u05e2\u05de\u05d5\u05d3 \u05d0\u05e9 \u05d5\u05e2\u05e0\u05df \u05d5\u05d9\u05d4\u05dd \u05d0\u05ea \u05de\u05d7\u05e0\u05d4 \u05de\u05e6\u05e8\u05d9\u05dd"
        },
        {
            "chapter": 14,
            "verse": 25,
            "name": "Exodus 14:25",
            "text": "\u05d5\u05d9\u05e1\u05e8 \u05d0\u05ea \u05d0\u05e4\u05df \u05de\u05e8\u05db\u05d1\u05ea\u05d9\u05d5 \u05d5\u05d9\u05e0\u05d4\u05d2\u05d4\u05d5 \u05d1\u05db\u05d1\u05d3\u05ea \u05d5\u05d9\u05d0\u05de\u05e8 \u05de\u05e6\u05e8\u05d9\u05dd \u05d0\u05e0\u05d5\u05e1\u05d4 \u05de\u05e4\u05e0\u05d9 \u05d9\u05e9\u05e8\u05d0\u05dc \u05db\u05d9 \u05d9\u05d4\u05d5\u05d4 \u05e0\u05dc\u05d7\u05dd \u05dc\u05d4\u05dd \u05d1\u05de\u05e6\u05e8\u05d9\u05dd"
        },
        {
            "chapter": 14,
            "verse": 26,
            "name": "Exodus 14:26",
            "text": "\u05d5\u05d9\u05d0\u05de\u05e8 \u05d9\u05d4\u05d5\u05d4 \u05d0\u05dc \u05de\u05e9\u05d4 \u05e0\u05d8\u05d4 \u05d0\u05ea \u05d9\u05d3\u05da \u05e2\u05dc \u05d4\u05d9\u05dd \u05d5\u05d9\u05e9\u05d1\u05d5 \u05d4\u05de\u05d9\u05dd \u05e2\u05dc \u05de\u05e6\u05e8\u05d9\u05dd \u05e2\u05dc \u05e8\u05db\u05d1\u05d5 \u05d5\u05e2\u05dc \u05e4\u05e8\u05e9\u05d9\u05d5"
        },
        {
            "chapter": 14,
            "verse": 27,
            "name": "Exodus 14:27",
            "text": "\u05d5\u05d9\u05d8 \u05de\u05e9\u05d4 \u05d0\u05ea \u05d9\u05d3\u05d5 \u05e2\u05dc \u05d4\u05d9\u05dd \u05d5\u05d9\u05e9\u05d1 \u05d4\u05d9\u05dd \u05dc\u05e4\u05e0\u05d5\u05ea \u05d1\u05e7\u05e8 \u05dc\u05d0\u05d9\u05ea\u05e0\u05d5 \u05d5\u05de\u05e6\u05e8\u05d9\u05dd \u05e0\u05e1\u05d9\u05dd \u05dc\u05e7\u05e8\u05d0\u05ea\u05d5 \u05d5\u05d9\u05e0\u05e2\u05e8 \u05d9\u05d4\u05d5\u05d4 \u05d0\u05ea \u05de\u05e6\u05e8\u05d9\u05dd \u05d1\u05ea\u05d5\u05da \u05d4\u05d9\u05dd"
        },
        {
            "chapter": 14,
            "verse": 28,
            "name": "Exodus 14:28",
            "text": "\u05d5\u05d9\u05e9\u05d1\u05d5 \u05d4\u05de\u05d9\u05dd \u05d5\u05d9\u05db\u05e1\u05d5 \u05d0\u05ea \u05d4\u05e8\u05db\u05d1 \u05d5\u05d0\u05ea \u05d4\u05e4\u05e8\u05e9\u05d9\u05dd \u05dc\u05db\u05dc \u05d7\u05d9\u05dc \u05e4\u05e8\u05e2\u05d4 \u05d4\u05d1\u05d0\u05d9\u05dd \u05d0\u05d7\u05e8\u05d9\u05d4\u05dd \u05d1\u05d9\u05dd \u05dc\u05d0 \u05e0\u05e9\u05d0\u05e8 \u05d1\u05d4\u05dd \u05e2\u05d3 \u05d0\u05d7\u05d3"
        },
        {
            "chapter": 14,
            "verse": 29,
            "name": "Exodus 14:29",
            "text": "\u05d5\u05d1\u05e0\u05d9 \u05d9\u05e9\u05e8\u05d0\u05dc \u05d4\u05dc\u05db\u05d5 \u05d1\u05d9\u05d1\u05e9\u05d4 \u05d1\u05ea\u05d5\u05da \u05d4\u05d9\u05dd \u05d5\u05d4\u05de\u05d9\u05dd \u05dc\u05d4\u05dd \u05d7\u05de\u05d4 \u05de\u05d9\u05de\u05d9\u05e0\u05dd \u05d5\u05de\u05e9\u05de\u05d0\u05dc\u05dd"
        },
        {
            "chapter": 14,
            "verse": 30,
            "name": "Exodus 14:30",
            "text": "\u05d5\u05d9\u05d5\u05e9\u05e2 \u05d9\u05d4\u05d5\u05d4 \u05d1\u05d9\u05d5\u05dd \u05d4\u05d4\u05d5\u05d0 \u05d0\u05ea \u05d9\u05e9\u05e8\u05d0\u05dc \u05de\u05d9\u05d3 \u05de\u05e6\u05e8\u05d9\u05dd \u05d5\u05d9\u05e8\u05d0 \u05d9\u05e9\u05e8\u05d0\u05dc \u05d0\u05ea \u05de\u05e6\u05e8\u05d9\u05dd \u05de\u05ea \u05e2\u05dc \u05e9\u05e4\u05ea \u05d4\u05d9\u05dd"
        },
        {
            "chapter": 14,
            "verse": 31,
            "name": "Exodus 14:31",
            "text": "\u05d5\u05d9\u05e8\u05d0 \u05d9\u05e9\u05e8\u05d0\u05dc \u05d0\u05ea \u05d4\u05d9\u05d3 \u05d4\u05d2\u05d3\u05dc\u05d4 \u05d0\u05e9\u05e8 \u05e2\u05e9\u05d4 \u05d9\u05d4\u05d5\u05d4 \u05d1\u05de\u05e6\u05e8\u05d9\u05dd \u05d5\u05d9\u05d9\u05e8\u05d0\u05d5 \u05d4\u05e2\u05dd \u05d0\u05ea \u05d9\u05d4\u05d5\u05d4 \u05d5\u05d9\u05d0\u05de\u05d9\u05e0\u05d5 \u05d1\u05d9\u05d4\u05d5\u05d4 \u05d5\u05d1\u05de\u05e9\u05d4 \u05e2\u05d1\u05d3\u05d5  "
        }
    ]
}