{
    "translation": "Urdu Geo Version (UGV)",
    "abbreviation": "urdugeo",
    "lang": "ur",
    "language": "Urdu",
    "direction": "RTL",
    "encoding": "UTF-8",
    "book_nr": 14,
    "book_name": "2 Chronicles",
    "chapter": 23,
    "name": "2 Chronicles 23",
    "verses": [
        {
            "chapter": 23,
            "verse": 1,
            "name": "2 Chronicles 23:1",
            "text": " \u0639\u062a\u0644\u06cc\u0627\u06c1 \u06a9\u06cc \u062d\u06a9\u0648\u0645\u062a \u06a9\u06d2 \u0633\u0627\u062a\u0648\u06cc\u06ba \u0633\u0627\u0644 \u0645\u06cc\u06ba \u06cc\u06c1\u0648\u06cc\u062f\u0639 \u0646\u06d2 \u062c\u0631\u0623\u062a \u06a9\u0631 \u06a9\u06d2 \u0633\u064e\u0648 \u0633\u064e\u0648 \u0641\u0648\u062c\u06cc\u0648\u06ba \u067e\u0631 \u0645\u0642\u0631\u0631 \u067e\u0627\u0646\u0686 \u0627\u0641\u0633\u0631\u0648\u06ba \u0633\u06d2 \u0639\u06c1\u062f \u0628\u0627\u0646\u062f\u06be\u0627\u06d4 \u0627\u064f\u0646 \u06a9\u06d2 \u0646\u0627\u0645 \u0639\u0632\u0631\u06cc\u0627\u06c1 \u0628\u0646 \u06cc\u0631\u0648\u062d\u0627\u0645\u060c \u0627\u0633\u0645\u0670\u0639\u06cc\u0644 \u0628\u0646 \u06cc\u0648\u062d\u0646\u0627\u0646\u060c \u0639\u0632\u0631\u06cc\u0627\u06c1 \u0628\u0646 \u0639\u0648\u0628\u06cc\u062f\u060c \u0645\u0639\u0633\u06cc\u0627\u06c1 \u0628\u0646 \u0639\u062f\u0627\u06cc\u0627\u06c1 \u0627\u0648\u0631 \u0627\u0650\u0644\u06cc \u0633\u0627\u0641\u0637 \u0628\u0646 \u0632\u0650\u06a9\u0631\u06cc \u062a\u06be\u06d2\u06d4"
        },
        {
            "chapter": 23,
            "verse": 2,
            "name": "2 Chronicles 23:2",
            "text": "\u0627\u0650\u0646 \u0622\u062f\u0645\u06cc\u0648\u06ba \u0646\u06d2 \u0686\u067e\u06a9\u06d2 \u0633\u06d2 \u06cc\u06c1\u0648\u062f\u0627\u06c1 \u06a9\u06d2 \u062a\u0645\u0627\u0645 \u0634\u06c1\u0631\u0648\u06ba \u0645\u06cc\u06ba \u0633\u06d2 \u06af\u0632\u0631 \u06a9\u0631 \u0644\u0627\u0648\u06cc\u0648\u06ba \u0627\u0648\u0631 \u0627\u0633\u0631\u0627\u0626\u06cc\u0644\u06cc \u062e\u0627\u0646\u062f\u0627\u0646\u0648\u06ba \u06a9\u06d2 \u0633\u0631\u067e\u0631\u0633\u062a\u0648\u06ba \u06a9\u0648 \u062c\u0645\u0639 \u06a9\u06cc\u0627 \u0627\u0648\u0631 \u067e\u06be\u0631 \u0627\u064f\u0646 \u06a9\u06d2 \u0633\u0627\u062a\u06be \u0645\u0644 \u06a9\u0631 \u06cc\u0631\u0648\u0634\u0644\u0645 \u0622\u0626\u06d2\u06d4"
        },
        {
            "chapter": 23,
            "verse": 3,
            "name": "2 Chronicles 23:3",
            "text": "\u0627\u0644\u0644\u06c1 \u06a9\u06d2 \u06af\u06be\u0631 \u0645\u06cc\u06ba \u067e\u0648\u0631\u06cc \u062c\u0645\u0627\u0639\u062a \u0646\u06d2 \u062c\u0648\u0627\u0646 \u0628\u0627\u062f\u0634\u0627\u06c1 \u06cc\u0648\u0622\u0633 \u06a9\u06d2 \u0633\u0627\u062a\u06be \u0639\u06c1\u062f \u0628\u0627\u0646\u062f\u06be\u0627\u06d4 \u06cc\u06c1\u0648\u06cc\u062f\u0639 \u0627\u064f\u0646 \u0633\u06d2 \u0645\u062e\u0627\u0637\u0628 \u06c1\u0648\u0627\u060c \u201d\u06c1\u0645\u0627\u0631\u06d2 \u0628\u0627\u062f\u0634\u0627\u06c1 \u06a9\u0627 \u0628\u06cc\u0679\u0627 \u06c1\u06cc \u06c1\u0645 \u067e\u0631 \u062d\u06a9\u0648\u0645\u062a \u06a9\u0631\u06d2\u060c \u06a9\u06cc\u0648\u0646\u06a9\u06c1 \u0631\u0628 \u0646\u06d2 \u0645\u0642\u0631\u0631 \u06a9\u06cc\u0627 \u06c1\u06d2 \u06a9\u06c1 \u062f\u0627\u0624\u062f \u06a9\u06cc \u0627\u0648\u0644\u0627\u062f \u06cc\u06c1 \u0630\u0645\u06c1 \u062f\u0627\u0631\u06cc \u0633\u0646\u0628\u06be\u0627\u0644\u06d2\u06d4"
        },
        {
            "chapter": 23,
            "verse": 4,
            "name": "2 Chronicles 23:4",
            "text": "\u0686\u0646\u0627\u0646\u0686\u06c1 \u0627\u06af\u0644\u06d2 \u0633\u0628\u062a \u06a9\u06d2 \u062f\u0646 \u0622\u067e \u0627\u0645\u0627\u0645\u0648\u06ba \u0627\u0648\u0631 \u0644\u0627\u0648\u06cc\u0648\u06ba \u0645\u06cc\u06ba \u0633\u06d2 \u062c\u062a\u0646\u06d2 \u0688\u06cc\u0648\u0679\u06cc \u067e\u0631 \u0622\u0626\u06cc\u06ba \u06af\u06d2 \u0648\u06c1 \u062a\u06cc\u0646 \u062d\u0635\u0648\u06ba \u0645\u06cc\u06ba \u062a\u0642\u0633\u06cc\u0645 \u06c1\u0648 \u062c\u0627\u0626\u06cc\u06ba\u06d4 \u0627\u06cc\u06a9 \u062d\u0635\u06c1 \u0631\u0628 \u06a9\u06d2 \u06af\u06be\u0631 \u06a9\u06d2 \u062f\u0631\u0648\u0627\u0632\u0648\u06ba \u067e\u0631 \u067e\u06c1\u0631\u0627 \u062f\u06d2\u060c"
        },
        {
            "chapter": 23,
            "verse": 5,
            "name": "2 Chronicles 23:5",
            "text": "\u062f\u0648\u0633\u0631\u0627 \u0634\u0627\u06c1\u06cc \u0645\u062d\u0644 \u067e\u0631 \u0627\u0648\u0631 \u062a\u06cc\u0633\u0631\u0627 \u0628\u0646\u06cc\u0627\u062f \u0646\u0627\u0645\u06cc \u062f\u0631\u0648\u0627\u0632\u06d2 \u067e\u0631\u06d4 \u0628\u0627\u0642\u06cc \u0633\u0628 \u0622\u062f\u0645\u06cc \u0631\u0628 \u06a9\u06d2 \u06af\u06be\u0631 \u06a9\u06d2 \u0635\u062d\u0646\u0648\u06ba \u0645\u06cc\u06ba \u062c\u0645\u0639 \u06c1\u0648 \u062c\u0627\u0626\u06cc\u06ba\u06d4"
        },
        {
            "chapter": 23,
            "verse": 6,
            "name": "2 Chronicles 23:6",
            "text": "\u062e\u062f\u0645\u062a \u06a9\u0631\u0646\u06d2 \u0648\u0627\u0644\u06d2 \u0627\u0645\u0627\u0645\u0648\u06ba \u0627\u0648\u0631 \u0644\u0627\u0648\u06cc\u0648\u06ba \u06a9\u06d2 \u0633\u0648\u0627 \u06a9\u0648\u0626\u06cc \u0627\u064e\u0648\u0631 \u0631\u0628 \u06a9\u06d2 \u06af\u06be\u0631 \u0645\u06cc\u06ba \u062f\u0627\u062e\u0644 \u0646\u06c1 \u06c1\u0648\u06d4 \u0635\u0631\u0641 \u06cc\u06c1\u06cc \u0627\u0646\u062f\u0631 \u062c\u0627 \u0633\u06a9\u062a\u06d2 \u06c1\u06cc\u06ba\u060c \u06a9\u06cc\u0648\u0646\u06a9\u06c1 \u0631\u0628 \u0646\u06d2 \u0627\u064f\u0646\u06c1\u06cc\u06ba \u0627\u0650\u0633 \u062e\u062f\u0645\u062a \u06a9\u06d2 \u0644\u0626\u06d2 \u0645\u062e\u0635\u0648\u0635 \u06a9\u06cc\u0627 \u06c1\u06d2\u06d4 \u0644\u0627\u0632\u0645 \u06c1\u06d2 \u06a9\u06c1 \u067e\u0648\u0631\u06cc \u0642\u0648\u0645 \u0631\u0628 \u06a9\u06cc \u06c1\u062f\u0627\u06cc\u0627\u062a \u067e\u0631 \u0639\u0645\u0644 \u06a9\u0631\u06d2\u06d4"
        },
        {
            "chapter": 23,
            "verse": 7,
            "name": "2 Chronicles 23:7",
            "text": "\u0628\u0627\u0642\u06cc \u0644\u0627\u0648\u06cc \u0628\u0627\u062f\u0634\u0627\u06c1 \u06a9\u06d2 \u0627\u0631\u062f \u06af\u0631\u062f \u062f\u0627\u0626\u0631\u06c1 \u0628\u0646\u0627 \u06a9\u0631 \u0627\u067e\u0646\u06d2 \u06c1\u062a\u06be\u06cc\u0627\u0631\u0648\u06ba \u06a9\u0648 \u067e\u06a9\u0691\u06d2 \u0631\u06a9\u06be\u06cc\u06ba \u0627\u0648\u0631 \u062c\u06c1\u0627\u06ba \u0628\u06be\u06cc \u0648\u06c1 \u062c\u0627\u0626\u06d2 \u0627\u064f\u0633\u06d2 \u06af\u06be\u06cc\u0631\u06d2 \u0631\u06a9\u06be\u06cc\u06ba\u06d4 \u062c\u0648 \u0628\u06be\u06cc \u0631\u0628 \u06a9\u06d2 \u06af\u06be\u0631 \u0645\u06cc\u06ba \u06af\u06be\u0633\u0646\u06d2 \u06a9\u06cc \u06a9\u0648\u0634\u0634 \u06a9\u0631\u06d2 \u0627\u064f\u0633\u06d2 \u0645\u0627\u0631 \u0688\u0627\u0644\u0646\u0627\u06d4\u201c"
        },
        {
            "chapter": 23,
            "verse": 8,
            "name": "2 Chronicles 23:8",
            "text": "\u0644\u0627\u0648\u06cc \u0627\u0648\u0631 \u06cc\u06c1\u0648\u062f\u0627\u06c1 \u06a9\u06d2 \u0627\u0650\u0646 \u062a\u0645\u0627\u0645 \u0645\u0631\u062f\u0648\u06ba \u0646\u06d2 \u0627\u06cc\u0633\u0627 \u06c1\u06cc \u06a9\u06cc\u0627\u06d4 \u0627\u06af\u0644\u06d2 \u0633\u0628\u062a \u06a9\u06d2 \u062f\u0646 \u0633\u0628 \u0627\u067e\u0646\u06d2 \u0628\u0646\u062f\u0648\u06ba \u0633\u0645\u06cc\u062a \u0627\u064f\u0633 \u06a9\u06d2 \u067e\u0627\u0633 \u0622\u0626\u06d2\u060c \u0648\u06c1 \u0628\u06be\u06cc \u062c\u0646 \u06a9\u06cc \u0688\u06cc\u0648\u0679\u06cc \u062a\u06be\u06cc \u0627\u0648\u0631 \u0648\u06c1 \u0628\u06be\u06cc \u062c\u0646 \u06a9\u06cc \u0627\u0628 \u0686\u06be\u0679\u06cc \u062a\u06be\u06cc\u06d4 \u06a9\u06cc\u0648\u0646\u06a9\u06c1 \u06cc\u06c1\u0648\u06cc\u062f\u0639 \u0646\u06d2 \u062e\u062f\u0645\u062a \u06a9\u0631\u0646\u06d2 \u0648\u0627\u0644\u0648\u06ba \u0645\u06cc\u06ba \u0633\u06d2 \u06a9\u0633\u06cc \u06a9\u0648 \u0628\u06be\u06cc \u062c\u0627\u0646\u06d2 \u06a9\u06cc \u0627\u062c\u0627\u0632\u062a \u0646\u06c1\u06cc\u06ba \u062f\u06cc \u062a\u06be\u06cc\u06d4"
        },
        {
            "chapter": 23,
            "verse": 9,
            "name": "2 Chronicles 23:9",
            "text": "\u0627\u0645\u0627\u0645 \u0646\u06d2 \u0633\u064e\u0648 \u0633\u064e\u0648 \u0641\u0648\u062c\u06cc\u0648\u06ba \u067e\u0631 \u0645\u0642\u0631\u0631 \u0627\u0641\u0633\u0631\u0648\u06ba \u06a9\u0648 \u062f\u0627\u0624\u062f \u0628\u0627\u062f\u0634\u0627\u06c1 \u06a9\u06d2 \u0648\u06c1 \u0646\u06cc\u0632\u06d2 \u0627\u0648\u0631 \u0686\u06be\u0648\u0679\u06cc \u0627\u0648\u0631 \u0628\u0691\u06cc \u0688\u06be\u0627\u0644\u06cc\u06ba \u062f\u06cc\u06ba \u062c\u0648 \u0627\u0628 \u062a\u06a9 \u0631\u0628 \u06a9\u06d2 \u06af\u06be\u0631 \u0645\u06cc\u06ba \u0645\u062d\u0641\u0648\u0638 \u0631\u06a9\u06be\u06cc \u06c1\u0648\u0626\u06cc \u062a\u06be\u06cc\u06ba\u06d4"
        },
        {
            "chapter": 23,
            "verse": 10,
            "name": "2 Chronicles 23:10",
            "text": "\u067e\u06be\u0631 \u0627\u064f\u0633 \u0646\u06d2 \u0641\u0648\u062c\u06cc\u0648\u06ba \u06a9\u0648 \u0628\u0627\u062f\u0634\u0627\u06c1 \u06a9\u06d2 \u0627\u0631\u062f \u06af\u0631\u062f \u06a9\u06be\u0691\u0627 \u06a9\u06cc\u0627\u06d4 \u06c1\u0631 \u0627\u06cc\u06a9 \u0627\u067e\u0646\u06d2 \u06c1\u062a\u06be\u06cc\u0627\u0631 \u067e\u06a9\u0691\u06d2 \u062a\u06cc\u0627\u0631 \u062a\u06be\u0627\u06d4 \u0642\u0631\u0628\u0627\u0646 \u06af\u0627\u06c1 \u0627\u0648\u0631 \u0631\u0628 \u06a9\u06d2 \u06af\u06be\u0631 \u06a9\u06d2 \u062f\u0631\u0645\u06cc\u0627\u0646 \u0627\u064f\u0646 \u06a9\u0627 \u062f\u0627\u0626\u0631\u06c1 \u0631\u0628 \u06a9\u06d2 \u06af\u06be\u0631 \u06a9\u06cc \u062c\u0646\u0648\u0628\u06cc \u062f\u06cc\u0648\u0627\u0631 \u0633\u06d2 \u0644\u06d2 \u06a9\u0631 \u0627\u064f\u0633 \u06a9\u06cc \u0634\u0645\u0627\u0644\u06cc \u062f\u06cc\u0648\u0627\u0631 \u062a\u06a9 \u067e\u06be\u06cc\u0644\u0627 \u06c1\u0648\u0627 \u062a\u06be\u0627\u06d4"
        },
        {
            "chapter": 23,
            "verse": 11,
            "name": "2 Chronicles 23:11",
            "text": "\u067e\u06be\u0631 \u0648\u06c1 \u06cc\u0648\u0622\u0633 \u06a9\u0648 \u0628\u0627\u06c1\u0631 \u0644\u0627\u0626\u06d2 \u0627\u0648\u0631 \u0627\u064f\u0633 \u06a9\u06d2 \u0633\u0631 \u067e\u0631 \u062a\u0627\u062c \u0631\u06a9\u06be \u06a9\u0631 \u0627\u064f\u0633\u06d2 \u0642\u0648\u0627\u0646\u06cc\u0646 \u06a9\u06cc \u06a9\u062a\u0627\u0628 \u062f\u06d2 \u062f\u06cc\u06d4 \u06cc\u0648\u06ba \u06cc\u0648\u0622\u0633 \u06a9\u0648 \u0628\u0627\u062f\u0634\u0627\u06c1 \u0628\u0646\u0627 \u062f\u06cc\u0627 \u06af\u06cc\u0627\u06d4 \u0627\u064f\u0646\u06c1\u0648\u06ba \u0646\u06d2 \u0627\u064f\u0633\u06d2 \u0645\u0633\u062d \u06a9\u06cc\u0627 \u0627\u0648\u0631 \u0628\u0644\u0646\u062f \u0622\u0648\u0627\u0632 \u0633\u06d2 \u0646\u0639\u0631\u06c1 \u0644\u06af\u0627\u0646\u06d2 \u0644\u06af\u06d2\u060c \u201d\u0628\u0627\u062f\u0634\u0627\u06c1 \u0632\u0646\u062f\u06c1 \u0628\u0627\u062f!\u201c"
        },
        {
            "chapter": 23,
            "verse": 12,
            "name": "2 Chronicles 23:12",
            "text": "\u0644\u0648\u06af\u0648\u06ba \u06a9\u0627 \u0634\u0648\u0631 \u0639\u062a\u0644\u06cc\u0627\u06c1 \u062a\u06a9 \u067e\u06c1\u0646\u0686\u0627\u060c \u06a9\u06cc\u0648\u0646\u06a9\u06c1 \u0633\u0628 \u062f\u0648\u0691 \u06a9\u0631 \u062c\u0645\u0639 \u06c1\u0648 \u0631\u06c1\u06d2 \u0627\u0648\u0631 \u0628\u0627\u062f\u0634\u0627\u06c1 \u06a9\u06cc \u062e\u0648\u0634\u06cc \u0645\u06cc\u06ba \u0646\u0639\u0631\u06d2 \u0644\u06af\u0627 \u0631\u06c1\u06d2 \u062a\u06be\u06d2\u06d4 \u0648\u06c1 \u0631\u0628 \u06a9\u06d2 \u06af\u06be\u0631 \u06a9\u06d2 \u0635\u062d\u0646 \u0645\u06cc\u06ba \u0627\u064f\u0646 \u06a9\u06d2 \u067e\u0627\u0633 \u0622\u0626\u06cc"
        },
        {
            "chapter": 23,
            "verse": 13,
            "name": "2 Chronicles 23:13",
            "text": "\u062a\u0648 \u06a9\u06cc\u0627 \u062f\u06cc\u06a9\u06be\u062a\u06cc \u06c1\u06d2 \u06a9\u06c1 \u0646\u06cc\u0627 \u0628\u0627\u062f\u0634\u0627\u06c1 \u062f\u0631\u0648\u0627\u0632\u06d2 \u06a9\u06d2 \u0642\u0631\u06cc\u0628 \u0627\u064f\u0633 \u0633\u062a\u0648\u0646 \u06a9\u06d2 \u067e\u0627\u0633 \u06a9\u06be\u0691\u0627 \u06c1\u06d2 \u062c\u06c1\u0627\u06ba \u0628\u0627\u062f\u0634\u0627\u06c1 \u0631\u0648\u0627\u062c \u06a9\u06d2 \u0645\u0637\u0627\u0628\u0642 \u06a9\u06be\u0691\u0627 \u06c1\u0648\u062a\u0627 \u06c1\u06d2\u060c \u0627\u0648\u0631 \u0648\u06c1 \u0627\u0641\u0633\u0631\u0648\u06ba \u0627\u0648\u0631 \u062a\u064f\u0631\u0645 \u0628\u062c\u0627\u0646\u06d2 \u0648\u0627\u0644\u0648\u06ba \u0633\u06d2 \u06af\u06be\u0631\u0627 \u06c1\u0648\u0627 \u06c1\u06d2\u06d4 \u062a\u0645\u0627\u0645 \u0627\u064f\u0645\u0651\u062a \u0628\u06be\u06cc \u0633\u0627\u062a\u06be \u06a9\u06be\u0691\u06cc \u062a\u064f\u0631\u0645 \u0628\u062c\u0627 \u0628\u062c\u0627 \u06a9\u0631 \u062e\u0648\u0634\u06cc \u0645\u0646\u0627 \u0631\u06c1\u06cc \u06c1\u06d2\u06d4 \u0633\u0627\u062a\u06be \u0633\u0627\u062a\u06be \u06af\u0644\u0648\u06a9\u0627\u0631 \u0627\u067e\u0646\u06d2 \u0633\u0627\u0632 \u0628\u062c\u0627 \u06a9\u0631 \u062d\u0645\u062f \u06a9\u06d2 \u06af\u06cc\u062a \u06af\u0627\u0646\u06d2 \u0645\u06cc\u06ba \u0631\u0627\u06c1\u0646\u0645\u0627\u0626\u06cc \u06a9\u0631 \u0631\u06c1\u06d2 \u06c1\u06cc\u06ba\u06d4 \u0639\u062a\u0644\u06cc\u0627\u06c1 \u0631\u0646\u062c\u0634 \u06a9\u06d2 \u0645\u0627\u0631\u06d2 \u0627\u067e\u0646\u06d2 \u06a9\u067e\u0691\u06d2 \u067e\u06be\u0627\u0691 \u06a9\u0631 \u0686\u06cc\u062e \u0627\u064f\u0679\u06be\u06cc\u060c \u201d\u063a\u062f\u0627\u0631\u06cc\u060c \u063a\u062f\u0627\u0631\u06cc!\u201c"
        },
        {
            "chapter": 23,
            "verse": 14,
            "name": "2 Chronicles 23:14",
            "text": "\u06cc\u06c1\u0648\u06cc\u062f\u0639 \u0627\u0645\u0627\u0645 \u0646\u06d2 \u0633\u064e\u0648 \u0633\u064e\u0648 \u0641\u0648\u062c\u06cc\u0648\u06ba \u067e\u0631 \u0645\u0642\u0631\u0631 \u0627\u064f\u0646 \u0627\u0641\u0633\u0631\u0648\u06ba \u06a9\u0648 \u0628\u064f\u0644\u0627\u06cc\u0627 \u062c\u0646 \u06a9\u06d2 \u0633\u067e\u0631\u062f \u0641\u0648\u062c \u06a9\u06cc \u06af\u0626\u06cc \u062a\u06be\u06cc \u0627\u0648\u0631 \u0627\u064f\u0646\u06c1\u06cc\u06ba \u062d\u06a9\u0645 \u062f\u06cc\u0627\u060c \u201d\u0627\u064f\u0633\u06d2 \u0628\u0627\u06c1\u0631 \u0644\u06d2 \u062c\u0627\u0626\u06cc\u06ba\u060c \u06a9\u06cc\u0648\u0646\u06a9\u06c1 \u0645\u0646\u0627\u0633\u0628 \u0646\u06c1\u06cc\u06ba \u06a9\u06c1 \u0627\u064f\u0633\u06d2 \u0631\u0628 \u06a9\u06d2 \u06af\u06be\u0631 \u06a9\u06d2 \u067e\u0627\u0633 \u0645\u0627\u0631\u0627 \u062c\u0627\u0626\u06d2\u06d4 \u0627\u0648\u0631 \u062c\u0648 \u0628\u06be\u06cc \u0627\u064f\u0633 \u06a9\u06d2 \u067e\u06cc\u0686\u06be\u06d2 \u0622\u0626\u06d2 \u0627\u064f\u0633\u06d2 \u062a\u0644\u0648\u0627\u0631 \u0633\u06d2 \u0645\u0627\u0631 \u062f\u06cc\u0646\u0627\u06d4\u201c"
        },
        {
            "chapter": 23,
            "verse": 15,
            "name": "2 Chronicles 23:15",
            "text": "\u0648\u06c1 \u0639\u062a\u0644\u06cc\u0627\u06c1 \u06a9\u0648 \u067e\u06a9\u0691 \u06a9\u0631 \u0648\u06c1\u0627\u06ba \u0633\u06d2 \u0628\u0627\u06c1\u0631 \u0644\u06d2 \u06af\u0626\u06d2 \u0627\u0648\u0631 \u0627\u064f\u0633\u06d2 \u06af\u06be\u0648\u0691\u0648\u06ba \u06a9\u06d2 \u062f\u0631\u0648\u0627\u0632\u06d2 \u067e\u0631 \u0645\u0627\u0631 \u062f\u06cc\u0627 \u062c\u0648 \u0634\u0627\u06c1\u06cc \u0645\u062d\u0644 \u06a9\u06d2 \u067e\u0627\u0633 \u062a\u06be\u0627\u06d4"
        },
        {
            "chapter": 23,
            "verse": 16,
            "name": "2 Chronicles 23:16",
            "text": "\u067e\u06be\u0631 \u06cc\u06c1\u0648\u06cc\u062f\u0639 \u0646\u06d2 \u0642\u0648\u0645 \u0627\u0648\u0631 \u0628\u0627\u062f\u0634\u0627\u06c1 \u06a9\u06d2 \u0633\u0627\u062a\u06be \u0645\u0644 \u06a9\u0631 \u0631\u0628 \u0633\u06d2 \u0639\u06c1\u062f \u0628\u0627\u0646\u062f\u06be \u06a9\u0631 \u0648\u0639\u062f\u06c1 \u06a9\u06cc\u0627 \u06a9\u06c1 \u06c1\u0645 \u0631\u0628 \u06a9\u06cc \u0642\u0648\u0645 \u0631\u06c1\u06cc\u06ba \u06af\u06d2\u06d4"
        },
        {
            "chapter": 23,
            "verse": 17,
            "name": "2 Chronicles 23:17",
            "text": "\u0627\u0650\u0633 \u06a9\u06d2 \u0628\u0639\u062f \u0633\u0628 \u0628\u0639\u0644 \u06a9\u06d2 \u0645\u0646\u062f\u0631 \u067e\u0631 \u0679\u0648\u0679 \u067e\u0691\u06d2 \u0627\u0648\u0631 \u0627\u064f\u0633\u06d2 \u0688\u06be\u0627 \u062f\u06cc\u0627\u06d4 \u0627\u064f\u0633 \u06a9\u06cc \u0642\u0631\u0628\u0627\u0646 \u06af\u0627\u06c1\u0648\u06ba \u0627\u0648\u0631 \u0628\u064f\u062a\u0648\u06ba \u06a9\u0648 \u0679\u06a9\u0691\u06d2 \u0679\u06a9\u0691\u06d2 \u06a9\u0631 \u06a9\u06d2 \u0627\u064f\u0646\u06c1\u0648\u06ba \u0646\u06d2 \u0628\u0639\u0644 \u06a9\u06d2 \u067e\u062c\u0627\u0631\u06cc \u0645\u062a\u0627\u0646 \u06a9\u0648 \u0642\u0631\u0628\u0627\u0646 \u06af\u0627\u06c1\u0648\u06ba \u06a9\u06d2 \u0633\u0627\u0645\u0646\u06d2 \u06c1\u06cc \u0645\u0627\u0631 \u0688\u0627\u0644\u0627\u06d4"
        },
        {
            "chapter": 23,
            "verse": 18,
            "name": "2 Chronicles 23:18",
            "text": "\u06cc\u06c1\u0648\u06cc\u062f\u0639 \u0646\u06d2 \u0627\u0645\u0627\u0645\u0648\u06ba \u0627\u0648\u0631 \u0644\u0627\u0648\u06cc\u0648\u06ba \u06a9\u0648 \u062f\u0648\u0628\u0627\u0631\u06c1 \u0631\u0628 \u06a9\u06d2 \u06af\u06be\u0631 \u06a9\u0648 \u0633\u0646\u0628\u06be\u0627\u0644\u0646\u06d2 \u06a9\u06cc \u0630\u0645\u06c1 \u062f\u0627\u0631\u06cc \u062f\u06cc\u06d4 \u062f\u0627\u0624\u062f \u0646\u06d2 \u0627\u064f\u0646\u06c1\u06cc\u06ba \u062e\u062f\u0645\u062a \u06a9\u06d2 \u0644\u0626\u06d2 \u06af\u0631\u0648\u06c1\u0648\u06ba \u0645\u06cc\u06ba \u062a\u0642\u0633\u06cc\u0645 \u06a9\u06cc\u0627 \u062a\u06be\u0627\u06d4 \u0627\u064f\u0633 \u06a9\u06cc \u06c1\u062f\u0627\u06cc\u0627\u062a \u06a9\u06d2 \u0645\u0637\u0627\u0628\u0642 \u0627\u064f\u0646 \u06c1\u06cc \u06a9\u0648 \u062e\u0648\u0634\u06cc \u0645\u0646\u0627\u062a\u06d2 \u0627\u0648\u0631 \u06af\u06cc\u062a \u06af\u0627\u062a\u06d2 \u06c1\u0648\u0626\u06d2 \u0628\u06be\u0633\u0645 \u06c1\u0648\u0646\u06d2 \u0648\u0627\u0644\u06cc \u0642\u0631\u0628\u0627\u0646\u06cc\u0627\u06ba \u067e\u06cc\u0634 \u06a9\u0631\u0646\u06cc \u062a\u06be\u06cc\u06ba\u060c \u062c\u0633 \u0637\u0631\u062d \u0645\u0648\u0633\u06cc\u0670 \u06a9\u06cc \u0634\u0631\u06cc\u0639\u062a \u0645\u06cc\u06ba \u0644\u06a9\u06be\u0627 \u06c1\u06d2\u06d4"
        },
        {
            "chapter": 23,
            "verse": 19,
            "name": "2 Chronicles 23:19",
            "text": "\u0631\u0628 \u06a9\u06d2 \u06af\u06be\u0631 \u06a9\u06d2 \u062f\u0631\u0648\u0627\u0632\u0648\u06ba \u067e\u0631 \u06cc\u06c1\u0648\u06cc\u062f\u0639 \u0646\u06d2 \u062f\u0631\u0628\u0627\u0646 \u06a9\u06be\u0691\u06d2 \u06a9\u0626\u06d2 \u062a\u0627\u06a9\u06c1 \u0627\u06cc\u0633\u06d2 \u0644\u0648\u06af\u0648\u06ba \u06a9\u0648 \u0627\u0646\u062f\u0631 \u0622\u0646\u06d2 \u0633\u06d2 \u0631\u0648\u06a9\u0627 \u062c\u0627\u0626\u06d2 \u062c\u0648 \u06a9\u0633\u06cc \u0628\u06be\u06cc \u0648\u062c\u06c1 \u0633\u06d2 \u0646\u0627\u067e\u0627\u06a9 \u06c1\u0648\u06ba\u06d4"
        },
        {
            "chapter": 23,
            "verse": 20,
            "name": "2 Chronicles 23:20",
            "text": "\u067e\u06be\u0631 \u0648\u06c1 \u0633\u064e\u0648 \u0633\u064e\u0648 \u0641\u0648\u062c\u06cc\u0648\u06ba \u067e\u0631 \u0645\u0642\u0631\u0631 \u0627\u0641\u0633\u0631\u0648\u06ba\u060c \u0627\u062b\u0631 \u0648 \u0631\u0633\u0648\u062e \u0648\u0627\u0644\u0648\u06ba\u060c \u0642\u0648\u0645 \u06a9\u06d2 \u062d\u06a9\u0645\u0631\u0627\u0646\u0648\u06ba \u0627\u0648\u0631 \u0628\u0627\u0642\u06cc \u067e\u0648\u0631\u06cc \u0627\u064f\u0645\u0651\u062a \u06a9\u06d2 \u06c1\u0645\u0631\u0627\u06c1 \u062c\u0644\u0648\u0633 \u0646\u06a9\u0627\u0644 \u06a9\u0631 \u0628\u0627\u062f\u0634\u0627\u06c1 \u06a9\u0648 \u0628\u0627\u0644\u0627\u0626\u06cc \u062f\u0631\u0648\u0627\u0632\u06d2 \u0633\u06d2 \u06c1\u0648 \u06a9\u0631 \u0634\u0627\u06c1\u06cc \u0645\u062d\u0644 \u0645\u06cc\u06ba \u0644\u06d2 \u06af\u06cc\u0627\u06d4 \u0648\u06c1\u0627\u06ba \u0627\u064f\u0646\u06c1\u0648\u06ba \u0646\u06d2 \u0628\u0627\u062f\u0634\u0627\u06c1 \u06a9\u0648 \u062a\u062e\u062a \u067e\u0631 \u0628\u0679\u06be\u0627 \u062f\u06cc\u0627\u060c"
        },
        {
            "chapter": 23,
            "verse": 21,
            "name": "2 Chronicles 23:21",
            "text": "\u0627\u0648\u0631 \u062a\u0645\u0627\u0645 \u0627\u064f\u0645\u0651\u062a \u062e\u0648\u0634\u06cc \u0645\u0646\u0627\u062a\u06cc \u0631\u06c1\u06cc\u06d4 \u06cc\u0648\u06ba \u06cc\u0631\u0648\u0634\u0644\u0645 \u0634\u06c1\u0631 \u06a9\u0648 \u0633\u06a9\u0648\u0646 \u0645\u0644\u0627\u060c \u06a9\u06cc\u0648\u0646\u06a9\u06c1 \u0639\u062a\u0644\u06cc\u0627\u06c1 \u06a9\u0648 \u062a\u0644\u0648\u0627\u0631 \u0633\u06d2 \u0645\u0627\u0631 \u062f\u06cc\u0627 \u06af\u06cc\u0627 \u062a\u06be\u0627\u06d4  "
        }
    ]
}