{
    "translation": "Apostolic Bible Polyglot Greek Text",
    "abbreviation": "abpgrk",
    "lang": "grc",
    "language": "Greek",
    "direction": "LTR",
    "encoding": "UTF-8",
    "book_nr": 20,
    "book_name": "Proverbs",
    "chapter": 23,
    "name": "Proverbs 23",
    "verses": [
        {
            "chapter": 23,
            "verse": 1,
            "name": "Proverbs 23:1",
            "text": "  \u03b5\u03ac\u03bd \u03ba\u03b1\u03b8\u03af\u03c3\u03b7\u03c2 \u03b4\u03b5\u03b9\u03c0\u03bd\u03ae\u03c3\u03b1\u03b9 \u03b5\u03c0\u03af \u03c4\u03c1\u03b1\u03c0\u03ad\u03b6\u03b7\u03c2 \u03b4\u03c5\u03bd\u03ac\u03c3\u03c4\u03bf\u03c5 \u03bd\u03bf\u03b7\u03c4\u03ce\u03c2 \u03bd\u03cc\u03b5\u03b9 \u03c4\u03b1 \u03c0\u03b1\u03c1\u03b1\u03c4\u03b9\u03b8\u03ad\u03bc\u03b5\u03bd\u03ac \u03c3\u03bf\u03b9"
        },
        {
            "chapter": 23,
            "verse": 2,
            "name": "Proverbs 23:2",
            "text": "\u03ba\u03b1\u03b9 \u03b5\u03c0\u03af\u03b2\u03b1\u03bb\u03bb\u03b5 \u03c4\u03b7\u03bd \u03c7\u03b5\u03af\u03c1\u03ac \u03c3\u03bf\u03c5 \u03b5\u03b9\u03b4\u03ce\u03c2 \u03cc\u03c4\u03b9 \u03c4\u03bf\u03b9\u03b1\u03cd\u03c4\u03ac \u03c3\u03b5 \u03b4\u03b5\u03b9 \u03c0\u03b1\u03c1\u03b1\u03c3\u03ba\u03b5\u03c5\u03ac\u03c3\u03b1\u03b9 \u03b5\u03b9 \u03b4\u03b5 \u03b1\u03c0\u03bb\u03b7\u03c3\u03c4\u03cc\u03c4\u03b5\u03c1\u03bf\u03c2 \u03b5\u03b9"
        },
        {
            "chapter": 23,
            "verse": 3,
            "name": "Proverbs 23:3",
            "text": "\u03bc\u03b7 \u03b5\u03c0\u03b9\u03b8\u03cd\u03bc\u03b5\u03b9 \u03c4\u03c9\u03bd \u03b5\u03b4\u03b5\u03c3\u03bc\u03ac\u03c4\u03c9\u03bd \u03b1\u03c5\u03c4\u03bf\u03cd \u03c4\u03b1\u03cd\u03c4\u03b1 \u03b3\u03b1\u03c1 \u03ad\u03c7\u03b5\u03c4\u03b1\u03b9 \u03b6\u03c9\u03ae\u03c2 \u03c8\u03b5\u03c5\u03b4\u03bf\u03cd\u03c2"
        },
        {
            "chapter": 23,
            "verse": 4,
            "name": "Proverbs 23:4",
            "text": "\u03bc\u03b7 \u03c0\u03b1\u03c1\u03b5\u03ba\u03c4\u03b5\u03af\u03bd\u03bf\u03c5 \u03c0\u03ad\u03bd\u03b7\u03c2 \u03c9\u03bd \u03c0\u03bb\u03bf\u03c5\u03c3\u03af\u03c9 \u03c4\u03b7 \u03b4\u03b5 \u03c3\u03b7 \u03ad\u03bd\u03bd\u03bf\u03b9\u03b1 \u03b1\u03c0\u03cc\u03c3\u03c7\u03bf\u03c5"
        },
        {
            "chapter": 23,
            "verse": 5,
            "name": "Proverbs 23:5",
            "text": "\u03b5\u03ac\u03bd \u03b5\u03c0\u03b9\u03c3\u03c4\u03ae\u03c3\u03b7\u03c2 \u03c4\u03bf \u03c3\u03bf\u03bd \u03cc\u03bc\u03bc\u03b1 \u03c0\u03c1\u03bf\u03c2 \u03b1\u03c5\u03c4\u03cc\u03bd \u03bf\u03c5\u03b4\u03b1\u03bc\u03bf\u03cd \u03c6\u03b1\u03bd\u03b5\u03af\u03c4\u03b1\u03b9 \u03ba\u03b1\u03c4\u03b5\u03c3\u03ba\u03b5\u03cd\u03b1\u03c3\u03c4\u03b1\u03b9 \u03b3\u03b1\u03c1 \u03b1\u03c5\u03c4\u03ce \u03c0\u03c4\u03ad\u03c1\u03c5\u03b3\u03b5\u03c2 \u03ce\u03c3\u03c0\u03b5\u03c1 \u03b1\u03b5\u03c4\u03bf\u03cd \u03ba\u03b1\u03b9 \u03c5\u03c0\u03bf\u03c3\u03c4\u03c1\u03ad\u03c6\u03b5\u03b9 \u03b5\u03b9\u03c2 \u03c4\u03bf\u03bd \u03bf\u03af\u03ba\u03bf\u03bd \u03c4\u03bf\u03c5 \u03c0\u03c1\u03bf\u03b5\u03c3\u03c4\u03b7\u03ba\u03cc\u03c4\u03bf\u03c2 \u03b1\u03c5\u03c4\u03bf\u03cd"
        },
        {
            "chapter": 23,
            "verse": 6,
            "name": "Proverbs 23:6",
            "text": "\u03bc\u03b7 \u03c3\u03c5\u03bd\u03b4\u03b5\u03af\u03c0\u03bd\u03b5\u03b9 \u03b1\u03bd\u03b4\u03c1\u03af \u03b2\u03b1\u03c3\u03ba\u03ac\u03bd\u03c9 \u03bc\u03b7\u03b4\u03ad \u03b5\u03c0\u03b9\u03b8\u03cd\u03bc\u03b5\u03b9 \u03c4\u03c9\u03bd \u03b2\u03c1\u03c9\u03bc\u03ac\u03c4\u03c9\u03bd \u03b1\u03c5\u03c4\u03bf\u03cd"
        },
        {
            "chapter": 23,
            "verse": 7,
            "name": "Proverbs 23:7",
            "text": "\u03bf\u03bd \u03c4\u03c1\u03cc\u03c0\u03bf\u03bd \u03b3\u03b1\u03c1 \u03b5\u03b9 \u03c4\u03b9\u03c2 \u03ba\u03b1\u03c4\u03b1\u03c0\u03af\u03bf\u03b9 \u03c4\u03c1\u03af\u03c7\u03b1 \u03bf\u03cd\u03c4\u03c9\u03c2 \u03b5\u03c3\u03b8\u03af\u03b5\u03b9 \u03ba\u03b1\u03b9 \u03c0\u03af\u03bd\u03b5\u03b9 \u03bc\u03b7\u03b4\u03ad \u03c0\u03c1\u03bf\u03c2 \u03c3\u03b5 \u03b5\u03b9\u03c3\u03b1\u03b3\u03ac\u03b3\u03b7\u03c2 \u03b1\u03c5\u03c4\u03cc\u03bd \u03ba\u03b1\u03b9 \u03c6\u03ac\u03b3\u03b7\u03c2 \u03c4\u03bf\u03bd \u03c8\u03c9\u03bc\u03cc\u03bd \u03c3\u03bf\u03c5 \u03bc\u03b5\u03c4\u0384 \u03b1\u03c5\u03c4\u03bf\u03cd"
        },
        {
            "chapter": 23,
            "verse": 8,
            "name": "Proverbs 23:8",
            "text": "\u03b5\u03be\u03b5\u03bc\u03ad\u03c3\u03b5\u03b9 \u03b3\u03b1\u03c1 \u03b1\u03c5\u03c4\u03cc\u03bd \u03ba\u03b1\u03b9 \u03bb\u03c5\u03bc\u03b1\u03bd\u03b5\u03af\u03c4\u03b1\u03b9 \u03c4\u03bf\u03c5\u03c2 \u03bb\u03cc\u03b3\u03bf\u03c5\u03c2 \u03c3\u03bf\u03c5 \u03c4\u03bf\u03c5\u03c2 \u03ba\u03b1\u03bb\u03bf\u03cd\u03c2"
        },
        {
            "chapter": 23,
            "verse": 9,
            "name": "Proverbs 23:9",
            "text": "\u03b5\u03b9\u03c2 \u03ce\u03c4\u03b1 \u03ac\u03c6\u03c1\u03bf\u03bd\u03bf\u03c2 \u03bc\u03b7\u03b4\u03ad\u03bd \u03bb\u03ad\u03b3\u03b5 \u03bc\u03ae \u03c0\u03bf\u03c4\u03b5 \u03bc\u03c5\u03ba\u03c4\u03b7\u03c1\u03af\u03c3\u03b7 \u03c4\u03bf\u03c5\u03c2 \u03c3\u03c5\u03bd\u03b5\u03c4\u03bf\u03cd\u03c2 \u03c3\u03bf\u03c5 \u03bb\u03cc\u03b3\u03bf\u03c5\u03c2"
        },
        {
            "chapter": 23,
            "verse": 10,
            "name": "Proverbs 23:10",
            "text": "\u03bc\u03b7 \u03bc\u03b5\u03c4\u03b1\u03b8\u03ae\u03c2 \u03cc\u03c1\u03b9\u03b1 \u03b1\u03b9\u03ce\u03bd\u03b9\u03b1 \u03b5\u03b9\u03c2 \u03b4\u03b5 \u03ba\u03c4\u03ae\u03bc\u03b1 \u03bf\u03c1\u03c6\u03b1\u03bd\u03ce\u03bd \u03bc\u03b7 \u03b5\u03b9\u03c3\u03ad\u03bb\u03b8\u03b7\u03c2"
        },
        {
            "chapter": 23,
            "verse": 11,
            "name": "Proverbs 23:11",
            "text": "\u03bf \u03b3\u03b1\u03c1 \u03bb\u03c5\u03c4\u03c1\u03bf\u03cd\u03bc\u03b5\u03bd\u03bf\u03c2 \u03b1\u03c5\u03c4\u03bf\u03cd\u03c2 \u03ba\u03cd\u03c1\u03b9\u03bf\u03c2 \u03ba\u03c1\u03b1\u03c4\u03b1\u03b9\u03cc\u03c2 \u03b5\u03c3\u03c4\u03b9 \u03ba\u03b1\u03b9 \u03ba\u03c1\u03b9\u03bd\u03b5\u03af \u03c4\u03b7\u03bd \u03ba\u03c1\u03af\u03c3\u03b9\u03bd \u03b1\u03c5\u03c4\u03ce\u03bd \u03bc\u03b5\u03c4\u03ac \u03c3\u03bf\u03c5"
        },
        {
            "chapter": 23,
            "verse": 12,
            "name": "Proverbs 23:12",
            "text": "\u03b4\u03bf\u03c2 \u03b5\u03b9\u03c2 \u03c0\u03b1\u03b9\u03b4\u03b5\u03af\u03b1\u03bd \u03c4\u03b7\u03bd \u03ba\u03b1\u03c1\u03b4\u03af\u03b1\u03bd \u03c3\u03bf\u03c5 \u03c4\u03b1 \u03b4\u03b5 \u03c9\u03c4\u03ac \u03c3\u03bf\u03c5 \u03b5\u03c4\u03bf\u03af\u03bc\u03b1\u03c3\u03bf\u03bd \u03bb\u03cc\u03b3\u03bf\u03b9\u03c2 \u03b1\u03b9\u03c3\u03b8\u03ae\u03c3\u03b5\u03c9\u03c2"
        },
        {
            "chapter": 23,
            "verse": 13,
            "name": "Proverbs 23:13",
            "text": "\u03bc\u03b7 \u03b1\u03c0\u03cc\u03c3\u03c7\u03b7 \u03bd\u03ae\u03c0\u03b9\u03bf\u03bd \u03c0\u03b1\u03b9\u03b4\u03b5\u03cd\u03b5\u03b9\u03bd \u03cc\u03c4\u03b9 \u03b5\u03ac\u03bd \u03c0\u03b1\u03c4\u03ac\u03be\u03b7\u03c2 \u03b1\u03c5\u03c4\u03cc\u03bd \u03c1\u03ac\u03b2\u03b4\u03c9 \u03bf\u03c5 \u03bc\u03b7 \u03b1\u03c0\u03bf\u03b8\u03ac\u03bd\u03b7"
        },
        {
            "chapter": 23,
            "verse": 14,
            "name": "Proverbs 23:14",
            "text": "\u03c3\u03c5 \u03bc\u03b5\u03bd \u03b3\u03b1\u03c1 \u03c0\u03b1\u03c4\u03ac\u03be\u03b5\u03b9\u03c2 \u03b1\u03c5\u03c4\u03cc\u03bd \u03c1\u03ac\u03b2\u03b4\u03c9 \u03c4\u03b7\u03bd \u03b4\u03b5 \u03c8\u03c5\u03c7\u03ae\u03bd \u03b1\u03c5\u03c4\u03bf\u03cd \u03b5\u03ba \u03b8\u03b1\u03bd\u03ac\u03c4\u03bf\u03c5 \u03c1\u03cd\u03c3\u03b7"
        },
        {
            "chapter": 23,
            "verse": 15,
            "name": "Proverbs 23:15",
            "text": "\u03c5\u03b9\u03ad \u03b5\u03ac\u03bd \u03c3\u03bf\u03c6\u03ae \u03b3\u03ad\u03bd\u03b7\u03c4\u03b1\u03af \u03c3\u03bf\u03c5 \u03b7 \u03ba\u03b1\u03c1\u03b4\u03af\u03b1 \u03b5\u03c5\u03c6\u03c1\u03b1\u03bd\u03b5\u03af\u03c2 \u03ba\u03b1\u03b9 \u03c4\u03b7\u03bd \u03b5\u03bc\u03ae\u03bd \u03ba\u03b1\u03c1\u03b4\u03af\u03b1\u03bd"
        },
        {
            "chapter": 23,
            "verse": 16,
            "name": "Proverbs 23:16",
            "text": "\u03ba\u03b1\u03b9 \u03b5\u03bd\u03b4\u03b9\u03b1\u03c4\u03c1\u03af\u03c8\u03b5\u03b9 \u03bb\u03cc\u03b3\u03bf\u03b9\u03c2 \u03c4\u03b1 \u03c3\u03b1 \u03c7\u03b5\u03af\u03bb\u03b7 \u03c0\u03c1\u03bf\u03c2 \u03c4\u03b1 \u03b5\u03bc\u03ac \u03c7\u03b5\u03af\u03bb\u03b7 \u03b5\u03ac\u03bd \u03bf\u03c1\u03b8\u03ac \u03ce\u03c3\u03b9"
        },
        {
            "chapter": 23,
            "verse": 17,
            "name": "Proverbs 23:17",
            "text": "\u03bc\u03b7 \u03b6\u03b7\u03bb\u03bf\u03cd\u03c4\u03c9 \u03b7 \u03ba\u03b1\u03c1\u03b4\u03af\u03b1 \u03c3\u03bf\u03c5 \u03b1\u03bc\u03b1\u03c1\u03c4\u03c9\u03bb\u03bf\u03cd\u03c2 \u03b1\u03bb\u03bb\u03ac \u03b5\u03bd \u03c6\u03cc\u03b2\u03c9 \u03ba\u03c5\u03c1\u03af\u03bf\u03c5 \u03af\u03c3\u03b8\u03b9 \u03cc\u03bb\u03b7\u03bd \u03c4\u03b7\u03bd \u03b7\u03bc\u03ad\u03c1\u03b1\u03bd"
        },
        {
            "chapter": 23,
            "verse": 18,
            "name": "Proverbs 23:18",
            "text": "\u03b5\u03ac\u03bd \u03b3\u03b1\u03c1 \u03c4\u03b7\u03c1\u03ae\u03c3\u03b7\u03c2 \u03b1\u03c5\u03c4\u03ac \u03ad\u03c3\u03c4\u03b1\u03b9 \u03c3\u03bf\u03b9 \u03ad\u03ba\u03b3\u03bf\u03bd\u03b1 \u03b7 \u03b4\u03b5 \u03b5\u03bb\u03c0\u03af\u03c2 \u03c3\u03bf\u03c5 \u03bf\u03c5\u03ba \u03b1\u03c0\u03bf\u03c3\u03c4\u03ae\u03c3\u03b5\u03c4\u03b1\u03b9"
        },
        {
            "chapter": 23,
            "verse": 19,
            "name": "Proverbs 23:19",
            "text": "\u03ac\u03ba\u03bf\u03c5\u03b5 \u03c5\u03b9\u03ad \u03ba\u03b1\u03b9 \u03c3\u03bf\u03c6\u03cc\u03c2 \u03b3\u03af\u03bd\u03bf\u03c5 \u03ba\u03b1\u03b9 \u03ba\u03b1\u03c4\u03b5\u03cd\u03b8\u03c5\u03bd\u03b5 \u03b5\u03bd\u03bd\u03bf\u03af\u03b1\u03c2 \u03c3\u03b7\u03c2 \u03ba\u03b1\u03c1\u03b4\u03af\u03b1\u03c2"
        },
        {
            "chapter": 23,
            "verse": 20,
            "name": "Proverbs 23:20",
            "text": "\u03bc\u03b7 \u03af\u03c3\u03b8\u03b9 \u03bf\u03b9\u03bd\u03bf\u03c0\u03cc\u03c4\u03b7\u03c2 \u03bc\u03b7\u03b4\u03ad \u03b5\u03ba\u03c4\u03b5\u03af\u03bd\u03bf\u03c5 \u03c3\u03c5\u03bc\u03b2\u03bf\u03bb\u03b1\u03af\u03c2 \u03ba\u03c1\u03b5\u03ce\u03bd \u03c4\u03b5 \u03b1\u03b3\u03bf\u03c1\u03b1\u03c3\u03bc\u03bf\u03af\u03c2"
        },
        {
            "chapter": 23,
            "verse": 21,
            "name": "Proverbs 23:21",
            "text": "\u03c0\u03b1\u03c2 \u03b3\u03b1\u03c1 \u03bc\u03ad\u03b8\u03c5\u03c3\u03bf\u03c2 \u03ba\u03b1\u03b9 \u03c0\u03bf\u03c1\u03bd\u03bf\u03ba\u03cc\u03c0\u03bf\u03c2 \u03c0\u03c4\u03c9\u03c7\u03b5\u03cd\u03c3\u03b5\u03b9 \u03ba\u03b1\u03b9 \u03b5\u03bd\u03b4\u03cd\u03c3\u03b5\u03c4\u03b1\u03b9 \u03b4\u03b9\u03b5\u03c1\u03c1\u03b7\u03b3\u03bc\u03ad\u03bd\u03b1 \u03ba\u03b1\u03b9 \u03c1\u03b1\u03ba\u03ce\u03b4\u03b7 \u03c0\u03b1\u03c2 \u03c5\u03c0\u03bd\u03ce\u03b4\u03b7\u03c2"
        },
        {
            "chapter": 23,
            "verse": 22,
            "name": "Proverbs 23:22",
            "text": "\u03ac\u03ba\u03bf\u03c5\u03b5 \u03c5\u03b9\u03ad \u03c0\u03b1\u03c4\u03c1\u03cc\u03c2 \u03c4\u03bf\u03c5 \u03b3\u03b5\u03bd\u03bd\u03ae\u03c3\u03b1\u03bd\u03c4\u03cc\u03c2 \u03c3\u03b5 \u03ba\u03b1\u03b9 \u03bc\u03b7 \u03ba\u03b1\u03c4\u03b1\u03c6\u03c1\u03cc\u03bd\u03b5\u03b9 \u03cc\u03c4\u03b9 \u03b3\u03b5\u03b3\u03ae\u03c1\u03b1\u03ba\u03ad \u03c3\u03bf\u03c5 \u03b7 \u03bc\u03ae\u03c4\u03b7\u03c1"
        },
        {
            "chapter": 23,
            "verse": 23,
            "name": "Proverbs 23:23",
            "text": "\u03b1\u03bb\u03ae\u03b8\u03b5\u03b9\u03b1\u03bd \u03ba\u03c4\u03ae\u03c3\u03b1\u03b9 \u03ba\u03b1\u03b9 \u03bc\u03b7 \u03b1\u03c0\u03ce\u03c3\u03b7 \u03c3\u03bf\u03c6\u03af\u03b1\u03bd \u03ba\u03b1\u03b9 \u03c0\u03b1\u03b9\u03b4\u03b5\u03af\u03b1\u03bd \u03ba\u03b1\u03b9 \u03c3\u03cd\u03bd\u03b5\u03c3\u03b9\u03bd"
        },
        {
            "chapter": 23,
            "verse": 24,
            "name": "Proverbs 23:24",
            "text": "\u03ba\u03b1\u03bb\u03ce\u03c2 \u03b5\u03ba\u03c4\u03c1\u03ad\u03c6\u03b5\u03b9 \u03c0\u03b1\u03c4\u03ae\u03c1 \u03b4\u03af\u03ba\u03b1\u03b9\u03bf\u03c2 \u03b5\u03c0\u03af \u03b4\u03b5 \u03c5\u03b9\u03ce \u03c3\u03bf\u03c6\u03ce \u03b5\u03c5\u03c6\u03c1\u03b1\u03af\u03bd\u03b5\u03c4\u03b1\u03b9 \u03b7 \u03c8\u03c5\u03c7\u03ae \u03b1\u03c5\u03c4\u03bf\u03cd"
        },
        {
            "chapter": 23,
            "verse": 25,
            "name": "Proverbs 23:25",
            "text": "\u03b5\u03c5\u03c6\u03c1\u03b1\u03b9\u03bd\u03ad\u03c3\u03b8\u03c9 \u03bf \u03c0\u03b1\u03c4\u03ae\u03c1 \u03ba\u03b1\u03b9 \u03b7 \u03bc\u03ae\u03c4\u03b7\u03c1 \u03b5\u03c0\u03af \u03c3\u03bf\u03b9 \u03ba\u03b1\u03b9 \u03c7\u03b1\u03b9\u03c1\u03ad\u03c4\u03c9 \u03b7 \u03c4\u03b5\u03ba\u03bf\u03cd\u03c3\u03ac \u03c3\u03b5"
        },
        {
            "chapter": 23,
            "verse": 26,
            "name": "Proverbs 23:26",
            "text": "\u03b4\u03bf\u03c2 \u03bc\u03bf\u03b9 \u03c5\u03b9\u03ad \u03c3\u03b7\u03bd \u03ba\u03b1\u03c1\u03b4\u03af\u03b1\u03bd \u03bf\u03b9 \u03b4\u03b5 \u03c3\u03bf\u03b9 \u03bf\u03c6\u03b8\u03b1\u03bb\u03bc\u03bf\u03af \u03b5\u03bc\u03ac\u03c2 \u03bf\u03b4\u03bf\u03cd\u03c2 \u03c4\u03b7\u03c1\u03b5\u03af\u03c4\u03c9\u03c3\u03b1\u03bd"
        },
        {
            "chapter": 23,
            "verse": 27,
            "name": "Proverbs 23:27",
            "text": "\u03c0\u03af\u03b8\u03bf\u03c2 \u03b3\u03b1\u03c1 \u03c4\u03b5\u03c4\u03c1\u03b9\u03bc\u03ad\u03bd\u03bf\u03c2 \u03b5\u03c3\u03c4\u03af\u03bd \u03b1\u03bb\u03bb\u03cc\u03c4\u03c1\u03b9\u03bf\u03c2 \u03bf\u03af\u03ba\u03bf\u03c2 \u03ba\u03b1\u03b9 \u03c6\u03c1\u03b5\u03ac\u03c1 \u03c3\u03c4\u03b5\u03bd\u03cc\u03bd \u03b1\u03bb\u03bb\u03cc\u03c4\u03c1\u03b9\u03bf\u03bd"
        },
        {
            "chapter": 23,
            "verse": 28,
            "name": "Proverbs 23:28",
            "text": "\u03bf\u03cd\u03c4\u03bf\u03c2 \u03b3\u03b1\u03c1 \u03c3\u03c5\u03bd\u03c4\u03cc\u03bc\u03c9\u03c2 \u03b1\u03c0\u03bf\u03bb\u03b5\u03af\u03c4\u03b1\u03b9 \u03ba\u03b1\u03b9 \u03c0\u03b1\u03c2 \u03c0\u03b1\u03c1\u03ac\u03bd\u03bf\u03bc\u03bf\u03c2 \u03b1\u03bd\u03b1\u03bb\u03c9\u03b8\u03ae\u03c3\u03b5\u03c4\u03b1\u03b9"
        },
        {
            "chapter": 23,
            "verse": 29,
            "name": "Proverbs 23:29",
            "text": "\u03c4\u03af\u03bd\u03b9 \u03bf\u03c5\u03b1\u03af \u03c4\u03af\u03bd\u03b9 \u03b8\u03cc\u03c1\u03c5\u03b2\u03bf\u03c2 \u03c4\u03af\u03bd\u03b9 \u03ba\u03c1\u03af\u03c3\u03b5\u03b9\u03c2 \u03c4\u03af\u03bd\u03b9 \u03b1\u03b7\u03b4\u03af\u03b1\u03b9 \u03ba\u03b1\u03b9 \u03bb\u03ad\u03c3\u03c7\u03b1\u03b9 \u03c4\u03af\u03bd\u03b9 \u03c3\u03c5\u03bd\u03c4\u03c1\u03af\u03bc\u03bc\u03b1\u03c4\u03b1 \u03b4\u03b9\u03b1\u03ba\u03b5\u03bd\u03ae\u03c2 \u03c4\u03af\u03bd\u03bf\u03c2 \u03c0\u03b5\u03bb\u03b9\u03b4\u03bd\u03bf\u03af \u03bf\u03b9 \u03bf\u03c6\u03b8\u03b1\u03bb\u03bc\u03bf\u03af"
        },
        {
            "chapter": 23,
            "verse": 30,
            "name": "Proverbs 23:30",
            "text": "\u03bf\u03c5 \u03c4\u03c9\u03bd \u03b5\u03b3\u03c7\u03c1\u03bf\u03bd\u03b9\u03b6\u03cc\u03bd\u03c4\u03c9\u03bd \u03b5\u03bd \u03bf\u03af\u03bd\u03bf\u03b9\u03c2 \u03bf\u03c5 \u03c4\u03c9\u03bd \u03b9\u03c7\u03bd\u03b5\u03c5\u03cc\u03bd\u03c4\u03c9\u03bd \u03c0\u03bf\u03c5 \u03c0\u03cc\u03c4\u03bf\u03b9 \u03b3\u03af\u03bd\u03bf\u03bd\u03c4\u03b1\u03b9 \u03bc\u03b7 \u03bc\u03b5\u03b8\u03cd\u03c3\u03ba\u03b5\u03c3\u03b8\u03b5 \u03bf\u03af\u03bd\u03c9 \u03b1\u03bb\u03bb\u03ac \u03bf\u03bc\u03b9\u03bb\u03b5\u03af\u03c4\u03b5 \u03b1\u03bd\u03b8\u03c1\u03ce\u03c0\u03bf\u03b9\u03c2 \u03b4\u03b9\u03ba\u03b1\u03af\u03bf\u03b9\u03c2 \u03ba\u03b1\u03b9 \u03bf\u03bc\u03b9\u03bb\u03b5\u03af\u03c4\u03b5 \u03b5\u03bd \u03c0\u03b5\u03c1\u03b9\u03c0\u03ac\u03c4\u03bf\u03b9\u03c2"
        },
        {
            "chapter": 23,
            "verse": 31,
            "name": "Proverbs 23:31",
            "text": "\u03b5\u03ac\u03bd \u03b3\u03b1\u03c1 \u03b5\u03b9\u03c2 \u03c4\u03b1\u03c2 \u03c6\u03b9\u03ac\u03bb\u03b1\u03c2 \u03ba\u03b1\u03b9 \u03c4\u03b1 \u03c0\u03bf\u03c4\u03ae\u03c1\u03b9\u03b1 \u03b4\u03c9\u03c2 \u03c4\u03bf\u03c5\u03c2 \u03bf\u03c6\u03b8\u03b1\u03bb\u03bc\u03bf\u03cd\u03c2 \u03c3\u03bf\u03c5 \u03cd\u03c3\u03c4\u03b5\u03c1\u03bf\u03bd \u03c0\u03b5\u03c1\u03b9\u03c0\u03b1\u03c4\u03ae\u03c3\u03b5\u03b9\u03c2 \u03b3\u03c5\u03bc\u03bd\u03cc\u03c4\u03b5\u03c1\u03bf\u03c2 \u03c5\u03c0\u03ad\u03c1\u03bf\u03c5"
        },
        {
            "chapter": 23,
            "verse": 32,
            "name": "Proverbs 23:32",
            "text": "\u03c4\u03bf \u03b4\u03b5 \u03ad\u03c3\u03c7\u03b1\u03c4\u03bf\u03bd \u03ce\u03c3\u03c0\u03b5\u03c1 \u03c5\u03c0\u03cc \u03cc\u03c6\u03b5\u03c9\u03c2 \u03c0\u03b5\u03c0\u03bb\u03b7\u03b3\u03ce\u03c2 \u03b5\u03ba\u03c4\u03b5\u03af\u03bd\u03b5\u03c4\u03b1\u03b9 \u03ba\u03b1\u03b9 \u03ce\u03c3\u03c0\u03b5\u03c1 \u03c5\u03c0\u03cc \u03ba\u03b5\u03c1\u03ac\u03c3\u03c4\u03bf\u03c5 \u03b4\u03b9\u03b1\u03c7\u03b5\u03af\u03c4\u03b1\u03b9 \u03b1\u03c5\u03c4\u03bf\u03cd \u03bf \u03b9\u03cc\u03c2"
        },
        {
            "chapter": 23,
            "verse": 33,
            "name": "Proverbs 23:33",
            "text": "\u03bf\u03b9 \u03bf\u03c6\u03b8\u03b1\u03bb\u03bc\u03bf\u03af \u03c3\u03bf\u03c5 \u03cc\u03c4\u03b1\u03bd \u03af\u03b4\u03c9\u03c3\u03b9\u03bd \u03b1\u03bb\u03bb\u03bf\u03c4\u03c1\u03af\u03b1\u03bd \u03c4\u03bf \u03c3\u03c4\u03cc\u03bc\u03b1 \u03c3\u03bf\u03c5 \u03c4\u03cc\u03c4\u03b5 \u03bb\u03b1\u03bb\u03ae\u03c3\u03b5\u03b9 \u03c3\u03ba\u03bf\u03bb\u03b9\u03ac"
        },
        {
            "chapter": 23,
            "verse": 34,
            "name": "Proverbs 23:34",
            "text": "\u03ba\u03b1\u03b9 \u03ba\u03b1\u03c4\u03b1\u03ba\u03b5\u03af\u03c3\u03b7 \u03ce\u03c3\u03c0\u03b5\u03c1 \u03b5\u03bd \u03ba\u03b1\u03c1\u03b4\u03af\u03b1 \u03b8\u03b1\u03bb\u03ac\u03c3\u03c3\u03b7\u03c2 \u03ba\u03b1\u03b9 \u03ce\u03c3\u03c0\u03b5\u03c1 \u03ba\u03c5\u03b2\u03b5\u03c1\u03bd\u03ae\u03c4\u03b7\u03c2 \u03b5\u03bd \u03c0\u03bf\u03bb\u03bb\u03ce \u03ba\u03bb\u03cd\u03b4\u03c9\u03bd\u03b9"
        },
        {
            "chapter": 23,
            "verse": 35,
            "name": "Proverbs 23:35",
            "text": "\u03b5\u03c1\u03b5\u03af\u03c2 \u03b4\u03b5 \u03ad\u03c4\u03c5\u03c0\u03c4\u03cc\u03bd \u03bc\u03b5 \u03ba\u03b1\u03b9 \u03bf\u03c5\u03ba \u03b5\u03c0\u03cc\u03bd\u03b5\u03c3\u03b1 \u03ba\u03b1\u03b9 \u03b5\u03bd\u03ad\u03c0\u03b1\u03b9\u03be\u03ac\u03bd \u03bc\u03bf\u03b9 \u03b5\u03b3\u03ce \u03b4\u03b5 \u03bf\u03c5\u03ba \u03ae\u03b4\u03b5\u03b9\u03bd \u03c0\u03cc\u03c4\u03b5 \u03cc\u03c1\u03b8\u03c1\u03bf\u03c2 \u03ad\u03c3\u03c4\u03b1\u03b9 \u03af\u03bd\u03b1 \u03b5\u03bb\u03b8\u03ce\u03bd \u03b6\u03b7\u03c4\u03ae\u03c3\u03c9 \u03bc\u03b5\u03b8\u0384 \u03c9\u03bd \u03c3\u03c5\u03bd\u03b5\u03bb\u03b5\u03cd\u03c3\u03bf\u03bc\u03b1\u03b9  "
        }
    ]
}