{
    "translation": "Pyha Raamattu (1992)",
    "abbreviation": "pyharaamattu1992",
    "lang": "fi",
    "language": "Finnish",
    "direction": "LTR",
    "encoding": "UTF-8",
    "book_nr": 1,
    "book_name": "Genesis",
    "chapter": 31,
    "name": "Genesis 31",
    "verses": [
        {
            "chapter": 31,
            "verse": 1,
            "name": "Genesis 31:1",
            "text": "Jaakob kuuli Labanin poikien sanovan: \"Jaakob on vienyt kaiken, mik\u00e4 kuului is\u00e4llemme, ja hankkinut koko rikkautensa is\u00e4mme kustannuksella.\""
        },
        {
            "chapter": 31,
            "verse": 2,
            "name": "Genesis 31:2",
            "text": "Jaakob n\u00e4ki my\u00f6s Labanin kasvoista, ettei t\u00e4m\u00e4 en\u00e4\u00e4 ollut h\u00e4nelle yht\u00e4 suopea kuin ennen."
        },
        {
            "chapter": 31,
            "verse": 3,
            "name": "Genesis 31:3",
            "text": "Silloin Herra sanoi Jaakobille: \"Palaa isiesi maahan ja synnyinseudullesi. Min\u00e4 olen sinun kanssasi.\""
        },
        {
            "chapter": 31,
            "verse": 4,
            "name": "Genesis 31:4",
            "text": "Jaakob kutsutti Raakelin ja Lean luokseen laidun- maalle, miss\u00e4 h\u00e4n paimensi lampaitaan ja vuohiaan,"
        },
        {
            "chapter": 31,
            "verse": 5,
            "name": "Genesis 31:5",
            "text": "ja sanoi heille: \"Min\u00e4 huomaan is\u00e4nne kasvoista, ettei h\u00e4n en\u00e4\u00e4 ole minulle yht\u00e4 suopea kuin ennen, mutta minun is\u00e4ni Jumala on aina ollut kanssani."
        },
        {
            "chapter": 31,
            "verse": 6,
            "name": "Genesis 31:6",
            "text": "Teh\u00e4n tied\u00e4tte, ett\u00e4 min\u00e4 olen parhaani mukaan palvellut is\u00e4\u00e4nne,"
        },
        {
            "chapter": 31,
            "verse": 7,
            "name": "Genesis 31:7",
            "text": "h\u00e4n sen sijaan on petkuttanut minua ja muuttanut palkkaani kymmenen kertaa. Jumala ei kuitenkaan ole antanut h\u00e4nen tuottaa minulle vahinkoa."
        },
        {
            "chapter": 31,
            "verse": 8,
            "name": "Genesis 31:8",
            "text": "Jos is\u00e4nne sanoi: 'T\u00e4plikk\u00e4\u00e4t saavat olla palkkasi', silloin kaikki lampaat ja vuohet synnyttiv\u00e4t t\u00e4plikk\u00e4it\u00e4, ja jos h\u00e4n sanoi: 'Juovik- kaat saavat olla palkkasi', niin kaikki el\u00e4imet synnyttiv\u00e4t juovikkaita."
        },
        {
            "chapter": 31,
            "verse": 9,
            "name": "Genesis 31:9",
            "text": "Jumala otti karjan pois is\u00e4lt\u00e4nne ja antoi sen minulle."
        },
        {
            "chapter": 31,
            "verse": 10,
            "name": "Genesis 31:10",
            "text": "Lampaiden ja vuohien kiima-aikana min\u00e4 n\u00e4in unessa juovikkaiden, t\u00e4plikk\u00e4iden ja laikukkaiden urosten astuvan lampai- ta ja vuohia."
        },
        {
            "chapter": 31,
            "verse": 11,
            "name": "Genesis 31:11",
            "text": "Jumalan enkeli sanoi minulle siin\u00e4 unessa: 'Jaakob!' Ja min\u00e4 sanoin: 'T\u00e4ss\u00e4 olen.'"
        },
        {
            "chapter": 31,
            "verse": 12,
            "name": "Genesis 31:12",
            "text": "H\u00e4n sanoi: 'N\u00e4etk\u00f6, kaikki urokset, jotka astuvat lampaita ja vuohia, ovat juovikkaita, t\u00e4plikk\u00e4it\u00e4 ja laikukkaita, sill\u00e4 min\u00e4 olen n\u00e4hnyt, miten Laban sinua kohtelee."
        },
        {
            "chapter": 31,
            "verse": 13,
            "name": "Genesis 31:13",
            "text": "Min\u00e4 olen Jumala, joka ilmestyin sinulle Beteliss\u00e4, miss\u00e4 sin\u00e4 voitelit \u00f6ljyll\u00e4 patsaan ja teit minulle uhrilupauksen. L\u00e4hde nyt pois t\u00e4st\u00e4 maasta ja palaa synnyinseudullesi.'\""
        },
        {
            "chapter": 31,
            "verse": 14,
            "name": "Genesis 31:14",
            "text": "Silloin Raakel ja Lea vastasivat h\u00e4nelle: \"Meill\u00e4 ei ole is\u00e4mme luona en\u00e4\u00e4 mit\u00e4\u00e4n perint\u00f6osaa j\u00e4ljell\u00e4."
        },
        {
            "chapter": 31,
            "verse": 15,
            "name": "Genesis 31:15",
            "text": "H\u00e4nh\u00e4n kohteli meit\u00e4 kuin orjia, sill\u00e4 h\u00e4n myi meid\u00e4t ja viel\u00e4 s\u00f6i suuhunsa sen hinnan, jonka oli meist\u00e4 saanut."
        },
        {
            "chapter": 31,
            "verse": 16,
            "name": "Genesis 31:16",
            "text": "Koko se rikkaus, jonka Jumala on ottanut pois meid\u00e4n is\u00e4lt\u00e4mme, kuuluu meille ja lapsillemme! Tee siis nyt niin kuin Jumala on k\u00e4skenyt sinun tehd\u00e4!\""
        },
        {
            "chapter": 31,
            "verse": 17,
            "name": "Genesis 31:17",
            "text": "Niin Jaakob pani lapsensa ja vaimonsa kamelien selk\u00e4\u00e4n,"
        },
        {
            "chapter": 31,
            "verse": 18,
            "name": "Genesis 31:18",
            "text": "otti mukaan laumansa ja kaiken omaisuu- tensa ja koko sen karjan, jonka h\u00e4n oli hankkinut omakseen Mesopotamiassa, ja l\u00e4hti Kanaaninmaahan is\u00e4ns\u00e4 Iisakin luo."
        },
        {
            "chapter": 31,
            "verse": 19,
            "name": "Genesis 31:19",
            "text": "Kun Laban oli keritsem\u00e4ss\u00e4 lampaitaan, Raakel varasti kotoaan is\u00e4ns\u00e4 jumalan- kuvat."
        },
        {
            "chapter": 31,
            "verse": 20,
            "name": "Genesis 31:20",
            "text": "Jaakob harhautti aramealaista Labania eik\u00e4 kertonut h\u00e4nelle aikeistaan,"
        },
        {
            "chapter": 31,
            "verse": 21,
            "name": "Genesis 31:21",
            "text": "vaan l\u00e4hti salaa matkaan ja vei mukanaan koko v\u00e4kens\u00e4 ja omaisuutensa. H\u00e4n ylitti Eufratin ja suuntasi mat- kansa kohti Gileadin vuoria."
        },
        {
            "chapter": 31,
            "verse": 22,
            "name": "Genesis 31:22",
            "text": "Kahden p\u00e4iv\u00e4n kuluttua Laban sai tiedon, ett\u00e4 Jaakob oli l\u00e4htenyt salaa tiehens\u00e4."
        },
        {
            "chapter": 31,
            "verse": 23,
            "name": "Genesis 31:23",
            "text": "Silloin h\u00e4n otti mukaan sukunsa miehet ja tavoitti Jaakobin seitsem\u00e4n p\u00e4iv\u00e4n takaa-ajon j\u00e4lkeen Gileadin vuoril- la."
        },
        {
            "chapter": 31,
            "verse": 24,
            "name": "Genesis 31:24",
            "text": "Mutta Jumala tuli aramealaisen Labanin luo y\u00f6ll\u00e4 unessa ja sanoi h\u00e4nelle: \"Varo, ettet puhu pahasti Jaakobille.\""
        },
        {
            "chapter": 31,
            "verse": 25,
            "name": "Genesis 31:25",
            "text": "Laban kohtasi Jaakobin, kun t\u00e4m\u00e4 oli leiriytynyt Gileadin vuorille, ja my\u00f6s Laban leiriytyi sinne miehineen."
        },
        {
            "chapter": 31,
            "verse": 26,
            "name": "Genesis 31:26",
            "text": "Laban sanoi Jaakobille: \"Mit\u00e4 oletkaan tehnyt! Sin\u00e4 olit petollinen ja veit tytt\u00e4reni mukanasi, ik\u00e4\u00e4n kuin he olisivat olleet sotasaalista!"
        },
        {
            "chapter": 31,
            "verse": 27,
            "name": "Genesis 31:27",
            "text": "Miksi pakenit salaa minun luotani etk\u00e4 kertonut minulle aikeistasi mit\u00e4\u00e4n? Min\u00e4 olisin saattanut sinut iloisesti matkaan lauluin, tamburiinein ja harpuin."
        },
        {
            "chapter": 31,
            "verse": 28,
            "name": "Genesis 31:28",
            "text": "Et antanut minulle edes tilaisuutta suudella lapsenlapsiani ja tytt\u00e4ri\u00e4ni hyv\u00e4stiksi. Siin\u00e4 teit kovin tyhm\u00e4sti!"
        },
        {
            "chapter": 31,
            "verse": 29,
            "name": "Genesis 31:29",
            "text": "Min\u00e4 voisin tehd\u00e4 teille paljonkin pahaa, mutta teid\u00e4n isienne Jumala sanoi minulle viime y\u00f6n\u00e4: 'Varo, ettet puhu pahasti Jaakobille.'"
        },
        {
            "chapter": 31,
            "verse": 30,
            "name": "Genesis 31:30",
            "text": "No hyv\u00e4! Sin\u00e4 l\u00e4hdit matkaan, koska niin kovasti ik\u00e4v\u00f6it is\u00e4si luo, mutta miksi varastit minulta jumalankuvat?\""
        },
        {
            "chapter": 31,
            "verse": 31,
            "name": "Genesis 31:31",
            "text": "Jaakob vastasi: \"Min\u00e4 l\u00e4hdin salaa, koska pelk\u00e4- sin, ett\u00e4 sin\u00e4 riist\u00e4isit minulta tytt\u00e4resi."
        },
        {
            "chapter": 31,
            "verse": 32,
            "name": "Genesis 31:32",
            "text": "Mutta kuolema sille, jonka hallusta sin\u00e4 l\u00f6yd\u00e4t jumalasi! Saat sukumme miesten l\u00e4sn\u00e4 ollessa itse tutkia, mit\u00e4 minulla on mukanani, ja ottaa omasi pois.\" Jaakob ei tiennyt, ett\u00e4 Raakel oli varastanut jumalat."
        },
        {
            "chapter": 31,
            "verse": 33,
            "name": "Genesis 31:33",
            "text": "Laban k\u00e4vi Jaakobin teltassa, sitten Lean ja molempien orjattarien teltassa, mutta ei l\u00f6yt\u00e4nyt mit\u00e4\u00e4n. Lean teltasta tultuaan h\u00e4n meni Raakelin telttaan."
        },
        {
            "chapter": 31,
            "verse": 34,
            "name": "Genesis 31:34",
            "text": "Mutta Raakel oli pannut jumalankuvat kamelin satulas\u00e4kkiin ja istui niiden p\u00e4\u00e4ll\u00e4. Laban penkoi koko teltan eik\u00e4 l\u00f6yt\u00e4nyt niit\u00e4."
        },
        {
            "chapter": 31,
            "verse": 35,
            "name": "Genesis 31:35",
            "text": "Silloin Raakel sanoi is\u00e4lleen: \"\u00c4l\u00e4 vihastu, herrani, vaikka en voikaan nousta tielt\u00e4si. Minulla on se naisten tavallinen vaiva.\" Eik\u00e4 Laban l\u00f6yt\u00e4nyt jumalankuvia, vaikka kuinka etsi."
        },
        {
            "chapter": 31,
            "verse": 36,
            "name": "Genesis 31:36",
            "text": "Silloin Jaakob kiivastui ja alkoi syytt\u00e4\u00e4 Labania. H\u00e4n sanoi: \"Mik\u00e4 on minun rikkomukseni, mit\u00e4 pahaa min\u00e4 olen tehnyt, kun n\u00e4in rynt\u00e4\u00e4t minun per\u00e4\u00e4ni?"
        },
        {
            "chapter": 31,
            "verse": 37,
            "name": "Genesis 31:37",
            "text": "Nyt olet penkonut kaikki minun tavarani. L\u00f6ysitk\u00f6 mit\u00e4\u00e4n itsellesi kuuluvaa? Pane se t\u00e4h\u00e4n minun v\u00e4keni ja oman v\u00e4kesi eteen, niin he saavat ratkaista asian."
        },
        {
            "chapter": 31,
            "verse": 38,
            "name": "Genesis 31:38",
            "text": "Min\u00e4 olen ollut luonasi kaksikymment\u00e4 vuotta, eiv\u00e4tk\u00e4 sinun lampaasi ja vuohesi ole menett\u00e4neet karitsoitaan enk\u00e4 min\u00e4 ole sy\u00f6nyt p\u00e4ssej\u00e4 sinun laumastasi."
        },
        {
            "chapter": 31,
            "verse": 39,
            "name": "Genesis 31:39",
            "text": "Aina kun toin sinulle pedon raateleman lampaan, jouduin sen korvaamaan. Min\u00e4 olen saanut siit\u00e4 vastata, oli se sitten viety p\u00e4iv\u00e4ll\u00e4 tai y\u00f6ll\u00e4."
        },
        {
            "chapter": 31,
            "verse": 40,
            "name": "Genesis 31:40",
            "text": "P\u00e4ivisin minua vaivasi helle, \u00f6isin en vilulta saanut silmiini unta."
        },
        {
            "chapter": 31,
            "verse": 41,
            "name": "Genesis 31:41",
            "text": "Kaksikymment\u00e4 vuotta min\u00e4 olen viett\u00e4nyt sinun talossasi, nelj\u00e4toista vuotta palvelin sinua saadakseni kaksi tyt\u00e4rt\u00e4si ja kuusi vuotta saadakse- ni sinulta lampaita ja vuohia, mutta kymmenen kertaa sin\u00e4 muutit minun palkkaani."
        },
        {
            "chapter": 31,
            "verse": 42,
            "name": "Genesis 31:42",
            "text": "Ellei is\u00e4ni Jumala, Abrahamin Jumala, jota my\u00f6s Iisak palvelee, olisi ollut minun puolellani, sin\u00e4 olisit l\u00e4hett\u00e4nyt minut matkaan tyhjin k\u00e4sin. Mutta Jumala n\u00e4ki minun ahdinkoni ja ty\u00f6ni paljouden ja ratkaisi asian viime y\u00f6n\u00e4.\""
        },
        {
            "chapter": 31,
            "verse": 43,
            "name": "Genesis 31:43",
            "text": "Laban vastasi Jaakobille: \"Tytt\u00e4ret ovat kyll\u00e4 minun tytt\u00e4ri\u00e4ni, lapset minun lapsiani ja karja minun karjaani. Kaikki, mit\u00e4 sin\u00e4 t\u00e4\u00e4ll\u00e4 n\u00e4et, on minun. Mutta mink\u00e4 min\u00e4 nyt mahdan n\u00e4ille tytt\u00e4rille tai lapsille, jotka he ovat synnytt\u00e4neet?"
        },
        {
            "chapter": 31,
            "verse": 44,
            "name": "Genesis 31:44",
            "text": "Teh- k\u00e4\u00e4mme siis sovinto, ja olkoon sill\u00e4 todistaja.\""
        },
        {
            "chapter": 31,
            "verse": 45,
            "name": "Genesis 31:45",
            "text": "Niin Jaakob otti kiven, nosti sen pystyyn patsaaksi"
        },
        {
            "chapter": 31,
            "verse": 46,
            "name": "Genesis 31:46",
            "text": "ja sanoi omalle v\u00e4elleen: \"Ker\u00e4tk\u00e4\u00e4 kivi\u00e4.\" Miehet hakivat kivi\u00e4 ja kasasivat ne r\u00f6ykki\u00f6ksi. Sitten he yhdess\u00e4 aterioivat sen \u00e4\u00e4ress\u00e4."
        },
        {
            "chapter": 31,
            "verse": 47,
            "name": "Genesis 31:47",
            "text": "Laban antoi r\u00f6ykki\u00f6lle nimeksi Jegarsahaduta, ja Jaakob antoi sille nimen Galed."
        },
        {
            "chapter": 31,
            "verse": 48,
            "name": "Genesis 31:48",
            "text": "Sitten Laban sanoi: \"T\u00e4m\u00e4 r\u00f6ykki\u00f6 olkoon nyt sopimuksemme todisteena.\" Sen vuoksi sit\u00e4 kutsutaan nimell\u00e4 Galed"
        },
        {
            "chapter": 31,
            "verse": 49,
            "name": "Genesis 31:49",
            "text": "ja my\u00f6s nimell\u00e4 Mispa, sill\u00e4 h\u00e4n sanoi viel\u00e4: \"Herra pit\u00e4k\u00f6\u00f6n meit\u00e4 silm\u00e4ll\u00e4 silloinkin, kun emme en\u00e4\u00e4 voi n\u00e4hd\u00e4 toinen toistamme."
        },
        {
            "chapter": 31,
            "verse": 50,
            "name": "Genesis 31:50",
            "text": "Jos sin\u00e4 kohtelet huonosti tytt\u00e4ri\u00e4ni ja otat muita vaimoja heid\u00e4n lis\u00e4kseen, niin silloin on Jumala oleva sopimuksemme todistajana, vaikka yht\u00e4\u00e4n ihmist\u00e4 ei olisi l\u00e4sn\u00e4 sen todistajana.\""
        },
        {
            "chapter": 31,
            "verse": 51,
            "name": "Genesis 31:51",
            "text": "Laban sanoi viel\u00e4 Jaakobille: \"Katso t\u00e4t\u00e4 r\u00f6ykki\u00f6t\u00e4 ja t\u00e4t\u00e4 patsasta, jonka min\u00e4 olen pystytt\u00e4nyt meid\u00e4n v\u00e4lillemme."
        },
        {
            "chapter": 31,
            "verse": 52,
            "name": "Genesis 31:52",
            "text": "T\u00e4m\u00e4 r\u00f6ykki\u00f6 ja t\u00e4m\u00e4 patsas todistavat ja muistuttavat siit\u00e4, etten min\u00e4 saa kulkea niiden ohi pahoin aikein sinua vastaan etk\u00e4 sin\u00e4k\u00e4\u00e4n saa kulkea niiden ohi hy\u00f6k\u00e4- t\u00e4ksesi minun kimppuuni."
        },
        {
            "chapter": 31,
            "verse": 53,
            "name": "Genesis 31:53",
            "text": "Meid\u00e4n isiemme Abrahamin ja Nahorin Jumala valvokoon tuomarina t\u00e4t\u00e4 sopimustamme.\" Jaakob puolestaan vannoi valan sen Jumalan kautta, jota h\u00e4nen is\u00e4ns\u00e4 Iisak palveli."
        },
        {
            "chapter": 31,
            "verse": 54,
            "name": "Genesis 31:54",
            "text": "Sitten Jaakob uhrasi sill\u00e4 vuorella teurasuhrin ja kutsui kaikki muut aterialle kanssaan, ja he s\u00f6iv\u00e4t ja viipyiv\u00e4t vuorella sen y\u00f6n."
        },
        {
            "chapter": 31,
            "verse": 55,
            "name": "Genesis 31:55",
            "text": "Heti seuraavana aamuna Laban suuteli lapsia ja tytt\u00e4ri\u00e4\u00e4n ja siunasi ja hyv\u00e4steli heid\u00e4t. Sitten h\u00e4n l\u00e4hti pois ja palasi kotiseudulleen."
        }
    ]
}