{
    "translation": "New Heart English Bible: Messianic Edition",
    "abbreviation": "nhebme",
    "lang": "en",
    "language": "English",
    "direction": "LTR",
    "encoding": "UTF-8",
    "book_nr": 2,
    "book_name": "Exodus",
    "chapter": 32,
    "name": "Exodus 32",
    "verses": [
        {
            "chapter": 32,
            "verse": 1,
            "name": "Exodus 32:1",
            "text": "When the people saw that Moses delayed to come down from the mountain, the people gathered themselves together to Aaron, and said to him, \"Come, make us gods, which shall go before us; for as for this Moses, the man who brought us up out of the land of Egypt, we do not know what has become of him.\" "
        },
        {
            "chapter": 32,
            "verse": 2,
            "name": "Exodus 32:2",
            "text": "Aaron said to them, \"Take off the golden rings, which are in the ears of your wives, of your sons, and of your daughters, and bring them to me.\" "
        },
        {
            "chapter": 32,
            "verse": 3,
            "name": "Exodus 32:3",
            "text": "All the people took off the golden rings which were in their ears, and brought them to Aaron."
        },
        {
            "chapter": 32,
            "verse": 4,
            "name": "Exodus 32:4",
            "text": "He received what they handed him, and fashioned it with an engraving tool, and made it a molten calf; and they said, \"These are your gods, Israel, which brought you up out of the land of Egypt.\" "
        },
        {
            "chapter": 32,
            "verse": 5,
            "name": "Exodus 32:5",
            "text": "When Aaron saw this, he built an altar before it; and Aaron made a proclamation, and said, \"Tomorrow shall be a feast to the Lord.\" "
        },
        {
            "chapter": 32,
            "verse": 6,
            "name": "Exodus 32:6",
            "text": "They rose up early on the next day, and offered burnt offerings, and brought peace offerings; and the people sat down to eat and to drink, and rose up to play. "
        },
        {
            "chapter": 32,
            "verse": 7,
            "name": "Exodus 32:7",
            "text": "The Lord spoke to Moses, \"Go, get down; for your people, who you brought up out of the land of Egypt, have corrupted themselves!"
        },
        {
            "chapter": 32,
            "verse": 8,
            "name": "Exodus 32:8",
            "text": "They have turned aside quickly out of the way which I commanded them. They have made themselves a molten calf, and have worshiped it, and have sacrificed to it, and said, 'These are your gods, Israel, which brought you up out of the land of Egypt.'\" "
        },
        {
            "chapter": 32,
            "verse": 9,
            "name": "Exodus 32:9",
            "text": "The Lord said to Moses, \"I have seen these people, and behold, they are a stiff-necked people."
        },
        {
            "chapter": 32,
            "verse": 10,
            "name": "Exodus 32:10",
            "text": "Now therefore leave me alone, that my wrath may burn hot against them, and that I may consume them; and I will make of you a great nation.\" "
        },
        {
            "chapter": 32,
            "verse": 11,
            "name": "Exodus 32:11",
            "text": "Moses begged the Lord his God, and said, \"O Lord, why does your wrath burn hot against your people, that you have brought forth out of the land of Egypt with great power and with a mighty hand?"
        },
        {
            "chapter": 32,
            "verse": 12,
            "name": "Exodus 32:12",
            "text": "Why should the Egyptians speak, saying, 'He brought them forth for evil, to kill them in the mountains, and to consume them from the surface of the earth?' Turn from your fierce wrath, and repent of this evil against your people."
        },
        {
            "chapter": 32,
            "verse": 13,
            "name": "Exodus 32:13",
            "text": "Remember Abraham, Isaac, and Israel, your servants, to whom you swore by your own self, and said to them, 'I will multiply your seed as the stars of the sky, and all this land that I have spoken of I will give to your seed, and they shall inherit it forever.'\" "
        },
        {
            "chapter": 32,
            "verse": 14,
            "name": "Exodus 32:14",
            "text": "The Lord repented of the evil which he said he would do to his people. "
        },
        {
            "chapter": 32,
            "verse": 15,
            "name": "Exodus 32:15",
            "text": "Moses turned, and went down from the mountain, with the two tablets of the testimony in his hand; tablets that were written on both their sides; on the one side and on the other they were written."
        },
        {
            "chapter": 32,
            "verse": 16,
            "name": "Exodus 32:16",
            "text": "The tablets were the work of God, and the writing was the writing of God, engraved on the tables. "
        },
        {
            "chapter": 32,
            "verse": 17,
            "name": "Exodus 32:17",
            "text": "When Joshua heard the noise of the people as they shouted, he said to Moses, \"There is the noise of war in the camp.\" "
        },
        {
            "chapter": 32,
            "verse": 18,
            "name": "Exodus 32:18",
            "text": "He said, \"It isn't the voice of those who shout for victory, neither is it the voice of those who cry for being overcome; but the noise of those who sing that I hear.\""
        },
        {
            "chapter": 32,
            "verse": 19,
            "name": "Exodus 32:19",
            "text": "It happened, as soon as he came near to the camp, that he saw the calf and the dancing: and Moses' anger grew hot, and he threw the tablets out of his hands, and broke them beneath the mountain."
        },
        {
            "chapter": 32,
            "verse": 20,
            "name": "Exodus 32:20",
            "text": "He took the calf which they had made, and burnt it with fire, ground it to powder, and scattered it on the water, and made the children of Israel drink of it. "
        },
        {
            "chapter": 32,
            "verse": 21,
            "name": "Exodus 32:21",
            "text": "Moses said to Aaron, \"What did these people do to you, that you have brought a great sin on them?\" "
        },
        {
            "chapter": 32,
            "verse": 22,
            "name": "Exodus 32:22",
            "text": "Aaron said, \"Do not let the anger of my lord grow hot. You know the people, that they are set on evil."
        },
        {
            "chapter": 32,
            "verse": 23,
            "name": "Exodus 32:23",
            "text": "For they said to me, 'Make us gods, which shall go before us; for as for this Moses, the man who brought us up out of the land of Egypt, we do not know what has become of him.'"
        },
        {
            "chapter": 32,
            "verse": 24,
            "name": "Exodus 32:24",
            "text": "I said to them, 'Whoever has any gold, let them take it off:' so they gave it to me; and I threw it into the fire, and out came this calf.\" "
        },
        {
            "chapter": 32,
            "verse": 25,
            "name": "Exodus 32:25",
            "text": "When Moses saw that the people had broken loose, (for Aaron had let them loose for a derision among their enemies),"
        },
        {
            "chapter": 32,
            "verse": 26,
            "name": "Exodus 32:26",
            "text": "then Moses stood in the gate of the camp, and said, \"Whoever is on the Lord's side, come to me!\" All the sons of Levi gathered themselves together to him."
        },
        {
            "chapter": 32,
            "verse": 27,
            "name": "Exodus 32:27",
            "text": "He said to them, \"Thus says the Lord, the God of Israel, 'Every man put his sword on his thigh, and go back and forth from gate to gate throughout the camp, and every man kill his brother, and every man his companion, and every man his neighbor.'\""
        },
        {
            "chapter": 32,
            "verse": 28,
            "name": "Exodus 32:28",
            "text": "The sons of Levi did according to the word of Moses: and there fell of the people that day about three thousand men."
        },
        {
            "chapter": 32,
            "verse": 29,
            "name": "Exodus 32:29",
            "text": "Moses said, \"Consecrate yourselves today to the Lord, yes, every man against his son, and against his brother; that he may bestow on you a blessing this day.\" "
        },
        {
            "chapter": 32,
            "verse": 30,
            "name": "Exodus 32:30",
            "text": "It happened on the next day, that Moses said to the people, \"You have sinned a great sin. Now I will go up to the Lord. Perhaps I shall make atonement for your sin.\" "
        },
        {
            "chapter": 32,
            "verse": 31,
            "name": "Exodus 32:31",
            "text": "Moses returned to the Lord, and said, \"Oh, this people have sinned a great sin, and have made themselves gods of gold."
        },
        {
            "chapter": 32,
            "verse": 32,
            "name": "Exodus 32:32",
            "text": "Yet now, if you will, forgive their sin-and if not, please blot me out of your book which you have written.\" "
        },
        {
            "chapter": 32,
            "verse": 33,
            "name": "Exodus 32:33",
            "text": "The Lord said to Moses, \"Whoever has sinned against me, him will I blot out of my book."
        },
        {
            "chapter": 32,
            "verse": 34,
            "name": "Exodus 32:34",
            "text": "Now go, lead the people to the place of which I have spoken to you. Behold, my angel shall go before you. Nevertheless in the day when I punish, I will punish them for their sin.\""
        },
        {
            "chapter": 32,
            "verse": 35,
            "name": "Exodus 32:35",
            "text": "The Lord struck the people, because they made the calf, which Aaron made.  "
        }
    ]
}