{
    "translation": "Polish Biblia Gdanska (1881)",
    "abbreviation": "polgdanska",
    "lang": "pl",
    "language": "Polish",
    "direction": "LTR",
    "encoding": "UTF-8",
    "book_nr": 19,
    "book_name": "Psalms",
    "chapter": 6,
    "name": "Psalms 6",
    "verses": [
        {
            "chapter": 6,
            "verse": 1,
            "name": "Psalms 6:1",
            "text": "Przedniejszemu \u015bpiewakowi na Neginot i Seminit psalm Dawidowy."
        },
        {
            "chapter": 6,
            "verse": 2,
            "name": "Psalms 6:2",
            "text": "Panie! w pop\u0119dliwo\u015bci twojej nie nacieraj na mi\u0119, a w gniewie twoim nie karz mi\u0119."
        },
        {
            "chapter": 6,
            "verse": 3,
            "name": "Psalms 6:3",
            "text": "Zmi\u0142uj si\u0119 nademn\u0105, Panie! bomci md\u0142y; uzdr\u00f3w mi\u0119, Panie! bo\u0107 si\u0119 strwo\u017cy\u0142y ko\u015bci moje,"
        },
        {
            "chapter": 6,
            "verse": 4,
            "name": "Psalms 6:4",
            "text": "I dusza moja bardzo jest zatrwo\u017cona; ale ty, Panie! pok\u0105d\u017ce?"
        },
        {
            "chapter": 6,
            "verse": 5,
            "name": "Psalms 6:5",
            "text": "Nawr\u00f3\u0107 si\u0119, Panie! wyrwij dusz\u0119 moj\u0119; wybaw mi\u0119 dla mi\u0142osierdzia twego;"
        },
        {
            "chapter": 6,
            "verse": 6,
            "name": "Psalms 6:6",
            "text": "Albowiem w \u015bmierci niemasz pami\u0105tki o tobie, a w grobie kt\u00f3\u017c cie wyznawa\u0107 b\u0119dzie?"
        },
        {
            "chapter": 6,
            "verse": 7,
            "name": "Psalms 6:7",
            "text": "Spracowa\u0142em si\u0119 od wzdychania mego; op\u0142ywa na ka\u017cd\u0105 noc po\u015bciel moja, a \u0142o\u017ce moje mokre jest od \u0142ez."
        },
        {
            "chapter": 6,
            "verse": 8,
            "name": "Psalms 6:8",
            "text": "Za\u0107mi\u0142o si\u0119 dla gniewu oko moje, a zstarza\u0142a si\u0119 twarz moja dla wszystkich nieprzyjaci\u00f3\u0142 moich."
        },
        {
            "chapter": 6,
            "verse": 9,
            "name": "Psalms 6:9",
            "text": "Odst\u0105pcie odemnie wszyscy, kr\u00f3rzy czynicie nieprawo\u015b\u0107; albowiem Pan us\u0142ysza\u0142 g\u0142os p\u0142aczu mojego."
        },
        {
            "chapter": 6,
            "verse": 10,
            "name": "Psalms 6:10",
            "text": "Us\u0142ysza\u0142 Pan pro\u015bb\u0119 moj\u0119; Pan modlitw\u0119 moj\u0119 przyj\u0105\u0142. Niech si\u0119 zawstydz\u0105 i bardzo zatrwo\u017c\u0105 wszyscy nieprzyjaciele moi; niech ty\u0142 podadz\u0105, a niech pr\u0119dko poha\u0144bieni b\u0119d\u0105."
        }
    ]
}