{
    "translation": "Polish Biblia Gdanska (1881)",
    "abbreviation": "polgdanska",
    "lang": "pl",
    "language": "Polish",
    "direction": "LTR",
    "encoding": "UTF-8",
    "book_nr": 19,
    "book_name": "Psalms",
    "chapter": 96,
    "name": "Psalms 96",
    "verses": [
        {
            "chapter": 96,
            "verse": 1,
            "name": "Psalms 96:1",
            "text": "\u015apiewajcie Panu pie\u015b\u0144 now\u0105; \u015bpiewajcie Panu wszystka ziemia!"
        },
        {
            "chapter": 96,
            "verse": 2,
            "name": "Psalms 96:2",
            "text": "\u015apiewajcie\u017c Panu, dobrorzeczcie imieniowi jego, opowiadajcie ode dnia do dnia zbawienie jego."
        },
        {
            "chapter": 96,
            "verse": 3,
            "name": "Psalms 96:3",
            "text": "Opowiadajcie mi\u0119dzy narodami chwa\u0142\u0119 jego, mi\u0119dzy wszystkimi lud\u017ami cuda jego."
        },
        {
            "chapter": 96,
            "verse": 4,
            "name": "Psalms 96:4",
            "text": "Albowiem wielki Pan i wszelkiej chwa\u0142y godny, i straszliwy jest nad wszystkich bog\u00f3w."
        },
        {
            "chapter": 96,
            "verse": 5,
            "name": "Psalms 96:5",
            "text": "Wszyscy bowiem bogowie narod\u00f3w s\u0105 ba\u0142wani; ale Pan niebiosa uczyni\u0142."
        },
        {
            "chapter": 96,
            "verse": 6,
            "name": "Psalms 96:6",
            "text": "Zacno\u015b\u0107 i och\u0119d\u00f3stwo przed obliczem jego, moc i pi\u0119kno\u015b\u0107 w \u015bwi\u0105tnicy jego."
        },
        {
            "chapter": 96,
            "verse": 7,
            "name": "Psalms 96:7",
            "text": "Oddajcie Panu, pokolenia narod\u00f3w, oddajcie Panu chwa\u0142\u0119 i moc."
        },
        {
            "chapter": 96,
            "verse": 8,
            "name": "Psalms 96:8",
            "text": "Oddajcie Panu chwa\u0142\u0119 imienia jego; przynie\u015bcie dary, a wnijd\u017acie do sieni jego."
        },
        {
            "chapter": 96,
            "verse": 9,
            "name": "Psalms 96:9",
            "text": "K\u0142aniajcie si\u0119 Panu w ozdobie \u015bwi\u0119tobliwo\u015bci; niech si\u0119 l\u0119ka oblicza jego wszystka ziemia."
        },
        {
            "chapter": 96,
            "verse": 10,
            "name": "Psalms 96:10",
            "text": "Powiadajcie mi\u0119dzy poganami: Pan kr\u00f3luje, a \u017ce i kr\u0105g \u015bwiata utwierdzony b\u0119dzie, tak, aby si\u0119 nie poruszy\u0142, a i\u017c b\u0119dzie s\u0105dzi\u0142 ludzi w sprawiedliwo\u015bci."
        },
        {
            "chapter": 96,
            "verse": 11,
            "name": "Psalms 96:11",
            "text": "Niech si\u0119 wesel\u0105 niebiosa, a niech pl\u0105sa ziemia; niech zaszumi morze, i co w niem jest."
        },
        {
            "chapter": 96,
            "verse": 12,
            "name": "Psalms 96:12",
            "text": "Niech pl\u0105saj\u0105 pola, i wszystko co jest na nich; tedy niech wykrzykaj\u0105 wszystkie drzewa le\u015bne,"
        },
        {
            "chapter": 96,
            "verse": 13,
            "name": "Psalms 96:13",
            "text": "Przed obliczem Pa\u0144skiem; bo\u0107 idzie, idzie zaiste, aby s\u0105dzi\u0142 ziemi\u0119. B\u0119dzie s\u0105dzi\u0142 okr\u0105g \u015bwiata w sprawiedliwo\u015bci, a narody w prawdzie swojej."
        }
    ]
}