{
    "translation": "OT Westminster Leningrad Codex",
    "abbreviation": "codex",
    "lang": "he",
    "language": "Hebrew",
    "direction": "RTL",
    "encoding": "UTF-8",
    "book_nr": 6,
    "book_name": "Joshua",
    "chapter": 13,
    "name": "Joshua 13",
    "verses": [
        {
            "chapter": 13,
            "verse": 1,
            "name": "Joshua 13:1",
            "text": "\u05d5\u05b4\u05d9\u05d4\u05d5\u05b9\u05e9\u05bb\u05c1\u05a3\u05e2\u05b7 \u05d6\u05b8\u05e7\u05b5\u0594\u05df \u05d1\u05b8\u05bc\u0596\u05d0 \u05d1\u05b7\u05bc\u05d9\u05b8\u05bc\u05de\u05b4\u0591\u05d9\u05dd \u05d5\u05b7\u05d9\u05b9\u05bc\u05a8\u05d0\u05de\u05b6\u05e8 \u05d9\u05b0\u05d4\u05d5\u05b8\u059c\u05d4 \u05d0\u05b5\u05dc\u05b8\u0597\u05d9\u05d5 \u05d0\u05b7\u05ea\u05b8\u05bc\u05a4\u05d4 \u05d6\u05b8\u05e7\u05b7\u0599\u05e0\u05b0\u05ea\u05b8\u05bc\u05d4\u0599 \u05d1\u05b8\u05bc\u05a3\u05d0\u05ea\u05b8 \u05d1\u05b7\u05d9\u05b8\u05bc\u05de\u05b4\u0594\u05d9\u05dd \u05d5\u05b0\u05d4\u05b8\u05d0\u05b8\u059b\u05e8\u05b6\u05e5 \u05e0\u05b4\u05e9\u05b0\u05c1\u05d0\u05b2\u05e8\u05b8\u05a5\u05d4 \u05d4\u05b7\u05e8\u05b0\u05d1\u05b5\u05bc\u05bd\u05d4\u05be \u05de\u05b0\u05d0\u05b9\u0596\u05d3 \u05dc\u05b0\u05e8\u05b4\u05e9\u05b0\u05c1\u05ea\u05b8\u05bc\u05bd\u05d4\u05bc\u05c3"
        },
        {
            "chapter": 13,
            "verse": 2,
            "name": "Joshua 13:2",
            "text": "\u05d6\u05b9\u05a5\u05d0\u05ea \u05d4\u05b8\u05d0\u05b8\u0596\u05e8\u05b6\u05e5 \u05d4\u05b7\u05e0\u05b4\u05bc\u05e9\u05b0\u05c1\u05d0\u05b8\u0591\u05e8\u05b6\u05ea \u05db\u05b8\u05bc\u05dc\u05be \u05d2\u05b0\u05bc\u05dc\u05b4\u05d9\u05dc\u05a5\u05d5\u05b9\u05ea \u05d4\u05b7\u05e4\u05b0\u05bc\u05dc\u05b4\u05e9\u05b0\u05c1\u05ea\u05b4\u05bc\u0596\u05d9\u05dd \u05d5\u05b0\u05db\u05b8\u05dc\u05be \u05d4\u05b7\u05d2\u05b0\u05bc\u05e9\u05c1\u05d5\u05bc\u05e8\u05b4\u05bd\u05d9\u05c3"
        },
        {
            "chapter": 13,
            "verse": 3,
            "name": "Joshua 13:3",
            "text": "\u05de\u05b4\u05bd\u05df\u05be \u05d4\u05b7\u05e9\u05b4\u05bc\u05c1\u05d9\u05d7\u059e\u05d5\u05b9\u05e8 \u05d0\u05b2\u05e9\u05b6\u05c1\u05a3\u05e8 \u05c0 \u05e2\u05b7\u05dc\u05be \u05e4\u05b0\u05bc\u05e0\u05b5\u05a3\u05d9 \u05de\u05b4\u05e6\u05b0\u05e8\u05b7\u0597\u05d9\u05b4\u05dd \u05d5\u05b0\u05e2\u05b7\u05a8\u05d3 \u05d2\u05b0\u05bc\u05d1\u05a4\u05d5\u05bc\u05dc \u05e2\u05b6\u05e7\u05b0\u05e8\u05d5\u05b9\u05df\u0599 \u05e6\u05b8\u05e4\u0594\u05d5\u05b9\u05e0\u05b8\u05d4 \u05dc\u05b7\u05bd\u05db\u05b0\u05bc\u05e0\u05b7\u05e2\u05b2\u05e0\u05b4\u0596\u05d9 \u05ea\u05b5\u05bc\u05d7\u05b8\u05e9\u05b5\u05c1\u0591\u05d1 \u05d7\u05b2\u05de\u05b5\u05a3\u05e9\u05b6\u05c1\u05ea \u05c0 \u05e1\u05b7\u05e8\u05b0\u05e0\u05b5\u05a3\u05d9 \u05e4\u05b0\u05dc\u05b4\u05e9\u05b0\u05c1\u05ea\u05b4\u05bc\u0597\u05d9\u05dd \u05d4\u05b8\u05e2\u05b7\u05d6\u05b8\u05bc\u05ea\u05b4\u05a4\u05d9 \u05d5\u05b0\u05d4\u05b8\u05d0\u05b7\u05e9\u05b0\u05c1\u05d3\u05bc\u05d5\u05b9\u05d3\u05b4\u05d9\u0599 \u05d4\u05b8\u05d0\u05b6\u05e9\u05b0\u05c1\u05e7\u05b0\u05dc\u05d5\u05b9\u05e0\u05b4\u05a3\u05d9 \u05d4\u05b7\u05d2\u05b4\u05bc\u05ea\u05b4\u05bc\u0594\u05d9 \u05d5\u05b0\u05d4\u05b8\u05e2\u05b6\u05e7\u05b0\u05e8\u05d5\u05b9\u05e0\u05b4\u0596\u05d9 \u05d5\u05b0\u05d4\u05b8\u05e2\u05b7\u05d5\u05b4\u05bc\u05bd\u05d9\u05dd\u05c3"
        },
        {
            "chapter": 13,
            "verse": 4,
            "name": "Joshua 13:4",
            "text": "\u05de\u05b4\u05ea\u05b5\u05bc\u05d9\u05de\u05b8\u059e\u05df \u05db\u05b8\u05bc\u05dc\u05be \u05d0\u05b6\u05a3\u05e8\u05b6\u05e5 \u05d4\u05b7\u05bd\u05db\u05b0\u05bc\u05e0\u05b7\u05e2\u05b2\u05e0\u05b4\u0597\u05d9 \u05d5\u05bc\u05de\u05b0\u05e2\u05b8\u05e8\u05b8\u059b\u05d4 \u05d0\u05b2\u05e9\u05b6\u05c1\u05a5\u05e8 \u05dc\u05b7\u05e6\u05b4\u05bc\u05d9\u05d3\u05b9\u05e0\u05b4\u0596\u05d9\u05dd \u05e2\u05b7\u05d3\u05be \u05d0\u05b2\u05e4\u05b5\u0591\u05e7\u05b8\u05d4 \u05e2\u05b7\u0596\u05d3 \u05d2\u05b0\u05bc\u05d1\u05a5\u05d5\u05bc\u05dc \u05d4\u05b8\u05d0\u05b1\u05de\u05b9\u05e8\u05b4\u05bd\u05d9\u05c3"
        },
        {
            "chapter": 13,
            "verse": 5,
            "name": "Joshua 13:5",
            "text": "\u05d5\u05b0\u05d4\u05b8\u05d0\u05b8\u05a3\u05e8\u05b6\u05e5 \u05d4\u05b7\u05d2\u05b4\u05bc\u05d1\u05b0\u05dc\u05b4\u0597\u05d9 \u05d5\u05b0\u05db\u05b8\u05dc\u05be \u05d4\u05b7\u05dc\u05b0\u05bc\u05d1\u05b8\u05e0\u05d5\u05b9\u05df\u0599 \u05de\u05b4\u05d6\u05b0\u05e8\u05b7\u05a3\u05d7 \u05d4\u05b7\u05e9\u05b6\u05bc\u05c1\u0594\u05de\u05b6\u05e9\u05c1 \u05de\u05b4\u05d1\u05b7\u05bc\u05a3\u05e2\u05b7\u05dc \u05d2\u05b8\u05bc\u0594\u05d3 \u05ea\u05b7\u05bc\u0596\u05d7\u05b7\u05ea \u05d4\u05b7\u05e8\u05be \u05d7\u05b6\u05e8\u05b0\u05de\u0591\u05d5\u05b9\u05df \u05e2\u05b7\u0596\u05d3 \u05dc\u05b0\u05d1\u05a5\u05d5\u05b9\u05d0 \u05d7\u05b2\u05de\u05b8\u05bd\u05ea\u05c3"
        },
        {
            "chapter": 13,
            "verse": 6,
            "name": "Joshua 13:6",
            "text": "\u05db\u05b8\u05bc\u05dc\u05be \u05d9\u05b9\u05e9\u05b0\u05c1\u05d1\u05b5\u05a3\u05d9 \u05d4\u05b8\u05a0\u05d4\u05b8\u05e8 \u05de\u05b4\u05bd\u05df\u05be \u05d4\u05b7\u05dc\u05b0\u05bc\u05d1\u05b8\u05e0\u059e\u05d5\u05b9\u05df \u05e2\u05b7\u05d3\u05be \u05de\u05b4\u05e9\u05b0\u05c2\u05e8\u05b0\u05e4\u05b9\u05a5\u05ea \u05de\u05b7\u0599\u05d9\u05b4\u05dd\u0599 \u05db\u05b8\u05bc\u05dc\u05be \u05e6\u05b4\u05a3\u05d9\u05d3\u05b9\u05e0\u05b4\u0594\u05d9\u05dd \u05d0\u05b8\u05bd\u05e0\u05b9\u05db\u05b4\u05d9\u0599 \u05d0\u05d5\u05b9\u05e8\u05b4\u05d9\u05e9\u05b5\u05c1\u0594\u05dd \u05de\u05b4\u05e4\u05b0\u05bc\u05e0\u05b5\u0596\u05d9 \u05d1\u05b0\u05bc\u05e0\u05b5\u05a3\u05d9 \u05d9\u05b4\u05e9\u05b0\u05c2\u05e8\u05b8\u05d0\u05b5\u0591\u05dc \u05e8\u05b7\u05a0\u05e7 \u05d4\u05b7\u05e4\u05b4\u05bc\u05dc\u05b6\u05a4\u05d4\u05b8 \u05dc\u05b0\u05d9\u05b4\u05e9\u05b0\u05c2\u05e8\u05b8\u05d0\u05b5\u05dc\u0599 \u05d1\u05b0\u05bc\u05bd\u05e0\u05b7\u05d7\u05b2\u05dc\u05b8\u0594\u05d4 \u05db\u05b7\u05bc\u05d0\u05b2\u05e9\u05b6\u05c1\u0596\u05e8 \u05e6\u05b4\u05d5\u05b4\u05bc\u05d9\u05ea\u05b4\u05bd\u05d9\u05da\u05b8\u05c3"
        },
        {
            "chapter": 13,
            "verse": 7,
            "name": "Joshua 13:7",
            "text": "\u05d5\u05b0\u05e2\u05b7\u05ea\u05b8\u05bc\u0597\u05d4 \u05d7\u05b7\u05dc\u05b5\u05bc\u059e\u05e7 \u05d0\u05b6\u05ea\u05be \u05d4\u05b8\u05d0\u05b8\u05a7\u05e8\u05b6\u05e5 \u05d4\u05b7\u05d6\u05b9\u05bc\u059b\u05d0\u05ea \u05d1\u05b0\u05bc\u05e0\u05b7\u05d7\u05b2\u05dc\u05b8\u0596\u05d4 \u05dc\u05b0\u05ea\u05b4\u05e9\u05b0\u05c1\u05e2\u05b7\u05a3\u05ea \u05d4\u05b7\u05e9\u05b0\u05bc\u05c1\u05d1\u05b8\u05d8\u05b4\u0591\u05d9\u05dd \u05d5\u05b7\u05d7\u05b2\u05e6\u05b4\u0596\u05d9 \u05d4\u05b7\u05e9\u05b5\u05bc\u05c1\u05a5\u05d1\u05b6\u05d8 \u05d4\u05b7\u05bd\u05de\u05b0\u05e0\u05b7\u05e9\u05b6\u05bc\u05bd\u05c1\u05d4\u05c3"
        },
        {
            "chapter": 13,
            "verse": 8,
            "name": "Joshua 13:8",
            "text": "\u05e2\u05b4\u05de\u05bc\u0597\u05d5\u05b9 \u05d4\u05b8\u05e8\u05bd\u05d0\u05d5\u05bc\u05d1\u05b5\u05e0\u05b4\u05d9\u0599 \u05d5\u05b0\u05d4\u05b7\u05d2\u05b8\u05bc\u05d3\u05b4\u0594\u05d9 \u05dc\u05b8\u05e7\u05b0\u05d7\u0596\u05d5\u05bc \u05e0\u05b7\u05d7\u05b2\u05dc\u05b8\u05ea\u05b8\u0591\u05dd \u05d0\u05b2\u05e9\u05b6\u05c1\u05e8\u05a9 \u05e0\u05b8\u05ea\u05b7\u05a8\u05df \u05dc\u05b8\u05d4\u05b6\u059c\u05dd \u05de\u05b9\u05e9\u05b6\u05c1\u0597\u05d4 \u05d1\u05b0\u05bc\u05e2\u05b5\u05a4\u05d1\u05b6\u05e8 \u05d4\u05b7\u05d9\u05b7\u05bc\u05e8\u05b0\u05d3\u05b5\u05bc\u05df\u0599 \u05de\u05b4\u05d6\u05b0\u05e8\u05b8\u0594\u05d7\u05b8\u05d4 \u05db\u05b7\u05bc\u05d0\u05b2\u05e9\u05b6\u05c1\u05e8\u0599 \u05e0\u05b8\u05ea\u05b7\u05a3\u05df \u05dc\u05b8\u05d4\u05b6\u0594\u05dd \u05de\u05b9\u05e9\u05b6\u05c1\u0596\u05d4 \u05e2\u05b6\u05a5\u05d1\u05b6\u05d3 \u05d9\u05b0\u05d4\u05d5\u05b8\u05bd\u05d4\u05c3"
        },
        {
            "chapter": 13,
            "verse": 9,
            "name": "Joshua 13:9",
            "text": "\u05de\u05b5\u05e2\u05b2\u05e8\u05d5\u05b9\u05e2\u05b5\u05a1\u05e8 \u05d0\u05b2\u05e9\u05b6\u05c1\u05e8\u05a9 \u05e2\u05b7\u05dc\u05be \u05e9\u05b0\u05c2\u05e4\u05b7\u05ea\u05be \u05e0\u05b7\u05a8\u05d7\u05b7\u05dc \u05d0\u05b7\u05e8\u05b0\u05e0\u059c\u05d5\u05b9\u05df \u05d5\u05b0\u05d4\u05b8\u05e2\u05b4\u05a8\u05d9\u05e8 \u05d0\u05b2\u05e9\u05b6\u05c1\u05a7\u05e8 \u05d1\u05b0\u05bc\u05ea\u05d5\u05b9\u05da\u05b0\u05be \u05d4\u05b7\u05e0\u05b7\u05bc\u059b\u05d7\u05b7\u05dc \u05d5\u05b0\u05db\u05b8\u05dc\u05be \u05d4\u05b7\u05de\u05b4\u05bc\u05d9\u05e9\u05b9\u05c1\u05a5\u05e8 \u05de\u05b5\u05d9\u05d3\u05b0\u05d1\u05b8\u0596\u05d0 \u05e2\u05b7\u05d3\u05be \u05d3\u05b4\u05bc\u05d9\u05d1\u05bd\u05d5\u05b9\u05df\u05c3"
        },
        {
            "chapter": 13,
            "verse": 10,
            "name": "Joshua 13:10",
            "text": "\u05d5\u05b0\u05db\u05b9\u0597\u05dc \u05e2\u05b8\u05e8\u05b5\u05d9\u0599 \u05e1\u05b4\u05d9\u05d7\u05d5\u05b9\u05df\u0599 \u05de\u05b6\u05a3\u05dc\u05b6\u05da\u05b0 \u05d4\u05b8\u05d0\u05b1\u05de\u05b9\u05e8\u05b4\u0594\u05d9 \u05d0\u05b2\u05e9\u05b6\u05c1\u05a5\u05e8 \u05de\u05b8\u05dc\u05b7\u0596\u05da\u05b0 \u05d1\u05b0\u05bc\u05d7\u05b6\u05e9\u05b0\u05c1\u05d1\u05bc\u0591\u05d5\u05b9\u05df \u05e2\u05b7\u05d3\u05be \u05d2\u05b0\u05bc\u05d1\u0596\u05d5\u05bc\u05dc \u05d1\u05b0\u05bc\u05e0\u05b5\u05a5\u05d9 \u05e2\u05b7\u05de\u05bc\u05bd\u05d5\u05b9\u05df\u05c3"
        },
        {
            "chapter": 13,
            "verse": 11,
            "name": "Joshua 13:11",
            "text": "\u05d5\u05b0\u05d4\u05b7\u05d2\u05b4\u05bc\u05dc\u05b0\u05e2\u05b8\u059e\u05d3 \u05d5\u05bc\u05d2\u05b0\u05d1\u05a7\u05d5\u05bc\u05dc \u05d4\u05b7\u05d2\u05b0\u05bc\u05e9\u05c1\u05d5\u05bc\u05e8\u05b4\u05a3\u05d9 \u05d5\u05b0\u05d4\u05b7\u05de\u05b7\u05bc\u05e2\u05b2\u05db\u05b8\u05ea\u05b4\u0597\u05d9 \u05d5\u05b0\u05db\u05b9\u05a8\u05dc \u05d4\u05b7\u05a5\u05e8 \u05d7\u05b6\u05e8\u05b0\u05de\u059b\u05d5\u05b9\u05df \u05d5\u05b0\u05db\u05b8\u05dc\u05be \u05d4\u05b7\u05d1\u05b8\u05bc\u05e9\u05b8\u05c1\u0596\u05df \u05e2\u05b7\u05d3\u05be \u05e1\u05b7\u05dc\u05b0\u05db\u05b8\u05bd\u05d4\u05c3"
        },
        {
            "chapter": 13,
            "verse": 12,
            "name": "Joshua 13:12",
            "text": "\u05db\u05b8\u05bc\u05dc\u05be \u05de\u05b7\u05de\u05b0\u05dc\u05b0\u05db\u05a5\u05d5\u05bc\u05ea \u05e2\u05d5\u05b9\u05d2\u0599 \u05d1\u05b7\u05bc\u05d1\u05b8\u05bc\u05e9\u05b8\u05c1\u0594\u05df \u05d0\u05b2\u05e9\u05b6\u05c1\u05e8\u05be \u05de\u05b8\u05dc\u05b7\u05a5\u05da\u05b0 \u05d1\u05b0\u05bc\u05e2\u05b7\u05e9\u05b0\u05c1\u05ea\u05b8\u05bc\u05e8\u0596\u05d5\u05b9\u05ea \u05d5\u05bc\u05d1\u05b0\u05d0\u05b6\u05d3\u05b0\u05e8\u05b6\u0591\u05e2\u05b4\u05d9 \u05d4\u05a4\u05d5\u05bc\u05d0 \u05e0\u05b4\u05e9\u05b0\u05c1\u05d0\u05b7\u05e8\u0599 \u05de\u05b4\u05d9\u05b6\u05bc\u05a3\u05ea\u05b6\u05e8 \u05d4\u05b8\u05e8\u05b0\u05e4\u05b8\u05d0\u05b4\u0594\u05d9\u05dd \u05d5\u05b7\u05d9\u05b7\u05bc\u05db\u05b5\u05bc\u05a5\u05dd \u05de\u05b9\u05e9\u05b6\u05c1\u0596\u05d4 \u05d5\u05b7\u05d9\u05b9\u05bc\u05e8\u05b4\u05e9\u05b5\u05bd\u05c1\u05dd\u05c3"
        },
        {
            "chapter": 13,
            "verse": 13,
            "name": "Joshua 13:13",
            "text": "\u05d5\u05b0\u05dc\u05b9\u05a4\u05d0 \u05d4\u05d5\u05b9\u05e8\u05b4\u0599\u05d9\u05e9\u05c1\u05d5\u05bc\u0599 \u05d1\u05b0\u05bc\u05e0\u05b5\u05a3\u05d9 \u05d9\u05b4\u05e9\u05b0\u05c2\u05e8\u05b8\u05d0\u05b5\u0594\u05dc \u05d0\u05b6\u05ea\u05be \u05d4\u05b7\u05d2\u05b0\u05bc\u05e9\u05c1\u05d5\u05bc\u05e8\u05b4\u0596\u05d9 \u05d5\u05b0\u05d0\u05b6\u05ea\u05be \u05d4\u05b7\u05de\u05b7\u05bc\u05e2\u05b2\u05db\u05b8\u05ea\u05b4\u0591\u05d9 \u05d5\u05b7\u05d9\u05b5\u05bc\u05a8\u05e9\u05b6\u05c1\u05d1 \u05d2\u05b0\u05bc\u05e9\u05c1\u05a4\u05d5\u05bc\u05e8 \u05d5\u05bc\u05de\u05b7\u05bd\u05e2\u05b2\u05db\u05b8\u05ea\u0599 \u05d1\u05b0\u05bc\u05e7\u05b6\u05a3\u05e8\u05b6\u05d1 \u05d9\u05b4\u05e9\u05b0\u05c2\u05e8\u05b8\u05d0\u05b5\u0594\u05dc \u05e2\u05b7\u0596\u05d3 \u05d4\u05b7\u05d9\u05bc\u05a5\u05d5\u05b9\u05dd \u05d4\u05b7\u05d6\u05b6\u05bc\u05bd\u05d4\u05c3"
        },
        {
            "chapter": 13,
            "verse": 14,
            "name": "Joshua 13:14",
            "text": "\u05e8\u05b7\u059a\u05e7 \u05dc\u05b0\u05e9\u05b5\u05c1\u05a3\u05d1\u05b6\u05d8 \u05d4\u05b7\u05dc\u05b5\u05bc\u05d5\u05b4\u0594\u05d9 \u05dc\u05b9\u05a5\u05d0 \u05e0\u05b8\u05ea\u05b7\u0596\u05df \u05e0\u05b7\u05d7\u05b2\u05dc\u05b8\u0591\u05d4 \u05d0\u05b4\u05e9\u05b5\u05bc\u05c1\u05a8\u05d9 \u05d9\u05b0\u05d4\u05d5\u05b8\u059c\u05d4 \u05d0\u05b1\u05dc\u05b9\u05d4\u05b5\u05a4\u05d9 \u05d9\u05b4\u05e9\u05b0\u05c2\u05e8\u05b8\u05d0\u05b5\u05dc\u0599 \u05d4\u05a3\u05d5\u05bc\u05d0 \u05e0\u05b7\u05d7\u05b2\u05dc\u05b8\u05ea\u0594\u05d5\u05b9 \u05db\u05b7\u05bc\u05d0\u05b2\u05e9\u05b6\u05c1\u0596\u05e8 \u05d3\u05b4\u05bc\u05d1\u05b6\u05bc\u05e8\u05be \u05dc\u05bd\u05d5\u05b9\u05c3 \u05e1\u00a0\u00a0\u00a0\u00a0\u00a0\u00a0 "
        },
        {
            "chapter": 13,
            "verse": 15,
            "name": "Joshua 13:15",
            "text": "\u05d5\u05b7\u05d9\u05b4\u05bc\u05ea\u05b5\u05bc\u05a3\u05df \u05de\u05b9\u05e9\u05b6\u05c1\u0594\u05d4 \u05dc\u05b0\u05de\u05b7\u05d8\u05b5\u05bc\u05a5\u05d4 \u05d1\u05b0\u05e0\u05b5\u05bd\u05d9\u05be \u05e8\u05b0\u05d0\u05d5\u05bc\u05d1\u05b5\u0596\u05df \u05dc\u05b0\u05de\u05b4\u05e9\u05b0\u05c1\u05e4\u05b0\u05bc\u05d7\u05b9\u05ea\u05b8\u05bd\u05dd\u05c3"
        },
        {
            "chapter": 13,
            "verse": 16,
            "name": "Joshua 13:16",
            "text": "\u05d5\u05b7\u05d9\u05b0\u05d4\u05b4\u05a8\u05d9 \u05dc\u05b8\u05d4\u05b6\u059c\u05dd \u05d4\u05b7\u05d2\u05b0\u05bc\u05d1\u0597\u05d5\u05bc\u05dc \u05de\u05b5\u05e2\u05b2\u05e8\u05d5\u05b9\u05e2\u05b5\u05a1\u05e8 \u05d0\u05b2\u05e9\u05b6\u05c1\u05e8\u05a9 \u05e2\u05b7\u05dc\u05be \u05e9\u05b0\u05c2\u05e4\u05b7\u05ea\u05be \u05e0\u05b7\u05a8\u05d7\u05b7\u05dc \u05d0\u05b7\u05e8\u05b0\u05e0\u059c\u05d5\u05b9\u05df \u05d5\u05b0\u05d4\u05b8\u05e2\u05b4\u05a8\u05d9\u05e8 \u05d0\u05b2\u05e9\u05b6\u05c1\u05a7\u05e8 \u05d1\u05b0\u05bc\u05ea\u05d5\u05b9\u05da\u05b0\u05be \u05d4\u05b7\u05e0\u05b7\u05bc\u059b\u05d7\u05b7\u05dc \u05d5\u05b0\u05db\u05b8\u05dc\u05be \u05d4\u05b7\u05de\u05b4\u05bc\u05d9\u05e9\u05b9\u05c1\u0596\u05e8 \u05e2\u05b7\u05dc\u05be \u05de\u05b5\u05d9\u05d3\u05b0\u05d1\u05b8\u05bd\u05d0\u05c3"
        },
        {
            "chapter": 13,
            "verse": 17,
            "name": "Joshua 13:17",
            "text": "\u05d7\u05b6\u05e9\u05b0\u05c1\u05d1\u05bc\u05a5\u05d5\u05b9\u05df \u05d5\u05b0\u05db\u05b8\u05dc\u05be \u05e2\u05b8\u05e8\u05b6\u0596\u05d9\u05d4\u05b8 \u05d0\u05b2\u05e9\u05b6\u05c1\u05a3\u05e8 \u05d1\u05b7\u05bc\u05de\u05b4\u05bc\u05d9\u05e9\u05b9\u05c1\u0591\u05e8 \u05d3\u05b4\u05bc\u05d9\u05d1\u05d5\u05b9\u05df\u0599 \u05d5\u05bc\u05d1\u05b8\u05de\u05a3\u05d5\u05b9\u05ea \u05d1\u05b7\u05bc\u0594\u05e2\u05b7\u05dc \u05d5\u05bc\u05d1\u05b5\u0596\u05d9\u05ea \u05d1\u05b7\u05bc\u05a5\u05e2\u05b7\u05dc \u05de\u05b0\u05e2\u05bd\u05d5\u05b9\u05df\u05c3"
        },
        {
            "chapter": 13,
            "verse": 18,
            "name": "Joshua 13:18",
            "text": "\u05d5\u05b0\u05d9\u05b7\u05a5\u05d4\u05b0\u05e6\u05b8\u05d4 \u05d5\u05bc\u05e7\u05b0\u05d3\u05b5\u05de\u05b9\u0596\u05ea \u05d5\u05bc\u05de\u05b5\u05e4\u05b8\u05bd\u05e2\u05b7\u05ea\u05c3"
        },
        {
            "chapter": 13,
            "verse": 19,
            "name": "Joshua 13:19",
            "text": "\u05d5\u05b0\u05e7\u05b4\u05e8\u05b0\u05d9\u05b8\u05ea\u05b7\u05a3\u05d9\u05b4\u05dd \u05d5\u05b0\u05e9\u05b4\u05c2\u05d1\u05b0\u05de\u05b8\u0594\u05d4 \u05d5\u05b0\u05e6\u05b6\u05a5\u05e8\u05b6\u05ea \u05d4\u05b7\u05e9\u05b7\u05bc\u05c1\u0596\u05d7\u05b7\u05e8 \u05d1\u05b0\u05bc\u05d4\u05b7\u05a5\u05e8 \u05d4\u05b8\u05e2\u05b5\u05bd\u05de\u05b6\u05e7\u05c3"
        },
        {
            "chapter": 13,
            "verse": 20,
            "name": "Joshua 13:20",
            "text": "\u05d5\u05bc\u05d1\u05b5\u05a5\u05d9\u05ea \u05e4\u05b0\u05bc\u05e2\u059b\u05d5\u05b9\u05e8 \u05d5\u05b0\u05d0\u05b7\u05e9\u05b0\u05c1\u05d3\u05bc\u05a5\u05d5\u05b9\u05ea \u05d4\u05b7\u05e4\u05b4\u05bc\u05e1\u05b0\u05d2\u05b8\u05bc\u0596\u05d4 \u05d5\u05bc\u05d1\u05b5\u05a5\u05d9\u05ea \u05d4\u05b7\u05d9\u05b0\u05e9\u05b4\u05c1\u05de\u05bd\u05d5\u05b9\u05ea\u05c3"
        },
        {
            "chapter": 13,
            "verse": 21,
            "name": "Joshua 13:21",
            "text": "\u05d5\u05b0\u05db\u05b9\u05dc\u0599 \u05e2\u05b8\u05e8\u05b5\u05a3\u05d9 \u05d4\u05b7\u05de\u05b4\u05bc\u05d9\u05e9\u05b9\u05c1\u0594\u05e8 \u05d5\u05b0\u05db\u05b8\u05bd\u05dc\u05be \u05de\u05b7\u05de\u05b0\u05dc\u05b0\u05db\u0597\u05d5\u05bc\u05ea \u05e1\u05b4\u05d9\u05d7\u05d5\u05b9\u05df\u0599 \u05de\u05b6\u05a3\u05dc\u05b6\u05da\u05b0 \u05d4\u05b8\u05d0\u05b1\u05de\u05b9\u05e8\u05b4\u0594\u05d9 \u05d0\u05b2\u05e9\u05b6\u05c1\u05a5\u05e8 \u05de\u05b8\u05dc\u05b7\u0596\u05da\u05b0 \u05d1\u05b0\u05bc\u05d7\u05b6\u05e9\u05b0\u05c1\u05d1\u05bc\u0591\u05d5\u05b9\u05df \u05d0\u05b2\u05e9\u05b6\u05c1\u05e8\u05a9 \u05d4\u05b4\u05db\u05b8\u05bc\u05a8\u05d4 \u05de\u05b9\u05e9\u05b6\u05c1\u059c\u05d4 \u05d0\u05b9\u05ea\u05a3\u05d5\u05b9 \u05c0 \u05d5\u05b0\u05d0\u05b6\u05ea\u05be \u05e0\u05b0\u05e9\u05b4\u05c2\u05d9\u05d0\u05b5\u05a3\u05d9 \u05de\u05b4\u05d3\u05b0\u05d9\u05b8\u0597\u05df \u05d0\u05b6\u05ea\u05be \u05d0\u05b1\u05d5\u05b4\u05a4\u05d9 \u05d5\u05b0\u05d0\u05b6\u05ea\u05be \u05e8\u05b6\u0599\u05e7\u05b6\u05dd\u0599 \u05d5\u05b0\u05d0\u05b6\u05ea\u05be \u05e6\u05a4\u05d5\u05bc\u05e8 \u05d5\u05b0\u05d0\u05b6\u05ea\u05be \u05d7\u05d5\u05bc\u05e8\u0599 \u05d5\u05b0\u05d0\u05b6\u05ea\u05be \u05e8\u05b6\u0594\u05d1\u05b7\u05e2 \u05e0\u05b0\u05e1\u05b4\u05d9\u05db\u05b5\u05a3\u05d9 \u05e1\u05b4\u05d9\u05d7\u0594\u05d5\u05b9\u05df \u05d9\u05b9\u05e9\u05b0\u05c1\u05d1\u05b5\u0596\u05d9 \u05d4\u05b8\u05d0\u05b8\u05bd\u05e8\u05b6\u05e5\u05c3"
        },
        {
            "chapter": 13,
            "verse": 22,
            "name": "Joshua 13:22",
            "text": "\u05d5\u05b0\u05d0\u05b6\u05ea\u05be \u05d1\u05b4\u05bc\u05dc\u05b0\u05e2\u05b8\u05a5\u05dd \u05d1\u05b6\u05bc\u05df\u05be \u05d1\u05b0\u05bc\u05e2\u0596\u05d5\u05b9\u05e8 \u05d4\u05b7\u05e7\u05bc\u05d5\u05b9\u05e1\u05b5\u0591\u05dd \u05d4\u05b8\u05e8\u05b0\u05d2\u05a7\u05d5\u05bc \u05d1\u05b0\u05e0\u05b5\u05bd\u05d9\u05be \u05d9\u05b4\u05e9\u05b0\u05c2\u05e8\u05b8\u05d0\u05b5\u059b\u05dc \u05d1\u05b7\u05bc\u05d7\u05b6\u0596\u05e8\u05b6\u05d1 \u05d0\u05b6\u05dc\u05be \u05d7\u05b7\u05dc\u05b0\u05dc\u05b5\u05d9\u05d4\u05b6\u05bd\u05dd\u05c3"
        },
        {
            "chapter": 13,
            "verse": 23,
            "name": "Joshua 13:23",
            "text": "\u05d5\u05b7\u05d9\u05b0\u05d4\u05b4\u0597\u05d9 \u05d2\u05b0\u05bc\u05d1\u05d5\u05bc\u05dc\u0599 \u05d1\u05b0\u05bc\u05e0\u05b5\u05a3\u05d9 \u05e8\u05b0\u05d0\u05d5\u05bc\u05d1\u05b5\u0594\u05df \u05d4\u05b7\u05d9\u05b7\u05bc\u05e8\u05b0\u05d3\u05b5\u05bc\u0596\u05df \u05d5\u05bc\u05d2\u05b0\u05d1\u0591\u05d5\u05bc\u05dc \u05d6\u05b9\u05a3\u05d0\u05ea \u05e0\u05b7\u05d7\u05b2\u05dc\u05b7\u05a4\u05ea \u05d1\u05b0\u05bc\u05e0\u05b5\u05bd\u05d9\u05be \u05e8\u05b0\u05d0\u05d5\u05bc\u05d1\u05b5\u05df\u0599 \u05dc\u05b0\u05de\u05b4\u05e9\u05b0\u05c1\u05e4\u05b0\u05bc\u05d7\u05b9\u05ea\u05b8\u0594\u05dd \u05d4\u05b6\u05e2\u05b8\u05e8\u05b4\u0596\u05d9\u05dd \u05d5\u05b0\u05d7\u05b7\u05e6\u05b0\u05e8\u05b5\u05d9\u05d4\u05b6\u05bd\u05df\u05c3 \u05e4 "
        },
        {
            "chapter": 13,
            "verse": 24,
            "name": "Joshua 13:24",
            "text": "\u05d5\u05b7\u05d9\u05b4\u05bc\u05ea\u05b5\u05bc\u05a4\u05df \u05de\u05b9\u05e9\u05b6\u05c1\u05d4\u0599 \u05dc\u05b0\u05de\u05b7\u05d8\u05b5\u05bc\u05d4\u05be \u05d2\u05b8\u0594\u05d3 \u05dc\u05b4\u05d1\u05b0\u05e0\u05b5\u05d9\u05be \u05d2\u05b8\u0596\u05d3 \u05dc\u05b0\u05de\u05b4\u05e9\u05b0\u05c1\u05e4\u05b0\u05bc\u05d7\u05b9\u05ea\u05b8\u05bd\u05dd\u05c3"
        },
        {
            "chapter": 13,
            "verse": 25,
            "name": "Joshua 13:25",
            "text": "\u05d5\u05b7\u05d9\u05b0\u05d4\u05b4\u05a4\u05d9 \u05dc\u05b8\u05d4\u05b6\u05dd\u0599 \u05d4\u05b7\u05d2\u05b0\u05bc\u05d1\u0594\u05d5\u05bc\u05dc \u05d9\u05b7\u05e2\u05b0\u05d6\u05b5\u05e8\u0599 \u05d5\u05b0\u05db\u05b8\u05dc\u05be \u05e2\u05b8\u05e8\u05b5\u05a3\u05d9 \u05d4\u05b7\u05d2\u05b4\u05bc\u05dc\u05b0\u05e2\u05b8\u0594\u05d3 \u05d5\u05b7\u05d7\u05b2\u05e6\u05b4\u0595\u05d9 \u05d0\u05b6\u0596\u05e8\u05b6\u05e5 \u05d1\u05b0\u05bc\u05e0\u05b5\u05a3\u05d9 \u05e2\u05b7\u05de\u05bc\u0591\u05d5\u05b9\u05df \u05e2\u05b7\u05d3\u05be \u05e2\u05b2\u05e8\u05d5\u05b9\u05e2\u05b5\u0595\u05e8 \u05d0\u05b2\u05e9\u05b6\u05c1\u0596\u05e8 \u05e2\u05b7\u05dc\u05be \u05e4\u05b0\u05bc\u05e0\u05b5\u05a5\u05d9 \u05e8\u05b7\u05d1\u05b8\u05bc\u05bd\u05d4\u05c3"
        },
        {
            "chapter": 13,
            "verse": 26,
            "name": "Joshua 13:26",
            "text": "\u05d5\u05bc\u05de\u05b5\u05d7\u05b6\u05e9\u05b0\u05c1\u05d1\u05bc\u059b\u05d5\u05b9\u05df \u05e2\u05b7\u05d3\u05be \u05e8\u05b8\u05de\u05b7\u05a5\u05ea \u05d4\u05b7\u05de\u05b4\u05bc\u05e6\u05b0\u05e4\u05b6\u05bc\u0596\u05d4 \u05d5\u05bc\u05d1\u05b0\u05d8\u05b9\u05e0\u05b4\u0591\u05d9\u05dd \u05d5\u05bc\u05de\u05b4\u05bd\u05de\u05b7\u05bc\u05d7\u05b2\u05e0\u05b7\u0596\u05d9\u05b4\u05dd \u05e2\u05b7\u05d3\u05be \u05d2\u05b0\u05bc\u05d1\u05a5\u05d5\u05bc\u05dc \u05dc\u05b4\u05d3\u05b0\u05d1\u05b4\u05bd\u05e8\u05c3"
        },
        {
            "chapter": 13,
            "verse": 27,
            "name": "Joshua 13:27",
            "text": "\u05d5\u05bc\u05d1\u05b8\u05e2\u05b5\u05a1\u05de\u05b6\u05e7 \u05d1\u05b5\u05bc\u05a3\u05d9\u05ea \u05d4\u05b8\u05e8\u05b8\u05dd\u05a9 \u05d5\u05bc\u05d1\u05b5\u05a8\u05d9\u05ea \u05e0\u05b4\u05de\u05b0\u05e8\u05b8\u059c\u05d4 \u05d5\u05b0\u05e1\u05bb\u05db\u05bc\u05a3\u05d5\u05b9\u05ea \u05d5\u05b0\u05e6\u05b8\u05e4\u0597\u05d5\u05b9\u05df \u05d9\u05b6\u059a\u05ea\u05b6\u05e8 \u05de\u05b7\u05de\u05b0\u05dc\u05b0\u05db\u0597\u05d5\u05bc\u05ea \u05e1\u05b4\u05d9\u05d7\u05d5\u05b9\u05df\u0599 \u05de\u05b6\u05a3\u05dc\u05b6\u05da\u05b0 \u05d7\u05b6\u05e9\u05b0\u05c1\u05d1\u05bc\u0594\u05d5\u05b9\u05df \u05d4\u05b7\u05d9\u05b7\u05bc\u05e8\u05b0\u05d3\u05b5\u05bc\u0596\u05df \u05d5\u05bc\u05d2\u05b0\u05d1\u05bb\u0591\u05dc \u05e2\u05b7\u05d3\u05be \u05e7\u05b0\u05e6\u05b5\u05d4\u0599 \u05d9\u05b8\u05dd\u05be \u05db\u05b4\u05bc\u05e0\u05b6\u05bc\u0594\u05e8\u05b6\u05ea \u05e2\u05b5\u05a5\u05d1\u05b6\u05e8 \u05d4\u05b7\u05d9\u05b7\u05bc\u05e8\u05b0\u05d3\u05b5\u05bc\u0596\u05df \u05de\u05b4\u05d6\u05b0\u05e8\u05b8\u05bd\u05d7\u05b8\u05d4\u05c3"
        },
        {
            "chapter": 13,
            "verse": 28,
            "name": "Joshua 13:28",
            "text": "\u05d6\u05b9\u059b\u05d0\u05ea \u05e0\u05b7\u05d7\u05b2\u05dc\u05b7\u05a5\u05ea \u05d1\u05b0\u05bc\u05e0\u05b5\u05d9\u05be \u05d2\u05b8\u0596\u05d3 \u05dc\u05b0\u05de\u05b4\u05e9\u05b0\u05c1\u05e4\u05b0\u05bc\u05d7\u05b9\u05ea\u05b8\u0591\u05dd \u05d4\u05b6\u05e2\u05b8\u05e8\u05b4\u0596\u05d9\u05dd \u05d5\u05b0\u05d7\u05b7\u05e6\u05b0\u05e8\u05b5\u05d9\u05d4\u05b6\u05bd\u05dd\u05c3"
        },
        {
            "chapter": 13,
            "verse": 29,
            "name": "Joshua 13:29",
            "text": "\u05d5\u05b7\u05d9\u05b4\u05bc\u05ea\u05b5\u05bc\u05a3\u05df \u05de\u05b9\u05e9\u05b6\u05c1\u0594\u05d4 \u05dc\u05b7\u05d7\u05b2\u05e6\u05b4\u0596\u05d9 \u05e9\u05b5\u05c1\u05a3\u05d1\u05b6\u05d8 \u05de\u05b0\u05e0\u05b7\u05e9\u05b6\u05bc\u05c1\u0591\u05d4 \u05d5\u05b7\u05d9\u05b0\u05d4\u05b4\u0597\u05d9 \u05dc\u05b7\u05d7\u05b2\u05e6\u05b4\u059b\u05d9 \u05de\u05b7\u05d8\u05b5\u05bc\u05a5\u05d4 \u05d1\u05b0\u05e0\u05b5\u05bd\u05d9\u05be \u05de\u05b0\u05e0\u05b7\u05e9\u05b6\u05bc\u05c1\u0596\u05d4 \u05dc\u05b0\u05de\u05b4\u05e9\u05b0\u05c1\u05e4\u05b0\u05bc\u05d7\u05d5\u05b9\u05ea\u05b8\u05bd\u05dd\u05c3"
        },
        {
            "chapter": 13,
            "verse": 30,
            "name": "Joshua 13:30",
            "text": "\u05d5\u05b7\u05d9\u05b0\u05d4\u05b4\u05a3\u05d9 \u05d2\u05b0\u05d1\u05d5\u05bc\u05dc\u05b8\u0597\u05dd \u05de\u05b4\u05de\u05b7\u05bc\u05d7\u05b2\u05e0\u05b7\u05a8\u05d9\u05b4\u05dd \u05db\u05b8\u05bc\u05bd\u05dc\u05be \u05d4\u05b7\u05d1\u05b8\u05bc\u05e9\u05b8\u05c1\u059c\u05df \u05db\u05b8\u05bc\u05bd\u05dc\u05be \u05de\u05b7\u05de\u05b0\u05dc\u05b0\u05db\u05a3\u05d5\u05bc\u05ea \u05c0 \u05e2\u05a3\u05d5\u05b9\u05d2 \u05de\u05b6\u05bd\u05dc\u05b6\u05da\u05b0\u05be \u05d4\u05b7\u05d1\u05b8\u05bc\u05e9\u05b8\u05c1\u0597\u05df \u05d5\u05b0\u05db\u05b8\u05dc\u05be \u05d7\u05b7\u05d5\u05ba\u05bc\u05a5\u05ea \u05d9\u05b8\u05d0\u05b4\u059b\u05d9\u05e8 \u05d0\u05b2\u05e9\u05b6\u05c1\u05a5\u05e8 \u05d1\u05b7\u05bc\u05d1\u05b8\u05bc\u05e9\u05b8\u05c1\u0596\u05df \u05e9\u05b4\u05c1\u05e9\u05b4\u05bc\u05c1\u05a5\u05d9\u05dd \u05e2\u05b4\u05bd\u05d9\u05e8\u05c3"
        },
        {
            "chapter": 13,
            "verse": 31,
            "name": "Joshua 13:31",
            "text": "\u05d5\u05b7\u05d7\u05b2\u05e6\u05b4\u05a4\u05d9 \u05d4\u05b7\u05d2\u05b4\u05bc\u05dc\u05b0\u05e2\u05b8\u05d3\u0599 \u05d5\u05b0\u05e2\u05b7\u05e9\u05b0\u05c1\u05ea\u05b8\u05bc\u05e8\u05a3\u05d5\u05b9\u05ea \u05d5\u05b0\u05d0\u05b6\u05d3\u05b0\u05e8\u05b6\u0594\u05e2\u05b4\u05d9 \u05e2\u05b8\u05e8\u05b5\u059b\u05d9 \u05de\u05b7\u05de\u05b0\u05dc\u05b0\u05db\u05a5\u05d5\u05bc\u05ea \u05e2\u0596\u05d5\u05b9\u05d2 \u05d1\u05b7\u05bc\u05d1\u05b8\u05bc\u05e9\u05b8\u05c1\u0591\u05df \u05dc\u05b4\u05d1\u05b0\u05e0\u05b5\u05a4\u05d9 \u05de\u05b8\u05db\u05b4\u05d9\u05e8\u0599 \u05d1\u05b6\u05bc\u05df\u05be \u05de\u05b0\u05e0\u05b7\u05e9\u05b6\u05bc\u05c1\u0594\u05d4 \u05dc\u05b7\u05d7\u05b2\u05e6\u05b4\u05a5\u05d9 \u05d1\u05b0\u05e0\u05b5\u05bd\u05d9\u05be \u05de\u05b8\u05db\u05b4\u0596\u05d9\u05e8 \u05dc\u05b0\u05de\u05b4\u05e9\u05b0\u05c1\u05e4\u05b0\u05bc\u05d7\u05d5\u05b9\u05ea\u05b8\u05bd\u05dd\u05c3"
        },
        {
            "chapter": 13,
            "verse": 32,
            "name": "Joshua 13:32",
            "text": "\u05d0\u05b5\u0595\u05dc\u05b6\u05bc\u05d4 \u05d0\u05b2\u05e9\u05b6\u05c1\u05e8\u05be \u05e0\u05b4\u05d7\u05b7\u05a5\u05dc \u05de\u05b9\u05e9\u05b6\u05c1\u0596\u05d4 \u05d1\u05b0\u05bc\u05e2\u05b7\u05bd\u05e8\u05b0\u05d1\u05a3\u05d5\u05b9\u05ea \u05de\u05d5\u05b9\u05d0\u05b8\u0591\u05d1 \u05de\u05b5\u05e2\u05b5\u059b\u05d1\u05b6\u05e8 \u05dc\u05b0\u05d9\u05b7\u05e8\u05b0\u05d3\u05b5\u05bc\u05a5\u05df \u05d9\u05b0\u05e8\u05b4\u05d9\u05d7\u0596\u05d5\u05b9 \u05de\u05b4\u05d6\u05b0\u05e8\u05b8\u05bd\u05d7\u05b8\u05d4\u05c3 \u05e1\u00a0\u00a0\u00a0\u00a0\u00a0\u00a0 "
        },
        {
            "chapter": 13,
            "verse": 33,
            "name": "Joshua 13:33",
            "text": "\u05d5\u05bc\u05dc\u05b0\u05e9\u05b5\u05c1\u0599\u05d1\u05b6\u05d8\u0599 \u05d4\u05b7\u05dc\u05b5\u05bc\u05d5\u05b4\u0594\u05d9 \u05dc\u05b9\u05bd\u05d0\u05be \u05e0\u05b8\u05ea\u05b7\u05a5\u05df \u05de\u05b9\u05e9\u05b6\u05c1\u0596\u05d4 \u05e0\u05b7\u05d7\u05b2\u05dc\u05b8\u0591\u05d4 \u05d9\u05b0\u05d4\u05d5\u05b8\u059e\u05d4 \u05d0\u05b1\u05dc\u05b9\u05d4\u05b5\u05a4\u05d9 \u05d9\u05b4\u05e9\u05b0\u05c2\u05e8\u05b8\u05d0\u05b5\u05dc\u0599 \u05d4\u05a3\u05d5\u05bc\u05d0 \u05e0\u05b7\u05d7\u05b2\u05dc\u05b8\u05ea\u05b8\u0594\u05dd \u05db\u05b7\u05bc\u05d0\u05b2\u05e9\u05b6\u05c1\u0596\u05e8 \u05d3\u05b4\u05bc\u05d1\u05b6\u05bc\u05a5\u05e8 \u05dc\u05b8\u05d4\u05b6\u05bd\u05dd\u05c3 "
        }
    ]
}