{
    "translation": "Polish Biblia Gdanska (1881)",
    "abbreviation": "polgdanska",
    "lang": "pl",
    "language": "Polish",
    "direction": "LTR",
    "encoding": "UTF-8",
    "book_nr": 18,
    "book_name": "Job",
    "chapter": 31,
    "name": "Job 31",
    "verses": [
        {
            "chapter": 31,
            "verse": 1,
            "name": "Job 31:1",
            "text": "Uczyni\u0142em przymierze z oczyma swemi, abym nie pomy\u015bla\u0142 o pannie."
        },
        {
            "chapter": 31,
            "verse": 2,
            "name": "Job 31:2",
            "text": "Bo c\u00f3\u017c za dzia\u0142 od Boga z g\u00f3ry? a co za dziedzictwo Wszechmocnego z wysoko\u015bci?"
        },
        {
            "chapter": 31,
            "verse": 3,
            "name": "Job 31:3",
            "text": "Aza\u017c nie nagotowane zginienie z\u0142o\u015bnikom, a sroga pomsta czyni\u0105cym nieprawo\u015b\u0107?"
        },
        {
            "chapter": 31,
            "verse": 4,
            "name": "Job 31:4",
            "text": "Aza\u017c on nie widzi dr\u00f3g moich, a wszystkich krok\u00f3w moich nie liczy?"
        },
        {
            "chapter": 31,
            "verse": 5,
            "name": "Job 31:5",
            "text": "Je\u017alim chodzi\u0142 w k\u0142amstwie, a spieszy\u0142a si\u0119 na zdrad\u0119 noga moja:"
        },
        {
            "chapter": 31,
            "verse": 6,
            "name": "Job 31:6",
            "text": "Niech mi\u0119 zwa\u017cy na wadze sprawiedliwej, a niech B\u00f3g pozna szczero\u015b\u0107 moj\u0119."
        },
        {
            "chapter": 31,
            "verse": 7,
            "name": "Job 31:7",
            "text": "Je\u017ali\u017c ust\u0105pi\u0142a noga moja z drogi, a za oczyma memi sz\u0142oli serce moje, i do r\u0105k moich je\u017ali\u017c przylgn\u0119\u0142a jaka zmaza:"
        },
        {
            "chapter": 31,
            "verse": 8,
            "name": "Job 31:8",
            "text": "Tedy niech\u017ce ja siej\u0119, a inszy niech po\u017cywa, a moje latoro\u015ble niech b\u0119d\u0105 wykorzenione."
        },
        {
            "chapter": 31,
            "verse": 9,
            "name": "Job 31:9",
            "text": "Je\u017ali zwiedzione jest serce moje do niewiasty, i je\u017alim czyha\u0142 u drzwi przyjaciela mego:"
        },
        {
            "chapter": 31,
            "verse": 10,
            "name": "Job 31:10",
            "text": "Niechaj\u017ce mele innemu \u017cona moja, a niechaj si\u0119 nad ni\u0105 inni schylaj\u0105."
        },
        {
            "chapter": 31,
            "verse": 11,
            "name": "Job 31:11",
            "text": "Bo\u0107 to jest sprosny wyst\u0119pek, a nieprawo\u015b\u0107 os\u0105dzenia godna,"
        },
        {
            "chapter": 31,
            "verse": 12,
            "name": "Job 31:12",
            "text": "Gdy\u017c ten ogie\u0144 a\u017c do zatracenia po\u017cera, a dochody moje wszystkie wykorzeni\u0107 mo\u017ce."
        },
        {
            "chapter": 31,
            "verse": 13,
            "name": "Job 31:13",
            "text": "Je\u017alim stroni\u0142 od s\u0105du z s\u0142ug\u0105 moim, albo z s\u0142u\u017cebnic\u0105 moj\u0105, gdy ze mn\u0105 sprzeczk\u0119 mieli,"
        },
        {
            "chapter": 31,
            "verse": 14,
            "name": "Job 31:14",
            "text": "(Bo c\u00f3\u017cbym czyni\u0142, gdyby powsta\u0142 B\u00f3g? albo gdyby pyta\u0142, cobym mu odpowiedzia\u0142?"
        },
        {
            "chapter": 31,
            "verse": 15,
            "name": "Job 31:15",
            "text": "Iza\u017c nie ten, kt\u00f3ry mi\u0119 w \u017cywocie uczyni\u0142, nie uczyni\u0142 te\u017c i onego? a nie on\u017ce nas sam w \u017cywocie wykszta\u0142towa\u0142?)"
        },
        {
            "chapter": 31,
            "verse": 16,
            "name": "Job 31:16",
            "text": "Je\u017ali\u017cem odm\u00f3wi\u0142 ubogim, czego chcieli, a oczy wdowy je\u017ali\u017cem zasmuci\u0142;"
        },
        {
            "chapter": 31,
            "verse": 17,
            "name": "Job 31:17",
            "text": "Je\u017ali\u017cem jad\u0142 sztuczk\u0119 swoj\u0119 sam, a nie jada\u0142a i sierota z niej;"
        },
        {
            "chapter": 31,
            "verse": 18,
            "name": "Job 31:18",
            "text": "(Albowiem sierota z m\u0142odo\u015bci mojej ros\u0142a ze mn\u0105, jako u ojca; a jakom wyszed\u0142 z \u017cywota matki mojej, by\u0142em wdowie za wodza.)"
        },
        {
            "chapter": 31,
            "verse": 19,
            "name": "Job 31:19",
            "text": "Je\u017ali\u017cem widzia\u0142 kogo gin\u0105cego dla tego, \u017ce szaty nie mia\u0142, a nie da\u0142em \u017cebrakowi odzienia;"
        },
        {
            "chapter": 31,
            "verse": 20,
            "name": "Job 31:20",
            "text": "Je\u017ali\u017ce mi nie b\u0142ogos\u0142awi\u0142y biodra jego, \u017ce si\u0119 we\u0142n\u0105 owiec moich zagrza\u0142;"
        },
        {
            "chapter": 31,
            "verse": 21,
            "name": "Job 31:21",
            "text": "Je\u017ali\u017cem podni\u00f3s\u0142 przeciwko sierocie r\u0119k\u0119 swoj\u0119, gdym widzia\u0142 w bramie pomoc moj\u0119:"
        },
        {
            "chapter": 31,
            "verse": 22,
            "name": "Job 31:22",
            "text": "Tedy niech odpadnie \u0142opatka moja od plec swych, a rami\u0119 moje z stawu swego niech wytracone b\u0119dzie."
        },
        {
            "chapter": 31,
            "verse": 23,
            "name": "Job 31:23",
            "text": "Albowiem l\u0119ka\u0142em si\u0119 skruszenia od Boga, a przed jego zacno\u015bci\u0105 nie m\u00f3g\u0142bym si\u0119 osta\u0107."
        },
        {
            "chapter": 31,
            "verse": 24,
            "name": "Job 31:24",
            "text": "Je\u017alim pok\u0142ada\u0142 w z\u0142ocie nadziej\u0119 moj\u0119, a do bry\u0142y z\u0142ota mawia\u0142em: Ty\u015b ufanie moje;"
        },
        {
            "chapter": 31,
            "verse": 25,
            "name": "Job 31:25",
            "text": "Je\u017alim si\u0119 weseli\u0142 z wielu bogactw moich, a i\u017c wiele naby\u0142a r\u0119ka moja;"
        },
        {
            "chapter": 31,
            "verse": 26,
            "name": "Job 31:26",
            "text": "Je\u017alim patrza\u0142 na \u015bwiat\u0142o\u015b\u0107 s\u0142o\u0144ca, gdy \u015bwieci\u0142o, a na miesi\u0105c, gdy wspania\u0142o chodzi\u0142;"
        },
        {
            "chapter": 31,
            "verse": 27,
            "name": "Job 31:27",
            "text": "I da\u0142o si\u0119 uwie\u015b\u0107 potajemnie serce moje, a ca\u0142owa\u0142y r\u0119k\u0119 moj\u0119 usta moje:"
        },
        {
            "chapter": 31,
            "verse": 28,
            "name": "Job 31:28",
            "text": "I to\u0107by by\u0142a nieprawo\u015b\u0107 os\u0105dzenia godna; bobym si\u0119 tem zaprza\u0142 Boga z wysoko\u015bci."
        },
        {
            "chapter": 31,
            "verse": 29,
            "name": "Job 31:29",
            "text": "Je\u017ali\u017cem si\u0119 weseli\u0142 z upadku nienawidz\u0105cego mi\u0119, a je\u017alim si\u0119 cieszy\u0142, gdy mu si\u0119 \u017ale powodzi\u0142o."
        },
        {
            "chapter": 31,
            "verse": 30,
            "name": "Job 31:30",
            "text": "(I owszem nie da\u0142em zgrzeszy\u0107 ustom moim, abym mia\u0142 \u017c\u0105da\u0107 przekl\u0119stwa duszy jego.)"
        },
        {
            "chapter": 31,
            "verse": 31,
            "name": "Job 31:31",
            "text": "Aza\u017c nie mawiali domownicy moi: Oby nam kto da\u0142 mi\u0119sa tego, nie mo\u017cemy si\u0119 i naje\u015b\u0107?"
        },
        {
            "chapter": 31,
            "verse": 32,
            "name": "Job 31:32",
            "text": "Bo go\u015b\u0107 nie nocowa\u0142 na dworze, a drzwi moje otwiera\u0142em podr\u00f3\u017cnemu."
        },
        {
            "chapter": 31,
            "verse": 33,
            "name": "Job 31:33",
            "text": "Je\u017alim zakrywa\u0142, jako ludzie zwykli, przest\u0119pstwa moje, i chowa\u0142em w skryto\u015bci mojej nieprawo\u015b\u0107 moj\u0119;"
        },
        {
            "chapter": 31,
            "verse": 34,
            "name": "Job 31:34",
            "text": "I cho\u0107bym by\u0142 m\u00f3g\u0142 pot\u0142umi\u0107 zgraj\u0119 wielk\u0105, jednak i najpodlejszy z domu ustraszy\u0142 mi\u0119; przeto\u017cem milcza\u0142, i nie wychodzi\u0142em ze drzwi."
        },
        {
            "chapter": 31,
            "verse": 35,
            "name": "Job 31:35",
            "text": "Obym mia\u0142 kogo, coby mi\u0119 wys\u0142ucha\u0142; ale oto ten jest znak m\u00f3j, \u017ce Wszechmog\u0105cy sam odpowie za mi\u0119, i ksi\u0119ga, kt\u00f3r\u0105 napisa\u0142 przeciwnik m\u00f3j."
        },
        {
            "chapter": 31,
            "verse": 36,
            "name": "Job 31:36",
            "text": "Czylibym jej na ramieniu swojem nie nosi\u0142? a nie przywi\u0105za\u0142bym jej sobie miasto korony?"
        },
        {
            "chapter": 31,
            "verse": 37,
            "name": "Job 31:37",
            "text": "Liczb\u0119 krok\u00f3w moich oznajmi\u0142bym mu; jako do ksi\u0105\u017c\u0119cia przyst\u0105pi\u0142bym do niego."
        },
        {
            "chapter": 31,
            "verse": 38,
            "name": "Job 31:38",
            "text": "Je\u017ali\u017c przeciw mnie ziemia moja wo\u0142a\u0142a, a je\u017ali\u017ce z ni\u0105 spo\u0142em zagony jej p\u0142aka\u0142y;"
        },
        {
            "chapter": 31,
            "verse": 39,
            "name": "Job 31:39",
            "text": "Je\u017ali\u017cem po\u017cytk\u00f3w jej u\u017cywa\u0142 bez pieni\u0119dzy, i je\u017alim do wzdychania przywodzi\u0142 dzier\u017cawc\u00f3w jej:"
        },
        {
            "chapter": 31,
            "verse": 40,
            "name": "Job 31:40",
            "text": "Miasto pszenicy niech wznijdzie oset, a miasto j\u0119czmienia k\u0105kol. Tu si\u0119 sko\u0144czy\u0142y s\u0142owa Ijobowe."
        }
    ]
}