{
    "translation": "Czech \u010cesk\u00fd studijn\u00ed p\u0159eklad",
    "abbreviation": "czecsp",
    "lang": "cs",
    "language": "Czech",
    "direction": "LTR",
    "encoding": "UTF-8",
    "book_nr": 29,
    "book_name": "Joel",
    "chapter": 3,
    "name": "Joel 3",
    "verses": [
        {
            "chapter": 3,
            "verse": 1,
            "name": "Joel 3:1",
            "text": "Potom se stane, \u017ee vyleji sv\u00e9ho Ducha na ka\u017ed\u00e9 t\u011blo. Va\u0161i synov\u00e9 a\u00a0va\u0161e dcery budou prorokovat, va\u0161i starci budou m\u00edt sny a\u00a0va\u0161i ml\u00e1denci budou m\u00edt vid\u011bn\u00ed."
        },
        {
            "chapter": 3,
            "verse": 2,
            "name": "Joel 3:2",
            "text": "Tak\u00e9 na otroky a\u00a0otrokyn\u011b vyleji v\u00a0on\u011bch dnech sv\u00e9ho Ducha."
        },
        {
            "chapter": 3,
            "verse": 3,
            "name": "Joel 3:3",
            "text": "U\u010din\u00edm divy na nebi i\u00a0na zemi, krev, ohe\u0148 a\u00a0sloupy kou\u0159e."
        },
        {
            "chapter": 3,
            "verse": 4,
            "name": "Joel 3:4",
            "text": "Slunce se zm\u011bn\u00ed v\u00a0temnotu a\u00a0m\u011bs\u00edc v\u00a0krev, d\u0159\u00edve ne\u017e p\u0159ijde Hospodin\u016fv den, velk\u00fd a\u00a0hrozn\u00fd."
        },
        {
            "chapter": 3,
            "verse": 5,
            "name": "Joel 3:5",
            "text": "I\u00a0stane se, \u017ee ka\u017ed\u00fd, kdo bude vz\u00fdvat Hospodinovo jm\u00e9no, se zachr\u00e1n\u00ed, proto\u017ee na ho\u0159e Sij\u00f3n a\u00a0v\u00a0Jeruzal\u00e9m\u011b bude \u00fato\u010di\u0161t\u011b, jak pravil Hospodin, mezi vyv\u00e1znuv\u0161\u00edmi, kter\u00e9 Hospodin povol\u00e1v\u00e1. "
        }
    ]
}