{
    "translation": "Urdu Geo Version (UGV)",
    "abbreviation": "urdugeo",
    "lang": "ur",
    "language": "Urdu",
    "direction": "RTL",
    "encoding": "UTF-8",
    "book_nr": 6,
    "book_name": "Joshua",
    "chapter": 16,
    "name": "Joshua 16",
    "verses": [
        {
            "chapter": 16,
            "verse": 1,
            "name": "Joshua 16:1",
            "text": " \u0642\u0631\u0639\u06c1 \u0688\u0627\u0644\u0646\u06d2 \u0633\u06d2 \u06cc\u0648\u0633\u0641 \u06a9\u06cc \u0627\u0648\u0644\u0627\u062f \u06a9\u0627 \u0639\u0644\u0627\u0642\u06c1 \u0645\u0642\u0631\u0631 \u06a9\u06cc\u0627 \u06af\u06cc\u0627\u06d4 \u0627\u064f\u0633 \u06a9\u06cc \u0633\u0631\u062d\u062f \u06cc\u0631\u06cc\u062d\u0648 \u06a9\u06d2 \u0642\u0631\u06cc\u0628 \u062f\u0631\u06cc\u0627\u0626\u06d2 \u06cc\u0631\u062f\u0646 \u0633\u06d2 \u0634\u0631\u0648\u0639 \u06c1\u0648\u0626\u06cc\u060c \u0634\u06c1\u0631 \u06a9\u06d2 \u0645\u0634\u0631\u0642 \u0645\u06cc\u06ba \u0686\u0634\u0645\u0648\u06ba \u06a9\u06d2 \u067e\u0627\u0633 \u0633\u06d2 \u06af\u0632\u0631\u06cc \u0627\u0648\u0631 \u0631\u06cc\u06af\u0633\u062a\u0627\u0646 \u0645\u06cc\u06ba \u0633\u06d2 \u0686\u0644\u062a\u06cc \u0686\u0644\u062a\u06cc \u0628\u06cc\u062a \u0627\u06cc\u0644 \u06a9\u06d2 \u067e\u06c1\u0627\u0691\u06cc \u0639\u0644\u0627\u0642\u06d2 \u062a\u06a9 \u067e\u06c1\u0646\u0686\u06cc\u06d4"
        },
        {
            "chapter": 16,
            "verse": 2,
            "name": "Joshua 16:2",
            "text": "\u0644\u064f\u0648\u0632 \u06cc\u0639\u0646\u06cc \u0628\u06cc\u062a \u0627\u06cc\u0644 \u0633\u06d2 \u0622\u06af\u06d2 \u0646\u06a9\u0644 \u06a9\u0631 \u0648\u06c1 \u0627\u0631\u06a9\u06cc\u0648\u06ba \u06a9\u06d2 \u0639\u0644\u0627\u0642\u06d2 \u0645\u06cc\u06ba \u0639\u0637\u0627\u0631\u0627\u062a \u067e\u06c1\u0646\u0686\u06cc\u06d4"
        },
        {
            "chapter": 16,
            "verse": 3,
            "name": "Joshua 16:3",
            "text": "\u0648\u06c1\u0627\u06ba \u0633\u06d2 \u0648\u06c1 \u0645\u063a\u0631\u0628 \u06a9\u06cc \u0637\u0631\u0641 \u0627\u064f\u062a\u0631\u062a\u06cc \u0627\u064f\u062a\u0631\u062a\u06cc \u06cc\u0641\u0644\u06cc\u0637\u06cc\u0648\u06ba \u06a9\u06d2 \u0639\u0644\u0627\u0642\u06d2 \u0645\u06cc\u06ba \u062f\u0627\u062e\u0644 \u06c1\u0648\u0626\u06cc \u062c\u06c1\u0627\u06ba \u0648\u06c1 \u0646\u0634\u06cc\u0628\u06cc \u0628\u06cc\u062a \u062d\u064e\u0648\u0631\u0648\u0646 \u0645\u06cc\u06ba \u0633\u06d2 \u06af\u0632\u0631 \u06a9\u0631 \u062c\u0632\u0631 \u06a9\u06d2 \u067e\u06cc\u0686\u06be\u06d2 \u0633\u0645\u0646\u062f\u0631 \u067e\u0631 \u062e\u062a\u0645 \u06c1\u0648\u0626\u06cc\u06d4"
        },
        {
            "chapter": 16,
            "verse": 4,
            "name": "Joshua 16:4",
            "text": "\u06cc\u06c1 \u0627\u064f\u0633 \u0639\u0644\u0627\u0642\u06d2 \u06a9\u06cc \u062c\u0646\u0648\u0628\u06cc \u0633\u0631\u062d\u062f \u062a\u06be\u06cc \u062c\u0648 \u06cc\u0648\u0633\u0641 \u06a9\u06cc \u0627\u0648\u0644\u0627\u062f \u0627\u0641\u0631\u0627\u0626\u06cc\u0645 \u0627\u0648\u0631 \u0645\u0646\u0633\u0651\u06cc \u06a9\u06d2 \u0642\u0628\u06cc\u0644\u0648\u06ba \u06a9\u0648 \u0648\u0631\u0627\u062b\u062a \u0645\u06cc\u06ba \u062f\u06cc\u0627 \u06af\u06cc\u0627\u06d4"
        },
        {
            "chapter": 16,
            "verse": 5,
            "name": "Joshua 16:5",
            "text": " \u0627\u0641\u0631\u0627\u0626\u06cc\u0645 \u06a9\u06d2 \u0642\u0628\u06cc\u0644\u06d2 \u06a9\u0648 \u0627\u064f\u0633 \u06a9\u06d2 \u06a9\u0646\u0628\u0648\u06ba \u06a9\u06d2 \u0645\u0637\u0627\u0628\u0642 \u06cc\u06c1 \u0639\u0644\u0627\u0642\u06c1 \u0645\u0644 \u06af\u06cc\u0627: \u0627\u064f\u0633 \u06a9\u06cc \u062c\u0646\u0648\u0628\u06cc \u0633\u0631\u062d\u062f \u0639\u0637\u0627\u0631\u0627\u062a \u0627\u062f\u0651\u0627\u0631 \u0627\u0648\u0631 \u0628\u0627\u0644\u0627\u0626\u06cc \u0628\u06cc\u062a \u062d\u064e\u0648\u0631\u0648\u0646 \u0633\u06d2 \u06c1\u0648 \u06a9\u0631"
        },
        {
            "chapter": 16,
            "verse": 6,
            "name": "Joshua 16:6",
            "text": "\u0633\u0645\u0646\u062f\u0631 \u067e\u0631 \u062e\u062a\u0645 \u06c1\u0648\u0626\u06cc\u06d4 \u0627\u064f\u0633 \u06a9\u06cc \u0634\u0645\u0627\u0644\u06cc \u0633\u0631\u062d\u062f \u0645\u063a\u0631\u0628 \u0645\u06cc\u06ba \u0633\u0645\u0646\u062f\u0631 \u0633\u06d2 \u0634\u0631\u0648\u0639 \u06c1\u0648\u0626\u06cc \u0627\u0648\u0631 \u0642\u0627\u0646\u0627\u06c1 \u0646\u062f\u06cc \u06a9\u06d2 \u0633\u0627\u062a\u06be \u0686\u0644\u062a\u06cc \u0686\u0644\u062a\u06cc \u062a\u0641\u0651\u0648\u062d \u062a\u06a9 \u067e\u06c1\u0646\u0686\u06cc\u06d4 \u0648\u06c1\u0627\u06ba \u0633\u06d2 \u0648\u06c1 \u0634\u0645\u0627\u0644 \u06a9\u06cc \u0637\u0631\u0641 \u0645\u064f\u0691\u06cc \u0627\u0648\u0631 \u0645\u0650\u06a9\u0645\u062a\u0627\u06c1 \u062a\u06a9 \u067e\u06c1\u0646\u0686 \u06a9\u0631 \u062f\u0648\u0628\u0627\u0631\u06c1 \u0645\u0634\u0631\u0642 \u06a9\u06cc \u0637\u0631\u0641 \u0686\u0644\u0646\u06d2 \u0644\u06af\u06cc\u06d4 \u067e\u06be\u0631 \u0648\u06c1 \u062a\u0627\u0646\u062a \u0633\u064e\u06cc\u0644\u0627 \u0633\u06d2 \u06c1\u0648 \u06a9\u0631 \u06cc\u0627\u0646\u0648\u062d \u067e\u06c1\u0646\u0686\u06cc\u06d4 \u0645\u0634\u0631\u0642\u06cc \u0633\u0631\u062d\u062f \u0634\u0645\u0627\u0644 \u0645\u06cc\u06ba \u06cc\u0627\u0646\u0648\u062d \u0633\u06d2 \u0634\u0631\u0648\u0639 \u06c1\u0648\u0626\u06cc \u0627\u0648\u0631 \u0639\u0637\u0627\u0631\u0627\u062a \u0633\u06d2 \u06c1\u0648 \u06a9\u0631 \u062f\u0631\u06cc\u0627\u0626\u06d2 \u06cc\u0631\u062f\u0646 \u06a9\u06d2 \u0645\u063a\u0631\u0628\u06cc \u06a9\u0646\u0627\u0631\u06d2 \u062a\u06a9 \u0627\u064f\u062a\u0631\u06cc \u0627\u0648\u0631 \u067e\u06be\u0631 \u06a9\u0646\u0627\u0631\u06d2 \u06a9\u06d2 \u0633\u0627\u062a\u06be \u062c\u0646\u0648\u0628 \u06a9\u06cc \u0637\u0631\u0641 \u0686\u0644\u062a\u06cc \u0686\u0644\u062a\u06cc \u0646\u0639\u0631\u06c1 \u0627\u0648\u0631 \u0627\u0650\u0633 \u06a9\u06d2 \u0628\u0639\u062f \u06cc\u0631\u06cc\u062d\u0648 \u067e\u06c1\u0646\u0686\u06cc\u06d4 \u0648\u06c1\u0627\u06ba \u0648\u06c1 \u062f\u0631\u06cc\u0627\u0626\u06d2 \u06cc\u0631\u062f\u0646 \u067e\u0631 \u062e\u062a\u0645 \u06c1\u0648\u0626\u06cc\u06d4 \u06cc\u06c1\u06cc \u0627\u0641\u0631\u0627\u0626\u06cc\u0645 \u0627\u0648\u0631 \u0627\u064f\u0633 \u06a9\u06d2 \u06a9\u0646\u0628\u0648\u06ba \u06a9\u06cc \u0633\u0631\u062d\u062f\u06cc\u06ba \u062a\u06be\u06cc\u06ba\u06d4"
        },
        {
            "chapter": 16,
            "verse": 7,
            "name": "Joshua 16:7",
            "text": "\u0633\u0645\u0646\u062f\u0631 \u067e\u0631 \u062e\u062a\u0645 \u06c1\u0648\u0626\u06cc\u06d4 \u0627\u064f\u0633 \u06a9\u06cc \u0634\u0645\u0627\u0644\u06cc \u0633\u0631\u062d\u062f \u0645\u063a\u0631\u0628 \u0645\u06cc\u06ba \u0633\u0645\u0646\u062f\u0631 \u0633\u06d2 \u0634\u0631\u0648\u0639 \u06c1\u0648\u0626\u06cc \u0627\u0648\u0631 \u0642\u0627\u0646\u0627\u06c1 \u0646\u062f\u06cc \u06a9\u06d2 \u0633\u0627\u062a\u06be \u0686\u0644\u062a\u06cc \u0686\u0644\u062a\u06cc \u062a\u0641\u0651\u0648\u062d \u062a\u06a9 \u067e\u06c1\u0646\u0686\u06cc\u06d4 \u0648\u06c1\u0627\u06ba \u0633\u06d2 \u0648\u06c1 \u0634\u0645\u0627\u0644 \u06a9\u06cc \u0637\u0631\u0641 \u0645\u064f\u0691\u06cc \u0627\u0648\u0631 \u0645\u0650\u06a9\u0645\u062a\u0627\u06c1 \u062a\u06a9 \u067e\u06c1\u0646\u0686 \u06a9\u0631 \u062f\u0648\u0628\u0627\u0631\u06c1 \u0645\u0634\u0631\u0642 \u06a9\u06cc \u0637\u0631\u0641 \u0686\u0644\u0646\u06d2 \u0644\u06af\u06cc\u06d4 \u067e\u06be\u0631 \u0648\u06c1 \u062a\u0627\u0646\u062a \u0633\u064e\u06cc\u0644\u0627 \u0633\u06d2 \u06c1\u0648 \u06a9\u0631 \u06cc\u0627\u0646\u0648\u062d \u067e\u06c1\u0646\u0686\u06cc\u06d4 \u0645\u0634\u0631\u0642\u06cc \u0633\u0631\u062d\u062f \u0634\u0645\u0627\u0644 \u0645\u06cc\u06ba \u06cc\u0627\u0646\u0648\u062d \u0633\u06d2 \u0634\u0631\u0648\u0639 \u06c1\u0648\u0626\u06cc \u0627\u0648\u0631 \u0639\u0637\u0627\u0631\u0627\u062a \u0633\u06d2 \u06c1\u0648 \u06a9\u0631 \u062f\u0631\u06cc\u0627\u0626\u06d2 \u06cc\u0631\u062f\u0646 \u06a9\u06d2 \u0645\u063a\u0631\u0628\u06cc \u06a9\u0646\u0627\u0631\u06d2 \u062a\u06a9 \u0627\u064f\u062a\u0631\u06cc \u0627\u0648\u0631 \u067e\u06be\u0631 \u06a9\u0646\u0627\u0631\u06d2 \u06a9\u06d2 \u0633\u0627\u062a\u06be \u062c\u0646\u0648\u0628 \u06a9\u06cc \u0637\u0631\u0641 \u0686\u0644\u062a\u06cc \u0686\u0644\u062a\u06cc \u0646\u0639\u0631\u06c1 \u0627\u0648\u0631 \u0627\u0650\u0633 \u06a9\u06d2 \u0628\u0639\u062f \u06cc\u0631\u06cc\u062d\u0648 \u067e\u06c1\u0646\u0686\u06cc\u06d4 \u0648\u06c1\u0627\u06ba \u0648\u06c1 \u062f\u0631\u06cc\u0627\u0626\u06d2 \u06cc\u0631\u062f\u0646 \u067e\u0631 \u062e\u062a\u0645 \u06c1\u0648\u0626\u06cc\u06d4 \u06cc\u06c1\u06cc \u0627\u0641\u0631\u0627\u0626\u06cc\u0645 \u0627\u0648\u0631 \u0627\u064f\u0633 \u06a9\u06d2 \u06a9\u0646\u0628\u0648\u06ba \u06a9\u06cc \u0633\u0631\u062d\u062f\u06cc\u06ba \u062a\u06be\u06cc\u06ba\u06d4"
        },
        {
            "chapter": 16,
            "verse": 8,
            "name": "Joshua 16:8",
            "text": "\u0633\u0645\u0646\u062f\u0631 \u067e\u0631 \u062e\u062a\u0645 \u06c1\u0648\u0626\u06cc\u06d4 \u0627\u064f\u0633 \u06a9\u06cc \u0634\u0645\u0627\u0644\u06cc \u0633\u0631\u062d\u062f \u0645\u063a\u0631\u0628 \u0645\u06cc\u06ba \u0633\u0645\u0646\u062f\u0631 \u0633\u06d2 \u0634\u0631\u0648\u0639 \u06c1\u0648\u0626\u06cc \u0627\u0648\u0631 \u0642\u0627\u0646\u0627\u06c1 \u0646\u062f\u06cc \u06a9\u06d2 \u0633\u0627\u062a\u06be \u0686\u0644\u062a\u06cc \u0686\u0644\u062a\u06cc \u062a\u0641\u0651\u0648\u062d \u062a\u06a9 \u067e\u06c1\u0646\u0686\u06cc\u06d4 \u0648\u06c1\u0627\u06ba \u0633\u06d2 \u0648\u06c1 \u0634\u0645\u0627\u0644 \u06a9\u06cc \u0637\u0631\u0641 \u0645\u064f\u0691\u06cc \u0627\u0648\u0631 \u0645\u0650\u06a9\u0645\u062a\u0627\u06c1 \u062a\u06a9 \u067e\u06c1\u0646\u0686 \u06a9\u0631 \u062f\u0648\u0628\u0627\u0631\u06c1 \u0645\u0634\u0631\u0642 \u06a9\u06cc \u0637\u0631\u0641 \u0686\u0644\u0646\u06d2 \u0644\u06af\u06cc\u06d4 \u067e\u06be\u0631 \u0648\u06c1 \u062a\u0627\u0646\u062a \u0633\u064e\u06cc\u0644\u0627 \u0633\u06d2 \u06c1\u0648 \u06a9\u0631 \u06cc\u0627\u0646\u0648\u062d \u067e\u06c1\u0646\u0686\u06cc\u06d4 \u0645\u0634\u0631\u0642\u06cc \u0633\u0631\u062d\u062f \u0634\u0645\u0627\u0644 \u0645\u06cc\u06ba \u06cc\u0627\u0646\u0648\u062d \u0633\u06d2 \u0634\u0631\u0648\u0639 \u06c1\u0648\u0626\u06cc \u0627\u0648\u0631 \u0639\u0637\u0627\u0631\u0627\u062a \u0633\u06d2 \u06c1\u0648 \u06a9\u0631 \u062f\u0631\u06cc\u0627\u0626\u06d2 \u06cc\u0631\u062f\u0646 \u06a9\u06d2 \u0645\u063a\u0631\u0628\u06cc \u06a9\u0646\u0627\u0631\u06d2 \u062a\u06a9 \u0627\u064f\u062a\u0631\u06cc \u0627\u0648\u0631 \u067e\u06be\u0631 \u06a9\u0646\u0627\u0631\u06d2 \u06a9\u06d2 \u0633\u0627\u062a\u06be \u062c\u0646\u0648\u0628 \u06a9\u06cc \u0637\u0631\u0641 \u0686\u0644\u062a\u06cc \u0686\u0644\u062a\u06cc \u0646\u0639\u0631\u06c1 \u0627\u0648\u0631 \u0627\u0650\u0633 \u06a9\u06d2 \u0628\u0639\u062f \u06cc\u0631\u06cc\u062d\u0648 \u067e\u06c1\u0646\u0686\u06cc\u06d4 \u0648\u06c1\u0627\u06ba \u0648\u06c1 \u062f\u0631\u06cc\u0627\u0626\u06d2 \u06cc\u0631\u062f\u0646 \u067e\u0631 \u062e\u062a\u0645 \u06c1\u0648\u0626\u06cc\u06d4 \u06cc\u06c1\u06cc \u0627\u0641\u0631\u0627\u0626\u06cc\u0645 \u0627\u0648\u0631 \u0627\u064f\u0633 \u06a9\u06d2 \u06a9\u0646\u0628\u0648\u06ba \u06a9\u06cc \u0633\u0631\u062d\u062f\u06cc\u06ba \u062a\u06be\u06cc\u06ba\u06d4"
        },
        {
            "chapter": 16,
            "verse": 9,
            "name": "Joshua 16:9",
            "text": "\u0627\u0650\u0633 \u06a9\u06d2 \u0639\u0644\u0627\u0648\u06c1 \u06a9\u0686\u06be \u0634\u06c1\u0631 \u0627\u0648\u0631 \u0627\u064f\u0646 \u06a9\u06d2 \u06af\u0631\u062f \u0648 \u0646\u0648\u0627\u062d \u06a9\u06cc \u0622\u0628\u0627\u062f\u06cc\u0627\u06ba \u0627\u0641\u0631\u0627\u0626\u06cc\u0645 \u06a9\u06d2 \u0644\u0626\u06d2 \u0645\u0642\u0631\u0631 \u06a9\u06cc \u06af\u0626\u06cc\u06ba \u062c\u0648 \u0645\u0646\u0633\u0651\u06cc \u06a9\u06d2 \u0639\u0644\u0627\u0642\u06d2 \u0645\u06cc\u06ba \u062a\u06be\u06cc\u06ba\u06d4"
        },
        {
            "chapter": 16,
            "verse": 10,
            "name": "Joshua 16:10",
            "text": "\u0627\u0641\u0631\u0627\u0626\u06cc\u0645 \u06a9\u06d2 \u0645\u0631\u062f\u0648\u06ba \u0646\u06d2 \u062c\u0632\u0631 \u0645\u06cc\u06ba \u0622\u0628\u0627\u062f \u06a9\u0646\u0639\u0627\u0646\u06cc\u0648\u06ba \u06a9\u0648 \u0646\u06c1 \u0646\u06a9\u0627\u0644\u0627\u06d4 \u0627\u0650\u0633 \u0644\u0626\u06d2 \u0627\u064f\u0646 \u06a9\u06cc \u0627\u0648\u0644\u0627\u062f \u0622\u062c \u062a\u06a9 \u0648\u06c1\u0627\u06ba \u0631\u06c1\u062a\u06cc \u06c1\u06d2\u060c \u0627\u0644\u0628\u062a\u06c1 \u0627\u064f\u0633\u06d2 \u0628\u06cc\u06af\u0627\u0631 \u0645\u06cc\u06ba \u06a9\u0627\u0645 \u06a9\u0631\u0646\u0627 \u067e\u0691\u062a\u0627 \u06c1\u06d2\u06d4  "
        }
    ]
}