{
    "translation": "Czech CEP",
    "abbreviation": "cep",
    "lang": "cs",
    "language": "Czech",
    "direction": "LTR",
    "encoding": "UTF-8",
    "book_nr": 23,
    "book_name": "Isaiah",
    "chapter": 32,
    "name": "Isaiah 32",
    "verses": [
        {
            "chapter": 32,
            "verse": 1,
            "name": "Isaiah 32:1",
            "text": "Hle, kr\u00e1l bude kralovat spravedliv\u011b a velmo\u017eov\u00e9 budou vl\u00e1dnout podle pr\u00e1va. "
        },
        {
            "chapter": 32,
            "verse": 2,
            "name": "Isaiah 32:2",
            "text": "Ka\u017ed\u00fd z nich bude jako skr\u00fd\u0161e p\u0159ed v\u011btrem a \u00fakryt p\u0159ed pr\u016ftr\u017e\u00ed mra\u010den, jak tekouc\u00ed vody ve vyprahl\u00e9m kraji, jako st\u00edn mohutn\u00e9 sk\u00e1ly v \u017e\u00edzniv\u00e9 zemi. "
        },
        {
            "chapter": 32,
            "verse": 3,
            "name": "Isaiah 32:3",
            "text": "O\u010di t\u011bch, kdo vid\u00ed, se neodvr\u00e1t\u00ed, u\u0161i t\u011bch, kdo sly\u0161\u00ed, budou pozorn\u011b naslouchat. "
        },
        {
            "chapter": 32,
            "verse": 4,
            "name": "Isaiah 32:4",
            "text": "Srdce nerozumn\u00fdch nabude pozn\u00e1n\u00ed, jazyk koktav\u00fdch bude hovo\u0159it hbit\u011b a jasn\u011b. "
        },
        {
            "chapter": 32,
            "verse": 5,
            "name": "Isaiah 32:5",
            "text": "Bloud u\u017e nebude zv\u00e1n \u0161lechetn\u00fd, potm\u011b\u0161ilci nebude se \u0159\u00edkat velkomysln\u00fd. "
        },
        {
            "chapter": 32,
            "verse": 6,
            "name": "Isaiah 32:6",
            "text": "V\u017edy\u0165 bloud mluv\u00ed bludy a jeho srdce p\u00e1ch\u00e1 ni\u010demnosti, dopou\u0161t\u00ed se rouh\u00e1n\u00ed a scestn\u011b mluv\u00ed proti Hospodinu. Hladovou du\u0161i nech\u00e1v\u00e1 la\u010dnou a \u017e\u00edzn\u00edc\u00edmu neposkytne n\u00e1poj. "
        },
        {
            "chapter": 32,
            "verse": 7,
            "name": "Isaiah 32:7",
            "text": "Zbran\u011b potm\u011b\u0161ilcovy jsou zhoubn\u00e9, jen k mrzkostem rad\u00ed, chce zni\u010dit uti\u0161t\u011bn\u00e9 klamn\u00fdmi slovy, kdy\u017e se ubo\u017e\u00e1k dovol\u00e1v\u00e1 pr\u00e1va. "
        },
        {
            "chapter": 32,
            "verse": 8,
            "name": "Isaiah 32:8",
            "text": "\u0160lechetn\u00fd v\u0161ak d\u00e1v\u00e1 u\u0161lechtil\u00e9 rady a v u\u0161lechtil\u00e9m jedn\u00e1n\u00ed setrv\u00e1v\u00e1. "
        },
        {
            "chapter": 32,
            "verse": 9,
            "name": "Isaiah 32:9",
            "text": "\u017deny sebejist\u00e9, vzh\u016fru, sly\u0161te m\u016fj hlas! Bezstarostn\u00e9 dcery, pop\u0159ejte m\u00e9mu v\u00fdroku sluchu! "
        },
        {
            "chapter": 32,
            "verse": 10,
            "name": "Isaiah 32:10",
            "text": "Do roka a do dne se budete chv\u011bt, vy bezstarostn\u00e9, nebo\u0165 je konec s vinobran\u00edm, sklize\u0148 se nedostav\u00ed. "
        },
        {
            "chapter": 32,
            "verse": 11,
            "name": "Isaiah 32:11",
            "text": "D\u011bste se, vy sebejist\u00e9, chv\u011bjte se, vy bezstarostn\u00e9, vysvle\u010dte se, obna\u017ete se, bedra si \u017e\u00ednic\u00ed p\u0159ep\u00e1sejte. "
        },
        {
            "chapter": 32,
            "verse": 12,
            "name": "Isaiah 32:12",
            "text": "Bij\u00ed se v prsa, na\u0159\u00edkaj\u00ed pro skv\u011bl\u00e1 pole, pro \u00farodn\u00fd vinn\u00fd kmen, "
        },
        {
            "chapter": 32,
            "verse": 13,
            "name": "Isaiah 32:13",
            "text": "pro roli m\u00e9ho lidu, je\u017e vyd\u00e1v\u00e1 trn\u00ed a bodl\u00e1\u010d\u00ed, ano i pro domy pln\u00e9 vesel\u00ed v rozja\u0159en\u00e9m m\u011bst\u011b. "
        },
        {
            "chapter": 32,
            "verse": 14,
            "name": "Isaiah 32:14",
            "text": "Nebo\u0165 pal\u00e1c zch\u00e1tr\u00e1, hluk m\u011bsta ustane. N\u00e1vr\u0161\u00ed se str\u00e1\u017enou v\u011b\u017e\u00ed budou nav\u011bky jeskyn\u011bmi, budou obveselen\u00edm divok\u00fdch osl\u016f a pastvinou st\u00e1d. "
        },
        {
            "chapter": 32,
            "verse": 15,
            "name": "Isaiah 32:15",
            "text": "A\u017e bude na n\u00e1s vylit z v\u00fd\u0161e duch, pou\u0161\u0165 se stane sadem a sad bude m\u00edt cenu lesa. "
        },
        {
            "chapter": 32,
            "verse": 16,
            "name": "Isaiah 32:16",
            "text": "I na pou\u0161ti bude p\u0159eb\u00fdvat pr\u00e1vo a v sadu se us\u00eddl\u00ed spravedlnost. "
        },
        {
            "chapter": 32,
            "verse": 17,
            "name": "Isaiah 32:17",
            "text": "Spravedlnost vytvo\u0159\u00ed pokoj, spravedlnost zajist\u00ed klid a bezpe\u010d\u00ed nav\u011bky. "
        },
        {
            "chapter": 32,
            "verse": 18,
            "name": "Isaiah 32:18",
            "text": "M\u016fj lid bude s\u00eddlit na niv\u00e1ch pokoje, v bezpe\u010dn\u00fdch p\u0159\u00edbytc\u00edch, v klidn\u00fdch m\u00edstech odpo\u010dinku, "
        },
        {
            "chapter": 32,
            "verse": 19,
            "name": "Isaiah 32:19",
            "text": "i kdyby na les spadlo krupobit\u00ed a m\u011bsto bylo srovn\u00e1no se zem\u00ed. "
        },
        {
            "chapter": 32,
            "verse": 20,
            "name": "Isaiah 32:20",
            "text": "Blaze v\u00e1m, kte\u0159\u00ed budete os\u00e9vat zemi v\u0161ude zavla\u017eovanou a nech\u00e1te voln\u011b b\u011bhat b\u00fdka a osla.  "
        }
    ]
}