{
    "translation": "Shona Bible",
    "abbreviation": "shona",
    "lang": "sn",
    "language": "Shona",
    "direction": "LTR",
    "encoding": "UTF-8",
    "book_nr": 1,
    "book_name": "Genesis",
    "chapter": 22,
    "name": "Genesis 22",
    "verses": [
        {
            "chapter": 22,
            "verse": 1,
            "name": "Genesis 22:1",
            "text": ""
        },
        {
            "chapter": 22,
            "verse": 2,
            "name": "Genesis 22:2",
            "text": ""
        },
        {
            "chapter": 22,
            "verse": 3,
            "name": "Genesis 22:3",
            "text": ""
        },
        {
            "chapter": 22,
            "verse": 4,
            "name": "Genesis 22:4",
            "text": ""
        },
        {
            "chapter": 22,
            "verse": 5,
            "name": "Genesis 22:5",
            "text": ""
        },
        {
            "chapter": 22,
            "verse": 6,
            "name": "Genesis 22:6",
            "text": ""
        },
        {
            "chapter": 22,
            "verse": 7,
            "name": "Genesis 22:7",
            "text": ""
        },
        {
            "chapter": 22,
            "verse": 8,
            "name": "Genesis 22:8",
            "text": ""
        },
        {
            "chapter": 22,
            "verse": 9,
            "name": "Genesis 22:9",
            "text": ""
        },
        {
            "chapter": 22,
            "verse": 10,
            "name": "Genesis 22:10",
            "text": ""
        },
        {
            "chapter": 22,
            "verse": 11,
            "name": "Genesis 22:11",
            "text": ""
        },
        {
            "chapter": 22,
            "verse": 12,
            "name": "Genesis 22:12",
            "text": ""
        },
        {
            "chapter": 22,
            "verse": 13,
            "name": "Genesis 22:13",
            "text": ""
        },
        {
            "chapter": 22,
            "verse": 14,
            "name": "Genesis 22:14",
            "text": ""
        },
        {
            "chapter": 22,
            "verse": 15,
            "name": "Genesis 22:15",
            "text": ""
        },
        {
            "chapter": 22,
            "verse": 16,
            "name": "Genesis 22:16",
            "text": ""
        },
        {
            "chapter": 22,
            "verse": 17,
            "name": "Genesis 22:17",
            "text": ""
        },
        {
            "chapter": 22,
            "verse": 18,
            "name": "Genesis 22:18",
            "text": ""
        },
        {
            "chapter": 22,
            "verse": 19,
            "name": "Genesis 22:19",
            "text": ""
        },
        {
            "chapter": 22,
            "verse": 20,
            "name": "Genesis 22:20",
            "text": ""
        },
        {
            "chapter": 22,
            "verse": 21,
            "name": "Genesis 22:21",
            "text": ""
        },
        {
            "chapter": 22,
            "verse": 22,
            "name": "Genesis 22:22",
            "text": ""
        },
        {
            "chapter": 22,
            "verse": 23,
            "name": "Genesis 22:23",
            "text": ""
        },
        {
            "chapter": 22,
            "verse": 24,
            "name": "Genesis 22:24",
            "text": ""
        }
    ]
}