{
    "translation": "Thai from kjv",
    "abbreviation": "thai",
    "lang": "th",
    "language": "Thai",
    "direction": "LTR",
    "encoding": "UTF-8",
    "book_nr": 23,
    "book_name": "Isaiah",
    "chapter": 5,
    "name": "Isaiah 5",
    "verses": [
        {
            "chapter": 5,
            "verse": 1,
            "name": "Isaiah 5:1",
            "text": "\u0e1a\u0e31\u0e14\u0e19\u0e35\u0e49\u0e02\u0e49\u0e32\u0e1e\u0e40\u0e08\u0e49\u0e32\u0e08\u0e30\u0e23\u0e49\u0e2d\u0e07\u0e40\u0e1e\u0e25\u0e07\u0e16\u0e36\u0e07\u0e17\u0e35\u0e48\u0e23\u0e31\u0e01\u0e02\u0e2d\u0e07\u0e02\u0e49\u0e32\u0e1e\u0e40\u0e08\u0e49\u0e32 \u0e40\u0e1b\u0e47\u0e19\u0e40\u0e1e\u0e25\u0e07\u0e02\u0e2d\u0e07\u0e17\u0e35\u0e48\u0e23\u0e31\u0e01\u0e02\u0e2d\u0e07\u0e02\u0e49\u0e32\u0e1e\u0e40\u0e08\u0e49\u0e32\u0e40\u0e01\u0e35\u0e48\u0e22\u0e27\u0e01\u0e31\u0e1a\u0e2a\u0e27\u0e19\u0e2d\u0e07\u0e38\u0e48\u0e19\u0e02\u0e2d\u0e07\u0e17\u0e48\u0e32\u0e19 \u0e17\u0e35\u0e48\u0e23\u0e31\u0e01\u0e02\u0e2d\u0e07\u0e02\u0e49\u0e32\u0e1e\u0e40\u0e08\u0e49\u0e32\u0e21\u0e35\u0e2a\u0e27\u0e19\u0e2d\u0e07\u0e38\u0e48\u0e19\u0e41\u0e1b\u0e25\u0e07\u0e2b\u0e19\u0e36\u0e48\u0e07 \u0e2d\u0e22\u0e39\u0e48\u0e1a\u0e19\u0e40\u0e19\u0e34\u0e19\u0e40\u0e02\u0e32\u0e2d\u0e31\u0e19\u0e2d\u0e38\u0e14\u0e21\u0e22\u0e34\u0e48\u0e07"
        },
        {
            "chapter": 5,
            "verse": 2,
            "name": "Isaiah 5:2",
            "text": "\u0e17\u0e48\u0e32\u0e19\u0e17\u0e33\u0e23\u0e31\u0e49\u0e27\u0e44\u0e27\u0e49\u0e23\u0e2d\u0e1a\u0e41\u0e25\u0e49\u0e27\u0e40\u0e01\u0e47\u0e1a\u0e01\u0e49\u0e2d\u0e19\u0e2b\u0e34\u0e19\u0e2d\u0e2d\u0e01\u0e2b\u0e21\u0e14\u0e41\u0e25\u0e30\u0e1b\u0e25\u0e39\u0e01\u0e40\u0e16\u0e32\u0e2d\u0e07\u0e38\u0e48\u0e19\u0e2d\u0e22\u0e48\u0e32\u0e07\u0e14\u0e35\u0e44\u0e27\u0e49 \u0e17\u0e48\u0e32\u0e19\u0e2a\u0e23\u0e49\u0e32\u0e07\u0e2b\u0e2d\u0e40\u0e1d\u0e49\u0e32\u0e44\u0e27\u0e49\u0e17\u0e48\u0e32\u0e21\u0e01\u0e25\u0e32\u0e07 \u0e41\u0e25\u0e30\u0e2a\u0e01\u0e31\u0e14\u0e1a\u0e48\u0e2d\u0e22\u0e48\u0e33\u0e2d\u0e07\u0e38\u0e48\u0e19\u0e44\u0e27\u0e49\u0e43\u0e19\u0e2a\u0e27\u0e19\u0e19\u0e31\u0e49\u0e19\u0e14\u0e49\u0e27\u0e22 \u0e17\u0e48\u0e32\u0e19\u0e21\u0e38\u0e48\u0e07\u0e2b\u0e27\u0e31\u0e07\u0e27\u0e48\u0e32\u0e21\u0e31\u0e19\u0e08\u0e30\u0e1a\u0e31\u0e07\u0e40\u0e01\u0e34\u0e14\u0e25\u0e39\u0e01\u0e2d\u0e07\u0e38\u0e48\u0e19 \u0e41\u0e15\u0e48\u0e21\u0e31\u0e19\u0e1a\u0e31\u0e07\u0e40\u0e01\u0e34\u0e14\u0e25\u0e39\u0e01\u0e40\u0e16\u0e32\u0e40\u0e1b\u0e23\u0e35\u0e49\u0e22\u0e27"
        },
        {
            "chapter": 5,
            "verse": 3,
            "name": "Isaiah 5:3",
            "text": "\u0e1a\u0e31\u0e14\u0e19\u0e35\u0e49 \u0e42\u0e2d \u0e0a\u0e32\u0e27\u0e40\u0e22\u0e23\u0e39\u0e0b\u0e32\u0e40\u0e25\u0e47\u0e21\u0e41\u0e25\u0e30\u0e04\u0e19\u0e22\u0e39\u0e14\u0e32\u0e2b\u0e4c\u0e40\u0e2d\u0e4b\u0e22 \u0e02\u0e2d\u0e15\u0e31\u0e14\u0e2a\u0e34\u0e19\u0e23\u0e30\u0e2b\u0e27\u0e48\u0e32\u0e07\u0e40\u0e23\u0e32\u0e41\u0e25\u0e30\u0e2a\u0e27\u0e19\u0e2d\u0e07\u0e38\u0e48\u0e19\u0e02\u0e2d\u0e07\u0e40\u0e23\u0e32"
        },
        {
            "chapter": 5,
            "verse": 4,
            "name": "Isaiah 5:4",
            "text": "\u0e21\u0e35\u0e2d\u0e30\u0e44\u0e23\u0e2d\u0e35\u0e01\u0e17\u0e35\u0e48\u0e08\u0e30\u0e17\u0e33\u0e44\u0e14\u0e49\u0e40\u0e1e\u0e37\u0e48\u0e2d\u0e2a\u0e27\u0e19\u0e2d\u0e07\u0e38\u0e48\u0e19\u0e02\u0e2d\u0e07\u0e40\u0e23\u0e32 \u0e0b\u0e36\u0e48\u0e07\u0e40\u0e23\u0e32\u0e22\u0e31\u0e07\u0e44\u0e21\u0e48\u0e44\u0e14\u0e49\u0e17\u0e33\u0e43\u0e2b\u0e49 \u0e01\u0e47\u0e40\u0e21\u0e37\u0e48\u0e2d\u0e40\u0e23\u0e32\u0e21\u0e38\u0e48\u0e07\u0e2b\u0e27\u0e31\u0e07\u0e27\u0e48\u0e32\u0e21\u0e31\u0e19\u0e08\u0e30\u0e1a\u0e31\u0e07\u0e40\u0e01\u0e34\u0e14\u0e25\u0e39\u0e01\u0e2d\u0e07\u0e38\u0e48\u0e19 \u0e44\u0e09\u0e19\u0e21\u0e31\u0e19\u0e08\u0e36\u0e07\u0e40\u0e01\u0e34\u0e14\u0e25\u0e39\u0e01\u0e40\u0e16\u0e32\u0e40\u0e1b\u0e23\u0e35\u0e49\u0e22\u0e27"
        },
        {
            "chapter": 5,
            "verse": 5,
            "name": "Isaiah 5:5",
            "text": "\u0e1a\u0e31\u0e14\u0e19\u0e35\u0e49\u0e40\u0e23\u0e32\u0e08\u0e30\u0e1a\u0e2d\u0e01\u0e40\u0e08\u0e49\u0e32\u0e17\u0e31\u0e49\u0e07\u0e2b\u0e25\u0e32\u0e22\u0e43\u0e2b\u0e49\u0e27\u0e48\u0e32\u0e40\u0e23\u0e32\u0e08\u0e30\u0e17\u0e33\u0e2d\u0e30\u0e44\u0e23\u0e01\u0e31\u0e1a\u0e2a\u0e27\u0e19\u0e2d\u0e07\u0e38\u0e48\u0e19\u0e02\u0e2d\u0e07\u0e40\u0e23\u0e32 \u0e40\u0e23\u0e32\u0e08\u0e30\u0e23\u0e37\u0e49\u0e2d\u0e23\u0e31\u0e49\u0e27\u0e15\u0e49\u0e19\u0e44\u0e21\u0e49\u0e02\u0e2d\u0e07\u0e21\u0e31\u0e19\u0e40\u0e2a\u0e35\u0e22 \u0e41\u0e25\u0e49\u0e27\u0e21\u0e31\u0e19\u0e01\u0e47\u0e08\u0e30\u0e16\u0e39\u0e01\u0e40\u0e1c\u0e32 \u0e40\u0e23\u0e32\u0e08\u0e30\u0e1e\u0e31\u0e07\u0e01\u0e33\u0e41\u0e1e\u0e07\u0e02\u0e2d\u0e07\u0e21\u0e31\u0e19\u0e25\u0e07 \u0e21\u0e31\u0e19\u0e01\u0e47\u0e08\u0e30\u0e16\u0e39\u0e01\u0e40\u0e2b\u0e22\u0e35\u0e22\u0e1a\u0e22\u0e48\u0e33\u0e25\u0e07"
        },
        {
            "chapter": 5,
            "verse": 6,
            "name": "Isaiah 5:6",
            "text": "\u0e40\u0e23\u0e32\u0e08\u0e30\u0e01\u0e23\u0e30\u0e17\u0e33\u0e21\u0e31\u0e19\u0e43\u0e2b\u0e49\u0e40\u0e1b\u0e47\u0e19\u0e17\u0e35\u0e48\u0e23\u0e49\u0e32\u0e07 \u0e08\u0e30\u0e44\u0e21\u0e48\u0e21\u0e35\u0e43\u0e04\u0e23\u0e25\u0e34\u0e14\u0e41\u0e02\u0e19\u0e07\u0e2b\u0e23\u0e37\u0e2d\u0e1e\u0e23\u0e27\u0e19\u0e14\u0e34\u0e19 \u0e2b\u0e19\u0e32\u0e21\u0e22\u0e48\u0e2d\u0e22\u0e2b\u0e19\u0e32\u0e21\u0e43\u0e2b\u0e0d\u0e48\u0e01\u0e47\u0e08\u0e30\u0e07\u0e2d\u0e01\u0e02\u0e36\u0e49\u0e19 \u0e41\u0e25\u0e30\u0e40\u0e23\u0e32\u0e08\u0e30\u0e1a\u0e31\u0e0d\u0e0a\u0e32\u0e40\u0e21\u0e06\u0e44\u0e21\u0e48\u0e43\u0e2b\u0e49\u0e42\u0e1b\u0e23\u0e22\u0e1d\u0e19\u0e23\u0e14\u0e21\u0e31\u0e19"
        },
        {
            "chapter": 5,
            "verse": 7,
            "name": "Isaiah 5:7",
            "text": "\u0e40\u0e1e\u0e23\u0e32\u0e30\u0e27\u0e48\u0e32\u0e2a\u0e27\u0e19\u0e2d\u0e07\u0e38\u0e48\u0e19\u0e02\u0e2d\u0e07\u0e1e\u0e23\u0e30\u0e40\u0e22\u0e42\u0e2e\u0e27\u0e32\u0e2b\u0e4c\u0e08\u0e2d\u0e21\u0e42\u0e22\u0e18\u0e32\u0e04\u0e37\u0e2d\u0e27\u0e07\u0e28\u0e4c\u0e27\u0e32\u0e19\u0e2d\u0e34\u0e2a\u0e23\u0e32\u0e40\u0e2d\u0e25 \u0e41\u0e25\u0e30\u0e04\u0e19\u0e22\u0e39\u0e14\u0e32\u0e2b\u0e4c\u0e40\u0e1b\u0e47\u0e19\u0e2b\u0e21\u0e39\u0e48\u0e44\u0e21\u0e49\u0e17\u0e35\u0e48\u0e1e\u0e23\u0e30\u0e2d\u0e07\u0e04\u0e4c\u0e17\u0e23\u0e07\u0e0a\u0e37\u0e48\u0e19\u0e1e\u0e23\u0e30\u0e17\u0e31\u0e22 \u0e41\u0e25\u0e30\u0e1e\u0e23\u0e30\u0e2d\u0e07\u0e04\u0e4c\u0e17\u0e23\u0e07\u0e21\u0e38\u0e48\u0e07\u0e2b\u0e27\u0e31\u0e07\u0e04\u0e27\u0e32\u0e21\u0e22\u0e38\u0e15\u0e34\u0e18\u0e23\u0e23\u0e21 \u0e41\u0e15\u0e48\u0e14\u0e39\u0e40\u0e16\u0e34\u0e14 \u0e21\u0e35\u0e41\u0e15\u0e48\u0e01\u0e32\u0e23\u0e19\u0e2d\u0e07\u0e40\u0e25\u0e37\u0e2d\u0e14 \u0e2b\u0e27\u0e31\u0e07\u0e04\u0e27\u0e32\u0e21\u0e0a\u0e2d\u0e1a\u0e18\u0e23\u0e23\u0e21 \u0e41\u0e15\u0e48 \u0e14\u0e39\u0e40\u0e16\u0e34\u0e14 \u0e40\u0e2a\u0e35\u0e22\u0e07\u0e23\u0e49\u0e2d\u0e07\u0e43\u0e2b\u0e49\u0e0a\u0e48\u0e27\u0e22"
        },
        {
            "chapter": 5,
            "verse": 8,
            "name": "Isaiah 5:8",
            "text": "\u0e27\u0e34\u0e1a\u0e31\u0e15\u0e34\u0e41\u0e01\u0e48\u0e1c\u0e39\u0e49\u0e40\u0e2b\u0e25\u0e48\u0e32\u0e19\u0e31\u0e49\u0e19\u0e17\u0e35\u0e48\u0e40\u0e2a\u0e23\u0e34\u0e21\u0e1a\u0e49\u0e32\u0e19\u0e2b\u0e25\u0e31\u0e07\u0e2b\u0e19\u0e36\u0e48\u0e07\u0e40\u0e02\u0e49\u0e32\u0e01\u0e31\u0e1a\u0e2d\u0e35\u0e01\u0e2b\u0e25\u0e31\u0e07\u0e2b\u0e19\u0e36\u0e48\u0e07 \u0e41\u0e25\u0e30\u0e40\u0e2a\u0e23\u0e34\u0e21\u0e19\u0e32\u0e40\u0e02\u0e49\u0e32\u0e01\u0e31\u0e1a\u0e19\u0e32 \u0e08\u0e19\u0e44\u0e21\u0e48\u0e21\u0e35\u0e17\u0e35\u0e48\u0e2d\u0e35\u0e01\u0e41\u0e25\u0e49\u0e27 \u0e40\u0e1e\u0e37\u0e48\u0e2d\u0e40\u0e02\u0e32\u0e17\u0e31\u0e49\u0e07\u0e2b\u0e25\u0e32\u0e22\u0e15\u0e49\u0e2d\u0e07\u0e2d\u0e22\u0e39\u0e48\u0e25\u0e33\u0e1e\u0e31\u0e07\u0e43\u0e19\u0e17\u0e48\u0e32\u0e21\u0e01\u0e25\u0e32\u0e07\u0e41\u0e1c\u0e48\u0e19\u0e14\u0e34\u0e19\u0e19\u0e31\u0e49\u0e19"
        },
        {
            "chapter": 5,
            "verse": 9,
            "name": "Isaiah 5:9",
            "text": "\u0e1e\u0e23\u0e30\u0e40\u0e22\u0e42\u0e2e\u0e27\u0e32\u0e2b\u0e4c\u0e08\u0e2d\u0e21\u0e42\u0e22\u0e18\u0e32\u0e17\u0e23\u0e07\u0e01\u0e25\u0e48\u0e32\u0e27\u0e17\u0e35\u0e48\u0e2b\u0e39\u0e02\u0e2d\u0e07\u0e02\u0e49\u0e32\u0e1e\u0e40\u0e08\u0e49\u0e32\u0e27\u0e48\u0e32 \u201c\u0e40\u0e1b\u0e47\u0e19\u0e04\u0e27\u0e32\u0e21\u0e08\u0e23\u0e34\u0e07\u0e17\u0e35\u0e40\u0e14\u0e35\u0e22\u0e27 \u0e1a\u0e49\u0e32\u0e19\u0e2b\u0e25\u0e32\u0e22\u0e2b\u0e25\u0e31\u0e07\u0e08\u0e30\u0e15\u0e49\u0e2d\u0e07\u0e23\u0e01\u0e23\u0e49\u0e32\u0e07 \u0e1a\u0e49\u0e32\u0e19\u0e43\u0e2b\u0e0d\u0e48\u0e1a\u0e49\u0e32\u0e19\u0e07\u0e32\u0e21\u0e08\u0e30\u0e44\u0e21\u0e48\u0e21\u0e35\u0e04\u0e19\u0e2d\u0e32\u0e28\u0e31\u0e22"
        },
        {
            "chapter": 5,
            "verse": 10,
            "name": "Isaiah 5:10",
            "text": "\u0e40\u0e1e\u0e23\u0e32\u0e30\u0e27\u0e48\u0e32\u0e2a\u0e27\u0e19\u0e2d\u0e07\u0e38\u0e48\u0e19\u0e22\u0e35\u0e48\u0e2a\u0e34\u0e1a\u0e2b\u0e49\u0e32\u0e44\u0e23\u0e48\u0e08\u0e30\u0e44\u0e14\u0e49\u0e1c\u0e25\u0e41\u0e15\u0e48\u0e40\u0e1e\u0e35\u0e22\u0e07\u0e1a\u0e31\u0e17\u0e40\u0e14\u0e35\u0e22\u0e27 \u0e41\u0e25\u0e30\u0e40\u0e21\u0e25\u0e47\u0e14\u0e1e\u0e37\u0e0a\u0e2b\u0e19\u0e36\u0e48\u0e07\u0e42\u0e2e\u0e40\u0e21\u0e2d\u0e23\u0e4c\u0e08\u0e30\u0e43\u0e2b\u0e49\u0e1c\u0e25\u0e41\u0e15\u0e48\u0e40\u0e2d\u0e1f\u0e32\u0e2b\u0e4c\u0e40\u0e14\u0e35\u0e22\u0e27\u201d"
        },
        {
            "chapter": 5,
            "verse": 11,
            "name": "Isaiah 5:11",
            "text": "\u0e27\u0e34\u0e1a\u0e31\u0e15\u0e34\u0e41\u0e01\u0e48\u0e04\u0e19\u0e40\u0e2b\u0e25\u0e48\u0e32\u0e19\u0e31\u0e49\u0e19\u0e17\u0e35\u0e48\u0e25\u0e38\u0e01\u0e02\u0e36\u0e49\u0e19\u0e41\u0e15\u0e48\u0e40\u0e0a\u0e49\u0e32\u0e21\u0e37\u0e14 \u0e40\u0e1e\u0e37\u0e48\u0e2d\u0e27\u0e34\u0e48\u0e07\u0e44\u0e1b\u0e15\u0e32\u0e21\u0e40\u0e21\u0e23\u0e31\u0e22 \u0e1c\u0e39\u0e49\u0e40\u0e09\u0e37\u0e48\u0e2d\u0e22\u0e41\u0e09\u0e30\u0e2d\u0e22\u0e39\u0e48\u0e08\u0e19\u0e14\u0e36\u0e01 \u0e08\u0e19\u0e40\u0e2b\u0e25\u0e49\u0e32\u0e2d\u0e07\u0e38\u0e48\u0e19\u0e17\u0e33\u0e43\u0e2b\u0e49\u0e40\u0e02\u0e32\u0e40\u0e21\u0e32\u0e2b\u0e22\u0e33\u0e40\u0e1b"
        },
        {
            "chapter": 5,
            "verse": 12,
            "name": "Isaiah 5:12",
            "text": "\u0e40\u0e02\u0e32\u0e21\u0e35\u0e1e\u0e34\u0e13\u0e40\u0e02\u0e32\u0e04\u0e39\u0e48\u0e41\u0e25\u0e30\u0e1e\u0e34\u0e13\u0e43\u0e2b\u0e0d\u0e48 \u0e23\u0e33\u0e21\u0e30\u0e19\u0e32 \u0e1b\u0e35\u0e48 \u0e41\u0e25\u0e30\u0e40\u0e2b\u0e25\u0e49\u0e32\u0e2d\u0e07\u0e38\u0e48\u0e19 \u0e13 \u0e07\u0e32\u0e19\u0e40\u0e25\u0e35\u0e49\u0e22\u0e07\u0e02\u0e2d\u0e07\u0e40\u0e02\u0e32 \u0e41\u0e15\u0e48\u0e40\u0e02\u0e32\u0e17\u0e31\u0e49\u0e07\u0e2b\u0e25\u0e32\u0e22\u0e21\u0e34\u0e44\u0e14\u0e49\u0e40\u0e2d\u0e32\u0e43\u0e08\u0e43\u0e2a\u0e48\u0e43\u0e19\u0e1e\u0e23\u0e30\u0e23\u0e32\u0e0a\u0e01\u0e34\u0e08\u0e02\u0e2d\u0e07\u0e1e\u0e23\u0e30\u0e40\u0e22\u0e42\u0e2e\u0e27\u0e32\u0e2b\u0e4c \u0e2b\u0e23\u0e37\u0e2d\u0e1e\u0e34\u0e08\u0e32\u0e23\u0e13\u0e32\u0e1e\u0e23\u0e30\u0e2b\u0e31\u0e15\u0e16\u0e01\u0e34\u0e08\u0e02\u0e2d\u0e07\u0e1e\u0e23\u0e30\u0e2d\u0e07\u0e04\u0e4c"
        },
        {
            "chapter": 5,
            "verse": 13,
            "name": "Isaiah 5:13",
            "text": "\u0e40\u0e1e\u0e23\u0e32\u0e30\u0e09\u0e30\u0e19\u0e31\u0e49\u0e19\u0e0a\u0e19\u0e0a\u0e32\u0e15\u0e34\u0e02\u0e2d\u0e07\u0e40\u0e23\u0e32\u0e08\u0e36\u0e07\u0e15\u0e01\u0e44\u0e1b\u0e40\u0e1b\u0e47\u0e19\u0e40\u0e0a\u0e25\u0e22 \u0e40\u0e1e\u0e23\u0e32\u0e30\u0e02\u0e32\u0e14\u0e04\u0e27\u0e32\u0e21\u0e23\u0e39\u0e49 \u0e1c\u0e39\u0e49\u0e21\u0e35\u0e40\u0e01\u0e35\u0e22\u0e23\u0e15\u0e34\u0e02\u0e2d\u0e07\u0e40\u0e02\u0e32\u0e01\u0e47\u0e2b\u0e34\u0e27\u0e41\u0e22\u0e48 \u0e41\u0e25\u0e30\u0e21\u0e27\u0e25\u0e0a\u0e19\u0e02\u0e2d\u0e07\u0e40\u0e02\u0e32\u0e01\u0e47\u0e41\u0e2b\u0e49\u0e07\u0e1c\u0e32\u0e01\u0e44\u0e1b\u0e40\u0e1e\u0e23\u0e32\u0e30\u0e04\u0e27\u0e32\u0e21\u0e01\u0e23\u0e30\u0e2b\u0e32\u0e22"
        },
        {
            "chapter": 5,
            "verse": 14,
            "name": "Isaiah 5:14",
            "text": "\u0e40\u0e1e\u0e23\u0e32\u0e30\u0e09\u0e30\u0e19\u0e31\u0e49\u0e19\u0e19\u0e23\u0e01\u0e01\u0e47\u0e02\u0e22\u0e32\u0e22\u0e17\u0e35\u0e48\u0e02\u0e2d\u0e07\u0e21\u0e31\u0e19\u0e2d\u0e2d\u0e01 \u0e41\u0e25\u0e30\u0e2d\u0e49\u0e32\u0e1b\u0e32\u0e01\u0e40\u0e2a\u0e35\u0e22\u0e42\u0e14\u0e22\u0e44\u0e21\u0e48\u0e08\u0e33\u0e01\u0e31\u0e14 \u0e41\u0e25\u0e30\u0e2a\u0e07\u0e48\u0e32\u0e23\u0e32\u0e28\u0e35\u0e02\u0e2d\u0e07\u0e40\u0e02\u0e32 \u0e41\u0e25\u0e30\u0e21\u0e27\u0e25\u0e0a\u0e19\u0e02\u0e2d\u0e07\u0e40\u0e02\u0e32 \u0e41\u0e25\u0e30\u0e40\u0e2a\u0e35\u0e22\u0e07\u0e2d\u0e36\u0e07\u0e04\u0e30\u0e19\u0e36\u0e07\u0e02\u0e2d\u0e07\u0e40\u0e02\u0e32 \u0e41\u0e25\u0e30\u0e1c\u0e39\u0e49\u0e40\u0e23\u0e34\u0e07\u0e42\u0e25\u0e14\u0e2d\u0e22\u0e39\u0e48 \u0e01\u0e47\u0e08\u0e30\u0e25\u0e07\u0e44\u0e1b"
        },
        {
            "chapter": 5,
            "verse": 15,
            "name": "Isaiah 5:15",
            "text": "\u0e04\u0e19\u0e15\u0e48\u0e33\u0e15\u0e49\u0e2d\u0e22\u0e08\u0e36\u0e07\u0e08\u0e30\u0e01\u0e23\u0e32\u0e1a\u0e25\u0e07 \u0e41\u0e25\u0e30\u0e04\u0e19\u0e40\u0e02\u0e49\u0e21\u0e41\u0e02\u0e47\u0e07\u0e01\u0e47\u0e16\u0e48\u0e2d\u0e21\u0e15\u0e31\u0e27\u0e25\u0e07 \u0e41\u0e25\u0e30\u0e19\u0e31\u0e22\u0e19\u0e4c\u0e15\u0e32\u0e02\u0e2d\u0e07\u0e1c\u0e39\u0e49\u0e1c\u0e22\u0e2d\u0e07\u0e01\u0e47\u0e16\u0e39\u0e01\u0e25\u0e14\u0e15\u0e48\u0e33\u0e25\u0e07"
        },
        {
            "chapter": 5,
            "verse": 16,
            "name": "Isaiah 5:16",
            "text": "\u0e41\u0e15\u0e48\u0e1e\u0e23\u0e30\u0e40\u0e22\u0e42\u0e2e\u0e27\u0e32\u0e2b\u0e4c\u0e08\u0e2d\u0e21\u0e42\u0e22\u0e18\u0e32\u0e08\u0e30\u0e44\u0e14\u0e49\u0e23\u0e31\u0e1a\u0e01\u0e32\u0e23\u0e40\u0e17\u0e34\u0e14\u0e17\u0e39\u0e19\u0e44\u0e27\u0e49\u0e42\u0e14\u0e22\u0e04\u0e27\u0e32\u0e21\u0e22\u0e38\u0e15\u0e34\u0e18\u0e23\u0e23\u0e21 \u0e41\u0e25\u0e30\u0e1e\u0e23\u0e30\u0e40\u0e08\u0e49\u0e32\u0e2d\u0e07\u0e04\u0e4c\u0e1a\u0e23\u0e34\u0e2a\u0e38\u0e17\u0e18\u0e34\u0e4c\u0e08\u0e30\u0e44\u0e14\u0e49\u0e17\u0e23\u0e07\u0e2a\u0e33\u0e41\u0e14\u0e07\u0e04\u0e27\u0e32\u0e21\u0e1a\u0e23\u0e34\u0e2a\u0e38\u0e17\u0e18\u0e34\u0e4c\u0e42\u0e14\u0e22\u0e04\u0e27\u0e32\u0e21\u0e0a\u0e2d\u0e1a\u0e18\u0e23\u0e23\u0e21"
        },
        {
            "chapter": 5,
            "verse": 17,
            "name": "Isaiah 5:17",
            "text": "\u0e41\u0e25\u0e49\u0e27\u0e25\u0e39\u0e01\u0e41\u0e01\u0e30\u0e08\u0e30\u0e40\u0e17\u0e35\u0e48\u0e22\u0e27\u0e2b\u0e32\u0e01\u0e34\u0e19\u0e17\u0e35\u0e48\u0e19\u0e31\u0e48\u0e19\u0e15\u0e32\u0e21\u0e25\u0e31\u0e01\u0e29\u0e13\u0e30\u0e17\u0e48\u0e32\u0e17\u0e32\u0e07\u0e02\u0e2d\u0e07\u0e21\u0e31\u0e19 \u0e04\u0e19\u0e41\u0e1b\u0e25\u0e01\u0e2b\u0e19\u0e49\u0e32\u0e08\u0e30\u0e2b\u0e32\u0e01\u0e34\u0e19\u0e43\u0e19\u0e17\u0e35\u0e48\u0e1b\u0e23\u0e31\u0e01\u0e2b\u0e31\u0e01\u0e1e\u0e31\u0e07\u0e02\u0e2d\u0e07\u0e2a\u0e31\u0e15\u0e27\u0e4c\u0e17\u0e35\u0e48\u0e2d\u0e49\u0e27\u0e19"
        },
        {
            "chapter": 5,
            "verse": 18,
            "name": "Isaiah 5:18",
            "text": "\u0e27\u0e34\u0e1a\u0e31\u0e15\u0e34\u0e41\u0e01\u0e48\u0e04\u0e19\u0e40\u0e2b\u0e25\u0e48\u0e32\u0e19\u0e31\u0e49\u0e19\u0e17\u0e35\u0e48\u0e25\u0e32\u0e01\u0e04\u0e27\u0e32\u0e21\u0e0a\u0e31\u0e48\u0e27\u0e0a\u0e49\u0e32\u0e14\u0e49\u0e27\u0e22\u0e2a\u0e32\u0e22\u0e02\u0e2d\u0e07\u0e04\u0e27\u0e32\u0e21\u0e44\u0e23\u0e49\u0e2a\u0e32\u0e23\u0e30 \u0e1c\u0e39\u0e49\u0e25\u0e32\u0e01\u0e1a\u0e32\u0e1b\u0e2d\u0e22\u0e48\u0e32\u0e07\u0e01\u0e31\u0e1a\u0e43\u0e0a\u0e49\u0e40\u0e0a\u0e37\u0e2d\u0e01\u0e42\u0e22\u0e07\u0e40\u0e01\u0e27\u0e35\u0e22\u0e19"
        },
        {
            "chapter": 5,
            "verse": 19,
            "name": "Isaiah 5:19",
            "text": "\u0e1c\u0e39\u0e49\u0e01\u0e25\u0e48\u0e32\u0e27\u0e27\u0e48\u0e32 \u201c\u0e43\u0e2b\u0e49\u0e1e\u0e23\u0e30\u0e2d\u0e07\u0e04\u0e4c\u0e23\u0e35\u0e1a\u0e23\u0e49\u0e2d\u0e19 \u0e43\u0e2b\u0e49\u0e1e\u0e23\u0e30\u0e2d\u0e07\u0e04\u0e4c\u0e40\u0e23\u0e48\u0e07\u0e07\u0e32\u0e19\u0e02\u0e2d\u0e07\u0e1e\u0e23\u0e30\u0e2d\u0e07\u0e04\u0e4c \u0e40\u0e1e\u0e37\u0e48\u0e2d\u0e40\u0e23\u0e32\u0e08\u0e30\u0e44\u0e14\u0e49\u0e40\u0e2b\u0e47\u0e19 \u0e43\u0e2b\u0e49\u0e1e\u0e23\u0e30\u0e1b\u0e23\u0e30\u0e2a\u0e07\u0e04\u0e4c\u0e02\u0e2d\u0e07\u0e2d\u0e07\u0e04\u0e4c\u0e1c\u0e39\u0e49\u0e1a\u0e23\u0e34\u0e2a\u0e38\u0e17\u0e18\u0e34\u0e4c\u0e41\u0e2b\u0e48\u0e07\u0e2d\u0e34\u0e2a\u0e23\u0e32\u0e40\u0e2d\u0e25\u0e40\u0e2a\u0e14\u0e47\u0e08\u0e21\u0e32\u0e43\u0e01\u0e25\u0e49 \u0e02\u0e2d\u0e43\u0e2b\u0e49\u0e21\u0e32\u0e40\u0e1e\u0e37\u0e48\u0e2d\u0e40\u0e23\u0e32\u0e08\u0e30\u0e44\u0e14\u0e49\u0e23\u0e39\u0e49\u201d"
        },
        {
            "chapter": 5,
            "verse": 20,
            "name": "Isaiah 5:20",
            "text": "\u0e27\u0e34\u0e1a\u0e31\u0e15\u0e34\u0e41\u0e01\u0e48\u0e04\u0e19\u0e40\u0e2b\u0e25\u0e48\u0e32\u0e19\u0e31\u0e49\u0e19\u0e17\u0e35\u0e48\u0e40\u0e23\u0e35\u0e22\u0e01\u0e04\u0e27\u0e32\u0e21\u0e0a\u0e31\u0e48\u0e27\u0e23\u0e49\u0e32\u0e22\u0e27\u0e48\u0e32\u0e04\u0e27\u0e32\u0e21\u0e14\u0e35 \u0e41\u0e25\u0e30\u0e04\u0e27\u0e32\u0e21\u0e14\u0e35\u0e27\u0e48\u0e32\u0e04\u0e27\u0e32\u0e21\u0e0a\u0e31\u0e48\u0e27\u0e23\u0e49\u0e32\u0e22 \u0e1c\u0e39\u0e49\u0e16\u0e37\u0e2d\u0e40\u0e2d\u0e32\u0e27\u0e48\u0e32\u0e04\u0e27\u0e32\u0e21\u0e21\u0e37\u0e14\u0e40\u0e1b\u0e47\u0e19\u0e04\u0e27\u0e32\u0e21\u0e2a\u0e27\u0e48\u0e32\u0e07 \u0e41\u0e25\u0e30\u0e04\u0e27\u0e32\u0e21\u0e2a\u0e27\u0e48\u0e32\u0e07\u0e40\u0e1b\u0e47\u0e19\u0e04\u0e27\u0e32\u0e21\u0e21\u0e37\u0e14 \u0e1c\u0e39\u0e49\u0e16\u0e37\u0e2d\u0e40\u0e2d\u0e32\u0e27\u0e48\u0e32\u0e04\u0e27\u0e32\u0e21\u0e02\u0e21\u0e40\u0e1b\u0e47\u0e19\u0e04\u0e27\u0e32\u0e21\u0e2b\u0e27\u0e32\u0e19 \u0e41\u0e25\u0e30\u0e04\u0e27\u0e32\u0e21\u0e2b\u0e27\u0e32\u0e19\u0e40\u0e1b\u0e47\u0e19\u0e04\u0e27\u0e32\u0e21\u0e02\u0e21"
        },
        {
            "chapter": 5,
            "verse": 21,
            "name": "Isaiah 5:21",
            "text": "\u0e27\u0e34\u0e1a\u0e31\u0e15\u0e34\u0e41\u0e01\u0e48\u0e04\u0e19\u0e40\u0e2b\u0e25\u0e48\u0e32\u0e19\u0e31\u0e49\u0e19\u0e17\u0e35\u0e48\u0e09\u0e25\u0e32\u0e14\u0e15\u0e32\u0e21\u0e2a\u0e32\u0e22\u0e15\u0e32\u0e02\u0e2d\u0e07\u0e15\u0e19\u0e40\u0e2d\u0e07 \u0e41\u0e25\u0e30\u0e2a\u0e38\u0e02\u0e38\u0e21\u0e23\u0e2d\u0e1a\u0e04\u0e2d\u0e1a\u0e43\u0e19\u0e2a\u0e32\u0e22\u0e15\u0e32\u0e02\u0e2d\u0e07\u0e15\u0e19\u0e40\u0e2d\u0e07"
        },
        {
            "chapter": 5,
            "verse": 22,
            "name": "Isaiah 5:22",
            "text": "\u0e27\u0e34\u0e1a\u0e31\u0e15\u0e34\u0e41\u0e01\u0e48\u0e04\u0e19\u0e40\u0e2b\u0e25\u0e48\u0e32\u0e19\u0e31\u0e49\u0e19\u0e17\u0e35\u0e48\u0e40\u0e01\u0e48\u0e07\u0e01\u0e25\u0e49\u0e32\u0e43\u0e19\u0e01\u0e32\u0e23\u0e14\u0e37\u0e48\u0e21\u0e40\u0e2b\u0e25\u0e49\u0e32\u0e2d\u0e07\u0e38\u0e48\u0e19 \u0e41\u0e25\u0e30\u0e40\u0e1b\u0e47\u0e19\u0e04\u0e19\u0e41\u0e01\u0e25\u0e49\u0e27\u0e01\u0e25\u0e49\u0e32\u0e43\u0e19\u0e01\u0e32\u0e23\u0e1b\u0e23\u0e30\u0e2a\u0e21\u0e40\u0e21\u0e23\u0e31\u0e22"
        },
        {
            "chapter": 5,
            "verse": 23,
            "name": "Isaiah 5:23",
            "text": "\u0e1c\u0e39\u0e49\u0e1b\u0e25\u0e48\u0e2d\u0e22\u0e15\u0e31\u0e27\u0e04\u0e19\u0e17\u0e33\u0e1c\u0e34\u0e14\u0e40\u0e1e\u0e23\u0e32\u0e30\u0e40\u0e02\u0e32\u0e23\u0e31\u0e1a\u0e2a\u0e34\u0e19\u0e1a\u0e19 \u0e41\u0e25\u0e30\u0e40\u0e2d\u0e32\u0e04\u0e27\u0e32\u0e21\u0e0a\u0e2d\u0e1a\u0e18\u0e23\u0e23\u0e21\u0e44\u0e1b\u0e08\u0e32\u0e01\u0e1c\u0e39\u0e49\u0e0a\u0e2d\u0e1a\u0e18\u0e23\u0e23\u0e21"
        },
        {
            "chapter": 5,
            "verse": 24,
            "name": "Isaiah 5:24",
            "text": "\u0e14\u0e31\u0e07\u0e19\u0e31\u0e49\u0e19\u0e40\u0e1b\u0e25\u0e27\u0e40\u0e1e\u0e25\u0e34\u0e07\u0e01\u0e25\u0e37\u0e19\u0e15\u0e2d\u0e02\u0e49\u0e32\u0e27\u0e09\u0e31\u0e19\u0e43\u0e14 \u0e41\u0e25\u0e30\u0e40\u0e1e\u0e25\u0e34\u0e07\u0e40\u0e1c\u0e32\u0e1c\u0e25\u0e32\u0e0d\u0e2b\u0e0d\u0e49\u0e32\u0e41\u0e2b\u0e49\u0e07\u0e09\u0e31\u0e19\u0e43\u0e14 \u0e23\u0e32\u0e01\u0e02\u0e2d\u0e07\u0e40\u0e02\u0e32\u0e01\u0e47\u0e08\u0e30\u0e40\u0e1b\u0e47\u0e19\u0e40\u0e2b\u0e21\u0e37\u0e2d\u0e19\u0e04\u0e27\u0e32\u0e21\u0e40\u0e1b\u0e37\u0e48\u0e2d\u0e22\u0e40\u0e19\u0e48\u0e32 \u0e41\u0e25\u0e30\u0e14\u0e2d\u0e01\u0e1a\u0e32\u0e19\u0e02\u0e2d\u0e07\u0e40\u0e02\u0e32\u0e08\u0e30\u0e1f\u0e38\u0e49\u0e07\u0e44\u0e1b\u0e40\u0e2b\u0e21\u0e37\u0e2d\u0e19\u0e1c\u0e07\u0e04\u0e25\u0e35\u0e09\u0e31\u0e19\u0e19\u0e31\u0e49\u0e19 \u0e40\u0e1e\u0e23\u0e32\u0e30\u0e40\u0e02\u0e32\u0e17\u0e31\u0e49\u0e07\u0e2b\u0e25\u0e32\u0e22\u0e17\u0e2d\u0e14\u0e17\u0e34\u0e49\u0e07\u0e1e\u0e23\u0e30\u0e23\u0e32\u0e0a\u0e1a\u0e31\u0e0d\u0e0d\u0e31\u0e15\u0e34\u0e02\u0e2d\u0e07\u0e1e\u0e23\u0e30\u0e40\u0e22\u0e42\u0e2e\u0e27\u0e32\u0e2b\u0e4c\u0e08\u0e2d\u0e21\u0e42\u0e22\u0e18\u0e32 \u0e41\u0e25\u0e30\u0e44\u0e14\u0e49\u0e14\u0e39\u0e2b\u0e21\u0e34\u0e48\u0e19\u0e1e\u0e23\u0e30\u0e27\u0e08\u0e19\u0e30\u0e02\u0e2d\u0e07\u0e2d\u0e07\u0e04\u0e4c\u0e1a\u0e23\u0e34\u0e2a\u0e38\u0e17\u0e18\u0e34\u0e4c\u0e41\u0e2b\u0e48\u0e07\u0e2d\u0e34\u0e2a\u0e23\u0e32\u0e40\u0e2d\u0e25"
        },
        {
            "chapter": 5,
            "verse": 25,
            "name": "Isaiah 5:25",
            "text": "\u0e40\u0e2b\u0e15\u0e38\u0e09\u0e30\u0e19\u0e31\u0e49\u0e19\u0e1e\u0e23\u0e30\u0e1e\u0e34\u0e42\u0e23\u0e18\u0e02\u0e2d\u0e07\u0e1e\u0e23\u0e30\u0e40\u0e22\u0e42\u0e2e\u0e27\u0e32\u0e2b\u0e4c\u0e08\u0e36\u0e07\u0e1e\u0e25\u0e38\u0e48\u0e07\u0e02\u0e36\u0e49\u0e19\u0e15\u0e48\u0e2d\u0e0a\u0e19\u0e0a\u0e32\u0e15\u0e34\u0e02\u0e2d\u0e07\u0e1e\u0e23\u0e30\u0e2d\u0e07\u0e04\u0e4c \u0e41\u0e25\u0e30\u0e1e\u0e23\u0e30\u0e2d\u0e07\u0e04\u0e4c\u0e17\u0e23\u0e07\u0e40\u0e2b\u0e22\u0e35\u0e22\u0e14\u0e1e\u0e23\u0e30\u0e2b\u0e31\u0e15\u0e16\u0e4c\u0e02\u0e2d\u0e07\u0e1e\u0e23\u0e30\u0e2d\u0e07\u0e04\u0e4c\u0e2d\u0e2d\u0e01\u0e2a\u0e39\u0e49\u0e40\u0e02\u0e32\u0e41\u0e25\u0e30\u0e15\u0e35\u0e40\u0e02\u0e32 \u0e41\u0e25\u0e30\u0e20\u0e39\u0e40\u0e02\u0e32\u0e17\u0e31\u0e49\u0e07\u0e2b\u0e25\u0e32\u0e22\u0e01\u0e47\u0e2a\u0e31\u0e48\u0e19\u0e2a\u0e30\u0e40\u0e17\u0e37\u0e2d\u0e19 \u0e41\u0e25\u0e30\u0e0b\u0e32\u0e01\u0e28\u0e1e\u0e02\u0e2d\u0e07\u0e40\u0e02\u0e32\u0e17\u0e31\u0e49\u0e07\u0e2b\u0e25\u0e32\u0e22\u0e16\u0e39\u0e01\u0e09\u0e35\u0e01\u0e02\u0e32\u0e14\u0e01\u0e25\u0e32\u0e07\u0e16\u0e19\u0e19 \u0e16\u0e36\u0e07\u0e01\u0e23\u0e30\u0e19\u0e31\u0e49\u0e19\u0e01\u0e47\u0e14\u0e35 \u0e1e\u0e23\u0e30\u0e1e\u0e34\u0e42\u0e23\u0e18\u0e02\u0e2d\u0e07\u0e1e\u0e23\u0e30\u0e2d\u0e07\u0e04\u0e4c\u0e01\u0e47\u0e21\u0e34\u0e44\u0e14\u0e49\u0e2b\u0e31\u0e19\u0e01\u0e25\u0e31\u0e1a \u0e41\u0e15\u0e48\u0e1e\u0e23\u0e30\u0e2b\u0e31\u0e15\u0e16\u0e4c\u0e02\u0e2d\u0e07\u0e1e\u0e23\u0e30\u0e2d\u0e07\u0e04\u0e4c\u0e01\u0e47\u0e22\u0e31\u0e07\u0e40\u0e2b\u0e22\u0e35\u0e22\u0e14\u0e2d\u0e2d\u0e01\u0e2d\u0e22\u0e39\u0e48"
        },
        {
            "chapter": 5,
            "verse": 26,
            "name": "Isaiah 5:26",
            "text": "\u0e1e\u0e23\u0e30\u0e2d\u0e07\u0e04\u0e4c\u0e08\u0e30\u0e17\u0e23\u0e07\u0e22\u0e01\u0e2d\u0e32\u0e13\u0e31\u0e15\u0e34\u0e2a\u0e31\u0e0d\u0e0d\u0e32\u0e13\u0e43\u0e2b\u0e49\u0e41\u0e01\u0e48\u0e1b\u0e23\u0e30\u0e0a\u0e32\u0e0a\u0e32\u0e15\u0e34\u0e17\u0e35\u0e48\u0e2b\u0e48\u0e32\u0e07\u0e44\u0e01\u0e25 \u0e41\u0e25\u0e30\u0e08\u0e30\u0e17\u0e23\u0e07\u0e1c\u0e34\u0e27\u0e1e\u0e23\u0e30\u0e42\u0e2d\u0e29\u0e10\u0e4c\u0e40\u0e23\u0e35\u0e22\u0e01\u0e40\u0e02\u0e32\u0e21\u0e32\u0e08\u0e32\u0e01\u0e17\u0e35\u0e48\u0e2a\u0e38\u0e14\u0e1b\u0e25\u0e32\u0e22\u0e41\u0e1c\u0e48\u0e19\u0e14\u0e34\u0e19\u0e42\u0e25\u0e01 \u0e41\u0e25\u0e30\u0e14\u0e39\u0e40\u0e16\u0e34\u0e14 \u0e40\u0e02\u0e32\u0e08\u0e30\u0e21\u0e32\u0e2d\u0e22\u0e48\u0e32\u0e07\u0e40\u0e23\u0e47\u0e27\u0e41\u0e25\u0e30\u0e23\u0e35\u0e1a\u0e40\u0e23\u0e48\u0e07"
        },
        {
            "chapter": 5,
            "verse": 27,
            "name": "Isaiah 5:27",
            "text": "\u0e44\u0e21\u0e48\u0e21\u0e35\u0e1c\u0e39\u0e49\u0e43\u0e14\u0e43\u0e19\u0e1e\u0e27\u0e01\u0e40\u0e02\u0e32\u0e08\u0e30\u0e2d\u0e48\u0e2d\u0e19\u0e40\u0e1b\u0e25\u0e35\u0e49\u0e22 \u0e44\u0e21\u0e48\u0e21\u0e35\u0e1c\u0e39\u0e49\u0e43\u0e14\u0e08\u0e30\u0e2a\u0e30\u0e14\u0e38\u0e14 \u0e44\u0e21\u0e48\u0e21\u0e35\u0e1c\u0e39\u0e49\u0e43\u0e14\u0e08\u0e30\u0e2b\u0e25\u0e31\u0e1a\u0e2a\u0e19\u0e34\u0e17\u0e2b\u0e23\u0e37\u0e2d\u0e19\u0e34\u0e17\u0e23\u0e32 \u0e1c\u0e49\u0e32\u0e04\u0e32\u0e14\u0e40\u0e2d\u0e27\u0e2a\u0e31\u0e01\u0e1c\u0e37\u0e19\u0e2b\u0e19\u0e36\u0e48\u0e07\u0e01\u0e47\u0e08\u0e30\u0e44\u0e21\u0e48\u0e2b\u0e25\u0e38\u0e14\u0e25\u0e38\u0e48\u0e22 \u0e2a\u0e32\u0e22\u0e23\u0e31\u0e14\u0e23\u0e2d\u0e07\u0e40\u0e17\u0e49\u0e32\u0e01\u0e47\u0e08\u0e30\u0e44\u0e21\u0e48\u0e02\u0e32\u0e14\u0e2a\u0e31\u0e01\u0e2a\u0e32\u0e22\u0e2b\u0e19\u0e36\u0e48\u0e07"
        },
        {
            "chapter": 5,
            "verse": 28,
            "name": "Isaiah 5:28",
            "text": "\u0e25\u0e39\u0e01\u0e18\u0e19\u0e39\u0e02\u0e2d\u0e07\u0e40\u0e02\u0e32\u0e01\u0e47\u0e41\u0e2b\u0e25\u0e21 \u0e1a\u0e23\u0e23\u0e14\u0e32\u0e04\u0e31\u0e19\u0e18\u0e19\u0e39\u0e02\u0e2d\u0e07\u0e40\u0e02\u0e32\u0e01\u0e47\u0e01\u0e48\u0e07\u0e44\u0e27\u0e49 \u0e01\u0e35\u0e1a\u0e21\u0e49\u0e32\u0e17\u0e31\u0e49\u0e07\u0e2b\u0e25\u0e32\u0e22\u0e02\u0e2d\u0e07\u0e40\u0e02\u0e32\u0e08\u0e30\u0e40\u0e2b\u0e21\u0e37\u0e2d\u0e19\u0e01\u0e31\u0e1a\u0e2b\u0e34\u0e19\u0e40\u0e2b\u0e25\u0e47\u0e01\u0e44\u0e1f \u0e41\u0e25\u0e30\u0e25\u0e49\u0e2d\u0e02\u0e2d\u0e07\u0e40\u0e02\u0e32\u0e17\u0e31\u0e49\u0e07\u0e2b\u0e25\u0e32\u0e22\u0e40\u0e2b\u0e21\u0e37\u0e2d\u0e19\u0e25\u0e21\u0e2b\u0e21\u0e38\u0e19"
        },
        {
            "chapter": 5,
            "verse": 29,
            "name": "Isaiah 5:29",
            "text": "\u0e40\u0e2a\u0e35\u0e22\u0e07\u0e04\u0e33\u0e23\u0e32\u0e21\u0e02\u0e2d\u0e07\u0e40\u0e02\u0e32\u0e08\u0e30\u0e40\u0e2b\u0e21\u0e37\u0e2d\u0e19\u0e2a\u0e34\u0e07\u0e42\u0e15 \u0e40\u0e2b\u0e21\u0e37\u0e2d\u0e19\u0e2a\u0e34\u0e07\u0e42\u0e15\u0e2b\u0e19\u0e38\u0e48\u0e21 \u0e40\u0e02\u0e32\u0e40\u0e2b\u0e25\u0e48\u0e32\u0e19\u0e31\u0e49\u0e19\u0e08\u0e30\u0e04\u0e33\u0e23\u0e32\u0e21 \u0e40\u0e02\u0e32\u0e08\u0e30\u0e04\u0e33\u0e23\u0e19\u0e41\u0e25\u0e30\u0e15\u0e30\u0e04\u0e23\u0e38\u0e1a\u0e40\u0e2b\u0e22\u0e37\u0e48\u0e2d\u0e02\u0e2d\u0e07\u0e40\u0e02\u0e32 \u0e41\u0e25\u0e30\u0e40\u0e02\u0e32\u0e08\u0e30\u0e02\u0e19\u0e40\u0e2d\u0e32\u0e44\u0e1b\u0e40\u0e2a\u0e35\u0e22 \u0e41\u0e25\u0e30\u0e44\u0e21\u0e48\u0e21\u0e35\u0e1c\u0e39\u0e49\u0e43\u0e14\u0e0a\u0e48\u0e27\u0e22\u0e40\u0e2b\u0e22\u0e37\u0e48\u0e2d\u0e19\u0e31\u0e49\u0e19\u0e43\u0e2b\u0e49\u0e1e\u0e49\u0e19\u0e44\u0e1b\u0e44\u0e14\u0e49"
        },
        {
            "chapter": 5,
            "verse": 30,
            "name": "Isaiah 5:30",
            "text": "\u0e43\u0e19\u0e27\u0e31\u0e19\u0e19\u0e31\u0e49\u0e19\u0e40\u0e02\u0e32\u0e17\u0e31\u0e49\u0e07\u0e2b\u0e25\u0e32\u0e22\u0e08\u0e30\u0e04\u0e33\u0e23\u0e19\u0e40\u0e2b\u0e19\u0e37\u0e2d\u0e40\u0e2b\u0e22\u0e37\u0e48\u0e2d\u0e19\u0e31\u0e49\u0e19\u0e40\u0e2b\u0e21\u0e37\u0e2d\u0e19\u0e40\u0e2a\u0e35\u0e22\u0e07\u0e04\u0e30\u0e19\u0e2d\u0e07\u0e02\u0e2d\u0e07\u0e17\u0e30\u0e40\u0e25 \u0e41\u0e25\u0e30\u0e16\u0e49\u0e32\u0e21\u0e35\u0e1c\u0e39\u0e49\u0e2b\u0e19\u0e36\u0e48\u0e07\u0e1c\u0e39\u0e49\u0e43\u0e14\u0e21\u0e2d\u0e07\u0e17\u0e35\u0e48\u0e41\u0e1c\u0e48\u0e19\u0e14\u0e34\u0e19 \u0e14\u0e39\u0e40\u0e16\u0e34\u0e14 \u0e04\u0e27\u0e32\u0e21\u0e21\u0e37\u0e14\u0e41\u0e25\u0e30\u0e04\u0e27\u0e32\u0e21\u0e17\u0e38\u0e01\u0e02\u0e4c\u0e43\u0e08 \u0e41\u0e25\u0e30\u0e2a\u0e27\u0e48\u0e32\u0e07\u0e41\u0e2b\u0e48\u0e07\u0e1f\u0e49\u0e32\u0e2a\u0e27\u0e23\u0e23\u0e04\u0e4c\u0e01\u0e47\u0e21\u0e37\u0e14\u0e25\u0e07  "
        }
    ]
}