{
    "translation": "Giovanni Diodati Bible (1649)",
    "abbreviation": "giovanni",
    "lang": "it",
    "language": "Italian",
    "direction": "LTR",
    "encoding": "",
    "book_nr": 64,
    "book_name": "3 John",
    "chapter": 1,
    "name": "3 John 1",
    "verses": [
        {
            "chapter": 1,
            "verse": 1,
            "name": "3 John 1:1",
            "text": "L\u2019ANZIANO al diletto Gaio, il quale io amo in verit\u00e0.\r"
        },
        {
            "chapter": 1,
            "verse": 2,
            "name": "3 John 1:2",
            "text": "Diletto, io desidero che tu prosperi in ogni cosa e stii sano, siccome l\u2019anima tua prospera.\r"
        },
        {
            "chapter": 1,
            "verse": 3,
            "name": "3 John 1:3",
            "text": "Perciocch\u00e8 io mi son grandemente rallegrato, quando son venuti i fratelli, ed hanno reso testimonianza della tua verit\u00e0, secondo che tu cammini in verit\u00e0.\r"
        },
        {
            "chapter": 1,
            "verse": 4,
            "name": "3 John 1:4",
            "text": "Io non ho maggiore allegrezza di questa, d\u2019intendere che i miei figliuoli camminano in verit\u00e0.\r"
        },
        {
            "chapter": 1,
            "verse": 5,
            "name": "3 John 1:5",
            "text": "Diletto, tu fai da vero fedele, in ci\u00f2 che tu operi inverso i fratelli, e inverso i forestieri.\r"
        },
        {
            "chapter": 1,
            "verse": 6,
            "name": "3 John 1:6",
            "text": "I quali hanno reso testimonianza della tua carit\u00e0 nel cospetto della chiesa; i quali farai bene d\u2019accomiatar degnamente, secondo Iddio.\r"
        },
        {
            "chapter": 1,
            "verse": 7,
            "name": "3 John 1:7",
            "text": "Poich\u00e8 si sono dipartiti da\u2019 Gentili per lo suo nome, senza prender nulla;\r"
        },
        {
            "chapter": 1,
            "verse": 8,
            "name": "3 John 1:8",
            "text": "noi adunque dobbiamo accoglier que\u2019 tali, acciocch\u00e8 siamo aiutatori alla verit\u00e0.\r"
        },
        {
            "chapter": 1,
            "verse": 9,
            "name": "3 John 1:9",
            "text": "IO ho scritto alla chiesa; ma Diotrefe, il qual procaccia il primato fra loro, non ci riceve.\r"
        },
        {
            "chapter": 1,
            "verse": 10,
            "name": "3 John 1:10",
            "text": "Perci\u00f2, se io vengo, ricorder\u00f2 le opere ch\u2019egli fa, cianciando di noi con malvage parole; e, non contento di questo, non solo egli non riceve i fratelli, ma ancora impedisce coloro che li vogliono ricevere, e li caccia fuor della chiesa.\r"
        },
        {
            "chapter": 1,
            "verse": 11,
            "name": "3 John 1:11",
            "text": "Diletto, non imitare il male, ma il bene; chi fa bene \u00e8 da Dio; ma chi fa male non ha veduto Iddio.\r"
        },
        {
            "chapter": 1,
            "verse": 12,
            "name": "3 John 1:12",
            "text": "A Demetrio \u00e8 resa testimonianza da tutti, e dalla verit\u00e0 stessa; ed ancora noi ne testimoniamo, e voi sapete che la nostra testimonianza \u00e8 vera.\r"
        },
        {
            "chapter": 1,
            "verse": 13,
            "name": "3 John 1:13",
            "text": "Io avea molte cose da scrivere, ma non voglio scrivertele con inchiostro, e con penna.\r"
        },
        {
            "chapter": 1,
            "verse": 14,
            "name": "3 John 1:14",
            "text": "Ma spero di vederti tosto, ed allora ci parleremo a bocca. Pace sia teco. Gli amici ti salutano. Saluta gli amici ad uno ad uno.\r"
        }
    ]
}