{
    "translation": "La Bible de Zadoc Khan",
    "abbreviation": "frekhan",
    "lang": "fr",
    "language": "French",
    "direction": "LTR",
    "encoding": "UTF-8",
    "book_nr": 26,
    "book_name": "Ezekiel",
    "chapter": 7,
    "name": "Ezekiel 7",
    "verses": [
        {
            "chapter": 7,
            "verse": 1,
            "name": "Ezekiel 7:1",
            "text": "La parole du Seigneur me fut adress\u00e9e en ces termes: "
        },
        {
            "chapter": 7,
            "verse": 2,
            "name": "Ezekiel 7:2",
            "text": "\"O toi, fils de l\u2019homme, ainsi a parl\u00e9 le Seigneur Dieu au pays d\u2019Isra\u00ebl: Fin! La fin est venue pour les quatre coins du pays. "
        },
        {
            "chapter": 7,
            "verse": 3,
            "name": "Ezekiel 7:3",
            "text": "Maintenant la fin est sur toi, je d\u00e9cha\u00eenerai ma col\u00e8re contre toi, je te jugerai selon tes voies, et ferai retomber sur toi toutes tes abominations. "
        },
        {
            "chapter": 7,
            "verse": 4,
            "name": "Ezekiel 7:4",
            "text": "Et mon oeil ne te prendra pas en piti\u00e9, je n\u2019aurai pas de compassion, car je ferai retomber sur toi ta conduite, et tes abominations se manifesteront au milieu de toi, et vous saurez que je suis l\u2019Eternel.\" "
        },
        {
            "chapter": 7,
            "verse": 5,
            "name": "Ezekiel 7:5",
            "text": "Ainsi a dit le Seigneur Dieu: \"Un malheur, voici qu\u2019un malheur est venu! "
        },
        {
            "chapter": 7,
            "verse": 6,
            "name": "Ezekiel 7:6",
            "text": "La fin est venue, elle est venue la fin, elle s\u2019est \u00e9veill\u00e9e contre toi, voil\u00e0 qu\u2019elle est venue! "
        },
        {
            "chapter": 7,
            "verse": 7,
            "name": "Ezekiel 7:7",
            "text": "L\u2019Aurore s\u2019est lev\u00e9e sur toi, habitant du pays, le temps est arriv\u00e9; il est proche, le jour; c\u2019est le d\u00e9sarroi et non les clameurs joyeuses sur les montagnes. "
        },
        {
            "chapter": 7,
            "verse": 8,
            "name": "Ezekiel 7:8",
            "text": "Maintenant, sans retard, je d\u00e9verserai mon courroux sur toi et j\u2019\u00e9puiserai contre toi ma col\u00e8re; je te jugerai selon tes voies, et te chargerai de toutes tes abominations. "
        },
        {
            "chapter": 7,
            "verse": 9,
            "name": "Ezekiel 7:9",
            "text": "Mon regard ne s\u2019attendrira pas et je n\u2019aurai pas piti\u00e9; selon tes voies je te punirai, et tes abominations se manifesteront dans ton sein, vous saurez ainsi que c\u2019est moi l\u2019Eternel 'qui frappe. "
        },
        {
            "chapter": 7,
            "verse": 10,
            "name": "Ezekiel 7:10",
            "text": "Voici le jour! Voici qu\u2019elle vient, qu\u2019elle pointe, l\u2019aurore; la verge a fleuri, l\u2019impudence est \u00e9close. "
        },
        {
            "chapter": 7,
            "verse": 11,
            "name": "Ezekiel 7:11",
            "text": "La violence se dresse en verge vengeresse de l\u2019iniquit\u00e9, rien d\u2019eux ne reste, ni de leur richesse, ni de leur multitude, pas m\u00eame de plaintes \u00e0 leur sujet. "
        },
        {
            "chapter": 7,
            "verse": 12,
            "name": "Ezekiel 7:12",
            "text": "Le temps est venu, le jour est arriv\u00e9; que l\u2019acqu\u00e9reur ne se r\u00e9jouisse pas, que le vendeur ne se d\u00e9sole pas; car la col\u00e8re \u00e9clate sur toute leur richesse. "
        },
        {
            "chapter": 7,
            "verse": 13,
            "name": "Ezekiel 7:13",
            "text": "Car le vendeur ne rentrera plus en possession de ce qu\u2019il a vendu, m\u00eame s\u2019il demeure encore en vie, car il y a une vision contre tout leur avoir, elle ne sera pas r\u00e9voqu\u00e9e, chacun a sa vie attach\u00e9e \u00e0 son p\u00e9ch\u00e9; ils ne se maintiendront pas. "
        },
        {
            "chapter": 7,
            "verse": 14,
            "name": "Ezekiel 7:14",
            "text": "Ils ont sonn\u00e9 de la trompette, on a pr\u00e9par\u00e9 tout, et personne ne part en guerre, car ma col\u00e8re est sur toute leur foule. "
        },
        {
            "chapter": 7,
            "verse": 15,
            "name": "Ezekiel 7:15",
            "text": "Le glaive est au dehors, et la peste et la famine \u00e0 l\u2019int\u00e9rieur; ceux des champs mourront par l\u2019\u00e9p\u00e9e, ceux de la ville, la famine et la peste les d\u00e9voreront. "
        },
        {
            "chapter": 7,
            "verse": 16,
            "name": "Ezekiel 7:16",
            "text": "Et s\u2019il en est qui sont \u00e9pargn\u00e9s, ils se sauveront et ils seront sur les montagnes comme les colombes des vall\u00e9es, toutes g\u00e9missantes, chacun pour son p\u00e9ch\u00e9. "
        },
        {
            "chapter": 7,
            "verse": 17,
            "name": "Ezekiel 7:17",
            "text": "Toutes les mains seront d\u00e9faillantes, et tous les genoux s\u2019en iront en eau. "
        },
        {
            "chapter": 7,
            "verse": 18,
            "name": "Ezekiel 7:18",
            "text": "Ils se ceindront de cilices, et l\u2019\u00e9pouvante les enveloppera, sur toutes les faces il y aura de la confusion et sur toutes leurs t\u00eates de la calvitie. "
        },
        {
            "chapter": 7,
            "verse": 19,
            "name": "Ezekiel 7:19",
            "text": "Leur argent, ils le jetteront dans les rues, et leur or sera un objet de r\u00e9pulsion; leur argent et leur or ne pourront les sauver au jour de la col\u00e8re du Seigneur, ils ne rassasieront pas leurs corps et leurs entrailles, ils ne les rempliront pas, car leur richesse les a fait tomber dans le crime. "
        },
        {
            "chapter": 7,
            "verse": 20,
            "name": "Ezekiel 7:20",
            "text": "De l\u2019\u00e9clat de leur parure, ils ont fait un sujet d\u2019orgueil, confectionn\u00e9 leurs idoles abominables, leurs horreurs; c\u2019est pourquoi j\u2019en fais pour eux un objet de r\u00e9pulsion. "
        },
        {
            "chapter": 7,
            "verse": 21,
            "name": "Ezekiel 7:21",
            "text": "Et je le donnerai en proie aux mains d\u2019\u00e9trangers et en butin aux impies de la terre et ils le profaneront. "
        },
        {
            "chapter": 7,
            "verse": 22,
            "name": "Ezekiel 7:22",
            "text": "Je d\u00e9tournerai d\u2019eux ma face, et on profanera le lieu de ma retraite; des gens de rapine y p\u00e9n\u00e9treront et le d\u00e9shonoreront. "
        },
        {
            "chapter": 7,
            "verse": 23,
            "name": "Ezekiel 7:23",
            "text": "Qu\u2019on pr\u00e9pare les cha\u00eenes, car le pays est plein de crimes m\u00e9ritant la mort et la ville est pleine d\u2019actes de violence. "
        },
        {
            "chapter": 7,
            "verse": 24,
            "name": "Ezekiel 7:24",
            "text": "J\u2019Am\u00e8nerai les plus m\u00e9chants d\u2019entre les nations et ils prendront possession de leurs maisons; je mettrai fin \u00e0 l\u2019orgueil des puissants et on s\u2019emparera de leurs sanctuaires. "
        },
        {
            "chapter": 7,
            "verse": 25,
            "name": "Ezekiel 7:25",
            "text": "Le frisson de la terreur survient, ils cherchent le salut, il n\u2019en est point! "
        },
        {
            "chapter": 7,
            "verse": 26,
            "name": "Ezekiel 7:26",
            "text": "Il arrive d\u00e9sastre sur d\u00e9sastre, et une mauvaise nouvelle suit une mauvaise nouvelle, on sollicitera une vision du proph\u00e8te, et l\u2019enseignement \u00e9chappera au pontife, et la sagesse aux vieillards. "
        },
        {
            "chapter": 7,
            "verse": 27,
            "name": "Ezekiel 7:27",
            "text": "Le roi prendra le deuil et le prince se v\u00eatira de stupeur, et les mains du vulgaire seront prises de tremblement; je les traiterai en raison de leurs actes, je les jugerai selon leurs jugements, et ils sauront que je suis l\u2019Eternel.\"  "
        }
    ]
}