{
    "translation": "Neue evangelistische \u00dcbersetzung",
    "abbreviation": "gerneue",
    "lang": "de",
    "language": "German",
    "direction": "LTR",
    "encoding": "UTF-8",
    "book_nr": 23,
    "book_name": "Isaiah",
    "chapter": 61,
    "name": "Isaiah 61",
    "verses": [
        {
            "chapter": 61,
            "verse": 1,
            "name": "Isaiah 61:1",
            "text": "Der Geist von Jahwe ruht auf mir, / denn Jahwe hat mich gesalbt. / Er hat mich gesandt, den Elenden gute Botschaft zu bringen / und zerbrochene Herzen zu verbinden; / den Gefangenen zu verk\u00fcnden: \"Ihr seid frei!\" / und den Gefesselten: \"Ihr seid los!\";"
        },
        {
            "chapter": 61,
            "verse": 2,
            "name": "Isaiah 61:2",
            "text": "um auszurufen das Gnadenjahr Jahwes / und den Tag der Rache f\u00fcr unseren Gott, / um alle Trauernden zu tr\u00f6sten"
        },
        {
            "chapter": 61,
            "verse": 3,
            "name": "Isaiah 61:3",
            "text": "und den Trauernden Zions Freude zu bringen. / Schmuck bekommen sie anstelle von Schmutz, / Freuden\u00f6l statt Trauersack, / Jubellieder statt Mutlosigkeit. / Man nennt sie \"Terebinthen der Gerechtigkeit\", / eine Pflanzung Jahwes, die seine Herrlichkeit zeigt."
        },
        {
            "chapter": 61,
            "verse": 4,
            "name": "Isaiah 61:4",
            "text": "Die uralten Tr\u00fcmmerst\u00e4tten bauen sie dann auf, / stellen die w\u00fcsten Orte wieder her. / Die zertr\u00fcmmerten St\u00e4dte bauen sie neu, / alles, was Generationen lang Ruine war."
        },
        {
            "chapter": 61,
            "verse": 5,
            "name": "Isaiah 61:5",
            "text": "Dann nehmen Fremde euch die Arbeit ab, / sie weiden eure Herden, / bestellen euer Land / und werden eure Weing\u00e4rtner sein."
        },
        {
            "chapter": 61,
            "verse": 6,
            "name": "Isaiah 61:6",
            "text": "Und euch wird man \"Priester Jahwes\" nennen, / \"Diener unseres Gottes\" sagt man zu euch. / Ihr werdet genie\u00dfen, was die V\u00f6lker besitzen, / denn ihre Sch\u00e4tze geh\u00f6ren jetzt euch."
        },
        {
            "chapter": 61,
            "verse": 7,
            "name": "Isaiah 61:7",
            "text": "Statt des Doppelma\u00dfes eurer Schmach, / statt der Schande, die als euer Anteil galt, / wird euer Teil am Land nun doppelt so gro\u00df; / ewige Freude wird euch geschenkt."
        },
        {
            "chapter": 61,
            "verse": 8,
            "name": "Isaiah 61:8",
            "text": "\"Denn ich, Jahwe, ich liebe das Recht / und hasse den gemeinen Raub. / Weil ich treu bin, belohne ich sie / und schlie\u00dfe mit ihnen einen ewigen Bund."
        },
        {
            "chapter": 61,
            "verse": 9,
            "name": "Isaiah 61:9",
            "text": "Ihre Nachkommen sind unter den St\u00e4mmen bekannt, / ihre Spr\u00f6sslinge unter den V\u00f6lkern. / Wer sie sieht, erkennt gleich: / Das sind die, die Jahwe gesegnet hat.\""
        },
        {
            "chapter": 61,
            "verse": 10,
            "name": "Isaiah 61:10",
            "text": "\u00dcberaus freue ich mich \u00fcber Jahwe! / Meine Seele jubelt \u00fcber meinen Gott! / Er kleidet mich in Gew\u00e4nder des Heils / und legt mir den Mantel der Gerechtigkeit um. / Wie ein Br\u00e4utigam bin ich festlich geschm\u00fcckt, / wie eine Braut, die ihr Geschmeide anlegt."
        },
        {
            "chapter": 61,
            "verse": 11,
            "name": "Isaiah 61:11",
            "text": "Denn wie die Erde Pflanzen hervortreibt, / wie ein Garten die Saat wachsen l\u00e4sst, / so bringt Jahwe, der Herr, unsere Gerechtigkeit hervor, / unser Lob bei allen V\u00f6lkern. "
        }
    ]
}