{
    "translation": "Sahidic NT",
    "abbreviation": "sahidic",
    "lang": "cop",
    "language": "Coptic",
    "direction": "LTR",
    "encoding": "UTF-8",
    "book_nr": 43,
    "book_name": "John",
    "chapter": 3,
    "name": "John 3",
    "verses": [
        {
            "chapter": 3,
            "verse": 1,
            "name": "John 3:1",
            "text": "\u2c9b\u2c89\u2ca9\u2c9b\u0305\u2c9f\u2ca9\u2ca3\u2cb1\u2c99\u2c89 \u2c87\u2c89 \u2c89\u2c83\u2c9f\u2c97 \u03e9\u2c9b\u0305\u2c9b\u2c89\u2cab\u2c81\u2ca3\u2c93\u2ca5\u2c81\u2c93\u2c9f\u2ca5 \u2c89\u2ca1\u2c89\u03e5\u2ca3\u2c81\u2c9b \u2ca1\u2c89 \u2c9b\u2c93\u2c95\u2c9f\u2c87\u2c8f\u2c99\u2c9f\u2ca5 \u2c89\u2ca9\u2c81\u2ca3\u2cad\u2cb1\u2c9b \u2c9b\u0305\u2c93\u0308\u2c9f\u2ca9\u2c87\u2c81\u2c93\u0308 \u2ca1\u2c89. "
        },
        {
            "chapter": 3,
            "verse": 2,
            "name": "John 3:2",
            "text": "\u2ca1\u2c81\u2c93\u0308 \u2c81\u03e5\u2c89\u0361\u2c93 \u03e3\u2c81\u2ca3\u2c9f\u03e5 \u2c9b\u0305\u2ca7\u2c89\u2ca9\u03e3\u2c8f \u2ca1\u2c89\u03eb\u2c81\u03e5 \u2c9b\u2c81\u03e5. \u03eb\u2c89 \u2ca3\u2c81\u2c83\u2c83\u2c89\u2c93. \u2ca7\u2c9b\u0305\u2ca5\u2c9f\u2c9f\u2ca9\u2c9b \u03eb\u2c89 \u2c9b\u0305\u2ca7\u2c95\u0305\u2c9f\u2ca9\u2ca5\u2c81\u03e9 \u2c89\u2c81\u2c95\u2c89\u0361\u2c93 \u2c89\u2c83\u2c9f\u2c97 \u03e9\u2c93\u2ca7\u2c99\u0305\u2ca1\u2c9b\u2c9f\u2ca9\u2ca7\u2c89. \u2c99\u0305\u2c99\u2c9b\u03e3\u03ed\u2c9f\u2c99 \u2c85\u2c81\u2ca3 \u2c97\u0305\u2c97\u2c81\u2c81\u2ca9 \u2c89\u2ca3\u2c9b\u2c89\u2c93\u0308\u2c99\u2c81\u2c93\u0308\u2c9b. \u2c89\u2ca7\u2c95\u2c89\u0361\u2c93\u2ca3\u2c89 \u2c9b\u0305\u2ca7\u2c9f\u2c95 \u2c99\u0305\u2c99\u2c9f\u2c9f\u2ca9. \u2c89\u0361\u2c93\u2c99\u2c8f\u2ca7\u2c93 \u2c89\u2ca3\u2c89\u2ca1\u2c9b\u2c9f\u2ca9\u2ca7\u2c89 \u03e3\u2c9f\u2c9f\u2ca1 \u2c9b\u2c99\u0305\u2c99\u2c81\u03e5. "
        },
        {
            "chapter": 3,
            "verse": 3,
            "name": "John 3:3",
            "text": "\u2c81\u2c93\u0305\u2ca5\u0305 \u2c9f\u2ca9\u2cb1\u03e3\u2c83\u0305 \u2ca1\u2c89\u03eb\u2c81\u03e5 \u2c9b\u2c81\u03e5 \u03eb\u2c89 \u03e9\u2c81\u2c99\u2c8f\u2c9b \u03e9\u2c81\u2c99\u2c8f\u2c9b \u03ef\u03eb\u2cb1 \u2c99\u0305\u2c99\u2c9f\u2ca5 \u2c9b\u2c81\u2c95 \u03eb\u2c89 \u2c89\u2ca9\u2ca7\u2c99\u0305\u03eb\u2ca1\u2c89\u2c9f\u2ca9\u2c81 \u2c9b\u0305\u2c95\u2c89\u2ca5\u2c9f\u2ca1. \u2c99\u0305\u2c99\u2c9b\u0305\u03ed\u2c9f\u2c99 \u2c99\u0305\u2c99\u2c9f\u03e5 \u2c89\u2c9b\u2c81\u2ca9 \u2c89\u2ca7\u2c99\u2c9b\u0305\u2ca7\u2c89\u2ca3\u2c9f \u2c99\u0305\u2ca1\u2c9b\u2c9f\u2ca9\u2ca7\u2c89. "
        },
        {
            "chapter": 3,
            "verse": 4,
            "name": "John 3:4",
            "text": "\u2ca1\u2c89\u03eb\u2c89\u2c9b\u2c93\u2c95\u2c9f\u2c87\u2c8f\u2c99\u2c9f\u2ca5 \u2c9b\u2c81\u03e5. \u03eb\u2c89 \u2c9b\u0305\u2c81\u03e3 \u2c9b\u0305\u03e9\u2c89 \u2ca5\u2c89\u2c9b\u2c81\u03eb\u2ca1\u2c89\u2ca1\u2ca3\u2cb1\u2c99\u2c89 \u2c9b\u0305\u2c95\u2c89\u2ca5\u2c9f\u2ca1 \u2c89\u2c81\u03e5\u2ca3\u0305\u03e9\u2c97\u2c97\u2c9f. \u2c99\u2c8f \u2c9f\u2ca9\u2c9b\u03e3\u03ed\u2c9f\u2c99 \u2c89\u2ca7\u2ca3\u2c89\u03e5\u2c83\u2cb1\u2c95 \u2c89\u03e9\u2c9f\u2ca9\u2c9b \u2c89\u03e9\u2c8f\u2ca7\u2ca5 \u2c9b\u0305\u2ca7\u2c89\u03e5\u2c99\u2c81\u2c81\u2ca9 \u2c9b\u0305\u2c95\u2c89\u2ca5\u2c9f\u2ca1 \u2c9b\u0305\u2ca5\u2c89\u03eb\u2ca1\u2c9f\u03e5. "
        },
        {
            "chapter": 3,
            "verse": 5,
            "name": "John 3:5",
            "text": "\u2c81\u03e5\u2c9f\u2ca9\u2cb1\u03e3\u2c83\u0305 \u2c9b\u0305\u03ed\u2c93\u2c93\u0305\u2ca5\u0305. \u03eb\u2c89 \u03e9\u2c81\u2c99\u2c8f\u2c9b \u03e9\u2c81\u2c99\u2c8f\u2c9b \u03ef\u03eb\u2cb1 \u2c99\u0305\u2c99\u2c9f\u2ca5 \u2c9b\u2c81\u2c95 \u03eb\u2c89 \u2c89\u2ca9\u2ca7\u2c99\u0305\u03eb\u2ca1\u2c89\u2c9f\u2ca9\u2c81 \u2c89\u2c83\u2c9f\u2c97 \u03e9\u2c9b\u0305\u2c9f\u2ca9\u2c99\u2c9f\u2c9f\u2ca9 \u2c9b\u2c99\u0305\u2c9f\u2ca9\u2ca1\u2c9b\u0305\u2c81. \u2c99\u2c9b\u0305\u03ed\u2c9f\u2c99 \u2c99\u0305\u2c99\u2c9f\u03e5 \u2c89\u2c89\u0361\u2c93 \u2c89\u03e9\u2c9f\u2ca9\u2c9b \u2c89\u2ca7\u2c99\u2c9b\u0305\u2ca7\u2c89\u2ca3\u2c9f \u2c99\u0305\u2ca1\u2c9b\u2c9f\u2ca9\u2ca7\u2c89. "
        },
        {
            "chapter": 3,
            "verse": 6,
            "name": "John 3:6",
            "text": "\u2ca1\u2c89\u2c9b\u2ca7\u2c81\u2ca9\u03eb\u2ca1\u2c9f\u03e5 \u2c89\u2c83\u2c9f\u2c97 \u03e9\u2c9b\u0305\u2ca7\u2ca5\u2c81\u2ca3\u2c9d\u0305. \u2c9f\u2ca9\u2ca5\u2c81\u2ca3\u2c9d\u0305 \u2ca1\u2c89. \u2c81\u2ca9\u2cb1 \u2ca1\u2c89\u2c9b\u2ca7\u2c81\u2ca9\u03eb\u2ca1\u2c9f\u03e5 \u2c89\u2c83\u2c9f\u2c97 \u03e9\u2c99\u0305\u2ca1\u2c89\u2ca1\u2c9b\u0305\u2c81. \u2c9f\u2ca9\u2ca1\u2c9b\u0305\u2c81 \u2ca1\u2c89. "
        },
        {
            "chapter": 3,
            "verse": 7,
            "name": "John 3:7",
            "text": "\u2c99\u0305\u2ca1\u2ca3\u0305\u2ca3\u03e3\u2ca1\u2c8f\u2ca3\u2c89 \u03eb\u2c89 \u2c81\u2c89\u0361\u2c93\u03eb\u2c9f\u2c9f\u2ca5 \u2c9b\u2c81\u2c95 \u03eb\u2c89 \u03e9\u2c81\u2ca1\u2ca5\u0305 \u2c89\u2ca7\u2ca3\u2c89\u2ca9\u03eb\u2ca1\u2c89\u2ca7\u2c8f\u2ca9\u2ca7\u2c9b\u0305 \u2c9b\u0305\u2c95\u2c89\u2ca5\u2c9f\u2ca1. "
        },
        {
            "chapter": 3,
            "verse": 8,
            "name": "John 3:8",
            "text": "\u2ca1\u2c89\u2ca1\u2c9b\u0305\u2c81 \u2c9b\u2c93\u03e5\u2c89 \u2c89\u2ca1\u2c99\u2c81 \u2c89\u2ca7\u03e5\u0305\u2c9f\u2ca9\u2c81\u03e3\u03e5\u0305 \u2c81\u2ca9\u2cb1 \u2c95\u2ca5\u2cb1\u2ca7\u2c99\u0305 \u2c89\u2ca7\u2c89\u03e5\u2ca5\u2c99\u2c8f. \u2c81\u2c97\u2c97\u2c81 \u2c9b\u2c85\u0305\u2ca5\u2c9f\u2c9f\u2ca9\u2c9b \u2c81\u2c9b \u03eb\u2c89 \u2c9b\u0305\u2ca7\u2c81\u03e5\u2c89\u0361\u2c93 \u2ca7\u2cb1\u2c9b \u2c8f \u2c89\u03e5\u2c9b\u2c81 \u2c89\u2ca7\u2cb1\u2c9b. \u2ca7\u2c81\u2c93\u0308 \u2ca7\u2c89 \u2c91\u2c89 \u2c9b\u0305\u2c9f\u2ca9\u2c9f\u2c9b \u2c9b\u2c93\u2c99 \u2c89\u2c9b\u2ca7\u2c81\u2ca9\u03eb\u2ca1\u2c9f\u03e5 \u2c89\u2c83\u2c9f\u2c97 \u03e9\u2c99\u0305\u2ca1\u2c89\u2ca1\u2c9b\u0305\u2c81. "
        },
        {
            "chapter": 3,
            "verse": 9,
            "name": "John 3:9",
            "text": "\u2c81\u2c9b\u2c93\u2c95\u2c9f\u2c87\u2c8f\u2c99\u2c9f\u2ca5 \u2c9f\u2ca9\u2cb1\u03e3\u2c83\u0305 \u2ca1\u2c89\u03eb\u2c81\u03e5 \u2c9b\u2c81\u03e5. \u03eb\u2c89 \u2c9b\u0305\u2c81\u03e3 \u2c9b\u0305\u03e9\u2c89 \u2c89\u2ca3\u2c89\u03e3\u2c9b\u2c81\u2c93\u0308 \u2c9b\u2c81\u03e3\u2cb1\u2ca1\u2c89. "
        },
        {
            "chapter": 3,
            "verse": 10,
            "name": "John 3:10",
            "text": "\u2c81\u2c93\u0305\u2ca5\u0305 \u2c9f\u2ca9\u2cb1\u03e3\u2c83\u0305 \u2ca1\u2c89\u03eb\u2c81\u03e5 \u2c9b\u2c81\u03e5. \u03eb\u2c89 \u2c9b\u0305\u2ca7\u2c9f\u2c95 \u2ca1\u2c89 \u2ca1\u2ca5\u2c81\u03e9 \u2c99\u0305\u2ca1\u2c93\u2ca5\u2ca3\u2c81\u2c8f\u2c97. \u2c81\u2ca9\u2cb1 \u2c9b\u2c85\u0305\u2ca5\u2c9f\u2c9f\u2ca9\u2c9b \u2c81\u2c9b \u2c9b\u0305\u2c9b\u2c81\u2c93\u0308. "
        },
        {
            "chapter": 3,
            "verse": 11,
            "name": "John 3:11",
            "text": "\u03e9\u2c81\u2c99\u2c8f\u2c9b \u03e9\u2c81\u2c99\u2c8f\u2c9b \u03ef\u03eb\u2cb1 \u2c99\u0305\u2c99\u2c9f\u2ca5 \u2c9b\u2c81\u2c95 \u03eb\u2c89 \u2ca1\u2c89\u2ca7\u2c9b\u0305\u2ca5\u2c9f\u2c9f\u2ca9\u2c9b \u2c99\u0305\u2c99\u2c9f\u03e5 \u2ca1\u2c89\u2ca7\u2c9b\u0305\u03eb\u2cb1 \u2c99\u0305\u2c99\u2c9f\u03e5 \u2c81\u2ca9\u2cb1 \u2ca1\u2c89\u2ca7\u2c9b\u0305\u2c9b\u2c81\u2ca9 \u2c89\u2ca3\u2c9f\u03e5 \u2ca1\u2c89\u2ca7\u2c9b\u0305\u2ca3\u0305\u2c99\u2c9b\u0305\u2ca7\u2ca3\u2c89 \u2c99\u0305\u2c99\u2c9f\u03e5 \u2c81\u2ca9\u2cb1 \u2c9b\u0305\u2ca7\u2c89\u2ca7\u2c9b\u0305\u03eb\u2c93 \u2c81\u2c9b \u2c9b\u0305\u2ca7\u2c89\u2c9b\u2c99\u2c9b\u0305\u2ca7\u2c99\u2c9b\u0305\u2ca7\u2ca3\u2c89. "
        },
        {
            "chapter": 3,
            "verse": 12,
            "name": "John 3:12",
            "text": "\u2c89\u03e3\u03eb\u2c89\u2c81\u2c89\u0361\u2c93\u03eb\u2cb1 \u2c9b\u2c8f\u2ca7\u2c9b\u0305 \u2c9b\u0305\u2c9b\u2c81\u2ca1\u2c95\u2c81\u03e9 \u2c81\u2ca9\u2cb1 \u2c9b\u0305\u2ca7\u2c89\u2ca7\u2c9b\u0305\u2ca1\u2c93\u2ca5\u2ca7\u2c89\u2ca9\u2c89 \u2c81\u2c9b. \u2c9b\u0305\u2c81\u03e3 \u2c9b\u0305\u03e9\u2c89 \u2c89\u2c93\u0308\u03e3\u2c81\u2c9b\u03eb\u2cb1 \u2c89\u2ca3\u2cb1\u2ca7\u2c9b\u0305 \u2c9b\u0305\u2c9b\u2c81\u2ca7\u2ca1\u2c89 \u2ca7\u2c89\u2ca7\u2c9b\u2c81\u2ca1\u2c93\u2ca5\u2ca7\u2c89\u2ca9\u2c89. "
        },
        {
            "chapter": 3,
            "verse": 13,
            "name": "John 3:13",
            "text": "\u2c81\u2ca9\u2cb1 \u2c99\u0305\u2ca1\u2c89\u2c97\u2c81\u2c81\u2ca9 \u2c83\u2cb1\u2c95 \u2c89\u03e9\u2ca3\u2c81\u2c93\u0308 \u2c89\u2ca7\u2ca1\u2c89 \u2c89\u0361\u2c93\u2c99\u2c8f\u2ca7\u2c93 \u2ca1\u2c89\u2c9b\u2ca7\u2c81\u03e5\u2c89\u0361\u2c93 \u2c89\u2c83\u2c9f\u2c97 \u03e9\u2c9b\u0305\u2ca7\u2ca1\u2c89 \u2ca1\u03e3\u2c8f\u2ca3\u2c89 \u2c99\u0305\u2ca1\u2ca3\u2cb1\u2c99\u2c89. "
        },
        {
            "chapter": 3,
            "verse": 14,
            "name": "John 3:14",
            "text": "\u2c81\u2ca9\u2cb1 \u2c95\u2c81\u2ca7\u2c81\u2c91\u2c89 \u2c89\u2c9b\u2ca7\u2c81\u2c99\u2cb1\u2ca9\u0308\u2ca5\u2c8f\u2ca5 \u03eb\u2c93\u2ca5\u2c89 \u2c99\u0305\u2ca1\u03e9\u2c9f\u03e5 \u03e9\u2c9b\u0305\u2ca7\u2c89\u2ca3\u2c8f\u2c99\u2c9f\u2ca5. \u2ca7\u2c81\u2c93\u0308 \u2ca7\u2c89 \u2c91\u2c89 \u03e9\u2c81\u2ca1\u2ca5\u0305 \u2c89\u2ca7\u2ca3\u2c89\u2ca9\u03eb\u2c89\u2ca5\u2ca7\u2ca1\u03e3\u2c8f\u2ca3\u2c89 \u2c99\u0305\u2ca1\u2ca3\u2cb1\u2c99\u2c89 "
        },
        {
            "chapter": 3,
            "verse": 15,
            "name": "John 3:15",
            "text": "\u03eb\u2c89\u2c95\u2c81\u2c81\u2ca5 \u2c9f\u2ca9\u2c9f\u2c9b \u2c9b\u2c93\u2c99 \u2c89\u2ca7\u2ca1\u2c93\u2ca5\u2ca7\u2c89\u2ca9\u2c89 \u2c89\u2ca3\u2c9f\u03e5 \u2c89\u03e5\u2c89\u2c95\u2cb1 \u2c9b\u2c81\u03e5 \u03e9\u2ca3\u2c81\u2c93\u0308 \u2c9b\u0305\u03e9\u2c8f\u2ca7\u03e5\u0305 \u2c9b\u0305\u2c9f\u2ca9\u2cb1\u2c9b\u03e9 \u03e3\u2c81\u2c89\u2c9b\u2c89\u03e9. "
        },
        {
            "chapter": 3,
            "verse": 16,
            "name": "John 3:16",
            "text": "\u2ca7\u2c81\u2c93\u0308 \u2c85\u2c81\u2ca3 \u2ca7\u2c89 \u2c91\u2c89 \u2c89\u2c9b\u2ca7\u2c81\u2ca1\u2c9b\u2c9f\u2ca9\u2ca7\u2c89 \u2c99\u2c89\u2ca3\u2c89\u2ca1\u2c95\u2c9f\u2ca5\u2c99\u2c9f\u2ca5. \u03e9\u2cb1\u2ca5\u2ca7\u2c89 \u2ca1\u2c89\u03e5\u03e3\u2c8f\u2ca3\u2c89 \u2c9b\u0305\u2c9f\u2ca9\u2cb1\u2ca7 \u2c81\u03e5\u2ca7\u2c81\u2c81\u03e5 \u03eb\u2c89\u2c95\u2c81\u2ca5 \u2c9f\u2ca9\u2c9f\u2c9b \u2c9b\u2c93\u2c99 \u2c89\u2ca7\u2ca1\u2c93\u2ca5\u2ca7\u2c89\u2ca9\u2c89 \u2c89\u2ca3\u2c9f\u03e5 \u2c9b\u0305\u2c9b\u2c89\u03e5\u03e9\u2c89 \u2c89\u2c83\u2c9f\u2c97 \u2c81\u2c97\u2c97\u2c81 \u2c89\u03e5\u2c89\u03eb\u2c93 \u2c9b\u0305\u2c9f\u2ca9\u2cb1\u2c9b\u03e9 \u03e3\u2c81\u2c89\u2c9b\u2c89\u03e9. "
        },
        {
            "chapter": 3,
            "verse": 17,
            "name": "John 3:17",
            "text": "\u2c9b\u0305\u2ca7\u2c81\u2ca1\u2c9b\u2c9f\u2ca9\u2ca7\u2c89 \u2c85\u2c81\u2ca3 \u2ca7\u2c9b\u0305\u2c9b\u2c89\u2ca9\u2ca1\u2c89\u03e5\u03e3\u2c8f\u2ca3\u2c89 \u2c81\u2c9b \u2c89\u2ca1\u2c95\u2c9f\u2ca5\u2c99\u2c9f\u2ca5 \u03eb\u2c89 \u2c89\u03e5\u2c89\u2c95\u2ca3\u2c93\u2c9b\u2c89 \u2c99\u0305\u2ca1\u2c95\u2c9f\u2ca5\u2c99\u2c9f\u2ca5. \u2c81\u2c97\u2c97\u2c81 \u03eb\u2c89\u2c95\u2c81\u2ca5 \u2c89\u2ca3\u2c89\u2ca1\u2c95\u2c9f\u2ca5\u2c99\u2c9f\u2ca5 \u2c9f\u2ca9\u03eb\u2c81\u2c93\u0308 \u2c89\u2c83\u2c9f\u2c97 \u03e9\u2c93\u2ca7\u2c9f\u2c9f\u2ca7\u03e5\u0305. "
        },
        {
            "chapter": 3,
            "verse": 18,
            "name": "John 3:18",
            "text": "\u2ca1\u2c89\u2ca7\u2ca1\u2c93\u2ca5\u2ca7\u2c89\u2ca9\u2c89 \u2c89\u2ca3\u2c9f\u03e5 \u2c9b\u0305\u2ca5\u2c89\u2c9b\u2c81\u2c95\u2ca3\u2c93\u2c9b\u2c89 \u2c99\u0305\u2c99\u2c9f\u03e5 \u2c81\u2c9b. \u2ca1\u2c89\u2ca7\u2c89\u2c9b\u03e5\u0305\u2ca1\u2c93\u2ca5\u2ca7\u2c89\u2ca9\u2c89 \u2c87\u2c89 \u2c81\u2c9b \u2c8f\u2c87\u2c8f \u2c81\u2ca9\u2c95\u2ca3\u2c93\u2c9b\u2c89 \u2c99\u0305\u2c99\u2c9f\u03e5 \u03eb\u2c89 \u2c99\u0305\u2ca1\u03e5\u0305\u2ca1\u2c93\u2ca5\u2ca7\u2c89\u2ca9\u2c89 \u2c89\u2ca1\u2ca3\u2c81\u2c9b \u2c99\u0305\u2ca1\u03e3\u2c8f\u2ca3\u2c89 \u2c9b\u0305\u2c9f\u2ca9\u2cb1\u2ca7 \u2c9b\u0305\u2ca7\u2c89\u2ca1\u2c9b\u2c9f\u2ca9\u2ca7\u2c89. "
        },
        {
            "chapter": 3,
            "verse": 19,
            "name": "John 3:19",
            "text": "\u2ca7\u2c81\u2c93\u0308 \u2c87\u2c89 \u2ca7\u2c89 \u2ca7\u2c89\u2c95\u2ca3\u2c93\u2ca5\u2c93\u2ca5 \u03eb\u2c89 \u2c81\u2ca1\u2c9f\u2ca9\u2c9f\u2c93\u0308\u2c9b \u2c89\u0361\u2c93 \u2c89\u2ca1\u2c95\u2c9f\u2ca5\u2c99\u2c9f\u2ca5 \u2c81\u2ca9\u2cb1 \u2c81\u2c9b\u2ca3\u2cb1\u2c99\u2c89 \u2c99\u2c89\u2ca3\u2c89\u2ca1\u2c95\u2c81\u2c95\u2c89 \u2c89\u03e9\u2c9f\u2ca9\u2c89\u2ca1\u2c9f\u2ca9\u2c9f\u2c93\u0308\u2c9b. \u2c9b\u2c89\u2ca3\u2c89\u2c9b\u2c89\u2ca9\u03e9\u2c83\u2c8f\u2ca9\u2c89 \u2c85\u2c81\u2ca3 \u03e9\u2c9f\u2c9f\u2ca9 \u2ca1\u2c89. "
        },
        {
            "chapter": 3,
            "verse": 20,
            "name": "John 3:20",
            "text": "\u2c9f\u2ca9\u2c9f\u2c9b \u2c85\u2c81\u2ca3 \u2c9b\u2c93\u2c99 \u2c89\u2ca7\u2c93\u2ca3\u2c89 \u2c9b\u0305\u2c99\u0305\u2ca1\u2c89\u2c91\u2c9f\u2c9f\u2ca9 \u03e5\u2c99\u2c9f\u2ca5\u2ca7\u2c89 \u2c99\u0305\u2ca1\u2c9f\u2ca9\u2c9f\u2c93\u0308\u2c9b \u03eb\u2c89\u2c95\u2c81\u2ca5 \u2c89\u2c9b\u2c9b\u2c89\u2ca9\u03eb\u2ca1\u2c93\u2c89\u2c9b\u2c89\u03e5\u03e9\u2c83\u2c8f\u2ca9\u2c89 \u03eb\u2c89 \u2ca5\u2c89\u03e9\u2c9f\u2c9f\u2ca9. "
        },
        {
            "chapter": 3,
            "verse": 21,
            "name": "John 3:21",
            "text": "\u2ca1\u2c89\u2ca7\u2c93\u2ca3\u2c89 \u2c9b\u0305\u2ca7\u2c9f\u03e5 \u2c9b\u0305\u2ca7\u2c99\u2c89 \u03e3\u2c81\u03e5\u2c89\u0361\u2c93 \u03e3\u2c81\u2ca1\u2c9f\u2ca9\u2c9f\u2c93\u0308\u2c9b \u03eb\u2c89\u2c95\u2c81\u2ca5 \u2c89\u2ca3\u2c89\u2c9b\u2c89\u03e5\u03e9\u2c83\u2c8f\u2ca9\u2c89 \u2c9f\u2ca9\u2cb1\u2c9b\u03e9 \u2c89\u2c83\u2c9f\u2c97 \u03eb\u2c89 \u2c9b\u0305\u2ca7\u2c81\u03e5\u2c81\u2c81\u2ca9 \u03e9\u2c99\u0305\u2ca1\u2c9b\u2c9f\u2ca9\u2ca7\u2c89\u00b7 "
        },
        {
            "chapter": 3,
            "verse": 22,
            "name": "John 3:22",
            "text": "\u2c99\u2c9b\u0305\u2c9b\u0305\u2ca5\u2c81\u2c9b\u2c81\u2c93\u0308 \u2c81\u03e5\u2c89\u0361\u2c93 \u2c9b\u0305\u03ed\u2c93\u2c93\u0305\u2ca5\u0305 \u2c9b\u2c99\u0305\u2c9b\u2c89\u03e5\u2c99\u2c81\u2c91\u2c8f\u2ca7\u2c8f\u2ca5 \u2c89\u2ca1\u2c95\u2c81\u03e9 \u2c9b\u0305\u03ef\u2c9f\u2ca9\u2c87\u2c81\u2c93\u2c81 \u2c81\u2ca9\u2cb1 \u2c9b\u2c89\u03e5\u2c99\u0305\u2c99\u2c81\u2ca9 \u2ca1\u2c89 \u2c9b\u2c99\u0305\u2c99\u2c81\u2ca9 \u2c89\u03e5\u2c83\u2c81\u2ca1\u2ca7\u2c93\u2c8d\u2c89. "
        },
        {
            "chapter": 3,
            "verse": 23,
            "name": "John 3:23",
            "text": "\u2c9b\u2c89\u2ca3\u2c89\u2ca1\u2c95\u2c89\u2c93\u0308\u2cb1\u03e9\u2c81\u2c9b\u2c9b\u2c8f\u2ca5 \u2c87\u2c89 \u2c83\u2c81\u2ca1\u2ca7\u2c93\u2c8d\u2c89 \u03e9\u2c9b\u0305\u2c81\u2c93\u2c9b\u2cb1\u2c9b \u03e9\u2c81\u2ca7\u2c9b\u0305\u2ca5\u2c81\u2c97\u2c89\u2c93\u2c99 \u03eb\u2c89 \u2c9b\u2c89\u2ca9&lt;\u2c9b&gt;\u03e9\u2c81\u03e9 \u2c99\u0305\u2c99\u2c9f\u2c9f\u2ca9 \u03e9\u2c99\u0305\u2ca1\u2c99\u2c81 \u2c89\u2ca7\u2c99\u0305\u2c99\u2c81\u2ca9. \u2c81\u2ca9\u2cb1 \u2c9b\u2c89\u2ca9\u2c9b\u2c8f\u2ca9 \u2ca1\u2c89 \u2c89\u2ca9\u03eb\u2c93\u2c83\u2c81\u2ca1\u2ca7\u2c93\u2ca5\u2c99\u2c81 "
        },
        {
            "chapter": 3,
            "verse": 24,
            "name": "John 3:24",
            "text": "\u2c9b\u2c89\u2c99\u0305\u2ca1\u2c81\u2ca7\u2c9f\u2ca9\u2c9b\u2c89\u03eb\u2c93\u0308\u2cb1\u03e9\u2c81\u2c9b\u2c9b\u2c8f\u2ca5 \u2c85\u2c81\u2ca3 \u2ca1\u2c89 \u2c89\u2ca1\u2c89\u03e3\u2ca7\u2c89\u2c95\u2c9f. "
        },
        {
            "chapter": 3,
            "verse": 25,
            "name": "John 3:25",
            "text": "\u2c81\u2ca9\u2c8d\u2c8f\u2ca7\u2c8f\u2ca5\u2c93\u2ca5 \u03ed\u2c89 \u03e3\u2cb1\u2ca1\u2c89 \u2c89\u2c83\u2c9f\u2c97 \u03e9\u2c9b\u0305\u2c99\u0305\u2c99\u2c81\u2c91\u2c8f\u2ca7\u2c8f\u2ca5 \u2c9b\u0305\u2c93\u0308\u2cb1\u03e9\u2c81\u2c9b\u2c9b\u2c8f\u2ca5 \u2c9b\u2c99\u0305\u2c9f\u2ca9\u2c93\u0308\u2c9f\u2ca9\u2c87\u2c81\u2c93\u0308 \u2c89\u2ca7\u2c83\u2c89\u2ca1\u2ca7\u2c83\u0305\u2c83\u2c9f "
        },
        {
            "chapter": 3,
            "verse": 26,
            "name": "John 3:26",
            "text": "\u2c81\u2ca9\u2c89\u0361\u2c93 \u03e3\u2c81\u2c93\u0308\u2cb1\u03e9\u2c81\u2c9b\u2c9b\u2c8f\u2ca5 \u2ca1\u2c89\u03eb\u2c81\u2ca9 \u2c9b\u2c81\u03e5. \u03eb\u2c89 \u03e9\u2ca3\u2c81\u2c83\u2c83\u2c89\u2c93. \u2ca1\u2c8f \u2c89\u2ca7\u2c89\u2c9b\u2c89\u03e5\u03e3\u2c9f\u2c9f\u2ca1 \u2c9b\u2c99\u0305\u2c99\u2c81\u2c95 \u03e9\u2c93\u2ca1\u2c93\u2c95\u2ca3\u2c9f \u2c99\u0305\u2ca1\u2c93\u2c9f\u2ca3\u2c87\u2c81\u2c9b\u2c8f\u2ca5. \u2ca1\u2c81\u2c93\u0308 \u2c9b\u0305\u2ca7\u2c9f\u2c95 \u2c89\u2c9b\u2ca7\u2c81\u2c95\u2ca3\u0305\u2c99\u2c9b\u0305\u2ca7\u2ca3\u2c89 \u03e9\u2c81\u2ca3\u2c9f\u03e5. \u2c89\u2c93\u2ca5\u03e9\u2c8f\u2c8f\u2ca1\u2c89 \u2c9b\u0305\u2ca7\u2c9f\u03e5 \u03e5\u2c83\u2c81\u2ca1\u2ca7\u2c93\u2c8d\u2c89 \u2c81\u2ca9\u2cb1 \u03e5\u2ca3\u0305\u03e9\u2c81\u03e9 \u2c99\u0305\u2c99\u2c81\u2c91\u2c8f\u2ca7\u2c8f\u2ca5 \u2c81\u2ca9\u2cb1 \u2c9f\u2ca9\u2c9f\u2c9b \u2c9b\u2c93\u2c99 \u2c9b\u2c8f\u2ca9 \u2c89\u2ca3\u2c81\u2ca7\u03e5\u0305. "
        },
        {
            "chapter": 3,
            "verse": 27,
            "name": "John 3:27",
            "text": "\u2c81\u2c93\u0308\u2cb1\u03e9\u2c81\u2c9b\u2c9b\u2c8f\u2ca5 \u2c9f\u2ca9\u2cb1\u03e3\u2c83\u0305 \u2c89\u03e5\u03eb\u2cb1 \u2c99\u0305\u2c99\u2c9f\u2ca5. \u03eb\u2c89 \u2c99\u2c9b\u03e3\u03ed\u2c9f\u2c99 \u2c99\u0305\u2ca1\u2ca3\u2cb1\u2c99\u2c89 \u2c89\u03eb\u2c93\u2c97\u2c81\u2c81\u2ca9 \u03e9\u2c81\u2ca3\u2c9f\u03e5 \u2c9f\u2ca9\u2c81\u2c81\u03e5 \u2c89\u0361\u2c93\u2c99\u2c8f\u2ca7\u2c93 \u2c9b\u0305\u2ca5\u2c89\u2ca7\u2c81\u2c81\u2ca5 \u2c9b\u2c81\u03e5 \u2c89\u2c83\u2c9f\u2c97 \u03e9\u2c9b\u0305\u2ca7\u2ca1\u2c89. "
        },
        {
            "chapter": 3,
            "verse": 28,
            "name": "John 3:28",
            "text": "\u2c9b\u0305\u2ca7\u2cb1\u2ca7\u2c9b\u0305 \u2ca7\u2c89\u2ca7\u2c9b\u0305\u2ca3\u0305\u2c99\u2c9b\u0305\u2ca7\u2ca3\u2c89 \u2c9b\u2c81\u2c93 \u03eb\u2c89 \u2c81\u2c89\u0361\u2c93\u03eb\u2c9f\u2c9f\u2ca5 \u03eb\u2c89 \u2c9b\u0305\u2c81\u2c9b\u2c9f\u2c95 \u2c81\u2c9b \u2ca1\u2c89 \u2ca1\u2c89\u2cad\u0305\u2ca5\u0305 \u2c81\u2c97\u2c97\u2c81 \u03eb\u2c89 \u2c9b\u0305\u2ca7\u2c81\u2ca9\u2ca7\u2c81\u2c9f&lt;\u2ca9\u2c9f&gt;\u2c89\u0361\u2c93 \u03e9\u2c81\u2c91\u2c8f \u2c99\u0305\u2ca1\u2c89\u2ca7\u2c99\u0305\u2c99\u2c81\u2ca9. "
        },
        {
            "chapter": 3,
            "verse": 29,
            "name": "John 3:29",
            "text": "\u2ca1\u2c89\u2ca7\u2c89\u2ca9\u2c9b\u0305\u2ca7\u2c81\u03e5 &lt;\u2c99\u0305\u2c99\u2c81\u2ca9&gt; \u2c9b\u0305\u2ca7\u03e3\u2c89\u2c97\u2c89\u2c89\u2ca7. \u2c9b\u0305\u2ca7\u2c9f\u03e5 \u2ca1\u2c89 \u2ca1\u2c81\u2ca7\u03e3\u2c89\u2c97\u2c89\u2c89\u2ca7. \u2ca1\u2c89\u03e3\u2c83\u2c8f\u2ca3 \u2c87\u2c89 \u2c99\u0305\u2ca1\u2c81\u2ca7\u03e3\u2c89\u2c97\u2c89\u2c89\u2ca7 \u2c89\u2ca7\u2c81\u03e9\u2c89\u2ca3\u2c81\u2ca7\u03e5\u0305 \u2c81\u2ca9\u2cb1 \u2c89\u2ca7\u2ca5\u2cb1\u2ca7\u2c99\u0305 \u2c89\u2ca3\u2c9f\u03e5. \u03e9\u2c9b\u0305\u2c9f\u2ca9\u2ca3\u2c81\u03e3\u2c89 \u03e5\u2ca3\u2c81\u03e3\u2c89 \u2c89\u2ca7\u2c83\u2c89\u2ca7\u2c89\u2ca5\u2c99\u2c8f \u2c99\u0305\u2ca1\u2c81\u2ca7\u03e3\u2c89\u2c97\u2c89\u2c89\u2ca7. \u2ca1\u2c81\u2ca3\u2c81\u03e3\u2c89 \u03ed\u2c89 \u2c89\u2ca7\u2c89\u2ca1\u2c81\u2c93\u0308 \u2ca1\u2c89 \u2c81\u03e5\u03eb\u2cb1\u2c95 \u2c89\u2c83\u2c9f\u2c97 "
        },
        {
            "chapter": 3,
            "verse": 30,
            "name": "John 3:30",
            "text": "\u03e9\u2c81\u2ca1\u2ca5 \u2c89\u2ca7\u2ca3\u2c89\u2ca1\u2c89\u2ca7\u2c99\u0305\u2c99\u2c81\u2ca9 \u03eb\u2c93\u2ca5\u2c89. \u2c81\u2c9b\u2c9f\u2c95 \u2c87\u2c89 \u2c89\u2ca7\u2ca3\u2c81\u2c91\u2c83\u0305\u2c83\u2c93\u2c9f. "
        },
        {
            "chapter": 3,
            "verse": 31,
            "name": "John 3:31",
            "text": "\u2ca1\u2c89\u2c9b\u2ca7\u2c81\u03e5\u2c89\u0361\u2c93 \u2c89\u2c83\u2c9f\u2c97 \u03e9\u2c9b\u0305\u2ca7\u2ca1\u2c89 \u03e5\u03e9\u2c93\u03eb\u2c9b\u0305\u2c9f\u2ca9\u2c9f\u2c9b \u2c9b\u2c93\u2c99. \u2ca1\u2c89\u2ca7\u03e3\u2c9f\u2c9f\u2ca1 \u2c89\u2c83\u2c9f\u2c97 \u03e9\u2c99\u0305\u2ca1\u2c95\u2c81\u03e9 \u2c9f\u2ca9\u2c89\u2c83\u2c9f\u2c97 \u03e9\u2c99\u0305\u2ca1\u2c95\u2c81\u03e9 \u2ca1\u2c89 \u2c81\u2ca9\u2cb1 \u2c89\u03e5\u03e3\u2c81\u03eb\u2c89 \u2c89\u2c83\u2c9f\u2c97 \u03e9\u2c99\u0305\u2ca1\u2c95\u2c81\u03e9. \u2ca1\u2c89\u2c9b\u2ca7\u2c81\u03e5\u2c89\u0361\u2c93 \u2c87\u2c89 \u2c89\u2c83\u2c9f\u2c97 \u03e9\u2c9b\u0305\u2ca7\u2ca1\u2c89. "
        },
        {
            "chapter": 3,
            "verse": 32,
            "name": "John 3:32",
            "text": "\u2ca1\u2c89\u2c9b\u2ca7\u2c81\u03e5\u2c9b\u2c81\u2ca9 \u2c89\u2ca3\u2c9f\u03e5 \u2c81\u2ca9\u2cb1 \u2c81\u03e5\u2ca5\u2c9f\u2ca7\u2c99\u2c89\u03e5 \u03e5\u2ca3\u0305\u2c99\u2c9b\u0305\u2ca7\u2ca3\u2c89 \u2c99\u0305\u2c99\u2c9f\u03e5 \u2c81\u2ca9\u2cb1 \u2c99\u0305\u2c99\u2c9b\u0305\u2c97\u2c81\u2c81\u2ca9 \u03eb\u2c93 \u2c9b\u0305\u2ca7\u2c89\u03e5\u2c99\u2c9b\u0305\u2ca7\u2c99\u2c9b\u0305\u2ca7\u2ca3\u2c89. "
        },
        {
            "chapter": 3,
            "verse": 33,
            "name": "John 3:33",
            "text": "\u2ca1\u2c89\u2c9b\u2ca7\u2c81\u03e5\u03eb\u2c93 \u2c87\u2c89 \u2c9b\u0305\u2ca7\u2c89\u03e5\u2c99\u2c9b\u0305\u2ca7\u2c99\u2c9b\u0305\u2ca7\u2ca3\u2c89 \u2c81\u03e5\u2ca5\u2cab\u2ca3\u2c81\u2c85\u2c93\u2c8d\u2c89 \u2c99\u0305\u2c99\u2c9f\u03e5 \u03eb\u2c89 \u2c9f\u2ca9\u2c99\u2c89 \u2ca1\u2c89 \u2ca1\u2c9b\u2c9f\u2ca9\u2ca7\u2c89. "
        },
        {
            "chapter": 3,
            "verse": 34,
            "name": "John 3:34",
            "text": "\u2ca1\u2c89\u2c9b\u2ca7\u2c81\u2ca1\u2c9b\u2c9f\u2ca9\u2ca7\u2c89 \u2c85\u2c81\u2ca3 \u2ca7\u2c9b\u0305\u2c9b\u2c9f\u2c9f\u2ca9\u03e5 \u2c89\u03e5\u03eb\u2cb1 \u2c9b\u0305\u2c9b\u0305\u03e3\u2c81\u03eb\u2c89 \u03eb\u2c89 \u2c99\u0305\u2ca1\u2c9b\u2c9f\u2ca9\u2ca7\u2c89 \u2c9b\u2c89\u2ca3\u2c89\u2ca1\u2c9b\u2c9f\u2ca9\u2ca7\u2c89 \u2c85\u2c81\u2ca3 \u03ef \u2c81\u2c9b \u2c99\u0305\u2ca1\u2c89\u2ca1\u2c9b\u0305\u2c81 \u03e9\u2c9b\u0305\u2c9f\u2ca9\u03e3\u2c93. "
        },
        {
            "chapter": 3,
            "verse": 35,
            "name": "John 3:35",
            "text": "\u2ca1\u2c93\u2cb1\u2ca7 \u2c99\u2c89 \u2c99\u0305\u2ca1\u03e3\u2c8f\u2ca3\u2c89 \u2c81\u2ca9\u2cb1 \u2c81\u03e5\u03ef\u2c9b\u0305\u2c95\u2c81 \u2c9b\u2c93\u2c99 \u2c89\u03e9\u2ca3\u2c81\u2c93\u0308 \u2c89\u2ca7\u2c89\u03e5\u03ed\u2c93\u03eb. "
        },
        {
            "chapter": 3,
            "verse": 36,
            "name": "John 3:36",
            "text": "\u2ca1\u2c89\u2ca7\u2ca1\u2c93\u2ca5\u2ca7\u2c89\u2ca9\u2c89 \u2c89\u2ca1\u03e3\u2c8f\u2ca3\u2c89 \u2c9f\u2ca9\u2c9b\u0305\u2ca7\u2c81\u03e5 \u2c99\u0305\u2c99\u2c81\u2ca9 \u2c99\u0305\u2ca1\u2cb1\u2c9b\u03e9 \u03e3\u2c81\u2c89\u2c9b\u2c89\u03e9. \u2ca1\u2c89\u2ca7\u2c89\u2c9b\u0305\u03e5\u2ca1\u2c93\u2ca5\u2ca7\u2c89\u2ca9\u2c89 \u2c87\u2c89 \u2c81\u2c9b \u2c89\u2ca1\u03e3\u2c8f\u2ca3\u2c89. \u2c9b\u0305\u03e5\u2c9b\u2c81\u2c9b\u2c81\u2ca9 \u2c81\u2c9b \u2c89\u2ca1\u2cb1\u2c9b\u03e9\u0305. \u2c81\u2c97\u2c97\u2c81 \u2ca7\u2c9f\u2ca3\u2c85\u2c8f \u2c99\u0305\u2ca1\u2c9b\u2c9f\u2ca9\u2ca7\u2c89 \u2c9b\u2c81\u03ed\u2cb1 \u2c89\u03e9\u2ca3\u2c81\u2c93\u0308 \u2c89\u03eb\u2cb1\u03e5.  "
        }
    ]
}