{
    "translation": "Svenska Folkbibeln (1998)",
    "abbreviation": "swefolk1998",
    "lang": "sv",
    "language": "Swedish",
    "direction": "LTR",
    "encoding": "UTF-8",
    "book_nr": 10,
    "book_name": "2 Samuel",
    "chapter": 24,
    "name": "2 Samuel 24",
    "verses": [
        {
            "chapter": 24,
            "verse": 1,
            "name": "2 Samuel 24:1",
            "text": "\u00c5ter uppt\u00e4ndes Herrens vrede mot Israel, och han uppeggade David mot dem och sade: \"G\u00e5 och r\u00e4kna Israel och Juda.\""
        },
        {
            "chapter": 24,
            "verse": 2,
            "name": "2 Samuel 24:2",
            "text": "D\u00e5 sade kungen till Joab, bef\u00e4lhavaren f\u00f6r hans h\u00e4r, som var med honom: \"Far igenom alla Israels stammar, fr\u00e5n Dan till Beer-Sheba, och r\u00e4kna folket, s\u00e5 att jag f\u00e5r veta hur m\u00e5nga de \u00e4r.\""
        },
        {
            "chapter": 24,
            "verse": 3,
            "name": "2 Samuel 24:3",
            "text": "Joab svarade kungen: \"M\u00e5 Herren, din Gud, f\u00f6r\u00f6ka detta folk hundrafalt mer \u00e4n vad det \u00e4r, och m\u00e5 min herre konungen f\u00e5 se det med egna \u00f6gon. Men varf\u00f6r vill min herre konungen g\u00f6ra det h\u00e4r?\""
        },
        {
            "chapter": 24,
            "verse": 4,
            "name": "2 Samuel 24:4",
            "text": "Men kungens ord stod fast mot Joab och h\u00e4rf\u00f6rarna. Och Joab och h\u00e4rf\u00f6rarna gav sig i v\u00e4g p\u00e5 kungens uppdrag f\u00f6r att r\u00e4kna folket i Israel. "
        },
        {
            "chapter": 24,
            "verse": 5,
            "name": "2 Samuel 24:5",
            "text": "De gick \u00f6ver Jordan och slog l\u00e4ger vid Aroer p\u00e5 h\u00f6gra sidan om staden i Gads dal och \u00e5t Jaeser till."
        },
        {
            "chapter": 24,
            "verse": 6,
            "name": "2 Samuel 24:6",
            "text": "D\u00e4rifr\u00e5n kom de till Gilead och Tatim-Hodsis land. Sedan kom de till Dan-Jaan och s\u00e5 vek de av mot Sidon."
        },
        {
            "chapter": 24,
            "verse": 7,
            "name": "2 Samuel 24:7",
            "text": "D\u00e4refter kom de till Tyrus bef\u00e4stningar och till hiveernas och kananeernas alla st\u00e4der. De drog vidare till Negev i Juda, \u00e4nda till Beer-Sheba."
        },
        {
            "chapter": 24,
            "verse": 8,
            "name": "2 Samuel 24:8",
            "text": "Sedan de hade farit genom hela landet, kom de efter nio m\u00e5nader och tjugo dagar hem till Jerusalem."
        },
        {
            "chapter": 24,
            "verse": 9,
            "name": "2 Samuel 24:9",
            "text": "Och Joab meddelade kungen resultatet av folkr\u00e4kningen: I Israel fanns 800 000 vapenf\u00f6ra m\u00e4n, bev\u00e4pnade med sv\u00e4rd, och Juda m\u00e4n var 500 000."
        },
        {
            "chapter": 24,
            "verse": 10,
            "name": "2 Samuel 24:10",
            "text": " Men Davids samvete slog honom sedan han hade r\u00e4knat folket, och han sade till Herren: \"Jag har syndat sv\u00e5rt genom det jag har gjort. Men Herre, f\u00f6rl\u00e5t nu din tj\u00e4nares missg\u00e4rning, f\u00f6r jag har handlat mycket d\u00e5raktigt.\""
        },
        {
            "chapter": 24,
            "verse": 11,
            "name": "2 Samuel 24:11",
            "text": "N\u00e4r David steg upp p\u00e5 morgonen, kom Herrens ord till profeten Gad, Davids siare. Han sade:"
        },
        {
            "chapter": 24,
            "verse": 12,
            "name": "2 Samuel 24:12",
            "text": "\"G\u00e5 och s\u00e4g till David: S\u00e5 s\u00e4ger Herren: Tre ting f\u00f6rel\u00e4gger jag dig. V\u00e4lj ett av dem, som jag skall g\u00f6ra mot dig.\""
        },
        {
            "chapter": 24,
            "verse": 13,
            "name": "2 Samuel 24:13",
            "text": "D\u00e5 gick Gad in till David och meddelade honom detta och sade till honom: \"Skall hungersn\u00f6d komma i ditt land i sju \u00e5r? Eller skall du i tre m\u00e5nader fly f\u00f6r dina fiender medan de f\u00f6rf\u00f6ljer dig? Eller skall pest drabba ditt land i tre dagar? Best\u00e4m nu vilket svar jag skall ge honom som har s\u00e4nt mig.\""
        },
        {
            "chapter": 24,
            "verse": 14,
            "name": "2 Samuel 24:14",
            "text": "David svarade Gad. \"Jag \u00e4r i stor v\u00e5nda. Men l\u00e5t oss falla i Herrens hand, f\u00f6r hans barmh\u00e4rtighet \u00e4r stor. I m\u00e4nniskors hand vill jag inte falla.\" "
        },
        {
            "chapter": 24,
            "verse": 15,
            "name": "2 Samuel 24:15",
            "text": "Herren s\u00e4nde d\u00e5 pest i Israel, fr\u00e5n morgonen intill den best\u00e4mda tiden, och sjuttiotusen personer av folket dog, fr\u00e5n Dan \u00e4nda till Beer-Sheba."
        },
        {
            "chapter": 24,
            "verse": 16,
            "name": "2 Samuel 24:16",
            "text": "Men n\u00e4r \u00e4ngeln r\u00e4ckte ut sin hand \u00f6ver Jerusalem f\u00f6r att \u00f6del\u00e4gga det, \u00e5ngrade Herren det onda och sade till \u00e4ngeln som f\u00f6rd\u00e4rvade folket: \"Det \u00e4r nog! Drag tillbaka din hand.\" Herrens \u00e4ngel var d\u00e5 vid jebusiten Araunas tr\u00f6skplats."
        },
        {
            "chapter": 24,
            "verse": 17,
            "name": "2 Samuel 24:17",
            "text": "Men n\u00e4r David fick se \u00e4ngeln som slog folket, sade han till Herren: \"Det \u00e4r jag som har syndat, det \u00e4r jag som har handlat or\u00e4tt. Men dessa, min hjord, vad har de gjort? L\u00e5t din hand drabba mig och min fars hus.\""
        },
        {
            "chapter": 24,
            "verse": 18,
            "name": "2 Samuel 24:18",
            "text": " Gad kom till David samma dag och sade till honom: \"G\u00e5 och res ett altare \u00e5t Herren p\u00e5 jebusiten Araunas tr\u00f6skplats.\""
        },
        {
            "chapter": 24,
            "verse": 19,
            "name": "2 Samuel 24:19",
            "text": "David gick i v\u00e4g som Herren hade befallt genom Gad."
        },
        {
            "chapter": 24,
            "verse": 20,
            "name": "2 Samuel 24:20",
            "text": "N\u00e4r Arauna s\u00e5g upp och fick se kungen och hans tj\u00e4nare komma till honom, gick han ut och f\u00f6ll ner till marken p\u00e5 sitt ansikte f\u00f6r kungen."
        },
        {
            "chapter": 24,
            "verse": 21,
            "name": "2 Samuel 24:21",
            "text": "Arauna sade: \"Varf\u00f6r kommer min herre konungen till sin tj\u00e4nare?\" David svarade: \"F\u00f6r att k\u00f6pa tr\u00f6skplatsen av dig och d\u00e4r bygga ett altare \u00e5t Herren, s\u00e5 att pl\u00e5gan upph\u00f6r bland folket.\""
        },
        {
            "chapter": 24,
            "verse": 22,
            "name": "2 Samuel 24:22",
            "text": "D\u00e5 sade Arauna till David: \"Min herre konungen m\u00e5 ta till sitt offer vad han \u00f6nskar. Se, h\u00e4r \u00e4r boskapen till br\u00e4nnoffer, och h\u00e4r \u00e4r tr\u00f6skvagnarna och boskapens ok till ved."
        },
        {
            "chapter": 24,
            "verse": 23,
            "name": "2 Samuel 24:23",
            "text": "Alltsammans, o konung, ger Arauna till konungen.\" Och Arauna sade till kungen: \"M\u00e5 Herren, din Gud, vara dig n\u00e5dig.\""
        },
        {
            "chapter": 24,
            "verse": 24,
            "name": "2 Samuel 24:24",
            "text": "Men kungen svarade Arauna: \"Nej, jag vill k\u00f6pa det av dig f\u00f6r ett best\u00e4mt pris, f\u00f6r jag vill inte offra \u00e5t Herren, min Gud, br\u00e4nnoffer som jag har f\u00e5tt f\u00f6r intet.\" S\u00e5 k\u00f6pte David tr\u00f6skplatsen och boskapen f\u00f6r femtio siklar silver."
        },
        {
            "chapter": 24,
            "verse": 25,
            "name": "2 Samuel 24:25",
            "text": "Och David byggde d\u00e4r ett altare \u00e5t Herren och offrade br\u00e4nnoffer och gemenskapsoffer. Och Herren h\u00f6rde b\u00f6nerna f\u00f6r landet, och pl\u00e5gan avv\u00e4rjdes fr\u00e5n Israel."
        }
    ]
}