{
    "translation": "1869 Noyes Translation",
    "abbreviation": "noyes",
    "lang": "en",
    "language": "English",
    "direction": "LTR",
    "encoding": "UTF-8",
    "book_nr": 45,
    "book_name": "Romans",
    "chapter": 10,
    "name": "Romans 10",
    "verses": [
        {
            "chapter": 10,
            "verse": 1,
            "name": "Romans 10:1",
            "text": "Brethren, the desire of my heart and my prayer to God for them is, that they may be saved. "
        },
        {
            "chapter": 10,
            "verse": 2,
            "name": "Romans 10:2",
            "text": "For I bear them witness that they have a zeal for God, but not according to knowledge. "
        },
        {
            "chapter": 10,
            "verse": 3,
            "name": "Romans 10:3",
            "text": "For being ignorant of the righteousness which is of God, and endeavoring to establish a righteousness of their own, they have not submitted themselves to the righteousness which is of God. "
        },
        {
            "chapter": 10,
            "verse": 4,
            "name": "Romans 10:4",
            "text": "For Christ is the end of the Law, so that every one that believeth may obtain righteousness. "
        },
        {
            "chapter": 10,
            "verse": 5,
            "name": "Romans 10:5",
            "text": "For Moses describeth the righteousness which is of the Law: \"The man that hath done these things shall live by them.\" "
        },
        {
            "chapter": 10,
            "verse": 6,
            "name": "Romans 10:6",
            "text": "But the righteousness which is of faith speaketh thus: Say not in thy heart, \"Who shall ascend into heaven?\" that is, to bring Christ down. "
        },
        {
            "chapter": 10,
            "verse": 7,
            "name": "Romans 10:7",
            "text": "Or, \"Who shall descend into the abyss?\" that is, to bring up Christ from the dead. "
        },
        {
            "chapter": 10,
            "verse": 8,
            "name": "Romans 10:8",
            "text": "But what saith it? \"The word is nigh thee, in thy mouth, and in thy heart;\" that is, the word concerning faith, which we preach; "
        },
        {
            "chapter": 10,
            "verse": 9,
            "name": "Romans 10:9",
            "text": "for if thou shalt acknowledge with thy mouth Jesus as Lord, and shalt believe in thy heart that God raised him from the dead, thou shalt be saved. "
        },
        {
            "chapter": 10,
            "verse": 10,
            "name": "Romans 10:10",
            "text": "For with the heart man believeth so as to obtain righteousness, and with the mouth professeth so as to obtain salvation. "
        },
        {
            "chapter": 10,
            "verse": 11,
            "name": "Romans 10:11",
            "text": "For the Scripture saith, \"Whoever believeth in him shall not be put to shame.\" "
        },
        {
            "chapter": 10,
            "verse": 12,
            "name": "Romans 10:12",
            "text": "For there is no difference between Jew and Greek; for one and the same is Lord over all, rich to all that call upon him. "
        },
        {
            "chapter": 10,
            "verse": 13,
            "name": "Romans 10:13",
            "text": "For \"every one who calleth upon the name of the Lord shall be saved.\" "
        },
        {
            "chapter": 10,
            "verse": 14,
            "name": "Romans 10:14",
            "text": "How then shall they call on him, in whom they have not believed? and how shall they believe in him, of whom they have not heard? and how shall they hear without a preacher? "
        },
        {
            "chapter": 10,
            "verse": 15,
            "name": "Romans 10:15",
            "text": "and how shall men preach, unless they are sent forth? as it is written, \"How beautiful are the feet of those who bring glad tidings of peace, who bring glad tidings of good things!\" "
        },
        {
            "chapter": 10,
            "verse": 16,
            "name": "Romans 10:16",
            "text": "But they did not all hearken to the glad tidings. For Isaiah saith, \"Lord, who hath believed what he hath heard from us?\" "
        },
        {
            "chapter": 10,
            "verse": 17,
            "name": "Romans 10:17",
            "text": "Faith then cometh by hearing, and hearing by the word of God. "
        },
        {
            "chapter": 10,
            "verse": 18,
            "name": "Romans 10:18",
            "text": "But I say, Did they not hear? Yes truly, \"Their voice went forth into all the earth, and their words to the ends of the world.\" "
        },
        {
            "chapter": 10,
            "verse": 19,
            "name": "Romans 10:19",
            "text": "But I say, Hath not Israel had knowledge? First, Moses saith, \"I will move you to jealousy by that which is no nation, I will excite you to indignation by a foolish people.\" "
        },
        {
            "chapter": 10,
            "verse": 20,
            "name": "Romans 10:20",
            "text": "But Isaiah is very bold, and saith, \"I was found by those who sought me not, I became known to those who inquired not for me.\" "
        },
        {
            "chapter": 10,
            "verse": 21,
            "name": "Romans 10:21",
            "text": "But concerning Israel he saith, \"All the day long I have stretched out my hands to a disobedient and rebellious people.\" "
        }
    ]
}