{
    "translation": "La Santa Biblia Reina-Valera (1865) con arreglos ortogr\u00e1ficos",
    "abbreviation": "sparv1865",
    "lang": "es",
    "language": "Spanish",
    "direction": "LTR",
    "encoding": "UTF-8",
    "book_nr": 18,
    "book_name": "Job",
    "chapter": 22,
    "name": "Job 22",
    "verses": [
        {
            "chapter": 22,
            "verse": 1,
            "name": "Job 22:1",
            "text": "Y respondi\u00f3 Elifaz Temanita, y dijo: "
        },
        {
            "chapter": 22,
            "verse": 2,
            "name": "Job 22:2",
            "text": "\u00bfTraer\u00e1 el hombre provecho a Dios? porque el sabio a s\u00ed mismo aprovecha. "
        },
        {
            "chapter": 22,
            "verse": 3,
            "name": "Job 22:3",
            "text": "\u00bfTiene su contentamiento el Omnipotente en que t\u00fa seas justificado? \u00bfo le viene alg\u00fan provecho de que t\u00fa hagas perfectos tus caminos? "
        },
        {
            "chapter": 22,
            "verse": 4,
            "name": "Job 22:4",
            "text": "\u00bfSi porque te teme, te castigar\u00e1, y vendr\u00e1 contigo a juicio? "
        },
        {
            "chapter": 22,
            "verse": 5,
            "name": "Job 22:5",
            "text": "Por cierto tu malicia es grande: y tus maldades no tienen fin. "
        },
        {
            "chapter": 22,
            "verse": 6,
            "name": "Job 22:6",
            "text": "Porque prendaste a tus hermanos sin causa, e hiciste desnudar las ropas de los desnudos. "
        },
        {
            "chapter": 22,
            "verse": 7,
            "name": "Job 22:7",
            "text": "No diste de beber agua al cansado, y al hambriento detuviste el pan. "
        },
        {
            "chapter": 22,
            "verse": 8,
            "name": "Job 22:8",
            "text": "Empero el violento tuvo la tierra, y el honrado habit\u00f3 en ella. "
        },
        {
            "chapter": 22,
            "verse": 9,
            "name": "Job 22:9",
            "text": "Las viudas enviaste vac\u00edas, y los brazos de los hu\u00e9rfanos fueron quebrados, "
        },
        {
            "chapter": 22,
            "verse": 10,
            "name": "Job 22:10",
            "text": "Por tanto hay lazos al derredor de ti, y te turba espanto repentino: "
        },
        {
            "chapter": 22,
            "verse": 11,
            "name": "Job 22:11",
            "text": "O tinieblas, porque no veas; y abundancia de agua te cubre. "
        },
        {
            "chapter": 22,
            "verse": 12,
            "name": "Job 22:12",
            "text": "\u00bfNo est\u00e1 Dios en la altura de los cielos? Mira la altura de las estrellas como son altas. "
        },
        {
            "chapter": 22,
            "verse": 13,
            "name": "Job 22:13",
            "text": "\u00bfDir\u00e1s pues: Qu\u00e9 sabe Dios? \u00bfc\u00f3mo juzgar\u00e1 por medio de la oscuridad? "
        },
        {
            "chapter": 22,
            "verse": 14,
            "name": "Job 22:14",
            "text": "Las nubes son su escondedero, y no ve: y por el cerco del cielo se pasea. "
        },
        {
            "chapter": 22,
            "verse": 15,
            "name": "Job 22:15",
            "text": "\u00bfQuieres t\u00fa guardar la senda antigua, que pisaron los varones perversos? "
        },
        {
            "chapter": 22,
            "verse": 16,
            "name": "Job 22:16",
            "text": "Los cuales fueron cortados antes de tiempo: cuyo fundamento fue como un r\u00edo derramado: "
        },
        {
            "chapter": 22,
            "verse": 17,
            "name": "Job 22:17",
            "text": "Que dec\u00edan a Dios: Ap\u00e1rtate de nosotros: \u00bfy qu\u00e9 nos ha de hacer el Omnipotente? "
        },
        {
            "chapter": 22,
            "verse": 18,
            "name": "Job 22:18",
            "text": "Habiendo \u00e9l henchido sus casas de bienes. Por tanto el consejo de ellos lejos sea de m\u00ed. "
        },
        {
            "chapter": 22,
            "verse": 19,
            "name": "Job 22:19",
            "text": "Ver\u00e1n los justos, y gozarse han, y el inocente los escarnecer\u00e1. "
        },
        {
            "chapter": 22,
            "verse": 20,
            "name": "Job 22:20",
            "text": "\u00bfFue cortada nuestra substancia, habiendo consumido el fuego el resto de ellos? "
        },
        {
            "chapter": 22,
            "verse": 21,
            "name": "Job 22:21",
            "text": "\u00b6 Ahora pues conci\u00e9rtate con \u00e9l, y tendr\u00e1s paz, y por ello te vendr\u00e1 bien. "
        },
        {
            "chapter": 22,
            "verse": 22,
            "name": "Job 22:22",
            "text": "Toma ahora la ley de su boca, y pon sus palabras en tu coraz\u00f3n. "
        },
        {
            "chapter": 22,
            "verse": 23,
            "name": "Job 22:23",
            "text": "Si te tornares hasta el Omnipotente, ser\u00e1s edificado: alejar\u00e1s de tu tienda la iniquidad. "
        },
        {
            "chapter": 22,
            "verse": 24,
            "name": "Job 22:24",
            "text": "Y tendr\u00e1s m\u00e1s oro que tierra, y como piedras de arroyos, oro de Ofir. "
        },
        {
            "chapter": 22,
            "verse": 25,
            "name": "Job 22:25",
            "text": "Y tu oro ser\u00e1 el Todopoderoso; y tendr\u00e1s plata a montones. "
        },
        {
            "chapter": 22,
            "verse": 26,
            "name": "Job 22:26",
            "text": "Porque entonces te deleitar\u00e1s en el Omnipotente, y alzar\u00e1s a Dios tu rostro. "
        },
        {
            "chapter": 22,
            "verse": 27,
            "name": "Job 22:27",
            "text": "Orar\u00e1s a \u00e9l, y \u00e9l te oir\u00e1, y pagar\u00e1s tus votos. "
        },
        {
            "chapter": 22,
            "verse": 28,
            "name": "Job 22:28",
            "text": "Y determinar\u00e1s la cosa, y serte ha firme, y sobre tus caminos resplandecer\u00e1 luz. "
        },
        {
            "chapter": 22,
            "verse": 29,
            "name": "Job 22:29",
            "text": "Cuando los otros fueren abatidos, dir\u00e1s t\u00fa: Ensalzamiento: y al humilde de ojos salvar\u00e1. "
        },
        {
            "chapter": 22,
            "verse": 30,
            "name": "Job 22:30",
            "text": "Un inocente escapar\u00e1 una isla: y en la limpieza de tus manos ser\u00e1 guardada.  "
        }
    ]
}