{
    "translation": "Urdu Geo Version (UGV)",
    "abbreviation": "urdugeo",
    "lang": "ur",
    "language": "Urdu",
    "direction": "RTL",
    "encoding": "UTF-8",
    "book_nr": 19,
    "book_name": "Psalms",
    "chapter": 101,
    "name": "Psalms 101",
    "verses": [
        {
            "chapter": 101,
            "verse": 1,
            "name": "Psalms 101:1",
            "text": " \u062f\u0627\u0624\u062f \u06a9\u0627 \u0632\u0628\u0648\u0631\u06d4 \u0645\u064e\u06cc\u06ba \u0634\u0641\u0642\u062a \u0627\u0648\u0631 \u0627\u0646\u0635\u0627\u0641 \u06a9\u0627 \u06af\u06cc\u062a \u06af\u0627\u0624\u06ba \u06af\u0627\u06d4 \u0627\u06d2 \u0631\u0628\u060c \u0645\u064e\u06cc\u06ba \u062a\u06cc\u0631\u06cc \u0645\u062f\u062d \u0633\u0631\u0627\u0626\u06cc \u06a9\u0631\u0648\u06ba \u06af\u0627\u06d4"
        },
        {
            "chapter": 101,
            "verse": 2,
            "name": "Psalms 101:2",
            "text": "\u0645\u064e\u06cc\u06ba \u0628\u0691\u06cc \u0627\u062d\u062a\u06cc\u0627\u0637 \u0633\u06d2 \u0628\u06d2\u0627\u0644\u0632\u0627\u0645 \u0631\u0627\u06c1 \u067e\u0631 \u0686\u0644\u0648\u06ba \u06af\u0627\u06d4 \u0644\u06cc\u06a9\u0646 \u062a\u064f\u0648 \u06a9\u0628 \u0645\u06cc\u0631\u06d2 \u067e\u0627\u0633 \u0622\u0626\u06d2 \u06af\u0627\u061f \u0645\u064e\u06cc\u06ba \u062e\u0644\u0648\u0635 \u062f\u0644\u06cc \u0633\u06d2 \u0627\u067e\u0646\u06d2 \u06af\u06be\u0631 \u0645\u06cc\u06ba \u0632\u0646\u062f\u06af\u06cc \u06af\u0632\u0627\u0631\u0648\u06ba \u06af\u0627\u06d4"
        },
        {
            "chapter": 101,
            "verse": 3,
            "name": "Psalms 101:3",
            "text": "\u0645\u064e\u06cc\u06ba \u0634\u0631\u0627\u0631\u062a \u06a9\u06cc \u0628\u0627\u062a \u0627\u067e\u0646\u06d2 \u0633\u0627\u0645\u0646\u06d2 \u0646\u06c1\u06cc\u06ba \u0631\u06a9\u06be\u062a\u0627 \u0627\u0648\u0631 \u0628\u064f\u0631\u06cc \u062d\u0631\u06a9\u062a\u0648\u06ba \u0633\u06d2 \u0646\u0641\u0631\u062a \u06a9\u0631\u062a\u0627 \u06c1\u0648\u06ba\u06d4 \u0627\u06cc\u0633\u06cc \u0686\u06cc\u0632\u06cc\u06ba \u0645\u06cc\u0631\u06d2 \u0633\u0627\u062a\u06be \u0644\u067e\u0679 \u0646\u06c1 \u062c\u0627\u0626\u06cc\u06ba\u06d4"
        },
        {
            "chapter": 101,
            "verse": 4,
            "name": "Psalms 101:4",
            "text": "\u062c\u06be\u0648\u0679\u0627 \u062f\u0644 \u0645\u062c\u06be \u0633\u06d2 \u062f\u064f\u0648\u0631 \u0631\u06c1\u06d2\u06d4 \u0645\u064e\u06cc\u06ba \u0628\u064f\u0631\u0627\u0626\u06cc \u06a9\u0648 \u062c\u0627\u0646\u0646\u0627 \u06c1\u06cc \u0646\u06c1\u06cc\u06ba \u0686\u0627\u06c1\u062a\u0627\u06d4"
        },
        {
            "chapter": 101,
            "verse": 5,
            "name": "Psalms 101:5",
            "text": "\u062c\u0648 \u0686\u067e\u06a9\u06d2 \u0633\u06d2 \u0627\u067e\u0646\u06d2 \u067e\u0691\u0648\u0633\u06cc \u067e\u0631 \u062a\u06c1\u0645\u062a \u0644\u06af\u0627\u0626\u06d2 \u0627\u064f\u0633\u06d2 \u0645\u064e\u06cc\u06ba \u062e\u0627\u0645\u0648\u0634 \u06a9\u0631\u0627\u0624\u06ba \u06af\u0627\u060c \u062c\u0633 \u06a9\u06cc \u0622\u0646\u06a9\u06be\u06cc\u06ba \u0645\u063a\u0631\u0648\u0631 \u0627\u0648\u0631 \u062f\u0644 \u0645\u062a\u06a9\u0628\u0631 \u06c1\u0648 \u0627\u064f\u0633\u06d2 \u0628\u0631\u062f\u0627\u0634\u062a \u0646\u06c1\u06cc\u06ba \u06a9\u0631\u0648\u06ba \u06af\u0627\u06d4"
        },
        {
            "chapter": 101,
            "verse": 6,
            "name": "Psalms 101:6",
            "text": "\u0645\u06cc\u0631\u06cc \u0622\u0646\u06a9\u06be\u06cc\u06ba \u0645\u0644\u06a9 \u06a9\u06d2 \u0648\u0641\u0627\u062f\u0627\u0631\u0648\u06ba \u067e\u0631 \u0644\u06af\u06cc \u0631\u06c1\u062a\u06cc \u06c1\u06cc\u06ba \u062a\u0627\u06a9\u06c1 \u0648\u06c1 \u0645\u06cc\u0631\u06d2 \u0633\u0627\u062a\u06be \u0631\u06c1\u06cc\u06ba\u06d4 \u062c\u0648 \u0628\u06d2\u0627\u0644\u0632\u0627\u0645 \u0631\u0627\u06c1 \u067e\u0631 \u0686\u0644\u06d2 \u0648\u06c1\u06cc \u0645\u06cc\u0631\u06cc \u062e\u062f\u0645\u062a \u06a9\u0631\u06d2\u06d4"
        },
        {
            "chapter": 101,
            "verse": 7,
            "name": "Psalms 101:7",
            "text": "\u062f\u06be\u0648\u06a9\u06d2 \u0628\u0627\u0632 \u0645\u06cc\u0631\u06d2 \u06af\u06be\u0631 \u0645\u06cc\u06ba \u0646\u06c1 \u0679\u06be\u06c1\u0631\u06d2\u060c \u062c\u06be\u0648\u0679 \u0628\u0648\u0644\u0646\u06d2 \u0648\u0627\u0644\u0627 \u0645\u06cc\u0631\u06cc \u0645\u0648\u062c\u0648\u062f\u06af\u06cc \u0645\u06cc\u06ba \u0642\u0627\u0626\u0645 \u0646\u06c1 \u0631\u06c1\u06d2\u06d4"
        },
        {
            "chapter": 101,
            "verse": 8,
            "name": "Psalms 101:8",
            "text": "\u06c1\u0631 \u0635\u0628\u062d \u06a9\u0648 \u0645\u064e\u06cc\u06ba \u0645\u0644\u06a9 \u06a9\u06d2 \u062a\u0645\u0627\u0645 \u0628\u06d2\u062f\u06cc\u0646\u0648\u06ba \u06a9\u0648 \u062e\u0627\u0645\u0648\u0634 \u06a9\u0631\u0627\u0624\u06ba \u06af\u0627 \u062a\u0627\u06a9\u06c1 \u062a\u0645\u0627\u0645 \u0628\u062f\u06a9\u0627\u0631\u0648\u06ba \u06a9\u0648 \u0631\u0628 \u06a9\u06d2 \u0634\u06c1\u0631 \u0645\u06cc\u06ba \u0633\u06d2 \u0645\u0679\u0627\u06cc\u0627 \u062c\u0627\u0626\u06d2\u06d4  "
        }
    ]
}