{
    "translation": "Finnish Bible (1776)",
    "abbreviation": "finnish1776",
    "lang": "fi",
    "language": "Finnish",
    "direction": "LTR",
    "encoding": "",
    "book_nr": 19,
    "book_name": "Psalms",
    "chapter": 29,
    "name": "Psalms 29",
    "verses": [
        {
            "chapter": 29,
            "verse": 1,
            "name": "Psalms 29:1",
            "text": "Davidin Psalmi. Tuokaat Herralle, te v\u00e4kev\u00e4t, tuokaat Herralle kunnia ja v\u00e4kevyys."
        },
        {
            "chapter": 29,
            "verse": 2,
            "name": "Psalms 29:2",
            "text": "Tuokaat Herralle h\u00e4nen nimens\u00e4 kunnia: kumartakaat Herraa pyh\u00e4ss\u00e4 kaunistuksessa."
        },
        {
            "chapter": 29,
            "verse": 3,
            "name": "Psalms 29:3",
            "text": "Herran \u00e4\u00e4ni k\u00e4y vetten p\u00e4\u00e4ll\u00e4: kunnian Jumala pauhaa, suurten vetten p\u00e4\u00e4ll\u00e4."
        },
        {
            "chapter": 29,
            "verse": 4,
            "name": "Psalms 29:4",
            "text": "Herran \u00e4\u00e4ni k\u00e4y voimassa: Herran \u00e4\u00e4ni k\u00e4y suuressa kunniassa."
        },
        {
            "chapter": 29,
            "verse": 5,
            "name": "Psalms 29:5",
            "text": "Herran \u00e4\u00e4ni s\u00e4rkee sedripuut, ja Herra s\u00e4rkee sedripuut Libanonissa."
        },
        {
            "chapter": 29,
            "verse": 6,
            "name": "Psalms 29:6",
            "text": "H\u00e4n hypp\u00e4ytt\u00e4\u00e4 heit\u00e4 niinkuin vasikan, sek\u00e4 Libanonin ett\u00e4 Sirionin, niinkuin nuoren yksisarvisen."
        },
        {
            "chapter": 29,
            "verse": 7,
            "name": "Psalms 29:7",
            "text": "Herran \u00e4\u00e4ni leikkaa niinkuin tulen liekki."
        },
        {
            "chapter": 29,
            "verse": 8,
            "name": "Psalms 29:8",
            "text": "Herran \u00e4\u00e4ni h\u00e4\u00e4lytt\u00e4\u00e4 korven, ja Herra liikuttaa Kadeksen korven."
        },
        {
            "chapter": 29,
            "verse": 9,
            "name": "Psalms 29:9",
            "text": "Herran \u00e4\u00e4ni saattaa peurat poikimaan, ja paljastaa mets\u00e4t: ja h\u00e4nen templiss\u00e4ns\u00e4 pit\u00e4\u00e4 koko h\u00e4nen joukkonsa sanoman h\u00e4nelle kunnian."
        },
        {
            "chapter": 29,
            "verse": 10,
            "name": "Psalms 29:10",
            "text": "Herra istuu vedenpaisumisen p\u00e4\u00e4ll\u00e4: Herra pysyy Kuninkaana ijankaikkisesti."
        },
        {
            "chapter": 29,
            "verse": 11,
            "name": "Psalms 29:11",
            "text": "Herra antaa kansallensa v\u00e4kevyyden: Herra siunaa kansaansa rauhalla."
        }
    ]
}