{
    "translation": "American King James Version",
    "abbreviation": "akjv",
    "lang": "en",
    "language": "English",
    "direction": "LTR",
    "encoding": "",
    "book_nr": 18,
    "book_name": "Job",
    "chapter": 4,
    "name": "Job 4",
    "verses": [
        {
            "chapter": 4,
            "verse": 1,
            "name": "Job 4:1",
            "text": "Then Eliphaz the Temanite answered and said,"
        },
        {
            "chapter": 4,
            "verse": 2,
            "name": "Job 4:2",
            "text": "If we assay to commune with you, will you be grieved? but who can withhold himself from speaking?"
        },
        {
            "chapter": 4,
            "verse": 3,
            "name": "Job 4:3",
            "text": "Behold, you have instructed many, and you have strengthened the weak hands."
        },
        {
            "chapter": 4,
            "verse": 4,
            "name": "Job 4:4",
            "text": "Your words have upheld him that was falling, and you have strengthened the feeble knees."
        },
        {
            "chapter": 4,
            "verse": 5,
            "name": "Job 4:5",
            "text": "But now it is come on you, and you faint; it touches you, and you are troubled."
        },
        {
            "chapter": 4,
            "verse": 6,
            "name": "Job 4:6",
            "text": "Is not this your fear, your confidence, your hope, and the uprightness of your ways?"
        },
        {
            "chapter": 4,
            "verse": 7,
            "name": "Job 4:7",
            "text": "Remember, I pray you, who ever perished, being innocent? or where were the righteous cut off?"
        },
        {
            "chapter": 4,
            "verse": 8,
            "name": "Job 4:8",
            "text": "Even as I have seen, they that plow iniquity, and sow wickedness, reap the same."
        },
        {
            "chapter": 4,
            "verse": 9,
            "name": "Job 4:9",
            "text": "By the blast of God they perish, and by the breath of his nostrils are they consumed."
        },
        {
            "chapter": 4,
            "verse": 10,
            "name": "Job 4:10",
            "text": "The roaring of the lion, and the voice of the fierce lion, and the teeth of the young lions, are broken."
        },
        {
            "chapter": 4,
            "verse": 11,
            "name": "Job 4:11",
            "text": "The old lion perishes for lack of prey, and the stout lion's whelps are scattered abroad."
        },
        {
            "chapter": 4,
            "verse": 12,
            "name": "Job 4:12",
            "text": "Now a thing was secretly brought to me, and my ear received a little thereof."
        },
        {
            "chapter": 4,
            "verse": 13,
            "name": "Job 4:13",
            "text": "In thoughts from the visions of the night, when deep sleep falls on men,"
        },
        {
            "chapter": 4,
            "verse": 14,
            "name": "Job 4:14",
            "text": "Fear came on me, and trembling, which made all my bones to shake."
        },
        {
            "chapter": 4,
            "verse": 15,
            "name": "Job 4:15",
            "text": "Then a spirit passed before my face; the hair of my flesh stood up:"
        },
        {
            "chapter": 4,
            "verse": 16,
            "name": "Job 4:16",
            "text": "It stood still, but I could not discern the form thereof: an image was before my eyes, there was silence, and I heard a voice, saying,"
        },
        {
            "chapter": 4,
            "verse": 17,
            "name": "Job 4:17",
            "text": "Shall mortal man be more just than God? shall a man be more pure than his maker?"
        },
        {
            "chapter": 4,
            "verse": 18,
            "name": "Job 4:18",
            "text": "Behold, he put no trust in his servants; and his angels he charged with folly:"
        },
        {
            "chapter": 4,
            "verse": 19,
            "name": "Job 4:19",
            "text": "How much less in them that dwell in houses of clay, whose foundation is in the dust, which are crushed before the moth?"
        },
        {
            "chapter": 4,
            "verse": 20,
            "name": "Job 4:20",
            "text": "They are destroyed from morning to evening: they perish for ever without any regarding it."
        },
        {
            "chapter": 4,
            "verse": 21,
            "name": "Job 4:21",
            "text": "Does not their excellency which is in them go away? they die, even without wisdom."
        }
    ]
}