{
    "translation": "\u05de\u05e7\u05e8\u05d0 \u05e2\u05dc \u05e4\u05d9 \u05d4\u05de\u05e1\u05d5\u05e8\u05d4 (Miqra `al pi ha-Mesorah)",
    "abbreviation": "mapm",
    "lang": "he",
    "language": "Hebrew",
    "direction": "RTL",
    "encoding": "UTF-8",
    "book_nr": 19,
    "book_name": "Psalms",
    "chapter": 80,
    "name": "Psalms 80",
    "verses": [
        {
            "chapter": 80,
            "verse": 1,
            "name": "Psalms 80:1",
            "text": "\u05dc\u05b7\u05de\u05b0\u05e0\u05b7\u05e6\u05bc\u05b5\u05a5\u05d7\u05b7 \u05d0\u05b6\u05dc\u05be\u05e9\u05c1\u05b9\u05e9\u05c1\u05b7\u05e0\u05bc\u05b4\u0591\u05d9\u05dd \u05e2\u05b5\u05d3\u0596\u05d5\u05bc\u05ea \u05dc\u05b0\u05d0\u05b8\u05e1\u05b8\u05a3\u05e3 \u05de\u05b4\u05d6\u05b0\u05de\u05bd\u05d5\u05b9\u05e8\u05c3"
        },
        {
            "chapter": 80,
            "verse": 2,
            "name": "Psalms 80:2",
            "text": "\u05e8\u05b9\u0598\u05e2\u05b5\u05a4\u05d4 \u05d9\u05b4\u05e9\u05c2\u05b0\u05e8\u05b8\u05d0\u05b5\u05a8\u05dc\u00a0\u05c0\u00a0\u05d4\u05b7\u05d0\u05b2\u05d6\u05b4\u0597\u05d9\u05e0\u05b8\u05d4 \u05e0\u05b9\u05d4\u05b5\u05a3\u05d2 \u05db\u05bc\u05b7\u05e6\u05bc\u05b9\u05a3\u05d0\u05df \u05d9\u05d5\u05b9\u05e1\u05b5\u0591\u05e3 \u05d9\u05b9\u05e9\u05c1\u05b5\u0596\u05d1 \u05d4\u05b7\u05db\u05bc\u05b0\u05e8\u05d5\u05bc\u05d1\u05b4\u05a3\u05d9\u05dd \u05d4\u05d5\u05b9\u05e4\u05b4\u05bd\u05d9\u05e2\u05b8\u05d4\u05c3"
        },
        {
            "chapter": 80,
            "verse": 3,
            "name": "Psalms 80:3",
            "text": "\u05dc\u05b4\u05e4\u05b0\u05e0\u05b5\u05a4\u05d9 \u05d0\u05b6\u05e4\u05b0\u05e8\u05b7\u05a8\u05d9\u05b4\u05dd\u00a0\u05c0\u00a0\u05d5\u05bc\u05d1\u05b4\u05e0\u05b0\u05d9\u05b8\u0598\u05de\u05b4\u05a4\u05df \u05d5\u05bc\u05de\u05b0\u05e0\u05b7\u05e9\u05c1\u05bc\u05b6\u0597\u05d4 \u05e2\u05d5\u05b9\u05e8\u05b0\u05e8\u05b8\u05a5\u05d4 \u05d0\u05b6\u05ea\u05be\u05d2\u05bc\u05b0\u05d1\u05d5\u05bc\u05e8\u05b8\u05ea\u05b6\u0591\u05da\u05b8 \u05d5\u05bc\u05dc\u05b0\u05db\u05b8\u0596\u05d4 \u05dc\u05b4\u05d9\u05e9\u05c1\u05bb\u05e2\u05b8\u05a3\u05ea\u05b8\u05d4 \u05dc\u05bc\u05b8\u05bd\u05e0\u05d5\u05bc\u05c3"
        },
        {
            "chapter": 80,
            "verse": 4,
            "name": "Psalms 80:4",
            "text": "\u05d0\u05b1\u05dc\u05b9\u05d4\u05b4\u05a5\u05d9\u05dd \u05d4\u05b2\u05e9\u05c1\u05b4\u05d9\u05d1\u05b5\u0591\u05e0\u05d5\u05bc \u05d5\u05b0\u05d4\u05b8\u05d0\u05b5\u05a5\u05e8 \u05e4\u05bc\u05b8\u059d\u05e0\u05b6\u0597\u05d9\u05da\u05b8 \u05d5\u05b0\u05e0\u05b4\u05d5\u05bc\u05b8\u05e9\u05c1\u05b5\u05bd\u05e2\u05b8\u05d4\u05c3"
        },
        {
            "chapter": 80,
            "verse": 5,
            "name": "Psalms 80:5",
            "text": "\u05d9\u05b0\u05d4\u05b9\u05d5\u05b8\u05a3\u05d4 \u05d0\u05b1\u05dc\u05b9\u05d4\u05b4\u05a3\u05d9\u05dd \u05e6\u05b0\u05d1\u05b8\u05d0\u0591\u05d5\u05b9\u05ea \u05e2\u05b7\u05d3\u05be\u05de\u05b8\u05ea\u05b7\u05a5\u05d9 \u05e2\u05b8\u059d\u05e9\u05c1\u05b7\u0597\u05e0\u05b0\u05ea\u05bc\u05b8 \u05d1\u05bc\u05b4\u05ea\u05b0\u05e4\u05b4\u05dc\u05bc\u05b7\u05a5\u05ea \u05e2\u05b7\u05de\u05bc\u05b6\u05bd\u05da\u05b8\u05c3"
        },
        {
            "chapter": 80,
            "verse": 6,
            "name": "Psalms 80:6",
            "text": "\u05d4\u05b6\u05ad\u05d0\u05b1\u05db\u05b7\u05dc\u05b0\u05ea\u05bc\u05b8\u05dd \u05dc\u05b6\u05a3\u05d7\u05b6\u05dd \u05d3\u05bc\u05b4\u05de\u05b0\u05e2\u05b8\u0591\u05d4 \u05d5\u05b7\u059d\u05ea\u05bc\u05b7\u05e9\u05c1\u05b0\u05e7\u05b5\u0597\u05de\u05d5\u05b9 \u05d1\u05bc\u05b4\u05d3\u05b0\u05de\u05b8\u05e2\u05a5\u05d5\u05b9\u05ea \u05e9\u05c1\u05b8\u05dc\u05b4\u05bd\u05d9\u05e9\u05c1\u05c3"
        },
        {
            "chapter": 80,
            "verse": 7,
            "name": "Psalms 80:7",
            "text": "\u05ea\u05bc\u05b0\u05e9\u05c2\u05b4\u05d9\u05de\u05b5\u05a3\u05e0\u05d5\u05bc \u05de\u05b8\u05ad\u05d3\u05d5\u05b9\u05df \u05dc\u05b4\u05e9\u05c1\u05b0\u05db\u05b5\u05e0\u05b5\u0591\u05d9\u05e0\u05d5\u05bc \u05d5\u05b0\u059d\u05d0\u05b9\u05d9\u05b0\u05d1\u05b5\u0597\u05d9\u05e0\u05d5\u05bc \u05d9\u05b4\u05dc\u05b0\u05e2\u05b2\u05d2\u05d5\u05bc\u05be\u05dc\u05b8\u05bd\u05de\u05d5\u05b9\u05c3"
        },
        {
            "chapter": 80,
            "verse": 8,
            "name": "Psalms 80:8",
            "text": "\u05d0\u05b1\u05dc\u05b9\u05d4\u05b4\u05a3\u05d9\u05dd \u05e6\u05b0\u05d1\u05b8\u05d0\u05a3\u05d5\u05b9\u05ea \u05d4\u05b2\u05e9\u05c1\u05b4\u05d9\u05d1\u05b5\u0591\u05e0\u05d5\u05bc \u05d5\u05b0\u05d4\u05b8\u05d0\u05b5\u05a5\u05e8 \u05e4\u05bc\u05b8\u059d\u05e0\u05b6\u0597\u05d9\u05da\u05b8 \u05d5\u05b0\u05e0\u05b4\u05d5\u05bc\u05b8\u05e9\u05c1\u05b5\u05bd\u05e2\u05b8\u05d4\u05c3"
        },
        {
            "chapter": 80,
            "verse": 9,
            "name": "Psalms 80:9",
            "text": "\u05d2\u05bc\u05b6\u05ad\u05e4\u05b6\u05df \u05de\u05b4\u05de\u05bc\u05b4\u05e6\u05b0\u05e8\u05b7\u05a3\u05d9\u05b4\u05dd \u05ea\u05bc\u05b7\u05e1\u05bc\u05b4\u0591\u05d9\u05e2\u05b7 \u05ea\u05bc\u05b0\u05d2\u05b8\u05e8\u05b5\u05a5\u05e9\u05c1 \u05d2\u05bc\u059d\u05d5\u05b9\u05d9\u05b4\u0597\u05dd \u05d5\u05b7\u05ea\u05bc\u05b4\u05d8\u05bc\u05b8\u05e2\u05b6\u05bd\u05d4\u05b8\u05c3"
        },
        {
            "chapter": 80,
            "verse": 10,
            "name": "Psalms 80:10",
            "text": "\u05e4\u05bc\u05b4\u05e0\u05bc\u05b4\u05a5\u05d9\u05ea\u05b8 \u05dc\u05b0\u05e4\u05b8\u05e0\u05b6\u0591\u05d9\u05d4\u05b8 \u05d5\u05b7\u05ea\u05bc\u05b7\u05e9\u05c1\u05b0\u05e8\u05b5\u05a5\u05e9\u05c1 \u05e9\u05c1\u05c7\u059d\u05e8\u05b8\u05e9\u05c1\u05b6\u0597\u05d9\u05d4\u05b8 \u05d5\u05b7\u05ea\u05bc\u05b0\u05de\u05b7\u05dc\u05bc\u05b5\u05d0\u05be\u05d0\u05b8\u05bd\u05e8\u05b6\u05e5\u05c3"
        },
        {
            "chapter": 80,
            "verse": 11,
            "name": "Psalms 80:11",
            "text": "\u05db\u05bc\u05b8\u05e1\u05bc\u05a3\u05d5\u05bc \u05d4\u05b8\u05e8\u05b4\u05a3\u05d9\u05dd \u05e6\u05b4\u05dc\u05bc\u05b8\u0591\u05d4\u05bc \u05d5\u05b7\u059d\u05e2\u05b2\u05e0\u05b8\u05e4\u05b6\u0597\u05d9\u05d4\u05b8 \u05d0\u05b7\u05bd\u05e8\u05b0\u05d6\u05b5\u05d9\u05be\u05d0\u05b5\u05bd\u05dc\u05c3"
        },
        {
            "chapter": 80,
            "verse": 12,
            "name": "Psalms 80:12",
            "text": "\u05ea\u05bc\u05b0\u05e9\u05c1\u05b7\u05dc\u05bc\u05b7\u05a3\u05d7 \u05e7\u05b0\u05e6\u05b4\u05d9\u05e8\u05b6\u05a3\u05d4\u05b8 \u05e2\u05b7\u05d3\u05be\u05d9\u05b8\u0591\u05dd \u05d5\u05b0\u05d0\u05b6\u05dc\u05be\u05e0\u05b8\u059d\u05d4\u05b8\u0597\u05e8 \u05d9\u05d5\u05b9\u05e0\u05b0\u05e7\u05d5\u05b9\u05ea\u05b6\u05bd\u05d9\u05d4\u05b8\u05c3"
        },
        {
            "chapter": 80,
            "verse": 13,
            "name": "Psalms 80:13",
            "text": "\u05dc\u05b8\u05ad\u05de\u05bc\u05b8\u05d4 \u05e4\u05bc\u05b8\u05e8\u05b7\u05a3\u05e6\u05b0\u05ea\u05bc\u05b8 \u05d2\u05b0\u05d3\u05b5\u05e8\u05b6\u0591\u05d9\u05d4\u05b8 \u05d5\u05b0\u059d\u05d0\u05b8\u05e8\u0597\u05d5\u05bc\u05d4\u05b8 \u05db\u05bc\u05c7\u05dc\u05be\u05e2\u05b9\u05a5\u05d1\u05b0\u05e8\u05b5\u05d9 \u05d3\u05b8\u05bd\u05e8\u05b6\u05da\u05b0\u05c3"
        },
        {
            "chapter": 80,
            "verse": 14,
            "name": "Psalms 80:14",
            "text": "\u05d9\u05b0\u05db\u05b7\u05e8\u05b0\u05e1\u05b0\u05de\u05b6\u05a3\u05e0\u05bc\u05b8\u05bd\u05d4 \u05d7\u05b2\u05d6\u05b4\u05a3\u05d9\u05e8 \u05de\u05b4\u05d9\u05bc\u05b8\u0591\u05e2\u05b7\u05e8 \u05d5\u05b0\u05d6\u05b4\u0596\u05d9\u05d6 \u05e9\u05c2\u05b8\u05d3\u05b7\u05a3\u05d9 \u05d9\u05b4\u05e8\u05b0\u05e2\u05b6\u05bd\u05e0\u05bc\u05b8\u05d4\u05c3"
        },
        {
            "chapter": 80,
            "verse": 15,
            "name": "Psalms 80:15",
            "text": "\u05d0\u05b1\u05dc\u05b9\u05d4\u05b4\u05a3\u05d9\u05dd \u05e6\u05b0\u05d1\u05b8\u05d0\u05d5\u05b9\u05ea\u05ae\u00a0\u05e9\u05c1\u05bd\u05ab\u05d5\u05bc\u05d1 \u05e0\u05b8\u05a5\u05d0 \u05d4\u05b7\u05d1\u05bc\u05b5\u05a3\u05d8 \u05de\u05b4\u05e9\u05c1\u05bc\u05b8\u05de\u05b7\u05a3\u05d9\u05b4\u05dd \u05d5\u05bc\u05e8\u05b0\u05d0\u05b5\u0591\u05d4 \u05d5\u05bc\u059d\u05e4\u05b0\u05e7\u05b9\u0597\u05d3 \u05d2\u05bc\u05b6\u05a3\u05e4\u05b6\u05df \u05d6\u05b9\u05bd\u05d0\u05ea\u05c3"
        },
        {
            "chapter": 80,
            "verse": 16,
            "name": "Psalms 80:16",
            "text": "\u05d5\u05b0\u05ad\u05db\u05b7\u05e0\u05bc\u05b8\u05d4 \u05d0\u05b2\u05e9\u05c1\u05b6\u05e8\u05be\u05e0\u05b8\u05d8\u05b0\u05e2\u05b8\u05a3\u05d4 \u05d9\u05b0\u05de\u05b4\u05d9\u05e0\u05b6\u0591\u05da\u05b8 \u05d5\u05b0\u05e2\u05b7\u05dc\u05be\u05d1\u05bc\u05b5\u059d\u0597\u05df \u05d0\u05b4\u05de\u05bc\u05b7\u05a5\u05e6\u05b0\u05ea\u05bc\u05b8\u05d4 \u05dc\u05bc\u05b8\u05bd\u05da\u05b0\u05c3"
        },
        {
            "chapter": 80,
            "verse": 17,
            "name": "Psalms 80:17",
            "text": "\u05e9\u05c2\u05b0\u05e8\u05bb\u05e4\u05b8\u05a3\u05d4 \u05d1\u05b8\u05d0\u05b5\u05a3\u05e9\u05c1 \u05db\u05bc\u05b0\u05e1\u05d5\u05bc\u05d7\u05b8\u0591\u05d4 \u05de\u05b4\u05d2\u05bc\u05b7\u05e2\u05b2\u05e8\u05b7\u0596\u05ea \u05e4\u05bc\u05b8\u05e0\u05b6\u05a3\u05d9\u05da\u05b8 \u05d9\u05b9\u05d0\u05d1\u05b5\u05bd\u05d3\u05d5\u05bc\u05c3"
        },
        {
            "chapter": 80,
            "verse": 18,
            "name": "Psalms 80:18",
            "text": "\u05ea\u05bc\u05b0\u05bd\u05d4\u05b4\u05d9\u05be\u05d9\u05b8\u05ad\u05d3\u05b0\u05da\u05b8 \u05e2\u05b7\u05dc\u05be\u05d0\u05b4\u05a3\u05d9\u05e9\u05c1 \u05d9\u05b0\u05de\u05b4\u05d9\u05e0\u05b6\u0591\u05da\u05b8 \u05e2\u05b7\u05dc\u05be\u05d1\u05bc\u05b6\u05df\u05be\u05d0\u05b8\u059d\u05d3\u05b8\u0597\u05dd \u05d0\u05b4\u05de\u05bc\u05b7\u05a5\u05e6\u05b0\u05ea\u05bc\u05b8 \u05dc\u05bc\u05b8\u05bd\u05da\u05b0\u05c3"
        },
        {
            "chapter": 80,
            "verse": 19,
            "name": "Psalms 80:19",
            "text": "\u05d5\u05b0\u05dc\u05b9\u05bd\u05d0\u05be\u05e0\u05b8\u05e1\u05a5\u05d5\u05b9\u05d2 \u05de\u05b4\u05de\u05bc\u05b6\u0591\u05da\u05bc\u05b8 \u05ea\u05bc\u05b0\u059d\u05d7\u05b7\u05d9\u05bc\u05b5\u0597\u05e0\u05d5\u05bc \u05d5\u05bc\u05d1\u05b0\u05e9\u05c1\u05b4\u05de\u05b0\u05da\u05b8\u05a5 \u05e0\u05b4\u05e7\u05b0\u05e8\u05b8\u05bd\u05d0\u05c3"
        },
        {
            "chapter": 80,
            "verse": 20,
            "name": "Psalms 80:20",
            "text": "\u05d9\u05b0\u05d4\u05b9\u0598\u05d5\u05b8\u05a4\u05d4 \u05d0\u05b1\u05dc\u05b9\u05d4\u05b4\u05a3\u05d9\u05dd \u05e6\u05b0\u05d1\u05b8\u05d0\u05a3\u05d5\u05b9\u05ea \u05d4\u05b2\u05e9\u05c1\u05b4\u05d9\u05d1\u05b5\u0591\u05e0\u05d5\u05bc \u05d4\u05b8\u05d0\u05b5\u05a5\u05e8 \u05e4\u05bc\u05b8\u059d\u05e0\u05b6\u0597\u05d9\u05da\u05b8 \u05d5\u05b0\u05e0\u05b4\u05d5\u05bc\u05b8\u05e9\u05c1\u05b5\u05bd\u05e2\u05b8\u05d4\u05c3   "
        }
    ]
}