{
    "translation": "Revised Webster Version (1833)",
    "abbreviation": "rwebster",
    "lang": "en",
    "language": "English",
    "direction": "LTR",
    "encoding": "",
    "book_nr": 6,
    "book_name": "Joshua",
    "chapter": 7,
    "name": "Joshua 7",
    "verses": [
        {
            "chapter": 7,
            "verse": 1,
            "name": "Joshua 7:1",
            "text": "But the children of Israel committed a trespass in the accursed thing: for Achan, the son of Carmi, the son of Zabdi, the son of Zerah, of the tribe of Judah, took of the accursed thing: and the anger of the LORD was kindled against the children of Israel. {Achan: also called, Achar} {Zabdi: also called, Zimri}"
        },
        {
            "chapter": 7,
            "verse": 2,
            "name": "Joshua 7:2",
            "text": "And Joshua sent men from Jericho to Ai, which <FI>is<Fi> beside Bethaven, on the east side of Bethel, and spoke to them, saying, Go up and view the country. And the men went up and viewed Ai."
        },
        {
            "chapter": 7,
            "verse": 3,
            "name": "Joshua 7:3",
            "text": "And they returned to Joshua, and said to him, Let not all the people go up; but let about two or three thousand men go up and smite Ai; <FI>and<Fi> make not all the people to labour there; for they <FI>are but<Fi> few. {about...: Heb. about two thousand men, or, about three thousand men}"
        },
        {
            "chapter": 7,
            "verse": 4,
            "name": "Joshua 7:4",
            "text": "So there went up there from the people about three thousand men: and they fled before the men of Ai."
        },
        {
            "chapter": 7,
            "verse": 5,
            "name": "Joshua 7:5",
            "text": "And the men of Ai smote of them about thirty and six men: for they chased them <FI>from<Fi> before the gate <FI>even<Fi> to Shebarim, and smote them in the going down: therefore the hearts of the people melted, and became as water. {in...: or, in Morad}"
        },
        {
            "chapter": 7,
            "verse": 6,
            "name": "Joshua 7:6",
            "text": "And Joshua tore his clothes, and fell to the earth upon his face before the ark of the LORD until the evening, he and the elders of Israel, and put dust upon their heads."
        },
        {
            "chapter": 7,
            "verse": 7,
            "name": "Joshua 7:7",
            "text": "And Joshua said, Alas, O Lord GOD, why hast thou at all brought this people over Jordan, to deliver us into the hand of the Amorites, to destroy us? O that we had been content, and dwelt on the other side of Jordan!"
        },
        {
            "chapter": 7,
            "verse": 8,
            "name": "Joshua 7:8",
            "text": "O Lord, what shall I say, when Israel turneth their backs before their enemies! {backs: Heb. necks}"
        },
        {
            "chapter": 7,
            "verse": 9,
            "name": "Joshua 7:9",
            "text": "For the Canaanites and all the inhabitants of the land shall hear <FI>of it<Fi> , and shall surround us, and cut off our name from the earth: and what wilt thou do to thy great name?"
        },
        {
            "chapter": 7,
            "verse": 10,
            "name": "Joshua 7:10",
            "text": "And the LORD said to Joshua, Arise; why liest thou thus upon thy face? {liest: Heb. fallest}"
        },
        {
            "chapter": 7,
            "verse": 11,
            "name": "Joshua 7:11",
            "text": "Israel hath sinned, and they have also transgressed my covenant which I commanded them: for they have even taken of the accursed thing, and have also stolen, and deceived also, and they have put <FI>it<Fi> even among their own goods."
        },
        {
            "chapter": 7,
            "verse": 12,
            "name": "Joshua 7:12",
            "text": "Therefore the children of Israel could not stand before their enemies, <FI>but<Fi> turned <FI>their<Fi> backs before their enemies, because they were accursed: neither will I be with you any more, except ye destroy the accursed from among you."
        },
        {
            "chapter": 7,
            "verse": 13,
            "name": "Joshua 7:13",
            "text": "Rise, sanctify the people, and say, Sanctify yourselves for to morrow: for thus saith the LORD God of Israel, <FI>There is<Fi> an accursed thing in the midst of thee, O Israel: thou canst not stand before thy enemies, until ye take away the accursed thing from among you."
        },
        {
            "chapter": 7,
            "verse": 14,
            "name": "Joshua 7:14",
            "text": "In the morning therefore ye shall be brought according to your tribes: and it shall be, <FI>that<Fi> the tribe which the LORD taketh shall come according to their families; and the family which the LORD shall take shall come by households; and the household which the LORD shall take shall come man by man."
        },
        {
            "chapter": 7,
            "verse": 15,
            "name": "Joshua 7:15",
            "text": "And it shall be, <FI>that<Fi> he that is taken with the accursed thing shall be burnt with fire, he and all that he hath: because he hath transgressed the covenant of the LORD, and because he hath wrought folly in Israel. {folly: or, wickedness}"
        },
        {
            "chapter": 7,
            "verse": 16,
            "name": "Joshua 7:16",
            "text": "So Joshua rose early in the morning, and brought Israel by their tribes; and the tribe of Judah was taken:"
        },
        {
            "chapter": 7,
            "verse": 17,
            "name": "Joshua 7:17",
            "text": "And he brought the family of Judah; and he took the family of the Zarhites: and he brought the family of the Zarhites man by man; and Zabdi was taken:"
        },
        {
            "chapter": 7,
            "verse": 18,
            "name": "Joshua 7:18",
            "text": "And he brought his household man by man; and Achan, the son of Carmi, the son of Zabdi, the son of Zerah, of the tribe of Judah, was taken."
        },
        {
            "chapter": 7,
            "verse": 19,
            "name": "Joshua 7:19",
            "text": "And Joshua said to Achan, My son, give, I pray thee, glory to the LORD God of Israel, and make confession to him; and tell me now what thou hast done; hide <FI>it<Fi> not from me."
        },
        {
            "chapter": 7,
            "verse": 20,
            "name": "Joshua 7:20",
            "text": "And Achan answered Joshua, and said, Indeed I have sinned against the LORD God of Israel, and thus and thus have I done:"
        },
        {
            "chapter": 7,
            "verse": 21,
            "name": "Joshua 7:21",
            "text": "When I saw among the spoils a beautiful Babylonish garment, and two hundred shekels of silver, and a wedge of gold of fifty shekels weight, then I coveted them, and took them; and, behold, they <FI>are<Fi> hid in the earth in the midst of my tent, and the silver under it. {wedge: Heb. tongue}"
        },
        {
            "chapter": 7,
            "verse": 22,
            "name": "Joshua 7:22",
            "text": "So Joshua sent messengers, and they ran to the tent; and, behold, <FI>it was<Fi> hid in his tent, and the silver under it."
        },
        {
            "chapter": 7,
            "verse": 23,
            "name": "Joshua 7:23",
            "text": "And they took them from the midst of the tent, and brought them to Joshua, and to all the children of Israel, and laid them out before the LORD. {laid: Heb. poured}"
        },
        {
            "chapter": 7,
            "verse": 24,
            "name": "Joshua 7:24",
            "text": "And Joshua, and all Israel with him, took Achan the son of Zerah, and the silver, and the garment, and the wedge of gold, and his sons, and his daughters, and his oxen, and his donkeys, and his sheep, and his tent, and all that he had: and they brought them to the valley of Achor."
        },
        {
            "chapter": 7,
            "verse": 25,
            "name": "Joshua 7:25",
            "text": "And Joshua said, Why hast thou troubled us? the LORD shall trouble thee this day. And all Israel stoned him with stones, and burned them with fire, after they had stoned them with stones."
        },
        {
            "chapter": 7,
            "verse": 26,
            "name": "Joshua 7:26",
            "text": "And they raised over him a great heap of stones to this day. So the LORD turned from the fierceness of his anger. Therefore the name of that place was called, The valley of Achor, to this day. {Achor: that is, Trouble}"
        }
    ]
}