{
    "translation": "B\u00edblia Sagrada (Capuchinhos) Novo Testamento",
    "abbreviation": "porcapnt",
    "lang": "pt",
    "language": "Portuguese",
    "direction": "LTR",
    "encoding": "UTF-8",
    "book_nr": 58,
    "book_name": "Hebrews",
    "chapter": 12,
    "name": "Hebrews 12",
    "verses": [
        {
            "chapter": 12,
            "verse": 1,
            "name": "Hebrews 12:1",
            "text": "    Deste modo, tamb\u00e9m n\u00f3s, circundados como estamos de tal nuvem de testemunhas, deixando de lado todo o impedimento e todo o pecado, corramos com perseveran\u00e7a a prova que nos \u00e9 proposta,"
        },
        {
            "chapter": 12,
            "verse": 2,
            "name": "Hebrews 12:2",
            "text": "tendo os olhos postos em Jesus, autor e consumador da f\u00e9. Ele, renunciando \u00e0 alegria que lhe fora proposta, sofreu a cruz, desprezando a ignom\u00ednia, e sentou-se \u00e0 direita do trono de Deus."
        },
        {
            "chapter": 12,
            "verse": 3,
            "name": "Hebrews 12:3",
            "text": "Considerai, pois, aquele que sofreu tal oposi\u00e7\u00e3o por parte dos pecadores, para que n\u00e3o desfale\u00e7ais, perdendo o \u00e2nimo."
        },
        {
            "chapter": 12,
            "verse": 4,
            "name": "Hebrews 12:4",
            "text": "Ainda n\u00e3o resististes at\u00e9 ao sangue na luta contra o pecado.  "
        },
        {
            "chapter": 12,
            "verse": 5,
            "name": "Hebrews 12:5",
            "text": "  Esquecestes a exorta\u00e7\u00e3o que vos \u00e9 dirigida como a filhos:  Meu filho, n\u00e3o desprezes a correc\u00e7\u00e3o do Senhor, e n\u00e3o desanimes quando \u00e9s repreendido por Ele, "
        },
        {
            "chapter": 12,
            "verse": 6,
            "name": "Hebrews 12:6",
            "text": "porque o Senhor corrige os que ama e castiga todo o que reconhece como filho.   "
        },
        {
            "chapter": 12,
            "verse": 7,
            "name": "Hebrews 12:7",
            "text": "  \u00c9 para vossa correc\u00e7\u00e3o que sofreis. Deus trata-vos como filhos; e qual \u00e9 o filho a quem o pai n\u00e3o corrige?"
        },
        {
            "chapter": 12,
            "verse": 8,
            "name": "Hebrews 12:8",
            "text": "Mas, se estais isentos da correc\u00e7\u00e3o, da qual todos participam, ent\u00e3o sois bastardos e n\u00e3o filhos."
        },
        {
            "chapter": 12,
            "verse": 9,
            "name": "Hebrews 12:9",
            "text": "De resto, tivemos os nossos pais segundo a carne, que nos corrigiam e que n\u00f3s respeit\u00e1vamos; n\u00e3o ser\u00e1, ent\u00e3o, que nos devemos submeter muito mais ao Pai dos esp\u00edritos, para termos a vida?"
        },
        {
            "chapter": 12,
            "verse": 10,
            "name": "Hebrews 12:10",
            "text": "Os nossos pais corrigiam-nos por pouco tempo e conforme entendiam; Deus corrige-nos para nosso bem, para nos fazer participantes da sua santidade.  "
        },
        {
            "chapter": 12,
            "verse": 11,
            "name": "Hebrews 12:11",
            "text": "  \u00c9 certo que toda a correc\u00e7\u00e3o, no momento em que \u00e9 aplicada, n\u00e3o parece ser motivo de alegria, mas de tristeza; mais tarde, por\u00e9m, produz um fruto de paz e de justi\u00e7a nos que foram exercitados por ela."
        },
        {
            "chapter": 12,
            "verse": 12,
            "name": "Hebrews 12:12",
            "text": "Por isso, levantai as vossas m\u00e3os fatigadas e os vossos joelhos enfraquecidos,"
        },
        {
            "chapter": 12,
            "verse": 13,
            "name": "Hebrews 12:13",
            "text": "fazei caminhos rectos para os vossos p\u00e9s, para que o coxo n\u00e3o coxeie mais, mas seja curado.   "
        },
        {
            "chapter": 12,
            "verse": 14,
            "name": "Hebrews 12:14",
            "text": "   Procurai a paz com todos e a santidade, sem a qual ningu\u00e9m ver\u00e1 o Senhor."
        },
        {
            "chapter": 12,
            "verse": 15,
            "name": "Hebrews 12:15",
            "text": "Vigiai, para que ningu\u00e9m venha a estar privado da gra\u00e7a de Deus, nem alguma raiz amarga, crescendo, vos cause dano e, por meio dela, muitos venham a ser contaminados."
        },
        {
            "chapter": 12,
            "verse": 16,
            "name": "Hebrews 12:16",
            "text": "Que n\u00e3o haja nenhum impuro ou profanador como Esa\u00fa que, por um prato de comida, vendeu a sua primogenitura."
        },
        {
            "chapter": 12,
            "verse": 17,
            "name": "Hebrews 12:17",
            "text": "Sabeis que, desejando depois herdar a b\u00ean\u00e7\u00e3o, foi rejeitado, porque n\u00e3o encontrou possibilidade de mudan\u00e7a, apesar de a ter pedido com l\u00e1grimas."
        },
        {
            "chapter": 12,
            "verse": 18,
            "name": "Hebrews 12:18",
            "text": "  Na verdade, n\u00e3o vos aproximastes de uma realidade palp\u00e1vel, de fogo ardente, das trevas, da obscuridade ou da tempestade,"
        },
        {
            "chapter": 12,
            "verse": 19,
            "name": "Hebrews 12:19",
            "text": "nem do som da trombeta ou do ru\u00eddo das palavras, cujos ouvintes pediam que n\u00e3o se lhes falasse mais;"
        },
        {
            "chapter": 12,
            "verse": 20,
            "name": "Hebrews 12:20",
            "text": "de facto, n\u00e3o podiam suportar o que fora ordenado:  At\u00e9 um animal, se tocar a montanha, ser\u00e1 apedrejado.   "
        },
        {
            "chapter": 12,
            "verse": 21,
            "name": "Hebrews 12:21",
            "text": "  E o espect\u00e1culo era t\u00e3o terr\u00edvel, que Mois\u00e9s disse: Estou apavorado e a tremer."
        },
        {
            "chapter": 12,
            "verse": 22,
            "name": "Hebrews 12:22",
            "text": "V\u00f3s, por\u00e9m, aproximastes-vos do monte Si\u00e3o e da cidade do Deus vivo, da Jerusal\u00e9m celeste, de mir\u00edades de anjos, da reuni\u00e3o festiva,"
        },
        {
            "chapter": 12,
            "verse": 23,
            "name": "Hebrews 12:23",
            "text": "da assembleia dos primog\u00e9nitos inscritos nos c\u00e9us, do juiz que \u00e9 o Deus de todos, dos esp\u00edritos dos justos que atingiram a perfei\u00e7\u00e3o,"
        },
        {
            "chapter": 12,
            "verse": 24,
            "name": "Hebrews 12:24",
            "text": "de Jesus, o Mediador da Nova Alian\u00e7a, e de um sangue de aspers\u00e3o que fala melhor que o de Abel.  "
        },
        {
            "chapter": 12,
            "verse": 25,
            "name": "Hebrews 12:25",
            "text": "  Tende cuidado! N\u00e3o vos recuseis a escutar aquele que vos fala; porque se aqueles que se recusaram a escutar o que os advertia na terra, n\u00e3o escaparam ao castigo, muito menos escaparemos n\u00f3s, se nos desviarmos daquele que nos fala dos c\u00e9us,"
        },
        {
            "chapter": 12,
            "verse": 26,
            "name": "Hebrews 12:26",
            "text": "cuja voz outrora abalou a terra e agora faz esta promessa: Mais uma vez abalarei n\u00e3o s\u00f3 a terra, mas tamb\u00e9m o c\u00e9u."
        },
        {
            "chapter": 12,
            "verse": 27,
            "name": "Hebrews 12:27",
            "text": "As palavras \u00abmais uma vez\u00bb indicam a mudan\u00e7a das coisas que foram abaladas, enquanto coisas criadas, para que permane\u00e7am as que s\u00e3o inabal\u00e1veis."
        },
        {
            "chapter": 12,
            "verse": 28,
            "name": "Hebrews 12:28",
            "text": "Por isso, tendo recebido um reino inabal\u00e1vel, conservemos a gra\u00e7a e, por meio dela, prestemos um culto agrad\u00e1vel a Deus com respeito e rever\u00eancia,"
        },
        {
            "chapter": 12,
            "verse": 29,
            "name": "Hebrews 12:29",
            "text": "porque o nosso Deus \u00e9 um fogo devorador.       "
        }
    ]
}