{
    "translation": "King James Version (1769) including Apocrypha, with Strongs Numbers and Morphology",
    "abbreviation": "kjva",
    "lang": "en",
    "language": "English",
    "direction": "LTR",
    "encoding": "UTF-8",
    "book_nr": 22,
    "book_name": "Song of Solomon",
    "chapter": 5,
    "name": "Song of Solomon 5",
    "verses": [
        {
            "chapter": 5,
            "verse": 1,
            "name": "Song of Solomon 5:1",
            "text": "I am come into my garden, my sister, my spouse: I have gathered my myrrh with my spice; I have eaten my honeycomb with my honey; I have drunk my wine with my milk: eat, O friends; drink, yea, drink abundantly, O beloved."
        },
        {
            "chapter": 5,
            "verse": 2,
            "name": "Song of Solomon 5:2",
            "text": "I sleep, but my heart waketh: it is the voice of my beloved that knocketh, saying, Open to me, my sister, my love, my dove, my undefiled: for my head is filled with dew, and my locks with the drops of the night."
        },
        {
            "chapter": 5,
            "verse": 3,
            "name": "Song of Solomon 5:3",
            "text": "I have put off my coat; how shall I put it on? I have washed my feet; how shall I defile them?"
        },
        {
            "chapter": 5,
            "verse": 4,
            "name": "Song of Solomon 5:4",
            "text": "My beloved put in his hand by the hole of the door, and my bowels were moved for him."
        },
        {
            "chapter": 5,
            "verse": 5,
            "name": "Song of Solomon 5:5",
            "text": "I rose up to open to my beloved; and my hands dropped with myrrh, and my fingers with sweet smelling myrrh, upon the handles of the lock."
        },
        {
            "chapter": 5,
            "verse": 6,
            "name": "Song of Solomon 5:6",
            "text": "I opened to my beloved; but my beloved had withdrawn himself, and was gone: my soul failed when he spake: I sought him, but I could not find him; I called him, but he gave me no answer."
        },
        {
            "chapter": 5,
            "verse": 7,
            "name": "Song of Solomon 5:7",
            "text": "The watchmen that went about the city found me, they smote me, they wounded me; the keepers of the walls took away my veil from me."
        },
        {
            "chapter": 5,
            "verse": 8,
            "name": "Song of Solomon 5:8",
            "text": "I charge you, O daughters of Jerusalem, if ye find my beloved, that ye tell him, that I am sick of love."
        },
        {
            "chapter": 5,
            "verse": 9,
            "name": "Song of Solomon 5:9",
            "text": "What is thy beloved more than another beloved, O thou fairest among women? what is thy beloved more than another beloved, that thou dost so charge us?"
        },
        {
            "chapter": 5,
            "verse": 10,
            "name": "Song of Solomon 5:10",
            "text": "My beloved is white and ruddy, the chiefest among ten thousand."
        },
        {
            "chapter": 5,
            "verse": 11,
            "name": "Song of Solomon 5:11",
            "text": "His head is as the most fine gold, his locks are bushy, and black as a raven."
        },
        {
            "chapter": 5,
            "verse": 12,
            "name": "Song of Solomon 5:12",
            "text": "His eyes are as the eyes of doves by the rivers of waters, washed with milk, and fitly set."
        },
        {
            "chapter": 5,
            "verse": 13,
            "name": "Song of Solomon 5:13",
            "text": "His cheeks are as a bed of spices, as sweet flowers: his lips like lilies, dropping sweet smelling myrrh."
        },
        {
            "chapter": 5,
            "verse": 14,
            "name": "Song of Solomon 5:14",
            "text": "His hands are as gold rings set with the beryl: his belly is as bright ivory overlaid with sapphires."
        },
        {
            "chapter": 5,
            "verse": 15,
            "name": "Song of Solomon 5:15",
            "text": "His legs are as pillars of marble, set upon sockets of fine gold: his countenance is as Lebanon, excellent as the cedars."
        },
        {
            "chapter": 5,
            "verse": 16,
            "name": "Song of Solomon 5:16",
            "text": "His mouth is most sweet: yea, he is altogether lovely. This is my beloved, and this is my friend, O daughters of Jerusalem. "
        }
    ]
}