{
    "translation": "Ang Dating Biblia (1905)",
    "abbreviation": "tagalog",
    "lang": "tl",
    "language": "Tagalog",
    "direction": "LTR",
    "encoding": "UTF-8",
    "book_nr": 19,
    "book_name": "Psalms",
    "chapter": 103,
    "name": "Psalms 103",
    "verses": [
        {
            "chapter": 103,
            "verse": 1,
            "name": "Psalms 103:1",
            "text": "Purihin mo ang Panginoon, Oh kaluluwa ko: at lahat na nangasa loob ko ay magsisipuri sa kaniyang banal na pangalan."
        },
        {
            "chapter": 103,
            "verse": 2,
            "name": "Psalms 103:2",
            "text": "Purihin mo ang Panginoon, Oh kaluluwa ko, at huwag mong kalimutan ang lahat niyang mabubuting gawa."
        },
        {
            "chapter": 103,
            "verse": 3,
            "name": "Psalms 103:3",
            "text": "Na siyang nagpapatawad ng iyong lahat na mga kasamaan; na siyang nagpapagaling ng iyong lahat na mga sakit;"
        },
        {
            "chapter": 103,
            "verse": 4,
            "name": "Psalms 103:4",
            "text": "Na siyang tumutubos ng iyong buhay sa pagkapahamak: na siyang nagpuputong sa iyo ng kagandahang-loob at malumanay na mga kaawaan:"
        },
        {
            "chapter": 103,
            "verse": 5,
            "name": "Psalms 103:5",
            "text": "Na siyang bumubusog sa iyong bibig ng mabuting bagay; Na anopa't ang iyong kabataan ay nababagong parang agila."
        },
        {
            "chapter": 103,
            "verse": 6,
            "name": "Psalms 103:6",
            "text": "Ang Panginoon ay nagsasagawa ng mga matuwid na gawa, at ng mga kahatulan na ukol sa lahat na naaapi."
        },
        {
            "chapter": 103,
            "verse": 7,
            "name": "Psalms 103:7",
            "text": "Kaniyang ipinabatid ang kaniyang mga daan kay Moises, ang kaniyang mga gawa sa mga anak ni Israel."
        },
        {
            "chapter": 103,
            "verse": 8,
            "name": "Psalms 103:8",
            "text": "Ang Panginoon ay puspos ng kahabagan at mapagbiyaya, banayad sa pagkagalit at sagana sa kagandahang-loob."
        },
        {
            "chapter": 103,
            "verse": 9,
            "name": "Psalms 103:9",
            "text": "Hindi siya makikipagkaalit na palagi; ni kaniya mang tataglayin ang kaniyang galit magpakailan man."
        },
        {
            "chapter": 103,
            "verse": 10,
            "name": "Psalms 103:10",
            "text": "Siya'y hindi gumawa sa atin ng ayon sa ating mga kasalanan, ni gumanti man sa atin ng ayon sa ating mga kasamaan."
        },
        {
            "chapter": 103,
            "verse": 11,
            "name": "Psalms 103:11",
            "text": "Sapagka't kung paanong ang mga langit ay mataas kay sa lupa, gayon kalaki ang kaniyang kagandahang-loob sa kanila na nangatatakot sa kaniya."
        },
        {
            "chapter": 103,
            "verse": 12,
            "name": "Psalms 103:12",
            "text": "Kung gaano ang layo ng silanganan sa kalunuran, gayon inilayo niya ang mga pagsalangsang natin sa atin."
        },
        {
            "chapter": 103,
            "verse": 13,
            "name": "Psalms 103:13",
            "text": "Kung paanong ang ama ay naaawa sa kaniyang mga anak, gayon naaawa ang Panginoon sa kanilang nangatatakot sa kaniya."
        },
        {
            "chapter": 103,
            "verse": 14,
            "name": "Psalms 103:14",
            "text": "Sapagka't nalalaman niya ang ating anyo; kaniyang inaalaala na tayo'y alabok."
        },
        {
            "chapter": 103,
            "verse": 15,
            "name": "Psalms 103:15",
            "text": "Tungkol sa tao, ang kaniyang mga kaarawan ay parang damo: kung paanong namumukadkad ang bulaklak sa parang ay gayon siya."
        },
        {
            "chapter": 103,
            "verse": 16,
            "name": "Psalms 103:16",
            "text": "Sapagka't dinadaanan ng hangin, at napaparam; at ang dako niyaon ay hindi na malalaman."
        },
        {
            "chapter": 103,
            "verse": 17,
            "name": "Psalms 103:17",
            "text": "Nguni't ang kagandahang-loob ng Panginoon ay mula ng walang pasimula hanggang sa walang hanggan sa nangatatakot sa kaniya, at ang kaniyang katuwiran ay hanggang sa mga anak ng mga anak;"
        },
        {
            "chapter": 103,
            "verse": 18,
            "name": "Psalms 103:18",
            "text": "Sa gayong nagiingat ng kaniyang tipan, at sa nagsisialaala ng kaniyang mga utos upang gawin,"
        },
        {
            "chapter": 103,
            "verse": 19,
            "name": "Psalms 103:19",
            "text": "Itinatag ng Panginoon ang kaniyang luklukan sa mga langit; at ang kaniyang kaharian ay nagpupuno sa lahat."
        },
        {
            "chapter": 103,
            "verse": 20,
            "name": "Psalms 103:20",
            "text": "Purihin ninyo ang Panginoon, ninyong mga anghel niya: ninyong makapangyarihan sa kalakasan na gumaganap ng kaniyang salita, na nakikinig sa tinig ng kaniyang salita."
        },
        {
            "chapter": 103,
            "verse": 21,
            "name": "Psalms 103:21",
            "text": "Purihin ninyo ang Panginoon, ninyong lahat na hukbo niya; ninyong mga ministro niya, na nagsisigawa ng kaniyang kasayahan."
        },
        {
            "chapter": 103,
            "verse": 22,
            "name": "Psalms 103:22",
            "text": "Purihin ninyo ang Panginoon, ninyong lahat na mga gawa niya, sa lahat na dako na kaniyang sakop; purihin mo ang Panginoon, Oh kaluluwa ko."
        }
    ]
}