{
    "translation": "Ang Dating Biblia (1905)",
    "abbreviation": "tagalog",
    "lang": "tl",
    "language": "Tagalog",
    "direction": "LTR",
    "encoding": "UTF-8",
    "book_nr": 19,
    "book_name": "Psalms",
    "chapter": 123,
    "name": "Psalms 123",
    "verses": [
        {
            "chapter": 123,
            "verse": 1,
            "name": "Psalms 123:1",
            "text": "Sa iyo'y aking itinitingin ang mga mata ko, Oh sa iyo na nauupo sa mga langit."
        },
        {
            "chapter": 123,
            "verse": 2,
            "name": "Psalms 123:2",
            "text": "Narito, kung paanong tumitingin ang mga mata ng mga alipin sa kamay ng kanilang panginoon, kung paano ang mga mata ng alilang babae sa kamay ng kaniyang panginoong babae; gayon tumitingin ang mga mata namin sa Panginoon naming Dios, hanggang sa siya'y maawa sa amin."
        },
        {
            "chapter": 123,
            "verse": 3,
            "name": "Psalms 123:3",
            "text": "Maawa ka sa amin, Oh Panginoon, maawa ka sa amin: sapagka't kami ay lubhang lipos ng kadustaan."
        },
        {
            "chapter": 123,
            "verse": 4,
            "name": "Psalms 123:4",
            "text": "Ang aming kaluluwa'y lubhang lipos ng duwahagi ng mga tiwasay. At ng paghamak ng palalo."
        }
    ]
}