{
    "translation": "\u548c\u5408\u672c (\u7e41\u9ad4\u5b57)",
    "abbreviation": "chiun",
    "lang": "zh",
    "language": "",
    "direction": "LTR",
    "encoding": "UTF-8",
    "book_nr": 44,
    "book_name": "Acts",
    "chapter": 16,
    "name": "Acts 16",
    "verses": [
        {
            "chapter": 16,
            "verse": 1,
            "name": "Acts 16:1",
            "text": "\u4fdd\u7f85\u4f86\u5230\u7279\u5e87\uff0c\u53c8\u5230\u8def\u53f8\u5f97\u3002\u5728\u90a3\u88e1\u6709\u4e00\u500b\u9580\u5f92\uff0c\u540d\u53eb\u63d0\u6469\u592a\uff0c\u662f\u4fe1\u4e3b\u4e4b\u7336\u592a\u5a66\u4eba\u7684\u5152\u5b50\uff0c\u4ed6\u7236\u89aa\u537b\u662f\u5e0c\u81d8\u4eba\u3002"
        },
        {
            "chapter": 16,
            "verse": 2,
            "name": "Acts 16:2",
            "text": "\u8def\u53f8\u5f97\u548c\u4ee5\u54e5\u5ff5\u7684\u5f1f\u5144\u90fd\u7a31\u8b9a\u4ed6\u3002"
        },
        {
            "chapter": 16,
            "verse": 3,
            "name": "Acts 16:3",
            "text": "\u4fdd\u7f85\u8981\u5e36\u4ed6\u540c\u53bb\uff0c\u53ea\u56e0\u90a3\u4e9b\u5730\u65b9\u7684\u7336\u592a\u4eba\u90fd\u77e5\u9053\u4ed6\u7236\u89aa\u662f\u5e0c\u81d8\u4eba\uff0c\u5c31\u7d66\u4ed6\u884c\u4e86\u5272\u79ae\u3002"
        },
        {
            "chapter": 16,
            "verse": 4,
            "name": "Acts 16:4",
            "text": "\u4ed6\u5011\u7d93\u904e\u5404\u57ce\uff0c\u628a\u8036\u8def\u6492\u51b7\u4f7f\u5f92\u548c\u9577\u8001\u6240\u5b9a\u7684\u689d\u898f\u4ea4\u7d66\u9580\u5f92\u9075\u5b88\u3002"
        },
        {
            "chapter": 16,
            "verse": 5,
            "name": "Acts 16:5",
            "text": "\u65bc\u662f\u773e\u6559\u6703\u4fe1\u5fc3\u8d8a\u767c\u5805\u56fa\uff0c\u4eba\u6578\u5929\u5929\u52a0\u589e\u3002"
        },
        {
            "chapter": 16,
            "verse": 6,
            "name": "Acts 16:6",
            "text": "\u8056\u9748\u65e2\u7136\u7981\u6b62\u4ed6\u5011\u5728\u4e9e\u7d30\u4e9e\u8b1b\u9053\uff0c\u4ed6\u5011\u5c31\u7d93\u904e\u5f17\u5442\u5bb6\u3001\u52a0\u62c9\u592a\u4e00\u5e36\u5730\u65b9\u3002"
        },
        {
            "chapter": 16,
            "verse": 7,
            "name": "Acts 16:7",
            "text": "\u5230\u4e86\u6bcf\u897f\u4e9e\u7684\u908a\u754c\uff0c\u4ed6\u5011\u60f3\u8981\u5f80\u5e87\u63a8\u5c3c\u53bb\uff0c\u8036\u7a4c\u7684\u9748\u537b\u4e0d\u8a31\u3002"
        },
        {
            "chapter": 16,
            "verse": 8,
            "name": "Acts 16:8",
            "text": "\u4ed6\u5011\u5c31\u8d8a\u904e\u6bcf\u897f\u4e9e\uff0c\u4e0b\u5230\u7279\u7f85\u4e9e\u53bb\u3002"
        },
        {
            "chapter": 16,
            "verse": 9,
            "name": "Acts 16:9",
            "text": "\u5728\u591c\u9593\u6709\u7570\u8c61\u73fe\u8207\u4fdd\u7f85\u3002\u6709\u4e00\u500b\u99ac\u5176\u9813\u4eba\u7ad9\u8457\u6c42\u4ed6\u8aaa\uff1a\u8acb\u4f60\u904e\u5230\u99ac\u5176\u9813\u4f86\u5e6b\u52a9\u6211\u5011\u3002"
        },
        {
            "chapter": 16,
            "verse": 10,
            "name": "Acts 16:10",
            "text": "\u4fdd\u7f85\u65e2\u770b\u898b\u9019\u7570\u8c61\uff0c\u6211\u5011\u96a8\u5373\u60f3\u8981\u5f80\u99ac\u5176\u9813\u53bb\uff0c\u4ee5\u70ba\u3000\u795e\u53ec\u6211\u5011\u50b3\u798f\u97f3\u7d66\u90a3\u88e1\u7684\u4eba\u807d\u3002"
        },
        {
            "chapter": 16,
            "verse": 11,
            "name": "Acts 16:11",
            "text": "\u65bc\u662f\u5f9e\u7279\u7f85\u4e9e\u958b\u8239\uff0c\u4e00\u76f4\u884c\u5230\u6492\u6469\u7279\u5587\uff0c\u7b2c\u4e8c\u5929\u5230\u4e86\u5c3c\u4e9e\u5761\u91cc\u3002"
        },
        {
            "chapter": 16,
            "verse": 12,
            "name": "Acts 16:12",
            "text": "\u5f9e\u90a3\u88e1\u4f86\u5230\u8153\u7acb\u6bd4\uff0c\u5c31\u662f\u99ac\u5176\u9813\u9019\u4e00\u65b9\u7684\u982d\u4e00\u500b\u57ce\uff0c\u4e5f\u662f\u7f85\u99ac\u7684\u99d0\u9632\u57ce\u3002\u6211\u5011\u5728\u9019\u57ce\u88e1\u4f4f\u4e86\u5e7e\u5929\u3002"
        },
        {
            "chapter": 16,
            "verse": 13,
            "name": "Acts 16:13",
            "text": "\u7576\u5b89\u606f\u65e5\uff0c\u6211\u5011\u51fa\u57ce\u9580\uff0c\u5230\u4e86\u6cb3\u908a\uff0c\u77e5\u9053\u90a3\u88e1\u6709\u4e00\u500b\u79b1\u544a\u7684\u5730\u65b9\uff0c\u6211\u5011\u5c31\u5750\u4e0b\u5c0d\u90a3\u805a\u6703\u7684\u5a66\u5973\u8b1b\u9053\u3002"
        },
        {
            "chapter": 16,
            "verse": 14,
            "name": "Acts 16:14",
            "text": "\u6709\u4e00\u500b\u8ce3\u7d2b\u8272\u5e03\u758b\u7684\u5a66\u4eba\uff0c\u540d\u53eb\u5442\u5e95\u4e9e\uff0c\u662f\u63a8\u96c5\u63a8\u5587\u57ce\u7684\u4eba\uff0c\u7d20\u4f86\u656c\u62dc\u3000\u795e\u3002\u5979\u807d\u898b\u4e86\uff0c\u4e3b\u5c31\u958b\u5c0e\u5979\u7684\u5fc3\uff0c\u53eb\u5979\u7559\u5fc3\u807d\u4fdd\u7f85\u6240\u8b1b\u7684\u8a71\u3002"
        },
        {
            "chapter": 16,
            "verse": 15,
            "name": "Acts 16:15",
            "text": "\u5979\u548c\u5979\u4e00\u5bb6\u65e2\u9818\u4e86\u6d17\uff0c\u4fbf\u6c42\u6211\u5011\u8aaa\uff1a\u4f60\u5011\u82e5\u4ee5\u70ba\u6211\u662f\u771f\u4fe1\u4e3b\u7684\uff08\u6216\u4f5c\uff1a\u4f60\u5011\u82e5\u4ee5\u70ba\u6211\u662f\u5fe0\u5fc3\u4e8b\u4e3b\u7684\uff09\uff0c\u8acb\u5230\u6211\u5bb6\u88e1\u4f86\u4f4f\u3002\u65bc\u662f\u5f37\u7559\u6211\u5011\u3002"
        },
        {
            "chapter": 16,
            "verse": 16,
            "name": "Acts 16:16",
            "text": "\u5f8c\u4f86\uff0c\u6211\u5011\u5f80\u90a3\u79b1\u544a\u7684\u5730\u65b9\u53bb\u3002\u6709\u4e00\u500b\u4f7f\u5973\u8fce\u8457\u9762\u4f86\uff0c\u5979\u88ab\u5deb\u9b3c\u6240\u9644\uff0c\u7528\u6cd5\u8853\uff0c\u53eb\u5979\u4e3b\u4eba\u5011\u5927\u5f97\u8ca1\u5229\u3002"
        },
        {
            "chapter": 16,
            "verse": 17,
            "name": "Acts 16:17",
            "text": "\u5979\u8ddf\u96a8\u4fdd\u7f85\u548c\u6211\u5011\uff0c\u558a\u8457\u8aaa\uff1a\u9019\u4e9b\u4eba\u662f\u81f3\u9ad8\u3000\u795e\u7684\u50d5\u4eba\uff0c\u5c0d\u4f60\u5011\u50b3\u8aaa\u6551\u4eba\u7684\u9053\u3002"
        },
        {
            "chapter": 16,
            "verse": 18,
            "name": "Acts 16:18",
            "text": "\u5979\u4e00\u9023\u591a\u65e5\u9019\u6a23\u558a\u53eb\uff0c\u4fdd\u7f85\u5c31\u5fc3\u4e2d\u53ad\u7169\uff0c\u8f49\u8eab\u5c0d\u90a3\u9b3c\u8aaa\uff1a\u6211\u5949\u8036\u7a4c\u57fa\u7763\u7684\u540d\uff0c\u5429\u5490\u4f60\u5f9e\u5979\u8eab\u4e0a\u51fa\u4f86\uff01\u90a3\u9b3c\u7576\u6642\u5c31\u51fa\u4f86\u4e86\u3002"
        },
        {
            "chapter": 16,
            "verse": 19,
            "name": "Acts 16:19",
            "text": "\u4f7f\u5973\u7684\u4e3b\u4eba\u5011\u898b\u5f97\u5229\u7684\u6307\u671b\u6c92\u6709\u4e86\uff0c\u4fbf\u63ea\u4f4f\u4fdd\u7f85\u548c\u897f\u62c9\uff0c\u62c9\u4ed6\u5011\u5230\u5e02\u4e0a\u53bb\u898b\u9996\u9818\uff1b"
        },
        {
            "chapter": 16,
            "verse": 20,
            "name": "Acts 16:20",
            "text": "\u53c8\u5e36\u5230\u5b98\u9577\u9762\u524d\u8aaa\uff1a\u9019\u4e9b\u4eba\u539f\u662f\u7336\u592a\u4eba\uff0c\u7adf\u9a37\u64fe\u6211\u5011\u7684\u57ce\uff0c"
        },
        {
            "chapter": 16,
            "verse": 21,
            "name": "Acts 16:21",
            "text": "\u50b3\u6211\u5011\u7f85\u99ac\u4eba\u6240\u4e0d\u53ef\u53d7\u4e0d\u53ef\u884c\u7684\u898f\u77e9\u3002"
        },
        {
            "chapter": 16,
            "verse": 22,
            "name": "Acts 16:22",
            "text": "\u773e\u4eba\u5c31\u4e00\u540c\u8d77\u4f86\u653b\u64ca\u4ed6\u5011\u3002\u5b98\u9577\u5429\u5490\u525d\u4e86\u4ed6\u5011\u7684\u8863\u88f3\uff0c\u7528\u68cd\u6253\uff1b"
        },
        {
            "chapter": 16,
            "verse": 23,
            "name": "Acts 16:23",
            "text": "\u6253\u4e86\u8a31\u591a\u68cd\uff0c\u4fbf\u5c07\u4ed6\u5011\u4e0b\u5728\u76e3\u88e1\uff0c\u56d1\u5490\u7981\u5352\u56b4\u7dca\u770b\u5b88\u3002"
        },
        {
            "chapter": 16,
            "verse": 24,
            "name": "Acts 16:24",
            "text": "\u7981\u5352\u9818\u4e86\u9019\u6a23\u7684\u547d\uff0c\u5c31\u628a\u4ed6\u5011\u4e0b\u5728\u5167\u76e3\u88e1\uff0c\u5169\u8173\u4e0a\u4e86\u6728\u72d7\u3002"
        },
        {
            "chapter": 16,
            "verse": 25,
            "name": "Acts 16:25",
            "text": "\u7d04\u5728\u534a\u591c\uff0c\u4fdd\u7f85\u548c\u897f\u62c9\u79b1\u544a\uff0c\u5531\u8a69\u8b9a\u7f8e\u3000\u795e\uff0c\u773e\u56da\u72af\u4e5f\u5074\u8033\u800c\u807d\u3002"
        },
        {
            "chapter": 16,
            "verse": 26,
            "name": "Acts 16:26",
            "text": "\u5ffd\u7136\uff0c\u5730\u5927\u9707\u52d5\uff0c\u751a\u81f3\u76e3\u7262\u7684\u5730\u57fa\u90fd\u6416\u52d5\u4e86\uff0c\u76e3\u9580\u7acb\u523b\u5168\u958b\uff0c\u773e\u56da\u72af\u7684\u9396\u934a\u4e5f\u90fd\u9b06\u958b\u4e86\u3002"
        },
        {
            "chapter": 16,
            "verse": 27,
            "name": "Acts 16:27",
            "text": "\u7981\u5352\u4e00\u9192\uff0c\u770b\u898b\u76e3\u9580\u5168\u958b\uff0c\u4ee5\u70ba\u56da\u72af\u5df2\u7d93\u9003\u8d70\uff0c\u5c31\u62d4\u5200\u8981\u81ea\u6bba\u3002"
        },
        {
            "chapter": 16,
            "verse": 28,
            "name": "Acts 16:28",
            "text": "\u4fdd\u7f85\u5927\u8072\u547c\u53eb\u8aaa\uff1a\u4e0d\u8981\u50b7\u5bb3\u81ea\u5df1\uff01\u6211\u5011\u90fd\u5728\u9019\u88e1\u3002"
        },
        {
            "chapter": 16,
            "verse": 29,
            "name": "Acts 16:29",
            "text": "\u7981\u5352\u53eb\u4eba\u62ff\u71c8\u4f86\uff0c\u5c31\u8df3\u9032\u53bb\uff0c\u6230\u6230\u5162\u5162\u7684\u4fef\u4f0f\u5728\u4fdd\u7f85\u3001\u897f\u62c9\u9762\u524d\uff1b"
        },
        {
            "chapter": 16,
            "verse": 30,
            "name": "Acts 16:30",
            "text": "\u53c8\u9818\u4ed6\u5011\u51fa\u4f86\uff0c\u8aaa\uff1a\u4e8c\u4f4d\u5148\u751f\uff0c\u6211\u7576\u600e\u6a23\u884c\u624d\u53ef\u4ee5\u5f97\u6551\uff1f"
        },
        {
            "chapter": 16,
            "verse": 31,
            "name": "Acts 16:31",
            "text": "\u4ed6\u5011\u8aaa\uff1a\u7576\u4fe1\u4e3b\u8036\u7a4c\uff0c\u4f60\u548c\u4f60\u4e00\u5bb6\u90fd\u5fc5\u5f97\u6551\u3002"
        },
        {
            "chapter": 16,
            "verse": 32,
            "name": "Acts 16:32",
            "text": "\u4ed6\u5011\u5c31\u628a\u4e3b\u7684\u9053\u8b1b\u7d66\u4ed6\u548c\u4ed6\u5168\u5bb6\u7684\u4eba\u807d\u3002"
        },
        {
            "chapter": 16,
            "verse": 33,
            "name": "Acts 16:33",
            "text": "\u7576\u591c\uff0c\u5c31\u5728\u90a3\u6642\u5019\uff0c\u7981\u5352\u628a\u4ed6\u5011\u5e36\u53bb\uff0c\u6d17\u4ed6\u5011\u7684\u50b7\uff1b\u4ed6\u548c\u5c6c\u4e4e\u4ed6\u7684\u4eba\u7acb\u6642\u90fd\u53d7\u4e86\u6d17\u3002"
        },
        {
            "chapter": 16,
            "verse": 34,
            "name": "Acts 16:34",
            "text": "\u65bc\u662f\u7981\u5352\u9818\u4ed6\u5011\u4e0a\u81ea\u5df1\u5bb6\u88e1\u53bb\uff0c\u7d66\u4ed6\u5011\u64fa\u4e0a\u98ef\u3002\u4ed6\u548c\u5168\u5bb6\uff0c\u56e0\u70ba\u4fe1\u4e86\u3000\u795e\uff0c\u90fd\u5f88\u559c\u6a02\u3002"
        },
        {
            "chapter": 16,
            "verse": 35,
            "name": "Acts 16:35",
            "text": "\u5230\u4e86\u5929\u4eae\uff0c\u5b98\u9577\u6253\u767c\u5dee\u5f79\u4f86\uff0c\u8aaa\uff1a\u91cb\u653e\u90a3\u5169\u500b\u4eba\u5427\u3002"
        },
        {
            "chapter": 16,
            "verse": 36,
            "name": "Acts 16:36",
            "text": "\u7981\u5352\u5c31\u628a\u9019\u8a71\u544a\u8a34\u4fdd\u7f85\u8aaa\uff1a\u5b98\u9577\u6253\u767c\u4eba\u4f86\u53eb\u91cb\u653e\u4f60\u5011\uff0c\u5982\u4eca\u53ef\u4ee5\u51fa\u76e3\uff0c\u5e73\u5e73\u5b89\u5b89\u7684\u53bb\u5427\u3002"
        },
        {
            "chapter": 16,
            "verse": 37,
            "name": "Acts 16:37",
            "text": "\u4fdd\u7f85\u537b\u8aaa\uff1a\u6211\u5011\u662f\u7f85\u99ac\u4eba\uff0c\u4e26\u6c92\u6709\u5b9a\u7f6a\uff0c\u4ed6\u5011\u5c31\u5728\u773e\u4eba\u9762\u524d\u6253\u4e86\u6211\u5011\uff0c\u53c8\u628a\u6211\u5011\u4e0b\u5728\u76e3\u88e1\uff0c\u73fe\u5728\u8981\u79c1\u4e0b\u6506\u6211\u5011\u51fa\u53bb\u55ce\uff1f\u9019\u662f\u4e0d\u884c\u7684\u3002\u53eb\u4ed6\u5011\u81ea\u5df1\u4f86\u9818\u6211\u5011\u51fa\u53bb\u5427\uff01"
        },
        {
            "chapter": 16,
            "verse": 38,
            "name": "Acts 16:38",
            "text": "\u5dee\u5f79\u628a\u9019\u8a71\u56de\u7a1f\u5b98\u9577\u3002\u5b98\u9577\u807d\u898b\u4ed6\u5011\u662f\u7f85\u99ac\u4eba\uff0c\u5c31\u5bb3\u6015\u4e86\uff0c"
        },
        {
            "chapter": 16,
            "verse": 39,
            "name": "Acts 16:39",
            "text": "\u65bc\u662f\u4f86\u52f8\u4ed6\u5011\uff0c\u9818\u4ed6\u5011\u51fa\u4f86\uff0c\u8acb\u4ed6\u5011\u96e2\u958b\u90a3\u57ce\u3002"
        },
        {
            "chapter": 16,
            "verse": 40,
            "name": "Acts 16:40",
            "text": "\u4e8c\u4eba\u51fa\u4e86\u76e3\uff0c\u5f80\u5442\u5e95\u4e9e\u5bb6\u88e1\u53bb\uff1b\u898b\u4e86\u5f1f\u5144\u5011\uff0c\u52f8\u6170\u4ed6\u5011\u4e00\u756a\uff0c\u5c31\u8d70\u4e86\u3002  "
        }
    ]
}