{
    "translation": "Riveduta Bible (1927)",
    "abbreviation": "riveduta",
    "lang": "it",
    "language": "Italian",
    "direction": "LTR",
    "encoding": "",
    "book_nr": 1,
    "book_name": "Genesis",
    "chapter": 2,
    "name": "Genesis 2",
    "verses": [
        {
            "chapter": 2,
            "verse": 1,
            "name": "Genesis 2:1",
            "text": "Cos\u00ec furono compiti i cieli e la terra e tutto l\u2019esercito loro.\r"
        },
        {
            "chapter": 2,
            "verse": 2,
            "name": "Genesis 2:2",
            "text": "Il settimo giorno, Iddio comp\u00ec l\u2019opera che aveva fatta, e si ripos\u00f2 il settimo giorno da tutta l\u2019opera che aveva fatta.\r"
        },
        {
            "chapter": 2,
            "verse": 3,
            "name": "Genesis 2:3",
            "text": "E Dio benedisse il settimo giorno e lo santific\u00f2, perch\u00e9 in esso si ripos\u00f2 da tutta l\u2019opera che aveva creata e fatta.\r"
        },
        {
            "chapter": 2,
            "verse": 4,
            "name": "Genesis 2:4",
            "text": "Queste sono le origini dei cieli e della terra quando furono creati, nel giorno che l\u2019Eterno Iddio fece la terra e i cieli.\r"
        },
        {
            "chapter": 2,
            "verse": 5,
            "name": "Genesis 2:5",
            "text": "Non c\u2019era ancora sulla terra alcun arbusto della campagna, e nessuna erba della campagna era ancora spuntata, perch\u00e9 l\u2019Eterno Iddio non avea fatto piovere sulla terra, e non c\u2019era alcun uomo per coltivare il suolo;\r"
        },
        {
            "chapter": 2,
            "verse": 6,
            "name": "Genesis 2:6",
            "text": "ma un vapore saliva dalla terra e adacquava tutta la superficie del suolo.\r"
        },
        {
            "chapter": 2,
            "verse": 7,
            "name": "Genesis 2:7",
            "text": "E l\u2019Eterno Iddio form\u00f2 l\u2019uomo dalla polvere della terra, gli soffi\u00f2 nelle narici un alito vitale, e l\u2019uomo divenne un\u2019anima vivente.\r"
        },
        {
            "chapter": 2,
            "verse": 8,
            "name": "Genesis 2:8",
            "text": "E l\u2019Eterno Iddio piant\u00f2 un giardino in Eden, in oriente, e quivi pose l\u2019uomo che aveva formato.\r"
        },
        {
            "chapter": 2,
            "verse": 9,
            "name": "Genesis 2:9",
            "text": "E l\u2019Eterno Iddio fece spuntare dal suolo ogni sorta d\u2019alberi piacevoli a vedersi e il cui frutto era buono da mangiare, e l\u2019albero della vita in mezzo al giardino, e l\u2019albero della conoscenza del bene e del male.\r"
        },
        {
            "chapter": 2,
            "verse": 10,
            "name": "Genesis 2:10",
            "text": "E un fiume usciva d\u2019Eden per adacquare il giardino, e di la si spartiva in quattro bracci.\r"
        },
        {
            "chapter": 2,
            "verse": 11,
            "name": "Genesis 2:11",
            "text": "Il nome del primo \u00e8 Pishon, ed \u00e8 quello che circonda tutto il paese di Havila, dov\u2019\u00e8 l\u2019oro;\r"
        },
        {
            "chapter": 2,
            "verse": 12,
            "name": "Genesis 2:12",
            "text": "e l\u2019oro di quel paese \u00e8 buono; quivi si trovan pure il bdellio e l\u2019onice.\r"
        },
        {
            "chapter": 2,
            "verse": 13,
            "name": "Genesis 2:13",
            "text": "Il nome del secondo fiume \u00e8 Ghihon, ed \u00e8 quello che circonda tutto il paese di Cush.\r"
        },
        {
            "chapter": 2,
            "verse": 14,
            "name": "Genesis 2:14",
            "text": "Il nome del terzo fiume \u00e8 Hiddekel, ed \u00e8 quello che scorre a oriente dell\u2019Assiria. E il quarto fiume \u00e8 l\u2019Eufrate.\r"
        },
        {
            "chapter": 2,
            "verse": 15,
            "name": "Genesis 2:15",
            "text": "L\u2019Eterno Iddio prese dunque l\u2019uomo e lo pose nel giardino d\u2019Eden perch\u00e9 lo lavorasse e lo custodisse.\r"
        },
        {
            "chapter": 2,
            "verse": 16,
            "name": "Genesis 2:16",
            "text": "E l\u2019Eterno Iddio diede all\u2019uomo questo comandamento: \"Mangia pure liberamente del frutto d\u2019ogni albero del giardino;\r"
        },
        {
            "chapter": 2,
            "verse": 17,
            "name": "Genesis 2:17",
            "text": "ma del frutto dell\u2019albero della conoscenza del bene e del male non ne mangiare; perch\u00e9, nel giorno che tu ne mangerai, per certo morrai\".\r"
        },
        {
            "chapter": 2,
            "verse": 18,
            "name": "Genesis 2:18",
            "text": "Poi l\u2019Eterno Iddio disse: \"Non \u00e8 bene che l\u2019uomo sia solo; io gli far\u00f2 un aiuto che gli sia convenevole\".\r"
        },
        {
            "chapter": 2,
            "verse": 19,
            "name": "Genesis 2:19",
            "text": "E l\u2019Eterno Iddio avendo formato dalla terra tutti gli animali dei campi e tutti gli uccelli dei cieli, li men\u00f2 all\u2019uomo per vedere come li chiamerebbe, e perch\u00e9 ogni essere vivente portasse il nome che l\u2019uomo gli darebbe.\r"
        },
        {
            "chapter": 2,
            "verse": 20,
            "name": "Genesis 2:20",
            "text": "E l\u2019uomo dette de\u2019 nomi a tutto il bestiame, agli uccelli dei cieli e ad ogni animale dei campi; ma per l\u2019uomo non si trov\u00f2 aiuto che gli fosse convenevole.\r"
        },
        {
            "chapter": 2,
            "verse": 21,
            "name": "Genesis 2:21",
            "text": "Allora l\u2019Eterno Iddio fece cadere un profondo sonno sull\u2019uomo, che s\u2019addorment\u00f2; e prese una delle costole di lui, e richiuse la carne al posto d\u2019essa.\r"
        },
        {
            "chapter": 2,
            "verse": 22,
            "name": "Genesis 2:22",
            "text": "E l\u2019Eterno Iddio, con la costola che avea tolta all\u2019uomo, form\u00f2 una donna e la men\u00f2 all\u2019uomo.\r"
        },
        {
            "chapter": 2,
            "verse": 23,
            "name": "Genesis 2:23",
            "text": "E l\u2019uomo disse: \"Questa, finalmente, \u00e8 ossa delle mie ossa e carne della mia carne. Ella sar\u00e0 chiamata donna perch\u00e9 \u00e8 stata tratta dall\u2019uomo\".\r"
        },
        {
            "chapter": 2,
            "verse": 24,
            "name": "Genesis 2:24",
            "text": "Perci\u00f2 l\u2019uomo lascer\u00e0 suo padre e sua madre e si unir\u00e0 alla sua moglie, e saranno una stessa carne.\r"
        },
        {
            "chapter": 2,
            "verse": 25,
            "name": "Genesis 2:25",
            "text": "E l\u2019uomo e la sua moglie erano ambedue ignudi e non ne aveano vergogna.\r"
        }
    ]
}