{
    "translation": "Riveduta Bible (1927)",
    "abbreviation": "riveduta",
    "lang": "it",
    "language": "Italian",
    "direction": "LTR",
    "encoding": "",
    "book_nr": 1,
    "book_name": "Genesis",
    "chapter": 6,
    "name": "Genesis 6",
    "verses": [
        {
            "chapter": 6,
            "verse": 1,
            "name": "Genesis 6:1",
            "text": "Or quando gli uomini cominciarono a moltiplicare sulla faccia della terra e furon loro nate delle figliuole,\r"
        },
        {
            "chapter": 6,
            "verse": 2,
            "name": "Genesis 6:2",
            "text": "avvenne che i figliuoli di Dio videro che le figliuole degli uomini erano belle, e presero per mogli quelle che si scelsero fra tutte.\r"
        },
        {
            "chapter": 6,
            "verse": 3,
            "name": "Genesis 6:3",
            "text": "E l\u2019Eterno disse: \"Lo spirito mio non contender\u00e0 per sempre con l\u2019uomo; poich\u00e9, nel suo traviamento, egli non \u00e8 che carne; i suoni giorni saranno quindi centoventi anni\".\r"
        },
        {
            "chapter": 6,
            "verse": 4,
            "name": "Genesis 6:4",
            "text": "In quel tempo c\u2019erano sulla terra i giganti, e ci furono anche di poi, quando i figliuoli di Dio si accostarono alle figliuole degli uomini, e queste fecero loro de\u2019 figliuoli. Essi sono gli uomini potenti che, fin dai tempi antichi, sono stati famosi.\r"
        },
        {
            "chapter": 6,
            "verse": 5,
            "name": "Genesis 6:5",
            "text": "E l\u2019Eterno vide che la malvagit\u00e0 degli uomini era grande sulla terra, e che tutti i disegni dei pensieri del loro cuore non erano altro che male in ogni tempo.\r"
        },
        {
            "chapter": 6,
            "verse": 6,
            "name": "Genesis 6:6",
            "text": "E l\u2019Eterno si pent\u00ec d\u2019aver fatto l\u2019uomo sulla terra, e se ne addolor\u00f2 in cuor suo.\r"
        },
        {
            "chapter": 6,
            "verse": 7,
            "name": "Genesis 6:7",
            "text": "E l\u2019Eterno disse: \"Io sterminer\u00f2 di sulla faccia della terra l\u2019uomo che ho creato: dall\u2019uomo al bestiame, ai rettili, agli uccelli dei cieli; perch\u00e9 mi pento d\u2019averli fatti\".\r"
        },
        {
            "chapter": 6,
            "verse": 8,
            "name": "Genesis 6:8",
            "text": "Ma No\u00e8 trov\u00f2 grazia agli occhi dell\u2019Eterno.\r"
        },
        {
            "chapter": 6,
            "verse": 9,
            "name": "Genesis 6:9",
            "text": "Questa \u00e8 la posterit\u00e0 di No\u00e8. No\u00e8 fu uomo giusto, integro, ai suoi tempi; No\u00e8 cammin\u00f2 con Dio.\r"
        },
        {
            "chapter": 6,
            "verse": 10,
            "name": "Genesis 6:10",
            "text": "E No\u00e8 gener\u00f2 tre figliuoli: Sem, Cam e Jafet.\r"
        },
        {
            "chapter": 6,
            "verse": 11,
            "name": "Genesis 6:11",
            "text": "Or la terra era corrotta davanti a Dio; la terra era ripiena di violenza.\r"
        },
        {
            "chapter": 6,
            "verse": 12,
            "name": "Genesis 6:12",
            "text": "E Dio guard\u00f2 la terra; ed ecco, era corrotta, poich\u00e9 ogni carne avea corrotto la sua via sulla terra.\r"
        },
        {
            "chapter": 6,
            "verse": 13,
            "name": "Genesis 6:13",
            "text": "E Dio disse a No\u00e8: \"Nei miei decreti, la fine d\u2019ogni carne \u00e8 giunta; poich\u00e9 la terra, per opera degli uomini, \u00e8 piena di violenza; ecco, io li distrugger\u00f2, insieme con la terra.\r"
        },
        {
            "chapter": 6,
            "verse": 14,
            "name": "Genesis 6:14",
            "text": "Fatti un\u2019arca di legno di gofer; falla a stanze, e spalmala di pece, di dentro e di fuori.\r"
        },
        {
            "chapter": 6,
            "verse": 15,
            "name": "Genesis 6:15",
            "text": "Ed ecco come la dovrai fare: la lunghezza dell\u2019arca sar\u00e0 di trecento cubiti; la larghezza, di cinquanta cubiti, e l\u2019altezza, di trenta cubiti.\r"
        },
        {
            "chapter": 6,
            "verse": 16,
            "name": "Genesis 6:16",
            "text": "Farai all\u2019arca una finestra, in alto, e le darai la dimensione d\u2019un cubito; metterai la porta da un lato, e farai l\u2019arca a tre piani: uno da basso, un secondo e un terzo piano.\r"
        },
        {
            "chapter": 6,
            "verse": 17,
            "name": "Genesis 6:17",
            "text": "Ed ecco, io sto per far venire il diluvio delle acque sulla terra, per distruggere di sotto i cieli ogni carne in cui \u00e8 alito di vita; tutto quello ch\u2019\u00e8 sopra la terra, morr\u00e0.\r"
        },
        {
            "chapter": 6,
            "verse": 18,
            "name": "Genesis 6:18",
            "text": "Ma io stabilir\u00f2 il mio patto con te; e tu entrerai nell\u2019arca: tu e i tuoi figliuoli, la tua moglie e le mogli de\u2019 tuoi figliuoli con te.\r"
        },
        {
            "chapter": 6,
            "verse": 19,
            "name": "Genesis 6:19",
            "text": "E di tutto ci\u00f2 che vive, d\u2019ogni carne, fanne entrare nell\u2019arca due d\u2019ogni specie, per conservarli in vita con te; e siano maschio e femmina.\r"
        },
        {
            "chapter": 6,
            "verse": 20,
            "name": "Genesis 6:20",
            "text": "Degli uccelli secondo le loro specie del bestiame secondo le sue specie, e di tutti i rettili della terra secondo le loro specie, due d\u2019ogni specie verranno a te, perch\u00e9 tu li conservi in vita.\r"
        },
        {
            "chapter": 6,
            "verse": 21,
            "name": "Genesis 6:21",
            "text": "E tu prenditi d\u2019ogni cibo che si mangia, e fattene provvista, perch\u00e9 serva di nutrimento a te e a loro\".\r"
        },
        {
            "chapter": 6,
            "verse": 22,
            "name": "Genesis 6:22",
            "text": "E No\u00e8 fece cos\u00ec; fece tutto quello che Dio gli avea comandato.\r"
        }
    ]
}