{
  "translation": "Studentm\u00e5llagsbibelen fr\u00e5 1921",
  "abbreviation": "norsmb",
  "lang": "nn",
  "language": "Norwegian nynorsk",
  "direction": "LTR",
  "encoding": "UTF-8",
  "nr": 32,
  "name": "Jonah",
  "chapters": [
    {
      "chapter": 1,
      "name": "Jonah 1",
      "verses": [
        {
          "chapter": 1,
          "verse": 1,
          "name": "Jonah 1:1",
          "text": "Herrens ord kom til Jona, son \u00e5t Amittai; han sagde:"
        },
        {
          "chapter": 1,
          "verse": 2,
          "name": "Jonah 1:2",
          "text": "\u00abStatt upp og gakk til den store byen Nineve, og ropa ut yver honom at vondskapen hans er stigen upp for mi \u00e5syn!\u00bb"
        },
        {
          "chapter": 1,
          "verse": 3,
          "name": "Jonah 1:3",
          "text": "Men Jona stod upp og vilde fly til Tarsis, burt fr\u00e5 Herrens \u00e5syn; og han for ned til Joppe, og fann eit skip som skulde ganga til Tarsis, og han betala ferdapengarne og gjekk um bord og vilde fara med til Tarsis, burt fr\u00e5 Herrens \u00e5syn."
        },
        {
          "chapter": 1,
          "verse": 4,
          "name": "Jonah 1:4",
          "text": "Men Herren sende ein sterk vind ut yver havet, og reiste slik ein storm p\u00e5 havet at skipet so n\u00e6r hadde gjenge under."
        },
        {
          "chapter": 1,
          "verse": 5,
          "name": "Jonah 1:5",
          "text": "D\u00e5 vart skipsfolki r\u00e6dde og ropa kvar til sin gud; og til \u00e5 letta skipet kasta dei p\u00e5 sj\u00f8en alt tarvende som fanst um bord. Men Jona hadde gjenge ned i skipsromet; der l\u00e5g han og sov fast."
        },
        {
          "chapter": 1,
          "verse": 6,
          "name": "Jonah 1:6",
          "text": "D\u00e5 gjekk skiperen til honom og sagde: \u00abKorleis kann du sova so fast? Statt upp og ropa til guden din! Kann henda vil den guden tenkja p\u00e5 oss, so me ikkje gjeng under.\u00bb"
        },
        {
          "chapter": 1,
          "verse": 7,
          "name": "Jonah 1:7",
          "text": "Og dei sagde til kvarandre: \u00abKom, lat oss kasta lut, so me f\u00e6r vita kven som er skuld i at denne ulukka er komi yver oss!\u00bb So kasta dei lut, og luten fall p\u00e5 Jona."
        },
        {
          "chapter": 1,
          "verse": 8,
          "name": "Jonah 1:8",
          "text": "D\u00e5 sagde dei til honom: \u00abSeg kven som er skuld i at denne naudi er komi yver oss! Kva er di \u00e6rend, kvar kjem du ifr\u00e5? Kva land er du fr\u00e5, og kva folk er du av?\u00bb"
        },
        {
          "chapter": 1,
          "verse": 9,
          "name": "Jonah 1:9",
          "text": "Han svara deim: \u00abHebr\u00e6ar er eg, Herren, himmelens Gud, ottast eg, han som hev skapt havet og det turre land.\u00bb"
        },
        {
          "chapter": 1,
          "verse": 10,
          "name": "Jonah 1:10",
          "text": "D\u00e5 vart mennerne ovleg r\u00e6dde, og dei sagde til honom: \u00abKor kunde du gjera dette?\u00bb For dei skyna av det han fortalde deim at han flydde fr\u00e5 Herrens \u00e5syn."
        },
        {
          "chapter": 1,
          "verse": 11,
          "name": "Jonah 1:11",
          "text": "Og dei sagde til han: \u00abKva skal me gjera med deg, so havet kann leggja seg for oss?\u00bb For det vart meir og meir uppr\u00f8rt."
        },
        {
          "chapter": 1,
          "verse": 12,
          "name": "Jonah 1:12",
          "text": "Han svara: \u00abTak meg og kasta meg i havet! so skal det stilna for dykk. For eg veit det er for mi skuld denne store stormen er komen yver dykk.\u00bb"
        },
        {
          "chapter": 1,
          "verse": 13,
          "name": "Jonah 1:13",
          "text": "Mennerne freista no \u00e5 ro tilbake til lands, men dei magta det ikkje; for sj\u00f8en bar meir og meir imot."
        },
        {
          "chapter": 1,
          "verse": 14,
          "name": "Jonah 1:14",
          "text": "D\u00e5 ropa dei til Herren og sagde: \u00ab\u00c5 Herre, lat oss ikkje ganga under, for di denne mannen skal d\u00f8y, og lat ikkje skuldlaust blod koma yver oss! for du, Herre, hev gjort som du vilde.\u00bb"
        },
        {
          "chapter": 1,
          "verse": 15,
          "name": "Jonah 1:15",
          "text": "Og dei tok Jona og kasta honom i havet, og straks heldt havet upp \u00e5 rasa."
        },
        {
          "chapter": 1,
          "verse": 16,
          "name": "Jonah 1:16",
          "text": "D\u00e5 fekk mennerne fekk stor age for Herren, og dei ofra slagtoffer til honom og gjorde lovnader. "
        },
        {
          "chapter": 1,
          "verse": 17,
          "name": "Jonah 1:17",
          "text": ""
        }
      ]
    },
    {
      "chapter": 2,
      "name": "Jonah 2",
      "verses": [
        {
          "chapter": 2,
          "verse": 1,
          "name": "Jonah 2:1",
          "text": "Men Herren sende ein stor fisk, som gl\u00f8ypte Jona; og Jona var i buken \u00e5t fisken i tri dagar og tri n\u00e6ter."
        },
        {
          "chapter": 2,
          "verse": 2,
          "name": "Jonah 2:2",
          "text": "Og Jona bad til Herren, sin Gud, fr\u00e5 buken \u00e5t fisken;"
        },
        {
          "chapter": 2,
          "verse": 3,
          "name": "Jonah 2:3",
          "text": "han sagde: \u00abEg ropa til Herren i mi naud, og han svara meg. Fr\u00e5 helheims buk ropa eg, og du h\u00f8yrde mi r\u00f8yst."
        },
        {
          "chapter": 2,
          "verse": 4,
          "name": "Jonah 2:4",
          "text": "Du kasta meg i djupet, midt i havet, og straumar kringsette meg, alle dine bylgjor og brot gjekk yver meg."
        },
        {
          "chapter": 2,
          "verse": 5,
          "name": "Jonah 2:5",
          "text": "Eg tenkte d\u00e5: \u00abBurt fr\u00e5 dine augo er eg st\u00f8ytt. Like vel, ditt heilage tempel skal eg atter f\u00e5 sj\u00e5.\u00bb"
        },
        {
          "chapter": 2,
          "verse": 6,
          "name": "Jonah 2:6",
          "text": "Vatni kringa seg um meg like til sj\u00e6li. Djupet kringsette meg; tang sveipte seg um hovudet mitt."
        },
        {
          "chapter": 2,
          "verse": 7,
          "name": "Jonah 2:7",
          "text": "Like til bergbotnarne sokk eg ned. Sl\u00e5erne til jordi stengdest bak meg for alltid. Men du f\u00f8rde mitt liv upp or gravi, Herre, min Gud!"
        },
        {
          "chapter": 2,
          "verse": 8,
          "name": "Jonah 2:8",
          "text": "D\u00e5 mi sj\u00e6l ormegtast i meg, kom eg Herren i hug, og mi b\u00f8n kom til deg i ditt heilage tempel."
        },
        {
          "chapter": 2,
          "verse": 9,
          "name": "Jonah 2:9",
          "text": "Dei som tek vare p\u00e5 tome avgudar, gjeng fr\u00e5 si miskunn."
        },
        {
          "chapter": 2,
          "verse": 10,
          "name": "Jonah 2:10",
          "text": "Men med lovsongs tonar vil eg ofra til deg, det eg lova, vil eg halda. Hj\u00e5 Herren er frelsa!\u00bb D\u00e5 baud Herren fisken, og han spydde Jona upp p\u00e5 land. "
        }
      ]
    },
    {
      "chapter": 3,
      "name": "Jonah 3",
      "verses": [
        {
          "chapter": 3,
          "verse": 1,
          "name": "Jonah 3:1",
          "text": "D\u00e5 kom Herrens ord til Jonas andre gongen; han sagde:"
        },
        {
          "chapter": 3,
          "verse": 2,
          "name": "Jonah 3:2",
          "text": "\u00abStatt upp og gakk til Nineve, den store byen, og ropa ut yver honom dei ordi eg vil tala til deg!\u00bb"
        },
        {
          "chapter": 3,
          "verse": 3,
          "name": "Jonah 3:3",
          "text": "Og Jona stod upp og gjekk til Nineve, som Herren hadde sagt. Nineve var ein stor by for Gud, tri dagsleider lang."
        },
        {
          "chapter": 3,
          "verse": 4,
          "name": "Jonah 3:4",
          "text": "Og Jona gjekk ei dagslei inn i byen og ropa og sagde: \u00abUm fyrti dagar skal Nineve verta lagd i grus.\u00bb"
        },
        {
          "chapter": 3,
          "verse": 5,
          "name": "Jonah 3:5",
          "text": "D\u00e5 trudde ninevitarne p\u00e5 Gud, lyste ut ei fasta og kl\u00e6dde seg i sekk b\u00e5de store og sm\u00e5."
        },
        {
          "chapter": 3,
          "verse": 6,
          "name": "Jonah 3:6",
          "text": "D\u00e5 saki kom for kongen i Nineve, reiste han seg fr\u00e5 sin kongsstol, lagde kappa av seg og sveipte seg i sekk og sette seg i oska."
        },
        {
          "chapter": 3,
          "verse": 7,
          "name": "Jonah 3:7",
          "text": "Han let ropa ut i Nineve og segja: \u00abEtter bod fr\u00e5 kongen og hans stormenner m\u00e5 korkje menneskje eller dyr, storfe eller sm\u00e5fe, smaka noko, beita eller drikka vatn."
        },
        {
          "chapter": 3,
          "verse": 8,
          "name": "Jonah 3:8",
          "text": "Men dei skal sveipa seg i sekk, menneski med dyri, og ropa til Gud av all kraft og umvenda seg, kvar fr\u00e5 sin vonde veg og fr\u00e5 den urett som er i deira hender."
        },
        {
          "chapter": 3,
          "verse": 9,
          "name": "Jonah 3:9",
          "text": "Kven veit? Gud kunde d\u00e5 venda um og angra det, venda um fr\u00e5 den brennande vreide sin, so me ikkje gjeng under.\u00bb"
        },
        {
          "chapter": 3,
          "verse": 10,
          "name": "Jonah 3:10",
          "text": "D\u00e5 no Gud s\u00e5g det dei gjorde, at dei vende um fr\u00e5 sin vonde veg, angra han det vonde han hadde sagt han vilde gjera mot deim, og han gjorde det ikkje. "
        }
      ]
    },
    {
      "chapter": 4,
      "name": "Jonah 4",
      "verses": [
        {
          "chapter": 4,
          "verse": 1,
          "name": "Jonah 4:1",
          "text": "Dette gjorde Jona ovleg vondt, og han vart brennande harm."
        },
        {
          "chapter": 4,
          "verse": 2,
          "name": "Jonah 4:2",
          "text": "Han bad d\u00e5 til Herren og sagde: \u00ab\u00c5 Herre, var det ikkje dette eg tenkte, d\u00e5 eg end\u00e5 var i mitt land? Difor flydde eg so sn\u00f8gt til Tarsis; for eg visste du er ein n\u00e5dig og miskunnsam Gud, langmodig og rik p\u00e5 miskunn, og angrar det vonde."
        },
        {
          "chapter": 4,
          "verse": 3,
          "name": "Jonah 4:3",
          "text": "So tak no, Herre, livet mitt ifr\u00e5 meg! For eg vil heller d\u00f8y enn liva.\u00bb"
        },
        {
          "chapter": 4,
          "verse": 4,
          "name": "Jonah 4:4",
          "text": "D\u00e5 sagde Herren: \u00abHev du grunn til \u00e5 harmast?\u00bb"
        },
        {
          "chapter": 4,
          "verse": 5,
          "name": "Jonah 4:5",
          "text": "Og Jona gjekk ut or byen og sette seg austanfor byen. Der gjorde han seg ei hytta og sette seg der i skuggen, og vilde sj\u00e5 korleis det gjekk med byen."
        },
        {
          "chapter": 4,
          "verse": 6,
          "name": "Jonah 4:6",
          "text": "D\u00e5 let Herren Gud ein kikajon veksa upp yver Jona, til \u00e5 skyggja yver hovudet hans og fria honom ifr\u00e5 hans mismod; og Jona fann stor gleda i kikajonen."
        },
        {
          "chapter": 4,
          "verse": 7,
          "name": "Jonah 4:7",
          "text": "Men n\u00e6ste dag, d\u00e5 morgonroden rann, sende Gud ein makk, som stakk kikajonen so han visna."
        },
        {
          "chapter": 4,
          "verse": 8,
          "name": "Jonah 4:8",
          "text": "D\u00e5 soli rann, sende Gud ein brennande austanvind, og soli stakk Jona p\u00e5 hovudet so han ormegtast. Han ynskte d\u00e5 \u00e5 f\u00e5 d\u00f8y og sagde: \u00abEg vil heller d\u00f8y enn liva.\u00bb"
        },
        {
          "chapter": 4,
          "verse": 9,
          "name": "Jonah 4:9",
          "text": "Men Gud sagde til Jona: \u00abHev du grunn til \u00e5 harmast for kikajonen skuld?\u00bb Han svara: \u00abEg hev grunn til \u00e5 harmast til dauden.\u00bb"
        },
        {
          "chapter": 4,
          "verse": 10,
          "name": "Jonah 4:10",
          "text": "D\u00e5 sagde Herren: \u00abDu ynkast yver kikajonen, som du ikkje hev havt m\u00f8da med og ikkje hev ale upp, som kom til p\u00e5 ei natt og gjekk til grunns etter ei natt;"
        },
        {
          "chapter": 4,
          "verse": 11,
          "name": "Jonah 4:11",
          "text": "og so skulde ikkje eg ynkast yver Nineve, den store byen, der det finst meir enn eit hundrad og tjuge tusund menneskje som ikkje kann skilja millom h\u00f8gre og vinstre, og mange dyr!\u00bb  "
        }
      ]
    }
  ]
}
