{
    "translation": "Latvian Gl\u00fcck 8th edition",
    "abbreviation": "lvgluck8",
    "lang": "lv",
    "language": "Latvian",
    "direction": "LTR",
    "encoding": "UTF-8",
    "book_nr": 6,
    "book_name": "Joshua",
    "chapter": 3,
    "name": "Joshua 3",
    "verses": [
        {
            "chapter": 3,
            "verse": 1,
            "name": "Joshua 3:1",
            "text": "Tad Jozu\u016bs c\u0113l\u0101s no r\u012bta agri, un tie aizg\u0101ja no Zitim un n\u0101ca l\u012bdz Jard\u0101nei, vi\u0146\u0161 un visi Izra\u0113la b\u0113rni. Un tie tur palika par nakti, pirms p\u0101rc\u0113l\u0101s. "
        },
        {
            "chapter": 3,
            "verse": 2,
            "name": "Joshua 3:2",
            "text": "Un p\u0113c trim dien\u0101m tie virsnieki g\u0101ja pa l\u0113\u0123eri"
        },
        {
            "chapter": 3,
            "verse": 3,
            "name": "Joshua 3:3",
            "text": "Un pav\u0113l\u0113ja tiem \u013caud\u012bm sac\u012bdami: kad j\u016bs redz\u0113siet T\u0101 Kunga, sava Dieva, der\u012bbas \u0161\u0137irstu un tos priesterus, Levja b\u0113rnus, to nesam, tad ce\u013caties no savas vietas un ejat vi\u0146am paka\u013c."
        },
        {
            "chapter": 3,
            "verse": 4,
            "name": "Joshua 3:4",
            "text": "Tom\u0113r lai starpa paliek starp jums un vi\u0146u l\u012bdz divi t\u016bksto\u0161u olek\u0161u plata, un neejat tam tuvu, lai j\u016bs to ce\u013cu varat zin\u0101t, kas jums j\u0101iet, jo j\u016bs \u0161o ce\u013cu v\u0113l nekad neesat g\u0101ju\u0161i."
        },
        {
            "chapter": 3,
            "verse": 5,
            "name": "Joshua 3:5",
            "text": "Un Jozu\u016bs sac\u012bja uz tiem \u013caud\u012bm: sv\u0113t\u012bjaties, jo r\u012bt\u0101 Tas Kungs j\u016bsu starp\u0101 dar\u012bs br\u012bnumus. "
        },
        {
            "chapter": 3,
            "verse": 6,
            "name": "Joshua 3:6",
            "text": "Un Jozu\u016bs run\u0101ja uz tiem priesteriem sac\u012bdams: \u0146emat der\u012bbas \u0161\u0137irstu un ejat p\u0101ri \u013cau\u017eu priek\u0161\u0101. Tad tie \u0146\u0113ma der\u012bbas \u0161\u0137irstu un g\u0101ja tiem \u013caud\u012bm priek\u0161\u0101."
        },
        {
            "chapter": 3,
            "verse": 7,
            "name": "Joshua 3:7",
            "text": "Un Tas Kungs sac\u012bja uz Jozu\u016b: \u0161odien es s\u0101k\u0161u tevi paaugstin\u0101t visa Izra\u0113la ac\u012bs; lai tie zin, ka es b\u016b\u0161u ar tevi, k\u0101 esmu bijis ar Mozu. "
        },
        {
            "chapter": 3,
            "verse": 8,
            "name": "Joshua 3:8",
            "text": "Un tiem priesteriem, kas to der\u012bbas \u0161\u0137irstu nes, tev b\u016bs pav\u0113l\u0113t un sac\u012bt: kad j\u016bs n\u0101kat Jard\u0101nes mal\u0101 pie \u016bdens, tad apst\u0101jaties pie Jard\u0101nes."
        },
        {
            "chapter": 3,
            "verse": 9,
            "name": "Joshua 3:9",
            "text": "Un Jozu\u016bs sac\u012bja uz Izra\u0113la b\u0113rniem: n\u0101ciet \u0161urp un klaus\u0101ties T\u0101 Kunga, sava Dieva, v\u0101rdus."
        },
        {
            "chapter": 3,
            "verse": 10,
            "name": "Joshua 3:10",
            "text": "Un Jozu\u016bs sac\u012bja: pie tam jums b\u016bs zin\u0101t, ka tas dz\u012bvais Dievs ir j\u016bsu vid\u016b, un ka vi\u0146\u0161 izdz\u012bdams izdz\u012bs j\u016bsu priek\u0161\u0101 Kana\u0101nie\u0161us un Etie\u0161us un Evie\u0161us un Verezie\u0161us un \u0122irgazie\u0161us un Amorie\u0161us un Jebuzie\u0161us."
        },
        {
            "chapter": 3,
            "verse": 11,
            "name": "Joshua 3:11",
            "text": "Redzi, visas pasaules vald\u012bt\u0101ja der\u012bbas \u0161\u0137irsts ies j\u016bsu priek\u0161\u0101 p\u0101ri p\u0101r Jard\u0101ni."
        },
        {
            "chapter": 3,
            "verse": 12,
            "name": "Joshua 3:12",
            "text": "Tad nu \u0146emat sev divpadsmit v\u012brus no Izra\u0113la cilt\u012bm, no ikvienas cilts vienu v\u012bru."
        },
        {
            "chapter": 3,
            "verse": 13,
            "name": "Joshua 3:13",
            "text": "Un kad to priesteru k\u0101jas, kas T\u0101 Kunga, visas pasaules vald\u012bt\u0101ja, \u0161\u0137irstu nes, nolaid\u012bsies Jard\u0101nes \u016bden\u012b, tad Jard\u0101nes \u016bdens apst\u0101sies, tas \u016bdens, kas no aug\u0161ienes tek, un st\u0101v\u0113s vien\u0101 kop\u0101. "
        },
        {
            "chapter": 3,
            "verse": 14,
            "name": "Joshua 3:14",
            "text": "Un kad tie \u013caudis no saviem dz\u012bvok\u013ciem c\u0113l\u0101s, iet p\u0101r Jard\u0101ni, un tie priesteri nesa der\u012bbas \u0161\u0137irstu \u013cau\u017eu priek\u0161\u0101, "
        },
        {
            "chapter": 3,
            "verse": 15,
            "name": "Joshua 3:15",
            "text": "Un kad tie \u0161\u0137irsta nes\u0113ji n\u0101ca l\u012bdz Jard\u0101nei, un kad to priesteru k\u0101jas, kas to \u0161\u0137irstu nesa, upmal\u0101 iebrida \u016bden\u012b, (bet Jard\u0101ne l\u012bdz pa\u0161\u0101m mal\u0101m ir uzpl\u016bdusi cauru p\u013caujamo laiku), "
        },
        {
            "chapter": 3,
            "verse": 16,
            "name": "Joshua 3:16",
            "text": "Tad tas \u016bdens, kas no aug\u0161ienes n\u0101ca, nost\u0101j\u0101s st\u0101vu vien\u0101 kop\u0101, labi t\u0101lu no Adamas pils\u0113tas, kas s\u0101nis Cartanai; bet tas, kas tec\u0113ja uz leju, klajuma j\u016br\u0101, (proti) s\u0101ls j\u016br\u0101, tas pavisam izs\u012bka. Tad tie \u013caudis g\u0101ja p\u0101ri, J\u0113rikum pret\u012b."
        },
        {
            "chapter": 3,
            "verse": 17,
            "name": "Joshua 3:17",
            "text": "Bet tie priesteri, kas T\u0101 Kunga der\u012bbas \u0161\u0137irstu nesa, st\u0101v\u0113ja sausum\u0101 Jard\u0101nes vid\u016b, un viss Izra\u0113ls g\u0101ja p\u0101ri pa sausumu, tiekams visi \u013caudis bija p\u0101rg\u0101ju\u0161i p\u0101r Jard\u0101ni. "
        }
    ]
}