{
    "translation": "New Heart English Bible: Messianic Edition",
    "abbreviation": "nhebme",
    "lang": "en",
    "language": "English",
    "direction": "LTR",
    "encoding": "UTF-8",
    "book_nr": 13,
    "book_name": "1 Chronicles",
    "chapter": 16,
    "name": "1 Chronicles 16",
    "verses": [
        {
            "chapter": 16,
            "verse": 1,
            "name": "1 Chronicles 16:1",
            "text": "They brought in the ark of God, and set it in the midst of the tent that David had pitched for it: and they offered burnt offerings and peace offerings before God."
        },
        {
            "chapter": 16,
            "verse": 2,
            "name": "1 Chronicles 16:2",
            "text": "When David had made an end of offering the burnt offering and the peace offerings, he blessed the people in the name of the Lord."
        },
        {
            "chapter": 16,
            "verse": 3,
            "name": "1 Chronicles 16:3",
            "text": "He dealt to everyone of Israel, both man and woman, to every one a loaf of bread, and a portion of meat, and a cake of raisins."
        },
        {
            "chapter": 16,
            "verse": 4,
            "name": "1 Chronicles 16:4",
            "text": "He appointed certain of the Levites to minister before the ark of the Lord, and to celebrate and to thank and praise the Lord, the God of Israel:"
        },
        {
            "chapter": 16,
            "verse": 5,
            "name": "1 Chronicles 16:5",
            "text": "Asaph the chief, and second to him Zechariah, Jeiel, and Shemiramoth, and Jehiel, and Mattithiah, and Eliab, and Benaiah, and Obed-Edom, and Jeiel, with stringed instruments and with harps; and Asaph with cymbals, sounding aloud;"
        },
        {
            "chapter": 16,
            "verse": 6,
            "name": "1 Chronicles 16:6",
            "text": "and Benaiah and Jahaziel the priests with trumpets continually, before the ark of the covenant of God. "
        },
        {
            "chapter": 16,
            "verse": 7,
            "name": "1 Chronicles 16:7",
            "text": "Then on that day David first ordained to give thanks to the Lord, by the hand of Asaph and his brothers. "
        },
        {
            "chapter": 16,
            "verse": 8,
            "name": "1 Chronicles 16:8",
            "text": "Oh give thanks to the Lord. Call on his name. Make his doings known among the peoples. "
        },
        {
            "chapter": 16,
            "verse": 9,
            "name": "1 Chronicles 16:9",
            "text": "Sing to him. Sing praises to him. Tell of all his marvelous works. "
        },
        {
            "chapter": 16,
            "verse": 10,
            "name": "1 Chronicles 16:10",
            "text": "Glory in his holy name. Let the heart of those who seek the Lord rejoice. "
        },
        {
            "chapter": 16,
            "verse": 11,
            "name": "1 Chronicles 16:11",
            "text": "Seek the Lord and his strength. Seek his face forever more. "
        },
        {
            "chapter": 16,
            "verse": 12,
            "name": "1 Chronicles 16:12",
            "text": "Remember his marvelous works that he has done, his wonders, and the judgments of his mouth, "
        },
        {
            "chapter": 16,
            "verse": 13,
            "name": "1 Chronicles 16:13",
            "text": "you seed of Israel his servant, you children of Jacob, his chosen ones. "
        },
        {
            "chapter": 16,
            "verse": 14,
            "name": "1 Chronicles 16:14",
            "text": "He is the Lord our God. His judgments are in all the earth. "
        },
        {
            "chapter": 16,
            "verse": 15,
            "name": "1 Chronicles 16:15",
            "text": "Remember his covenant forever, the word which he commanded to a thousand generations, "
        },
        {
            "chapter": 16,
            "verse": 16,
            "name": "1 Chronicles 16:16",
            "text": "the covenant which he made with Abraham, his oath to Isaac. "
        },
        {
            "chapter": 16,
            "verse": 17,
            "name": "1 Chronicles 16:17",
            "text": "He confirmed the same to Jacob for a statute, and to Israel for an everlasting covenant, "
        },
        {
            "chapter": 16,
            "verse": 18,
            "name": "1 Chronicles 16:18",
            "text": "saying, \"I will give you the land of Canaan, The lot of your inheritance,\" "
        },
        {
            "chapter": 16,
            "verse": 19,
            "name": "1 Chronicles 16:19",
            "text": "when you were but a few men in number, yes, very few, and foreigners were in it. "
        },
        {
            "chapter": 16,
            "verse": 20,
            "name": "1 Chronicles 16:20",
            "text": "They went about from nation to nation, from one kingdom to another people. "
        },
        {
            "chapter": 16,
            "verse": 21,
            "name": "1 Chronicles 16:21",
            "text": "He allowed no man to do them wrong. Yes, he reproved kings for their sakes, "
        },
        {
            "chapter": 16,
            "verse": 22,
            "name": "1 Chronicles 16:22",
            "text": "\"Do not touch my anointed ones! Do my prophets no harm!\" "
        },
        {
            "chapter": 16,
            "verse": 23,
            "name": "1 Chronicles 16:23",
            "text": "Sing to the Lord, all the earth! Display his salvation from day to day. "
        },
        {
            "chapter": 16,
            "verse": 24,
            "name": "1 Chronicles 16:24",
            "text": "Declare his glory among the nations, and his marvelous works among all the peoples. "
        },
        {
            "chapter": 16,
            "verse": 25,
            "name": "1 Chronicles 16:25",
            "text": "For great is the Lord, and greatly to be praised. He also is to be feared above all gods. "
        },
        {
            "chapter": 16,
            "verse": 26,
            "name": "1 Chronicles 16:26",
            "text": "For all the gods of the peoples are idols, but the Lord made the heavens. "
        },
        {
            "chapter": 16,
            "verse": 27,
            "name": "1 Chronicles 16:27",
            "text": "Honor and majesty are before him. Strength and gladness are in his place. "
        },
        {
            "chapter": 16,
            "verse": 28,
            "name": "1 Chronicles 16:28",
            "text": "Ascribe to the Lord, you relatives of the peoples, ascribe to the Lord glory and strength! "
        },
        {
            "chapter": 16,
            "verse": 29,
            "name": "1 Chronicles 16:29",
            "text": "Ascribe to the Lord the glory due to his name. Bring an offering, and come before him. Worship the Lord in holy array. "
        },
        {
            "chapter": 16,
            "verse": 30,
            "name": "1 Chronicles 16:30",
            "text": "Tremble before him, all the earth. The world also is established that it can't be moved. "
        },
        {
            "chapter": 16,
            "verse": 31,
            "name": "1 Chronicles 16:31",
            "text": "Let the heavens be glad, and let the earth rejoice! Let them say among the nations, \"The Lord reigns!\" "
        },
        {
            "chapter": 16,
            "verse": 32,
            "name": "1 Chronicles 16:32",
            "text": "Let the sea roar, and its fullness! Let the field exult, and all that is therein! "
        },
        {
            "chapter": 16,
            "verse": 33,
            "name": "1 Chronicles 16:33",
            "text": "Then the trees of the forest will sing for joy before the Lord, for he comes to judge the earth. "
        },
        {
            "chapter": 16,
            "verse": 34,
            "name": "1 Chronicles 16:34",
            "text": "Oh give thanks to the Lord, for he is good, for his loving kindness endures forever. "
        },
        {
            "chapter": 16,
            "verse": 35,
            "name": "1 Chronicles 16:35",
            "text": "Say, \"Save us, God of our salvation! Gather us together and deliver us from the nations, to give thanks to your holy name, to triumph in your praise.\" "
        },
        {
            "chapter": 16,
            "verse": 36,
            "name": "1 Chronicles 16:36",
            "text": "Blessed be the Lord, the God of Israel, from everlasting even to everlasting. All the people said, \"Amen,\" and praised the Lord. "
        },
        {
            "chapter": 16,
            "verse": 37,
            "name": "1 Chronicles 16:37",
            "text": "So he left there, before the ark of the covenant of the Lord, Asaph and his brothers, to minister before the ark continually, as every day's work required;"
        },
        {
            "chapter": 16,
            "verse": 38,
            "name": "1 Chronicles 16:38",
            "text": "and Obed-Edom with their brothers, sixty-eight; Obed-Edom also the son of Jeduthun and Hosah to be doorkeepers;"
        },
        {
            "chapter": 16,
            "verse": 39,
            "name": "1 Chronicles 16:39",
            "text": "and Zadok the priest, and his brothers the priests, before the tabernacle of the Lord in the high place that was at Gibeon,"
        },
        {
            "chapter": 16,
            "verse": 40,
            "name": "1 Chronicles 16:40",
            "text": "to offer burnt offerings to the Lord on the altar of burnt offering continually morning and evening, even according to all that is written in the law of the Lord, which he commanded to Israel;"
        },
        {
            "chapter": 16,
            "verse": 41,
            "name": "1 Chronicles 16:41",
            "text": "and with them Heman and Jeduthun, and the rest who were chosen, who were mentioned by name, to give thanks to the Lord, because his loving kindness endures forever;"
        },
        {
            "chapter": 16,
            "verse": 42,
            "name": "1 Chronicles 16:42",
            "text": "and with them Heman and Jeduthun with trumpets and cymbals for those that should sound aloud, and with instruments for the songs of God; and the sons of Jeduthun to be at the gate."
        },
        {
            "chapter": 16,
            "verse": 43,
            "name": "1 Chronicles 16:43",
            "text": "All the people departed every man to his house: and David returned to bless his house.  "
        }
    ]
}