{
    "translation": "French Bible Bovet Bonnet (1900)",
    "abbreviation": "frebbb",
    "lang": "fr",
    "language": "French",
    "direction": "LTR",
    "encoding": "UTF-8",
    "book_nr": 1,
    "book_name": "Genesis",
    "chapter": 47,
    "name": "Genesis 47",
    "verses": [
        {
            "chapter": 47,
            "verse": 1,
            "name": "Genesis 47:1",
            "text": "Et Joseph vint informer Pharaon et lui dit : Mon p\u00e8re et mes fr\u00e8res, avec leurs brebis et leurs b\u0153ufs et tout ce qui est \u00e0 eux, sont venus du pays de Canaan, et voici ils sont dans le pays de Gossen."
        },
        {
            "chapter": 47,
            "verse": 2,
            "name": "Genesis 47:2",
            "text": "Et d'entre ses fr\u00e8res il prit cinq hommes et les pr\u00e9senta \u00e0 Pharaon."
        },
        {
            "chapter": 47,
            "verse": 3,
            "name": "Genesis 47:3",
            "text": "Et Pharaon dit \u00e0 ses fr\u00e8res : Quelle est votre occupation\u00a0? Et ils dirent \u00e0 Pharaon : Tes serviteurs sont bergers, nous comme nos p\u00e8res."
        },
        {
            "chapter": 47,
            "verse": 4,
            "name": "Genesis 47:4",
            "text": "Et ils dirent \u00e0 Pharaon : C'est pour s\u00e9journer dans le pays que nous sommes venus\u00a0; car il n'y a plus de p\u00e2ture pour les troupeaux de tes serviteurs, car la famine s'est appesantie sur le pays de Canaan. Permets donc \u00e0 tes serviteurs d'habiter au pays de Gossen."
        },
        {
            "chapter": 47,
            "verse": 5,
            "name": "Genesis 47:5",
            "text": "Et Pharaon parla ainsi \u00e0 Joseph : Ton p\u00e8re et tes fr\u00e8res sont venus vers toi\u00a0;"
        },
        {
            "chapter": 47,
            "verse": 6,
            "name": "Genesis 47:6",
            "text": "le pays d'Egypte est \u00e0 ta disposition\u00a0; fais habiter ton p\u00e8re et tes fr\u00e8res dans la meilleure partie du pays\u00a0; qu'ils demeurent dans le pays de Gossen. Et si tu sais qu'il y ait parmi eux des hommes habiles, tu les \u00e9tabliras sur les troupeaux qui m'appartiennent."
        },
        {
            "chapter": 47,
            "verse": 7,
            "name": "Genesis 47:7",
            "text": "Et Joseph amena Jacob son p\u00e8re, et le pr\u00e9senta \u00e0 Pharaon. Et Jacob b\u00e9nit Pharaon."
        },
        {
            "chapter": 47,
            "verse": 8,
            "name": "Genesis 47:8",
            "text": "Et Pharaon dit \u00e0 Jacob : Quel est le nombre des ann\u00e9es de ta vie\u00a0?"
        },
        {
            "chapter": 47,
            "verse": 9,
            "name": "Genesis 47:9",
            "text": "Et Jacob dit \u00e0 Pharaon : La dur\u00e9e de ma vie errante a \u00e9t\u00e9 de cent trente ans. Le temps des ann\u00e9es de ma vie a \u00e9t\u00e9 court et mauvais, et elles n'ont point atteint les ann\u00e9es de la vie errante de mes p\u00e8res."
        },
        {
            "chapter": 47,
            "verse": 10,
            "name": "Genesis 47:10",
            "text": "Et Jacob b\u00e9nit Pharaon, et il sortit de devant Pharaon."
        },
        {
            "chapter": 47,
            "verse": 11,
            "name": "Genesis 47:11",
            "text": "Et Joseph \u00e9tablit son p\u00e8re et ses fr\u00e8res, et il leur assigna une propri\u00e9t\u00e9 au pays d'Egypte, dans la meilleure partie du pays, dans le pays de Rams\u00e8s, comme l'avait ordonn\u00e9 Pharaon."
        },
        {
            "chapter": 47,
            "verse": 12,
            "name": "Genesis 47:12",
            "text": "Et Joseph fournit de pain son p\u00e8re, ses fr\u00e8res et toute la famille de son p\u00e8re, selon le nombre des enfants."
        },
        {
            "chapter": 47,
            "verse": 13,
            "name": "Genesis 47:13",
            "text": "Et il n'y avait point de pain dans tout le pays, car la famine \u00e9tait tr\u00e8s grande, et le pays d'Egypte et le pays de Canaan \u00e9taient \u00e9puis\u00e9s par la famine."
        },
        {
            "chapter": 47,
            "verse": 14,
            "name": "Genesis 47:14",
            "text": "Et Joseph amassa tout l'argent qui se trouvait dans le pays d'Egypte et dans le pays de Canaan, comme prix du bl\u00e9 qu'on achetait\u00a0; et Joseph fit porter cet argent dans la maison de Pharaon."
        },
        {
            "chapter": 47,
            "verse": 15,
            "name": "Genesis 47:15",
            "text": "Et l'argent manqua au pays d'Egypte et au pays de Canaan, et tous les Egyptiens vinrent \u00e0 Joseph en disant : Donne-nous du pain. Pourquoi mourrions-nous devant toi\u00a0? Car nous sommes \u00e0 bout d'argent."
        },
        {
            "chapter": 47,
            "verse": 16,
            "name": "Genesis 47:16",
            "text": "Et Joseph r\u00e9pondit : Donnez votre b\u00e9tail, et je vous donnerai du pain en \u00e9change de votre b\u00e9tail, si vous \u00eates \u00e0 bout d'argent."
        },
        {
            "chapter": 47,
            "verse": 17,
            "name": "Genesis 47:17",
            "text": "Et ils amen\u00e8rent leur b\u00e9tail \u00e0 Joseph, et Joseph leur donna du pain en \u00e9change des chevaux, des troupeaux de brebis, des troupeaux de b\u0153ufs et des \u00e2nes. Il leur fournit du pain en \u00e9change de tous leurs troupeaux cette ann\u00e9e-l\u00e0."
        },
        {
            "chapter": 47,
            "verse": 18,
            "name": "Genesis 47:18",
            "text": "Quand l'ann\u00e9e fut finie, ils vinrent \u00e0 lui l'ann\u00e9e suivante, et lui dirent : Nous ne cacherons point \u00e0 mon seigneur que, maintenant que l'argent est \u00e9puis\u00e9 et que les troupeaux ont achev\u00e9 de passer \u00e0 mon seigneur, il ne reste rien \u00e0 la disposition de mon seigneur que nos corps et nos terres."
        },
        {
            "chapter": 47,
            "verse": 19,
            "name": "Genesis 47:19",
            "text": "Pourquoi p\u00e9ririons-nous sous tes yeux, nous et nos terres\u00a0? Ach\u00e8te-nous, nous et nos terres, pour du pain, et nous serons, avec nos terres, esclaves de Pharaon. Et donne-nous de quoi semer, afin que nous vivions et ne mourions pas, et que le sol ne devienne pas un d\u00e9sert."
        },
        {
            "chapter": 47,
            "verse": 20,
            "name": "Genesis 47:20",
            "text": "Et Joseph acquit tout le sol d'Egypte \u00e0 Pharaon\u00a0; car les Egyptiens vendirent chacun son champ, parce que la famine les pressait\u00a0; et la terre fut \u00e0 Pharaon."
        },
        {
            "chapter": 47,
            "verse": 21,
            "name": "Genesis 47:21",
            "text": "Et quant aux gens, il les fit passer dans les villes, depuis une extr\u00e9mit\u00e9 du territoire de l'Egypte jusqu'\u00e0 l'autre."
        },
        {
            "chapter": 47,
            "verse": 22,
            "name": "Genesis 47:22",
            "text": "Il n'y eut que les terres des pr\u00eatres qu'il n'acquit pas, car les pr\u00eatres recevaient de Pharaon une portion fix\u00e9e, et ils mangeaient la portion que Pharaon leur avait donn\u00e9e\u00a0; c'est pourquoi ils ne vendirent point leurs terres."
        },
        {
            "chapter": 47,
            "verse": 23,
            "name": "Genesis 47:23",
            "text": "Et Joseph dit au peuple : Voici, je vous ai acquis aujourd'hui, vous et vos terres, \u00e0 Pharaon. Voici pour vous de la semence, afin que vous ensemenciez le sol."
        },
        {
            "chapter": 47,
            "verse": 24,
            "name": "Genesis 47:24",
            "text": "Et au temps des r\u00e9coltes, vous donnerez le cinqui\u00e8me \u00e0 Pharaon, et les quatre autres parties seront \u00e0 vous, pour ensemencer les champs et pour votre nourriture, et pour celle des gens qui sont dans vos maisons, et pour la nourriture de vos petits enfants."
        },
        {
            "chapter": 47,
            "verse": 25,
            "name": "Genesis 47:25",
            "text": "Et ils dirent : Tu nous as sauv\u00e9 la vie\u00a0! Que nous trouvions gr\u00e2ce aux yeux de mon seigneur, et nous serons esclaves de Pharaon."
        },
        {
            "chapter": 47,
            "verse": 26,
            "name": "Genesis 47:26",
            "text": "Et Joseph imposa au sol de l'Egypte une contribution d'un cinqui\u00e8me pour Pharaon, ce qui existe encore aujourd'hui. Il n'y a que les terres des pr\u00eatres qui ne soient point \u00e0 Pharaon."
        },
        {
            "chapter": 47,
            "verse": 27,
            "name": "Genesis 47:27",
            "text": "Et Isra\u00ebl habita au pays d'Egypte, au pays de Gossen\u00a0; et ils y eurent des possessions, et ils furent f\u00e9conds et multipli\u00e8rent beaucoup."
        },
        {
            "chapter": 47,
            "verse": 28,
            "name": "Genesis 47:28",
            "text": "Et Jacob v\u00e9cut au pays d'Egypte dix-sept ans. Et les jours de Jacob, les ann\u00e9es de sa vie furent de cent quarante-sept ans."
        },
        {
            "chapter": 47,
            "verse": 29,
            "name": "Genesis 47:29",
            "text": "Et quand les jours d'Isra\u00ebl approch\u00e8rent de leur fin, il appela son fils Joseph et lui dit : Si j'ai trouv\u00e9 gr\u00e2ce \u00e0 tes yeux, mets, je te prie, ta main sous ma cuisse, et use envers moi de bont\u00e9 et de fid\u00e9lit\u00e9 : ne m'enterre point en Egypte."
        },
        {
            "chapter": 47,
            "verse": 30,
            "name": "Genesis 47:30",
            "text": "Quand je serai couch\u00e9 avec mes p\u00e8res, tu m'emporteras hors d'Egypte et tu m'enterreras dans leur tombeau. Et il dit : Je ferai selon ta parole."
        },
        {
            "chapter": 47,
            "verse": 31,
            "name": "Genesis 47:31",
            "text": "Il dit : Jure-le moi. Et il le lui jura. Et Isra\u00ebl se prosterna sur le chevet du lit.  "
        }
    ]
}