{
    "translation": "French Bible Bovet Bonnet (1900)",
    "abbreviation": "frebbb",
    "lang": "fr",
    "language": "French",
    "direction": "LTR",
    "encoding": "UTF-8",
    "book_nr": 1,
    "book_name": "Genesis",
    "chapter": 50,
    "name": "Genesis 50",
    "verses": [
        {
            "chapter": 50,
            "verse": 1,
            "name": "Genesis 50:1",
            "text": "Et Joseph se jeta sur le visage de son p\u00e8re et pleura sur lui et l'embrassa."
        },
        {
            "chapter": 50,
            "verse": 2,
            "name": "Genesis 50:2",
            "text": "Et Joseph commanda aux m\u00e9decins qui \u00e9taient \u00e0 son service d'embaumer son p\u00e8re\u00a0; et les m\u00e9decins embaum\u00e8rent Isra\u00ebl."
        },
        {
            "chapter": 50,
            "verse": 3,
            "name": "Genesis 50:3",
            "text": "Et ils y employ\u00e8rent quarante jours, car c'est le temps que l'on met \u00e0 embaumer. Et les Egyptiens le pleur\u00e8rent soixante et dix jours."
        },
        {
            "chapter": 50,
            "verse": 4,
            "name": "Genesis 50:4",
            "text": "Quand les jours de son deuil furent pass\u00e9s, Joseph parla aux gens de la maison de Pharaon en disant : Si j'ai trouv\u00e9 gr\u00e2ce \u00e0 vos yeux, faites entendre, je vous prie, \u00e0 Pharaon ces paroles :"
        },
        {
            "chapter": 50,
            "verse": 5,
            "name": "Genesis 50:5",
            "text": "Mon p\u00e8re m'a fait jurer en disant :Voici je vais mourir\u00a0; tu m'enterreras dans mon s\u00e9pulcre, que je me suis creus\u00e9 au pays de Canaan. Maintenant donc, que j'y monte, je te prie, et que j'enterre l\u00e0 mon p\u00e8re, et je reviendrai."
        },
        {
            "chapter": 50,
            "verse": 6,
            "name": "Genesis 50:6",
            "text": "Et Pharaon r\u00e9pondit : Monte et enterre ton p\u00e8re, comme il te l'a fait jurer."
        },
        {
            "chapter": 50,
            "verse": 7,
            "name": "Genesis 50:7",
            "text": "Et Joseph monta pour enterrer son p\u00e8re\u00a0; et avec lui mont\u00e8rent tous les serviteurs de Pharaon, les Anciens de sa maison, et tous les Anciens du pays d'Egypte,"
        },
        {
            "chapter": 50,
            "verse": 8,
            "name": "Genesis 50:8",
            "text": "et toute la maison de Joseph, ses fr\u00e8res et la maison de son p\u00e8re. Il n'y eut que leurs petits enfants, leurs brebis et leurs b\u0153ufs qu'ils laiss\u00e8rent dans le pays de Gossen."
        },
        {
            "chapter": 50,
            "verse": 9,
            "name": "Genesis 50:9",
            "text": "Avec lui mont\u00e8rent aussi des chars et des cavaliers\u00a0; c'\u00e9tait une caravane tr\u00e8s nombreuse."
        },
        {
            "chapter": 50,
            "verse": 10,
            "name": "Genesis 50:10",
            "text": "Ils vinrent jusqu'\u00e0 l'aire d'Atad, qui est au-del\u00e0 du Jourdain, et ils y c\u00e9l\u00e9br\u00e8rent des c\u00e9r\u00e9monies fun\u00e8bres grandes et solennelles, et Joseph fit \u00e0 son p\u00e8re un deuil de sept jours."
        },
        {
            "chapter": 50,
            "verse": 11,
            "name": "Genesis 50:11",
            "text": "Les Canan\u00e9ens, habitants du pays, voyant ce deuil dans l'aire d'Atad, dirent : Voil\u00e0 un grand deuil chez les Egyptiens. C'est pourquoi on a nomm\u00e9 cet endroit Abel-Mitsra\u00efm\u00a0; il est au-del\u00e0 du Jourdain."
        },
        {
            "chapter": 50,
            "verse": 12,
            "name": "Genesis 50:12",
            "text": "Les fils de Jacob firent donc \u00e0 son \u00e9gard comme il leur avait command\u00e9."
        },
        {
            "chapter": 50,
            "verse": 13,
            "name": "Genesis 50:13",
            "text": "Ses fils le transport\u00e8rent au pays de Canaan et l'enterr\u00e8rent dans la caverne du champ de Macp\u00e9la qu'Abraham avait acquise, avec le champ, d'Ephron le H\u00e9thien, comme un s\u00e9pulcre qui lui appartint, vis-\u00e0-vis de Mamr\u00e9."
        },
        {
            "chapter": 50,
            "verse": 14,
            "name": "Genesis 50:14",
            "text": "Et apr\u00e8s qu'il eut enterr\u00e9 son p\u00e8re, Joseph s'en retourna en Egypte, lui et ses fr\u00e8res, et tous ceux qui \u00e9taient mont\u00e9s avec lui pour enterrer son p\u00e8re."
        },
        {
            "chapter": 50,
            "verse": 15,
            "name": "Genesis 50:15",
            "text": "Et les fr\u00e8res de Joseph, voyant que leur p\u00e8re \u00e9tait mort, dirent : Peut-\u00eatre que Joseph se tournera contre nous et nous rendra tout le mal que nous lui avons fait."
        },
        {
            "chapter": 50,
            "verse": 16,
            "name": "Genesis 50:16",
            "text": "Et ils firent dire \u00e0 Joseph : Ton p\u00e8re a donn\u00e9 cet ordre avant de mourir :"
        },
        {
            "chapter": 50,
            "verse": 17,
            "name": "Genesis 50:17",
            "text": "Vous parlerez ainsi \u00e0 Joseph : Oh\u00a0! veuille pardonner, je te prie, le crime de tes fr\u00e8res et leur p\u00e9ch\u00e9\u00a0; car ils t'ont fait du mal\u00a0; mais maintenant, pardonne, je te prie, le crime des serviteurs du Dieu de ton p\u00e8re. Et Joseph pleura quand ils lui parl\u00e8rent ainsi."
        },
        {
            "chapter": 50,
            "verse": 18,
            "name": "Genesis 50:18",
            "text": "Et ses fr\u00e8res vinrent eux-m\u00eames et se jet\u00e8rent \u00e0 ses pieds, et dirent : Voici, nous sommes tes serviteurs."
        },
        {
            "chapter": 50,
            "verse": 19,
            "name": "Genesis 50:19",
            "text": "Et Joseph leur dit : Ne craignez point, car suis-je \u00e0 la place de Dieu\u00a0?"
        },
        {
            "chapter": 50,
            "verse": 20,
            "name": "Genesis 50:20",
            "text": "Ce que vous avez pens\u00e9 en mal contre moi, Dieu l'a pens\u00e9 en bien, afin de faire ce qui arrive aujourd'hui, de conserver la vie \u00e0 un peuple nombreux."
        },
        {
            "chapter": 50,
            "verse": 21,
            "name": "Genesis 50:21",
            "text": "Et maintenant, soyez sans crainte : je vous entretiendrai, vous et vos enfants. Et il les consola et parla \u00e0 leur c\u0153ur."
        },
        {
            "chapter": 50,
            "verse": 22,
            "name": "Genesis 50:22",
            "text": "Joseph demeura en Egypte, lui et la maison de son p\u00e8re, et Joseph v\u00e9cut cent dix ans."
        },
        {
            "chapter": 50,
            "verse": 23,
            "name": "Genesis 50:23",
            "text": "Il vit les fils d'Ephra\u00efm jusqu'\u00e0 la troisi\u00e8me g\u00e9n\u00e9ration\u00a0; des fils de Makir, fils de Manass\u00e9, naquirent aussi sur ses genoux."
        },
        {
            "chapter": 50,
            "verse": 24,
            "name": "Genesis 50:24",
            "text": "Et Joseph dit \u00e0 ses fr\u00e8res : Pour moi, je vais mourir\u00a0; mais Dieu vous visitera certainement et vous fera remonter de ce pays au pays qu'il a promis par serment \u00e0 Abraham, \u00e0 Isaac et \u00e0 Jacob."
        },
        {
            "chapter": 50,
            "verse": 25,
            "name": "Genesis 50:25",
            "text": "Et Joseph fit jurer les fils d'Isra\u00ebl en disant : Certainement Dieu vous visitera, et vous transporterez mes os d'ici."
        },
        {
            "chapter": 50,
            "verse": 26,
            "name": "Genesis 50:26",
            "text": "Et Joseph mourut \u00e2g\u00e9 de cent dix ans\u00a0; et on l'embauma, et on le mit dans un cercueil en Egypte.   "
        }
    ]
}