{
    "translation": "Japanese Kougo-yaku \u53e3\u8a9e\u8a33\u300c\u8056\u66f8\u300d(1954/1955\u5e74\u7248)",
    "abbreviation": "japkougo",
    "lang": "ja",
    "language": "Japanese",
    "direction": "LTR",
    "encoding": "UTF-8",
    "book_nr": 26,
    "book_name": "Ezekiel",
    "chapter": 44,
    "name": "Ezekiel 44",
    "verses": [
        {
            "chapter": 44,
            "verse": 1,
            "name": "Ezekiel 44:1",
            "text": "\u3053\u3046\u3057\u3066\u3001\u5f7c\u306f\u308f\u305f\u3057\u3092\u9023\u308c\u3066\u3001\u8056\u6240\u306e\u6771\u306b\u5411\u3044\u3066\u3044\u308b\u5916\u306e\u9580\u306b\u5e30\u308b\u3068\u3001\u9580\u306f\u9589\u3058\u3066\u3042\u3063\u305f\u3002"
        },
        {
            "chapter": 44,
            "verse": 2,
            "name": "Ezekiel 44:2",
            "text": "\u5f7c\u306f\u308f\u305f\u3057\u306b\u8a00\u3063\u305f\u3001\u300c\u3053\u306e\u9580\u306f\u9589\u3058\u305f\u307e\u307e\u306b\u3057\u3066\u304a\u3051\u3001\u958b\u3044\u3066\u306f\u306a\u3089\u306a\u3044\u3002\u3053\u3053\u304b\u3089\u3060\u308c\u3082\u306f\u3044\u3063\u3066\u306f\u306a\u3089\u306a\u3044\u3002\u30a4\u30b9\u30e9\u30a8\u30eb\u306e\u795e\u3001\u4e3b\u304c\u3001\u3053\u3053\u304b\u3089\u306f\u3044\u3063\u305f\u306e\u3060\u304b\u3089\u3001\u3053\u308c\u306f\u9589\u3058\u305f\u307e\u307e\u306b\u3057\u3066\u304a\u3051\u3002"
        },
        {
            "chapter": 44,
            "verse": 3,
            "name": "Ezekiel 44:3",
            "text": "\u305f\u3060\u541b\u305f\u308b\u8005\u3060\u3051\u304c\u3001\u3053\u306e\u5185\u306b\u5ea7\u3057\u3001\u4e3b\u306e\u524d\u3067\u30d1\u30f3\u3092\u98df\u3057\u3001\u9580\u306e\u5eca\u3092\u901a\u3063\u3066\u306f\u3044\u308a\u3001\u307e\u305f\u305d\u3053\u304b\u3089\u5916\u306b\u51fa\u3088\u300d\u3002"
        },
        {
            "chapter": 44,
            "verse": 4,
            "name": "Ezekiel 44:4",
            "text": "\u5f7c\u306f\u307e\u305f\u308f\u305f\u3057\u3092\u9023\u308c\u3066\u3001\u5317\u306e\u9580\u306e\u9053\u304b\u3089\u5bae\u306e\u524d\u306b\u884c\u3063\u305f\u3002\u308f\u305f\u3057\u304c\u898b\u3066\u3044\u308b\u3068\u3001\u898b\u3088\u3001\u4e3b\u306e\u6804\u5149\u304c\u4e3b\u306e\u5bae\u306b\u6e80\u3061\u305f\u3002\u308f\u305f\u3057\u304c\u3072\u308c\u4f0f\u3059\u3068\u3001"
        },
        {
            "chapter": 44,
            "verse": 5,
            "name": "Ezekiel 44:5",
            "text": "\u4e3b\u306f\u308f\u305f\u3057\u306b\u8a00\u308f\u308c\u305f\u3001\u300c\u4eba\u306e\u5b50\u3088\u3001\u4e3b\u306e\u5bae\u306e\u3059\u3079\u3066\u306e\u304a\u304d\u3066\u3068\u3001\u305d\u306e\u3059\u3079\u3066\u306e\u898f\u5b9a\u3068\u306b\u3064\u3044\u3066\u3001\u308f\u305f\u3057\u304c\u3042\u306a\u305f\u306b\u544a\u3052\u308b\u3059\u3079\u3066\u306e\u4e8b\u306b\u5fc3\u3092\u3068\u3081\u3001\u76ee\u3092\u6ce8\u304e\u3001\u8033\u3092\u50be\u3051\u3088\u3002\u307e\u305f\u5bae\u306b\u306f\u3044\u308b\u3053\u3068\u3092\u8a31\u3055\u308c\u3066\u3044\u308b\u8005\u3068\u3001\u8056\u6240\u306b\u306f\u3044\u308b\u3053\u3068\u306e\u3067\u304d\u306a\u3044\u8005\u3068\u306b\u5fc3\u305b\u3088\u3002"
        },
        {
            "chapter": 44,
            "verse": 6,
            "name": "Ezekiel 44:6",
            "text": "\u307e\u305f\u53cd\u9006\u306e\u5bb6\u3067\u3042\u308b\u30a4\u30b9\u30e9\u30a8\u30eb\u306e\u5bb6\u306b\u8a00\u3048\u3002\u4e3b\u306a\u308b\u795e\u306f\u3001\u3053\u3046\u8a00\u308f\u308c\u308b\u3001\u30a4\u30b9\u30e9\u30a8\u30eb\u306e\u5bb6\u3088\u3001\u305d\u306e\u618e\u3080\u3079\u304d\u3053\u3068\u3092\u3084\u3081\u3088\u3002"
        },
        {
            "chapter": 44,
            "verse": 7,
            "name": "Ezekiel 44:7",
            "text": "\u3059\u306a\u308f\u3061\u3042\u306a\u305f\u304c\u305f\u306f\u3001\u308f\u305f\u3057\u306e\u98df\u7269\u3067\u3042\u308b\u8102\u80aa\u3068\u8840\u3068\u304c\u3055\u3055\u3052\u3089\u308c\u308b\u6642\u3001\u5fc3\u306b\u3082\u8089\u306b\u3082\u3001\u5272\u793c\u3092\u53d7\u3051\u306a\u3044\u7570\u90a6\u4eba\u3092\u5165\u308c\u3066\u3001\u308f\u304c\u8056\u6240\u306b\u304a\u3089\u305b\u3001\u3053\u308c\u3092\u6c5a\u3057\u305f\u3002\u307e\u305f\u3001\u3082\u308d\u3082\u308d\u306e\u618e\u3080\u3079\u304d\u3082\u306e\u3092\u3082\u3063\u3066\u3001\u308f\u304c\u5951\u7d04\u3092\u7834\u3063\u305f\u3002"
        },
        {
            "chapter": 44,
            "verse": 8,
            "name": "Ezekiel 44:8",
            "text": "\u3042\u306a\u305f\u304c\u305f\u306f\u3001\u308f\u304c\u8056\u306a\u308b\u7269\u3092\u5b88\u308b\u52d9\u3092\u6020\u308a\u3001\u304b\u3048\u3063\u3066\u7570\u90a6\u4eba\u3092\u7acb\u3066\u3066\u3001\u308f\u304c\u8056\u6240\u306e\u52d9\u3092\u5b88\u3089\u305b\u305f\u3002"
        },
        {
            "chapter": 44,
            "verse": 9,
            "name": "Ezekiel 44:9",
            "text": "\u305d\u308c\u3086\u3048\u3001\u4e3b\u306a\u308b\u795e\u306f\u3001\u3053\u3046\u8a00\u308f\u308c\u308b\u3001\u30a4\u30b9\u30e9\u30a8\u30eb\u306e\u4eba\u3005\u306e\u3046\u3061\u306b\u3044\u308b\u3059\u3079\u3066\u306e\u7570\u90a6\u4eba\u306e\u3046\u3061\u3001\u5fc3\u3068\u8089\u3068\u306b\u5272\u793c\u3092\u53d7\u3051\u306a\u3044\u3059\u3079\u3066\u306e\u8005\u306f\u3001\u308f\u304c\u8056\u6240\u306b\u306f\u3044\u3063\u3066\u306f\u306a\u3089\u306a\u3044\u3002"
        },
        {
            "chapter": 44,
            "verse": 10,
            "name": "Ezekiel 44:10",
            "text": "\u307e\u305f\u30ec\u30d3\u4eba\u3067\u3042\u3063\u3066\u3001\u30a4\u30b9\u30e9\u30a8\u30eb\u304c\u8ff7\u3063\u305f\u6642\u3001\u5076\u50cf\u3092\u6155\u3044\u3001\u308f\u305f\u3057\u304b\u3089\u8ff7\u3044\u51fa\u3066\u3001\u9060\u304f\u96e2\u308c\u305f\u8005\u306f\u3001\u305d\u306e\u7f6a\u3092\u8ca0\u308f\u306a\u3051\u308c\u3070\u306a\u3089\u306a\u3044\u3002"
        },
        {
            "chapter": 44,
            "verse": 11,
            "name": "Ezekiel 44:11",
            "text": "\u3059\u306a\u308f\u3061\u5f7c\u3089\u306f\u308f\u304c\u8056\u6240\u3067\u3001\u4ed5\u3048\u4eba\u3068\u306a\u308a\u3001\u5bae\u306e\u9580\u3092\u5b88\u308b\u8005\u3068\u306a\u308a\u3001\u5bae\u306b\u4ed5\u3048\u308b\u3057\u3082\u3079\u3068\u306a\u308a\u3001\u6c11\u306e\u305f\u3081\u306b\u3001\u71d4\u796d\u304a\u3088\u3073\u72a0\u7272\u306e\u3082\u306e\u3092\u6bba\u3057\u3001\u5f7c\u3089\u306e\u524d\u306b\u7acb\u3063\u3066\u4ed5\u3048\u306a\u3051\u308c\u3070\u306a\u3089\u306a\u3044\u3002"
        },
        {
            "chapter": 44,
            "verse": 12,
            "name": "Ezekiel 44:12",
            "text": "\u5f7c\u3089\u306f\u305d\u306e\u5076\u50cf\u306e\u524d\u3067\u6c11\u306b\u4ed5\u3048\u3001\u30a4\u30b9\u30e9\u30a8\u30eb\u306e\u5bb6\u306b\u3068\u3063\u3066\u3001\u7f6a\u306e\u3064\u307e\u305a\u304d\u3068\u306a\u3063\u305f\u3086\u3048\u3001\u4e3b\u306a\u308b\u795e\u306f\u8a00\u308f\u308c\u308b\u3001\u308f\u305f\u3057\u306f\u5f7c\u3089\u306b\u3064\u3044\u3066\u8a93\u3063\u305f\u3002\u5f7c\u3089\u306f\u305d\u306e\u7f6a\u3092\u8ca0\u308f\u306a\u3051\u308c\u3070\u306a\u3089\u306a\u3044\u3002"
        },
        {
            "chapter": 44,
            "verse": 13,
            "name": "Ezekiel 44:13",
            "text": "\u5f7c\u3089\u306f\u308f\u305f\u3057\u306b\u8fd1\u3065\u304d\u3001\u796d\u53f8\u3068\u3057\u3066\u3001\u308f\u305f\u3057\u306b\u4ed5\u3048\u308b\u3053\u3068\u306f\u3067\u304d\u306a\u3044\u3002\u307e\u305f\u308f\u305f\u3057\u306e\u8056\u306a\u308b\u7269\u3001\u304a\u3088\u3073\u6700\u3082\u8056\u306a\u308b\u7269\u306b\u3001\u8fd1\u3065\u3044\u3066\u306f\u306a\u3089\u306a\u3044\u3002\u5f7c\u3089\u306f\u305d\u306e\u304a\u3053\u306a\u3063\u305f\u618e\u3080\u3079\u304d\u3053\u3068\u306e\u305f\u3081\u3001\u6065\u3092\u8ca0\u308f\u306a\u3051\u308c\u3070\u306a\u3089\u306a\u3044\u3002"
        },
        {
            "chapter": 44,
            "verse": 14,
            "name": "Ezekiel 44:14",
            "text": "\u3057\u304b\u3057\u5f7c\u3089\u306b\u306f\u3001\u5bae\u3092\u5b88\u308b\u52d9\u3092\u3055\u305b\u3001\u305d\u306e\u3082\u308d\u3082\u308d\u306e\u52d9\u3068\u3001\u5bae\u3067\u306a\u3059\u3079\u304d\u3059\u3079\u3066\u306e\u4e8b\u3068\u306b\u5f53\u3089\u305b\u308b\u3002"
        },
        {
            "chapter": 44,
            "verse": 15,
            "name": "Ezekiel 44:15",
            "text": "\u3057\u304b\u3057\u30b6\u30c9\u30af\u306e\u5b50\u5b6b\u3067\u3042\u308b\u30ec\u30d3\u306e\u796d\u53f8\u305f\u3061\u3001\u3059\u306a\u308f\u3061\u30a4\u30b9\u30e9\u30a8\u30eb\u306e\u4eba\u3005\u304c\u3001\u308f\u305f\u3057\u3092\u6368\u3066\u3066\u8ff7\u3063\u305f\u6642\u306b\u3001\u308f\u304c\u8056\u6240\u306e\u52d9\u3092\u5b88\u3063\u305f\u8005\u3069\u3082\u306f\u3001\u308f\u305f\u3057\u306b\u4ed5\u3048\u308b\u305f\u3081\u306b\u8fd1\u3065\u304d\u3001\u8102\u80aa\u3068\u8840\u3068\u3092\u308f\u305f\u3057\u306b\u3055\u3055\u3052\u308b\u305f\u3081\u306b\u3001\u308f\u305f\u3057\u306e\u524d\u306b\u7acb\u3066\u3068\u3001\u4e3b\u306a\u308b\u795e\u306f\u8a00\u308f\u308c\u308b\u3002"
        },
        {
            "chapter": 44,
            "verse": 16,
            "name": "Ezekiel 44:16",
            "text": "\u3059\u306a\u308f\u3061\u5f7c\u3089\u306f\u308f\u304c\u8056\u6240\u306b\u5165\u308a\u3001\u308f\u304c\u53f0\u306b\u8fd1\u3065\u3044\u3066\u308f\u305f\u3057\u306b\u4ed5\u3048\u3001\u308f\u305f\u3057\u306e\u52d9\u3092\u5b88\u308b\u3002"
        },
        {
            "chapter": 44,
            "verse": 17,
            "name": "Ezekiel 44:17",
            "text": "\u5f7c\u3089\u304c\u5185\u5ead\u306e\u9580\u306b\u306f\u3044\u308b\u6642\u306f\u3001\u9ebb\u306e\u8863\u670d\u3092\u7740\u306a\u3051\u308c\u3070\u306a\u3089\u306a\u3044\u3002\u5185\u5ead\u306e\u9580\u304a\u3088\u3073\u5bae\u306e\u5185\u3067\u3001\u52d9\u3092\u306a\u3059\u6642\u306f\u3001\u6bdb\u7e54\u7269\u3092\u8eab\u306b\u3064\u3051\u3066\u306f\u306a\u3089\u306a\u3044\u3002"
        },
        {
            "chapter": 44,
            "verse": 18,
            "name": "Ezekiel 44:18",
            "text": "\u307e\u305f\u982d\u306b\u306f\u4e9c\u9ebb\u5e03\u306e\u51a0\u3092\u3064\u3051\u3001\u8170\u306b\u306f\u4e9c\u9ebb\u5e03\u306e\u88b4\u3092\u3064\u3051\u306a\u3051\u308c\u3070\u306a\u3089\u306a\u3044\u3002\u305f\u3060\u3057\u6c57\u306e\u51fa\u308b\u3088\u3046\u306a\u8863\u3092\u8eab\u306b\u3064\u3051\u3066\u306f\u306a\u3089\u306a\u3044\u3002"
        },
        {
            "chapter": 44,
            "verse": 19,
            "name": "Ezekiel 44:19",
            "text": "\u5f7c\u3089\u306f\u5916\u5ead\u306b\u51fa\u308b\u6642\u3001\u3059\u306a\u308f\u3061\u5916\u5ead\u306b\u51fa\u3066\u6c11\u306b\u63a5\u3059\u308b\u6642\u306f\u3001\u52d9\u3092\u306a\u3059\u6642\u306e\u8863\u670d\u306f\u8131\u3044\u3067\u8056\u306a\u308b\u5ba4\u306b\u7f6e\u304d\u3001\u307b\u304b\u306e\u8863\u670d\u3092\u7740\u306a\u3051\u308c\u3070\u306a\u3089\u306a\u3044\u3002\u3053\u308c\u306f\u305d\u306e\u8863\u670d\u3092\u3082\u3063\u3066\u3001\u305d\u306e\u8056\u306a\u308b\u3053\u3068\u3092\u6c11\u306b\u3046\u3064\u3055\u306a\u3044\u305f\u3081\u3067\u3042\u308b\u3002"
        },
        {
            "chapter": 44,
            "verse": 20,
            "name": "Ezekiel 44:20",
            "text": "\u5f7c\u3089\u306f\u307e\u305f\u982d\u3092\u305d\u3063\u3066\u306f\u306a\u3089\u306a\u3044\u3002\u307e\u305f\u9aea\u3092\u9577\u304f\u306e\u3070\u3057\u3066\u306f\u306a\u3089\u306a\u3044\u3002\u305d\u306e\u982d\u306e\u9aea\u306f\u5207\u3089\u306a\u3051\u308c\u3070\u306a\u3089\u306a\u3044\u3002"
        },
        {
            "chapter": 44,
            "verse": 21,
            "name": "Ezekiel 44:21",
            "text": "\u796d\u53f8\u306f\u3059\u3079\u3066\u5185\u5ead\u306b\u306f\u3044\u308b\u6642\u306f\u3001\u9152\u3092\u98f2\u3093\u3067\u306f\u306a\u3089\u306a\u3044\u3002"
        },
        {
            "chapter": 44,
            "verse": 22,
            "name": "Ezekiel 44:22",
            "text": "\u307e\u305f\u5be1\u5a66\u3001\u304a\u3088\u3073\u51fa\u3055\u308c\u305f\u5973\u3092\u3081\u3068\u3063\u3066\u306f\u306a\u3089\u306a\u3044\u3002\u305f\u3060\u30a4\u30b9\u30e9\u30a8\u30eb\u306e\u5bb6\u306e\u8840\u7d71\u306e\u51e6\u5973\u3001\u3042\u308b\u3044\u306f\u796d\u53f8\u306e\u59bb\u3067\u3001\u3084\u3082\u3081\u306b\u306a\u3063\u305f\u3082\u306e\u3092\u3081\u3068\u3089\u306a\u3051\u308c\u3070\u306a\u3089\u306a\u3044\u3002"
        },
        {
            "chapter": 44,
            "verse": 23,
            "name": "Ezekiel 44:23",
            "text": "\u5f7c\u3089\u306f\u308f\u304c\u6c11\u306b\u3001\u8056\u3068\u4fd7\u3068\u306e\u533a\u5225\u3092\u6559\u3048\u3001\u6c5a\u308c\u305f\u3082\u306e\u3068\u3001\u6e05\u3044\u3082\u306e\u3068\u306e\u533a\u5225\u3092\u793a\u3055\u306a\u3051\u308c\u3070\u306a\u3089\u306a\u3044\u3002"
        },
        {
            "chapter": 44,
            "verse": 24,
            "name": "Ezekiel 44:24",
            "text": "\u4e89\u3044\u306e\u3042\u308b\u6642\u306f\u3001\u3055\u3070\u304d\u306e\u305f\u3081\u306b\u7acb\u3061\u3001\u308f\u304c\u304a\u304d\u3066\u306b\u3057\u305f\u304c\u3063\u3066\u3055\u3070\u304d\u3001\u307e\u305f\u3001\u308f\u305f\u3057\u306e\u3082\u308d\u3082\u308d\u306e\u796d\u306e\u6642\u306f\u3001\u5f7c\u3089\u306f\u308f\u304c\u5f8b\u6cd5\u3068\u5b9a\u3081\u3092\u5b88\u308a\u3001\u308f\u304c\u5b89\u606f\u65e5\u3092\u3001\u8056\u5225\u3057\u306a\u3051\u308c\u3070\u306a\u3089\u306a\u3044\u3002"
        },
        {
            "chapter": 44,
            "verse": 25,
            "name": "Ezekiel 44:25",
            "text": "\u6b7b\u4eba\u306b\u8fd1\u3065\u3044\u3066\u3001\u8eab\u3092\u6c5a\u3057\u3066\u306f\u306a\u3089\u306a\u3044\u3002\u305f\u3060\u7236\u306e\u305f\u3081\u3001\u6bcd\u306e\u305f\u3081\u3001\u3080\u3059\u3053\u306e\u305f\u3081\u3001\u5a18\u306e\u305f\u3081\u3001\u5144\u5f1f\u306e\u305f\u3081\u3001\u592b\u3092\u3082\u305f\u306a\u3044\u59c9\u59b9\u306e\u305f\u3081\u306b\u306f\u3001\u8fd1\u3088\u3063\u3066\u8eab\u3092\u6c5a\u3059\u3053\u3068\u3082\u8a31\u3055\u308c\u308b\u3002"
        },
        {
            "chapter": 44,
            "verse": 26,
            "name": "Ezekiel 44:26",
            "text": "\u3053\u306e\u3088\u3046\u306a\u4eba\u306f\u3001\u6c5a\u308c\u305f\u5f8c\u3001\u81ea\u8eab\u306e\u305f\u3081\u306b\u3001\u4e03\u65e5\u306e\u671f\u9593\u3092\u6570\u3048\u3088\u3002\u305d\u3046\u3059\u308c\u3070\u6e05\u307e\u308b\u3002"
        },
        {
            "chapter": 44,
            "verse": 27,
            "name": "Ezekiel 44:27",
            "text": "\u5f7c\u306f\u8056\u6240\u306b\u5165\u308a\u3001\u5185\u5ead\u306b\u884c\u304d\u3001\u8056\u6240\u3067\u52d9\u306b\u5f53\u308b\u65e5\u306b\u306f\u3001\u7f6a\u796d\u3092\u3055\u3055\u3052\u306a\u3051\u308c\u3070\u306a\u3089\u306a\u3044\u3068\u3001\u4e3b\u306a\u308b\u795e\u306f\u8a00\u308f\u308c\u308b\u3002"
        },
        {
            "chapter": 44,
            "verse": 28,
            "name": "Ezekiel 44:28",
            "text": "\u5f7c\u3089\u306b\u306f\u55e3\u696d\u306f\u306a\u3044\u3002\u308f\u305f\u3057\u304c\u305d\u306e\u55e3\u696d\u3067\u3042\u308b\u3002\u3042\u306a\u305f\u304c\u305f\u306f\u30a4\u30b9\u30e9\u30a8\u30eb\u306e\u4e2d\u3067\u3001\u5f7c\u3089\u306b\u6240\u6709\u3092\u4e0e\u3048\u3066\u306f\u306a\u3089\u306a\u3044\u3002\u308f\u305f\u3057\u304c\u5f7c\u3089\u306e\u6240\u6709\u3067\u3042\u308b\u3002"
        },
        {
            "chapter": 44,
            "verse": 29,
            "name": "Ezekiel 44:29",
            "text": "\u5f7c\u3089\u306f\u7d20\u796d\u3001\u7f6a\u796d\u3001\u6106\u796d\u306e\u7269\u3092\u98df\u3079\u308b\u3002\u3059\u3079\u3066\u30a4\u30b9\u30e9\u30a8\u30eb\u306e\u3046\u3061\u306e\u3055\u3055\u3052\u3089\u308c\u305f\u7269\u306f\u5f7c\u3089\u306e\u7269\u3068\u306a\u308b\u3002"
        },
        {
            "chapter": 44,
            "verse": 30,
            "name": "Ezekiel 44:30",
            "text": "\u3059\u3079\u3066\u306e\u7269\u306e\u521d\u306a\u308a\u306e\u521d\u7269\u3001\u304a\u3088\u3073\u3059\u3079\u3066\u3042\u306a\u305f\u304c\u305f\u306e\u3055\u3055\u3052\u308b\u3082\u308d\u3082\u308d\u306e\u3055\u3055\u3052\u7269\u306f\u3001\u307f\u306a\u796d\u53f8\u306e\u3082\u306e\u3068\u306a\u308b\u3002\u307e\u305f\u3042\u306a\u305f\u304c\u305f\u306e\u9ea6\u7c89\u306e\u521d\u7269\u306f\u796d\u53f8\u306b\u4e0e\u3048\u3088\u3002\u3053\u308c\u306f\u3042\u306a\u305f\u304c\u305f\u306e\u5bb6\u304c\u3001\u795d\u798f\u3055\u308c\u308b\u305f\u3081\u3067\u3042\u308b\u3002"
        },
        {
            "chapter": 44,
            "verse": 31,
            "name": "Ezekiel 44:31",
            "text": "\u796d\u53f8\u306f\u3001\u9ce5\u3067\u3082\u7363\u3067\u3082\u3001\u3059\u3079\u3066\u81ea\u7136\u306b\u6b7b\u3093\u3060\u3082\u306e\u3001\u307e\u305f\u306f\u88c2\u304d\u6bba\u3055\u308c\u305f\u3082\u306e\u3092\u98df\u3079\u3066\u306f\u306a\u3089\u306a\u3044\u3002"
        }
    ]
}