{
    "translation": "beibl.net",
    "abbreviation": "welbeiblnet",
    "lang": "cy",
    "language": "Welsh",
    "direction": "LTR",
    "encoding": "UTF-8",
    "book_nr": 23,
    "book_name": "Isaiah",
    "chapter": 21,
    "name": "Isaiah 21",
    "verses": [
        {
            "chapter": 21,
            "verse": 1,
            "name": "Isaiah 21:1",
            "text": ""
        },
        {
            "chapter": 21,
            "verse": 2,
            "name": "Isaiah 21:2",
            "text": ""
        },
        {
            "chapter": 21,
            "verse": 3,
            "name": "Isaiah 21:3",
            "text": ""
        },
        {
            "chapter": 21,
            "verse": 4,
            "name": "Isaiah 21:4",
            "text": ""
        },
        {
            "chapter": 21,
            "verse": 5,
            "name": "Isaiah 21:5",
            "text": ""
        },
        {
            "chapter": 21,
            "verse": 6,
            "name": "Isaiah 21:6",
            "text": ""
        },
        {
            "chapter": 21,
            "verse": 7,
            "name": "Isaiah 21:7",
            "text": ""
        },
        {
            "chapter": 21,
            "verse": 8,
            "name": "Isaiah 21:8",
            "text": ""
        },
        {
            "chapter": 21,
            "verse": 9,
            "name": "Isaiah 21:9",
            "text": ""
        },
        {
            "chapter": 21,
            "verse": 10,
            "name": "Isaiah 21:10",
            "text": ""
        },
        {
            "chapter": 21,
            "verse": 11,
            "name": "Isaiah 21:11",
            "text": ""
        },
        {
            "chapter": 21,
            "verse": 12,
            "name": "Isaiah 21:12",
            "text": ""
        },
        {
            "chapter": 21,
            "verse": 13,
            "name": "Isaiah 21:13",
            "text": ""
        },
        {
            "chapter": 21,
            "verse": 14,
            "name": "Isaiah 21:14",
            "text": ""
        },
        {
            "chapter": 21,
            "verse": 15,
            "name": "Isaiah 21:15",
            "text": ""
        },
        {
            "chapter": 21,
            "verse": 16,
            "name": "Isaiah 21:16",
            "text": ""
        },
        {
            "chapter": 21,
            "verse": 17,
            "name": "Isaiah 21:17",
            "text": ""
        }
    ]
}