{
    "translation": "Vulgata Clementina, Conte editore",
    "abbreviation": "vulgconte",
    "lang": "la",
    "language": "Latin",
    "direction": "LTR",
    "encoding": "UTF-8",
    "book_nr": 45,
    "book_name": "Romans",
    "chapter": 10,
    "name": "Romans 10",
    "verses": [
        {
            "chapter": 10,
            "verse": 1,
            "name": "Romans 10:1",
            "text": "Fratres, voluntas quidem cordis mei, et obsecratio ad Deum, fit pro illis in salutem."
        },
        {
            "chapter": 10,
            "verse": 2,
            "name": "Romans 10:2",
            "text": "Testimonium enim perhibeo illis quod \u00e6mulationem Dei habent, sed non secundum scientiam."
        },
        {
            "chapter": 10,
            "verse": 3,
            "name": "Romans 10:3",
            "text": "Ignorantes enim iustitiam Dei, et suam qu\u00e6rentes statuere, iustiti\u00e6 Dei non sunt subiecti."
        },
        {
            "chapter": 10,
            "verse": 4,
            "name": "Romans 10:4",
            "text": "Finis enim legis, Christus, ad iustitiam omni credenti."
        },
        {
            "chapter": 10,
            "verse": 5,
            "name": "Romans 10:5",
            "text": "Moyses enim scripsit, quoniam iustitiam, qu\u00e6 ex lege est, qui fecerit homo, vivet in ea."
        },
        {
            "chapter": 10,
            "verse": 6,
            "name": "Romans 10:6",
            "text": "Qu\u00e6 autem ex fide est iustitia, sic dicit: Ne dixeris in corde tuo: Quis ascendet in c\u00e6lum? id est, Christum deducere:"
        },
        {
            "chapter": 10,
            "verse": 7,
            "name": "Romans 10:7",
            "text": "aut quis descendet in abyssum? hoc est, Christum a mortuis revocare."
        },
        {
            "chapter": 10,
            "verse": 8,
            "name": "Romans 10:8",
            "text": "Sed quid dicit Scriptura? Prope est verbum in ore tuo, et in corde tuo: hoc est verbum fidei, quod pr\u00e6dicamus."
        },
        {
            "chapter": 10,
            "verse": 9,
            "name": "Romans 10:9",
            "text": "Quia si confitearis in ore tuo Dominum Iesum, et in corde tuo credideris quod Deus illum suscitavit a mortuis, salvus eris."
        },
        {
            "chapter": 10,
            "verse": 10,
            "name": "Romans 10:10",
            "text": "Corde enim creditur ad iustitiam: ore autem confessio fit ad salutem."
        },
        {
            "chapter": 10,
            "verse": 11,
            "name": "Romans 10:11",
            "text": "Dicit enim Scriptura: Omnis, qui credit in illum, non confundetur."
        },
        {
            "chapter": 10,
            "verse": 12,
            "name": "Romans 10:12",
            "text": "Non enim est distinctio Iud\u00e6i, et Gr\u00e6ci: nam idem Dominus omnium, dives in omnes, qui invocant illum."
        },
        {
            "chapter": 10,
            "verse": 13,
            "name": "Romans 10:13",
            "text": "Omnis enim, quicumque invocaverit nomen Domini, salvus erit."
        },
        {
            "chapter": 10,
            "verse": 14,
            "name": "Romans 10:14",
            "text": "Quomodo ergo invocabunt, in quem non crediderunt? Aut quomodo credent ei, quem non audierunt? Quomodo autem audient sine pr\u00e6dicante?"
        },
        {
            "chapter": 10,
            "verse": 15,
            "name": "Romans 10:15",
            "text": "Quomodo vero pr\u00e6dicabunt nisi mittantur? sicut scriptum est: Quam speciosi pedes evangelizantium pacem, evangelizantium bona!"
        },
        {
            "chapter": 10,
            "verse": 16,
            "name": "Romans 10:16",
            "text": "Sed non omnes obediunt Evangelio. Isaias enim dicit: Domine quis credidit auditui nostro?"
        },
        {
            "chapter": 10,
            "verse": 17,
            "name": "Romans 10:17",
            "text": "Ergo fides ex auditu, auditus autem per verbum Christi."
        },
        {
            "chapter": 10,
            "verse": 18,
            "name": "Romans 10:18",
            "text": "Sed dico: Numquid non audierunt? Et quidem in omnem terram exivit sonus eorum, et in fines orbis terr\u00e6 verba eorum."
        },
        {
            "chapter": 10,
            "verse": 19,
            "name": "Romans 10:19",
            "text": "Sed dico: Numquid Israel non cognovit? Primus Moyses dicit: Ego ad \u00e6mulationem vos adducam in non gentem: in gentem insipientem, in iram vos mittam."
        },
        {
            "chapter": 10,
            "verse": 20,
            "name": "Romans 10:20",
            "text": "Isaias autem audet, et dicit: Inventus sum a non qu\u00e6rentibus me: palam apparui iis, qui me non interrogabant."
        },
        {
            "chapter": 10,
            "verse": 21,
            "name": "Romans 10:21",
            "text": "Ad Israel autem dicit: Tota die expandi manus meas ad populum non credentem, et contradicentem mihi. "
        }
    ]
}