{
    "translation": "NT Textus Receptus (1550 1894) Parsed",
    "abbreviation": "textusreceptus",
    "lang": "grc",
    "language": "Greek",
    "direction": "LTR",
    "encoding": "UTF-8",
    "book_nr": 41,
    "book_name": "Mark",
    "chapter": 7,
    "name": "Mark 7",
    "verses": [
        {
            "chapter": 7,
            "verse": 1,
            "name": "Mark 7:1",
            "text": "\u03ba\u03b1\u03b9 \u03c3\u03c5\u03bd\u03b1\u03b3\u03bf\u03bd\u03c4\u03b1\u03b9 \u03c0\u03c1\u03bf\u03c2 \u03b1\u03c5\u03c4\u03bf\u03bd \u03bf\u03b9 \u03c6\u03b1\u03c1\u03b9\u03c3\u03b1\u03b9\u03bf\u03b9 \u03ba\u03b1\u03b9 \u03c4\u03b9\u03bd\u03b5\u03c2 \u03c4\u03c9\u03bd \u03b3\u03c1\u03b1\u03bc\u03bc\u03b1\u03c4\u03b5\u03c9\u03bd \u03b5\u03bb\u03b8\u03bf\u03bd\u03c4\u03b5\u03c2 \u03b1\u03c0\u03bf \u03b9\u03b5\u03c1\u03bf\u03c3\u03bf\u03bb\u03c5\u03bc\u03c9\u03bd "
        },
        {
            "chapter": 7,
            "verse": 2,
            "name": "Mark 7:2",
            "text": "\u03ba\u03b1\u03b9 \u03b9\u03b4\u03bf\u03bd\u03c4\u03b5\u03c2 \u03c4\u03b9\u03bd\u03b1\u03c2 \u03c4\u03c9\u03bd \u03bc\u03b1\u03b8\u03b7\u03c4\u03c9\u03bd \u03b1\u03c5\u03c4\u03bf\u03c5 \u03ba\u03bf\u03b9\u03bd\u03b1\u03b9\u03c2 \u03c7\u03b5\u03c1\u03c3\u03b9\u03bd \u03c4\u03bf\u03c5\u03c4 \u03b5\u03c3\u03c4\u03b9\u03bd \u03b1\u03bd\u03b9\u03c0\u03c4\u03bf\u03b9\u03c2 \u03b5\u03c3\u03b8\u03b9\u03bf\u03bd\u03c4\u03b1\u03c2 \u03b1\u03c1\u03c4\u03bf\u03c5\u03c2 \u03b5\u03bc\u03b5\u03bc\u03c8\u03b1\u03bd\u03c4\u03bf "
        },
        {
            "chapter": 7,
            "verse": 3,
            "name": "Mark 7:3",
            "text": "\u03bf\u03b9 \u03b3\u03b1\u03c1 \u03c6\u03b1\u03c1\u03b9\u03c3\u03b1\u03b9\u03bf\u03b9 \u03ba\u03b1\u03b9 \u03c0\u03b1\u03bd\u03c4\u03b5\u03c2 \u03bf\u03b9 \u03b9\u03bf\u03c5\u03b4\u03b1\u03b9\u03bf\u03b9 \u03b5\u03b1\u03bd \u03bc\u03b7 \u03c0\u03c5\u03b3\u03bc\u03b7 \u03bd\u03b9\u03c8\u03c9\u03bd\u03c4\u03b1\u03b9 \u03c4\u03b1\u03c2 \u03c7\u03b5\u03b9\u03c1\u03b1\u03c2 \u03bf\u03c5\u03ba \u03b5\u03c3\u03b8\u03b9\u03bf\u03c5\u03c3\u03b9\u03bd \u03ba\u03c1\u03b1\u03c4\u03bf\u03c5\u03bd\u03c4\u03b5\u03c2 \u03c4\u03b7\u03bd \u03c0\u03b1\u03c1\u03b1\u03b4\u03bf\u03c3\u03b9\u03bd \u03c4\u03c9\u03bd \u03c0\u03c1\u03b5\u03c3\u03b2\u03c5\u03c4\u03b5\u03c1\u03c9\u03bd "
        },
        {
            "chapter": 7,
            "verse": 4,
            "name": "Mark 7:4",
            "text": "\u03ba\u03b1\u03b9 \u03b1\u03c0\u03bf \u03b1\u03b3\u03bf\u03c1\u03b1\u03c2 \u03b5\u03b1\u03bd \u03bc\u03b7 \u03b2\u03b1\u03c0\u03c4\u03b9\u03c3\u03c9\u03bd\u03c4\u03b1\u03b9 \u03bf\u03c5\u03ba \u03b5\u03c3\u03b8\u03b9\u03bf\u03c5\u03c3\u03b9\u03bd \u03ba\u03b1\u03b9 \u03b1\u03bb\u03bb\u03b1 \u03c0\u03bf\u03bb\u03bb\u03b1 \u03b5\u03c3\u03c4\u03b9\u03bd \u03b1 \u03c0\u03b1\u03c1\u03b5\u03bb\u03b1\u03b2\u03bf\u03bd \u03ba\u03c1\u03b1\u03c4\u03b5\u03b9\u03bd \u03b2\u03b1\u03c0\u03c4\u03b9\u03c3\u03bc\u03bf\u03c5\u03c2 \u03c0\u03bf\u03c4\u03b7\u03c1\u03b9\u03c9\u03bd \u03ba\u03b1\u03b9 \u03be\u03b5\u03c3\u03c4\u03c9\u03bd \u03ba\u03b1\u03b9 \u03c7\u03b1\u03bb\u03ba\u03b9\u03c9\u03bd \u03ba\u03b1\u03b9 \u03ba\u03bb\u03b9\u03bd\u03c9\u03bd "
        },
        {
            "chapter": 7,
            "verse": 5,
            "name": "Mark 7:5",
            "text": "\u03b5\u03c0\u03b5\u03b9\u03c4\u03b1 \u03b5\u03c0\u03b5\u03c1\u03c9\u03c4\u03c9\u03c3\u03b9\u03bd \u03b1\u03c5\u03c4\u03bf\u03bd \u03bf\u03b9 \u03c6\u03b1\u03c1\u03b9\u03c3\u03b1\u03b9\u03bf\u03b9 \u03ba\u03b1\u03b9 \u03bf\u03b9 \u03b3\u03c1\u03b1\u03bc\u03bc\u03b1\u03c4\u03b5\u03b9\u03c2 \u03b4\u03b9\u03b1 \u03c4\u03b9 \u03bf\u03b9 \u03bc\u03b1\u03b8\u03b7\u03c4\u03b1\u03b9 \u03c3\u03bf\u03c5 \u03bf\u03c5 \u03c0\u03b5\u03c1\u03b9\u03c0\u03b1\u03c4\u03bf\u03c5\u03c3\u03b9\u03bd \u03ba\u03b1\u03c4\u03b1 \u03c4\u03b7\u03bd \u03c0\u03b1\u03c1\u03b1\u03b4\u03bf\u03c3\u03b9\u03bd \u03c4\u03c9\u03bd \u03c0\u03c1\u03b5\u03c3\u03b2\u03c5\u03c4\u03b5\u03c1\u03c9\u03bd \u03b1\u03bb\u03bb\u03b1 \u03b1\u03bd\u03b9\u03c0\u03c4\u03bf\u03b9\u03c2 \u03c7\u03b5\u03c1\u03c3\u03b9\u03bd \u03b5\u03c3\u03b8\u03b9\u03bf\u03c5\u03c3\u03b9\u03bd \u03c4\u03bf\u03bd \u03b1\u03c1\u03c4\u03bf\u03bd "
        },
        {
            "chapter": 7,
            "verse": 6,
            "name": "Mark 7:6",
            "text": "\u03bf \u03b4\u03b5 \u03b1\u03c0\u03bf\u03ba\u03c1\u03b9\u03b8\u03b5\u03b9\u03c2 \u03b5\u03b9\u03c0\u03b5\u03bd \u03b1\u03c5\u03c4\u03bf\u03b9\u03c2 \u03bf\u03c4\u03b9 \u03ba\u03b1\u03bb\u03c9\u03c2 \u03c0\u03c1\u03bf\u03b5\u03c6\u03b7\u03c4\u03b5\u03c5\u03c3\u03b5\u03bd \u03b7\u03c3\u03b1\u03b9\u03b1\u03c2 \u03c0\u03b5\u03c1\u03b9 \u03c5\u03bc\u03c9\u03bd \u03c4\u03c9\u03bd \u03c5\u03c0\u03bf\u03ba\u03c1\u03b9\u03c4\u03c9\u03bd \u03c9\u03c2 \u03b3\u03b5\u03b3\u03c1\u03b1\u03c0\u03c4\u03b1\u03b9 \u03bf\u03c5\u03c4\u03bf\u03c2 \u03bf \u03bb\u03b1\u03bf\u03c2 \u03c4\u03bf\u03b9\u03c2 \u03c7\u03b5\u03b9\u03bb\u03b5\u03c3\u03b9\u03bd \u03bc\u03b5 \u03c4\u03b9\u03bc\u03b1 \u03b7 \u03b4\u03b5 \u03ba\u03b1\u03c1\u03b4\u03b9\u03b1 \u03b1\u03c5\u03c4\u03c9\u03bd \u03c0\u03bf\u03c1\u03c1\u03c9 \u03b1\u03c0\u03b5\u03c7\u03b5\u03b9 \u03b1\u03c0 \u03b5\u03bc\u03bf\u03c5 "
        },
        {
            "chapter": 7,
            "verse": 7,
            "name": "Mark 7:7",
            "text": "\u03bc\u03b1\u03c4\u03b7\u03bd \u03b4\u03b5 \u03c3\u03b5\u03b2\u03bf\u03bd\u03c4\u03b1\u03b9 \u03bc\u03b5 \u03b4\u03b9\u03b4\u03b1\u03c3\u03ba\u03bf\u03bd\u03c4\u03b5\u03c2 \u03b4\u03b9\u03b4\u03b1\u03c3\u03ba\u03b1\u03bb\u03b9\u03b1\u03c2 \u03b5\u03bd\u03c4\u03b1\u03bb\u03bc\u03b1\u03c4\u03b1 \u03b1\u03bd\u03b8\u03c1\u03c9\u03c0\u03c9\u03bd "
        },
        {
            "chapter": 7,
            "verse": 8,
            "name": "Mark 7:8",
            "text": "\u03b1\u03c6\u03b5\u03bd\u03c4\u03b5\u03c2 \u03b3\u03b1\u03c1 \u03c4\u03b7\u03bd \u03b5\u03bd\u03c4\u03bf\u03bb\u03b7\u03bd \u03c4\u03bf\u03c5 \u03b8\u03b5\u03bf\u03c5 \u03ba\u03c1\u03b1\u03c4\u03b5\u03b9\u03c4\u03b5 \u03c4\u03b7\u03bd \u03c0\u03b1\u03c1\u03b1\u03b4\u03bf\u03c3\u03b9\u03bd \u03c4\u03c9\u03bd \u03b1\u03bd\u03b8\u03c1\u03c9\u03c0\u03c9\u03bd \u03b2\u03b1\u03c0\u03c4\u03b9\u03c3\u03bc\u03bf\u03c5\u03c2 \u03be\u03b5\u03c3\u03c4\u03c9\u03bd \u03ba\u03b1\u03b9 \u03c0\u03bf\u03c4\u03b7\u03c1\u03b9\u03c9\u03bd \u03ba\u03b1\u03b9 \u03b1\u03bb\u03bb\u03b1 \u03c0\u03b1\u03c1\u03bf\u03bc\u03bf\u03b9\u03b1 \u03c4\u03bf\u03b9\u03b1\u03c5\u03c4\u03b1 \u03c0\u03bf\u03bb\u03bb\u03b1 \u03c0\u03bf\u03b9\u03b5\u03b9\u03c4\u03b5 "
        },
        {
            "chapter": 7,
            "verse": 9,
            "name": "Mark 7:9",
            "text": "\u03ba\u03b1\u03b9 \u03b5\u03bb\u03b5\u03b3\u03b5\u03bd \u03b1\u03c5\u03c4\u03bf\u03b9\u03c2 \u03ba\u03b1\u03bb\u03c9\u03c2 \u03b1\u03b8\u03b5\u03c4\u03b5\u03b9\u03c4\u03b5 \u03c4\u03b7\u03bd \u03b5\u03bd\u03c4\u03bf\u03bb\u03b7\u03bd \u03c4\u03bf\u03c5 \u03b8\u03b5\u03bf\u03c5 \u03b9\u03bd\u03b1 \u03c4\u03b7\u03bd \u03c0\u03b1\u03c1\u03b1\u03b4\u03bf\u03c3\u03b9\u03bd \u03c5\u03bc\u03c9\u03bd \u03c4\u03b7\u03c1\u03b7\u03c3\u03b7\u03c4\u03b5 "
        },
        {
            "chapter": 7,
            "verse": 10,
            "name": "Mark 7:10",
            "text": "\u03bc\u03c9\u03c3\u03b7\u03c2 \u03b3\u03b1\u03c1 \u03b5\u03b9\u03c0\u03b5\u03bd \u03c4\u03b9\u03bc\u03b1 \u03c4\u03bf\u03bd \u03c0\u03b1\u03c4\u03b5\u03c1\u03b1 \u03c3\u03bf\u03c5 \u03ba\u03b1\u03b9 \u03c4\u03b7\u03bd \u03bc\u03b7\u03c4\u03b5\u03c1\u03b1 \u03c3\u03bf\u03c5 \u03ba\u03b1\u03b9 \u03bf \u03ba\u03b1\u03ba\u03bf\u03bb\u03bf\u03b3\u03c9\u03bd \u03c0\u03b1\u03c4\u03b5\u03c1\u03b1 \u03b7 \u03bc\u03b7\u03c4\u03b5\u03c1\u03b1 \u03b8\u03b1\u03bd\u03b1\u03c4\u03c9 \u03c4\u03b5\u03bb\u03b5\u03c5\u03c4\u03b1\u03c4\u03c9 "
        },
        {
            "chapter": 7,
            "verse": 11,
            "name": "Mark 7:11",
            "text": "\u03c5\u03bc\u03b5\u03b9\u03c2 \u03b4\u03b5 \u03bb\u03b5\u03b3\u03b5\u03c4\u03b5 \u03b5\u03b1\u03bd \u03b5\u03b9\u03c0\u03b7 \u03b1\u03bd\u03b8\u03c1\u03c9\u03c0\u03bf\u03c2 \u03c4\u03c9 \u03c0\u03b1\u03c4\u03c1\u03b9 \u03b7 \u03c4\u03b7 \u03bc\u03b7\u03c4\u03c1\u03b9 \u03ba\u03bf\u03c1\u03b2\u03b1\u03bd \u03bf \u03b5\u03c3\u03c4\u03b9\u03bd \u03b4\u03c9\u03c1\u03bf\u03bd \u03bf \u03b5\u03b1\u03bd \u03b5\u03be \u03b5\u03bc\u03bf\u03c5 \u03c9\u03c6\u03b5\u03bb\u03b7\u03b8\u03b7\u03c2 "
        },
        {
            "chapter": 7,
            "verse": 12,
            "name": "Mark 7:12",
            "text": "\u03ba\u03b1\u03b9 \u03bf\u03c5\u03ba\u03b5\u03c4\u03b9 \u03b1\u03c6\u03b9\u03b5\u03c4\u03b5 \u03b1\u03c5\u03c4\u03bf\u03bd \u03bf\u03c5\u03b4\u03b5\u03bd \u03c0\u03bf\u03b9\u03b7\u03c3\u03b1\u03b9 \u03c4\u03c9 \u03c0\u03b1\u03c4\u03c1\u03b9 \u03b1\u03c5\u03c4\u03bf\u03c5 \u03b7 \u03c4\u03b7 \u03bc\u03b7\u03c4\u03c1\u03b9 \u03b1\u03c5\u03c4\u03bf\u03c5 "
        },
        {
            "chapter": 7,
            "verse": 13,
            "name": "Mark 7:13",
            "text": "\u03b1\u03ba\u03c5\u03c1\u03bf\u03c5\u03bd\u03c4\u03b5\u03c2 \u03c4\u03bf\u03bd \u03bb\u03bf\u03b3\u03bf\u03bd \u03c4\u03bf\u03c5 \u03b8\u03b5\u03bf\u03c5 \u03c4\u03b7 \u03c0\u03b1\u03c1\u03b1\u03b4\u03bf\u03c3\u03b5\u03b9 \u03c5\u03bc\u03c9\u03bd \u03b7 \u03c0\u03b1\u03c1\u03b5\u03b4\u03c9\u03ba\u03b1\u03c4\u03b5 \u03ba\u03b1\u03b9 \u03c0\u03b1\u03c1\u03bf\u03bc\u03bf\u03b9\u03b1 \u03c4\u03bf\u03b9\u03b1\u03c5\u03c4\u03b1 \u03c0\u03bf\u03bb\u03bb\u03b1 \u03c0\u03bf\u03b9\u03b5\u03b9\u03c4\u03b5 "
        },
        {
            "chapter": 7,
            "verse": 14,
            "name": "Mark 7:14",
            "text": "\u03ba\u03b1\u03b9 \u03c0\u03c1\u03bf\u03c3\u03ba\u03b1\u03bb\u03b5\u03c3\u03b1\u03bc\u03b5\u03bd\u03bf\u03c2 \u03c0\u03b1\u03bd\u03c4\u03b1 \u03c4\u03bf\u03bd \u03bf\u03c7\u03bb\u03bf\u03bd \u03b5\u03bb\u03b5\u03b3\u03b5\u03bd \u03b1\u03c5\u03c4\u03bf\u03b9\u03c2 \u03b1\u03ba\u03bf\u03c5\u03b5\u03c4\u03b5 \u03bc\u03bf\u03c5 \u03c0\u03b1\u03bd\u03c4\u03b5\u03c2 \u03ba\u03b1\u03b9 \u03c3\u03c5\u03bd\u03b9\u03b5\u03c4\u03b5 "
        },
        {
            "chapter": 7,
            "verse": 15,
            "name": "Mark 7:15",
            "text": "\u03bf\u03c5\u03b4\u03b5\u03bd \u03b5\u03c3\u03c4\u03b9\u03bd \u03b5\u03be\u03c9\u03b8\u03b5\u03bd \u03c4\u03bf\u03c5 \u03b1\u03bd\u03b8\u03c1\u03c9\u03c0\u03bf\u03c5 \u03b5\u03b9\u03c3\u03c0\u03bf\u03c1\u03b5\u03c5\u03bf\u03bc\u03b5\u03bd\u03bf\u03bd \u03b5\u03b9\u03c2 \u03b1\u03c5\u03c4\u03bf\u03bd \u03bf \u03b4\u03c5\u03bd\u03b1\u03c4\u03b1\u03b9 \u03b1\u03c5\u03c4\u03bf\u03bd \u03ba\u03bf\u03b9\u03bd\u03c9\u03c3\u03b1\u03b9 \u03b1\u03bb\u03bb\u03b1 \u03c4\u03b1 \u03b5\u03ba\u03c0\u03bf\u03c1\u03b5\u03c5\u03bf\u03bc\u03b5\u03bd\u03b1 \u03b1\u03c0 \u03b1\u03c5\u03c4\u03bf\u03c5 \u03b5\u03ba\u03b5\u03b9\u03bd\u03b1 \u03b5\u03c3\u03c4\u03b9\u03bd \u03c4\u03b1 \u03ba\u03bf\u03b9\u03bd\u03bf\u03c5\u03bd\u03c4\u03b1 \u03c4\u03bf\u03bd \u03b1\u03bd\u03b8\u03c1\u03c9\u03c0\u03bf\u03bd "
        },
        {
            "chapter": 7,
            "verse": 16,
            "name": "Mark 7:16",
            "text": "\u03b5\u03b9 \u03c4\u03b9\u03c2 \u03b5\u03c7\u03b5\u03b9 \u03c9\u03c4\u03b1 \u03b1\u03ba\u03bf\u03c5\u03b5\u03b9\u03bd \u03b1\u03ba\u03bf\u03c5\u03b5\u03c4\u03c9 "
        },
        {
            "chapter": 7,
            "verse": 17,
            "name": "Mark 7:17",
            "text": "\u03ba\u03b1\u03b9 \u03bf\u03c4\u03b5 \u03b5\u03b9\u03c3\u03b7\u03bb\u03b8\u03b5\u03bd \u03b5\u03b9\u03c2 \u03bf\u03b9\u03ba\u03bf\u03bd \u03b1\u03c0\u03bf \u03c4\u03bf\u03c5 \u03bf\u03c7\u03bb\u03bf\u03c5 \u03b5\u03c0\u03b7\u03c1\u03c9\u03c4\u03c9\u03bd \u03b1\u03c5\u03c4\u03bf\u03bd \u03bf\u03b9 \u03bc\u03b1\u03b8\u03b7\u03c4\u03b1\u03b9 \u03b1\u03c5\u03c4\u03bf\u03c5 \u03c0\u03b5\u03c1\u03b9 \u03c4\u03b7\u03c2 \u03c0\u03b1\u03c1\u03b1\u03b2\u03bf\u03bb\u03b7\u03c2 "
        },
        {
            "chapter": 7,
            "verse": 18,
            "name": "Mark 7:18",
            "text": "\u03ba\u03b1\u03b9 \u03bb\u03b5\u03b3\u03b5\u03b9 \u03b1\u03c5\u03c4\u03bf\u03b9\u03c2 \u03bf\u03c5\u03c4\u03c9\u03c2 \u03ba\u03b1\u03b9 \u03c5\u03bc\u03b5\u03b9\u03c2 \u03b1\u03c3\u03c5\u03bd\u03b5\u03c4\u03bf\u03b9 \u03b5\u03c3\u03c4\u03b5 \u03bf\u03c5 \u03bd\u03bf\u03b5\u03b9\u03c4\u03b5 \u03bf\u03c4\u03b9 \u03c0\u03b1\u03bd \u03c4\u03bf \u03b5\u03be\u03c9\u03b8\u03b5\u03bd \u03b5\u03b9\u03c3\u03c0\u03bf\u03c1\u03b5\u03c5\u03bf\u03bc\u03b5\u03bd\u03bf\u03bd \u03b5\u03b9\u03c2 \u03c4\u03bf\u03bd \u03b1\u03bd\u03b8\u03c1\u03c9\u03c0\u03bf\u03bd \u03bf\u03c5 \u03b4\u03c5\u03bd\u03b1\u03c4\u03b1\u03b9 \u03b1\u03c5\u03c4\u03bf\u03bd \u03ba\u03bf\u03b9\u03bd\u03c9\u03c3\u03b1\u03b9 "
        },
        {
            "chapter": 7,
            "verse": 19,
            "name": "Mark 7:19",
            "text": "\u03bf\u03c4\u03b9 \u03bf\u03c5\u03ba \u03b5\u03b9\u03c3\u03c0\u03bf\u03c1\u03b5\u03c5\u03b5\u03c4\u03b1\u03b9 \u03b1\u03c5\u03c4\u03bf\u03c5 \u03b5\u03b9\u03c2 \u03c4\u03b7\u03bd \u03ba\u03b1\u03c1\u03b4\u03b9\u03b1\u03bd \u03b1\u03bb\u03bb \u03b5\u03b9\u03c2 \u03c4\u03b7\u03bd \u03ba\u03bf\u03b9\u03bb\u03b9\u03b1\u03bd \u03ba\u03b1\u03b9 \u03b5\u03b9\u03c2 \u03c4\u03bf\u03bd \u03b1\u03c6\u03b5\u03b4\u03c1\u03c9\u03bd\u03b1 \u03b5\u03ba\u03c0\u03bf\u03c1\u03b5\u03c5\u03b5\u03c4\u03b1\u03b9 \u03ba\u03b1\u03b8\u03b1\u03c1\u03b9\u03b6\u03bf\u03bd \u03c0\u03b1\u03bd\u03c4\u03b1 \u03c4\u03b1 \u03b2\u03c1\u03c9\u03bc\u03b1\u03c4\u03b1 "
        },
        {
            "chapter": 7,
            "verse": 20,
            "name": "Mark 7:20",
            "text": "\u03b5\u03bb\u03b5\u03b3\u03b5\u03bd \u03b4\u03b5 \u03bf\u03c4\u03b9 \u03c4\u03bf \u03b5\u03ba \u03c4\u03bf\u03c5 \u03b1\u03bd\u03b8\u03c1\u03c9\u03c0\u03bf\u03c5 \u03b5\u03ba\u03c0\u03bf\u03c1\u03b5\u03c5\u03bf\u03bc\u03b5\u03bd\u03bf\u03bd \u03b5\u03ba\u03b5\u03b9\u03bd\u03bf \u03ba\u03bf\u03b9\u03bd\u03bf\u03b9 \u03c4\u03bf\u03bd \u03b1\u03bd\u03b8\u03c1\u03c9\u03c0\u03bf\u03bd "
        },
        {
            "chapter": 7,
            "verse": 21,
            "name": "Mark 7:21",
            "text": "\u03b5\u03c3\u03c9\u03b8\u03b5\u03bd \u03b3\u03b1\u03c1 \u03b5\u03ba \u03c4\u03b7\u03c2 \u03ba\u03b1\u03c1\u03b4\u03b9\u03b1\u03c2 \u03c4\u03c9\u03bd \u03b1\u03bd\u03b8\u03c1\u03c9\u03c0\u03c9\u03bd \u03bf\u03b9 \u03b4\u03b9\u03b1\u03bb\u03bf\u03b3\u03b9\u03c3\u03bc\u03bf\u03b9 \u03bf\u03b9 \u03ba\u03b1\u03ba\u03bf\u03b9 \u03b5\u03ba\u03c0\u03bf\u03c1\u03b5\u03c5\u03bf\u03bd\u03c4\u03b1\u03b9 \u03bc\u03bf\u03b9\u03c7\u03b5\u03b9\u03b1\u03b9 \u03c0\u03bf\u03c1\u03bd\u03b5\u03b9\u03b1\u03b9 \u03c6\u03bf\u03bd\u03bf\u03b9 "
        },
        {
            "chapter": 7,
            "verse": 22,
            "name": "Mark 7:22",
            "text": "\u03ba\u03bb\u03bf\u03c0\u03b1\u03b9 \u03c0\u03bb\u03b5\u03bf\u03bd\u03b5\u03be\u03b9\u03b1\u03b9 \u03c0\u03bf\u03bd\u03b7\u03c1\u03b9\u03b1\u03b9 \u03b4\u03bf\u03bb\u03bf\u03c2 \u03b1\u03c3\u03b5\u03bb\u03b3\u03b5\u03b9\u03b1 \u03bf\u03c6\u03b8\u03b1\u03bb\u03bc\u03bf\u03c2 \u03c0\u03bf\u03bd\u03b7\u03c1\u03bf\u03c2 \u03b2\u03bb\u03b1\u03c3\u03c6\u03b7\u03bc\u03b9\u03b1 \u03c5\u03c0\u03b5\u03c1\u03b7\u03c6\u03b1\u03bd\u03b9\u03b1 \u03b1\u03c6\u03c1\u03bf\u03c3\u03c5\u03bd\u03b7 "
        },
        {
            "chapter": 7,
            "verse": 23,
            "name": "Mark 7:23",
            "text": "\u03c0\u03b1\u03bd\u03c4\u03b1 \u03c4\u03b1\u03c5\u03c4\u03b1 \u03c4\u03b1 \u03c0\u03bf\u03bd\u03b7\u03c1\u03b1 \u03b5\u03c3\u03c9\u03b8\u03b5\u03bd \u03b5\u03ba\u03c0\u03bf\u03c1\u03b5\u03c5\u03b5\u03c4\u03b1\u03b9 \u03ba\u03b1\u03b9 \u03ba\u03bf\u03b9\u03bd\u03bf\u03b9 \u03c4\u03bf\u03bd \u03b1\u03bd\u03b8\u03c1\u03c9\u03c0\u03bf\u03bd "
        },
        {
            "chapter": 7,
            "verse": 24,
            "name": "Mark 7:24",
            "text": "\u03ba\u03b1\u03b9 \u03b5\u03ba\u03b5\u03b9\u03b8\u03b5\u03bd \u03b1\u03bd\u03b1\u03c3\u03c4\u03b1\u03c2 \u03b1\u03c0\u03b7\u03bb\u03b8\u03b5\u03bd \u03b5\u03b9\u03c2 \u03c4\u03b1 \u03bc\u03b5\u03b8\u03bf\u03c1\u03b9\u03b1 \u03c4\u03c5\u03c1\u03bf\u03c5 \u03ba\u03b1\u03b9 \u03c3\u03b9\u03b4\u03c9\u03bd\u03bf\u03c2 \u03ba\u03b1\u03b9 \u03b5\u03b9\u03c3\u03b5\u03bb\u03b8\u03c9\u03bd \u03b5\u03b9\u03c2 \u03c4\u03b7\u03bd \u03bf\u03b9\u03ba\u03b9\u03b1\u03bd \u03bf\u03c5\u03b4\u03b5\u03bd\u03b1 \u03b7\u03b8\u03b5\u03bb\u03b5\u03bd \u03b3\u03bd\u03c9\u03bd\u03b1\u03b9 \u03ba\u03b1\u03b9 \u03bf\u03c5\u03ba \u03b7\u03b4\u03c5\u03bd\u03b7\u03b8\u03b7 \u03bb\u03b1\u03b8\u03b5\u03b9\u03bd "
        },
        {
            "chapter": 7,
            "verse": 25,
            "name": "Mark 7:25",
            "text": "\u03b1\u03ba\u03bf\u03c5\u03c3\u03b1\u03c3\u03b1 \u03b3\u03b1\u03c1 \u03b3\u03c5\u03bd\u03b7 \u03c0\u03b5\u03c1\u03b9 \u03b1\u03c5\u03c4\u03bf\u03c5 \u03b7\u03c2 \u03b5\u03b9\u03c7\u03b5\u03bd \u03c4\u03bf \u03b8\u03c5\u03b3\u03b1\u03c4\u03c1\u03b9\u03bf\u03bd \u03b1\u03c5\u03c4\u03b7\u03c2 \u03c0\u03bd\u03b5\u03c5\u03bc\u03b1 \u03b1\u03ba\u03b1\u03b8\u03b1\u03c1\u03c4\u03bf\u03bd \u03b5\u03bb\u03b8\u03bf\u03c5\u03c3\u03b1 \u03c0\u03c1\u03bf\u03c3\u03b5\u03c0\u03b5\u03c3\u03b5\u03bd \u03c0\u03c1\u03bf\u03c2 \u03c4\u03bf\u03c5\u03c2 \u03c0\u03bf\u03b4\u03b1\u03c2 \u03b1\u03c5\u03c4\u03bf\u03c5 "
        },
        {
            "chapter": 7,
            "verse": 26,
            "name": "Mark 7:26",
            "text": "\u03b7\u03bd \u03b4\u03b5 \u03b7 \u03b3\u03c5\u03bd\u03b7 \u03b5\u03bb\u03bb\u03b7\u03bd\u03b9\u03c2 \u03c3\u03c5\u03c1\u03bf\u03c6\u03bf\u03b9\u03bd\u03b9\u03c3\u03c3\u03b1 \u03c4\u03c9 \u03b3\u03b5\u03bd\u03b5\u03b9 \u03ba\u03b1\u03b9 \u03b7\u03c1\u03c9\u03c4\u03b1 \u03b1\u03c5\u03c4\u03bf\u03bd \u03b9\u03bd\u03b1 \u03c4\u03bf \u03b4\u03b1\u03b9\u03bc\u03bf\u03bd\u03b9\u03bf\u03bd \u03b5\u03ba\u03b2\u03b1\u03bb\u03bb\u03b7 \u03b5\u03ba \u03c4\u03b7\u03c2 \u03b8\u03c5\u03b3\u03b1\u03c4\u03c1\u03bf\u03c2 \u03b1\u03c5\u03c4\u03b7\u03c2 "
        },
        {
            "chapter": 7,
            "verse": 27,
            "name": "Mark 7:27",
            "text": "\u03bf \u03b4\u03b5 \u03b9\u03b7\u03c3\u03bf\u03c5\u03c2 \u03b5\u03b9\u03c0\u03b5\u03bd \u03b1\u03c5\u03c4\u03b7 \u03b1\u03c6\u03b5\u03c2 \u03c0\u03c1\u03c9\u03c4\u03bf\u03bd \u03c7\u03bf\u03c1\u03c4\u03b1\u03c3\u03b8\u03b7\u03bd\u03b1\u03b9 \u03c4\u03b1 \u03c4\u03b5\u03ba\u03bd\u03b1 \u03bf\u03c5 \u03b3\u03b1\u03c1 \u03ba\u03b1\u03bb\u03bf\u03bd \u03b5\u03c3\u03c4\u03b9\u03bd \u03bb\u03b1\u03b2\u03b5\u03b9\u03bd \u03c4\u03bf\u03bd \u03b1\u03c1\u03c4\u03bf\u03bd \u03c4\u03c9\u03bd \u03c4\u03b5\u03ba\u03bd\u03c9\u03bd \u03ba\u03b1\u03b9 \u03b2\u03b1\u03bb\u03b5\u03b9\u03bd \u03c4\u03bf\u03b9\u03c2 \u03ba\u03c5\u03bd\u03b1\u03c1\u03b9\u03bf\u03b9\u03c2 "
        },
        {
            "chapter": 7,
            "verse": 28,
            "name": "Mark 7:28",
            "text": "\u03b7 \u03b4\u03b5 \u03b1\u03c0\u03b5\u03ba\u03c1\u03b9\u03b8\u03b7 \u03ba\u03b1\u03b9 \u03bb\u03b5\u03b3\u03b5\u03b9 \u03b1\u03c5\u03c4\u03c9 \u03bd\u03b1\u03b9 \u03ba\u03c5\u03c1\u03b9\u03b5 \u03ba\u03b1\u03b9 \u03b3\u03b1\u03c1 \u03c4\u03b1 \u03ba\u03c5\u03bd\u03b1\u03c1\u03b9\u03b1 \u03c5\u03c0\u03bf\u03ba\u03b1\u03c4\u03c9 \u03c4\u03b7\u03c2 \u03c4\u03c1\u03b1\u03c0\u03b5\u03b6\u03b7\u03c2 \u03b5\u03c3\u03b8\u03b9\u03b5\u03b9 \u03b1\u03c0\u03bf \u03c4\u03c9\u03bd \u03c8\u03b9\u03c7\u03b9\u03c9\u03bd \u03c4\u03c9\u03bd \u03c0\u03b1\u03b9\u03b4\u03b9\u03c9\u03bd "
        },
        {
            "chapter": 7,
            "verse": 29,
            "name": "Mark 7:29",
            "text": "\u03ba\u03b1\u03b9 \u03b5\u03b9\u03c0\u03b5\u03bd \u03b1\u03c5\u03c4\u03b7 \u03b4\u03b9\u03b1 \u03c4\u03bf\u03c5\u03c4\u03bf\u03bd \u03c4\u03bf\u03bd \u03bb\u03bf\u03b3\u03bf\u03bd \u03c5\u03c0\u03b1\u03b3\u03b5 \u03b5\u03be\u03b5\u03bb\u03b7\u03bb\u03c5\u03b8\u03b5\u03bd \u03c4\u03bf \u03b4\u03b1\u03b9\u03bc\u03bf\u03bd\u03b9\u03bf\u03bd \u03b5\u03ba \u03c4\u03b7\u03c2 \u03b8\u03c5\u03b3\u03b1\u03c4\u03c1\u03bf\u03c2 \u03c3\u03bf\u03c5 "
        },
        {
            "chapter": 7,
            "verse": 30,
            "name": "Mark 7:30",
            "text": "\u03ba\u03b1\u03b9 \u03b1\u03c0\u03b5\u03bb\u03b8\u03bf\u03c5\u03c3\u03b1 \u03b5\u03b9\u03c2 \u03c4\u03bf\u03bd \u03bf\u03b9\u03ba\u03bf\u03bd \u03b1\u03c5\u03c4\u03b7\u03c2 \u03b5\u03c5\u03c1\u03b5\u03bd \u03c4\u03bf \u03b4\u03b1\u03b9\u03bc\u03bf\u03bd\u03b9\u03bf\u03bd \u03b5\u03be\u03b5\u03bb\u03b7\u03bb\u03c5\u03b8\u03bf\u03c2 \u03ba\u03b1\u03b9 \u03c4\u03b7\u03bd \u03b8\u03c5\u03b3\u03b1\u03c4\u03b5\u03c1\u03b1 \u03b2\u03b5\u03b2\u03bb\u03b7\u03bc\u03b5\u03bd\u03b7\u03bd \u03b5\u03c0\u03b9 \u03c4\u03b7\u03c2 \u03ba\u03bb\u03b9\u03bd\u03b7\u03c2 "
        },
        {
            "chapter": 7,
            "verse": 31,
            "name": "Mark 7:31",
            "text": "\u03ba\u03b1\u03b9 \u03c0\u03b1\u03bb\u03b9\u03bd \u03b5\u03be\u03b5\u03bb\u03b8\u03c9\u03bd \u03b5\u03ba \u03c4\u03c9\u03bd \u03bf\u03c1\u03b9\u03c9\u03bd \u03c4\u03c5\u03c1\u03bf\u03c5 \u03ba\u03b1\u03b9 \u03c3\u03b9\u03b4\u03c9\u03bd\u03bf\u03c2 \u03b7\u03bb\u03b8\u03b5\u03bd \u03c0\u03c1\u03bf\u03c2 \u03c4\u03b7\u03bd \u03b8\u03b1\u03bb\u03b1\u03c3\u03c3\u03b1\u03bd \u03c4\u03b7\u03c2 \u03b3\u03b1\u03bb\u03b9\u03bb\u03b1\u03b9\u03b1\u03c2 \u03b1\u03bd\u03b1 \u03bc\u03b5\u03c3\u03bf\u03bd \u03c4\u03c9\u03bd \u03bf\u03c1\u03b9\u03c9\u03bd \u03b4\u03b5\u03ba\u03b1\u03c0\u03bf\u03bb\u03b5\u03c9\u03c2 "
        },
        {
            "chapter": 7,
            "verse": 32,
            "name": "Mark 7:32",
            "text": "\u03ba\u03b1\u03b9 \u03c6\u03b5\u03c1\u03bf\u03c5\u03c3\u03b9\u03bd \u03b1\u03c5\u03c4\u03c9 \u03ba\u03c9\u03c6\u03bf\u03bd \u03bc\u03bf\u03b3\u03b9\u03bb\u03b1\u03bb\u03bf\u03bd \u03ba\u03b1\u03b9 \u03c0\u03b1\u03c1\u03b1\u03ba\u03b1\u03bb\u03bf\u03c5\u03c3\u03b9\u03bd \u03b1\u03c5\u03c4\u03bf\u03bd \u03b9\u03bd\u03b1 \u03b5\u03c0\u03b9\u03b8\u03b7 \u03b1\u03c5\u03c4\u03c9 \u03c4\u03b7\u03bd \u03c7\u03b5\u03b9\u03c1\u03b1 "
        },
        {
            "chapter": 7,
            "verse": 33,
            "name": "Mark 7:33",
            "text": "\u03ba\u03b1\u03b9 \u03b1\u03c0\u03bf\u03bb\u03b1\u03b2\u03bf\u03bc\u03b5\u03bd\u03bf\u03c2 \u03b1\u03c5\u03c4\u03bf\u03bd \u03b1\u03c0\u03bf \u03c4\u03bf\u03c5 \u03bf\u03c7\u03bb\u03bf\u03c5 \u03ba\u03b1\u03c4 \u03b9\u03b4\u03b9\u03b1\u03bd \u03b5\u03b2\u03b1\u03bb\u03b5\u03bd \u03c4\u03bf\u03c5\u03c2 \u03b4\u03b1\u03ba\u03c4\u03c5\u03bb\u03bf\u03c5\u03c2 \u03b1\u03c5\u03c4\u03bf\u03c5 \u03b5\u03b9\u03c2 \u03c4\u03b1 \u03c9\u03c4\u03b1 \u03b1\u03c5\u03c4\u03bf\u03c5 \u03ba\u03b1\u03b9 \u03c0\u03c4\u03c5\u03c3\u03b1\u03c2 \u03b7\u03c8\u03b1\u03c4\u03bf \u03c4\u03b7\u03c2 \u03b3\u03bb\u03c9\u03c3\u03c3\u03b7\u03c2 \u03b1\u03c5\u03c4\u03bf\u03c5 "
        },
        {
            "chapter": 7,
            "verse": 34,
            "name": "Mark 7:34",
            "text": "\u03ba\u03b1\u03b9 \u03b1\u03bd\u03b1\u03b2\u03bb\u03b5\u03c8\u03b1\u03c2 \u03b5\u03b9\u03c2 \u03c4\u03bf\u03bd \u03bf\u03c5\u03c1\u03b1\u03bd\u03bf\u03bd \u03b5\u03c3\u03c4\u03b5\u03bd\u03b1\u03be\u03b5\u03bd \u03ba\u03b1\u03b9 \u03bb\u03b5\u03b3\u03b5\u03b9 \u03b1\u03c5\u03c4\u03c9 \u03b5\u03c6\u03c6\u03b1\u03b8\u03b1 \u03bf \u03b5\u03c3\u03c4\u03b9\u03bd \u03b4\u03b9\u03b1\u03bd\u03bf\u03b9\u03c7\u03b8\u03b7\u03c4\u03b9 "
        },
        {
            "chapter": 7,
            "verse": 35,
            "name": "Mark 7:35",
            "text": "\u03ba\u03b1\u03b9 \u03b5\u03c5\u03b8\u03b5\u03c9\u03c2 \u03b4\u03b9\u03b7\u03bd\u03bf\u03b9\u03c7\u03b8\u03b7\u03c3\u03b1\u03bd \u03b1\u03c5\u03c4\u03bf\u03c5 \u03b1\u03b9 \u03b1\u03ba\u03bf\u03b1\u03b9 \u03ba\u03b1\u03b9 \u03b5\u03bb\u03c5\u03b8\u03b7 \u03bf \u03b4\u03b5\u03c3\u03bc\u03bf\u03c2 \u03c4\u03b7\u03c2 \u03b3\u03bb\u03c9\u03c3\u03c3\u03b7\u03c2 \u03b1\u03c5\u03c4\u03bf\u03c5 \u03ba\u03b1\u03b9 \u03b5\u03bb\u03b1\u03bb\u03b5\u03b9 \u03bf\u03c1\u03b8\u03c9\u03c2 "
        },
        {
            "chapter": 7,
            "verse": 36,
            "name": "Mark 7:36",
            "text": "\u03ba\u03b1\u03b9 \u03b4\u03b9\u03b5\u03c3\u03c4\u03b5\u03b9\u03bb\u03b1\u03c4\u03bf \u03b1\u03c5\u03c4\u03bf\u03b9\u03c2 \u03b9\u03bd\u03b1 \u03bc\u03b7\u03b4\u03b5\u03bd\u03b9 \u03b5\u03b9\u03c0\u03c9\u03c3\u03b9\u03bd \u03bf\u03c3\u03bf\u03bd \u03b4\u03b5 \u03b1\u03c5\u03c4\u03bf\u03c2 \u03b1\u03c5\u03c4\u03bf\u03b9\u03c2 \u03b4\u03b9\u03b5\u03c3\u03c4\u03b5\u03bb\u03bb\u03b5\u03c4\u03bf \u03bc\u03b1\u03bb\u03bb\u03bf\u03bd \u03c0\u03b5\u03c1\u03b9\u03c3\u03c3\u03bf\u03c4\u03b5\u03c1\u03bf\u03bd \u03b5\u03ba\u03b7\u03c1\u03c5\u03c3\u03c3\u03bf\u03bd "
        },
        {
            "chapter": 7,
            "verse": 37,
            "name": "Mark 7:37",
            "text": "\u03ba\u03b1\u03b9 \u03c5\u03c0\u03b5\u03c1\u03c0\u03b5\u03c1\u03b9\u03c3\u03c3\u03c9\u03c2 \u03b5\u03be\u03b5\u03c0\u03bb\u03b7\u03c3\u03c3\u03bf\u03bd\u03c4\u03bf \u03bb\u03b5\u03b3\u03bf\u03bd\u03c4\u03b5\u03c2 \u03ba\u03b1\u03bb\u03c9\u03c2 \u03c0\u03b1\u03bd\u03c4\u03b1 \u03c0\u03b5\u03c0\u03bf\u03b9\u03b7\u03ba\u03b5\u03bd \u03ba\u03b1\u03b9 \u03c4\u03bf\u03c5\u03c2 \u03ba\u03c9\u03c6\u03bf\u03c5\u03c2 \u03c0\u03bf\u03b9\u03b5\u03b9 \u03b1\u03ba\u03bf\u03c5\u03b5\u03b9\u03bd \u03ba\u03b1\u03b9 \u03c4\u03bf\u03c5\u03c2 \u03b1\u03bb\u03b1\u03bb\u03bf\u03c5\u03c2 \u03bb\u03b1\u03bb\u03b5\u03b9\u03bd  "
        }
    ]
}