{
    "translation": "Synodal Translation (1876)",
    "abbreviation": "synodal",
    "lang": "ru",
    "language": "Russian",
    "direction": "LTR",
    "encoding": "UTF-8",
    "book_nr": 24,
    "book_name": "Jeremiah",
    "chapter": 41,
    "name": "Jeremiah 41",
    "verses": [
        {
            "chapter": 41,
            "verse": 1,
            "name": "Jeremiah 41:1",
            "text": "\u0418 \u0431\u044b\u043b\u043e \u0432 \u0441\u0435\u0434\u044c\u043c\u043e\u0439 \u043c\u0435\u0441\u044f\u0446, \u0418\u0441\u043c\u0430\u0438\u043b, \u0441\u044b\u043d \u041d\u0430\u0444\u0430\u043d\u0438\u0438, \u0441\u044b\u043d\u0430 \u0415\u043b\u0438\u0441\u0430\u043c\u0430 \u0438\u0437 \u043f\u043b\u0435\u043c\u0435\u043d\u0438 \u0446\u0430\u0440\u0441\u043a\u043e\u0433\u043e, \u0438 \u0432\u0435\u043b\u044c\u043c\u043e\u0436\u0438 \u0446\u0430\u0440\u044f \u0438 \u0434\u0435\u0441\u044f\u0442\u044c \u0447\u0435\u043b\u043e\u0432\u0435\u043a \u0441 \u043d\u0438\u043c \u043f\u0440\u0438\u0448\u043b\u0438 \u043a \u0413\u043e\u0434\u043e\u043b\u0438\u0438, \u0441\u044b\u043d\u0443 \u0410\u0445\u0438\u043a\u0430\u043c\u0430, \u0432 \u041c\u0430\u0441\u0441\u0438\u0444\u0443, \u0438 \u0442\u0430\u043c \u043e\u043d\u0438 \u0435\u043b\u0438 \u0432\u043c\u0435\u0441\u0442\u0435 \u0445\u043b\u0435\u0431 \u0432 \u041c\u0430\u0441\u0441\u0438\u0444\u0435."
        },
        {
            "chapter": 41,
            "verse": 2,
            "name": "Jeremiah 41:2",
            "text": "\u0418 \u0432\u0441\u0442\u0430\u043b \u0418\u0441\u043c\u0430\u0438\u043b, \u0441\u044b\u043d \u041d\u0430\u0444\u0430\u043d\u0438\u0438, \u0438 \u0434\u0435\u0441\u044f\u0442\u044c \u0447\u0435\u043b\u043e\u0432\u0435\u043a, \u043a\u043e\u0442\u043e\u0440\u044b\u0435 \u0431\u044b\u043b\u0438 \u0441 \u043d\u0438\u043c, \u0438 \u043f\u043e\u0440\u0430\u0437\u0438\u043b\u0438 \u0413\u043e\u0434\u043e\u043b\u0438\u044e, \u0441\u044b\u043d\u0430 \u0410\u0445\u0438\u043a\u0430\u043c\u0430, \u0441\u044b\u043d\u0430 \u0421\u0430\u0444\u0430\u043d\u043e\u0432\u0430, \u043c\u0435\u0447\u043e\u043c \u0438 \u0443\u043c\u0435\u0440\u0442\u0432\u0438\u043b\u0438 \u0442\u043e\u0433\u043e, \u043a\u043e\u0442\u043e\u0440\u043e\u0433\u043e \u0446\u0430\u0440\u044c \u0412\u0430\u0432\u0438\u043b\u043e\u043d\u0441\u043a\u0438\u0439 \u043f\u043e\u0441\u0442\u0430\u0432\u0438\u043b \u043d\u0430\u0447\u0430\u043b\u044c\u043d\u0438\u043a\u043e\u043c \u043d\u0430\u0434 \u0441\u0442\u0440\u0430\u043d\u043e\u044e."
        },
        {
            "chapter": 41,
            "verse": 3,
            "name": "Jeremiah 41:3",
            "text": "\u0422\u0430\u043a\u0436\u0435 \u0443\u0431\u0438\u043b \u0418\u0441\u043c\u0430\u0438\u043b \u0438 \u0432\u0441\u0435\u0445 \u0418\u0443\u0434\u0435\u0435\u0432, \u043a\u043e\u0442\u043e\u0440\u044b\u0435 \u0431\u044b\u043b\u0438 \u0441 \u043d\u0438\u043c, \u0441 \u0413\u043e\u0434\u043e\u043b\u0438\u0435\u044e, \u0432 \u041c\u0430\u0441\u0441\u0438\u0444\u0435, \u0438 \u043d\u0430\u0445\u043e\u0434\u0438\u0432\u0448\u0438\u0445\u0441\u044f \u0442\u0430\u043c \u0425\u0430\u043b\u0434\u0435\u0435\u0432, \u043b\u044e\u0434\u0435\u0439 \u0432\u043e\u0435\u043d\u043d\u044b\u0445."
        },
        {
            "chapter": 41,
            "verse": 4,
            "name": "Jeremiah 41:4",
            "text": "\u041d\u0430 \u0434\u0440\u0443\u0433\u043e\u0439 \u0434\u0435\u043d\u044c \u043f\u043e \u0443\u0431\u0438\u0435\u043d\u0438\u0438 \u0413\u043e\u0434\u043e\u043b\u0438\u0438, \u043a\u043e\u0433\u0434\u0430 \u043d\u0438\u043a\u0442\u043e \u043d\u0435 \u0437\u043d\u0430\u043b \u043e\u0431 \u044d\u0442\u043e\u043c,"
        },
        {
            "chapter": 41,
            "verse": 5,
            "name": "Jeremiah 41:5",
            "text": "\u043f\u0440\u0438\u0448\u043b\u0438 \u0438\u0437 \u0421\u0438\u0445\u0435\u043c\u0430, \u0421\u0438\u043b\u043e\u043c\u0430 \u0438 \u0421\u0430\u043c\u0430\u0440\u0438\u0438 \u0432\u043e\u0441\u0435\u043c\u044c\u0434\u0435\u0441\u044f\u0442 \u0447\u0435\u043b\u043e\u0432\u0435\u043a \u0441 \u043e\u0431\u0440\u0438\u0442\u044b\u043c\u0438 \u0431\u043e\u0440\u043e\u0434\u0430\u043c\u0438 \u0438 \u0432 \u0440\u0430\u0437\u043e\u0434\u0440\u0430\u043d\u043d\u044b\u0445 \u043e\u0434\u0435\u0436\u0434\u0430\u0445, \u0438 \u0438\u0437\u0440\u0430\u043d\u0438\u0432 \u0441\u0435\u0431\u044f, \u0441 \u0434\u0430\u0440\u0430\u043c\u0438 \u0438 \u043b\u0438\u0432\u0430\u043d\u043e\u043c \u0432 \u0440\u0443\u043a\u0430\u0445 \u0434\u043b\u044f \u043f\u0440\u0438\u043d\u0435\u0441\u0435\u043d\u0438\u044f \u0438\u0445 \u0432 \u0434\u043e\u043c \u0413\u043e\u0441\u043f\u043e\u0434\u0435\u043d\u044c."
        },
        {
            "chapter": 41,
            "verse": 6,
            "name": "Jeremiah 41:6",
            "text": "\u0418\u0441\u043c\u0430\u0438\u043b, \u0441\u044b\u043d \u041d\u0430\u0444\u0430\u043d\u0438\u0438, \u0432\u044b\u0448\u0435\u043b \u0438\u0437 \u041c\u0430\u0441\u0441\u0438\u0444\u044b \u043d\u0430\u0432\u0441\u0442\u0440\u0435\u0447\u0443 \u0438\u043c, \u0438\u0434\u044f \u0438 \u043f\u043b\u0430\u0447\u0430, \u0438, \u0432\u0441\u0442\u0440\u0435\u0442\u0438\u0432\u0448\u0438\u0441\u044c \u0441 \u043d\u0438\u043c\u0438, \u0441\u043a\u0430\u0437\u0430\u043b \u0438\u043c: \u0438\u0434\u0438\u0442\u0435 \u043a \u0413\u043e\u0434\u043e\u043b\u0438\u0438, \u0441\u044b\u043d\u0443 \u0410\u0445\u0438\u043a\u0430\u043c\u0430."
        },
        {
            "chapter": 41,
            "verse": 7,
            "name": "Jeremiah 41:7",
            "text": "\u0418 \u043a\u0430\u043a \u0442\u043e\u043b\u044c\u043a\u043e \u043e\u043d\u0438 \u0432\u043e\u0448\u043b\u0438 \u0432 \u0441\u0440\u0435\u0434\u0438\u043d\u0443 \u0433\u043e\u0440\u043e\u0434\u0430, \u0418\u0441\u043c\u0430\u0438\u043b, \u0441\u044b\u043d \u041d\u0430\u0444\u0430\u043d\u0438\u0438, \u0443\u0431\u0438\u043b \u0438\u0445 \u0438 \u0431\u0440\u043e\u0441\u0438\u043b \u0432 \u0440\u043e\u0432, \u043e\u043d \u0438 \u0431\u044b\u0432\u0448\u0438\u0435 \u0441 \u043d\u0438\u043c \u043b\u044e\u0434\u0438."
        },
        {
            "chapter": 41,
            "verse": 8,
            "name": "Jeremiah 41:8",
            "text": "\u041d\u043e \u043d\u0430\u0448\u043b\u0438\u0441\u044c \u043c\u0435\u0436\u0434\u0443 \u043d\u0438\u043c\u0438 \u0434\u0435\u0441\u044f\u0442\u044c \u0447\u0435\u043b\u043e\u0432\u0435\u043a, \u043a\u043e\u0442\u043e\u0440\u044b\u0435 \u0441\u043a\u0430\u0437\u0430\u043b\u0438 \u0418\u0441\u043c\u0430\u0438\u043b\u0443: \u043d\u0435 \u0443\u043c\u0435\u0440\u0449\u0432\u043b\u044f\u0439 \u043d\u0430\u0441, \u0438\u0431\u043e \u0443 \u043d\u0430\u0441 \u0435\u0441\u0442\u044c \u0432 \u043f\u043e\u043b\u0435 \u0441\u043a\u0440\u044b\u0442\u044b\u0435 \u043a\u043b\u0430\u0434\u043e\u0432\u044b\u0435 \u0441 \u043f\u0448\u0435\u043d\u0438\u0446\u0435\u044e \u0438 \u044f\u0447\u043c\u0435\u043d\u0435\u043c, \u0438 \u043c\u0430\u0441\u043b\u043e\u043c \u0438 \u043c\u0435\u0434\u043e\u043c. \u0418 \u043e\u043d \u0443\u0434\u0435\u0440\u0436\u0430\u043b\u0441\u044f \u0438 \u043d\u0435 \u0443\u043c\u0435\u0440\u0442\u0432\u0438\u043b \u0438\u0445 \u0441 \u0434\u0440\u0443\u0433\u0438\u043c\u0438 \u0431\u0440\u0430\u0442\u044c\u044f\u043c\u0438 \u0438\u0445."
        },
        {
            "chapter": 41,
            "verse": 9,
            "name": "Jeremiah 41:9",
            "text": "\u0420\u043e\u0432 \u0436\u0435, \u043a\u0443\u0434\u0430 \u0431\u0440\u043e\u0441\u0438\u043b \u0418\u0441\u043c\u0430\u0438\u043b \u0432\u0441\u0435 \u0442\u0440\u0443\u043f\u044b \u043b\u044e\u0434\u0435\u0439, \u043a\u043e\u0442\u043e\u0440\u044b\u0445 \u043e\u043d \u0443\u0431\u0438\u043b \u0438\u0437-\u0437\u0430 \u0413\u043e\u0434\u043e\u043b\u0438\u0438, \u0431\u044b\u043b \u0442\u043e\u0442 \u0441\u0430\u043c\u044b\u0439, \u043a\u043e\u0442\u043e\u0440\u044b\u0439 \u0441\u0434\u0435\u043b\u0430\u043b \u0446\u0430\u0440\u044c \u0410\u0441\u0430, \u0431\u043e\u044f\u0441\u044c \u0412\u0430\u0430\u0441\u044b, \u0446\u0430\u0440\u044f \u0418\u0437\u0440\u0430\u0438\u043b\u044c\u0441\u043a\u043e\u0433\u043e; \u0435\u0433\u043e \u043d\u0430\u043f\u043e\u043b\u043d\u0438\u043b \u0418\u0441\u043c\u0430\u0438\u043b, \u0441\u044b\u043d \u041d\u0430\u0444\u0430\u043d\u0438\u0438, \u0443\u0431\u0438\u0442\u044b\u043c\u0438."
        },
        {
            "chapter": 41,
            "verse": 10,
            "name": "Jeremiah 41:10",
            "text": "\u0418 \u0437\u0430\u0445\u0432\u0430\u0442\u0438\u043b \u0418\u0441\u043c\u0430\u0438\u043b \u0432\u0435\u0441\u044c \u043e\u0441\u0442\u0430\u0442\u043e\u043a \u043d\u0430\u0440\u043e\u0434\u0430, \u0431\u044b\u0432\u0448\u0435\u0433\u043e \u0432 \u041c\u0430\u0441\u0441\u0438\u0444\u0435, \u0434\u043e\u0447\u0435\u0440\u0435\u0439 \u0446\u0430\u0440\u044f \u0438 \u0432\u0435\u0441\u044c \u043e\u0441\u0442\u0430\u0432\u0430\u0432\u0448\u0438\u0439\u0441\u044f \u0432 \u041c\u0430\u0441\u0441\u0438\u0444\u0435 \u043d\u0430\u0440\u043e\u0434, \u043a\u043e\u0442\u043e\u0440\u044b\u0439 \u041d\u0430\u0432\u0443\u0437\u0430\u0440\u0434\u0430\u043d, \u043d\u0430\u0447\u0430\u043b\u044c\u043d\u0438\u043a \u0442\u0435\u043b\u043e\u0445\u0440\u0430\u043d\u0438\u0442\u0435\u043b\u0435\u0439, \u043f\u043e\u0440\u0443\u0447\u0438\u043b \u0413\u043e\u0434\u043e\u043b\u0438\u0438, \u0441\u044b\u043d\u0443 \u0410\u0445\u0438\u043a\u0430\u043c\u0430, \u0438 \u0437\u0430\u0445\u0432\u0430\u0442\u0438\u043b \u0438\u0445 \u0418\u0441\u043c\u0430\u0438\u043b, \u0441\u044b\u043d \u041d\u0430\u0444\u0430\u043d\u0438\u0438, \u0438 \u043e\u0442\u043f\u0440\u0430\u0432\u0438\u043b\u0441\u044f \u043a \u0441\u044b\u043d\u043e\u0432\u044c\u044f\u043c \u0410\u043c\u043c\u043e\u043d\u043e\u0432\u044b\u043c."
        },
        {
            "chapter": 41,
            "verse": 11,
            "name": "Jeremiah 41:11",
            "text": "\u041d\u043e \u043a\u043e\u0433\u0434\u0430 \u0418\u043e\u0430\u043d\u0430\u043d, \u0441\u044b\u043d \u041a\u0430\u0440\u0435\u044f, \u0438 \u0432\u0441\u0435 \u0431\u044b\u0432\u0448\u0438\u0435 \u0441 \u043d\u0438\u043c \u0432\u043e\u0435\u043d\u043d\u044b\u0435 \u043d\u0430\u0447\u0430\u043b\u044c\u043d\u0438\u043a\u0438 \u0443\u0441\u043b\u044b\u0448\u0430\u043b\u0438 \u043e \u0432\u0441\u0435\u0445 \u0437\u043b\u043e\u0434\u0435\u044f\u043d\u0438\u044f\u0445, \u043a\u0430\u043a\u0438\u0435 \u0441\u043e\u0432\u0435\u0440\u0448\u0438\u043b \u0418\u0441\u043c\u0430\u0438\u043b, \u0441\u044b\u043d \u041d\u0430\u0444\u0430\u043d\u0438\u0438,"
        },
        {
            "chapter": 41,
            "verse": 12,
            "name": "Jeremiah 41:12",
            "text": "\u0432\u0437\u044f\u043b\u0438 \u0432\u0441\u0435\u0445 \u043b\u044e\u0434\u0435\u0439 \u0438 \u043f\u043e\u0448\u043b\u0438 \u0441\u0440\u0430\u0437\u0438\u0442\u044c\u0441\u044f \u0441 \u0418\u0441\u043c\u0430\u0438\u043b\u043e\u043c, \u0441\u044b\u043d\u043e\u043c \u041d\u0430\u0444\u0430\u043d\u0438\u0438, \u0438 \u043d\u0430\u0441\u0442\u0438\u0433\u043b\u0438 \u0435\u0433\u043e \u0443 \u0431\u043e\u043b\u044c\u0448\u0438\u0445 \u0432\u043e\u0434, \u0432 \u0413\u0430\u0432\u0430\u043e\u043d\u0435."
        },
        {
            "chapter": 41,
            "verse": 13,
            "name": "Jeremiah 41:13",
            "text": "\u0418 \u043a\u043e\u0433\u0434\u0430 \u0432\u0435\u0441\u044c \u043d\u0430\u0440\u043e\u0434, \u0431\u044b\u0432\u0448\u0438\u0439 \u0443 \u0418\u0441\u043c\u0430\u0438\u043b\u0430, \u0443\u0432\u0438\u0434\u0435\u043b \u0418\u043e\u0430\u043d\u0430\u043d\u0430, \u0441\u044b\u043d\u0430 \u041a\u0430\u0440\u0435\u044f, \u0438 \u0432\u0441\u0435\u0445 \u0431\u044b\u0432\u0448\u0438\u0445 \u0441 \u043d\u0438\u043c \u0432\u043e\u0435\u043d\u043d\u044b\u0445 \u043d\u0430\u0447\u0430\u043b\u044c\u043d\u0438\u043a\u043e\u0432, \u043e\u0431\u0440\u0430\u0434\u043e\u0432\u0430\u043b\u0441\u044f;"
        },
        {
            "chapter": 41,
            "verse": 14,
            "name": "Jeremiah 41:14",
            "text": "\u0438 \u043e\u0442\u0432\u043e\u0440\u043e\u0442\u0438\u043b\u0441\u044f \u0432\u0435\u0441\u044c \u043d\u0430\u0440\u043e\u0434, \u043a\u043e\u0442\u043e\u0440\u044b\u0439 \u0418\u0441\u043c\u0430\u0438\u043b \u0443\u0432\u0435\u043b \u0432 \u043f\u043b\u0435\u043d \u0438\u0437 \u041c\u0430\u0441\u0441\u0438\u0444\u044b, \u0438 \u043e\u0431\u0440\u0430\u0442\u0438\u043b\u0441\u044f \u0438 \u043f\u043e\u0448\u0435\u043b \u043a \u0418\u043e\u0430\u043d\u0430\u043d\u0443, \u0441\u044b\u043d\u0443 \u041a\u0430\u0440\u0435\u044f;"
        },
        {
            "chapter": 41,
            "verse": 15,
            "name": "Jeremiah 41:15",
            "text": "\u0430 \u0418\u0441\u043c\u0430\u0438\u043b, \u0441\u044b\u043d \u041d\u0430\u0444\u0430\u043d\u0438\u0438, \u0443\u0431\u0435\u0436\u0430\u043b \u043e\u0442 \u0418\u043e\u0430\u043d\u0430\u043d\u0430 \u0441 \u0432\u043e\u0441\u0435\u043c\u044c\u044e \u0447\u0435\u043b\u043e\u0432\u0435\u043a\u0430\u043c\u0438 \u0438 \u0443\u0448\u0435\u043b \u043a \u0441\u044b\u043d\u043e\u0432\u044c\u044f\u043c \u0410\u043c\u043c\u043e\u043d\u043e\u0432\u044b\u043c."
        },
        {
            "chapter": 41,
            "verse": 16,
            "name": "Jeremiah 41:16",
            "text": "\u0422\u043e\u0433\u0434\u0430 \u0418\u043e\u0430\u043d\u0430\u043d, \u0441\u044b\u043d \u041a\u0430\u0440\u0435\u044f, \u0438 \u0432\u0441\u0435 \u0431\u044b\u0432\u0448\u0438\u0435 \u0441 \u043d\u0438\u043c \u0432\u043e\u0435\u043d\u043d\u044b\u0435 \u043d\u0430\u0447\u0430\u043b\u044c\u043d\u0438\u043a\u0438 \u0432\u0437\u044f\u043b\u0438 \u0438\u0437 \u041c\u0430\u0441\u0441\u0438\u0444\u044b \u0432\u0435\u0441\u044c \u043e\u0441\u0442\u0430\u0432\u0448\u0438\u0439\u0441\u044f \u043d\u0430\u0440\u043e\u0434, \u043a\u043e\u0442\u043e\u0440\u044b\u0439 \u043e\u043d \u043e\u0441\u0432\u043e\u0431\u043e\u0434\u0438\u043b \u043e\u0442 \u0418\u0441\u043c\u0430\u0438\u043b\u0430, \u0441\u044b\u043d\u0430 \u041d\u0430\u0444\u0430\u043d\u0438\u0438, \u043f\u043e\u0441\u043b\u0435 \u0442\u043e\u0433\u043e \u043a\u0430\u043a \u0442\u043e\u0442 \u0443\u0431\u0438\u043b \u0413\u043e\u0434\u043e\u043b\u0438\u044e, \u0441\u044b\u043d\u0430 \u0410\u0445\u0438\u043a\u0430\u043c\u0430, \u043c\u0443\u0436\u0447\u0438\u043d, \u0432\u043e\u0435\u043d\u043d\u044b\u0445 \u043b\u044e\u0434\u0435\u0439, \u0438 \u0436\u0435\u043d, \u0438 \u0434\u0435\u0442\u0435\u0439, \u0438 \u0435\u0432\u043d\u0443\u0445\u043e\u0432, \u043a\u043e\u0442\u043e\u0440\u044b\u0445 \u043e\u043d \u0432\u044b\u0432\u0435\u043b \u0438\u0437 \u0413\u0430\u0432\u0430\u043e\u043d\u0430;"
        },
        {
            "chapter": 41,
            "verse": 17,
            "name": "Jeremiah 41:17",
            "text": "\u0438 \u043f\u043e\u0448\u043b\u0438, \u0438 \u043e\u0441\u0442\u0430\u043d\u043e\u0432\u0438\u043b\u0438\u0441\u044c \u0432 \u0441\u0435\u043b\u0435\u043d\u0438\u0438 \u0425\u0438\u043c\u0430\u043c, \u0431\u043b\u0438\u0437 \u0412\u0438\u0444\u043b\u0435\u0435\u043c\u0430, \u0447\u0442\u043e\u0431\u044b \u0443\u0439\u0442\u0438 \u0432 \u0415\u0433\u0438\u043f\u0435\u0442"
        },
        {
            "chapter": 41,
            "verse": 18,
            "name": "Jeremiah 41:18",
            "text": "\u043e\u0442 \u0425\u0430\u043b\u0434\u0435\u0435\u0432, \u0438\u0431\u043e \u043e\u043d\u0438 \u0431\u043e\u044f\u043b\u0438\u0441\u044c \u0438\u0445, \u043f\u043e\u0442\u043e\u043c\u0443 \u0447\u0442\u043e \u0418\u0441\u043c\u0430\u0438\u043b, \u0441\u044b\u043d \u041d\u0430\u0444\u0430\u043d\u0438\u0438, \u0443\u0431\u0438\u043b \u0413\u043e\u0434\u043e\u043b\u0438\u044e, \u0441\u044b\u043d\u0430 \u0410\u0445\u0438\u043a\u0430\u043c\u0430, \u043a\u043e\u0442\u043e\u0440\u043e\u0433\u043e \u0446\u0430\u0440\u044c \u0412\u0430\u0432\u0438\u043b\u043e\u043d\u0441\u043a\u0438\u0439 \u043f\u043e\u0441\u0442\u0430\u0432\u0438\u043b \u043d\u0430\u0447\u0430\u043b\u044c\u043d\u0438\u043a\u043e\u043c \u043d\u0430\u0434 \u0441\u0442\u0440\u0430\u043d\u043e\u044e. "
        }
    ]
}