{
  "translation": "Aleppo Codex",
  "abbreviation": "aleppo",
  "lang": "he",
  "language": "Hebrew",
  "direction": "RTL",
  "encoding": "UTF-8",
  "nr": 29,
  "name": "Joel",
  "chapters": [
    {
      "chapter": 1,
      "name": "Joel 1",
      "verses": [
        {
          "chapter": 1,
          "verse": 1,
          "name": "Joel 1:1",
          "text": "\u05d3\u05d1\u05e8 \u05d9\u05d4\u05d5\u05d4 \u05d0\u05e9\u05e8 \u05d4\u05d9\u05d4 \u05d0\u05dc \u05d9\u05d5\u05d0\u05dc \u05d1\u05df \u05e4\u05ea\u05d5\u05d0\u05dc "
        },
        {
          "chapter": 1,
          "verse": 2,
          "name": "Joel 1:2",
          "text": "\u05e9\u05de\u05e2\u05d5 \u05d6\u05d0\u05ea \u05d4\u05d6\u05e7\u05e0\u05d9\u05dd \u05d5\u05d4\u05d0\u05d6\u05d9\u05e0\u05d5 \u05db\u05dc \u05d9\u05d5\u05e9\u05d1\u05d9 \u05d4\u05d0\u05e8\u05e5 \u05d4\u05d4\u05d9\u05ea\u05d4 \u05d6\u05d0\u05ea \u05d1\u05d9\u05de\u05d9\u05db\u05dd \u05d5\u05d0\u05dd \u05d1\u05d9\u05de\u05d9 \u05d0\u05d1\u05ea\u05d9\u05db\u05dd "
        },
        {
          "chapter": 1,
          "verse": 3,
          "name": "Joel 1:3",
          "text": "\u05e2\u05dc\u05d9\u05d4 \u05dc\u05d1\u05e0\u05d9\u05db\u05dd \u05e1\u05e4\u05e8\u05d5 \u05d5\u05d1\u05e0\u05d9\u05db\u05dd \u05dc\u05d1\u05e0\u05d9\u05d4\u05dd \u05d5\u05d1\u05e0\u05d9\u05d4\u05dd \u05dc\u05d3\u05d5\u05e8 \u05d0\u05d7\u05e8 "
        },
        {
          "chapter": 1,
          "verse": 4,
          "name": "Joel 1:4",
          "text": "\u05d9\u05ea\u05e8 \u05d4\u05d2\u05d6\u05dd \u05d0\u05db\u05dc \u05d4\u05d0\u05e8\u05d1\u05d4 \u05d5\u05d9\u05ea\u05e8 \u05d4\u05d0\u05e8\u05d1\u05d4 \u05d0\u05db\u05dc \u05d4\u05d9\u05dc\u05e7 \u05d5\u05d9\u05ea\u05e8 \u05d4\u05d9\u05dc\u05e7 \u05d0\u05db\u05dc \u05d4\u05d7\u05e1\u05d9\u05dc "
        },
        {
          "chapter": 1,
          "verse": 5,
          "name": "Joel 1:5",
          "text": "\u05d4\u05e7\u05d9\u05e6\u05d5 \u05e9\u05db\u05d5\u05e8\u05d9\u05dd \u05d5\u05d1\u05db\u05d5 \u05d5\u05d4\u05d9\u05dc\u05dc\u05d5 \u05db\u05dc \u05e9\u05ea\u05d9 \u05d9\u05d9\u05df \u05e2\u05dc \u05e2\u05e1\u05d9\u05e1 \u05db\u05d9 \u05e0\u05db\u05e8\u05ea \u05de\u05e4\u05d9\u05db\u05dd "
        },
        {
          "chapter": 1,
          "verse": 6,
          "name": "Joel 1:6",
          "text": "\u05db\u05d9 \u05d2\u05d5\u05d9 \u05e2\u05dc\u05d4 \u05e2\u05dc \u05d0\u05e8\u05e6\u05d9 \u05e2\u05e6\u05d5\u05dd \u05d5\u05d0\u05d9\u05df \u05de\u05e1\u05e4\u05e8 \u05e9\u05e0\u05d9\u05d5 \u05e9\u05e0\u05d9 \u05d0\u05e8\u05d9\u05d4 \u05d5\u05de\u05ea\u05dc\u05e2\u05d5\u05ea \u05dc\u05d1\u05d9\u05d0 \u05dc\u05d5 "
        },
        {
          "chapter": 1,
          "verse": 7,
          "name": "Joel 1:7",
          "text": "\u05e9\u05dd \u05d2\u05e4\u05e0\u05d9 \u05dc\u05e9\u05de\u05d4 \u05d5\u05ea\u05d0\u05e0\u05ea\u05d9 \u05dc\u05e7\u05e6\u05e4\u05d4 \u05d7\u05e9\u05e3 \u05d7\u05e9\u05e4\u05d4 \u05d5\u05d4\u05e9\u05dc\u05d9\u05da \u05d4\u05dc\u05d1\u05d9\u05e0\u05d5 \u05e9\u05e8\u05d9\u05d2\u05d9\u05d4 "
        },
        {
          "chapter": 1,
          "verse": 8,
          "name": "Joel 1:8",
          "text": "\u05d0\u05dc\u05d9 \u05db\u05d1\u05ea\u05d5\u05dc\u05d4 \u05d7\u05d2\u05e8\u05ea \u05e9\u05e7 \u05e2\u05dc \u05d1\u05e2\u05dc \u05e0\u05e2\u05d5\u05e8\u05d9\u05d4 "
        },
        {
          "chapter": 1,
          "verse": 9,
          "name": "Joel 1:9",
          "text": "\u05d4\u05db\u05e8\u05ea \u05de\u05e0\u05d7\u05d4 \u05d5\u05e0\u05e1\u05da \u05de\u05d1\u05d9\u05ea \u05d9\u05d4\u05d5\u05d4 \u05d0\u05d1\u05dc\u05d5 \u05d4\u05db\u05d4\u05e0\u05d9\u05dd \u05de\u05e9\u05e8\u05ea\u05d9 \u05d9\u05d4\u05d5\u05d4 "
        },
        {
          "chapter": 1,
          "verse": 10,
          "name": "Joel 1:10",
          "text": "\u05e9\u05d3\u05d3 \u05e9\u05d3\u05d4 \u05d0\u05d1\u05dc\u05d4 \u05d0\u05d3\u05de\u05d4\u00a0 \u05db\u05d9 \u05e9\u05d3\u05d3 \u05d3\u05d2\u05df \u05d4\u05d5\u05d1\u05d9\u05e9 \u05ea\u05d9\u05e8\u05d5\u05e9 \u05d0\u05de\u05dc\u05dc \u05d9\u05e6\u05d4\u05e8 "
        },
        {
          "chapter": 1,
          "verse": 11,
          "name": "Joel 1:11",
          "text": "\u05d4\u05d1\u05d9\u05e9\u05d5 \u05d0\u05db\u05e8\u05d9\u05dd \u05d4\u05d9\u05dc\u05d9\u05dc\u05d5 \u05db\u05e8\u05de\u05d9\u05dd \u05e2\u05dc \u05d7\u05d8\u05d4 \u05d5\u05e2\u05dc \u05e9\u05e2\u05e8\u05d4\u00a0 \u05db\u05d9 \u05d0\u05d1\u05d3 \u05e7\u05e6\u05d9\u05e8 \u05e9\u05d3\u05d4 "
        },
        {
          "chapter": 1,
          "verse": 12,
          "name": "Joel 1:12",
          "text": "\u05d4\u05d2\u05e4\u05df \u05d4\u05d5\u05d1\u05d9\u05e9\u05d4 \u05d5\u05d4\u05ea\u05d0\u05e0\u05d4 \u05d0\u05de\u05dc\u05dc\u05d4 \u05e8\u05de\u05d5\u05df \u05d2\u05dd \u05ea\u05de\u05e8 \u05d5\u05ea\u05e4\u05d5\u05d7 \u05db\u05dc \u05e2\u05e6\u05d9 \u05d4\u05e9\u05d3\u05d4 \u05d9\u05d1\u05e9\u05d5\u2014\u05db\u05d9 \u05d4\u05d1\u05d9\u05e9 \u05e9\u05e9\u05d5\u05df \u05de\u05df \u05d1\u05e0\u05d9 \u05d0\u05d3\u05dd\u00a0 {\u05e1} "
        },
        {
          "chapter": 1,
          "verse": 13,
          "name": "Joel 1:13",
          "text": "\u05d7\u05d2\u05e8\u05d5 \u05d5\u05e1\u05e4\u05d3\u05d5 \u05d4\u05db\u05d4\u05e0\u05d9\u05dd \u05d4\u05d9\u05dc\u05d9\u05dc\u05d5 \u05de\u05e9\u05e8\u05ea\u05d9 \u05de\u05d6\u05d1\u05d7\u2014\u05d1\u05d0\u05d5 \u05dc\u05d9\u05e0\u05d5 \u05d1\u05e9\u05e7\u05d9\u05dd \u05de\u05e9\u05e8\u05ea\u05d9 \u05d0\u05dc\u05d4\u05d9\u00a0 \u05db\u05d9 \u05e0\u05de\u05e0\u05e2 \u05de\u05d1\u05d9\u05ea \u05d0\u05dc\u05d4\u05d9\u05db\u05dd \u05de\u05e0\u05d7\u05d4 \u05d5\u05e0\u05e1\u05da "
        },
        {
          "chapter": 1,
          "verse": 14,
          "name": "Joel 1:14",
          "text": "\u05e7\u05d3\u05e9\u05d5 \u05e6\u05d5\u05dd \u05e7\u05e8\u05d0\u05d5 \u05e2\u05e6\u05e8\u05d4\u2014\u05d0\u05e1\u05e4\u05d5 \u05d6\u05e7\u05e0\u05d9\u05dd \u05db\u05dc \u05d9\u05e9\u05d1\u05d9 \u05d4\u05d0\u05e8\u05e5 \u05d1\u05d9\u05ea \u05d9\u05d4\u05d5\u05d4 \u05d0\u05dc\u05d4\u05d9\u05db\u05dd \u05d5\u05d6\u05e2\u05e7\u05d5 \u05d0\u05dc \u05d9\u05d4\u05d5\u05d4 "
        },
        {
          "chapter": 1,
          "verse": 15,
          "name": "Joel 1:15",
          "text": "\u05d0\u05d4\u05d4 \u05dc\u05d9\u05d5\u05dd\u00a0 \u05db\u05d9 \u05e7\u05e8\u05d5\u05d1 \u05d9\u05d5\u05dd \u05d9\u05d4\u05d5\u05d4 \u05d5\u05db\u05e9\u05d3 \u05de\u05e9\u05d3\u05d9 \u05d9\u05d1\u05d5\u05d0 "
        },
        {
          "chapter": 1,
          "verse": 16,
          "name": "Joel 1:16",
          "text": "\u05d4\u05dc\u05d5\u05d0 \u05e0\u05d2\u05d3 \u05e2\u05d9\u05e0\u05d9\u05e0\u05d5 \u05d0\u05db\u05dc \u05e0\u05db\u05e8\u05ea \u05de\u05d1\u05d9\u05ea \u05d0\u05dc\u05d4\u05d9\u05e0\u05d5 \u05e9\u05de\u05d7\u05d4 \u05d5\u05d2\u05d9\u05dc "
        },
        {
          "chapter": 1,
          "verse": 17,
          "name": "Joel 1:17",
          "text": "\u05e2\u05d1\u05e9\u05d5 \u05e4\u05e8\u05d3\u05d5\u05ea \u05ea\u05d7\u05ea \u05de\u05d2\u05e8\u05e4\u05ea\u05d9\u05d4\u05dd\u2014\u05e0\u05e9\u05de\u05d5 \u05d0\u05e6\u05e8\u05d5\u05ea \u05e0\u05d4\u05e8\u05e1\u05d5 \u05de\u05de\u05d2\u05e8\u05d5\u05ea\u00a0 \u05db\u05d9 \u05d4\u05d1\u05d9\u05e9 \u05d3\u05d2\u05df "
        },
        {
          "chapter": 1,
          "verse": 18,
          "name": "Joel 1:18",
          "text": "\u05de\u05d4 \u05e0\u05d0\u05e0\u05d7\u05d4 \u05d1\u05d4\u05de\u05d4 \u05e0\u05d1\u05db\u05d5 \u05e2\u05d3\u05e8\u05d9 \u05d1\u05e7\u05e8\u2014\u05db\u05d9 \u05d0\u05d9\u05df \u05de\u05e8\u05e2\u05d4 \u05dc\u05d4\u05dd \u05d2\u05dd \u05e2\u05d3\u05e8\u05d9 \u05d4\u05e6\u05d0\u05df \u05e0\u05d0\u05e9\u05de\u05d5 "
        },
        {
          "chapter": 1,
          "verse": 19,
          "name": "Joel 1:19",
          "text": "\u05d0\u05dc\u05d9\u05da \u05d9\u05d4\u05d5\u05d4 \u05d0\u05e7\u05e8\u05d0\u00a0 \u05db\u05d9 \u05d0\u05e9 \u05d0\u05db\u05dc\u05d4 \u05e0\u05d0\u05d5\u05ea \u05de\u05d3\u05d1\u05e8 \u05d5\u05dc\u05d4\u05d1\u05d4 \u05dc\u05d4\u05d8\u05d4 \u05db\u05dc \u05e2\u05e6\u05d9 \u05d4\u05e9\u05d3\u05d4 "
        },
        {
          "chapter": 1,
          "verse": 20,
          "name": "Joel 1:20",
          "text": "\u05d2\u05dd \u05d1\u05d4\u05de\u05d5\u05ea \u05e9\u05d3\u05d4 \u05ea\u05e2\u05e8\u05d5\u05d2 \u05d0\u05dc\u05d9\u05da\u00a0 \u05db\u05d9 \u05d9\u05d1\u05e9\u05d5 \u05d0\u05e4\u05d9\u05e7\u05d9 \u05de\u05d9\u05dd \u05d5\u05d0\u05e9 \u05d0\u05db\u05dc\u05d4 \u05e0\u05d0\u05d5\u05ea \u05d4\u05de\u05d3\u05d1\u05e8\u00a0 {\u05e1}  "
        }
      ]
    },
    {
      "chapter": 2,
      "name": "Joel 2",
      "verses": [
        {
          "chapter": 2,
          "verse": 1,
          "name": "Joel 2:1",
          "text": "\u05ea\u05e7\u05e2\u05d5 \u05e9\u05d5\u05e4\u05e8 \u05d1\u05e6\u05d9\u05d5\u05df \u05d5\u05d4\u05e8\u05d9\u05e2\u05d5 \u05d1\u05d4\u05e8 \u05e7\u05d3\u05e9\u05d9\u2014\u05d9\u05e8\u05d2\u05d6\u05d5 \u05db\u05dc \u05d9\u05e9\u05d1\u05d9 \u05d4\u05d0\u05e8\u05e5\u00a0 \u05db\u05d9 \u05d1\u05d0 \u05d9\u05d5\u05dd \u05d9\u05d4\u05d5\u05d4 \u05db\u05d9 \u05e7\u05e8\u05d5\u05d1 "
        },
        {
          "chapter": 2,
          "verse": 2,
          "name": "Joel 2:2",
          "text": "\u05d9\u05d5\u05dd \u05d7\u05e9\u05da \u05d5\u05d0\u05e4\u05dc\u05d4 \u05d9\u05d5\u05dd \u05e2\u05e0\u05df \u05d5\u05e2\u05e8\u05e4\u05dc \u05db\u05e9\u05d7\u05e8 \u05e4\u05e8\u05e9 \u05e2\u05dc \u05d4\u05d4\u05e8\u05d9\u05dd \u05e2\u05dd \u05e8\u05d1 \u05d5\u05e2\u05e6\u05d5\u05dd\u2014\u05db\u05de\u05d4\u05d5 \u05dc\u05d0 \u05e0\u05d4\u05d9\u05d4 \u05de\u05df \u05d4\u05e2\u05d5\u05dc\u05dd \u05d5\u05d0\u05d7\u05e8\u05d9\u05d5 \u05dc\u05d0 \u05d9\u05d5\u05e1\u05e3 \u05e2\u05d3 \u05e9\u05e0\u05d9 \u05d3\u05d5\u05e8 \u05d5\u05d3\u05d5\u05e8 "
        },
        {
          "chapter": 2,
          "verse": 3,
          "name": "Joel 2:3",
          "text": "\u05dc\u05e4\u05e0\u05d9\u05d5 \u05d0\u05db\u05dc\u05d4 \u05d0\u05e9 \u05d5\u05d0\u05d7\u05e8\u05d9\u05d5 \u05ea\u05dc\u05d4\u05d8 \u05dc\u05d4\u05d1\u05d4 \u05db\u05d2\u05df \u05e2\u05d3\u05df \u05d4\u05d0\u05e8\u05e5 \u05dc\u05e4\u05e0\u05d9\u05d5 \u05d5\u05d0\u05d7\u05e8\u05d9\u05d5 \u05de\u05d3\u05d1\u05e8 \u05e9\u05de\u05de\u05d4 \u05d5\u05d2\u05dd \u05e4\u05dc\u05d9\u05d8\u05d4 \u05dc\u05d0 \u05d4\u05d9\u05ea\u05d4 \u05dc\u05d5 "
        },
        {
          "chapter": 2,
          "verse": 4,
          "name": "Joel 2:4",
          "text": "\u05db\u05de\u05e8\u05d0\u05d4 \u05e1\u05d5\u05e1\u05d9\u05dd \u05de\u05e8\u05d0\u05d4\u05d5 \u05d5\u05db\u05e4\u05e8\u05e9\u05d9\u05dd \u05db\u05df \u05d9\u05e8\u05d5\u05e6\u05d5\u05df "
        },
        {
          "chapter": 2,
          "verse": 5,
          "name": "Joel 2:5",
          "text": "\u05db\u05e7\u05d5\u05dc \u05de\u05e8\u05db\u05d1\u05d5\u05ea \u05e2\u05dc \u05e8\u05d0\u05e9\u05d9 \u05d4\u05d4\u05e8\u05d9\u05dd \u05d9\u05e8\u05e7\u05d3\u05d5\u05df\u2014\u05db\u05e7\u05d5\u05dc \u05dc\u05d4\u05d1 \u05d0\u05e9 \u05d0\u05db\u05dc\u05d4 \u05e7\u05e9 \u05db\u05e2\u05dd \u05e2\u05e6\u05d5\u05dd \u05e2\u05e8\u05d5\u05da \u05de\u05dc\u05d7\u05de\u05d4 "
        },
        {
          "chapter": 2,
          "verse": 6,
          "name": "Joel 2:6",
          "text": "\u05de\u05e4\u05e0\u05d9\u05d5 \u05d9\u05d7\u05d9\u05dc\u05d5 \u05e2\u05de\u05d9\u05dd \u05db\u05dc \u05e4\u05e0\u05d9\u05dd \u05e7\u05d1\u05e6\u05d5 \u05e4\u05d0\u05e8\u05d5\u05e8 "
        },
        {
          "chapter": 2,
          "verse": 7,
          "name": "Joel 2:7",
          "text": "\u05db\u05d2\u05d1\u05d5\u05e8\u05d9\u05dd \u05d9\u05e8\u05e6\u05d5\u05df \u05db\u05d0\u05e0\u05e9\u05d9 \u05de\u05dc\u05d7\u05de\u05d4 \u05d9\u05e2\u05dc\u05d5 \u05d7\u05d5\u05de\u05d4 \u05d5\u05d0\u05d9\u05e9 \u05d1\u05d3\u05e8\u05db\u05d9\u05d5 \u05d9\u05dc\u05db\u05d5\u05df \u05d5\u05dc\u05d0 \u05d9\u05e2\u05d1\u05d8\u05d5\u05df \u05d0\u05e8\u05d7\u05d5\u05ea\u05dd "
        },
        {
          "chapter": 2,
          "verse": 8,
          "name": "Joel 2:8",
          "text": "\u05d5\u05d0\u05d9\u05e9 \u05d0\u05d7\u05d9\u05d5 \u05dc\u05d0 \u05d9\u05d3\u05d7\u05e7\u05d5\u05df \u05d2\u05d1\u05e8 \u05d1\u05de\u05e1\u05dc\u05ea\u05d5 \u05d9\u05dc\u05db\u05d5\u05df \u05d5\u05d1\u05e2\u05d3 \u05d4\u05e9\u05dc\u05d7 \u05d9\u05e4\u05dc\u05d5 \u05dc\u05d0 \u05d9\u05d1\u05e6\u05e2\u05d5 "
        },
        {
          "chapter": 2,
          "verse": 9,
          "name": "Joel 2:9",
          "text": "\u05d1\u05e2\u05d9\u05e8 \u05d9\u05e9\u05e7\u05d5 \u05d1\u05d7\u05d5\u05de\u05d4 \u05d9\u05e8\u05e6\u05d5\u05df\u2014\u05d1\u05d1\u05ea\u05d9\u05dd \u05d9\u05e2\u05dc\u05d5 \u05d1\u05e2\u05d3 \u05d4\u05d7\u05dc\u05d5\u05e0\u05d9\u05dd \u05d9\u05d1\u05d0\u05d5 \u05db\u05d2\u05e0\u05d1 "
        },
        {
          "chapter": 2,
          "verse": 10,
          "name": "Joel 2:10",
          "text": "\u05dc\u05e4\u05e0\u05d9\u05d5 \u05e8\u05d2\u05d6\u05d4 \u05d0\u05e8\u05e5 \u05e8\u05e2\u05e9\u05d5 \u05e9\u05de\u05d9\u05dd \u05e9\u05de\u05e9 \u05d5\u05d9\u05e8\u05d7 \u05e7\u05d3\u05e8\u05d5 \u05d5\u05db\u05d5\u05db\u05d1\u05d9\u05dd \u05d0\u05e1\u05e4\u05d5 \u05e0\u05d2\u05d4\u05dd "
        },
        {
          "chapter": 2,
          "verse": 11,
          "name": "Joel 2:11",
          "text": "\u05d5\u05d9\u05d4\u05d5\u05d4 \u05e0\u05ea\u05df \u05e7\u05d5\u05dc\u05d5 \u05dc\u05e4\u05e0\u05d9 \u05d7\u05d9\u05dc\u05d5\u2014\u05db\u05d9 \u05e8\u05d1 \u05de\u05d0\u05d3 \u05de\u05d7\u05e0\u05d4\u05d5 \u05db\u05d9 \u05e2\u05e6\u05d5\u05dd \u05e2\u05e9\u05d4 \u05d3\u05d1\u05e8\u05d5\u00a0 \u05db\u05d9 \u05d2\u05d3\u05d5\u05dc \u05d9\u05d5\u05dd \u05d9\u05d4\u05d5\u05d4 \u05d5\u05e0\u05d5\u05e8\u05d0 \u05de\u05d0\u05d3 \u05d5\u05de\u05d9 \u05d9\u05db\u05d9\u05dc\u05e0\u05d5 "
        },
        {
          "chapter": 2,
          "verse": 12,
          "name": "Joel 2:12",
          "text": "\u05d5\u05d2\u05dd \u05e2\u05ea\u05d4 \u05e0\u05d0\u05dd \u05d9\u05d4\u05d5\u05d4 \u05e9\u05d1\u05d5 \u05e2\u05d3\u05d9 \u05d1\u05db\u05dc \u05dc\u05d1\u05d1\u05db\u05dd \u05d5\u05d1\u05e6\u05d5\u05dd \u05d5\u05d1\u05d1\u05db\u05d9 \u05d5\u05d1\u05de\u05e1\u05e4\u05d3 "
        },
        {
          "chapter": 2,
          "verse": 13,
          "name": "Joel 2:13",
          "text": "\u05d5\u05e7\u05e8\u05e2\u05d5 \u05dc\u05d1\u05d1\u05db\u05dd \u05d5\u05d0\u05dc \u05d1\u05d2\u05d3\u05d9\u05db\u05dd \u05d5\u05e9\u05d5\u05d1\u05d5 \u05d0\u05dc \u05d9\u05d4\u05d5\u05d4 \u05d0\u05dc\u05d4\u05d9\u05db\u05dd\u00a0 \u05db\u05d9 \u05d7\u05e0\u05d5\u05df \u05d5\u05e8\u05d7\u05d5\u05dd \u05d4\u05d5\u05d0\u2014\u05d0\u05e8\u05da \u05d0\u05e4\u05d9\u05dd \u05d5\u05e8\u05d1 \u05d7\u05e1\u05d3 \u05d5\u05e0\u05d7\u05dd \u05e2\u05dc \u05d4\u05e8\u05e2\u05d4 "
        },
        {
          "chapter": 2,
          "verse": 14,
          "name": "Joel 2:14",
          "text": "\u05de\u05d9 \u05d9\u05d5\u05d3\u05e2 \u05d9\u05e9\u05d5\u05d1 \u05d5\u05e0\u05d7\u05dd \u05d5\u05d4\u05e9\u05d0\u05d9\u05e8 \u05d0\u05d7\u05e8\u05d9\u05d5 \u05d1\u05e8\u05db\u05d4\u2014\u05de\u05e0\u05d7\u05d4 \u05d5\u05e0\u05e1\u05da \u05dc\u05d9\u05d4\u05d5\u05d4 \u05d0\u05dc\u05d4\u05d9\u05db\u05dd\u00a0 {\u05e4} "
        },
        {
          "chapter": 2,
          "verse": 15,
          "name": "Joel 2:15",
          "text": "\u05ea\u05e7\u05e2\u05d5 \u05e9\u05d5\u05e4\u05e8 \u05d1\u05e6\u05d9\u05d5\u05df \u05e7\u05d3\u05e9\u05d5 \u05e6\u05d5\u05dd \u05e7\u05e8\u05d0\u05d5 \u05e2\u05e6\u05e8\u05d4 "
        },
        {
          "chapter": 2,
          "verse": 16,
          "name": "Joel 2:16",
          "text": "\u05d0\u05e1\u05e4\u05d5 \u05e2\u05dd \u05e7\u05d3\u05e9\u05d5 \u05e7\u05d4\u05dc \u05e7\u05d1\u05e6\u05d5 \u05d6\u05e7\u05e0\u05d9\u05dd\u2014\u05d0\u05e1\u05e4\u05d5 \u05e2\u05d5\u05dc\u05dc\u05d9\u05dd \u05d5\u05d9\u05e0\u05e7\u05d9 \u05e9\u05d3\u05d9\u05dd\u00a0 \u05d9\u05e6\u05d0 \u05d7\u05ea\u05df \u05de\u05d7\u05d3\u05e8\u05d5 \u05d5\u05db\u05dc\u05d4 \u05de\u05d7\u05e4\u05ea\u05d4 "
        },
        {
          "chapter": 2,
          "verse": 17,
          "name": "Joel 2:17",
          "text": "\u05d1\u05d9\u05df \u05d4\u05d0\u05d5\u05dc\u05dd \u05d5\u05dc\u05de\u05d6\u05d1\u05d7 \u05d9\u05d1\u05db\u05d5 \u05d4\u05db\u05d4\u05e0\u05d9\u05dd \u05de\u05e9\u05e8\u05ea\u05d9 \u05d9\u05d4\u05d5\u05d4 \u05d5\u05d9\u05d0\u05de\u05e8\u05d5 \u05d7\u05d5\u05e1\u05d4 \u05d9\u05d4\u05d5\u05d4 \u05e2\u05dc \u05e2\u05de\u05da \u05d5\u05d0\u05dc \u05ea\u05ea\u05df \u05e0\u05d7\u05dc\u05ea\u05da \u05dc\u05d7\u05e8\u05e4\u05d4 \u05dc\u05de\u05e9\u05dc \u05d1\u05dd \u05d2\u05d5\u05d9\u05dd\u2014\u05dc\u05de\u05d4 \u05d9\u05d0\u05de\u05e8\u05d5 \u05d1\u05e2\u05de\u05d9\u05dd \u05d0\u05d9\u05d4 \u05d0\u05dc\u05d4\u05d9\u05d4\u05dd "
        },
        {
          "chapter": 2,
          "verse": 18,
          "name": "Joel 2:18",
          "text": "\u05d5\u05d9\u05e7\u05e0\u05d0 \u05d9\u05d4\u05d5\u05d4 \u05dc\u05d0\u05e8\u05e6\u05d5 \u05d5\u05d9\u05d7\u05de\u05dc \u05e2\u05dc \u05e2\u05de\u05d5 "
        },
        {
          "chapter": 2,
          "verse": 19,
          "name": "Joel 2:19",
          "text": "\u05d5\u05d9\u05e2\u05df \u05d9\u05d4\u05d5\u05d4 \u05d5\u05d9\u05d0\u05de\u05e8 \u05dc\u05e2\u05de\u05d5 \u05d4\u05e0\u05e0\u05d9 \u05e9\u05dc\u05d7 \u05dc\u05db\u05dd \u05d0\u05ea \u05d4\u05d3\u05d2\u05df \u05d5\u05d4\u05ea\u05d9\u05e8\u05d5\u05e9 \u05d5\u05d4\u05d9\u05e6\u05d4\u05e8 \u05d5\u05e9\u05d1\u05e2\u05ea\u05dd \u05d0\u05ea\u05d5 \u05d5\u05dc\u05d0 \u05d0\u05ea\u05df \u05d0\u05ea\u05db\u05dd \u05e2\u05d5\u05d3 \u05d7\u05e8\u05e4\u05d4 \u05d1\u05d2\u05d5\u05d9\u05dd "
        },
        {
          "chapter": 2,
          "verse": 20,
          "name": "Joel 2:20",
          "text": "\u05d5\u05d0\u05ea \u05d4\u05e6\u05e4\u05d5\u05e0\u05d9 \u05d0\u05e8\u05d7\u05d9\u05e7 \u05de\u05e2\u05dc\u05d9\u05db\u05dd \u05d5\u05d4\u05d3\u05d7\u05ea\u05d9\u05d5 \u05d0\u05dc \u05d0\u05e8\u05e5 \u05e6\u05d9\u05d4 \u05d5\u05e9\u05de\u05de\u05d4\u2014\u05d0\u05ea \u05e4\u05e0\u05d9\u05d5 \u05d0\u05dc \u05d4\u05d9\u05dd \u05d4\u05e7\u05d3\u05de\u05e0\u05d9 \u05d5\u05e1\u05e4\u05d5 \u05d0\u05dc \u05d4\u05d9\u05dd \u05d4\u05d0\u05d7\u05e8\u05d5\u05df \u05d5\u05e2\u05dc\u05d4 \u05d1\u05d0\u05e9\u05d5 \u05d5\u05ea\u05e2\u05dc \u05e6\u05d7\u05e0\u05ea\u05d5\u2014\u05db\u05d9 \u05d4\u05d2\u05d3\u05d9\u05dc \u05dc\u05e2\u05e9\u05d5\u05ea "
        },
        {
          "chapter": 2,
          "verse": 21,
          "name": "Joel 2:21",
          "text": "\u05d0\u05dc \u05ea\u05d9\u05e8\u05d0\u05d9 \u05d0\u05d3\u05de\u05d4 \u05d2\u05d9\u05dc\u05d9 \u05d5\u05e9\u05de\u05d7\u05d9 \u05db\u05d9 \u05d4\u05d2\u05d3\u05d9\u05dc \u05d9\u05d4\u05d5\u05d4 \u05dc\u05e2\u05e9\u05d5\u05ea "
        },
        {
          "chapter": 2,
          "verse": 22,
          "name": "Joel 2:22",
          "text": "\u05d0\u05dc \u05ea\u05d9\u05e8\u05d0\u05d5 \u05d1\u05d4\u05de\u05d5\u05ea \u05e9\u05d3\u05d9 \u05db\u05d9 \u05d3\u05e9\u05d0\u05d5 \u05e0\u05d0\u05d5\u05ea \u05de\u05d3\u05d1\u05e8\u00a0 \u05db\u05d9 \u05e2\u05e5 \u05e0\u05e9\u05d0 \u05e4\u05e8\u05d9\u05d5 \u05ea\u05d0\u05e0\u05d4 \u05d5\u05d2\u05e4\u05df \u05e0\u05ea\u05e0\u05d5 \u05d7\u05d9\u05dc\u05dd "
        },
        {
          "chapter": 2,
          "verse": 23,
          "name": "Joel 2:23",
          "text": "\u05d5\u05d1\u05e0\u05d9 \u05e6\u05d9\u05d5\u05df \u05d2\u05d9\u05dc\u05d5 \u05d5\u05e9\u05de\u05d7\u05d5 \u05d1\u05d9\u05d4\u05d5\u05d4 \u05d0\u05dc\u05d4\u05d9\u05db\u05dd \u05db\u05d9 \u05e0\u05ea\u05df \u05dc\u05db\u05dd \u05d0\u05ea \u05d4\u05de\u05d5\u05e8\u05d4 \u05dc\u05e6\u05d3\u05e7\u05d4 \u05d5\u05d9\u05d5\u05e8\u05d3 \u05dc\u05db\u05dd \u05d2\u05e9\u05dd \u05de\u05d5\u05e8\u05d4 \u05d5\u05de\u05dc\u05e7\u05d5\u05e9\u2014\u05d1\u05e8\u05d0\u05e9\u05d5\u05df "
        },
        {
          "chapter": 2,
          "verse": 24,
          "name": "Joel 2:24",
          "text": "\u05d5\u05de\u05dc\u05d0\u05d5 \u05d4\u05d2\u05e8\u05e0\u05d5\u05ea \u05d1\u05e8 \u05d5\u05d4\u05e9\u05d9\u05e7\u05d5 \u05d4\u05d9\u05e7\u05d1\u05d9\u05dd \u05ea\u05d9\u05e8\u05d5\u05e9 \u05d5\u05d9\u05e6\u05d4\u05e8 "
        },
        {
          "chapter": 2,
          "verse": 25,
          "name": "Joel 2:25",
          "text": "\u05d5\u05e9\u05dc\u05de\u05ea\u05d9 \u05dc\u05db\u05dd \u05d0\u05ea \u05d4\u05e9\u05e0\u05d9\u05dd \u05d0\u05e9\u05e8 \u05d0\u05db\u05dc \u05d4\u05d0\u05e8\u05d1\u05d4 \u05d4\u05d9\u05dc\u05e7 \u05d5\u05d4\u05d7\u05e1\u05d9\u05dc \u05d5\u05d4\u05d2\u05d6\u05dd\u00a0 \u05d7\u05d9\u05dc\u05d9 \u05d4\u05d2\u05d3\u05d5\u05dc \u05d0\u05e9\u05e8 \u05e9\u05dc\u05d7\u05ea\u05d9 \u05d1\u05db\u05dd "
        },
        {
          "chapter": 2,
          "verse": 26,
          "name": "Joel 2:26",
          "text": "\u05d5\u05d0\u05db\u05dc\u05ea\u05dd \u05d0\u05db\u05d5\u05dc \u05d5\u05e9\u05d1\u05d5\u05e2 \u05d5\u05d4\u05dc\u05dc\u05ea\u05dd \u05d0\u05ea \u05e9\u05dd \u05d9\u05d4\u05d5\u05d4 \u05d0\u05dc\u05d4\u05d9\u05db\u05dd \u05d0\u05e9\u05e8 \u05e2\u05e9\u05d4 \u05e2\u05de\u05db\u05dd \u05dc\u05d4\u05e4\u05dc\u05d9\u05d0 \u05d5\u05dc\u05d0 \u05d9\u05d1\u05e9\u05d5 \u05e2\u05de\u05d9 \u05dc\u05e2\u05d5\u05dc\u05dd "
        },
        {
          "chapter": 2,
          "verse": 27,
          "name": "Joel 2:27",
          "text": "\u05d5\u05d9\u05d3\u05e2\u05ea\u05dd \u05db\u05d9 \u05d1\u05e7\u05e8\u05d1 \u05d9\u05e9\u05e8\u05d0\u05dc \u05d0\u05e0\u05d9 \u05d5\u05d0\u05e0\u05d9 \u05d9\u05d4\u05d5\u05d4 \u05d0\u05dc\u05d4\u05d9\u05db\u05dd \u05d5\u05d0\u05d9\u05df \u05e2\u05d5\u05d3 \u05d5\u05dc\u05d0 \u05d9\u05d1\u05e9\u05d5 \u05e2\u05de\u05d9 \u05dc\u05e2\u05d5\u05dc\u05dd\u00a0 {\u05e4}  "
        }
      ]
    },
    {
      "chapter": 3,
      "name": "Joel 3",
      "verses": [
        {
          "chapter": 3,
          "verse": 1,
          "name": "Joel 3:1",
          "text": "\u05d5\u05d4\u05d9\u05d4 \u05d0\u05d7\u05e8\u05d9 \u05db\u05df \u05d0\u05e9\u05e4\u05d5\u05da \u05d0\u05ea \u05e8\u05d5\u05d7\u05d9 \u05e2\u05dc \u05db\u05dc \u05d1\u05e9\u05e8 \u05d5\u05e0\u05d1\u05d0\u05d5 \u05d1\u05e0\u05d9\u05db\u05dd \u05d5\u05d1\u05e0\u05d5\u05ea\u05d9\u05db\u05dd \u05d6\u05e7\u05e0\u05d9\u05db\u05dd \u05d7\u05dc\u05de\u05d5\u05ea \u05d9\u05d7\u05dc\u05de\u05d5\u05df\u2014\u05d1\u05d7\u05d5\u05e8\u05d9\u05db\u05dd \u05d7\u05d6\u05d9\u05e0\u05d5\u05ea \u05d9\u05e8\u05d0\u05d5 "
        },
        {
          "chapter": 3,
          "verse": 2,
          "name": "Joel 3:2",
          "text": "\u05d5\u05d2\u05dd \u05e2\u05dc \u05d4\u05e2\u05d1\u05d3\u05d9\u05dd \u05d5\u05e2\u05dc \u05d4\u05e9\u05e4\u05d7\u05d5\u05ea \u05d1\u05d9\u05de\u05d9\u05dd \u05d4\u05d4\u05de\u05d4 \u05d0\u05e9\u05e4\u05d5\u05da \u05d0\u05ea \u05e8\u05d5\u05d7\u05d9 "
        },
        {
          "chapter": 3,
          "verse": 3,
          "name": "Joel 3:3",
          "text": "\u05d5\u05e0\u05ea\u05ea\u05d9 \u05de\u05d5\u05e4\u05ea\u05d9\u05dd \u05d1\u05e9\u05de\u05d9\u05dd \u05d5\u05d1\u05d0\u05e8\u05e5\u00a0 \u05d3\u05dd \u05d5\u05d0\u05e9 \u05d5\u05ea\u05d9\u05de\u05e8\u05d5\u05ea \u05e2\u05e9\u05df "
        },
        {
          "chapter": 3,
          "verse": 4,
          "name": "Joel 3:4",
          "text": "\u05d4\u05e9\u05de\u05e9 \u05d9\u05d4\u05e4\u05da \u05dc\u05d7\u05e9\u05da \u05d5\u05d4\u05d9\u05e8\u05d7 \u05dc\u05d3\u05dd\u2014\u05dc\u05e4\u05e0\u05d9 \u05d1\u05d5\u05d0 \u05d9\u05d5\u05dd \u05d9\u05d4\u05d5\u05d4 \u05d4\u05d2\u05d3\u05d5\u05dc \u05d5\u05d4\u05e0\u05d5\u05e8\u05d0 "
        },
        {
          "chapter": 3,
          "verse": 5,
          "name": "Joel 3:5",
          "text": "\u05d5\u05d4\u05d9\u05d4 \u05db\u05dc \u05d0\u05e9\u05e8 \u05d9\u05e7\u05e8\u05d0 \u05d1\u05e9\u05dd \u05d9\u05d4\u05d5\u05d4\u2014\u05d9\u05de\u05dc\u05d8\u00a0 \u05db\u05d9 \u05d1\u05d4\u05e8 \u05e6\u05d9\u05d5\u05df \u05d5\u05d1\u05d9\u05e8\u05d5\u05e9\u05dc\u05dd \u05ea\u05d4\u05d9\u05d4 \u05e4\u05dc\u05d9\u05d8\u05d4 \u05db\u05d0\u05e9\u05e8 \u05d0\u05de\u05e8 \u05d9\u05d4\u05d5\u05d4 \u05d5\u05d1\u05e9\u05e8\u05d9\u05d3\u05d9\u05dd \u05d0\u05e9\u05e8 \u05d9\u05d4\u05d5\u05d4 \u05e7\u05e8\u05d0  "
        }
      ]
    },
    {
      "chapter": 4,
      "name": "Joel 4",
      "verses": [
        {
          "chapter": 4,
          "verse": 1,
          "name": "Joel 4:1",
          "text": "\u05db\u05d9 \u05d4\u05e0\u05d4 \u05d1\u05d9\u05de\u05d9\u05dd \u05d4\u05d4\u05de\u05d4\u2014\u05d5\u05d1\u05e2\u05ea \u05d4\u05d4\u05d9\u05d0\u00a0 \u05d0\u05e9\u05e8 \u05d0\u05e9\u05d5\u05d1 (\u05d0\u05e9\u05d9\u05d1) \u05d0\u05ea \u05e9\u05d1\u05d5\u05ea \u05d9\u05d4\u05d5\u05d3\u05d4 \u05d5\u05d9\u05e8\u05d5\u05e9\u05dc\u05dd "
        },
        {
          "chapter": 4,
          "verse": 2,
          "name": "Joel 4:2",
          "text": "\u05d5\u05e7\u05d1\u05e6\u05ea\u05d9 \u05d0\u05ea \u05db\u05dc \u05d4\u05d2\u05d5\u05d9\u05dd \u05d5\u05d4\u05d5\u05e8\u05d3\u05ea\u05d9\u05dd \u05d0\u05dc \u05e2\u05de\u05e7 \u05d9\u05d4\u05d5\u05e9\u05e4\u05d8 \u05d5\u05e0\u05e9\u05e4\u05d8\u05ea\u05d9 \u05e2\u05de\u05dd \u05e9\u05dd \u05e2\u05dc \u05e2\u05de\u05d9 \u05d5\u05e0\u05d7\u05dc\u05ea\u05d9 \u05d9\u05e9\u05e8\u05d0\u05dc \u05d0\u05e9\u05e8 \u05e4\u05d6\u05e8\u05d5 \u05d1\u05d2\u05d5\u05d9\u05dd \u05d5\u05d0\u05ea \u05d0\u05e8\u05e6\u05d9 \u05d7\u05dc\u05e7\u05d5 "
        },
        {
          "chapter": 4,
          "verse": 3,
          "name": "Joel 4:3",
          "text": "\u05d5\u05d0\u05dc \u05e2\u05de\u05d9 \u05d9\u05d3\u05d5 \u05d2\u05d5\u05e8\u05dc \u05d5\u05d9\u05ea\u05e0\u05d5 \u05d4\u05d9\u05dc\u05d3 \u05d1\u05d6\u05d5\u05e0\u05d4 \u05d5\u05d4\u05d9\u05dc\u05d3\u05d4 \u05de\u05db\u05e8\u05d5 \u05d1\u05d9\u05d9\u05df \u05d5\u05d9\u05e9\u05ea\u05d5 "
        },
        {
          "chapter": 4,
          "verse": 4,
          "name": "Joel 4:4",
          "text": "\u05d5\u05d2\u05dd \u05de\u05d4 \u05d0\u05ea\u05dd \u05dc\u05d9 \u05e6\u05e8 \u05d5\u05e6\u05d9\u05d3\u05d5\u05df \u05d5\u05db\u05dc \u05d2\u05dc\u05d9\u05dc\u05d5\u05ea \u05e4\u05dc\u05e9\u05ea \u05d4\u05d2\u05de\u05d5\u05dc \u05d0\u05ea\u05dd \u05de\u05e9\u05dc\u05de\u05d9\u05dd \u05e2\u05dc\u05d9 \u05d5\u05d0\u05dd \u05d2\u05de\u05dc\u05d9\u05dd \u05d0\u05ea\u05dd \u05e2\u05dc\u05d9 \u05e7\u05dc \u05de\u05d4\u05e8\u05d4 \u05d0\u05e9\u05d9\u05d1 \u05d2\u05de\u05dc\u05db\u05dd \u05d1\u05e8\u05d0\u05e9\u05db\u05dd "
        },
        {
          "chapter": 4,
          "verse": 5,
          "name": "Joel 4:5",
          "text": "\u05d0\u05e9\u05e8 \u05db\u05e1\u05e4\u05d9 \u05d5\u05d6\u05d4\u05d1\u05d9 \u05dc\u05e7\u05d7\u05ea\u05dd \u05d5\u05de\u05d7\u05de\u05d3\u05d9 \u05d4\u05d8\u05d1\u05d9\u05dd \u05d4\u05d1\u05d0\u05ea\u05dd \u05dc\u05d4\u05d9\u05db\u05dc\u05d9\u05db\u05dd "
        },
        {
          "chapter": 4,
          "verse": 6,
          "name": "Joel 4:6",
          "text": "\u05d5\u05d1\u05e0\u05d9 \u05d9\u05d4\u05d5\u05d3\u05d4 \u05d5\u05d1\u05e0\u05d9 \u05d9\u05e8\u05d5\u05e9\u05dc\u05dd \u05de\u05db\u05e8\u05ea\u05dd \u05dc\u05d1\u05e0\u05d9 \u05d4\u05d9\u05d5\u05e0\u05d9\u05dd \u05dc\u05de\u05e2\u05df \u05d4\u05e8\u05d7\u05d9\u05e7\u05dd \u05de\u05e2\u05dc \u05d2\u05d1\u05d5\u05dc\u05dd "
        },
        {
          "chapter": 4,
          "verse": 7,
          "name": "Joel 4:7",
          "text": "\u05d4\u05e0\u05e0\u05d9 \u05de\u05e2\u05d9\u05e8\u05dd\u2014\u05de\u05df \u05d4\u05de\u05e7\u05d5\u05dd \u05d0\u05e9\u05e8 \u05de\u05db\u05e8\u05ea\u05dd \u05d0\u05ea\u05dd \u05e9\u05de\u05d4 \u05d5\u05d4\u05e9\u05d1\u05ea\u05d9 \u05d2\u05de\u05dc\u05db\u05dd \u05d1\u05e8\u05d0\u05e9\u05db\u05dd "
        },
        {
          "chapter": 4,
          "verse": 8,
          "name": "Joel 4:8",
          "text": "\u05d5\u05de\u05db\u05e8\u05ea\u05d9 \u05d0\u05ea \u05d1\u05e0\u05d9\u05db\u05dd \u05d5\u05d0\u05ea \u05d1\u05e0\u05d5\u05ea\u05d9\u05db\u05dd \u05d1\u05d9\u05d3 \u05d1\u05e0\u05d9 \u05d9\u05d4\u05d5\u05d3\u05d4 \u05d5\u05de\u05db\u05e8\u05d5\u05dd \u05dc\u05e9\u05d1\u05d0\u05d9\u05dd \u05d0\u05dc \u05d2\u05d5\u05d9 \u05e8\u05d7\u05d5\u05e7\u00a0 \u05db\u05d9 \u05d9\u05d4\u05d5\u05d4 \u05d3\u05d1\u05e8\u00a0 {\u05e4} "
        },
        {
          "chapter": 4,
          "verse": 9,
          "name": "Joel 4:9",
          "text": "\u05e7\u05e8\u05d0\u05d5 \u05d6\u05d0\u05ea \u05d1\u05d2\u05d5\u05d9\u05dd \u05e7\u05d3\u05e9\u05d5 \u05de\u05dc\u05d7\u05de\u05d4 \u05d4\u05e2\u05d9\u05e8\u05d5 \u05d4\u05d2\u05d1\u05d5\u05e8\u05d9\u05dd\u2014\u05d9\u05d2\u05e9\u05d5 \u05d9\u05e2\u05dc\u05d5 \u05db\u05dc \u05d0\u05e0\u05e9\u05d9 \u05d4\u05de\u05dc\u05d7\u05de\u05d4 "
        },
        {
          "chapter": 4,
          "verse": 10,
          "name": "Joel 4:10",
          "text": "\u05db\u05ea\u05d5 \u05d0\u05ea\u05d9\u05db\u05dd \u05dc\u05d7\u05e8\u05d1\u05d5\u05ea \u05d5\u05de\u05d6\u05de\u05e8\u05ea\u05d9\u05db\u05dd \u05dc\u05e8\u05de\u05d7\u05d9\u05dd \u05d4\u05d7\u05dc\u05e9 \u05d9\u05d0\u05de\u05e8 \u05d2\u05d1\u05d5\u05e8 \u05d0\u05e0\u05d9 "
        },
        {
          "chapter": 4,
          "verse": 11,
          "name": "Joel 4:11",
          "text": "\u05e2\u05d5\u05e9\u05d5 \u05d5\u05d1\u05d0\u05d5 \u05db\u05dc \u05d4\u05d2\u05d5\u05d9\u05dd \u05de\u05e1\u05d1\u05d9\u05d1 \u05d5\u05e0\u05e7\u05d1\u05e6\u05d5 \u05e9\u05de\u05d4 \u05d4\u05e0\u05d7\u05ea \u05d9\u05d4\u05d5\u05d4 \u05d2\u05d1\u05d5\u05e8\u05d9\u05da "
        },
        {
          "chapter": 4,
          "verse": 12,
          "name": "Joel 4:12",
          "text": "\u05d9\u05e2\u05d5\u05e8\u05d5 \u05d5\u05d9\u05e2\u05dc\u05d5 \u05d4\u05d2\u05d5\u05d9\u05dd \u05d0\u05dc \u05e2\u05de\u05e7 \u05d9\u05d4\u05d5\u05e9\u05e4\u05d8\u00a0 \u05db\u05d9 \u05e9\u05dd \u05d0\u05e9\u05d1 \u05dc\u05e9\u05e4\u05d8 \u05d0\u05ea \u05db\u05dc \u05d4\u05d2\u05d5\u05d9\u05dd\u2014\u05de\u05e1\u05d1\u05d9\u05d1 "
        },
        {
          "chapter": 4,
          "verse": 13,
          "name": "Joel 4:13",
          "text": "\u05e9\u05dc\u05d7\u05d5 \u05de\u05d2\u05dc \u05db\u05d9 \u05d1\u05e9\u05dc \u05e7\u05e6\u05d9\u05e8 \u05d1\u05d0\u05d5 \u05e8\u05d3\u05d5 \u05db\u05d9 \u05de\u05dc\u05d0\u05d4 \u05d2\u05ea\u2014\u05d4\u05e9\u05d9\u05e7\u05d5 \u05d4\u05d9\u05e7\u05d1\u05d9\u05dd \u05db\u05d9 \u05e8\u05d1\u05d4 \u05e8\u05e2\u05ea\u05dd "
        },
        {
          "chapter": 4,
          "verse": 14,
          "name": "Joel 4:14",
          "text": "\u05d4\u05de\u05d5\u05e0\u05d9\u05dd \u05d4\u05de\u05d5\u05e0\u05d9\u05dd \u05d1\u05e2\u05de\u05e7 \u05d4\u05d7\u05e8\u05d5\u05e5\u00a0 \u05db\u05d9 \u05e7\u05e8\u05d5\u05d1 \u05d9\u05d5\u05dd \u05d9\u05d4\u05d5\u05d4 \u05d1\u05e2\u05de\u05e7 \u05d4\u05d7\u05e8\u05d5\u05e5 "
        },
        {
          "chapter": 4,
          "verse": 15,
          "name": "Joel 4:15",
          "text": "\u05e9\u05de\u05e9 \u05d5\u05d9\u05e8\u05d7 \u05e7\u05d3\u05e8\u05d5 \u05d5\u05db\u05d5\u05db\u05d1\u05d9\u05dd \u05d0\u05e1\u05e4\u05d5 \u05e0\u05d2\u05d4\u05dd "
        },
        {
          "chapter": 4,
          "verse": 16,
          "name": "Joel 4:16",
          "text": "\u05d5\u05d9\u05d4\u05d5\u05d4 \u05de\u05e6\u05d9\u05d5\u05df \u05d9\u05e9\u05d0\u05d2 \u05d5\u05de\u05d9\u05e8\u05d5\u05e9\u05dc\u05dd \u05d9\u05ea\u05df \u05e7\u05d5\u05dc\u05d5 \u05d5\u05e8\u05e2\u05e9\u05d5 \u05e9\u05de\u05d9\u05dd \u05d5\u05d0\u05e8\u05e5 \u05d5\u05d9\u05d4\u05d5\u05d4 \u05de\u05d7\u05e1\u05d4 \u05dc\u05e2\u05de\u05d5 \u05d5\u05de\u05e2\u05d5\u05d6 \u05dc\u05d1\u05e0\u05d9 \u05d9\u05e9\u05e8\u05d0\u05dc "
        },
        {
          "chapter": 4,
          "verse": 17,
          "name": "Joel 4:17",
          "text": "\u05d5\u05d9\u05d3\u05e2\u05ea\u05dd \u05db\u05d9 \u05d0\u05e0\u05d9 \u05d9\u05d4\u05d5\u05d4 \u05d0\u05dc\u05d4\u05d9\u05db\u05dd \u05e9\u05db\u05df \u05d1\u05e6\u05d9\u05d5\u05df \u05d4\u05e8 \u05e7\u05d3\u05e9\u05d9 \u05d5\u05d4\u05d9\u05ea\u05d4 \u05d9\u05e8\u05d5\u05e9\u05dc\u05dd \u05e7\u05d3\u05e9 \u05d5\u05d6\u05e8\u05d9\u05dd \u05dc\u05d0 \u05d9\u05e2\u05d1\u05e8\u05d5 \u05d1\u05d4 \u05e2\u05d5\u05d3\u00a0 {\u05e1} "
        },
        {
          "chapter": 4,
          "verse": 18,
          "name": "Joel 4:18",
          "text": "\u05d5\u05d4\u05d9\u05d4 \u05d1\u05d9\u05d5\u05dd \u05d4\u05d4\u05d5\u05d0 \u05d9\u05d8\u05e4\u05d5 \u05d4\u05d4\u05e8\u05d9\u05dd \u05e2\u05e1\u05d9\u05e1 \u05d5\u05d4\u05d2\u05d1\u05e2\u05d5\u05ea \u05ea\u05dc\u05db\u05e0\u05d4 \u05d7\u05dc\u05d1 \u05d5\u05db\u05dc \u05d0\u05e4\u05d9\u05e7\u05d9 \u05d9\u05d4\u05d5\u05d3\u05d4 \u05d9\u05dc\u05db\u05d5 \u05de\u05d9\u05dd \u05d5\u05de\u05e2\u05d9\u05df \u05de\u05d1\u05d9\u05ea \u05d9\u05d4\u05d5\u05d4 \u05d9\u05e6\u05d0 \u05d5\u05d4\u05e9\u05e7\u05d4 \u05d0\u05ea \u05e0\u05d7\u05dc \u05d4\u05e9\u05d8\u05d9\u05dd "
        },
        {
          "chapter": 4,
          "verse": 19,
          "name": "Joel 4:19",
          "text": "\u05de\u05e6\u05e8\u05d9\u05dd \u05dc\u05e9\u05de\u05de\u05d4 \u05ea\u05d4\u05d9\u05d4 \u05d5\u05d0\u05d3\u05d5\u05dd \u05dc\u05de\u05d3\u05d1\u05e8 \u05e9\u05de\u05de\u05d4 \u05ea\u05d4\u05d9\u05d4 \u05de\u05d7\u05de\u05e1 \u05d1\u05e0\u05d9 \u05d9\u05d4\u05d5\u05d3\u05d4 \u05d0\u05e9\u05e8 \u05e9\u05e4\u05db\u05d5 \u05d3\u05dd \u05e0\u05e7\u05d9\u05d0 \u05d1\u05d0\u05e8\u05e6\u05dd "
        },
        {
          "chapter": 4,
          "verse": 20,
          "name": "Joel 4:20",
          "text": "\u05d5\u05d9\u05d4\u05d5\u05d3\u05d4 \u05dc\u05e2\u05d5\u05dc\u05dd \u05ea\u05e9\u05d1 \u05d5\u05d9\u05e8\u05d5\u05e9\u05dc\u05dd \u05dc\u05d3\u05d5\u05e8 \u05d5\u05d3\u05d5\u05e8 "
        },
        {
          "chapter": 4,
          "verse": 21,
          "name": "Joel 4:21",
          "text": "\u05d5\u05e0\u05e7\u05d9\u05ea\u05d9 \u05d3\u05de\u05dd \u05dc\u05d0 \u05e0\u05e7\u05d9\u05ea\u05d9 \u05d5\u05d9\u05d4\u05d5\u05d4 \u05e9\u05db\u05df \u05d1\u05e6\u05d9\u05d5\u05df\u00a0 {\u05e9}   "
        }
      ]
    }
  ]
}
