{
    "translation": "Douay Rheims",
    "abbreviation": "douayrheims",
    "lang": "en",
    "language": "English",
    "direction": "LTR",
    "encoding": "",
    "book_nr": 12,
    "book_name": "2 Kings",
    "chapter": 14,
    "name": "2 Kings 14",
    "verses": [
        {
            "chapter": 14,
            "verse": 1,
            "name": "2 Kings 14:1",
            "text": "In the second year of Joas son of Joachaz, king of Israel, reigned Amasias son of Joas, king of Juda."
        },
        {
            "chapter": 14,
            "verse": 2,
            "name": "2 Kings 14:2",
            "text": "He was five and twenty years old when he began to reign; and nine and twenty years he reigned in Jerusalem; the name of his mother was Joadan, of Jerusalem."
        },
        {
            "chapter": 14,
            "verse": 3,
            "name": "2 Kings 14:3",
            "text": "And he did that which was right before the Lord, but yet not like David his father. He did according to all things that Joas his father, did:"
        },
        {
            "chapter": 14,
            "verse": 4,
            "name": "2 Kings 14:4",
            "text": "But this only, that he took not away the high places; for yet the people sacrificed, and burnt incense in the high places:"
        },
        {
            "chapter": 14,
            "verse": 5,
            "name": "2 Kings 14:5",
            "text": "And when he had possession of the kingdom, he put his servants to death that had slain the king, his father."
        },
        {
            "chapter": 14,
            "verse": 6,
            "name": "2 Kings 14:6",
            "text": "But the children of the murderers he did not put to death, according to that which is written in the book of the law of Moses, wherein the Lord commanded, saying: The fathers shall not be put to death for the children, neither shall the children be put to death for the fathers: but every man shall die for his own sin."
        },
        {
            "chapter": 14,
            "verse": 7,
            "name": "2 Kings 14:7",
            "text": "He slew of Edom in the valley of the Saltpits, ten thousand men, and took the rock by war, and called the name thereof Jectehel, unto this day."
        },
        {
            "chapter": 14,
            "verse": 8,
            "name": "2 Kings 14:8",
            "text": "Then Amasias sent messengers to Joas, son of Joachaz, son of Jehu, king of Israel, saying: Come, let us see one another."
        },
        {
            "chapter": 14,
            "verse": 9,
            "name": "2 Kings 14:9",
            "text": "And Joas, king of Israel, sent again to Amasias, king of Juda, saying: A thistle of Libanus sent to a cedar tree, which is in Libanus, saying: Give thy daughter to my son to wife. And the beasts of the forest, that are in Libanus, passed, and trod down the thistle."
        },
        {
            "chapter": 14,
            "verse": 10,
            "name": "2 Kings 14:10",
            "text": "Thou hast beaten and prevailed over Edom, and thy heart hath lifted thee up; be content with this glory, and sit at home; why provokest thou evil, that thou shouldst fall, and Juda with thee?"
        },
        {
            "chapter": 14,
            "verse": 11,
            "name": "2 Kings 14:11",
            "text": "But Amasias did not rest satisfied. So Joas, king of Israel, went up; and he and Amasias, king of Juda, saw one another in Bethsames, a town in Juda."
        },
        {
            "chapter": 14,
            "verse": 12,
            "name": "2 Kings 14:12",
            "text": "And Juda was put to the worse before Israel, and they fled every man to their dwellings."
        },
        {
            "chapter": 14,
            "verse": 13,
            "name": "2 Kings 14:13",
            "text": "But Joas, king of Israel, took Amasias, king of Juda, the son of Joas, the son of Ochozias, in Bethsames, and brought him into Jerusalem; and he broke down the wall of Jerusalem, from the gate of Ephraim to the gate of the corner, four hundred cubits."
        },
        {
            "chapter": 14,
            "verse": 14,
            "name": "2 Kings 14:14",
            "text": "And he took all the gold and silver, and all the vessels that were found in the house of the Lord, and in the king's treasures, and hostages, and returned to Samaria."
        },
        {
            "chapter": 14,
            "verse": 15,
            "name": "2 Kings 14:15",
            "text": "But the rest of the acts of Joas, which he did, and his valour, wherewith he fought against Amasias, king of Juda, are they not written in the book of the words of the days of the kings of Israel?"
        },
        {
            "chapter": 14,
            "verse": 16,
            "name": "2 Kings 14:16",
            "text": "And Joas slept with his fathers, and was buried in Samaria, with the kings of Israel: and Jeroboam, his son, reigned in his stead."
        },
        {
            "chapter": 14,
            "verse": 17,
            "name": "2 Kings 14:17",
            "text": "And Amasias, the son of Joas, king of Juda, lived after the death of Joas, son of Joachaz, king of Israel, fifteen years."
        },
        {
            "chapter": 14,
            "verse": 18,
            "name": "2 Kings 14:18",
            "text": "And the rest of the acts of Amasias, are they not written in the book of the words of the days of the kings of Juda?"
        },
        {
            "chapter": 14,
            "verse": 19,
            "name": "2 Kings 14:19",
            "text": "Now they made a conspiracy against him in Jerusalem: and he fled to Lachis. And they sent after him to Lachis, and killed him there."
        },
        {
            "chapter": 14,
            "verse": 20,
            "name": "2 Kings 14:20",
            "text": "And they brought him away upon horses, and he was buried in Jerusalem with his fathers, in the city of David."
        },
        {
            "chapter": 14,
            "verse": 21,
            "name": "2 Kings 14:21",
            "text": "And all the people of Juda took Azarias, who was sixteen years old, and made him king instead of his father, Amasias."
        },
        {
            "chapter": 14,
            "verse": 22,
            "name": "2 Kings 14:22",
            "text": "He built Elath, and restored it to Juda, after that the king slept with his fathers."
        },
        {
            "chapter": 14,
            "verse": 23,
            "name": "2 Kings 14:23",
            "text": "In the fifteenth year of Amasias, son of Joas, king of Juda, reigned Jeroboam, the son of Joas, king of Israel, in Samaria, one and forty years:"
        },
        {
            "chapter": 14,
            "verse": 24,
            "name": "2 Kings 14:24",
            "text": "And he did that which is evil before the Lord. He departed not from all the sins of Jeroboam, the son of Nabat, who made Israel to sin."
        },
        {
            "chapter": 14,
            "verse": 25,
            "name": "2 Kings 14:25",
            "text": "He restored the borders of Israel from the entrance of Emath, unto the sea of the wilderness, according to the word of the Lord, the God of Israel, which he spoke by his servant, Jonas, the son of Amathi, the prophet, who was of Geth, which is in Opher."
        },
        {
            "chapter": 14,
            "verse": 26,
            "name": "2 Kings 14:26",
            "text": "For the Lord saw the affliction of Israel, that it was exceedingly bitter, and that they were consumed even to them that were shut up in prison, and the lowest persons, and that there was no one to help Israel."
        },
        {
            "chapter": 14,
            "verse": 27,
            "name": "2 Kings 14:27",
            "text": "And the Lord did not say that he would blot out the name of Israel from under heaven; but he saved them by the hand of Jeroboam, the son of Joas."
        },
        {
            "chapter": 14,
            "verse": 28,
            "name": "2 Kings 14:28",
            "text": "But the rest of the acts of Jeroboam, and all that he did, and his valour, wherewith he fought, and how he restored Damascus and Emath to Juda, in Israel, are they not written in the book of the words of the days of the kings of Israel?"
        },
        {
            "chapter": 14,
            "verse": 29,
            "name": "2 Kings 14:29",
            "text": "And Jeroboam slept with his fathers, the kings of Israel; and Zacharias, his son, reigned in his stead. "
        }
    ]
}