{
    "translation": "The Orthodox Jewish Brit Chadasha",
    "abbreviation": "orthjbc",
    "lang": "en",
    "language": "English",
    "direction": "LTR",
    "encoding": "",
    "book_nr": 66,
    "book_name": "Revelation of John",
    "chapter": 13,
    "name": "Revelation of John 13",
    "verses": [
        {
            "chapter": 13,
            "verse": 1,
            "name": "Revelation of John 13:1",
            "text": "And I saw out of the yam a Chayyah coming up, having eser  horns and sheva heads and on the horns of it asarah (ten) diadems and on the heads of it names of Chillul Hashem gidufim (blasphemies). [Daniel 7:1-6; 11:36]"
        },
        {
            "chapter": 13,
            "verse": 2,
            "name": "Revelation of John 13:2",
            "text": "And the Chayyah which I saw was like a namer (leopard) and the feet of it as a dov (bear) and the mouth of it as the mouth of an aryeh and the Dragon Nachash gave to it its ko'ach and  its kisseh and great samchut (authority). [Daniel 7:6,5,4]"
        },
        {
            "chapter": 13,
            "verse": 3,
            "name": "Revelation of John 13:3",
            "text": "And one of its roshim seemed to have received a mortal wound and to have been slain, and the wound causing its mavet was  healed, and kol ha'aretz marveled, following after the Chayyah."
        },
        {
            "chapter": 13,
            "verse": 4,
            "name": "Revelation of John 13:4",
            "text": "And they worshiped the Dragon Nachash, because he gave his memshalah (governing authority) to the Chayyah, and they worshiped the Chayyah, saying, \"Who is like the Chayyah?\" \"And who is able to make war with it?\" [Shemot 15:11]"
        },
        {
            "chapter": 13,
            "verse": 5,
            "name": "Revelation of John 13:5",
            "text": "And a PEH [Daniel 7:8,20] was given to it saying haughty  words and Chillul Hashem gidufim (blasphemies), and was given to  it ko'ach to act for shnayim and aba'im (two and forty) chodashim [Daniel 7:8,11,20,25; 11;36]."
        },
        {
            "chapter": 13,
            "verse": 6,
            "name": "Revelation of John 13:6",
            "text": "And it opened the PEH of it in Chillul Hashem gidufim (blasphemies) against Hashem to blaspheme ha-Shem of him and the Mishkan of him, that is, the ones tabernacling in Shomayim."
        },
        {
            "chapter": 13,
            "verse": 7,
            "name": "Revelation of John 13:7",
            "text": "And was given to it to make milkhamah (war) with the kedoshim and to overcome the kedoshim, and was given to it samchut (authority) over every shevet and am and lashon and goy. [Daniel 7:21]"
        },
        {
            "chapter": 13,
            "verse": 8,
            "name": "Revelation of John 13:8",
            "text": "And all the ones dwelling on ha'aretz will worship it, whose name has not been written in the Sefer HaChayyim of the Seh  (Lamb, Yeshayah 53:7) having been slain from lifnei hivvased tevel (before the foundaiton of the world)."
        },
        {
            "chapter": 13,
            "verse": 9,
            "name": "Revelation of John 13:9",
            "text": "If anyone has an ear let him hear."
        },
        {
            "chapter": 13,
            "verse": 10,
            "name": "Revelation of John 13:10",
            "text": "If anyone is to go LA'SHVEE (into captivity) into LA'SHVEE (captivity) he goes. If anyone is to be killed by a cherev, he by a cherev is to be killed.  Here is the savlanut (patient endurance) and the emunah of the kedoshim. [Yirmeyah 15:2; 43:11]"
        },
        {
            "chapter": 13,
            "verse": 11,
            "name": "Revelation of John 13:11",
            "text": "And I saw another Chayyah coming up out of ha'aretz, and it had shtey horns like a Seh (Lamb, Yeshayah 53:7), and it was speaking like a Dragon Nachash."
        },
        {
            "chapter": 13,
            "verse": 12,
            "name": "Revelation of John 13:12",
            "text": "And all the samchut (authority) of the Chayyah HaRishonah it exercises on its behalf, and it causes ha'aretz and the ones  dwelling on it to worship the Chayyah HaRishonah whose wound of death was healed."
        },
        {
            "chapter": 13,
            "verse": 13,
            "name": "Revelation of John 13:13",
            "text": "And it does otot gedolim, even making aish (fire) come down out of Shomayim to ha'aretz before bnei Adam. [Melachim Alef  18:38; Melachim Bais 1:10]"
        },
        {
            "chapter": 13,
            "verse": 14,
            "name": "Revelation of John 13:14",
            "text": "And it leads kol ha'aretz into hona'ah (deception) because  of the otot which were given to it to perform before the Chayyah, telling the ones dwelling on ha'aretz to make an Etzev (idol, image, PESEL, graven image, tzelem, Yeshayah 21:9) to the Chayyah who has the wound of the cherev and yet came alive again."
        },
        {
            "chapter": 13,
            "verse": 15,
            "name": "Revelation of John 13:15",
            "text": "And it was given to it to give breath to the Etzev (idol, image, PESEL, graven image, tzelem, Yeshayah 21:9) of the Chayyah that the Etzev of the Chayyah might even speak and might cause  that as many as would not worship the Etzev of the Chayyah to be killed and to die al kiddush Hashem. [Daniel 3:3-6]"
        },
        {
            "chapter": 13,
            "verse": 16,
            "name": "Revelation of John 13:16",
            "text": "And it causes all, the ketanim and the Gedolim, both the ashirim and aniyim, the bnei Chorim and avadim, that to them  should be given a tav [mark] on the yad yamim and on the metsakh (forehead) of them,"
        },
        {
            "chapter": 13,
            "verse": 17,
            "name": "Revelation of John 13:17",
            "text": "and that no one should be able to buy or to sell except the one having the tav [mark], the name of the Chayyah or the number of its name. \n RECHEN (CALCULATE) THE GEMATRIA TO DISCOVER THE IDENTITY OF THE ANTI-MOSHIACH: NOON, RESH, CHOLAM-VAV, FINAL NOON (NERO) PLUS KOOF, SAMECH, RESH (CAESAR) = SHESH ME'OT V'SHISHIM VASHESH (666)"
        },
        {
            "chapter": 13,
            "verse": 18,
            "name": "Revelation of John 13:18",
            "text": "Here is chochmah: the one having binah, let him do the  gematria and get the mispar of the Chayyah, for it is the mispar of the ish [Anti-Moshiach], and the mispar of it is SHESH ME'OT  V'SHISHIM VASHESH."
        }
    ]
}