{
    "translation": "\u0423\u043a\u0440\u0430\u0457\u043d\u0441\u044c\u043a\u0430 \u0411\u0456\u0431\u043b\u0456\u044f. \u041f\u0435\u0440\u0435\u043a\u043b\u0430\u0434 \u0406\u0432\u0430\u043d\u0430 \u041e\u0433\u0456\u0454\u043d\u043a\u0430.",
    "abbreviation": "ukrainian",
    "lang": "uk",
    "language": "Ukrainian",
    "direction": "LTR",
    "encoding": "UTF-8",
    "book_nr": 22,
    "book_name": "Song of Solomon",
    "chapter": 4,
    "name": "Song of Solomon 4",
    "verses": [
        {
            "chapter": 4,
            "verse": 1,
            "name": "Song of Solomon 4:1",
            "text": "\u042f\u043a\u0430 \u0442\u0438 \u043f\u0440\u0435\u043a\u0440\u0430\u0441\u043d\u0430, \u043c\u043e\u044f \u0442\u0438 \u043f\u043e\u0434\u0440\u0443\u0436\u0435\u043d\u044c\u043a\u043e, \u044f\u043a\u0430 \u0442\u0438 \u0445\u043e\u0440\u043e\u0448\u0430! \u0422\u0432\u043e\u0457 \u043e\u0447\u0435\u043d\u044f\u0442\u043a\u0430, \u043d\u0435\u043c\u043e\u0432 \u0442\u0456 \u0433\u043e\u043b\u0443\u0431\u043a\u0438, \u0433\u043b\u044f\u0434\u044f\u0442\u044c \u0437-\u0437\u0430 \u0441\u0435\u0440\u043f\u0430\u043d\u043a\u0443 \u0442\u0432\u043e\u0433\u043e! \u0422\u0432\u043e\u0457 \u043a\u043e\u0441\u0438 \u043d\u0435\u043c\u043e\u0432 \u0441\u0442\u0430\u0434\u043e \u043a\u0456\u0437, \u0449\u043e \u0445\u0432\u0438\u043b\u044f\u043c\u0438 \u0441\u0445\u043e\u0434\u044f\u0442\u044c \u0437 \u0433\u043e\u0440\u0438 \u0413\u0456\u043b\u0435\u0430\u0434\u0441\u044c\u043a\u043e\u0457!"
        },
        {
            "chapter": 4,
            "verse": 2,
            "name": "Song of Solomon 4:2",
            "text": "\u0422\u0432\u043e\u0457 \u0437\u0443\u0431\u043a\u0438 \u043d\u0435\u043c\u043e\u0432 \u0442\u0430 \u043e\u0442\u0430\u0440\u0430 \u043e\u0432\u0435\u0446\u044c \u043f\u043e\u043e\u0431\u0441\u0442\u0440\u0438\u0433\u0430\u043d\u0438\u0445, \u0449\u043e \u0437 \u043a\u0443\u043f\u0435\u043b\u044e \u0432\u0438\u0439\u0448\u043b\u0438, \u0449\u043e \u043a\u043e\u0442\u044f\u0442\u044c \u0431\u043b\u0438\u0437\u043d\u044f\u0442\u0430, \u0456 \u043c\u0456\u0436 \u043d\u0438\u043c\u0438 \u043d\u0435\u043c\u0430\u0454 \u043d\u0435\u043f\u043b\u0456\u0434\u043d\u043e\u0457..."
        },
        {
            "chapter": 4,
            "verse": 3,
            "name": "Song of Solomon 4:3",
            "text": "\u0422\u0432\u043e\u0457 \u0433\u0443\u0431\u043a\u0438 \u043d\u0435\u043c\u043e\u0432 \u043a\u0430\u0440\u043c\u0430\u0437\u0438\u043d\u043e\u0432\u0430 \u043d\u0438\u0442\u043a\u0430, \u0442\u0432\u043e\u0457 \u0443\u0441\u0442\u043e\u043d\u044c\u043a\u0430 \u043a\u0440\u0430\u0441\u043d\u0456, \u043c\u043e\u0432 \u0447\u0430\u0441\u0442\u0438\u043d\u0430 \u0433\u0440\u0430\u043d\u0430\u0442\u043d\u043e\u0433\u043e \u044f\u0431\u043b\u0443\u043a\u0430 \u0441\u043a\u0440\u043e\u043d\u044f \u0442\u0432\u043e\u044f \u0437\u0430 \u0441\u0435\u0440\u043f\u0430\u043d\u043a\u043e\u043c \u0442\u0432\u043e\u0457\u043c!"
        },
        {
            "chapter": 4,
            "verse": 4,
            "name": "Song of Solomon 4:4",
            "text": "\u0422\u0432\u043e\u044f \u0448\u0438\u044f \u043d\u0435\u043c\u043e\u0432 \u0442\u0430 \u0414\u0430\u0432\u0438\u0434\u043e\u0432\u0430 \u0431\u0430\u0448\u0442\u0430, \u043d\u0430 \u0437\u0431\u0440\u043e\u044e \u0437\u0431\u0443\u0434\u043e\u0432\u0430\u043d\u0430: \u0442\u0438\u0441\u044f\u0447\u0430 \u0449\u0438\u0442\u0456\u0432 \u043f\u043e\u0432\u0456\u0448\u0435\u043d\u0430 \u0432 \u043d\u0456\u0439, \u0443\u0441\u0435 \u0449\u0438\u0442\u0438 \u043b\u0438\u0446\u0430\u0440\u0456\u0432!"
        },
        {
            "chapter": 4,
            "verse": 5,
            "name": "Song of Solomon 4:5",
            "text": "\u0414\u0432\u0430 \u043f\u0435\u0440\u0441\u0430 \u0442\u0432\u043e\u0457 \u043c\u043e\u0432 \u0442\u0456 \u0434\u0432\u043e\u0454 \u0431\u043b\u0438\u0437\u043d\u044f\u0442 \u043c\u043e\u043b\u043e\u0434\u0438\u0445 \u0443 \u0433\u0430\u0437\u0435\u043b\u0456, \u0449\u043e \u0432\u0438\u043f\u0430\u0441\u0443\u044e\u0442\u044c\u0441\u044f \u043c\u0456\u0436 \u043b\u0456\u043b\u0435\u044f\u043c\u0438..."
        },
        {
            "chapter": 4,
            "verse": 6,
            "name": "Song of Solomon 4:6",
            "text": "\u041f\u043e\u043a\u0438 \u0434\u0435\u043d\u044c \u043f\u0440\u043e\u0445\u043e\u043b\u043e\u0434\u0443 \u043d\u0430\u0432\u0456\u0454, \u0430 \u0442\u0456\u043d\u0456 \u0432\u0442\u0435\u0447\u0443\u0442\u044c, \u043f\u0456\u0434\u0443 \u044f \u0441\u043e\u0431\u0456 \u043d\u0430 \u0442\u0443 \u043c\u0438\u0440\u0440\u0438\u043d\u0443 \u0433\u043e\u0440\u0443 \u0439 \u043d\u0430 \u043f\u0430\u0433\u0456\u0440\u043e\u043a \u043b\u0430\u0434\u0430\u043d\u0443..."
        },
        {
            "chapter": 4,
            "verse": 7,
            "name": "Song of Solomon 4:7",
            "text": "\u0423\u0441\u044f \u0442\u0438 \u043f\u0440\u0435\u043a\u0440\u0430\u0441\u043d\u0430, \u043c\u043e\u044f \u0442\u0438 \u043f\u043e\u0434\u0440\u0443\u0436\u0435\u043d\u044c\u043a\u043e, \u0456 \u043f\u043b\u044f\u043c\u0438 \u043d\u0435\u043c\u0430 \u043d\u0430 \u0442\u043e\u0431\u0456!"
        },
        {
            "chapter": 4,
            "verse": 8,
            "name": "Song of Solomon 4:8",
            "text": "\u0417\u043e \u043c\u043d\u043e\u044e \u0437 \u041b\u0456\u0432\u0430\u043d\u0443, \u043c\u043e\u044f \u043d\u0430\u0440\u0435\u0447\u0435\u043d\u0430, \u0437\u043e \u043c\u043d\u043e\u044e \u0437 \u041b\u0456\u0432\u0430\u043d\u0443 \u0442\u0438 \u043f\u0456\u0434\u0435\u0448! \u0421\u043f\u043e\u0433\u043b\u044f\u043d\u0435\u0448 \u0437 \u0432\u0435\u0440\u0448\u0438\u043d\u0438 \u0410\u043c\u0430\u043d\u0438, \u0437 \u0432\u0435\u0440\u0448\u0438\u043d\u0438 \u0421\u0435\u043d\u0456\u0440\u0443 \u0439 \u0413\u0435\u0440\u043c\u043e\u043d\u0443, \u0437 \u043b\u0435\u0433\u043e\u0432\u0438\u0449\u0430 \u043b\u0435\u0432\u0456\u0432, \u0437 \u043b\u0435\u043e\u043f\u0430\u0440\u0434\u043e\u0432\u0438\u0445 \u0433\u0456\u0440."
        },
        {
            "chapter": 4,
            "verse": 9,
            "name": "Song of Solomon 4:9",
            "text": "\u0417\u0430\u0431\u0440\u0430\u043b\u0430 \u0442\u0438 \u0441\u0435\u0440\u0446\u0435 \u043c\u0435\u043d\u0456, \u043c\u043e\u044f \u0441\u0435\u0441\u0442\u0440\u043e, \u043c\u043e\u044f \u043d\u0430\u0440\u0435\u0447\u0435\u043d\u0430, \u0437\u0430\u0431\u0440\u0430\u043b\u0430 \u0442\u0438 \u0441\u0435\u0440\u0446\u0435 \u043c\u0435\u043d\u0456 \u0441\u0430\u043c\u0438\u043c \u043e\u0447\u043a\u043e\u043c \u0441\u0432\u043e\u0457\u043c, \u0440\u0430\u0437\u043e\u0447\u043a\u043e\u043c \u043e\u0434\u043d\u0435\u043d\u044c\u043a\u0438\u043c \u043d\u0430\u043c\u0438\u0441\u0442\u0430 \u0441\u0432\u043e\u0433\u043e!..."
        },
        {
            "chapter": 4,
            "verse": 10,
            "name": "Song of Solomon 4:10",
            "text": "\u042f\u043a\u0435 \u043b\u044e\u0431\u0435 \u043a\u043e\u0445\u0430\u043d\u043d\u044f \u0442\u0432\u043e\u0454, \u043e \u0441\u0435\u0441\u0442\u0440\u0438\u0446\u0435 \u043c\u043e\u044f, \u043d\u0430\u0440\u0435\u0447\u0435\u043d\u0430! \u0421\u043a\u0456\u043b\u044c\u043a\u0438 \u043b\u0456\u043f\u0448\u0435 \u043a\u043e\u0445\u0430\u043d\u043d\u044f \u0442\u0432\u043e\u0454 \u0437\u0430 \u0432\u0438\u043d\u043e, \u0430 \u0437\u0430\u043f\u0430\u0448\u043d\u0456\u0441\u0442\u044c \u043e\u043b\u0438\u0432 \u0442\u0432\u043e\u0457\u0445 \u0437\u0430 \u0432\u0441\u0456 \u043f\u0430\u0445\u043e\u0449\u0456!..."
        },
        {
            "chapter": 4,
            "verse": 11,
            "name": "Song of Solomon 4:11",
            "text": "\u0423\u0441\u0442\u0430 \u0442\u0432\u043e\u0457 \u043a\u0440\u0430\u043f\u0430\u044e\u0442\u044c \u043c\u0435\u0434 \u0449\u0456\u043b\u044c\u043d\u0438\u043a\u043e\u0432\u0438\u0439, \u043c\u043e\u044f \u043d\u0430\u0440\u0435\u0447\u0435\u043d\u0430, \u043c\u0435\u0434 \u0456 \u043c\u043e\u043b\u043e\u043a\u043e \u043f\u0456\u0434 \u0442\u0432\u043e\u0457\u043c \u044f\u0437\u0438\u0447\u043a\u043e\u043c, \u0430 \u043f\u0430\u0445\u043e\u0449 \u043e\u0434\u0435\u0436\u0456 \u0442\u0432\u043e\u0454\u0457 \u044f\u043a \u043b\u0456\u0432\u0430\u043d\u0441\u044c\u043a\u0456 \u0442\u0456 \u043f\u0430\u0445\u043e\u0449\u0456!"
        },
        {
            "chapter": 4,
            "verse": 12,
            "name": "Song of Solomon 4:12",
            "text": "\u0417\u0430\u043c\u043a\u043d\u0435\u043d\u0438\u0439 \u0441\u0430\u0434\u043e\u043a \u0442\u043e \u0441\u0435\u0441\u0442\u0440\u0438\u0446\u044f \u043c\u043e\u044f, \u043d\u0430\u0440\u0435\u0447\u0435\u043d\u0430 \u043c\u043e\u044f \u0437\u0430\u043c\u043a\u043d\u0435\u043d\u0438\u0439 \u0441\u0430\u0434\u043e\u043a, \u0434\u0436\u0435\u0440\u0435\u043b\u043e \u0437\u0430\u043f\u0435\u0447\u0430\u0442\u0430\u043d\u0435..."
        },
        {
            "chapter": 4,
            "verse": 13,
            "name": "Song of Solomon 4:13",
            "text": "\u041b\u043e\u043d\u043e \u0442\u0432\u043e\u0454 \u0441\u0430\u0434 \u0433\u0440\u0430\u043d\u0430\u0442\u043e\u0432\u0438\u0445 \u044f\u0431\u043b\u0443\u043a \u0437 \u043f\u043b\u043e\u0434\u043e\u043c \u0434\u043e\u0441\u043a\u043e\u043d\u0430\u043b\u0438\u043c, \u043a\u0438\u043f\u0440\u0438 \u0456\u0437 \u043d\u0430\u0440\u0434\u0430\u043c\u0438,"
        },
        {
            "chapter": 4,
            "verse": 14,
            "name": "Song of Solomon 4:14",
            "text": "\u043d\u0430\u0440\u0434 \u0456 \u0448\u0430\u0444\u0440\u0430\u043d, \u043f\u0430\u0445\u0443\u0447\u0430 \u0442\u0440\u043e\u0441\u0442\u0438\u043d\u0430 \u0439 \u043a\u043e\u0440\u0438\u0446\u044f \u0437 \u0443\u0441\u0456\u043c\u0430 \u0434\u0435\u0440\u0435\u0432\u0430\u043c\u0438 \u043b\u0430\u0434\u0430\u043d\u0443, \u043c\u0438\u0440\u0440\u0430 \u0439 \u0430\u043b\u043e\u0435 \u0437\u043e \u0432\u0441\u0456\u043c\u0430 \u043d\u0430\u0439\u0437\u0430\u043f\u0430\u0448\u043d\u0456\u0448\u0438\u043c\u0438 \u043f\u0430\u0445\u043e\u0449\u0430\u043c\u0438,"
        },
        {
            "chapter": 4,
            "verse": 15,
            "name": "Song of Solomon 4:15",
            "text": "\u0442\u0438 \u0434\u0436\u0435\u0440\u0435\u043b\u043e \u0441\u0430\u0434\u043a\u043e\u0432\u0435, \u043a\u0440\u0438\u043d\u0438\u0446\u044f \u0436\u0438\u0432\u043e\u0457 \u0432\u043e\u0434\u0438, \u0442\u0430 \u0442\u0456\u0454\u0457, \u0449\u043e \u043f\u043b\u0438\u043d\u0435 \u0437 \u041b\u0438\u0432\u0430\u043d\u0443!..."
        },
        {
            "chapter": 4,
            "verse": 16,
            "name": "Song of Solomon 4:16",
            "text": "\u041f\u0440\u043e\u043a\u0438\u043d\u044c\u0441\u044f, \u043e \u0432\u0456\u0442\u0440\u0435 \u0437 \u043f\u0456\u0432\u043d\u043e\u0447\u0456, \u0456 \u043f\u0440\u0438\u043b\u0438\u043d\u044c, \u0432\u0456\u0442\u0440\u0435 \u0437 \u043f\u043e\u043b\u0443\u0434\u043d\u044f, \u043f\u043e\u0432\u0456\u0439 \u043d\u0430 \u0441\u0430\u0434\u043e\u043a \u043c\u0456\u0439: \u043d\u0435\u0445\u0430\u0439 \u043f\u043e\u0442\u0435\u0447\u0443\u0442\u044c \u0439\u043e\u0433\u043e \u043f\u0430\u0445\u043e\u0449\u0456! \u0425\u0430\u0439 \u043a\u043e\u0445\u0430\u043d\u0438\u0439 \u043c\u0456\u0439 \u043f\u0440\u0438\u0439\u0434\u0435 \u0434\u043e \u0441\u0430\u0434\u0443 \u0441\u0432\u043e\u0433\u043e, \u0456 \u043d\u0435\u0445\u0430\u0439 \u0441\u043f\u043e\u0436\u0438\u0432\u0435 \u043f\u043b\u0456\u0434 \u043d\u0430\u0439\u043a\u0440\u0430\u0449\u0438\u0439 \u0439\u043e\u0433\u043e!... "
        }
    ]
}