{
    "translation": "Japanese Raguet-yaku \u30e9\u30b2\u8a33\u300c\u6211\u4e3b\u30a4\u30a8\u30ba\u30b9\u30ad\u30ea\u30b9\u30c8\u306e\u65b0\u7d04\u8056\u66f8\u300d(1910\u5e74\u7248)",
    "abbreviation": "japraguet",
    "lang": "ja",
    "language": "Japanese",
    "direction": "LTR",
    "encoding": "UTF-8",
    "book_nr": 46,
    "book_name": "1 Corinthians",
    "chapter": 9,
    "name": "1 Corinthians 9",
    "verses": [
        {
            "chapter": 9,
            "verse": 1,
            "name": "1 Corinthians 9:1",
            "text": "  \u6211\u306f\u81ea\u7531\u306e\u8eab\u306a\u3089\u305a\u3084\u3001\u4f7f\u5f92\u306a\u3089\u305a\u3084\u3001\u6211\u4e3b\u30a4\u30a8\u30ba\u30b9\u3001\u30ad\u30ea\u30b9\u30c8\u3092\u898b\u5949\u308a\u3057\u306b\u975e\u305a\u3084\u3001\u6c5d\u7b49\u304c\u4e3b\u306b\u5728\u308b\u306f\u3001\u6211\u696d\u306a\u3089\u305a\u3084\u3002"
        },
        {
            "chapter": 9,
            "verse": 2,
            "name": "1 Corinthians 9:2",
            "text": "\u6211\u5047\u4ee4\u4ed6\u306e\u4eba\u306b\u53d6\u308a\u3066\u306f\u4f7f\u5f92\u306b\u975e\u305a\u3068\u3059\u308b\u3082\u3001\u6c5d\u7b49\u306b\u306f\u4f7f\u5f92\u306a\u308a\u3001\u5176\u306f\u6c5d\u7b49\u306f\u4e3b\u306b\u65bc\u3066\u6211\u4f7f\u5f92\u8077\u306e\u5370\u7ae0\u306a\u308c\u3070\u306a\u308a\u3002"
        },
        {
            "chapter": 9,
            "verse": 3,
            "name": "1 Corinthians 9:3",
            "text": "\u6211\u306b\u554f\u3075\u4eba\u3005\u306b\u5c0d\u3059\u308b\u6211\u7b54\u5f01\u306f\u5176\u306a\u308a\u3002"
        },
        {
            "chapter": 9,
            "verse": 4,
            "name": "1 Corinthians 9:4",
            "text": "\u7136\u3066\u6211\u7b49\u306f\u98f2\u98df\u3059\u308b\u6a29\u306a\u304d\u304b\u3001"
        },
        {
            "chapter": 9,
            "verse": 5,
            "name": "1 Corinthians 9:5",
            "text": "\u4ed6\u306e\u4f7f\u5f92\u7b49\u3001\u4e3b\u306e\u5144\u5f1f\u7b49\u53ca\u3073\u30b1\u30d5\u30a1\u306e\u5982\u304f\u3001\u59c9\u59b9\u306a\u308b\u5a66\u3092\u643a\u3075\u308b\u6a29\u306a\u304d\u304b\u3001"
        },
        {
            "chapter": 9,
            "verse": 6,
            "name": "1 Corinthians 9:6",
            "text": "\u53c8\u552f\u6211\u4e00\u4eba\u3068\u30d0\u30eb\u30ca\u30d0\u3068\u306e\u307f\u52de\u50cd\u305b\u3056\u308b\u6a29\u306a\u304d\u304b\u3002"
        },
        {
            "chapter": 9,
            "verse": 7,
            "name": "1 Corinthians 9:7",
            "text": "\u8ab0\u304b\u81ea\u3089\u8cbb\u7528\u3092\u5f01\u3058\u3066\u8ecd\u306b\u51fa\u3065\u308b\u8005\u3042\u3089\u3093\u3084\u3001\u8ab0\u304b\u8461\u8404\u5712\u3092\u690d\u3091\u3066\u5176\u679c\u3092\u98df\u305b\u3056\u308b\u8005\u3042\u3089\u3093\u3084\u3001\u8ab0\u304b\u7fa4\u3092\u7267\u3057\u3066\u7fa4\u306e\u4e73\u3092\u98f2\u307e\u3056\u308b\u8005\u3042\u3089\u3093\u3084\u3002"
        },
        {
            "chapter": 9,
            "verse": 8,
            "name": "1 Corinthians 9:8",
            "text": "\u6211\u8c48\u4eba\u9593\u306e\u901a\u4f8b\u306b\u7531\u308a\u3066\u306e\u307f\u65af\u308b\u4e8b\u3092\u8a00\u306f\u3093\u3084\u3001\u5f8b\u6cd5\u3082\u65af\u304f\u4e91\u3075\u306b\u975e\u305a\u3084\u3002"
        },
        {
            "chapter": 9,
            "verse": 9,
            "name": "1 Corinthians 9:9",
            "text": "\u5373\u3061\u30e2\u30a4\u30bc\u306e\u5f8b\u6cd5\u306b\u9332\u3057\u3066\u3001\u300c\u6c5d\u7a40\u7269\u3092\u8e0f\u78be\u3059\u725b\u306e\u53e3\u3092\u7d50\u3076\u4e8b\u52ff\u308c\u300d\u3001\u3068\u3042\u308a\u3001\u795e\u306f\u725b\u306e\u70ba\u306b\u616e\u308a\u7d66\u3078\u308b\u304b\u3001"
        },
        {
            "chapter": 9,
            "verse": 10,
            "name": "1 Corinthians 9:10",
            "text": "\u4e4b\u3092\u66f0\u3078\u308b\u306f\u5be6\u306b\u6211\u7b49\u306e\u70ba\u306a\u308b\u304b\u3001\u7136\u308a\u6211\u7b49\u306e\u70ba\u306b\u9332\u3055\u308c\u305f\u308b\u306a\u308a\u3002\u84cb\u8015\u3059\u8005\u306f\u5e0c\u671b\u3092\u4ee5\u3066\u8015\u3057\u3001\u7a40\u7269\u3092\u8e0f\u78be\u3059\u8005\u3082\u5176\u679c\u3092\u5f97\u308b\u306e\u5e0c\u671b\u3092\u4ee5\u3066\u3059\u3079\u304d\u306a\u308a\u3002"
        },
        {
            "chapter": 9,
            "verse": 11,
            "name": "1 Corinthians 9:11",
            "text": "\u6c5d\u7b49\u306e\u4e2d\u306b\u970a\u7684\u306e\u7269\u3092\u8494\u304d\u305f\u308b\u6211\u7b49\u306a\u308c\u3070\u3001\u6c5d\u7b49\u306e\u8089\u7684\u306e\u7269\u3092\u5208\u53d6\u308b\u3068\u3082\u3001\u8c48\u5927\u4e8b\u306a\u3089\u3093\u3084\u3002"
        },
        {
            "chapter": 9,
            "verse": 12,
            "name": "1 Corinthians 9:12",
            "text": "\u4ed6\u306e\u4eba\u6c5d\u7b49\u306e\u4e0a\u306b\u5176\u6a29\u3092\u6709\u3059\u308b\u306b\u3001\u6211\u7b49\u4f55\u3092\u4ee5\u3066\u304b\u4e00\u5c64\u7136\u3089\u3056\u3089\u3093\u3084\u3002\u7136\u308c\u3069\u3082\u6211\u7b49\u306f\u6b64\u6a29\u3092\u5229\u7528\u305b\u305a\u3057\u3066\u3001\u804a\u3082\u30ad\u30ea\u30b9\u30c8\u306e\u798f\u97f3\u3092\u59a8\u3052\u3056\u3089\u3093\u70ba\u306b\u3001\u4f55\u4e8b\u3092\u3082\u5fcd\u3076\u306a\u308a\u3002"
        },
        {
            "chapter": 9,
            "verse": 13,
            "name": "1 Corinthians 9:13",
            "text": "\u6c5d\u7b49\u77e5\u3089\u305a\u3084\u3001\u8056\u8077\u3092\u55b6\u3080\u4eba\u3005\u306f[\u8056]\u6bbf\u306e\u7269\u3092\u98df\u3057\u3001\u53c8\u796d\u58c7\u306b\u4e8b\u3075\u308b\u4eba\u3005\u306f\u796d\u58c7\u306e\u5206\u914d\u306b\u8207\u308b\u3002"
        },
        {
            "chapter": 9,
            "verse": 14,
            "name": "1 Corinthians 9:14",
            "text": "\u65af\u306e\u5982\u304f\u3001\u4e3b\u3082\u4ea6\u798f\u97f3\u3092\u5ba3\u3076\u308b\u4eba\u3005\u304c\u798f\u97f3\u306b\u7531\u308a\u3066\u751f\u6d3b\u3059\u308b\u4e8b\u3092\u5b9a\u3081\u7d66\u3072\u3057\u306a\u308a\u3002"
        },
        {
            "chapter": 9,
            "verse": 15,
            "name": "1 Corinthians 9:15",
            "text": "\u6211\u65af\u308b\u4e8b\u3092\u4e00\u3082\u5229\u7528\u305b\u3056\u308a\u3057\u306b\u3001\u800c\u3082\u4e4b\u3092\u66f8\u9001\u308b\u306f\u3001\u65af\u306e\u5982\u304f\u70ba\u3089\u308c\u3093\u3068\u306b\u306f\u975e\u305a\u3001\u5176\u306f\u6b64\u540d\u8a89\u306e\u9ede\u3092\u4eba\u306b\u596a\u306f\u308b\u308b\u3088\u308a\u306f\u3001\u5be7\u6b7b\u3059\u308b\u3053\u305d\u6211\u306b\u53d6\u308a\u3066\u5584\u3051\u308c\u3070\u306a\u308a\u3002"
        },
        {
            "chapter": 9,
            "verse": 16,
            "name": "1 Corinthians 9:16",
            "text": "\u84cb\u798f\u97f3\u3092\u5ba3\u3076\u308b\u3082\u3001\u4e4b\u3092\u4ee5\u3066\u540d\u8a89\u3068\u3059\u308b\u306b\u975e\u305a\u3001\u6211\u306f\u5176\u5fc5\u8981\u306b\u8feb\u308c\u308b\u306a\u308a\u3002\u798f\u97f3\u3092\u5ba3\u50b3\u3078\u3056\u3089\u3093\u306f\u3001\u6211\u306b\u53d6\u308a\u3066\u798d\u306a\u308c\u3070\u306a\u308a\u3002"
        },
        {
            "chapter": 9,
            "verse": 17,
            "name": "1 Corinthians 9:17",
            "text": "\u5373\u3061\u5feb\u304f\u4e4b\u3092\u70ba\u305b\u3070\u5831\u3092\u5f97\u3001\u5fc3\u306a\u3089\u305a\u4e4b\u3092\u70ba\u3059\u3082\u3001\u5176\u52d9\u306f\u6211\u306b\u59d4\u306d\u3089\u308c\u305f\u308b\u306a\u308a\u3002"
        },
        {
            "chapter": 9,
            "verse": 18,
            "name": "1 Corinthians 9:18",
            "text": "\u7136\u3089\u3070\u6211\u5831\u306f\u5982\u4f55\u306a\u308b\u3082\u306e\u305e\u3001\u5176\u306f\u798f\u97f3\u3092\u5ba3\u3079\u3066\u3001\u4eba\u306b\u8cbb\u306a\u304f\u798f\u97f3\u3092\u5f97\u3055\u305b\u3001\u798f\u97f3\u306b\u65bc\u308b\u6211\u6a29\u3092\u5229\u7528\u305b\u3056\u308b\u4e8b\u662f\u306a\u308a\u3002"
        },
        {
            "chapter": 9,
            "verse": 19,
            "name": "1 Corinthians 9:19",
            "text": "\u84cb\u6211\u306f\u8846\u4eba\u306b\u5c0d\u3057\u3066\u81ea\u7531\u306e\u8eab\u306a\u308c\u3069\u3082\u3001\u6210\u308b\u3079\u304f\u591a\u304f\u306e\u4eba\u3092\u5132\u3051\u3093\u70ba\u306b\u3001\u8eab\u3092\u4ee5\u3066\u8846\u4eba\u306e\u5974\u96b7\u3068\u306a\u305b\u308a\u3002"
        },
        {
            "chapter": 9,
            "verse": 20,
            "name": "1 Corinthians 9:20",
            "text": "\u30e6\u30c7\u30a2\u4eba\u3092\u5132\u3051\u3093\u70ba\u306b\u306f\u3001\u30e6\u30c7\u30a2\u4eba\u306b\u5c0d\u3057\u3066\u30e6\u30c7\u30a2\u4eba\u306e\u5982\u304f\u306b\u6210\u308a\u3001"
        },
        {
            "chapter": 9,
            "verse": 21,
            "name": "1 Corinthians 9:21",
            "text": "\u5f8b\u6cd5\u306e\u4e0b\u306b\u5728\u308b\u4eba\u3005\u3092\u5132\u3051\u3093\u70ba\u306b\u306f\u3001\u5df1\u5f8b\u6cd5\u306e\u4e0b\u306b\u5728\u3056\u308c\u3069\u3082\u3001\u5f8b\u6cd5\u306e\u4e0b\u306b\u3042\u308b\u4eba\u3005\u306b\u5c0d\u3057\u3066\u5f8b\u6cd5\u306e\u4e0b\u306b\u5728\u304c\u5982\u304f\u306b\u6210\u308a\u3001\u5f8b\u6cd5\u306a\u304d\u4eba\u3005\u3092\u5132\u3051\u3093\u70ba\u306b\u306f\u3001\u5df1\u306f\u795e\u306e\u5f8b\u6cd5\u306a\u304d\u306b\u975e\u305a\u3057\u3066\u30ad\u30ea\u30b9\u30c8\u306e\u5f8b\u6cd5\u306e\u4e0b\u306b\u5728\u3069\u3082\u3001\u5f8b\u6cd5\u306a\u304d\u4eba\u3005\u306b\u5c0d\u3057\u3066\u5f8b\u6cd5\u306a\u304d\u8005\u306e\u5982\u304f\u306b\u6210\u308a\u3001"
        },
        {
            "chapter": 9,
            "verse": 22,
            "name": "1 Corinthians 9:22",
            "text": "\u5f31\u304d\u4eba\u3005\u3092\u5132\u3051\u3093\u70ba\u306b\u306f\u3001\u5f31\u304d\u8005\u306b\u5c0d\u3057\u3066\u5f31\u304d\u8005\u3068\u6210\u308a\u3001\u5982\u4f55\u306b\u3082\u3057\u3066\u6578\u4eba\u3092\u6551\u306f\u3093\u70ba\u306b\u306f\u3001\u8846\u4eba\u306b\u5c0d\u3057\u3066\u5982\u4f55\u306a\u308b\u8005\u306b\u3082\u6210\u308c\u308a\u3002"
        },
        {
            "chapter": 9,
            "verse": 23,
            "name": "1 Corinthians 9:23",
            "text": "\u6211\u304c\u5982\u4f55\u306a\u308b\u4e8b\u3092\u3082\u798f\u97f3\u306e\u70ba\u306b\u3059\u308b\u306f\u3001\u5176\u5206\u306b\u8207\u3089\u3093\u3068\u3066\u306a\u308a\u3002  "
        },
        {
            "chapter": 9,
            "verse": 24,
            "name": "1 Corinthians 9:24",
            "text": "    \u6c5d\u7b49\u77e5\u3089\u305a\u3084\u3001\u7af6\u8d70\u306e\u5834\u3092\u8d70\u308b\u4eba\u306f\u6089\u304f\u8d70\u308b\u3068\u96d6\u3082\u3001\u8cde\u3092\u53d7\u304f\u308b\u306f\u4e00\u4eba\u306e\u307f\u3001\u6c5d\u7b49\u53d7\u3051\u5f97\u3079\u304d\u69d8\u306b\u8d70\u308c\u3002"
        },
        {
            "chapter": 9,
            "verse": 25,
            "name": "1 Corinthians 9:25",
            "text": "\u7dcf\u3066\u52dd\u8ca0\u3092\u4e89\u3075\u4eba\u306f\u842c\u4e8b\u3092\u7bc0\u3078\u614e\u3080\u3001\u800c\u3082\u5f7c\u7b49\u306f\u673d\u3064\u308b\u51a0\u3092\u5f97\u3093\u3068\u3059\u308b\u306b\u3001\u6211\u7b49\u306f\u673d\u3061\u3056\u308b\u51a0\u3092\u5f97\u3093\u3068\u3059\u3002"
        },
        {
            "chapter": 9,
            "verse": 26,
            "name": "1 Corinthians 9:26",
            "text": "\u6545\u306b\u6211\u304c\u8d70\u308b\u306f\u76ee\u7684\u306a\u304d\u304c\u5982\u304f\u306b\u306f\u975e\u305a\u3001\u6211\u304c\u6230\u3075\u306f\u7a7a\u3092\u6483\u3064\u304c\u5982\u304f\u306b\u306f\u975e\u305a\u3001"
        },
        {
            "chapter": 9,
            "verse": 27,
            "name": "1 Corinthians 9:27",
            "text": "\u800c\u3082\u6211\u308f\u304c\u9ad4\u3092\u6253\u3061\u3066\u4e4b\u3092\u5974\u96b7\u305f\u3089\u3057\u3080\u3001\u662f\u306f\u4ed6\u4eba\u3092\u6559\u3078\u3066\u81ea\u3089\u68c4\u3066\u3089\u308c\u3093\u4e8b\u3092\u61fc\u308b\u308c\u3070\u306a\u308a\u3002 "
        }
    ]
}