{
    "translation": "Bible in Pohnpeian language",
    "abbreviation": "pohnpeian",
    "lang": "pon",
    "language": "Pohnpeian",
    "direction": "LTR",
    "encoding": "UTF-8",
    "book_nr": 11,
    "book_name": "1 Kings",
    "chapter": 16,
    "name": "1 Kings 16",
    "verses": [
        {
            "chapter": 16,
            "verse": 1,
            "name": "1 Kings 16:1",
            "text": "KAUN-O mahseniong soukohp Sehu, nein Ananai, oh ketikihong mahsen pwukat ong Paasa:"
        },
        {
            "chapter": 16,
            "verse": 2,
            "name": "1 Kings 16:2",
            "text": "\u201cKowe sohte mehkot, I ahpw wiahkinuhkala kaunen nei aramas akan en Israel. Oh met ke dipadahr duwehte Seropoham oh kahrehiongehr nei aramas en Israel nan dihp. Diparail kan kahredahr ei engieng,"
        },
        {
            "chapter": 16,
            "verse": 3,
            "name": "1 Kings 16:3",
            "text": "eri, I pahn kasohrehla kowe oh omw peneinei, duwehte me I wiahiong Seropoham."
        },
        {
            "chapter": 16,
            "verse": 4,
            "name": "1 Kings 16:4",
            "text": "Kidi kan pahn kangala kisehn omw peneinei men me pahn mehla nan kahnimwo, oh menpihr kan pahn kangala mehmen me pahn mehla nansapw.\u201d  "
        },
        {
            "chapter": 16,
            "verse": 5,
            "name": "1 Kings 16:5",
            "text": "  Mehkoaros me Paasa wiadahr oh eh doadoahk kommwad koaros ntinting nan Pwuken Nanmwarki kan en Israel."
        },
        {
            "chapter": 16,
            "verse": 6,
            "name": "1 Kings 16:6",
            "text": "Paasa sipalla oh seridi nan Tirsa, oh sapwellime pwutak Elah me uhd wiliandi oh wiahla nanmwarki.  "
        },
        {
            "chapter": 16,
            "verse": 7,
            "name": "1 Kings 16:7",
            "text": "  Soukohp Sehu kohpadahr mahseno me sang rehn KAUN-O me uhwong Paasa oh eh peneinei, pwehki dihp me Paasa wiahiongehr KAUN-O. E kahngiangihada KAUN-O, kaidehk wiewia suwed kante me e wiahda, duwehte me Nanmwarki Seropoham wiadahr mwowe, ahpw pil pwehki eh kemehla en Seropoham peneinei koaros.   "
        },
        {
            "chapter": 16,
            "verse": 8,
            "name": "1 Kings 16:8",
            "text": "    Ni kaeisek weneun sounpar en mwehin Asa, nanmwarkien Suda, Elah nein Paasa wiahla nanmwarkien Israel, oh e kakaunki Tirsa erein sounpar riau."
        },
        {
            "chapter": 16,
            "verse": 9,
            "name": "1 Kings 16:9",
            "text": "Simri, emen sapwellime lapalap ako, me kin apwahpwalih ekei tehnweren nanmwarki werenansapw ako, ahpw wiahda koasoandien uhwong nanmwarkio. Rahn ehu nan Tirsa, Elah ahpw sakaula ni imwen Arsa, iei ih me kin apwahpwalih tehnpaso."
        },
        {
            "chapter": 16,
            "verse": 10,
            "name": "1 Kings 16:10",
            "text": "Simri eri pedolong nan ihmwo, oh kemehla Elah, e ahpw uhd wiliandi wiahla nanmwarki. Met wiawiher ni karieisek isuhn mwehin Asa, nanmwarkien Suda.  "
        },
        {
            "chapter": 16,
            "verse": 11,
            "name": "1 Kings 16:11",
            "text": "  Ni ahnsou me Simri wiahla nanmwarki, e ahpw mwadangete kemehla kisehn en Paasa eh peneinei koaros. Kiseh ohl oh kompoakepah koaros kamakamala."
        },
        {
            "chapter": 16,
            "verse": 12,
            "name": "1 Kings 16:12",
            "text": "Eri, e ahpw pweida me KAUN-O ketin mahsanihong soukohp Sehu pwehn padahkihong Paasa, Simri kemehla en Paasa peneinei koaros."
        },
        {
            "chapter": 16,
            "verse": 13,
            "name": "1 Kings 16:13",
            "text": "Pwehki ar kin pwongih dikedik en eni oh pwehki ar kahrehiong Israel nan dihp, Paasa oh sapwellime pwutak Elah kahredahr engieng en KAUN-O, Koht en Israel."
        },
        {
            "chapter": 16,
            "verse": 14,
            "name": "1 Kings 16:14",
            "text": "Mehkoaros me Elah wiadahr ntinting nan Pwuken Poadopoad en Nanmwarki kan en Israel.   "
        },
        {
            "chapter": 16,
            "verse": 15,
            "name": "1 Kings 16:15",
            "text": "    Ni kerieisek isuhn sounpar en mwehin Asa, nanmwarkien Suda, Simri kakaunki Tirsa nan Israel erein rahn isuh. Sounpein Israel wie mahmahweniong kahnimw Kippedon nan Pilisdia,"
        },
        {
            "chapter": 16,
            "verse": 16,
            "name": "1 Kings 16:16",
            "text": "oh ni ar rongada me Simri wiadahr koasoandien uhwong nanmwarki oh kemelahr, re ahpw wiahda wasao arail kalohk me arail kaun lapalap en sounpei, Omri, wialahr nanmwarkien Israel."
        },
        {
            "chapter": 16,
            "verse": 17,
            "name": "1 Kings 16:17",
            "text": "Omri oh nah sounpei ko mweselsang Kippedon oh kolahng mahweniong Tirsa."
        },
        {
            "chapter": 16,
            "verse": 18,
            "name": "1 Kings 16:18",
            "text": "Ni Simri eh mahsanihada me kahnimwo ohlahr, e ketilong nan kelen tehnpaso, isikada tehnpaso, e ahpw sipalla nan kisinieio."
        },
        {
            "chapter": 16,
            "verse": 19,
            "name": "1 Kings 16:19",
            "text": "Met wiawiher pwehki dihp kan me e wiahiong KAUN-O. Duwehte nanmwarkien mwowe, Seropoham, e kahngiangihkihda KAUN-O dipe kan oh pil kahrehiong mehn Israel nan dihp."
        },
        {
            "chapter": 16,
            "verse": 20,
            "name": "1 Kings 16:20",
            "text": "Mehkoaros me Simri wiadahr ntinting nan Pwuken Poadopoad en Nanmwarki kan en Israel.   "
        },
        {
            "chapter": 16,
            "verse": 21,
            "name": "1 Kings 16:21",
            "text": "    Mehn Israel kan pwalpeseng: ekei irail mwahuki Tipni, nein Kinad en wiahla nanmwarki, a ekei mwahuki Omri."
        },
        {
            "chapter": 16,
            "verse": 22,
            "name": "1 Kings 16:22",
            "text": "Ni imwilah, irail kan me mwahuki Omri ahpw pweida; Tipni mehla oh Omri wiahla nanmwarki."
        },
        {
            "chapter": 16,
            "verse": 23,
            "name": "1 Kings 16:23",
            "text": "Eri, ni kasilihsek ehun sounpar en mwehin Asa, nanmwarkien Suda, Omri wiahla nanmwarkien Israel, oh e kakaunki erein sounpar eisek riau. Ni tepin keweneun sounpar e kakaun nan Tirsa,"
        },
        {
            "chapter": 16,
            "verse": 24,
            "name": "1 Kings 16:24",
            "text": "mwuhr e ahpw uhd pwainda dohl en Sameria, e pwainkihda mwohni silper wenekid sang rehn ohl emen ede Semer. Omri eri kelehdi dohlo, kauwada kahnimw ehu wasao, oh kihong ede Sameria, eden Semer, me sapweniki dohlo mahs.  "
        },
        {
            "chapter": 16,
            "verse": 25,
            "name": "1 Kings 16:25",
            "text": "  Omri dipada ong KAUN-O laudsang dipen nanmwarkien mwowe kan."
        },
        {
            "chapter": 16,
            "verse": 26,
            "name": "1 Kings 16:26",
            "text": "Duwehte nanmwarkien mwowe Seropoham, e kahngiangihada KAUN-O, Koht en Israel, ni eh wiahda dihp oh pil kahrehiong mehn Israel nan dihp oh kahrehiong irail en pwongih dikedik en eni."
        },
        {
            "chapter": 16,
            "verse": 27,
            "name": "1 Kings 16:27",
            "text": "Mehkoaros me Omri wiadahr ntinting nan Pwuken Poadopoad en Nanmwarki kan en Israel."
        },
        {
            "chapter": 16,
            "verse": 28,
            "name": "1 Kings 16:28",
            "text": "Omri sipalla oh seridi Sameria, oh nah pwutak Eihap me uhd wiliandi wiahla nanmwarki.   "
        },
        {
            "chapter": 16,
            "verse": 29,
            "name": "1 Kings 16:29",
            "text": "    Ni kasilihsek waluhn sounpar en mwehin Asa, nanmwarkien Suda, Eihap nein Omri wiahla nanmwarkien Israel oh e kakaunki nan Sameria erein sounpar rieisek riau."
        },
        {
            "chapter": 16,
            "verse": 30,
            "name": "1 Kings 16:30",
            "text": "E wiahda dihp ong KAUN-O laudsang nanmwarkien mwowe kan."
        },
        {
            "chapter": 16,
            "verse": 31,
            "name": "1 Kings 16:31",
            "text": "E sohte itarki eh wiahda dihp me duwehte en Nanmwarki Seropoham; e ahpw pil kalaudehla oh pwoudikihda Sesepel, sapwellimen Saidon, nanmwarkien Edpaal serepein, oh pil pwongih Paal."
        },
        {
            "chapter": 16,
            "verse": 32,
            "name": "1 Kings 16:32",
            "text": "E kauwada tehnpas ehu ong Paal nan Sameria, wiahda pei sarawi ehu, oh kihlong nan tehnpaso."
        },
        {
            "chapter": 16,
            "verse": 33,
            "name": "1 Kings 16:33",
            "text": "E pil wiahda sansal en koht lih Asera. E kahngiangihada mehlel KAUN-O laudsang nanmwarki koaros en mwowe kan."
        },
        {
            "chapter": 16,
            "verse": 34,
            "name": "1 Kings 16:34",
            "text": "Nan eh mwehi Iel mehn Pedel kauwada sapahl Seriko. Nin duwen me Sosua nein Nun, kohpadahr sang rehn KAUN-O. Nein Iel pwutak, Apiram mehla ni ahnsou me e wiahda poahsoan en Seriko, oh nah pwutak tikitiko mehla ni ahnsou me e kauwada kehlo.    "
        }
    ]
}