{
    "translation": "NCV Traditional",
    "abbreviation": "cnt",
    "lang": "zh",
    "language": "",
    "direction": "LTR",
    "encoding": "UTF-8",
    "book_nr": 28,
    "book_name": "Hosea",
    "chapter": 7,
    "name": "Hosea 7",
    "verses": [
        {
            "chapter": 7,
            "verse": 1,
            "name": "Hosea 7:1",
            "text": "\u201c\u6211\u91ab\u6cbb\u4ee5\u8272\u5217\u7684\u6642\u5019\uff0c\u4ee5\u6cd5\u84ee\u7684\u7f6a\u5b7d\uff0c\u548c\u6492\u746a\u5229\u4e9e\u7684\u7f6a\u60e1\u5c31\u986f\u9732\u51fa\u4f86\uff1b\u56e0\u70ba\u4ed6\u5011\u884c\u6b3a\u8a50\uff0c\u5c0f\u5077\u5165\u5c4b\u5077\u7aca\uff0c\u5f37\u76dc\u5728\u5916\u6436\u52ab\u3002"
        },
        {
            "chapter": 7,
            "verse": 2,
            "name": "Hosea 7:2",
            "text": "\u4ed6\u5011\u5fc3\u88e1\u4e26\u672a\u60f3\u5230\uff0c\u6211\u8a18\u5f97\u4ed6\u5011\u7684\u4e00\u5207\u7f6a\u60e1\u3002\u4ed6\u5011\u6240\u4f5c\u7684\u4e00\u5207\uff0c\u73fe\u5728\u90fd\u570d\u7e5e\u4ed6\u5011\uff0c\u90fd\u5728\u6211\u9762\u524d\u3002"
        },
        {
            "chapter": 7,
            "verse": 3,
            "name": "Hosea 7:3",
            "text": "\u4ed6\u5011\u4ee5\u81ea\u5df1\u7684\u60e1\u884c\u8a0e\u738b\u6b61\u559c\uff0c\u7528\u81ea\u5df1\u7684\u865b\u8b0a\u53eb\u9818\u8896\u5feb\u6a02\u3002"
        },
        {
            "chapter": 7,
            "verse": 4,
            "name": "Hosea 7:4",
            "text": "\u4ed6\u5011\u5168\u662f\u72af\u59e6\u6deb\u7684\uff0c\u50cf\u4e00\u500b\u88ab\u70e4\u9905\u7684\u4eba\u71d2\u71b1\u7684\u706b\u7210\uff0c\u5f9e\u6476\u9eb5\uff0c\u76f4\u5230\u5168\u5718\u767c\u9175\u7684\u6642\u5019\uff0c\u70e4\u9905\u7684\u4eba\u66ab\u505c\u4f7f\u706b\u767c\u65fa\u3002"
        },
        {
            "chapter": 7,
            "verse": 5,
            "name": "Hosea 7:5",
            "text": "\u5728\u6211\u5011\u738b\u559c\u6176\u7684\u65e5\u5b50\uff0c\u9818\u8896\u5011\u56e0\u9152\u7684\u70c8\u6027\u800c\u751f\u75c5\uff0c\u738b\u5c31\u8207\u893b\u6162\u4eba\u806f\u624b\u3002"
        },
        {
            "chapter": 7,
            "verse": 6,
            "name": "Hosea 7:6",
            "text": "\u4ed6\u5011\u9670\u8b00\u57cb\u4f0f\u7684\u6642\u5019\uff0c\u5fc3\u4e2d\u71d2\u5f97\u71b1\u5982\u706b\u7210\u3002\u4ed6\u5011\u6574\u591c\u6291\u5236\u6012\u6c23\uff0c\u4e00\u5230\u65e9\u6668\uff0c\u537b\u50cf\u767c\u51fa\u706b\u71c4\u7684\u706b\u71c3\u71d2\u8d77\u4f86\u3002"
        },
        {
            "chapter": 7,
            "verse": 7,
            "name": "Hosea 7:7",
            "text": "\u6240\u6709\u7684\u4eba\u90fd\u71b1\u5982\u706b\u7210\uff0c\u541e\u6ec5\u4ed6\u5011\u7684\u5b98\u9577\u3002\u4ed6\u5011\u6240\u6709\u7684\u541b\u738b\u90fd\u5012\u6583\u4e86\uff0c\u4ed6\u5011\u4e2d\u9593\u6c92\u6709\u4e00\u4eba\u5411\u6211\u547c\u6c42\u3002"
        },
        {
            "chapter": 7,
            "verse": 8,
            "name": "Hosea 7:8",
            "text": "\u201c\u4ee5\u6cd5\u84ee\u8207\u5916\u65cf\u6df7\u96dc\uff0c\u4ee5\u6cd5\u84ee\u662f\u6c92\u6709\u7ffb\u904e\u7684\u9905\u3002"
        },
        {
            "chapter": 7,
            "verse": 9,
            "name": "Hosea 7:9",
            "text": "\u5916\u65cf\u4eba\u541e\u5403\u4e86\u4ed6\u7684\u529b\u91cf\uff0c\u4ed6\u537b\u4e0d\u77e5\u9053\uff1b\u4ed6\u982d\u4e0a\u6eff\u662f\u767d\u9aee\uff0c\u4ed6\u4e5f\u4e0d\u66c9\u5f97\u3002"
        },
        {
            "chapter": 7,
            "verse": 10,
            "name": "Hosea 7:10",
            "text": "\u96d6\u7136\u4ee5\u8272\u5217\u7684\u9a55\u50b2\u7576\u9762\u6307\u8b49\u81ea\u5df1\uff0c\u4ed6\u5011\u537b\u4e0d\u56de\u8f49\u6b78\u5411\u8036\u548c\u83ef\u4ed6\u5011\u7684\u3000\u795e\uff0c\u4e5f\u4e0d\u56e0\u6b64\u5c0b\u6c42\u4ed6\u3002"
        },
        {
            "chapter": 7,
            "verse": 11,
            "name": "Hosea 7:11",
            "text": "\u4ee5\u6cd5\u84ee\u597d\u50cf\u4e00\u96bb\u611a\u8822\u7121\u77e5\u7684\u9d3f\u5b50\u3002\u4ed6\u5011\u5411\u57c3\u53ca\u6c42\u52a9\uff0c\u6295\u5954\u4e9e\u8ff0\u3002"
        },
        {
            "chapter": 7,
            "verse": 12,
            "name": "Hosea 7:12",
            "text": "\u4f46\u4ed6\u5011\u53bb\u7684\u6642\u5019\uff0c\u6211\u8981\u628a\u6211\u7684\u7db2\u6492\u5728\u4ed6\u5011\u8eab\u4e0a\uff1b\u6211\u8981\u628a\u4ed6\u5011\u5982\u540c\u7a7a\u4e2d\u7684\u98db\u9ce5\u6253\u4e0b\u4f86\u3002\u6211\u8981\u6309\u8457\u4ed6\u5011\u6703\u773e\u6240\u807d\u898b\u7684\uff0c\u61f2\u7f70\u4ed6\u5011\u3002"
        },
        {
            "chapter": 7,
            "verse": 13,
            "name": "Hosea 7:13",
            "text": "\u4ed6\u5011\u6709\u798d\u4e86\uff0c\u56e0\u70ba\u4ed6\u5011\u96e2\u68c4\u4e86\u6211\uff1b\u4ed6\u5011\u906d\u6bc0\u6ec5\uff0c\u56e0\u70ba\u4ed6\u5011\u80cc\u53db\u4e86\u6211\u3002\u6211\u96d6\u7136\u60f3\u6551\u8d16\u4ed6\u5011\uff0c\u4ed6\u5011\u537b\u5c0d\u6211\u8aaa\u8b0a\u3002"
        },
        {
            "chapter": 7,
            "verse": 14,
            "name": "Hosea 7:14",
            "text": "\u4ed6\u5011\u4e26\u6c92\u6709\u771f\u5fc3\u5411\u6211\u547c\u6c42\uff0c\u53ea\u662f\u5728\u5e8a\u4e0a\u54c0\u615f\u7f77\u4e86\u3002\u4ed6\u5011\u70ba\u4e86\u4e94\u7a40\u548c\u65b0\u9152\u5272\u50b7\u81ea\u5df1\uff0c\u4ecd\u7136\u6096\u9006\u6211\u3002"
        },
        {
            "chapter": 7,
            "verse": 15,
            "name": "Hosea 7:15",
            "text": "\u6211\u96d6\u7136\u935b\u7149\u4ed6\u5011\u7684\u624b\u81c2\uff0c\u4f7f\u5b83\u5011\u6709\u529b\uff0c\u4ed6\u5011\u537b\u5716\u8b00\u60e1\u8a08\u653b\u64ca\u6211\u3002"
        },
        {
            "chapter": 7,
            "verse": 16,
            "name": "Hosea 7:16",
            "text": "\u4ed6\u5011\u8f49\u5411\u5df4\u529b\uff0c\u6210\u4e86\u4e0d\u53ef\u9760\u7684\u4e86\u3002\u4ed6\u5011\u7684\u9818\u8896\u56e0\u81ea\u5df1\u820c\u982d\u4e0a\u7684\u72c2\u50b2\u5012\u5728\u5200\u4e0b\uff0c\u9019\u5728\u57c3\u53ca\u5730\u5fc5\u6210\u70ba\u88ab\u4eba\u8b4f\u7b11\u7684\u5c0d\u8c61\u3002\u201d"
        }
    ]
}