{
    "translation": "Hungarian Karoli",
    "abbreviation": "karoli",
    "lang": "hu",
    "language": "Hungarian",
    "direction": "LTR",
    "encoding": "UTF-8",
    "book_nr": 33,
    "book_name": "Micah",
    "chapter": 1,
    "name": "Micah 1",
    "verses": [
        {
            "chapter": 1,
            "verse": 1,
            "name": "Micah 1:1",
            "text": "Az \u00dar ig\u00e9je, a mely l\u0151n a moreseti Mike\u00e1shoz, J\u00f3t\u00e1m, Akh\u00e1z \u00e9s Ez\u00e9ki\u00e1snak, J\u00fada kir\u00e1lyainak idej\u00e9ben, a melyet l\u00e1tott Sam\u00e1ria \u00e9s Jeruzs\u00e1lem fel\u0151l. "
        },
        {
            "chapter": 1,
            "verse": 2,
            "name": "Micah 1:2",
            "text": "Hallj\u00e1tok meg minden n\u00e9pek, figyelmezz f\u00f6ld \u00e9s annak teljess\u00e9ge. \u00c9s az \u00dar Isten legyen bizonys\u00e1g ellenetek; az \u00dar az \u0151 szent templom\u00e1b\u00f3l! "
        },
        {
            "chapter": 1,
            "verse": 3,
            "name": "Micah 1:3",
            "text": "Mert \u00edm\u00e9, kij\u0151 az \u00dar az \u0151 hely\u00e9r\u0151l, \u00e9s lesz\u00e1ll \u00e9s l\u00e9pdel a f\u00f6ldnek magaslatain. "
        },
        {
            "chapter": 1,
            "verse": 4,
            "name": "Micah 1:4",
            "text": "\u00c9s sz\u00e9tm\u00e1llanak alatta a hegyek, a v\u00f6lgyek pedig sz\u00e9tszakadoznak, mint a viasz a t\u0171z el\u0151tt, mint a meredekr\u0151l leszakad\u00f3 vizek. "
        },
        {
            "chapter": 1,
            "verse": 5,
            "name": "Micah 1:5",
            "text": "A J\u00e1k\u00f3b v\u00e9tk\u00e9\u00e9rt l\u00e9szen mindez, \u00e9s az Izr\u00e1el h\u00e1z\u00e1nak b\u0171nei miatt! Micsoda a J\u00e1k\u00f3b v\u00e9tke? Avagy nem Sam\u00e1ria-\u00e9? \u00c9s mik a J\u00fada magaslatai? Avagy nem Jeruzs\u00e1lem-\u00e9? "
        },
        {
            "chapter": 1,
            "verse": 6,
            "name": "Micah 1:6",
            "text": "De olyann\u00e1 teszem Sam\u00e1ri\u00e1t, mint a mez\u0151ben val\u00f3 k\u0151rak\u00e1s, sz\u0151l\u0151-pl\u00e1nt\u00e1k hely\u00e9v\u00e9; \u00e9s lez\u00fad\u00edtom a v\u00f6lgybe az \u0151 k\u00f6veit, \u00e9s m\u00e9g fundamentomit is kimutatom. "
        },
        {
            "chapter": 1,
            "verse": 7,
            "name": "Micah 1:7",
            "text": "Faragott k\u00e9pei mind \u00f6sszet\u00f6retnek \u00e9s minden aj\u00e1nd\u00e9k\u00e1t t\u0171z \u00e9geti meg. Minden b\u00e1lv\u00e1nyait semmiv\u00e9 teszem; mert par\u00e1znas\u00e1g b\u00e9r\u00e9b\u0151l gy\u0171jt\u00f6gette azokat, az\u00e9rt ism\u00e9t par\u00e1znas\u00e1g b\u00e9r\u00e9v\u00e9 legyenek. "
        },
        {
            "chapter": 1,
            "verse": 8,
            "name": "Micah 1:8",
            "text": "E miatt kesergek \u00e9s jajgatok; ruh\u00e1talan \u00e9s mez\u00edtelen j\u00e1rok. \u00dcv\u00f6lt\u00f6k, mint a sak\u00e1lok, \u00e9s sikongok, mint a struczmadarak. "
        },
        {
            "chapter": 1,
            "verse": 9,
            "name": "Micah 1:9",
            "text": "Mert hal\u00e1losak az \u0151 sebei. Bizony J\u00fad\u00e1ig \u00e9r; n\u00e9pem kapuj\u00e1ig hatol, Jeruzs\u00e1lemig. "
        },
        {
            "chapter": 1,
            "verse": 10,
            "name": "Micah 1:10",
            "text": "G\u00e1thban h\u00edr\u00fcl ne adj\u00e1tok; s\u00edrv\u00e1n ne s\u00edrjatok; Beth-le- Afr\u00e1ban porba heveredtem. "
        },
        {
            "chapter": 1,
            "verse": 11,
            "name": "Micah 1:11",
            "text": "K\u00f6lt\u00f6zzetek el, Safirnak lak\u00f3ja gyal\u00e1zatos meztelen\u00fcl! Nem vonult ki Saan\u00e1n lakosa; Beth-Eselnek siralma nem enged tart\u00f3zkodni. "
        },
        {
            "chapter": 1,
            "verse": 12,
            "name": "Micah 1:12",
            "text": "Mert beteg lett Mar\u00f3tnak lakosa az \u0151 javai miatt; mert veszedelem sz\u00e1llt le az \u00dart\u00f3l Jeruzs\u00e1lemnek kapuj\u00e1ra. "
        },
        {
            "chapter": 1,
            "verse": 13,
            "name": "Micah 1:13",
            "text": "Gyors parip\u00e1hoz k\u00f6sd a szekeret, L\u00e1kisnak lak\u00f3ja! ki a b\u0171nnek kezd\u0151je val\u00e1l a Sion le\u00e1ny\u00e1n\u00e1l. Bizony te benned tal\u00e1ltatnak Izr\u00e1el v\u00e9tkei! "
        },
        {
            "chapter": 1,
            "verse": 14,
            "name": "Micah 1:14",
            "text": "Az\u00e9rt adj v\u00e1l\u00f3levelet Moreset-G\u00e1tnak! Akzib h\u00e1zai megcsalj\u00e1k Izr\u00e1el kir\u00e1lyait. "
        },
        {
            "chapter": 1,
            "verse": 15,
            "name": "Micah 1:15",
            "text": "M\u00e9g hozok \u00e9n te n\u00e9ked \u00f6r\u00f6k\u00f6st, Mar\u00e9sa lakosa; Adull\u00e1mig hat el Izr\u00e1el dics\u0151s\u00e9ge! "
        },
        {
            "chapter": 1,
            "verse": 16,
            "name": "Micah 1:16",
            "text": "Ny\u00edrd le, kopasz\u00edtsd meg magadat a te gy\u00f6ny\u00f6r\u0171s\u00e9ges fiaid\u00e9rt! Sz\u00e9les\u00edtsd meg kopaszs\u00e1godat, mint a kesely\u0171; mert rabs\u00e1gra vitettek el t\u0151led!  "
        }
    ]
}