{
    "translation": "\u0423\u043a\u0440\u0430\u0457\u043d\u0441\u044c\u043a\u0430 \u0411\u0456\u0431\u043b\u0456\u044f. \u041f\u0435\u0440\u0435\u043a\u043b\u0430\u0434 \u0406\u0432\u0430\u043d\u0430 \u041e\u0433\u0456\u0454\u043d\u043a\u0430.",
    "abbreviation": "ukrainian",
    "lang": "uk",
    "language": "Ukrainian",
    "direction": "LTR",
    "encoding": "UTF-8",
    "book_nr": 10,
    "book_name": "2 Samuel",
    "chapter": 5,
    "name": "2 Samuel 5",
    "verses": [
        {
            "chapter": 5,
            "verse": 1,
            "name": "2 Samuel 5:1",
            "text": "\u0406 \u043f\u043e\u0441\u0445\u043e\u0434\u0438\u043b\u0438\u0441\u044f \u0432\u0441\u0456 \u0406\u0437\u0440\u0430\u0457\u043b\u0435\u0432\u0456 \u043f\u043b\u0435\u043c\u0435\u043d\u0430 \u0434\u043e \u0414\u0430\u0432\u0438\u0434\u0430 \u0432 \u0425\u0435\u0432\u0440\u043e\u043d \u0442\u0430 \u0439 \u0441\u043a\u0430\u0437\u0430\u043b\u0438 \u0439\u043e\u043c\u0443: \u041e\u0446\u0435 \u043c\u0438 \u043a\u0456\u0441\u0442\u044c \u0442\u0432\u043e\u044f \u0442\u0430 \u0442\u0456\u043b\u043e \u0442\u0432\u043e\u0454 \u043c\u0438!"
        },
        {
            "chapter": 5,
            "verse": 2,
            "name": "2 Samuel 5:2",
            "text": "\u0406 \u0434\u0430\u0432\u043d\u0456\u0448, \u043a\u043e\u043b\u0438 \u0421\u0430\u0443\u043b \u0431\u0443\u0432 \u0446\u0430\u0440\u0435\u043c \u043d\u0430\u0434 \u043d\u0430\u043c\u0438, \u0442\u0438 \u0432\u043e\u0434\u0438\u0432 \u0406\u0437\u0440\u0430\u0457\u043b\u044f \u043d\u0430 \u0432\u0456\u0439\u043d\u0443 \u0456 \u043f\u0440\u0438\u0432\u043e\u0434\u0438\u0432 \u043d\u0430\u0437\u0430\u0434. \u0406 \u0413\u043e\u0441\u043f\u043e\u0434\u044c \u0442\u043e\u0431\u0456 \u0441\u043a\u0430\u0437\u0430\u0432: \u0422\u0438 \u0431\u0443\u0434\u0435\u0448 \u043f\u0430\u0441\u0442\u0438 \u043d\u0430\u0440\u043e\u0434\u0430 \u041c\u043e\u0433\u043e, \u0406\u0437\u0440\u0430\u0457\u043b\u044f, \u0456 \u0442\u0438 \u0431\u0443\u0434\u0435\u0448 \u0432\u043e\u043b\u043e\u0434\u0430\u0440\u0435\u043c \u043d\u0430\u0434 \u0406\u0437\u0440\u0430\u0457\u043b\u0435\u043c."
        },
        {
            "chapter": 5,
            "verse": 3,
            "name": "2 Samuel 5:3",
            "text": "\u0406 \u043f\u0440\u0438\u0439\u0448\u043b\u0438 \u0432\u0441\u0456 \u0406\u0437\u0440\u0430\u0457\u043b\u0435\u0432\u0456 \u0441\u0442\u0430\u0440\u0448\u0456 \u0432 \u0425\u0435\u0432\u0440\u043e\u043d, \u0430 \u0446\u0430\u0440 \u0414\u0430\u0432\u0438\u0434 \u0441\u043a\u043b\u0430\u0432 \u0456\u0437 \u043d\u0438\u043c\u0438 \u0443\u043c\u043e\u0432\u0443 \u0432 \u0425\u0435\u0432\u0440\u043e\u043d\u0456 \u043f\u0435\u0440\u0435\u0434 \u0413\u043e\u0441\u043f\u043e\u0434\u043d\u0456\u043c \u043b\u0438\u0446\u0435\u043c. \u0406 \u043f\u043e\u043c\u0430\u0437\u0430\u043b\u0438 \u0432\u043e\u043d\u0438 \u0414\u0430\u0432\u0438\u0434\u0430 \u0446\u0430\u0440\u0435\u043c \u043d\u0430\u0434 \u0406\u0437\u0440\u0430\u0457\u043b\u0435\u043c."
        },
        {
            "chapter": 5,
            "verse": 4,
            "name": "2 Samuel 5:4",
            "text": "\u0414\u0430\u0432\u0438\u0434 \u0431\u0443\u0432 \u0432\u0456\u043a\u0443 \u0442\u0440\u0438\u0434\u0446\u044f\u0442\u0438 \u043b\u0456\u0442, \u043a\u043e\u043b\u0438 \u0441\u0442\u0430\u0432 \u0446\u0430\u0440\u044e\u0432\u0430\u0442\u0438, \u0456 \u0441\u043e\u0440\u043e\u043a \u043b\u0456\u0442 \u0446\u0430\u0440\u044e\u0432\u0430\u0432 \u0432\u0456\u043d."
        },
        {
            "chapter": 5,
            "verse": 5,
            "name": "2 Samuel 5:5",
            "text": "\u0423 \u0425\u0435\u0432\u0440\u043e\u043d\u0456 \u0446\u0430\u0440\u044e\u0432\u0430\u0432 \u0432\u0456\u043d \u043d\u0430\u0434 \u042e\u0434\u043e\u044e \u0441\u0456\u043c \u043b\u0456\u0442 \u0456 \u0448\u0456\u0441\u0442\u044c \u043c\u0456\u0441\u044f\u0446\u0456\u0432, \u0430 \u0432 \u0404\u0440\u0443\u0441\u0430\u043b\u0438\u043c\u0456 \u0446\u0430\u0440\u044e\u0432\u0430\u0432 \u0442\u0440\u0438\u0434\u0446\u044f\u0442\u044c \u0456 \u0442\u0440\u0438 \u0440\u043e\u043a\u0438 \u043d\u0430\u0434 \u0443\u0441\u0456\u043c \u0406\u0437\u0440\u0430\u0457\u043b\u0435\u043c \u0442\u0430 \u042e\u0434\u043e\u044e."
        },
        {
            "chapter": 5,
            "verse": 6,
            "name": "2 Samuel 5:6",
            "text": "\u0406 \u043f\u0456\u0448\u043e\u0432 \u0446\u0430\u0440 \u0442\u0430 \u043b\u044e\u0434\u0438 \u0439\u043e\u0433\u043e \u0434\u043e \u0404\u0440\u0443\u0441\u0430\u043b\u0438\u043c\u0443 \u043d\u0430 \u0404\u0432\u0443\u0441\u0435\u044f\u043d\u0438\u043d\u0430, \u043c\u0435\u0448\u043a\u0430\u043d\u0446\u044f \u0442\u043e\u0433\u043e \u041a\u0440\u0430\u044e. \u0410 \u0442\u043e\u0439 \u0441\u043a\u0430\u0437\u0430\u0432 \u0414\u0430\u0432\u0438\u0434\u043e\u0432\u0456, \u0433\u043e\u0432\u043e\u0440\u044f\u0447\u0438: \u0422\u0438 \u043d\u0435 \u0432\u0432\u0456\u0439\u0434\u0435\u0448 \u0441\u044e\u0434\u0438, \u0445\u0456\u0431\u0430 \u043f\u043e\u0432\u0438\u0433\u0430\u043d\u044f\u0454\u0448 \u0441\u043b\u0456\u043f\u0438\u0445 \u0442\u0430 \u043a\u0440\u0438\u0432\u0438\u0445! \u0410 \u0446\u0435 \u0437\u043d\u0430\u0447\u0438\u0442\u044c: \u0414\u0430\u0432\u0438\u0434 \u043d\u0456\u043a\u043e\u043b\u0438 \u043d\u0435 \u0432\u0432\u0456\u0439\u0434\u0435 \u0441\u044e\u0434\u0438!"
        },
        {
            "chapter": 5,
            "verse": 7,
            "name": "2 Samuel 5:7",
            "text": "\u0422\u0430 \u0414\u0430\u0432\u0438\u0434 \u0437\u0434\u043e\u0431\u0443\u0432 \u0442\u0432\u0435\u0440\u0434\u0438\u043d\u044e \u0421\u0456\u043e\u043d, \u0432\u0456\u043d \u0441\u0442\u0430\u0432 \u0414\u0430\u0432\u0438\u0434\u043e\u0432\u0438\u043c \u041c\u0456\u0441\u0442\u043e\u043c."
        },
        {
            "chapter": 5,
            "verse": 8,
            "name": "2 Samuel 5:8",
            "text": "\u0406 \u0441\u043a\u0430\u0437\u0430\u0432 \u0414\u0430\u0432\u0438\u0434 \u0442\u043e\u0433\u043e \u0434\u043d\u044f: \u041a\u043e\u0436\u0435\u043d, \u0445\u0442\u043e \u0437\u0430\u0431'\u0454 \u0454\u0432\u0443\u0441\u0435\u044f\u043d\u0438\u043d\u0430, \u043d\u0435\u0445\u0430\u0439 \u0441\u043a\u0438\u043d\u0435 \u0434\u043e \u043a\u0430\u043d\u0430\u043b\u0443, \u0430 \u0437 \u043d\u0438\u043c \u0456 \u043a\u0440\u0438\u0432\u0438\u0445 \u0442\u0430 \u0441\u043b\u0456\u043f\u0438\u0445, \u0437\u043d\u0435\u043d\u0430\u0432\u0438\u0434\u0436\u0435\u043d\u0438\u0445 \u0434\u043b\u044f \u0414\u0430\u0432\u0438\u0434\u043e\u0432\u043e\u0457 \u0434\u0443\u0448\u0456. \u0422\u043e\u043c\u0443 \u0433\u043e\u0432\u043e\u0440\u044f\u0442\u044c: \u0421\u043b\u0456\u043f\u0438\u0439 \u0442\u0430 \u043a\u0440\u0438\u0432\u0438\u0439 \u043d\u0435 \u0432\u0432\u0456\u0439\u0434\u0435 \u0434\u043e \u0434\u043e\u043c\u0443!"
        },
        {
            "chapter": 5,
            "verse": 9,
            "name": "2 Samuel 5:9",
            "text": "\u0406 \u043e\u0441\u0456\u0432\u0441\u044f \u0414\u0430\u0432\u0438\u0434 \u0443 \u0442\u0432\u0435\u0440\u0434\u0438\u043d\u0456, \u0456 \u043d\u0430\u0437\u0432\u0430\u0432 \u0456\u043c'\u044f \u0457\u0439: \u0414\u0430\u0432\u0438\u0434\u043e\u0432\u0435 \u041c\u0456\u0441\u0442\u043e. \u0406 \u0431\u0443\u0434\u0443\u0432\u0430\u0432 \u0414\u0430\u0432\u0438\u0434 \u043d\u0430\u0432\u043a\u043e\u043b\u043e \u0432\u0456\u0434 \u041c\u0456\u043b\u043b\u043e \u0439 \u0443\u0441\u0435\u0440\u0435\u0434\u0438\u043d\u0456."
        },
        {
            "chapter": 5,
            "verse": 10,
            "name": "2 Samuel 5:10",
            "text": "\u0406 \u0414\u0430\u0432\u0438\u0434 \u0441\u0442\u0430\u0432\u0430\u0432 \u0443\u0441\u0435 \u0431\u0456\u043b\u044c\u0448\u0438\u043c, \u0430 \u0413\u043e\u0441\u043f\u043e\u0434\u044c, \u0411\u043e\u0433 \u0421\u0430\u0432\u0430\u043e\u0442, \u0431\u0443\u0432 \u0456\u0437 \u043d\u0438\u043c."
        },
        {
            "chapter": 5,
            "verse": 11,
            "name": "2 Samuel 5:11",
            "text": "\u0406 \u043f\u043e\u0441\u043b\u0430\u0432 \u0425\u0456\u0440\u0430\u043c, \u0446\u0430\u0440 \u0442\u0438\u0440\u0441\u044c\u043a\u0438\u0439, \u043f\u043e\u0441\u043b\u0456\u0432 \u0434\u043e \u0414\u0430\u0432\u0438\u0434\u0430, \u0442\u0430 \u043a\u0435\u0434\u0440\u043e\u0432\u043e\u0433\u043e \u0434\u0435\u0440\u0435\u0432\u0430, \u0456 \u0442\u0435\u0441\u043b\u0456\u0432, \u0456 \u043a\u0430\u043c\u0435\u043d\u044f\u0440\u0456\u0432 \u0434\u043b\u044f \u0441\u0442\u0456\u043d, \u0456 \u0432\u043e\u043d\u0438 \u0437\u0431\u0443\u0434\u0443\u0432\u0430\u043b\u0438 \u0434\u0456\u043c \u0434\u043b\u044f \u0414\u0430\u0432\u0438\u0434\u0430."
        },
        {
            "chapter": 5,
            "verse": 12,
            "name": "2 Samuel 5:12",
            "text": "\u0406 \u043f\u0435\u0440\u0435\u0441\u0432\u0456\u0434\u0447\u0438\u0432\u0441\u044f \u0414\u0430\u0432\u0438\u0434, \u0449\u043e \u0413\u043e\u0441\u043f\u043e\u0434\u044c \u043f\u043e\u0441\u0442\u0430\u0432\u0438\u0432 \u0439\u043e\u0433\u043e \u043c\u0456\u0446\u043d\u043e \u0446\u0430\u0440\u0435\u043c \u043d\u0430\u0434 \u0406\u0437\u0440\u0430\u0457\u043b\u0435\u043c, \u0456 \u0449\u043e \u0412\u0456\u043d \u043f\u0456\u0434\u043d\u0456\u0441 \u0446\u0430\u0440\u0441\u0442\u0432\u043e \u0439\u043e\u0433\u043e \u0440\u0430\u0434\u0438 \u043d\u0430\u0440\u043e\u0434\u0443 \u0421\u0432\u043e\u0433\u043e \u0406\u0437\u0440\u0430\u0457\u043b\u044f."
        },
        {
            "chapter": 5,
            "verse": 13,
            "name": "2 Samuel 5:13",
            "text": "\u0410 \u0414\u0430\u0432\u0438\u0434 \u0443\u0437\u044f\u0432 \u0449\u0435 \u043d\u0430\u043b\u043e\u0436\u043d\u0438\u0446\u044c \u0442\u0430 \u0436\u0456\u043d\u043e\u043a \u0437 \u0404\u0440\u0443\u0441\u0430\u043b\u0438\u043c\u0443 \u043f\u043e \u0432\u0438\u0445\u043e\u0434\u0456 \u0439\u043e\u0433\u043e \u0437 \u0425\u0435\u0432\u0440\u043e\u043d\u0443, \u0456 \u043d\u0430\u0440\u043e\u0434\u0438\u043b\u0438\u0441\u044f \u0414\u0430\u0432\u0438\u0434\u043e\u0432\u0456 \u0449\u0435 \u0441\u0438\u043d\u0438 \u0442\u0430 \u0434\u043e\u0447\u043a\u0438."
        },
        {
            "chapter": 5,
            "verse": 14,
            "name": "2 Samuel 5:14",
            "text": "\u0410 \u043e\u0446\u0435 \u0456\u043c\u0435\u043d\u0430 \u043d\u0430\u0440\u043e\u0434\u0436\u0435\u043d\u0438\u0445 \u0439\u043e\u043c\u0443 \u0432 \u0404\u0440\u0443\u0441\u0430\u043b\u0438\u043c\u0456: \u0428\u0430\u043c\u043c\u0443\u0430, \u0456 \u0428\u043e\u0432\u0430\u0432, \u0456 \u041d\u0430\u0442\u0430\u043d, \u0456 \u0421\u043e\u043b\u043e\u043c\u043e\u043d,"
        },
        {
            "chapter": 5,
            "verse": 15,
            "name": "2 Samuel 5:15",
            "text": "\u0456 \u0407\u0432\u0445\u0430\u0440, \u0456 \u0415\u043b\u0456\u0448\u0443\u0430, \u0456 \u041d\u0430\u0444\u0435\u0491, \u0456 \u042f\u0444\u0456\u0430,"
        },
        {
            "chapter": 5,
            "verse": 16,
            "name": "2 Samuel 5:16",
            "text": "\u0456 \u0415\u043b\u0456\u0448\u0430\u043c\u0430, \u0456 \u0415\u043b\u0456\u044f\u0434\u0430, \u0456 \u0415\u043b\u0456\u0444\u0430\u043b\u0435\u0442."
        },
        {
            "chapter": 5,
            "verse": 17,
            "name": "2 Samuel 5:17",
            "text": "\u0406 \u043f\u043e\u0447\u0443\u043b\u0438 \u0444\u0438\u043b\u0438\u0441\u0442\u0438\u043c\u043b\u044f\u043d\u0438, \u0449\u043e \u0414\u0430\u0432\u0438\u0434\u0430 \u043f\u043e\u043c\u0430\u0437\u0430\u043b\u0438 \u0446\u0430\u0440\u0435\u043c \u043d\u0430\u0434 \u0406\u0437\u0440\u0430\u0457\u043b\u0435\u043c, \u0456 \u0432\u0438\u0439\u0448\u043b\u0438 \u0432\u0441\u0456 \u0444\u0438\u043b\u0438\u0441\u0442\u0438\u043c\u043b\u044f\u043d\u0438, \u0449\u043e\u0431 \u0448\u0443\u043a\u0430\u0442\u0438 \u0414\u0430\u0432\u0438\u0434\u0430. \u0406 \u0414\u0430\u0432\u0438\u0434 \u043f\u043e\u0447\u0443\u0432 \u043f\u0440\u043e \u0446\u0435, \u0456 \u0437\u0456\u0439\u0448\u043e\u0432 \u0434\u043e \u0442\u0432\u0435\u0440\u0434\u0438\u043d\u0456."
        },
        {
            "chapter": 5,
            "verse": 18,
            "name": "2 Samuel 5:18",
            "text": "\u0410 \u0444\u0438\u043b\u0438\u0441\u0442\u0438\u043c\u043b\u044f\u043d\u0438 \u043f\u0440\u0438\u0439\u0448\u043b\u0438 \u0442\u0430 \u0440\u043e\u0437\u0442\u0430\u0448\u0443\u0432\u0430\u043b\u0438\u0441\u044f \u0432 \u0434\u043e\u043b\u0438\u043d\u0456 \u0420\u0435\u0444\u0430\u0457\u043c."
        },
        {
            "chapter": 5,
            "verse": 19,
            "name": "2 Samuel 5:19",
            "text": "\u0410 \u0414\u0430\u0432\u0438\u0434 \u0437\u0430\u043f\u0438\u0442\u0430\u0432\u0441\u044f \u0413\u043e\u0441\u043f\u043e\u0434\u0430, \u0433\u043e\u0432\u043e\u0440\u044f\u0447\u0438: \u0427\u0438 \u0432\u0438\u0445\u043e\u0434\u0438\u0442\u0438 \u043c\u0435\u043d\u0456 \u043f\u0440\u043e\u0442\u0438 \u0444\u0438\u043b\u0438\u0441\u0442\u0438\u043c\u043b\u044f\u043d? \u0427\u0438 \u0434\u0430\u0441\u0438 \u0457\u0445 \u0443 \u043c\u043e\u044e \u0440\u0443\u043a\u0443? \u0406 \u0413\u043e\u0441\u043f\u043e\u0434\u044c \u0432\u0456\u0434\u043a\u0430\u0437\u0430\u0432 \u0434\u043e \u0414\u0430\u0432\u0438\u0434\u0430: \u0412\u0438\u0445\u043e\u0434\u044c, \u0431\u043e \u0441\u043f\u0440\u0430\u0432\u0434\u0456 \u0434\u0430\u043c \u0444\u0438\u043b\u0438\u0441\u0442\u0438\u043c\u043b\u044f\u043d \u0443 \u0440\u0443\u043a\u0443 \u0442\u0432\u043e\u044e!"
        },
        {
            "chapter": 5,
            "verse": 20,
            "name": "2 Samuel 5:20",
            "text": "\u0406 \u043f\u0440\u0438\u0439\u0448\u043e\u0432 \u0414\u0430\u0432\u0438\u0434 \u0434\u043e \u0411\u0430\u0430\u043b-\u041f\u0435\u0440\u0430\u0446\u0456\u043c\u0443. \u0406 \u043f\u043e\u0431\u0438\u0432 \u0457\u0445 \u0442\u0430\u043c \u0414\u0430\u0432\u0438\u0434 \u0442\u0430 \u0439 \u0441\u043a\u0430\u0437\u0430\u0432: \u0413\u043e\u0441\u043f\u043e\u0434\u044c \u0440\u043e\u0437\u0456\u0440\u0432\u0430\u0432 \u0432\u043e\u0440\u043e\u0433\u0456\u0432 \u043c\u043e\u0457\u0445 \u043f\u0435\u0440\u0435\u0434\u043e \u043c\u043d\u043e\u044e, \u044f\u043a \u0440\u043e\u0437\u0440\u0438\u0432\u0430\u044e\u0442\u044c \u0432\u043e\u0434\u0438. \u0422\u043e\u043c\u0443 \u0432\u0456\u043d \u043d\u0430\u0437\u0432\u0430\u0432 \u0456\u043c'\u044f \u0442\u043e\u043c\u0443 \u043c\u0456\u0441\u0446\u044e: \u0411\u0430\u0430\u043b-\u041f\u0435\u0440\u0430\u0446\u0456\u043c."
        },
        {
            "chapter": 5,
            "verse": 21,
            "name": "2 Samuel 5:21",
            "text": "\u0406 \u0432\u043e\u043d\u0438 \u043f\u043e\u043b\u0438\u0448\u0438\u043b\u0438 \u0442\u0430\u043c \u0441\u0432\u043e\u0457\u0445 \u0431\u043e\u0436\u043a\u0456\u0432, \u0430 \u0457\u0445 \u0437\u0430\u0431\u0440\u0430\u0432 \u0414\u0430\u0432\u0438\u0434 \u0442\u0430 \u043b\u044e\u0434\u0438 \u0439\u043e\u0433\u043e."
        },
        {
            "chapter": 5,
            "verse": 22,
            "name": "2 Samuel 5:22",
            "text": "\u0410 \u0444\u0438\u043b\u0438\u0441\u0442\u0438\u043c\u043b\u044f\u043d\u0438 \u0437\u043d\u043e\u0432\u0443 \u043f\u0440\u0438\u0439\u0448\u043b\u0438 \u0442\u0430 \u0440\u043e\u0437\u0442\u0430\u0448\u0443\u0432\u0430\u043b\u0438\u0441\u044f \u0432 \u0434\u043e\u043b\u0438\u043d\u0456 \u0420\u0435\u0444\u0430\u0457\u043c."
        },
        {
            "chapter": 5,
            "verse": 23,
            "name": "2 Samuel 5:23",
            "text": "\u0406 \u0437\u0430\u043f\u0438\u0442\u0430\u0432\u0441\u044f \u0414\u0430\u0432\u0438\u0434 \u0413\u043e\u0441\u043f\u043e\u0434\u0430, \u0430 \u0412\u0456\u043d \u0441\u043a\u0430\u0437\u0430\u0432: \u041d\u0435 \u0432\u0438\u0445\u043e\u0434\u044c, \u043e\u0442\u043e\u0447\u0438 \u0457\u0445 \u0437-\u043f\u043e\u0437\u0430\u0434\u0443, \u0456 \u043f\u0440\u0438\u0439\u0434\u0438 \u0434\u043e \u043d\u0438\u0445 \u0432\u0456\u0434 \u0431\u0430\u043b\u044c\u0437\u0430\u043c\u043e\u0432\u043e\u0433\u043e \u043b\u0456\u0441\u043a\u0430."
        },
        {
            "chapter": 5,
            "verse": 24,
            "name": "2 Samuel 5:24",
            "text": "\u0406 \u0441\u0442\u0430\u043d\u0435\u0442\u044c\u0441\u044f, \u043a\u043e\u043b\u0438 \u0442\u0438 \u043f\u043e\u0447\u0443\u0454\u0448 \u0448\u0435\u043b\u0435\u0441\u0442 \u043a\u0440\u043e\u043a\u0443 \u043d\u0430 \u0432\u0435\u0440\u0445\u043e\u0432\u0456\u0442\u0442\u044f\u0445 \u0431\u0430\u043b\u044c\u0437\u0430\u043c\u043e\u0432\u043e\u0433\u043e \u043b\u0456\u0441\u043a\u0430, \u0442\u043e\u0434\u0456 \u043f\u043e\u0441\u043f\u0456\u0448\u0438\u0441\u044f, \u0431\u043e \u0442\u043e \u0442\u043e\u0434\u0456 \u0432\u0438\u0439\u0448\u043e\u0432 \u0413\u043e\u0441\u043f\u043e\u0434\u044c \u043f\u0435\u0440\u0435\u0434 \u0442\u043e\u0431\u043e\u044e, \u0449\u043e\u0431 \u043f\u043e\u0431\u0438\u0442\u0438 \u0444\u0438\u043b\u0438\u0441\u0442\u0438\u043c\u0441\u044c\u043a\u0438\u0439 \u0442\u0430\u0431\u0456\u0440."
        },
        {
            "chapter": 5,
            "verse": 25,
            "name": "2 Samuel 5:25",
            "text": "\u0406 \u0414\u0430\u0432\u0438\u0434 \u0437\u0440\u043e\u0431\u0438\u0432 \u0442\u0430\u043a, \u044f\u043a \u043d\u0430\u043a\u0430\u0437\u0430\u0432 \u0439\u043e\u043c\u0443 \u0413\u043e\u0441\u043f\u043e\u0434\u044c, \u0456 \u0432\u0456\u043d \u043f\u043e\u0431\u0438\u0432 \u0444\u0438\u043b\u0438\u0441\u0442\u0438\u043c\u043b\u044f\u043d \u0432\u0456\u0434 \u0490\u0435\u0432\u0438 \u0430\u0436 \u0442\u0443\u0434\u0438, \u043a\u0443\u0434\u043e\u044e \u0439\u0442\u0438 \u0434\u043e \u0490\u0435\u0437\u0435\u0440\u0430. "
        }
    ]
}