{
    "translation": "Danish New Testament from 1819 with original orthography",
    "abbreviation": "dant1819",
    "lang": "da",
    "language": "Danish",
    "direction": "LTR",
    "encoding": "UTF-8",
    "book_nr": 40,
    "book_name": "Matthew",
    "chapter": 6,
    "name": "Matthew 6",
    "verses": [
        {
            "chapter": 6,
            "verse": 1,
            "name": "Matthew 6:1",
            "text": "Vogter Eder, at I ikke gj\u00f8re Eders Almisse for Menneskene, for at ansees af dem, ellers have I ikke L\u00f8n hos Eders Fader, som er i Himlene."
        },
        {
            "chapter": 6,
            "verse": 2,
            "name": "Matthew 6:2",
            "text": "Derfor, naar du gj\u00f8r Almisse, skal du ikke lade bl\u00e6se i Basune for dig, som \u00d8ienskalkene gj\u00f8re i Synagoger og paa Gader, paa det de kunne \u00e6res af Mennesker; sandelig siger jeg Eder: de have deres L\u00f8n borte."
        },
        {
            "chapter": 6,
            "verse": 3,
            "name": "Matthew 6:3",
            "text": "Men naar du gj\u00f8r Almisse, lad din venstre Haand ikke vide, hvad din h\u00f8ire gj\u00f8r,"
        },
        {
            "chapter": 6,
            "verse": 4,
            "name": "Matthew 6:4",
            "text": "paa det din Almisse kan v\u00e6re i L\u00f8ndom, og din Fader, som seer i L\u00f8ndom, han skal betale dig aabenbare."
        },
        {
            "chapter": 6,
            "verse": 5,
            "name": "Matthew 6:5",
            "text": "  Og naar du beder, skal du ikke v\u00e6re som \u00d8ienskalkene; thi de staae gjerne og bede i Synagoger og paa Hj\u00f8rner af Gader, paa det de kunne ansees af Menneskene; sandelig siger jeg Eder: de have deres L\u00f8n borte."
        },
        {
            "chapter": 6,
            "verse": 6,
            "name": "Matthew 6:6",
            "text": "Men du, naar du beder, gak ind i dit Kammer, og luk din D\u00f8r, og bed til din Fader, som er i L\u00f8ndom, og din Fader, som seer i L\u00f8ndom, skal betale dig aabenbare."
        },
        {
            "chapter": 6,
            "verse": 7,
            "name": "Matthew 6:7",
            "text": "Men naar I bede, skulle I ikke bruge overfl\u00f8dige Ord som Hedningerne; thi de mene, at de blive b\u00f8nh\u00f8rte for deres mange Ord."
        },
        {
            "chapter": 6,
            "verse": 8,
            "name": "Matthew 6:8",
            "text": "Derfor skulle I ikke vorde dem lige; thi Eders Fader veed, hvad I have behov, f\u00f8rend I bede ham."
        },
        {
            "chapter": 6,
            "verse": 9,
            "name": "Matthew 6:9",
            "text": "Derfor skulle I saaledes bede: Vor Fader, du som er i Himlene! Helliget vorde dit Navn;"
        },
        {
            "chapter": 6,
            "verse": 10,
            "name": "Matthew 6:10",
            "text": "komme dit Rige; skee din Villie som i Himmelen, saa og paa Jorden;"
        },
        {
            "chapter": 6,
            "verse": 11,
            "name": "Matthew 6:11",
            "text": "giv os i Dag vort daglige Br\u00f8d;"
        },
        {
            "chapter": 6,
            "verse": 12,
            "name": "Matthew 6:12",
            "text": "og forlad os vor Skyld, som og vi forlade vore Skyldnere;"
        },
        {
            "chapter": 6,
            "verse": 13,
            "name": "Matthew 6:13",
            "text": "og led os ikke ind i Fristelse; men fri os fra det Onde; thi dit er Riget og Kraften og Herligheden i Evighed! Amen."
        },
        {
            "chapter": 6,
            "verse": 14,
            "name": "Matthew 6:14",
            "text": "Thi forlade I Menneskene deres Overtr\u00e6delser, skal Eders himmelske Fader og forlade Eder;"
        },
        {
            "chapter": 6,
            "verse": 15,
            "name": "Matthew 6:15",
            "text": "men forlade I ikke Menneskene deres Overtr\u00e6delser, skal Eders Fader ikke heller forlade Eders Overtr\u00e6delser."
        },
        {
            "chapter": 6,
            "verse": 16,
            "name": "Matthew 6:16",
            "text": "  Naar I faste, da seer ikke bedr\u00f8vede ud som \u00d8ienskalkene; thi de forvende deres Ansigt, paa det Menneskene kunne see dem faste; sandelig siger jeg Eder: de havde deres L\u00f8n borte."
        },
        {
            "chapter": 6,
            "verse": 17,
            "name": "Matthew 6:17",
            "text": "Men naar du faster, da salv dit Hoved, og to dit Ansigt,"
        },
        {
            "chapter": 6,
            "verse": 18,
            "name": "Matthew 6:18",
            "text": "at ikke Menneskene skulle see dig faste, men din Fader, som er i L\u00f8ndom, og din Fader, som seer i L\u00f8ndom, skal betale dig aabenbare."
        },
        {
            "chapter": 6,
            "verse": 19,
            "name": "Matthew 6:19",
            "text": "  Samler Eder ikke Liggendef\u00e6 paa Jorden hvor M\u00f8l og Rust ford\u00e6rve, og hvor Tyve igjennembryde og stj\u00e6le;"
        },
        {
            "chapter": 6,
            "verse": 20,
            "name": "Matthew 6:20",
            "text": "samler Eder Liggendef\u00e6 i Himmelen, hvor hverken M\u00f8l, ei heller Rust ford\u00e6rver, og hvor Tyve ikke igjennembryde, ei heller stj\u00e6le."
        },
        {
            "chapter": 6,
            "verse": 21,
            "name": "Matthew 6:21",
            "text": "Thi hvor Eders Liggendef\u00e6 er, der vil Eders Hjerte v\u00e6re."
        },
        {
            "chapter": 6,
            "verse": 22,
            "name": "Matthew 6:22",
            "text": "\u00d8iet er Legemets Lys; derfor, dersom dit \u00d8ie er sundt, bliver dit ganske Legeme lyst;"
        },
        {
            "chapter": 6,
            "verse": 23,
            "name": "Matthew 6:23",
            "text": "men dersom dit \u00d8ie er ondt, bliver dit ganske Legeme m\u00f8rkt. Dersom derfor det Lys der er i dig, er M\u00f8rke, hvor stort bliver da M\u00f8rket!"
        },
        {
            "chapter": 6,
            "verse": 24,
            "name": "Matthew 6:24",
            "text": "  Ingen kan tjene to Herrer; thi han maa enten hade den ene og elske den anden, eller holde sig til den ene og foragte den anden. I kunne ikke tjene Gud og Mammon."
        },
        {
            "chapter": 6,
            "verse": 25,
            "name": "Matthew 6:25",
            "text": "Derfor siger jeg Eder: bekymrer Eder ikke for Eders Liv, hvad I skulle \u00e6de, og hvad I skulle drikke; ikke heller for Eders Legeme, hvad I skulle if\u00f8res. Er ikke Livet mere end Maden, og Legemet mere end Kl\u00e6derne?"
        },
        {
            "chapter": 6,
            "verse": 26,
            "name": "Matthew 6:26",
            "text": "Seer til Himmelens Fugle; de saae ikke og h\u00f8ste ikke og sanke ikke i Lader, og Eders himmelske Fader f\u00f8der dem; ere I ikke meget mere end de?"
        },
        {
            "chapter": 6,
            "verse": 27,
            "name": "Matthew 6:27",
            "text": "Men hvo iblandt Eder kan l\u00e6gge een Alen til sin V\u00e6xt, enddog han bekymrer sig derfor?"
        },
        {
            "chapter": 6,
            "verse": 28,
            "name": "Matthew 6:28",
            "text": "Og hvi bekymre I Eder for Kl\u00e6derne? Betragter Lilierne paa Marken, hvorledes de voxe; de arbeide ikke, spinde ikke;"
        },
        {
            "chapter": 6,
            "verse": 29,
            "name": "Matthew 6:29",
            "text": "men jeg siger Eder, at end ikke Salomon i al sin Herlighed var saa kl\u00e6dt, som een af dem."
        },
        {
            "chapter": 6,
            "verse": 30,
            "name": "Matthew 6:30",
            "text": "Kl\u00e6der da Gud saaledes det Gr\u00e6s paa Marken, som er i Dag og i Morgen kastes i Ovnen, skulde han ikke meget mere kl\u00e6de Eder, I lidet troende?"
        },
        {
            "chapter": 6,
            "verse": 31,
            "name": "Matthew 6:31",
            "text": "Derfor skulle I ikke bekymre Eder og sige: hvad skulle vi \u00e6de? eller: hvad skulle vi drikke? eller: hvormed skulle vi kl\u00e6de os?"
        },
        {
            "chapter": 6,
            "verse": 32,
            "name": "Matthew 6:32",
            "text": "Efter alt saadant s\u00f8ge Hedningerne; thi Eders Himmelske Fader veed, at I have alle disse Ting behov."
        },
        {
            "chapter": 6,
            "verse": 33,
            "name": "Matthew 6:33",
            "text": "Men s\u00f8ger f\u00f8rst Guds Rige og hans Retf\u00e6rdighed, saa skulle og alle disse Ting till\u00e6gges Eder."
        },
        {
            "chapter": 6,
            "verse": 34,
            "name": "Matthew 6:34",
            "text": "Bekymrer Eder derfor ikke for den anden Morgen; thi den Dag i Morgen skal bekymre sig for sit Eget. Hver Dag haver nok i sin Plage. "
        }
    ]
}