{
    "translation": "The Common Edition: New Testament",
    "abbreviation": "common",
    "lang": "en",
    "language": "English",
    "direction": "LTR",
    "encoding": "",
    "book_nr": 42,
    "book_name": "Luke",
    "chapter": 8,
    "name": "Luke 8",
    "verses": [
        {
            "chapter": 8,
            "verse": 1,
            "name": "Luke 8:1",
            "text": "Soon afterward, he went on through every city and village, preaching and bringing the good news of the kingdom of God. And the twelve were with him,"
        },
        {
            "chapter": 8,
            "verse": 2,
            "name": "Luke 8:2",
            "text": "and also some women who had been healed of evil spirits and infirmities: Mary, called Magdalene, from whom seven demons had come out,"
        },
        {
            "chapter": 8,
            "verse": 3,
            "name": "Luke 8:3",
            "text": "and Joanna the wife of Chuza, Herod\u2019s steward, and Susanna, and many others who provided for them out of their means."
        },
        {
            "chapter": 8,
            "verse": 4,
            "name": "Luke 8:4",
            "text": "And when a great crowd came together and people from town after town came to him, he said in a parable:"
        },
        {
            "chapter": 8,
            "verse": 5,
            "name": "Luke 8:5",
            "text": "\"A sower went out to sow his seed. And as he sowed, some fell along the path; and it was trampled down, and the birds of the air devoured it."
        },
        {
            "chapter": 8,
            "verse": 6,
            "name": "Luke 8:6",
            "text": "Some fell on the rock; and as it grew up, it withered away, because it had no moisture."
        },
        {
            "chapter": 8,
            "verse": 7,
            "name": "Luke 8:7",
            "text": "And some fell among thorns, and the thorns grew up with it and choked it."
        },
        {
            "chapter": 8,
            "verse": 8,
            "name": "Luke 8:8",
            "text": "But others fell on good soil, sprang up, and yielded a crop a hundredfold.\" When he had said this he called out, \"He who has ears to hear, let him hear!\""
        },
        {
            "chapter": 8,
            "verse": 9,
            "name": "Luke 8:9",
            "text": "When his disciples asked him what this parable meant,"
        },
        {
            "chapter": 8,
            "verse": 10,
            "name": "Luke 8:10",
            "text": "he said, \"To you it has been given to know the secrets of the kingdom of God; but to others it is given in parables, so that \u2018Seeing they may not see, and hearing they may not understand.\u2019"
        },
        {
            "chapter": 8,
            "verse": 11,
            "name": "Luke 8:11",
            "text": "\"Now the parable is this: The seed is the word of God."
        },
        {
            "chapter": 8,
            "verse": 12,
            "name": "Luke 8:12",
            "text": "The ones along the path are those who hear; then the devil comes and takes away the word from their hearts, that they may not believe and be saved."
        },
        {
            "chapter": 8,
            "verse": 13,
            "name": "Luke 8:13",
            "text": "And the ones on the rock are those who, when they hear the word, receive it with joy; but these have no root, they believe for a while and in time of temptation fall away."
        },
        {
            "chapter": 8,
            "verse": 14,
            "name": "Luke 8:14",
            "text": "And the ones that fell among the thorns, they are those who hear, but as they go on their way they are choked by the cares and riches and pleasures of life, and their fruit does not mature."
        },
        {
            "chapter": 8,
            "verse": 15,
            "name": "Luke 8:15",
            "text": "But the ones that fell on the good soil are those who, having heard the word with a noble and good heart, keep it and bear fruit with patience."
        },
        {
            "chapter": 8,
            "verse": 16,
            "name": "Luke 8:16",
            "text": "\"No one, when he has lit a lamp, covers it with a vessel or puts it under a bed, but puts it on a lampstand, that those who enter may see the light."
        },
        {
            "chapter": 8,
            "verse": 17,
            "name": "Luke 8:17",
            "text": "For nothing is secret that will not be revealed, nor anything hidden that will not be known and come to light."
        },
        {
            "chapter": 8,
            "verse": 18,
            "name": "Luke 8:18",
            "text": "Therefore take heed how you hear. For whoever has, to him more will be given; and whoever does not have, even what he thinks he has will be taken from him.\""
        },
        {
            "chapter": 8,
            "verse": 19,
            "name": "Luke 8:19",
            "text": "Then his mother and his brothers came to him, but they could not reach him because of the crowd."
        },
        {
            "chapter": 8,
            "verse": 20,
            "name": "Luke 8:20",
            "text": "And it was told him, \"Your mother and your brothers are standing outside, desiring to see you.\""
        },
        {
            "chapter": 8,
            "verse": 21,
            "name": "Luke 8:21",
            "text": "But he said to them, \"My mother and my brothers are those who hear the word of God and do it.\""
        },
        {
            "chapter": 8,
            "verse": 22,
            "name": "Luke 8:22",
            "text": "One day he got into a boat with his disciples, and he said to them, \"Let us go over to the other side of the lake.\" So they set out."
        },
        {
            "chapter": 8,
            "verse": 23,
            "name": "Luke 8:23",
            "text": "As they sailed he fell asleep. And a windstorm came down on the lake, and they were filling with water, and were in danger."
        },
        {
            "chapter": 8,
            "verse": 24,
            "name": "Luke 8:24",
            "text": "And they went and woke him, saying, \"Master, Master, we are perishing!\" Then he awoke and rebuked the wind and the raging waves; and they ceased, and there was a calm."
        },
        {
            "chapter": 8,
            "verse": 25,
            "name": "Luke 8:25",
            "text": "He said to them, \"Where is your faith?\" And they were afraid, and they marveled, saying to one another, \"Who then is this, that he commands even the winds and water, and they obey him?\""
        },
        {
            "chapter": 8,
            "verse": 26,
            "name": "Luke 8:26",
            "text": "Then they sailed to the country of the Gerasenes, which is opposite Galilee."
        },
        {
            "chapter": 8,
            "verse": 27,
            "name": "Luke 8:27",
            "text": "When he stepped out on land, there met him a man from the city who had demons. For a long time he had worn no clothes, and he lived not in a house but in the tombs."
        },
        {
            "chapter": 8,
            "verse": 28,
            "name": "Luke 8:28",
            "text": "When he saw Jesus, he cried out and fell down before him, and said with a loud voice, \"What have you to do with me, Jesus, Son of the Most High God? I beg you, do not torment me!\""
        },
        {
            "chapter": 8,
            "verse": 29,
            "name": "Luke 8:29",
            "text": "For he had commanded the unclean spirit to come out of the man. For many times it had seized him, and he was kept under guard, bound with chains and shackles; and he broke the bonds and was driven by the demon into the wilderness."
        },
        {
            "chapter": 8,
            "verse": 30,
            "name": "Luke 8:30",
            "text": "Jesus asked him, \"What is your name?\" And he said, \"Legion\"; because many demons had entered him."
        },
        {
            "chapter": 8,
            "verse": 31,
            "name": "Luke 8:31",
            "text": "And they begged him repeatedly not to command them to go into the Abyss."
        },
        {
            "chapter": 8,
            "verse": 32,
            "name": "Luke 8:32",
            "text": "Now a large herd of swine was feeding there on the hillside; and they begged him to let them enter them. So he gave them permission."
        },
        {
            "chapter": 8,
            "verse": 33,
            "name": "Luke 8:33",
            "text": "Then the demons came out of the man and entered the swine, and the herd rushed down the steep bank into the lake and were drowned."
        },
        {
            "chapter": 8,
            "verse": 34,
            "name": "Luke 8:34",
            "text": "When those tending the pigs saw what had happened, they fled, and told it in the city and in the country."
        },
        {
            "chapter": 8,
            "verse": 35,
            "name": "Luke 8:35",
            "text": "Then people went out to see what had happened, and they came to Jesus, and found the man from whom the demons had gone, sitting at the feet of Jesus, clothed and in his right mind; and they were afraid."
        },
        {
            "chapter": 8,
            "verse": 36,
            "name": "Luke 8:36",
            "text": "Those who had seen it told them how he who had been demon-possessed was healed."
        },
        {
            "chapter": 8,
            "verse": 37,
            "name": "Luke 8:37",
            "text": "Then all the people of the surrounding region of the Gerasenes asked him to depart from them, for they were seized with great fear. So he got into the boat and returned."
        },
        {
            "chapter": 8,
            "verse": 38,
            "name": "Luke 8:38",
            "text": "The man from whom the demons had gone begged that he might be with him; but Jesus sent him away, saying,"
        },
        {
            "chapter": 8,
            "verse": 39,
            "name": "Luke 8:39",
            "text": "\"Return to your home, and tell how much God has done for you.\" And he went away, proclaiming throughout the whole city how much Jesus had done for him."
        },
        {
            "chapter": 8,
            "verse": 40,
            "name": "Luke 8:40",
            "text": "Now when Jesus returned, the crowd welcomed him, for they were all waiting for him."
        },
        {
            "chapter": 8,
            "verse": 41,
            "name": "Luke 8:41",
            "text": "And behold, there came a man named Jairus, who was a ruler of the synagogue; and he fell at Jesus\u2019 feet and begged him to come to his house,"
        },
        {
            "chapter": 8,
            "verse": 42,
            "name": "Luke 8:42",
            "text": "for he had an only daughter, about twelve years of age, and she was dying. But as he went, the people pressed round him."
        },
        {
            "chapter": 8,
            "verse": 43,
            "name": "Luke 8:43",
            "text": "And a woman who had a flow of blood for twelve years and could not be healed by anyone,"
        },
        {
            "chapter": 8,
            "verse": 44,
            "name": "Luke 8:44",
            "text": "came up behind him, and touched the fringe of his garment; and immediately her flow of blood stopped."
        },
        {
            "chapter": 8,
            "verse": 45,
            "name": "Luke 8:45",
            "text": "And Jesus said, \"Who touched me?\" When all denied it, Peter said, \"Master, the multitudes surround you and press upon you!\""
        },
        {
            "chapter": 8,
            "verse": 46,
            "name": "Luke 8:46",
            "text": "But Jesus said, \"Someone touched me; for I know that power has gone out from me.\""
        },
        {
            "chapter": 8,
            "verse": 47,
            "name": "Luke 8:47",
            "text": "When the woman saw that she was not hidden, she came trembling, and falling down before him declared in the presence of all the people why she had touched him, and how she had been immediately healed."
        },
        {
            "chapter": 8,
            "verse": 48,
            "name": "Luke 8:48",
            "text": "And he said to her, \"Daughter, your faith has made you well; go in peace.\""
        },
        {
            "chapter": 8,
            "verse": 49,
            "name": "Luke 8:49",
            "text": "While he was still speaking, someone came from the ruler of the synagogue\u2019s house and said, \"Your daughter is dead; do not trouble the Teacher any more.\""
        },
        {
            "chapter": 8,
            "verse": 50,
            "name": "Luke 8:50",
            "text": "But Jesus on hearing this answered him, \"Do not be afraid; only believe, and she will be well.\""
        },
        {
            "chapter": 8,
            "verse": 51,
            "name": "Luke 8:51",
            "text": "When he came into the house he permitted no one to go in with him except Peter, James, and John, and the father and mother of the girl."
        },
        {
            "chapter": 8,
            "verse": 52,
            "name": "Luke 8:52",
            "text": "Now all were wailing and mourning for her; but he said, \"Do not weep; she is not dead, but sleeping.\""
        },
        {
            "chapter": 8,
            "verse": 53,
            "name": "Luke 8:53",
            "text": "And they laughed at him, knowing that she was dead."
        },
        {
            "chapter": 8,
            "verse": 54,
            "name": "Luke 8:54",
            "text": "But he took her by the hand and called, saying, \"Child, arise.\""
        },
        {
            "chapter": 8,
            "verse": 55,
            "name": "Luke 8:55",
            "text": "Then her spirit returned, and she got up at once. And he directed that something should be given her to eat."
        },
        {
            "chapter": 8,
            "verse": 56,
            "name": "Luke 8:56",
            "text": "And her parents were astonished, but he charged them to tell no one what had happened."
        }
    ]
}