{
    "translation": "Sagradas Escrituras (1569)",
    "abbreviation": "sse",
    "lang": "es",
    "language": "Spanish",
    "direction": "LTR",
    "encoding": "",
    "book_nr": 53,
    "book_name": "2 Thessalonians",
    "chapter": 1,
    "name": "2 Thessalonians 1",
    "verses": [
        {
            "chapter": 1,
            "verse": 1,
            "name": "2 Thessalonians 1:1",
            "text": "Pablo, y Silvano, y Timoteo, a la Iglesia de los tesalonicenses <FI>congregada<Fi> en Dios nuestro Padre y en el Se\u00f1or nuestro, Jes\u00fas, el Cristo:"
        },
        {
            "chapter": 1,
            "verse": 2,
            "name": "2 Thessalonians 1:2",
            "text": "Gracia y paz teng\u00e1is de Dios nuestro Padre y del Se\u00f1or Jes\u00fas, el Cristo."
        },
        {
            "chapter": 1,
            "verse": 3,
            "name": "2 Thessalonians 1:3",
            "text": "Debemos siempre dar gracias a Dios por vosotros, hermanos, como es digno, por cuanto vuestra fe va creciendo, y la caridad de todos y cada uno de vosotros abunda entre vosotros;"
        },
        {
            "chapter": 1,
            "verse": 4,
            "name": "2 Thessalonians 1:4",
            "text": "tanto, que nosotros mismos nos gloriamos de vosotros en las Iglesias de Dios, de vuestra paciencia y fe en todas vuestras persecuciones y tribulaciones que sufr\u00eds;"
        },
        {
            "chapter": 1,
            "verse": 5,
            "name": "2 Thessalonians 1:5",
            "text": "en testimonio del justo juicio de Dios, para que se\u00e1is tenidos por dignos del Reino de Dios, por el cual asimismo padec\u00e9is."
        },
        {
            "chapter": 1,
            "verse": 6,
            "name": "2 Thessalonians 1:6",
            "text": "Porque es justo acerca de Dios pagar con tribulaci\u00f3n a los que os atribulan;"
        },
        {
            "chapter": 1,
            "verse": 7,
            "name": "2 Thessalonians 1:7",
            "text": "y a vosotros, que sois atribulados, daros reposo con nosotros, cuando se manifieste el Se\u00f1or Jes\u00fas del cielo con los Angeles de su potencia,"
        },
        {
            "chapter": 1,
            "verse": 8,
            "name": "2 Thessalonians 1:8",
            "text": "con llama de fuego, para dar el pago a los que no conocieron a Dios, ni obedecen al Evangelio del Se\u00f1or nuestro, Jes\u00fas, el Cristo;"
        },
        {
            "chapter": 1,
            "verse": 9,
            "name": "2 Thessalonians 1:9",
            "text": "los cuales ser\u00e1n castigados de eterna perdici\u00f3n por la presencia del Se\u00f1or, y por la gloria de su potencia,"
        },
        {
            "chapter": 1,
            "verse": 10,
            "name": "2 Thessalonians 1:10",
            "text": "cuando viniere para ser glorificado en sus santos, y a hacerse admirable en aquel d\u00eda en todos los que creyeron (por cuanto nuestro testimonio ha sido cre\u00eddo entre vosotros);"
        },
        {
            "chapter": 1,
            "verse": 11,
            "name": "2 Thessalonians 1:11",
            "text": "por lo cual, asimismo oramos siempre por vosotros, que nuestro Dios os tenga por dignos de su llamado, y llene de bondad a toda voluntad, y a <FI>toda<Fi> obra de fe con potencia,"
        },
        {
            "chapter": 1,
            "verse": 12,
            "name": "2 Thessalonians 1:12",
            "text": "para que el Nombre del Se\u00f1or nuestro, Jes\u00fas, el Cristo sea clarificado en vosotros, y vosotros en \u00e9l, por la gracia de nuestro Dios y del Se\u00f1or Jes\u00fas, el Cristo."
        }
    ]
}