{
    "translation": "Turkish",
    "abbreviation": "turkish",
    "lang": "tr",
    "language": "Turkish",
    "direction": "LTR",
    "encoding": "UTF-8",
    "book_nr": 31,
    "book_name": "Obadiah",
    "chapter": 1,
    "name": "Obadiah 1",
    "verses": [
        {
            "chapter": 1,
            "verse": 1,
            "name": "Obadiah 1:1",
            "text": "    Ovadya\u2019n\u0131n g\u00f6r\u00fcm\u00fc.   Egemen RAB\u2019bin Edom i\u00e7in s\u00f6yledikleri:  RAB\u2019den bir haber ald\u0131k: Uluslara g\u00f6nderdi\u011fi haberci, \u201cGelin, Edom\u2019la sava\u015fal\u0131m!\u201d diyor. "
        },
        {
            "chapter": 1,
            "verse": 2,
            "name": "Obadiah 1:2",
            "text": "Edom\u2019a, \u201cBak, seni uluslar aras\u0131nda k\u00fc\u00e7\u00fck d\u00fc\u015f\u00fcrece\u011fim, Herkes seni hor g\u00f6recek\u201d diyor. "
        },
        {
            "chapter": 1,
            "verse": 3,
            "name": "Obadiah 1:3",
            "text": "\u201cKaya kovuklar\u0131nda ya\u015fayan, Evini y\u00fckseklerde kuran sen! Y\u00fcre\u011findeki gurur seni aldatt\u0131. \u0130\u00e7inden, \u2018Beni kim yere indirebilir?\u2019 diyorsun. "
        },
        {
            "chapter": 1,
            "verse": 4,
            "name": "Obadiah 1:4",
            "text": "Kartal gibi y\u00fckselsen de, Yuvan\u0131 y\u0131ld\u0131zlar aras\u0131nda kursan da, Oradan indirece\u011fim seni\u201d diyor RAB.   "
        },
        {
            "chapter": 1,
            "verse": 5,
            "name": "Obadiah 1:5",
            "text": "\u201cH\u0131rs\u0131zlar ya da haydutlar gece sana gelselerdi, Yaln\u0131zca gereksindiklerini \u00e7almazlar m\u0131yd\u0131? \u00dcz\u00fcm toplayanlar ba\u011f\u0131na girseydi, Birka\u00e7 salk\u0131m b\u0131rakmazlar m\u0131yd\u0131? Ama seni ne felaketler bekliyor; "
        },
        {
            "chapter": 1,
            "verse": 6,
            "name": "Obadiah 1:6",
            "text": "Esav\u2019\u0131n her \u015feyi ya\u011fmalanacak, Gizli hazineleri ortaya \u00e7\u0131kar\u0131lacak. "
        },
        {
            "chapter": 1,
            "verse": 7,
            "name": "Obadiah 1:7",
            "text": "Seninle antla\u015fma yapanlar\u0131n hepsi Seni topra\u011f\u0131ndan s\u00fcrecek. G\u00fcvendi\u011fin insanlar Seni aldat\u0131p yenilgiye u\u011fratacak, Ekme\u011fini yiyenler sana tuzak kuracak Ve sen fark\u0131na varmayacaks\u0131n bile.\u201d   "
        },
        {
            "chapter": 1,
            "verse": 8,
            "name": "Obadiah 1:8",
            "text": "RAB diyor ki, \u201cO g\u00fcn Edom\u2019un bilge adamlar\u0131n\u0131, Esav\u2019\u0131n da\u011flar\u0131ndaki bilgi\u00e7leri yok edece\u011fim. "
        },
        {
            "chapter": 1,
            "verse": 9,
            "name": "Obadiah 1:9",
            "text": "Ey Teman, yi\u011fitlerin \u00f6yle bir korkuya kap\u0131lacak ki, Esav\u2019\u0131n da\u011flar\u0131nda bulunanlar\u0131n hepsi K\u0131y\u0131ma u\u011fray\u0131p yok olacak.   "
        },
        {
            "chapter": 1,
            "verse": 10,
            "name": "Obadiah 1:10",
            "text": "\u201cYakup soyundan gelen karde\u015flerine Yapt\u0131\u011f\u0131n zorbal\u0131ktan \u00f6t\u00fcr\u00fc utanca bo\u011fulacak Ve sonsuza dek yok olacaks\u0131n. "
        },
        {
            "chapter": 1,
            "verse": 11,
            "name": "Obadiah 1:11",
            "text": "\u00c7\u00fcnk\u00fc yabanc\u0131lar onlar\u0131n mal\u0131n\u0131 m\u00fclk\u00fcn\u00fc ya\u011fmalad\u0131klar\u0131 g\u00fcn Uzakta durup seyrettin. \u00d6teki uluslar kap\u0131lar\u0131ndan i\u00e7eri girip Yeru\u015falim i\u00e7in kura \u00e7ektiklerinde Sen de onlardan biri gibi davrand\u0131n. "
        },
        {
            "chapter": 1,
            "verse": 12,
            "name": "Obadiah 1:12",
            "text": "Yahudal\u0131 karde\u015flerinin o k\u00f6t\u00fc g\u00fcn\u00fcnden Zevk almamal\u0131yd\u0131n. Ba\u015flar\u0131na gelen y\u0131k\u0131ma sevinmemeli, S\u0131k\u0131nt\u0131l\u0131 g\u00fcnlerinde onlarla alay etmemeliydin. "
        },
        {
            "chapter": 1,
            "verse": 13,
            "name": "Obadiah 1:13",
            "text": "Halk\u0131m felakete u\u011frad\u0131\u011f\u0131 g\u00fcn Kente girmemeliydin, O g\u00fcn halk\u0131m\u0131n u\u011frad\u0131\u011f\u0131 k\u00f6t\u00fcl\u00fckten zevk almamal\u0131, Mal\u0131n\u0131 m\u00fclk\u00fcn\u00fc ele ge\u00e7irmeye kalkmamal\u0131yd\u0131n. "
        },
        {
            "chapter": 1,
            "verse": 14,
            "name": "Obadiah 1:14",
            "text": "Ka\u00e7maya \u00e7al\u0131\u015fanlar\u0131 \u00f6ld\u00fcrmek i\u00e7in Yol a\u011fz\u0131nda durmamal\u0131, O s\u0131k\u0131nt\u0131l\u0131 g\u00fcnde kurtulanlar\u0131 D\u00fc\u015fmana teslim etmemeliydin.\u201d       "
        },
        {
            "chapter": 1,
            "verse": 15,
            "name": "Obadiah 1:15",
            "text": "\u201cRAB\u2019bin b\u00fct\u00fcn uluslar\u0131 yarg\u0131layaca\u011f\u0131 g\u00fcn yakla\u015ft\u0131. Ey Edom, ne yapt\u0131ysan sana da ayn\u0131s\u0131 yap\u0131lacak. Yapt\u0131klar\u0131n kendi ba\u015f\u0131na gelecek. "
        },
        {
            "chapter": 1,
            "verse": 16,
            "name": "Obadiah 1:16",
            "text": "Ey Yahudal\u0131lar, kutsal da\u011f\u0131mda nas\u0131l i\u00e7tiyseniz, B\u00fct\u00fcn uluslar da \u00f6yle i\u00e7ecekler. \u0130\u00e7ip i\u00e7ip yok olacaklar, Hi\u00e7 var olmam\u0131\u015f gibi.\u201d      "
        },
        {
            "chapter": 1,
            "verse": 17,
            "name": "Obadiah 1:17",
            "text": "\u201cAma kurtulanlar Siyon Da\u011f\u0131\u2019nda toplanacak Ve oras\u0131 kutsal olacak. Yakup soyu da miras\u0131na kavu\u015facak. "
        },
        {
            "chapter": 1,
            "verse": 18,
            "name": "Obadiah 1:18",
            "text": "Yakup soyu ate\u015f, Yusuf soyu alev, Esav soyu an\u0131z olacak. Onlar\u0131 yak\u0131p yok edecekler. Esav soyundan kurtulan olmayacak.\u201d RAB b\u00f6yle diyor. "
        },
        {
            "chapter": 1,
            "verse": 19,
            "name": "Obadiah 1:19",
            "text": "Yahudal\u0131lar\u2019dan Negev halk\u0131 Esav\u2019\u0131n da\u011flar\u0131n\u0131; \u015eefela halk\u0131 Filist b\u00f6lgesini; Yahudal\u0131lar\u2019\u0131n t\u00fcm\u00fc Efrayim ve Samiriye topraklar\u0131n\u0131; Benyaminliler Gilat\u2019\u0131 m\u00fclk edinecekler."
        },
        {
            "chapter": 1,
            "verse": 20,
            "name": "Obadiah 1:20",
            "text": "Kenan\u2019dan s\u00fcr\u00fclm\u00fc\u015f olan \u0130srailli sava\u015f\u00e7\u0131lar Sarefat\u2019a kadar uzanan topraklar\u0131, Sefarat\u2019taki Yeru\u015falimli s\u00fcrg\u00fcnler de Negev\u2019deki kentleri m\u00fclk edinecekler."
        },
        {
            "chapter": 1,
            "verse": 21,
            "name": "Obadiah 1:21",
            "text": "Halk\u0131 kurtaranlar Esav\u2019\u0131n da\u011flar\u0131n\u0131 y\u00f6netimleri alt\u0131na almak i\u00e7in Siyon Da\u011f\u0131\u2019na \u00e7\u0131kacaklar ve egemenlik RAB\u2019bin olacak.    "
        }
    ]
}