{
    "translation": "Schlachter (1951)",
    "abbreviation": "schlachter",
    "lang": "de",
    "language": "German",
    "direction": "LTR",
    "encoding": "",
    "book_nr": 14,
    "book_name": "2. Chronik",
    "chapter": 27,
    "name": "2. Chronik 27",
    "verses": [
        {
            "chapter": 27,
            "verse": 1,
            "name": "2. Chronik 27:1",
            "text": "Jotam war f\u00fcnfundzwanzig Jahre alt, als er K\u00f6nig ward, und regierte sechzehn Jahre lang zu Jerusalem. Und seine Mutter hie\u00df Jerusa, eine Tochter Zadoks."
        },
        {
            "chapter": 27,
            "verse": 2,
            "name": "2. Chronik 27:2",
            "text": "Und er tat, was recht war in den Augen des HERRN, ganz wie sein Vater Ussia getan hatte, nur da\u00df er nicht in den Tempel des HERRN ging. Aber das Volk handelte noch verderblich."
        },
        {
            "chapter": 27,
            "verse": 3,
            "name": "2. Chronik 27:3",
            "text": "Er baute das obere Tor am Hause des HERRN; auch an der Mauer des Ophel baute er viel."
        },
        {
            "chapter": 27,
            "verse": 4,
            "name": "2. Chronik 27:4",
            "text": "Er baute auch St\u00e4dte auf dem Gebirge Juda; und in den W\u00e4ldern baute er Burgen und T\u00fcrme."
        },
        {
            "chapter": 27,
            "verse": 5,
            "name": "2. Chronik 27:5",
            "text": "Und er stritt mit dem K\u00f6nig der Kinder Ammon und \u00fcberw\u00e4ltigte sie, also da\u00df ihm die Kinder Ammon in jenem Jahr hundert Talente Silber und zehntausend Kor Weizen und zehntausend Kor Gerste gaben. Solches entrichteten ihm die Kinder Ammon auch im zweiten und dritten Jahr."
        },
        {
            "chapter": 27,
            "verse": 6,
            "name": "2. Chronik 27:6",
            "text": "Also erstarkte Jotam; denn er wandelte richtig vor dem HERRN, seinem Gott."
        },
        {
            "chapter": 27,
            "verse": 7,
            "name": "2. Chronik 27:7",
            "text": "Was aber mehr von Jotam zu sagen ist, und alle seine Wege und Kriege, siehe, das ist aufgezeichnet im Buch der K\u00f6nige von Israel und Juda."
        },
        {
            "chapter": 27,
            "verse": 8,
            "name": "2. Chronik 27:8",
            "text": "Mit f\u00fcnfundzwanzig Jahren war er K\u00f6nig geworden und regierte sechzehn Jahre lang zu Jerusalem."
        },
        {
            "chapter": 27,
            "verse": 9,
            "name": "2. Chronik 27:9",
            "text": "Und Jotam entschlief mit seinen V\u00e4tern; und sie begruben ihn in der Stadt Davids; und sein Sohn Ahas ward K\u00f6nig an seiner Statt."
        }
    ]
}