{
    "translation": "Dari Translation",
    "abbreviation": "dari",
    "lang": "prs",
    "language": "Dari",
    "direction": "RTL",
    "encoding": "UTF-8",
    "book_nr": 7,
    "book_name": "Judges",
    "chapter": 5,
    "name": "Judges 5",
    "verses": [
        {
            "chapter": 5,
            "verse": 1,
            "name": "Judges 5:1",
            "text": "   \u0628\u0639\u062f \u062f\u0631 \u0647\u0645\u0627\u0646 \u0631\u0648\u0632 \u062f\u0628\u0648\u0631\u0647 \u0648 \u0628\u0627\u0631\u0627\u0642 \u067e\u0633\u0631 \u0627\u064e\u0628\u06cc\u0646\u0648\u0639\u064e\u0645 \u0627\u06cc\u0646 \u0633\u0631\u0648\u062f \u0631\u0627 \u062e\u0648\u0627\u0646\u062f\u0646\u062f:   "
        },
        {
            "chapter": 5,
            "verse": 2,
            "name": "Judges 5:2",
            "text": "\u00ab\u062e\u062f\u0627 \u0631\u0627 \u0633\u062a\u0627\u06cc\u0634 \u06a9\u0646\u06cc\u062f! \u0631\u0647\u0628\u0631\u0627\u0646 \u0634\u062c\u0627\u0639\u0627\u0646\u0647 \u0628\u0647 \u062c\u0646\u06af \u0631\u0641\u062a\u0646\u062f\u060c \u0648 \u0645\u0631\u062f\u0645 \u0628\u0627 \u0645\u06cc\u0644 \u062f\u0644 \u0627\u0632 \u0622\u0646 \u0647\u0627 \u067e\u06cc\u0631\u0648\u06cc \u0646\u0645\u0648\u062f\u0646\u062f. "
        },
        {
            "chapter": 5,
            "verse": 3,
            "name": "Judges 5:3",
            "text": "\u0627\u06cc \u067e\u0627\u062f\u0634\u0627\u0647\u0627\u0646 \u0628\u0634\u0646\u0648\u06cc\u062f \u0648 \u0627\u06cc \u062d\u0627\u06a9\u0645\u0627\u0646 \u06af\u0648\u0634 \u0628\u062f\u0647\u06cc\u062f! \u0645\u0646 \u0628\u0631\u0627\u06cc \u062e\u062f\u0627\u0648\u0646\u062f \u0633\u0631\u0648\u062f \u0645\u06cc \u062e\u0648\u0627\u0646\u0645 \u0648 \u0628\u0631\u0627\u06cc \u062e\u062f\u0627\u0648\u0646\u062f\u060c \u062e\u062f\u0627\u06cc \u0627\u0633\u0631\u0627\u0626\u06cc\u0644 \u0646\u063a\u0645\u0647 \u0645\u06cc \u0633\u0631\u0627\u06cc\u0645.   "
        },
        {
            "chapter": 5,
            "verse": 4,
            "name": "Judges 5:4",
            "text": "\u0627\u06cc \u062e\u062f\u0627\u0648\u0646\u062f\u060c \u0648\u0642\u062a\u06cc \u0627\u0632 \u0633\u0639\u06cc\u0631 \u0645\u0627 \u0631\u0627 \u0631\u0647\u0628\u0631\u06cc \u06a9\u0631\u062f\u06cc \u0648 \u0647\u0646\u06af\u0627\u0645\u06cc \u06a9\u0647 \u0627\u0632 \u0635\u062d\u0631\u0627\u06cc \u0627\u062f\u0648\u0645 \u06af\u0630\u0634\u062a\u06cc\u060c \u0632\u0645\u06cc\u0646 \u0644\u0631\u0632\u06cc\u062f. \u0627\u0632 \u0622\u0633\u0645\u0627\u0646 \u0647\u0627 \u0628\u0627\u0631\u0627\u0646 \u0628\u0627\u0631\u06cc\u062f \u0648 \u0627\u0632 \u0627\u0628\u0631 \u0647\u0627 \u0628\u0627\u0631\u0634 \u0622\u0645\u062f. "
        },
        {
            "chapter": 5,
            "verse": 5,
            "name": "Judges 5:5",
            "text": "\u06a9\u0648\u0647\u0647\u0627 \u062f\u0631 \u0628\u0631\u0627\u0628\u0631 \u062e\u062f\u0627\u0648\u0646\u062f\u0650 \u0633\u06cc\u0646\u0627 \u062a\u06a9\u0627\u0646 \u062e\u0648\u0631\u062f\u0646\u062f \u0648 \u062f\u0631 \u0628\u0631\u0627\u0628\u0631 \u062e\u062f\u0627\u0648\u0646\u062f\u060c \u062e\u062f\u0627\u06cc \u0627\u0633\u0631\u0627\u0626\u06cc\u0644 \u0628\u0647 \u0644\u0631\u0632\u0647 \u0622\u0645\u062f\u0646\u062f.   "
        },
        {
            "chapter": 5,
            "verse": 6,
            "name": "Judges 5:6",
            "text": "\u062f\u0631 \u0627\u06cc\u0627\u0645 \u0634\u064e\u0645\u062c\u064e\u0631 \u067e\u0633\u0631 \u0639\u064e\u0646\u0627\u062a \u0648 \u062f\u0631 \u062f\u0648\u0631\u0627\u0646 \u06cc\u0627\u0639\u06cc\u0644 \u062c\u0627\u062f\u0647 \u0647\u0627 \u0645\u062a\u0631\u0648\u06a9 \u0634\u062f\u0646\u062f \u0648 \u0645\u0633\u0627\u0641\u0631\u0627\u0646 \u0628\u0631\u0627\u0647 \u06a9\u062c \u0648 \u067e\u06cc\u0686 \u0631\u0641\u062a\u0646\u062f. "
        },
        {
            "chapter": 5,
            "verse": 7,
            "name": "Judges 5:7",
            "text": "\u062d\u06a9\u0645\u0631\u0627\u0646\u0627\u0646 \u062f\u0631 \u0627\u0633\u0631\u0627\u0626\u06cc\u0644 \u0646\u0627\u06cc\u0627\u0628 \u0648 \u0646\u0627\u0628\u0648\u062f \u0634\u062f\u0646\u062f \u062a\u0627 \u0627\u06cc\u0646\u06a9\u0647 \u062a\u0648 \u0627\u06cc \u062f\u0628\u0648\u0631\u0647\u060c \u0628\u0647 \u0639\u0646\u0648\u0627\u0646 \u0645\u0627\u062f\u0631 \u0627\u0633\u0631\u0627\u0626\u06cc\u0644 \u0638\u0647\u0648\u0631 \u06a9\u0631\u062f\u06cc. "
        },
        {
            "chapter": 5,
            "verse": 8,
            "name": "Judges 5:8",
            "text": "\u0686\u0648\u0646 \u0642\u0648\u0645 \u0627\u0633\u0631\u0627\u0626\u06cc\u0644 \u062e\u062f\u0627\u06cc\u0627\u0646 \u0646\u0648 \u0631\u0627 \u0642\u0628\u0648\u0644 \u06a9\u0631\u062f\u0646\u062f\u060c \u062c\u0646\u06af \u0628\u0647 \u062f\u0631\u0648\u0627\u0632\u06c0 \u0634\u0647\u0631 \u0631\u0633\u06cc\u062f. \u0648 \u062f\u0631 \u0628\u06cc\u0646 \u0686\u0647\u0644 \u0647\u0632\u0627\u0631 \u0645\u0631\u062f \u0627\u0633\u0631\u0627\u0626\u06cc\u0644 \u0647\u06cc\u0686 \u0633\u067e\u0631 \u0648 \u0646\u06cc\u0632\u0647 \u0627\u06cc \u06cc\u0627\u0641\u062a \u0646\u0645\u06cc \u0634\u062f. "
        },
        {
            "chapter": 5,
            "verse": 9,
            "name": "Judges 5:9",
            "text": "\u0631\u0647\u0628\u0631\u0627\u0646 \u0627\u0633\u0631\u0627\u0626\u06cc\u0644 \u0631\u0627 \u062f\u0648\u0633\u062a \u062f\u0627\u0631\u0645 \u06a9\u0647 \u062e\u0648\u062f \u0631\u0627 \u0628\u0627 \u0645\u06cc\u0644 \u0648 \u0631\u063a\u0628\u062a \u0648\u0642\u0641 \u0645\u0631\u062f\u0645 \u06a9\u0631\u062f\u0646\u062f. \u062e\u062f\u0627\u0648\u0646\u062f \u0631\u0627 \u0633\u062a\u0627\u06cc\u0634 \u06a9\u0646\u06cc\u062f. "
        },
        {
            "chapter": 5,
            "verse": 10,
            "name": "Judges 5:10",
            "text": "\u0627\u06cc \u06a9\u0633\u0627\u0646\u06cc \u06a9\u0647 \u0628\u0631 \u0627\u0644\u0627\u063a\u0647\u0627\u06cc \u0633\u0641\u06cc\u062f \u0633\u0648\u0627\u0631 \u0647\u0633\u062a\u06cc\u062f \u0648 \u0628\u0631 \u0642\u0627\u0644\u06cc\u0646 \u0647\u0627\u06cc \u0631\u0646\u06af\u06cc\u0646 \u0648 \u06af\u0631\u0627\u0646\u0628\u0647\u0627 \u0645\u06cc \u0646\u0634\u06cc\u0646\u06cc\u062f \u0648 \u0634\u0645\u0627 \u0627\u06cc \u0631\u0647\u0631\u0648\u0627\u0646\u060c \u062f\u0631 \u0633\u062a\u0627\u06cc\u0634 \u062e\u062f\u0627\u0648\u0646\u062f \u0647\u0645\u0646\u0648\u0627 \u0634\u0648\u06cc\u062f. "
        },
        {
            "chapter": 5,
            "verse": 11,
            "name": "Judges 5:11",
            "text": "\u0646\u0648\u0627\u0632\u0646\u062f\u06af\u0627\u0646 \u062f\u0631 \u06a9\u0646\u0627\u0631 \u0686\u0634\u0645\u0647 \u0633\u0627\u0631\u0627\u0646 \u0646\u0648\u0627\u06cc \u0641\u062a\u062d \u0648 \u0638\u0641\u0631 \u062e\u062f\u0627\u0648\u0646\u062f \u0631\u0627 \u0632\u0645\u0632\u0645\u0647 \u0645\u06cc \u06a9\u0646\u0646\u062f. \u0648 \u0642\u0635\u06cc\u062f\u06c0 \u06a9\u0627\u0631\u0647\u0627\u06cc \u0639\u0627\u062f\u0644\u0627\u0646\u06c0 \u062e\u062f\u0627\u0648\u0646\u062f \u0631\u0627 \u0645\u06cc \u062e\u0648\u0627\u0646\u0646\u062f.   \u0645\u0631\u062f\u0627\u0646 \u062e\u062f\u0627\u0648\u0646\u062f \u0628\u0627 \u067e\u06cc\u0631\u0648\u0632\u06cc \u0628\u0647 \u062f\u0631\u0648\u0627\u0632\u0647 \u0647\u0627\u06cc \u0634\u0647\u0631 \u0631\u0633\u06cc\u062f\u0646\u062f. "
        },
        {
            "chapter": 5,
            "verse": 12,
            "name": "Judges 5:12",
            "text": "\u0628\u06cc\u062f\u0627\u0631 \u0634\u0648 \u0627\u06cc \u062f\u0628\u0648\u0631\u0647! \u0628\u06cc\u062f\u0627\u0631 \u0634\u0648! \u0628\u06cc\u062f\u0627\u0631 \u0634\u0648\u060c \u0628\u06cc\u062f\u0627\u0631 \u0634\u0648 \u0648 \u0632\u0645\u0632\u0645\u0647 \u06a9\u0646! \u0628\u06cc\u062f\u0627\u0631 \u0634\u0648 \u0627\u06cc \u0628\u0627\u0631\u0627\u0642! \u0627\u06cc \u067e\u0633\u0631 \u0627\u064e\u0628\u06cc\u0646\u0648\u0639\u064e\u0645! \u0627\u0633\u06cc\u0631\u0627\u0646 \u0631\u0627 \u0628\u0647 \u0627\u0633\u0627\u0631\u062a \u0628\u0628\u0631! "
        },
        {
            "chapter": 5,
            "verse": 13,
            "name": "Judges 5:13",
            "text": "\u0622\u0646\u06af\u0627\u0647 \u0645\u0631\u062f\u0645 \u0648\u0641\u0627\u062f\u0627\u0631 \u0627\u0632 \u06a9\u0648\u0647 \u067e\u0627\u0626\u06cc\u0646 \u0634\u062f\u0646\u062f \u0648 \u0642\u0648\u0645 \u062e\u062f\u0627\u0648\u0646\u062f \u0628\u062e\u0627\u0637\u0631 \u0645\u0646 \u0628\u0633\u0648\u06cc \u0632\u0648\u0631\u0645\u0646\u062f\u0627\u0646 \u0642\u062f\u0645 \u0628\u0631\u062f\u0627\u0634\u062a\u0646\u062f. "
        },
        {
            "chapter": 5,
            "verse": 14,
            "name": "Judges 5:14",
            "text": "\u0645\u0631\u062f\u0645 \u0627\u0641\u0631\u0627\u06cc\u0645 \u0627\u0632 \u0633\u0631\u0632\u0645\u06cc\u0646 \u0639\u0645\u0627\u0644\u06cc\u0642 \u0622\u0645\u062f\u0646\u062f \u0648 \u0645\u0631\u062f\u0645\u0627\u0646 \u0628\u0646\u06cc\u0627\u0645\u06cc\u0646 \u0628\u0627 \u067e\u06cc\u0631\u0648\u0627\u0646\u062a \u0647\u0645\u0631\u0627\u0647\u06cc \u06a9\u0631\u062f\u0646\u062f. \u0627\u0632 \u0645\u0627\u062e\u06cc\u0631 \u062d\u0627\u06a9\u0645\u0627\u0646 \u0648 \u0627\u0632 \u0632\u0628\u0648\u0644\u0648\u0646 \u0633\u0631\u062f\u0627\u0631\u0627\u0646 \u0633\u067e\u0627\u0647 \u0622\u0645\u062f\u0646\u062f. "
        },
        {
            "chapter": 5,
            "verse": 15,
            "name": "Judges 5:15",
            "text": "\u0631\u0647\u0628\u0631\u0627\u0646 \u0627\u06cc\u0633\u064e\u0633\u06a9\u0627\u0631 \u0628\u0627 \u062f\u0628\u0648\u0631\u0647 \u0648 \u0628\u0627\u0631\u0627\u0642 \u0622\u0645\u062f\u0646\u062f \u0648 \u0628\u0647 \u0648\u0627\u062f\u06cc \u0647\u062c\u0648\u0645 \u0622\u0648\u0631\u062f\u0646\u062f. \u0627\u0645\u0627 \u062f\u0631 \u0628\u06cc\u0646 \u0642\u0628\u06cc\u0644\u06c0 \u0631\u0624\u0628\u06cc\u0646 \u0646\u0641\u0627\u0642 \u0628\u0648\u062f \u0648 \u0628\u0627\u0647\u0645 \u062f\u0639\u0648\u0627 \u062f\u0627\u0634\u062a\u0646\u062f. "
        },
        {
            "chapter": 5,
            "verse": 16,
            "name": "Judges 5:16",
            "text": "\u0686\u0631\u0627 \u062f\u0631 \u0628\u06cc\u0646 \u0637\u0648\u06cc\u0644\u0647 \u0647\u0627 \u0645\u0639\u0637\u0644 \u0634\u062f\u06cc\u061f \u0628\u0631\u0627\u06cc \u0627\u06cc\u0646\u06a9\u0647 \u0646\u0648\u0627\u06cc \u0646\u064e\u06cc \u0631\u0627 \u0628\u0634\u0646\u0648\u06cc\u061f \u0628\u0644\u06cc\u060c \u062f\u0631 \u0628\u06cc\u0646 \u0645\u0631\u062f\u0645 \u0631\u0624\u0628\u06cc\u0646 \u0646\u0641\u0627\u0642 \u0628\u0648\u062f \u0648 \u0628\u0627\u0647\u0645 \u062f\u0639\u0648\u0627 \u062f\u0627\u0634\u062a\u0646\u062f. "
        },
        {
            "chapter": 5,
            "verse": 17,
            "name": "Judges 5:17",
            "text": "\u062c\u0650\u0644\u0639\u0627\u062f \u0628\u0647 \u0622\u0646 \u0637\u0631\u0641 \u062f\u0631\u06cc\u0627\u06cc \u0627\u064f\u0631\u062f\u0646 \u0645\u0627\u0646\u062f. \u062f\u0627\u0646 \u0686\u0631\u0627 \u067e\u06cc\u0634 \u06a9\u0634\u062a\u06cc \u0647\u0627 \u0645\u0639\u0637\u0644 \u0634\u062f\u061f \u0627\u064e\u0634\u06cc\u0631 \u062f\u0631 \u06a9\u0646\u0627\u0631 \u0633\u0627\u062d\u0644\u060c \u0622\u0631\u0627\u0645 \u0646\u0634\u0633\u062a \u0648 \u062f\u0631 \u0628\u0646\u062f\u0631\u0647\u0627 \u0633\u0627\u06a9\u0646 \u0634\u062f. "
        },
        {
            "chapter": 5,
            "verse": 18,
            "name": "Judges 5:18",
            "text": "\u0645\u0631\u062f\u0645 \u0642\u0628\u0627\u06cc\u0644 \u0632\u0628\u0648\u0644\u0648\u0646 \u0648 \u0646\u0641\u062a\u0627\u0644\u06cc \u0632\u0646\u062f\u06af\u06cc \u062e\u0648\u062f \u0631\u0627 \u062f\u0631 \u0645\u06cc\u062f\u0627\u0646 \u062c\u0646\u06af \u062f\u0631 \u062e\u0637\u0631 \u0627\u0646\u062f\u0627\u062e\u062a\u0646\u062f.   "
        },
        {
            "chapter": 5,
            "verse": 19,
            "name": "Judges 5:19",
            "text": "\u067e\u0627\u062f\u0634\u0627\u0647\u0627\u0646 \u0622\u0645\u062f\u0646\u062f \u0648 \u062c\u0646\u06af\u06cc\u062f\u0646\u062f. \u067e\u0627\u062f\u0634\u0627\u0647\u0627\u0646 \u06a9\u0646\u0639\u0627\u0646 \u062f\u0631 \u062a\u064e\u0639\u0646\u064e\u06a9 \u0648 \u0686\u0634\u0645\u0647 \u0647\u0627\u06cc \u0645\u0650\u062c\u0650\u062f\u0648 \u062c\u0646\u06af \u06a9\u0631\u062f\u0646\u062f\u060c \u0627\u0645\u0627 \u063a\u0646\u06cc\u0645\u062a\u06cc \u0627\u0632 \u0646\u0642\u0631\u0647 \u0628\u0647 \u062f\u0633\u062a \u0646\u06cc\u0627\u0648\u0631\u062f\u0646\u062f. "
        },
        {
            "chapter": 5,
            "verse": 20,
            "name": "Judges 5:20",
            "text": "\u0633\u062a\u0627\u0631\u06af\u0627\u0646 \u0627\u0632 \u0622\u0633\u0645\u0627\u0646 \u062c\u0646\u06af \u06a9\u0631\u062f\u0646\u062f\u060c \u0622\u0646 \u0647\u0627 \u0627\u0632 \u0645\u062f\u0627\u0631 \u062e\u0648\u062f \u0628\u0627 \u0633\u0650\u06cc\u0633\u064e\u0631\u0627 \u062c\u0646\u06af\u06cc\u062f\u0646\u062f. "
        },
        {
            "chapter": 5,
            "verse": 21,
            "name": "Judges 5:21",
            "text": "\u062f\u0631\u06cc\u0627\u06cc \u062e\u0631\u0648\u0634\u0627\u0646 \u0642\u06cc\u0634\u0648\u0646 \u0622\u0646 \u0647\u0627 \u0631\u0627 \u062f\u0631 \u0631\u0628\u0648\u062f. \u0627\u06cc \u062c\u0627\u0646 \u0645\u0646\u060c \u0628\u0627 \u0634\u062c\u0627\u0639\u062a \u0642\u062f\u0645 \u0628\u0631\u062f\u0627\u0631! "
        },
        {
            "chapter": 5,
            "verse": 22,
            "name": "Judges 5:22",
            "text": "\u0628\u0639\u062f \u0635\u062f\u0627\u06cc \u0628\u0644\u0646\u062f \u0633\u064f\u0645 \u0627\u0633\u067e\u0627\u0646 \u062f\u0634\u0645\u0646\u0627\u0646 \u0634\u0646\u06cc\u062f\u0647 \u0634\u062f. "
        },
        {
            "chapter": 5,
            "verse": 23,
            "name": "Judges 5:23",
            "text": "\u0641\u0631\u0634\u062a\u06c0 \u062e\u062f\u0627\u0648\u0646\u062f \u0645\u06cc \u06af\u0648\u06cc\u062f \u06a9\u0647 \u0645\u06cc\u0631\u0648\u0632 \u0631\u0627 \u0644\u0639\u0646\u062a \u06a9\u0646\u06cc\u062f. \u0628\u0647 \u0628\u0627\u0634\u0646\u062f\u06af\u0627\u0646 \u0622\u0646 \u0628\u0633\u062e\u062a\u06cc \u0646\u0641\u0631\u06cc\u0646 \u0646\u0645\u0627\u0626\u06cc\u062f\u060c \u0632\u06cc\u0631\u0627 \u0622\u0646 \u0647\u0627 \u0628\u0631\u0627\u06cc \u06a9\u0645\u06a9 \u0628\u0647 \u062e\u062f\u0627\u0648\u0646\u062f \u0646\u06cc\u0627\u0645\u062f\u0646\u062f \u0648 \u062f\u0631 \u062c\u0646\u06af \u0628\u0627 \u062f\u0634\u0645\u0646\u0627\u0646\u0634 \u0628\u0647 \u0627\u0648 \u0645\u062f\u062f \u0646\u06a9\u0631\u062f\u0646\u062f.   "
        },
        {
            "chapter": 5,
            "verse": 24,
            "name": "Judges 5:24",
            "text": "\u062e\u0648\u0634\u0627 \u0628\u062d\u0627\u0644 \u06cc\u0627\u0639\u06cc\u0644\u060c \u0632\u0646 \u062d\u0627\u0628\u0631 \u0642\u064e\u06cc\u0646\u06cc! \u0627\u0648 \u0627\u0632 \u062a\u0645\u0627\u0645 \u0632\u0646\u0627\u0646 \u062e\u06cc\u0645\u0647 \u0646\u0634\u06cc\u0646 \u0632\u06cc\u0627\u062f\u062a\u0631 \u0628\u0631\u06a9\u062a \u0628\u0628\u06cc\u0646\u062f. "
        },
        {
            "chapter": 5,
            "verse": 25,
            "name": "Judges 5:25",
            "text": "\u0633\u0650\u06cc\u0633\u064e\u0631\u0627 \u0622\u0628 \u062e\u0648\u0627\u0633\u062a \u0648 \u06cc\u0627\u0639\u06cc\u0644 \u0634\u06cc\u0631 \u0648 \u0642\u06cc\u0645\u0627\u0642 \u0631\u0627 \u062f\u0631 \u062c\u0627\u0645 \u0634\u0627\u0647\u0627\u0646\u0647 \u0628\u0647 \u0627\u0648 \u062f\u0627\u062f. "
        },
        {
            "chapter": 5,
            "verse": 26,
            "name": "Judges 5:26",
            "text": "\u0628\u0639\u062f \u0645\u06cc\u062e \u062e\u06cc\u0645\u0647 \u0648 \u0686\u06a9\u0634 \u06a9\u0627\u0631\u06af\u0631 \u0631\u0627 \u06af\u0631\u0641\u062a \u0648 \u062f\u0631 \u0634\u0642\u06cc\u0642\u06c0 \u0633\u0650\u06cc\u0633\u064e\u0631\u0627 \u0641\u0631\u0648\u0628\u064f\u0631\u062f. \u0633\u0631\u0634 \u0631\u0627 \u0634\u06a9\u0633\u062a \u0648 \u0634\u0642\u06cc\u0642\u0647 \u0627\u0634 \u0631\u0627 \u0634\u06af\u0627\u0641\u062a. "
        },
        {
            "chapter": 5,
            "verse": 27,
            "name": "Judges 5:27",
            "text": "\u0627\u0648 \u067e\u06cc\u0634 \u067e\u0627\u06cc\u0634 \u062e\u064e\u0645 \u0634\u062f \u0648 \u0627\u0641\u062a\u0627\u062f. \u0628\u0644\u06cc\u060c \u062f\u0631 \u067e\u06cc\u0634 \u067e\u0627\u06cc\u0634\u060c \u062f\u0631 \u062c\u0627\u0626\u06cc\u06a9\u0647 \u062e\u064e\u0645 \u0634\u062f\u060c \u0627\u0641\u062a\u0627\u062f \u0648 \u0645\u064f\u0631\u062f.   "
        },
        {
            "chapter": 5,
            "verse": 28,
            "name": "Judges 5:28",
            "text": "\u0645\u0627\u062f\u0631 \u0633\u0650\u06cc\u0633\u064e\u0631\u0627 \u0627\u0632 \u0631\u0627\u0647 \u06a9\u0644\u06a9\u06cc\u0646 \u0645\u06cc \u062f\u06cc\u062f \u0648 \u0627\u0632 \u0634\u0628\u06a9\u06c0 \u06a9\u0644\u06a9\u06cc\u0646 \u0646\u06af\u0627\u0647 \u0645\u06cc \u06a9\u0631\u062f \u0648 \u0645\u0646\u062a\u0638\u0631 \u0622\u0645\u062f\u0646 \u0627\u0648 \u0628\u0648\u062f. \u06af\u0641\u062a: \u00ab\u0686\u0631\u0627 \u0639\u0631\u0627\u062f\u06c0 \u0627\u0648 \u062f\u0631 \u0622\u0645\u062f\u0646 \u062a\u0623\u062e\u06cc\u0631 \u06a9\u0631\u062f\u061f \u0686\u0631\u0627 \u0622\u0648\u0627\u0632 \u0627\u0631\u0627\u0628\u0647 \u0647\u0627\u06cc \u0639\u0631\u0627\u062f\u0647 \u0627\u0634 \u0646\u0645\u06cc \u0622\u06cc\u062f\u061f\u00bb "
        },
        {
            "chapter": 5,
            "verse": 29,
            "name": "Judges 5:29",
            "text": "\u062e\u0627\u0646\u0645\u0647\u0627\u06cc \u062f\u0627\u0646\u0634\u0645\u0646\u062f\u0634 \u0628\u0647 \u0627\u0648 \u062c\u0648\u0627\u0628 \u062f\u0627\u062f\u0646\u062f \u0648 \u0627\u0648 \u0633\u062e\u0646\u0627\u0646 \u0622\u0646 \u0647\u0627 \u0631\u0627 \u067e\u06cc\u0634 \u062e\u0648\u062f \u062a\u06a9\u0631\u0627\u0631 \u0645\u06cc \u06a9\u0631\u062f \u0648 \u0645\u06cc \u06af\u0641\u062a: "
        },
        {
            "chapter": 5,
            "verse": 30,
            "name": "Judges 5:30",
            "text": "\u00ab\u0622\u0646 \u0647\u0627 \u063a\u0646\u06cc\u0645\u062a \u0628\u0633\u06cc\u0627\u0631 \u06af\u0631\u0641\u062a\u0647 \u0627\u0646\u062f \u0648 \u0627\u0644\u0628\u062a\u0647 \u0648\u0642\u062a \u0632\u06cc\u0627\u062f \u0628\u0647 \u06a9\u0627\u0631 \u062f\u0627\u0631\u062f \u062a\u0627 \u0622\u0646\u0631\u0627 \u062a\u0642\u0633\u06cc\u0645 \u06a9\u0646\u0646\u062f. \u06cc\u06a9 \u06cc\u0627 \u062f\u0648 \u062f\u062e\u062a\u0631 \u0646\u0635\u06cc\u0628 \u0647\u0631 \u0645\u0631\u062f \u0645\u06cc \u0634\u0648\u062f. \u063a\u0646\u06cc\u0645\u062a \u0644\u0628\u0627\u0633\u0647\u0627\u06cc \u0631\u0646\u06af\u0627\u0631\u0646\u06af \u0628\u0631\u0627\u06cc \u0633\u0650\u06cc\u0633\u064e\u0631\u0627 \u062e\u0648\u0627\u0647\u0646\u062f \u0622\u0648\u0631\u062f. \u063a\u0646\u06cc\u0645\u062a \u0644\u0628\u0627\u0633\u0647\u0627\u06cc \u0631\u0646\u06af\u0627\u0631\u0646\u06af \u0648 \u062e\u0627\u0645\u06a9\u062f\u0648\u0632\u06cc \u0628\u0631 \u06af\u0631\u062f\u0646 \u0627\u0633\u06cc\u0631\u0627\u0646.\u00bb   "
        },
        {
            "chapter": 5,
            "verse": 31,
            "name": "Judges 5:31",
            "text": "\u0627\u06cc \u062e\u062f\u0627\u0648\u0646\u062f\u060c \u0647\u0645\u0647 \u062f\u0634\u0645\u0646\u0627\u0646\u062a \u0647\u0644\u0627\u06a9 \u0628\u0627\u062f. \u0627\u0645\u0627 \u062f\u0648\u0633\u062a\u062f\u0627\u0631\u0627\u0646\u062a \u0645\u062b\u0644 \u0622\u0641\u062a\u0627\u0628 \u0628\u0627 \u0642\u062f\u0631\u062a \u062a\u0645\u0627\u0645 \u0628\u062f\u0631\u062e\u0634\u0646\u062f.\u00bb   \u0628\u0639\u062f \u0627\u0632 \u0622\u0646 \u0645\u062f\u062a \u0686\u0647\u0644 \u0633\u0627\u0644 \u0622\u0631\u0627\u0645\u0634 \u062f\u0631 \u0622\u0646 \u0633\u0631\u0632\u0645\u06cc\u0646 \u0628\u0631\u0642\u0631\u0627\u0631 \u0628\u0648\u062f.   "
        }
    ]
}