{
    "translation": "\u041a\u0438\u0435\u043b\u0456 \u043a\u0456\u0442\u0430\u043f",
    "abbreviation": "kaz",
    "lang": "kk",
    "language": "Kazakh",
    "direction": "RTL",
    "encoding": "UTF-8",
    "book_nr": 10,
    "book_name": "2 Samuel",
    "chapter": 10,
    "name": "2 Samuel 10",
    "verses": [
        {
            "chapter": 10,
            "verse": 1,
            "name": "2 Samuel 10:1",
            "text": "\u0411\u0456\u0440\u0430\u0437 \u0443\u0430\u049b\u044b\u0442 \u04e9\u0442\u043a\u0435\u043d\u043d\u0435\u043d \u043a\u0435\u0439\u0456\u043d \u0410\u043c\u043c\u043e\u043d \u0445\u0430\u043b\u049b\u044b\u043d\u044b\u04a3 \u043f\u0430\u0442\u0448\u0430\u0441\u044b \u041d\u0430\u0445\u0430\u0448 \u049b\u0430\u0439\u0442\u044b\u0441 \u0431\u043e\u043b\u044b\u043f, \u043e\u043d\u044b\u04a3 \u04b1\u043b\u044b \u0410\u043d\u043e\u043d \u043e\u0440\u043d\u044b\u043d \u0431\u0430\u0441\u044b\u043f \u043f\u0430\u0442\u0448\u0430\u043b\u044b\u049b \u049b\u04b1\u0440\u0434\u044b."
        },
        {
            "chapter": 10,
            "verse": 2,
            "name": "2 Samuel 10:2",
            "text": "\u0414\u04d9\u0443\u0456\u0442: \u00ab\u04d8\u043a\u0435\u0441\u0456 \u041d\u0430\u0445\u0430\u0448\u0442\u044b\u04a3 \u043c\u0430\u0493\u0430\u043d \u0436\u0430\u049b\u0441\u044b\u043b\u044b\u049b \u0436\u0430\u0441\u0430\u0493\u0430\u043d\u044b\u043d\u0434\u0430\u0439, \u043c\u0435\u043d \u0434\u0435 \u043e\u043d\u044b\u04a3 \u04b1\u043b\u044b \u0410\u043d\u043e\u043d\u0493\u0430 \u0436\u0430\u049b\u0441\u044b\u043b\u044b\u049b \u0436\u0430\u0441\u0430\u0439\u044b\u043d\u00bb, \u2014 \u0434\u0435\u043f \u043e\u0439\u043b\u0430\u0434\u044b. \u0421\u043e\u0434\u0430\u043d \u043e\u043b \u04d9\u043a\u0435\u0441\u0456\u043d\u0456\u04a3 \u049b\u0430\u0437\u0430\u0441\u044b\u043d\u0430 \u043a\u04e9\u04a3\u0456\u043b \u0430\u0439\u0442\u0443 \u04af\u0448\u0456\u043d \u0410\u043d\u043e\u043d\u0493\u0430 \u049b\u044b\u0437\u043c\u0435\u0442\u043a\u0435\u0440\u043b\u0435\u0440\u0456\u043d \u0436\u0456\u0431\u0435\u0440\u0434\u0456. \u0410\u043b\u0430\u0439\u0434\u0430 \u0435\u043b\u0448\u0456\u043b\u0435\u0440\u0456 \u0410\u043c\u043c\u043e\u043d \u0435\u043b\u0456\u043d\u0435 \u0436\u0435\u0442\u043a\u0435\u043d\u0434\u0435,"
        },
        {
            "chapter": 10,
            "verse": 3,
            "name": "2 Samuel 10:3",
            "text": "\u0430\u043c\u043c\u043e\u043d\u0434\u044b\u049b \u04d9\u043c\u0456\u0440\u0448\u0456\u043b\u0435\u0440 \u043f\u0430\u0442\u0448\u0430 \u0438\u0435\u043b\u0435\u0440\u0456 \u0410\u043d\u043e\u043d\u0493\u0430 \u043a\u04af\u0434\u0456\u043a\u0442\u0435\u0440\u0456\u043d \u0431\u0456\u043b\u0434\u0456\u0440\u0456\u043f \u0431\u044b\u043b\u0430\u0439 \u0434\u0435\u0434\u0456: \u00ab\u0414\u04d9\u0443\u0456\u0442 \u043c\u044b\u043d\u0430 \u0430\u0434\u0430\u043c\u0434\u0430\u0440\u044b\u043d \u0448\u044b\u043d\u044b\u043c\u0435\u043d \u043a\u04e9\u04a3\u0456\u043b \u0430\u0439\u0442\u044b\u043f, \u04d9\u043a\u0435\u04a3\u0456\u0437\u0433\u0435 \u049b\u04b1\u0440\u043c\u0435\u0442 \u043a\u04e9\u0440\u0441\u0435\u0442\u0443 \u04af\u0448\u0456\u043d \u0436\u0456\u0431\u0435\u0440\u0456\u043f \u043e\u0442\u044b\u0440 \u0434\u0435\u043f \u043e\u0439\u043b\u0430\u0439\u0441\u044b\u0437 \u0431\u0430? \u041e\u043b \u049b\u044b\u0437\u043c\u0435\u0442\u043a\u0435\u0440\u043b\u0435\u0440\u0456\u043d \u049b\u0430\u043b\u0430\u043d\u044b \u0431\u0430\u0440\u043b\u0430\u043f, \u0436\u0430\u049b\u0441\u044b\u043b\u0430\u043f \u0431\u0456\u043b\u0456\u043f \u0430\u043b\u0443 \u04af\u0448\u0456\u043d \u0441\u0456\u0437\u0433\u0435 \u0436\u0456\u0431\u0435\u0440\u0456\u043f \u043e\u0442\u044b\u0440 \u0435\u043c\u0435\u0441 \u043f\u0435? \u041a\u0435\u0439\u0456\u043d \u043e\u043b \u04d9\u0441\u043a\u0435\u0440\u0456\u043c\u0435\u043d \u043a\u0435\u043b\u0456\u043f, \u0430\u0441\u0442\u0430\u043d-\u043a\u0435\u0441\u0442\u0435\u043d\u0456\u043d \u0448\u044b\u0493\u0430\u0440\u043c\u0430\u049b\u0448\u044b!\u00bb"
        },
        {
            "chapter": 10,
            "verse": 4,
            "name": "2 Samuel 10:4",
            "text": "\u0421\u043e\u043d\u0434\u0430 \u0410\u043d\u043e\u043d \u0414\u04d9\u0443\u0456\u0442\u0442\u0456\u04a3 \u049b\u044b\u0437\u043c\u0435\u0442\u043a\u0435\u0440\u043b\u0435\u0440\u0456\u043d \u0442\u04b1\u0442\u049b\u044b\u043d\u0434\u0430\u043f, \u04d9\u0440\u049b\u0430\u0439\u0441\u044b\u0441\u044b\u043d\u044b\u04a3 \u0441\u0430\u049b\u0430\u043b\u044b\u043d \u0436\u0430\u0440\u0442\u044b\u0441\u044b\u043d\u0430 \u0434\u0435\u0439\u0456\u043d \u049b\u044b\u0440\u049b\u044b\u043f, \u0448\u0430\u043f\u0430\u043d\u0434\u0430\u0440\u044b\u043d \u0431\u0435\u043b\u0434\u0435\u0440\u0456\u043d\u0435 \u0434\u0435\u0439\u0456\u043d \u049b\u044b\u0441\u049b\u0430\u0440\u0442\u044b\u043f \u049b\u0438\u044b\u043f \u0442\u0430\u0441\u0442\u0430\u0434\u044b. \u041c\u04b1\u043d\u0430\u043d \u043a\u0435\u0439\u0456\u043d \u043e\u043b\u0430\u0440\u0434\u044b \u043a\u0435\u0440\u0456 \u049b\u0430\u0439\u0442\u0430\u0440\u044b\u043f \u0436\u0456\u0431\u0435\u0440\u0434\u0456."
        },
        {
            "chapter": 10,
            "verse": 5,
            "name": "2 Samuel 10:5",
            "text": "\u0411\u04b1\u043b \u0442\u0443\u0440\u0430\u043b\u044b \u0445\u0430\u0431\u0430\u0440 \u0414\u04d9\u0443\u0456\u0442\u0442\u0456\u04a3 \u049b\u04b1\u043b\u0430\u0493\u044b\u043d\u0430 \u0436\u0435\u0442\u043a\u0435\u043d\u0434\u0435, \u043e\u043b \u049b\u0430\u0442\u0442\u044b \u043c\u0430\u0441\u049b\u0430\u0440\u0430\u043b\u0430\u043d\u0493\u0430\u043d \u0435\u043b\u0448\u0456\u043b\u0435\u0440\u0456\u043d\u0456\u04a3 \u0430\u043b\u0434\u0430\u0440\u044b\u043d\u0430\u043d \u0445\u0430\u0431\u0430\u0440\u0448\u044b\u043b\u0430\u0440\u044b\u043d \u0436\u0456\u0431\u0435\u0440\u0456\u043f, \u043e\u043b\u0430\u0440\u0493\u0430: \u00ab\u0421\u0430\u049b\u0430\u043b\u0434\u0430\u0440\u044b\u04a3 \u04e9\u0441\u043a\u0435\u043d\u0448\u0435 \u0418\u0435\u0440\u0438\u0445\u043e\u043d\u0434\u0430 \u049b\u0430\u043b\u0430 \u0442\u04b1\u0440\u044b\u04a3\u0434\u0430\u0440! \u0421\u043e\u0434\u0430\u043d \u043a\u0435\u0439\u0456\u043d \u049b\u0430\u0439\u0442\u044b\u043f \u043a\u0435\u043b\u0435\u0440\u0441\u0456\u04a3\u0434\u0435\u0440!\u00bb \u2014 \u0434\u0435\u0433\u0435\u043d\u0434\u0456 \u0430\u0439\u0442\u049b\u044b\u0437\u0434\u044b."
        },
        {
            "chapter": 10,
            "verse": 6,
            "name": "2 Samuel 10:6",
            "text": "\u0410\u043c\u043c\u043e\u043d\u0434\u044b\u049b\u0442\u0430\u0440 \u0414\u04d9\u0443\u0456\u0442\u0442\u0456 \u04e9\u0437\u0434\u0435\u0440\u0456\u043d\u0435 \u049b\u0430\u0440\u0441\u044b \u04e9\u0448\u0456\u043a\u0442\u0456\u0440\u0456\u043f \u0430\u043b\u0493\u0430\u043d\u044b\u043d \u04b1\u0493\u044b\u043d\u0434\u044b. \u0421\u043e\u043d\u0434\u044b\u049b\u0442\u0430\u043d \u043e\u043b\u0430\u0440 \u04e9\u043a\u0456\u043b\u0434\u0435\u0440\u0456\u043d \u0436\u04b1\u043c\u0441\u0430\u043f, \u0430\u0440\u0430\u043c\u0430\u043b\u044b\u049b\u0442\u0430\u0440\u0434\u044b\u04a3 \u0411\u0435\u0442-\u0420\u0435\u0445\u043e\u0431 \u0436\u04d9\u043d\u0435 \u0421\u043e\u0431\u0430 \u0434\u0435\u0433\u0435\u043d \u0435\u043a\u0456 \u043f\u0430\u0442\u0448\u0430\u043b\u044b\u0493\u044b\u043d\u0430\u043d \u0436\u0438\u044b\u0440\u043c\u0430 \u043c\u044b\u04a3, \u041c\u0430\u0445\u0430\u043d\u044b\u04a3 \u043f\u0430\u0442\u0448\u0430\u0441\u044b\u043d\u0430\u043d \u0442\u0430\u0493\u044b \u0431\u0456\u0440 \u043c\u044b\u04a3 \u04d9\u0440\u0456 \u0422\u043e\u0431\u0442\u044b\u04a3 \u0430\u0434\u0430\u043c\u0434\u0430\u0440\u044b\u043d\u0430\u043d \u043e\u043d \u0435\u043a\u0456 \u043c\u044b\u04a3 \u0436\u0430\u044f\u0443 \u0436\u0430\u0441\u0430\u049b\u0448\u044b\u0441\u044b\u043d \u0436\u0430\u043b\u0434\u0430\u043f \u0430\u043b\u0434\u044b."
        },
        {
            "chapter": 10,
            "verse": 7,
            "name": "2 Samuel 10:7",
            "text": "\u0414\u04d9\u0443\u0456\u0442 \u0431\u04b1\u043b \u0442\u0443\u0440\u0430\u043b\u044b \u0445\u0430\u0431\u0430\u0440 \u0430\u043b\u0493\u0430\u043d\u0434\u0430, \u043e\u043b\u0430\u0440\u0493\u0430 \u049b\u0430\u0440\u0441\u044b \u0416\u043e\u0493\u0430\u0431\u0442\u044b\u04a3 \u0431\u0430\u0441\u0448\u044b\u043b\u044b\u0493\u044b\u043d\u0434\u0430\u0493\u044b \u0431\u0430\u0442\u044b\u043b \u0434\u0430 \u043c\u044b\u049b\u0442\u044b \u0441\u0430\u0440\u0431\u0430\u0437\u0434\u0430\u0440\u0434\u0430\u043d \u049b\u04b1\u0440\u0430\u043b\u0493\u0430\u043d \u0431\u04af\u043a\u0456\u043b \u0436\u0430\u0441\u0430\u0493\u044b\u043d \u0430\u0442\u0442\u0430\u043d\u0434\u044b\u0440\u0434\u044b."
        },
        {
            "chapter": 10,
            "verse": 8,
            "name": "2 Samuel 10:8",
            "text": "\u0410\u043c\u043c\u043e\u043d\u0434\u044b\u049b\u0442\u0430\u0440 \u0430\u0441\u0442\u0430\u043d\u0430\u043b\u0430\u0440\u044b\u043d\u0430\u043d \u0448\u044b\u0493\u044b\u043f, \u049b\u0430\u043b\u0430 \u049b\u0430\u049b\u043f\u0430\u0441\u044b\u043d\u044b\u04a3 \u0436\u0430\u043d\u044b\u043d\u0434\u0430 \u0448\u0430\u0439\u049b\u0430\u0441\u049b\u0430 \u0434\u0430\u0439\u044b\u043d\u0434\u0430\u043b\u044b\u043f \u0441\u0430\u043f \u0442\u04af\u0437\u0435\u0434\u0456. \u0421\u043e\u0431\u0430 \u043c\u0435\u043d \u0420\u0435\u0445\u043e\u0431\u0442\u044b\u04a3 \u0430\u0440\u0430\u043c\u0430\u043b\u044b\u049b\u0442\u0430\u0440\u044b \u0436\u04d9\u043d\u0435 \u0422\u043e\u0431 \u043f\u0435\u043d \u041c\u0430\u0445\u0430\u043d\u044b\u04a3 \u0435\u0440 \u0430\u0437\u0430\u043c\u0430\u0442\u0442\u0430\u0440\u044b \u0434\u0430\u043b\u0430\u0434\u0430 \u0431\u04e9\u043b\u0435\u043a \u0442\u04b1\u0440\u0434\u044b."
        },
        {
            "chapter": 10,
            "verse": 9,
            "name": "2 Samuel 10:9",
            "text": "\u0416\u043e\u0493\u0430\u0431 \u04e9\u0437 \u0436\u0430\u0441\u0430\u0493\u044b\u043d\u044b\u04a3 \u0435\u043a\u0456 \u0436\u0430\u049b\u0442\u0430\u043d: \u0430\u043b\u0434\u044b\u043d\u0430\u043d \u0434\u0430, \u0430\u0440\u0442\u044b\u043d\u0430\u043d \u0434\u0430 \u0441\u043e\u0493\u044b\u0441\u0443\u044b\u043d\u0430 \u0442\u0443\u0440\u0430 \u043a\u0435\u043b\u0456\u043f \u0442\u04b1\u0440\u0493\u0430\u043d\u044b\u043d \u0431\u0430\u0439\u049b\u0430\u0493\u0430\u043d \u0441\u043e\u04a3, \u0431\u04af\u043a\u0456\u043b \u0418\u0441\u0440\u0430\u0438\u043b\u0434\u0456\u04a3 \u0442\u0430\u04a3\u0434\u0430\u0443\u043b\u044b \u0441\u0430\u0440\u0431\u0430\u0437\u0434\u0430\u0440\u044b\u043d \u0456\u0440\u0456\u043a\u0442\u0435\u043f \u0430\u043b\u044b\u043f, \u0430\u0440\u0430\u043c\u0430\u043b\u044b\u049b\u0442\u0430\u0440\u0493\u0430 \u049b\u0430\u0440\u0441\u044b \u0441\u0430\u043f\u049b\u0430 \u0442\u04b1\u0440\u0493\u044b\u0437\u0434\u044b,"
        },
        {
            "chapter": 10,
            "verse": 10,
            "name": "2 Samuel 10:10",
            "text": "\u0430\u043b \u0436\u0430\u0441\u0430\u049b\u0442\u044b\u04a3 \u049b\u0430\u043b\u0493\u0430\u043d \u0431\u04e9\u043b\u0456\u0433\u0456\u043d \u0430\u043c\u043c\u043e\u043d\u0434\u044b\u049b\u0442\u0430\u0440\u0493\u0430 \u049b\u0430\u0440\u0441\u044b \u0431\u0430\u0441\u0442\u0430\u043f \u0448\u044b\u0493\u0443\u0434\u044b \u04e9\u0437\u0456\u043d\u0456\u04a3 \u0442\u0443\u0493\u0430\u043d \u0456\u043d\u0456\u0441\u0456 \u04d8\u0431\u0456\u0448\u0430\u0439\u0434\u044b\u04a3 \u049b\u043e\u043b\u044b\u043d\u0430 \u0442\u0430\u043f\u0441\u044b\u0440\u0434\u044b."
        },
        {
            "chapter": 10,
            "verse": 11,
            "name": "2 Samuel 10:11",
            "text": "\u041e\u0493\u0430\u043d \u0431\u044b\u043b\u0430\u0439 \u0434\u0435\u043f \u0431\u04b1\u0439\u044b\u0440\u0493\u0430\u043d \u0431\u043e\u043b\u0430\u0442\u044b\u043d: \u00ab\u0415\u0433\u0435\u0440 \u0430\u0440\u0430\u043c\u0430\u043b\u044b\u049b\u0442\u0430\u0440 \u043c\u0430\u0493\u0430\u043d \u0442\u044b\u043c \u049b\u0430\u0442\u0442\u044b \u049b\u044b\u0441\u044b\u043c \u043a\u04e9\u0440\u0441\u0435\u0442\u0435 \u0431\u0430\u0441\u0442\u0430\u0441\u0430, \u0441\u0435\u043d \u043c\u0430\u0493\u0430\u043d \u043a\u04e9\u043c\u0435\u043a\u043a\u0435 \u043a\u0435\u043b! \u0410\u043b \u0430\u043c\u043c\u043e\u043d\u0434\u044b\u049b\u0442\u0430\u0440 \u0441\u0435\u043d\u0456 \u0442\u044b\u049b\u0441\u044b\u0440\u044b\u043f \u0431\u0430\u0440\u0430 \u0436\u0430\u0442\u0441\u0430, \u043c\u0435\u043d \u0441\u0430\u0493\u0430\u043d \u043a\u04e9\u043c\u0435\u043a\u043a\u0435 \u0431\u0430\u0440\u0430\u043c\u044b\u043d."
        },
        {
            "chapter": 10,
            "verse": 12,
            "name": "2 Samuel 10:12",
            "text": "\u0411\u0430\u0442\u044b\u043b \u0431\u043e\u043b! \u0425\u0430\u043b\u049b\u044b\u043c\u044b\u0437 \u04af\u0448\u0456\u043d, \u049a\u04b1\u0434\u0430\u0439\u044b\u043c\u044b\u0437\u0434\u044b\u04a3 \u049b\u0430\u043b\u0430\u043b\u0430\u0440\u044b \u04af\u0448\u0456\u043d \u043c\u044b\u0437\u0493\u044b\u043c\u0430\u0439 \u0431\u0435\u0440\u0456\u043a \u0442\u04b1\u0440\u0430\u0439\u044b\u049b! \u0410\u043b \u0416\u0430\u0440\u0430\u0442\u049b\u0430\u043d \u0418\u0435 \u0434\u04b1\u0440\u044b\u0441 \u0434\u0435\u043f \u0442\u0430\u043f\u049b\u0430\u043d\u044b\u043d \u0456\u0441\u0442\u0435\u0441\u0456\u043d!\u00bb"
        },
        {
            "chapter": 10,
            "verse": 13,
            "name": "2 Samuel 10:13",
            "text": "\u0416\u043e\u0493\u0430\u0431 \u043f\u0435\u043d \u043e\u043d\u044b\u04a3 \u0441\u0430\u0440\u0431\u0430\u0437\u0434\u0430\u0440\u044b \u0430\u0440\u0430\u043c\u0430\u043b\u044b\u049b\u0442\u0430\u0440\u0493\u0430 \u0442\u0430\u043f \u0431\u0435\u0440\u0433\u0435\u043d\u0434\u0435, \u043e\u043b\u0430\u0440 \u049b\u0430\u0448\u0430 \u0436\u04e9\u043d\u0435\u043b\u0434\u0456."
        },
        {
            "chapter": 10,
            "verse": 14,
            "name": "2 Samuel 10:14",
            "text": "\u041e\u043b\u0430\u0440\u0434\u044b\u04a3 \u049b\u0430\u0448\u049b\u0430\u043d\u044b\u043d \u043a\u04e9\u0440\u0433\u0435\u043d \u0430\u043c\u043c\u043e\u043d\u0434\u044b\u049b\u0442\u0430\u0440 \u0434\u0430 \u04d8\u0431\u0456\u0448\u0430\u0439 \u0431\u0430\u0441\u0442\u0430\u0493\u0430\u043d \u0436\u0430\u0441\u0430\u049b\u0442\u0430\u043d \u0448\u0435\u0433\u0456\u043d\u0435 \u049b\u0430\u0448\u044b\u043f, \u049b\u0430\u043b\u0430\u0493\u0430 \u043a\u0456\u0440\u0456\u043f \u043a\u0435\u0442\u0442\u0456. \u0421\u043e\u043d\u0434\u0430 \u0416\u043e\u0493\u0430\u0431 \u0430\u043c\u043c\u043e\u043d\u0434\u044b\u049b\u0442\u0430\u0440\u0493\u0430 \u049b\u0430\u0440\u0441\u044b \u0436\u043e\u0440\u044b\u0493\u044b\u043d \u0434\u043e\u0493\u0430\u0440\u044b\u043f, \u0418\u0435\u0440\u0443\u0441\u0430\u043b\u0438\u043c\u0433\u0435 \u049b\u0430\u0439\u0442\u0430 \u043e\u0440\u0430\u043b\u0434\u044b."
        },
        {
            "chapter": 10,
            "verse": 15,
            "name": "2 Samuel 10:15",
            "text": "\u0410\u0440\u0430\u043c\u0430\u043b\u044b\u049b\u0442\u0430\u0440 \u04e9\u0437\u0434\u0435\u0440\u0456\u043d\u0456\u04a3 \u0438\u0441\u0440\u0430\u0438\u043b\u0434\u0456\u043a\u0442\u0435\u0440\u0434\u0435\u043d \u0436\u0435\u04a3\u0456\u043b\u0433\u0435\u043d\u0456\u043d \u043a\u04e9\u0440\u0456\u043f, \u0431\u04d9\u0440\u0456 \u0431\u0456\u0440 \u0436\u0435\u0440\u0433\u0435 \u0436\u0438\u043d\u0430\u043b\u0434\u044b."
        },
        {
            "chapter": 10,
            "verse": 16,
            "name": "2 Samuel 10:16",
            "text": "\u0410\u0434\u0430\u0434\u04d9\u0437\u0435\u0440 \u0415\u0432\u0444\u0440\u0430\u0442 \u04e9\u0437\u0435\u043d\u0456\u043d\u0456\u04a3 \u0430\u0440 \u0436\u0430\u0493\u044b\u043d\u0430 \u0435\u043b\u0448\u0456\u043b\u0435\u0440\u0456\u043d \u0436\u04b1\u043c\u0441\u0430\u043f, \u043e\u043d\u0434\u0430 \u0442\u04b1\u0440\u0430\u0442\u044b\u043d \u0430\u0440\u0430\u043c\u0430\u043b\u044b\u049b \u0436\u0430\u0441\u0430\u049b\u0448\u044b\u043b\u0430\u0440\u0434\u044b \u0448\u0430\u049b\u044b\u0440\u0434\u044b. \u041e\u043b\u0430\u0440 (\u0492\u0438\u043b\u0430\u049b\u0430\u0434 \u0430\u0439\u043c\u0430\u0493\u044b\u043d\u0434\u0430\u0493\u044b) \u0425\u0435\u043b\u0430\u043c\u0493\u0430 \u0436\u0435\u0442\u0456\u043f, (\u0410\u0440\u0430\u043c\u0430 \u043f\u0430\u0442\u0448\u0430\u0441\u044b) \u0410\u0434\u0430\u0434\u04d9\u0437\u0435\u0440\u0434\u0456\u04a3 \u04d9\u0441\u043a\u0435\u0440\u0431\u0430\u0441\u044b \u0428\u043e\u0431\u0430\u049b\u0442\u044b\u04a3 \u049b\u043e\u043b \u0430\u0441\u0442\u044b\u043d\u0430 \u043a\u0456\u0440\u0434\u0456."
        },
        {
            "chapter": 10,
            "verse": 17,
            "name": "2 Samuel 10:17",
            "text": "\u0414\u04d9\u0443\u0456\u0442 \u0431\u04b1\u043b \u0442\u0443\u0440\u0430\u043b\u044b \u0431\u0456\u043b\u0435 \u0441\u0430\u043b\u0430, \u0418\u0441\u0440\u0430\u0438\u043b\u0434\u0456\u04a3 \u0431\u04af\u043a\u0456\u043b \u0436\u0430\u0441\u0430\u0493\u044b\u043d \u0436\u0438\u043d\u0430\u043f \u0430\u043b\u0434\u044b. \u0421\u043e\u0434\u0430\u043d \u0418\u043e\u0440\u0434\u0430\u043d \u04e9\u0437\u0435\u043d\u0456\u043d \u043a\u0435\u0441\u0456\u043f \u04e9\u0442\u0456\u043f, \u0425\u0435\u043b\u0430\u043c\u0493\u0430 \u0430\u0442\u0442\u0430\u043d\u0434\u044b. \u0410\u0440\u0430\u043c\u0430\u043b\u044b\u049b\u0442\u0430\u0440 \u0414\u04d9\u0443\u0456\u0442\u043f\u0435\u043d \u0448\u0430\u0439\u049b\u0430\u0441\u0443 \u04af\u0448\u0456\u043d \u0436\u0430\u0441\u0430\u049b\u0448\u044b\u043b\u0430\u0440\u044b\u043d \u0441\u0430\u043f\u049b\u0430 \u0442\u04b1\u0440\u0493\u044b\u0437\u044b\u043f, \u043b\u0430\u043f \u049b\u043e\u0439\u0434\u044b."
        },
        {
            "chapter": 10,
            "verse": 18,
            "name": "2 Samuel 10:18",
            "text": "\u0411\u0456\u0440\u0430\u049b \u043e\u043b\u0430\u0440 \u049b\u0430\u0439\u0442\u0430\u0434\u0430\u043d \u0418\u0441\u0440\u0430\u0438\u043b\u0434\u0456\u04a3 \u0436\u0430\u0441\u0430\u0493\u044b\u043d\u0430\u043d \u0448\u0435\u0433\u0456\u043d\u0456\u043f, \u049b\u0430\u0448\u0430 \u0436\u04e9\u043d\u0435\u043b\u0434\u0456. \u0414\u04d9\u0443\u0456\u0442\u0442\u0456\u04a3 \u0441\u0430\u0440\u0431\u0430\u0437\u0434\u0430\u0440\u044b \u043e\u043b\u0430\u0440\u0434\u044b\u04a3 \u0436\u0435\u0442\u0456 \u0436\u04af\u0437 \u0441\u043e\u0493\u044b\u0441 \u043a\u04af\u0439\u043c\u0435\u0441\u0456\u043d\u0456\u04a3 \u0430\u0439\u0434\u0430\u0443\u0448\u044b\u043b\u0430\u0440\u044b\u043d \u0436\u04d9\u043d\u0435 \u049b\u044b\u0440\u044b\u049b \u043c\u044b\u04a3 \u0436\u0430\u044f\u0443 \u04d9\u0441\u043a\u0435\u0440\u0456\u043d \u043c\u0435\u0440\u0442 \u049b\u044b\u043b\u0434\u044b. \u0410\u0440\u0430\u043c\u0430\u043b\u044b\u049b \u049b\u043e\u043b\u0431\u0430\u0441\u0448\u044b \u0428\u043e\u0431\u0430\u049b \u0442\u0430 \u0448\u0430\u0439\u049b\u0430\u0441\u0442\u0430 \u0430\u0443\u044b\u0440 \u0436\u0430\u0440\u0430\u049b\u0430\u0442\u0442\u0430\u043d\u044b\u043f, \u0441\u043e\u043b \u0436\u0435\u0440\u0434\u0435 \u049b\u0430\u0437\u0430 \u0442\u0430\u043f\u0442\u044b."
        },
        {
            "chapter": 10,
            "verse": 19,
            "name": "2 Samuel 10:19",
            "text": "\u0410\u0434\u0430\u0434\u04d9\u0437\u0435\u0440\u0433\u0435 \u0431\u0430\u0493\u044b\u043d\u044b\u0448\u0442\u044b \u0431\u0430\u0440\u043b\u044b\u049b \u043f\u0430\u0442\u0448\u0430\u043b\u0430\u0440 \u04e9\u0437\u0434\u0435\u0440\u0456\u043d\u0456\u04a3 \u0418\u0441\u0440\u0430\u0438\u043b\u0434\u0435\u043d \u0436\u0435\u04a3\u0456\u043b\u0433\u0435\u043d\u0434\u0435\u0440\u0456\u043d \u043a\u04e9\u0440\u0433\u0435\u043d\u0434\u0435, \u0418\u0441\u0440\u0430\u0438\u043b\u043c\u0435\u043d \u0431\u0456\u0442\u0456\u043c \u0436\u0430\u0441\u0430\u0441\u044b\u043f, \u043e\u0493\u0430\u043d \u043c\u043e\u0439\u044b\u043d\u0441\u04b1\u043d\u0430\u0442\u044b\u043d \u0431\u043e\u043b\u0434\u044b. \u0410\u0440\u0430\u043c\u0430\u043b\u044b\u049b\u0442\u0430\u0440\u0434\u044b\u04a3 \u0435\u043d\u0434\u0456 \u049b\u0430\u0439\u0442\u044b\u043f \u0430\u043c\u043c\u043e\u043d\u0434\u044b\u049b\u0442\u0430\u0440\u0493\u0430 \u043a\u04e9\u043c\u0435\u043a\u0442\u0435\u0441\u0443\u0433\u0435 \u0431\u0430\u0442\u044b\u043b\u0434\u0430\u0440\u044b \u0431\u0430\u0440\u043c\u0430\u0434\u044b. "
        }
    ]
}