{
    "translation": "OT Westminster Leningrad Codex",
    "abbreviation": "codex",
    "lang": "he",
    "language": "Hebrew",
    "direction": "RTL",
    "encoding": "UTF-8",
    "book_nr": 16,
    "book_name": "Nehemiah",
    "chapter": 1,
    "name": "Nehemiah 1",
    "verses": [
        {
            "chapter": 1,
            "verse": 1,
            "name": "Nehemiah 1:1",
            "text": "\u05d3\u05b4\u05bc\u05d1\u05b0\u05e8\u05b5\u05a5\u05d9 \u05e0\u05b0\u05d7\u05b6\u05de\u05b0\u05d9\u05b8\u0596\u05d4 \u05d1\u05b6\u05bc\u05df\u05be \u05d7\u05b2\u05db\u05b7\u05dc\u05b0\u05d9\u05b8\u0591\u05d4 \u05d5\u05b7\u05d9\u05b0\u05d4\u05b4\u05a4\u05d9 \u05d1\u05b0\u05d7\u05b9\u05bd\u05d3\u05b6\u05e9\u05c1\u05be\u05db\u05e1\u05dc\u05d5\u05db\u05b4\u05bc\u05e1\u05b0\u05dc\u05b5\u05d9\u05d5\u0599 \u05e9\u05b0\u05c1\u05e0\u05b7\u05a3\u05ea \u05e2\u05b6\u05e9\u05b0\u05c2\u05e8\u05b4\u0594\u05d9\u05dd \u05d5\u05b7\u05d0\u05b2\u05e0\u05b4\u05a5\u05d9 \u05d4\u05b8\u05d9\u05b4\u0596\u05d9\u05ea\u05b4\u05d9 \u05d1\u05b0\u05bc\u05e9\u05c1\u05d5\u05bc\u05e9\u05b7\u05c1\u05a5\u05df \u05d4\u05b7\u05d1\u05b4\u05bc\u05d9\u05e8\u05b8\u05bd\u05d4\u05c3"
        },
        {
            "chapter": 1,
            "verse": 2,
            "name": "Nehemiah 1:2",
            "text": "\u05d5\u05b7\u05d9\u05b8\u05bc\u05d1\u05b9\u05a8\u05d0 \u05d7\u05b2\u05e0\u05b8\u059c\u05e0\u05b4\u05d9 \u05d0\u05b6\u05d7\u05b8\u05a7\u05d3 \u05de\u05b5\u05d0\u05b7\u05d7\u05b7\u059b\u05d9 \u05d4\u05a5\u05d5\u05bc\u05d0 \u05d5\u05b7\u05d0\u05b2\u05e0\u05b8\u05e9\u05b4\u05c1\u0596\u05d9\u05dd \u05de\u05b4\u05bd\u05d9\u05d4\u05d5\u05bc\u05d3\u05b8\u0591\u05d4 \u05d5\u05b8\u05d0\u05b6\u05e9\u05b0\u05c1\u05d0\u05b8\u05dc\u05b5\u059e\u05dd \u05e2\u05b7\u05dc\u05be \u05d4\u05b7\u05d9\u05b0\u05bc\u05d4\u05d5\u05bc\u05d3\u05b4\u05a7\u05d9\u05dd \u05d4\u05b7\u05e4\u05b0\u05bc\u05dc\u05b5\u05d9\u05d8\u05b8\u059b\u05d4 \u05d0\u05b2\u05e9\u05b6\u05bd\u05c1\u05e8\u05be \u05e0\u05b4\u05e9\u05b0\u05c1\u05d0\u05b2\u05e8\u05a5\u05d5\u05bc \u05de\u05b4\u05df\u05be \u05d4\u05b7\u05e9\u05b6\u05bc\u05c1\u0596\u05d1\u05b4\u05d9 \u05d5\u05b0\u05e2\u05b7\u05dc\u05be \u05d9\u05b0\u05e8\u05d5\u05bc\u05e9\u05b8\u05c1\u05dc\u05b4\u05b8\u05bd\u05dd\u05c3"
        },
        {
            "chapter": 1,
            "verse": 3,
            "name": "Nehemiah 1:3",
            "text": "\u05d5\u05b7\u05d9\u05b9\u05bc\u05d0\u05de\u05b0\u05e8\u05d5\u05bc\u05ae \u05dc\u05b4\u05d9\u0592 \u05d4\u05b7\u05bd\u05e0\u05b4\u05bc\u05e9\u05b0\u05c1\u05d0\u05b8\u05e8\u05b4\u059e\u05d9\u05dd \u05d0\u05b2\u05e9\u05b6\u05bd\u05c1\u05e8\u05be \u05e0\u05b4\u05e9\u05b0\u05c1\u05d0\u05b2\u05e8\u05a4\u05d5\u05bc \u05de\u05b4\u05df\u05be \u05d4\u05b7\u05e9\u05b0\u05bc\u05c1\u05d1\u05b4\u05d9\u0599 \u05e9\u05b8\u05c1\u05a3\u05dd \u05d1\u05b7\u05bc\u05de\u05b0\u05bc\u05d3\u05b4\u05d9\u05e0\u05b8\u0594\u05d4 \u05d1\u05b0\u05bc\u05e8\u05b8\u05e2\u05b8\u05a5\u05d4 \u05d2\u05b0\u05d3\u05b9\u05dc\u05b8\u0596\u05d4 \u05d5\u05bc\u05d1\u05b0\u05d7\u05b6\u05e8\u05b0\u05e4\u05b8\u05bc\u0591\u05d4 \u05d5\u05b0\u05d7\u05d5\u05b9\u05de\u05b7\u05a4\u05ea \u05d9\u05b0\u05e8\u05d5\u05bc\u05e9\u05b8\u05c1\u05dc\u05b4\u05b7\u0599\u05dd\u0599 \u05de\u05b0\u05e4\u05b9\u05e8\u05b8\u0594\u05e6\u05b6\u05ea \u05d5\u05bc\u05e9\u05b0\u05c1\u05e2\u05b8\u05e8\u05b6\u0596\u05d9\u05d4\u05b8 \u05e0\u05b4\u05e6\u05b0\u05bc\u05ea\u05a5\u05d5\u05bc \u05d1\u05b8\u05d0\u05b5\u05bd\u05e9\u05c1\u05c3"
        },
        {
            "chapter": 1,
            "verse": 4,
            "name": "Nehemiah 1:4",
            "text": "\u05d5\u05b7\u05d9\u05b0\u05d4\u05b4\u059e\u05d9 \u05db\u05b0\u05bc\u05e9\u05b8\u05c1\u05de\u05b0\u05e2\u05b4\u05a3\u05d9 \u05c0 \u05d0\u05b6\u05ea\u05be \u05d4\u05b7\u05d3\u05b0\u05bc\u05d1\u05b8\u05e8\u05b4\u05a3\u05d9\u05dd \u05d4\u05b8\u05d0\u05b5\u0597\u05dc\u05b6\u05bc\u05d4 \u05d9\u05b8\u05e9\u05b7\u05c1\u0599\u05d1\u05b0\u05ea\u05b4\u05bc\u05d9\u0599 \u05d5\u05b8\u05bd\u05d0\u05b6\u05d1\u05b0\u05db\u05b6\u05bc\u0594\u05d4 \u05d5\u05b8\u05d0\u05b6\u05ea\u05b0\u05d0\u05b7\u05d1\u05b0\u05bc\u05dc\u05b8\u0596\u05d4 \u05d9\u05b8\u05de\u05b4\u0591\u05d9\u05dd \u05d5\u05b8\u05bd\u05d0\u05b1\u05d4\u05b4\u05a5\u05d9 \u05e6\u05b8\u05dd\u0599 \u05d5\u05bc\u05de\u05b4\u05ea\u05b0\u05e4\u05b7\u05bc\u05dc\u05b5\u05bc\u0594\u05dc \u05dc\u05b4\u05e4\u05b0\u05e0\u05b5\u0596\u05d9 \u05d0\u05b1\u05dc\u05b9\u05d4\u05b5\u05a5\u05d9 \u05d4\u05b7\u05e9\u05b8\u05bc\u05c1\u05de\u05b8\u05bd\u05d9\u05b4\u05dd\u05c3"
        },
        {
            "chapter": 1,
            "verse": 5,
            "name": "Nehemiah 1:5",
            "text": "\u05d5\u05b8\u05d0\u05b9\u05de\u05b7\u0597\u05e8 \u05d0\u05b8\u05bd\u05e0\u05b8\u05bc\u05a4\u05d0 \u05d9\u05b0\u05d4\u05d5\u05b8\u05d4\u0599 \u05d0\u05b1\u05dc\u05b9\u05d4\u05b5\u05a3\u05d9 \u05d4\u05b7\u05e9\u05b8\u05bc\u05c1\u05de\u05b7\u0594\u05d9\u05b4\u05dd \u05d4\u05b8\u05d0\u05b5\u05a5\u05dc \u05d4\u05b7\u05d2\u05b8\u05bc\u05d3\u0596\u05d5\u05b9\u05dc \u05d5\u05b0\u05d4\u05b7\u05e0\u05bc\u05d5\u05b9\u05e8\u05b8\u0591\u05d0 \u05e9\u05b9\u05c1\u05de\u05b5\u05a4\u05e8 \u05d4\u05b7\u05d1\u05b0\u05bc\u05e8\u05b4\u05d9\u05ea\u0599 \u05d5\u05b8\u05d7\u05b6\u0594\u05e1\u05b6\u05d3 \u05dc\u05b0\u05d0\u05b9\u05d4\u05b2\u05d1\u05b8\u0596\u05d9\u05d5 \u05d5\u05bc\u05dc\u05b0\u05e9\u05b9\u05c1\u05de\u05b0\u05e8\u05b5\u05a5\u05d9 \u05de\u05b4\u05e6\u05b0\u05d5\u05ba\u05ea\u05b8\u05bd\u05d9\u05d5\u05c3"
        },
        {
            "chapter": 1,
            "verse": 6,
            "name": "Nehemiah 1:6",
            "text": "\u05ea\u05b0\u05bc\u05d4\u05b4\u05a3\u05d9 \u05e0\u05b8\u05a3\u05d0 \u05d0\u05b8\u05d6\u05b0\u05e0\u05b0\u05da\u05b8\u05bd\u05be \u05e7\u05b7\u05e9\u05b6\u05bc\u05c1\u05a3\u05d1\u05b6\u05ea \u05d5\u05b0\u05bd\u05e2\u05b5\u05d9\u05e0\u05b6\u05aa\u05d9\u05da\u05b8 \u05e4\u05b0\u05ea\u05bb\u05d5\u05bc\u05d7\u059f\u05d5\u05b9\u05ea \u05dc\u05b4\u05e9\u05b0\u05c1\u05de\u05b9\u05a3\u05e2\u05b7 \u05d0\u05b6\u05dc\u05be \u05ea\u05b0\u05bc\u05e4\u05b4\u05dc\u05b7\u05bc\u05a3\u05ea \u05e2\u05b7\u05d1\u05b0\u05d3\u05b0\u05bc\u05da\u05b8\u05a1 \u05d0\u05b2\u05e9\u05b6\u05c1\u05a3\u05e8 \u05d0\u05b8\u05e0\u05b9\u05db\u05b4\u05d9\u05a9 \u05de\u05b4\u05ea\u05b0\u05e4\u05b7\u05bc\u05dc\u05b5\u05bc\u05a8\u05dc \u05dc\u05b0\u05e4\u05b8\u05e0\u05b6\u05a4\u05d9\u05da\u05b8 \u05d4\u05b7\u05d9\u05bc\u05d5\u05b9\u05dd\u0599 \u05d9\u05d5\u05b9\u05de\u05b8\u05a3\u05dd \u05d5\u05b8\u05dc\u05b7\u0594\u05d9\u05b0\u05dc\u05b8\u05d4 \u05e2\u05b7\u05dc\u05be \u05d1\u05b0\u05bc\u05e0\u05b5\u05a5\u05d9 \u05d9\u05b4\u05e9\u05b0\u05c2\u05e8\u05b8\u05d0\u05b5\u0596\u05dc \u05e2\u05b2\u05d1\u05b8\u05d3\u05b6\u0591\u05d9\u05da\u05b8 \u05d5\u05bc\u05de\u05b4\u05ea\u05b0\u05d5\u05b7\u05d3\u05b6\u05bc\u0597\u05d4 \u05e2\u05b7\u05dc\u05be \u05d7\u05b7\u05d8\u05b9\u05bc\u05a4\u05d0\u05d5\u05ea \u05d1\u05b0\u05bc\u05e0\u05b5\u05bd\u05d9\u05be \u05d9\u05b4\u05e9\u05b0\u05c2\u05e8\u05b8\u05d0\u05b5\u05dc\u0599 \u05d0\u05b2\u05e9\u05b6\u05c1\u05a3\u05e8 \u05d7\u05b8\u05d8\u05b8\u05a3\u05d0\u05e0\u05d5\u05bc \u05dc\u05b8\u0594\u05da\u05b0 \u05d5\u05b7\u05d0\u05b2\u05e0\u05b4\u05a5\u05d9 \u05d5\u05bc\u05d1\u05b5\u05d9\u05ea\u05be \u05d0\u05b8\u05d1\u05b4\u0596\u05d9 \u05d7\u05b8\u05d8\u05b8\u05bd\u05d0\u05e0\u05d5\u05bc\u05c3"
        },
        {
            "chapter": 1,
            "verse": 7,
            "name": "Nehemiah 1:7",
            "text": "\u05d7\u05b2\u05d1\u05b9\u0596\u05dc \u05d7\u05b8\u05d1\u05b7\u05a3\u05dc\u05b0\u05e0\u05d5\u05bc \u05dc\u05b8\u0591\u05da\u05b0 \u05d5\u05b0\u05dc\u05b9\u05d0\u05be \u05e9\u05b8\u05c1\u05de\u05b7\u05a3\u05e8\u05b0\u05e0\u05d5\u05bc \u05d0\u05b6\u05ea\u05be \u05d4\u05b7\u05de\u05b4\u05bc\u05e6\u05b0\u05d5\u05ba\u0597\u05ea \u05d5\u05b0\u05d0\u05b6\u05ea\u05be \u05d4\u05b7\u05bd\u05d7\u05bb\u05e7\u05b4\u05bc\u05d9\u05dd\u0599 \u05d5\u05b0\u05d0\u05b6\u05ea\u05be \u05d4\u05b7\u05de\u05b4\u05bc\u05e9\u05b0\u05c1\u05e4\u05b8\u05bc\u05d8\u05b4\u0594\u05d9\u05dd \u05d0\u05b2\u05e9\u05b6\u05c1\u05a5\u05e8 \u05e6\u05b4\u05d5\u05b4\u05bc\u0596\u05d9\u05ea\u05b8 \u05d0\u05b6\u05ea\u05be \u05de\u05b9\u05e9\u05b6\u05c1\u05a5\u05d4 \u05e2\u05b7\u05d1\u05b0\u05d3\u05b6\u05bc\u05bd\u05da\u05b8\u05c3"
        },
        {
            "chapter": 1,
            "verse": 8,
            "name": "Nehemiah 1:8",
            "text": "\u05d6\u05b0\u05db\u05b8\u05e8\u05be \u05e0\u05b8\u05d0\u0599 \u05d0\u05b6\u05ea\u05be \u05d4\u05b7\u05d3\u05b8\u05bc\u05d1\u05b8\u0594\u05e8 \u05d0\u05b2\u05e9\u05b6\u05c1\u05a5\u05e8 \u05e6\u05b4\u05d5\u05b4\u05bc\u059b\u05d9\u05ea\u05b8 \u05d0\u05b6\u05ea\u05be \u05de\u05b9\u05e9\u05b6\u05c1\u05a5\u05d4 \u05e2\u05b7\u05d1\u05b0\u05d3\u05b0\u05bc\u05da\u05b8\u0596 \u05dc\u05b5\u05d0\u05de\u05b9\u0591\u05e8 \u05d0\u05b7\u05ea\u05b6\u05bc\u05a3\u05dd \u05ea\u05b4\u05bc\u05de\u05b0\u05e2\u05b8\u0594\u05dc\u05d5\u05bc \u05d0\u05b2\u05e0\u05b4\u0595\u05d9 \u05d0\u05b8\u05e4\u05b4\u05a5\u05d9\u05e5 \u05d0\u05b6\u05ea\u05b0\u05db\u05b6\u0596\u05dd \u05d1\u05b8\u05bc\u05e2\u05b7\u05de\u05b4\u05bc\u05bd\u05d9\u05dd\u05c3"
        },
        {
            "chapter": 1,
            "verse": 9,
            "name": "Nehemiah 1:9",
            "text": "\u05d5\u05b0\u05e9\u05b7\u05c1\u05d1\u05b0\u05ea\u05b6\u05bc\u05a3\u05dd \u05d0\u05b5\u05dc\u05b7\u0594\u05d9 \u05d5\u05bc\u05e9\u05b0\u05c1\u05de\u05b7\u05e8\u05b0\u05ea\u05b6\u05bc\u05dd\u0599 \u05de\u05b4\u05e6\u05b0\u05d5\u05ba\u05ea\u05b7\u0594\u05d9 \u05d5\u05b7\u05e2\u05b2\u05e9\u05b4\u05c2\u05d9\u05ea\u05b6\u0596\u05dd \u05d0\u05b9\u05ea\u05b8\u0591\u05dd \u05d0\u05b4\u05dd\u05be \u05d9\u05b4\u05d4\u05b0\u05d9\u05b6\u05a8\u05d4 \u05e0\u05b4\u05bd\u05d3\u05b7\u05bc\u05d7\u05b2\u05db\u05b6\u059c\u05dd \u05d1\u05b4\u05bc\u05e7\u05b0\u05e6\u05b5\u05a4\u05d4 \u05d4\u05b7\u05e9\u05b8\u05bc\u05c1\u05de\u05b7\u0599\u05d9\u05b4\u05dd\u0599 \u05de\u05b4\u05e9\u05b8\u05bc\u05c1\u05a3\u05dd \u05d0\u05b2\u05e7\u05b7\u05d1\u05b0\u05bc\u05e6\u05b5\u0594\u05dd\u05d5\u05d4\u05d1\u05d5\u05d0\u05ea\u05d9\u05dd\u05d5\u05b7\u05d4\u05b2\u05d1\u05b4\u05bd\u05d9\u05d0\u05d5\u05b9\u05ea\u05b4\u05d9\u05dd\u0599 \u05d0\u05b6\u05dc\u05be \u05d4\u05b7\u05de\u05b8\u05bc\u05e7\u0594\u05d5\u05b9\u05dd \u05d0\u05b2\u05e9\u05b6\u05c1\u05a3\u05e8 \u05d1\u05b8\u05bc\u05d7\u05b7\u0594\u05e8\u05b0\u05ea\u05b4\u05bc\u05d9 \u05dc\u05b0\u05e9\u05b7\u05c1\u05db\u05b5\u05bc\u05a5\u05df \u05d0\u05b6\u05ea\u05be \u05e9\u05b0\u05c1\u05de\u05b4\u0596\u05d9 \u05e9\u05b8\u05bd\u05c1\u05dd\u05c3"
        },
        {
            "chapter": 1,
            "verse": 10,
            "name": "Nehemiah 1:10",
            "text": "\u05d5\u05b0\u05d4\u05b5\u05a5\u05dd \u05e2\u05b2\u05d1\u05b8\u05d3\u05b6\u0596\u05d9\u05da\u05b8 \u05d5\u05b0\u05e2\u05b7\u05de\u05b6\u05bc\u0591\u05da\u05b8 \u05d0\u05b2\u05e9\u05b6\u05c1\u05a4\u05e8 \u05e4\u05b8\u05bc\u05d3\u05b4\u0599\u05d9\u05ea\u05b8\u0599 \u05d1\u05b0\u05bc\u05db\u05b9\u05d7\u05b2\u05da\u05b8\u05a3 \u05d4\u05b7\u05d2\u05b8\u05bc\u05d3\u0594\u05d5\u05b9\u05dc \u05d5\u05bc\u05d1\u05b0\u05d9\u05b8\u05d3\u05b0\u05da\u05b8\u0596 \u05d4\u05b7\u05d7\u05b2\u05d6\u05b8\u05e7\u05b8\u05bd\u05d4\u05c3"
        },
        {
            "chapter": 1,
            "verse": 11,
            "name": "Nehemiah 1:11",
            "text": "\u05d0\u05b8\u05e0\u05b8\u05bc\u05a3\u05d0 \u05d0\u05b2\u05d3\u05b9\u05e0\u05b8\u0597\u05d9 \u05ea\u05b0\u05bc\u05d4\u05b4\u05a3\u05d9 \u05e0\u05b8\u05a3\u05d0 \u05d0\u05b8\u05d6\u05b0\u05e0\u05b0\u05da\u05b8\u05bd\u05be \u05e7\u05b7\u05a0\u05e9\u05b6\u05bc\u05c1\u05d1\u05b6\u05ea \u05d0\u05b6\u05dc\u05be \u05ea\u05b0\u05bc\u05e4\u05b4\u05dc\u05b7\u05bc\u05a8\u05ea \u05e2\u05b7\u05d1\u05b0\u05d3\u05b0\u05bc\u05da\u05b8\u059c \u05d5\u05b0\u05d0\u05b6\u05dc\u05be \u05ea\u05b0\u05bc\u05e4\u05b4\u05dc\u05b7\u05bc\u05a3\u05ea \u05e2\u05b2\u05d1\u05b8\u05d3\u05b6\u0597\u05d9\u05da\u05b8 \u05d4\u05b7\u05bd\u05d7\u05b2\u05e4\u05b5\u05e6\u05b4\u05d9\u05dd\u0599 \u05dc\u05b0\u05d9\u05b4\u05e8\u05b0\u05d0\u05b8\u05a3\u05d4 \u05d0\u05b6\u05ea\u05be \u05e9\u05b0\u05c1\u05de\u05b6\u0594\u05da\u05b8 \u05d5\u05b0\u05d4\u05b7\u05e6\u05b0\u05dc\u05b4\u05bd\u05d9\u05d7\u05b8\u05d4\u05be \u05e0\u05b8\u05bc\u05a4\u05d0 \u05dc\u05b0\u05e2\u05b7\u05d1\u05b0\u05d3\u05b0\u05bc\u05da\u05b8\u0599 \u05d4\u05b7\u05d9\u05bc\u0594\u05d5\u05b9\u05dd \u05d5\u05bc\u05ea\u05b0\u05e0\u05b5\u05a3\u05d4\u05d5\u05bc \u05dc\u05b0\u05e8\u05b7\u05d7\u05b2\u05de\u05b4\u0594\u05d9\u05dd \u05dc\u05b4\u05e4\u05b0\u05e0\u05b5\u0596\u05d9 \u05d4\u05b8\u05d0\u05b4\u05a3\u05d9\u05e9\u05c1 \u05d4\u05b7\u05d6\u05b6\u05bc\u0591\u05d4 \u05d5\u05b7\u05d0\u05b2\u05e0\u05b4\u059b\u05d9 \u05d4\u05b8\u05d9\u05b4\u05a5\u05d9\u05ea\u05b4\u05d9 \u05de\u05b7\u05e9\u05b0\u05c1\u05e7\u05b6\u0596\u05d4 \u05dc\u05b7\u05de\u05b6\u05bc\u05bd\u05dc\u05b6\u05da\u05b0\u05c3 \u05e4  "
        }
    ]
}