{
    "translation": "American King James Version",
    "abbreviation": "akjv",
    "lang": "en",
    "language": "English",
    "direction": "LTR",
    "encoding": "",
    "book_nr": 19,
    "book_name": "Psalms",
    "chapter": 11,
    "name": "Psalms 11",
    "verses": [
        {
            "chapter": 11,
            "verse": 1,
            "name": "Psalms 11:1",
            "text": "In the LORD put I my trust: how say you to my soul, Flee as a bird to your mountain?"
        },
        {
            "chapter": 11,
            "verse": 2,
            "name": "Psalms 11:2",
            "text": "For, see, the wicked bend their bow, they make ready their arrow on the string, that they may privately shoot at the upright in heart."
        },
        {
            "chapter": 11,
            "verse": 3,
            "name": "Psalms 11:3",
            "text": "If the foundations be destroyed, what can the righteous do?"
        },
        {
            "chapter": 11,
            "verse": 4,
            "name": "Psalms 11:4",
            "text": "The LORD is in his holy temple, the LORD's throne is in heaven: his eyes behold, his eyelids try, the children of men."
        },
        {
            "chapter": 11,
            "verse": 5,
            "name": "Psalms 11:5",
            "text": "The LORD tries the righteous: but the wicked and him that loves violence his soul hates."
        },
        {
            "chapter": 11,
            "verse": 6,
            "name": "Psalms 11:6",
            "text": "On the wicked he shall rain snares, fire and brimstone, and an horrible tempest: this shall be the portion of their cup."
        },
        {
            "chapter": 11,
            "verse": 7,
            "name": "Psalms 11:7",
            "text": "For the righteous LORD loves righteousness; his countenance does behold the upright."
        }
    ]
}