{
    "translation": "Cornilescu",
    "abbreviation": "cornilescu",
    "lang": "ro",
    "language": "Romanian",
    "direction": "LTR",
    "encoding": "UTF-8",
    "book_nr": 19,
    "book_name": "Psalms",
    "chapter": 112,
    "name": "Psalms 112",
    "verses": [
        {
            "chapter": 112,
            "verse": 1,
            "name": "Psalms 112:1",
            "text": " L\u0103uda\u0163i pe Domnul! Ferice de omul care se teme de Domnul \u015fi care are o mare pl\u0103cere pentru poruncile Lui!"
        },
        {
            "chapter": 112,
            "verse": 2,
            "name": "Psalms 112:2",
            "text": "S\u0103m\u00e2n\u0163a lui va fi puternic\u0103 pe p\u0103m\u00e2nt; neamul oamenilor f\u0103r\u0103 prihan\u0103 va fi binecuv\u00e2ntat."
        },
        {
            "chapter": 112,
            "verse": 3,
            "name": "Psalms 112:3",
            "text": "El are \u00een cas\u0103 bog\u0103\u0163ie \u015fi bel\u015fug \u015fi neprih\u0103nirea lui d\u0103inuie\u015fte \u00een veci."
        },
        {
            "chapter": 112,
            "verse": 4,
            "name": "Psalms 112:4",
            "text": "Celui f\u0103r\u0103 prihan\u0103 \u00eei r\u0103sare o lumin\u0103 \u00een \u00eentuneric, El este milostiv, \u00eendur\u0103tor \u015fi drept."
        },
        {
            "chapter": 112,
            "verse": 5,
            "name": "Psalms 112:5",
            "text": "Ce bine-i merge omului care face mil\u0103 \u015fi \u00eemprumut\u0103 pe altul \u015fi care \u00ee\u015fi r\u00e2nduie\u015fte faptele dup\u0103 dreptate!"
        },
        {
            "chapter": 112,
            "verse": 6,
            "name": "Psalms 112:6",
            "text": "C\u0103ci el nu se clatin\u0103 niciodat\u0103; pomenirea celui neprih\u0103nit \u0163ine \u00een veci."
        },
        {
            "chapter": 112,
            "verse": 7,
            "name": "Psalms 112:7",
            "text": "El nu se teme de ve\u015fti rele, ci inima lui este tare, \u00eencrez\u0103toare \u00een Domnul."
        },
        {
            "chapter": 112,
            "verse": 8,
            "name": "Psalms 112:8",
            "text": "Inima \u00eei este m\u00e2ng\u00e2iat\u0103, n-are nicio team\u0103, p\u00e2n\u0103 ce \u00ee\u015fi vede \u00eemplinit\u0103 dorin\u0163a fa\u0163\u0103 de potrivnicii lui."
        },
        {
            "chapter": 112,
            "verse": 9,
            "name": "Psalms 112:9",
            "text": "El este darnic, d\u0103 celor lipsi\u0163i; milostenia lui \u0163ine \u00een veci; capul i se \u00eenal\u0163\u0103 cu slav\u0103."
        },
        {
            "chapter": 112,
            "verse": 10,
            "name": "Psalms 112:10",
            "text": "Cel r\u0103u vede lucrul acesta \u015fi se m\u00e2nie, scr\u00e2\u015fne\u015fte din din\u0163i \u015fi se tope\u015fte. Poftele celor r\u0103i r\u0103m\u00e2n ne\u00eemplinite.  "
        }
    ]
}