{
    "translation": "Esperanto",
    "abbreviation": "esperanto",
    "lang": "eo",
    "language": "Esperanto",
    "direction": "LTR",
    "encoding": "UTF-8",
    "book_nr": 19,
    "book_name": "Psalms",
    "chapter": 29,
    "name": "Psalms 29",
    "verses": [
        {
            "chapter": 29,
            "verse": 1,
            "name": "Psalms 29:1",
            "text": "  <l>Tributu al la Eternulo, vi potenculoj, Tributu al la Eternulo honoron kaj forton. <l>"
        },
        {
            "chapter": 29,
            "verse": 2,
            "name": "Psalms 29:2",
            "text": "Tributu al la Eternulo la honoron de Lia nomo;</l> Klini\u011du anta\u016d la Eternulo en sankta ornamo. <l>"
        },
        {
            "chapter": 29,
            "verse": 3,
            "name": "Psalms 29:3",
            "text": "La vo\u0109o de la Eternulo iras super la akvoj;</l> La Dio de gloro tondras, La Eternulo super grandaj akvoj. <l>"
        },
        {
            "chapter": 29,
            "verse": 4,
            "name": "Psalms 29:4",
            "text": "La vo\u0109o de la Eternulo iras kun forto,</l> La vo\u0109o de la Eternulo iras kun majesto. <l>"
        },
        {
            "chapter": 29,
            "verse": 5,
            "name": "Psalms 29:5",
            "text": "La vo\u0109o de la Eternulo rompas cedrojn,</l> La Eternulo rompas la cedrojn de Lebanon. <l>"
        },
        {
            "chapter": 29,
            "verse": 6,
            "name": "Psalms 29:6",
            "text": "Li saltigas ilin kiel bovidon,</l> Lebanonon kaj Sirjonon kiel bubalidon. <l>"
        },
        {
            "chapter": 29,
            "verse": 7,
            "name": "Psalms 29:7",
            "text": "La vo\u0109o de la Eternulo elhakas fajran flamon.</l> <l>"
        },
        {
            "chapter": 29,
            "verse": 8,
            "name": "Psalms 29:8",
            "text": "La vo\u0109o de la Eternulo skuas dezerton,</l> La Eternulo skuas la dezerton Kade\u015d. <l>"
        },
        {
            "chapter": 29,
            "verse": 9,
            "name": "Psalms 29:9",
            "text": "La vo\u0109o de la Eternulo igas cervinojn naski, kaj nudigas arbarojn;</l> Kaj en Lia templo \u0109io parolas pri Lia gloro. <l>"
        },
        {
            "chapter": 29,
            "verse": 10,
            "name": "Psalms 29:10",
            "text": "La Eternulo regis en la tempo de la diluvo,</l> La Eternulo restos Re\u011do eterne. <l>"
        },
        {
            "chapter": 29,
            "verse": 11,
            "name": "Psalms 29:11",
            "text": "La Eternulo donos forton al Sia popolo,</l> La Eternulo benos Sian popolon per paco. </lg> "
        }
    ]
}