{
    "translation": "Esperanto",
    "abbreviation": "esperanto",
    "lang": "eo",
    "language": "Esperanto",
    "direction": "LTR",
    "encoding": "UTF-8",
    "book_nr": 19,
    "book_name": "Psalms",
    "chapter": 66,
    "name": "Psalms 66",
    "verses": [
        {
            "chapter": 66,
            "verse": 1,
            "name": "Psalms 66:1",
            "text": "  <l>\u011coje kriu al Dio tuta la tero. <l>"
        },
        {
            "chapter": 66,
            "verse": 2,
            "name": "Psalms 66:2",
            "text": "Muziku la gloron de Lia nomo,</l> Faru honoron al Lia gloro. <l>"
        },
        {
            "chapter": 66,
            "verse": 3,
            "name": "Psalms 66:3",
            "text": "Diru al Dio: Kiel timindaj estas Viaj faroj!</l> Pro Via granda forto ka\u015di\u011das anta\u016d Vi Viaj malamikoj. <l>"
        },
        {
            "chapter": 66,
            "verse": 4,
            "name": "Psalms 66:4",
            "text": "La tuta tero klini\u011das anta\u016d Vi kaj kantas al Vi,</l> Kantas Vian nomon. Sela. <l>"
        },
        {
            "chapter": 66,
            "verse": 5,
            "name": "Psalms 66:5",
            "text": "Venu, kaj rigardu la farojn de Dio,</l> Kiu estas timinda pro Siaj faroj inter la homidoj. <l>"
        },
        {
            "chapter": 66,
            "verse": 6,
            "name": "Psalms 66:6",
            "text": "Li faris el maro sekan teron;</l> Riveron oni transpa\u015dis piede; Tie ni \u011dojis pro Li. <l>"
        },
        {
            "chapter": 66,
            "verse": 7,
            "name": "Psalms 66:7",
            "text": "Li regas per Sia potenco eterne;</l> Liaj okuloj rigardas la popolojn; La ribelantoj ne levi\u011du. Sela. <l>"
        },
        {
            "chapter": 66,
            "verse": 8,
            "name": "Psalms 66:8",
            "text": "La\u016ddu, ho popoloj, nian Dion,</l> Kaj la\u016dte a\u016ddigu Lian gloron. <l>"
        },
        {
            "chapter": 66,
            "verse": 9,
            "name": "Psalms 66:9",
            "text": "Li donis vivon al nia animo,</l> Kaj ne lasis fal\u015danceli\u011di nian piedon. <l>"
        },
        {
            "chapter": 66,
            "verse": 10,
            "name": "Psalms 66:10",
            "text": "\u0108ar Vi esploris nin, ho Dio;</l> Vi refandis nin, kiel oni refandas ar\u011denton. <l>"
        },
        {
            "chapter": 66,
            "verse": 11,
            "name": "Psalms 66:11",
            "text": "Vi enirigis nin en kaptilon,</l> Vi metis \u015dar\u011don sur niajn lumbojn; <l>"
        },
        {
            "chapter": 66,
            "verse": 12,
            "name": "Psalms 66:12",
            "text": "Vi rajdigis homojn sur niaj kapoj;</l> Ni trapasis fajron kaj akvon, Sed Vi elirigis nin en bonstaton. <l>"
        },
        {
            "chapter": 66,
            "verse": 13,
            "name": "Psalms 66:13",
            "text": "Mi eniros en Vian domon kun bruloferoj;</l> Mi plenumos al Vi miajn promesojn, <l>"
        },
        {
            "chapter": 66,
            "verse": 14,
            "name": "Psalms 66:14",
            "text": "Kiujn eligis miaj lipoj kaj elparolis mia bu\u015do,</l> Kiam mi estis en premo. <l>"
        },
        {
            "chapter": 66,
            "verse": 15,
            "name": "Psalms 66:15",
            "text": "Grasajn bruloferojn mi alportos al Vi kun fumo de vir\u015dafoj;</l> Mi oferos bovidojn kaj kaprojn. Sela. <l>"
        },
        {
            "chapter": 66,
            "verse": 16,
            "name": "Psalms 66:16",
            "text": "Venu, a\u016dskultu, \u0109iuj, kiuj timas Dion;</l> Kaj mi rakontos, kion Li faris por mia animo. <l>"
        },
        {
            "chapter": 66,
            "verse": 17,
            "name": "Psalms 66:17",
            "text": "Al Li mi vokis per mia bu\u015do,</l> Kaj Lia glorado estis sub mia lango. <l>"
        },
        {
            "chapter": 66,
            "verse": 18,
            "name": "Psalms 66:18",
            "text": "Se mi vidus maljusta\u0135on en mia koro,</l> Mia Sinjoro min ne a\u016dskultus; <l>"
        },
        {
            "chapter": 66,
            "verse": 19,
            "name": "Psalms 66:19",
            "text": "Sed Dio a\u016dskultis,</l> Li atentis la vo\u0109on de mia pre\u011do. <l>"
        },
        {
            "chapter": 66,
            "verse": 20,
            "name": "Psalms 66:20",
            "text": "Glorata estu Dio,</l> Kiu ne forpu\u015dis mian pre\u011don kaj ne rifuzis al mi Sian bonecon. </lg> "
        }
    ]
}