{
    "translation": "Urdu Geo Version Latin Script (UGV)",
    "abbreviation": "urdugeoroman",
    "lang": "ur",
    "language": "Urdu",
    "direction": "RTL",
    "encoding": "UTF-8",
    "book_nr": 42,
    "book_name": "Luke",
    "chapter": 19,
    "name": "Luke 19",
    "verses": [
        {
            "chapter": 19,
            "verse": 1,
            "name": "Luke 19:1",
            "text": " phir \u012bs\u0101 yar\u012bh\u016b me\u1e45 d\u0101\u1e33hil hu\u0101 aur us me\u1e45 se guzarne lag\u0101."
        },
        {
            "chapter": 19,
            "verse": 2,
            "name": "Luke 19:2",
            "text": "us shahr me\u1e45 ek am\u012br \u0101dm\u012b ban\u0101m zakk\u0101\u012b raht\u0101 th\u0101 jo \u1e6daiks lene w\u0101lo\u1e45 k\u0101 afsar th\u0101."
        },
        {
            "chapter": 19,
            "verse": 3,
            "name": "Luke 19:3",
            "text": "wuh j\u0101nan\u0101 ch\u0101ht\u0101 th\u0101 ki yih \u012bs\u0101 kaun hai, lekin p\u016br\u012b koshish karne ke b\u0101wuj\u016bd use dekh na sak\u0101, ky\u016b\u1e45ki \u012bs\u0101 ke irdgird ba\u1e5b\u0101 huj\u016bm th\u0101 aur zakk\u0101\u012b k\u0101 qad chho\u1e6d\u0101 th\u0101."
        },
        {
            "chapter": 19,
            "verse": 4,
            "name": "Luke 19:4",
            "text": "is lie wuh dau\u1e5b kar \u0101ge nikl\u0101 aur use de\u1e33hne ke lie anj\u012br-t\u016bt  ke dara\u1e33ht par cha\u1e5bh gay\u0101 jo r\u0101ste me\u1e45 th\u0101."
        },
        {
            "chapter": 19,
            "verse": 5,
            "name": "Luke 19:5",
            "text": "jab \u012bs\u0101 wah\u0101\u1e45 pahu\u1e45ch\u0101 to us ne nazar u\u1e6dh\u0101 kar kah\u0101, \u201czakk\u0101\u012b, jald\u012b se utar \u0101, ky\u016b\u1e45ki \u0101j mujhe tere ghar me\u1e45 \u1e6dhaharn\u0101 hai.\u201d"
        },
        {
            "chapter": 19,
            "verse": 6,
            "name": "Luke 19:6",
            "text": "zakk\u0101\u012b fauran utar \u0101y\u0101 aur \u1e33hush\u012b se us k\u012b mehm\u0101n-naw\u0101z\u012b k\u012b."
        },
        {
            "chapter": 19,
            "verse": 7,
            "name": "Luke 19:7",
            "text": "yih dekh kar b\u0101q\u012b tam\u0101m log bu\u1e5bbu\u1e5b\u0101ne lage, \u201cis ke ghar me\u1e45 j\u0101 kar wuh ek gun\u0101hg\u0101r ke mehm\u0101n ban gae hai\u1e45.\u201d"
        },
        {
            "chapter": 19,
            "verse": 8,
            "name": "Luke 19:8",
            "text": "lekin zakk\u0101\u012b ne \u1e33hud\u0101wand ke s\u0101mne kha\u1e5be ho kar kah\u0101, \u201c\u1e33hud\u0101wand, mai\u1e45 apne m\u0101l k\u0101 \u0101dh\u0101 hiss\u0101 \u0121har\u012bbo\u1e45 ko de det\u0101 h\u016b\u1e45. aur jis se mai\u1e45 ne n\u0101j\u0101iz taur se kuchh liy\u0101 hai use ch\u0101r gun\u0101 w\u0101pas kart\u0101 h\u016b\u1e45.\u201d"
        },
        {
            "chapter": 19,
            "verse": 9,
            "name": "Luke 19:9",
            "text": "\u012bs\u0101 ne us se kah\u0101, \u201c\u0101j is ghar\u0101ne ko naj\u0101t mil ga\u012b hai, is lie ki yih bh\u012b ibr\u0101h\u012bm k\u0101 be\u1e6d\u0101 hai."
        },
        {
            "chapter": 19,
            "verse": 10,
            "name": "Luke 19:10",
            "text": "ky\u016b\u1e45ki ibn-e-\u0101dam gumshud\u0101 ko \u1e0dh\u016b\u1e45\u1e0dne aur naj\u0101t dene ke lie \u0101y\u0101 hai.\u201d"
        },
        {
            "chapter": 19,
            "verse": 11,
            "name": "Luke 19:11",
            "text": " ab \u012bs\u0101 yar\u016bshalam ke qar\u012bb \u0101 chuk\u0101 th\u0101, is lie log and\u0101z\u0101 lag\u0101ne lage ki all\u0101h k\u012b b\u0101dsh\u0101h\u012b z\u0101hir hone w\u0101l\u012b hai. is ke pesh-e-nazar \u012bs\u0101 ne apn\u012b yih b\u0101te\u1e45 sunane w\u0101lo\u1e45 ko ek tams\u012bl sun\u0101\u012b."
        },
        {
            "chapter": 19,
            "verse": 12,
            "name": "Luke 19:12",
            "text": "us ne kah\u0101, \u201cek naw\u0101b kis\u012b d\u016brdar\u0101z mulk ko chal\u0101 gay\u0101 t\u0101ki use b\u0101dsh\u0101h muqarrar kiy\u0101 j\u0101e. phir use w\u0101pas \u0101n\u0101 th\u0101."
        },
        {
            "chapter": 19,
            "verse": 13,
            "name": "Luke 19:13",
            "text": "raw\u0101n\u0101 hone se pahle us ne apne naukaro\u1e45 me\u1e45 se das ko bul\u0101 kar unhe\u1e45 sone k\u0101 ek ek sikk\u0101 diy\u0101. s\u0101th s\u0101th us ne kah\u0101, \u2018yih paise le kar us waqt tak k\u0101rob\u0101r me\u1e45 lag\u0101o jab tak mai\u1e45 w\u0101pas na \u0101\u016b\u1e45.\u2019"
        },
        {
            "chapter": 19,
            "verse": 14,
            "name": "Luke 19:14",
            "text": "lekin us k\u012b ri\u0101y\u0101 us se nafrat rakht\u012b th\u012b, is lie us ne us ke p\u012bchhe wafd bhej kar ittil\u0101 d\u012b, \u2018ham nah\u012b\u1e45 ch\u0101hte ki yih \u0101dm\u012b ham\u0101r\u0101 b\u0101dsh\u0101h bane.\u2019"
        },
        {
            "chapter": 19,
            "verse": 15,
            "name": "Luke 19:15",
            "text": "to bh\u012b use b\u0101dsh\u0101h muqarrar kiy\u0101 gay\u0101. is ke b\u0101d jab w\u0101pas \u0101y\u0101 to us ne un naukaro\u1e45 ko bul\u0101y\u0101 jinhe\u1e45 us ne paise die the t\u0101ki m\u0101l\u016bm kare ki unho\u1e45 ne yih paise k\u0101rob\u0101r me\u1e45 lag\u0101 kar kitn\u0101 iz\u0101f\u0101 kiy\u0101 hai."
        },
        {
            "chapter": 19,
            "verse": 16,
            "name": "Luke 19:16",
            "text": "pahl\u0101 naukar \u0101y\u0101. us ne kah\u0101, \u2018jan\u0101b, \u0101p ke ek sikke se das ho gae hai\u1e45.\u2019"
        },
        {
            "chapter": 19,
            "verse": 17,
            "name": "Luke 19:17",
            "text": "m\u0101lik ne kah\u0101, \u2018sh\u0101b\u0101sh, achchhe naukar. t\u016b tho\u1e5be me\u1e45 waf\u0101d\u0101r rah\u0101, is lie ab tujhe das shahro\u1e45 par i\u1e33htiy\u0101r mileg\u0101.\u2019"
        },
        {
            "chapter": 19,
            "verse": 18,
            "name": "Luke 19:18",
            "text": "phir d\u016bsr\u0101 naukar \u0101y\u0101. us ne kah\u0101, \u2018jan\u0101b, \u0101p ke ek sikke se p\u0101\u1e45ch ho gae hai\u1e45.\u2019"
        },
        {
            "chapter": 19,
            "verse": 19,
            "name": "Luke 19:19",
            "text": "m\u0101lik ne us se kah\u0101, \u2018tujhe p\u0101\u1e45ch shahro\u1e45 par i\u1e33htiy\u0101r mileg\u0101.\u2019"
        },
        {
            "chapter": 19,
            "verse": 20,
            "name": "Luke 19:20",
            "text": "phir ek aur naukar \u0101 kar kahne lag\u0101, \u2018jan\u0101b, yih \u0101p k\u0101 sikk\u0101 hai. mai\u1e45 ne ise kap\u1e5be me\u1e45 lape\u1e6d kar mahf\u016bz rakh\u0101,"
        },
        {
            "chapter": 19,
            "verse": 21,
            "name": "Luke 19:21",
            "text": "ky\u016b\u1e45ki mai\u1e45 \u0101p se \u1e0dart\u0101 th\u0101, is lie ki \u0101p sa\u1e33ht \u0101dm\u012b hai\u1e45. jo paise \u0101p ne nah\u012b\u1e45 lag\u0101e unhe\u1e45 le lete hai\u1e45 aur jo b\u012bj \u0101p ne nah\u012b\u1e45 boy\u0101 us k\u012b fasal k\u0101\u1e6dte hai\u1e45.\u2019"
        },
        {
            "chapter": 19,
            "verse": 22,
            "name": "Luke 19:22",
            "text": "m\u0101lik ne kah\u0101, \u2018shar\u012br naukar! mai\u1e45 tere apne alf\u0101z ke mut\u0101biq ter\u012b ad\u0101lat kar\u016b\u1e45ga. jab t\u016b j\u0101nt\u0101 th\u0101 ki mai\u1e45 sa\u1e33ht \u0101dm\u012b h\u016b\u1e45, ki wuh paise le let\u0101 h\u016b\u1e45 jo \u1e33hud nah\u012b\u1e45 lag\u0101e aur wuh fasal k\u0101\u1e6dt\u0101 h\u016b\u1e45 jis k\u0101 b\u012bj nah\u012b\u1e45 boy\u0101,"
        },
        {
            "chapter": 19,
            "verse": 23,
            "name": "Luke 19:23",
            "text": "to phir t\u016b ne mere paise baink me\u1e45 ky\u016b\u1e45 na jam\u0101 kar\u0101e? agar t\u016b ais\u0101 kart\u0101 to w\u0101pas\u012b par mujhe kam az kam wuh paise s\u016bd samet mil j\u0101te.\u2019"
        },
        {
            "chapter": 19,
            "verse": 24,
            "name": "Luke 19:24",
            "text": "yih kah kar wuh h\u0101zir\u012bn se mu\u1e33h\u0101tib hu\u0101, \u2018yih sikk\u0101 is se le kar us naukar ko de do jis ke p\u0101s das sikke hai\u1e45.\u2019"
        },
        {
            "chapter": 19,
            "verse": 25,
            "name": "Luke 19:25",
            "text": "unho\u1e45 ne etir\u0101z kiy\u0101, \u2018jan\u0101b, us ke p\u0101s to pahle h\u012b das sikke hai\u1e45.\u2019"
        },
        {
            "chapter": 19,
            "verse": 26,
            "name": "Luke 19:26",
            "text": "us ne jaw\u0101b diy\u0101, \u2018mai\u1e45 tumhe\u1e45 bat\u0101t\u0101 h\u016b\u1e45 ki har sha\u1e33hs jis ke p\u0101s kuchh hai use aur diy\u0101 j\u0101eg\u0101, lekin jis ke p\u0101s kuchh nah\u012b\u1e45 hai us se wuh bh\u012b chh\u012bn liy\u0101 j\u0101eg\u0101 jo us ke p\u0101s hai."
        },
        {
            "chapter": 19,
            "verse": 27,
            "name": "Luke 19:27",
            "text": "ab un dushmano\u1e45 ko le \u0101o jo nah\u012b\u1e45 ch\u0101hte the ki mai\u1e45 un k\u0101 b\u0101dsh\u0101h ban\u016b\u1e45. unhe\u1e45 mere s\u0101mne ph\u0101\u1e45s\u012b de do\u2019.\u201d"
        },
        {
            "chapter": 19,
            "verse": 28,
            "name": "Luke 19:28",
            "text": " in b\u0101to\u1e45 ke b\u0101d \u012bs\u0101 d\u016bsro\u1e45 ke \u0101ge \u0101ge yar\u016bshalam k\u012b taraf ba\u1e5bhne lag\u0101."
        },
        {
            "chapter": 19,
            "verse": 29,
            "name": "Luke 19:29",
            "text": "jab wuh bait-fage aur bait-aniy\u0101h ke qar\u012bb pahu\u1e45ch\u0101 jo zait\u016bn ke pah\u0101\u1e5b par the to us ne do sh\u0101girdo\u1e45 ko apne \u0101ge bhej kar"
        },
        {
            "chapter": 19,
            "verse": 30,
            "name": "Luke 19:30",
            "text": "kah\u0101, \u201cs\u0101mne w\u0101le g\u0101o\u1e45 me\u1e45 j\u0101o. wah\u0101\u1e45 tum ek jaw\u0101n gadh\u0101 dekhoge. wuh bandh\u0101 hu\u0101 hog\u0101 aur ab tak ko\u012b bh\u012b us par saw\u0101r nah\u012b\u1e45 hu\u0101 hai. use khol kar le \u0101o."
        },
        {
            "chapter": 19,
            "verse": 31,
            "name": "Luke 19:31",
            "text": "agar ko\u012b p\u016bchhe ki gadhe ko ky\u016b\u1e45 khol rahe ho to use bat\u0101 den\u0101 ki \u1e33hud\u0101wand ko is k\u012b zar\u016brat hai.\u201d"
        },
        {
            "chapter": 19,
            "verse": 32,
            "name": "Luke 19:32",
            "text": "dono\u1e45 sh\u0101gird gae to dekh\u0101 ki sab kuchh wais\u0101 h\u012b hai jais\u0101 \u012bs\u0101 ne unhe\u1e45 bat\u0101y\u0101 th\u0101."
        },
        {
            "chapter": 19,
            "verse": 33,
            "name": "Luke 19:33",
            "text": "jab wuh jaw\u0101n gadhe ko kholne lage to us ke m\u0101liko\u1e45 ne p\u016bchh\u0101, \u201ctum gadhe ko ky\u016b\u1e45 khol rahe ho?\u201d"
        },
        {
            "chapter": 19,
            "verse": 34,
            "name": "Luke 19:34",
            "text": "unho\u1e45 ne jaw\u0101b diy\u0101, \u201c\u1e33hud\u0101wand ko is k\u012b zar\u016brat hai.\u201d"
        },
        {
            "chapter": 19,
            "verse": 35,
            "name": "Luke 19:35",
            "text": "wuh use \u012bs\u0101 ke p\u0101s le \u0101e, aur apne kap\u1e5be gadhe par rakh kar us ko us par saw\u0101r kiy\u0101."
        },
        {
            "chapter": 19,
            "verse": 36,
            "name": "Luke 19:36",
            "text": "jab wuh chal pa\u1e5b\u0101 to logo\u1e45 ne us ke \u0101ge \u0101ge r\u0101ste me\u1e45 apne kap\u1e5be bichh\u0101 die."
        },
        {
            "chapter": 19,
            "verse": 37,
            "name": "Luke 19:37",
            "text": "chalte chalte wuh us jagah ke qar\u012bb pahu\u1e45ch\u0101 jah\u0101\u1e45 r\u0101st\u0101 zait\u016bn ke pah\u0101\u1e5b par se utarne lagt\u0101 hai. is par sh\u0101girdo\u1e45 k\u0101 p\u016br\u0101 huj\u016bm \u1e33hush\u012b ke m\u0101re \u016b\u1e45ch\u012b \u0101w\u0101z se un mojizo\u1e45 ke lie all\u0101h k\u012b tamj\u012bd karne lag\u0101 jo unho\u1e45 ne dekhe the,"
        },
        {
            "chapter": 19,
            "verse": 38,
            "name": "Luke 19:38",
            "text": "\u201cmub\u0101rak hai wuh b\u0101dsh\u0101h jo rab ke n\u0101m se \u0101t\u0101 hai. \u0101sm\u0101n par sal\u0101mat\u012b ho aur bulandiyo\u1e45 par izzat-o-jal\u0101l.\u201d"
        },
        {
            "chapter": 19,
            "verse": 39,
            "name": "Luke 19:39",
            "text": "kuchh far\u012bs\u012b bh\u012b\u1e5b me\u1e45 the. unho\u1e45 ne \u012bs\u0101 se kah\u0101, \u201cust\u0101d, apne sh\u0101girdo\u1e45 ko samjh\u0101e\u1e45.\u201d"
        },
        {
            "chapter": 19,
            "verse": 40,
            "name": "Luke 19:40",
            "text": "us ne jaw\u0101b diy\u0101, \u201cmai\u1e45 tumhe\u1e45 bat\u0101t\u0101 h\u016b\u1e45, agar yih chup ho j\u0101e\u1e45 to patthar puk\u0101r u\u1e6dhe\u1e45ge.\u201d"
        },
        {
            "chapter": 19,
            "verse": 41,
            "name": "Luke 19:41",
            "text": " jab wuh yar\u016bshalam ke qar\u012bb pahu\u1e45ch\u0101 to shahr ko dekh kar ro pa\u1e5b\u0101"
        },
        {
            "chapter": 19,
            "verse": 42,
            "name": "Luke 19:42",
            "text": "aur kah\u0101, \u201ck\u0101sh t\u016b bh\u012b is din j\u0101n let\u012b ki ter\u012b sal\u0101mat\u012b kis me\u1e45 hai. lekin ab yih b\u0101t ter\u012b \u0101\u1e45kho\u1e45 se chhup\u012b hu\u012b hai."
        },
        {
            "chapter": 19,
            "verse": 43,
            "name": "Luke 19:43",
            "text": "ky\u016b\u1e45ki tujh par ais\u0101 waqt \u0101eg\u0101 ki tere dushman tere irdgird band b\u0101ndh kar ter\u0101 muh\u0101sar\u0101 kare\u1e45ge aur y\u016b\u1e45 tujhe ch\u0101ro\u1e45 taraf se gher kar tang kare\u1e45ge."
        },
        {
            "chapter": 19,
            "verse": 44,
            "name": "Luke 19:44",
            "text": "wuh tujhe tere bachcho\u1e45 samet zam\u012bn par pa\u1e6dke\u1e45ge aur tere andar ek bh\u012b patthar d\u016bsre par nah\u012b\u1e45 chho\u1e5be\u1e45ge. aur wajah yih\u012b hog\u012b ki t\u016b ne wuh waqt nah\u012b\u1e45 pahch\u0101n\u0101 jab all\u0101h ne ter\u012b naj\u0101t ke lie tujh par nazar k\u012b.\u201d"
        },
        {
            "chapter": 19,
            "verse": 45,
            "name": "Luke 19:45",
            "text": " phir \u012bs\u0101 bait-ul-muqaddas me\u1e45 j\u0101 kar unhe\u1e45 nik\u0101lne lag\u0101 jo wah\u0101\u1e45 qurb\u0101niyo\u1e45 ke lie dark\u0101r ch\u012bze\u1e45 bech rahe the. us ne kah\u0101,"
        },
        {
            "chapter": 19,
            "verse": 46,
            "name": "Luke 19:46",
            "text": "\u201ckal\u0101m-e-muqaddas me\u1e45 likh\u0101 hai, \u2018mer\u0101 ghar du\u0101 k\u0101 ghar hog\u0101\u2019 jabki tum ne use \u1e0d\u0101kuo\u1e45 ke a\u1e0d\u1e0de me\u1e45 badal diy\u0101 hai.\u201d"
        },
        {
            "chapter": 19,
            "verse": 47,
            "name": "Luke 19:47",
            "text": "aur wuh roz\u0101n\u0101 bait-ul-muqaddas me\u1e45 t\u0101l\u012bm det\u0101 rah\u0101. lekin bait-ul-muqaddas ke r\u0101hnum\u0101 im\u0101m, shar\u012bat ke \u0101lim aur aw\u0101m\u012b r\u0101hnum\u0101 use qatl karne ke lie kosh\u0101\u1e45 rahe,"
        },
        {
            "chapter": 19,
            "verse": 48,
            "name": "Luke 19:48",
            "text": "albatt\u0101 unhe\u1e45 ko\u012b mauq\u0101 na mil\u0101, ky\u016b\u1e45ki tam\u0101m log \u012bs\u0101 k\u012b har b\u0101t sun sun kar us se lip\u1e6de rahte the.  "
        }
    ]
}