{
    "translation": "B\u00edblia Livre - Textus Receptus",
    "abbreviation": "porblivretr",
    "lang": "pt",
    "language": "Portuguese",
    "direction": "LTR",
    "encoding": "UTF-8",
    "book_nr": 45,
    "book_name": "Romans",
    "chapter": 7,
    "name": "Romans 7",
    "verses": [
        {
            "chapter": 7,
            "verse": 1,
            "name": "Romans 7:1",
            "text": "N\u00e3o sabeis v\u00f3s, irm\u00e3os (pois estou falando com os que entendem a Lei), que a Lei domina o ser humano por todo o tempo que vive? "
        },
        {
            "chapter": 7,
            "verse": 2,
            "name": "Romans 7:2",
            "text": "Pois a mulher casada est\u00e1, pela Lei, ligada ao marido enquanto o ele viver; por\u00e9m, depois do marido morrer, ela est\u00e1 livre da Lei do marido. "
        },
        {
            "chapter": 7,
            "verse": 3,
            "name": "Romans 7:3",
            "text": "Ou seja, enquanto o marido viver, ela ser\u00e1 chamada de ad\u00faltera, se for de outro homem; mas depois de morto o marido, ela est\u00e1 livre da Lei, de maneira que n\u00e3o ser\u00e1 ad\u00faltera se for de outro homem. "
        },
        {
            "chapter": 7,
            "verse": 4,
            "name": "Romans 7:4",
            "text": "Assim, meus irm\u00e3os, tamb\u00e9m v\u00f3s estais mortos para a Lei por meio do corpo de Cristo, para que sejais de outro, daquele que foi ressuscitado dos mortos, a fim de frutificarmos para Deus. "
        },
        {
            "chapter": 7,
            "verse": 5,
            "name": "Romans 7:5",
            "text": "Pois, quando est\u00e1vamos na carne, as paix\u00f5es dos pecados, que eram pela Lei, operavam nos membros do nosso corpo, a fim de frutificarem para a morte. "
        },
        {
            "chapter": 7,
            "verse": 6,
            "name": "Romans 7:6",
            "text": "Mas agora estamos livres da Lei, estando mortos para aquilo em que est\u00e1vamos presos, para que sirvamos em novidade de esp\u00edrito, e n\u00e3o na velhice da norma escrita.  "
        },
        {
            "chapter": 7,
            "verse": 7,
            "name": "Romans 7:7",
            "text": "Que diremos, pois? \u00c9 a Lei pecado? De maneira nenhuma! Todavia, eu n\u00e3o teria conhecido o pecado, se n\u00e3o fosse pela Lei; porque n\u00e3o conheceria a cobi\u00e7a,  se a Lei n\u00e3o dissesse: N\u00e3o cobi\u00e7ar\u00e1s.  "
        },
        {
            "chapter": 7,
            "verse": 8,
            "name": "Romans 7:8",
            "text": "Mas o pecado, aproveitando-se do mandamento, operou em mim toda variedade de cobi\u00e7a. Pois sem a Lei o pecado estaria morto. "
        },
        {
            "chapter": 7,
            "verse": 9,
            "name": "Romans 7:9",
            "text": "Antes eu vivia sem a Lei; mas quando veio o mandamento, o pecado reviveu, e eu morri; "
        },
        {
            "chapter": 7,
            "verse": 10,
            "name": "Romans 7:10",
            "text": "e descobri que o mandamento, que era para a vida, resultou-me para a morte. "
        },
        {
            "chapter": 7,
            "verse": 11,
            "name": "Romans 7:11",
            "text": "Pois o pecado, aproveitando o mandamento, me enganou, e por ele me matou. "
        },
        {
            "chapter": 7,
            "verse": 12,
            "name": "Romans 7:12",
            "text": "Portanto, a Lei \u00e9 santa, e o mandamento \u00e9 santo, justo, e bom. "
        },
        {
            "chapter": 7,
            "verse": 13,
            "name": "Romans 7:13",
            "text": "Ent\u00e3o o que \u00e9 bom se tornou para mim morte? De maneira nenhuma! Mas foi o pecado, para que se mostrasse como pecado, que operou a morte em mim por meio do bem, a fim de que, por meio do mandamento, o pecado se tornasse excessivamente pecaminoso. "
        },
        {
            "chapter": 7,
            "verse": 14,
            "name": "Romans 7:14",
            "text": "Pois sabemos que a Lei \u00e9 espiritual; mas eu sou carnal, vendido como servo do pecado.  "
        },
        {
            "chapter": 7,
            "verse": 15,
            "name": "Romans 7:15",
            "text": "Porque n\u00e3o entendo o que fa\u00e7o, pois o que quero, isso n\u00e3o fa\u00e7o; mas o que eu odeio, isso fa\u00e7o. "
        },
        {
            "chapter": 7,
            "verse": 16,
            "name": "Romans 7:16",
            "text": "E se fa\u00e7o o que n\u00e3o quero, consinto que a Lei \u00e9 boa; "
        },
        {
            "chapter": 7,
            "verse": 17,
            "name": "Romans 7:17",
            "text": "De maneira que agora n\u00e3o sou mais eu que fa\u00e7o aquilo, mas sim, o pecado que habita em mim. "
        },
        {
            "chapter": 7,
            "verse": 18,
            "name": "Romans 7:18",
            "text": "Porque sei que em mim, isto \u00e9, em minha carne, n\u00e3o habita bem algum; porque o querer est\u00e1 em mim; por\u00e9m o fazer o bem eu n\u00e3o consigo. "
        },
        {
            "chapter": 7,
            "verse": 19,
            "name": "Romans 7:19",
            "text": "Pois o bem que quero, n\u00e3o fa\u00e7o; mas o mal que n\u00e3o quero, isso fa\u00e7o. "
        },
        {
            "chapter": 7,
            "verse": 20,
            "name": "Romans 7:20",
            "text": "Ora, se fa\u00e7o o que n\u00e3o quero, n\u00e3o sou eu que fa\u00e7o, mas sim, o pecado que habita em mim. "
        },
        {
            "chapter": 7,
            "verse": 21,
            "name": "Romans 7:21",
            "text": "Acho, ent\u00e3o, esta Lei: que quando quero fazer o bem, o mal est\u00e1 comigo. "
        },
        {
            "chapter": 7,
            "verse": 22,
            "name": "Romans 7:22",
            "text": "Pois, quanto ao ser interior, tenho prazer na Lei de Deus; "
        },
        {
            "chapter": 7,
            "verse": 23,
            "name": "Romans 7:23",
            "text": "mas em meus membros vejo outra lei, que batalha contra a lei do meu entendimento, e me prende sob a lei do pecado, que est\u00e1 nos meus membros. "
        },
        {
            "chapter": 7,
            "verse": 24,
            "name": "Romans 7:24",
            "text": "Miser\u00e1vel homem que sou ! Quem me livrar\u00e1 deste corpo de morte?  "
        },
        {
            "chapter": 7,
            "verse": 25,
            "name": "Romans 7:25",
            "text": "Agrade\u00e7o a Deus por Jesus Cristo, nosso Senhor. Assim, eu mesmo com o entendimento sirvo \u00e0 Lei de Deus, mas, com a carne, \u00e0 Lei do pecado. "
        }
    ]
}