{
    "translation": "1757 Church Slavonic Elizabeth Bible",
    "abbreviation": "cslelizabeth",
    "lang": "cu",
    "language": "Slavonic Elizabeth",
    "direction": "LTR",
    "encoding": "UTF-8",
    "book_nr": 13,
    "book_name": "1 Chronicles",
    "chapter": 19,
    "name": "1 Chronicles 19",
    "verses": [
        {
            "chapter": 19,
            "verse": 1,
            "name": "1 Chronicles 19:1",
            "text": "\u0418 \u0431\u044b\u0441\u0442\u044c \u043f\u043e \u0441\u0438\u0445, \u0443\u043c\u0440\u0435 \u041d\u0430\u0430\u0441 \u0446\u0430\u0440\u044c \u0441\u044b\u043d\u043e\u0432 \u0410\u043c\u043c\u043e\u043d\u0438\u0445, \u0438 \u0432\u043e\u0446\u0430\u0440\u0438\u0441\u044f \u0410\u043c\u0430\u043c \u0441\u044b\u043d \u0435\u0433\u043e \u0432\u043c\u0435\u0441\u0442\u043e \u0435\u0433\u043e."
        },
        {
            "chapter": 19,
            "verse": 2,
            "name": "1 Chronicles 19:2",
            "text": "\u0418 \u0440\u0435\u0447\u0435 \u0414\u0430\u0432\u0438\u0434: \u0441\u043e\u0442\u0432\u043e\u0440\u044e \u043c\u0438\u043b\u043e\u0441\u0442\u044c \u0441\u043e \u0410\u043d\u0430\u043d\u043e\u043c \u0441\u044b\u043d\u043e\u043c \u041d\u0430\u0430\u0441\u043e\u0432\u044b\u043c, \u044f\u043a\u043e\u0436\u0435 \u0441\u043e\u0442\u0432\u043e\u0440\u0438 \u043e\u0442\u0435\u0446 \u0435\u0433\u043e \u043c\u0438\u043b\u043e\u0441\u0442\u044c \u0441\u043e \u043c\u043d\u043e\u044e. \u0418 \u043f\u043e\u0441\u043b\u0430 \u0414\u0430\u0432\u0438\u0434 \u043f\u043e\u0441\u043b\u044b \u043d\u0430 \u0443\u0442\u0435\u0448\u0435\u043d\u0438\u0435 \u0435\u043c\u0443 \u043e \u043e\u0442\u0446\u0435 \u0435\u0433\u043e. \u0418 \u043f\u0440\u0438\u0438\u0434\u043e\u0448\u0430 \u043e\u0442\u0440\u043e\u0446\u044b \u0414\u0430\u0432\u0438\u0434\u043e\u0432\u044b \u0432 \u0437\u0435\u043c\u043b\u044e \u0441\u044b\u043d\u043e\u0432 \u0410\u043c\u043c\u043e\u043d\u0438\u0445 \u043a\u043e \u0410\u043d\u0430\u043d\u0443, \u0434\u0430 \u0443\u0442\u0435\u0448\u0430\u0442 \u0435\u0433\u043e."
        },
        {
            "chapter": 19,
            "verse": 3,
            "name": "1 Chronicles 19:3",
            "text": "\u0418 \u0440\u0435\u043a\u043e\u0448\u0430 \u043d\u0430\u0447\u0430\u043b\u043d\u0438\u0446\u044b \u0441\u044b\u043d\u043e\u0432 \u0410\u043c\u043c\u043e\u043d\u0438\u0445 \u043a\u043e \u0410\u043d\u0430\u043d\u0443: \u0435\u0434\u0430 \u043f\u0440\u043e\u0441\u043b\u0430\u0432\u043b\u044f\u044f \u0414\u0430\u0432\u0438\u0434 \u043e\u0442\u0446\u0430 \u0442\u0432\u043e\u0435\u0433\u043e \u043f\u0440\u0435\u0434 \u0442\u043e\u0431\u043e\u044e, \u043f\u043e\u0441\u043b\u0430 \u043a \u0442\u0435\u0431\u0435 \u0443\u0442\u0435\u0448\u0438\u0442\u0435\u043b\u0438? \u041d\u0438\u043a\u0430\u043a\u043e: \u043d\u043e \u0434\u0430 \u0438\u0441\u043f\u044b\u0442\u0430\u044e\u0442 \u0433\u0440\u0430\u0434 \u0438 \u0441\u043e\u0433\u043b\u044f\u0434\u0430\u044e\u0442 \u0437\u0435\u043c\u043b\u044e, \u043f\u0440\u0438\u0438\u0434\u043e\u0448\u0430 \u043a \u0442\u0435\u0431\u0435 \u043e\u0442\u0440\u043e\u0446\u044b \u0435\u0433\u043e."
        },
        {
            "chapter": 19,
            "verse": 4,
            "name": "1 Chronicles 19:4",
            "text": "\u0418 \u0432\u0437\u044f \u0410\u043d\u0430\u043d \u0440\u0430\u0431\u043e\u0432 \u0414\u0430\u0432\u0438\u0434\u043e\u0432\u044b\u0445, \u0438 \u043e\u0431\u0440\u0438 \u0438\u0445, \u0438 \u043e\u0442\u0440\u0435\u0437\u0430 \u043e\u0442 \u0440\u0438\u0437 \u0438\u0445 \u043f\u043e\u043b\u043e\u0432\u0438\u043d\u0443 \u0434\u0430\u0436\u0435 \u0434\u043e \u0447\u0440\u0435\u0441\u043b, \u0438 \u043e\u0442\u043f\u0443\u0441\u0442\u0438 \u0438\u0445."
        },
        {
            "chapter": 19,
            "verse": 5,
            "name": "1 Chronicles 19:5",
            "text": "\u0418 \u043f\u0440\u0438\u0438\u0434\u043e\u0448\u0430 \u0432\u043e\u0437\u0432\u0435\u0441\u0442\u0438\u0442\u0438 \u0414\u0430\u0432\u0438\u0434\u0443 \u043e \u043c\u0443\u0436\u0435\u0445: \u0438 \u043f\u043e\u0441\u043b\u0430 \u0432\u043e \u0441\u0440\u0435\u0442\u0435\u043d\u0438\u0435 \u0438\u043c, \u044f\u043a\u043e \u0431\u044b\u0448\u0430 \u043e\u0431\u0435\u0437\u0447\u0435\u0449\u0435\u043d\u0438 \u0437\u0435\u043b\u043e. \u0418 \u0440\u0435\u0447\u0435 \u0446\u0430\u0440\u044c: \u0441\u0435\u0434\u0438\u0442\u0435 \u0432\u043e \u0418\u0435\u0440\u0438\u0445\u043e\u043d\u0435, \u0434\u043e\u043d\u0434\u0435\u0436\u0435 \u0432\u043e\u0437\u0440\u0430\u0441\u0442\u0443\u0442 \u0431\u0440\u0430\u0434\u044b \u0432\u0430\u0448\u044f, \u0438 \u0432\u043e\u0437\u0432\u0440\u0430\u0442\u0438\u0442\u0435\u0441\u044f."
        },
        {
            "chapter": 19,
            "verse": 6,
            "name": "1 Chronicles 19:6",
            "text": "\u0418 \u0432\u0438\u0434\u0435\u0448\u0430 \u0441\u044b\u043d\u043e\u0432\u0435 \u0410\u043c\u043c\u043e\u043d\u0438, \u044f\u043a\u043e \u043f\u043e\u0441\u0440\u0430\u043c\u043b\u0435\u043d\u0438 \u0431\u044b\u0448\u0430 \u043b\u044e\u0434\u0438\u0435 \u0414\u0430\u0432\u0438\u0434\u043e\u0432\u044b, \u0438 \u043f\u043e\u0441\u043b\u0430 \u0410\u043d\u0430\u043d \u0438 \u0441\u044b\u043d\u043e\u0432\u0435 \u0410\u043c\u043c\u043e\u043d\u0438 \u0442\u044b\u0441\u044f\u0449\u0443 \u0442\u0430\u043b\u0430\u043d\u0442 \u0441\u0440\u0435\u0431\u0440\u0430, \u0434\u0430 \u043d\u0430\u0439\u043c\u0443\u0442 \u0441\u0435\u0431\u0435 \u043e\u0442 \u0421\u0438\u0440\u0438\u0438 \u041c\u0435\u0441\u043e\u043f\u043e\u0442\u0430\u043c\u0441\u043a\u0438, \u0438 \u043e\u0442 \u0421\u0438\u0440\u0438\u0438 \u041c\u0430\u0430\u0445\u0430, \u0438 \u043e\u0442 \u0421\u0443\u0432\u044b \u043a\u043e\u043b\u0435\u0441\u043d\u0438\u0446\u044b \u0438 \u043a\u043e\u043d\u043d\u0438\u043a\u0438:"
        },
        {
            "chapter": 19,
            "verse": 7,
            "name": "1 Chronicles 19:7",
            "text": "\u0438 \u043d\u0430\u044f\u0448\u0430 \u0441\u0435\u0431\u0435 \u0442\u0440\u0438\u0434\u0435\u0441\u044f\u0442\u044c \u0434\u0432\u0435 \u0442\u044b\u0441\u044f\u0449\u044b \u043a\u043e\u043b\u0435\u0441\u043d\u0438\u0446 \u0438 \u0446\u0430\u0440\u044f \u041c\u0430\u0430\u0445\u0430 \u0438 \u043b\u044e\u0434\u0438\u0439 \u0435\u0433\u043e: \u0438 \u043f\u0440\u0438\u0438\u0434\u043e\u0448\u0430 \u0438 \u043e\u043f\u043e\u043b\u0447\u0438\u0448\u0430\u0441\u044f \u043f\u0440\u044f\u043c\u043e \u041c\u0438\u0434\u0430\u0432\u0435: \u0438 \u0441\u044b\u043d\u043e\u0432\u0435 \u0410\u043c\u043c\u043e\u043d\u0438 \u0441\u043e\u0431\u0440\u0430\u0448\u0430\u0441\u044f \u043e\u0442 \u0433\u0440\u0430\u0434\u043e\u0432 \u0441\u0432\u043e\u0438\u0445 \u0438 \u043f\u0440\u0438\u0438\u0434\u043e\u0448\u0430 \u043d\u0430 \u0431\u0440\u0430\u043d\u044c."
        },
        {
            "chapter": 19,
            "verse": 8,
            "name": "1 Chronicles 19:8",
            "text": "\u0418 \u0443\u0441\u043b\u044b\u0448\u0430 \u0414\u0430\u0432\u0438\u0434, \u0438 \u043f\u043e\u0441\u043b\u0430 \u0418\u043e\u0430\u0432\u0430 \u0438 \u0432\u0441\u0435 \u0432\u043e\u0438\u043d\u0441\u0442\u0432\u043e \u0441\u0438\u043b\u044c\u043d\u044b\u0445."
        },
        {
            "chapter": 19,
            "verse": 9,
            "name": "1 Chronicles 19:9",
            "text": "\u0418 \u0438\u0437\u044b\u0434\u043e\u0448\u0430 \u0441\u044b\u043d\u043e\u0432\u0435 \u0410\u043c\u043c\u043e\u043d\u0438 \u0438 \u043e\u043f\u043e\u043b\u0447\u0438\u0448\u0430\u0441\u044f \u043d\u0430 \u0431\u0440\u0430\u043d\u044c \u043f\u0440\u0438 \u0432\u0440\u0430\u0442\u0435\u0445 \u0433\u0440\u0430\u0434\u0441\u043a\u0438\u0445: \u0446\u0430\u0440\u0438\u0435 \u0436\u0435 \u043f\u0440\u0438\u0448\u0435\u0434\u0448\u0438\u0438 \u043e\u043f\u043e\u043b\u0447\u0438\u0448\u0430\u0441\u044f \u043e\u0441\u043e\u0431\u043d\u043e \u043d\u0430 \u043f\u043e\u043b\u0438."
        },
        {
            "chapter": 19,
            "verse": 10,
            "name": "1 Chronicles 19:10",
            "text": "\u0418 \u0432\u0438\u0434\u0435 \u0418\u043e\u0430\u0432, \u044f\u043a\u043e \u0431\u044b\u0441\u0442\u044c \u043d\u0430 \u043d\u0435\u0433\u043e \u043f\u0440\u043e\u0442\u0438\u0432\u043d\u043e\u0435 \u043b\u0438\u0446\u0435 \u0431\u0440\u0430\u043d\u0438 \u0441\u043e\u043f\u0440\u0435\u0434\u0438 \u0438 \u0441\u043e\u0437\u0430\u0434\u0438, \u0438 \u0438\u0437\u0431\u0440\u0430 \u043e\u0442 \u0432\u0441\u0435\u0445 \u044e\u043d\u043e\u0448 \u0418\u0437\u0440\u0430\u0438\u043b\u0435\u0432\u044b\u0445 \u0438 \u0443\u0441\u0442\u0440\u043e\u0438 \u0438\u0445 \u043f\u0440\u043e\u0442\u0438\u0432\u0443 \u0421\u0438\u0440\u0430,"
        },
        {
            "chapter": 19,
            "verse": 11,
            "name": "1 Chronicles 19:11",
            "text": "\u0438 \u043e\u0441\u0442\u0430\u043d\u043e\u043a \u043b\u044e\u0434\u0438\u0439 \u0434\u0430\u0434\u0435 \u0432 \u0440\u0443\u0446\u0435 \u0431\u0440\u0430\u0442\u0443 \u0441\u0432\u043e\u0435\u043c\u0443 \u0410\u0432\u0435\u0441\u0441\u0435, \u0438 \u043e\u043f\u043e\u043b\u0447\u0438\u0448\u0430\u0441\u044f \u043f\u0440\u043e\u0442\u0438\u0432\u0443 \u0441\u044b\u043d\u043e\u0432 \u0410\u043c\u043c\u043e\u043d\u0438\u0445."
        },
        {
            "chapter": 19,
            "verse": 12,
            "name": "1 Chronicles 19:12",
            "text": "\u0418 \u0440\u0435\u0447\u0435: \u0430\u0449\u0435 \u0443\u043a\u0440\u0435\u043f\u0438\u0442\u0441\u044f \u0421\u0438\u0440 \u043f\u0430\u0447\u0435 \u043c\u0435\u043d\u0435, \u0442\u043e \u0431\u0443\u0434\u0435\u0448\u0438 \u043c\u043d\u0435 \u0432\u043e \u0441\u043f\u0430\u0441\u0435\u043d\u0438\u0435: \u0430\u0449\u0435 \u0436\u0435 \u0441\u044b\u043d\u043e\u0432\u0435 \u0410\u043c\u043c\u043e\u043d\u0438 \u0443\u043a\u0440\u0435\u043f\u044f\u0442\u0441\u044f \u043f\u0430\u0447\u0435 \u0442\u0435\u0431\u0435, \u0442\u043e \u0430\u0437 \u0441\u043f\u0430\u0441\u0443 \u0442\u044f:"
        },
        {
            "chapter": 19,
            "verse": 13,
            "name": "1 Chronicles 19:13",
            "text": "\u043c\u0443\u0436\u0430\u0439\u0441\u044f, \u0438 \u0443\u043a\u0440\u0435\u043f\u0438\u043c\u0441\u044f \u043e \u043b\u044e\u0434\u0435\u0445 \u043d\u0430\u0448\u0438\u0445 \u0438 \u043e \u0433\u0440\u0430\u0434\u0435\u0445 \u0411\u043e\u0433\u0430 \u043d\u0430\u0448\u0435\u0433\u043e, \u0438 \u0413\u043e\u0441\u043f\u043e\u0434\u044c, \u0435\u0436\u0435 \u0431\u043b\u0430\u0433\u043e \u043f\u0440\u0435\u0434 \u043e\u0447\u0438\u043c\u0430 \u0435\u0433\u043e, \u0441\u043e\u0442\u0432\u043e\u0440\u0438\u0442."
        },
        {
            "chapter": 19,
            "verse": 14,
            "name": "1 Chronicles 19:14",
            "text": "\u0418 \u043e\u043f\u043e\u043b\u0447\u0438\u0441\u044f \u0418\u043e\u0430\u0432 \u0438 \u0432\u0441\u0438 \u043b\u044e\u0434\u0438\u0435, \u0438\u0436\u0435 \u0441 \u043d\u0438\u043c, \u043f\u0440\u043e\u0442\u0438\u0432\u0443 \u0421\u0438\u0440\u044f\u043d \u043d\u0430 \u0431\u0440\u0430\u043d\u044c, \u0438 \u043f\u043e\u0431\u0435\u0433\u043e\u0448\u0430 \u043e\u0442 \u043d\u0438\u0445."
        },
        {
            "chapter": 19,
            "verse": 15,
            "name": "1 Chronicles 19:15",
            "text": "\u0421\u044b\u043d\u043e\u0432\u0435 \u0436\u0435 \u0410\u043c\u043c\u043e\u043d\u0438 \u0432\u0438\u0434\u0435\u0448\u0430, \u044f\u043a\u043e \u043f\u043e\u0431\u0435\u0433\u043e\u0448\u0430 \u0421\u0438\u0440\u044f\u043d\u0435, \u0438 \u043f\u043e\u0431\u0435\u0433\u043e\u0448\u0430 \u0438 \u043e\u043d\u0438 \u043e\u0442 \u043b\u0438\u0446\u0430 \u0410\u0432\u0435\u0441\u0441\u044b \u0438 \u043e\u0442 \u043b\u0438\u0446\u0430 \u0418\u043e\u0430\u0432\u0430 \u0431\u0440\u0430\u0442\u0430 \u0435\u0433\u043e, \u0438 \u0432\u043d\u0438\u0434\u043e\u0448\u0430 \u0432\u043e \u0433\u0440\u0430\u0434: \u0418\u043e\u0430\u0432 \u0436\u0435 \u0432\u043e\u0437\u0432\u0440\u0430\u0442\u0438\u0441\u044f \u0432\u043e \u0418\u0435\u0440\u0443\u0441\u0430\u043b\u0438\u043c."
        },
        {
            "chapter": 19,
            "verse": 16,
            "name": "1 Chronicles 19:16",
            "text": "\u0418 \u0432\u0438\u0434\u0435 \u0421\u0438\u0440, \u044f\u043a\u043e \u043f\u043e\u0431\u0435\u0434\u0438 \u0435\u0433\u043e \u0418\u0437\u0440\u0430\u0438\u043b\u044c, \u0438 \u043f\u043e\u0441\u043b\u0430 \u043f\u043e\u0441\u043b\u044b: \u0438 \u0438\u0437\u0432\u0435\u0434\u043e\u0448\u0430 \u0421\u0438\u0440\u0430, \u0438\u0436\u0435 \u0431\u0435 \u0437\u0430 \u0440\u0435\u043a\u043e\u044e, \u0421\u043e\u0444\u0430\u043a \u0436\u0435 \u043f\u0435\u0440\u0432\u043e\u043d\u0430\u0447\u0430\u043b\u043d\u0438\u043a \u0442\u044b\u0441\u044f\u0449\u043d\u0438\u043a\u043e\u043c \u0441\u0438\u043b\u044b \u0410\u0434\u0440\u0430\u0430\u0437\u0430\u0440\u043e\u0432\u044b \u043f\u0440\u0435\u0434 \u043d\u0438\u043c\u0438."
        },
        {
            "chapter": 19,
            "verse": 17,
            "name": "1 Chronicles 19:17",
            "text": "\u0418 \u0432\u043e\u0437\u0432\u0435\u0449\u0435\u043d\u043e \u0431\u044b\u0441\u0442\u044c \u0414\u0430\u0432\u0438\u0434\u0443, \u0438 \u0441\u043e\u0431\u0440\u0430 \u0432\u0435\u0441\u044c \u0418\u0437\u0440\u0430\u0438\u043b\u044c, \u0438 \u043f\u0440\u0435\u0439\u0434\u0435 \u0418\u043e\u0440\u0434\u0430\u043d, \u0438 \u043f\u0440\u0438\u0438\u0434\u0435 \u043d\u0430 \u043d\u0438\u0445, \u0438 \u043e\u043f\u043e\u043b\u0447\u0438\u0441\u044f \u043f\u0440\u043e\u0442\u0438\u0432\u0443 \u0438\u0445: \u0438 \u043e\u043f\u043e\u043b\u0447\u0438\u0441\u044f \u0414\u0430\u0432\u0438\u0434 \u043f\u0440\u043e\u0442\u0438\u0432\u0443 \u0421\u0438\u0440\u0430 \u043d\u0430 \u0431\u0440\u0430\u043d\u044c \u0438 \u0432\u043e\u0435\u0432\u0430 \u043d\u0430\u043d\u044c."
        },
        {
            "chapter": 19,
            "verse": 18,
            "name": "1 Chronicles 19:18",
            "text": "\u0418 \u0443\u0431\u0435\u0436\u0435 \u0421\u0438\u0440 \u043e\u0442 \u043b\u0438\u0446\u0430 \u0418\u0437\u0440\u0430\u0438\u043b\u0435\u0432\u0430, \u0438 \u0443\u0431\u0438 \u0414\u0430\u0432\u0438\u0434 \u043e\u0442 \u0421\u0438\u0440\u0430 \u0441\u0435\u0434\u043c\u044c \u0442\u044b\u0441\u044f\u0449 \u043a\u043e\u043b\u0435\u0441\u043d\u0438\u0446 \u0438 \u0447\u0435\u0442\u044b\u0440\u0435\u0434\u0435\u0441\u044f\u0442\u044c \u0442\u044b\u0441\u044f\u0449 \u043f\u0435\u0448\u0446\u0435\u0432, \u0438 \u0421\u043e\u0444\u0430\u043a\u0430 \u043f\u0435\u0440\u0432\u043e\u043d\u0430\u0447\u0430\u043b\u043d\u0438\u043a\u0430 \u0441\u0438\u043b\u044b \u0443\u0431\u0438."
        },
        {
            "chapter": 19,
            "verse": 19,
            "name": "1 Chronicles 19:19",
            "text": "\u0418 \u0432\u0438\u0434\u0435\u0448\u0430 \u0440\u0430\u0431\u0438 \u0410\u0434\u0440\u0430\u0430\u0437\u0430\u0440\u043e\u0432\u044b, \u044f\u043a\u043e \u043f\u0430\u0434\u043e\u0448\u0430 \u043e\u0442 \u043b\u0438\u0446\u0430 \u0418\u0437\u0440\u0430\u0438\u043b\u0435\u0432\u0430, \u0438 \u043f\u0440\u0438\u0431\u0435\u0433\u043e\u0448\u0430 \u043a \u0414\u0430\u0432\u0438\u0434\u0443, \u0438 \u0441\u043b\u0443\u0436\u0430\u0445\u0443 \u0435\u043c\u0443: \u0438 \u043d\u0435 \u0432\u043e\u0441\u0445\u043e\u0442\u0435 \u0421\u0438\u0440 \u043f\u043e\u043c\u043e\u0433\u0430\u0442\u0438 \u0441\u044b\u043d\u043e\u043c \u0410\u043c\u043c\u043e\u043d\u0438\u043c \u043a\u0442\u043e\u043c\u0443. "
        }
    ]
}