{
    "translation": "James Murdock's Translation of the Syriac Peshitta",
    "abbreviation": "murdock",
    "lang": "en",
    "language": "English",
    "direction": "LTR",
    "encoding": "",
    "book_nr": 45,
    "book_name": "Romans",
    "chapter": 5,
    "name": "Romans 5",
    "verses": [
        {
            "chapter": 5,
            "verse": 1,
            "name": "Romans 5:1",
            "text": "Therefore, because we are justified by faith, we shall have peace with God, through our Lord Jesus Messiah."
        },
        {
            "chapter": 5,
            "verse": 2,
            "name": "Romans 5:2",
            "text": "By whom we are brought by faith into this grace, in which we stand and rejoice in the hope of the glory of God."
        },
        {
            "chapter": 5,
            "verse": 3,
            "name": "Romans 5:3",
            "text": "And not only so, but we also rejoice in afflictions; because we know that affliction perfecteth in us patience;"
        },
        {
            "chapter": 5,
            "verse": 4,
            "name": "Romans 5:4",
            "text": "and patience, experience; and experience, hope:"
        },
        {
            "chapter": 5,
            "verse": 5,
            "name": "Romans 5:5",
            "text": "and hope maketh not ashamed because the love of God is diffused in our hearts, by the Holy Spirit who is given to us."
        },
        {
            "chapter": 5,
            "verse": 6,
            "name": "Romans 5:6",
            "text": "And if at this time, on account of our weakness, Messiah died for the ungodly:"
        },
        {
            "chapter": 5,
            "verse": 7,
            "name": "Romans 5:7",
            "text": "(for rarely doth one die for the ungodly; though for the good, some one perhaps might venture to die :)"
        },
        {
            "chapter": 5,
            "verse": 8,
            "name": "Romans 5:8",
            "text": "God hath here manifested his love towards us. Because, if when we were sinners, Messiah died for us;"
        },
        {
            "chapter": 5,
            "verse": 9,
            "name": "Romans 5:9",
            "text": "how much more, shall we now be justified by his blood and be rescued from wrath by him?"
        },
        {
            "chapter": 5,
            "verse": 10,
            "name": "Romans 5:10",
            "text": "For if when we were enemies, God was reconciled with us by the death of his Son; how much more shall we, in his reconciliation, lived by his life?"
        },
        {
            "chapter": 5,
            "verse": 11,
            "name": "Romans 5:11",
            "text": "And not only so, but we also rejoice in God, by means of our Lord Jesus Messiah, through whom we have now received the reconciliation."
        },
        {
            "chapter": 5,
            "verse": 12,
            "name": "Romans 5:12",
            "text": "As by means of one man, sin entered into the world, and, by means of sin, death; and so death passed upon all the sons of men, inasmuch as they all have sinned:"
        },
        {
            "chapter": 5,
            "verse": 13,
            "name": "Romans 5:13",
            "text": "For until the law, sin, although it was in the world, was not accounted sin, because there was no law."
        },
        {
            "chapter": 5,
            "verse": 14,
            "name": "Romans 5:14",
            "text": "Yet death reigned from Adam until Moses, even over those who had not sinned after the likeness of the transgression of the command by Adam, who was the type of him that was to come."
        },
        {
            "chapter": 5,
            "verse": 15,
            "name": "Romans 5:15",
            "text": "But not, as the fault, so also the free gift. For if, on account of the fault of one, many died; how much more, will the grace of God and his free gift, on account of one man, Jesus Messiah, abound unto many?"
        },
        {
            "chapter": 5,
            "verse": 16,
            "name": "Romans 5:16",
            "text": "And not, as the offence of one, so also the free gift. For the judgment, which was of one <FI>offence<Fi>, was unto condemnation; but the free gift was, of many sins, unto righteousness."
        },
        {
            "chapter": 5,
            "verse": 17,
            "name": "Romans 5:17",
            "text": "For if, on account of the offence of one, death reigned; still more, they who receive the abundance of the grace, and the free gift, and the righteousness, will reign in life, by means of one, Jesus Messiah."
        },
        {
            "chapter": 5,
            "verse": 18,
            "name": "Romans 5:18",
            "text": "Therefore, as on account of the offence of one, condemnation was to all men; so on account of the righteousness of one, will the victory unto life be to all men."
        },
        {
            "chapter": 5,
            "verse": 19,
            "name": "Romans 5:19",
            "text": "For as; on account of the disobedience of one man, many became sinners; so also, on account of the obedience of one, many become righteous."
        },
        {
            "chapter": 5,
            "verse": 20,
            "name": "Romans 5:20",
            "text": "And the entrance given to the law, was that sin might increase: and where sin increased, there grace abounded."
        },
        {
            "chapter": 5,
            "verse": 21,
            "name": "Romans 5:21",
            "text": "So that, as sin had reigned in death, so grace might reign in righteousness unto life eternal, by means of our Lord Jesus Messiah."
        }
    ]
}