{
    "translation": "Pyha Raamattu (1933 1938)",
    "abbreviation": "pyharaamattu1933",
    "lang": "fi",
    "language": "Finnish",
    "direction": "LTR",
    "encoding": "",
    "book_nr": 40,
    "book_name": "Matthew",
    "chapter": 25,
    "name": "Matthew 25",
    "verses": [
        {
            "chapter": 25,
            "verse": 1,
            "name": "Matthew 25:1",
            "text": "\"Silloin on taivasten valtakunta oleva kymmenen neitsyen kaltainen, jotka ottivat lamppunsa ja l\u00e4htiv\u00e4t ylk\u00e4\u00e4 vastaan."
        },
        {
            "chapter": 25,
            "verse": 2,
            "name": "Matthew 25:2",
            "text": "Mutta viisi heist\u00e4 oli tyhm\u00e4\u00e4 ja viisi ymm\u00e4rt\u00e4v\u00e4ist\u00e4."
        },
        {
            "chapter": 25,
            "verse": 3,
            "name": "Matthew 25:3",
            "text": "Tyhm\u00e4t ottivat lamppunsa, mutta eiv\u00e4t ottaneet \u00f6ljy\u00e4 mukaansa."
        },
        {
            "chapter": 25,
            "verse": 4,
            "name": "Matthew 25:4",
            "text": "Mutta ymm\u00e4rt\u00e4v\u00e4iset ottivat \u00f6ljy\u00e4 astioihinsa ynn\u00e4 lamppunsa."
        },
        {
            "chapter": 25,
            "verse": 5,
            "name": "Matthew 25:5",
            "text": "Ylj\u00e4n viipyess\u00e4 tuli heille kaikille uni, ja he nukkuivat."
        },
        {
            "chapter": 25,
            "verse": 6,
            "name": "Matthew 25:6",
            "text": "Mutta y\u00f6syd\u00e4nn\u00e4 kuului huuto: 'Katso, ylk\u00e4 tulee! Menk\u00e4\u00e4 h\u00e4nt\u00e4 vastaan.'"
        },
        {
            "chapter": 25,
            "verse": 7,
            "name": "Matthew 25:7",
            "text": "Silloin kaikki n\u00e4m\u00e4 neitsyet nousivat ja laittoivat lamppunsa kuntoon."
        },
        {
            "chapter": 25,
            "verse": 8,
            "name": "Matthew 25:8",
            "text": "Ja tyhm\u00e4t sanoivat ymm\u00e4rt\u00e4v\u00e4isille: 'Antakaa meille \u00f6ljy\u00e4nne, sill\u00e4 meid\u00e4n lamppumme sammuvat'."
        },
        {
            "chapter": 25,
            "verse": 9,
            "name": "Matthew 25:9",
            "text": "Mutta ymm\u00e4rt\u00e4v\u00e4iset vastasivat ja sanoivat: 'Emme voi, se ei riit\u00e4 meille ja teille. Menk\u00e4\u00e4 ennemmin myyj\u00e4in luo ostamaan itsellenne.'"
        },
        {
            "chapter": 25,
            "verse": 10,
            "name": "Matthew 25:10",
            "text": "Mutta heid\u00e4n l\u00e4hdetty\u00e4\u00e4n ostamaan ylk\u00e4 tuli; ja ne, jotka olivat valmiit, meniv\u00e4t h\u00e4nen kanssansa h\u00e4ihin, ja ovi suljettiin."
        },
        {
            "chapter": 25,
            "verse": 11,
            "name": "Matthew 25:11",
            "text": "Ja my\u00f6hemmin toisetkin neitsyet tulivat ja sanoivat: 'Herra, Herra, avaa meille!'"
        },
        {
            "chapter": 25,
            "verse": 12,
            "name": "Matthew 25:12",
            "text": "Mutta h\u00e4n vastasi ja sanoi: 'Totisesti min\u00e4 sanon teille: min\u00e4 en tunne teit\u00e4'."
        },
        {
            "chapter": 25,
            "verse": 13,
            "name": "Matthew 25:13",
            "text": "Valvokaa siis, sill\u00e4 ette tied\u00e4 p\u00e4iv\u00e4\u00e4 ettek\u00e4 hetke\u00e4."
        },
        {
            "chapter": 25,
            "verse": 14,
            "name": "Matthew 25:14",
            "text": "Sill\u00e4 tapahtuu, niinkuin tapahtui, kun mies matkusti muille maille: h\u00e4n kutsui palvelijansa ja uskoi heille omaisuutensa;"
        },
        {
            "chapter": 25,
            "verse": 15,
            "name": "Matthew 25:15",
            "text": "yhdelle h\u00e4n antoi viisi leivisk\u00e4\u00e4, toiselle kaksi ja kolmannelle yhden, kullekin h\u00e4nen kykyns\u00e4 mukaan, ja l\u00e4hti muille maille."
        },
        {
            "chapter": 25,
            "verse": 16,
            "name": "Matthew 25:16",
            "text": "Se, joka oli saanut viisi leivisk\u00e4\u00e4, meni kohta ja asioitsi niill\u00e4 ja voitti toiset viisi leivisk\u00e4\u00e4."
        },
        {
            "chapter": 25,
            "verse": 17,
            "name": "Matthew 25:17",
            "text": "Samoin kaksi leivisk\u00e4\u00e4 saanut voitti toiset kaksi."
        },
        {
            "chapter": 25,
            "verse": 18,
            "name": "Matthew 25:18",
            "text": "Mutta yhden leivisk\u00e4n saanut meni pois ja kaivoi kuopan maahan ja k\u00e4tki siihen herransa rahan."
        },
        {
            "chapter": 25,
            "verse": 19,
            "name": "Matthew 25:19",
            "text": "Pitk\u00e4n ajan kuluttua n\u00e4iden palvelijain herra palasi ja ryhtyi tilintekoon heid\u00e4n kanssansa."
        },
        {
            "chapter": 25,
            "verse": 20,
            "name": "Matthew 25:20",
            "text": "Silloin tuli se, joka oli saanut viisi leivisk\u00e4\u00e4, ja toi toiset viisi leivisk\u00e4\u00e4 ja sanoi: 'Herra, viisi leivisk\u00e4\u00e4 sin\u00e4 minulle uskoit, katso, toiset viisi leivisk\u00e4\u00e4 min\u00e4 olen voittanut'."
        },
        {
            "chapter": 25,
            "verse": 21,
            "name": "Matthew 25:21",
            "text": "H\u00e4nen herransa sanoi h\u00e4nelle: 'Hyv\u00e4 on, sin\u00e4 hyv\u00e4 ja uskollinen palvelija. V\u00e4h\u00e4ss\u00e4 sin\u00e4 olet ollut uskollinen, min\u00e4 panen sinut paljon haltijaksi. Mene herrasi iloon.'"
        },
        {
            "chapter": 25,
            "verse": 22,
            "name": "Matthew 25:22",
            "text": "My\u00f6s se, joka oli saanut kaksi leivisk\u00e4\u00e4, tuli ja sanoi: 'Herra, kaksi leivisk\u00e4\u00e4 sin\u00e4 minulle uskoit, katso, toiset kaksi leivisk\u00e4\u00e4 min\u00e4 olen voittanut'."
        },
        {
            "chapter": 25,
            "verse": 23,
            "name": "Matthew 25:23",
            "text": "H\u00e4nen herransa sanoi h\u00e4nelle: 'Hyv\u00e4 on, sin\u00e4 hyv\u00e4 ja uskollinen palvelija. V\u00e4h\u00e4ss\u00e4 sin\u00e4 olet ollut uskollinen, min\u00e4 panen sinut paljon haltijaksi. Mene herrasi iloon.'"
        },
        {
            "chapter": 25,
            "verse": 24,
            "name": "Matthew 25:24",
            "text": "Sitten my\u00f6s se, joka oli saanut yhden leivisk\u00e4n, tuli ja sanoi: 'Herra, min\u00e4 tiesin sinut kovaksi mieheksi; sin\u00e4 leikkaat sielt\u00e4, mihin et ole kylv\u00e4nyt, ja kokoat sielt\u00e4, miss\u00e4 et ole eloa viskannut."
        },
        {
            "chapter": 25,
            "verse": 25,
            "name": "Matthew 25:25",
            "text": "Ja peloissani min\u00e4 menin ja k\u00e4tkin sinun leivisk\u00e4si maahan; katso, t\u00e4ss\u00e4 on omasi.'"
        },
        {
            "chapter": 25,
            "verse": 26,
            "name": "Matthew 25:26",
            "text": "Mutta h\u00e4nen herransa vastasi ja sanoi h\u00e4nelle: 'Sin\u00e4 paha ja laiska palvelija! Sin\u00e4 tiesit minun leikkaavan sielt\u00e4, mihin en ole kylv\u00e4nyt, ja kokoavan sielt\u00e4, miss\u00e4 en ole viskannut."
        },
        {
            "chapter": 25,
            "verse": 27,
            "name": "Matthew 25:27",
            "text": "Sinun olisi siis pit\u00e4nyt j\u00e4tt\u00e4\u00e4 minun rahani rahanvaihtajille, niin min\u00e4 tultuani olisin saanut omani takaisin korkoineen."
        },
        {
            "chapter": 25,
            "verse": 28,
            "name": "Matthew 25:28",
            "text": "Ottakaa sent\u00e4hden leivisk\u00e4 h\u00e4nelt\u00e4 pois ja antakaa sille, jolla on kymmenen leivisk\u00e4\u00e4."
        },
        {
            "chapter": 25,
            "verse": 29,
            "name": "Matthew 25:29",
            "text": "Sill\u00e4 jokaiselle, jolla on, annetaan, ja h\u00e4nell\u00e4 on oleva ylt\u00e4kyllin; mutta jolla ei ole, silt\u00e4 otetaan pois sekin, mik\u00e4 h\u00e4nell\u00e4 on."
        },
        {
            "chapter": 25,
            "verse": 30,
            "name": "Matthew 25:30",
            "text": "Ja heitt\u00e4k\u00e4\u00e4 tuo kelvoton palvelija ulos pimeyteen; siell\u00e4 on oleva itku ja hammasten kiristys.'"
        },
        {
            "chapter": 25,
            "verse": 31,
            "name": "Matthew 25:31",
            "text": "Mutta kun Ihmisen Poika tulee kirkkaudessaan ja kaikki enkelit h\u00e4nen kanssaan, silloin h\u00e4n istuu kirkkautensa valtaistuimelle."
        },
        {
            "chapter": 25,
            "verse": 32,
            "name": "Matthew 25:32",
            "text": "Ja h\u00e4nen eteens\u00e4 kootaan kaikki kansat, ja h\u00e4n erottaa toiset toisista, niinkuin paimen erottaa lampaat vuohista."
        },
        {
            "chapter": 25,
            "verse": 33,
            "name": "Matthew 25:33",
            "text": "Ja h\u00e4n asettaa lampaat oikealle puolelleen, mutta vuohet vasemmalle."
        },
        {
            "chapter": 25,
            "verse": 34,
            "name": "Matthew 25:34",
            "text": "Silloin Kuningas sanoo oikealla puolellaan oleville: 'Tulkaa, minun Is\u00e4ni siunatut, ja omistakaa se valtakunta, joka on ollut teille valmistettuna maailman perustamisesta asti."
        },
        {
            "chapter": 25,
            "verse": 35,
            "name": "Matthew 25:35",
            "text": "Sill\u00e4 minun oli n\u00e4lk\u00e4, ja te annoitte minulle sy\u00f6d\u00e4; minun oli jano, ja te annoitte minulle juoda; min\u00e4 olin outo, ja te otitte minut huoneeseenne;"
        },
        {
            "chapter": 25,
            "verse": 36,
            "name": "Matthew 25:36",
            "text": "min\u00e4 olin alaston, ja te vaatetitte minut; min\u00e4 sairastin, ja te k\u00e4vitte minua katsomassa; min\u00e4 olin vankeudessa, ja te tulitte minun tyk\u00f6ni.'"
        },
        {
            "chapter": 25,
            "verse": 37,
            "name": "Matthew 25:37",
            "text": "Silloin vanhurskaat vastaavat h\u00e4nelle sanoen: 'Herra, milloin me n\u00e4imme sinut n\u00e4lk\u00e4isen\u00e4 ja ruokimme sinua, tai janoisena ja annoimme sinulle juoda?"
        },
        {
            "chapter": 25,
            "verse": 38,
            "name": "Matthew 25:38",
            "text": "Ja milloin me n\u00e4imme sinut outona ja otimme sinut huoneeseemme, tai alastonna ja vaatetimme sinut?"
        },
        {
            "chapter": 25,
            "verse": 39,
            "name": "Matthew 25:39",
            "text": "Ja milloin me n\u00e4imme sinun sairastavan tai olevan vankeudessa ja tulimme sinun tyk\u00f6si?'"
        },
        {
            "chapter": 25,
            "verse": 40,
            "name": "Matthew 25:40",
            "text": "Niin Kuningas vastaa ja sanoo heille: 'Totisesti min\u00e4 sanon teille: kaikki, mit\u00e4 olette tehneet yhdelle n\u00e4ist\u00e4 minun v\u00e4himmist\u00e4 veljist\u00e4ni, sen te olette tehneet minulle'."
        },
        {
            "chapter": 25,
            "verse": 41,
            "name": "Matthew 25:41",
            "text": "Sitten h\u00e4n my\u00f6s sanoo vasemmalla puolellaan oleville: 'Menk\u00e4\u00e4 pois minun tyk\u00f6\u00e4ni, te kirotut, siihen iankaikkiseen tuleen, joka on valmistettu perkeleelle ja h\u00e4nen enkeleillens\u00e4."
        },
        {
            "chapter": 25,
            "verse": 42,
            "name": "Matthew 25:42",
            "text": "Sill\u00e4 minun oli n\u00e4lk\u00e4, ja te ette antaneet minulle sy\u00f6d\u00e4; minun oli jano, ja te ette antaneet minulle juoda;"
        },
        {
            "chapter": 25,
            "verse": 43,
            "name": "Matthew 25:43",
            "text": "min\u00e4 olin outo, ja te ette ottaneet minua huoneeseenne; min\u00e4 olin alaston, ja te ette vaatettaneet minua; sairaana ja vankeudessa, ja te ette k\u00e4yneet minua katsomassa.'"
        },
        {
            "chapter": 25,
            "verse": 44,
            "name": "Matthew 25:44",
            "text": "Silloin hekin vastaavat sanoen: 'Herra, milloin me n\u00e4imme sinut n\u00e4lk\u00e4isen\u00e4 tai janoisena tai outona tai alastonna tai sairaana tai vankeudessa, emmek\u00e4 sinua palvelleet?'"
        },
        {
            "chapter": 25,
            "verse": 45,
            "name": "Matthew 25:45",
            "text": "Silloin h\u00e4n vastaa heille ja sanoo: 'Totisesti min\u00e4 sanon teille: kaiken, mink\u00e4 olette j\u00e4tt\u00e4neet tekem\u00e4tt\u00e4 yhdelle n\u00e4ist\u00e4 v\u00e4himmist\u00e4, sen te olette j\u00e4tt\u00e4neet tekem\u00e4tt\u00e4 minulle'."
        },
        {
            "chapter": 25,
            "verse": 46,
            "name": "Matthew 25:46",
            "text": "Ja n\u00e4m\u00e4 menev\u00e4t pois iankaikkiseen rangaistukseen, mutta vanhurskaat iankaikkiseen el\u00e4m\u00e4\u00e4n.\""
        }
    ]
}