{
    "translation": "Albanian Bible",
    "abbreviation": "alb",
    "lang": "sq",
    "language": "Albanian",
    "direction": "LTR",
    "encoding": "UTF-8",
    "book_nr": 25,
    "book_name": "Lamentations",
    "chapter": 3,
    "name": "Lamentations 3",
    "verses": [
        {
            "chapter": 3,
            "verse": 1,
            "name": "Lamentations 3:1",
            "text": "Un\u00eb jam njeriu q\u00eb pa hidh\u00ebrimin n\u00ebn thupr\u00ebn e t\u00ebrbimit t\u00eb tij."
        },
        {
            "chapter": 3,
            "verse": 2,
            "name": "Lamentations 3:2",
            "text": "Ai m\u00eb ka udh\u00ebhequr dhe m\u00eb ka b\u00ebr\u00eb t\u00eb eci n\u00ebp\u00ebr terr dhe jo n\u00eb drit\u00eb."
        },
        {
            "chapter": 3,
            "verse": 3,
            "name": "Lamentations 3:3",
            "text": "Po, kund\u00ebr meje ai ka kthyer disa her\u00eb dor\u00ebn e tij t\u00ebr\u00eb dit\u00ebn."
        },
        {
            "chapter": 3,
            "verse": 4,
            "name": "Lamentations 3:4",
            "text": "Ai ka konsumuar mishin tim dhe l\u00ebkur\u00ebn time, ka coptuar kockat e mia."
        },
        {
            "chapter": 3,
            "verse": 5,
            "name": "Lamentations 3:5",
            "text": "Ka nd\u00ebrtuar fortesa kund\u00ebr meje, m\u00eb ka rrethuar me hidh\u00ebrim dhe me ankth."
        },
        {
            "chapter": 3,
            "verse": 6,
            "name": "Lamentations 3:6",
            "text": "Ka b\u00ebr\u00eb q\u00eb un\u00eb t\u00eb banoj n\u00eb vende plot err\u00ebsir\u00eb, ashtu si t\u00eb vdekurit prej shum\u00eb kohe."
        },
        {
            "chapter": 3,
            "verse": 7,
            "name": "Lamentations 3:7",
            "text": "M\u00eb ka nd\u00ebrtuar nj\u00eb mur rreth e qark, me q\u00ebllim q\u00eb un\u00eb t\u00eb mos dal; e ka b\u00ebr\u00eb t\u00eb r\u00ebnd\u00eb zinxhirin tim."
        },
        {
            "chapter": 3,
            "verse": 8,
            "name": "Lamentations 3:8",
            "text": "Edhe kur b\u00ebrtas dhe k\u00ebrkoj ndihm\u00eb me z\u00eb t\u00eb lart\u00eb, ai nuk pranon t\u00eb d\u00ebgjoj\u00eb lutjen time."
        },
        {
            "chapter": 3,
            "verse": 9,
            "name": "Lamentations 3:9",
            "text": "Ai i ka mbyllur rrug\u00ebt e mia me gur\u00eb t\u00eb prer\u00eb, i ka b\u00ebr\u00eb shtigjet e mia plot me prita."
        },
        {
            "chapter": 3,
            "verse": 10,
            "name": "Lamentations 3:10",
            "text": "Ai ka qen\u00eb p\u00ebr mua si nj\u00eb ari n\u00eb prit\u00eb, si nj\u00eb luan n\u00eb vende t\u00eb fshehta."
        },
        {
            "chapter": 3,
            "verse": 11,
            "name": "Lamentations 3:11",
            "text": "Ka devijuar rrug\u00ebt e mia, m\u00eb ka coptuar dhe m\u00eb ka d\u00ebshp\u00ebruar."
        },
        {
            "chapter": 3,
            "verse": 12,
            "name": "Lamentations 3:12",
            "text": "Ka nderur harkun e tij dhe m\u00eb ka b\u00ebr\u00eb objekt t\u00eb shigjetave t\u00eb tij."
        },
        {
            "chapter": 3,
            "verse": 13,
            "name": "Lamentations 3:13",
            "text": "Ka b\u00ebr\u00eb t\u00eb dep\u00ebrtojn\u00eb n\u00eb zemr\u00ebn time shigjetat e kukur\u00ebs s\u00eb tij."
        },
        {
            "chapter": 3,
            "verse": 14,
            "name": "Lamentations 3:14",
            "text": "Jam b\u00ebr\u00eb tallja e t\u00ebr\u00eb popullit tim, k\u00ebnga e tij e t\u00ebr\u00eb dit\u00ebs."
        },
        {
            "chapter": 3,
            "verse": 15,
            "name": "Lamentations 3:15",
            "text": "M\u00eb ka ngopur me hidh\u00ebrim, m\u00eb ka b\u00ebr\u00eb t\u00eb pij pelin."
        },
        {
            "chapter": 3,
            "verse": 16,
            "name": "Lamentations 3:16",
            "text": "M\u00eb ka coptuar dh\u00ebmb\u00ebt me zall, m\u00eb ka mbuluar me hi."
        },
        {
            "chapter": 3,
            "verse": 17,
            "name": "Lamentations 3:17",
            "text": "Ke larguar shpirtin tim nga paqja, kam harruar mir\u00ebq\u00ebnien."
        },
        {
            "chapter": 3,
            "verse": 18,
            "name": "Lamentations 3:18",
            "text": "Kam th\u00ebn\u00eb: \"\u00c9sht\u00eb zhdukur besimi im dhe shpresa ime tek Zoti\"."
        },
        {
            "chapter": 3,
            "verse": 19,
            "name": "Lamentations 3:19",
            "text": "Kujtohu p\u00ebr pik\u00ebllimin dhe p\u00ebr endjen time, p\u00ebr pelinin dhe hidh\u00ebrimin."
        },
        {
            "chapter": 3,
            "verse": 20,
            "name": "Lamentations 3:20",
            "text": "Shpirti im kujtohet gjithnj\u00eb p\u00ebr k\u00ebt\u00eb dhe \u00ebsht\u00eb i rr\u00ebzuar brenda meje."
        },
        {
            "chapter": 3,
            "verse": 21,
            "name": "Lamentations 3:21",
            "text": "K\u00ebt\u00eb dua ta sjell n\u00eb m\u00ebndje dhe prandaj dua t\u00eb shpresoj."
        },
        {
            "chapter": 3,
            "verse": 22,
            "name": "Lamentations 3:22",
            "text": "\u00c9sht\u00eb nj\u00eb hir i Zotit q\u00eb nuk jemi shkat\u00ebrruar plot\u00ebsisht, sepse m\u00ebshirat e tij nuk jan\u00eb mbaruar plot\u00ebsisht."
        },
        {
            "chapter": 3,
            "verse": 23,
            "name": "Lamentations 3:23",
            "text": "P\u00ebrt\u00ebriten \u00e7do m\u00ebngjes; e madhe \u00ebsht\u00eb besnikeria jote."
        },
        {
            "chapter": 3,
            "verse": 24,
            "name": "Lamentations 3:24",
            "text": "\"Zoti \u00ebsht\u00eb pjesa ime\", thot\u00eb shpirti im, \"prandaj do t\u00eb kem shpres\u00eb tek ai."
        },
        {
            "chapter": 3,
            "verse": 25,
            "name": "Lamentations 3:25",
            "text": "Zoti \u00ebsht\u00eb i mir\u00eb me ata q\u00eb kan\u00eb shpres\u00eb tek ai, me shpirtin q\u00eb e k\u00ebrkon."
        },
        {
            "chapter": 3,
            "verse": 26,
            "name": "Lamentations 3:26",
            "text": "Gj\u00eb e mir\u00eb \u00ebsht\u00eb t\u00eb pres\u00ebsh n\u00eb heshtje shp\u00ebtimin e Zotit."
        },
        {
            "chapter": 3,
            "verse": 27,
            "name": "Lamentations 3:27",
            "text": "Gj\u00eb e mir\u00eb \u00ebsht\u00eb p\u00ebr njeriun t\u00eb mbaj\u00eb zgjedh\u00ebn n\u00eb rinin\u00eb e tij."
        },
        {
            "chapter": 3,
            "verse": 28,
            "name": "Lamentations 3:28",
            "text": "Le t\u00eb ulet i vetmuar dhe t\u00eb q\u00ebndroj\u00eb n\u00eb heshtje kur Per\u00ebndia ia imponon."
        },
        {
            "chapter": 3,
            "verse": 29,
            "name": "Lamentations 3:29",
            "text": "Le ta v\u00ebr\u00eb goj\u00ebn e tij n\u00eb pluhur, ndofta ka ende shpres\u00eb."
        },
        {
            "chapter": 3,
            "verse": 30,
            "name": "Lamentations 3:30",
            "text": "Le ti jap\u00eb faqen atij q\u00eb e godet, t\u00eb ngopet me fyerje."
        },
        {
            "chapter": 3,
            "verse": 31,
            "name": "Lamentations 3:31",
            "text": "Sepse Zoti nuk hedh posht\u00eb p\u00ebr gjithnj\u00eb;"
        },
        {
            "chapter": 3,
            "verse": 32,
            "name": "Lamentations 3:32",
            "text": "por, n\u00eb rast se t\u00eb hidh\u00ebron, do ti vij\u00eb keq sipas shumic\u00ebs s\u00eb zem\u00ebrmir\u00ebsive t\u00eb tij,"
        },
        {
            "chapter": 3,
            "verse": 33,
            "name": "Lamentations 3:33",
            "text": "sepse nuk e b\u00ebn me k\u00ebnaq\u00ebsi posht\u00ebrimin dhe hidh\u00ebrimin e bijve t\u00eb njer\u00ebzve."
        },
        {
            "chapter": 3,
            "verse": 34,
            "name": "Lamentations 3:34",
            "text": "Kur dikush shtyp n\u00ebn k\u00ebmb\u00ebt e tij t\u00ebr\u00eb rob\u00ebrit e dheut,"
        },
        {
            "chapter": 3,
            "verse": 35,
            "name": "Lamentations 3:35",
            "text": "kur dikush shtr\u00ebmb\u00ebron t\u00eb drejt\u00ebn e nj\u00eb njeriu n\u00eb prani t\u00eb M\u00eb t\u00eb Lartit,"
        },
        {
            "chapter": 3,
            "verse": 36,
            "name": "Lamentations 3:36",
            "text": "kur dikujt i b\u00ebhet nj\u00eb padrejt\u00ebsi n\u00eb \u00e7\u00ebshtjen e tij, a nuk e shikon Zoti?"
        },
        {
            "chapter": 3,
            "verse": 37,
            "name": "Lamentations 3:37",
            "text": "Vall\u00eb kush thot\u00eb di\u00e7ka q\u00eb m\u00eb pas realizohet, n\u00eb rast se Zoti nuk e ka urdh\u00ebruar?"
        },
        {
            "chapter": 3,
            "verse": 38,
            "name": "Lamentations 3:38",
            "text": "E keqja dhe e mira a nuk vijn\u00eb vall\u00eb nga goja e M\u00eb t\u00eb Lartit?"
        },
        {
            "chapter": 3,
            "verse": 39,
            "name": "Lamentations 3:39",
            "text": "Pse vall\u00eb ankohet nj\u00eb njeri i gjall\u00eb, nj\u00eb njeri p\u00ebr nd\u00ebshkimin e m\u00ebkateve t\u00eb tij?"
        },
        {
            "chapter": 3,
            "verse": 40,
            "name": "Lamentations 3:40",
            "text": "Le t\u00eb shqyrtojm\u00eb rrug\u00ebt tona, t'i hetojm\u00eb dhe t\u00eb kthehemi tek Zoti."
        },
        {
            "chapter": 3,
            "verse": 41,
            "name": "Lamentations 3:41",
            "text": "Le t\u00eb ngrem\u00eb lart zemrat tona dhe duart tona n\u00eb drejtim t\u00eb Per\u00ebndis\u00eb t\u00eb qiejve."
        },
        {
            "chapter": 3,
            "verse": 42,
            "name": "Lamentations 3:42",
            "text": "Ne kemi kryer m\u00ebkate, kemi q\u00ebn\u00eb rebel\u00eb dhe ti nuk na ke falur."
        },
        {
            "chapter": 3,
            "verse": 43,
            "name": "Lamentations 3:43",
            "text": "Je mb\u00ebshtjell\u00eb n\u00eb z\u00ebm\u00ebrimin t\u00ebnd dhe na ke ndjekur, na ke vrar\u00eb pa m\u00ebshir\u00eb."
        },
        {
            "chapter": 3,
            "verse": 44,
            "name": "Lamentations 3:44",
            "text": "Ti je mb\u00ebshtjell\u00eb n\u00eb nj\u00eb re, n\u00eb m\u00ebnyr\u00eb q\u00eb asnj\u00eb lutje t\u00eb mos kalonte dot."
        },
        {
            "chapter": 3,
            "verse": 45,
            "name": "Lamentations 3:45",
            "text": "Na ke b\u00ebr\u00eb plehra dhe mbeturina n\u00eb mes t\u00eb popujve."
        },
        {
            "chapter": 3,
            "verse": 46,
            "name": "Lamentations 3:46",
            "text": "T\u00ebr\u00eb armiqt\u00eb tan\u00eb kan\u00eb hapur goj\u00ebn kund\u00ebr nesh."
        },
        {
            "chapter": 3,
            "verse": 47,
            "name": "Lamentations 3:47",
            "text": "Na ka r\u00ebn\u00eb mbi trup tmerri, laku, d\u00ebshp\u00ebrimi i thell\u00eb dhe shkat\u00ebrrimi."
        },
        {
            "chapter": 3,
            "verse": 48,
            "name": "Lamentations 3:48",
            "text": "Rr\u00ebke uji rrjedhin nga syt\u00eb e mi p\u00ebr shkat\u00ebrrimin e bij\u00ebs s\u00eb popullit tim."
        },
        {
            "chapter": 3,
            "verse": 49,
            "name": "Lamentations 3:49",
            "text": "Syri im derdh lot pa pushim, pa nd\u00ebrprerje,"
        },
        {
            "chapter": 3,
            "verse": 50,
            "name": "Lamentations 3:50",
            "text": "deri sa Zoti t\u00eb mos v\u00ebshtroj\u00eb nga qielli dhe t\u00eb mos shikoj\u00eb."
        },
        {
            "chapter": 3,
            "verse": 51,
            "name": "Lamentations 3:51",
            "text": "Syri im i sjell dhembje shpirtit tim p\u00ebr t\u00eb gjitha bijat e qytetit tim."
        },
        {
            "chapter": 3,
            "verse": 52,
            "name": "Lamentations 3:52",
            "text": "Ata q\u00eb m\u00eb urrejn\u00eb pa shkak m\u00eb kan\u00eb gjuajtur si t\u00eb isha zog."
        },
        {
            "chapter": 3,
            "verse": 53,
            "name": "Lamentations 3:53",
            "text": "Kan\u00eb shkat\u00ebrruar jet\u00ebn time n\u00eb grop\u00eb, m\u00eb kan\u00eb hedhur gur\u00eb."
        },
        {
            "chapter": 3,
            "verse": 54,
            "name": "Lamentations 3:54",
            "text": "Ujrat rrjedhin mbi kok\u00ebn time, un\u00eb thoja: \"Ka marr\u00eb fund p\u00ebr mua\"."
        },
        {
            "chapter": 3,
            "verse": 55,
            "name": "Lamentations 3:55",
            "text": "P\u00ebrmenda emrin t\u00ebnd, o Zot, nga thell\u00ebsia e grop\u00ebs."
        },
        {
            "chapter": 3,
            "verse": 56,
            "name": "Lamentations 3:56",
            "text": "Ti e d\u00ebgjove z\u00ebrin tim; mos ia fshih veshin t\u00ebnd psher\u00ebtim\u00ebs sime, thirrjes time p\u00ebr ndihm\u00eb."
        },
        {
            "chapter": 3,
            "verse": 57,
            "name": "Lamentations 3:57",
            "text": "Kur t\u00eb kam thirrur ti je afruar; ke th\u00ebn\u00eb: \"Mos ki frik\u00eb!\""
        },
        {
            "chapter": 3,
            "verse": 58,
            "name": "Lamentations 3:58",
            "text": "O Zot ti ke mbrojtur \u00e7\u00ebshtjen e shpirtit tim, ti ke \u00e7liruar jet\u00ebn time."
        },
        {
            "chapter": 3,
            "verse": 59,
            "name": "Lamentations 3:59",
            "text": "O Zot, ti ke par\u00eb d\u00ebmin q\u00eb kam p\u00ebsuar, prandaj mbro \u00e7\u00ebshtjen time!"
        },
        {
            "chapter": 3,
            "verse": 60,
            "name": "Lamentations 3:60",
            "text": "Ti ke par\u00eb t\u00ebr\u00eb frym\u00ebn e tyre t\u00eb hakmarrjes, intrigat e tyre kund\u00ebr meje."
        },
        {
            "chapter": 3,
            "verse": 61,
            "name": "Lamentations 3:61",
            "text": "Ti ke d\u00ebgjuar fyerjet e tyre, o Zot, t\u00ebr\u00eb intrigat e tyre kund\u00ebr meje,"
        },
        {
            "chapter": 3,
            "verse": 62,
            "name": "Lamentations 3:62",
            "text": "fjalimet e tyre q\u00eb ngrihen kund\u00ebr meje, at\u00eb q\u00eb mendojn\u00eb kund\u00ebr meje t\u00ebr\u00eb dit\u00ebn."
        },
        {
            "chapter": 3,
            "verse": 63,
            "name": "Lamentations 3:63",
            "text": "V\u00ebr re kur ulen dhe kur ngrihen, un\u00eb jam k\u00ebnga e tyre."
        },
        {
            "chapter": 3,
            "verse": 64,
            "name": "Lamentations 3:64",
            "text": "Shp\u00ebrbleji, o Zot, sipas vepr\u00ebs s\u00eb duarve t\u00eb tyre."
        },
        {
            "chapter": 3,
            "verse": 65,
            "name": "Lamentations 3:65",
            "text": "B\u00ebji zem\u00ebrgur, mallkimi yt qoft\u00eb mbi ta."
        },
        {
            "chapter": 3,
            "verse": 66,
            "name": "Lamentations 3:66",
            "text": "Ndiqi n\u00eb zem\u00ebrimin t\u00ebnd dhe shkat\u00ebrroi posht\u00eb qiejve t\u00eb Zotit."
        }
    ]
}