{
    "translation": "Old Public Domain Pohnpeian Bible",
    "abbreviation": "pohnold",
    "lang": "pon",
    "language": "Pohnpeian",
    "direction": "LTR",
    "encoding": "UTF-8",
    "book_nr": 15,
    "book_name": "Ezra",
    "chapter": 2,
    "name": "Ezra 2",
    "verses": [
        {
            "chapter": 2,
            "verse": 1,
            "name": "Ezra 2:1",
            "text": ""
        },
        {
            "chapter": 2,
            "verse": 2,
            "name": "Ezra 2:2",
            "text": ""
        },
        {
            "chapter": 2,
            "verse": 3,
            "name": "Ezra 2:3",
            "text": ""
        },
        {
            "chapter": 2,
            "verse": 4,
            "name": "Ezra 2:4",
            "text": ""
        },
        {
            "chapter": 2,
            "verse": 5,
            "name": "Ezra 2:5",
            "text": ""
        },
        {
            "chapter": 2,
            "verse": 6,
            "name": "Ezra 2:6",
            "text": ""
        },
        {
            "chapter": 2,
            "verse": 7,
            "name": "Ezra 2:7",
            "text": ""
        },
        {
            "chapter": 2,
            "verse": 8,
            "name": "Ezra 2:8",
            "text": ""
        },
        {
            "chapter": 2,
            "verse": 9,
            "name": "Ezra 2:9",
            "text": ""
        },
        {
            "chapter": 2,
            "verse": 10,
            "name": "Ezra 2:10",
            "text": ""
        },
        {
            "chapter": 2,
            "verse": 11,
            "name": "Ezra 2:11",
            "text": ""
        },
        {
            "chapter": 2,
            "verse": 12,
            "name": "Ezra 2:12",
            "text": ""
        },
        {
            "chapter": 2,
            "verse": 13,
            "name": "Ezra 2:13",
            "text": ""
        },
        {
            "chapter": 2,
            "verse": 14,
            "name": "Ezra 2:14",
            "text": ""
        },
        {
            "chapter": 2,
            "verse": 15,
            "name": "Ezra 2:15",
            "text": ""
        },
        {
            "chapter": 2,
            "verse": 16,
            "name": "Ezra 2:16",
            "text": ""
        },
        {
            "chapter": 2,
            "verse": 17,
            "name": "Ezra 2:17",
            "text": ""
        },
        {
            "chapter": 2,
            "verse": 18,
            "name": "Ezra 2:18",
            "text": ""
        },
        {
            "chapter": 2,
            "verse": 19,
            "name": "Ezra 2:19",
            "text": ""
        },
        {
            "chapter": 2,
            "verse": 20,
            "name": "Ezra 2:20",
            "text": ""
        },
        {
            "chapter": 2,
            "verse": 21,
            "name": "Ezra 2:21",
            "text": ""
        },
        {
            "chapter": 2,
            "verse": 22,
            "name": "Ezra 2:22",
            "text": ""
        },
        {
            "chapter": 2,
            "verse": 23,
            "name": "Ezra 2:23",
            "text": ""
        },
        {
            "chapter": 2,
            "verse": 24,
            "name": "Ezra 2:24",
            "text": ""
        },
        {
            "chapter": 2,
            "verse": 25,
            "name": "Ezra 2:25",
            "text": ""
        },
        {
            "chapter": 2,
            "verse": 26,
            "name": "Ezra 2:26",
            "text": ""
        },
        {
            "chapter": 2,
            "verse": 27,
            "name": "Ezra 2:27",
            "text": ""
        },
        {
            "chapter": 2,
            "verse": 28,
            "name": "Ezra 2:28",
            "text": ""
        },
        {
            "chapter": 2,
            "verse": 29,
            "name": "Ezra 2:29",
            "text": ""
        },
        {
            "chapter": 2,
            "verse": 30,
            "name": "Ezra 2:30",
            "text": ""
        },
        {
            "chapter": 2,
            "verse": 31,
            "name": "Ezra 2:31",
            "text": ""
        },
        {
            "chapter": 2,
            "verse": 32,
            "name": "Ezra 2:32",
            "text": ""
        },
        {
            "chapter": 2,
            "verse": 33,
            "name": "Ezra 2:33",
            "text": ""
        },
        {
            "chapter": 2,
            "verse": 34,
            "name": "Ezra 2:34",
            "text": ""
        },
        {
            "chapter": 2,
            "verse": 35,
            "name": "Ezra 2:35",
            "text": ""
        },
        {
            "chapter": 2,
            "verse": 36,
            "name": "Ezra 2:36",
            "text": ""
        },
        {
            "chapter": 2,
            "verse": 37,
            "name": "Ezra 2:37",
            "text": ""
        },
        {
            "chapter": 2,
            "verse": 38,
            "name": "Ezra 2:38",
            "text": ""
        },
        {
            "chapter": 2,
            "verse": 39,
            "name": "Ezra 2:39",
            "text": ""
        },
        {
            "chapter": 2,
            "verse": 40,
            "name": "Ezra 2:40",
            "text": ""
        },
        {
            "chapter": 2,
            "verse": 41,
            "name": "Ezra 2:41",
            "text": ""
        },
        {
            "chapter": 2,
            "verse": 42,
            "name": "Ezra 2:42",
            "text": ""
        },
        {
            "chapter": 2,
            "verse": 43,
            "name": "Ezra 2:43",
            "text": ""
        },
        {
            "chapter": 2,
            "verse": 44,
            "name": "Ezra 2:44",
            "text": ""
        },
        {
            "chapter": 2,
            "verse": 45,
            "name": "Ezra 2:45",
            "text": ""
        },
        {
            "chapter": 2,
            "verse": 46,
            "name": "Ezra 2:46",
            "text": ""
        },
        {
            "chapter": 2,
            "verse": 47,
            "name": "Ezra 2:47",
            "text": ""
        },
        {
            "chapter": 2,
            "verse": 48,
            "name": "Ezra 2:48",
            "text": ""
        },
        {
            "chapter": 2,
            "verse": 49,
            "name": "Ezra 2:49",
            "text": ""
        },
        {
            "chapter": 2,
            "verse": 50,
            "name": "Ezra 2:50",
            "text": ""
        },
        {
            "chapter": 2,
            "verse": 51,
            "name": "Ezra 2:51",
            "text": ""
        },
        {
            "chapter": 2,
            "verse": 52,
            "name": "Ezra 2:52",
            "text": ""
        },
        {
            "chapter": 2,
            "verse": 53,
            "name": "Ezra 2:53",
            "text": ""
        },
        {
            "chapter": 2,
            "verse": 54,
            "name": "Ezra 2:54",
            "text": ""
        },
        {
            "chapter": 2,
            "verse": 55,
            "name": "Ezra 2:55",
            "text": ""
        },
        {
            "chapter": 2,
            "verse": 56,
            "name": "Ezra 2:56",
            "text": ""
        },
        {
            "chapter": 2,
            "verse": 57,
            "name": "Ezra 2:57",
            "text": ""
        },
        {
            "chapter": 2,
            "verse": 58,
            "name": "Ezra 2:58",
            "text": ""
        },
        {
            "chapter": 2,
            "verse": 59,
            "name": "Ezra 2:59",
            "text": ""
        },
        {
            "chapter": 2,
            "verse": 60,
            "name": "Ezra 2:60",
            "text": ""
        },
        {
            "chapter": 2,
            "verse": 61,
            "name": "Ezra 2:61",
            "text": ""
        },
        {
            "chapter": 2,
            "verse": 62,
            "name": "Ezra 2:62",
            "text": ""
        },
        {
            "chapter": 2,
            "verse": 63,
            "name": "Ezra 2:63",
            "text": ""
        },
        {
            "chapter": 2,
            "verse": 64,
            "name": "Ezra 2:64",
            "text": ""
        },
        {
            "chapter": 2,
            "verse": 65,
            "name": "Ezra 2:65",
            "text": ""
        },
        {
            "chapter": 2,
            "verse": 66,
            "name": "Ezra 2:66",
            "text": ""
        },
        {
            "chapter": 2,
            "verse": 67,
            "name": "Ezra 2:67",
            "text": ""
        },
        {
            "chapter": 2,
            "verse": 68,
            "name": "Ezra 2:68",
            "text": ""
        },
        {
            "chapter": 2,
            "verse": 69,
            "name": "Ezra 2:69",
            "text": ""
        },
        {
            "chapter": 2,
            "verse": 70,
            "name": "Ezra 2:70",
            "text": ""
        }
    ]
}