{
    "translation": "Shona Bible",
    "abbreviation": "shona",
    "lang": "sn",
    "language": "Shona",
    "direction": "LTR",
    "encoding": "UTF-8",
    "book_nr": 27,
    "book_name": "Daniel",
    "chapter": 9,
    "name": "Daniel 9",
    "verses": [
        {
            "chapter": 9,
            "verse": 1,
            "name": "Daniel 9:1",
            "text": ""
        },
        {
            "chapter": 9,
            "verse": 2,
            "name": "Daniel 9:2",
            "text": ""
        },
        {
            "chapter": 9,
            "verse": 3,
            "name": "Daniel 9:3",
            "text": ""
        },
        {
            "chapter": 9,
            "verse": 4,
            "name": "Daniel 9:4",
            "text": ""
        },
        {
            "chapter": 9,
            "verse": 5,
            "name": "Daniel 9:5",
            "text": ""
        },
        {
            "chapter": 9,
            "verse": 6,
            "name": "Daniel 9:6",
            "text": ""
        },
        {
            "chapter": 9,
            "verse": 7,
            "name": "Daniel 9:7",
            "text": ""
        },
        {
            "chapter": 9,
            "verse": 8,
            "name": "Daniel 9:8",
            "text": ""
        },
        {
            "chapter": 9,
            "verse": 9,
            "name": "Daniel 9:9",
            "text": ""
        },
        {
            "chapter": 9,
            "verse": 10,
            "name": "Daniel 9:10",
            "text": ""
        },
        {
            "chapter": 9,
            "verse": 11,
            "name": "Daniel 9:11",
            "text": ""
        },
        {
            "chapter": 9,
            "verse": 12,
            "name": "Daniel 9:12",
            "text": ""
        },
        {
            "chapter": 9,
            "verse": 13,
            "name": "Daniel 9:13",
            "text": ""
        },
        {
            "chapter": 9,
            "verse": 14,
            "name": "Daniel 9:14",
            "text": ""
        },
        {
            "chapter": 9,
            "verse": 15,
            "name": "Daniel 9:15",
            "text": ""
        },
        {
            "chapter": 9,
            "verse": 16,
            "name": "Daniel 9:16",
            "text": ""
        },
        {
            "chapter": 9,
            "verse": 17,
            "name": "Daniel 9:17",
            "text": ""
        },
        {
            "chapter": 9,
            "verse": 18,
            "name": "Daniel 9:18",
            "text": ""
        },
        {
            "chapter": 9,
            "verse": 19,
            "name": "Daniel 9:19",
            "text": ""
        },
        {
            "chapter": 9,
            "verse": 20,
            "name": "Daniel 9:20",
            "text": ""
        },
        {
            "chapter": 9,
            "verse": 21,
            "name": "Daniel 9:21",
            "text": ""
        },
        {
            "chapter": 9,
            "verse": 22,
            "name": "Daniel 9:22",
            "text": ""
        },
        {
            "chapter": 9,
            "verse": 23,
            "name": "Daniel 9:23",
            "text": ""
        },
        {
            "chapter": 9,
            "verse": 24,
            "name": "Daniel 9:24",
            "text": ""
        },
        {
            "chapter": 9,
            "verse": 25,
            "name": "Daniel 9:25",
            "text": ""
        },
        {
            "chapter": 9,
            "verse": 26,
            "name": "Daniel 9:26",
            "text": ""
        },
        {
            "chapter": 9,
            "verse": 27,
            "name": "Daniel 9:27",
            "text": ""
        }
    ]
}