{
    "translation": "International Standard Version",
    "abbreviation": "isv",
    "lang": "en",
    "language": "English",
    "direction": "LTR",
    "encoding": "UTF-8",
    "book_nr": 40,
    "book_name": "Matthew",
    "chapter": 6,
    "name": "Matthew 6",
    "verses": [
        {
            "chapter": 6,
            "verse": 1,
            "name": "Matthew 6:1",
            "text": "Teaching about Giving Money to the Poor\u201cBe careful not to practice your righteousness in front of people in order to be noticed by them. If you do, you will have no reward from your Father in heaven."
        },
        {
            "chapter": 6,
            "verse": 2,
            "name": "Matthew 6:2",
            "text": "So whenever you give to the poor, don't blow a trumpet before you like the hypocrites do in the synagogues and in the streets so that they will be praised by people. Truly I tell you, they have their full reward!"
        },
        {
            "chapter": 6,
            "verse": 3,
            "name": "Matthew 6:3",
            "text": "But when you give to the poor, don't let your left hand know what your right hand is doing, "
        },
        {
            "chapter": 6,
            "verse": 4,
            "name": "Matthew 6:4",
            "text": "so that your giving may be done in secret. And your Father who sees in secret will reward you.\u201dOther mss. read reward you openlyTeaching about Prayer "
        },
        {
            "chapter": 6,
            "verse": 5,
            "name": "Matthew 6:5",
            "text": "\u201cAnd whenever you pray, don't be like the hypocrites who love to stand in the synagogues and on the street corners so that they will be seen by people. Truly I tell you, they have their full reward!"
        },
        {
            "chapter": 6,
            "verse": 6,
            "name": "Matthew 6:6",
            "text": "But whenever you pray, go into your room, close the door, and pray to your Father who is in secret. And your Father who sees in secret will reward you.Other mss. read reward you openly"
        },
        {
            "chapter": 6,
            "verse": 7,
            "name": "Matthew 6:7",
            "text": "\u201cWhen you are praying, don't say meaningless words like the Gentiles do, for they think they will be heard because of their wordiness."
        },
        {
            "chapter": 6,
            "verse": 8,
            "name": "Matthew 6:8",
            "text": "Don't be like them, because your Father knows what you need before you ask him."
        },
        {
            "chapter": 6,
            "verse": 9,
            "name": "Matthew 6:9",
            "text": "\u201cTherefore, this is how you should pray:\t\u2018Our Father in heaven,may your name be kept holy."
        },
        {
            "chapter": 6,
            "verse": 10,
            "name": "Matthew 6:10",
            "text": "May your kingdom come.May your will be done,on earth as it is in heaven."
        },
        {
            "chapter": 6,
            "verse": 11,
            "name": "Matthew 6:11",
            "text": "Give us today our daily bread,"
        },
        {
            "chapter": 6,
            "verse": 12,
            "name": "Matthew 6:12",
            "text": "and forgive us our sins,Or debtsas we have forgiven those who have sinned against us.Or forgiven our debtors"
        },
        {
            "chapter": 6,
            "verse": 13,
            "name": "Matthew 6:13",
            "text": "And never bring us into temptation,but deliver us from the evil one.\u2019Other mss. read evil one. For yours is the kingdom and the power and the glory forever. Amen."
        },
        {
            "chapter": 6,
            "verse": 14,
            "name": "Matthew 6:14",
            "text": "For if you forgive people their offenses, your heavenly Father will also forgive you."
        },
        {
            "chapter": 6,
            "verse": 15,
            "name": "Matthew 6:15",
            "text": "But if you do not forgive people their offenses,Other mss. lack their offenses your Father will not forgive your offenses.\u201d"
        },
        {
            "chapter": 6,
            "verse": 16,
            "name": "Matthew 6:16",
            "text": "Teaching about Fasting\u201cWhenever you fast, don't be gloomy like the hypocrites. For they put on sad faces to show others they are fasting. Truly I tell you, they have their full reward!"
        },
        {
            "chapter": 6,
            "verse": 17,
            "name": "Matthew 6:17",
            "text": "But when you fast, put oil onOr anoint your head and wash your face,"
        },
        {
            "chapter": 6,
            "verse": 18,
            "name": "Matthew 6:18",
            "text": "so that your fasting will not be noticed by others but by your Father who sees in secret. And your Father who is in secret will reward you.\u201dOther mss. read reward you openlyTeaching about Treasures "
        },
        {
            "chapter": 6,
            "verse": 19,
            "name": "Matthew 6:19",
            "text": "\u201cStop storing up treasures for yourselves on earth, where moths and rust destroy and where thieves break in and steal."
        },
        {
            "chapter": 6,
            "verse": 20,
            "name": "Matthew 6:20",
            "text": "But keep on storing up treasures for yourselves in heaven, where moths and rust do not destroy and where thieves do not break in and steal."
        },
        {
            "chapter": 6,
            "verse": 21,
            "name": "Matthew 6:21",
            "text": "For where your treasure is, there your heart will be also.\u201dThe Lamp of the Body "
        },
        {
            "chapter": 6,
            "verse": 22,
            "name": "Matthew 6:22",
            "text": "\u201cThe eye is the lamp of the body. So if your eye is healthy, your whole body will be full of light."
        },
        {
            "chapter": 6,
            "verse": 23,
            "name": "Matthew 6:23",
            "text": "But if your eye is evil, your whole body will be full of darkness. Therefore, if the light in you is darkness, how great is that darkness!\u201dGod and Riches "
        },
        {
            "chapter": 6,
            "verse": 24,
            "name": "Matthew 6:24",
            "text": "\u201cNo one can serve two masters. For either he will hate one and love the other, or be loyal to one and despise the other. You cannot serve God and riches!\u201dLit. mammon, an Aram. term meaning wealthStop Worrying "
        },
        {
            "chapter": 6,
            "verse": 25,
            "name": "Matthew 6:25",
            "text": "\u201cThat's why I'm telling you to stop worrying about your life\u2014what you will eat or what you will drinkOther mss. lack or what you will drink\u2014or about your body\u2014what you will wear. Life is more than food, isn't it, and the body more than clothing?"
        },
        {
            "chapter": 6,
            "verse": 26,
            "name": "Matthew 6:26",
            "text": "Look at the birds in the sky. They don't plant or harvest or gather food into barns, and yet your heavenly Father feeds them. You are more valuable than they are, aren't you?"
        },
        {
            "chapter": 6,
            "verse": 27,
            "name": "Matthew 6:27",
            "text": "Can any of you add a single hour to your span of lifeOr add one cubit to your height by worrying?"
        },
        {
            "chapter": 6,
            "verse": 28,
            "name": "Matthew 6:28",
            "text": "And why do you worry about clothes? Consider the lilies in the field and how they grow. They don't work or spin yarn, "
        },
        {
            "chapter": 6,
            "verse": 29,
            "name": "Matthew 6:29",
            "text": "but I tell you that not even Solomon in all his splendor was clothed like one of them."
        },
        {
            "chapter": 6,
            "verse": 30,
            "name": "Matthew 6:30",
            "text": "Now if that is the way God clothes the grass in the field, which is alive today and thrown into an oven tomorrow, won't he clothe you much better\u2014you who have little faith?"
        },
        {
            "chapter": 6,
            "verse": 31,
            "name": "Matthew 6:31",
            "text": "\u201cSo don't ever worry by saying, \u2018What are we going to eat?\u2019 or \u2018What are we going to drink?\u2019 or \u2018What are we going to wear?\u2019"
        },
        {
            "chapter": 6,
            "verse": 32,
            "name": "Matthew 6:32",
            "text": "For it is the Gentiles who are eager for all those things. Surely your heavenly Father knows that you need all of them!"
        },
        {
            "chapter": 6,
            "verse": 33,
            "name": "Matthew 6:33",
            "text": "But first be concerned about God's kingdom and his righteousness,Other mss. read his kingdom and righteousness and all of these things will be provided for you as well."
        },
        {
            "chapter": 6,
            "verse": 34,
            "name": "Matthew 6:34",
            "text": "So never worry about tomorrow, for tomorrow will worry about itself. Each day has enough trouble of its own.\u201d"
        }
    ]
}