{
    "translation": "A Conservative Version",
    "abbreviation": "acv",
    "lang": "en",
    "language": "English",
    "direction": "LTR",
    "encoding": "",
    "book_nr": 15,
    "book_name": "Ezra",
    "chapter": 2,
    "name": "Ezra 2",
    "verses": [
        {
            "chapter": 2,
            "verse": 1,
            "name": "Ezra 2:1",
            "text": "Now these are the sons of the province who went up out of the captivity of those who had been carried away, whom Nebuchadnezzar the king of Babylon had carried away to Babylon, and who returned to Jerusalem and Judah, every man to his city,"
        },
        {
            "chapter": 2,
            "verse": 2,
            "name": "Ezra 2:2",
            "text": "who came with Zerubbabel, Jeshua, Nehemiah, Seraiah, Reelaiah, Mordecai, Bilshan, Mispar, Bigvai, Rehum, Baanah. The number of the men of the people of Israel:"
        },
        {
            "chapter": 2,
            "verse": 3,
            "name": "Ezra 2:3",
            "text": "The sons of Parosh, two thousand a hundred seventy-two."
        },
        {
            "chapter": 2,
            "verse": 4,
            "name": "Ezra 2:4",
            "text": "The sons of Shephatiah, three hundred seventy-two."
        },
        {
            "chapter": 2,
            "verse": 5,
            "name": "Ezra 2:5",
            "text": "The sons of Arah, seven hundred seventy-five."
        },
        {
            "chapter": 2,
            "verse": 6,
            "name": "Ezra 2:6",
            "text": "The sons of Pahath-moab, of the sons of Jeshua and Joab, two thousand eight hundred and twelve."
        },
        {
            "chapter": 2,
            "verse": 7,
            "name": "Ezra 2:7",
            "text": "The sons of Elam, a thousand two hundred fifty-four."
        },
        {
            "chapter": 2,
            "verse": 8,
            "name": "Ezra 2:8",
            "text": "The sons of Zattu, nine hundred forty-five."
        },
        {
            "chapter": 2,
            "verse": 9,
            "name": "Ezra 2:9",
            "text": "The sons of Zaccai, seven hundred and sixty."
        },
        {
            "chapter": 2,
            "verse": 10,
            "name": "Ezra 2:10",
            "text": "The sons of Bani, six hundred forty-two."
        },
        {
            "chapter": 2,
            "verse": 11,
            "name": "Ezra 2:11",
            "text": "The sons of Bebai, six hundred twenty-three."
        },
        {
            "chapter": 2,
            "verse": 12,
            "name": "Ezra 2:12",
            "text": "The sons of Azgad, a thousand two hundred twenty-two."
        },
        {
            "chapter": 2,
            "verse": 13,
            "name": "Ezra 2:13",
            "text": "The sons of Adonikam, six hundred sixty-six."
        },
        {
            "chapter": 2,
            "verse": 14,
            "name": "Ezra 2:14",
            "text": "The sons of Bigvai, two thousand fifty-six."
        },
        {
            "chapter": 2,
            "verse": 15,
            "name": "Ezra 2:15",
            "text": "The sons of Adin, four hundred fifty-four."
        },
        {
            "chapter": 2,
            "verse": 16,
            "name": "Ezra 2:16",
            "text": "The sons of Ater, of Hezekiah, ninety-eight."
        },
        {
            "chapter": 2,
            "verse": 17,
            "name": "Ezra 2:17",
            "text": "The sons of Bezai, three hundred twenty-three."
        },
        {
            "chapter": 2,
            "verse": 18,
            "name": "Ezra 2:18",
            "text": "The sons of Jorah, a hundred and twelve."
        },
        {
            "chapter": 2,
            "verse": 19,
            "name": "Ezra 2:19",
            "text": "The sons of Hashum, two hundred twenty-three."
        },
        {
            "chapter": 2,
            "verse": 20,
            "name": "Ezra 2:20",
            "text": "The sons of Gibbar, ninety-five."
        },
        {
            "chapter": 2,
            "verse": 21,
            "name": "Ezra 2:21",
            "text": "The sons of Bethlehem, a hundred twenty-three."
        },
        {
            "chapter": 2,
            "verse": 22,
            "name": "Ezra 2:22",
            "text": "The men of Netophah, fifty-six."
        },
        {
            "chapter": 2,
            "verse": 23,
            "name": "Ezra 2:23",
            "text": "The men of Anathoth, a hundred twenty-eight."
        },
        {
            "chapter": 2,
            "verse": 24,
            "name": "Ezra 2:24",
            "text": "The sons of Azmaveth, forty-two."
        },
        {
            "chapter": 2,
            "verse": 25,
            "name": "Ezra 2:25",
            "text": "The sons of Kiriath-arim, Chephirah, and Beeroth, seven hundred and forty-three."
        },
        {
            "chapter": 2,
            "verse": 26,
            "name": "Ezra 2:26",
            "text": "The sons of Ramah and Geba, six hundred twenty-one."
        },
        {
            "chapter": 2,
            "verse": 27,
            "name": "Ezra 2:27",
            "text": "The men of Michmas, a hundred twenty-two."
        },
        {
            "chapter": 2,
            "verse": 28,
            "name": "Ezra 2:28",
            "text": "The men of Bethel and Ai, two hundred twenty-three."
        },
        {
            "chapter": 2,
            "verse": 29,
            "name": "Ezra 2:29",
            "text": "The sons of Nebo, fifty-two."
        },
        {
            "chapter": 2,
            "verse": 30,
            "name": "Ezra 2:30",
            "text": "The sons of Magbish, a hundred fifty-six."
        },
        {
            "chapter": 2,
            "verse": 31,
            "name": "Ezra 2:31",
            "text": "The sons of the other Elam, a thousand two hundred fifty-four."
        },
        {
            "chapter": 2,
            "verse": 32,
            "name": "Ezra 2:32",
            "text": "The sons of Harim, three hundred and twenty."
        },
        {
            "chapter": 2,
            "verse": 33,
            "name": "Ezra 2:33",
            "text": "The sons of Lod, Hadid, and Ono, seven hundred twenty-five."
        },
        {
            "chapter": 2,
            "verse": 34,
            "name": "Ezra 2:34",
            "text": "The sons of Jericho, three hundred forty-five."
        },
        {
            "chapter": 2,
            "verse": 35,
            "name": "Ezra 2:35",
            "text": "The sons of Senaah, three thousand and six hundred and thirty."
        },
        {
            "chapter": 2,
            "verse": 36,
            "name": "Ezra 2:36",
            "text": "The priests: the sons of Jedaiah, of the house of Jeshua, nine hundred seventy-three."
        },
        {
            "chapter": 2,
            "verse": 37,
            "name": "Ezra 2:37",
            "text": "The sons of Immer, a thousand fifty-two."
        },
        {
            "chapter": 2,
            "verse": 38,
            "name": "Ezra 2:38",
            "text": "The sons of Pashhur, a thousand two hundred forty-seven."
        },
        {
            "chapter": 2,
            "verse": 39,
            "name": "Ezra 2:39",
            "text": "The sons of Harim, a thousand and seventeen."
        },
        {
            "chapter": 2,
            "verse": 40,
            "name": "Ezra 2:40",
            "text": "The Levites: the sons of Jeshua and Kadmiel, of the sons of Hodaviah, seventy-four."
        },
        {
            "chapter": 2,
            "verse": 41,
            "name": "Ezra 2:41",
            "text": "The singers: the sons of Asaph, a hundred twenty-eight."
        },
        {
            "chapter": 2,
            "verse": 42,
            "name": "Ezra 2:42",
            "text": "The sons of the porters: the sons of Shallum, the sons of Ater, the sons of Talmon, the sons of Akkub, the sons of Hatita, the sons of Shobai, in all a hundred thirty-nine."
        },
        {
            "chapter": 2,
            "verse": 43,
            "name": "Ezra 2:43",
            "text": "The Nethinim: the sons of Ziha, the sons of Hasupha, the sons of Tabbaoth,"
        },
        {
            "chapter": 2,
            "verse": 44,
            "name": "Ezra 2:44",
            "text": "the sons of Keros, the sons of Siaha, the sons of Padon,"
        },
        {
            "chapter": 2,
            "verse": 45,
            "name": "Ezra 2:45",
            "text": "the sons of Lebanah, the sons of Hagabah, the sons of Akkub,"
        },
        {
            "chapter": 2,
            "verse": 46,
            "name": "Ezra 2:46",
            "text": "the sons of Hagab, the sons of Shamlai, the sons of Hanan,"
        },
        {
            "chapter": 2,
            "verse": 47,
            "name": "Ezra 2:47",
            "text": "the sons of Giddel, the sons of Gahar, the sons of Reaiah,"
        },
        {
            "chapter": 2,
            "verse": 48,
            "name": "Ezra 2:48",
            "text": "the sons of Rezin, the sons of Nekoda, the sons of Gazzam,"
        },
        {
            "chapter": 2,
            "verse": 49,
            "name": "Ezra 2:49",
            "text": "the sons of Uzza, the sons of Paseah, the sons of Besai,"
        },
        {
            "chapter": 2,
            "verse": 50,
            "name": "Ezra 2:50",
            "text": "the sons of Asnah, the sons of Meunim, the sons of Nephisim,"
        },
        {
            "chapter": 2,
            "verse": 51,
            "name": "Ezra 2:51",
            "text": "the sons of Bakbuk, the sons of Hakupha, the sons of Harhur,"
        },
        {
            "chapter": 2,
            "verse": 52,
            "name": "Ezra 2:52",
            "text": "the sons of Bazluth, the sons of Mehida, the sons of Harsha,"
        },
        {
            "chapter": 2,
            "verse": 53,
            "name": "Ezra 2:53",
            "text": "the sons of Barkos, the sons of Sisera, the sons of Temah,"
        },
        {
            "chapter": 2,
            "verse": 54,
            "name": "Ezra 2:54",
            "text": "the sons of Neziah, the sons of Hatipha."
        },
        {
            "chapter": 2,
            "verse": 55,
            "name": "Ezra 2:55",
            "text": "The sons of Solomon's servants: the sons of Sotai, the sons of Hassophereth, the sons of Peruda,"
        },
        {
            "chapter": 2,
            "verse": 56,
            "name": "Ezra 2:56",
            "text": "the sons of Jaalah, the sons of Darkon, the sons of Giddel,"
        },
        {
            "chapter": 2,
            "verse": 57,
            "name": "Ezra 2:57",
            "text": "the sons of Shephatiah, the sons of Hattil, the sons of Pochereth-hazzebaim, the sons of Ami."
        },
        {
            "chapter": 2,
            "verse": 58,
            "name": "Ezra 2:58",
            "text": "All the Nethinim and the sons of Solomon's servants were three hundred ninety-two."
        },
        {
            "chapter": 2,
            "verse": 59,
            "name": "Ezra 2:59",
            "text": "And these were those who went up from Tel-melah, Tel-harsha, Cherub, Addan, and Immer, but they could not show their fathers' houses, and their seed, whether they were of Israel:"
        },
        {
            "chapter": 2,
            "verse": 60,
            "name": "Ezra 2:60",
            "text": "the sons of Delaiah, the sons of Tobiah, the sons of Nekoda, six hundred fifty and two."
        },
        {
            "chapter": 2,
            "verse": 61,
            "name": "Ezra 2:61",
            "text": "And of the sons of the priests: the sons of Habaiah, the sons of Hakkoz, the sons of Barzillai who took a wife of the daughters of Barzillai the Gileadite, and was called after their name."
        },
        {
            "chapter": 2,
            "verse": 62,
            "name": "Ezra 2:62",
            "text": "These sought their registration among those that were reckoned by genealogy, but they were not found. Therefore they were deemed polluted and put away from the priesthood."
        },
        {
            "chapter": 2,
            "verse": 63,
            "name": "Ezra 2:63",
            "text": "And the governor said to them that they should not eat of the most holy things till there stood up a priest with Urim and with Thummim."
        },
        {
            "chapter": 2,
            "verse": 64,
            "name": "Ezra 2:64",
            "text": "The whole assembly together was forty-two thousand three hundred and sixty,"
        },
        {
            "chapter": 2,
            "verse": 65,
            "name": "Ezra 2:65",
            "text": "besides their men-servants and their maid-servants, of whom there were seven thousand three hundred thirty-seven. And they had two hundred singing men and singing women."
        },
        {
            "chapter": 2,
            "verse": 66,
            "name": "Ezra 2:66",
            "text": "Their horses were seven hundred thirty-six, their mules, two hundred forty-five,"
        },
        {
            "chapter": 2,
            "verse": 67,
            "name": "Ezra 2:67",
            "text": "their camels, four hundred thirty-five, their donkeys, six thousand seven hundred and twenty."
        },
        {
            "chapter": 2,
            "verse": 68,
            "name": "Ezra 2:68",
            "text": "And some of the heads of fathers, when they came to the house of Jehovah which is in Jerusalem, offered willingly for the house of God to set it up in its place."
        },
        {
            "chapter": 2,
            "verse": 69,
            "name": "Ezra 2:69",
            "text": "They gave after their ability into the treasury of the work sixty-one thousand darics of gold, and five thousand pounds of silver, and one hundred priests' garments."
        },
        {
            "chapter": 2,
            "verse": 70,
            "name": "Ezra 2:70",
            "text": "So the priests, and the Levites, and some of the people, and the singers, and the porters, and the Nethinim, dwelt in their cities, and all Israel in their cities."
        }
    ]
}