{
    "translation": "Czech \u010cesk\u00fd studijn\u00ed p\u0159eklad",
    "abbreviation": "czecsp",
    "lang": "cs",
    "language": "Czech",
    "direction": "LTR",
    "encoding": "UTF-8",
    "book_nr": 5,
    "book_name": "Deuteronomy",
    "chapter": 9,
    "name": "Deuteronomy 9",
    "verses": [
        {
            "chapter": 9,
            "verse": 1,
            "name": "Deuteronomy 9:1",
            "text": "Sly\u0161, Izraeli, \u2308te\u010f projde\u0161\u2309 Jord\u00e1nem, abys \u0161el obsadit n\u00e1rody v\u011bt\u0161\u00ed a\u00a0mocn\u011bj\u0161\u00ed ne\u017e jsi ty, m\u011bsta velk\u00e1 a\u00a0opevn\u011bn\u00e1 a\u017e k\u00a0nebes\u016fm."
        },
        {
            "chapter": 9,
            "verse": 2,
            "name": "Deuteronomy 9:2",
            "text": "Potomci An\u00e1kovc\u016f jsou lidem velk\u00fdm a\u00a0vysok\u00fdm; \u2308v\u00ed\u0161 p\u0159ece a\u00a0sly\u0161el jsi\u2309 \u0159\u00edkat: Kdo se m\u016f\u017ee postavit proti syn\u016fm An\u00e1kov\u00fdm?"
        },
        {
            "chapter": 9,
            "verse": 3,
            "name": "Deuteronomy 9:3",
            "text": "V\u011bz tedy dnes, \u017ee Hospodin, tv\u016fj B\u016fh, ten, kter\u00fd proch\u00e1z\u00ed p\u0159ed tebou, je ohe\u0148 stravuj\u00edc\u00ed. On je vyhlad\u00ed, on je p\u0159ed tebou poko\u0159\u00ed. Podrob\u00ed\u0161 si je a\u00a0rychle je vyhub\u00ed\u0161, tak jak ti Hospodin \u0159ekl."
        },
        {
            "chapter": 9,
            "verse": 4,
            "name": "Deuteronomy 9:4",
            "text": "A\u017e je Hospodin, tv\u016fj B\u016fh, p\u0159ed tebou vypud\u00ed, ne\u0159\u00edkej si v\u00a0srdci: Pro mou spravedlnost m\u011b Hospodin p\u0159ivedl, abych obsadil tuto zemi. Pro ni\u010demnost t\u011bchto n\u00e1rod\u016f je Hospodin p\u0159ed tebou vyh\u00e1n\u00ed."
        },
        {
            "chapter": 9,
            "verse": 5,
            "name": "Deuteronomy 9:5",
            "text": "Ne pro svou spravedlnost a\u00a0p\u0159\u00edmost sv\u00e9ho srdce jde\u0161 obsadit jejich zemi, ale pro ni\u010demnost t\u011bchto n\u00e1rod\u016f je Hospodin, tv\u016fj B\u016fh, p\u0159ed tebou vyh\u00e1n\u00ed a\u00a0aby se naplnilo slovo, kter\u00e9 Hospodin odp\u0159is\u00e1hl tv\u00fdm otc\u016fm, Abrahamovi, Iz\u00e1kovi a\u00a0J\u00e1kobovi."
        },
        {
            "chapter": 9,
            "verse": 6,
            "name": "Deuteronomy 9:6",
            "text": "V\u011bz tedy, \u017ee ne pro tvou spravedlnost ti Hospodin, tv\u016fj B\u016fh, d\u00e1v\u00e1 tuto dobrou zemi, abys ji obsadil. V\u017edy\u0165 jsi lidem tvrd\u00e9 \u0161\u00edje. "
        },
        {
            "chapter": 9,
            "verse": 7,
            "name": "Deuteronomy 9:7",
            "text": "Vzpome\u0148 si a\u00a0nezapome\u0148, jak jsi v\u00a0pustin\u011b podn\u011bcoval Hospodina, sv\u00e9ho Boha, ke hn\u011bvu. Ode dne, kdy jsi vy\u0161el z\u00a0egyptsk\u00e9 zem\u011b, a\u017e do \u2308sv\u00e9ho p\u0159\u00edchodu\u2309 na toto m\u00edsto, jste se v\u016f\u010di Hospodinu vzp\u00edrali."
        },
        {
            "chapter": 9,
            "verse": 8,
            "name": "Deuteronomy 9:8",
            "text": "Na Chor\u00e9bu jste podn\u00edtili Hospodina ke hn\u011bvu, tak\u017ee se na v\u00e1s Hospodin rozhn\u011bval a\u00a0cht\u011bl v\u00e1s vyhladit."
        },
        {
            "chapter": 9,
            "verse": 9,
            "name": "Deuteronomy 9:9",
            "text": "Kdy\u017e jsem vystoupil na horu, abych p\u0159ijal kamenn\u00e9 desky, desky smlouvy, kterou s\u00a0v\u00e1mi Hospodin uzav\u0159el, pobyl jsem na ho\u0159e \u010dty\u0159icet dn\u00ed a\u00a0\u010dty\u0159icet noc\u00ed. Nejedl jsem chl\u00e9b a\u00a0nepil jsem vodu."
        },
        {
            "chapter": 9,
            "verse": 10,
            "name": "Deuteronomy 9:10",
            "text": "Hospodin mi dal dv\u011b kamenn\u00e9 desky popsan\u00e9 Bo\u017e\u00edm prstem a\u00a0na nich byla v\u0161echna slova, kter\u00e1 \u2308k\u00a0v\u00e1m\u2309 Hospodin na ho\u0159e promluvil z\u00a0ohn\u011b v\u00a0den shrom\u00e1\u017ed\u011bn\u00ed."
        },
        {
            "chapter": 9,
            "verse": 11,
            "name": "Deuteronomy 9:11",
            "text": "I\u00a0stalo se, \u017ee po \u010dty\u0159iceti dnech a\u00a0\u010dty\u0159iceti noc\u00edch mi Hospodin dal dv\u011b kamenn\u00e9 desky, desky smlouvy."
        },
        {
            "chapter": 9,
            "verse": 12,
            "name": "Deuteronomy 9:12",
            "text": "Hospodin mi \u0159ekl: Vsta\u0148 a\u00a0rychle odsud sestup, proto\u017ee tv\u016fj lid, kter\u00fd jsi vyvedl z\u00a0Egypta, propadl zvr\u00e1cenosti. Rychle se odvr\u00e1tili od cesty, kterou jsem jim p\u0159ik\u00e1zal, a\u00a0ud\u011blali si litou modlu."
        },
        {
            "chapter": 9,
            "verse": 13,
            "name": "Deuteronomy 9:13",
            "text": "Hospodin mi \u0159ekl: D\u00edval jsem se na tento lid. Hle, je to lid tvrd\u00e9 \u0161\u00edje."
        },
        {
            "chapter": 9,
            "verse": 14,
            "name": "Deuteronomy 9:14",
            "text": "Nech m\u011b, a\u0165 je vyhlad\u00edm a\u00a0jejich jm\u00e9no vyma\u017eu zpod nebes; tebe v\u0161ak u\u010din\u00edm mocn\u011bj\u0161\u00edm a\u00a0po\u010detn\u011bj\u0161\u00edm n\u00e1rodem ne\u017eli je tento."
        },
        {
            "chapter": 9,
            "verse": 15,
            "name": "Deuteronomy 9:15",
            "text": "\u2308Vydal jsem se na cestu\u2309 a\u00a0sestoupil jsem z\u00a0hory -- zat\u00edmco hora pl\u00e1la ohn\u011bm -- a\u00a0dv\u011b desky smlouvy \u2308jsem m\u011bl ve sv\u00fdch rukou.\u2309"
        },
        {
            "chapter": 9,
            "verse": 16,
            "name": "Deuteronomy 9:16",
            "text": "Pod\u00edval jsem se a\u00a0uvid\u011bl jsem, \u017ee jste zh\u0159e\u0161ili proti Hospodinu, sv\u00e9mu Bohu, a\u00a0ud\u011blali jste si slit\u00e9 tele. Rychle jste se odvr\u00e1tili od cesty, kterou v\u00e1m Hospodin p\u0159ik\u00e1zal."
        },
        {
            "chapter": 9,
            "verse": 17,
            "name": "Deuteronomy 9:17",
            "text": "Uchopil jsem ob\u011b desky, odhodil jsem je ze sv\u00fdch rukou a\u00a0p\u0159ed va\u0161ima o\u010dima jsem je rozt\u0159\u00edskal."
        },
        {
            "chapter": 9,
            "verse": 18,
            "name": "Deuteronomy 9:18",
            "text": "\u2308Padl jsem a\u00a0le\u017eel\u2309 p\u0159ed Hospodinem a\u00a0jako p\u0159edt\u00edm jsem \u010dty\u0159icet dn\u00ed a\u00a0\u010dty\u0159icet noc\u00ed nejedl chl\u00e9b a\u00a0nepil vodu -- to kv\u016fli tomu va\u0161emu h\u0159\u00edchu, kter\u00fdm jste zh\u0159e\u0161ili, kdy\u017e jste p\u00e1chali to, co je zl\u00e9 v\u00a0Hospodinov\u00fdch o\u010d\u00edch, a\u00a0provokovali jste ho k\u00a0hn\u011bvu."
        },
        {
            "chapter": 9,
            "verse": 19,
            "name": "Deuteronomy 9:19",
            "text": "Lekal jsem se hn\u011bvu a\u00a0zloby, kterou se na v\u00e1s Hospodin rozhn\u011bval a\u00a0cht\u011bl v\u00e1s vyhladit. Hospodin m\u011b i\u00a0tentokr\u00e1t vysly\u0161el."
        },
        {
            "chapter": 9,
            "verse": 20,
            "name": "Deuteronomy 9:20",
            "text": "I\u00a0na \u00c1rona se Hospodin velmi rozhn\u011bval a\u00a0cht\u011bl ho vyhladit. Proto jsem se v\u00a0t\u00e9 dob\u011b modlil tak\u00e9 za \u00c1rona."
        },
        {
            "chapter": 9,
            "verse": 21,
            "name": "Deuteronomy 9:21",
            "text": "\u2308V\u00e1\u0161 h\u0159\u00edch,\u2309 kter\u00fd jste ud\u011blali, to tele, jsem vzal, sp\u00e1lil ho ohn\u011bm, rozbil ho, drtil, a\u017e bylo zcela rozdrceno na prach. Ten prach jsem hodil do potoka, \u2308kter\u00fd te\u010de\u2309 z\u00a0hory."
        },
        {
            "chapter": 9,
            "verse": 22,
            "name": "Deuteronomy 9:22",
            "text": "Tak\u00e9 v\u00a0Tab\u00e9\u0159e, v\u00a0Masse a\u00a0v\u00a0Kibr\u00f3t\u2013taav\u011b jste Hospodina podn\u011bcovali ke hn\u011bvu."
        },
        {
            "chapter": 9,
            "verse": 23,
            "name": "Deuteronomy 9:23",
            "text": "A\u00a0kdy\u017e v\u00e1s Hospodin poslal z\u00a0K\u00e1de\u0161\u2013barneje se slovy: Vyt\u00e1hn\u011bte a\u00a0obsa\u010fte zemi, kterou jsem v\u00e1m dal, vzep\u0159eli jste se p\u0159\u00edkazu Hospodina, sv\u00e9ho Boha, nev\u011b\u0159ili jste mu a\u00a0neuposlechli jste ho."
        },
        {
            "chapter": 9,
            "verse": 24,
            "name": "Deuteronomy 9:24",
            "text": "Vzp\u00edrali jste se v\u016f\u010di Hospodinu od doby, co v\u00e1s zn\u00e1m."
        },
        {
            "chapter": 9,
            "verse": 25,
            "name": "Deuteronomy 9:25",
            "text": "Kdy\u017e jsem le\u017eel p\u0159ed Hospodinem t\u011bch \u010dty\u0159icet dn\u00ed a\u00a0\u010dty\u0159icet noc\u00ed (kdy jsem padl, proto\u017ee Hospodin \u0159ekl, \u017ee v\u00e1s chce vyhladit),"
        },
        {
            "chapter": 9,
            "verse": 26,
            "name": "Deuteronomy 9:26",
            "text": "modlil jsem se k\u00a0Hospodinu: Panovn\u00edku Hospodine, nezni\u010d sv\u016fj lid, sv\u00e9 d\u011bdictv\u00ed, kter\u00e9 jsi vykoupil svou velikost\u00ed, je\u017e jsi vyvedl z\u00a0Egypta mocnou rukou."
        },
        {
            "chapter": 9,
            "verse": 27,
            "name": "Deuteronomy 9:27",
            "text": "Pamatuj na sv\u00e9 otroky, na Abrahama, Iz\u00e1ka a\u00a0J\u00e1koba. Nehle\u010f na tvrdost tohoto lidu, na jeho ni\u010demnost a\u00a0h\u0159\u00edch."
        },
        {
            "chapter": 9,
            "verse": 28,
            "name": "Deuteronomy 9:28",
            "text": "A\u0165 ne\u0159eknou obyvatel\u00e9 zem\u011b, ze kter\u00e9 jsi n\u00e1s vyvedl: Hospodin je nebyl schopen p\u0159iv\u00e9st do zem\u011b, o\u00a0kter\u00e9 jim \u0159ekl. Z\u00a0nen\u00e1visti k\u00a0nim je vyvedl, aby je v\u00a0pustin\u011b usmrtil."
        },
        {
            "chapter": 9,
            "verse": 29,
            "name": "Deuteronomy 9:29",
            "text": "Jsou p\u0159ece tv\u00fdm lidem, tv\u00fdm d\u011bdictv\u00edm, kter\u00e9 jsi vyvedl svou velkou moc\u00ed a\u00a0vzta\u017eenou pa\u017e\u00ed!  "
        }
    ]
}