{
    "translation": "1869 Noyes Translation",
    "abbreviation": "noyes",
    "lang": "en",
    "language": "English",
    "direction": "LTR",
    "encoding": "UTF-8",
    "book_nr": 4,
    "book_name": "Numbers",
    "chapter": 4,
    "name": "Numbers 4",
    "verses": [
        {
            "chapter": 4,
            "verse": 1,
            "name": "Numbers 4:1",
            "text": ""
        },
        {
            "chapter": 4,
            "verse": 2,
            "name": "Numbers 4:2",
            "text": ""
        },
        {
            "chapter": 4,
            "verse": 3,
            "name": "Numbers 4:3",
            "text": ""
        },
        {
            "chapter": 4,
            "verse": 4,
            "name": "Numbers 4:4",
            "text": ""
        },
        {
            "chapter": 4,
            "verse": 5,
            "name": "Numbers 4:5",
            "text": ""
        },
        {
            "chapter": 4,
            "verse": 6,
            "name": "Numbers 4:6",
            "text": ""
        },
        {
            "chapter": 4,
            "verse": 7,
            "name": "Numbers 4:7",
            "text": ""
        },
        {
            "chapter": 4,
            "verse": 8,
            "name": "Numbers 4:8",
            "text": ""
        },
        {
            "chapter": 4,
            "verse": 9,
            "name": "Numbers 4:9",
            "text": ""
        },
        {
            "chapter": 4,
            "verse": 10,
            "name": "Numbers 4:10",
            "text": ""
        },
        {
            "chapter": 4,
            "verse": 11,
            "name": "Numbers 4:11",
            "text": ""
        },
        {
            "chapter": 4,
            "verse": 12,
            "name": "Numbers 4:12",
            "text": ""
        },
        {
            "chapter": 4,
            "verse": 13,
            "name": "Numbers 4:13",
            "text": ""
        },
        {
            "chapter": 4,
            "verse": 14,
            "name": "Numbers 4:14",
            "text": ""
        },
        {
            "chapter": 4,
            "verse": 15,
            "name": "Numbers 4:15",
            "text": ""
        },
        {
            "chapter": 4,
            "verse": 16,
            "name": "Numbers 4:16",
            "text": ""
        },
        {
            "chapter": 4,
            "verse": 17,
            "name": "Numbers 4:17",
            "text": ""
        },
        {
            "chapter": 4,
            "verse": 18,
            "name": "Numbers 4:18",
            "text": ""
        },
        {
            "chapter": 4,
            "verse": 19,
            "name": "Numbers 4:19",
            "text": ""
        },
        {
            "chapter": 4,
            "verse": 20,
            "name": "Numbers 4:20",
            "text": ""
        },
        {
            "chapter": 4,
            "verse": 21,
            "name": "Numbers 4:21",
            "text": ""
        },
        {
            "chapter": 4,
            "verse": 22,
            "name": "Numbers 4:22",
            "text": ""
        },
        {
            "chapter": 4,
            "verse": 23,
            "name": "Numbers 4:23",
            "text": ""
        },
        {
            "chapter": 4,
            "verse": 24,
            "name": "Numbers 4:24",
            "text": ""
        },
        {
            "chapter": 4,
            "verse": 25,
            "name": "Numbers 4:25",
            "text": ""
        },
        {
            "chapter": 4,
            "verse": 26,
            "name": "Numbers 4:26",
            "text": ""
        },
        {
            "chapter": 4,
            "verse": 27,
            "name": "Numbers 4:27",
            "text": ""
        },
        {
            "chapter": 4,
            "verse": 28,
            "name": "Numbers 4:28",
            "text": ""
        },
        {
            "chapter": 4,
            "verse": 29,
            "name": "Numbers 4:29",
            "text": ""
        },
        {
            "chapter": 4,
            "verse": 30,
            "name": "Numbers 4:30",
            "text": ""
        },
        {
            "chapter": 4,
            "verse": 31,
            "name": "Numbers 4:31",
            "text": ""
        },
        {
            "chapter": 4,
            "verse": 32,
            "name": "Numbers 4:32",
            "text": ""
        },
        {
            "chapter": 4,
            "verse": 33,
            "name": "Numbers 4:33",
            "text": ""
        },
        {
            "chapter": 4,
            "verse": 34,
            "name": "Numbers 4:34",
            "text": ""
        },
        {
            "chapter": 4,
            "verse": 35,
            "name": "Numbers 4:35",
            "text": ""
        },
        {
            "chapter": 4,
            "verse": 36,
            "name": "Numbers 4:36",
            "text": ""
        },
        {
            "chapter": 4,
            "verse": 37,
            "name": "Numbers 4:37",
            "text": ""
        },
        {
            "chapter": 4,
            "verse": 38,
            "name": "Numbers 4:38",
            "text": ""
        },
        {
            "chapter": 4,
            "verse": 39,
            "name": "Numbers 4:39",
            "text": ""
        },
        {
            "chapter": 4,
            "verse": 40,
            "name": "Numbers 4:40",
            "text": ""
        },
        {
            "chapter": 4,
            "verse": 41,
            "name": "Numbers 4:41",
            "text": ""
        },
        {
            "chapter": 4,
            "verse": 42,
            "name": "Numbers 4:42",
            "text": ""
        },
        {
            "chapter": 4,
            "verse": 43,
            "name": "Numbers 4:43",
            "text": ""
        },
        {
            "chapter": 4,
            "verse": 44,
            "name": "Numbers 4:44",
            "text": ""
        },
        {
            "chapter": 4,
            "verse": 45,
            "name": "Numbers 4:45",
            "text": ""
        },
        {
            "chapter": 4,
            "verse": 46,
            "name": "Numbers 4:46",
            "text": ""
        },
        {
            "chapter": 4,
            "verse": 47,
            "name": "Numbers 4:47",
            "text": ""
        },
        {
            "chapter": 4,
            "verse": 48,
            "name": "Numbers 4:48",
            "text": ""
        },
        {
            "chapter": 4,
            "verse": 49,
            "name": "Numbers 4:49",
            "text": ""
        }
    ]
}