{
    "translation": "La Bible de Zadoc Khan",
    "abbreviation": "frekhan",
    "lang": "fr",
    "language": "French",
    "direction": "LTR",
    "encoding": "UTF-8",
    "book_nr": 14,
    "book_name": "2 Chronicles",
    "chapter": 33,
    "name": "2 Chronicles 33",
    "verses": [
        {
            "chapter": 33,
            "verse": 1,
            "name": "2 Chronicles 33:1",
            "text": "Manass\u00e9 avait douze ans en montant sur le tr\u00f4ne, et il r\u00e9gna cinquante-cinq ans \u00e0 J\u00e9rusalem. "
        },
        {
            "chapter": 33,
            "verse": 2,
            "name": "2 Chronicles 33:2",
            "text": "Il fit le mal aux yeux de l\u2019Eternel, imitant les abominations des peuples que l\u2019Eternel avait d\u00e9poss\u00e9d\u00e9s au profit des enfants d\u2019Isra\u00ebl. "
        },
        {
            "chapter": 33,
            "verse": 3,
            "name": "2 Chronicles 33:3",
            "text": "Il r\u00e9tablit de nouveau les hauts lieux qu\u2019Ez\u00e9chias, son p\u00e8re, avait d\u00e9truits, \u00e9rigea des autels aux Bealim, dressa des Ach\u00eara, se prosterna devant toute la milice c\u00e9leste et l\u2019adora. "
        },
        {
            "chapter": 33,
            "verse": 4,
            "name": "2 Chronicles 33:4",
            "text": "Il construisit des autels dans le temple du Seigneur, malgr\u00e9 cette parole de l\u2019Eternel: \"C\u2019Est \u00e0 J\u00e9rusalem que sera mon nom \u00e0 jamais.\" "
        },
        {
            "chapter": 33,
            "verse": 5,
            "name": "2 Chronicles 33:5",
            "text": "Or, c\u2019est en l\u2019honneur de toute la milice c\u00e9leste qu\u2019il \u00e9rigea des autels dans les deux parvis du temple. "
        },
        {
            "chapter": 33,
            "verse": 6,
            "name": "2 Chronicles 33:6",
            "text": "Il fit passer ses fils par le feu dans la vall\u00e9e de Ben-Hinn\u00f4m, s\u2019adonna aux augures, aux sortil\u00e8ges, aux sorcelleries, et pratiqua les \u00e9vocations et les divinations. Immense fut le mal qu\u2019il fit aux yeux de l\u2019Eternel pour l\u2019irriter. "
        },
        {
            "chapter": 33,
            "verse": 7,
            "name": "2 Chronicles 33:7",
            "text": "La statue de l\u2019idole qu\u2019il avait fabriqu\u00e9e, il la pla\u00e7a dans le temple de Dieu, dont Dieu avait dit \u00e0 David et \u00e0 son fils Salomon: \"C\u2019Est dans ce temple, \u00e0 J\u00e9rusalem, la ville \u00e9lue entre toutes les tribus d\u2019Isra\u00ebl, que je ferai r\u00e9sider \u00e0 jamais mon nom. "
        },
        {
            "chapter": 33,
            "verse": 8,
            "name": "2 Chronicles 33:8",
            "text": "Je n\u2019\u00e9loignerai plus les pas d\u2019Isra\u00ebl du pays que j\u2019ai assign\u00e9 \u00e0 vos p\u00e8res, pourvu qu\u2019ils accomplissent scrupuleusement ce que je leur ai prescrit, toute la loi, les statuts et les pr\u00e9ceptes transmis par Mo\u00efse.\" "
        },
        {
            "chapter": 33,
            "verse": 9,
            "name": "2 Chronicles 33:9",
            "text": "Mais Manass\u00e9 induisit Juda et les habitants de J\u00e9rusalem \u00e0 agir plus mal que les peuples extermin\u00e9s par l\u2019Eternel au profit des enfants d\u2019Isra\u00ebl. "
        },
        {
            "chapter": 33,
            "verse": 10,
            "name": "2 Chronicles 33:10",
            "text": "L\u2019Eternel parla \u00e0 Manass\u00e9 et \u00e0 son peuple, mais ils n\u2019\u00e9cout\u00e8rent point. "
        },
        {
            "chapter": 33,
            "verse": 11,
            "name": "2 Chronicles 33:11",
            "text": "Alors l\u2019Eternel amena contre eux les chefs de l\u2019arm\u00e9e du roi d\u2019Assyrie; ils se saisirent de Manass\u00e9, qu\u2019ils mirent aux fers, le li\u00e8rent avec des cha\u00eenes et l\u2019emmen\u00e8rent \u00e0 Babylone. "
        },
        {
            "chapter": 33,
            "verse": 12,
            "name": "2 Chronicles 33:12",
            "text": "Mais, dans sa d\u00e9tresse, il supplia l\u2019Eternel, son Dieu, et s\u2019humilia profond\u00e9ment devant le Dieu de ses p\u00e8res. "
        },
        {
            "chapter": 33,
            "verse": 13,
            "name": "2 Chronicles 33:13",
            "text": "Il l\u2019implora, et Dieu l\u2019exau\u00e7a, entendit sa supplication, le ramena \u00e0 J\u00e9rusalem sur son tr\u00f4ne, et Manass\u00e9 reconnut que le Seigneur est Dieu. "
        },
        {
            "chapter": 33,
            "verse": 14,
            "name": "2 Chronicles 33:14",
            "text": "Apr\u00e8s cela, il b\u00e2tit un mur ext\u00e9rieur \u00e0 la Cit\u00e9 de David, \u00e0 l\u2019ouest, vers le Ghih\u00f4n, dans la vall\u00e9e, jusqu\u2019\u00e0 la porte des Poissons; il le fit contourner l\u2019Ophel et lui donna une grande hauteur; il \u00e9tablit aussi des chefs militaires dans toutes les villes fortes de Juda. "
        },
        {
            "chapter": 33,
            "verse": 15,
            "name": "2 Chronicles 33:15",
            "text": "Il retira les dieux \u00e9trangers et l\u2019idole du temple de l\u2019Eternel, et tous les autels qu\u2019il avait b\u00e2tis sur la montagne du temple de l\u2019Eternel et \u00e0 J\u00e9rusalem, et les jeta hors de la ville. "
        },
        {
            "chapter": 33,
            "verse": 16,
            "name": "2 Chronicles 33:16",
            "text": "Il restaura l\u2019autel de l\u2019Eternel, y offrit des sacrifices de r\u00e9mun\u00e9ration et de reconnaissance, et ordonna \u00e0 Juda de servir l\u2019Eternel, Dieu d\u2019Isra\u00ebl. "
        },
        {
            "chapter": 33,
            "verse": 17,
            "name": "2 Chronicles 33:17",
            "text": "Mais le peuple continua \u00e0 sacrifier sur les hauts lieux, toutefois, seulement \u00e0 l\u2019Eternel, leur Dieu. "
        },
        {
            "chapter": 33,
            "verse": 18,
            "name": "2 Chronicles 33:18",
            "text": "Le reste de l\u2019histoire de Manass\u00e9, la pri\u00e8re qu\u2019il adressa \u00e0 son Dieu, les oracles des Voyants qui lui parl\u00e8rent au nom de l\u2019Eternel, Dieu d\u2019Isra\u00ebl, tout cela est consign\u00e9 dans l\u2019histoire des rois d\u2019Isra\u00ebl. "
        },
        {
            "chapter": 33,
            "verse": 19,
            "name": "2 Chronicles 33:19",
            "text": "Et sa pri\u00e8re, la fa\u00e7on dont Dieu l\u2019exau\u00e7a, tous ses p\u00e9ch\u00e9s et son infid\u00e9lit\u00e9, les endroits o\u00f9 il b\u00e2tit des hauts lieux et dressa des Ach\u00eara et des idoles avant qu\u2019il s\u2019humili\u00e2t, tout cela se trouve consign\u00e9 dans les paroles des Voyants. "
        },
        {
            "chapter": 33,
            "verse": 20,
            "name": "2 Chronicles 33:20",
            "text": "Manass\u00e9 s\u2019endormit avec ses p\u00e8res et fut enseveli dans sa maison. Son fils Amon lui succ\u00e9da. "
        },
        {
            "chapter": 33,
            "verse": 21,
            "name": "2 Chronicles 33:21",
            "text": "Amon avait vingt-deux ans en montant sur le tr\u00f4ne, et il r\u00e9gna deux ans \u00e0 J\u00e9rusalem. "
        },
        {
            "chapter": 33,
            "verse": 22,
            "name": "2 Chronicles 33:22",
            "text": "Il fit le mal aux yeux de l\u2019Eternel, \u00e0 l\u2019exemple de Manass\u00e9, son p\u00e8re. Toutes les idoles qu\u2019avait fabriqu\u00e9es Manass\u00e9 son p\u00e8re, Amon leur offrit des sacrifices et il les adora. "
        },
        {
            "chapter": 33,
            "verse": 23,
            "name": "2 Chronicles 33:23",
            "text": "Il ne s\u2019humilia point devant l\u2019Eternel comme s\u2019\u00e9tait humili\u00e9 Manass\u00e9, son p\u00e8re, car lui, Amon, accumula les fautes. "
        },
        {
            "chapter": 33,
            "verse": 24,
            "name": "2 Chronicles 33:24",
            "text": "Ses officiers conspir\u00e8rent contre lui et le mirent \u00e0 mort dans son palais. "
        },
        {
            "chapter": 33,
            "verse": 25,
            "name": "2 Chronicles 33:25",
            "text": "La population du pays massacra tous ceux qui s\u2019\u00e9taient conjur\u00e9s contre le roi Amon et proclama roi \u00e0 sa place son fils Josias.  "
        }
    ]
}