{
    "translation": "World English Bible: Messianic Edition",
    "abbreviation": "webme",
    "lang": "en",
    "language": "English",
    "direction": "LTR",
    "encoding": "UTF-8",
    "book_nr": 51,
    "book_name": "Colossians",
    "chapter": 2,
    "name": "Colossians 2",
    "verses": [
        {
            "chapter": 2,
            "verse": 1,
            "name": "Colossians 2:1",
            "text": "For I desire to have you know how greatly I struggle for you, and for those at Laodicea, and for as many as have not seen my face in the flesh;"
        },
        {
            "chapter": 2,
            "verse": 2,
            "name": "Colossians 2:2",
            "text": "that their hearts may be comforted, they being knit together in love, and gaining all riches of the full assurance of understanding, that they may know the mystery of God, both of the Father and of Messiah,"
        },
        {
            "chapter": 2,
            "verse": 3,
            "name": "Colossians 2:3",
            "text": "in whom are all the treasures of wisdom and knowledge hidden."
        },
        {
            "chapter": 2,
            "verse": 4,
            "name": "Colossians 2:4",
            "text": "Now this I say that no one may delude you with persuasiveness of speech."
        },
        {
            "chapter": 2,
            "verse": 5,
            "name": "Colossians 2:5",
            "text": "For though I am absent in the flesh, yet am I with you in the spirit, rejoicing and seeing your order, and the steadfastness of your faith in Messiah."
        },
        {
            "chapter": 2,
            "verse": 6,
            "name": "Colossians 2:6",
            "text": "As therefore you received Messiah Yeshua, the Lord, walk in him,"
        },
        {
            "chapter": 2,
            "verse": 7,
            "name": "Colossians 2:7",
            "text": "rooted and built up in him, and established in the faith, even as you were taught, abounding in it in thanksgiving."
        },
        {
            "chapter": 2,
            "verse": 8,
            "name": "Colossians 2:8",
            "text": "Be careful that you don\u2019t let anyone rob you through his philosophy and vain deceit, after the tradition of men, after the elements of the world, and not after Messiah."
        },
        {
            "chapter": 2,
            "verse": 9,
            "name": "Colossians 2:9",
            "text": "For in him all the fullness of the Godhead dwells bodily,"
        },
        {
            "chapter": 2,
            "verse": 10,
            "name": "Colossians 2:10",
            "text": "and in him you are made full, who is the head of all principality and power;"
        },
        {
            "chapter": 2,
            "verse": 11,
            "name": "Colossians 2:11",
            "text": "in whom you were also circumcised with a circumcision not made with hands, in the putting off of the body of the sins of the flesh, in the circumcision of Messiah;"
        },
        {
            "chapter": 2,
            "verse": 12,
            "name": "Colossians 2:12",
            "text": "having been buried with him in immersion, in which you were also raised with him through faith in the working of God, who raised him from the dead."
        },
        {
            "chapter": 2,
            "verse": 13,
            "name": "Colossians 2:13",
            "text": "You were dead through your trespasses and the uncircumcision of your flesh. He made you alive together with him, having forgiven us all our trespasses,"
        },
        {
            "chapter": 2,
            "verse": 14,
            "name": "Colossians 2:14",
            "text": "wiping out the handwriting in ordinances which was against us; and he has taken it out of the way, nailing it to the cross;"
        },
        {
            "chapter": 2,
            "verse": 15,
            "name": "Colossians 2:15",
            "text": "having stripped the principalities and the powers, he made a show of them openly, triumphing over them in it.  "
        },
        {
            "chapter": 2,
            "verse": 16,
            "name": "Colossians 2:16",
            "text": "  Let no one therefore judge you in eating, or in drinking, or with respect to a feast day or a new moon or a Sabbath day,"
        },
        {
            "chapter": 2,
            "verse": 17,
            "name": "Colossians 2:17",
            "text": "which are a shadow of the things to come; but the body is Messiah\u2019s."
        },
        {
            "chapter": 2,
            "verse": 18,
            "name": "Colossians 2:18",
            "text": "Let no one rob you of your prize by a voluntary humility and worshiping of the angels, dwelling in the things which he has not seen, vainly puffed up by his fleshly mind,"
        },
        {
            "chapter": 2,
            "verse": 19,
            "name": "Colossians 2:19",
            "text": "and not holding firmly to the Head, from whom all the body, being supplied and knit together through the joints and ligaments, grows with God\u2019s growth."
        },
        {
            "chapter": 2,
            "verse": 20,
            "name": "Colossians 2:20",
            "text": "If you died with Messiah from the elements of the world, why, as though living in the world, do you subject yourselves to ordinances,"
        },
        {
            "chapter": 2,
            "verse": 21,
            "name": "Colossians 2:21",
            "text": "\u201cDon\u2019t handle, nor taste, nor touch\u201d"
        },
        {
            "chapter": 2,
            "verse": 22,
            "name": "Colossians 2:22",
            "text": "(all of which perish with use), according to the precepts and doctrines of men?"
        },
        {
            "chapter": 2,
            "verse": 23,
            "name": "Colossians 2:23",
            "text": "Which things indeed appear like wisdom in self-imposed worship, and humility, and severity to the body; but aren\u2019t of any value against the indulgence of the flesh.   "
        }
    ]
}