{
    "translation": "Haitian Creole Bible",
    "abbreviation": "haitian",
    "lang": "ht",
    "language": "Haitian Creole",
    "direction": "LTR",
    "encoding": "UTF-8",
    "book_nr": 4,
    "book_name": "Numbers",
    "chapter": 4,
    "name": "Numbers 4",
    "verses": [
        {
            "chapter": 4,
            "verse": 1,
            "name": "Numbers 4:1",
            "text": "Sey\u00e8 a pale ak Moyiz ansanm ak Arawon, li di yo konsa:"
        },
        {
            "chapter": 4,
            "verse": 2,
            "name": "Numbers 4:2",
            "text": "-F\u00e8 resansman tout pitit gason moun Keyat yo, nan branch fanmi Levi a, dapre fanmi yo, dapre branch fanmi zans\u00e8t yo."
        },
        {
            "chapter": 4,
            "verse": 3,
            "name": "Numbers 4:3",
            "text": "Pran non tout gason, depi sa ki gen trantan jouk sa ki gen senkantan, tou sa ki gen laj pou f\u00e8 travay ki gen pou f\u00e8t nan Tant Randevou a."
        },
        {
            "chapter": 4,
            "verse": 4,
            "name": "Numbers 4:4",
            "text": "Men travay pitit gason Keyat yo va f\u00e8 nan Tant Randevou a, kote yo mete apa n\u00e8t pou Sey\u00e8 a."
        },
        {
            "chapter": 4,
            "verse": 5,
            "name": "Numbers 4:5",
            "text": "L\u00e8 l\u00e8 a rive pou p\u00e8p la ranmase zaf\u00e8 yo pou yo deplase, Arawon ak pitit gason l' yo va antre nan kay Bondye a, y'a desann rido ki devan Bwat Kontra a, y'a kouvri bwat la ak li."
        },
        {
            "chapter": 4,
            "verse": 6,
            "name": "Numbers 4:6",
            "text": "Y'a mete yon premye gwo nap an po bazann sou li, epi y'a kouvri l' ak yon dezy\u00e8m nap an twal ble. Apre sa, y'a pase manch pou pote bwat la nan gwo bag yo."
        },
        {
            "chapter": 4,
            "verse": 7,
            "name": "Numbers 4:7",
            "text": "Y'a kouvri tab pou pen yo ofri bay Bondye a ak yon dra ble. Y'a mete asy\u00e8t, tas, kafety\u00e8 ak b\u00f2l yo s\u00e8vi nan s\u00e8vis pou mwen yo sou li. Pen yo ofri bay Sey\u00e8 a va toujou rete sou li tou."
        },
        {
            "chapter": 4,
            "verse": 8,
            "name": "Numbers 4:8",
            "text": "Y'a voye yon dra wouj sou li, y'a kouvri tout ak yon nap f\u00e8t ak po bazann, epi y'a pase manch pou pote tab la nan gwo bag yo."
        },
        {
            "chapter": 4,
            "verse": 9,
            "name": "Numbers 4:9",
            "text": "Y'a pran yon dra tou ble, y'a kouvri gwo lanp s\u00e8t branch lan ak tout ti lanp li yo, pens\u00e8t li yo, plat li yo ak veso pou lwil yo."
        },
        {
            "chapter": 4,
            "verse": 10,
            "name": "Numbers 4:10",
            "text": "Y'a vlope yo ansanm nan yon nap an po bazann, epi y'a mete l' sou yon branka pou pote l'."
        },
        {
            "chapter": 4,
            "verse": 11,
            "name": "Numbers 4:11",
            "text": "Apre sa, y'a mete yon dra ble sou lot\u00e8l an l\u00f2 a, y'a kouvri l' n\u00e8t ak yon nap an po bazann, epi y'a pase manch pou pote lot\u00e8l la nan bag yo."
        },
        {
            "chapter": 4,
            "verse": 12,
            "name": "Numbers 4:12",
            "text": "Y'a pran tout bagay yo s\u00e8vi nan kote ki apa n\u00e8t pou Sey\u00e8 a, y'a mete yo nan yon dra ble, y'a vlope yo nan yon nap an po bazann, epi y'a mete yo sou yon branka pou pote yo."
        },
        {
            "chapter": 4,
            "verse": 13,
            "name": "Numbers 4:13",
            "text": "Y'a wete sann ki sou lot\u00e8l la, epi y'a kouvri lot\u00e8l la ak yon dra wouj."
        },
        {
            "chapter": 4,
            "verse": 14,
            "name": "Numbers 4:14",
            "text": "Y'a pran tout bagay ki mache ak lot\u00e8l la: recho, p\u00e8l, fouch\u00e8t, plat pou resevwa sann, y'a mete yo sou lot\u00e8l la. Apre sa, y'a kouvri l' ak yon nap an po bazann, epi y'a pase manch pou pote lot\u00e8l la."
        },
        {
            "chapter": 4,
            "verse": 15,
            "name": "Numbers 4:15",
            "text": "L\u00e8 l\u00e8 a va rive pou p\u00e8p la leve lamach, l\u00e8 Arawon ak pitit gason l' yo va fin kouvri tout m\u00e8b ki nan kote ki apa n\u00e8t pou Sey\u00e8 a, ansanm ak tout bagay ki mache ak yo a, se l\u00e8 sa a gason moun Keyat yo va vin pran m\u00e8b yo pou pote yo. Moun Keyat yo pa gen dwa manyen bagay yo mete apa n\u00e8t pou Sey\u00e8 a. Si yo f\u00e8 sa, y'ap mouri. Se tout reskonsablite moun Keyat yo sa, l\u00e8 y'ap deplase Tant Randevou a."
        },
        {
            "chapter": 4,
            "verse": 16,
            "name": "Numbers 4:16",
            "text": "Eleaza, pitit gason Arawon, pr\u00e8t la, va reskonsab kontwole lwil lanp yo, lansan santi bon an, pen yo toujou ofri bay Sey\u00e8 a ak lwil pou mete moun apa a. Wi, l'a kontwole tout kay Bondye a n\u00e8t ak tou sa ki ladan l', menm kote ki apa n\u00e8t pou Sey\u00e8 a ak bagay ki ladan l' yo."
        },
        {
            "chapter": 4,
            "verse": 17,
            "name": "Numbers 4:17",
            "text": "Sey\u00e8 a pale ak Moyiz ansanm ak Arawon, li di yo konsa:"
        },
        {
            "chapter": 4,
            "verse": 18,
            "name": "Numbers 4:18",
            "text": "-Pa kite anyen rive moun fanmi Keyat yo ki pou ta f\u00e8 yo dispar\u00e8t nan mitan moun Levi yo."
        },
        {
            "chapter": 4,
            "verse": 19,
            "name": "Numbers 4:19",
            "text": "Men sa pou nou f\u00e8 pou yo pa mouri, pou yo ka viv, l\u00e8 y'ap pwoche b\u00f2 bagay ki apa n\u00e8t pou Sey\u00e8 a. Arawon ak pitit gason l' yo va antre anvan epi y'a bay chak moun travay pa yo, y'a di yo sa pou yo pote."
        },
        {
            "chapter": 4,
            "verse": 20,
            "name": "Numbers 4:20",
            "text": "Men, moun Keyat yo pa janm gen dwa antre al gade l\u00e8 y'ap vlope bagay ki apa n\u00e8t pou Sey\u00e8 a. Si yo f\u00e8 sa, y'ap mouri."
        },
        {
            "chapter": 4,
            "verse": 21,
            "name": "Numbers 4:21",
            "text": "Sey\u00e8 a pale ak Moyiz, li di l' konsa:"
        },
        {
            "chapter": 4,
            "verse": 22,
            "name": "Numbers 4:22",
            "text": "-F\u00e8 resansman tout pitit gason moun G\u00e8chon yo tou, dapre fanmi yo, dapre branch fanmi zans\u00e8t yo."
        },
        {
            "chapter": 4,
            "verse": 23,
            "name": "Numbers 4:23",
            "text": "Pran non tout gason, depi sa ki gen trantan jouk sa ki gen senkantan, tou sa ki gen laj pou f\u00e8 travay ki gen pou f\u00e8t nan Tant Randevou a."
        },
        {
            "chapter": 4,
            "verse": 24,
            "name": "Numbers 4:24",
            "text": "Men travay moun G\u00e8chon yo, men sa pou yo pote:"
        },
        {
            "chapter": 4,
            "verse": 25,
            "name": "Numbers 4:25",
            "text": "l\u00e8z twal ki s\u00e8vi pou moute kay Bondye a ansanm ak gwo tant ki kouvri kay Bondye a, kouv\u00e8ti f\u00e8t ak po bazann ki anwo tant lan, seri rido ki f\u00e8men p\u00f2t Tant Randevou a,"
        },
        {
            "chapter": 4,
            "verse": 26,
            "name": "Numbers 4:26",
            "text": "rido galeri ki kouvri tant lan ak lot\u00e8l la n\u00e8t, rido ki f\u00e8men galeri a, k\u00f2d yo ak tout l\u00f2t bagay ki mache ak bagay sa yo. Se yo ki pou f\u00e8 tout travay ki gen rap\u00f2 ak bagay sa yo."
        },
        {
            "chapter": 4,
            "verse": 27,
            "name": "Numbers 4:27",
            "text": "Moun G\u00e8chon yo va travay sou l\u00f2d Arawon ak pitit gason l' yo. Y'a f\u00e8 tout travay yo, y'a pote tou sa yo gen pou yo pote. Y'a reskonsab tou sa y'ap pote a."
        },
        {
            "chapter": 4,
            "verse": 28,
            "name": "Numbers 4:28",
            "text": "Sa se tout reskonsablite moun G\u00e8chon yo nan travay ki gen pou f\u00e8t nan Tant Randevou a. Se Itama, pitit gason Arawon, pr\u00e8t la, ki va kontwole tou sa y'ap f\u00e8."
        },
        {
            "chapter": 4,
            "verse": 29,
            "name": "Numbers 4:29",
            "text": "Sey\u00e8 a di Moyiz ank\u00f2: -W'a f\u00e8 resansman tout pitit gason moun Merari yo, dapre fanmi yo, dapre branch fanmi zans\u00e8t yo."
        },
        {
            "chapter": 4,
            "verse": 30,
            "name": "Numbers 4:30",
            "text": "W'a pran non tout gason, depi sa ki gen trantan jouk sa ki gen senkantan, tou sa ki gen laj pou f\u00e8 travay ki gen pou f\u00e8t nan Tant Randevou a."
        },
        {
            "chapter": 4,
            "verse": 31,
            "name": "Numbers 4:31",
            "text": "Se yo menm k'ap reskonsab pote ankadreman, trav\u00e8s, poto ak sip\u00f2 kay Bondye yo,"
        },
        {
            "chapter": 4,
            "verse": 32,
            "name": "Numbers 4:32",
            "text": "poto, sip\u00f2, pik\u00e8t ak k\u00f2d pou galeri ki f\u00e8 wonn tant lan, av\u00e8k tout bagay ki s\u00e8vi ak yo, ansanm ak tout zouti y'ap bezwen pou f\u00e8 travay yo. Y'a bay chak moun non bagay la reskonsab pou l' pote a."
        },
        {
            "chapter": 4,
            "verse": 33,
            "name": "Numbers 4:33",
            "text": "Se tout reskonsablite moun Merari yo sa nan travay yo gen pou f\u00e8 nan Tant Randevou a. Se Itama, pitit Arawon, pr\u00e8t la, ki va ba yo sa pou yo f\u00e8."
        },
        {
            "chapter": 4,
            "verse": 34,
            "name": "Numbers 4:34",
            "text": "Dapre l\u00f2d Sey\u00e8 a te bay la, Moyiz, Arawon ak ch\u00e8f p\u00e8p Izray\u00e8l yo te f\u00e8 resansman gason nan fanmi Keyat yo, dapre fanmi yo ak dapre branch fanmi zans\u00e8t yo."
        },
        {
            "chapter": 4,
            "verse": 35,
            "name": "Numbers 4:35",
            "text": "Yo pran non tout gason, depi sa ki gen trantan jouk sa ki gen senkantan, tou sa ki gen laj pou f\u00e8 pati gwoup moun k'ap travay nan Tant Randevou a."
        },
        {
            "chapter": 4,
            "verse": 36,
            "name": "Numbers 4:36",
            "text": "Yo jwenn demil s\u00e8tsansenkant (2.750) gason antou nan"
        },
        {
            "chapter": 4,
            "verse": 37,
            "name": "Numbers 4:37",
            "text": "tout fanmi Keyat yo. Se moun sa yo ki te la pou f\u00e8 travay ki gen pou f\u00e8t nan Tant Randevou a. Se yo menm Moyiz ak Arawon te konte dapre l\u00f2d Sey\u00e8 a te bay Moyiz la."
        },
        {
            "chapter": 4,
            "verse": 38,
            "name": "Numbers 4:38",
            "text": "Apre sa, yo f\u00e8 resansman gason nan fanmi G\u00e8chon yo, dapre fanmi yo ak dapre branch fanmi zans\u00e8t yo."
        },
        {
            "chapter": 4,
            "verse": 39,
            "name": "Numbers 4:39",
            "text": "Yo pran non tout gason, depi sa ki gen trantan jouk sa ki gen senkantan, tou sa ki gen laj pou f\u00e8 pati gwoup moun k'ap travay nan Tant Randevou a."
        },
        {
            "chapter": 4,
            "verse": 40,
            "name": "Numbers 4:40",
            "text": "Yo jwenn demil sisantran (2.630) gason"
        },
        {
            "chapter": 4,
            "verse": 41,
            "name": "Numbers 4:41",
            "text": "nan tout fanmi G\u00e8chon yo. Se moun sa yo ki te la pou f\u00e8 travay ki gen pou f\u00e8t nan Tant Randevou a. Se yo menm Moyiz ak Arawon te konte dapre l\u00f2d Sey\u00e8 a te bay Moyiz la."
        },
        {
            "chapter": 4,
            "verse": 42,
            "name": "Numbers 4:42",
            "text": "Apre sa, yo f\u00e8 resansman gason nan fanmi Merari yo, dapre fanmi yo ak dapre branch fanmi zans\u00e8t yo."
        },
        {
            "chapter": 4,
            "verse": 43,
            "name": "Numbers 4:43",
            "text": "Yo pran non tout gason, depi sa ki gen trantan jouk sa ki gen senkantan, tou sa ki gen laj pou f\u00e8 pati gwoup moun k'ap travay nan Tant Randevou a."
        },
        {
            "chapter": 4,
            "verse": 44,
            "name": "Numbers 4:44",
            "text": "Yo jwenn twamil desan (3.200) gason"
        },
        {
            "chapter": 4,
            "verse": 45,
            "name": "Numbers 4:45",
            "text": "nan tout fanmi Merari yo. Se moun sa yo ki te la pou f\u00e8 travay ki gen pou f\u00e8t nan Tant Randevou a. Se yo menm Moyiz ak Arawon te konte dapre l\u00f2d Sey\u00e8 a te bay Moyiz la."
        },
        {
            "chapter": 4,
            "verse": 46,
            "name": "Numbers 4:46",
            "text": "Se konsa Moyiz ak Arawon ak ch\u00e8f p\u00e8p Izray\u00e8l yo te f\u00e8 resansman branch fanmi Levi yo, dapre fanmi yo ak dapre branch fanmi zans\u00e8t yo."
        },
        {
            "chapter": 4,
            "verse": 47,
            "name": "Numbers 4:47",
            "text": "Yo te pran non tout gason, depi sa ki gen trantan jouk sa ki gen senkantan, tou sa ki gen laj pou f\u00e8 pati gwoup moun k'ap travay nan Tant Randevou a, osinon k'ap pote l' l\u00e8 y'ap deplase."
        },
        {
            "chapter": 4,
            "verse": 48,
            "name": "Numbers 4:48",
            "text": "Yo jwenn antou witmil senksankatreven (8.580) gason."
        },
        {
            "chapter": 4,
            "verse": 49,
            "name": "Numbers 4:49",
            "text": "Se konsa, dapre l\u00f2d Sey\u00e8 a te bay Moyiz pou p\u00e8p la, yo pran non chak gason moun Levi yo ak travay pou yo f\u00e8 ak sa pou yo pote. Se Sey\u00e8 a menm ki te bay Moyiz l\u00f2d f\u00e8 resansman sa a.  "
        }
    ]
}