{
    "translation": "Czech BKR",
    "abbreviation": "bkr",
    "lang": "cs",
    "language": "Czech",
    "direction": "LTR",
    "encoding": "UTF-8",
    "book_nr": 18,
    "book_name": "Job",
    "chapter": 2,
    "name": "Job 2",
    "verses": [
        {
            "chapter": 2,
            "verse": 1,
            "name": "Job 2:1",
            "text": "I stalo se op\u011bt jednoho dne, \u017ee kdy\u017e p\u0159i\u0161li synov\u00e9 Bo\u017e\u00ed, aby se postavili p\u0159ed Hospodinem, p\u0159i\u0161el tak\u00e9 i Satan mezi n\u011b, aby se postavil p\u0159ed Hospodinem."
        },
        {
            "chapter": 2,
            "verse": 2,
            "name": "Job 2:2",
            "text": "Tedy \u0159ekl Hospodin Satanovi: Odkud jde\u0161? I odpov\u011bd\u011bl Satan Hospodinu, \u0159ka: Proch\u00e1zel jsem zemi, a obch\u00e1zel jsem ji."
        },
        {
            "chapter": 2,
            "verse": 3,
            "name": "Job 2:3",
            "text": "I \u0159ekl Hospodin Satanovi: Spat\u0159il-lis slu\u017eebn\u00edka m\u00e9ho Joba, \u017ee nen\u00ed jemu rovn\u00e9ho na zemi, \u017ee jest mu\u017e sprostn\u00fd a up\u0159\u00edm\u00fd, boj\u00edc\u00ed se Boha, a varuj\u00edc\u00ed se zl\u00e9ho, a \u017ee po dnes trv\u00e1 v up\u0159\u00edmnosti sv\u00e9, a\u010dkoli jsi ty mne popudil proti n\u011bmu, abych jej hubil bez p\u0159\u00ed\u010diny."
        },
        {
            "chapter": 2,
            "verse": 4,
            "name": "Job 2:4",
            "text": "A odpov\u00eddaje Satan Hospodinu, \u0159ekl: K\u016f\u017ei za k\u016f\u017ei, a v\u0161ecko, co\u017e m\u00e1 \u010dlov\u011bk, d\u00e1 za sebe sam\u00e9ho."
        },
        {
            "chapter": 2,
            "verse": 5,
            "name": "Job 2:5",
            "text": "Ale vzt\u00e1hni nyn\u00ed ruku svou, a dotkni se kost\u00ed jeho, a masa jeho, nebudeli\u0165 v o\u010di zlo\u0159e\u010diti tob\u011b."
        },
        {
            "chapter": 2,
            "verse": 6,
            "name": "Job 2:6",
            "text": "Tedy \u0159ekl Hospodin Satanovi: Aj, v moci tv\u00e9 bu\u010f, a v\u0161ak zachovej ho p\u0159i \u017eivotu."
        },
        {
            "chapter": 2,
            "verse": 7,
            "name": "Job 2:7",
            "text": "Proto\u017e vy\u0161ed Satan od tv\u00e1\u0159i Hospodinovy, ranil Joba ne\u017eitem nejhor\u0161\u00edm, od zpodku nohy jeho a\u017e do vrchu hlavy jeho,"
        },
        {
            "chapter": 2,
            "verse": 8,
            "name": "Job 2:8",
            "text": "Tak \u017ee vzal st\u0159epinu, aby se j\u00ed drbal, usadiv se v popele."
        },
        {
            "chapter": 2,
            "verse": 9,
            "name": "Job 2:9",
            "text": "I \u0159ekla jemu \u017eena jeho: Je\u0161t\u011b v\u017edy trv\u00e1\u0161 v sv\u00e9 up\u0159\u00edmnosti? Zlo\u0159e\u010d Bohu a um\u0159i."
        },
        {
            "chapter": 2,
            "verse": 10,
            "name": "Job 2:10",
            "text": "J\u00ed\u017eto \u0159ekl: Mluv\u00ed\u0161, jako jedna z bl\u00e1zniv\u00fdch mluv\u00edv\u00e1. Dobr\u00e9-li\u017e jen v\u011bci br\u00e1ti budeme od Boha, zl\u00fdch pak nebudeme p\u0159ij\u00edmati? V tom ve v\u0161em nezh\u0159e\u0161il Job rty sv\u00fdmi."
        },
        {
            "chapter": 2,
            "verse": 11,
            "name": "Job 2:11",
            "text": "Kdy\u017e pak usly\u0161eli t\u0159i p\u0159\u00e1tel\u00e9 Jobovi o v\u0161em tom zl\u00e9m, kter\u00e9\u017e p\u0159i\u0161lo na n\u011bj, p\u0159i\u0161li jeden ka\u017ed\u00fd z m\u00edsta sv\u00e9ho: Elifaz Temansk\u00fd, a Bildad Suchsk\u00fd a Zofar Naamatsk\u00fd, na tom z\u016fstav\u0161e spolu, aby p\u0159ijdouce k n\u011bmu, politovali ho a t\u011b\u0161ili jej."
        },
        {
            "chapter": 2,
            "verse": 12,
            "name": "Job 2:12",
            "text": "Kte\u0159\u00ed\u017e pozdvih\u0161e o\u010d\u00ed sv\u00fdch zdaleka, nepoznali ho. Potom pozdvih\u0161e hlasu sv\u00e9ho, plakali, a roztrh\u0161e jeden ka\u017ed\u00fd roucho sv\u00e9, h\u00e1zeli prachem nad hlavy sv\u00e9 zh\u016fru."
        },
        {
            "chapter": 2,
            "verse": 13,
            "name": "Job 2:13",
            "text": "A sed\u011bli s n\u00edm na zemi sedm dn\u00ed a sedm noc\u00ed, a \u017e\u00e1dn\u00fd k n\u011bmu nepromluvil slova; nebo vid\u011bli, \u017ee se velmi rozmohla bolest jeho. "
        }
    ]
}