{
    "translation": "Cherokee New Testament (1860)",
    "abbreviation": "che1860",
    "lang": "chr",
    "language": "Cherokee",
    "direction": "LTR",
    "encoding": "UTF-8",
    "book_nr": 61,
    "book_name": "2 Peter",
    "chapter": 1,
    "name": "2 Peter 1",
    "verses": [
        {
            "chapter": 1,
            "verse": 1,
            "name": "2 Peter 1:1",
            "text": "\u13a0\u13f4 \u13cc\u13e9\u13c2 \u13c8\u13d3, \u13a0\u13b8\u13be\u13dd\u13a2 \u13a0\u13b4 \u13a0\u13a9\u13c5\u13cf\u13db \u13e5\u13cc \u13a6\u13b6\u13c1\u13db, \u13a6\u13e5\u13f2\u13ea\u13b3\u13cf \u13be\u13cd\u13a9 \u13be \u13a8\u13e5\u13c1\u13b8\u13af \u13e5\u13a9 \u13a3\u13a9\u13c1\u13b8 \u13be\u13cd\u13a9\u13ef\u13a2, \u13a6\u13b8\u13c9\u13d7\u13f3 \u13aa\u13af\u13f3\u13d7 \u13a8\u13d2 \u13c5\u13d3\u13f3\u13d3\u13b4\u13c5\u13c1 \u13a4\u13d3\u13c5\u13d8\u13f3 \u13a8\u13d2 \u13a2\u13a6\u13c1\u13b3\u13c5\u13af \u13a0\u13b4 \u13a2\u13a9\u13cd\u13d5\u13b5\u13cd\u13a9 \u13e5\u13cc \u13a6\u13b6\u13c1\u13db."
        },
        {
            "chapter": 1,
            "verse": 2,
            "name": "2 Peter 1:2",
            "text": "\u13ac\u13e9\u13a6\u13d8\u13ef \u13a4\u13d3\u13d9\u13b5\u13cd\u13d7 \u13a8\u13d2 \u13a0\u13b4 \u13c5\u13e9\u13d9\u13af\u13ef\u13db \u13a1\u13e5\u13c1\u13c9\u13a1\u13d7 \u13a8\u13ce\u13cd\u13d7 \u13c5\u13d3\u13f3\u13d3\u13b4\u13c5\u13af \u13a0\u13a6\u13d9\u13a5\u13af\u13cd\u13d7 \u13a8\u13d2 \u13a4\u13c1\u13b3\u13c5\u13af \u13a0\u13b4 \u13e5\u13cc \u13a2\u13a6\u13e4\u13b5 \u13a4\u13ac\u13eb\u13f3\u13af."
        },
        {
            "chapter": 1,
            "verse": 3,
            "name": "2 Peter 1:3",
            "text": "\u13be\u13cd\u13a9\u13ef \u13a4\u13e4\u13b5 \u13a4\u13b5\u13c2\u13a9\u13d7 \u13a8\u13d2 \u13a4\u13e9\u13d4\u13c5\u13a2 \u13a2\u13a9\u13c1\u13b8\u13af \u13e5\u13a9 \u13c4\u13d3\u13b4\u13d2 \u13aa\u13b1\u13cd\u13d7 \u13d5\u13db\u13c5 \u13a4\u13ac\u13e9\u13b5 \u13a0\u13b4 \u13a4\u13c1\u13b3\u13c5\u13af \u13a6\u13be\u13f0\u13af\u13cd\u13d7 \u13a8\u13d2 \u13a4\u13ac\u13e9\u13b5, \u13c5\u13d3\u13f3\u13d3\u13b4\u13c5\u13af \u13a0\u13a6\u13d9\u13a5\u13af\u13cd\u13d7 \u13a8\u13d2 \u13be\u13cd\u13a9 \u13be \u13a2\u13a9\u13ef\u13c5\u13db \u13e5\u13a9 \u13ac\u13d4\u13c5\u13af \u13a6\u13b8\u13c9\u13d7\u13f3 \u13a8\u13d2 \u13a0\u13b4 \u13da\u13f3\u13aa\u13db \u13a2\u13cd\u13db\u13c1\u13d7 \u13a8\u13d2\u13a2."
        },
        {
            "chapter": 1,
            "verse": 4,
            "name": "2 Peter 1:4",
            "text": "\u13a4\u13cd\u13a9 \u13be\u13bf \u13ed\u13d3\u13aa\u13be\u13db\u13d4\u13c5\u13af \u13a1\u13c9\u13af\u13f3 \u13a0\u13b4 \u13a6\u13b8\u13c9\u13d7\u13f3 \u13a1\u13a9\u13da\u13a2\u13cd\u13d3\u13c1\u13b8\u13af \u13e5\u13a9, \u13be\u13cd\u13a9 \u13af\u13a0 \u13d5\u13e8\u13d7\u13cd\u13ac \u13a8\u13e3\u13e0\u13ef \u13cd\u13d9\u13d7 \u13f1\u13c2\u13a6\u13b5\u13cd\u13d3 \u13a4\u13c1\u13b3\u13c5\u13af \u13c4\u13cd\u13db\u13a2, \u13a1\u13e3\u13d7\u13eb\u13ce\u13b8\u13af \u13a8\u13d2 \u13a4\u13f2\u13a2 \u13a1\u13b6\u13af \u13e4\u13ad \u13a0\u13da\u13b8\u13d7 \u13a8\u13d2 \u13e8\u13d7\u13d3\u13b4\u13b2\u13cd\u13a6."
        },
        {
            "chapter": 1,
            "verse": 5,
            "name": "2 Peter 1:5",
            "text": "\u13be\u13cd\u13a9 \u13a2\u13f3\u13cd\u13d7 \u13a4\u13e3\u13d8 \u13a2\u13b6\u13df\u13c2\u13ac\u13c1\u13b2 \u13a2\u13e6\u13af\u13f3\u13d2 \u13d4\u13b5 \u13a2\u13e8\u13d7\u13cd\u13a8\u13cd\u13d7 \u13da\u13f3\u13aa\u13db \u13a2\u13ef\u13db\u13c1\u13d7 \u13a8\u13d2\u13a2; \u13a0\u13b4 \u13da\u13f3\u13aa\u13db \u13a2\u13ef\u13db\u13c1\u13d7 \u13a8\u13d2 \u13d4\u13b5 \u13a2\u13e8\u13d7\u13cd\u13a8\u13cd\u13d7 \u13a0\u13aa\u13d9\u13a5\u13af\u13cd\u13d7 \u13a8\u13d2\u13a2;"
        },
        {
            "chapter": 1,
            "verse": 6,
            "name": "2 Peter 1:6",
            "text": "\u13a0\u13a6\u13d9\u13a5\u13af\u13cd\u13d7\u13c3 \u13a8\u13d2 \u13d4\u13b5 \u13a2\u13e8\u13d7\u13cd\u13a8\u13cd\u13d7 \u13a0\u13b5\u13cf\u13be\u13af\u13cd\u13d9\u13d7 \u13a8\u13d2\u13a2; \u13a0\u13b5\u13cf\u13be\u13af\u13cd\u13d9\u13d7\u13c3 \u13a8\u13d2 \u13d4\u13b5\u13a2\u13e8\u13d7\u13cd\u13a8\u13cd\u13d7 \u13d7\u13e8\u13c2\u13d7\u13f3 \u13a8\u13d2\u13a2; \u13d7\u13e3\u13c2\u13d7\u13f3\u13c3 \u13a8\u13d2 \u13d4\u13b5 \u13a2\u13e8\u13d7\u13cd\u13a8\u13cd\u13d7 \u13a4\u13c1\u13b3\u13c5\u13af \u13a6\u13be\u13f0\u13af\u13cd\u13d7 \u13a8\u13d2\u13a2;"
        },
        {
            "chapter": 1,
            "verse": 7,
            "name": "2 Peter 1:7",
            "text": "\u13a4\u13c1\u13b3\u13c5\u13af\u13c3 \u13a6\u13be\u13f0\u13af\u13cd\u13d7 \u13a8\u13d2 \u13d4\u13b5 \u13a2\u13e8\u13d7\u13cd\u13a8\u13cd\u13d7 \u13a0\u13be\u13b5\u13c5\u13e2 \u13d7\u13a8\u13f3\u13d7 \u13a8\u13d2\u13a2; \u13a0\u13be\u13b5\u13c5\u13e2\u13c3 \u13d7\u13a8\u13f3\u13d7 \u13a8\u13d2 \u13d4\u13b5 \u13a2\u13e8\u13d7\u13cd\u13a8\u13cd\u13d7 \u13a2\u13ac\u13c2\u13a2\u13db\u13c9 \u13d7\u13a8\u13f3\u13d7 \u13a8\u13d2\u13a2."
        },
        {
            "chapter": 1,
            "verse": 8,
            "name": "2 Peter 1:8",
            "text": "\u13f3\u13f0\u13c3 \u13be\u13cd\u13a9 \u13af\u13a0 \u13e7\u13d3\u13b4\u13c5\u13db \u13a3\u13e4\u13ad \u13a0\u13b4 \u13f1\u13a7\u13c1\u13c9\u13a6, \u13be\u13cd\u13a9 \u13f1\u13c2\u13ac\u13c2\u13cc \u13a5\u13dd \u13a2\u13e5\u13cd\u13a6\u13c3\u13b8 \u13a0\u13b4 \u13c2\u13e5\u13c1\u13c9\u13e3\u13db\u13be \u13f1\u13a6\u13a9 \u13a0\u13a6\u13d9\u13a5\u13af\u13cd\u13d7 \u13a8\u13d2 \u13e5\u13cc \u13a6\u13b6\u13c1\u13db \u13a4\u13ac\u13eb\u13f3\u13af \u13a2\u13a6\u13e4\u13b5\u13a6."
        },
        {
            "chapter": 1,
            "verse": 9,
            "name": "2 Peter 1:9",
            "text": "\u13c4\u13ea\u13b2\u13be\u13cd\u13a9\u13c2 \u13be\u13cd\u13a9 \u13af\u13a0 \u13e7\u13d3\u13b4\u13c5\u13db \u13be\u13cd\u13a9 \u13d7\u13a8\u13eb\u13c9 \u13a0\u13b4 \u13a2\u13f4\u13db \u13ac\u13e9\u13aa\u13e9\u13db\u13d7 \u13c2\u13a8\u13d2\u13be, \u13a0\u13b4 \u13a4\u13e9\u13a8\u13eb\u13d2\u13af \u13a0\u13e5\u13c5\u13a6\u13b8\u13db \u13a8\u13d2 \u13a2\u13b8\u13af\u13f3 \u13a4\u13cd\u13a6\u13c5\u13e5\u13d9\u13b8\u13a2."
        },
        {
            "chapter": 1,
            "verse": 10,
            "name": "2 Peter 1:10",
            "text": "\u13be\u13cd\u13a9 \u13a2\u13f3\u13cd\u13d7 \u13a2\u13d3\u13b5\u13c5\u13df \u13a4\u13df \u13a2\u13a6\u13a2 \u13a2\u13e3\u13df\u13c2\u13ac\u13c1\u13ae\u13cd\u13d7 \u13c4\u13dc\u13cf\u13db\u13d2\u13be \u13a2\u13e8\u13c1\u13d7\u13f1 \u13a1\u13e5\u13ef\u13c5\u13b2 \u13a0\u13b4 \u13a1\u13e3\u13d1\u13f0\u13d2\u13a2; \u13a2\u13f3\u13f0\u13c3 \u13af\u13a0 \u13be\u13cd\u13a9 \u13e7\u13d3\u13b4\u13c5\u13db \u13f1\u13c2\u13e3\u13db\u13c1\u13ad, \u13a5\u13dd \u13a2\u13b8\u13af\u13f3 \u13f1\u13d9\u13a8\u13e5\u13c5\u13a9."
        },
        {
            "chapter": 1,
            "verse": 11,
            "name": "2 Peter 1:11",
            "text": "\u13be\u13cd\u13a9\u13f0\u13c3 \u13c2\u13e3\u13db\u13c1\u13b2 \u13a4\u13e3\u13d4\u13c5\u13af \u13a1\u13e5\u13c1\u13d7 \u13a8\u13ce\u13cd\u13d7 \u13a2\u13e5\u13f4\u13cd\u13d7\u13f1 \u13a4\u13b5\u13cd\u13c6\u13d7\u13cd\u13d7 \u13c2\u13a8\u13d2\u13be \u13a4\u13ac\u13eb\u13f3\u13af \u13d7\u13a8\u13d2 \u13a2\u13a6\u13e4\u13b5 \u13a4\u13ac\u13eb\u13f3\u13af \u13a0\u13b4 \u13a2\u13a9\u13cd\u13d5\u13b5\u13cd\u13a9 \u13e5\u13cc \u13a6\u13b6\u13c1\u13db."
        },
        {
            "chapter": 1,
            "verse": 12,
            "name": "2 Peter 1:12",
            "text": "\u13be\u13cd\u13a9 \u13a2\u13f3\u13cd\u13d7 \u13a5\u13dd \u13a4\u13c1\u13b3\u13a9 \u13f4\u13d3\u13a8\u13b5\u13cf \u13c2\u13aa\u13af\u13b8 \u13a2\u13e8\u13ef\u13c5\u13d3\u13d7\u13cd\u13d9\u13d7\u13f1 \u13be\u13cd\u13a9 \u13af\u13a0 \u13e7\u13d3\u13b4\u13c5\u13db, \u13a2\u13e5\u13a6\u13b3\u13ad\u13cd\u13a9\u13c2\u13c3\u13c5, \u13a0\u13b4 \u13d5\u13e3\u13b5\u13c2\u13aa\u13d2 \u13be\u13bf \u13da\u13f3\u13aa\u13db \u13a8\u13d2 \u13aa\u13af \u13e5\u13e3\u13db\u13a9\u13ad."
        },
        {
            "chapter": 1,
            "verse": 13,
            "name": "2 Peter 1:13",
            "text": "\u13a5\u13a5, \u13da\u13f3\u13aa\u13d7 \u13a8\u13b5\u13ad \u13a2\u13aa\u13af\u13db \u13a0\u13c2 \u13af\u13a0 \u13a6\u13b5\u13e6\u13db \u13e5\u13ef\u13a5\u13a2, \u13a2\u13e8\u13f0\u13cd\u13db\u13d9\u13d7\u13f1 \u13a2\u13e8\u13ef\u13c5\u13d3\u13d7\u13cd\u13d7\u13cd\u13ac\u13a2;"
        },
        {
            "chapter": 1,
            "verse": 14,
            "name": "2 Peter 1:14",
            "text": "\u13c5\u13d7\u13a6\u13b5\u13cd\u13d9\u13d7\u13cd\u13ac \u13e5\u13a6\u13d4\u13b2 \u13c2\u13aa\u13af\u13b8\u13be\u13c9 \u13a2\u13f4\u13db \u13a0\u13a9\u13d7\u13f1 \u13a8\u13d2 \u13a0\u13c6\u13e4\u13b5 \u13a6\u13b5\u13e6\u13db\u13a2, \u13be\u13cd\u13a9\u13ef \u13a4\u13ac\u13eb\u13f3\u13af \u13a2\u13a6\u13e4\u13b5 \u13e5\u13cc \u13a6\u13b6\u13c1\u13db \u13ac\u13c2\u13a8\u13d2 \u13be\u13cb\u13c1\u13b8\u13a2."
        },
        {
            "chapter": 1,
            "verse": 15,
            "name": "2 Peter 1:15",
            "text": "\u13a0\u13b4 \u13d3\u13a6\u13df\u13c2\u13ac\u13c1\u13b5 \u13a0\u13a9\u13b6\u13d0\u13c5\u13af \u13a8\u13ce\u13cd\u13d7 \u13c2\u13aa\u13af\u13b8 \u13a8\u13e8\u13a8\u13eb\u13cd\u13d7 \u13c2\u13a8\u13d2\u13be \u13a2\u13f3\u13b5\u13cd\u13d9\u13d7\u13f1, \u13be\u13cd\u13a9 \u13af\u13a0 \u13e7\u13d3\u13b4\u13c5\u13db."
        },
        {
            "chapter": 1,
            "verse": 16,
            "name": "2 Peter 1:16",
            "text": "\u13a5\u13dd\u13f0\u13c3 \u13a0\u13b5\u13cf\u13be\u13af\u13cd\u13d4\u13c5\u13af \u13a0\u13ce\u13c9 \u13a6\u13ec\u13c2\u13af\u13cd\u13d7 \u13a8\u13d2 \u13f2\u13a9\u13cd\u13d3\u13e9\u13db\u13ce \u13ac\u13c2\u13a8\u13d2 \u13c2\u13e8\u13f4\u13c1\u13b8 \u13a4\u13b5\u13c2\u13a9\u13d7 \u13a8\u13d2 \u13a0\u13b4 \u13a4\u13b7\u13af\u13cd\u13d7 \u13a8\u13d2 \u13a2\u13a6\u13e4\u13b5 \u13a4\u13ac\u13eb\u13f3\u13af \u13e5\u13cc \u13a6\u13b6\u13c1\u13db; \u13f1\u13a9\u13aa\u13b2\u13af\u13cd\u13a9\u13c2 \u13a8\u13d2\u13a9 \u13a6\u13b8\u13c9\u13d7\u13f3 \u13a8\u13d2 \u13a4\u13e4\u13b5\u13a6."
        },
        {
            "chapter": 1,
            "verse": 17,
            "name": "2 Peter 1:17",
            "text": "\u13a4\u13c1\u13b3\u13c5\u13af\u13f0\u13c3 \u13a0\u13a6\u13f4\u13b5\u13a8 \u13a4\u13b5\u13cd\u13aa\u13b8\u13d3\u13c1\u13b8\u13a9 \u13a6\u13b8\u13c9\u13d7\u13f3 \u13a8\u13d2 \u13a0\u13b4 \u13a2\u13a6\u13da\u13b8\u13cc\u13db\u13a2, \u13be\u13af\u13f3 \u13a7\u13c1\u13ac \u13e7\u13b7\u13e4\u13b8 \u13a4\u13e3\u13d8 \u13a6\u13b8\u13c9\u13d7\u13f3 \u13a2\u13a6-\u13da\u13b8\u13cc\u13db \u13c5\u13d3\u13f3\u13d3\u13b4\u13a4\u13af, [\u13af\u13a0 \u13e5\u13c2\u13a6\u13ea\u13cd\u13ac\u13a9,] \u13af\u13a0 \u13e5\u13a8\u13f3\u13a2 \u13a0\u13c7\u13e5, \u13be\u13cd\u13a9 \u13a3\u13cf\u13f3 \u13e5\u13f0\u13b8\u13a2 \u13e5\u13a9."
        },
        {
            "chapter": 1,
            "verse": 18,
            "name": "2 Peter 1:18",
            "text": "\u13be\u13cd\u13a9\u13c3 \u13af\u13a0 \u13a4\u13c1\u13e8 \u13a6\u13b8\u13b3\u13d7 \u13c5\u13d3\u13f3\u13b6\u13d2\u13af \u13a3\u13a6\u13db\u13a6\u13c5\u13a9, \u13be\u13af\u13f3 \u13a6\u13b8\u13c9\u13d7 \u13a3\u13d3\u13b8 \u13a2\u13e7\u13b3\u13ad \u13a3\u13e4\u13d9\u13b2\u13a2."
        },
        {
            "chapter": 1,
            "verse": 19,
            "name": "2 Peter 1:19",
            "text": "\u13a0\u13b4 \u13be\u13cd\u13c9 \u13a4\u13df \u13a2\u13a6\u13a2 \u13c4\u13dc\u13cf\u13db\u13d2\u13be \u13a7\u13c3\u13ae\u13db \u13a0\u13d9\u13b4\u13b0\u13d2\u13af \u13a2\u13a9\u13ad, \u13be\u13cd\u13a9 \u13a3\u13cf\u13f3 \u13f1\u13c2\u13e3\u13db\u13a6 \u13f1\u13e3\u13a6\u13cc\u13ef\u13cd\u13d4\u13c5 \u13be\u13cd\u13a9\u13ef \u13a2\u13a6-\u13da\u13b8\u13cc\u13db \u13a4\u13b5\u13cf\u13ac \u13e8\u13a6\u13cc\u13ef\u13cd\u13d7\u13cd\u13aa\u13a2, \u13ac\u13c2 \u13a2\u13a6 \u13d3\u13a6\u13d9\u13a9, \u13a0\u13b4 \u13d1\u13be\u13b4 \u13a1\u13af \u13c3\u13c8\u13cf \u13d3\u13a7\u13b8\u13a9 \u13d7\u13e5\u13be\u13eb\u13f1;"
        },
        {
            "chapter": 1,
            "verse": 20,
            "name": "2 Peter 1:20",
            "text": "\u13a2\u13ac\u13f1 \u13be\u13cd\u13a9 \u13af\u13a0 \u13c2\u13e5\u13a6\u13d9\u13a5\u13ce\u13cd\u13d7 \u13be\u13cd\u13a9 \u13cc\u13c9 \u13a4\u13c5 \u13a0\u13d9\u13b4\u13b0\u13d2\u13af \u13aa\u13ea\u13b8\u13a2 \u13a4\u13e9\u13d2 \u13a8\u13d2 \u13d7\u13ac\u13c1\u13e2\u13d9\u13d7 \u13c2\u13a8\u13d2\u13be \u13a8\u13d2\u13a2."
        },
        {
            "chapter": 1,
            "verse": 21,
            "name": "2 Peter 1:21",
            "text": "\u13a4\u13be\u13d9\u13b4\u13b0\u13d2\u13f0\u13c3 \u13a2\u13b8\u13af\u13f3 \u13e5\u13a8\u13ce\u13a2 \u13a5\u13dd \u13f4\u13eb\u13c9 \u13a0\u13d3\u13c5\u13d6\u13cd\u13ac \u13f4\u13d7\u13d3\u13b4\u13c1\u13a2; \u13a0\u13c3\u13cd\u13db\u13cd\u13a9\u13c2 \u13a0\u13c2\u13cd\u13a6\u13ef \u13a4\u13c1\u13b3\u13c5\u13af \u13e7\u13e4\u13b5\u13a6 \u13a0\u13c2\u13c1\u13a8 \u13a2\u13f3\u13c2\u13ea\u13cd\u13d7\u13f1 \u13c4\u13c5\u13c1\u13b2 \u13a6\u13b8\u13c9\u13d7\u13f3 \u13a0\u13d3\u13c5\u13d9."
        }
    ]
}