{
    "translation": "Green's Literal Translation",
    "abbreviation": "litv",
    "lang": "en",
    "language": "English",
    "direction": "LTR",
    "encoding": "",
    "book_nr": 16,
    "book_name": "Nehemiah",
    "chapter": 10,
    "name": "Nehemiah 10",
    "verses": [
        {
            "chapter": 10,
            "verse": 1,
            "name": "Nehemiah 10:1",
            "text": "And the ones being sealed were Nehemiah the governor, the son of Hachaliah, and Zidkijah, "
        },
        {
            "chapter": 10,
            "verse": 2,
            "name": "Nehemiah 10:2",
            "text": "Seraiah, Azariah, Jeremiah, "
        },
        {
            "chapter": 10,
            "verse": 3,
            "name": "Nehemiah 10:3",
            "text": "Pashur, Amariah, Malchijah, "
        },
        {
            "chapter": 10,
            "verse": 4,
            "name": "Nehemiah 10:4",
            "text": "Hattush, Shebaniah, Malluch, "
        },
        {
            "chapter": 10,
            "verse": 5,
            "name": "Nehemiah 10:5",
            "text": "Harim, Meremoth, Obadiah, "
        },
        {
            "chapter": 10,
            "verse": 6,
            "name": "Nehemiah 10:6",
            "text": "Daniel, Ginnethon, Baruch, "
        },
        {
            "chapter": 10,
            "verse": 7,
            "name": "Nehemiah 10:7",
            "text": "Meshullam, Abijah, Mijamin, "
        },
        {
            "chapter": 10,
            "verse": 8,
            "name": "Nehemiah 10:8",
            "text": "Maaziah, Bilgai, Shemaiah. These were the priests. "
        },
        {
            "chapter": 10,
            "verse": 9,
            "name": "Nehemiah 10:9",
            "text": "And the Levites were both Jeshua the son of Azaniah, Binnui, of the sons of Henadad, Kadmiel, "
        },
        {
            "chapter": 10,
            "verse": 10,
            "name": "Nehemiah 10:10",
            "text": "and their brothers, Shebaniah, Hodijah, Kelita, Pelaiah, Hanan, "
        },
        {
            "chapter": 10,
            "verse": 11,
            "name": "Nehemiah 10:11",
            "text": "Micha, Rehob, Hashabiah, "
        },
        {
            "chapter": 10,
            "verse": 12,
            "name": "Nehemiah 10:12",
            "text": "Zaccur, Sherebiah, Shebaniah, "
        },
        {
            "chapter": 10,
            "verse": 13,
            "name": "Nehemiah 10:13",
            "text": "Hodijah, Bani, Beninu. "
        },
        {
            "chapter": 10,
            "verse": 14,
            "name": "Nehemiah 10:14",
            "text": "The rulers of the people were Parosh, Pahath-moab, Elam, Zatthu, Bani, "
        },
        {
            "chapter": 10,
            "verse": 15,
            "name": "Nehemiah 10:15",
            "text": "Bunni, Azgad, Bebai, "
        },
        {
            "chapter": 10,
            "verse": 16,
            "name": "Nehemiah 10:16",
            "text": "Adonijah, Bigvai, Adin, "
        },
        {
            "chapter": 10,
            "verse": 17,
            "name": "Nehemiah 10:17",
            "text": "Ater, Hizkijah, Azzur, "
        },
        {
            "chapter": 10,
            "verse": 18,
            "name": "Nehemiah 10:18",
            "text": "Hodijah, Hashum, Bezai, "
        },
        {
            "chapter": 10,
            "verse": 19,
            "name": "Nehemiah 10:19",
            "text": "Hariph, Anathoth, Nebai, "
        },
        {
            "chapter": 10,
            "verse": 20,
            "name": "Nehemiah 10:20",
            "text": "Magpiash, Meshullam, Hezir, "
        },
        {
            "chapter": 10,
            "verse": 21,
            "name": "Nehemiah 10:21",
            "text": "Meshezabeel, Zadok, Jaddua, "
        },
        {
            "chapter": 10,
            "verse": 22,
            "name": "Nehemiah 10:22",
            "text": "Pelatiah, Hanan, Anaiah, "
        },
        {
            "chapter": 10,
            "verse": 23,
            "name": "Nehemiah 10:23",
            "text": "Hoshea, Hananiah, Hashub, "
        },
        {
            "chapter": 10,
            "verse": 24,
            "name": "Nehemiah 10:24",
            "text": "Hallohesh, Pileha, Shobek, "
        },
        {
            "chapter": 10,
            "verse": 25,
            "name": "Nehemiah 10:25",
            "text": "Rehum, Hashabnah, Maaseiah, "
        },
        {
            "chapter": 10,
            "verse": 26,
            "name": "Nehemiah 10:26",
            "text": "and Ahijah, Hanan, Anan, "
        },
        {
            "chapter": 10,
            "verse": 27,
            "name": "Nehemiah 10:27",
            "text": "Malluch, Harim, Baanah. "
        },
        {
            "chapter": 10,
            "verse": 28,
            "name": "Nehemiah 10:28",
            "text": "And the rest of the people the priests, the Levites, the gatekeepers, the singers, the temple-slaves, and all those who separated from the people of the lands to the Law of God, their wives, their sons, and their daughters, all knowing and discerning ones , "
        },
        {
            "chapter": 10,
            "verse": 29,
            "name": "Nehemiah 10:29",
            "text": " were holding fast to their brothers, their honored ones; and were entering into a curse and into an oath, to walk in God's law which was given by Moses the servant of God, and to keep and to do all the commandments of Jehovah our Lord, and His judgments and His statutes. "
        },
        {
            "chapter": 10,
            "verse": 30,
            "name": "Nehemiah 10:30",
            "text": "And we swore that we would not give our daughters to the people of the land nor take their daughters for our sons. "
        },
        {
            "chapter": 10,
            "verse": 31,
            "name": "Nehemiah 10:31",
            "text": "And if the people of the land should bring goods or any food to sell on the Sabbath, we would not take from them on the Sabbath, or on the holy day. And they would forego the seventh year, and the interest of every hand.   "
        },
        {
            "chapter": 10,
            "verse": 32,
            "name": "Nehemiah 10:32",
            "text": "Also, we put commands on ourselves, to charge ourselves yearly with the third part of a shekel for the service of the house of our God, "
        },
        {
            "chapter": 10,
            "verse": 33,
            "name": "Nehemiah 10:33",
            "text": "for the Bread of Arrangement, and for the continual food offering, and for the continual burnt offering, of the sabbaths, of the new moons, for the set feasts, and for the holy things , and for the sin offerings to make atonement for Israel, and all the work of the house of God. "
        },
        {
            "chapter": 10,
            "verse": 34,
            "name": "Nehemiah 10:34",
            "text": "And we made fall the lots among the priests, and the Levites, and the people, for the wood offering, to bring it into the house of our God, according to the houses of our fathers, at times appointed year by year, to burn on the altar of Jehovah our God, as it is written in the Law; "
        },
        {
            "chapter": 10,
            "verse": 35,
            "name": "Nehemiah 10:35",
            "text": "also to bring the firstfruits of our ground, and the firstfruits of all fruit of all trees, year by year, to the house of Jehovah; "
        },
        {
            "chapter": 10,
            "verse": 36,
            "name": "Nehemiah 10:36",
            "text": "also to bring the first-born of our sons, and of our cattle, as it is written in the Law; and the firstlings of our herds and of our flocks to the house of our God, to the priests who minister in the house of our God. "
        },
        {
            "chapter": 10,
            "verse": 37,
            "name": "Nehemiah 10:37",
            "text": "And that we should bring the firstfruits of our dough, and our offerings, and the fruit of all kinds of trees, of wine, and of oil, to the priests, to the rooms of the house of our God; and the tithes of our ground to the Levites; and they, the Levites, might have the tithes in all the cities we worked. "
        },
        {
            "chapter": 10,
            "verse": 38,
            "name": "Nehemiah 10:38",
            "text": "And the priest, the son of Aaron, shall be with the Levites, tithing the Levites; and the Levites shall bring up the tithes of the tithes to the house of our God to the rooms, into the treasure house. "
        },
        {
            "chapter": 10,
            "verse": 39,
            "name": "Nehemiah 10:39",
            "text": "For the sons of Israel, and the sons of Levi, shall bring the offering of the grain, of the new wine, and the oil, to the rooms, and there shall be the vessels of the sanctuary, and the priests ministering, and the gatekeepers and the singers. And we will not forsake the house of our God.  "
        }
    ]
}