{
    "translation": "Turkish",
    "abbreviation": "turkish",
    "lang": "tr",
    "language": "Turkish",
    "direction": "LTR",
    "encoding": "UTF-8",
    "book_nr": 38,
    "book_name": "Zechariah",
    "chapter": 4,
    "name": "Zechariah 4",
    "verses": [
        {
            "chapter": 4,
            "verse": 1,
            "name": "Zechariah 4:1",
            "text": "  Benimle konu\u015fan melek yine geldi ve uykudan uyand\u0131r\u0131r gibi beni uyand\u0131rd\u0131."
        },
        {
            "chapter": 4,
            "verse": 2,
            "name": "Zechariah 4:2",
            "text": " \u201cNe g\u00f6r\u00fcyorsun?\u201d diye sordu.   \u201cSom alt\u0131n bir kandillik g\u00f6r\u00fcyorum\u201d diye yan\u0131tlad\u0131m, \u201cTepesinde zeytinya\u011f\u0131 i\u00e7in bir tas, \u00fczerinde yedi kandil, kandillerde yedi\u015fer oluk var."
        },
        {
            "chapter": 4,
            "verse": 3,
            "name": "Zechariah 4:3",
            "text": " Ayr\u0131ca kandilli\u011fin yan\u0131nda, biri zeytinya\u011f\u0131 tas\u0131n\u0131n sa\u011f\u0131nda, \u00f6b\u00fcr\u00fc solunda iki zeytin a\u011fac\u0131 da var.\u201d "
        },
        {
            "chapter": 4,
            "verse": 4,
            "name": "Zechariah 4:4",
            "text": "Benimle konu\u015fan mele\u011fe, \u201cBunlar\u0131n anlam\u0131 nedir, efendim?\u201d diye sordum. "
        },
        {
            "chapter": 4,
            "verse": 5,
            "name": "Zechariah 4:5",
            "text": "Melek, \u201cBunlar\u0131n anlam\u0131n\u0131 bilmiyor musun?\u201d diye kar\u015f\u0131l\u0131k verdi.   \u201cHay\u0131r, efendim\u201d dedim. "
        },
        {
            "chapter": 4,
            "verse": 6,
            "name": "Zechariah 4:6",
            "text": " Bunun \u00fczerine \u015f\u00f6yle dedi: \u201cRAB Zerubbabil\u2019e, \u2018G\u00fc\u00e7le kuvvetle de\u011fil, ancak benim Ruhum\u2019la ba\u015faracaks\u0131n\u2019 diyor. B\u00f6yle diyor Her \u015eeye Egemen RAB."
        },
        {
            "chapter": 4,
            "verse": 7,
            "name": "Zechariah 4:7",
            "text": "Sen kim oluyorsun, ey ulu da\u011f? Zerubbabil\u2019in \u00f6n\u00fcnde bir d\u00fczl\u00fck olacaks\u0131n! O tap\u0131na\u011f\u0131n son ta\u015f\u0131n\u0131 \u00e7\u0131kar\u0131rken, halk da, \u2018Ne g\u00fczel, ne g\u00fczel!\u2019 diye ba\u011f\u0131racak.\u201d "
        },
        {
            "chapter": 4,
            "verse": 8,
            "name": "Zechariah 4:8",
            "text": "RAB bana yine seslendi:"
        },
        {
            "chapter": 4,
            "verse": 9,
            "name": "Zechariah 4:9",
            "text": "\u201cBu tap\u0131na\u011f\u0131n temelini Zerubbabil\u2019in elleri att\u0131, tap\u0131na\u011f\u0131 tamamlayacak olan da onun elleridir. O zaman beni size Her \u015eeye Egemen RAB\u2019bin g\u00f6nderdi\u011fini anlayacaks\u0131n\u0131z. "
        },
        {
            "chapter": 4,
            "verse": 10,
            "name": "Zechariah 4:10",
            "text": " \u201cK\u00fc\u00e7\u00fck i\u015fleri yapma g\u00fcn\u00fcn\u00fc kim k\u00fc\u00e7\u00fcms\u00fcyor? \u0130nsanlar Zerubbabil\u2019in elinde \u00e7ek\u00fcl\u00fc g\u00f6r\u00fcnce sevinecekler.   \u2013\u201cBu yedi kandil RAB\u2019bin b\u00fct\u00fcn yery\u00fcz\u00fcnde dola\u015fan g\u00f6zleridir.\u201d\u2013 "
        },
        {
            "chapter": 4,
            "verse": 11,
            "name": "Zechariah 4:11",
            "text": "Mele\u011fe, \u201cKandilli\u011fin sa\u011f\u0131ndaki ve solundaki bu iki zeytin a\u011fac\u0131 nedir?\u201d diye sordum,"
        },
        {
            "chapter": 4,
            "verse": 12,
            "name": "Zechariah 4:12",
            "text": "\u201cAlt\u0131n gibi ya\u011f ak\u0131tan iki alt\u0131n olu\u011fun yan\u0131ndaki bu iki zeytin dal\u0131 nedir?\u201d "
        },
        {
            "chapter": 4,
            "verse": 13,
            "name": "Zechariah 4:13",
            "text": "\u201cBunlar\u0131n anlam\u0131n\u0131 bilmiyor musun?\u201d diye kar\u015f\u0131l\u0131k verdi.   \u201cHay\u0131r, efendim\u201d dedim. "
        },
        {
            "chapter": 4,
            "verse": 14,
            "name": "Zechariah 4:14",
            "text": "Melek, \u201cBunlar b\u00fct\u00fcn d\u00fcnyan\u0131n Rabbi\u2019ne hizmet eden, zeytinya\u011f\u0131yla kutsanm\u0131\u015f iki ki\u015fidir\u201d diye a\u00e7\u0131klad\u0131.   "
        }
    ]
}