{
    "translation": "La Bible Augustin Crampon 1923",
    "abbreviation": "frecrampon",
    "lang": "fr",
    "language": "French",
    "direction": "LTR",
    "encoding": "UTF-8",
    "book_nr": 73,
    "book_name": "Sirach",
    "chapter": 21,
    "name": "Sirach 21",
    "verses": [
        {
            "chapter": 21,
            "verse": 1,
            "name": "Sirach 21:1",
            "text": "Mon fils, as-tu p\u00e9ch\u00e9? ne le fais plus, mais prie pour tes fautes pass\u00e9es."
        },
        {
            "chapter": 21,
            "verse": 2,
            "name": "Sirach 21:2",
            "text": "Fuis devant le p\u00e9ch\u00e9 comme devant un serpent; car, si tu en approches, il te mordra. Ses dents sont des dents de lion; elles donnent la mort aux hommes."
        },
        {
            "chapter": 21,
            "verse": 3,
            "name": "Sirach 21:3",
            "text": "Toute transgression est comme une \u00e9p\u00e9e \u00e0 deux tranchants; la plaie qu'elle fait est incurable."
        },
        {
            "chapter": 21,
            "verse": 4,
            "name": "Sirach 21:4",
            "text": "La menace et l'injure d\u00e9truisent la richesse; c'est ainsi que la maison de l'orgueilleux est d\u00e9truite."
        },
        {
            "chapter": 21,
            "verse": 5,
            "name": "Sirach 21:5",
            "text": "La pri\u00e8re du pauvre monte de ses l\u00e8vres \u00e0 l'oreille du riche; mais sur l'orgueilleux viendra bient\u00f4t son jugement."
        },
        {
            "chapter": 21,
            "verse": 6,
            "name": "Sirach 21:6",
            "text": "Celui qui hait la r\u00e9primande marche sur la trace du p\u00e9cheur, mais celui qui craint Dieu se tourne vers lui d'un c\u0153ur sinc\u00e8re."
        },
        {
            "chapter": 21,
            "verse": 7,
            "name": "Sirach 21:7",
            "text": "L'homme puissant par la langue se fait conna\u00eetre de loin; mais l'homme de sens sait quand il faillit."
        },
        {
            "chapter": 21,
            "verse": 8,
            "name": "Sirach 21:8",
            "text": "L'homme qui b\u00e2tit sa maison avec de l'argent qui n'est pas \u00e0 lui est comme celui qui ramasse ses pierres pour l'hiver."
        },
        {
            "chapter": 21,
            "verse": 9,
            "name": "Sirach 21:9",
            "text": "La troupe des ennemis est un amas d'\u00e9toupes; elle finira par \u00eatre la proie du feu."
        },
        {
            "chapter": 21,
            "verse": 10,
            "name": "Sirach 21:10",
            "text": "La voie des p\u00e9cheurs est pav\u00e9e de pierres, mais \u00e0 son extr\u00e9mit\u00e9 est le gouffre du sch\u00e9ol."
        },
        {
            "chapter": 21,
            "verse": 11,
            "name": "Sirach 21:11",
            "text": "Celui qui observe la loi ma\u00eetrise ses pens\u00e9es, et le r\u00e9sultat final de la crainte du Seigneur est la sagesse."
        },
        {
            "chapter": 21,
            "verse": 12,
            "name": "Sirach 21:12",
            "text": "Celui qui manque d'habilet\u00e9 ne sera pas instruit; mais il y a une habilet\u00e9 qui produit beaucoup d'amertume."
        },
        {
            "chapter": 21,
            "verse": 13,
            "name": "Sirach 21:13",
            "text": "La science du sage abonde comme une eau qui d\u00e9borde, et son conseil est une source de vie."
        },
        {
            "chapter": 21,
            "verse": 14,
            "name": "Sirach 21:14",
            "text": "L'int\u00e9rieur de l'insens\u00e9 est comme un vase f\u00eal\u00e9; il ne retiendra aucune connaissance."
        },
        {
            "chapter": 21,
            "verse": 15,
            "name": "Sirach 21:15",
            "text": "Que l'homme intelligent entende une sage parole, il en fait l'\u00e9loge et y ajoute quelque chose. Que le voluptueux l'entende, elle lui d\u00e9pla\u00eet, et il la jette derri\u00e8re lui."
        },
        {
            "chapter": 21,
            "verse": 16,
            "name": "Sirach 21:16",
            "text": "Le discours de l'insens\u00e9 est comme un fardeau en voyage, mais sur les l\u00e8vres de l'homme intelligent se trouve la gr\u00e2ce."
        },
        {
            "chapter": 21,
            "verse": 17,
            "name": "Sirach 21:17",
            "text": "On recherche dans l'assembl\u00e9e la bouche de l'homme prudent, et on m\u00e9dite ses paroles dans son c\u0153ur."
        },
        {
            "chapter": 21,
            "verse": 18,
            "name": "Sirach 21:18",
            "text": "La sagesse est pour le sot comme une maison en ruines, et la science de l'insens\u00e9 n'est que paroles incoh\u00e9rentes."
        },
        {
            "chapter": 21,
            "verse": 19,
            "name": "Sirach 21:19",
            "text": "L'instruction est pour les insens\u00e9s comme des cha\u00eenes aux pieds, et des menottes \u00e0 la main droite."
        },
        {
            "chapter": 21,
            "verse": 20,
            "name": "Sirach 21:20",
            "text": "Le sot, quand il rit, fait \u00e9clater sa voix, mais l'homme habile sourit \u00e0 peine tout bas."
        },
        {
            "chapter": 21,
            "verse": 21,
            "name": "Sirach 21:21",
            "text": "L'instruction est pour l'homme sens\u00e9 comme une parure d'or, et comme un bracelet au bras droit."
        },
        {
            "chapter": 21,
            "verse": 22,
            "name": "Sirach 21:22",
            "text": "L'insens\u00e9 entre d'un pas rapide dans la maison, mais l'homme d'exp\u00e9rience s'arr\u00eate timidement \u00e0 l'entr\u00e9e."
        },
        {
            "chapter": 21,
            "verse": 23,
            "name": "Sirach 21:23",
            "text": "L'insens\u00e9 se courbe d\u00e8s la porte pour voir dans la maison, mais l'homme bien \u00e9lev\u00e9 se tient dehors."
        },
        {
            "chapter": 21,
            "verse": 24,
            "name": "Sirach 21:24",
            "text": "C'est une grossi\u00e8ret\u00e9 pour un homme d'\u00e9couter \u00e0 la porte; l'homme sens\u00e9 s'indigne d'une action si honteuse."
        },
        {
            "chapter": 21,
            "verse": 25,
            "name": "Sirach 21:25",
            "text": "Les l\u00e8vres des insens\u00e9s ne prof\u00e8rent que sottises, mais les paroles des hommes prudents sont pes\u00e9es \u00e0 la balance."
        },
        {
            "chapter": 21,
            "verse": 26,
            "name": "Sirach 21:26",
            "text": "Dans la bouche des sots est leur c\u0153ur, mais le c\u0153ur des sages est leur bouche."
        },
        {
            "chapter": 21,
            "verse": 27,
            "name": "Sirach 21:27",
            "text": "Quand l'impie maudit son adversaire, c'est lui-m\u00eame qu'il maudit."
        },
        {
            "chapter": 21,
            "verse": 28,
            "name": "Sirach 21:28",
            "text": "Le rapporteur se souille lui-m\u00eame, et il est d\u00e9test\u00e9 de tous ceux qui l'approchent."
        },
        {
            "chapter": 21,
            "verse": 29,
            "name": "Sirach 21:29",
            "text": "."
        },
        {
            "chapter": 21,
            "verse": 30,
            "name": "Sirach 21:30",
            "text": "."
        },
        {
            "chapter": 21,
            "verse": 31,
            "name": "Sirach 21:31",
            "text": ". "
        }
    ]
}