{
  "translation": "Persian Holy Bible (Tarjumeh-ye Ghadeem)",
  "abbreviation": "faropv",
  "lang": "fa",
  "language": "Persian",
  "direction": "RTL",
  "encoding": "UTF-8",
  "nr": 29,
  "name": "Joel",
  "chapters": [
    {
      "chapter": 1,
      "name": "Joel 1",
      "verses": [
        {
          "chapter": 1,
          "verse": 1,
          "name": "Joel 1:1",
          "text": "   \u0646\u0627\u0632\u0644 \u0634\u062f.         "
        },
        {
          "chapter": 1,
          "verse": 2,
          "name": "Joel 1:2",
          "text": "\u200c\u0627\u06cc \u0645\u0634\u0627\u06cc\u062e \u0627\u06cc\u0646 \u0631\u0627 \u0628\u0634\u0646\u0648\u06cc\u062f! \u0648\u200c\u0627\u06cc \u062c\u0645\u06cc\u0639 \u0633\u0627\u06a9\u0646\u0627\u0646 \u0632\u0645\u06cc\u0646 \u0627\u06cc\u0646 \u0631\u0627 \u06af\u0648\u0634 \u06af\u06cc\u0631\u06cc\u062f! \u0622\u06cc\u0627 \u0645\u062b\u0644 \u0627\u06cc\u0646 \u062f\u0631\u0627\u06cc\u0627\u0645 \u0634\u0645\u0627 \u06cc\u0627 \u062f\u0631 \u0627\u06cc\u0627\u0645 \u067e\u062f\u0631\u0627\u0646 \u0634\u0645\u0627 \u0648\u0627\u0642\u0639 \u0634\u062f\u0647 \u0627\u0633\u062a\u061f "
        },
        {
          "chapter": 1,
          "verse": 3,
          "name": "Joel 1:3",
          "text": "\u0634\u0645\u0627 \u0627\u0632 \u0627\u06cc\u0646 \u0628\u0647 \u067e\u0633\u0631\u0627\u0646 \u062e\u0648\u062f \u0648 \u067e\u0633\u0631\u0627\u0646 \u0634\u0645\u0627 \u0628\u0647 \u067e\u0633\u0631\u0627\u0646 \u062e\u0648\u06cc\u0634 \u0648 \u067e\u0633\u0631\u0627\u0646 \u0627\u06cc\u0634\u0627\u0646 \u0628\u0647 \u0637\u0628\u0642\u0647 \u0628\u0639\u062f \u062e\u0628\u0631 \u0628\u062f\u0647\u06cc\u062f. "
        },
        {
          "chapter": 1,
          "verse": 4,
          "name": "Joel 1:4",
          "text": "\u0622\u0646\u0686\u0647 \u0627\u0632 \u0633\u0646 \u0628\u0627\u0642\u06cc \u0645\u0627\u0646\u062f\u060c \u0645\u0644\u062e \u0645\u06cc\u200c\u062e\u0648\u0631\u062f \u0648 \u0622\u0646\u0686\u0647 \u0627\u0632\u0645\u0644\u062e \u0628\u0627\u0642\u06cc \u0645\u0627\u0646\u062f\u060c \u0644\u0646\u0628\u0647 \u0645\u06cc\u200c\u062e\u0648\u0631\u062f \u0648 \u0622\u0646\u0686\u0647 \u0627\u0632 \u0644\u0646\u0628\u0647 \u0628\u0627\u0642\u06cc \u0645\u0627\u0646\u062f\u060c \u0633\u0648\u0633 \u0645\u06cc\u200c\u062e\u0648\u0631\u062f. "
        },
        {
          "chapter": 1,
          "verse": 5,
          "name": "Joel 1:5",
          "text": "\u200c\u0627\u06cc \u0645\u0633\u062a\u0627\u0646 \u0628\u06cc\u062f\u0627\u0631 \u0634\u062f\u0647\u060c \u06af\u0631\u06cc\u0647 \u06a9\u0646\u06cc\u062f \u0648\u200c\u0627\u06cc \u0647\u0645\u0647 \u0645\u06cc\u06af\u0633\u0627\u0631\u0627\u0646 \u0628\u0647 \u062c\u0647\u062a \u0639\u0635\u06cc\u0631\u0627\u0646\u06af\u0648\u0631 \u0648\u0644\u0648\u0644\u0647 \u0646\u0645\u0627\u06cc\u06cc\u062f \u0632\u06cc\u0631\u0627 \u06a9\u0647 \u0627\u0632 \u062f\u0647\u0627\u0646 \u0634\u0645\u0627 \u0645\u0646\u0642\u0637\u0639 \u0634\u062f\u0647 \u0627\u0633\u062a. "
        },
        {
          "chapter": 1,
          "verse": 6,
          "name": "Joel 1:6",
          "text": "\u0632\u06cc\u0631\u0627 \u06a9\u0647 \u0627\u0645\u062a\u06cc \u0642\u0648\u06cc \u0648 \u0628\u06cc\u0634\u0645\u0627\u0631 \u0628\u0647 \u0632\u0645\u06cc\u0646 \u0645\u0646 \u0647\u062c\u0648\u0645 \u0645\u06cc\u200c\u0622\u0648\u0631\u0646\u062f. \u062f\u0646\u062f\u0627\u0646\u0647\u0627\u06cc \u0627\u06cc\u0634\u0627\u0646 \u062f\u0646\u062f\u0627\u0646\u0647\u0627\u06cc \u0634\u06cc\u0631 \u0627\u0633\u062a \u0648 \u0627\u0636\u0631\u0627\u0633 \u0627\u06cc\u0634\u0627\u0646 \u0627\u0636\u0631\u0627\u0633 \u0647\u0698\u0628\u0631 \u0627\u0633\u062a. "
        },
        {
          "chapter": 1,
          "verse": 7,
          "name": "Joel 1:7",
          "text": "\u062a\u0627\u06a9\u0633\u062a\u0627\u0646 \u0645\u0631\u0627 \u0648\u06cc\u0631\u0627\u0646 \u0648 \u0627\u0646\u062c\u06cc\u0631\u0647\u0627\u06cc \u0645\u0631\u0627 \u062e\u0631\u0627\u0628 \u06a9\u0631\u062f\u0647 \u0648 \u067e\u0648\u0633\u062a \u0622\u0646\u0647\u0627 \u0631\u0627 \u0628\u0627\u0644\u06a9\u0644 \u06a9\u0646\u062f\u0647\u060c \u0628\u06cc\u0631\u0648\u0646 \u0627\u0646\u062f\u0627\u062e\u062a\u0647\u200c\u0627\u0646\u062f \u0648\u0634\u0627\u062e\u0647 \u0647\u0627\u06cc \u0622\u0646\u0647\u0627 \u0633\u0641\u06cc\u062f \u0634\u062f\u0647 \u0627\u0633\u062a. "
        },
        {
          "chapter": 1,
          "verse": 8,
          "name": "Joel 1:8",
          "text": "\u0645\u062b\u0644 \u062f\u062e\u062a\u0631\u06cc \u06a9\u0647 \u0628\u0631\u0627\u06cc \u0634\u0648\u0647\u0631 \u062c\u0648\u0627\u0646\u06cc \u062e\u0648\u062f \u067e\u0644\u0627\u0633 \u0645\u06cc\u200c\u067e\u0648\u0634\u062f\u060c \u0645\u0627\u062a\u0645 \u0628\u06af\u06cc\u0631. "
        },
        {
          "chapter": 1,
          "verse": 9,
          "name": "Joel 1:9",
          "text": "\u0647\u062f\u06cc\u0647 \u0622\u0631\u062f\u06cc \u0648 \u0647\u062f\u06cc\u0647 \u0631\u06cc\u062e\u062a\u0646\u06cc \u0627\u0632 \u062e\u0627\u0646\u0647 \u062e\u062f\u0627\u0648\u0646\u062f \u0645\u0646\u0642\u0637\u0639 \u0634\u062f\u0647 \u0627\u0633\u062a. \u06a9\u0627\u0647\u0646\u0627\u0646\u06cc \u06a9\u0647 \u062e\u062f\u0627\u0645 \u062e\u062f\u0627\u0648\u0646\u062f \u0647\u0633\u062a\u0646\u062f \u0645\u0627\u062a\u0645 \u0645\u06cc\u200c\u06af\u06cc\u0631\u0646\u062f. "
        },
        {
          "chapter": 1,
          "verse": 10,
          "name": "Joel 1:10",
          "text": "\u0635\u062d\u0631\u0627 \u062e\u0634\u06a9 \u0634\u062f\u0647 \u0648 \u0632\u0645\u06cc\u0646 \u0645\u0627\u062a\u0645 \u0645\u06cc\u200c\u06af\u06cc\u0631\u062f \u0632\u06cc\u0631\u0627 \u06af\u0646\u062f\u0645 \u062a\u0644\u0641 \u0634\u062f\u0647 \u0648\u0634\u06cc\u0631\u0647 \u062e\u0634\u06a9 \u06af\u0631\u062f\u06cc\u062f\u0647 \u0648 \u0631\u0648\u063a\u0646 \u0636\u0627\u06cc\u0639 \u0634\u062f\u0647 \u0627\u0633\u062a.   "
        },
        {
          "chapter": 1,
          "verse": 11,
          "name": "Joel 1:11",
          "text": "\u200c\u0627\u06cc \u0641\u0644\u0627\u062d\u0627\u0646 \u062e\u062c\u0644 \u0634\u0648\u06cc\u062f \u0648\u200c\u0627\u06cc \u0628\u0627\u063a\u0628\u0627\u0646\u0627\u0646 \u0648\u0644\u0648\u0644\u0647 \u0646\u0645\u0627\u06cc\u06cc\u062f \u0628\u0647 \u062c\u0647\u062a \u06af\u0646\u062f\u0645 \u0648 \u062c\u0648 \u0632\u06cc\u0631\u0627 \u0645\u062d\u0635\u0648\u0644 \u0632\u0645\u06cc\u0646 \u062a\u0644\u0641 \u0634\u062f\u0647 \u0627\u0633\u062a. "
        },
        {
          "chapter": 1,
          "verse": 12,
          "name": "Joel 1:12",
          "text": "\u0645\u0648\u0647\u0627 \u062e\u0634\u06a9 \u0648 \u0627\u0646\u062c\u06cc\u0631\u0647\u0627 \u0636\u0627\u06cc\u0639 \u0634\u062f\u0647\u061b \u0627\u0646\u0627\u0631 \u0648 \u062e\u0631\u0645\u0627 \u0648 \u0633\u06cc\u0628 \u0648 \u0647\u0645\u0647 \u062f\u0631\u062e\u062a\u0627\u0646 \u0635\u062d\u0631\u0627\u062e\u0634\u06a9 \u06af\u0631\u062f\u06cc\u062f\u0647\u060c \u0632\u06cc\u0631\u0627 \u062e\u0648\u0634\u06cc \u0627\u0632 \u0628\u0646\u06cc \u0622\u062f\u0645 \u0631\u0641\u0639 \u0634\u062f\u0647 \u0627\u0633\u062a.         "
        },
        {
          "chapter": 1,
          "verse": 13,
          "name": "Joel 1:13",
          "text": "\u200c\u0627\u06cc \u06a9\u0627\u0647\u0646\u0627\u0646 \u067e\u0644\u0627\u0633 \u062f\u0631 \u0628\u0631 \u06a9\u0631\u062f\u0647\u060c \u0646\u0648\u062d\u0647 \u06af\u0631\u06cc \u0646\u0645\u0627\u06cc\u06cc\u062f \u0648\u200c\u0627\u06cc \u062e\u0627\u062f\u0645\u0627\u0646 \u0645\u0630\u0628\u062d \u0648\u0644\u0648\u0644\u0647 \u06a9\u0646\u06cc\u062f \u0648\u200c\u0627\u06cc \u062e\u0627\u062f\u0645\u0627\u0646 \u062e\u062f\u0627\u06cc \u0645\u0646 \u062f\u0627\u062e\u0644 \u0634\u062f\u0647\u060c \u062f\u0631 \u067e\u0644\u0627\u0633 \u0634\u0628 \u0631\u0627\u0628\u0633\u0631 \u0628\u0631\u06cc\u062f\u060c \u0632\u06cc\u0631\u0627 \u06a9\u0647 \u0647\u062f\u06cc\u0647 \u0622\u0631\u062f\u06cc \u0648 \u0647\u062f\u06cc\u0647 \u0631\u06cc\u062e\u062a\u0646\u06cc \u0627\u0632\u062e\u0627\u0646\u0647 \u062e\u062f\u0627\u06cc \u0634\u0645\u0627 \u0628\u0627\u0632 \u062f\u0627\u0634\u062a\u0647 \u0634\u062f\u0647 \u0627\u0633\u062a. "
        },
        {
          "chapter": 1,
          "verse": 14,
          "name": "Joel 1:14",
          "text": "\u0631\u0648\u0632\u0647 \u0631\u0627\u062a\u0639\u06cc\u06cc\u0646 \u0646\u0645\u0627\u06cc\u06cc\u062f \u0648 \u0645\u062d\u0641\u0644 \u0645\u0642\u062f\u0633 \u0631\u0627 \u0646\u062f\u0627 \u06a9\u0646\u06cc\u062f! \u0645\u0634\u0627\u06cc\u062e \u0648\u062a\u0645\u0627\u0645\u06cc \u0633\u0627\u06a9\u0646\u0627\u0646 \u0632\u0645\u06cc\u0646 \u0631\u0627 \u0628\u0647 \u062e\u0627\u0646\u0647 \u06cc\u0647\u0648\u0647 \u062e\u062f\u0627\u06cc \u062e\u0648\u062f\u062c\u0645\u0639 \u0646\u0645\u0648\u062f\u0647\u060c \u0646\u0632\u062f \u062e\u062f\u0627\u0648\u0646\u062f \u062a\u0636\u0631\u0639 \u0646\u0645\u0627\u06cc\u06cc\u062f. "
        },
        {
          "chapter": 1,
          "verse": 15,
          "name": "Joel 1:15",
          "text": "\u0648\u0627\u06cc \u0628\u0631\u0622\u0646 \u0631\u0648\u0632 \u0632\u06cc\u0631\u0627 \u0631\u0648\u0632 \u062e\u062f\u0627\u0648\u0646\u062f \u0646\u0632\u062f\u06cc\u06a9 \u0627\u0633\u062a \u0648 \u0645\u062b\u0644 \u0647\u0644\u0627\u06a9\u062a\u06cc \u0627\u0632 \u0642\u0627\u062f\u0631 \u0645\u0637\u0644\u0642 \u0645\u06cc\u200c\u0622\u06cc\u062f. "
        },
        {
          "chapter": 1,
          "verse": 16,
          "name": "Joel 1:16",
          "text": "\u0622\u06cc\u0627 \u0645\u0627\u06a9\u0648\u0644\u0627\u062a \u062f\u0631\u0646\u0638\u0631 \u0645\u0627 \u0645\u0646\u0642\u0637\u0639 \u0646\u0634\u062f \u0648 \u0633\u0631\u0648\u0631 \u0648 \u0634\u0627\u062f\u0645\u0627\u0646\u06cc \u0627\u0632 \u062e\u0627\u0646\u0647 \u062e\u062f\u0627\u06cc \u0645\u0627. "
        },
        {
          "chapter": 1,
          "verse": 17,
          "name": "Joel 1:17",
          "text": "\u062f\u0627\u0646\u0647\u200c\u0647\u0627 \u0632\u06cc\u0631 \u06a9\u0644\u0648\u062e\u0647\u0627 \u067e\u0648\u0633\u06cc\u062f. \u0645\u062e\u0632\u0646\u0647\u0627\u0648\u06cc\u0631\u0627\u0646 \u0648 \u0627\u0646\u0628\u0627\u0631\u0647\u0627 \u062e\u0631\u0627\u0628 \u0634\u062f \u0632\u06cc\u0631\u0627 \u06af\u0646\u062f\u0645 \u062a\u0644\u0641 \u06af\u0631\u062f\u06cc\u062f. "
        },
        {
          "chapter": 1,
          "verse": 18,
          "name": "Joel 1:18",
          "text": "\u0628\u0647\u0627\u06cc\u0645 \u0686\u0647 \u0642\u062f\u0631 \u0646\u0627\u0644\u0647 \u0645\u06cc\u200c\u06a9\u0646\u0646\u062f \u0648 \u0631\u0645\u0647 \u0647\u0627\u06cc \u06af\u0627\u0648\u0627\u0646 \u0634\u0648\u0631\u06cc\u062f\u0647 \u0627\u062d\u0648\u0627\u0644\u0646\u062f\u060c \u0686\u0648\u0646\u06a9\u0647 \u0645\u0631\u062a\u0639\u06cc \u0646\u062f\u0627\u0631\u0646\u062f \u0648\u06af\u0644\u0647 \u0647\u0627\u06cc \u06af\u0648\u0633\u0641\u0646\u062f \u0646\u06cc\u0632 \u062a\u0644\u0641 \u0634\u062f\u0647\u200c\u0627\u0646\u062f. "
        },
        {
          "chapter": 1,
          "verse": 19,
          "name": "Joel 1:19",
          "text": "\u200c\u0627\u06cc \u062e\u062f\u0627\u0648\u0646\u062f\u0646\u0632\u062f \u062a\u0648 \u062a\u0636\u0631\u0639 \u0645\u06cc\u200c\u0646\u0645\u0627\u06cc\u0645 \u0632\u06cc\u0631\u0627 \u06a9\u0647 \u0622\u062a\u0634 \u0645\u0631\u062a\u0639 \u0647\u0627\u06cc \u0635\u062d\u0631\u0627 \u0631\u0627 \u0633\u0648\u0632\u0627\u0646\u06cc\u062f\u0647 \u0648 \u0634\u0639\u0644\u0647 \u0647\u0645\u0647 \u062f\u0631\u062e\u062a\u0627\u0646 \u0635\u062d\u0631\u0627 \u0631\u0627 \u0627\u0641\u0631\u0648\u062e\u062a\u0647 \u0627\u0633\u062a. "
        },
        {
          "chapter": 1,
          "verse": 20,
          "name": "Joel 1:20",
          "text": "\u0628\u0647\u0627\u06cc\u0645 \u0635\u062d\u0631\u0627 \u0628\u0633\u0648\u06cc \u062a\u0648 \u0635\u06cc\u062d\u0647 \u0645\u06cc\u200c\u0632\u0646\u0646\u062f \u0632\u06cc\u0631\u0627 \u06a9\u0647 \u062c\u0648\u06cc\u0647\u0627\u06cc \u0622\u0628 \u062e\u0634\u06a9 \u0634\u062f\u0647 \u0648 \u0622\u062a\u0634 \u0645\u0631\u062a\u0639\u0647\u0627\u06cc \u0635\u062d\u0631\u0627 \u0631\u0627 \u0633\u0648\u0632\u0627\u0646\u06cc\u062f\u0647 \u0627\u0633\u062a.  "
        }
      ]
    },
    {
      "chapter": 2,
      "name": "Joel 2",
      "verses": [
        {
          "chapter": 2,
          "verse": 1,
          "name": "Joel 2:1",
          "text": "   \u062f\u0631 \u0635\u0647\u06cc\u0648\u0646 \u06a9\u0631\u0646\u0627 \u0628\u0646\u0648\u0627\u0632\u06cc\u062f \u0648 \u062f\u0631 \u06a9\u0648\u0647 \u0645\u0642\u062f\u0633 \u0645\u0646 \u0635\u062f\u0627 \u0628\u0644\u0646\u062f \u06a9\u0646\u06cc\u062f! \u062a\u0645\u0627\u0645\u06cc \u0633\u0627\u06a9\u0646\u0627\u0646 \u0632\u0645\u06cc\u0646 \u0628\u0644\u0631\u0632\u0646\u062f\u0632\u06cc\u0631\u0627 \u0631\u0648\u0632 \u062e\u062f\u0627\u0648\u0646\u062f \u0645\u06cc\u200c\u0622\u06cc\u062f \u0648 \u0646\u0632\u062f\u06cc\u06a9 \u0627\u0633\u062a. "
        },
        {
          "chapter": 2,
          "verse": 2,
          "name": "Joel 2:2",
          "text": "\u0631\u0648\u0632\u062a\u0627\u0631\u06cc\u06a9\u06cc \u0648 \u0638\u0644\u0645\u062a\u060c \u0631\u0648\u0632 \u0627\u0628\u0631\u0647\u0627 \u0648 \u0638\u0644\u0645\u062a \u063a\u0644\u06cc\u0638 \u0645\u062b\u0644 \u0641\u062c\u0631 \u0645\u0646\u0628\u0633\u0637 \u0628\u0631 \u06a9\u0648\u0647\u0647\u0627! \u0627\u0645\u062a\u06cc \u0639\u0638\u06cc\u0645 \u0648 \u0642\u0648\u06cc \u06a9\u0647 \u0645\u0627\u0646\u0646\u062f\u0622\u0646 \u0627\u0632 \u0627\u0632\u0644 \u0646\u0628\u0648\u062f\u0647 \u0648 \u0628\u0639\u062f \u0627\u0632 \u0627\u06cc\u0646 \u062a\u0627 \u0633\u0627\u0644\u0647\u0627 \u0648 \u062f\u0647\u0631\u0647\u0627\u06cc \u0628\u0633\u06cc\u0627\u0631 \u0646\u062e\u0648\u0627\u0647\u062f \u0628\u0648\u062f. "
        },
        {
          "chapter": 2,
          "verse": 3,
          "name": "Joel 2:3",
          "text": "\u067e\u06cc\u0634 \u0631\u0648\u06cc \u0627\u06cc\u0634\u0627\u0646 \u0622\u062a\u0634 \u0645\u06cc\u200c\u0633\u0648\u0632\u0627\u0646\u062f \u0648 \u062f\u0631 \u0639\u0642\u0628 \u0627\u06cc\u0634\u0627\u0646 \u0634\u0639\u0644\u0647 \u0645\u0644\u062a\u0647\u0628 \u0645\u06cc\u200c\u06af\u0631\u062f\u062f. \u067e\u06cc\u0634 \u0631\u0648\u06cc \u0627\u06cc\u0634\u0627\u0646\u060c \u0632\u0645\u06cc\u0646 \u0645\u062b\u0644 \u0628\u0627\u063a \u0639\u062f\u0646 \u0648\u062f\u0631 \u0639\u0642\u0628 \u0627\u06cc\u0634\u0627\u0646\u060c \u0628\u06cc\u0627\u0628\u0627\u0646 \u0628\u0627\u06cc\u0631 \u0627\u0633\u062a \u0648 \u0646\u06cc\u0632 \u0627\u0632 \u0627\u06cc\u0634\u0627\u0646 \u0627\u062d\u062f\u06cc \u0631\u0647\u0627\u06cc\u06cc \u0646\u0645\u06cc \u06cc\u0627\u0628\u062f. "
        },
        {
          "chapter": 2,
          "verse": 4,
          "name": "Joel 2:4",
          "text": "\u0645\u0646\u0638\u0631 \u0627\u06cc\u0634\u0627\u0646 \u0645\u062b\u0644 \u0645\u0646\u0638\u0631\u0627\u0633\u0628\u0627\u0646 \u0627\u0633\u062a \u0648 \u0645\u0627\u0646\u0646\u062f \u0627\u0633\u0628\u200c\u0633\u0648\u0627\u0631\u0627\u0646 \u0645\u06cc\u200c\u062a\u0627\u0632\u0646\u062f. "
        },
        {
          "chapter": 2,
          "verse": 5,
          "name": "Joel 2:5",
          "text": "\u0645\u062b\u0644 \u0635\u062f\u0627\u06cc \u0627\u0631\u0627\u0628\u0647\u200c\u0647\u0627 \u0628\u0631 \u0642\u0644\u0647 \u06a9\u0648\u0647\u0647\u0627 \u062c\u0633\u062a \u0648 \u062e\u06cc\u0632\u0645\u06cc \u06a9\u0646\u0646\u062f\u061b \u0645\u062b\u0644 \u0635\u062f\u0627\u06cc \u0634\u0639\u0644\u0647 \u0622\u062a\u0634 \u06a9\u0647 \u06a9\u0627\u0647 \u0631\u0627\u0645\u06cc \u0633\u0648\u0632\u0627\u0646\u062f\u061b \u0645\u0627\u0646\u0646\u062f \u0627\u0645\u062a \u0639\u0638\u06cc\u0645\u06cc \u06a9\u0647 \u0628\u0631\u0627\u06cc \u062c\u0646\u06af \u0635\u0641 \u0628\u0633\u062a\u0647 \u0628\u0627\u0634\u0646\u062f. "
        },
        {
          "chapter": 2,
          "verse": 6,
          "name": "Joel 2:6",
          "text": "\u0627\u0632 \u062d\u0636\u0648\u0631 \u0627\u06cc\u0634\u0627\u0646 \u0642\u0648\u0645 \u0647\u0627\u0645\u06cc \u0644\u0631\u0632\u0646\u062f. \u062a\u0645\u0627\u0645\u06cc \u0631\u0648\u06cc\u0647\u0627 \u0631\u0646\u06af \u067e\u0631\u06cc\u062f\u0647 \u0645\u06cc\u200c\u0634\u0648\u062f. "
        },
        {
          "chapter": 2,
          "verse": 7,
          "name": "Joel 2:7",
          "text": "\u0645\u062b\u0644 \u062c\u0628\u0627\u0631\u0627\u0646 \u0645\u06cc\u200c\u062f\u0648\u0646\u062f\u060c \u0645\u062b\u0644 \u0645\u0631\u062f\u0627\u0646 \u062c\u0646\u06af\u06cc \u0628\u0631 \u062d\u0635\u0627\u0631\u0647\u0627\u0628\u0631\u0645\u06cc \u0622\u06cc\u0646\u062f \u0648 \u0647\u0631 \u06a9\u062f\u0627\u0645 \u0628\u0647 \u0631\u0627\u0647 \u062e\u0648\u062f \u0645\u06cc\u200c\u0622\u06cc\u0646\u062f \u0648\u0637\u0631\u06cc\u0642\u0647\u0627\u06cc \u062e\u0648\u062f \u0631\u0627 \u062a\u0628\u062f\u06cc\u0644 \u0646\u0645\u06cc \u06a9\u0646\u0646\u062f. "
        },
        {
          "chapter": 2,
          "verse": 8,
          "name": "Joel 2:8",
          "text": "\u0628\u0631 \u06cc\u06a9\u062f\u06cc\u06af\u0631\u0627\u0632\u062f\u062d\u0627\u0645 \u0646\u0645\u06cc \u06a9\u0646\u0646\u062f\u060c \u0632\u06cc\u0631\u0627 \u0647\u0631\u06a9\u0633 \u0628\u0647 \u0631\u0627\u0647 \u062e\u0648\u062f\u0645\u06cc \u062e\u0631\u0627\u0645\u062f. \u0627\u0632 \u0645\u06cc\u0627\u0646 \u062d\u0631\u0628\u0647\u200c\u0647\u0627 \u0647\u062c\u0648\u0645 \u0645\u06cc\u200c\u0622\u0648\u0631\u0646\u062f \u0648\u0635\u0641 \u0647\u0627\u06cc \u062e\u0648\u062f \u0631\u0627 \u0646\u0645\u06cc \u0634\u06a9\u0646\u0646\u062f. "
        },
        {
          "chapter": 2,
          "verse": 9,
          "name": "Joel 2:9",
          "text": "\u0628\u0631 \u0634\u0647\u0631\u0645\u06cc \u062c\u0647\u0646\u062f\u060c \u0628\u0647 \u0631\u0648\u06cc \u062d\u0635\u0627\u0631\u0647\u0627 \u0645\u06cc\u200c\u062f\u0648\u0646\u062f\u060c \u0628\u0647 \u062e\u0627\u0646\u0647 \u0647\u0627\u0628\u0631\u0645\u06cc \u0622\u06cc\u0646\u062f. \u0645\u062b\u0644 \u062f\u0632\u062f\u0627\u0646 \u0627\u0632 \u067e\u0646\u062c\u0631\u0647\u200c\u0647\u0627 \u062f\u0627\u062e\u0644 \u0645\u06cc \u0634\u0648\u0646\u062f. "
        },
        {
          "chapter": 2,
          "verse": 10,
          "name": "Joel 2:10",
          "text": "\u0627\u0632 \u062d\u0636\u0648\u0631 \u0627\u06cc\u0634\u0627\u0646 \u0632\u0645\u06cc\u0646 \u0645\u062a\u0632\u0644\u0632\u0644 \u0648\u0622\u0633\u0645\u0627\u0646\u0647\u0627 \u0645\u0631\u062a\u0639\u0634 \u0645\u06cc\u200c\u0634\u0648\u062f\u061b \u0622\u0641\u062a\u0627\u0628 \u0648 \u0645\u0627\u0647 \u0633\u06cc\u0627\u0647 \u0645\u06cc\u200c\u0634\u0648\u0646\u062f \u0648 \u0633\u062a\u0627\u0631\u06af\u0627\u0646 \u0646\u0648\u0631 \u062e\u0648\u06cc\u0634 \u0631\u0627 \u0628\u0627\u0632 \u0645\u06cc\u200c\u062f\u0627\u0631\u0646\u062f. "
        },
        {
          "chapter": 2,
          "verse": 11,
          "name": "Joel 2:11",
          "text": "\u0648 \u062e\u062f\u0627\u0648\u0646\u062f \u0622\u0648\u0627\u0632 \u062e\u0648\u062f \u0631\u0627 \u067e\u06cc\u0634 \u0644\u0634\u06a9\u0631 \u062e\u0648\u06cc\u0634 \u0628\u0644\u0646\u062f \u0645\u06cc\u200c\u06a9\u0646\u062f\u060c \u0632\u06cc\u0631\u0627 \u0627\u0631\u062f\u0648\u06cc \u0627\u0648 \u0628\u0633\u06cc\u0627\u0631 \u0639\u0638\u06cc\u0645 \u0627\u0633\u062a \u0648 \u0622\u0646\u06a9\u0647 \u0633\u062e\u0646 \u062e\u0648\u062f \u0631\u0627 \u0628\u062c\u0627 \u0645\u06cc\u200c\u0622\u0648\u0631\u062f\u060c \u0642\u062f\u06cc\u0631\u0627\u0633\u062a. \u0632\u06cc\u0631\u0627 \u0631\u0648\u0632 \u062e\u062f\u0627\u0648\u0646\u062f \u0639\u0638\u06cc\u0645 \u0648 \u0628\u06cc\u200c\u0646\u0647\u0627\u06cc\u062a \u0645\u0647\u06cc\u0628 \u0627\u0633\u062a \u0648 \u06a9\u06cc\u0633\u062a \u06a9\u0647 \u0637\u0627\u0642\u062a \u0622\u0646 \u0631\u0627 \u062f\u0627\u0634\u062a\u0647 \u0628\u0627\u0634\u062f.         "
        },
        {
          "chapter": 2,
          "verse": 12,
          "name": "Joel 2:12",
          "text": "\u0648 \u0644\u06a9\u0646 \u0627\u0644\u0627\u0646 \u062e\u062f\u0627\u0648\u0646\u062f \u0645\u06cc\u200c\u06af\u0648\u06cc\u062f \u0628\u0627 \u062a\u0645\u0627\u0645\u06cc \u062f\u0644 \u0648\u0628\u0627 \u0631\u0648\u0632\u0647 \u0648 \u06af\u0631\u06cc\u0647 \u0648 \u0645\u0627\u062a\u0645 \u0628\u0633\u0648\u06cc \u0645\u0646 \u0628\u0627\u0632\u06af\u0634\u062a \u0646\u0645\u0627\u06cc\u06cc\u062f. "
        },
        {
          "chapter": 2,
          "verse": 13,
          "name": "Joel 2:13",
          "text": "\u0648 \u062f\u0644 \u062e\u0648\u062f \u0631\u0627 \u0686\u0627\u06a9 \u06a9\u0646\u06cc\u062f \u0646\u0647 \u0631\u062e\u062a \u062e\u0648\u06cc\u0634 \u0631\u0627 \u0648\u0628\u0647 \u06cc\u0647\u0648\u0647 \u062e\u062f\u0627\u06cc \u062e\u0648\u062f \u0628\u0627\u0632\u06af\u0634\u062a \u0646\u0645\u0627\u06cc\u06cc\u062f \u0632\u06cc\u0631\u0627 \u06a9\u0647 \u0627\u0648\u0631\u0626\u0648\u0641 \u0648 \u0631\u062d\u06cc\u0645 \u0627\u0633\u062a \u0648 \u062f\u06cc\u0631\u062e\u0634\u0645 \u0648 \u06a9\u062b\u06cc\u0631\u0627\u062d\u0633\u0627\u0646 \u0648 \u0627\u0632\u0628\u0644\u0627 \u067e\u0634\u06cc\u0645\u0627\u0646 \u0645\u06cc\u200c\u0634\u0648\u062f. "
        },
        {
          "chapter": 2,
          "verse": 14,
          "name": "Joel 2:14",
          "text": "\u06a9\u0647 \u0645\u06cc\u200c\u062f\u0627\u0646\u062f \u06a9\u0647 \u0634\u0627\u06cc\u062f\u0628\u0631\u06af\u0631\u062f\u062f \u0648 \u067e\u0634\u06cc\u0645\u0627\u0646 \u0634\u0648\u062f \u0648 \u062f\u0631 \u0639\u0642\u0628 \u062e\u0648\u062f \u0628\u0631\u06a9\u062a\u06cc \u0648\u0627\u06af\u0630\u0627\u0631\u062f\u060c \u06cc\u0639\u0646\u06cc \u0647\u062f\u06cc\u0647 \u0622\u0631\u062f\u06cc \u0648 \u0647\u062f\u06cc\u0647 \u0631\u06cc\u062e\u062a\u0646\u06cc \u0628\u0631\u0627\u06cc \u06cc\u0647\u0648\u0647 \u062e\u062f\u0627\u06cc \u0634\u0645\u0627. "
        },
        {
          "chapter": 2,
          "verse": 15,
          "name": "Joel 2:15",
          "text": "\u062f\u0631 \u0635\u0647\u06cc\u0648\u0646 \u06a9\u0631\u0646\u0627 \u0628\u0646\u0648\u0627\u0632\u06cc\u062f \u0648\u0631\u0648\u0632\u0647 \u0631\u0627 \u062a\u0639\u06cc\u06cc\u0646 \u06a9\u0631\u062f\u0647\u060c \u0645\u062d\u0641\u0644 \u0645\u0642\u062f\u0633 \u0631\u0627 \u0646\u062f\u0627 \u06a9\u0646\u06cc\u062f. "
        },
        {
          "chapter": 2,
          "verse": 16,
          "name": "Joel 2:16",
          "text": "\u0642\u0648\u0645 \u0631\u0627 \u062c\u0645\u0639 \u06a9\u0646\u06cc\u062f\u060c \u062c\u0645\u0627\u0639\u062a \u0631\u0627 \u062a\u0642\u062f\u06cc\u0633 \u0646\u0645\u0627\u06cc\u06cc\u062f\u060c \u067e\u06cc\u0631\u0627\u0646 \u0648 \u06a9\u0648\u062f\u06a9\u0627\u0646 \u0648 \u0634\u06cc\u0631\u062e\u0648\u0627\u0631\u06af\u0627\u0646 \u0631\u0627 \u0641\u0631\u0627\u0647\u0645 \u0622\u0648\u0631\u06cc\u062f. \u062f\u0627\u0645\u0627\u062f \u0627\u0632 \u062d\u062c\u0631\u0647 \u062e\u0648\u062f \u0648 \u0639\u0631\u0648\u0633 \u0627\u0632 \u062d\u062c\u0644\u0647 \u062e\u0648\u06cc\u0634 \u0628\u06cc\u0631\u0648\u0646 \u0622\u06cc\u0646\u062f. "
        },
        {
          "chapter": 2,
          "verse": 17,
          "name": "Joel 2:17",
          "text": "\u06a9\u0627\u0647\u0646\u0627\u0646\u06cc \u06a9\u0647 \u062e\u062f\u0627\u0645 \u062e\u062f\u0627\u0648\u0646\u062f \u0647\u0633\u062a\u0646\u062f\u062f\u0631 \u0645\u06cc\u0627\u0646 \u0631\u0648\u0627\u0642 \u0648 \u0645\u0630\u0628\u062d \u06af\u0631\u06cc\u0647 \u06a9\u0646\u0646\u062f \u0648 \u0628\u06af\u0648\u06cc\u0646\u062f: \u00ab\u0627\u06cc \u062e\u062f\u0627\u0648\u0646\u062f \u0628\u0631 \u0642\u0648\u0645 \u062e\u0648\u06cc\u0634 \u0634\u0641\u0642\u062a \u0641\u0631\u0645\u0627 \u0648 \u0645\u06cc\u0631\u0627\u062b \u062e\u0648\u06cc\u0634 \u0631\u0627 \u0628\u0647 \u0639\u0627\u0631 \u0645\u0633\u067e\u0627\u0631\u060c \u0645\u0628\u0627\u062f\u0627 \u0627\u0645\u062a\u200c\u0647\u0627 \u0628\u0631 \u0627\u06cc\u0634\u0627\u0646 \u062d\u06a9\u0645\u0631\u0627\u0646\u06cc \u0646\u0645\u0627\u06cc\u0646\u062f. \u0686\u0631\u0627 \u062f\u0631 \u0645\u06cc\u0627\u0646 \u0642\u0648\u0645\u0647\u0627 \u0628\u06af\u0648\u06cc\u0646\u062f \u06a9\u0647 \u062e\u062f\u0627\u06cc \u0627\u06cc\u0634\u0627\u0646 \u06a9\u062c\u0627 \u0627\u0633\u062a\u061f\u00bb         "
        },
        {
          "chapter": 2,
          "verse": 18,
          "name": "Joel 2:18",
          "text": "\u067e\u0633 \u062e\u062f\u0627\u0648\u0646\u062f \u0628\u0631\u0627\u06cc \u0632\u0645\u06cc\u0646 \u062e\u0648\u062f \u0628\u0647 \u063a\u06cc\u0631\u062a \u062e\u0648\u0627\u0647\u062f \u0622\u0645\u062f \u0648 \u0628\u0631 \u0642\u0648\u0645 \u062e\u0648\u06cc\u0634 \u0634\u0641\u0642\u062a \u062e\u0648\u0627\u0647\u062f \u0646\u0645\u0648\u062f. "
        },
        {
          "chapter": 2,
          "verse": 19,
          "name": "Joel 2:19",
          "text": "\u0648 \u062e\u062f\u0627\u0648\u0646\u062f \u0642\u0648\u0645 \u062e\u0648\u062f \u0631\u0627 \u0627\u062c\u0627\u0628\u062a \u0646\u0645\u0648\u062f\u0647\u060c \u062e\u0648\u0627\u0647\u062f\u06af\u0641\u062a: \u00ab\u0627\u06cc\u0646\u06a9 \u0645\u0646 \u06af\u0646\u062f\u0645 \u0648 \u0634\u06cc\u0631\u0647 \u0648 \u0631\u0648\u063a\u0646 \u0631\u0627 \u0628\u0631\u0627\u06cc \u0634\u0645\u0627\u0645\u06cc \u0641\u0631\u0633\u062a\u0645 \u062a\u0627 \u0627\u0632 \u0622\u0646\u0647\u0627 \u0633\u06cc\u0631 \u0634\u0648\u06cc\u062f \u0648 \u0634\u0645\u0627 \u0631\u0627 \u0628\u0627\u0631 \u062f\u06cc\u06af\u0631\u062f\u0631 \u0645\u06cc\u0627\u0646 \u0627\u0645\u062a\u200c\u0647\u0627 \u0639\u0627\u0631 \u0646\u062e\u0648\u0627\u0647\u0645 \u0633\u0627\u062e\u062a. "
        },
        {
          "chapter": 2,
          "verse": 20,
          "name": "Joel 2:20",
          "text": "\u0648 \u0644\u0634\u06a9\u0631\u0634\u0645\u0627\u0644\u06cc \u0631\u0627 \u0627\u0632 \u0634\u0645\u0627 \u062f\u0648\u0631 \u06a9\u0631\u062f\u0647\u060c \u0628\u0647 \u0632\u0645\u06cc\u0646 \u062e\u0634\u06a9 \u0648\u06cc\u0631\u0627\u0646 \u062e\u0648\u0627\u0647\u0645 \u0631\u0627\u0646\u062f \u06a9\u0647 \u0645\u0642\u062f\u0645\u0647 \u0622\u0646 \u0628\u0631 \u062f\u0631\u06cc\u0627\u06cc \u0634\u0631\u0642\u06cc \u0648\u0633\u0627\u0642\u0647\u200c\u0627\u0634 \u0628\u0631 \u062f\u0631\u06cc\u0627\u06cc \u063a\u0631\u0628\u06cc \u062e\u0648\u0627\u0647\u062f \u0628\u0648\u062f \u0648 \u0628\u0648\u06cc \u0628\u062f\u0634 \u0628\u0644\u0646\u062f \u062e\u0648\u0627\u0647\u062f \u0634\u062f \u0648 \u0639\u0641\u0648\u0646\u062a\u0634 \u0628\u0631\u062e\u0648\u0627\u0647\u062f \u0622\u0645\u062f \u0632\u06cc\u0631\u0627\u06a9\u0627\u0631\u0647\u0627\u06cc \u0639\u0638\u06cc\u0645 \u06a9\u0631\u062f\u0647 \u0627\u0633\u062a.\u00bb   "
        },
        {
          "chapter": 2,
          "verse": 21,
          "name": "Joel 2:21",
          "text": "\u200c\u0627\u06cc \u0632\u0645\u06cc\u0646 \u0645\u062a\u0631\u0633! \u0648\u062c\u062f \u0648 \u0634\u0627\u062f\u06cc \u0628\u0646\u0645\u0627 \u0632\u06cc\u0631\u0627\u06cc\u0647\u0648\u0647 \u06a9\u0627\u0631\u0647\u0627\u06cc \u0639\u0638\u06cc\u0645 \u06a9\u0631\u062f\u0647 \u0627\u0633\u062a. "
        },
        {
          "chapter": 2,
          "verse": 22,
          "name": "Joel 2:22",
          "text": "\u200c\u0627\u06cc \u0628\u0647\u0627\u06cc\u0645 \u0635\u062d\u0631\u0627 \u0645\u062a\u0631\u0633\u06cc\u062f \u0632\u06cc\u0631\u0627 \u06a9\u0647 \u0645\u0631\u062a\u0639 \u0647\u0627\u06cc \u0628\u06cc\u0627\u0628\u0627\u0646 \u0633\u0628\u0632 \u0634\u062f \u0648\u062f\u0631\u062e\u062a\u0627\u0646 \u0645\u06cc\u0648\u0647 \u062e\u0648\u062f \u0631\u0627 \u0622\u0648\u0631\u062f \u0648 \u0627\u0646\u062c\u06cc\u0631 \u0648 \u0645\u0648 \u0642\u0648\u062a \u062e\u0648\u06cc\u0634 \u0631\u0627 \u062f\u0627\u062f\u0646\u062f. "
        },
        {
          "chapter": 2,
          "verse": 23,
          "name": "Joel 2:23",
          "text": "\u200c\u0627\u06cc \u067e\u0633\u0631\u0627\u0646 \u0635\u0647\u06cc\u0648\u0646 \u062f\u0631 \u06cc\u0647\u0648\u0647 \u062e\u062f\u0627\u06cc \u062e\u0648\u06cc\u0634 \u0648\u062c\u062f \u0648 \u0634\u0627\u062f\u06cc \u0646\u0645\u0627\u06cc\u06cc\u062f\u060c \u0632\u06cc\u0631\u0627 \u06a9\u0647 \u0628\u0627\u0631\u0627\u0646 \u0627\u0648\u0644\u06cc\u0646 \u0631\u0627 \u0628\u0647 \u0627\u0646\u062f\u0627\u0632\u0647\u200c\u0627\u0634 \u0628\u0647 \u0634\u0645\u0627 \u062f\u0627\u062f\u0647 \u0627\u0633\u062a \u0648\u0628\u0627\u0631\u0627\u0646 \u0627\u0648\u0644 \u0648 \u0622\u062e\u0631 \u0631\u0627 \u062f\u0631 \u0648\u0642\u062a \u0628\u0631\u0627\u06cc \u0634\u0645\u0627 \u0628\u0627\u0631\u0627\u0646\u06cc\u062f\u0647 \u0627\u0633\u062a. "
        },
        {
          "chapter": 2,
          "verse": 24,
          "name": "Joel 2:24",
          "text": "\u067e\u0633 \u062e\u0631\u0645\u0646 \u0627\u0632 \u06af\u0646\u062f\u0645 \u067e\u0631 \u062e\u0648\u0627\u0647\u062f \u0634\u062f \u0648\u0645\u0639\u0635\u0631\u0647\u200c\u0647\u0627 \u0627\u0632 \u0634\u06cc\u0631\u0647 \u0648 \u0631\u0648\u063a\u0646 \u0644\u0628\u0631\u06cc\u0632 \u062e\u0648\u0627\u0647\u062f \u06af\u0631\u062f\u06cc\u062f. "
        },
        {
          "chapter": 2,
          "verse": 25,
          "name": "Joel 2:25",
          "text": "\u0648 \u0633\u0627\u0644\u0647\u0627\u06cc\u06cc \u0631\u0627 \u06a9\u0647 \u0645\u0644\u062e \u0648 \u0644\u0646\u0628\u0647 \u0648 \u0633\u0648\u0633 \u0648 \u0633\u0646 \u06cc\u0639\u0646\u06cc \u0644\u0634\u06a9\u0631 \u0639\u0638\u06cc\u0645 \u0645\u0646 \u06a9\u0647 \u0628\u0631 \u0634\u0645\u0627 \u0641\u0631\u0633\u062a\u0627\u062f\u0647 \u0628\u0648\u062f\u0645 \u062e\u0648\u0631\u062f\u0646\u062f\u0628\u0647 \u0634\u0645\u0627 \u0631\u062f \u062e\u0648\u0627\u0647\u0645 \u0646\u0645\u0648\u062f. "
        },
        {
          "chapter": 2,
          "verse": 26,
          "name": "Joel 2:26",
          "text": "\u0648 \u063a\u0630\u0627\u06cc \u0628\u0633\u06cc\u0627\u0631\u062e\u0648\u0631\u062f\u0647\u060c \u0633\u06cc\u0631 \u062e\u0648\u0627\u0647\u06cc\u062f \u0634\u062f \u0648 \u0627\u0633\u0645 \u06cc\u0647\u0648\u0647 \u062e\u062f\u0627\u06cc \u062e\u0648\u062f\u0631\u0627 \u06a9\u0647 \u0628\u0631\u0627\u06cc \u0634\u0645\u0627 \u06a9\u0627\u0631\u0647\u0627\u06cc \u0639\u062c\u06cc\u0628 \u06a9\u0631\u062f\u0647 \u0627\u0633\u062a\u060c \u062a\u0633\u0628\u06cc\u062d \u062e\u0648\u0627\u0647\u06cc\u062f \u062e\u0648\u0627\u0646\u062f \u0648 \u0642\u0648\u0645 \u0645\u0646 \u062a\u0627 \u0628\u0647 \u0627\u0628\u062f \u062e\u062c\u0644 \u0646\u062e\u0648\u0627\u0647\u0646\u062f \u0634\u062f. "
        },
        {
          "chapter": 2,
          "verse": 27,
          "name": "Joel 2:27",
          "text": "\u0648 \u062e\u0648\u0627\u0647\u06cc\u062f \u062f\u0627\u0646\u0633\u062a \u06a9\u0647 \u0645\u0646 \u062f\u0631 \u0645\u06cc\u0627\u0646 \u0627\u0633\u0631\u0627\u0626\u06cc\u0644 \u0645\u06cc\u200c\u0628\u0627\u0634\u0645 \u0648 \u0645\u0646 \u06cc\u0647\u0648\u0647 \u062e\u062f\u0627\u06cc \u0634\u0645\u0627 \u0647\u0633\u062a\u0645 \u0648\u062f\u06cc\u06af\u0631\u06cc \u0646\u06cc\u0633\u062a \u0648 \u0642\u0648\u0645 \u0645\u0646 \u062e\u062c\u0644 \u0646\u062e\u0648\u0627\u0647\u0646\u062f \u0634\u062f \u062a\u0627\u0627\u0628\u062f\u0627\u0644\u0627\u0628\u0627\u062f.   "
        },
        {
          "chapter": 2,
          "verse": 28,
          "name": "Joel 2:28",
          "text": "\u0648 \u0628\u0639\u062f \u0627\u0632 \u0622\u0646 \u0631\u0648\u062d \u062e\u0648\u062f \u0631\u0627 \u0628\u0631 \u0647\u0645\u0647 \u0628\u0634\u0631 \u062e\u0648\u0627\u0647\u0645 \u0631\u06cc\u062e\u062a \u0648 \u067e\u0633\u0631\u0627\u0646 \u0648 \u062f\u062e\u062a\u0631\u0627\u0646 \u0634\u0645\u0627 \u0646\u0628\u0648\u062a \u062e\u0648\u0627\u0647\u0646\u062f\u0646\u0645\u0648\u062f \u0648 \u067e\u06cc\u0631\u0627\u0646 \u0634\u0645\u0627 \u0648 \u062c\u0648\u0627\u0646\u0627\u0646 \u0634\u0645\u0627 \u0631\u0648\u06cc\u0627\u0647\u0627 \u062e\u0648\u0627\u0647\u0646\u062f\u062f\u06cc\u062f. "
        },
        {
          "chapter": 2,
          "verse": 29,
          "name": "Joel 2:29",
          "text": "\u0648 \u062f\u0631 \u0622\u0646 \u0627\u06cc\u0627\u0645 \u0631\u0648\u062d \u062e\u0648\u062f \u0631\u0627 \u0628\u0631 \u063a\u0644\u0627\u0645\u0627\u0646 \u0648\u06a9\u0646\u06cc\u0632\u0627\u0646 \u0646\u06cc\u0632 \u062e\u0648\u0627\u0647\u0645 \u0631\u06cc\u062e\u062a. "
        },
        {
          "chapter": 2,
          "verse": 30,
          "name": "Joel 2:30",
          "text": "\u0648 \u0622\u06cc\u0627\u062a \u0631\u0627 \u0627\u0632 \u062e\u0648\u0646 \u0648\u0622\u062a\u0634 \u0648 \u0633\u062a\u0648\u0646\u0647\u0627\u06cc \u062f\u0648\u062f \u062f\u0631 \u0622\u0633\u0645\u0627\u0646 \u0648 \u0632\u0645\u06cc\u0646 \u0638\u0627\u0647\u0631\u062e\u0648\u0627\u0647\u0645 \u0633\u0627\u062e\u062a. "
        },
        {
          "chapter": 2,
          "verse": 31,
          "name": "Joel 2:31",
          "text": "\u0622\u0641\u062a\u0627\u0628 \u0628\u0647 \u062a\u0627\u0631\u06cc\u06a9\u06cc \u0648 \u0645\u0627\u0647 \u0628\u0647 \u062e\u0648\u0646 \u0645\u0628\u062f\u0644 \u062e\u0648\u0627\u0647\u0646\u062f \u0634\u062f\u060c \u067e\u06cc\u0634 \u0627\u0632 \u0638\u0647\u0648\u0631 \u06cc\u0648\u0645 \u0639\u0638\u06cc\u0645 \u0648\u0645\u0647\u06cc\u0628 \u062e\u062f\u0627\u0648\u0646\u062f. "
        },
        {
          "chapter": 2,
          "verse": 32,
          "name": "Joel 2:32",
          "text": "\u0648 \u0648\u0627\u0642\u0639 \u062e\u0648\u0627\u0647\u062f \u0634\u062f \u0647\u0631\u200c\u06a9\u0647 \u0646\u0627\u0645 \u062e\u062f\u0627\u0648\u0646\u062f \u0631\u0627 \u0628\u062e\u0648\u0627\u0646\u062f \u0646\u062c\u0627\u062a \u06cc\u0627\u0628\u062f \u0632\u06cc\u0631\u0627 \u062f\u0631 \u06a9\u0648\u0647 \u0635\u0647\u06cc\u0648\u0646 \u0648 \u062f\u0631 \u0627\u0648\u0631\u0634\u0644\u06cc\u0645 \u0686\u0646\u0627\u0646\u06a9\u0647 \u062e\u062f\u0627\u0648\u0646\u062f \u06af\u0641\u062a\u0647 \u0627\u0633\u062a \u0628\u0642\u06cc\u062a\u06cc \u062e\u0648\u0627\u0647\u062f \u0628\u0648\u062f \u0648 \u062f\u0631 \u0645\u06cc\u0627\u0646 \u0628\u0627\u0642\u06cc \u0645\u0627\u0646\u062f\u06af\u0627\u0646 \u0622\u0646\u0627\u0646\u06cc \u06a9\u0647 \u062e\u062f\u0627\u0648\u0646\u062f \u0627\u06cc\u0634\u0627\u0646 \u0631\u0627 \u062e\u0648\u0627\u0646\u062f\u0647 \u0627\u0633\u062a.   "
        }
      ]
    },
    {
      "chapter": 3,
      "name": "Joel 3",
      "verses": [
        {
          "chapter": 3,
          "verse": 1,
          "name": "Joel 3:1",
          "text": "   \u0632\u06cc\u0631\u0627 \u0627\u06cc\u0646\u06a9 \u062f\u0631 \u0622\u0646 \u0627\u06cc\u0627\u0645 \u0648 \u062f\u0631 \u0622\u0646 \u0632\u0645\u0627\u0646 \u0686\u0648\u0646 \u0627\u0633\u06cc\u0631\u06cc \u06cc\u0647\u0648\u062f\u0627 \u0648 \u0627\u0648\u0631\u0634\u0644\u06cc\u0645 \u0631\u0627 \u0628\u0631\u06af\u0631\u062f\u0627\u0646\u06cc\u062f\u0647 \u0628\u0627\u0634\u0645\u060c "
        },
        {
          "chapter": 3,
          "verse": 2,
          "name": "Joel 3:2",
          "text": "\u0622\u0646\u06af\u0627\u0647 \u062c\u0645\u06cc\u0639 \u0627\u0645\u062a\u200c\u0647\u0627 \u0631\u0627 \u062c\u0645\u0639 \u06a9\u0631\u062f\u0647\u060c \u0628\u0647 \u0648\u0627\u062f\u06cc \u06cc\u0647\u0648\u0634\u0627\u0641\u0627\u0637 \u0641\u0631\u0648\u062f \u062e\u0648\u0627\u0647\u0645 \u0622\u0648\u0631\u062f \u0648 \u062f\u0631 \u0622\u0646\u062c\u0627 \u0628\u0627\u0627\u06cc\u0634\u0627\u0646 \u062f\u0631\u0628\u0627\u0631\u0647 \u0642\u0648\u0645 \u062e\u0648\u062f \u0648 \u0645\u06cc\u0631\u0627\u062b \u062e\u0648\u06cc\u0634 \u0627\u0633\u0631\u0627\u0626\u06cc\u0644 \u0645\u062d\u0627\u06a9\u0645\u0647 \u062e\u0648\u0627\u0647\u0645 \u0646\u0645\u0648\u062f \u0632\u06cc\u0631\u0627 \u06a9\u0647 \u0627\u06cc\u0634\u0627\u0646 \u0631\u0627 \u062f\u0631 \u0645\u06cc\u0627\u0646 \u0627\u0645\u062a\u200c\u0647\u0627 \u067e\u0631\u0627\u06a9\u0646\u062f\u0647 \u0633\u0627\u062e\u062a\u0647 \u0648 \u0632\u0645\u06cc\u0646 \u0645\u0631\u0627 \u062a\u0642\u0633\u06cc\u0645 \u0646\u0645\u0648\u062f\u0647\u200c\u0627\u0646\u062f. "
        },
        {
          "chapter": 3,
          "verse": 3,
          "name": "Joel 3:3",
          "text": "\u0648 \u0628\u0631 \u0642\u0648\u0645 \u0645\u0646 \u0642\u0631\u0639\u0647 \u0627\u0646\u062f\u0627\u062e\u062a\u0647 \u0648 \u067e\u0633\u0631\u06cc \u062f\u0631\u0639\u0648\u0636 \u0641\u0627\u062d\u0634\u0647\u200c\u0627\u06cc \u062f\u0627\u062f\u0647 \u0648 \u062f\u062e\u062a\u0631\u06cc \u0628\u0647 \u0634\u0631\u0627\u0628 \u0641\u0631\u0648\u062e\u062a\u0647\u200c\u0627\u0646\u062f \u062a\u0627 \u0628\u0646\u0648\u0634\u0646\u062f. "
        },
        {
          "chapter": 3,
          "verse": 4,
          "name": "Joel 3:4",
          "text": "\u0648 \u062d\u0627\u0644\u200c\u0627\u06cc \u0635\u0648\u0631 \u0648 \u0635\u06cc\u062f\u0648\u0646 \u0648 \u062a\u0645\u0627\u0645\u06cc \u062f\u06cc\u0627\u0631 \u0641\u0644\u0633\u0637\u06cc\u0646\u06cc\u0627\u0646 \u0634\u0645\u0627 \u0631\u0627 \u0628\u0627 \u0645\u0646 \u0686\u0647\u200c\u06a9\u0627\u0631 \u0627\u0633\u062a\u061f \u0622\u06cc\u0627 \u0634\u0645\u0627 \u0628\u0647 \u0645\u0646 \u062c\u0632\u0627 \u0645\u06cc\u200c\u0631\u0633\u0627\u0646\u06cc\u062f\u061f \u0648 \u0627\u06af\u0631 \u0628\u0647 \u0645\u0646 \u062c\u0632\u0627 \u0628\u0631\u0633\u0627\u0646\u06cc\u062f \u0645\u0646 \u062c\u0632\u0627\u06cc \u0634\u0645\u0627 \u0631\u0627 \u0628\u0632\u0648\u062f\u06cc \u0647\u0631\u200c\u0686\u0647 \u062a\u0645\u0627\u0645 \u062a\u0631 \u0628\u0647\u200c\u0633\u0631 \u0634\u0645\u0627 \u0631\u062f \u062e\u0648\u0627\u0647\u0645 \u0646\u0645\u0648\u062f. "
        },
        {
          "chapter": 3,
          "verse": 5,
          "name": "Joel 3:5",
          "text": "\u0686\u0648\u0646\u06a9\u0647 \u0646\u0642\u0631\u0647 \u0648 \u0637\u0644\u0627 \u0648 \u0646\u0641\u0627\u06cc\u0633 \u0632\u06cc\u0628\u0627\u06cc \u0645\u0631\u0627 \u06af\u0631\u0641\u062a\u0647\u060c \u0622\u0646\u0647\u0627 \u0631\u0627 \u0628\u0647 \u0647\u06cc\u06a9\u0644 \u0647\u0627\u06cc \u062e\u0648\u062f \u062f\u0631\u0622\u0648\u0631\u062f\u06cc\u062f. "
        },
        {
          "chapter": 3,
          "verse": 6,
          "name": "Joel 3:6",
          "text": "\u0648 \u067e\u0633\u0631\u0627\u0646 \u06cc\u0647\u0648\u062f\u0627 \u0648\u067e\u0633\u0631\u0627\u0646 \u0627\u0648\u0631\u0634\u0644\u06cc\u0645 \u0631\u0627 \u0628\u0647 \u067e\u0633\u0631\u0627\u0646 \u06cc\u0648\u0646\u0627\u0646\u06cc\u0627\u0646 \u0641\u0631\u0648\u062e\u062a\u06cc\u062f \u062a\u0627\u0627\u06cc\u0634\u0627\u0646 \u0631\u0627 \u0627\u0632 \u062d\u062f\u0648\u062f \u0627\u06cc\u0634\u0627\u0646 \u062f\u0648\u0631 \u06a9\u0646\u06cc\u062f. "
        },
        {
          "chapter": 3,
          "verse": 7,
          "name": "Joel 3:7",
          "text": "\u0627\u06cc\u0646\u06a9 \u0645\u0646 \u0627\u06cc\u0634\u0627\u0646 \u0631\u0627 \u0627\u0632 \u0645\u06a9\u0627\u0646\u06cc \u06a9\u0647 \u0627\u06cc\u0634\u0627\u0646 \u0631\u0627 \u0628\u0647 \u0622\u0646 \u0641\u0631\u0648\u062e\u062a\u06cc\u062f\u060c \u062e\u0648\u0627\u0647\u0645 \u0628\u0631\u0627\u0646\u06af\u06cc\u0632\u0627\u0646\u06cc\u062f \u0648 \u0627\u0639\u0645\u0627\u0644 \u0634\u0645\u0627 \u0631\u0627 \u0628\u0647\u200c\u0633\u0631 \u0634\u0645\u0627\u062e\u0648\u0627\u0647\u0645 \u0628\u0631\u06af\u0631\u062f\u0627\u0646\u06cc\u062f. "
        },
        {
          "chapter": 3,
          "verse": 8,
          "name": "Joel 3:8",
          "text": "\u0648 \u067e\u0633\u0631\u0627\u0646 \u0648 \u062f\u062e\u062a\u0631\u0627\u0646 \u0634\u0645\u0627 \u0631\u0627 \u0628\u0647\u200c\u062f\u0633\u062a \u0628\u0646\u06cc \u06cc\u0647\u0648\u062f\u0627 \u062e\u0648\u0627\u0647\u0645 \u0641\u0631\u0648\u062e\u062a \u062a\u0627 \u0627\u06cc\u0634\u0627\u0646 \u0631\u0627 \u0628\u0647 \u0633\u0628\u0627\u0626\u06cc\u0627\u0646 \u06a9\u0647 \u0627\u0645\u062a\u06cc \u0628\u0639\u06cc\u062f \u0645\u06cc\u200c\u0628\u0627\u0634\u0646\u062f \u0628\u0641\u0631\u0648\u0634\u0646\u062f \u0632\u06cc\u0631\u0627\u062e\u062f\u0627\u0648\u0646\u062f \u0627\u06cc\u0646 \u0631\u0627 \u06af\u0641\u062a\u0647 \u0627\u0633\u062a.   "
        },
        {
          "chapter": 3,
          "verse": 9,
          "name": "Joel 3:9",
          "text": "\u0627\u06cc\u0646 \u0631\u0627 \u062f\u0631 \u0645\u06cc\u0627\u0646 \u0627\u0645\u062a\u200c\u0647\u0627 \u0646\u062f\u0627 \u06a9\u0646\u06cc\u062f. \u062a\u062f\u0627\u0631\u06a9 \u062c\u0646\u06af \u0628\u06cc\u0646\u06cc\u062f \u0648 \u062c\u0628\u0627\u0631\u0627\u0646 \u0631\u0627 \u0628\u0631\u0627\u0646\u06af\u06cc\u0632\u0627\u0646\u06cc\u062f. \u062a\u0645\u0627\u0645\u06cc \u0645\u0631\u062f\u0627\u0646 \u062c\u0646\u06af\u06cc \u0646\u0632\u062f\u06cc\u06a9 \u0634\u062f\u0647\u060c \u0628\u0631\u0622\u06cc\u0646\u062f. "
        },
        {
          "chapter": 3,
          "verse": 10,
          "name": "Joel 3:10",
          "text": "\u06af\u0627\u0648\u0622\u0647\u0646\u0647\u0627\u06cc \u062e\u0648\u062f \u0631\u0627 \u0628\u0631\u0627\u06cc \u0634\u0645\u0634\u06cc\u0631\u0647\u0627 \u0648 \u0627\u0631\u0647 \u0647\u0627\u06cc \u062e\u0648\u06cc\u0634 \u0631\u0627 \u0628\u0631\u0627\u06cc \u0646\u06cc\u0632\u0647\u200c\u0647\u0627 \u062e\u0631\u062f\u06a9\u0646\u06cc\u062f \u0648 \u0645\u0631\u062f \u0636\u0639\u06cc\u0641 \u0628\u06af\u0648\u06cc\u062f: \u0645\u0646 \u0642\u0648\u06cc \u0647\u0633\u062a\u0645. "
        },
        {
          "chapter": 3,
          "verse": 11,
          "name": "Joel 3:11",
          "text": "\u200c\u0627\u06cc \u0647\u0645\u0647 \u0627\u0645\u062a\u200c\u0647\u0627 \u0628\u0634\u062a\u0627\u0628\u06cc\u062f \u0648 \u0628\u06cc\u0627\u06cc\u06cc\u062f \u0648 \u0627\u0632 \u0647\u0631 \u0637\u0631\u0641 \u062c\u0645\u0639 \u0634\u0648\u06cc\u062f! \u0627\u06cc \u062e\u062f\u0627\u0648\u0646\u062f \u0634\u062c\u0627\u0639\u0627\u0646 \u062e\u0648\u062f \u0631\u0627 \u0628\u0647 \u0622\u0646\u062c\u0627 \u0641\u0631\u0648\u062f\u0622\u0648\u0631! "
        },
        {
          "chapter": 3,
          "verse": 12,
          "name": "Joel 3:12",
          "text": "\u0627\u0645\u062a\u200c\u0647\u0627 \u0628\u0631\u0627\u0646\u06af\u06cc\u062e\u062a\u0647 \u0634\u0648\u0646\u062f \u0648 \u0628\u0647 \u0648\u0627\u062f\u06cc \u06cc\u0647\u0648\u0634\u0627\u0641\u0627\u0637 \u0628\u0631\u0622\u06cc\u0646\u062f \u0632\u06cc\u0631\u0627 \u06a9\u0647 \u0645\u0646 \u062f\u0631 \u0622\u0646\u062c\u0627 \u062e\u0648\u0627\u0647\u0645 \u0646\u0634\u0633\u062a \u062a\u0627 \u0628\u0631 \u0647\u0645\u0647 \u0627\u0645\u062a \u0647\u0627\u06cc\u06cc \u06a9\u0647 \u0628\u0647 \u0627\u0637\u0631\u0627\u0641 \u0622\u0646 \u0647\u0633\u062a\u0646\u062f \u062f\u0627\u0648\u0631\u06cc \u0646\u0645\u0627\u06cc\u0645. "
        },
        {
          "chapter": 3,
          "verse": 13,
          "name": "Joel 3:13",
          "text": "\u062f\u0627\u0633 \u0631\u0627 \u067e\u06cc\u0634 \u0622\u0648\u0631\u06cc\u062f \u0632\u06cc\u0631\u0627\u06a9\u0647 \u062d\u0627\u0635\u0644 \u0631\u0633\u06cc\u062f\u0647 \u0627\u0633\u062a. \u0628\u06cc\u0627\u06cc\u06cc\u062f \u067e\u0627\u06cc\u0645\u0627\u0644 \u06a9\u0646\u06cc\u062f \u0632\u06cc\u0631\u0627\u06a9\u0647 \u0645\u0639\u0635\u0631\u0647\u200c\u0647\u0627 \u067e\u0631 \u0634\u062f\u0647 \u0648 \u0686\u0631\u062e\u0634\u062a\u0647\u0627 \u0644\u0628\u0631\u06cc\u0632 \u06af\u0631\u062f\u06cc\u062f\u0647 \u0627\u0633\u062a \u0686\u0648\u0646\u06a9\u0647 \u0634\u0631\u0627\u0631\u062a \u0634\u0645\u0627 \u0639\u0638\u06cc\u0645 \u0627\u0633\u062a. "
        },
        {
          "chapter": 3,
          "verse": 14,
          "name": "Joel 3:14",
          "text": "\u062c\u0645\u0627\u0639\u062a\u0647\u0627\u060c \u062c\u0645\u0627\u0639\u062a\u0647\u0627 \u062f\u0631 \u0648\u0627\u062f\u06cc \u0642\u0636\u0627! \u0632\u06cc\u0631\u0627 \u0631\u0648\u0632\u062e\u062f\u0627\u0648\u0646\u062f \u062f\u0631 \u0648\u0627\u062f\u06cc \u0642\u0636\u0627 \u0646\u0632\u062f\u06cc\u06a9 \u0627\u0633\u062a. "
        },
        {
          "chapter": 3,
          "verse": 15,
          "name": "Joel 3:15",
          "text": "\u0622\u0641\u062a\u0627\u0628 \u0648\u0645\u0627\u0647 \u0633\u06cc\u0627\u0647 \u0645\u06cc\u200c\u0634\u0648\u0646\u062f \u0648 \u0633\u062a\u0627\u0631\u06af\u0627\u0646 \u062a\u0627\u0628\u0634 \u062e\u0648\u062f \u0631\u0627\u0628\u0627\u0632\u0645\u06cc \u062f\u0627\u0631\u0646\u062f. "
        },
        {
          "chapter": 3,
          "verse": 16,
          "name": "Joel 3:16",
          "text": "\u0648 \u062e\u062f\u0627\u0648\u0646\u062f \u0627\u0632 \u0635\u0647\u06cc\u0648\u0646 \u0646\u0639\u0631\u0647 \u0645\u06cc\u200c\u0632\u0646\u062f\u0648 \u0622\u0648\u0627\u0632 \u062e\u0648\u062f \u0631\u0627 \u0627\u0632 \u0627\u0648\u0631\u0634\u0644\u06cc\u0645 \u0628\u0644\u0646\u062f \u0645\u06cc\u200c\u06a9\u0646\u062f \u0648 \u0622\u0633\u0645\u0627\u0646 \u0648\u0632\u0645\u06cc\u0646 \u0645\u062a\u0632\u0644\u0632\u0644 \u0645\u06cc\u200c\u0634\u0648\u062f\u060c \u0627\u0645\u0627 \u062e\u062f\u0627\u0648\u0646\u062f \u0645\u0644\u062c\u0627\u06cc \u0642\u0648\u0645 \u062e\u0648\u062f \u0648 \u0645\u0644\u0627\u0630 \u0628\u0646\u06cc\u200c\u0627\u0633\u0631\u0627\u0626\u06cc\u0644 \u062e\u0648\u0627\u0647\u062f \u0628\u0648\u062f.         "
        },
        {
          "chapter": 3,
          "verse": 17,
          "name": "Joel 3:17",
          "text": "\u067e\u0633 \u062e\u0648\u0627\u0647\u06cc\u062f \u062f\u0627\u0646\u0633\u062a \u06a9\u0647 \u0645\u0646 \u06cc\u0647\u0648\u0647 \u062e\u062f\u0627\u06cc \u0634\u0645\u0627 \u062f\u0631 \u06a9\u0648\u0647 \u0645\u0642\u062f\u0633 \u062e\u0648\u06cc\u0634 \u0635\u0647\u06cc\u0648\u0646 \u0633\u0627\u06a9\u0646 \u0645\u06cc\u200c\u0628\u0627\u0634\u0645 \u0648 \u0627\u0648\u0631\u0634\u0644\u06cc\u0645 \u0645\u0642\u062f\u0633 \u062e\u0648\u0627\u0647\u062f \u0628\u0648\u062f \u0648 \u0628\u06cc\u06af\u0627\u0646\u06af\u0627\u0646 \u062f\u06cc\u06af\u0631 \u0627\u0632 \u0622\u0646 \u0639\u0628\u0648\u0631 \u0646\u062e\u0648\u0627\u0647\u0646\u062f \u0646\u0645\u0648\u062f. "
        },
        {
          "chapter": 3,
          "verse": 18,
          "name": "Joel 3:18",
          "text": "\u0648 \u062f\u0631 \u0622\u0646 \u0631\u0648\u0632\u06a9\u0648\u0647\u0647\u0627 \u0639\u0635\u06cc\u0631 \u0627\u0646\u06af\u0648\u0631 \u0631\u0627 \u062e\u0648\u0627\u0647\u0646\u062f \u0686\u06a9\u0627\u0646\u06cc\u062f \u0648 \u06a9\u0648\u0647\u0647\u0627 \u0628\u0647 \u0634\u06cc\u0631 \u062c\u0627\u0631\u06cc \u062e\u0648\u0627\u0647\u062f \u0634\u062f \u0648 \u062a\u0645\u0627\u0645\u06cc \u0648\u0627\u062f\u06cc\u0647\u0627\u06cc \u06cc\u0647\u0648\u062f\u0627 \u0628\u0647 \u0622\u0628 \u062c\u0627\u0631\u06cc \u062e\u0648\u0627\u0647\u062f \u06af\u0631\u062f\u06cc\u062f \u0648 \u0686\u0634\u0645\u0647\u200c\u0627\u06cc \u0627\u0632 \u062e\u0627\u0646\u0647 \u062e\u062f\u0627\u0648\u0646\u062f \u0628\u06cc\u0631\u0648\u0646 \u0622\u0645\u062f\u0647\u060c \u0648\u0627\u062f\u06cc \u0634\u0637\u06cc\u0645 \u0631\u0627 \u0633\u06cc\u0631\u0627\u0628 \u062e\u0648\u0627\u0647\u062f \u0633\u0627\u062e\u062a. "
        },
        {
          "chapter": 3,
          "verse": 19,
          "name": "Joel 3:19",
          "text": "\u0645\u0635\u0631 \u0648\u06cc\u0631\u0627\u0646 \u062e\u0648\u0627\u0647\u062f \u0634\u062f \u0648 \u0627\u062f\u0648\u0645 \u0628\u0647 \u0628\u06cc\u0627\u0628\u0627\u0646 \u0628\u0627\u06cc\u0631 \u0645\u0628\u062f\u0644 \u062e\u0648\u0627\u0647\u062f \u06af\u0631\u062f\u06cc\u062f\u060c \u0628\u0647\u200c\u0633\u0628\u0628 \u0638\u0644\u0645\u06cc \u06a9\u0647 \u0628\u0631 \u0628\u0646\u06cc \u06cc\u0647\u0648\u062f\u0627 \u0646\u0645\u0648\u062f\u0646\u062f \u0648 \u062e\u0648\u0646 \u0628\u06cc\u200c\u06af\u0646\u0627\u0647\u0627\u0646 \u0631\u0627 \u062f\u0631\u0632\u0645\u06cc\u0646 \u0627\u06cc\u0634\u0627\u0646 \u0631\u06cc\u062e\u062a\u0646\u062f. "
        },
        {
          "chapter": 3,
          "verse": 20,
          "name": "Joel 3:20",
          "text": "\u0648 \u06cc\u0647\u0648\u062f\u0627 \u062a\u0627 \u0627\u0628\u062f\u0627\u0644\u0627\u0628\u0627\u062f\u0645\u0633\u06a9\u0648\u0646 \u062e\u0648\u0627\u0647\u062f \u0634\u062f \u0648 \u0627\u0648\u0631\u0634\u0644\u06cc\u0645 \u062a\u0627 \u062f\u0647\u0631\u0647\u0627\u06cc \u0628\u0633\u06cc\u0627\u0631. "
        },
        {
          "chapter": 3,
          "verse": 21,
          "name": "Joel 3:21",
          "text": "\u0648 \u062e\u0648\u0646\u0631\u06cc\u0632\u06cc \u0627\u06cc\u0634\u0627\u0646 \u0631\u0627 \u06a9\u0647 \u0637\u0627\u0647\u0631 \u0646\u0633\u0627\u062e\u062a\u0647 \u0628\u0648\u062f\u0645\u060c \u0637\u0627\u0647\u0631 \u062e\u0648\u0627\u0647\u0645 \u0633\u0627\u062e\u062a \u0648 \u06cc\u0647\u0648\u0647 \u062f\u0631 \u0635\u0647\u06cc\u0648\u0646 \u0633\u0627\u06a9\u0646 \u062e\u0648\u0627\u0647\u062f \u0634\u062f.    "
        }
      ]
    }
  ]
}
