{
    "translation": "Kitab Awal-Jaman maka Kitab Injil",
    "abbreviation": "sml_bl_2008",
    "lang": "sml",
    "language": "Sama",
    "direction": "LTR",
    "encoding": "UTF-8",
    "book_nr": 42,
    "book_name": "Luke",
    "chapter": 9,
    "name": "Luke 9",
    "verses": [
        {
            "chapter": 9,
            "verse": 1,
            "name": "Luke 9:1",
            "text": "     Na, tapatimuk pa'in e' si Isa mulidna kasangp\u016b' maka duwa buwananna sig\u0101m kawasa pamala'an saitan min deyom baran a'a sampay amauli' saki indaginis."
        },
        {
            "chapter": 9,
            "verse": 2,
            "name": "Luke 9:2",
            "text": "Puwas e' sin\u014d' sig\u0101m pal'ngngan magnasihat pasal pagparinta Tuhan ma manusiya'. Sin\u014d' sig\u0101m amauli' isab sasuku taluwa' saki."
        },
        {
            "chapter": 9,
            "verse": 3,
            "name": "Luke 9:3",
            "text": "Yukna ni sig\u0101m, \u201cDa'a kam amowa ai-ai ma pal'ngngananbi. Da'a kam amowa tungkud atawa puyu' pamowahan ai-aibi atawa lutu' atawa s\u012bn. Da'a isab kam amowa badju' pasalinanbi."
        },
        {
            "chapter": 9,
            "verse": 4,
            "name": "Luke 9:4",
            "text": "Maingga-maingga lahat kat'kkahanbi, bang kam sinagina e' a'a sin\u014d' pariyata' ni luma'na, subay kam pahanti' maina'an sat'ggolbi ma kaluma'an ina'an-i."
        },
        {
            "chapter": 9,
            "verse": 5,
            "name": "Luke 9:5",
            "text": "Bang ganta' aniya' kaluma'an papeh\u0113'anbi, bo' a'ana in\u0101n mbal magaddatan ka'am, ala'an kam minna'an. Paspasinbi dah\u016b bagunbunna min tape'bi tanda' saksi' in ka'am apuwas min sig\u0101m.\u201d  "
        },
        {
            "chapter": 9,
            "verse": 6,
            "name": "Luke 9:6",
            "text": "  Manjari magl'ngnganan na saga mulid si Isa angalatag kalahat-lahatan. Pi'ingga-pi'ingga pat'kkahan sig\u0101m, pinagnasihat e' sig\u0101m lapal ah\u0101p maka pinauli' e' sig\u0101m saga a'a asaki.   "
        },
        {
            "chapter": 9,
            "verse": 7,
            "name": "Luke 9:7",
            "text": "     Manjari itu takale e' si Herod, ya ang'ntan pagparinta ma lahat Jalil, pasal pakaradja'an itu kamemon. Asasaw pikilanna sabab magsadd\u012b-sadd\u012b pangupama saga a'a. Bang ma a'a kasehe' si Yahiya Magpapandi ko' in\u0101n, allum na pab\u012bng min kamatayna."
        },
        {
            "chapter": 9,
            "verse": 8,
            "name": "Luke 9:8",
            "text": "Bang ma kasehe' nabi Elija ko' in\u0101n panyata' pi'itu ni dunya. Bang ma kasehe' isab, dakayu' nabi ko' in\u0101n bay ma masa awal, bo' allum na pabalik."
        },
        {
            "chapter": 9,
            "verse": 9,
            "name": "Luke 9:9",
            "text": "Yuk si Herod, \u201cSi Yahiya bay s\u014d'ku pinonggolan k\u014dkna. Daka sai a'a ya takaleku pinagbissala itu.\u201d Sakali pasulay na pa'in si Herod amowa mag'nda' maka si Isa.   "
        },
        {
            "chapter": 9,
            "verse": 10,
            "name": "Luke 9:10",
            "text": "     Na, saga a'a bay kawakilan e' si Isa pab\u012bng na ni iya min kal'ngnganan sig\u0101m. Nihaka'an iya pasal kamemon bay tahinang sig\u0101m. Manjari binowa sig\u0101m e' si Isa pina'an ni da'ira Betsaida, sig\u0101m-sig\u0101m sadja."
        },
        {
            "chapter": 9,
            "verse": 11,
            "name": "Luke 9:11",
            "text": "Makata'u pa'in ba'anan a'a in\u0101n bang pi'ingga si Isa, magt\u016by sig\u0101m paturul ma iya. Sinagina sig\u0101m e' si Isa ati pandu'anna sig\u0101m pasal pagparinta Tuhan. Pinauli' isab sasuku taga-saki.  "
        },
        {
            "chapter": 9,
            "verse": 12,
            "name": "Luke 9:12",
            "text": "  S\u014dng pa'in pas'ddop llaw, peh\u0113' ni iya mulidna kasangp\u016b' maka duwa. Yuk sig\u0101m, \u201cS\u014d'un lagi' ba'anan a'a itu peh\u0113' ni saga kaluma'an ma katilibutta itu, maka ni luma' saga a'a maghuhuma, bo' supaya sig\u0101m amiha balanja' maka pahanti'an. Sabab halam aniya' luma' ma lahat itu.\u201d  "
        },
        {
            "chapter": 9,
            "verse": 13,
            "name": "Luke 9:13",
            "text": "  Sag\u014d' anambung si Isa ma saga mulidna, yukna, \u201cKa'am na amakan sig\u0101m.\u201d   Yuk sig\u0101m, \u201cLima du tinapay ma kami maka duwa du daing. Luwal bang kami peh\u0113' am'lli tinapay pamakan ba'anan a'a itu!\u201d"
        },
        {
            "chapter": 9,
            "verse": 14,
            "name": "Luke 9:14",
            "text": "(Aniya' saga limangibu bang hal l'lla ni'itung)   Yuk si Isa ni saga mulidna, \u201cS\u014d'unbi sig\u0101m magtingk\u014d'an limamp\u016b'-limamp\u016b' ma datumpuk.\u201d"
        },
        {
            "chapter": 9,
            "verse": 15,
            "name": "Luke 9:15",
            "text": "Aubus pa'in sig\u0101m pinatingk\u014d' kamemon,"
        },
        {
            "chapter": 9,
            "verse": 16,
            "name": "Luke 9:16",
            "text": "ni\u0101' e' si Isa lima tinapay maka duwa daing e'. Pahangad iya ni langit bo' yampa magsukul ni Tuhan. Puwas e' pinagp\u014dng-p\u014dng e'na kinakan in\u0101n bo' s\u014dnganna ni saga mulidna pinagtopod-topod ma saga a'a in\u0101n."
        },
        {
            "chapter": 9,
            "verse": 17,
            "name": "Luke 9:17",
            "text": "Magkakan sig\u0101m kamemon sampay mag'ssohan na. Pagubus sig\u0101m amangan, tinipun e' saga mulid si Isa kapinna, aniya' sangp\u016b' maka duwa ambung aheya ap'nno'.   "
        },
        {
            "chapter": 9,
            "verse": 18,
            "name": "Luke 9:18",
            "text": "     Aniya' dakayu' llaw, sabu pa'in si Isa dangan-danganna angarap ni Tuhan, peh\u0113' ni iya saga mulidna. Tinilaw sig\u0101m e'na, yukna, \u201cSai kono' aku, bang ma pangupama saga a'a?\u201d  "
        },
        {
            "chapter": 9,
            "verse": 19,
            "name": "Luke 9:19",
            "text": "  Yuk sambung saga mulid e', \u201cBang ma a'a kasehe'an ka'a kono' si Yahiya Magpapandi. Bang ma a'a kasehe' in ka'a nabi Elija, maka bang ma a'a kasehe' isab dakayu' nabi ka bay ma masa awal, allum na pab\u012bng.\u201d  "
        },
        {
            "chapter": 9,
            "verse": 20,
            "name": "Luke 9:20",
            "text": "  \u201cNa, bang ma ka'am,\u201d yuk si Isa. \u201cAi yukbi? Sai sa aku itu?\u201d   Anambung si Petros, yukna, \u201cKa'a ya Al-Masi ya tapene' e' Tuhan.\u201d   "
        },
        {
            "chapter": 9,
            "verse": 21,
            "name": "Luke 9:21",
            "text": "     Puwas e' binanda'an e' si Isa saga mulidna sin\u014d' da'a angahaka ni sai-sai bang sai iya."
        },
        {
            "chapter": 9,
            "verse": 22,
            "name": "Luke 9:22",
            "text": "Yukna isab ni sig\u0101m, \u201cAku itu, Anak Manusiya', pinat'kkahan kabinasahan aheka. Pinagin'mbal du isab aku e' saga pagmatto'ahan maka e' saga kaimaman alanga maka saga guru sara' agama. Pinapatay du aku sag\u014d' ta'abut pa'in kat'llu llawna, allum du aku pab\u012bng.\u201d  "
        },
        {
            "chapter": 9,
            "verse": 23,
            "name": "Luke 9:23",
            "text": "  Jari ah'lling si Isa ni sig\u0101m kamemon, yukna, \u201cBang aniya' a'a bilahi ameya' ma aku, subay ngga'i ka kabaya'an baranna ya d\u016blanna. Kahaba' llaw subay tanggungna h\u0101gna pamapatayan iya. Minn\u0113' iya makajari ameya' ma aku."
        },
        {
            "chapter": 9,
            "verse": 24,
            "name": "Luke 9:24",
            "text": "Sai-sai allogan kallum-baranna amutawan du kallum-nyawana min Tuhan. Sag\u014d' sai-sai mbal allog ma kallum-baranna, bo' lilla' isab amatay ma sababku, makab\u0101k du iya kallum kakkal."
        },
        {
            "chapter": 9,
            "verse": 25,
            "name": "Luke 9:25",
            "text": "Sababna,\u201d yuk si Isa, \u201cbang aniya' a'a ganta' kaniya'an alta' deyom dunya kamemon, aheya lugi'na bang halam aniya' kallumna kakkal, maka bang iya amutawan min Tuhan."
        },
        {
            "chapter": 9,
            "verse": 26,
            "name": "Luke 9:26",
            "text": "Sai-sai aiya' angahaka patampal in iya suku'ku maka pandu'ku ya pameya'anna, jari aku itu, Anak Manusiya', aiya' isab angakuhan a'a in\u0101n ma waktu kapi'ituku pabalik. Pabalik du aku aliput e' sahayaku, maka sahaya Mma'ku Tuhan, sampay sahaya ba'anan mala'ikatna asussi."
        },
        {
            "chapter": 9,
            "verse": 27,
            "name": "Luke 9:27",
            "text": "B'nnal ya pah'llingku itu ma ka'am,\u201d yuk si Isa, \u201caniya' ma ka'am mbal amatay sat'ggol halam ta'nda'na pagparinta Tuhan pinat'nna'.\u201d   "
        },
        {
            "chapter": 9,
            "verse": 28,
            "name": "Luke 9:28",
            "text": "     Na, palabay pa'in saga dapitu' min bay pamissala si Isa in\u0101n, binowa e'na si Petros maka si Yahiya maka si Yakub patukad ni diyata' b\u016bd bo' angamu'-ngamu' ni Tuhan mah\u0113'."
        },
        {
            "chapter": 9,
            "verse": 29,
            "name": "Luke 9:29",
            "text": "Hinabuna angamu'-ngamu', apinda pangluwahanna maka apote' sidda s'mmekna, landu' makasilaw."
        },
        {
            "chapter": 9,
            "verse": 30,
            "name": "Luke 9:30",
            "text": "Sakali aniya' duwangan l'lla, ya na nabi Musa maka nabi Elija,"
        },
        {
            "chapter": 9,
            "verse": 31,
            "name": "Luke 9:31",
            "text": "magpanyata' pina'an aliput e' sahaya, ati magsuli-suli sig\u0101m maka si Isa pasal kamatay ya pamakadal Tuhan ma iya, ya song kalabayanna ma da'ira Awrusalam."
        },
        {
            "chapter": 9,
            "verse": 32,
            "name": "Luke 9:32",
            "text": "Na, si Petros maka saga sehe'na bay atuli sag\u014d' pagbati' sig\u0101m, ta'nda' e' sig\u0101m sahaya si Isa maka a'a duwangan ya an'ngge ma bihingna."
        },
        {
            "chapter": 9,
            "verse": 33,
            "name": "Luke 9:33",
            "text": "Jari itu, song pa'in ala'an duwangan in\u0101n min si Isa, ah'lling si Petros ma iya, yuk-i, \u201cTuwan guru, ah\u0101p kami makamaitu. Angahinang kami t'llu panggung-panggung pasindunganbi maitu, dakayu' ma ka'a, dakayu' ma si Musa itu, maka dakayu' ma si Elija.\u201d (Am\u016bng-m\u016bng sadja iya, sag\u014d' halam kata'uwanna bang ai kat'nna'an llingna.)  "
        },
        {
            "chapter": 9,
            "verse": 34,
            "name": "Luke 9:34",
            "text": "  Ma sabu pa'in ah'lling si Petros, aniya' gabun patuwa' angalandungan sig\u0101m ati tin\u0101w saga mulid in\u0101n pagka kalandungan e' gabun."
        },
        {
            "chapter": 9,
            "verse": 35,
            "name": "Luke 9:35",
            "text": "Aniya' suwala ah'lling min deyom gabun e', yuk-i, \u201cAnakku ko' itu bay pene'ku. Kalehunbi iya.\u201d  "
        },
        {
            "chapter": 9,
            "verse": 36,
            "name": "Luke 9:36",
            "text": "  Paghondong pa'in suwala in\u0101n, luwal si Isa la'a ya ta'nda' e' saga mulid in\u0101n. Halam sig\u0101m bay ah'lling-h'lling pasal bay ta'nda' e' sig\u0101m in\u0101n.   "
        },
        {
            "chapter": 9,
            "verse": 37,
            "name": "Luke 9:37",
            "text": "     Pag'llaw dakayu', makal\u016bd pa'in disi Isa min b\u016bd in\u0101n, aheka to'ongan a'a pasampang ni iya."
        },
        {
            "chapter": 9,
            "verse": 38,
            "name": "Luke 9:38",
            "text": "Aniya' l'lla angalingan min deyom katimukan in\u0101n, yuk-i, \u201cO Tuwan! Angamu' aku junjung ni ka'a, ka'ase'in kono' anakku tunggalan itu!"
        },
        {
            "chapter": 9,
            "verse": 39,
            "name": "Luke 9:39",
            "text": "Bang pas\u0101n sin\u014dd iya saitan. Patagha' sadja iya angolang, amaspad saga baranna maka anuput-nuput bowa'na. Landu' iya minula e' saitan, sali' halam aniya' kahondonganna."
        },
        {
            "chapter": 9,
            "verse": 40,
            "name": "Luke 9:40",
            "text": "Bay amu'ku saga mulidnu itu amaluwas sag\u014d' mbal tapaluwas e' sig\u0101m.\u201d  "
        },
        {
            "chapter": 9,
            "verse": 41,
            "name": "Luke 9:41",
            "text": "  Yuk si Isa, \u201cKa'am saga a'a ma patahunan itu, as\u0101' pah\u0101p pikilanbi! Halam to'ongan aniya' imanbi! Subay buwattingga gi' t'ggolku ma ka'am anandalan kabuwattilubi bo' yampa kam magkahagad?\u201d Jari ah'lling iya ni mma' onde', \u201cBowahun pi'itu anaknu,\u201d yukna.  "
        },
        {
            "chapter": 9,
            "verse": 42,
            "name": "Luke 9:42",
            "text": "  Na, sabu pa'in onde' in\u0101n binowa ni si Isa, nihantakan iya ni tana' e' saitan maka pinapaspad. Sag\u014d' pinabukagan saitan e' si Isa ati pinauli' onde' in\u0101n bo' ni'nde'an ni mma'na."
        },
        {
            "chapter": 9,
            "verse": 43,
            "name": "Luke 9:43",
            "text": "Jari ainu-inu saga a'a maina'an kamemon, pag'nda' sig\u0101m ma kaheya kawasa Tuhan.       Hinabu masi magkainu-inuhan saga a'a in\u0101n ma saga hinang si Isa kamemon, ah'lling iya ni saga mulidna, yukna,"
        },
        {
            "chapter": 9,
            "verse": 44,
            "name": "Luke 9:44",
            "text": "\u201cPandogahinbi to'ongan ya pamissalaku itu ma ka'am. Aku itu, Anak Manusiya', arai' na sin\u014dngan ni pagbaya'an saga a'a.\u201d"
        },
        {
            "chapter": 9,
            "verse": 45,
            "name": "Luke 9:45",
            "text": "Saguw\u0101' in bissala si Isa in\u0101n halam tahati e' saga mulidna. Tu'ud nilimbungan hatina min sig\u0101m. Mbal isab sig\u0101m makatawakkal atilaw iya bang ai hatina bay yukna he'.   "
        },
        {
            "chapter": 9,
            "verse": 46,
            "name": "Luke 9:46",
            "text": "     Ma llaw dakayu' magjawab saga mulid si Isa bang sai ma sig\u0101m ya katapusan alanga."
        },
        {
            "chapter": 9,
            "verse": 47,
            "name": "Luke 9:47",
            "text": "Kinata'uwan asal e' si Isa bang ai ma deyom pikilan sig\u0101m, angkan ni\u0101' e'na dakayu' onde'-onde' ariki', pinat'ngge e'na ma bihingna."
        },
        {
            "chapter": 9,
            "verse": 48,
            "name": "Luke 9:48",
            "text": "Yukna ni sig\u0101m, \u201cSasuku anaima' dakayu' onde'-onde' ariki' buwattitu ma sabab \u014dnku ya pamanyabutanna, baranku ya tinaima' e'na. Maka sasuku anaima' aku, taima'na isab Tuhan ya bay amapi'itu aku ni dunya. Sai-sai areyo' pagatayna min kasehe'anna, ya ina'an katapusan alanga.\u201d   "
        },
        {
            "chapter": 9,
            "verse": 49,
            "name": "Luke 9:49",
            "text": "     Jari ah'lling si Yahiya, yukna, \u201cTuwan, aniya' ta'nda' kami dakayu' a'a anabbut \u014dnnu pamaluwasna saitan min deyom baran a'a. Bay iya l\u0101ng kami sabab in iya ngga'i ka sehe'tam.\u201d  "
        },
        {
            "chapter": 9,
            "verse": 50,
            "name": "Luke 9:50",
            "text": "  Sag\u014d' ah'lling si Isa, yukna, \u201cDa'a iya l\u0101ngunbi sabab sasuku mbal anagga' ka'am amogbog du.\u201d   "
        },
        {
            "chapter": 9,
            "verse": 51,
            "name": "Luke 9:51",
            "text": "    Manjari itu, pagka song ta'abut na waktu pama'angkat si Isa ni sulga', amanuyu' to'ongan iya peh\u0113' ni Awrusalam."
        },
        {
            "chapter": 9,
            "verse": 52,
            "name": "Luke 9:52",
            "text": "Aniya' saga a'a soho'na parah\u016b min iya, ati peh\u0113' sig\u0101m pal'ngngan tudju ni dakayu' kauman ma lahat Samariya anakapan pahanti'anna mah\u0113'."
        },
        {
            "chapter": 9,
            "verse": 53,
            "name": "Luke 9:53",
            "text": "Saguw\u0101' saga a'a ma kauman in\u0101n mbal bilahi anaima' si Isa sabab Awrusalam ya patudjuhanna."
        },
        {
            "chapter": 9,
            "verse": 54,
            "name": "Luke 9:54",
            "text": "Kinata'uwan pa'in itu e' duwa mulidna, si Yakub maka si Yahiya, yuk sig\u0101m ni si Isa, \u201cTuwan Pangh\u016b', bilahi ka bah\u0101' bang kami anoho' api pah\u016bg min sulga' pangamula saga a'a in\u0101n?\u201d  "
        },
        {
            "chapter": 9,
            "verse": 55,
            "name": "Luke 9:55",
            "text": "  Sag\u014d' niharap duwangan itu e' si Isa bo' pah'llinganna."
        },
        {
            "chapter": 9,
            "verse": 56,
            "name": "Luke 9:56",
            "text": "Manjari palanjal sig\u0101m minn\u0113' bo' ni kaluma'an sadd\u012b.   "
        },
        {
            "chapter": 9,
            "verse": 57,
            "name": "Luke 9:57",
            "text": "     Ma pal'ngnganan pa'in sig\u0101m, aniya' dakayu' a'a amissala ni si Isa, yukna, \u201cTuwan, bilahi aku ameya' ma ka'a pi'ingga-pi'ingga papehe'annu.\u201d  "
        },
        {
            "chapter": 9,
            "verse": 58,
            "name": "Luke 9:58",
            "text": "  Yuk si Isa ma iya, \u201cG\u014dm hayop talun aniya' pat'nna'anna, maka kamanuk-manukan aniya' pugaranna. Saguw\u0101' aku itu, Anak Manusiya', halam taga-pahanti'an luggiya'.\u201d  "
        },
        {
            "chapter": 9,
            "verse": 59,
            "name": "Luke 9:59",
            "text": "  Ah'lling si Isa ni a'a dakayu', yukna, \u201cPi'itu ka ameya' ma aku.\u201d   Sag\u014d' magtumagal a'a he', yukna, \u201cTuwan, paba'irun gi' aku pab\u012bng ni luma'. Subay na apuwas pangubulku ma mma'ku bo' yampa aku ameya' ma ka'a.\u201d  "
        },
        {
            "chapter": 9,
            "verse": 60,
            "name": "Luke 9:60",
            "text": "  Anambung si Isa, yukna, \u201cPatut bang a'a amatay pinakubul ma saga a'a kasehe'an ya halam kaniya'an kallum taptap. Sag\u014d' ka'a, peh\u0113' ka pal'ngngan magnasihat pasal pagparinta Tuhan.\u201d  "
        },
        {
            "chapter": 9,
            "verse": 61,
            "name": "Luke 9:61",
            "text": "  Aniya' isab a'a dangan ah'lling ma si Isa, yukna, \u201cAmeya' aku ma ka'a, Tuwan, sag\u014d' d\u016blin aku ama'id min matto'a-danakanku dah\u016b.\u201d  "
        },
        {
            "chapter": 9,
            "verse": 62,
            "name": "Luke 9:62",
            "text": "  Yuk si Isa ma iya, \u201cBang aniya' a'a magararu ma humana bo' hal palingi' ang'nda' ni buli'anna, mbal taluwa'. Damikiyanna bang a'a bilahi ameya' ma aku bo' abimbang ma ai-ai bay bbahanna he', mbal iya t\u014dp maghinang ma pagparintahan Tuhan.\u201d    "
        }
    ]
}