{
    "translation": "Martin (1744)",
    "abbreviation": "martin",
    "lang": "fr",
    "language": "French",
    "direction": "LTR",
    "encoding": "UTF-8",
    "book_nr": 19,
    "book_name": "Psalms",
    "chapter": 117,
    "name": "Psalms 117",
    "verses": [
        {
            "chapter": 117,
            "verse": 1,
            "name": "Psalms 117:1",
            "text": " Toutes nations, louez l'Eternel ; tous peuples, c\u00e9l\u00e9brez-le."
        },
        {
            "chapter": 117,
            "verse": 2,
            "name": "Psalms 117:2",
            "text": "Car sa mis\u00e9ricorde est grande envers nous, et la v\u00e9rit\u00e9 de l'Eternel demeure \u00e0 toujours. Louez l'Eternel."
        }
    ]
}