{
    "translation": "Martin (1744)",
    "abbreviation": "martin",
    "lang": "fr",
    "language": "French",
    "direction": "LTR",
    "encoding": "UTF-8",
    "book_nr": 19,
    "book_name": "Psalms",
    "chapter": 122,
    "name": "Psalms 122",
    "verses": [
        {
            "chapter": 122,
            "verse": 1,
            "name": "Psalms 122:1",
            "text": " Cantique de Mahaloth, de David. Je me suis r\u00e9joui \u00e0 cause de ceux qui me disaient : nous irons \u00e0 la maison de l'Eternel."
        },
        {
            "chapter": 122,
            "verse": 2,
            "name": "Psalms 122:2",
            "text": "Nos pieds se sont arr\u00eat\u00e9 en tes portes, \u00f4 J\u00e9rusalem !"
        },
        {
            "chapter": 122,
            "verse": 3,
            "name": "Psalms 122:3",
            "text": "J\u00e9rusalem, qui est b\u00e2tie comme une ville dont les habitants sont fort unis,"
        },
        {
            "chapter": 122,
            "verse": 4,
            "name": "Psalms 122:4",
            "text": "A laquelle montent les Tribus, les Tribus de l'Eternel, ce qui est un t\u00e9moignage \u00e0 Isra\u00ebl, pour c\u00e9l\u00e9brer le Nom de l'Eternel."
        },
        {
            "chapter": 122,
            "verse": 5,
            "name": "Psalms 122:5",
            "text": "Car c'est l\u00e0 qu'ont \u00e9t\u00e9 pos\u00e9s les si\u00e8ges pour juger, les si\u00e8ges, dis-je, de la maison de David."
        },
        {
            "chapter": 122,
            "verse": 6,
            "name": "Psalms 122:6",
            "text": "Priez pour la paix de J\u00e9rusalem ; que ceux qui t'aiment jouissent de la prosp\u00e9rit\u00e9."
        },
        {
            "chapter": 122,
            "verse": 7,
            "name": "Psalms 122:7",
            "text": "Que la paix soit \u00e0 ton avant-mur, et la prosp\u00e9rit\u00e9 dans tes palais."
        },
        {
            "chapter": 122,
            "verse": 8,
            "name": "Psalms 122:8",
            "text": "Pour l'amour de mes fr\u00e8res et de mes amis, je prierai maintenant pour ta paix."
        },
        {
            "chapter": 122,
            "verse": 9,
            "name": "Psalms 122:9",
            "text": "A cause de la maison de l'Eternel notre Dieu je procurerai ton bien."
        }
    ]
}