{
    "translation": "Young's Literal Translation",
    "abbreviation": "ylt",
    "lang": "en",
    "language": "English",
    "direction": "LTR",
    "encoding": "",
    "book_nr": 11,
    "book_name": "1 Kings",
    "chapter": 18,
    "name": "1 Kings 18",
    "verses": [
        {
            "chapter": 18,
            "verse": 1,
            "name": "1 Kings 18:1",
            "text": "And the days are many, and the word of Jehovah hath been unto Elijah in the third year, saying, `Go, appear unto Ahab, and I give rain on the face of the ground;'"
        },
        {
            "chapter": 18,
            "verse": 2,
            "name": "1 Kings 18:2",
            "text": "and Elijah goeth to appear unto Ahab. And the famine is severe in Samaria,"
        },
        {
            "chapter": 18,
            "verse": 3,
            "name": "1 Kings 18:3",
            "text": "and Ahab calleth unto Obadiah, who <FI>is<Fi> over the house--and Obadiah hath been fearing Jehovah greatly,"
        },
        {
            "chapter": 18,
            "verse": 4,
            "name": "1 Kings 18:4",
            "text": "and it cometh to pass, in Jezebel's cutting off the prophets of Jehovah, that Obadiah taketh a hundred prophets, and hideth them, fifty men in a cave, and hath sustained them with bread and water--"
        },
        {
            "chapter": 18,
            "verse": 5,
            "name": "1 Kings 18:5",
            "text": "and Ahab saith unto Obadiah, `Go through the land, unto all fountains of waters, and unto all the brooks, if so be we find hay, and keep alive horse and mule, and do not cut off any of the cattle.'"
        },
        {
            "chapter": 18,
            "verse": 6,
            "name": "1 Kings 18:6",
            "text": "And they apportion to themselves the land, to pass over into it; Ahab hath gone in one way by himself, and Obadiah hath gone in another way by himself;"
        },
        {
            "chapter": 18,
            "verse": 7,
            "name": "1 Kings 18:7",
            "text": "and Obadiah <FI>is<Fi> in the way, and lo, Elijah--to meet him; and he discerneth him, and falleth on his face, and saith, `Art thou he--my lord Elijah?'"
        },
        {
            "chapter": 18,
            "verse": 8,
            "name": "1 Kings 18:8",
            "text": "And he saith to him, `I <FI>am<Fi> ; go, say to thy lord, Lo, Elijah.'"
        },
        {
            "chapter": 18,
            "verse": 9,
            "name": "1 Kings 18:9",
            "text": "And he saith, `What have I sinned, that thou art giving thy servant into the hand of Ahab--to put me to death?"
        },
        {
            "chapter": 18,
            "verse": 10,
            "name": "1 Kings 18:10",
            "text": "Jehovah thy God liveth, if there is a nation and kingdom whither my lord hath not sent to seek thee; and they said, He is not, then he caused the kingdom and the nation to swear, that it doth not find thee;"
        },
        {
            "chapter": 18,
            "verse": 11,
            "name": "1 Kings 18:11",
            "text": "and now, thou art saying, Go, say to thy lord, Lo, Elijah;"
        },
        {
            "chapter": 18,
            "verse": 12,
            "name": "1 Kings 18:12",
            "text": "and it hath been, I go from thee, and the Spirit of Jehovah doth lift thee up, whither I know not, and I have come to declare to Ahab, and he doth not find thee, and he hath slain me; and thy servant is fearing Jehovah from my youth."
        },
        {
            "chapter": 18,
            "verse": 13,
            "name": "1 Kings 18:13",
            "text": "`Hath it not been declared to my lord that which I have done in Jezebel's slaying the prophets of Jehovah, that I hide of the prophets of Jehovah a hundred men, fifty by fifty in a cave, and sustained them with bread and water?"
        },
        {
            "chapter": 18,
            "verse": 14,
            "name": "1 Kings 18:14",
            "text": "and now thou art saying, Go, say to my lord, Lo, Elijah--and he hath slain me!'"
        },
        {
            "chapter": 18,
            "verse": 15,
            "name": "1 Kings 18:15",
            "text": "And Elijah saith, `Jehovah of Hosts liveth, before whom I have stood, surely to-day I appear unto him.'"
        },
        {
            "chapter": 18,
            "verse": 16,
            "name": "1 Kings 18:16",
            "text": "And Obadiah goeth to meet Ahab, and declareth <FI>it<Fi> to him, and Ahab goeth to meet Elijah,"
        },
        {
            "chapter": 18,
            "verse": 17,
            "name": "1 Kings 18:17",
            "text": "and it cometh to pass at Ahab's seeing Elijah, that Ahab saith unto him, `Art thou he--the troubler of Israel?'"
        },
        {
            "chapter": 18,
            "verse": 18,
            "name": "1 Kings 18:18",
            "text": "And he saith, `I have not troubled Israel, but thou and the house of thy father, in your forsaking the commands of Jehovah, and thou goest after the Baalim;"
        },
        {
            "chapter": 18,
            "verse": 19,
            "name": "1 Kings 18:19",
            "text": "and now, send, gather unto me all Israel, unto the mount of Carmel, and the prophets of Baal four hundred and fifty, and the prophets of the shrine, four hundred--eating at the table of Jezebel.'"
        },
        {
            "chapter": 18,
            "verse": 20,
            "name": "1 Kings 18:20",
            "text": "And Ahab sendeth among all the sons of Israel, and gathereth the prophets unto the mount of Carmel;"
        },
        {
            "chapter": 18,
            "verse": 21,
            "name": "1 Kings 18:21",
            "text": "and Elijah cometh nigh unto all the people, and saith, `Till when are ye leaping on the two branches? --if Jehovah <FI>is<Fi> God, go after Him; and if Baal, go after him;' and the people have not answered him a word."
        },
        {
            "chapter": 18,
            "verse": 22,
            "name": "1 Kings 18:22",
            "text": "And Elijah saith unto the people, `I--I have been left a prophet of Jehovah--by myself; and the prophets of Baal <FI>are<Fi> four hundred and fifty men;"
        },
        {
            "chapter": 18,
            "verse": 23,
            "name": "1 Kings 18:23",
            "text": "and let them give to us two bullocks, and they choose for themselves the one bullock, and cut it in pieces, and place <FI>it<Fi> on the wood, and place no fire; and I--I prepare the other bullock, and have put <FI>it<Fi> on the wood, and fire I do not place; --"
        },
        {
            "chapter": 18,
            "verse": 24,
            "name": "1 Kings 18:24",
            "text": "and ye have called in the name of your god, and I--I call in the name of Jehovah, and it hath been, the god who answereth by fire--He <FI>is<Fi> the God.' And all the people answer and say, `Good <FI>is<Fi> the word.'"
        },
        {
            "chapter": 18,
            "verse": 25,
            "name": "1 Kings 18:25",
            "text": "And Elijah saith to the prophets of Baal, `Choose for you the one bullock, and prepare first, for ye <FI>are<Fi> the multitude, and call ye in the name of your god, and place no fire.'"
        },
        {
            "chapter": 18,
            "verse": 26,
            "name": "1 Kings 18:26",
            "text": "And they take the bullock that <FI>one<Fi> gave to them, and prepare, and call in the name of Baal from the morning even till the noon, saying, `O Baal, answer us!' and there is no voice, and there is none answering; and they leap on the altar that one had made."
        },
        {
            "chapter": 18,
            "verse": 27,
            "name": "1 Kings 18:27",
            "text": "And it cometh to pass, at noon, that Elijah playeth on them, and saith, `Call with a loud voice, for he <FI>is<Fi> a god, for he is meditating, or pursuing, or on a journey; it may be he is asleep, an doth awake.'"
        },
        {
            "chapter": 18,
            "verse": 28,
            "name": "1 Kings 18:28",
            "text": "And they call with a loud voice, and cut themselves, according to their ordinance, with swords and with spears, till a flowing of blood <FI>is<Fi> on them;"
        },
        {
            "chapter": 18,
            "verse": 29,
            "name": "1 Kings 18:29",
            "text": "and it cometh to pass, at the passing by of the noon, that they feign themselves prophets till the going up of the present, and there is no voice, and there is none answering, and there is none attending."
        },
        {
            "chapter": 18,
            "verse": 30,
            "name": "1 Kings 18:30",
            "text": "And Elijah saith to all the people, `Come nigh unto me;' and all the people come nigh unto him, and he repaireth the altar of Jehovah that is broken down;"
        },
        {
            "chapter": 18,
            "verse": 31,
            "name": "1 Kings 18:31",
            "text": "and Elijah taketh twelve stones, according to the number of the tribes of the sons of Jacob, unto whom the word of Jehovah was, saying, `Israel is thy name;'"
        },
        {
            "chapter": 18,
            "verse": 32,
            "name": "1 Kings 18:32",
            "text": "and he buildeth with the stones an altar, in the name of Jehovah, and maketh a trench, as about the space of two measures of seed, round about the altar."
        },
        {
            "chapter": 18,
            "verse": 33,
            "name": "1 Kings 18:33",
            "text": "And he arrangeth the wood, and cutteth in pieces the bullock, and placeth <FI>it<Fi> on the wood, and saith, `Fill ye four pitchers of water, and pour on the burnt-offering, and on the wood;"
        },
        {
            "chapter": 18,
            "verse": 34,
            "name": "1 Kings 18:34",
            "text": "and he saith, `Do <FI>it<Fi> a second time;' and they do <FI>it<Fi> a second time; and he saith, `Do <FI>it<Fi> a third time;' and they do <FI>it<Fi> a third time;"
        },
        {
            "chapter": 18,
            "verse": 35,
            "name": "1 Kings 18:35",
            "text": "and the water goeth round about the altar, and also, the trench he hath filled with water."
        },
        {
            "chapter": 18,
            "verse": 36,
            "name": "1 Kings 18:36",
            "text": "And it cometh to pass, at the going up of the <FI>evening-<Fi> present, that Elijah the prophet cometh nigh and saith, `Jehovah, God of Abraham, Isaac, and Israel, to-day let it be known that Thou <FI>art<Fi> God in Israel, and I Thy servant, that by Thy word I have done the whole of these things;"
        },
        {
            "chapter": 18,
            "verse": 37,
            "name": "1 Kings 18:37",
            "text": "answer me, O Jehovah, answer me, and this people doth know that Thou <FI>art<Fi> Jehovah God; and Thou hast turned their heart backward.'"
        },
        {
            "chapter": 18,
            "verse": 38,
            "name": "1 Kings 18:38",
            "text": "And there falleth a fire of Jehovah, and consumeth the burnt-offering, and the wood, and the stones, and the dust, and the water that <FI>is<Fi> in the trench it hath licked up."
        },
        {
            "chapter": 18,
            "verse": 39,
            "name": "1 Kings 18:39",
            "text": "And all the people see, and fall on their faces, and say, `Jehovah, He <FI>is<Fi> the God, Jehovah, He <FI>is<Fi> the God.'"
        },
        {
            "chapter": 18,
            "verse": 40,
            "name": "1 Kings 18:40",
            "text": "And Elijah saith to them, `Catch ye the prophets of Baal; let not a man escape of them;' and they catch them, and Elijah bringeth them down unto the stream Kishon, and doth slaughter them there."
        },
        {
            "chapter": 18,
            "verse": 41,
            "name": "1 Kings 18:41",
            "text": "And Elijah saith to Ahab, `Go up, eat and drink, because of the sound of the noise of the shower.'"
        },
        {
            "chapter": 18,
            "verse": 42,
            "name": "1 Kings 18:42",
            "text": "And Ahab goeth up to eat, and to drink, and Elijah hath gone up unto the top of Carmel, and he stretcheth himself out on the earth, and he placeth his face between his knees,"
        },
        {
            "chapter": 18,
            "verse": 43,
            "name": "1 Kings 18:43",
            "text": "and saith unto his young man, `Go up, I pray thee, look attentively the way of the sea;' and he goeth up and looketh attentively, and saith, `There is nothing;' and he saith, `Turn back,' seven times."
        },
        {
            "chapter": 18,
            "verse": 44,
            "name": "1 Kings 18:44",
            "text": "And it cometh to pass, at the seventh, that he saith, `Lo, a little thickness as the palm of a man is coming up out of the sea.' And he saith, `Go up, say unto Ahab, `Bind--and go down, and the shower doth not restrain thee.'"
        },
        {
            "chapter": 18,
            "verse": 45,
            "name": "1 Kings 18:45",
            "text": "And it cometh to pass, in the meantime, that the heavens have become black--thick clouds and wind--and the shower is great; and Ahab rideth, and goeth to Jezreel,"
        },
        {
            "chapter": 18,
            "verse": 46,
            "name": "1 Kings 18:46",
            "text": "and the hand of Jehovah hath been on Elijah, and he girdeth up his loins, and runneth before Ahab, till thine entering Jezreel."
        }
    ]
}