{
    "translation": "Darby",
    "abbreviation": "darby",
    "lang": "fr",
    "language": "French",
    "direction": "LTR",
    "encoding": "UTF-8",
    "book_nr": 44,
    "book_name": "Acts",
    "chapter": 11,
    "name": "Acts 11",
    "verses": [
        {
            "chapter": 11,
            "verse": 1,
            "name": "Acts 11:1",
            "text": "Or les ap\u00f4tres et les fr\u00e8res qui \u00e9taient en Jud\u00e9e apprirent que les nations aussi avaient re\u00e7u la parole de Dieu. "
        },
        {
            "chapter": 11,
            "verse": 2,
            "name": "Acts 11:2",
            "text": "Et quand Pierre fut mont\u00e9 \u00e0 J\u00e9rusalem, ceux de la circoncision disputaient avec lui, "
        },
        {
            "chapter": 11,
            "verse": 3,
            "name": "Acts 11:3",
            "text": "disant\u00a0: Tu es entr\u00e9 chez des hommes incirconcis, et tu as mang\u00e9 avec eux. "
        },
        {
            "chapter": 11,
            "verse": 4,
            "name": "Acts 11:4",
            "text": "Mais Pierre se mit \u00e0 leur exposer [les choses] par ordre, disant\u00a0: "
        },
        {
            "chapter": 11,
            "verse": 5,
            "name": "Acts 11:5",
            "text": "J'\u00e9tais en pri\u00e8re dans la ville de Jopp\u00e9, et je vis dans une extase une vision, [savoir] un vase descendant comme une grande toile d\u00e9val\u00e9e du ciel par les quatre coins\u00a0; et elle vint jusqu'\u00e0 moi\u00a0; "
        },
        {
            "chapter": 11,
            "verse": 6,
            "name": "Acts 11:6",
            "text": "et y ayant jet\u00e9 les yeux, je consid\u00e9rais, et je vis les quadrup\u00e8des de la terre, et les b\u00eates sauvages, et les reptiles, et les oiseaux du ciel\u00a0; "
        },
        {
            "chapter": 11,
            "verse": 7,
            "name": "Acts 11:7",
            "text": "et j'ou\u00efs aussi une voix qui me dit\u00a0: L\u00e8ve-toi, Pierre, tue et mange. "
        },
        {
            "chapter": 11,
            "verse": 8,
            "name": "Acts 11:8",
            "text": "Et je dis\u00a0: Non point, Seigneur\u00a0; car jamais chose impure ou immonde n'entra dans ma bouche. "
        },
        {
            "chapter": 11,
            "verse": 9,
            "name": "Acts 11:9",
            "text": "Et une voix r\u00e9pondit pour la seconde fois du ciel\u00a0: Ce que Dieu a purifi\u00e9, toi, ne le tiens pas pour impur. "
        },
        {
            "chapter": 11,
            "verse": 10,
            "name": "Acts 11:10",
            "text": "Et cela eut lieu par trois fois, et tout fut de nouveau retir\u00e9 dans le ciel. "
        },
        {
            "chapter": 11,
            "verse": 11,
            "name": "Acts 11:11",
            "text": "Et voici, aussit\u00f4t, trois hommes qui avaient \u00e9t\u00e9 envoy\u00e9s de C\u00e9sar\u00e9e vers moi, se trouv\u00e8rent devant la maison o\u00f9 j'\u00e9tais. "
        },
        {
            "chapter": 11,
            "verse": 12,
            "name": "Acts 11:12",
            "text": "Et l'Esprit me dit d'aller avec eux sans h\u00e9siter\u00a0; et les six fr\u00e8res que voici vinrent avec moi, et nous entr\u00e2mes dans la maison de cet homme. "
        },
        {
            "chapter": 11,
            "verse": 13,
            "name": "Acts 11:13",
            "text": "Et il nous raconta comment il avait vu dans sa maison l'ange qui, se tenant l\u00e0, lui avait dit\u00a0: Envoie \u00e0 Jopp\u00e9, et fais venir Simon qui est surnomm\u00e9 Pierre, "
        },
        {
            "chapter": 11,
            "verse": 14,
            "name": "Acts 11:14",
            "text": "qui te dira des choses par lesquelles tu seras sauv\u00e9, toi et toute ta maison. "
        },
        {
            "chapter": 11,
            "verse": 15,
            "name": "Acts 11:15",
            "text": "Et comme je commen\u00e7ais \u00e0 parler, l'Esprit Saint tomba sur eux, comme aussi [il est tomb\u00e9] sur nous au commencement. "
        },
        {
            "chapter": 11,
            "verse": 16,
            "name": "Acts 11:16",
            "text": "Et je me souvins de la parole du Seigneur, comment il a dit\u00a0: Jean a baptis\u00e9 avec de l'eau, mais vous, vous serez baptis\u00e9s de l'Esprit Saint. "
        },
        {
            "chapter": 11,
            "verse": 17,
            "name": "Acts 11:17",
            "text": "Si donc Dieu leur a fait le m\u00eame don qu'\u00e0 nous qui avons cru au seigneur J\u00e9sus Christ, qui \u00e9tais-je, moi, pour pouvoir l'interdire \u00e0 Dieu\u00a0? "
        },
        {
            "chapter": 11,
            "verse": 18,
            "name": "Acts 11:18",
            "text": "Et ayant ou\u00ef ces choses, ils se turent, et glorifi\u00e8rent Dieu disant\u00a0: Dieu a donc en effet donn\u00e9 aux nations la repentance pour la vie\u00a0!  "
        },
        {
            "chapter": 11,
            "verse": 19,
            "name": "Acts 11:19",
            "text": "  Ceux donc qui avaient \u00e9t\u00e9 dispers\u00e9s par la tribulation qui arriva \u00e0 l'occasion d'\u00c9tienne, pass\u00e8rent jusqu'en Ph\u00e9nicie, et \u00e0 Chypre, et \u00e0 Antioche, n'annon\u00e7ant la parole \u00e0 personne, si ce n'est \u00e0 des Juifs seulement. "
        },
        {
            "chapter": 11,
            "verse": 20,
            "name": "Acts 11:20",
            "text": "Mais quelques-uns d'entre eux \u00e9taient des Cypriotes et des Cyr\u00e9n\u00e9ens, qui, \u00e9tant venus \u00e0 Antioche, parlaient aussi aux Grecs, annon\u00e7ant le seigneur J\u00e9sus\u00a0; "
        },
        {
            "chapter": 11,
            "verse": 21,
            "name": "Acts 11:21",
            "text": "et la main du Seigneur \u00e9tait avec eux\u00a0; et un grand nombre, ayant cru, se tourn\u00e8rent vers le Seigneur. "
        },
        {
            "chapter": 11,
            "verse": 22,
            "name": "Acts 11:22",
            "text": "Et le bruit en vint aux oreilles de l'assembl\u00e9e qui \u00e9tait \u00e0 J\u00e9rusalem\u00a0; et ils envoy\u00e8rent Barnabas pour passer jusqu'\u00e0 Antioche\u00a0; "
        },
        {
            "chapter": 11,
            "verse": 23,
            "name": "Acts 11:23",
            "text": "lequel, y \u00e9tant arriv\u00e9 et ayant vu la gr\u00e2ce de Dieu, se r\u00e9jouit\u00a0; et il les exhortait tous \u00e0 demeurer [attach\u00e9s] au Seigneur de tout leur c\u0153ur, "
        },
        {
            "chapter": 11,
            "verse": 24,
            "name": "Acts 11:24",
            "text": "car il \u00e9tait homme de bien et plein de l'Esprit Saint et de foi\u00a0; et une grande foule fut ajout\u00e9e au Seigneur. "
        },
        {
            "chapter": 11,
            "verse": 25,
            "name": "Acts 11:25",
            "text": "Et il s'en alla \u00e0 Tarse, pour chercher Saul\u00a0; "
        },
        {
            "chapter": 11,
            "verse": 26,
            "name": "Acts 11:26",
            "text": "et l'ayant trouv\u00e9, il le mena \u00e0 Antioche. Et il leur arriva que, pendant un an tout entier, ils se r\u00e9unirent dans l'assembl\u00e9e et enseign\u00e8rent une grande foule, \u2014 et que ce fut \u00e0 Antioche premi\u00e8rement que les disciples furent nomm\u00e9s chr\u00e9tiens.  "
        },
        {
            "chapter": 11,
            "verse": 27,
            "name": "Acts 11:27",
            "text": "  Or en ces jours-l\u00e0, des proph\u00e8tes descendirent de J\u00e9rusalem \u00e0 Antioche. "
        },
        {
            "chapter": 11,
            "verse": 28,
            "name": "Acts 11:28",
            "text": "Et l'un d'entre eux, nomm\u00e9 Agabus, se leva et d\u00e9clara par l'Esprit, qu'une grande famine aurait lieu dans toute la terre habit\u00e9e, laquelle aussi eut lieu sous Claude. "
        },
        {
            "chapter": 11,
            "verse": 29,
            "name": "Acts 11:29",
            "text": "Et les disciples, chacun selon ses ressources, d\u00e9termin\u00e8rent d'envoyer quelque chose pour le service des fr\u00e8res qui demeuraient en Jud\u00e9e\u00a0: "
        },
        {
            "chapter": 11,
            "verse": 30,
            "name": "Acts 11:30",
            "text": "ce qu'ils firent aussi, l'envoyant aux anciens par les mains de Barnabas et de Saul.   "
        }
    ]
}