{
    "translation": "Le Nouveau Testament Version Synodale 1921 et le livre des Psaumes",
    "abbreviation": "fresynodale1921",
    "lang": "fr",
    "language": "French",
    "direction": "LTR",
    "encoding": "UTF-8",
    "book_nr": 19,
    "book_name": "Psalms",
    "chapter": 10,
    "name": "Psalms 10",
    "verses": [
        {
            "chapter": 10,
            "verse": 1,
            "name": "Psalms 10:1",
            "text": "Pourquoi, \u00f4 \u00c9ternel, te tiens-tu \u00e9loign\u00e9. Et te caches-tu au temps de la d\u00e9tresse?"
        },
        {
            "chapter": 10,
            "verse": 2,
            "name": "Psalms 10:2",
            "text": "L'orgueil des m\u00e9chants est un feu qui consume le malheureux Il se laisse prendre aux pi\u00e8ges qu'ils lui ont tendus."
        },
        {
            "chapter": 10,
            "verse": 3,
            "name": "Psalms 10:3",
            "text": "Car le m\u00e9chant se glorifie des convoitises de son \u00e2me: Spoliateur avide, il maudit l'\u00c9ternel et l'outrage."
        },
        {
            "chapter": 10,
            "verse": 4,
            "name": "Psalms 10:4",
            "text": "Le m\u00e9chant dit dans son orgueil: \u00abDieu ne punira pas! Il n'y a pas de Dieu!\u00bb \u2014 Voil\u00e0 toute sa pens\u00e9e."
        },
        {
            "chapter": 10,
            "verse": 5,
            "name": "Psalms 10:5",
            "text": "Ses entreprises r\u00e9ussissent en tout temps. Tes jugements sont au-dessus de sa port\u00e9e; Il d\u00e9daigne tous ses adversaires."
        },
        {
            "chapter": 10,
            "verse": 6,
            "name": "Psalms 10:6",
            "text": "Il dit en son coeur: \u00abJe ne serai point \u00e9branl\u00e9; Jamais le malheur ne m'atteindra!\u00bb"
        },
        {
            "chapter": 10,
            "verse": 7,
            "name": "Psalms 10:7",
            "text": "Sa bouche est pleine de mal\u00e9diction, de fraude et de violence; Sous sa langue se cachent le crime et la m\u00e9chancet\u00e9."
        },
        {
            "chapter": 10,
            "verse": 8,
            "name": "Psalms 10:8",
            "text": "Il se tient aux aguets pr\u00e8s des villages; Il tue l'innocent dans les lieux \u00e9cart\u00e9s; Ses yeux \u00e9pient le malheureux."
        },
        {
            "chapter": 10,
            "verse": 9,
            "name": "Psalms 10:9",
            "text": "Il s'embusque dans un lieu cach\u00e9, Comme un lion dans son repaire; Il se tient aux aguets pour surprendre le malheureux: Il le surprend en l'attirant dans son filet."
        },
        {
            "chapter": 10,
            "verse": 10,
            "name": "Psalms 10:10",
            "text": "Il se tapit, il se baisse. Et les malheureux tombent entre ses griffes."
        },
        {
            "chapter": 10,
            "verse": 11,
            "name": "Psalms 10:11",
            "text": "Il dit en son coeur: \u00abDieu oublie. Il a cach\u00e9 sa face; il ne regarde jamais!\u00bb"
        },
        {
            "chapter": 10,
            "verse": 12,
            "name": "Psalms 10:12",
            "text": "L\u00e8ve-toi, \u00f4 \u00c9ternel! Dieu, l\u00e8ve ta main! N'oublie pas les malheureux!"
        },
        {
            "chapter": 10,
            "verse": 13,
            "name": "Psalms 10:13",
            "text": "Pourquoi le m\u00e9chant t'outrage-t-il, \u00f4 Dieu, Et dit-il en son coeur que tu ne le puniras pas?"
        },
        {
            "chapter": 10,
            "verse": 14,
            "name": "Psalms 10:14",
            "text": "Et pourtant, tu vois tout! Tu suis du regard ceux qui sont dans la peine et la souffrance, Afin de prendre leur cause en main. A toi s'abandonne le malheureux; Tu es le secours de l'orphelin!"
        },
        {
            "chapter": 10,
            "verse": 15,
            "name": "Psalms 10:15",
            "text": "Brise la puissance du m\u00e9chant; Poursuis l'iniquit\u00e9 de l'injuste. Afin qu'on n'en trouve plus la trace!"
        },
        {
            "chapter": 10,
            "verse": 16,
            "name": "Psalms 10:16",
            "text": "L'\u00c9ternel est Roi pour toujours et \u00e0 perp\u00e9tuit\u00e9; Les nations ont disparu de son empire."
        },
        {
            "chapter": 10,
            "verse": 17,
            "name": "Psalms 10:17",
            "text": "\u00c9ternel, tu entends les souhaits des malheureux; Tu affermiras leur coeur! Tu leur pr\u00eateras une oreille attentive,"
        },
        {
            "chapter": 10,
            "verse": 18,
            "name": "Psalms 10:18",
            "text": "Pour faire droit \u00e0 l'orphelin et \u00e0 l'opprim\u00e9, Afin que l'homme, tir\u00e9 de la poussi\u00e8re, cesse de te braver!"
        }
    ]
}