{
    "translation": "Synodal Translation (1876)",
    "abbreviation": "synodal",
    "lang": "ru",
    "language": "Russian",
    "direction": "LTR",
    "encoding": "UTF-8",
    "book_nr": 44,
    "book_name": "Acts",
    "chapter": 16,
    "name": "Acts 16",
    "verses": [
        {
            "chapter": 16,
            "verse": 1,
            "name": "Acts 16:1",
            "text": "\u0414\u043e\u0448\u0435\u043b \u043e\u043d \u0434\u043e \u0414\u0435\u0440\u0432\u0438\u0438 \u0438 \u041b\u0438\u0441\u0442\u0440\u044b. \u0418 \u0432\u043e\u0442, \u0442\u0430\u043c \u0431\u044b\u043b \u043d\u0435\u043a\u043e\u0442\u043e\u0440\u044b\u0439 \u0443\u0447\u0435\u043d\u0438\u043a, \u0438\u043c\u0435\u043d\u0435\u043c \u0422\u0438\u043c\u043e\u0444\u0435\u0439, \u043a\u043e\u0442\u043e\u0440\u043e\u0433\u043e \u043c\u0430\u0442\u044c \u0431\u044b\u043b\u0430 \u0418\u0443\u0434\u0435\u044f\u043d\u043a\u0430 \u0443\u0432\u0435\u0440\u043e\u0432\u0430\u0432\u0448\u0430\u044f, \u0430 \u043e\u0442\u0435\u0446 \u0415\u043b\u043b\u0438\u043d,"
        },
        {
            "chapter": 16,
            "verse": 2,
            "name": "Acts 16:2",
            "text": "\u0438 \u043e \u043a\u043e\u0442\u043e\u0440\u043e\u043c \u0441\u0432\u0438\u0434\u0435\u0442\u0435\u043b\u044c\u0441\u0442\u0432\u043e\u0432\u0430\u043b\u0438 \u0431\u0440\u0430\u0442\u0438\u044f, \u043d\u0430\u0445\u043e\u0434\u0438\u0432\u0448\u0438\u0435\u0441\u044f \u0432 \u041b\u0438\u0441\u0442\u0440\u0435 \u0438 \u0418\u043a\u043e\u043d\u0438\u0438."
        },
        {
            "chapter": 16,
            "verse": 3,
            "name": "Acts 16:3",
            "text": "\u0415\u0433\u043e \u043f\u043e\u0436\u0435\u043b\u0430\u043b \u041f\u0430\u0432\u0435\u043b \u0432\u0437\u044f\u0442\u044c \u0441 \u0441\u043e\u0431\u043e\u044e; \u0438, \u0432\u0437\u044f\u0432, \u043e\u0431\u0440\u0435\u0437\u0430\u043b \u0435\u0433\u043e \u0440\u0430\u0434\u0438 \u0418\u0443\u0434\u0435\u0435\u0432, \u043d\u0430\u0445\u043e\u0434\u0438\u0432\u0448\u0438\u0445\u0441\u044f \u0432 \u0442\u0435\u0445 \u043c\u0435\u0441\u0442\u0430\u0445; \u0438\u0431\u043e \u0432\u0441\u0435 \u0437\u043d\u0430\u043b\u0438 \u043e\u0431 \u043e\u0442\u0446\u0435 \u0435\u0433\u043e, \u0447\u0442\u043e \u043e\u043d \u0431\u044b\u043b \u0415\u043b\u043b\u0438\u043d."
        },
        {
            "chapter": 16,
            "verse": 4,
            "name": "Acts 16:4",
            "text": "\u041f\u0440\u043e\u0445\u043e\u0434\u044f \u0436\u0435 \u043f\u043e \u0433\u043e\u0440\u043e\u0434\u0430\u043c, \u043e\u043d\u0438 \u043f\u0440\u0435\u0434\u0430\u0432\u0430\u043b\u0438 \u0432\u0435\u0440\u043d\u044b\u043c \u0441\u043e\u0431\u043b\u044e\u0434\u0430\u0442\u044c \u043e\u043f\u0440\u0435\u0434\u0435\u043b\u0435\u043d\u0438\u044f, \u043f\u043e\u0441\u0442\u0430\u043d\u043e\u0432\u043b\u0435\u043d\u043d\u044b\u0435 \u0410\u043f\u043e\u0441\u0442\u043e\u043b\u0430\u043c\u0438 \u0438 \u043f\u0440\u0435\u0441\u0432\u0438\u0442\u0435\u0440\u0430\u043c\u0438 \u0432 \u0418\u0435\u0440\u0443\u0441\u0430\u043b\u0438\u043c\u0435."
        },
        {
            "chapter": 16,
            "verse": 5,
            "name": "Acts 16:5",
            "text": "\u0418 \u0446\u0435\u0440\u043a\u0432\u0438 \u0443\u0442\u0432\u0435\u0440\u0436\u0434\u0430\u043b\u0438\u0441\u044c \u0432\u0435\u0440\u043e\u044e \u0438 \u0435\u0436\u0435\u0434\u043d\u0435\u0432\u043d\u043e \u0443\u0432\u0435\u043b\u0438\u0447\u0438\u0432\u0430\u043b\u0438\u0441\u044c \u0447\u0438\u0441\u043b\u043e\u043c."
        },
        {
            "chapter": 16,
            "verse": 6,
            "name": "Acts 16:6",
            "text": "\u041f\u0440\u043e\u0439\u0434\u044f \u0447\u0435\u0440\u0435\u0437 \u0424\u0440\u0438\u0433\u0438\u044e \u0438 \u0413\u0430\u043b\u0430\u0442\u0438\u0439\u0441\u043a\u0443\u044e \u0441\u0442\u0440\u0430\u043d\u0443, \u043e\u043d\u0438 \u043d\u0435 \u0431\u044b\u043b\u0438 \u0434\u043e\u043f\u0443\u0449\u0435\u043d\u044b \u0414\u0443\u0445\u043e\u043c \u0421\u0432\u044f\u0442\u044b\u043c \u043f\u0440\u043e\u043f\u043e\u0432\u0435\u0434\u044b\u0432\u0430\u0442\u044c \u0441\u043b\u043e\u0432\u043e \u0432 \u0410\u0441\u0438\u0438."
        },
        {
            "chapter": 16,
            "verse": 7,
            "name": "Acts 16:7",
            "text": "\u0414\u043e\u0439\u0434\u044f \u0434\u043e \u041c\u0438\u0441\u0438\u0438, \u043f\u0440\u0435\u0434\u043f\u0440\u0438\u043d\u0438\u043c\u0430\u043b\u0438 \u0438\u0434\u0442\u0438 \u0432 \u0412\u0438\u0444\u0438\u043d\u0438\u044e; \u043d\u043e \u0414\u0443\u0445 \u043d\u0435 \u0434\u043e\u043f\u0443\u0441\u0442\u0438\u043b \u0438\u0445."
        },
        {
            "chapter": 16,
            "verse": 8,
            "name": "Acts 16:8",
            "text": "\u041c\u0438\u043d\u043e\u0432\u0430\u0432 \u0436\u0435 \u041c\u0438\u0441\u0438\u044e, \u0441\u043e\u0448\u043b\u0438 \u043e\u043d\u0438 \u0432 \u0422\u0440\u043e\u0430\u0434\u0443."
        },
        {
            "chapter": 16,
            "verse": 9,
            "name": "Acts 16:9",
            "text": "\u0418 \u0431\u044b\u043b\u043e \u043d\u043e\u0447\u044c\u044e \u0432\u0438\u0434\u0435\u043d\u0438\u0435 \u041f\u0430\u0432\u043b\u0443: \u043f\u0440\u0435\u0434\u0441\u0442\u0430\u043b \u043d\u0435\u043a\u0438\u0439 \u043c\u0443\u0436, \u041c\u0430\u043a\u0435\u0434\u043e\u043d\u044f\u043d\u0438\u043d, \u043f\u0440\u043e\u0441\u044f \u0435\u0433\u043e \u0438 \u0433\u043e\u0432\u043e\u0440\u044f: \u043f\u0440\u0438\u0434\u0438 \u0432 \u041c\u0430\u043a\u0435\u0434\u043e\u043d\u0438\u044e \u0438 \u043f\u043e\u043c\u043e\u0433\u0438 \u043d\u0430\u043c."
        },
        {
            "chapter": 16,
            "verse": 10,
            "name": "Acts 16:10",
            "text": "\u041f\u043e\u0441\u043b\u0435 \u0441\u0435\u0433\u043e \u0432\u0438\u0434\u0435\u043d\u0438\u044f, \u0442\u043e\u0442\u0447\u0430\u0441 \u043c\u044b \u043f\u043e\u043b\u043e\u0436\u0438\u043b\u0438 \u043e\u0442\u043f\u0440\u0430\u0432\u0438\u0442\u044c\u0441\u044f \u0432 \u041c\u0430\u043a\u0435\u0434\u043e\u043d\u0438\u044e, \u0437\u0430\u043a\u043b\u044e\u0447\u0430\u044f, \u0447\u0442\u043e \u043f\u0440\u0438\u0437\u044b\u0432\u0430\u043b \u043d\u0430\u0441 \u0413\u043e\u0441\u043f\u043e\u0434\u044c \u0431\u043b\u0430\u0433\u043e\u0432\u0435\u0441\u0442\u0432\u043e\u0432\u0430\u0442\u044c \u0442\u0430\u043c."
        },
        {
            "chapter": 16,
            "verse": 11,
            "name": "Acts 16:11",
            "text": "\u0418\u0442\u0430\u043a, \u043e\u0442\u043f\u0440\u0430\u0432\u0438\u0432\u0448\u0438\u0441\u044c \u0438\u0437 \u0422\u0440\u043e\u0430\u0434\u044b, \u043c\u044b \u043f\u0440\u044f\u043c\u043e \u043f\u0440\u0438\u0431\u044b\u043b\u0438 \u0432 \u0421\u0430\u043c\u043e\u0444\u0440\u0430\u043a\u0438\u044e, \u0430 \u043d\u0430 \u0434\u0440\u0443\u0433\u043e\u0439 \u0434\u0435\u043d\u044c \u0432 \u041d\u0435\u0430\u043f\u043e\u043b\u044c,"
        },
        {
            "chapter": 16,
            "verse": 12,
            "name": "Acts 16:12",
            "text": "\u043e\u0442\u0442\u0443\u0434\u0430 \u0436\u0435 \u0432 \u0424\u0438\u043b\u0438\u043f\u043f\u044b: \u044d\u0442\u043e \u043f\u0435\u0440\u0432\u044b\u0439 \u0433\u043e\u0440\u043e\u0434 \u0432 \u0442\u043e\u0439 \u0447\u0430\u0441\u0442\u0438 \u041c\u0430\u043a\u0435\u0434\u043e\u043d\u0438\u0438, \u043a\u043e\u043b\u043e\u043d\u0438\u044f. \u0412 \u044d\u0442\u043e\u043c \u0433\u043e\u0440\u043e\u0434\u0435 \u043c\u044b \u043f\u0440\u043e\u0431\u044b\u043b\u0438 \u043d\u0435\u0441\u043a\u043e\u043b\u044c\u043a\u043e \u0434\u043d\u0435\u0439."
        },
        {
            "chapter": 16,
            "verse": 13,
            "name": "Acts 16:13",
            "text": "\u0412 \u0434\u0435\u043d\u044c \u0436\u0435 \u0441\u0443\u0431\u0431\u043e\u0442\u043d\u0438\u0439 \u043c\u044b \u0432\u044b\u0448\u043b\u0438 \u0437\u0430 \u0433\u043e\u0440\u043e\u0434 \u043a \u0440\u0435\u043a\u0435, \u0433\u0434\u0435, \u043f\u043e \u043e\u0431\u044b\u043a\u043d\u043e\u0432\u0435\u043d\u0438\u044e, \u0431\u044b\u043b \u043c\u043e\u043b\u0438\u0442\u0432\u0435\u043d\u043d\u044b\u0439 \u0434\u043e\u043c, \u0438, \u0441\u0435\u0432, \u0440\u0430\u0437\u0433\u043e\u0432\u0430\u0440\u0438\u0432\u0430\u043b\u0438 \u0441 \u0441\u043e\u0431\u0440\u0430\u0432\u0448\u0438\u043c\u0438\u0441\u044f \u0442\u0430\u043c \u0436\u0435\u043d\u0449\u0438\u043d\u0430\u043c\u0438."
        },
        {
            "chapter": 16,
            "verse": 14,
            "name": "Acts 16:14",
            "text": "\u0418 \u043e\u0434\u043d\u0430 \u0436\u0435\u043d\u0449\u0438\u043d\u0430 \u0438\u0437 \u0433\u043e\u0440\u043e\u0434\u0430 \u0424\u0438\u0430\u0442\u0438\u0440, \u0438\u043c\u0435\u043d\u0435\u043c \u041b\u0438\u0434\u0438\u044f, \u0442\u043e\u0440\u0433\u043e\u0432\u0430\u0432\u0448\u0430\u044f \u0431\u0430\u0433\u0440\u044f\u043d\u0438\u0446\u0435\u044e, \u0447\u0442\u0443\u0449\u0430\u044f \u0411\u043e\u0433\u0430, \u0441\u043b\u0443\u0448\u0430\u043b\u0430; \u0438 \u0413\u043e\u0441\u043f\u043e\u0434\u044c \u043e\u0442\u0432\u0435\u0440\u0437 \u0441\u0435\u0440\u0434\u0446\u0435 \u0435\u0435 \u0432\u043d\u0438\u043c\u0430\u0442\u044c \u0442\u043e\u043c\u0443, \u0447\u0442\u043e \u0433\u043e\u0432\u043e\u0440\u0438\u043b \u041f\u0430\u0432\u0435\u043b."
        },
        {
            "chapter": 16,
            "verse": 15,
            "name": "Acts 16:15",
            "text": "\u041a\u043e\u0433\u0434\u0430 \u0436\u0435 \u043a\u0440\u0435\u0441\u0442\u0438\u043b\u0430\u0441\u044c \u043e\u043d\u0430 \u0438 \u0434\u043e\u043c\u0430\u0448\u043d\u0438\u0435 \u0435\u0435, \u0442\u043e \u043f\u0440\u043e\u0441\u0438\u043b\u0430 \u043d\u0430\u0441, \u0433\u043e\u0432\u043e\u0440\u044f: \u0435\u0441\u043b\u0438 \u0432\u044b \u043f\u0440\u0438\u0437\u043d\u0430\u043b\u0438 \u043c\u0435\u043d\u044f \u0432\u0435\u0440\u043d\u043e\u044e \u0413\u043e\u0441\u043f\u043e\u0434\u0443, \u0442\u043e \u0432\u043e\u0439\u0434\u0438\u0442\u0435 \u0432 \u0434\u043e\u043c \u043c\u043e\u0439 \u0438 \u0436\u0438\u0432\u0438\u0442\u0435 \u0443 \u043c\u0435\u043d\u044f. \u0418 \u0443\u0431\u0435\u0434\u0438\u043b\u0430 \u043d\u0430\u0441."
        },
        {
            "chapter": 16,
            "verse": 16,
            "name": "Acts 16:16",
            "text": "\u0421\u043b\u0443\u0447\u0438\u043b\u043e\u0441\u044c, \u0447\u0442\u043e, \u043a\u043e\u0433\u0434\u0430 \u043c\u044b \u0448\u043b\u0438 \u0432 \u043c\u043e\u043b\u0438\u0442\u0432\u0435\u043d\u043d\u044b\u0439 \u0434\u043e\u043c, \u0432\u0441\u0442\u0440\u0435\u0442\u0438\u043b\u0430\u0441\u044c \u043d\u0430\u043c \u043e\u0434\u043d\u0430 \u0441\u043b\u0443\u0436\u0430\u043d\u043a\u0430, \u043e\u0434\u0435\u0440\u0436\u0438\u043c\u0430\u044f \u0434\u0443\u0445\u043e\u043c \u043f\u0440\u043e\u0440\u0438\u0446\u0430\u0442\u0435\u043b\u044c\u043d\u044b\u043c, \u043a\u043e\u0442\u043e\u0440\u0430\u044f \u0447\u0435\u0440\u0435\u0437 \u043f\u0440\u043e\u0440\u0438\u0446\u0430\u043d\u0438\u0435 \u0434\u043e\u0441\u0442\u0430\u0432\u043b\u044f\u043b\u0430 \u0431\u043e\u043b\u044c\u0448\u043e\u0439 \u0434\u043e\u0445\u043e\u0434 \u0433\u043e\u0441\u043f\u043e\u0434\u0430\u043c \u0441\u0432\u043e\u0438\u043c."
        },
        {
            "chapter": 16,
            "verse": 17,
            "name": "Acts 16:17",
            "text": "\u0418\u0434\u044f \u0437\u0430 \u041f\u0430\u0432\u043b\u043e\u043c \u0438 \u0437\u0430 \u043d\u0430\u043c\u0438, \u043e\u043d\u0430 \u043a\u0440\u0438\u0447\u0430\u043b\u0430, \u0433\u043e\u0432\u043e\u0440\u044f: \u0441\u0438\u0438 \u0447\u0435\u043b\u043e\u0432\u0435\u043a\u0438 \u2014 \u0440\u0430\u0431\u044b \u0411\u043e\u0433\u0430 \u0412\u0441\u0435\u0432\u044b\u0448\u043d\u0435\u0433\u043e, \u043a\u043e\u0442\u043e\u0440\u044b\u0435 \u0432\u043e\u0437\u0432\u0435\u0449\u0430\u044e\u0442 \u043d\u0430\u043c \u043f\u0443\u0442\u044c \u0441\u043f\u0430\u0441\u0435\u043d\u0438\u044f."
        },
        {
            "chapter": 16,
            "verse": 18,
            "name": "Acts 16:18",
            "text": "\u042d\u0442\u043e \u043e\u043d\u0430 \u0434\u0435\u043b\u0430\u043b\u0430 \u043c\u043d\u043e\u0433\u043e \u0434\u043d\u0435\u0439. \u041f\u0430\u0432\u0435\u043b, \u0432\u043e\u0437\u043d\u0435\u0433\u043e\u0434\u043e\u0432\u0430\u0432, \u043e\u0431\u0440\u0430\u0442\u0438\u043b\u0441\u044f \u0438 \u0441\u043a\u0430\u0437\u0430\u043b \u0434\u0443\u0445\u0443: \u0438\u043c\u0435\u043d\u0435\u043c \u0418\u0438\u0441\u0443\u0441\u0430 \u0425\u0440\u0438\u0441\u0442\u0430 \u043f\u043e\u0432\u0435\u043b\u0435\u0432\u0430\u044e \u0442\u0435\u0431\u0435 \u0432\u044b\u0439\u0442\u0438 \u0438\u0437 \u043d\u0435\u0435. \u0418 \u0434\u0443\u0445 \u0432\u044b\u0448\u0435\u043b \u0432 \u0442\u043e\u0442 \u0436\u0435 \u0447\u0430\u0441."
        },
        {
            "chapter": 16,
            "verse": 19,
            "name": "Acts 16:19",
            "text": "\u0422\u043e\u0433\u0434\u0430 \u0433\u043e\u0441\u043f\u043e\u0434\u0430 \u0435\u0435, \u0432\u0438\u0434\u044f, \u0447\u0442\u043e \u0438\u0441\u0447\u0435\u0437\u043b\u0430 \u043d\u0430\u0434\u0435\u0436\u0434\u0430 \u0434\u043e\u0445\u043e\u0434\u0430 \u0438\u0445, \u0441\u0445\u0432\u0430\u0442\u0438\u043b\u0438 \u041f\u0430\u0432\u043b\u0430 \u0438 \u0421\u0438\u043b\u0443 \u0438 \u043f\u043e\u0432\u043b\u0435\u043a\u043b\u0438 \u043d\u0430 \u043f\u043b\u043e\u0449\u0430\u0434\u044c \u043a \u043d\u0430\u0447\u0430\u043b\u044c\u043d\u0438\u043a\u0430\u043c."
        },
        {
            "chapter": 16,
            "verse": 20,
            "name": "Acts 16:20",
            "text": "\u0418, \u043f\u0440\u0438\u0432\u0435\u0434\u044f \u0438\u0445 \u043a \u0432\u043e\u0435\u0432\u043e\u0434\u0430\u043c, \u0441\u043a\u0430\u0437\u0430\u043b\u0438: \u0441\u0438\u0438 \u043b\u044e\u0434\u0438, \u0431\u0443\u0434\u0443\u0447\u0438 \u0418\u0443\u0434\u0435\u044f\u043c\u0438, \u0432\u043e\u0437\u043c\u0443\u0449\u0430\u044e\u0442 \u043d\u0430\u0448 \u0433\u043e\u0440\u043e\u0434"
        },
        {
            "chapter": 16,
            "verse": 21,
            "name": "Acts 16:21",
            "text": "\u0438 \u043f\u0440\u043e\u043f\u043e\u0432\u0435\u0434\u0443\u044e\u0442 \u043e\u0431\u044b\u0447\u0430\u0438, \u043a\u043e\u0442\u043e\u0440\u044b\u0445 \u043d\u0430\u043c, \u0420\u0438\u043c\u043b\u044f\u043d\u0430\u043c, \u043d\u0435 \u0441\u043b\u0435\u0434\u0443\u0435\u0442 \u043d\u0438 \u043f\u0440\u0438\u043d\u0438\u043c\u0430\u0442\u044c, \u043d\u0438 \u0438\u0441\u043f\u043e\u043b\u043d\u044f\u0442\u044c."
        },
        {
            "chapter": 16,
            "verse": 22,
            "name": "Acts 16:22",
            "text": "\u041d\u0430\u0440\u043e\u0434 \u0442\u0430\u043a\u0436\u0435 \u0432\u043e\u0441\u0441\u0442\u0430\u043b \u043d\u0430 \u043d\u0438\u0445, \u0430 \u0432\u043e\u0435\u0432\u043e\u0434\u044b, \u0441\u043e\u0440\u0432\u0430\u0432 \u0441 \u043d\u0438\u0445 \u043e\u0434\u0435\u0436\u0434\u044b, \u0432\u0435\u043b\u0435\u043b\u0438 \u0431\u0438\u0442\u044c \u0438\u0445 \u043f\u0430\u043b\u043a\u0430\u043c\u0438"
        },
        {
            "chapter": 16,
            "verse": 23,
            "name": "Acts 16:23",
            "text": "\u0438, \u0434\u0430\u0432 \u0438\u043c \u043c\u043d\u043e\u0433\u043e \u0443\u0434\u0430\u0440\u043e\u0432, \u0432\u0432\u0435\u0440\u0433\u043b\u0438 \u0432 \u0442\u0435\u043c\u043d\u0438\u0446\u0443, \u043f\u0440\u0438\u043a\u0430\u0437\u0430\u0432 \u0442\u0435\u043c\u043d\u0438\u0447\u043d\u043e\u043c\u0443 \u0441\u0442\u0440\u0430\u0436\u0443 \u043a\u0440\u0435\u043f\u043a\u043e \u0441\u0442\u0435\u0440\u0435\u0447\u044c \u0438\u0445."
        },
        {
            "chapter": 16,
            "verse": 24,
            "name": "Acts 16:24",
            "text": "\u041f\u043e\u043b\u0443\u0447\u0438\u0432 \u0442\u0430\u043a\u043e\u0435 \u043f\u0440\u0438\u043a\u0430\u0437\u0430\u043d\u0438\u0435, \u043e\u043d \u0432\u0432\u0435\u0440\u0433\u043d\u0443\u043b \u0438\u0445 \u0432\u043e \u0432\u043d\u0443\u0442\u0440\u0435\u043d\u043d\u044e\u044e \u0442\u0435\u043c\u043d\u0438\u0446\u0443 \u0438 \u043d\u043e\u0433\u0438 \u0438\u0445 \u0437\u0430\u0431\u0438\u043b \u0432 \u043a\u043e\u043b\u043e\u0434\u0443."
        },
        {
            "chapter": 16,
            "verse": 25,
            "name": "Acts 16:25",
            "text": "\u041e\u043a\u043e\u043b\u043e \u043f\u043e\u043b\u0443\u043d\u043e\u0447\u0438 \u041f\u0430\u0432\u0435\u043b \u0438 \u0421\u0438\u043b\u0430, \u043c\u043e\u043b\u044f\u0441\u044c, \u0432\u043e\u0441\u043f\u0435\u0432\u0430\u043b\u0438 \u0411\u043e\u0433\u0430; \u0443\u0437\u043d\u0438\u043a\u0438 \u0436\u0435 \u0441\u043b\u0443\u0448\u0430\u043b\u0438 \u0438\u0445."
        },
        {
            "chapter": 16,
            "verse": 26,
            "name": "Acts 16:26",
            "text": "\u0412\u0434\u0440\u0443\u0433 \u0441\u0434\u0435\u043b\u0430\u043b\u043e\u0441\u044c \u0432\u0435\u043b\u0438\u043a\u043e\u0435 \u0437\u0435\u043c\u043b\u0435\u0442\u0440\u044f\u0441\u0435\u043d\u0438\u0435, \u0442\u0430\u043a \u0447\u0442\u043e \u043f\u043e\u043a\u043e\u043b\u0435\u0431\u0430\u043b\u043e\u0441\u044c \u043e\u0441\u043d\u043e\u0432\u0430\u043d\u0438\u0435 \u0442\u0435\u043c\u043d\u0438\u0446\u044b; \u0442\u043e\u0442\u0447\u0430\u0441 \u043e\u0442\u0432\u043e\u0440\u0438\u043b\u0438\u0441\u044c \u0432\u0441\u0435 \u0434\u0432\u0435\u0440\u0438, \u0438 \u0443 \u0432\u0441\u0435\u0445 \u0443\u0437\u044b \u043e\u0441\u043b\u0430\u0431\u0435\u043b\u0438."
        },
        {
            "chapter": 16,
            "verse": 27,
            "name": "Acts 16:27",
            "text": "\u0422\u0435\u043c\u043d\u0438\u0447\u043d\u044b\u0439 \u0436\u0435 \u0441\u0442\u0440\u0430\u0436, \u043f\u0440\u043e\u0431\u0443\u0434\u0438\u0432\u0448\u0438\u0441\u044c \u0438 \u0443\u0432\u0438\u0434\u0435\u0432, \u0447\u0442\u043e \u0434\u0432\u0435\u0440\u0438 \u0442\u0435\u043c\u043d\u0438\u0446\u044b \u043e\u0442\u0432\u043e\u0440\u0435\u043d\u044b, \u0438\u0437\u0432\u043b\u0435\u043a \u043c\u0435\u0447 \u0438 \u0445\u043e\u0442\u0435\u043b \u0443\u043c\u0435\u0440\u0442\u0432\u0438\u0442\u044c \u0441\u0435\u0431\u044f, \u0434\u0443\u043c\u0430\u044f, \u0447\u0442\u043e \u0443\u0437\u043d\u0438\u043a\u0438 \u0443\u0431\u0435\u0436\u0430\u043b\u0438."
        },
        {
            "chapter": 16,
            "verse": 28,
            "name": "Acts 16:28",
            "text": "\u041d\u043e \u041f\u0430\u0432\u0435\u043b \u0432\u043e\u0437\u0433\u043b\u0430\u0441\u0438\u043b \u0433\u0440\u043e\u043c\u043a\u0438\u043c \u0433\u043e\u043b\u043e\u0441\u043e\u043c, \u0433\u043e\u0432\u043e\u0440\u044f: \u043d\u0435 \u0434\u0435\u043b\u0430\u0439 \u0441\u0435\u0431\u0435 \u043d\u0438\u043a\u0430\u043a\u043e\u0433\u043e \u0437\u043b\u0430, \u0438\u0431\u043e \u0432\u0441\u0435 \u043c\u044b \u0437\u0434\u0435\u0441\u044c."
        },
        {
            "chapter": 16,
            "verse": 29,
            "name": "Acts 16:29",
            "text": "\u041e\u043d \u043f\u043e\u0442\u0440\u0435\u0431\u043e\u0432\u0430\u043b \u043e\u0433\u043d\u044f, \u0432\u0431\u0435\u0436\u0430\u043b \u0432 \u0442\u0435\u043c\u043d\u0438\u0446\u0443 \u0438 \u0432 \u0442\u0440\u0435\u043f\u0435\u0442\u0435 \u043f\u0440\u0438\u043f\u0430\u043b \u043a \u041f\u0430\u0432\u043b\u0443 \u0438 \u0421\u0438\u043b\u0435,"
        },
        {
            "chapter": 16,
            "verse": 30,
            "name": "Acts 16:30",
            "text": "\u0438, \u0432\u044b\u0432\u0435\u0434\u044f \u0438\u0445 \u0432\u043e\u043d, \u0441\u043a\u0430\u0437\u0430\u043b: \u0433\u043e\u0441\u0443\u0434\u0430\u0440\u0438 \u043c\u043e\u0438! \u0447\u0442\u043e \u043c\u043d\u0435 \u0434\u0435\u043b\u0430\u0442\u044c, \u0447\u0442\u043e\u0431\u044b \u0441\u043f\u0430\u0441\u0442\u0438\u0441\u044c?"
        },
        {
            "chapter": 16,
            "verse": 31,
            "name": "Acts 16:31",
            "text": "\u041e\u043d\u0438 \u0436\u0435 \u0441\u043a\u0430\u0437\u0430\u043b\u0438: \u0432\u0435\u0440\u0443\u0439 \u0432 \u0413\u043e\u0441\u043f\u043e\u0434\u0430 \u0418\u0438\u0441\u0443\u0441\u0430 \u0425\u0440\u0438\u0441\u0442\u0430, \u0438 \u0441\u043f\u0430\u0441\u0435\u0448\u044c\u0441\u044f \u0442\u044b \u0438 \u0432\u0435\u0441\u044c \u0434\u043e\u043c \u0442\u0432\u043e\u0439."
        },
        {
            "chapter": 16,
            "verse": 32,
            "name": "Acts 16:32",
            "text": "\u0418 \u043f\u0440\u043e\u043f\u043e\u0432\u0435\u0434\u0430\u043b\u0438 \u0441\u043b\u043e\u0432\u043e \u0413\u043e\u0441\u043f\u043e\u0434\u043d\u0435 \u0435\u043c\u0443 \u0438 \u0432\u0441\u0435\u043c, \u0431\u044b\u0432\u0448\u0438\u043c \u0432 \u0434\u043e\u043c\u0435 \u0435\u0433\u043e."
        },
        {
            "chapter": 16,
            "verse": 33,
            "name": "Acts 16:33",
            "text": "\u0418, \u0432\u0437\u044f\u0432 \u0438\u0445 \u0432 \u0442\u043e\u0442 \u0447\u0430\u0441 \u043d\u043e\u0447\u0438, \u043e\u043d \u043e\u043c\u044b\u043b \u0440\u0430\u043d\u044b \u0438\u0445 \u0438 \u043d\u0435\u043c\u0435\u0434\u043b\u0435\u043d\u043d\u043e \u043a\u0440\u0435\u0441\u0442\u0438\u043b\u0441\u044f \u0441\u0430\u043c \u0438 \u0432\u0441\u0435 \u0434\u043e\u043c\u0430\u0448\u043d\u0438\u0435 \u0435\u0433\u043e."
        },
        {
            "chapter": 16,
            "verse": 34,
            "name": "Acts 16:34",
            "text": "\u0418, \u043f\u0440\u0438\u0432\u0435\u0434\u044f \u0438\u0445 \u0432 \u0434\u043e\u043c \u0441\u0432\u043e\u0439, \u043f\u0440\u0435\u0434\u043b\u043e\u0436\u0438\u043b \u0442\u0440\u0430\u043f\u0435\u0437\u0443 \u0438 \u0432\u043e\u0437\u0440\u0430\u0434\u043e\u0432\u0430\u043b\u0441\u044f \u0441\u043e \u0432\u0441\u0435\u043c \u0434\u043e\u043c\u043e\u043c \u0441\u0432\u043e\u0438\u043c, \u0447\u0442\u043e \u0443\u0432\u0435\u0440\u043e\u0432\u0430\u043b \u0432 \u0411\u043e\u0433\u0430."
        },
        {
            "chapter": 16,
            "verse": 35,
            "name": "Acts 16:35",
            "text": "\u041a\u043e\u0433\u0434\u0430 \u0436\u0435 \u043d\u0430\u0441\u0442\u0430\u043b \u0434\u0435\u043d\u044c, \u0432\u043e\u0435\u0432\u043e\u0434\u044b \u043f\u043e\u0441\u043b\u0430\u043b\u0438 \u0433\u043e\u0440\u043e\u0434\u0441\u043a\u0438\u0445 \u0441\u043b\u0443\u0436\u0438\u0442\u0435\u043b\u0435\u0439 \u0441\u043a\u0430\u0437\u0430\u0442\u044c: \u043e\u0442\u043f\u0443\u0441\u0442\u0438 \u0442\u0435\u0445 \u043b\u044e\u0434\u0435\u0439."
        },
        {
            "chapter": 16,
            "verse": 36,
            "name": "Acts 16:36",
            "text": "\u0422\u0435\u043c\u043d\u0438\u0447\u043d\u044b\u0439 \u0441\u0442\u0440\u0430\u0436 \u043e\u0431\u044a\u044f\u0432\u0438\u043b \u043e \u0441\u0435\u043c \u041f\u0430\u0432\u043b\u0443: \u0432\u043e\u0435\u0432\u043e\u0434\u044b \u043f\u0440\u0438\u0441\u043b\u0430\u043b\u0438 \u043e\u0442\u043f\u0443\u0441\u0442\u0438\u0442\u044c \u0432\u0430\u0441; \u0438\u0442\u0430\u043a \u0432\u044b\u0439\u0434\u0438\u0442\u0435 \u0442\u0435\u043f\u0435\u0440\u044c \u0438 \u0438\u0434\u0438\u0442\u0435 \u0441 \u043c\u0438\u0440\u043e\u043c."
        },
        {
            "chapter": 16,
            "verse": 37,
            "name": "Acts 16:37",
            "text": "\u041d\u043e \u041f\u0430\u0432\u0435\u043b \u0441\u043a\u0430\u0437\u0430\u043b \u043a \u043d\u0438\u043c: \u043d\u0430\u0441, \u0420\u0438\u043c\u0441\u043a\u0438\u0445 \u0433\u0440\u0430\u0436\u0434\u0430\u043d, \u0431\u0435\u0437 \u0441\u0443\u0434\u0430 \u0432\u0441\u0435\u043d\u0430\u0440\u043e\u0434\u043d\u043e \u0431\u0438\u043b\u0438 \u0438 \u0431\u0440\u043e\u0441\u0438\u043b\u0438 \u0432 \u0442\u0435\u043c\u043d\u0438\u0446\u0443, \u0430 \u0442\u0435\u043f\u0435\u0440\u044c \u0442\u0430\u0439\u043d\u043e \u0432\u044b\u043f\u0443\u0441\u043a\u0430\u044e\u0442? \u043d\u0435\u0442, \u043f\u0443\u0441\u0442\u044c \u043f\u0440\u0438\u0434\u0443\u0442 \u0438 \u0441\u0430\u043c\u0438 \u0432\u044b\u0432\u0435\u0434\u0443\u0442 \u043d\u0430\u0441."
        },
        {
            "chapter": 16,
            "verse": 38,
            "name": "Acts 16:38",
            "text": "\u0413\u043e\u0440\u043e\u0434\u0441\u043a\u0438\u0435 \u0441\u043b\u0443\u0436\u0438\u0442\u0435\u043b\u0438 \u043f\u0435\u0440\u0435\u0441\u043a\u0430\u0437\u0430\u043b\u0438 \u044d\u0442\u0438 \u0441\u043b\u043e\u0432\u0430 \u0432\u043e\u0435\u0432\u043e\u0434\u0430\u043c, \u0438 \u0442\u0435 \u0438\u0441\u043f\u0443\u0433\u0430\u043b\u0438\u0441\u044c, \u0443\u0441\u043b\u044b\u0448\u0430\u0432, \u0447\u0442\u043e \u044d\u0442\u043e \u0420\u0438\u043c\u0441\u043a\u0438\u0435 \u0433\u0440\u0430\u0436\u0434\u0430\u043d\u0435."
        },
        {
            "chapter": 16,
            "verse": 39,
            "name": "Acts 16:39",
            "text": "\u0418, \u043f\u0440\u0438\u0434\u044f, \u0438\u0437\u0432\u0438\u043d\u0438\u043b\u0438\u0441\u044c \u043f\u0435\u0440\u0435\u0434 \u043d\u0438\u043c\u0438 \u0438, \u0432\u044b\u0432\u0435\u0434\u044f, \u043f\u0440\u043e\u0441\u0438\u043b\u0438 \u0443\u0434\u0430\u043b\u0438\u0442\u044c\u0441\u044f \u0438\u0437 \u0433\u043e\u0440\u043e\u0434\u0430."
        },
        {
            "chapter": 16,
            "verse": 40,
            "name": "Acts 16:40",
            "text": "\u041e\u043d\u0438 \u0436\u0435, \u0432\u044b\u0439\u0434\u044f \u0438\u0437 \u0442\u0435\u043c\u043d\u0438\u0446\u044b, \u043f\u0440\u0438\u0448\u043b\u0438 \u043a \u041b\u0438\u0434\u0438\u0438 \u0438, \u0443\u0432\u0438\u0434\u0435\u0432 \u0431\u0440\u0430\u0442\u044c\u0435\u0432, \u043f\u043e\u0443\u0447\u0430\u043b\u0438 \u0438\u0445, \u0438 \u043e\u0442\u043f\u0440\u0430\u0432\u0438\u043b\u0438\u0441\u044c. "
        }
    ]
}