{
  "translation": "\u0423\u043a\u0440\u0430\u0457\u043d\u0441\u044c\u043a\u0430 \u0411\u0456\u0431\u043b\u0456\u044f. \u041f\u0435\u0440\u0435\u043a\u043b\u0430\u0434 \u0406\u0432\u0430\u043d\u0430 \u041e\u0433\u0456\u0454\u043d\u043a\u0430.",
  "abbreviation": "ukrainian",
  "lang": "uk",
  "language": "Ukrainian",
  "direction": "LTR",
  "encoding": "UTF-8",
  "nr": 65,
  "name": "Jude",
  "chapters": [
    {
      "chapter": 1,
      "name": "Jude 1",
      "verses": [
        {
          "chapter": 1,
          "verse": 1,
          "name": "Jude 1:1",
          "text": "\u042e\u0434\u0430, \u0440\u0430\u0431 \u0406\u0441\u0443\u0441\u0430 \u0425\u0440\u0438\u0441\u0442\u0430, \u0430 \u0431\u0440\u0430\u0442 \u042f\u043a\u043e\u0432\u0430, \u043f\u043e\u043a\u043b\u0438\u043a\u0430\u043d\u0438\u043c, \u0443\u043b\u044e\u0431\u043b\u0435\u043d\u0438\u043c \u0443 \u0411\u043e\u0437\u0456 \u041e\u0442\u0446\u0456 \u0442\u0430 \u0437\u0431\u0435\u0440\u0435\u0436\u0435\u043d\u0438\u043c \u0406\u0441\u0443\u0441\u043e\u043c \u0425\u0440\u0438\u0441\u0442\u043e\u043c:"
        },
        {
          "chapter": 1,
          "verse": 2,
          "name": "Jude 1:2",
          "text": "\u043c\u0438\u043b\u0456\u0441\u0442\u044c \u0432\u0430\u043c, \u0456 \u043c\u0438\u0440, \u0456 \u043b\u044e\u0431\u043e\u0432 \u0445\u0430\u0439 \u043f\u0440\u0438\u043c\u043d\u043e\u0436\u0438\u0442\u044c\u0441\u044f!"
        },
        {
          "chapter": 1,
          "verse": 3,
          "name": "Jude 1:3",
          "text": "\u0423\u043b\u044e\u0431\u043b\u0435\u043d\u0456, \u0432\u0441\u044f\u043a\u0435 \u0434\u0431\u0430\u043d\u043d\u044f \u0447\u0438\u043d\u0438\u0432\u0448\u0438 \u043f\u0438\u0441\u0430\u0442\u0438 \u0434\u043e \u0432\u0430\u0441 \u043f\u0440\u043e \u043d\u0430\u0448\u0435 \u0441\u043f\u0456\u043b\u044c\u043d\u0435 \u0441\u043f\u0430\u0441\u0456\u043d\u043d\u044f, \u044f \u043f\u0440\u0438\u0437\u043d\u0430\u0432 \u0437\u0430 \u043f\u043e\u0442\u0440\u0456\u0431\u043d\u0435 \u043f\u0438\u0441\u0430\u0442\u0438 \u0434\u043e \u0432\u0430\u0441, \u0431\u043b\u0430\u0433\u0430\u044e\u0447\u0438 \u0431\u043e\u0440\u043e\u0442\u0438\u0441\u044c \u0437\u0430 \u0432\u0456\u0440\u0443, \u0440\u0430\u0437 \u0434\u0430\u043d\u0443 \u0441\u0432\u044f\u0442\u0438\u043c."
        },
        {
          "chapter": 1,
          "verse": 4,
          "name": "Jude 1:4",
          "text": "\u0411\u043e \u043a\u0440\u0430\u0434\u044c\u043a\u043e\u043c\u0430 \u043f\u043e\u0432\u0445\u043e\u0434\u0438\u043b\u0438 \u0434\u0435\u044f\u043a\u0456 \u043b\u044e\u0434\u0438, \u043d\u0430 \u0446\u0435\u0439 \u043e\u0441\u0443\u0434 \u0432\u0456\u0434\u0434\u0430\u0432\u043d\u0430 \u043f\u0440\u0438\u0437\u043d\u0430\u0447\u0435\u043d\u0456, \u0431\u0435\u0437\u0431\u043e\u0436\u043d\u0456, \u0449\u043e \u0431\u043b\u0430\u0433\u043e\u0434\u0430\u0442\u044c \u043d\u0430\u0448\u043e\u0433\u043e \u0411\u043e\u0433\u0430 \u043e\u0431\u0435\u0440\u0442\u0430\u044e\u0442\u044c \u0443 \u0440\u043e\u0437\u043f\u0443\u0441\u0442\u0443, \u0456 \u0432\u0456\u0434\u043a\u0438\u0434\u0430\u044e\u0442\u044c\u0441\u044f \u0454\u0434\u0438\u043d\u043e\u0433\u043e \u0412\u043b\u0430\u0434\u0438\u043a\u0438 \u0456 \u0413\u043e\u0441\u043f\u043e\u0434\u0430 \u043d\u0430\u0448\u043e\u0433\u043e \u0406\u0441\u0443\u0441\u0430 \u0425\u0440\u0438\u0441\u0442\u0430."
        },
        {
          "chapter": 1,
          "verse": 5,
          "name": "Jude 1:5",
          "text": "\u0410 \u044f \u0445\u043e\u0447\u0443 \u043d\u0430\u0433\u0430\u0434\u0430\u0442\u0438 \u0432\u0430\u043c, \u0449\u043e \u0440\u0430\u0437 \u0443\u0441\u0435 \u0437\u043d\u0430\u0454\u0442\u0435, \u0449\u043e \u0413\u043e\u0441\u043f\u043e\u0434\u044c \u0432\u0438\u0437\u0432\u043e\u043b\u0438\u0432 \u043b\u044e\u0434\u0435\u0439 \u0432\u0456\u0434 \u0437\u0435\u043c\u043b\u0456 \u0454\u0433\u0438\u043f\u0435\u0442\u0441\u044c\u043a\u043e\u0457, \u0430 \u0437\u0433\u043e\u0434\u043e\u043c \u0432\u0438\u0433\u0443\u0431\u0438\u0432 \u0442\u0438\u0445, \u0445\u0442\u043e \u043d\u0435 \u0432\u0456\u0440\u0443\u0432\u0430\u0432."
        },
        {
          "chapter": 1,
          "verse": 6,
          "name": "Jude 1:6",
          "text": "\u0406 \u0410\u043d\u0433\u043e\u043b\u0456\u0432, \u0449\u043e \u043d\u0435 \u0437\u0431\u0435\u0440\u0435\u0433\u043b\u0438 \u043f\u043e\u0447\u0430\u0442\u043a\u043e\u0432\u043e\u0433\u043e \u0441\u0442\u0430\u043d\u0443 \u0441\u0432\u043e\u0433\u043e, \u0430\u043b\u0435 \u043a\u0438\u043d\u0443\u043b\u0438 \u0436\u0438\u0442\u043b\u043e \u0441\u0432\u043e\u0454, \u0412\u0456\u043d \u0437\u0431\u0435\u0440\u0456\u0433 \u0443 \u0432\u0456\u0447\u043d\u0438\u0445 \u043a\u0430\u0439\u0434\u0430\u043d\u0430\u0445 \u043f\u0456\u0434 \u0442\u0435\u043c\u0440\u044f\u0432\u043e\u044e \u043d\u0430 \u0441\u0443\u0434 \u0432\u0435\u043b\u0438\u043a\u043e\u0433\u043e \u0434\u043d\u044f."
        },
        {
          "chapter": 1,
          "verse": 7,
          "name": "Jude 1:7",
          "text": "\u042f\u043a \u0421\u043e\u0434\u043e\u043c \u0456 \u0413\u043e\u043c\u043e\u0440\u0440\u0430 \u0442\u0430 \u043c\u0456\u0441\u0442\u0430 \u043a\u043e\u043b\u043e \u043d\u0438\u0445, \u0449\u043e \u0442\u0430\u043a\u0438\u043c \u0441\u0430\u043c\u0438\u043c \u0441\u043f\u043e\u0441\u043e\u0431\u043e\u043c \u0447\u0438\u043d\u0438\u043b\u0438 \u043f\u0435\u0440\u0435\u043b\u044e\u0431 \u0442\u0430 \u0445\u043e\u0434\u0438\u043b\u0438 \u0437\u0430 \u0456\u043d\u0448\u0438\u043c \u0442\u0456\u043b\u043e\u043c, \u043f\u043e\u043d\u0435\u0441\u043b\u0438 \u043a\u0430\u0440\u0443 \u0432\u0456\u0447\u043d\u043e\u0433\u043e \u043e\u0433\u043d\u044e, \u0456 \u043f\u043e\u0441\u0442\u0430\u0432\u043b\u0435\u043d\u0456 \u0432 \u043f\u0440\u0438\u043a\u043b\u0430\u0434,"
        },
        {
          "chapter": 1,
          "verse": 8,
          "name": "Jude 1:8",
          "text": "\u0442\u0430\u043a \u0441\u0430\u043c\u043e \u0431\u0443\u0434\u0435 \u0439 \u0446\u0438\u043c \u0441\u043d\u043e\u0432\u0438\u0434\u0430\u043c, \u0449\u043e \u043e\u043f\u043e\u0433\u0430\u043d\u044e\u044e\u0442\u044c \u0442\u0456\u043b\u043e, \u043f\u043e\u0433\u043e\u0440\u0434\u0436\u0443\u044e\u0442\u044c \u0432\u043b\u0430\u0434\u0430\u043c\u0438, \u0437\u043d\u0435\u0432\u0430\u0436\u0430\u044e\u0442\u044c \u0441\u043b\u0430\u0432\u0438."
        },
        {
          "chapter": 1,
          "verse": 9,
          "name": "Jude 1:9",
          "text": "\u0406 \u0441\u0430\u043c \u0410\u0440\u0445\u0430\u043d\u0433\u043e\u043b \u041c\u0438\u0445\u0430\u0457\u043b, \u043a\u043e\u043b\u0438 \u0441\u043f\u0435\u0440\u0435\u0447\u0430\u0432\u0441\u044f \u0437 \u0434\u0438\u044f\u0432\u043e\u043b\u043e\u043c \u0456 \u0433\u043e\u0432\u043e\u0440\u0438\u0432 \u043f\u0440\u043e \u041c\u043e\u0439\u0441\u0435\u0454\u0432\u0435 \u0442\u0456\u043b\u043e, \u043d\u0435 \u043d\u0430\u0432\u0430\u0436\u0438\u0432\u0441\u044f \u0432\u0438\u043d\u0435\u0441\u0442\u0438 \u0441\u0443\u0434\u0443 \u0437\u043d\u0435\u0432\u0430\u0436\u043b\u0438\u0432\u043e\u0433\u043e, \u0430 \u0441\u043a\u0430\u0437\u0430\u0432: \u0425\u0430\u0439 \u0413\u043e\u0441\u043f\u043e\u0434\u044c \u0434\u043e\u043a\u043e\u0440\u0438\u0442\u044c \u0442\u043e\u0431\u0456!"
        },
        {
          "chapter": 1,
          "verse": 10,
          "name": "Jude 1:10",
          "text": "\u0410 \u0446\u0456 \u0437\u043d\u0435\u0432\u0430\u0436\u0430\u044e\u0442\u044c, \u0447\u043e\u0433\u043e \u043d\u0435 \u0437\u043d\u0430\u044e\u0442\u044c; \u0430 \u0449\u043e \u0437\u043d\u0430\u044e\u0442\u044c \u0456\u0437 \u043f\u0440\u0438\u0440\u043e\u0434\u0438, \u044f\u043a \u043d\u0456\u043c\u0430 \u0437\u0432\u0456\u0440\u0438\u043d\u0430, \u0442\u043e \u0439 \u0443 \u0442\u043e\u043c\u0443 \u043f\u0441\u0443\u044e\u0442\u044c\u0441\u044f."
        },
        {
          "chapter": 1,
          "verse": 11,
          "name": "Jude 1:11",
          "text": "\u0413\u043e\u0440\u0435 \u0457\u043c, \u0431\u043e \u043f\u0456\u0448\u043b\u0438 \u0432\u043e\u043d\u0438 \u0434\u043e\u0440\u043e\u0433\u043e\u044e \u041a\u0430\u0457\u043d\u043e\u0432\u043e\u044e, \u0456 \u043f\u043e\u043f\u0430\u043b\u0438 \u0432 \u043e\u0431\u043c\u0430\u043d\u0443 \u0412\u0430\u043b\u0430\u0430\u043c\u043e\u0432\u043e\u0457 \u0437\u0430\u043f\u043b\u0430\u0442\u0438, \u0456 \u0437\u0430\u0433\u0438\u043d\u0443\u043b\u0438 \u0432 \u0431\u0443\u043d\u0442\u0456 \u041a\u043e\u0440\u0435\u044f!"
        },
        {
          "chapter": 1,
          "verse": 12,
          "name": "Jude 1:12",
          "text": "\u0412\u043e\u043d\u0438 \u0441\u043a\u0435\u043b\u0456 \u043f\u0456\u0434\u0432\u043e\u0434\u043d\u0456 \u043d\u0430 \u0432\u0430\u0448\u0438\u0445 \u0432\u0435\u0447\u0435\u0440\u044f\u0445 \u043b\u044e\u0431\u043e\u0432\u0438, \u0431\u043e \u0437 \u0432\u0430\u043c\u0438 \u0431\u0435\u0437 \u0441\u0442\u0440\u0430\u0445\u0443 \u0457\u0434\u044f\u0442\u044c \u0442\u0430 \u0441\u0435\u0431\u0435 \u043f\u043e\u043f\u0430\u0441\u0430\u044e\u0442\u044c; \u0445\u043c\u0430\u0440\u0438 \u0431\u0435\u0437\u0432\u043e\u0434\u043d\u0456, \u0449\u043e \u043d\u043e\u0441\u044f\u0442\u044c\u0441\u044f \u0432\u0456\u0442\u0440\u043e\u043c; \u043e\u0441\u0456\u043d\u043d\u0456 \u0434\u0435\u0440\u0435\u0432\u0430 \u0431\u0435\u0437\u043f\u043b\u0456\u0434\u043d\u0456, \u0434\u0432\u0456\u0447\u0456 \u043f\u043e\u043c\u0435\u0440\u043b\u0456, \u0432\u0438\u043a\u043e\u0440\u0456\u043d\u0435\u043d\u0456;"
        },
        {
          "chapter": 1,
          "verse": 13,
          "name": "Jude 1:13",
          "text": "\u043b\u044e\u0442\u0456 \u0445\u0432\u0438\u043b\u0456 \u043c\u043e\u0440\u0441\u044c\u043a\u0456, \u0449\u043e \u0437 \u043f\u0456\u043d\u043e\u044e \u0432\u0438\u043a\u0438\u0434\u0430\u044e\u0442\u044c \u0432\u043b\u0430\u0441\u043d\u0438\u0439 \u0441\u043e\u0440\u043e\u043c; \u0437\u043e\u0440\u0456 \u0431\u043b\u0443\u0434\u043d\u0456, \u0449\u043e \u0434\u043b\u044f \u043d\u0438\u0445 \u043c\u043e\u0440\u043e\u043a \u0442\u0435\u043c\u0440\u044f\u0432\u0438 \u0431\u0435\u0440\u0435\u0436\u0435\u0442\u044c\u0441\u044f \u043f\u043e\u0432\u0456\u043a."
        },
        {
          "chapter": 1,
          "verse": 14,
          "name": "Jude 1:14",
          "text": "\u041f\u0440\u043e \u043d\u0438\u0445 \u0436\u0435 \u0437\u0432\u0456\u0449\u0430\u0432 \u0431\u0443\u0432 \u0415\u043d\u043e\u0445, \u0441\u044c\u043e\u043c\u0438\u0439 \u0432\u0456\u0434 \u0410\u0434\u0430\u043c\u0430, \u0456 \u043a\u0430\u0437\u0430\u0432: \u041e\u0441\u044c \u0456\u0434\u0435 \u0413\u043e\u0441\u043f\u043e\u0434\u044c \u0437\u043e \u0421\u0432\u043e\u0457\u043c\u0438 \u0434\u0435\u0441\u044f\u0442\u043a\u0430\u043c\u0438 \u0442\u0438\u0441\u044f\u0447 \u0441\u0432\u044f\u0442\u0438\u0445,"
        },
        {
          "chapter": 1,
          "verse": 15,
          "name": "Jude 1:15",
          "text": "\u0449\u043e\u0431 \u0441\u0443\u0434 \u0443\u0447\u0438\u043d\u0438\u0442\u0438 \u043d\u0430\u0434 \u0443\u0441\u0456\u043c\u0430, \u0456 \u0432\u0438\u043d\u0443\u0432\u0430\u0442\u0438\u0442\u0438 \u0432\u0441\u0456\u0445 \u0431\u0435\u0437\u0431\u043e\u0436\u043d\u0438\u0445 \u0437\u0430 \u0432\u0441\u0456 \u0432\u0447\u0438\u043d\u043a\u0438 \u0431\u0435\u0437\u0431\u043e\u0436\u043d\u043e\u0441\u0442\u0438 \u0457\u0445\u043d\u044c\u043e\u0457, \u0449\u043e \u0431\u0435\u0437\u0431\u043e\u0436\u043d\u043e \u043d\u0430\u043a\u043e\u0457\u043b\u0438, \u0442\u0430 \u0437\u0430 \u0432\u0441\u0456 \u0436\u043e\u0440\u0441\u0442\u043e\u043a\u0456 \u0441\u043b\u043e\u0432\u0430, \u0449\u043e \u0457\u0445 \u0433\u043e\u0432\u043e\u0440\u0438\u043b\u0438 \u043d\u0430 \u041d\u044c\u043e\u0433\u043e \u0431\u0435\u0437\u0431\u043e\u0436\u043d\u0456 \u0433\u0440\u0456\u0448\u043d\u0438\u043a\u0438."
        },
        {
          "chapter": 1,
          "verse": 16,
          "name": "Jude 1:16",
          "text": "\u0426\u0435 \u0440\u0435\u043c\u0441\u0442\u0432\u0443\u0432\u0430\u0447\u0456, \u043d\u0435\u0437\u0430\u0434\u043e\u0432\u043e\u043b\u0435\u043d\u0456 \u0437 \u0434\u043e\u043b\u0456 \u0441\u0432\u043e\u0454\u0457, \u0449\u043e \u0445\u043e\u0434\u044f\u0442\u044c \u0443 \u0441\u0432\u043e\u0457\u0445 \u043f\u043e\u0436\u0430\u0434\u043b\u0438\u0432\u043e\u0441\u0442\u044f\u0445, \u0430 \u0443\u0441\u0442\u0430 \u0457\u0445\u043d\u0456 \u0433\u043e\u0432\u043e\u0440\u044f\u0442\u044c \u0447\u0432\u0430\u043d\u043b\u0438\u0432\u0435; \u0432\u043e\u043d\u0438 \u0432\u0438\u0445\u0432\u0430\u043b\u044f\u044e\u0442\u044c \u043e\u0441\u043e\u0431\u0438 \u0434\u043b\u044f \u0437\u0438\u0441\u043a\u0443!"
        },
        {
          "chapter": 1,
          "verse": 17,
          "name": "Jude 1:17",
          "text": "\u0410 \u0432\u0438, \u0443\u043b\u044e\u0431\u043b\u0435\u043d\u0456, \u0437\u0433\u0430\u0434\u0443\u0439\u0442\u0435 \u0441\u043b\u043e\u0432\u0430, \u0449\u043e \u0457\u0445 \u0434\u0430\u0432\u043d\u0456\u0448\u0435 \u043a\u0430\u0437\u0430\u043b\u0438 \u0430\u043f\u043e\u0441\u0442\u043e\u043b\u0438 \u0413\u043e\u0441\u043f\u043e\u0434\u0430 \u043d\u0430\u0448\u043e\u0433\u043e \u0406\u0441\u0443\u0441\u0430 \u0425\u0440\u0438\u0441\u0442\u0430,"
        },
        {
          "chapter": 1,
          "verse": 18,
          "name": "Jude 1:18",
          "text": "\u044f\u043a\u0456 \u0432\u0430\u043c \u0433\u043e\u0432\u043e\u0440\u0438\u043b\u0438: \u0417\u0430 \u043e\u0441\u0442\u0430\u043d\u043d\u044c\u043e\u0433\u043e \u0447\u0430\u0441\u0443 \u0431\u0443\u0434\u0443\u0442\u044c \u0433\u043b\u0443\u0437\u0456\u0457, \u0449\u043e \u0445\u043e\u0434\u0438\u0442\u0438\u043c\u0443\u0442\u044c \u0437\u0430 \u0441\u0432\u043e\u0457\u043c\u0438 \u043f\u043e\u0436\u0430\u0434\u043b\u0438\u0432\u043e\u0441\u0442\u044f\u043c\u0438 \u0442\u0430 \u0431\u0435\u0437\u0431\u043e\u0436\u043d\u0456\u0441\u0442\u044e."
        },
        {
          "chapter": 1,
          "verse": 19,
          "name": "Jude 1:19",
          "text": "\u0426\u0435 \u0442\u0456, \u0445\u0442\u043e \u0432\u0456\u0434\u043b\u0443\u0447\u0443\u0454\u0442\u044c\u0441\u044f \u0432\u0456\u0434 \u0454\u0434\u043d\u043e\u0441\u0442\u0438, \u0442\u0456\u043b\u0435\u0441\u043d\u0456, \u0449\u043e \u0434\u0443\u0445\u0430 \u043d\u0435 \u043c\u0430\u044e\u0442\u044c."
        },
        {
          "chapter": 1,
          "verse": 20,
          "name": "Jude 1:20",
          "text": "\u0410 \u0432\u0438, \u0443\u043b\u044e\u0431\u043b\u0435\u043d\u0456, \u0431\u0443\u0434\u0443\u0439\u0442\u0435 \u0441\u0435\u0431\u0435 \u043d\u0430\u0439\u0441\u0432\u044f\u0442\u0456\u0448\u043e\u044e \u0432\u0430\u0448\u043e\u044e \u0432\u0456\u0440\u043e\u044e, \u043c\u043e\u043b\u0456\u0442\u044c\u0441\u044f \u0414\u0443\u0445\u043e\u043c \u0421\u0432\u044f\u0442\u0438\u043c,"
        },
        {
          "chapter": 1,
          "verse": 21,
          "name": "Jude 1:21",
          "text": "\u0431\u0435\u0440\u0435\u0436\u0456\u0442\u044c \u0441\u0435\u0431\u0435 \u0441\u0430\u043c\u0438\u0445 \u0443 \u0411\u043e\u0436\u0456\u0439 \u043b\u044e\u0431\u043e\u0432\u0456, \u0456 \u0447\u0435\u043a\u0430\u0439\u0442\u0435 \u043c\u0438\u043b\u043e\u0441\u0442\u0438 \u0413\u043e\u0441\u043f\u043e\u0434\u0430 \u043d\u0430\u0448\u043e\u0433\u043e \u0406\u0441\u0443\u0441\u0430 \u0425\u0440\u0438\u0441\u0442\u0430 \u0434\u043b\u044f \u0432\u0456\u0447\u043d\u043e\u0433\u043e \u0436\u0438\u0442\u0442\u044f."
        },
        {
          "chapter": 1,
          "verse": 22,
          "name": "Jude 1:22",
          "text": "\u0406 \u0434\u043e \u043e\u0434\u043d\u0438\u0445, \u0445\u0442\u043e \u0432\u0430\u0433\u0430\u0454\u0442\u044c\u0441\u044f, \u0431\u0443\u0434\u044c\u0442\u0435 \u043c\u0438\u043b\u043e\u0441\u0442\u0438\u0432\u0456,"
        },
        {
          "chapter": 1,
          "verse": 23,
          "name": "Jude 1:23",
          "text": "\u0441\u043f\u0430\u0441\u0430\u0439\u0442\u0435 \u0456 \u0432\u0438\u0440\u0438\u0432\u0430\u0439\u0442\u0435 \u0437 \u043e\u0433\u043d\u044e, \u0430 \u0434\u043e \u0456\u043d\u0448\u0438\u0445 \u0431\u0443\u0434\u044c\u0442\u0435 \u043c\u0438\u043b\u043e\u0441\u0435\u0440\u0434\u043d\u0456 \u0437\u043e \u0441\u0442\u0440\u0430\u0445\u043e\u043c, \u0456 \u043d\u0435\u043d\u0430\u0432\u0438\u0434\u044c\u0442\u0435 \u043d\u0430\u0432\u0456\u0442\u044c \u043e\u0434\u0435\u0436\u0443, \u043e\u043f\u043e\u0433\u0430\u043d\u0435\u043d\u0443 \u0432\u0456\u0434 \u0442\u0456\u043b\u0430!"
        },
        {
          "chapter": 1,
          "verse": 24,
          "name": "Jude 1:24",
          "text": "\u0410 \u0422\u043e\u043c\u0443, \u0425\u0442\u043e \u043c\u043e\u0436\u0435 \u0432\u0430\u0441 \u0437\u0431\u0435\u0440\u0435\u0433\u0442\u0438 \u0432\u0456\u0434 \u0443\u043f\u0430\u0434\u043a\u0443, \u0456 \u043f\u043e\u0441\u0442\u0430\u0432\u0438\u0442\u0438 \u043f\u0435\u0440\u0435\u0434 \u0421\u0432\u043e\u0454\u044e \u0441\u043b\u0430\u0432\u043e\u044e \u043d\u0435\u043f\u043e\u0440\u043e\u0447\u043d\u0438\u043c\u0438 \u0432 \u0440\u0430\u0434\u043e\u0441\u0442\u0456,"
        },
        {
          "chapter": 1,
          "verse": 25,
          "name": "Jude 1:25",
          "text": "\u0404\u0434\u0438\u043d\u043e\u043c\u0443 \u043f\u0440\u0435\u043c\u0443\u0434\u0440\u043e\u043c\u0443 \u0411\u043e\u0433\u043e\u0432\u0456, \u0421\u043f\u0430\u0441\u0438\u0442\u0435\u043b\u0435\u0432\u0456 \u043d\u0430\u0448\u043e\u043c\u0443 \u0447\u0435\u0440\u0435\u0437 \u0406\u0441\u0443\u0441\u0430 \u0425\u0440\u0438\u0441\u0442\u0430, \u0413\u043e\u0441\u043f\u043e\u0434\u0430 \u043d\u0430\u0448\u043e\u0433\u043e, \u0441\u043b\u0430\u0432\u0430, \u043c\u043e\u0433\u0443\u0442\u043d\u0456\u0441\u0442\u044c, \u0441\u0438\u043b\u0430 \u0442\u0430 \u0432\u043b\u0430\u0434\u0430 \u043f\u0435\u0440\u0448\u0435 \u0432\u0441\u044c\u043e\u0433\u043e \u0432\u0456\u043a\u0443, \u0456 \u0442\u0435\u043f\u0435\u0440, \u0456 \u043d\u0430 \u0432\u0441\u0456 \u0432\u0456\u043a\u0438! \u0410\u043c\u0456\u043d\u044c.  "
        }
      ]
    }
  ]
}
