{
    "translation": "Klingon Language Version of the World English Bible",
    "abbreviation": "klv",
    "lang": "tlh",
    "language": "",
    "direction": "LTR",
    "encoding": "",
    "book_nr": 6,
    "book_name": "Joshua",
    "chapter": 6,
    "name": "Joshua 6",
    "verses": [
        {
            "chapter": 6,
            "verse": 1,
            "name": "Joshua 6:1",
            "text": "       DaH Jericho  ghaHta' tightly shut  Dung because  vo' the  puqpu'  vo' Israel.  ghobe'  wa'  mejta'  pa',  je  ghobe'  wa'  ghoSta'  Daq."
        },
        {
            "chapter": 6,
            "verse": 2,
            "name": "Joshua 6:2",
            "text": "       joH'a'  ja'ta'  Daq Joshua, \u201c yIlegh,  jIH  ghaj  nobpu' Jericho  Daq  lIj  ghop,  tlhej its  joH  je the  HoS  loDpu'  vo' valor."
        },
        {
            "chapter": 6,
            "verse": 3,
            "name": "Joshua 6:3",
            "text": "       Hoch  lIj  loDpu'  vo'  veS  DIchDaq march around the  veng,  ghoS around the  veng once.  SoH  DIchDaq  ta'  vam  jav  jajmey."
        },
        {
            "chapter": 6,
            "verse": 4,
            "name": "Joshua 6:4",
            "text": "       Soch  lalDan vumwI'pu'  DIchDaq  SIQ  Soch trumpets  vo' rams' horns  qaSpa' the  Duj.  Daq the  SochDIch  jaj,  SoH  DIchDaq march around the  veng Soch  poHmey,  je the  lalDan vumwI'pu'  DIchDaq blow the trumpets."
        },
        {
            "chapter": 6,
            "verse": 5,
            "name": "Joshua 6:5",
            "text": "       'oH  DIchDaq  taH  vetlh  ghorgh  chaH  chenmoH a  tIq blast  tlhej the ram's horn,  je  ghorgh  SoH  Qoy the  wab  vo' the trumpet,  Hoch the  ghotpu DIchDaq  jach  tlhej a  Dun  jach;  je the  reD  vo' the  veng  DIchDaq  pum  bIng flat,  je the  ghotpu  DIchDaq  jaH  Dung  Hoch  loD straight  qaSpa' ghaH.\u201d"
        },
        {
            "chapter": 6,
            "verse": 6,
            "name": "Joshua 6:6",
            "text": "      Joshua the  puqloD  vo' Nun  ja' the  lalDan vumwI'pu',  je  ja'ta'  Daq  chaH, \u201c tlhap  Dung the  Duj  vo' the  lay',  je  chaw'  Soch  lalDan vumwI'pu'  SIQ  Soch     trumpets  vo' rams' horns  qaSpa' the  Duj  vo'  joH'a'.\u201d"
        },
        {
            "chapter": 6,
            "verse": 7,
            "name": "Joshua 6:7",
            "text": "       chaH  ja'ta'  Daq the  ghotpu, \u201cAdvance! March around the  veng,  je  chaw' the armed  loDpu'  juS  Daq  qaSpa'  joH'a'  Duj.\u201d"
        },
        {
            "chapter": 6,
            "verse": 8,
            "name": "Joshua 6:8",
            "text": "       'oH  ghaHta'  vaj,  vetlh  ghorgh Joshua  ghajta'  jatlhpu'  Daq the  ghotpu, the  Soch  lalDan vumwI'pu'  qeng the  Soch trumpets  vo' rams' horns  qaSpa'  joH'a'     advanced,  je blew the trumpets;  je the  Duj  vo' the  lay'  vo'  joH'a'  tlha'ta'  chaH."
        },
        {
            "chapter": 6,
            "verse": 9,
            "name": "Joshua 6:9",
            "text": "      The armed  loDpu'  mejta'  qaSpa' the  lalDan vumwI'pu'  'Iv blew the trumpets,  je the  Duj  mejta' after  chaH. The trumpets  ghumta' as  chaH  mejta'."
        },
        {
            "chapter": 6,
            "verse": 10,
            "name": "Joshua 6:10",
            "text": "     Joshua  ra'ta' the  ghotpu,  ja'ta', \u201c SoH  DIchDaq  ghobe'  jach,  ghobe'  chaw'  lIj  ghogh  taH  Qoyta',  ghobe'  DIchDaq  vay'  mu' proceed  pa'  vo'     lIj  nujDu', until the  jaj  jIH  ja'  SoH  Daq  jach.  vaj  SoH  DIchDaq  jach.\u201d"
        },
        {
            "chapter": 6,
            "verse": 11,
            "name": "Joshua 6:11",
            "text": "      vaj  ghaH caused the  Duj  vo'  joH'a'  Daq  jaH around the  veng,  ghoS about  'oH once.  vaj  chaH  ghoSta'  Daq the  raQ,  je  yIntaH  Daq the  raQ."
        },
        {
            "chapter": 6,
            "verse": 12,
            "name": "Joshua 6:12",
            "text": "     Joshua rose early  Daq the  po,  je the  lalDan vumwI'pu'  tlhapta'  Dung the  Duj  vo'  joH'a'."
        },
        {
            "chapter": 6,
            "verse": 13,
            "name": "Joshua 6:13",
            "text": "     The  Soch  lalDan vumwI'pu'  qeng the  Soch trumpets  vo' rams' horns  qaSpa' the  Duj  vo'  joH'a'  mejta'  Daq continually,  je blew the trumpets:     je the armed  loDpu'  mejta'  qaSpa'  chaH. The rear guard  ghoSta' after the  Duj  vo'  joH'a'. The trumpets  ghumta' as  chaH  mejta'."
        },
        {
            "chapter": 6,
            "verse": 14,
            "name": "Joshua 6:14",
            "text": "     The  cha'DIch  jaj  chaH marched around the  veng once,  je  cheghta'  Daq the  raQ.  chaH  ta'ta'  vam  jav  jajmey."
        },
        {
            "chapter": 6,
            "verse": 15,
            "name": "Joshua 6:15",
            "text": "      'oH  qaSta'  Daq the  SochDIch  jaj,  vetlh  chaH rose early  Daq the dawning  vo' the  jaj,  je marched around the  veng  Daq the  rap way  Soch     poHmey.  neH  Daq  vam  jaj  chaH marched around the  veng  Soch  poHmey."
        },
        {
            "chapter": 6,
            "verse": 16,
            "name": "Joshua 6:16",
            "text": "      'oH  qaSta'  Daq the  SochDIch  poH,  ghorgh the  lalDan vumwI'pu' blew the trumpets, Joshua  ja'ta'  Daq the  ghotpu, \u201c jach,  vaD  joH'a'  ghajtaH  nobpu'  SoH    the  veng!"
        },
        {
            "chapter": 6,
            "verse": 17,
            "name": "Joshua 6:17",
            "text": "     The  veng  DIchDaq  taH devoted,  'ach  'oH  je  Hoch  vetlh  ghaH  Daq  'oH,  Daq  joH'a'.  neH Rahab the  naybe'wI'  DIchDaq  yIn,  ghaH  je  Hoch  'Iv  'oH  tlhej     Daj  Daq the  tuq, because  ghaH hid the  Duypu'  vetlh  maH  ngeHta'."
        },
        {
            "chapter": 6,
            "verse": 18,
            "name": "Joshua 6:18",
            "text": "      'ach as  vaD  SoH,  neH  pol  tlhIH'egh  vo' the devoted  Doch, lest  ghorgh  SoH  ghaj devoted  'oH,  SoH  tlhap  vo' the devoted     Doch;  vaj would  SoH  chenmoH the  raQ  vo' Israel accursed,  je  Seng  'oH."
        },
        {
            "chapter": 6,
            "verse": 19,
            "name": "Joshua 6:19",
            "text": "      'ach  Hoch the  baS chIS,  je  SuD baS,  je  Dujmey  vo' brass  je iron,  'oH  le'  Daq  joH'a'.  chaH  DIchDaq  ghoS  Daq  joH'a' treasury.\u201d"
        },
        {
            "chapter": 6,
            "verse": 20,
            "name": "Joshua 6:20",
            "text": "      vaj the  ghotpu  jachta',  je the  lalDan vumwI'pu' blew the trumpets.  'oH  qaSta',  ghorgh the  ghotpu  Qoyta' the  wab  vo' the trumpet,  vetlh the     ghotpu  jachta'  tlhej a  Dun  jach,  je the  reD  pumta'  bIng flat,  vaj  vetlh the  ghotpu  mejta'  Dung  Daq the  veng,  Hoch  loD straight  qaSpa'  ghaH,     je  chaH  tlhapta' the  veng."
        },
        {
            "chapter": 6,
            "verse": 21,
            "name": "Joshua 6:21",
            "text": "      chaH utterly  Qaw'ta'  Hoch  vetlh  ghaHta'  Daq the  veng, both  loD  je  be', both  Qup  je  qan,  je  Qa',  je  Suy',  je  SarghHom,  tlhej the    edge  vo' the  'etlh."
        },
        {
            "chapter": 6,
            "verse": 22,
            "name": "Joshua 6:22",
            "text": "     Joshua  ja'ta'  Daq the  cha'  loDpu'  'Iv  ghajta' spied  pa' the  puH, \u201c jaH  Daq the prostitute's  tuq,  je  qem  pa'  vo'  pa' the  be'  je  Hoch     vetlh  ghaH  ghajtaH, as  SoH swore  Daq  Daj.\u201d"
        },
        {
            "chapter": 6,
            "verse": 23,
            "name": "Joshua 6:23",
            "text": "     The  Qup  loDpu'  'Iv were spies  mejta'  Daq,  je  qempu'  pa' Rahab  tlhej  Daj  vav,  Daj  SoS,  Daj  loDnI'pu',  je  Hoch  vetlh  ghaH  ghajta'.  chaH     je  qempu'  pa'  Hoch  Daj relatives,  je  chaH  cher  chaH outside  vo' the  raQ  vo' Israel."
        },
        {
            "chapter": 6,
            "verse": 24,
            "name": "Joshua 6:24",
            "text": "      chaH  meQqu'pu' the  veng  tlhej  qul,  je  Hoch  vetlh  ghaHta'  Daq  'oH.  neH  chaH  lan the  baS chIS, the  SuD baS,  je the  Dujmey  vo' brass  je  vo' iron     Daq the treasury  vo'  joH'a'  tuq."
        },
        {
            "chapter": 6,
            "verse": 25,
            "name": "Joshua 6:25",
            "text": "      'ach Rahab the  naybe'wI',  Daj  vav household,  je  Hoch  vetlh  ghaH  ghajta', Joshua  toDpu'  yIn.  ghaH  yInta'  Daq the midst  vo' Israel  Daq     vam  jaj, because  ghaH hid the  Duypu',  'Iv Joshua  ngeHta'  Daq spy  pa' Jericho."
        },
        {
            "chapter": 6,
            "verse": 26,
            "name": "Joshua 6:26",
            "text": "     Joshua  ra'ta'  chaH  tlhej an oath  Daq  vetlh  poH,  ja'ta', \u201cCursed  ghaH the  loD  qaSpa'  joH'a',  'Iv rises  Dung  je builds  vam  veng    Jericho.  tlhej the loss  vo'  Daj firstborn  DIchDaq  ghaH lay its foundation,  je  tlhej the loss  vo'  Daj youngest  puqloD  DIchDaq  ghaH  cher  Dung its  lojmItmey.\u201d"
        },
        {
            "chapter": 6,
            "verse": 27,
            "name": "Joshua 6:27",
            "text": "      vaj  joH'a'  ghaHta'  tlhej Joshua;  je  Daj fame  ghaHta'  Daq  Hoch the  puH."
        }
    ]
}