{
    "translation": "Vulgata Clementina, Hetzenauer editore",
    "abbreviation": "vulghetzenauer",
    "lang": "la",
    "language": "Latin",
    "direction": "LTR",
    "encoding": "UTF-8",
    "book_nr": 38,
    "book_name": "Zechariah",
    "chapter": 9,
    "name": "Zechariah 9",
    "verses": [
        {
            "chapter": 9,
            "verse": 1,
            "name": "Zechariah 9:1",
            "text": "Onus verbi Domini in terra Hadrach, et Damasci requiei eius: quia Domini est oculus hominis, et omnium tribuum Israel."
        },
        {
            "chapter": 9,
            "verse": 2,
            "name": "Zechariah 9:2",
            "text": "Emath quoque in terminis eius, et Tyrus, et Sidon: assumpserunt quippe sibi sapientiam valde."
        },
        {
            "chapter": 9,
            "verse": 3,
            "name": "Zechariah 9:3",
            "text": "Et \u00e6dificavit Tyrus munitionem suam, et coacervavit argentum quasi humum, et aurum ut lutum platearum."
        },
        {
            "chapter": 9,
            "verse": 4,
            "name": "Zechariah 9:4",
            "text": "Ecce Dominus possidebit eam, et percutiet in mari fortitudinem eius, et h\u00e6c igni devorabitur."
        },
        {
            "chapter": 9,
            "verse": 5,
            "name": "Zechariah 9:5",
            "text": "Videbit Ascalon, et timebit: et Gaza, et dolebit nimis: et Accaron, quoniam confusa est spes eius: et peribit rex de Gaza, et Ascalon non habitabitur."
        },
        {
            "chapter": 9,
            "verse": 6,
            "name": "Zechariah 9:6",
            "text": "Et sedebit separator in Azoto, et disperdam superbiam Philisthinorum."
        },
        {
            "chapter": 9,
            "verse": 7,
            "name": "Zechariah 9:7",
            "text": "Et auferam sanguinem eius de ore eius, et abominationes eius de medio dentium eius, et relinquetur etiam ipse Deo nostro, et erit quasi dux in Iuda, et Accaron quasi Iebus\u00e6us."
        },
        {
            "chapter": 9,
            "verse": 8,
            "name": "Zechariah 9:8",
            "text": "Et circumdabo domum meam ex his, qui militant mihi euntes et revertentes, et non transibit super eos ultra exactor: quia nunc vidi in oculis meis."
        },
        {
            "chapter": 9,
            "verse": 9,
            "name": "Zechariah 9:9",
            "text": "Exulta satis filia Sion, iubila filia Ierusalem: ECCE REX TUUS veniet tibi iustus, et salvator: ipse pauper, et ascendens super asinam, et super pullum filium asin\u00e6."
        },
        {
            "chapter": 9,
            "verse": 10,
            "name": "Zechariah 9:10",
            "text": "Et disperdam quadrigam ex Ephraim, et equum de Ierusalem, et dissipabitur arcus belli: et loquetur pacem Gentibus, et potestas eius a mari usque ad mare, et a fluminibus usque ad fines terr\u00e6."
        },
        {
            "chapter": 9,
            "verse": 11,
            "name": "Zechariah 9:11",
            "text": "Tu quoque in sanguine testamenti tui emisisti vinctos tuos de lacu, in quo non est aqua."
        },
        {
            "chapter": 9,
            "verse": 12,
            "name": "Zechariah 9:12",
            "text": "Convertimini ad munitionem vincti spei, hodie quoque annuncians duplicia reddam tibi."
        },
        {
            "chapter": 9,
            "verse": 13,
            "name": "Zechariah 9:13",
            "text": "Quoniam extendi mihi Iudam quasi arcum, implevi Ephraim: et suscitabo filios tuos Sion super filios tuos Gr\u00e6cia: et ponam te quasi gladium fortium."
        },
        {
            "chapter": 9,
            "verse": 14,
            "name": "Zechariah 9:14",
            "text": "Et Dominus Deus super eos videbitur, et exibit ut fulgur, iaculum eius: et Dominus Deus in tuba canet, et vadet in turbine Austri."
        },
        {
            "chapter": 9,
            "verse": 15,
            "name": "Zechariah 9:15",
            "text": "Dominus exercituum proteget eos: et devorabunt, et subiicient lapidibus fund\u00e6: et bibentes inebriabuntur quasi a vino, et replebuntur ut phial\u00e6, et quasi cornua altaris."
        },
        {
            "chapter": 9,
            "verse": 16,
            "name": "Zechariah 9:16",
            "text": "Et salvabit eos Dominus Deus eorum in die illa, ut gregem populi sui: quia lapides sancti elevabuntur super terram eius."
        },
        {
            "chapter": 9,
            "verse": 17,
            "name": "Zechariah 9:17",
            "text": "Quid enim bonum eius est, et quid pulchrum eius, nisi frumentum electorum, et vinum germinans virgines? "
        }
    ]
}