{
    "translation": "\u05de\u05e7\u05e8\u05d0 \u05e2\u05dc \u05e4\u05d9 \u05d4\u05de\u05e1\u05d5\u05e8\u05d4 (Miqra `al pi ha-Mesorah)",
    "abbreviation": "mapm",
    "lang": "he",
    "language": "Hebrew",
    "direction": "RTL",
    "encoding": "UTF-8",
    "book_nr": 13,
    "book_name": "1 Chronicles",
    "chapter": 20,
    "name": "1 Chronicles 20",
    "verses": [
        {
            "chapter": 20,
            "verse": 1,
            "name": "1 Chronicles 20:1",
            "text": "\u3000\u3000\u3000\u05d5\u05b7\u05d9\u05b0\u05d4\u05b4\u05a1\u05d9 \u05dc\u05b0\u05e2\u05b5\u05ea\u05a9 \u05ea\u05bc\u05b0\u05e9\u05c1\u05d5\u05bc\u05d1\u05b7\u05a8\u05ea \u05d4\u05b7\u05e9\u05c1\u05bc\u05b8\u05e0\u05b8\u059c\u05d4 \u05dc\u05b0\u05e2\u05b5\u05a3\u05ea\u00a0\u05c0 \u05e6\u05b5\u05a3\u05d0\u05ea \u05d4\u05b7\u05de\u05bc\u05b0\u05dc\u05b8\u05db\u05b4\u0597\u05d9\u05dd \u05d5\u05b7\u05d9\u05bc\u05b4\u05e0\u05b0\u05d4\u05b7\u05a3\u05d2 \u05d9\u05d5\u05b9\u05d0\u05b8\u05d1\u05a9 \u05d0\u05b6\u05ea\u05be\u05d7\u05b5\u05a8\u05d9\u05dc \u05d4\u05b7\u05e6\u05bc\u05b8\u05d1\u05b8\u059c\u05d0 \u05d5\u05b7\u05d9\u05bc\u05b7\u05e9\u05c1\u05b0\u05d7\u05b5\u05a3\u05ea\u00a0\u05c0 \u05d0\u05b6\u05ea\u05be\u05d0\u05b6\u05a3\u05e8\u05b6\u05e5 \u05d1\u05bc\u05b0\u05e0\u05b5\u05d9\u05be\u05e2\u05b7\u05de\u05bc\u0597\u05d5\u05b9\u05df \u05d5\u05b7\u05d9\u05bc\u05b8\u05d1\u05b9\u05d0\u0599 \u05d5\u05b7\u05d9\u05bc\u05b8\u05a3\u05e6\u05b7\u05e8 \u05d0\u05b6\u05ea\u05be\u05e8\u05b7\u05d1\u05bc\u05b8\u0594\u05d4 \u05d5\u05b0\u05d3\u05b8\u05d5\u05b4\u0596\u05d9\u05d3 \u05d9\u05b9\u05e9\u05c1\u05b5\u05a3\u05d1 \u05d1\u05bc\u05b4\u05d9\u05e8\u05d5\u05bc\u05e9\u05c1\u05b8\u05dc\u05b8\u0591\u200d\u05b4\u05dd \u05d5\u05b7\u05d9\u05bc\u05b7\u05a5\u05da\u05b0 \u05d9\u05d5\u05b9\u05d0\u05b8\u059b\u05d1 \u05d0\u05b6\u05ea\u05be\u05e8\u05b7\u05d1\u05bc\u05b8\u0596\u05d4 \u05d5\u05b7\u05d9\u05bc\u05b6\u05d4\u05b6\u05e8\u05b0\u05e1\u05b6\u05bd\u05d4\u05b8\u05c3"
        },
        {
            "chapter": 20,
            "verse": 2,
            "name": "1 Chronicles 20:2",
            "text": "\u05d5\u05b7\u05d9\u05bc\u05b4\u05e7\u05bc\u05b7\u05a3\u05d7 \u05d3\u05bc\u05b8\u05d5\u05b4\u05a3\u05d9\u05d3 \u05d0\u05b6\u05ea\u05be\u05e2\u05b2\u05d8\u05b6\u05bd\u05e8\u05b6\u05ea\u05be\u05de\u05b7\u05dc\u05b0\u05db\u05bc\u05b8\u05dd\u05a9 \u05de\u05b5\u05e2\u05b7\u05a8\u05dc \u05e8\u05b9\u05d0\u05e9\u05c1\u059c\u05d5\u05b9 \u05d5\u05b7\u05bd\u05d9\u05bc\u05b4\u05de\u05b0\u05e6\u05b8\u05d0\u05b8\u05a3\u05d4\u05bc\u00a0\u05c0 \u05de\u05b4\u05e9\u05c1\u05b0\u05e7\u05b7\u05a3\u05dc \u05db\u05bc\u05b4\u05db\u05bc\u05b7\u05e8\u05be\u05d6\u05b8\u05d4\u05b8\u0597\u05d1 \u05d5\u05bc\u05d1\u05b8\u05d4\u05bc\u0599 \u05d0\u05b6\u05a3\u05d1\u05b6\u05df \u05d9\u05b0\u05e7\u05b8\u05e8\u05b8\u0594\u05d4 \u05d5\u05b7\u05ea\u05bc\u05b0\u05d4\u05b4\u0596\u05d9 \u05e2\u05b7\u05dc\u05be\u05e8\u05b9\u05a3\u05d0\u05e9\u05c1 \u05d3\u05bc\u05b8\u05d5\u05b4\u0591\u05d9\u05d3 \u05d5\u05bc\u05e9\u05c1\u05b0\u05dc\u05b7\u05a5\u05dc \u05d4\u05b8\u05e2\u05b4\u059b\u05d9\u05e8 \u05d4\u05d5\u05b9\u05e6\u05b4\u0596\u05d9\u05d0 \u05d4\u05b7\u05e8\u05b0\u05d1\u05bc\u05b5\u05a5\u05d4 \u05de\u05b0\u05d0\u05b9\u05bd\u05d3\u05c3"
        },
        {
            "chapter": 20,
            "verse": 3,
            "name": "1 Chronicles 20:3",
            "text": "\u05d5\u05b0\u05d0\u05b6\u05ea\u05be\u05d4\u05b8\u05e2\u05b8\u05a8\u05dd \u05d0\u05b2\u05e9\u05c1\u05b6\u05e8\u05be\u05d1\u05bc\u05b8\u059c\u05d4\u05bc \u05d4\u05d5\u05b9\u05e6\u05b4\u0597\u05d9\u05d0 \u05d5\u05b7\u05d9\u05bc\u05b8\u05a8\u05e9\u05c2\u05b7\u05e8 \u05d1\u05bc\u05b7\u05de\u05bc\u05b0\u05d2\u05b5\u05e8\u05b8\u059c\u05d4 \u05d5\u05bc\u05d1\u05b7\u05d7\u05b2\u05e8\u05b4\u05d9\u05e6\u05b5\u05a4\u05d9 \u05d4\u05b7\u05d1\u05bc\u05b7\u05e8\u05b0\u05d6\u05b6\u05dc\u0599 \u05d5\u05bc\u05d1\u05b7\u05de\u05bc\u05b0\u05d2\u05b5\u05e8\u0594\u05d5\u05b9\u05ea \u05d5\u05b0\u05db\u05b5\u05df\u0599 \u05d9\u05b7\u05e2\u05b2\u05e9\u05c2\u05b6\u05a3\u05d4 \u05d3\u05b8\u05d5\u05b4\u0594\u05d9\u05d3 \u05dc\u05b0\u05db\u05b9\u0596\u05dc \u05e2\u05b8\u05e8\u05b5\u05a3\u05d9 \u05d1\u05b0\u05e0\u05b5\u05d9\u05be\u05e2\u05b7\u05de\u05bc\u0591\u05d5\u05b9\u05df \u05d5\u05b7\u05d9\u05bc\u05b8\u05a7\u05e9\u05c1\u05c7\u05d1 \u05d3\u05bc\u05b8\u05d5\u05b4\u059b\u05d9\u05d3 \u05d5\u05b0\u05db\u05c7\u05dc\u05be\u05d4\u05b8\u05e2\u05b8\u0596\u05dd \u05d9\u05b0\u05e8\u05bd\u05d5\u05bc\u05e9\u05c1\u05b8\u05dc\u05b8\u05bd\u200d\u05b4\u05dd\u05c3"
        },
        {
            "chapter": 20,
            "verse": 4,
            "name": "1 Chronicles 20:4",
            "text": " \u3000\u3000\u3000\u05d5\u05b7\u05bd\u05d9\u05b0\u05d4\u05b4\u05d9\u0599 \u05d0\u05b7\u05d7\u05b2\u05e8\u05b5\u05d9 \u05db\u05b5\u0594\u05df \u05d5\u05b7\u05ea\u05bc\u05b7\u05e2\u05b2\u05de\u05b9\u05a7\u05d3 \u05de\u05b4\u05dc\u05b0\u05d7\u05b8\u05de\u05b8\u059b\u05d4 \u05d1\u05bc\u05b0\u05d2\u05b6\u0596\u05d6\u05b6\u05e8 \u05e2\u05b4\u05dd\u05be\u05e4\u05bc\u05b0\u05dc\u05b4\u05e9\u05c1\u05b0\u05ea\u05bc\u05b4\u0591\u05d9\u05dd \u05d0\u05b8\u05a3\u05d6 \u05d4\u05b4\u05db\u05bc\u05b8\u059e\u05d4 \u05e1\u05b4\u05d1\u05bc\u05b0\u05db\u05b7\u05a3\u05d9 \u05d4\u05b7\u05d7\u05bb\u05e9\u05c1\u05b8\u05ea\u05b4\u0597\u05d9 \u05d0\u05b6\u05ea\u05be\u05e1\u05b4\u05e4\u05bc\u05b7\u059b\u05d9 \u05de\u05b4\u05d9\u05dc\u05b4\u05d9\u05d3\u05b5\u05a5\u05d9 \u05d4\u05b8\u05e8\u05b0\u05e4\u05b8\u05d0\u05b4\u0596\u05d9\u05dd \u05d5\u05b7\u05d9\u05bc\u05b4\u05db\u05bc\u05b8\u05e0\u05b5\u05bd\u05e2\u05d5\u05bc\u05c3"
        },
        {
            "chapter": 20,
            "verse": 5,
            "name": "1 Chronicles 20:5",
            "text": "\u05d5\u05b7\u05ea\u05bc\u05b0\u05d4\u05b4\u05d9\u05be\u05e2\u05a5\u05d5\u05b9\u05d3 \u05de\u05b4\u05dc\u05b0\u05d7\u05b8\u05de\u05b8\u0596\u05d4 \u05d0\u05b6\u05ea\u05be\u05e4\u05bc\u05b0\u05dc\u05b4\u05e9\u05c1\u05b0\u05ea\u05bc\u05b4\u0591\u05d9\u05dd \u05d5\u05b7\u05d9\u05bc\u05b7\u059e\u05da\u05b0 \u05d0\u05b6\u05dc\u05b0\u05d7\u05b8\u05e0\u05b8\u05a3\u05df \u05d1\u05bc\u05b6\u05df\u05be\u05d9\u05b8\u05e2\u05b4\u0597\u05d9\u05e8 \u05d9\u05e2\u05d5\u05e8 \u05d0\u05b6\u05ea\u05be\u05dc\u05b7\u05d7\u05b0\u05de\u05b4\u05d9\u0599 \u05d0\u05b2\u05d7\u05b4\u05d9\u0599 \u05d2\u05bc\u05c7\u05dc\u05b0\u05d9\u05b8\u05a3\u05ea \u05d4\u05b7\u05d2\u05bc\u05b4\u05ea\u05bc\u05b4\u0594\u05d9 \u05d5\u05b0\u05e2\u05b5\u05a3\u05e5 \u05d7\u05b2\u05e0\u05b4\u05d9\u05ea\u0594\u05d5\u05b9 \u05db\u05bc\u05b4\u05de\u05b0\u05e0\u0596\u05d5\u05b9\u05e8 \u05d0\u05b9\u05e8\u05b0\u05d2\u05b4\u05bd\u05d9\u05dd\u05c3"
        },
        {
            "chapter": 20,
            "verse": 6,
            "name": "1 Chronicles 20:6",
            "text": " \u3000\u3000\u3000\u05d5\u05b7\u05ea\u05bc\u05b0\u05d4\u05b4\u05d9\u05be\u05e2\u05a5\u05d5\u05b9\u05d3 \u05de\u05b4\u05dc\u05b0\u05d7\u05b8\u05de\u05b8\u0596\u05d4 \u05d1\u05bc\u05b0\u05d2\u05b7\u0591\u05ea \u05d5\u05b7\u05d9\u05b0\u05d4\u05b4\u05a3\u05d9\u00a0\u05c0 \u05d0\u05b4\u05a3\u05d9\u05e9\u05c1 \u05de\u05b4\u05d3\u05bc\u05b8\u0597\u05d4 \u05d5\u05b0\u05d0\u05b6\u05e6\u05b0\u05d1\u05bc\u05b0\u05e2\u05b9\u05ea\u05b8\u05a4\u05d9\u05d5 \u05e9\u05c1\u05b5\u05e9\u05c1\u05be\u05d5\u05b8\u05e9\u05c1\u05b5\u05e9\u05c1\u0599 \u05e2\u05b6\u05e9\u05c2\u05b0\u05e8\u05b4\u05a3\u05d9\u05dd \u05d5\u05b0\u05d0\u05b7\u05e8\u05b0\u05d1\u05bc\u05b7\u0594\u05e2 \u05d5\u05b0\u05d2\u05b7\u05dd\u05be\u05d4\u0596\u05d5\u05bc\u05d0 \u05e0\u05d5\u05b9\u05dc\u05b7\u05a5\u05d3 \u05dc\u05b0\u05d4\u05b8\u05e8\u05b8\u05e4\u05b8\u05bd\u05d0\u05c3"
        },
        {
            "chapter": 20,
            "verse": 7,
            "name": "1 Chronicles 20:7",
            "text": "\u05d5\u05b7\u05d9\u05b0\u05d7\u05b8\u05e8\u05b5\u0596\u05e3 \u05d0\u05b6\u05ea\u05be\u05d9\u05b4\u05e9\u05c2\u05b0\u05e8\u05b8\u05d0\u05b5\u0591\u05dc \u05d5\u05b7\u05d9\u05bc\u05b7\u05db\u05bc\u05b5\u0599\u05d4\u05d5\u05bc\u0599 \u05d9\u05b0\u05d4\u05a3\u05d5\u05b9\u05e0\u05b8\u05ea\u05b8\u0594\u05df \u05d1\u05bc\u05b6\u05df\u05be\u05e9\u05c1\u05b4\u05de\u05b0\u05e2\u05b8\u0596\u05d0 \u05d0\u05b2\u05d7\u05b4\u05a5\u05d9 \u05d3\u05b8\u05d5\u05b4\u05bd\u05d9\u05d3\u05c3"
        },
        {
            "chapter": 20,
            "verse": 8,
            "name": "1 Chronicles 20:8",
            "text": "\u05d0\u05b5\u059b\u05dc \u05e0\u05d5\u05bc\u05dc\u05bc\u05b0\u05d3\u05a5\u05d5\u05bc \u05dc\u05b0\u05d4\u05b8\u05e8\u05b8\u05e4\u05b8\u0596\u05d0 \u05d1\u05bc\u05b0\u05d2\u05b7\u0591\u05ea \u05d5\u05b7\u05d9\u05bc\u05b4\u05e4\u05bc\u05b0\u05dc\u05a5\u05d5\u05bc \u05d1\u05b0\u05d9\u05b7\u05d3\u05be\u05d3\u05bc\u05b8\u05d5\u05b4\u0596\u05d9\u05d3 \u05d5\u05bc\u05d1\u05b0\u05d9\u05b7\u05d3\u05be\u05e2\u05b2\u05d1\u05b8\u05d3\u05b8\u05bd\u05d9\u05d5\u05c3  "
        }
    ]
}