{
    "translation": "Bible Perret-Gentil et Rilliet",
    "abbreviation": "frepgr",
    "lang": "fr",
    "language": "French",
    "direction": "LTR",
    "encoding": "UTF-8",
    "book_nr": 9,
    "book_name": "1 Samuel",
    "chapter": 10,
    "name": "1 Samuel 10",
    "verses": [
        {
            "chapter": 10,
            "verse": 1,
            "name": "1 Samuel 10:1",
            "text": "Alors Samuel prit la fiole d'huile, et la r\u00e9pandit sur sa t\u00eate, et il l'embrassa et dit : Voici, par l'onction l'\u00c9ternel te sacre Prince de son h\u00e9ritage."
        },
        {
            "chapter": 10,
            "verse": 2,
            "name": "1 Samuel 10:2",
            "text": "Aujourd'hui apr\u00e8s m'avoir quitt\u00e9 tu trouveras deux hommes pr\u00e8s du tombeau de Rachel sur la fronti\u00e8re de Benjamin \u00e0 Tseltsah, et ils te diront : Les \u00e2nesses que tu es all\u00e9 chercher, sont retrouv\u00e9es ; et voici, ton p\u00e8re ne songe plus \u00e0 l'affaire des \u00e2nesses, mais il est inquiet de vous et dit : Que dois-je faire \u00e0 l'\u00e9gard de mon fils ?"
        },
        {
            "chapter": 10,
            "verse": 3,
            "name": "1 Samuel 10:3",
            "text": "Et de l\u00e0 passant plus loin tu atteindras le ch\u00eane de Thabor, o\u00f9 tu seras rencontr\u00e9 par trois hommes se rendant aupr\u00e8s de Dieu \u00e0 B\u00e9thel et portant, l'un trois chevreaux, l'autre trois galettes de pain, l'autre une jarre de vin."
        },
        {
            "chapter": 10,
            "verse": 4,
            "name": "1 Samuel 10:4",
            "text": "Et ils te salueront et te donneront deux pains que tu recevras de leur main."
        },
        {
            "chapter": 10,
            "verse": 5,
            "name": "1 Samuel 10:5",
            "text": "Ensuite tu arriveras \u00e0 Gibea-Elohim o\u00f9 sont les postes des Philistins, et l\u00e0, pr\u00e8s d'arriver \u00e0 la ville tu rencontreras un ch\u0153ur de proph\u00e8tes descendant du tertre, pr\u00e9c\u00e9d\u00e9s de harpes, de tambourins, de fl\u00fbtes et de luths, et proph\u00e9tisant."
        },
        {
            "chapter": 10,
            "verse": 6,
            "name": "1 Samuel 10:6",
            "text": "Et l'Esprit de l'\u00c9ternel s'emparera de toi et tu proph\u00e9tiseras avec eux, et seras transform\u00e9 en un autre homme."
        },
        {
            "chapter": 10,
            "verse": 7,
            "name": "1 Samuel 10:7",
            "text": "Et lorsque ces signes auront eu lieu pour toi, entreprends tout ce que tu trouveras \u00e0 faire, car Dieu est avec toi."
        },
        {
            "chapter": 10,
            "verse": 8,
            "name": "1 Samuel 10:8",
            "text": "Et devance-moi \u00e0 Guilgal, et voici, je te rejoindrai pour offrir des holocaustes et des sacrifices pacifiques : tu attendras sept jours jusqu'\u00e0 ce que je t'aie rejoint ; alors, je t'instruirai de ce que tu dois faire."
        },
        {
            "chapter": 10,
            "verse": 9,
            "name": "1 Samuel 10:9",
            "text": "Et lorsqu'il eut tourn\u00e9 le dos pour se s\u00e9parer de Samuel, alors Dieu lui changea le c\u0153ur, et le jour m\u00eame tous ces signes s'accomplirent."
        },
        {
            "chapter": 10,
            "verse": 10,
            "name": "1 Samuel 10:10",
            "text": "Et ils arrivaient l\u00e0, \u00e0 Gibea, et voil\u00e0 qu'un ch\u0153ur de proph\u00e8tes venait \u00e0 sa rencontre, et l'Esprit de Dieu s'empara de lui, et il proph\u00e9tisa au milieu d'eux."
        },
        {
            "chapter": 10,
            "verse": 11,
            "name": "1 Samuel 10:11",
            "text": "Et lorsque tous ceux qui le connaissaient d'ancienne date, le virent proph\u00e9tiser avec les proph\u00e8tes, dans tout le peuple on se disait mutuellement : Qu'est-il donc survenu au fils de Kis ? Sa\u00fcl est-il aussi au nombre des proph\u00e8tes ?"
        },
        {
            "chapter": 10,
            "verse": 12,
            "name": "1 Samuel 10:12",
            "text": "Et un homme de l\u00e0 prit la parole et dit : Et qui est leur p\u00e8re ? De l\u00e0 le proverbe : Sa\u00fcl est-il aussi au nombre des proph\u00e8tes ?"
        },
        {
            "chapter": 10,
            "verse": 13,
            "name": "1 Samuel 10:13",
            "text": "Et ayant fini de proph\u00e9tiser, il vint au tertre."
        },
        {
            "chapter": 10,
            "verse": 14,
            "name": "1 Samuel 10:14",
            "text": "Alors l'oncle de Sa\u00fcl dit \u00e0 lui et \u00e0 son valet : O\u00f9 \u00eates-vous all\u00e9s ? Et il r\u00e9pondit : Chercher les \u00e2nesses, et ne les d\u00e9couvrant nulle part, nous nous sommes rendus aupr\u00e8s de Samuel."
        },
        {
            "chapter": 10,
            "verse": 15,
            "name": "1 Samuel 10:15",
            "text": "Et l'oncle de Sa\u00fcl dit : Raconte-moi donc ce que Samuel vous a dit !"
        },
        {
            "chapter": 10,
            "verse": 16,
            "name": "1 Samuel 10:16",
            "text": "Et Sa\u00fcl r\u00e9pondit \u00e0 son oncle : Il nous a annonc\u00e9 que les \u00e2nesses sont retrouv\u00e9es. Mais quant \u00e0 l'affaire de la royaut\u00e9 il ne lui communiqua point ce qu'avait dit Samuel."
        },
        {
            "chapter": 10,
            "verse": 17,
            "name": "1 Samuel 10:17",
            "text": "Et Samuel convoqua le peuple devant l'\u00c9ternel \u00e0 Mitspa."
        },
        {
            "chapter": 10,
            "verse": 18,
            "name": "1 Samuel 10:18",
            "text": "Et il dit aux enfants d'Isra\u00ebl : Ainsi parle l'\u00c9ternel, Dieu d'Isra\u00ebl : J'ai retir\u00e9 Isra\u00ebl de l'Egypte, et je vous ai arrach\u00e9s des mains des Egyptiens, et de l'empire de tous les royaumes de vos oppresseurs,"
        },
        {
            "chapter": 10,
            "verse": 19,
            "name": "1 Samuel 10:19",
            "text": "mais aujourd'hui vous rejetez votre Dieu qui vous a d\u00e9livr\u00e9s de toutes vos tribulations et de vos d\u00e9tresses, et vous lui dites : Etablis un roi sur nous. Eh bien donc ! pr\u00e9sentez-vous devant l'\u00c9ternel rang\u00e9s selon vos Tribus et vos milliers."
        },
        {
            "chapter": 10,
            "verse": 20,
            "name": "1 Samuel 10:20",
            "text": "Puis Samuel fit approcher toutes les Tribus d'Isra\u00ebl, et le sort d\u00e9signa la Tribu de Benjamin."
        },
        {
            "chapter": 10,
            "verse": 21,
            "name": "1 Samuel 10:21",
            "text": "Et il fit approcher la Tribu de Benjamin par familles, et le sort d\u00e9signa la famille de Matri, puis Sa\u00fcl, fils de Kis. Et on le chercha, mais il ne se trouvait pas."
        },
        {
            "chapter": 10,
            "verse": 22,
            "name": "1 Samuel 10:22",
            "text": "Alors ils consult\u00e8rent encore l'\u00c9ternel : Est-il encore venu un homme ici ? Et l'\u00c9ternel dit : Voici il est cach\u00e9 vers les bagages."
        },
        {
            "chapter": 10,
            "verse": 23,
            "name": "1 Samuel 10:23",
            "text": "Alors ils coururent l'y chercher. Il parut au milieu du peuple, et il d\u00e9passait tout le peuple des \u00e9paules en haut."
        },
        {
            "chapter": 10,
            "verse": 24,
            "name": "1 Samuel 10:24",
            "text": "Et Samuel dit \u00e0 tout le peuple : Voyez-vous celui qu'a \u00e9lu l'\u00c9ternel ? Car il n'a pas son pareil dans tout le peuple. Alors tout le peuple acclama et dit : Vive le Roi !"
        },
        {
            "chapter": 10,
            "verse": 25,
            "name": "1 Samuel 10:25",
            "text": "Et Samuel d\u00e9veloppa au peuple le statut de la royaut\u00e9 et l'inscrivit dans un volume qu'il d\u00e9posa devant l'\u00c9ternel."
        },
        {
            "chapter": 10,
            "verse": 26,
            "name": "1 Samuel 10:26",
            "text": "Et Samuel fit retirer tout le peuple, chacun chez soi. Sa\u00fcl aussi se rendit chez lui \u00e0 Gibea, accompagn\u00e9 du cort\u00e8ge de ceux dont Dieu avait touch\u00e9 le c\u0153ur."
        },
        {
            "chapter": 10,
            "verse": 27,
            "name": "1 Samuel 10:27",
            "text": "Mais des gens de bas aloi dirent : En quoi celui-l\u00e0 nous aidera-t-il ? Et ils lui montr\u00e8rent du m\u00e9pris, et ne lui apport\u00e8rent point de pr\u00e9sents ; mais il fut comme sourd. "
        }
    ]
}