{
    "translation": "New Heart English Bible",
    "abbreviation": "nheb",
    "lang": "en",
    "language": "English",
    "direction": "LTR",
    "encoding": "UTF-8",
    "book_nr": 14,
    "book_name": "2 Chronicles",
    "chapter": 24,
    "name": "2 Chronicles 24",
    "verses": [
        {
            "chapter": 24,
            "verse": 1,
            "name": "2 Chronicles 24:1",
            "text": "Joash was seven years old when he began to reign; and he reigned forty years in Jerusalem: and his mother's name was Zibiah, of Beersheba."
        },
        {
            "chapter": 24,
            "verse": 2,
            "name": "2 Chronicles 24:2",
            "text": "Joash did that which was right in the eyes of the Lord all the days of Jehoiada the priest."
        },
        {
            "chapter": 24,
            "verse": 3,
            "name": "2 Chronicles 24:3",
            "text": "Jehoiada took for him two wives; and he became the father of sons and daughters."
        },
        {
            "chapter": 24,
            "verse": 4,
            "name": "2 Chronicles 24:4",
            "text": "It happened after this, that Joash intended to restore the house of the Lord."
        },
        {
            "chapter": 24,
            "verse": 5,
            "name": "2 Chronicles 24:5",
            "text": "He gathered together the priests and the Levites, and said to them, \"Go out to the cities of Judah, and gather money to repair the house of your God from all Israel from year to year. See that you expedite this matter.\" However the Levites did not do it right away."
        },
        {
            "chapter": 24,
            "verse": 6,
            "name": "2 Chronicles 24:6",
            "text": "The king called for Jehoiada the chief, and said to him, \"Why haven't you required of the Levites to bring in the tax of Moses the servant of the Lord, and of the assembly of Israel, out of Judah and out of Jerusalem, for the tent of the testimony?\""
        },
        {
            "chapter": 24,
            "verse": 7,
            "name": "2 Chronicles 24:7",
            "text": "For the sons of Athaliah, that wicked woman, had broken up God's house; and they also gave all the dedicated things of the house of the Lord to the Baals."
        },
        {
            "chapter": 24,
            "verse": 8,
            "name": "2 Chronicles 24:8",
            "text": "So the king commanded, and they made a chest, and set it outside at the gate of the house of the Lord."
        },
        {
            "chapter": 24,
            "verse": 9,
            "name": "2 Chronicles 24:9",
            "text": "They made a proclamation through Judah and Jerusalem, to bring in for the Lord the tax that Moses the servant of God laid on Israel in the wilderness."
        },
        {
            "chapter": 24,
            "verse": 10,
            "name": "2 Chronicles 24:10",
            "text": "All the princes and all the people rejoiced, and brought in, and cast into the chest, until they had made an end."
        },
        {
            "chapter": 24,
            "verse": 11,
            "name": "2 Chronicles 24:11",
            "text": "It was so, that whenever the chest was brought to the king's officers by the hand of the Levites, and when they saw that there was much money, the king's scribe and the chief priest's officer came and emptied the chest, and took it, and carried it to its place again. Thus they did day by day, and gathered money in abundance."
        },
        {
            "chapter": 24,
            "verse": 12,
            "name": "2 Chronicles 24:12",
            "text": "The king and Jehoiada gave it to such as did the work of the service of the house of the Lord; and they hired masons and carpenters to restore the house of the Lord, and also such as worked iron and brass to repair the house of the Lord."
        },
        {
            "chapter": 24,
            "verse": 13,
            "name": "2 Chronicles 24:13",
            "text": "So the workmen worked, and the work of repairing went forward in their hands, and they set up God's house in its state, and strengthened it."
        },
        {
            "chapter": 24,
            "verse": 14,
            "name": "2 Chronicles 24:14",
            "text": "When they had made an end, they brought the rest of the money before the king and Jehoiada, of which were made vessels for the house of the Lord, even vessels with which to minister and to offer, and spoons, and vessels of gold and silver. They offered burnt offerings in the house of the Lord continually all the days of Jehoiada."
        },
        {
            "chapter": 24,
            "verse": 15,
            "name": "2 Chronicles 24:15",
            "text": "But Jehoiada grew old and was full of days, and he died; one hundred thirty years old was he when he died."
        },
        {
            "chapter": 24,
            "verse": 16,
            "name": "2 Chronicles 24:16",
            "text": "They buried him in the city of David among the kings, because he had done good in Israel, and toward God and his house."
        },
        {
            "chapter": 24,
            "verse": 17,
            "name": "2 Chronicles 24:17",
            "text": "Now after the death of Jehoiada came the princes of Judah, and made obeisance to the king. Then the king listened to them."
        },
        {
            "chapter": 24,
            "verse": 18,
            "name": "2 Chronicles 24:18",
            "text": "They forsook the house of the Lord, the God of their fathers, and served the Asherim and the idols: and wrath came on Judah and Jerusalem for this their guiltiness."
        },
        {
            "chapter": 24,
            "verse": 19,
            "name": "2 Chronicles 24:19",
            "text": "Yet he sent prophets to them, to bring them again to the Lord; and they testified against them: but they would not give ear."
        },
        {
            "chapter": 24,
            "verse": 20,
            "name": "2 Chronicles 24:20",
            "text": "The Spirit of God came on Zechariah the son of Jehoiada the priest; and he stood above the people, and said to them, \"Thus says God, 'Why do you disobey the commandments of the Lord, so that you can't prosper? Because you have forsaken the Lord, he has also forsaken you.'\" "
        },
        {
            "chapter": 24,
            "verse": 21,
            "name": "2 Chronicles 24:21",
            "text": "They conspired against him, and stoned him with stones at the commandment of the king in the court of the house of the Lord."
        },
        {
            "chapter": 24,
            "verse": 22,
            "name": "2 Chronicles 24:22",
            "text": "Thus Joash the king did not remember the kindness which Jehoiada his father had done to him, but killed his son. When he died, he said, \"May the Lord look at it, and repay it.\""
        },
        {
            "chapter": 24,
            "verse": 23,
            "name": "2 Chronicles 24:23",
            "text": "It happened at the end of the year, that the army of the Syrians came up against him: and they came to Judah and Jerusalem, and destroyed all the princes of the people from among the people, and sent all their spoil to the king of Damascus."
        },
        {
            "chapter": 24,
            "verse": 24,
            "name": "2 Chronicles 24:24",
            "text": "For the army of the Syrians came with a small company of men; and the Lord delivered a very great army into their hand, because they had forsaken the Lord, the God of their fathers. So they executed judgment on Joash."
        },
        {
            "chapter": 24,
            "verse": 25,
            "name": "2 Chronicles 24:25",
            "text": "When they were departed for him (for they left him very sick), his own servants conspired against him for the blood of the sons of Jehoiada the priest, and killed him on his bed, and he died; and they buried him in the city of David, but they did not bury him in the tombs of the kings."
        },
        {
            "chapter": 24,
            "verse": 26,
            "name": "2 Chronicles 24:26",
            "text": "These are those who conspired against him: Zabad the son of Shimeath the Ammonitess, and Jehozabad the son of Shimrith the Moabitess."
        },
        {
            "chapter": 24,
            "verse": 27,
            "name": "2 Chronicles 24:27",
            "text": "Now concerning his sons, and the greatness of the burdens laid on him, and the rebuilding of God's house, behold, they are written in the commentary of the book of the kings. Amaziah his son reigned in his place.  "
        }
    ]
}