{
    "translation": "New English Translation text only with footnote markers",
    "abbreviation": "nettext",
    "lang": "en",
    "language": "English",
    "direction": "LTR",
    "encoding": "UTF-8",
    "book_nr": 23,
    "book_name": "Isaiah",
    "chapter": 62,
    "name": "Isaiah 62",
    "verses": [
        {
            "chapter": 62,
            "verse": 1,
            "name": "Isaiah 62:1",
            "text": "\"For the sake of Zion I will not be silent; for the sake of Jerusalem I will not be quiet, until her vindication shines brightly and her deliverance burns like a torch.\" "
        },
        {
            "chapter": 62,
            "verse": 2,
            "name": "Isaiah 62:2",
            "text": "Nations will see your vindication, and all kings your splendor. You will be called by a new name that the LORD himself will give you. "
        },
        {
            "chapter": 62,
            "verse": 3,
            "name": "Isaiah 62:3",
            "text": "You will be a majestic crown in the hand of the LORD, a royal turban in the hand of your God. "
        },
        {
            "chapter": 62,
            "verse": 4,
            "name": "Isaiah 62:4",
            "text": "You will no longer be called, \"Abandoned,\" and your land will no longer be called \"Desolate.\" Indeed, you will be called \"My Delight is in Her,\" and your land \"Married.\" For the LORD will take delight in you, and your land will be married to him. "
        },
        {
            "chapter": 62,
            "verse": 5,
            "name": "Isaiah 62:5",
            "text": "As a young man marries a young woman, so your sons will marry you. As a bridegroom rejoices over a bride, so your God will rejoice over you. "
        },
        {
            "chapter": 62,
            "verse": 6,
            "name": "Isaiah 62:6",
            "text": "I post watchmen on your walls, O Jerusalem; they should keep praying all day and all night. You who pray to the LORD, don't be silent! "
        },
        {
            "chapter": 62,
            "verse": 7,
            "name": "Isaiah 62:7",
            "text": "Don't allow him to rest until he reestablishes Jerusalem, until he makes Jerusalem the pride of the earth. "
        },
        {
            "chapter": 62,
            "verse": 8,
            "name": "Isaiah 62:8",
            "text": "The LORD swears an oath by his right hand, by his strong arm: \"I will never again give your grain to your enemies as food, and foreigners will not drink your wine, which you worked hard to produce. "
        },
        {
            "chapter": 62,
            "verse": 9,
            "name": "Isaiah 62:9",
            "text": "But those who harvest the grain will eat it, and will praise the LORD. Those who pick the grapes will drink the wine in the courts of my holy sanctuary.\" "
        },
        {
            "chapter": 62,
            "verse": 10,
            "name": "Isaiah 62:10",
            "text": "Come through! Come through the gates! Prepare the way for the people! Build it! Build the roadway! Remove the stones! Lift a signal flag for the nations! "
        },
        {
            "chapter": 62,
            "verse": 11,
            "name": "Isaiah 62:11",
            "text": "Look, the LORD announces to the entire earth: \"Say to Daughter Zion, 'Look, your deliverer comes! Look, his reward is with him and his reward goes before him!'\" "
        },
        {
            "chapter": 62,
            "verse": 12,
            "name": "Isaiah 62:12",
            "text": "They will be called, \"The Holy People, the Ones Protected by the LORD.\" You will be called, \"Sought After, City Not Abandoned.\"  </div>"
        }
    ]
}