{
    "translation": "Vulgata Clementina, Conte editore",
    "abbreviation": "vulgconte",
    "lang": "la",
    "language": "Latin",
    "direction": "LTR",
    "encoding": "UTF-8",
    "book_nr": 19,
    "book_name": "Psalms",
    "chapter": 138,
    "name": "Psalms 138",
    "verses": [
        {
            "chapter": 138,
            "verse": 1,
            "name": "Psalms 138:1",
            "text": "In finem, Psalmus David. Domine probasti me, et cognovisti me:"
        },
        {
            "chapter": 138,
            "verse": 2,
            "name": "Psalms 138:2",
            "text": "tu cognovisti sessionem meam, et resurrectionem meam."
        },
        {
            "chapter": 138,
            "verse": 3,
            "name": "Psalms 138:3",
            "text": "Intellexisti cogitationes meas de longe: semitam meam, et funiculum meum investigasti."
        },
        {
            "chapter": 138,
            "verse": 4,
            "name": "Psalms 138:4",
            "text": "Et omnes vias meas pr\u00e6vidisti: quia non est sermo in lingua mea."
        },
        {
            "chapter": 138,
            "verse": 5,
            "name": "Psalms 138:5",
            "text": "Ecce Domine tu cognovisti omnia novissima, et antiqua: tu formasti me, et posuisti super me manum tuam."
        },
        {
            "chapter": 138,
            "verse": 6,
            "name": "Psalms 138:6",
            "text": "Mirabilis facta est scientia tua ex me: confortata est, et non potero ad eam."
        },
        {
            "chapter": 138,
            "verse": 7,
            "name": "Psalms 138:7",
            "text": "Quo ibo a Spiritu tuo? et quo a facie tua fugiam?"
        },
        {
            "chapter": 138,
            "verse": 8,
            "name": "Psalms 138:8",
            "text": "Si ascendero in c\u00e6lum, tu illic es: si descendero in infernum, ades."
        },
        {
            "chapter": 138,
            "verse": 9,
            "name": "Psalms 138:9",
            "text": "Si sumpsero pennas meas diluculo, et habitavero in extremis maris:"
        },
        {
            "chapter": 138,
            "verse": 10,
            "name": "Psalms 138:10",
            "text": "Etenim illuc manus tua deducet me: et tenebit me dextera tua."
        },
        {
            "chapter": 138,
            "verse": 11,
            "name": "Psalms 138:11",
            "text": "Et dixi: Forsitan tenebr\u00e6 conculcabunt me: et nox illuminatio mea in deliciis meis."
        },
        {
            "chapter": 138,
            "verse": 12,
            "name": "Psalms 138:12",
            "text": "Quia tenebr\u00e6 non obscurabuntur a te, et nox sicut dies illuminabitur: sicut tenebr\u00e6 eius, ita et lumen eius."
        },
        {
            "chapter": 138,
            "verse": 13,
            "name": "Psalms 138:13",
            "text": "Quia tu possedisti renes meos: suscepisti me de utero matris me\u00e6."
        },
        {
            "chapter": 138,
            "verse": 14,
            "name": "Psalms 138:14",
            "text": "Confitebor tibi quia terribiliter magnificatus es: mirabilia opera tua, et anima mea cognoscit nimis."
        },
        {
            "chapter": 138,
            "verse": 15,
            "name": "Psalms 138:15",
            "text": "Non est occultatum os meum a te, quod fecisti in occulto: et substantia mea in inferioribus terr\u00e6."
        },
        {
            "chapter": 138,
            "verse": 16,
            "name": "Psalms 138:16",
            "text": "Imperfectum meum viderunt oculi tui, et in libro tuo omnes scribentur: dies formabuntur, et nemo in eis."
        },
        {
            "chapter": 138,
            "verse": 17,
            "name": "Psalms 138:17",
            "text": "Mihi autem nimis honorificati sunt amici tui, Deus: nimis confortatus est principatus eorum."
        },
        {
            "chapter": 138,
            "verse": 18,
            "name": "Psalms 138:18",
            "text": "Dinumerabo eos, et super arenam multiplicabuntur: exurrexi, et adhuc sum tecum."
        },
        {
            "chapter": 138,
            "verse": 19,
            "name": "Psalms 138:19",
            "text": "Si occideris Deus peccatores: viri sanguinum declinate a me:"
        },
        {
            "chapter": 138,
            "verse": 20,
            "name": "Psalms 138:20",
            "text": "Quia dicitis in cogitatione: accipient in vanitate civitates tuas."
        },
        {
            "chapter": 138,
            "verse": 21,
            "name": "Psalms 138:21",
            "text": "Nonne qui oderunt te Domine, oderam: et super inimicos tuos tabescebam?"
        },
        {
            "chapter": 138,
            "verse": 22,
            "name": "Psalms 138:22",
            "text": "Perfecto odio oderam illos: et inimici facti sunt mihi."
        },
        {
            "chapter": 138,
            "verse": 23,
            "name": "Psalms 138:23",
            "text": "Proba me Deus, et scito cor meum: interroga me, et cognosce semitas meas."
        },
        {
            "chapter": 138,
            "verse": 24,
            "name": "Psalms 138:24",
            "text": "Et vide, si via iniquitatis in me est: et deduc me in via \u00e6terna. "
        }
    ]
}