{
    "translation": "Vulgata Clementina, Conte editore",
    "abbreviation": "vulgconte",
    "lang": "la",
    "language": "Latin",
    "direction": "LTR",
    "encoding": "UTF-8",
    "book_nr": 19,
    "book_name": "Psalms",
    "chapter": 90,
    "name": "Psalms 90",
    "verses": [
        {
            "chapter": 90,
            "verse": 1,
            "name": "Psalms 90:1",
            "text": "Laus Cantici David. Qui habitat in adiutorio Altissimi, in protectione Dei c\u00e6li commorabitur."
        },
        {
            "chapter": 90,
            "verse": 2,
            "name": "Psalms 90:2",
            "text": "Dicet Domino: Susceptor meus es tu, et refugium meum: Deus meus sperabo in eum."
        },
        {
            "chapter": 90,
            "verse": 3,
            "name": "Psalms 90:3",
            "text": "Quoniam ipse liberavit me de laqueo venantium, et a verbo aspero."
        },
        {
            "chapter": 90,
            "verse": 4,
            "name": "Psalms 90:4",
            "text": "Scapulis suis obumbrabit tibi: et sub pennis eius sperabis:"
        },
        {
            "chapter": 90,
            "verse": 5,
            "name": "Psalms 90:5",
            "text": "Scuto circumdabit te veritas eius: non timebis a timore nocturno,"
        },
        {
            "chapter": 90,
            "verse": 6,
            "name": "Psalms 90:6",
            "text": "A sagitta volante in die, a negotio perambulante in tenebris: ab incursu, et d\u00e6monio meridiano."
        },
        {
            "chapter": 90,
            "verse": 7,
            "name": "Psalms 90:7",
            "text": "Cadent a latere tuo mille, et decem millia a dextris tuis: ad te autem non appropinquabit."
        },
        {
            "chapter": 90,
            "verse": 8,
            "name": "Psalms 90:8",
            "text": "Verumtamen oculis tuis considerabis: et retributionem peccatorum videbis."
        },
        {
            "chapter": 90,
            "verse": 9,
            "name": "Psalms 90:9",
            "text": "Quoniam tu es Domine spes mea: Altissimum posuisti refugium tuum."
        },
        {
            "chapter": 90,
            "verse": 10,
            "name": "Psalms 90:10",
            "text": "Non accedet ad te malum: et flagellum non appropinquabit tabernaculo tuo."
        },
        {
            "chapter": 90,
            "verse": 11,
            "name": "Psalms 90:11",
            "text": "Quoniam angelis suis mandavit de te: ut custodiant te in omnibus viis tuis."
        },
        {
            "chapter": 90,
            "verse": 12,
            "name": "Psalms 90:12",
            "text": "In manibus portabunt te: ne forte offendas ad lapidem pedem tuum."
        },
        {
            "chapter": 90,
            "verse": 13,
            "name": "Psalms 90:13",
            "text": "Super aspidem, et basiliscum ambulabis: et conculcabis leonem et draconem."
        },
        {
            "chapter": 90,
            "verse": 14,
            "name": "Psalms 90:14",
            "text": "Quoniam in me speravit, liberabo eum: protegam eum, quoniam cognovit nomen meum."
        },
        {
            "chapter": 90,
            "verse": 15,
            "name": "Psalms 90:15",
            "text": "Clamabit ad me, et ego exaudiam eum: cum ipso sum in tribulatione: eripiam eum et glorificabo eum."
        },
        {
            "chapter": 90,
            "verse": 16,
            "name": "Psalms 90:16",
            "text": "Longitudine dierum replebo eum: et ostendam illi salutare meum. "
        }
    ]
}