{
    "translation": "\u0423\u043a\u0440\u0430\u0457\u043d\u0441\u044c\u043a\u0430 \u0411\u0456\u0431\u043b\u0456\u044f. \u041f\u0435\u0440\u0435\u043a\u043b\u0430\u0434 \u0406\u0432\u0430\u043d\u0430 \u041e\u0433\u0456\u0454\u043d\u043a\u0430.",
    "abbreviation": "ukrainian",
    "lang": "uk",
    "language": "Ukrainian",
    "direction": "LTR",
    "encoding": "UTF-8",
    "book_nr": 11,
    "book_name": "1 Kings",
    "chapter": 22,
    "name": "1 Kings 22",
    "verses": [
        {
            "chapter": 22,
            "verse": 1,
            "name": "1 Kings 22:1",
            "text": "\u0406 \u043f\u0440\u043e\u0436\u0438\u043b\u0438 \u0432\u043e\u043d\u0438 \u0442\u0440\u0438 \u0440\u043e\u043a\u0438, \u0456 \u043d\u0435 \u0431\u0443\u043b\u043e \u0432\u0456\u0439\u043d\u0438 \u043c\u0456\u0436 \u0421\u0438\u0440\u0456\u0454\u044e \u0442\u0430 \u043c\u0456\u0436 \u0406\u0437\u0440\u0430\u0457\u043b\u0435\u043c."
        },
        {
            "chapter": 22,
            "verse": 2,
            "name": "1 Kings 22:2",
            "text": "\u0406 \u0441\u0442\u0430\u043b\u043e\u0441\u044f \u0442\u0440\u0435\u0442\u044c\u043e\u0433\u043e \u0440\u043e\u043a\u0443, \u0456 \u0437\u0456\u0439\u0448\u043e\u0432 \u0419\u043e\u0441\u0430\u0444\u0430\u0442, \u0446\u0430\u0440 \u042e\u0434\u0438\u043d, \u0434\u043e \u0406\u0437\u0440\u0430\u0457\u043b\u0435\u0432\u043e\u0433\u043e \u0446\u0430\u0440\u044f."
        },
        {
            "chapter": 22,
            "verse": 3,
            "name": "1 Kings 22:3",
            "text": "\u0406 \u0441\u043a\u0430\u0437\u0430\u0432 \u0406\u0437\u0440\u0430\u0457\u043b\u0456\u0432 \u0446\u0430\u0440 \u0434\u043e \u0441\u0432\u043e\u0457\u0445 \u0441\u043b\u0443\u0433: \u0427\u0438 \u0432\u0438 \u0437\u043d\u0430\u0454\u0442\u0435, \u0449\u043e \u0491\u0456\u043b\u0435\u0430\u0434\u0441\u044c\u043a\u0438\u0439 \u0420\u0430\u043c\u043e\u0442 \u043d\u0430\u0448? \u0410 \u043c\u0438 \u043c\u043e\u0432\u0447\u0438\u043c\u043e, \u0437\u0430\u043c\u0456\u0441\u0442\u044c \u0442\u043e\u0433\u043e, \u0449\u043e\u0431 \u0437\u0430\u0431\u0440\u0430\u0442\u0438 \u0439\u043e\u0433\u043e \u0437 \u0440\u0443\u043a\u0438 \u0441\u0438\u0440\u0456\u0439\u0441\u044c\u043a\u043e\u0433\u043e \u0446\u0430\u0440\u044f."
        },
        {
            "chapter": 22,
            "verse": 4,
            "name": "1 Kings 22:4",
            "text": "\u0406 \u0441\u043a\u0430\u0437\u0430\u0432 \u0432\u0456\u043d \u0434\u043e \u0419\u043e\u0441\u0430\u0444\u0430\u0442\u0430: \u0427\u0438 \u0442\u0438 \u043f\u0456\u0434\u0435\u0448 \u0437\u043e \u043c\u043d\u043e\u044e \u043d\u0430 \u0432\u0456\u0439\u043d\u0443 \u0434\u043e \u0491\u0456\u043b\u0435\u0430\u0434\u0441\u044c\u043a\u043e\u0433\u043e \u0420\u0430\u043c\u043e\u0442\u0443? \u0410 \u0419\u043e\u0441\u0430\u0444\u0430\u0442 \u0432\u0456\u0434\u043a\u0430\u0437\u0430\u0432: \u042f \u044f\u043a \u0442\u0438, \u043d\u0430\u0440\u043e\u0434 \u043c\u0456\u0439 \u044f\u043a \u043d\u0430\u0440\u043e\u0434 \u0442\u0432\u0456\u0439, \u043c\u043e\u0457 \u043a\u043e\u043d\u0456 \u044f\u043a \u0442\u0432\u043e\u0457 \u043a\u043e\u043d\u0456!"
        },
        {
            "chapter": 22,
            "verse": 5,
            "name": "1 Kings 22:5",
            "text": "\u0406 \u0441\u043a\u0430\u0437\u0430\u0432 \u0419\u043e\u0441\u0430\u0444\u0430\u0442 \u0434\u043e \u0406\u0437\u0440\u0430\u0457\u043b\u0435\u0432\u043e\u0433\u043e \u0446\u0430\u0440\u044f: \u0412\u0438\u0432\u0456\u0434\u0430\u0439 \u0437\u0430\u0440\u0430\u0437 \u0441\u043b\u043e\u0432\u043e \u0413\u043e\u0441\u043f\u043e\u0434\u043d\u0454!"
        },
        {
            "chapter": 22,
            "verse": 6,
            "name": "1 Kings 22:6",
            "text": "\u0406 \u0437\u0456\u0431\u0440\u0430\u0432 \u0406\u0437\u0440\u0430\u0457\u043b\u0456\u0432 \u0446\u0430\u0440 \u043f\u0440\u043e\u0440\u043e\u043a\u0456\u0432, \u0431\u043b\u0438\u0437\u044c\u043a\u043e \u0447\u043e\u0442\u0438\u0440\u044c\u043e\u0445 \u0441\u043e\u0442\u0435\u043d\u044c \u0447\u043e\u043b\u043e\u0432\u0456\u043a\u0430, \u0442\u0430 \u0439 \u0441\u043a\u0430\u0437\u0430\u0432 \u0434\u043e \u043d\u0438\u0445: \u0427\u0438 \u0439\u0442\u0438 \u043c\u0435\u043d\u0456 \u043d\u0430 \u0432\u0456\u0439\u043d\u0443 \u043d\u0430 \u0491\u0456\u043b\u0435\u0430\u0434\u0441\u044c\u043a\u0438\u0439 \u0420\u0430\u043c\u043e\u0442, \u0447\u0438 \u0437\u0430\u043d\u0435\u0445\u0430\u0442\u0438? \u0410 \u0442\u0456 \u0432\u0456\u0434\u043a\u0430\u0437\u0430\u043b\u0438: \u0406\u0434\u0438, \u0430 \u0413\u043e\u0441\u043f\u043e\u0434\u044c \u0434\u0430\u0441\u0442\u044c \u0439\u043e\u0433\u043e \u0432 \u0446\u0430\u0440\u0435\u0432\u0443 \u0440\u0443\u043a\u0443."
        },
        {
            "chapter": 22,
            "verse": 7,
            "name": "1 Kings 22:7",
            "text": "\u0406 \u0441\u043a\u0430\u0437\u0430\u0432 \u0419\u043e\u0441\u0430\u0444\u0430\u0442: \u0427\u0438 \u043d\u0435\u043c\u0430 \u0442\u0443\u0442 \u0456\u0449\u0435 \u0413\u043e\u0441\u043f\u043e\u0434\u043d\u044c\u043e\u0433\u043e \u043f\u0440\u043e\u0440\u043e\u043a\u0430, \u0456 \u0432\u0438\u0432\u0456\u0434\u0430\u0454\u043c\u043e \u0432\u0456\u0434 \u043d\u044c\u043e\u0433\u043e."
        },
        {
            "chapter": 22,
            "verse": 8,
            "name": "1 Kings 22:8",
            "text": "\u0406 \u0441\u043a\u0430\u0437\u0430\u0432 \u0406\u0437\u0440\u0430\u0457\u043b\u0456\u0432 \u0446\u0430\u0440 \u0434\u043e \u0419\u043e\u0441\u0430\u0444\u0430\u0442\u0430: \u0404 \u0449\u0435 \u043e\u0434\u0438\u043d \u043c\u0443\u0436, \u0449\u043e\u0431 \u0432\u0456\u0434 \u043d\u044c\u043e\u0433\u043e \u0432\u0438\u0432\u0456\u0434\u0430\u0442\u0438 \u0413\u043e\u0441\u043f\u043e\u0434\u0430. \u0422\u0430 \u044f \u043d\u0435\u043d\u0430\u0432\u0438\u0434\u0436\u0443 \u0439\u043e\u0433\u043e, \u0431\u043e \u0432\u0456\u043d \u043d\u0435 \u043f\u0440\u043e\u0440\u043e\u043a\u0443\u0454 \u043d\u0430 \u043c\u0435\u043d\u0435 \u0434\u043e\u0431\u0440\u0435, \u0430 \u0442\u0456\u043b\u044c\u043a\u0438 \u0437\u043b\u0435. \u0426\u0435 \u041c\u0456\u0445\u0435\u0439, \u0441\u0438\u043d \u0407\u043c\u043b\u0438\u043d. \u0410 \u0419\u043e\u0441\u0430\u0444\u0430\u0442 \u0432\u0456\u0434\u043a\u0430\u0437\u0430\u0432: \u041d\u0435\u0445\u0430\u0439 \u0446\u0430\u0440 \u043d\u0435 \u0433\u043e\u0432\u043e\u0440\u0438\u0442\u044c \u0442\u0430\u043a!"
        },
        {
            "chapter": 22,
            "verse": 9,
            "name": "1 Kings 22:9",
            "text": "\u0406 \u043f\u043e\u043a\u043b\u0438\u043a\u0430\u0432 \u0406\u0437\u0440\u0430\u0457\u043b\u0456\u0432 \u0446\u0430\u0440 \u043e\u0434\u043d\u043e\u0433\u043e \u0454\u0432\u043d\u0443\u0445\u0430, \u0456 \u0441\u043a\u0430\u0437\u0430\u0432: \u041f\u0440\u0438\u0432\u0435\u0434\u0438 \u0441\u043a\u043e\u0440\u0456\u0448 \u041c\u0456\u0445\u0435\u044f, \u0407\u043c\u043b\u0438\u043d\u043e\u0433\u043e \u0441\u0438\u043d\u0430!"
        },
        {
            "chapter": 22,
            "verse": 10,
            "name": "1 Kings 22:10",
            "text": "\u0406 \u0446\u0430\u0440 \u0406\u0437\u0440\u0430\u0457\u043b\u0456\u0432 \u0442\u0430 \u0446\u0430\u0440 \u042e\u0434\u0438\u043d \u0441\u0438\u0434\u0456\u043b\u0438 \u043a\u043e\u0436\u0435\u043d \u043d\u0430 \u0442\u0440\u043e\u043d\u0456 \u0441\u0432\u043e\u0457\u043c, \u043f\u043e\u0432\u0431\u0438\u0440\u0430\u043d\u0456 \u0432 \u0448\u0430\u0442\u0438 \u043f\u0440\u0438 \u0432\u0445\u043e\u0434\u0456 \u0434\u043e \u0431\u0440\u0430\u043c\u0438 \u0421\u0430\u043c\u0430\u0440\u0456\u0457, \u0430 \u0432\u0441\u0456 \u043f\u0440\u043e\u0440\u043e\u043a\u0438 \u043f\u0440\u043e\u0440\u043e\u043a\u0443\u0432\u0430\u043b\u0438 \u043f\u0435\u0440\u0435\u0434 \u043d\u0438\u043c\u0438."
        },
        {
            "chapter": 22,
            "verse": 11,
            "name": "1 Kings 22:11",
            "text": "\u0410 \u0421\u0435\u0434\u0435\u043a\u0456\u044f, \u041a\u0435\u043d\u0430\u0430\u043d\u0438\u043d \u0441\u0438\u043d, \u0437\u0440\u043e\u0431\u0438\u0432 \u0441\u043e\u0431\u0456 \u0437\u0430\u043b\u0456\u0437\u043d\u0456 \u0440\u043e\u0433\u0438 \u0439 \u0441\u043a\u0430\u0437\u0430\u0432: \u0422\u0430\u043a \u0441\u043a\u0430\u0437\u0430\u0432 \u0413\u043e\u0441\u043f\u043e\u0434\u044c: \u041e\u0446\u0438\u043c \u0431\u0443\u0434\u0435\u0448 \u043f\u043e\u0431\u0438\u0432\u0430\u0442\u0438 \u0441\u0438\u0440\u0456\u044f\u043d \u0430\u0436 \u0434\u043e \u0432\u0438\u0433\u0443\u0431\u043b\u0435\u043d\u043d\u044f \u0457\u0445!"
        },
        {
            "chapter": 22,
            "verse": 12,
            "name": "1 Kings 22:12",
            "text": "\u0406 \u0432\u0441\u0456 \u043f\u0440\u043e\u0440\u043e\u043a\u0438 \u043f\u0440\u043e\u0440\u043e\u043a\u0443\u0432\u0430\u043b\u0438 \u0442\u0430\u043a, \u0433\u043e\u0432\u043e\u0440\u044f\u0447\u0438: \u0412\u0438\u0445\u043e\u0434\u044c \u0434\u043e \u0491\u0456\u043b\u0435\u0430\u0434\u0441\u044c\u043a\u043e\u0433\u043e \u0420\u0430\u043c\u043e\u0442\u0443, \u0456 \u043f\u043e\u0449\u0430\u0441\u0442\u0438\u0442\u044c \u0442\u043e\u0431\u0456, \u0456 \u0413\u043e\u0441\u043f\u043e\u0434\u044c \u0434\u0430\u0441\u0442\u044c \u0439\u043e\u0433\u043e \u0432 \u0446\u0430\u0440\u0435\u0432\u0443 \u0440\u0443\u043a\u0443."
        },
        {
            "chapter": 22,
            "verse": 13,
            "name": "1 Kings 22:13",
            "text": "\u0410 \u0442\u043e\u0439 \u043f\u043e\u0441\u043b\u0430\u043d\u0435\u0446\u044c, \u0449\u043e \u043f\u0456\u0448\u043e\u0432 \u043f\u043e\u043a\u043b\u0438\u043a\u0430\u0442\u0438 \u041c\u0456\u0445\u0435\u044f, \u0433\u043e\u0432\u043e\u0440\u0438\u0432 \u0434\u043e \u043d\u044c\u043e\u0433\u043e, \u043a\u0430\u0436\u0443\u0447\u0438: \u041e\u0441\u044c \u0441\u043b\u043e\u0432\u0430 \u0442\u0438\u0445 \u043f\u0440\u043e\u0440\u043e\u043a\u0456\u0432, \u043e\u0434\u043d\u043e\u0443\u0441\u0442\u043e \u0437\u0432\u0456\u0449\u0430\u044e\u0442\u044c \u0446\u0430\u0440\u0435\u0432\u0456 \u0434\u043e\u0431\u0440\u043e. \u041d\u0435\u0445\u0430\u0439 \u0436\u0435 \u0431\u0443\u0434\u0435 \u0441\u043b\u043e\u0432\u043e \u0442\u0432\u043e\u0454, \u044f\u043a \u0441\u043b\u043e\u0432\u043e \u043a\u043e\u0436\u043d\u043e\u0433\u043e \u0437 \u043d\u0438\u0445, \u0456 \u0442\u0438 \u0433\u043e\u0432\u043e\u0440\u0438\u0442\u0438\u043c\u0435\u0448 \u0434\u043e\u0431\u0440\u0435."
        },
        {
            "chapter": 22,
            "verse": 14,
            "name": "1 Kings 22:14",
            "text": "\u0406 \u0441\u043a\u0430\u0437\u0430\u0432 \u041c\u0456\u0445\u0435\u0439: \u042f\u043a \u0436\u0438\u0432\u0438\u0439 \u0413\u043e\u0441\u043f\u043e\u0434\u044c, \u0442\u0435, \u0449\u043e \u0441\u043a\u0430\u0436\u0435 \u043c\u0435\u043d\u0456 \u0413\u043e\u0441\u043f\u043e\u0434\u044c, \u044f \u0442\u0435 \u0433\u043e\u0432\u043e\u0440\u0438\u0442\u0438\u043c\u0443!"
        },
        {
            "chapter": 22,
            "verse": 15,
            "name": "1 Kings 22:15",
            "text": "\u0406 \u043f\u0440\u0438\u0439\u0448\u043e\u0432 \u0432\u0456\u043d \u0434\u043e \u0446\u0430\u0440\u044f, \u0430 \u0446\u0430\u0440 \u0441\u043a\u0430\u0437\u0430\u0432 \u0434\u043e \u043d\u044c\u043e\u0433\u043e: \u041c\u0456\u0445\u0435\u044e, \u0447\u0438 \u043f\u0456\u0434\u0435\u043c\u043e \u043d\u0430 \u0432\u0456\u0439\u043d\u0443 \u0434\u043e \u0491\u0456\u043b\u0435\u0430\u0434\u0441\u044c\u043a\u043e\u0433\u043e \u0420\u0430\u043c\u043e\u0442\u0443, \u0447\u0438 \u0437\u0430\u043d\u0435\u0445\u0430\u0454\u043c\u043e? \u0410 \u0442\u043e\u0439 \u0432\u0456\u0434\u043a\u0430\u0437\u0430\u0432 \u0439\u043e\u043c\u0443: \u0412\u0438\u0439\u0434\u0438, \u0456 \u043f\u043e\u0449\u0430\u0441\u0442\u0438\u0442\u044c \u0442\u043e\u0431\u0456, \u0456 \u0413\u043e\u0441\u043f\u043e\u0434\u044c \u0434\u0430\u0441\u0442\u044c \u0443 \u0446\u0430\u0440\u0435\u0432\u0443 \u0440\u0443\u043a\u0443."
        },
        {
            "chapter": 22,
            "verse": 16,
            "name": "1 Kings 22:16",
            "text": "\u0406 \u0441\u043a\u0430\u0437\u0430\u0432 \u0439\u043e\u043c\u0443 \u0446\u0430\u0440: \u0410\u0436 \u0441\u043a\u0456\u043b\u044c\u043a\u0438 \u0440\u0430\u0437\u0456\u0432 \u044f \u0437\u0430\u043f\u0440\u0438\u0441\u044f\u0433\u0430\u0432 \u0442\u0435\u0431\u0435, \u0449\u043e \u0442\u0438 \u043d\u0435 \u0433\u043e\u0432\u043e\u0440\u0438\u0442\u0438\u043c\u0435\u0448 \u043c\u0435\u043d\u0456 \u043d\u0456\u0447\u043e\u0433\u043e, \u0442\u0456\u043b\u044c\u043a\u0438 \u043f\u0440\u0430\u0432\u0434\u0443 \u0432 \u0406\u043c'\u044f \u0413\u043e\u0441\u043f\u043e\u0434\u0430?"
        },
        {
            "chapter": 22,
            "verse": 17,
            "name": "1 Kings 22:17",
            "text": "\u0410 \u0442\u043e\u0439 \u0432\u0456\u0434\u043a\u0430\u0437\u0430\u0432: \u042f \u0431\u0430\u0447\u0438\u0432 \u0443\u0441\u044c\u043e\u0433\u043e \u0406\u0437\u0440\u0430\u0457\u043b\u044f, \u0440\u043e\u0437\u043f\u043e\u0440\u043e\u0448\u0435\u043d\u043e\u0433\u043e \u043f\u043e \u0433\u043e\u0440\u0430\u0445, \u043d\u0435\u043c\u043e\u0432 \u043e\u0432\u0435\u0446\u044c, \u0449\u043e \u043d\u0435 \u043c\u0430\u044e\u0442\u044c \u043f\u0430\u0441\u0442\u0443\u0445\u0430. \u0406 \u0441\u043a\u0430\u0437\u0430\u0432 \u0413\u043e\u0441\u043f\u043e\u0434\u044c: \u041d\u0435\u043c\u0430\u0454 \u0432 \u043d\u0438\u0445 \u043f\u0430\u043d\u0430, \u043d\u0435\u0445\u0430\u0439 \u0432\u0435\u0440\u043d\u0443\u0442\u044c\u0441\u044f \u0437 \u043c\u0438\u0440\u043e\u043c \u043a\u043e\u0436\u0435\u043d \u0434\u043e \u0434\u043e\u043c\u0443 \u0441\u0432\u043e\u0433\u043e."
        },
        {
            "chapter": 22,
            "verse": 18,
            "name": "1 Kings 22:18",
            "text": "\u0406 \u0441\u043a\u0430\u0437\u0430\u0432 \u0406\u0437\u0440\u0430\u0457\u043b\u0456\u0432 \u0446\u0430\u0440 \u0434\u043e \u0419\u043e\u0441\u0430\u0444\u0430\u0442\u0430: \u0427\u0438 \u0436 \u043d\u0435 \u043a\u0430\u0437\u0430\u0432 \u044f \u0442\u043e\u0431\u0456, \u0432\u0456\u043d \u043d\u0435 \u0431\u0443\u0434\u0435 \u043f\u0440\u043e\u0440\u043e\u043a\u0443\u0432\u0430\u0442\u0438 \u043c\u0435\u043d\u0456 \u0434\u043e\u0431\u0440\u043e\u0433\u043e, \u0430 \u0442\u0456\u043b\u044c\u043a\u0438 \u043b\u0438\u0445\u0435?"
        },
        {
            "chapter": 22,
            "verse": 19,
            "name": "1 Kings 22:19",
            "text": "\u0410 \u041c\u0456\u0445\u0435\u0439 \u0432\u0456\u0434\u043a\u0430\u0437\u0430\u0432: \u0422\u043e\u043c\u0443 \u043f\u043e\u0441\u043b\u0443\u0445\u0430\u0439 \u0413\u043e\u0441\u043f\u043e\u0434\u043d\u044c\u043e\u0433\u043e \u0441\u043b\u043e\u0432\u0430: \u0411\u0430\u0447\u0438\u0432 \u044f \u0413\u043e\u0441\u043f\u043e\u0434\u0430, \u0449\u043e \u0441\u0438\u0434\u0456\u0432 \u043d\u0430 \u043f\u0440\u0435\u0441\u0442\u043e\u043b\u0456 \u0421\u0432\u043e\u0457\u043c, \u0430 \u0432\u0441\u0435 \u043d\u0435\u0431\u0435\u0441\u043d\u0435 \u0432\u0456\u0439\u0441\u044c\u043a\u043e \u0441\u0442\u043e\u044f\u043b\u043e \u043f\u0440\u0438 \u041d\u044c\u043e\u043c\u0443 \u0437 \u043f\u0440\u0430\u0432\u0438\u0446\u0456 \u0419\u043e\u0433\u043e \u0442\u0430 \u0437 \u043b\u0456\u0432\u0438\u0446\u0456 \u0419\u043e\u0433\u043e."
        },
        {
            "chapter": 22,
            "verse": 20,
            "name": "1 Kings 22:20",
            "text": "\u0406 \u0441\u043a\u0430\u0437\u0430\u0432 \u0413\u043e\u0441\u043f\u043e\u0434\u044c: \u0425\u0442\u043e \u043d\u0430\u043c\u043e\u0432\u0438\u0442\u044c \u0410\u0445\u0430\u0432\u0430, \u0456 \u0432\u0456\u043d \u0432\u0438\u0439\u0434\u0435 \u0439 \u0443\u043f\u0430\u0434\u0435 \u0432 \u0491\u0456\u043b\u0435\u0430\u0434\u0441\u044c\u043a\u043e\u043c\u0443 \u0420\u0430\u043c\u043e\u0442\u0456? \u0406 \u0433\u043e\u0432\u043e\u0440\u0438\u0432 \u0442\u043e\u0439 \u0442\u0430\u043a, \u0430 \u0442\u043e\u0439 \u0433\u043e\u0432\u043e\u0440\u0438\u0432 \u0442\u0430\u043a."
        },
        {
            "chapter": 22,
            "verse": 21,
            "name": "1 Kings 22:21",
            "text": "\u0406 \u0432\u0438\u0439\u0448\u043e\u0432 \u0434\u0443\u0445, \u0456 \u0441\u0442\u0430\u0432 \u043f\u0435\u0440\u0435\u0434 \u0413\u043e\u0441\u043f\u043e\u0434\u043d\u0456\u043c \u043b\u0438\u0446\u0435\u043c \u0442\u0430 \u0439 \u0441\u043a\u0430\u0437\u0430\u0432: \u042f \u043d\u0430\u043c\u043e\u0432\u043b\u044e \u0439\u043e\u0433\u043e! \u0406 \u0441\u043a\u0430\u0437\u0430\u0432 \u0439\u043e\u043c\u0443 \u0413\u043e\u0441\u043f\u043e\u0434\u044c: \u0427\u0438\u043c?"
        },
        {
            "chapter": 22,
            "verse": 22,
            "name": "1 Kings 22:22",
            "text": "\u0410 \u0442\u043e\u0439 \u0432\u0456\u0434\u043a\u0430\u0437\u0430\u0432: \u042f \u0432\u0438\u0439\u0434\u0443 \u0439 \u0441\u0442\u0430\u043d\u0443 \u0434\u0443\u0445\u043e\u043c \u043d\u0435\u043f\u0440\u0430\u0432\u0434\u0438 \u0432 \u0443\u0441\u0442\u0430\u0445 \u0443\u0441\u0456\u0445 \u0439\u043e\u0433\u043e \u043f\u0440\u043e\u0440\u043e\u043a\u0456\u0432. \u0410 \u0413\u043e\u0441\u043f\u043e\u0434\u044c \u0441\u043a\u0430\u0437\u0430\u0432: \u0422\u0438 \u043d\u0430\u043c\u043e\u0432\u0438\u0448, \u0430 \u0442\u0430\u043a\u043e\u0436 \u043f\u0435\u0440\u0435\u043c\u043e\u0436\u0435\u0448; \u0432\u0438\u0439\u0434\u0438 \u0442\u0430 \u0439 \u0437\u0440\u043e\u0431\u0438 \u0442\u0430\u043a!"
        },
        {
            "chapter": 22,
            "verse": 23,
            "name": "1 Kings 22:23",
            "text": "\u0410 \u0442\u0435\u043f\u0435\u0440 \u043e\u0446\u0435 \u0413\u043e\u0441\u043f\u043e\u0434\u044c \u0434\u0430\u0432 \u0434\u0443\u0445\u0430 \u043d\u0435\u043f\u0440\u0430\u0432\u0434\u0438 \u0432 \u0443\u0441\u0442\u0430 \u0432\u0441\u0456\u0445 \u043e\u0446\u0438\u0445 \u043f\u0440\u043e\u0440\u043e\u043a\u0456\u0432, \u0430 \u0413\u043e\u0441\u043f\u043e\u0434\u044c \u0433\u043e\u0432\u043e\u0440\u0438\u0432 \u043d\u0430 \u0442\u0435\u0431\u0435 \u043b\u0438\u0445\u0435..."
        },
        {
            "chapter": 22,
            "verse": 24,
            "name": "1 Kings 22:24",
            "text": "\u0406 \u043f\u0456\u0434\u0456\u0439\u0448\u043e\u0432 \u0421\u0435\u0434\u0435\u043a\u0456\u044f, \u041a\u0435\u043d\u0430\u0430\u043d\u0438\u043d \u0441\u0438\u043d, \u0456 \u0432\u0434\u0430\u0440\u0438\u0432 \u041c\u0456\u0445\u0435\u044f \u043f\u043e \u0449\u043e\u0446\u0456 \u0442\u0430 \u0439 \u0441\u043a\u0430\u0437\u0430\u0432: \u041a\u0443\u0434\u043e\u044e \u0446\u0435 \u043f\u0435\u0440\u0435\u0439\u0448\u043e\u0432 \u0414\u0443\u0445 \u0413\u043e\u0441\u043f\u043e\u0434\u043d\u0456\u0439 \u0432\u0456\u0434 \u043c\u0435\u043d\u0435, \u0449\u043e\u0431 \u0433\u043e\u0432\u043e\u0440\u0438\u0442\u0438 \u0437 \u0442\u043e\u0431\u043e\u044e?"
        },
        {
            "chapter": 22,
            "verse": 25,
            "name": "1 Kings 22:25",
            "text": "\u0410 \u041c\u0456\u0445\u0435\u0439 \u0441\u043a\u0430\u0437\u0430\u0432: \u041e\u0441\u044c \u0442\u0438 \u043f\u043e\u0431\u0430\u0447\u0438\u0448 \u0446\u0435, \u043a\u043e\u043b\u0438 \u0432\u0431\u0456\u0436\u0438\u0448 \u0434\u043e \u043d\u0430\u0439\u0434\u0430\u043b\u044c\u0448\u043e\u0457 \u043a\u0456\u043c\u043d\u0430\u0442\u0438, \u0449\u043e\u0431 \u0441\u0445\u043e\u0432\u0430\u0442\u0438\u0441\u044f."
        },
        {
            "chapter": 22,
            "verse": 26,
            "name": "1 Kings 22:26",
            "text": "\u0406 \u0441\u043a\u0430\u0437\u0430\u0432 \u0406\u0437\u0440\u0430\u0457\u043b\u0456\u0432 \u0446\u0430\u0440: \u0412\u0456\u0437\u044c\u043c\u0438 \u041c\u0456\u0445\u0435\u044f, \u0456 \u0432\u0456\u0434\u0432\u0435\u0434\u0438 \u0434\u043e \u0410\u043c\u043e\u043d\u0430, \u043d\u0430\u0447\u0430\u043b\u044c\u043d\u0438\u043a\u0430 \u043c\u0456\u0441\u0442\u0430, \u0442\u0430 \u0434\u043e \u0419\u043e\u0430\u0448\u0430, \u0446\u0430\u0440\u0435\u0432\u043e\u0433\u043e \u0441\u0438\u043d\u0430,"
        },
        {
            "chapter": 22,
            "verse": 27,
            "name": "1 Kings 22:27",
            "text": "\u0442\u0430 \u0439 \u0441\u043a\u0430\u0436\u0435\u0448: \u041e\u0442\u0430\u043a \u0441\u043a\u0430\u0437\u0430\u0432 \u0446\u0430\u0440: \u041f\u043e\u0441\u0430\u0434\u0456\u0442\u044c \u043e\u0446\u044c\u043e\u0433\u043e \u0434\u043e \u0432'\u044f\u0437\u043d\u0438\u0447\u043d\u043e\u0433\u043e \u0434\u043e\u043c\u0443, \u0456 \u0434\u0430\u0432\u0430\u0439\u0442\u0435 \u0439\u043e\u043c\u0443 \u0457\u0441\u0442\u0438 \u0441\u043a\u0443\u043f\u043e \u0445\u043b\u0456\u0431\u0430 \u0439 \u0441\u043a\u0443\u043f\u043e \u0432\u043e\u0434\u0438, \u0430\u0436 \u043f\u043e\u043a\u0438 \u044f \u043d\u0435 \u0432\u0435\u0440\u043d\u0443\u0441\u044f \u0437 \u043c\u0438\u0440\u043e\u043c."
        },
        {
            "chapter": 22,
            "verse": 28,
            "name": "1 Kings 22:28",
            "text": "\u0410 \u041c\u0456\u0445\u0435\u0439 \u0432\u0456\u0434\u043a\u0430\u0437\u0430\u0432: \u042f\u043a\u0449\u043e \u0441\u043f\u0440\u0430\u0432\u0434\u0456 \u0432\u0435\u0440\u043d\u0435\u0448\u0441\u044f \u0442\u0438 \u0437 \u043c\u0438\u0440\u043e\u043c, \u0442\u043e \u043d\u0435 \u0433\u043e\u0432\u043e\u0440\u0438\u0432 \u0413\u043e\u0441\u043f\u043e\u0434\u044c \u0447\u0435\u0440\u0435\u0437 \u043c\u0435\u043d\u0435! \u0406 \u0434\u043e \u0442\u043e\u0433\u043e \u0441\u043a\u0430\u0437\u0430\u0432: \u0421\u043b\u0443\u0445\u0430\u0439\u0442\u0435 \u0446\u0435, \u0432\u0441\u0456 \u043d\u0430\u0440\u043e\u0434\u0438!"
        },
        {
            "chapter": 22,
            "verse": 29,
            "name": "1 Kings 22:29",
            "text": "\u0406 \u0432\u0438\u0439\u0448\u043e\u0432 \u0406\u0437\u0440\u0430\u0457\u043b\u0456\u0432 \u0446\u0430\u0440 \u0442\u0430 \u0419\u043e\u0441\u0430\u0444\u0430\u0442, \u0446\u0430\u0440 \u042e\u0434\u0438\u043d, \u0434\u043e \u0491\u0456\u043b\u0435\u0430\u0434\u0441\u044c\u043a\u043e\u0433\u043e \u0420\u0430\u043c\u043e\u0442\u0443."
        },
        {
            "chapter": 22,
            "verse": 30,
            "name": "1 Kings 22:30",
            "text": "\u0406 \u0441\u043a\u0430\u0437\u0430\u0432 \u0406\u0437\u0440\u0430\u0457\u043b\u0456\u0432 \u0446\u0430\u0440 \u0434\u043e \u0419\u043e\u0441\u0430\u0444\u0430\u0442\u0430: \u042f \u043f\u0435\u0440\u0435\u0431\u0435\u0440\u0443\u0441\u044f, \u0456 \u043f\u0456\u0434\u0443 \u043d\u0430 \u0431\u0456\u0439, \u0430 \u0442\u0438 \u0432\u0431\u0435\u0440\u0438 \u0441\u0432\u043e\u0457 \u0446\u0430\u0440\u0441\u044c\u043a\u0456 \u0448\u0430\u0442\u0438! \u0406 \u043f\u0435\u0440\u0435\u0431\u0440\u0430\u0432\u0441\u044f \u0406\u0437\u0440\u0430\u0457\u043b\u0456\u0432 \u0446\u0430\u0440, \u0456 \u043f\u0456\u0448\u043e\u0432 \u043d\u0430 \u0431\u0456\u0439."
        },
        {
            "chapter": 22,
            "verse": 31,
            "name": "1 Kings 22:31",
            "text": "\u0410 \u0441\u0438\u0440\u0456\u0439\u0441\u044c\u043a\u0438\u0439 \u0446\u0430\u0440 \u043d\u0430\u043a\u0430\u0437\u0430\u0432 \u043a\u0435\u0440\u0456\u0432\u043d\u0438\u043a\u0430\u043c \u0441\u0432\u043e\u0457\u0445 \u043a\u043e\u043b\u0435\u0441\u043d\u0438\u0446\u044c, \u0442\u0440\u0438\u0434\u0446\u044f\u0442\u044c\u043e\u043c \u0456 \u0434\u0432\u043e\u043c, \u0433\u043e\u0432\u043e\u0440\u044f\u0447\u0438: \u041d\u0435 \u0431\u0443\u0434\u0435\u0442\u0435 \u0432\u043e\u044e\u0432\u0430\u0442\u0438 \u0437 \u043c\u0430\u043b\u0438\u043c \u0442\u0430 \u0437 \u0432\u0435\u043b\u0438\u043a\u0438\u043c, \u0430 \u0442\u0456\u043b\u044c\u043a\u0438 \u0437 \u0441\u0430\u043c\u0438\u043c \u0406\u0437\u0440\u0430\u0457\u043b\u0435\u0432\u0438\u043c \u0446\u0430\u0440\u0435\u043c."
        },
        {
            "chapter": 22,
            "verse": 32,
            "name": "1 Kings 22:32",
            "text": "\u0406 \u0441\u0442\u0430\u043b\u043e\u0441\u044f, \u044f\u043a \u043a\u0435\u0440\u0456\u0432\u043d\u0438\u043a\u0438 \u043a\u043e\u043b\u0435\u0441\u043d\u0438\u0446\u044c \u043f\u043e\u0431\u0430\u0447\u0438\u043b\u0438 \u0419\u043e\u0441\u0430\u0444\u0430\u0442\u0430, \u0442\u043e \u0432\u043e\u043d\u0438 \u0441\u043a\u0430\u0437\u0430\u043b\u0438: \u0426\u0435 \u0434\u0456\u0439\u0441\u043d\u043e \u0406\u0437\u0440\u0430\u0457\u043b\u0456\u0432 \u0446\u0430\u0440! \u0406 \u0437\u0430\u0439\u0448\u043b\u0438 \u043d\u0430 \u043d\u044c\u043e\u0433\u043e, \u0449\u043e\u0431 \u0432\u043e\u044e\u0432\u0430\u0442\u0438, \u0430 \u0419\u043e\u0441\u0430\u0444\u0430\u0442 \u0437\u0430\u043a\u0440\u0438\u0447\u0430\u0432."
        },
        {
            "chapter": 22,
            "verse": 33,
            "name": "1 Kings 22:33",
            "text": "\u0406 \u0441\u0442\u0430\u043b\u043e\u0441\u044f, \u044f\u043a \u043a\u0435\u0440\u0456\u0432\u043d\u0438\u043a\u0438 \u043a\u043e\u043b\u0435\u0441\u043d\u0438\u0446\u044c \u043f\u043e\u0431\u0430\u0447\u0438\u043b\u0438, \u0449\u043e \u0446\u0435 \u043d\u0435 \u0406\u0437\u0440\u0430\u0457\u043b\u0456\u0432 \u0446\u0430\u0440, \u0442\u043e \u043f\u043e\u0432\u0435\u0440\u043d\u0443\u043b\u0438 \u0432\u0456\u0434 \u043d\u044c\u043e\u0433\u043e."
        },
        {
            "chapter": 22,
            "verse": 34,
            "name": "1 Kings 22:34",
            "text": "\u0410 \u043e\u0434\u0438\u043d \u0447\u043e\u043b\u043e\u0432\u0456\u043a \u0437\u043d\u0435\u0445\u043e\u0442\u044f \u043d\u0430\u0442\u044f\u0433\u043d\u0443\u0432 \u043b\u0443\u043a\u0430, \u0442\u0430 \u0439 \u0443\u0434\u0430\u0440\u0438\u0432 \u0406\u0437\u0440\u0430\u0457\u043b\u0435\u0432\u043e\u0433\u043e \u0446\u0430\u0440\u044f \u043c\u0456\u0436 \u043f\u0456\u0434\u0432'\u044f\u0437\u0430\u043d\u043d\u044f\u043c \u043f\u043e\u044f\u0441\u0430 \u0442\u0430 \u043c\u0456\u0436 \u043f\u0430\u043d\u0446\u0435\u0440\u0435\u043c. \u0410 \u0442\u043e\u0439 \u0441\u043a\u0430\u0437\u0430\u0432 \u0441\u0432\u043e\u0454\u043c\u0443 \u0432\u0456\u0437\u043d\u0438\u043a\u043e\u0432\u0456: \u041f\u043e\u0432\u0435\u0440\u043d\u0438 \u043d\u0430\u0437\u0430\u0434, \u0456 \u0432\u0438\u0432\u0435\u0434\u0438 \u043c\u0435\u043d\u0435 \u0437 \u0442\u0430\u0431\u043e\u0440\u0443, \u0431\u043e \u044f \u0440\u0430\u043d\u0435\u043d\u0438\u0439..."
        },
        {
            "chapter": 22,
            "verse": 35,
            "name": "1 Kings 22:35",
            "text": "\u0406 \u0437\u043d\u044f\u0432\u0441\u044f \u0431\u0456\u0439 \u0442\u043e\u0433\u043e \u0434\u043d\u044f, \u0430 \u0446\u0430\u0440 \u0431\u0443\u0432 \u043f\u043e\u0441\u0442\u0430\u0432\u043b\u0435\u043d\u0438\u0439 \u043d\u0430 \u043a\u043e\u043b\u0435\u0441\u043d\u0438\u0446\u0456 \u043f\u0440\u043e\u0442\u0438 \u0421\u0438\u0440\u0456\u0457, \u0456 \u043f\u043e\u043c\u0435\u0440 \u0443\u0432\u0435\u0447\u043e\u0440\u0456. \u0406 \u043a\u0440\u043e\u0432 \u0456\u0437 \u0440\u0430\u043d\u0438 \u0442\u0435\u043a\u043b\u0430 \u0432 \u043a\u043e\u043b\u0435\u0441\u043d\u0438\u0446\u044e."
        },
        {
            "chapter": 22,
            "verse": 36,
            "name": "1 Kings 22:36",
            "text": "\u0410 \u044f\u043a \u0441\u043e\u043d\u0446\u0435 \u0437\u0430\u0445\u043e\u0434\u0438\u043b\u043e, \u043d\u0456\u0441\u0441\u044f \u043a\u0440\u0438\u043a \u0443 \u0442\u0430\u0431\u043e\u0440\u0456 \u0442\u0430\u043a\u0438\u0439: \u041a\u043e\u0436\u0435\u043d \u0434\u043e \u043c\u0456\u0441\u0442\u0430 \u0441\u0432\u043e\u0433\u043e, \u0456 \u043a\u043e\u0436\u0435\u043d \u0434\u043e \u043a\u0440\u0430\u044e \u0441\u0432\u043e\u0433\u043e!"
        },
        {
            "chapter": 22,
            "verse": 37,
            "name": "1 Kings 22:37",
            "text": "\u0406 \u043f\u043e\u043c\u0435\u0440 \u0446\u0430\u0440, \u0456 \u0431\u0443\u0432 \u043f\u0440\u0438\u0432\u0435\u0437\u0435\u043d\u0438\u0439 \u0434\u043e \u0421\u0430\u043c\u0430\u0440\u0456\u0457. \u0406 \u043f\u043e\u0445\u043e\u0432\u0430\u043b\u0438 \u0446\u0430\u0440\u044f \u0432 \u0421\u0430\u043c\u0430\u0440\u0456\u0457."
        },
        {
            "chapter": 22,
            "verse": 38,
            "name": "1 Kings 22:38",
            "text": "\u0406 \u043f\u043e\u043b\u043e\u0441\u043a\u0430\u043b\u0438 \u043a\u043e\u043b\u0435\u0441\u043d\u0438\u0446\u044e \u043d\u0430\u0434 \u0441\u0442\u0430\u0432\u043e\u043c \u0443 \u0421\u0430\u043c\u0430\u0440\u0456\u0457, \u0456 \u043f\u0441\u0438 \u043b\u0438\u0437\u0430\u043b\u0438 \u0439\u043e\u0433\u043e \u043a\u0440\u043e\u0432, \u0430 \u0431\u043b\u0443\u0434\u043d\u0438\u0446\u0456 \u043c\u0438\u043b\u0438 \u0441\u0432\u043e\u0454 \u0442\u0456\u043b\u043e, \u0437\u0430 \u0441\u043b\u043e\u0432\u043e\u043c \u0413\u043e\u0441\u043f\u043e\u0434\u043d\u0456\u043c, \u0449\u043e \u0412\u0456\u043d \u0433\u043e\u0432\u043e\u0440\u0438\u0432."
        },
        {
            "chapter": 22,
            "verse": 39,
            "name": "1 Kings 22:39",
            "text": "\u0410 \u0440\u0435\u0448\u0442\u0430 \u0410\u0445\u0430\u0432\u043e\u0432\u0438\u0445 \u0434\u0456\u043b, \u0456 \u0432\u0441\u0435, \u0449\u043e \u0432\u0456\u043d \u0437\u0440\u043e\u0431\u0438\u0432 \u0431\u0443\u0432, \u0456 \u0434\u0456\u043c \u0437\u043e \u0441\u043b\u043e\u043d\u043e\u0432\u043e\u0457 \u043a\u043e\u0441\u0442\u0438, \u0449\u043e \u0432\u0456\u043d \u0437\u0431\u0443\u0434\u0443\u0432\u0430\u0432, \u0456 \u0432\u0441\u0456 \u043c\u0456\u0441\u0442\u0430, \u044f\u043a\u0456 \u0432\u0456\u043d \u043f\u043e\u0431\u0443\u0434\u0443\u0432\u0430\u0432, \u043e\u0442\u043e\u0436 \u0432\u043e\u043d\u0438 \u043d\u0430\u043f\u0438\u0441\u0430\u043d\u0456 \u0432 \u041a\u043d\u0438\u0437\u0456 \u0425\u0440\u043e\u043d\u0456\u043a\u0438 \u0406\u0437\u0440\u0430\u0457\u043b\u0435\u0432\u0438\u0445 \u0446\u0430\u0440\u0456\u0432."
        },
        {
            "chapter": 22,
            "verse": 40,
            "name": "1 Kings 22:40",
            "text": "\u0406 \u0441\u043f\u043e\u0447\u0438\u0432 \u0410\u0445\u0430\u0432 \u0456\u0437 \u0431\u0430\u0442\u044c\u043a\u0430\u043c\u0438 \u0441\u0432\u043e\u0457\u043c\u0438, \u0430 \u0437\u0430\u043c\u0456\u0441\u0442\u044c \u043d\u044c\u043e\u0433\u043e \u0437\u0430\u0446\u0430\u0440\u044e\u0432\u0430\u0432 \u0441\u0438\u043d \u0439\u043e\u0433\u043e \u0410\u0445\u0430\u0437\u0456\u044f."
        },
        {
            "chapter": 22,
            "verse": 41,
            "name": "1 Kings 22:41",
            "text": "\u0410 \u0419\u043e\u0441\u0430\u0444\u0430\u0442, \u0410\u0441\u0438\u043d \u0441\u0438\u043d, \u0437\u0430\u0446\u0430\u0440\u044e\u0432\u0430\u0432 \u043d\u0430\u0434 \u042e\u0434\u043e\u044e \u0432 \u0447\u0435\u0442\u0432\u0435\u0440\u0442\u043e\u043c\u0443 \u0440\u043e\u0446\u0456 \u0410\u0445\u0430\u0432\u0430, \u0446\u0430\u0440\u044f \u0406\u0437\u0440\u0430\u0457\u043b\u0435\u0432\u043e\u0433\u043e."
        },
        {
            "chapter": 22,
            "verse": 42,
            "name": "1 Kings 22:42",
            "text": "\u0419\u043e\u0441\u0430\u0444\u0430\u0442 \u0431\u0443\u0432 \u0432\u0456\u043a\u0443 \u0442\u0440\u0438\u0434\u0446\u044f\u0442\u0438 \u0439 \u043f'\u044f\u0442\u0438 \u043b\u0456\u0442, \u043a\u043e\u043b\u0438 \u0432\u0456\u043d \u0437\u0430\u0446\u0430\u0440\u044e\u0432\u0430\u0432, \u0456 \u0434\u0432\u0430\u0434\u0446\u044f\u0442\u044c \u0456 \u043f'\u044f\u0442\u044c \u043b\u0456\u0442 \u0446\u0430\u0440\u044e\u0432\u0430\u0432 \u0432 \u0404\u0440\u0443\u0441\u0430\u043b\u0438\u043c\u0456. \u0410 \u0456\u043c'\u044f \u0439\u043e\u0433\u043e \u043c\u0430\u0442\u0435\u0440\u0456 \u0410\u0437\u0443\u0432\u0430, \u0434\u043e\u0447\u043a\u0430 \u0428\u0456\u043b\u0445\u0438."
        },
        {
            "chapter": 22,
            "verse": 43,
            "name": "1 Kings 22:43",
            "text": "\u0406 \u0445\u043e\u0434\u0438\u0432 \u0432\u0456\u043d \u0443\u0441\u0456\u0454\u044e \u0434\u043e\u0440\u043e\u0433\u043e\u044e \u0431\u0430\u0442\u044c\u043a\u0430 \u0441\u0432\u043e\u0433\u043e \u0410\u0441\u0438, \u0456 \u043d\u0435 \u0437\u0431\u043e\u0447\u0443\u0432\u0430\u0432 \u0456\u0437 \u043d\u0435\u0457, \u0449\u043e\u0431 \u0447\u0438\u043d\u0438\u0442\u0438 \u0434\u043e\u0431\u0440\u0435 \u0432 \u0413\u043e\u0441\u043f\u043e\u0434\u043d\u0456\u0445 \u043e\u0447\u0430\u0445. \u0422\u0456\u043b\u044c\u043a\u0438 \u043f\u0430\u0433\u0456\u0440\u043a\u0438 \u043d\u0435 \u0431\u0443\u043b\u0438 \u043f\u043e\u043d\u0438\u0449\u0435\u043d\u0456, \u043d\u0430\u0440\u043e\u0434 \u0456\u0449\u0435 \u043f\u0440\u0438\u043d\u043e\u0441\u0438\u0432 \u0436\u0435\u0440\u0442\u0432\u0438 \u0439 \u043a\u0430\u0434\u0438\u0432 \u043d\u0430 \u043f\u0430\u0433\u0456\u0440\u043a\u0430\u0445."
        },
        {
            "chapter": 22,
            "verse": 44,
            "name": "1 Kings 22:44",
            "text": "\u0406 \u0419\u043e\u0441\u0430\u0444\u0430\u0442 \u0437\u0430\u043c\u0438\u0440\u0438\u0432 \u0437 \u0406\u0437\u0440\u0430\u0457\u043b\u0435\u0432\u0438\u043c \u0446\u0430\u0440\u0435\u043c."
        },
        {
            "chapter": 22,
            "verse": 45,
            "name": "1 Kings 22:45",
            "text": "\u0410 \u0440\u0435\u0448\u0442\u0430 \u0419\u043e\u0441\u0430\u0444\u0430\u0442\u043e\u0432\u0438\u0445 \u0434\u0456\u043b \u0442\u0430 \u043b\u0438\u0446\u0430\u0440\u0441\u044c\u043a\u0456\u0441\u0442\u044c \u0439\u043e\u0433\u043e, \u0449\u043e \u0432\u0456\u043d \u0447\u0438\u043d\u0438\u0432 \u0431\u0443\u0432 \u0442\u0430 \u044f\u043a \u0432\u043e\u044e\u0432\u0430\u0432, \u043e\u0442\u043e\u0436 \u0432\u043e\u043d\u0438 \u043d\u0430\u043f\u0438\u0441\u0430\u043d\u0456 \u0432 \u041a\u043d\u0438\u0437\u0456 \u0425\u0440\u043e\u043d\u0456\u043a\u0438 \u042e\u0434\u0438\u043d\u0438\u0445 \u0446\u0430\u0440\u0456\u0432."
        },
        {
            "chapter": 22,
            "verse": 46,
            "name": "1 Kings 22:46",
            "text": "\u0410 \u0440\u0435\u0448\u0442\u0443 \u0431\u043b\u0443\u0434\u043e\u0434\u0456\u0457\u0432, \u0449\u043e \u043f\u043e\u0437\u043e\u0441\u0442\u0430\u0432\u0430\u043b\u0438\u0441\u044f \u0437\u0430 \u0434\u043d\u0456\u0432 \u0439\u043e\u0433\u043e \u0431\u0430\u0442\u044c\u043a\u0430 \u0410\u0441\u0438, \u0432\u0456\u043d \u0432\u0438\u0433\u0443\u0431\u0438\u0432 \u0456\u0437 \u041a\u0440\u0430\u044e."
        },
        {
            "chapter": 22,
            "verse": 47,
            "name": "1 Kings 22:47",
            "text": "\u0410 \u0446\u0430\u0440\u044f \u043d\u0435 \u0431\u0443\u043b\u043e \u0432 \u0415\u0434\u043e\u043c\u0456, \u0431\u0443\u0432 \u043d\u0430\u043c\u0456\u0441\u043d\u0438\u043a \u0446\u0430\u0440\u0456\u0432."
        },
        {
            "chapter": 22,
            "verse": 48,
            "name": "1 Kings 22:48",
            "text": "\u0410 \u0419\u043e\u0441\u0430\u0444\u0430\u0442 \u043d\u0430\u0440\u043e\u0431\u0438\u0432 \u0431\u0443\u0432 \u0442\u0430\u0440\u0448\u0456\u0441\u044c\u043a\u0438\u0445 \u043a\u043e\u0440\u0430\u0431\u043b\u0456\u0432, \u0449\u043e\u0431 \u043f\u0456\u0442\u0438 \u0434\u043e \u041e\u0444\u0456\u0440\u0443 \u043f\u043e \u0437\u043e\u043b\u043e\u0442\u043e, \u0442\u0430 \u043d\u0435 \u043f\u0456\u0448\u043e\u0432, \u0431\u043e \u043f\u043e\u0440\u043e\u0437\u0431\u0438\u0432\u0430\u043b\u0438\u0441\u044f \u043a\u043e\u0440\u0430\u0431\u043b\u0456 \u043f\u0440\u0438 \u0415\u0446\u0439\u043e\u043d-\u0490\u0435\u0432\u0435\u0440\u0456."
        },
        {
            "chapter": 22,
            "verse": 49,
            "name": "1 Kings 22:49",
            "text": "\u0422\u043e\u0434\u0456 \u0441\u043a\u0430\u0437\u0430\u0432 \u0410\u0445\u0430\u0437\u0456\u044f, \u0441\u0438\u043d \u0410\u0445\u0430\u0432\u0456\u0432, \u0434\u043e \u0419\u043e\u0441\u0430\u0444\u0430\u0442\u0430: \u041d\u0435\u0445\u0430\u0439 \u043f\u0456\u0434\u0443\u0442\u044c \u043d\u0430 \u043a\u043e\u0440\u0430\u0431\u043b\u044f\u0445 \u043c\u043e\u0457 \u0440\u0430\u0431\u0438 \u0437 \u0440\u0430\u0431\u0430\u043c\u0438 \u0442\u0432\u043e\u0457\u043c\u0438. \u0422\u0430 \u0419\u043e\u0441\u0430\u0444\u0430\u0442 \u043d\u0435 \u0437\u0430\u0445\u043e\u0442\u0456\u0432."
        },
        {
            "chapter": 22,
            "verse": 50,
            "name": "1 Kings 22:50",
            "text": "\u0406 \u0441\u043f\u043e\u0447\u0438\u0432 \u0419\u043e\u0441\u0430\u0444\u0430\u0442 \u0456\u0437 \u0441\u0432\u043e\u0457\u043c\u0438 \u0431\u0430\u0442\u044c\u043a\u0430\u043c\u0438. \u0406 \u0431\u0443\u0432 \u0432\u0456\u043d \u043f\u043e\u0445\u043e\u0432\u0430\u043d\u0438\u0439 \u0432 \u041c\u0456\u0441\u0442\u0456 \u0414\u0430\u0432\u0438\u0434\u0430, \u0441\u0432\u043e\u0433\u043e \u0431\u0430\u0442\u044c\u043a\u0430, \u0430 \u0437\u0430\u043c\u0456\u0441\u0442\u044c \u043d\u044c\u043e\u0433\u043e \u0437\u0430\u0446\u0430\u0440\u044e\u0432\u0430\u0432 \u0441\u0438\u043d \u0439\u043e\u0433\u043e \u0404\u0433\u043e\u0440\u0430\u043c."
        },
        {
            "chapter": 22,
            "verse": 51,
            "name": "1 Kings 22:51",
            "text": "\u0410\u0445\u0430\u0437\u0456\u044f, \u0410\u0445\u0430\u0432\u0456\u0432 \u0441\u0438\u043d, \u0437\u0430\u0446\u0430\u0440\u044e\u0432\u0430\u0432 \u043d\u0430\u0434 \u0406\u0437\u0440\u0430\u0457\u043b\u0435\u043c \u0443 \u0421\u0430\u043c\u0430\u0440\u0456\u0457, \u0432 \u0441\u0456\u043c\u043d\u0430\u0434\u0446\u044f\u0442\u043e\u043c\u0443 \u0440\u043e\u0446\u0456 \u0419\u043e\u0441\u0430\u0444\u0430\u0442\u0430, \u042e\u0434\u0438\u043d\u043e\u0433\u043e \u0446\u0430\u0440\u044f, \u0456 \u0446\u0430\u0440\u044e\u0432\u0430\u0432 \u043d\u0430\u0434 \u0406\u0437\u0440\u0430\u0457\u043b\u0435\u043c \u0434\u0432\u0430 \u0440\u043e\u043a\u0438."
        },
        {
            "chapter": 22,
            "verse": 52,
            "name": "1 Kings 22:52",
            "text": "\u0406 \u0440\u043e\u0431\u0438\u0432 \u0432\u0456\u043d \u043b\u0438\u0445\u0435 \u0432 \u0413\u043e\u0441\u043f\u043e\u0434\u043d\u0456\u0445 \u043e\u0447\u0430\u0445, \u0456 \u0445\u043e\u0434\u0438\u0432 \u0434\u043e\u0440\u043e\u0433\u043e\u044e \u0431\u0430\u0442\u044c\u043a\u0430 \u0441\u0432\u043e\u0433\u043e \u0439 \u0434\u043e\u0440\u043e\u0433\u043e\u044e \u0441\u0432\u043e\u0454\u0457 \u043c\u0430\u0442\u0435\u0440\u0456, \u0442\u0430 \u0434\u043e\u0440\u043e\u0433\u043e\u044e \u0404\u0440\u043e\u0432\u043e\u0430\u043c\u0430, \u041d\u0435\u0432\u0430\u0442\u043e\u0432\u043e\u0433\u043e \u0441\u0438\u043d\u0430, \u0449\u043e \u0432\u0432\u043e\u0434\u0438\u0432 \u0443 \u0433\u0440\u0456\u0445 \u0406\u0437\u0440\u0430\u0457\u043b\u044f."
        },
        {
            "chapter": 22,
            "verse": 53,
            "name": "1 Kings 22:53",
            "text": "\u0406 \u0441\u043b\u0443\u0436\u0438\u0432 \u0432\u0456\u043d \u0412\u0430\u0430\u043b\u043e\u0432\u0456, \u0456 \u0432\u043a\u043b\u043e\u043d\u044f\u0432\u0441\u044f \u0439\u043e\u043c\u0443, \u0442\u0430 \u0439 \u0433\u043d\u0456\u0432\u0438\u0432 \u0413\u043e\u0441\u043f\u043e\u0434\u0430, \u0411\u043e\u0433\u0430 \u0406\u0437\u0440\u0430\u0457\u043b\u0435\u0432\u043e\u0433\u043e, \u0443\u0441\u0435 \u0442\u0430\u043a, \u044f\u043a \u0440\u043e\u0431\u0438\u0432 \u0439\u043e\u0433\u043e \u0431\u0430\u0442\u044c\u043a\u043e.  "
        }
    ]
}