{
    "translation": "Hangul King James Version",
    "abbreviation": "korhkjv",
    "lang": "ko",
    "language": "Korean",
    "direction": "LTR",
    "encoding": "UTF-8",
    "book_nr": 23,
    "book_name": "Isaiah",
    "chapter": 33,
    "name": "Isaiah 33",
    "verses": [
        {
            "chapter": 33,
            "verse": 1,
            "name": "Isaiah 33:1",
            "text": "\ub178\ub7b5\ud558\ub294 \ub124\uac8c \ud654\uac00 \uc788\uc744\uc9c0\uc5b4\ub2e4! \ub124\uac00 \ub178\ub7b5\uc744 \ub2f9\ud558\uc9c0 \uc544\ub2c8\ud558\uace0\ub3c4 \ub178\ub7b5\ud558\uba70 \uadf8\ub4e4\uc774 \ub108\ub97c \ubc30\uc2e0\ud558\uc9c0 \uc544\ub2c8\ud558\uc600\uc5b4\ub3c4 \ub124\uac00 \ubc30\uc2e0\ud558\ub294\ub3c4\ub2e4. \ub124\uac00 \ub178\ub7b5\ud558\uae30\ub97c \uadf8\uce60 \ub54c\uc5d0 \ub124\uac00 \ub178\ub7b5\uc744 \ub2f9\ud558\uba70 \ub124\uac00 \ubc30\uc2e0\ud558\uae30\ub97c \uadf8\uce60 \ub54c\uc5d0 \uadf8\ub4e4\uc774 \ub108\ub97c \ubc30\uc2e0\ud558\ub9ac\ub77c."
        },
        {
            "chapter": 33,
            "verse": 2,
            "name": "Isaiah 33:2",
            "text": "\uc624 \uc8fc\uc5ec, \uc6b0\ub9ac\uc5d0\uac8c \uc740\ud61c\ub97c \ubca0\ud478\uc18c\uc11c. \uc6b0\ub9ac\uac00 \uc8fc\ub97c \uae30\ub2e4\ub838\uc0ac\uc624\ub2c8 \uc8fc\uaed8\uc11c\ub294 \uc544\uce68\ub9c8\ub2e4 \uadf8\ub4e4\uc758 \ud314\uc774 \ub418\uc2dc\uc624\uba70 \uace0\ub09c\uc758 \ub54c\uc5d0 \ub610\ud55c \uc6b0\ub9ac\uc758 \uad6c\uc6d0\uc774 \ub418\uc2dc\uc635\uc18c\uc11c."
        },
        {
            "chapter": 33,
            "verse": 3,
            "name": "Isaiah 33:3",
            "text": "\uc18c\ub3d9\ud558\ub294 \uc18c\ub9ac\uc5d0 \ubc31\uc131\uc774 \ub3c4\ub9dd\ud558\uba70 \uc8fc\uaed8\uc11c \uce5c\ud788 \uc77c\uc5b4\ub098\uc2ec\uc73c\ub85c \ub9d0\ubbf8\uc554\uc544 \ubbfc\uc871\ub4e4\uc774 \ud769\uc5b4\uc84c\ub098\uc774\ub2e4."
        },
        {
            "chapter": 33,
            "verse": 4,
            "name": "Isaiah 33:4",
            "text": "\uc0ac\ub78c\ub4e4\uc774 \uc410\uae30\ubc8c\ub808\ub97c \ubaa8\uc73c\ub294 \uac83 \uac19\uc774 \ub108\ud76c\uc758 \ub178\ub7b5\ubb3c\uc744 \ubaa8\uc73c\uba70 \uba54\ub69c\uae30\ub4e4\uc774 \uc774\ub9ac\uc800\ub9ac \ub6f0\ub294 \uac83 \uac19\uc774 \uadf8\ubd84\uaed8\uc11c \uadf8\ub4e4 \uc704\ub85c \ub6f0\uc5b4\uc624\ub974\ub9ac\ub77c."
        },
        {
            "chapter": 33,
            "verse": 5,
            "name": "Isaiah 33:5",
            "text": "\uc8fc\uaed8\uc11c\ub294 \ub192\uc5ec\uc9c0\uc168\ub3c4\ub2e4. \uadf8\ubd84\uc740 \ub192\uc740 \uacf3\uc5d0 \uac70\ud558\uc2dc\uba70 \ud310\ub2e8\uc758 \uacf5\uc758\uc640 \uc758\ub85c \uc2dc\uc628\uc744 \ucda9\ub9cc\ud558\uac8c \ud558\uc168\ub3c4\ub2e4."
        },
        {
            "chapter": 33,
            "verse": 6,
            "name": "Isaiah 33:6",
            "text": "\uc9c0\ud61c\uc640 \uc9c0\uc2dd\uc774 \ub124 \uc2dc\ub300\uc758 \ud655\uace0\ud568\uc774 \ub418\uace0 \uad6c\uc6d0\uc758 \ud798\uc774 \ub418\ub9ac\ub77c. \uc8fc\ub97c \ub450\ub824\uc6cc\ud568\uc774 \uadf8\uc758 \ubcf4\ubc30\uc774\ub2c8\ub77c."
        },
        {
            "chapter": 33,
            "verse": 7,
            "name": "Isaiah 33:7",
            "text": "\ubcf4\ub77c, \uadf8\ub4e4\uc758 \uc6a9\uc0ac\ub4e4\uc774 \ubc16\uc5d0\uc11c \ubd80\ub974\uc9d6\uc73c\uba70 \ud3c9\ud654\uc758 \ub300\uc0ac\ub4e4\uc774 \ubab9\uc2dc \uc2ac\ud53c \uc6b8\ub9ac\ub77c."
        },
        {
            "chapter": 33,
            "verse": 8,
            "name": "Isaiah 33:8",
            "text": "\ud070\uae38\ub4e4\uc774 \ud53c\ud3d0\ud558\uac8c \ub418\uba70 \ud589\uc778\uc774 \uadf8\uce58\ub098\ub2c8 \uadf8\ub294 \uc5b8\uc57d\uc744 \uc5b4\uae30\uace0 \ub3c4\uc2dc\ub4e4\uc744 \uba78\uc2dc\ud558\uc600\uc73c\uba70 \uc0ac\ub78c\uc744 \uc911\ud788 \uc5ec\uae30\uc9c0 \uc544\ub2c8\ud558\ub294\ub3c4\ub2e4."
        },
        {
            "chapter": 33,
            "verse": 9,
            "name": "Isaiah 33:9",
            "text": "\ub545\uc774 \uc2ac\ud37c\ud558\uace0 \uae30\uc6b4\uc744 \uc783\ub294\ub3c4\ub2e4. \ub808\ubc14\ub17c\uc740 \ubd80\ub044\ub7ec\uc6c0\uc744 \ub2f9\ud558\uace0 \ucc0d\ud600 \ub118\uc5b4\uc84c\uc73c\uba70 \uc0e4\ub860\uc740 \uad11\uc57c \uac19\uace0 \ubc14\uc0b0\uacfc \uac08\uba5c\uc740 \uc790\uae30 \uc5f4\ub9e4\ub97c \ud754\ub4e4\uc5b4 \ub5a8\uc5b4\ub728\ub9ac\ub294\ub3c4\ub2e4."
        },
        {
            "chapter": 33,
            "verse": 10,
            "name": "Isaiah 33:10",
            "text": "\uc8fc\uaed8\uc11c \ub9d0\uc500\ud558\uc2dc\ub290\ub2c8\ub77c. \uc774\uc81c \ub0b4\uac00 \uc77c\uc5b4\ub098\ub9ac\ub77c. \uc774\uc81c \ub0b4\uac00 \ub192\uc5ec\uc9c0\ub9ac\ub77c. \uc774\uc81c \ub0b4\uac00 \ub098\ub97c \ub192\uc774\ub9ac\ub2c8"
        },
        {
            "chapter": 33,
            "verse": 11,
            "name": "Isaiah 33:11",
            "text": "\ub108\ud76c\uac00 \uaca8\ub97c \uc218\ud0dc\ud558\uace0 \uc9da\uc744 \ub0b3\uc73c\ub9ac\ub77c. \ub108\ud76c \uc228\uc740 \ubd88\uac19\uc774 \ub418\uc5b4 \ub108\ud76c\ub97c \uc0bc\ud0a4\uace0"
        },
        {
            "chapter": 33,
            "verse": 12,
            "name": "Isaiah 33:12",
            "text": "\ubc31\uc131\uc740 \ubd88\uc5d0 \ud0c0\ub294 \uc11d\ud68c \uac19\uc774 \ub418\uba70 \ubca0\uc5b4\uc11c \ubd88\uc5d0 \ud0dc\uc6b0\ub294 \uac00\uc2dc\ub098\ubb34\uac19\uc774 \ub418\ub9ac\ub85c\ub2e4.  "
        },
        {
            "chapter": 33,
            "verse": 13,
            "name": "Isaiah 33:13",
            "text": "  \u00b6\uba40\ub9ac \uc788\ub294 \uc790\ub4e4\uc544, \ub108\ud76c\ub294 \ub0b4\uac00 \ud589\ud55c \uac83\uc744 \ub4e4\uc744\uc9c0\uc5b4\ub2e4. \uac00\uae4c\uc774 \uc788\ub294 \uc790\ub4e4\uc544, \ub108\ud76c\ub294 \ub0b4 \ub2a5\ub825\uc744 \uc778\uc815\ud560\uc9c0\uc5b4\ub2e4."
        },
        {
            "chapter": 33,
            "verse": 14,
            "name": "Isaiah 33:14",
            "text": "\uc2dc\uc628\uc758 \uc8c4\uc778\ub4e4\uc774 \ubb34\uc11c\uc6cc\ud558\uba70 \ub450\ub824\uc6c0\uc774 \uc704\uc120\uc790\ub4e4\uc744 \ub180\ub77c\uac8c \ud558\ubbc0\ub85c \uadf8\ub4e4\uc774 \ub9d0\ud558\uae30\ub97c, \uc6b0\ub9ac \uac00\uc6b4\ub370 \ub204\uac00 \uadf8 \uc0bc\ud0a4\ub294 \ubd88\uacfc \ud568\uaed8 \uac70\ud558\ub9ac\uc694? \uc6b0\ub9ac \uac00\uc6b4\ub370 \ub204\uac00 \uc601\uc601\ud788 \ubd88\ud0c0\ub294 \uac83\uacfc \ud568\uaed8 \uac70\ud558\ub9ac\uc694? \ud558\ub294\ub3c4\ub2e4."
        },
        {
            "chapter": 33,
            "verse": 15,
            "name": "Isaiah 33:15",
            "text": "\uc758\ub86d\uac8c \uac77\ub294 \uc790, \uc62c\ubc14\ub974\uac8c \ub9d0\ud558\ub294 \uc790, \ud559\ub300\ud558\uc5ec \uc5bb\uc740 \uc774\ub4dd\uc744 \uba78\uc2dc\ud558\ub294 \uc790, \uc190\uc744 \uc800\uc5b4 \ub1cc\ubb3c\uc744 \ubc1b\uc9c0 \uc544\ub2c8\ud558\ub294 \uc790, \uadc0\ub97c \ub9c9\uc544 \ud53c \ud758\ub9ac\ub824\ub294 \ub9d0\uc744 \ub4e3\uc9c0 \uc544\ub2c8\ud558\ub294 \uc790, \ub208\uc744 \uac10\uc544 \uc545\uc744 \ubcf4\uc9c0 \uc544\ub2c8\ud558\ub294 \uc790"
        },
        {
            "chapter": 33,
            "verse": 16,
            "name": "Isaiah 33:16",
            "text": "\uadf8\ub294 \ub192\uc740 \uacf3\uc5d0 \uac70\ud558\ub9ac\ub2c8 \ubc14\uc704\ub85c \ub41c \uc694\uc0c8\uac00 \uadf8\ub97c \ubcf4\ud638\ud558\ub294 \ucc98\uc18c\uac00 \ub418\uba70 \uadf8\ub294 \ube75 \uacf5\uae09\uc744 \ubc1b\uace0 \ubb3c\uc744 \ud655\ubcf4\ud558\ub9ac\ub77c."
        },
        {
            "chapter": 33,
            "verse": 17,
            "name": "Isaiah 33:17",
            "text": "\ub124 \ub208\uc740 \uc544\ub984\ub2e4\uc6c0 \uac00\uc6b4\ub370 \uc788\ub294 \uc655\uc744 \ubcf4\uba70 \uadf8\ub4e4\uc740 \ub9e4\uc6b0 \uba40\ub9ac \uc788\ub294 \ub545\uc744 \ubc14\ub77c\ubcf4\uace0"
        },
        {
            "chapter": 33,
            "verse": 18,
            "name": "Isaiah 33:18",
            "text": "\ub124 \ub9c8\uc74c\uc740 \ub450\ub824\uc6c0\uc744 \ubb35\uc0c1\ud558\ub9ac\ub77c. \uc11c\uae30\uad00\uc774 \uc5b4\ub514 \uc788\ub290\ub0d0? \ub3c8\uc744 \ubc1b\ub358 \uc790\uac00 \uc5b4\ub514 \uc788\ub290\ub0d0? \ub9dd\ub300\ub97c \uc138\ub358 \uc790\uac00 \uc5b4\ub514 \uc788\ub290\ub0d0?"
        },
        {
            "chapter": 33,
            "verse": 19,
            "name": "Isaiah 33:19",
            "text": "\ub124\uac00 \uc0ac\ub098\uc6b4 \ubc31\uc131\uc744 \ubcf4\uc9c0 \uc544\ub2c8\ud558\ub9ac\ub2c8 \uadf8 \ubc31\uc131\uc740 \ub124\uac00 \ub2a5\ud788 \uc54c \uc218 \uc5c6\ub294 \uc5b4\ub824\uc6b4 \ub9d0\uc744 \ud558\uba70 \ub354\ub4ec\ub294 \uc5b8\uc5b4\ub97c \uc4f0\ubbc0\ub85c \ub124\uac00 \uadf8\uac83\uc744 \uae68\ub2eb\uc9c0 \ubabb\ud558\ub9ac\ub77c."
        },
        {
            "chapter": 33,
            "verse": 20,
            "name": "Isaiah 33:20",
            "text": "\uc6b0\ub9ac\uc758 \uc5c4\uc219\ud55c \uac83\ub4e4\uc744 \uc9c0\ud0a4\ub294 \ub3c4\uc2dc \uc2dc\uc628\uc744 \ubc14\ub77c\ubcf4\ub77c. \ub124 \ub208\uc774 \ud3c9\uc628\ud55c \ucc98\uc18c\uc778 \uc608\ub8e8\uc0b4\ub818\uc744 \ubcfc \ud130\uc778\ub370 \uadf8\uac83\uc740 \uace7 \ubb34\ub108\uc838 \ub0b4\ub9ac\uc9c0 \uc544\ub2c8\ud560 \uc7a5\ub9c9\uc774\ub2c8\ub77c. \uadf8\uacf3\uc758 \ub9d0\ub69d \ud558\ub098\ub3c4 \uacb0\ucf54 \ubf51\ud788\uc9c0 \uc544\ub2c8\ud558\uba70 \uadf8\uacf3\uc758 \uc904 \ud558\ub098\ub3c4 \uacb0\ucf54 \ub04a\uc5b4\uc9c0\uc9c0 \uc544\ub2c8\ud558\ub9ac\ub77c."
        },
        {
            "chapter": 33,
            "verse": 21,
            "name": "Isaiah 33:21",
            "text": "\uc624\uc9c1 \uac70\uae30\uc5d0\uc11c\ub294 \uc601\uad11\uc2a4\ub7ec\uc6b4 \uc8fc\uaed8\uc11c \uc6b0\ub9ac\ub97c \uc704\ud558\uc5ec \ub113\uc740 \uac15\uacfc \uc2dc\ub0b4\uac00 \uc788\ub294 \uc7a5\uc18c\uac00 \ub418\uc2e4 \uac83\uc774\uc694, \uadf8 \uc548\uc5d0\uc11c\ub294 \ub178\ub97c \uc813\ub294 \ud070 \ubc30\ub098 \ud654\ub824\ud55c \ud070 \ubc30\uac00 \uc606\uc73c\ub85c \uc9c0\ub098\uac00\uc9c0 \ubabb\ud558\ub9ac\ub77c."
        },
        {
            "chapter": 33,
            "verse": 22,
            "name": "Isaiah 33:22",
            "text": "\uc8fc\uaed8\uc11c\ub294 \uc6b0\ub9ac\uc758 \uc2ec\ud310\uc790\uc2dc\uc694, \uc8fc\uaed8\uc11c\ub294 \uc6b0\ub9ac\uc5d0\uac8c \ubc95\uc744 \uc8fc\uc2dc\ub294 \uc774\uc2dc\uc694, \uc8fc\uaed8\uc11c\ub294 \uc6b0\ub9ac\uc758 \uc655\uc774\uc2dc\ub2c8 \uadf8\ubd84\uaed8\uc11c \uc6b0\ub9ac\ub97c \uad6c\uc6d0\ud558\uc2dc\ub9ac\ub85c\ub2e4."
        },
        {
            "chapter": 33,
            "verse": 23,
            "name": "Isaiah 33:23",
            "text": "\ub124 \ubc27\uc904\uc774 \ud480\ub838\uc73c\ubbc0\ub85c \uadf8\ub4e4\uc774 \ub2a5\ud788 \uc790\uae30\ub4e4\uc758 \ub3db\ub300\ub97c \uac15\ud558\uac8c \ud558\uc9c0 \ubabb\ud558\uace0 \ub3db\uc744 \ud3b4\uc9c0 \ubabb\ud558\uc600\ub3c4\ub2e4. \uadf8\ub54c\uc5d0\ub294 \uc0ac\ub78c\ub4e4\uc774 \ud070 \ub178\ub7b5\ubb3c\uc744 \ud0c8\ucde8\ud558\uc5ec \ub098\ub204\ub9ac\ub2c8 \ub2e4\ub9ac \uc800\ub294 \uc790\ub4e4\uc774 \uadf8 \ud0c8\ucde8\ubb3c\uc744 \ucde8\ud558\uace0"
        },
        {
            "chapter": 33,
            "verse": 24,
            "name": "Isaiah 33:24",
            "text": "\ub610 \uadf8 \uac70\uc8fc\ubbfc\uc740 \uc774\ub974\uae30\ub97c, \ub0b4\uac00 \ubcd1\ub4e4\uc5c8\ub178\ub77c, \ud558\uc9c0 \uc544\ub2c8\ud558\ub9ac\ub77c. \uadf8 \uc548\uc5d0 \uac70\ud558\ub294 \ubc31\uc131\ub4e4\uc774 \uc790\uae30 \ubd88\ubc95\uc744 \uc6a9\uc11c\ubc1b\uc73c\ub9ac\ub77c.   "
        }
    ]
}