{
    "translation": "Giovanni Diodati Bible (1649)",
    "abbreviation": "giovanni",
    "lang": "it",
    "language": "Italian",
    "direction": "LTR",
    "encoding": "",
    "book_nr": 66,
    "book_name": "Revelation",
    "chapter": 9,
    "name": "Revelation 9",
    "verses": [
        {
            "chapter": 9,
            "verse": 1,
            "name": "Revelation 9:1",
            "text": "POI son\u00f2 il quinto angelo, ed io vidi una stella caduta dal cielo in terra; e ad esso fu data la chiave del pozzo dell\u2019abisso.\r"
        },
        {
            "chapter": 9,
            "verse": 2,
            "name": "Revelation 9:2",
            "text": "Ed egli aperse il pozzo dell\u2019abisso, e di quel pozzo sal\u00ec un fumo, simigliante al fumo d\u2019una gran fornace ardente; e il sole e l\u2019aria scur\u00f2, per il fumo del pozzo.\r"
        },
        {
            "chapter": 9,
            "verse": 3,
            "name": "Revelation 9:3",
            "text": "E di quel fumo uscirono in terra locuste; e fu loro dato potere, simile a quello degli scorpioni della terra.\r"
        },
        {
            "chapter": 9,
            "verse": 4,
            "name": "Revelation 9:4",
            "text": "E fu lor detto, che non danneggiassero l\u2019erba della terra, n\u00e8 verdura alcuna, n\u00e8 albero alcuno; ma solo gli uomini che non hanno il segnale di Dio in su le lor fronti.\r"
        },
        {
            "chapter": 9,
            "verse": 5,
            "name": "Revelation 9:5",
            "text": "E fu loro dato, non di ucciderli, ma di tormentarli lo spazio di cinque mesi; e il lor tormento era come quello dello scorpione, quando ha ferito l\u2019uomo.\r"
        },
        {
            "chapter": 9,
            "verse": 6,
            "name": "Revelation 9:6",
            "text": "E in que\u2019 giorni gli uomini cercheranno la morte, e non la troveranno; e desidereranno di morire, e la morte fuggir\u00e0 da loro.\r"
        },
        {
            "chapter": 9,
            "verse": 7,
            "name": "Revelation 9:7",
            "text": "Or i sembianti delle locuste erano simili a cavalli apparecchiati alla battaglia; ed aveano in su le lor teste come delle corone d\u2019oro, e le lor facce erano come facce d\u2019uomini.\r"
        },
        {
            "chapter": 9,
            "verse": 8,
            "name": "Revelation 9:8",
            "text": "Ed avean capelli, come capelli di donne: e i lor denti erano come denti di leoni.\r"
        },
        {
            "chapter": 9,
            "verse": 9,
            "name": "Revelation 9:9",
            "text": "Ed aveano degli usberghi, come usberghi di ferro; e il suon delle loro ale era come il suono de\u2019 carri, o di molti cavalli correnti alla battaglia.\r"
        },
        {
            "chapter": 9,
            "verse": 10,
            "name": "Revelation 9:10",
            "text": "Ed aveano delle code simili a quelle degli scorpioni, e v\u2019erano delle punte nelle lor code; e il poter loro era di danneggiar gli uomini lo spazio di cinque mesi.\r"
        },
        {
            "chapter": 9,
            "verse": 11,
            "name": "Revelation 9:11",
            "text": "Ed aveano per re sopra loro l\u2019angelo dell\u2019abisso, il cui nome in Ebreo \u00e8 Abaddon, ed in Greco Appollion.\r"
        },
        {
            "chapter": 9,
            "verse": 12,
            "name": "Revelation 9:12",
            "text": "Il primo Guaio \u00e8 passato; ecco, vengono ancora due Guai dopo queste cose.\r"
        },
        {
            "chapter": 9,
            "verse": 13,
            "name": "Revelation 9:13",
            "text": "POI il sesto angelo son\u00f2; ed io udii una voce dalle quattro corna dell\u2019altar d\u2019oro, ch\u2019era davanti a Dio;\r"
        },
        {
            "chapter": 9,
            "verse": 14,
            "name": "Revelation 9:14",
            "text": "la quale disse al sesto angelo che avea la tromba: Sciogli i quattro angeli, che son legati in sul gran fiume Eufrate.\r"
        },
        {
            "chapter": 9,
            "verse": 15,
            "name": "Revelation 9:15",
            "text": "E furono sciolti que\u2019 quattro angeli, che erano apparecchiati per quell\u2019ora, e giorno, e mese, ed anno; per uccider la terza parte degli uomini.\r"
        },
        {
            "chapter": 9,
            "verse": 16,
            "name": "Revelation 9:16",
            "text": "E il numero degli eserciti della cavalleria era di venti migliaia di decine di migliaia; ed io udii il numero loro.\r"
        },
        {
            "chapter": 9,
            "verse": 17,
            "name": "Revelation 9:17",
            "text": "Simigliantemente ancora vidi nella visione i cavalli, e quelli che li cavalcavano, i quali aveano degli usberghi di fuoco, di giacinto, e di zolfo; e le teste de\u2019 cavalli erano come teste di leoni; e dalle bocche loro usciva fuoco, e fumo, e zolfo.\r"
        },
        {
            "chapter": 9,
            "verse": 18,
            "name": "Revelation 9:18",
            "text": "Da queste tre piaghe: dal fuoco, dal fumo, e dallo zolfo, che usciva delle bocche loro, fu uccisa la terza parte degli uomini.\r"
        },
        {
            "chapter": 9,
            "verse": 19,
            "name": "Revelation 9:19",
            "text": "Perciocch\u00e8 il poter de\u2019 cavalli era nella lor bocca, e nelle lor code; poich\u00e8 le lor code erano simili a serpenti, avendo delle teste, e con esse danneggiavano.\r"
        },
        {
            "chapter": 9,
            "verse": 20,
            "name": "Revelation 9:20",
            "text": "E il rimanente degli uomini, che non furono uccisi di queste piaghe, non si ravvide ancora delle opere delle lor mani, per non adorare i demoni, e gl\u2019idoli d\u2019oro, e d\u2019argento, e di rame, e di pietra, e di legno, i quali non possono n\u00e8 vedere, n\u00e8 udire, n\u00e8 camminare.\r"
        },
        {
            "chapter": 9,
            "verse": 21,
            "name": "Revelation 9:21",
            "text": "Parimente non si ravvidero de\u2019 lor omicidii, n\u00e8 delle lor malie, n\u00e8 della loro fornicazione, n\u00e8 de\u2019 lor furti.\r"
        }
    ]
}