{
    "translation": "Douay Rheims",
    "abbreviation": "douayrheims",
    "lang": "en",
    "language": "English",
    "direction": "LTR",
    "encoding": "",
    "book_nr": 40,
    "book_name": "Matthew",
    "chapter": 12,
    "name": "Matthew 12",
    "verses": [
        {
            "chapter": 12,
            "verse": 1,
            "name": "Matthew 12:1",
            "text": "At that time Jesus went through the corn on the sabbath: and his disciples being hungry, began to pluck the ears, and to eat."
        },
        {
            "chapter": 12,
            "verse": 2,
            "name": "Matthew 12:2",
            "text": "And the Pharisees seeing them, said to him: Behold thy disciples do that which is not lawful to do on the sabbath days."
        },
        {
            "chapter": 12,
            "verse": 3,
            "name": "Matthew 12:3",
            "text": "But he said to them: Have you not read what David did when he was hungry, and they that were with him:"
        },
        {
            "chapter": 12,
            "verse": 4,
            "name": "Matthew 12:4",
            "text": "How he entered into the house of God, and did eat the loaves of proposition, which it was not lawful for him to eat, nor for them that were with him, but for the priests only?"
        },
        {
            "chapter": 12,
            "verse": 5,
            "name": "Matthew 12:5",
            "text": "Or have ye not read in the law, that on the sabbath days the priests in the temple break the sabbath, and are without blame?"
        },
        {
            "chapter": 12,
            "verse": 6,
            "name": "Matthew 12:6",
            "text": "But I tell you that there is here a greater than the temple."
        },
        {
            "chapter": 12,
            "verse": 7,
            "name": "Matthew 12:7",
            "text": "And if you knew what this meaneth: I will have mercy, and not sacrifice: you would never have condemned the innocent."
        },
        {
            "chapter": 12,
            "verse": 8,
            "name": "Matthew 12:8",
            "text": "For the Son of man is Lord even of the sabbath."
        },
        {
            "chapter": 12,
            "verse": 9,
            "name": "Matthew 12:9",
            "text": "And when he had passed from thence, he came into their synagogues."
        },
        {
            "chapter": 12,
            "verse": 10,
            "name": "Matthew 12:10",
            "text": "And behold there was a man who had a withered hand, and they asked him, saying: Is it lawful to heal on the sabbath days? that they might accuse him."
        },
        {
            "chapter": 12,
            "verse": 11,
            "name": "Matthew 12:11",
            "text": "But he said to them: What man shall there be among you, that hath one sheep: and if the same fall into a pit on the sabbath day, will he not take hold on it and lift it up?"
        },
        {
            "chapter": 12,
            "verse": 12,
            "name": "Matthew 12:12",
            "text": "How much better is a man than a sheep? Therefore it is lawful to do a good deed on the sabbath days."
        },
        {
            "chapter": 12,
            "verse": 13,
            "name": "Matthew 12:13",
            "text": "Then he saith to the man: Stretch forth thy hand; and he stretched it forth, and it was restored to health even as the other."
        },
        {
            "chapter": 12,
            "verse": 14,
            "name": "Matthew 12:14",
            "text": "And the Pharisees going out made a consultation against him, how they might destroy him."
        },
        {
            "chapter": 12,
            "verse": 15,
            "name": "Matthew 12:15",
            "text": "But Jesus knowing it, retired from thence: and many followed him, and he healed them all."
        },
        {
            "chapter": 12,
            "verse": 16,
            "name": "Matthew 12:16",
            "text": "And he charged them that they should not make him known."
        },
        {
            "chapter": 12,
            "verse": 17,
            "name": "Matthew 12:17",
            "text": "That it might be fulfilled which was spoken by Isaias the prophet, saying:"
        },
        {
            "chapter": 12,
            "verse": 18,
            "name": "Matthew 12:18",
            "text": "Behold my servant whom I have chosen, my beloved in whom my soul hath been well pleased. I will put my spirit upon him, and he shall shew judgment to the Gentiles."
        },
        {
            "chapter": 12,
            "verse": 19,
            "name": "Matthew 12:19",
            "text": "He shall not contend, nor cry out, neither shall any man hear his voice in the streets."
        },
        {
            "chapter": 12,
            "verse": 20,
            "name": "Matthew 12:20",
            "text": "The bruised reed he shall not break: and smoking flax he shall not extinguish: till he send forth judgment unto victory."
        },
        {
            "chapter": 12,
            "verse": 21,
            "name": "Matthew 12:21",
            "text": "And in his name the Gentiles shall hope."
        },
        {
            "chapter": 12,
            "verse": 22,
            "name": "Matthew 12:22",
            "text": "Then was offered to him one possessed with a devil, blind and dumb: and he healed him, so that he spoke and saw."
        },
        {
            "chapter": 12,
            "verse": 23,
            "name": "Matthew 12:23",
            "text": "And all the multitudes were amazed, and said: Is not this the son of David?"
        },
        {
            "chapter": 12,
            "verse": 24,
            "name": "Matthew 12:24",
            "text": "But the Pharisees hearing it, said: This man casteth not out devils but by Beelzebub the prince of the devils."
        },
        {
            "chapter": 12,
            "verse": 25,
            "name": "Matthew 12:25",
            "text": "And Jesus knowing their thoughts, said to them: Every kingdom divided against itself shall be made desolate: and every city or house divided against itself shall not stand."
        },
        {
            "chapter": 12,
            "verse": 26,
            "name": "Matthew 12:26",
            "text": "And if Satan cast out Satan, he is divided against himself: how then shall his kingdom stand?"
        },
        {
            "chapter": 12,
            "verse": 27,
            "name": "Matthew 12:27",
            "text": "And if I by Beelzebub cast out devils, by whom do your children cast them out? Therefore they shall be your judges."
        },
        {
            "chapter": 12,
            "verse": 28,
            "name": "Matthew 12:28",
            "text": "But if I by the Spirit of God cast out devils, then is the kingdom of God come upon you."
        },
        {
            "chapter": 12,
            "verse": 29,
            "name": "Matthew 12:29",
            "text": "Or how can any one enter into the house of the strong, and rifle his goods, unless he first bind the strong? and then he will rifle his house."
        },
        {
            "chapter": 12,
            "verse": 30,
            "name": "Matthew 12:30",
            "text": "He that is not with me, is against me: and he that gathereth not with me, scattereth."
        },
        {
            "chapter": 12,
            "verse": 31,
            "name": "Matthew 12:31",
            "text": "Therefore I say to you: Every sin and blasphemy shall be forgiven men, but the blasphemy of the Spirit shall not be forgiven."
        },
        {
            "chapter": 12,
            "verse": 32,
            "name": "Matthew 12:32",
            "text": "And whosoever shall speak a word against the Son of man, it shall be forgiven him: but he that shall speak against the Holy Ghost, it shall not be forgiven him neither in this world, nor in the world to come."
        },
        {
            "chapter": 12,
            "verse": 33,
            "name": "Matthew 12:33",
            "text": "Either make the tree good and its fruit good: or make the tree evil, and its fruit evil. For by the fruit the tree is known."
        },
        {
            "chapter": 12,
            "verse": 34,
            "name": "Matthew 12:34",
            "text": "O generation of vipers, how can you speak good things, whereas you are evil? for out of the abundance of the heart the mouth speaketh."
        },
        {
            "chapter": 12,
            "verse": 35,
            "name": "Matthew 12:35",
            "text": "A good man out of a good treasure bringeth forth good things: and an evil man out of an evil treasure bringeth forth evil things."
        },
        {
            "chapter": 12,
            "verse": 36,
            "name": "Matthew 12:36",
            "text": "But I say unto you, that every idle word that men shall speak, they shall render an account for it in the day of judgment."
        },
        {
            "chapter": 12,
            "verse": 37,
            "name": "Matthew 12:37",
            "text": "For by thy words thou shalt be justified, and by thy words thou shalt be condemned."
        },
        {
            "chapter": 12,
            "verse": 38,
            "name": "Matthew 12:38",
            "text": "Then some of the scribes and Pharisees answered him, saying: Master, we would see a sign from thee."
        },
        {
            "chapter": 12,
            "verse": 39,
            "name": "Matthew 12:39",
            "text": "Who answering said to them: An evil and adulterous generation seeketh a sign: and a sign shall not be given it, but the sign of Jonas the prophet."
        },
        {
            "chapter": 12,
            "verse": 40,
            "name": "Matthew 12:40",
            "text": "For as Jonas was in the whale's belly three days and three nights: so shall the Son of man be in the heart of the earth three days and three nights."
        },
        {
            "chapter": 12,
            "verse": 41,
            "name": "Matthew 12:41",
            "text": "The men of Ninive shall rise in judgment with this generation, and shall condemn it: because they did penance at the preaching of Jonas. And behold a greater than Jonas here."
        },
        {
            "chapter": 12,
            "verse": 42,
            "name": "Matthew 12:42",
            "text": "The queen of the south shall rise in judgment with this generation, and shall condemn it: because she came from the ends of the earth to hear the wisdom of Solomon, and behold a greater than Solomon here."
        },
        {
            "chapter": 12,
            "verse": 43,
            "name": "Matthew 12:43",
            "text": "And when an unclean spirit is gone out of a man he walketh through dry places seeking rest, and findeth none."
        },
        {
            "chapter": 12,
            "verse": 44,
            "name": "Matthew 12:44",
            "text": "Then he saith: I will return into my house from whence I came out. And coming he findeth it empty, swept, and garnished."
        },
        {
            "chapter": 12,
            "verse": 45,
            "name": "Matthew 12:45",
            "text": "Then he goeth, and taketh with him seven other spirits more wicked than himself, and they enter in and dwell there: and the last state of that man is made worse than the first. So shall it be also to this wicked generation."
        },
        {
            "chapter": 12,
            "verse": 46,
            "name": "Matthew 12:46",
            "text": "As he was yet speaking to the multitudes, behold his mother and his brethren stood without, seeking to speak to him."
        },
        {
            "chapter": 12,
            "verse": 47,
            "name": "Matthew 12:47",
            "text": "And one said unto him: Behold thy mother and thy brethren stand without, seeking thee."
        },
        {
            "chapter": 12,
            "verse": 48,
            "name": "Matthew 12:48",
            "text": "But he answering him that told him, said: Who is my mother, and who are my brethren?"
        },
        {
            "chapter": 12,
            "verse": 49,
            "name": "Matthew 12:49",
            "text": "And stretching forth his hand towards his disciples, he said: Behold my mother and my brethren."
        },
        {
            "chapter": 12,
            "verse": 50,
            "name": "Matthew 12:50",
            "text": "For whosoever shall do the will of my Father, that is in heaven, he is my brother, and sister, and mother. "
        }
    ]
}