{
    "translation": "Maori",
    "abbreviation": "maori",
    "lang": "mi",
    "language": "Maori",
    "direction": "LTR",
    "encoding": "",
    "book_nr": 18,
    "book_name": "Job",
    "chapter": 16,
    "name": "Job 16",
    "verses": [
        {
            "chapter": 16,
            "verse": 1,
            "name": "Job 16:1",
            "text": "Katahi a Hopa ka whakautu, ka mea,"
        },
        {
            "chapter": 16,
            "verse": 2,
            "name": "Job 16:2",
            "text": "Ka maha nga mea pena kua rangona nei e ahau: he kaiwhakamarie haumaruru rawa koutou katoa."
        },
        {
            "chapter": 16,
            "verse": 3,
            "name": "Job 16:3",
            "text": "E whai mutunga ranei nga kupu tikangakore? Na te aha ranei koe i whakaoho ki te whakahoki kupu mai?"
        },
        {
            "chapter": 16,
            "verse": 4,
            "name": "Job 16:4",
            "text": "E taea ano e ahau te korero pena i a koutou; me i penei to koutou wairua me toku wairua, hono tonu aku kupu ki a koutou, ka ruru ano toku upoko ki a koutou."
        },
        {
            "chapter": 16,
            "verse": 5,
            "name": "Job 16:5",
            "text": "E whakakaha ano ia toku mangai i a koutou, ka ai ano hoki te whakamarie a oku ngutu hei pehi i to koutou mamae."
        },
        {
            "chapter": 16,
            "verse": 6,
            "name": "Job 16:6",
            "text": "Ahakoa korero ahau, kahore toku pouri e iti iho; ki te mutu taku, ko tehea wahi o toku mamae ka taharahara iho."
        },
        {
            "chapter": 16,
            "verse": 7,
            "name": "Job 16:7",
            "text": "Inaianei ano kua meinga ahau e ia kia ruha: moti iho i a koe toku whakaminenga katoa."
        },
        {
            "chapter": 16,
            "verse": 8,
            "name": "Job 16:8",
            "text": "Na kua mau kita koe ki ahau, hei kaiwhakaatu i toku he: e whakatika ana mai hoki toku hirokitanga ki ahau, hei whakapuaki i toku he: e whakatika ana mai hoki toku hirokitanga ki ahau hei whakapuaki i toku he."
        },
        {
            "chapter": 16,
            "verse": 9,
            "name": "Job 16:9",
            "text": "Haehaea ana ahau e ia i a ia e riri ana, e tukino ana ia i ahau; pakiri ana ona niho ki ahau; e whakakoi mai ana toku hoariri i ona kanohi ki ahau."
        },
        {
            "chapter": 16,
            "verse": 10,
            "name": "Job 16:10",
            "text": "Hamama mai ana o ratou mangai ki ahau; whakahewea mai ana, kei te papaki ratou i toku paparinga; huihui ana ratou kia kotahi hei whawhai ki ahau."
        },
        {
            "chapter": 16,
            "verse": 11,
            "name": "Job 16:11",
            "text": "Kua tukua ahau e te Atua ki te hunga he, whakarerea putia ana ahau ki nga ringa o te hunga kino."
        },
        {
            "chapter": 16,
            "verse": 12,
            "name": "Job 16:12",
            "text": "Humarie ana taku noho, heoi kua wawahi ia i ahau; kua mau ia ki toku kaki, tatatia ake ahau kia pakaru rikiriki; whakaturia ana ahau e ia hei koperenga pere mana."
        },
        {
            "chapter": 16,
            "verse": 13,
            "name": "Job 16:13",
            "text": "Karapotia ana ahau e ana kaikopere, motumotuhia ana e ia oku whatumanawa, kahore hoki e tohungia; ringihia ana e ia toku au ki te whenua."
        },
        {
            "chapter": 16,
            "verse": 14,
            "name": "Job 16:14",
            "text": "He mea wawahi ahau nana, he wahanga, he wahanga; ano he tangata kaha ia e rere mai ana ki runga ki ahau."
        },
        {
            "chapter": 16,
            "verse": 15,
            "name": "Job 16:15",
            "text": "Tuituia ana e ahau he kakahu taratara mo toku kiri, whakaititia iho e ahau toku haona ki te puehu."
        },
        {
            "chapter": 16,
            "verse": 16,
            "name": "Job 16:16",
            "text": "Paruparu noa iho toku mata i te tangihanga, kei runga i oku kamo te atarangi o te mate;"
        },
        {
            "chapter": 16,
            "verse": 17,
            "name": "Job 16:17",
            "text": "Ahakoa kahore he tutu i oku ringa, a he ma taku inoi."
        },
        {
            "chapter": 16,
            "verse": 18,
            "name": "Job 16:18",
            "text": "Kaua, e te whenua, e hipokina oku toto, kei whai wahi tanga ano hoki taku karanga."
        },
        {
            "chapter": 16,
            "verse": 19,
            "name": "Job 16:19",
            "text": "Kei te rangi nei ano inaianei te kaiwhakaatu o taku, kei te wahi i runga toku kaititiro."
        },
        {
            "chapter": 16,
            "verse": 20,
            "name": "Job 16:20",
            "text": "E tawai mai ana oku hoa ki ahau, maturuturu tonu ia nga roimata o toku kanohi ki te Atua."
        },
        {
            "chapter": 16,
            "verse": 21,
            "name": "Job 16:21",
            "text": "Kia tohe koa ia i to te tangata tika ki te Atua, i to te tama hoki a te tangata ki tona hoa!"
        },
        {
            "chapter": 16,
            "verse": 22,
            "name": "Job 16:22",
            "text": "Kia taka mai hoki nga tau torutoru nei, ka haere ahau i te ara e kore ai ahau e hoki mai ano."
        }
    ]
}