{
    "translation": "King James Version (1769) including Apocrypha, with Strongs Numbers and Morphology",
    "abbreviation": "kjva",
    "lang": "en",
    "language": "English",
    "direction": "LTR",
    "encoding": "UTF-8",
    "book_nr": 5,
    "book_name": "Deuteronomy",
    "chapter": 32,
    "name": "Deuteronomy 32",
    "verses": [
        {
            "chapter": 32,
            "verse": 1,
            "name": "Deuteronomy 32:1",
            "text": "Give ear, O ye heavens, and I will speak; and hear, O earth, the words of my mouth."
        },
        {
            "chapter": 32,
            "verse": 2,
            "name": "Deuteronomy 32:2",
            "text": "My doctrine shall drop as the rain, my speech shall distil as the dew, as the small rain upon the tender herb, and as the showers upon the grass:"
        },
        {
            "chapter": 32,
            "verse": 3,
            "name": "Deuteronomy 32:3",
            "text": "Because I will publish the name of the Lord: ascribe ye greatness unto our God."
        },
        {
            "chapter": 32,
            "verse": 4,
            "name": "Deuteronomy 32:4",
            "text": "He is the Rock, his work is perfect: for all his ways are judgment: a God of truth and without iniquity, just and right is he."
        },
        {
            "chapter": 32,
            "verse": 5,
            "name": "Deuteronomy 32:5",
            "text": "They have corrupted themselves, their spot is not the spot of his children: they are a perverse and crooked generation."
        },
        {
            "chapter": 32,
            "verse": 6,
            "name": "Deuteronomy 32:6",
            "text": "Do ye thus requite the Lord, O foolish people and unwise? is not he thy father that hath bought thee? hath he not made thee, and established thee?"
        },
        {
            "chapter": 32,
            "verse": 7,
            "name": "Deuteronomy 32:7",
            "text": "Remember the days of old, consider the years of many generations: ask thy father, and he will shew thee; thy elders, and they will tell thee."
        },
        {
            "chapter": 32,
            "verse": 8,
            "name": "Deuteronomy 32:8",
            "text": "When the most High divided to the nations their inheritance, when he separated the sons of Adam, he set the bounds of the people according to the number of the children of Israel."
        },
        {
            "chapter": 32,
            "verse": 9,
            "name": "Deuteronomy 32:9",
            "text": "For the Lord's portion is his people; Jacob is the lot of his inheritance."
        },
        {
            "chapter": 32,
            "verse": 10,
            "name": "Deuteronomy 32:10",
            "text": "He found him in a desert land, and in the waste howling wilderness; he led him about, he instructed him, he kept him as the apple of his eye."
        },
        {
            "chapter": 32,
            "verse": 11,
            "name": "Deuteronomy 32:11",
            "text": "As an eagle stirreth up her nest, fluttereth over her young, spreadeth abroad her wings, taketh them, beareth them on her wings:"
        },
        {
            "chapter": 32,
            "verse": 12,
            "name": "Deuteronomy 32:12",
            "text": "So the Lord alone did lead him, and there was no strange god with him."
        },
        {
            "chapter": 32,
            "verse": 13,
            "name": "Deuteronomy 32:13",
            "text": "He made him ride on the high places of the earth, that he might eat the increase of the fields; and he made him to suck honey out of the rock, and oil out of the flinty rock;"
        },
        {
            "chapter": 32,
            "verse": 14,
            "name": "Deuteronomy 32:14",
            "text": "Butter of kine, and milk of sheep, with fat of lambs, and rams of the breed of Bashan, and goats, with the fat of kidneys of wheat; and thou didst drink the pure blood of the grape."
        },
        {
            "chapter": 32,
            "verse": 15,
            "name": "Deuteronomy 32:15",
            "text": "But Jeshurun waxed fat, and kicked: thou art waxen fat, thou art grown thick, thou art covered with fatness; then he forsook God which made him, and lightly esteemed the Rock of his salvation."
        },
        {
            "chapter": 32,
            "verse": 16,
            "name": "Deuteronomy 32:16",
            "text": "They provoked him to jealousy with strange gods, with abominations provoked they him to anger."
        },
        {
            "chapter": 32,
            "verse": 17,
            "name": "Deuteronomy 32:17",
            "text": "They sacrificed unto devils, not to God; to gods whom they knew not, to new gods that came newly up, whom your fathers feared not."
        },
        {
            "chapter": 32,
            "verse": 18,
            "name": "Deuteronomy 32:18",
            "text": "Of the Rock that begat thee thou art unmindful, and hast forgotten God that formed thee."
        },
        {
            "chapter": 32,
            "verse": 19,
            "name": "Deuteronomy 32:19",
            "text": "And when the Lord saw it, he abhorred them, because of the provoking of his sons, and of his daughters."
        },
        {
            "chapter": 32,
            "verse": 20,
            "name": "Deuteronomy 32:20",
            "text": "And he said, I will hide my face from them, I will see what their end shall be: for they are a very froward generation, children in whom is no faith."
        },
        {
            "chapter": 32,
            "verse": 21,
            "name": "Deuteronomy 32:21",
            "text": "They have moved me to jealousy with that which is not God; they have provoked me to anger with their vanities: and I will move them to jealousy with those which are not a people; I will provoke them to anger with a foolish nation."
        },
        {
            "chapter": 32,
            "verse": 22,
            "name": "Deuteronomy 32:22",
            "text": "For a fire is kindled in mine anger, and shall burn unto the lowest hell, and shall consume the earth with her increase, and set on fire the foundations of the mountains."
        },
        {
            "chapter": 32,
            "verse": 23,
            "name": "Deuteronomy 32:23",
            "text": "I will heap mischiefs upon them; I will spend mine arrows upon them."
        },
        {
            "chapter": 32,
            "verse": 24,
            "name": "Deuteronomy 32:24",
            "text": "They shall be burnt with hunger, and devoured with burning heat, and with bitter destruction: I will also send the teeth of beasts upon them, with the poison of serpents of the dust."
        },
        {
            "chapter": 32,
            "verse": 25,
            "name": "Deuteronomy 32:25",
            "text": "The sword without, and terror within, shall destroy both the young man and the virgin, the suckling also with the man of gray hairs."
        },
        {
            "chapter": 32,
            "verse": 26,
            "name": "Deuteronomy 32:26",
            "text": "I said, I would scatter them into corners, I would make the remembrance of them to cease from among men:"
        },
        {
            "chapter": 32,
            "verse": 27,
            "name": "Deuteronomy 32:27",
            "text": "Were it not that I feared the wrath of the enemy, lest their adversaries should behave themselves strangely, and lest they should say, Our hand is high, and the Lord hath not done all this."
        },
        {
            "chapter": 32,
            "verse": 28,
            "name": "Deuteronomy 32:28",
            "text": "For they are a nation void of counsel, neither is there any understanding in them."
        },
        {
            "chapter": 32,
            "verse": 29,
            "name": "Deuteronomy 32:29",
            "text": "O that they were wise, that they understood this, that they would consider their latter end!"
        },
        {
            "chapter": 32,
            "verse": 30,
            "name": "Deuteronomy 32:30",
            "text": "How should one chase a thousand, and two put ten thousand to flight, except their Rock had sold them, and the Lord had shut them up?"
        },
        {
            "chapter": 32,
            "verse": 31,
            "name": "Deuteronomy 32:31",
            "text": "For their rock is not as our Rock, even our enemies themselves being judges."
        },
        {
            "chapter": 32,
            "verse": 32,
            "name": "Deuteronomy 32:32",
            "text": "For their vine is of the vine of Sodom, and of the fields of Gomorrah: their grapes are grapes of gall, their clusters are bitter:"
        },
        {
            "chapter": 32,
            "verse": 33,
            "name": "Deuteronomy 32:33",
            "text": "Their wine is the poison of dragons, and the cruel venom of asps."
        },
        {
            "chapter": 32,
            "verse": 34,
            "name": "Deuteronomy 32:34",
            "text": "Is not this laid up in store with me, and sealed up among my treasures?"
        },
        {
            "chapter": 32,
            "verse": 35,
            "name": "Deuteronomy 32:35",
            "text": "To me belongeth vengeance, and recompence; their foot shall slide in due time: for the day of their calamity is at hand, and the things that shall come upon them make haste."
        },
        {
            "chapter": 32,
            "verse": 36,
            "name": "Deuteronomy 32:36",
            "text": "For the Lord shall judge his people, and repent himself for his servants, when he seeth that their power is gone, and there is none shut up, or left."
        },
        {
            "chapter": 32,
            "verse": 37,
            "name": "Deuteronomy 32:37",
            "text": "And he shall say, Where are their gods, their rock in whom they trusted,"
        },
        {
            "chapter": 32,
            "verse": 38,
            "name": "Deuteronomy 32:38",
            "text": "Which did eat the fat of their sacrifices, and drank the wine of their drink offerings? let them rise up and help you, and be your protection."
        },
        {
            "chapter": 32,
            "verse": 39,
            "name": "Deuteronomy 32:39",
            "text": "See now that I, even I, am he, and there is no god with me: I kill, and I make alive; I wound, and I heal: neither is there any that can deliver out of my hand."
        },
        {
            "chapter": 32,
            "verse": 40,
            "name": "Deuteronomy 32:40",
            "text": "For I lift up my hand to heaven, and say, I live for ever."
        },
        {
            "chapter": 32,
            "verse": 41,
            "name": "Deuteronomy 32:41",
            "text": "If I whet my glittering sword, and mine hand take hold on judgment; I will render vengeance to mine enemies, and will reward them that hate me."
        },
        {
            "chapter": 32,
            "verse": 42,
            "name": "Deuteronomy 32:42",
            "text": "I will make mine arrows drunk with blood, and my sword shall devour flesh; and that with the blood of the slain and of the captives, from the beginning of revenges upon the enemy."
        },
        {
            "chapter": 32,
            "verse": 43,
            "name": "Deuteronomy 32:43",
            "text": "Rejoice, O ye nations, with his people: for he will avenge the blood of his servants, and will render vengeance to his adversaries, and will be merciful unto his land, and to his people."
        },
        {
            "chapter": 32,
            "verse": 44,
            "name": "Deuteronomy 32:44",
            "text": "And Moses came and spake all the words of this song in the ears of the people, he, and Hoshea the son of Nun."
        },
        {
            "chapter": 32,
            "verse": 45,
            "name": "Deuteronomy 32:45",
            "text": "And Moses made an end of speaking all these words to all Israel:"
        },
        {
            "chapter": 32,
            "verse": 46,
            "name": "Deuteronomy 32:46",
            "text": "And he said unto them, Set your hearts unto all the words which I testify among you this day, which ye shall command your children to observe to do, all the words of this law."
        },
        {
            "chapter": 32,
            "verse": 47,
            "name": "Deuteronomy 32:47",
            "text": "For it is not a vain thing for you; because it is your life: and through this thing ye shall prolong your days in the land, whither ye go over Jordan to possess it."
        },
        {
            "chapter": 32,
            "verse": 48,
            "name": "Deuteronomy 32:48",
            "text": "And the Lord spake unto Moses that selfsame day, saying,"
        },
        {
            "chapter": 32,
            "verse": 49,
            "name": "Deuteronomy 32:49",
            "text": "Get thee up into this mountain Abarim, unto mount Nebo, which is in the land of Moab, that is over against Jericho; and behold the land of Canaan, which I give unto the children of Israel for a possession:"
        },
        {
            "chapter": 32,
            "verse": 50,
            "name": "Deuteronomy 32:50",
            "text": "And die in the mount whither thou goest up, and be gathered unto thy people; as Aaron thy brother died in mount Hor, and was gathered unto his people:"
        },
        {
            "chapter": 32,
            "verse": 51,
            "name": "Deuteronomy 32:51",
            "text": "Because ye trespassed against me among the children of Israel at the waters of Meribah\u2013Kadesh, in the wilderness of Zin; because ye sanctified me not in the midst of the children of Israel."
        },
        {
            "chapter": 32,
            "verse": 52,
            "name": "Deuteronomy 32:52",
            "text": "Yet thou shalt see the land before thee; but thou shalt not go thither unto the land which I give the children of Israel. "
        }
    ]
}