{
    "translation": "\u041a\u0438\u0435\u043b\u0456 \u043a\u0456\u0442\u0430\u043f",
    "abbreviation": "kaz",
    "lang": "kk",
    "language": "Kazakh",
    "direction": "RTL",
    "encoding": "UTF-8",
    "book_nr": 12,
    "book_name": "2 Kings",
    "chapter": 15,
    "name": "2 Kings 15",
    "verses": [
        {
            "chapter": 15,
            "verse": 1,
            "name": "2 Kings 15:1",
            "text": "\u0421\u043e\u043b\u0442\u04af\u0441\u0442\u0456\u043a \u0418\u0441\u0440\u0430\u0438\u043b\u0433\u0435 \u0416\u043e\u0493\u0430\u0441 \u04b1\u043b\u044b \u0415\u0440\u043e\u0431\u043e\u0493\u0430\u043c\u043d\u044b\u04a3 \u043f\u0430\u0442\u0448\u0430\u043b\u044b\u049b \u049b\u04b1\u0440\u0493\u0430\u043d \u0436\u0438\u044b\u0440\u043c\u0430 \u0436\u0435\u0442\u0456\u043d\u0448\u0456 \u0436\u044b\u043b\u044b \u0410\u043c\u0430\u0441\u0438\u044f\u0445 \u04b1\u043b\u044b \u04b0\u0437\u0438\u044f\u0445 \u042f\u04bb\u0443\u0434\u0430 \u0435\u043b\u0456\u043d\u0456\u04a3 \u043f\u0430\u0442\u0448\u0430\u0441\u044b \u0431\u043e\u043b\u0434\u044b."
        },
        {
            "chapter": 15,
            "verse": 2,
            "name": "2 Kings 15:2",
            "text": "\u0421\u043e\u043b \u043a\u0435\u0437\u0434\u0435 \u04b0\u0437\u0438\u044f\u0445\u0442\u044b\u04a3 \u0436\u0430\u0441\u044b \u043e\u043d \u0430\u043b\u0442\u044b\u0434\u0430 \u0435\u0434\u0456. \u041e\u043b \u0418\u0435\u0440\u0443\u0441\u0430\u043b\u0438\u043c\u0434\u0435 \u0435\u043b\u0443 \u0435\u043a\u0456 \u0436\u044b\u043b \u0431\u0438\u043b\u0456\u043a \u0436\u04af\u0440\u0433\u0456\u0437\u0434\u0456. \u041e\u043d\u044b\u04a3 \u0448\u0435\u0448\u0435\u0441\u0456\u043d\u0456\u04a3 \u0430\u0442\u044b-\u0436\u04e9\u043d\u0456 \u0438\u0435\u0440\u0443\u0441\u0430\u043b\u0438\u043c\u0434\u0456\u043a \u0415\u0445\u043e\u043b\u0438\u044f \u0431\u043e\u043b\u0430\u0442\u044b\u043d."
        },
        {
            "chapter": 15,
            "verse": 3,
            "name": "2 Kings 15:3",
            "text": "\u04d8\u043a\u0435\u0441\u0456 \u0410\u043c\u0430\u0441\u0438\u044f\u0445 (\u0430\u043b\u0493\u0430\u0448\u049b\u044b\u0434\u0430) \u0456\u0441\u0442\u0435\u0433\u0435\u043d\u0434\u0435\u0439, \u04b0\u0437\u0438\u044f\u0445 \u0442\u0430 \u0416\u0430\u0440\u0430\u0442\u049b\u0430\u043d \u0418\u0435\u0433\u0435 \u04b1\u043d\u0430\u043c\u0434\u044b \u04d9\u0434\u0456\u043b \u0456\u0441\u0442\u0435\u0440 \u0456\u0441\u0442\u0435\u0434\u0456."
        },
        {
            "chapter": 15,
            "verse": 4,
            "name": "2 Kings 15:4",
            "text": "\u0414\u0435\u0433\u0435\u043d\u043c\u0435\u043d \u0431\u0438\u0456\u043a\u0442\u0435\u0443 \u0436\u0435\u0440\u043b\u0435\u0440\u0434\u0435\u0433\u0456 \u0442\u0430\u0431\u044b\u043d\u0443 \u043e\u0440\u044b\u043d\u0434\u0430\u0440\u044b \u049b\u0438\u0440\u0430\u0442\u044b\u043b\u044b\u043f \u0442\u0430\u0441\u0442\u0430\u043b\u043c\u0430\u0434\u044b. \u0425\u0430\u043b\u044b\u049b \u0431\u04b1\u0440\u044b\u043d\u0493\u044b\u0434\u0430\u0439 \u0441\u043e\u043b \u0436\u0435\u0440\u043b\u0435\u0440\u0434\u0435 \u0445\u043e\u0448 \u0438\u0456\u0441\u0442\u0456 \u0437\u0430\u0442\u0442\u0430\u0440\u0434\u044b \u0442\u04af\u0442\u0435\u0442\u0456\u043f \u04b1\u0441\u044b\u043d\u0443\u043b\u0430\u0440\u044b\u043d \u0436\u0430\u043b\u0493\u0430\u0441\u0442\u044b\u0440\u0430 \u0431\u0435\u0440\u0434\u0456."
        },
        {
            "chapter": 15,
            "verse": 5,
            "name": "2 Kings 15:5",
            "text": "\u041a\u0435\u0439\u0456\u043d\u0456\u0440\u0435\u043a \u0416\u0430\u0440\u0430\u0442\u049b\u0430\u043d \u0418\u0435 \u04b0\u0437\u0438\u044f\u0445\u0442\u044b (\u0435\u0440\u043a\u0456\u043d\u0441\u0456\u043f \u0436\u0430\u0441\u0430\u0493\u0430\u043d \u043a\u04af\u043d\u04d9\u0441\u0456 \u04af\u0448\u0456\u043d) \u0436\u0430\u0437\u0430\u043b\u0430\u043f \u0430\u043b\u0430\u043f\u0435\u0441 \u0430\u0443\u0440\u0443\u044b\u043d \u0436\u0456\u0431\u0435\u0440\u0434\u0456. \u04b0\u0437\u0438\u044f\u0445 \u04e9\u043c\u0456\u0440\u0456\u043d\u0456\u04a3 \u0441\u043e\u04a3\u044b\u043d\u0430 \u0434\u0435\u0439\u0456\u043d \u0430\u043b\u0430\u043f\u0435\u0441 \u0431\u043e\u043b\u044b\u043f \u0430\u0443\u044b\u0440\u0493\u0430\u043d \u043a\u04af\u0439\u0456 \u049b\u0430\u043b\u0430 \u0431\u0435\u0440\u0456\u043f, \u0436\u0435\u043a\u0435 \u04af\u0439\u0434\u0435 \u0442\u04b1\u0440\u0434\u044b. \u041f\u0430\u0442\u0448\u0430\u043d\u044b\u04a3 \u04b1\u043b\u044b \u0416\u043e\u0442\u0430\u043c \u0441\u0430\u0440\u0430\u0439\u0434\u0430\u0493\u044b \u0456\u0441\u0442\u0435\u0440\u0434\u0456 \u0431\u0430\u0441\u049b\u0430\u0440\u044b\u043f, \u0435\u043b\u0434\u0456\u04a3 \u0445\u0430\u043b\u049b\u044b\u043d\u0430 \u0431\u0438\u043b\u0456\u043a \u0436\u04af\u0440\u0433\u0456\u0437\u0434\u0456."
        },
        {
            "chapter": 15,
            "verse": 6,
            "name": "2 Kings 15:6",
            "text": "\u04b0\u0437\u0438\u044f\u0445\u0442\u044b\u04a3 \u049b\u0430\u043b\u0493\u0430\u043d \u0431\u0430\u0440\u043b\u044b\u049b \u0456\u0441-\u04d9\u0440\u0435\u043a\u0435\u0442\u0442\u0435\u0440\u0456 \u0442\u0443\u0440\u0430\u043b\u044b \u00ab\u042f\u04bb\u0443\u0434\u0430 \u043f\u0430\u0442\u0448\u0430\u043b\u0430\u0440\u044b\u043d\u044b\u04a3 \u0436\u044b\u043b\u043d\u0430\u043c\u0430\u043b\u0430\u0440\u044b\u00bb \u043a\u0456\u0442\u0430\u0431\u044b\u043d\u0434\u0430 \u0431\u0430\u044f\u043d\u0434\u0430\u043b\u0493\u0430\u043d."
        },
        {
            "chapter": 15,
            "verse": 7,
            "name": "2 Kings 15:7",
            "text": "\u04b0\u0437\u0438\u044f\u0445 \u043a\u04e9\u0437 \u0436\u04b1\u043c\u044b\u043f, \u0430\u0442\u0430-\u0431\u0430\u0431\u0430\u043b\u0430\u0440\u044b\u043d\u044b\u04a3 \u049b\u0430\u0441\u044b\u043d\u0430 \u0436\u04e9\u043d\u0435\u043b\u0433\u0435\u043d\u0434\u0435, \u043c\u04d9\u0439\u0456\u0442\u0456 \u0414\u04d9\u0443\u0456\u0442\u0442\u0456\u04a3 \u0448\u0430\u04bb\u0430\u0440\u044b\u043d\u0434\u0430\u0493\u044b \u0441\u043e\u043b\u0430\u0440\u0493\u0430 \u0436\u0430\u049b\u044b\u043d \u049b\u0430\u0431\u0456\u0440\u0433\u0435 \u049b\u043e\u0439\u044b\u043b\u0434\u044b. \u041e\u043d\u044b\u04a3 \u04b1\u043b\u044b \u0416\u043e\u0442\u0430\u043c \u043e\u0440\u043d\u044b\u043d \u0431\u0430\u0441\u044b\u043f \u043f\u0430\u0442\u0448\u0430 \u0431\u043e\u043b\u0434\u044b."
        },
        {
            "chapter": 15,
            "verse": 8,
            "name": "2 Kings 15:8",
            "text": "\u042f\u04bb\u0443\u0434\u0430 \u0435\u043b\u0456\u043d\u0435 \u04b0\u0437\u0438\u044f\u0445 \u043f\u0430\u0442\u0448\u0430\u043b\u044b\u049b \u049b\u04b1\u0440\u0493\u0430\u043d \u043e\u0442\u044b\u0437 \u0441\u0435\u0433\u0456\u0437\u0456\u043d\u0448\u0456 \u0436\u044b\u043b\u044b \u0415\u0440\u043e\u0431\u043e\u0493\u0430\u043c \u04b1\u043b\u044b \u0417\u04d9\u043a\u04d9\u0440\u0438\u044f\u0445 \u0421\u0430\u043c\u0430\u0440\u0438\u044f \u049b\u0430\u043b\u0430\u0441\u044b\u043d\u0434\u0430 \u0421\u043e\u043b\u0442\u04af\u0441\u0442\u0456\u043a \u0418\u0441\u0440\u0430\u0438\u043b\u0434\u0456\u04a3 \u04af\u0441\u0442\u0456\u043d\u0435\u043d \u043f\u0430\u0442\u0448\u0430 \u0431\u043e\u043b\u0434\u044b. \u041e\u043b \u0430\u043b\u0442\u044b \u0430\u0439 \u0431\u0438\u043b\u0456\u043a \u0436\u04af\u0440\u0433\u0456\u0437\u0434\u0456."
        },
        {
            "chapter": 15,
            "verse": 9,
            "name": "2 Kings 15:9",
            "text": "\u0417\u04d9\u043a\u04d9\u0440\u0438\u044f\u0445 \u04e9\u0437\u0456\u043d\u0456\u04a3 \u0430\u0442\u0430-\u0431\u0430\u0431\u0430\u043b\u0430\u0440\u044b \u0441\u0438\u044f\u049b\u0442\u044b \u0416\u0430\u0440\u0430\u0442\u049b\u0430\u043d \u0418\u0435\u0433\u0435 \u0436\u0435\u043a \u043a\u04e9\u0440\u0456\u043d\u0456\u0448\u0442\u0456 \u0456\u0441\u0442\u0435\u0440 \u0456\u0441\u0442\u0435\u043f, \u0435\u0436\u0435\u043b\u0434\u0435 \u041d\u0430\u0431\u0430\u0442 \u04b1\u043b\u044b \u0415\u0440\u043e\u0431\u043e\u0493\u0430\u043c\u043d\u044b\u04a3 \u0421\u043e\u043b\u0442\u04af\u0441\u0442\u0456\u043a \u0418\u0441\u0440\u0430\u0438\u043b\u0434\u0456\u04a3 \u0445\u0430\u043b\u049b\u044b\u043d \u0430\u0437\u0493\u044b\u0440\u0493\u0430\u043d \u043a\u04af\u043d\u04d9\u043b\u0430\u0440\u044b\u043d\u0430\u043d \u0431\u0430\u0441 \u0442\u0430\u0440\u0442\u043f\u0430\u0434\u044b."
        },
        {
            "chapter": 15,
            "verse": 10,
            "name": "2 Kings 15:10",
            "text": "\u042f\u0431\u0435\u0441 \u04b1\u043b\u044b \u0428\u0430\u043b\u043b\u0443\u043c \u0417\u04d9\u043a\u04d9\u0440\u0438\u044f\u0445\u049b\u0430 \u049b\u0430\u0440\u0441\u044b \u0430\u0441\u0442\u044b\u0440\u0442\u044b\u043d \u0441\u04e9\u0437 \u0431\u0430\u0439\u043b\u0430\u0441\u044b\u043f, \u043e\u043d\u044b \u0445\u0430\u043b\u044b\u049b\u0442\u044b\u04a3 \u043a\u04e9\u0437 \u0430\u043b\u0434\u044b\u043d\u0434\u0430 \u04e9\u043b\u0442\u0456\u0440\u0456\u043f, \u043e\u043d\u044b\u04a3 \u043e\u0440\u043d\u044b\u043d\u0430 \u04e9\u0437\u0456 \u043f\u0430\u0442\u0448\u0430 \u0431\u043e\u043b\u044b\u043f \u0430\u043b\u0434\u044b."
        },
        {
            "chapter": 15,
            "verse": 11,
            "name": "2 Kings 15:11",
            "text": "\u0417\u04d9\u043a\u04d9\u0440\u0438\u044f\u0445\u0442\u044b\u04a3 \u049b\u0430\u043b\u0493\u0430\u043d \u0456\u0441-\u04d9\u0440\u0435\u043a\u0435\u0442\u0442\u0435\u0440\u0456 \u0442\u0443\u0440\u0430\u043b\u044b \u00ab\u0418\u0441\u0440\u0430\u0438\u043b \u043f\u0430\u0442\u0448\u0430\u043b\u0430\u0440\u044b\u043d\u044b\u04a3 \u0436\u044b\u043b\u043d\u0430\u043c\u0430\u043b\u0430\u0440\u044b\u00bb \u043a\u0456\u0442\u0430\u0431\u044b\u043d\u0434\u0430 \u0431\u0430\u044f\u043d\u0434\u0430\u043b\u0493\u0430\u043d."
        },
        {
            "chapter": 15,
            "verse": 12,
            "name": "2 Kings 15:12",
            "text": "\u0421\u043e\u043d\u044b\u043c\u0435\u043d \u0416\u0430\u0440\u0430\u0442\u049b\u0430\u043d \u0418\u0435\u043d\u0456\u04a3 \u0415\u0445\u0443\u0433\u0435 \u0430\u0439\u0442\u049b\u0430\u043d \u043c\u044b\u043d\u0430 \u0441\u04e9\u0437\u0456 \u0436\u04af\u0437\u0435\u0433\u0435 \u0430\u0441\u049b\u0430\u043d \u0435\u0434\u0456: \u00ab\u04e8\u0437\u0456\u04a3\u043d\u0435\u043d \u043a\u0435\u0439\u0456\u043d\u0433\u0456 \u0442\u04e9\u0440\u0442 \u04b1\u0440\u043f\u0430\u0493\u044b\u04a3 (\u0421\u043e\u043b\u0442\u04af\u0441\u0442\u0456\u043a) \u0418\u0441\u0440\u0430\u0438\u043b\u0434\u0435 \u043f\u0430\u0442\u0448\u0430\u043b\u044b\u049b \u049b\u04b1\u0440\u0430\u0442\u044b\u043d \u0431\u043e\u043b\u0430\u0434\u044b!\u00bb"
        },
        {
            "chapter": 15,
            "verse": 13,
            "name": "2 Kings 15:13",
            "text": "\u042f\u04bb\u0443\u0434\u0430 \u0435\u043b\u0456\u043d\u0435 \u04b0\u0437\u0438\u044f\u0445 \u043f\u0430\u0442\u0448\u0430\u043b\u044b\u049b \u049b\u04b1\u0440\u0493\u0430\u043d \u043e\u0442\u044b\u0437 \u0442\u043e\u0493\u044b\u0437\u044b\u043d\u0448\u044b \u0436\u044b\u043b\u044b \u042f\u0431\u0435\u0441 \u04b1\u043b\u044b \u0428\u0430\u043b\u043b\u0443\u043c \u0421\u043e\u043b\u0442\u04af\u0441\u0442\u0456\u043a \u0418\u0441\u0440\u0430\u0438\u043b\u0434\u0435 \u043f\u0430\u0442\u0448\u0430 \u0431\u043e\u043b\u0434\u044b. \u041e\u043b \u0421\u0430\u043c\u0430\u0440\u0438\u044f \u049b\u0430\u043b\u0430\u0441\u044b\u043d\u0434\u0430 \u0431\u0456\u0440-\u0430\u049b \u0430\u0439 \u0431\u0438\u043b\u0456\u043a \u0436\u04af\u0440\u0433\u0456\u0437\u0434\u0456."
        },
        {
            "chapter": 15,
            "verse": 14,
            "name": "2 Kings 15:14",
            "text": "\u0421\u0435\u0431\u0435\u0431\u0456 \u0492\u0430\u0434\u0438 \u04b1\u043b\u044b \u041c\u0435\u043d\u0430\u0445\u0438\u043c \u0422\u0438\u0440\u0441\u0430 \u049b\u0430\u043b\u0430\u0441\u044b\u043d\u0430\u043d \u0421\u0430\u043c\u0430\u0440\u0438\u044f\u0493\u0430 \u04e9\u0440\u043b\u0435\u043f \u0431\u0430\u0440\u044b\u043f, \u0441\u043e\u043b \u049b\u0430\u043b\u0430\u0434\u0430 \u042f\u0431\u0435\u0441 \u04b1\u043b\u044b \u0428\u0430\u043b\u043b\u0443\u043c\u0434\u044b \u049b\u0430\u0441\u0442\u0430\u043d\u0434\u044b\u049b\u043f\u0435\u043d \u04e9\u043b\u0442\u0456\u0440\u0456\u043f, \u043e\u043d\u044b\u04a3 \u043e\u0440\u043d\u044b\u043d\u0430 \u04e9\u0437\u0456 \u043f\u0430\u0442\u0448\u0430 \u0431\u043e\u043b\u044b\u043f \u0430\u043b\u0434\u044b."
        },
        {
            "chapter": 15,
            "verse": 15,
            "name": "2 Kings 15:15",
            "text": "\u0428\u0430\u043b\u043b\u0443\u043c\u043d\u044b\u04a3 \u049b\u0430\u043b\u0493\u0430\u043d \u0456\u0441-\u04d9\u0440\u0435\u043a\u0435\u0442\u0442\u0435\u0440\u0456 \u0436\u04d9\u043d\u0435 \u043e\u043d\u044b\u04a3 \u0436\u0430\u0441\u0430\u0493\u0430\u043d \u049b\u0430\u0441\u0442\u0430\u043d\u0434\u044b\u0493\u044b \u0442\u0443\u0440\u0430\u043b\u044b \u00ab\u0418\u0441\u0440\u0430\u0438\u043b \u043f\u0430\u0442\u0448\u0430\u043b\u0430\u0440\u044b\u043d\u044b\u04a3 \u0436\u044b\u043b\u043d\u0430\u043c\u0430\u043b\u0430\u0440\u044b\u00bb \u043a\u0456\u0442\u0430\u0431\u044b\u043d\u0434\u0430 \u0431\u0430\u044f\u043d\u0434\u0430\u043b\u0493\u0430\u043d."
        },
        {
            "chapter": 15,
            "verse": 16,
            "name": "2 Kings 15:16",
            "text": "\u0411\u04b1\u0434\u0430\u043d \u043a\u0435\u0439\u0456\u043d \u041c\u0435\u043d\u0430\u0445\u0438\u043c \u0422\u0438\u0440\u0441\u0430\u0434\u0430\u043d \u0430\u0442\u0442\u0430\u043d\u044b\u043f, \u0422\u0438\u043f\u0441\u0430\u0445 \u049b\u0430\u043b\u0430\u0441\u044b \u043c\u0435\u043d \u043e\u043d\u044b\u04a3 \u043c\u0430\u04a3\u0430\u0439\u044b\u043d\u0434\u0430\u0493\u044b \u0431\u0430\u0440\u043b\u044b\u049b \u0445\u0430\u043b\u044b\u049b\u049b\u0430 \u0442\u0430\u043f \u0431\u0435\u0440\u0434\u0456. \u0421\u0435\u0431\u0435\u0431\u0456 \u043e\u043b\u0430\u0440 \u043e\u0493\u0430\u043d \u049b\u0430\u043b\u0430 \u049b\u0430\u049b\u043f\u0430\u043b\u0430\u0440\u044b\u043d \u0430\u0448\u0443\u0434\u0430\u043d \u0431\u0430\u0441 \u0442\u0430\u0440\u0442\u049b\u0430\u043d \u0431\u043e\u043b\u0430\u0442\u044b\u043d. \u041c\u0435\u043d\u0430\u0445\u0438\u043c \u043e\u043b\u0430\u0440\u0434\u044b\u04a3 \u043a\u04e9\u0437\u0434\u0435\u0440\u0456\u043d \u049b\u04b1\u0440\u0442\u044b\u043f, \u0442\u0456\u043f\u0442\u0456 \u0436\u04af\u043a\u0442\u0456 \u04d9\u0439\u0435\u043b\u0434\u0435\u0440\u0456\u043d\u0456\u04a3 \u0456\u0448\u0442\u0435\u0440\u0456\u043d \u0436\u0430\u0440\u044b\u043f \u04e9\u043b\u0442\u0456\u0440\u0434\u0456."
        },
        {
            "chapter": 15,
            "verse": 17,
            "name": "2 Kings 15:17",
            "text": "\u042f\u04bb\u0443\u0434\u0430 \u0435\u043b\u0456\u043d\u0435 \u04b0\u0437\u0438\u044f\u0445 \u043f\u0430\u0442\u0448\u0430\u043b\u044b\u049b \u049b\u04b1\u0440\u0493\u0430\u043d \u043e\u0442\u044b\u0437 \u0442\u043e\u0493\u044b\u0437\u044b\u043d\u0448\u044b \u0436\u044b\u043b\u044b \u0492\u0430\u0434\u0438 \u04b1\u043b\u044b \u041c\u0435\u043d\u0430\u0445\u0438\u043c \u0421\u043e\u043b\u0442\u04af\u0441\u0442\u0456\u043a \u0418\u0441\u0440\u0430\u0438\u043b\u0434\u0456\u04a3 \u043f\u0430\u0442\u0448\u0430\u0441\u044b \u0431\u043e\u043b\u0434\u044b. \u041e\u043b \u0421\u0430\u043c\u0430\u0440\u0438\u044f\u0434\u0430 \u043e\u043d \u0436\u044b\u043b \u0431\u0438\u043b\u0456\u043a \u0436\u04af\u0440\u0433\u0456\u0437\u0434\u0456."
        },
        {
            "chapter": 15,
            "verse": 18,
            "name": "2 Kings 15:18",
            "text": "\u041c\u0435\u043d\u0430\u0445\u0438\u043c \u0416\u0430\u0440\u0430\u0442\u049b\u0430\u043d \u0418\u0435\u0433\u0435 \u0436\u0435\u043a \u043a\u04e9\u0440\u0456\u043d\u0456\u0448\u0442\u0456 \u0456\u0441\u0442\u0435\u0440 \u0456\u0441\u0442\u0435\u043f, \u0435\u0436\u0435\u043b\u0434\u0435 \u041d\u0430\u0431\u0430\u0442 \u04b1\u043b\u044b \u0415\u0440\u043e\u0431\u043e\u0493\u0430\u043c\u043d\u044b\u04a3 \u0421\u043e\u043b\u0442\u04af\u0441\u0442\u0456\u043a \u0418\u0441\u0440\u0430\u0438\u043b\u0434\u0456\u04a3 \u0445\u0430\u043b\u049b\u044b\u043d \u0430\u0437\u0493\u044b\u0440\u0493\u0430\u043d \u043a\u04af\u043d\u04d9\u043b\u0430\u0440\u044b\u043d\u0430\u043d \u04e9\u043c\u0456\u0440\u0456\u043d\u0456\u04a3 \u0441\u043e\u04a3\u044b\u043d\u0430 \u0434\u0435\u0439\u0456\u043d \u0431\u0430\u0441 \u0442\u0430\u0440\u0442\u043f\u0430\u0434\u044b."
        },
        {
            "chapter": 15,
            "verse": 19,
            "name": "2 Kings 15:19",
            "text": "\u041c\u0435\u043d\u0430\u0445\u0438\u043c\u043d\u0456\u04a3 \u0437\u0430\u043c\u0430\u043d\u044b\u043d\u0434\u0430 \u0410\u0441\u0441\u0443\u0440 \u043f\u0430\u0442\u0448\u0430\u0441\u044b \u0422\u044b\u0493\u044b\u043b\u0430\u0442-\u041f\u0435\u043b\u04d9\u0441\u0435\u0440 \u0421\u043e\u043b\u0442\u04af\u0441\u0442\u0456\u043a \u0418\u0441\u0440\u0430\u0438\u043b\u0433\u0435 \u049b\u0430\u0440\u0441\u044b \u0430\u0442\u0442\u0430\u043d\u0434\u044b. \u041c\u0435\u043d\u0430\u0445\u0438\u043c \u043e\u043d\u044b\u04a3 \u049b\u043e\u043b\u0434\u0430\u0443\u044b\u043d\u0430 \u0438\u0435 \u0431\u043e\u043b\u044b\u043f, \u04e9\u0437\u0456\u043d\u0456\u04a3 \u0435\u043b\u0434\u0435\u0433\u0456 \u0431\u0438\u043b\u0456\u0433\u0456\u043d \u043a\u04af\u0448\u0435\u0439\u0442\u0443 \u04af\u0448\u0456\u043d \u0410\u0441\u0441\u0443\u0440 \u043f\u0430\u0442\u0448\u0430\u0441\u044b\u043d\u0430 \u043c\u044b\u04a3 \u0430\u0442 \u0431\u0430\u0441\u044b\u043d\u0434\u0430\u0439 \u043a\u04af\u043c\u0456\u0441 \u0442\u04e9\u043b\u0435\u0434\u0456."
        },
        {
            "chapter": 15,
            "verse": 20,
            "name": "2 Kings 15:20",
            "text": "\u041c\u0435\u043d\u0430\u0445\u0438\u043c \u043e\u0441\u044b \u043a\u04af\u043c\u0456\u0441\u0442\u0456 \u0418\u0441\u0440\u0430\u0438\u043b \u0435\u043b\u0456\u043d\u0434\u0435\u0433\u0456 \u0431\u0430\u0440\u043b\u044b\u049b \u0434\u04d9\u0443\u043b\u0435\u0442\u0442\u0456 \u0430\u0434\u0430\u043c\u0434\u0430\u0440\u0434\u0430\u043d \u043a\u04af\u0448\u043f\u0435\u043d \u0436\u0438\u043d\u0430\u043f \u0430\u043b\u0434\u044b. \u041f\u0430\u0442\u0448\u0430 \u0441\u043e\u043b\u0430\u0440\u0434\u044b\u04a3 \u04d9\u0440\u049b\u0430\u0439\u0441\u044b\u0441\u044b\u043d \u0435\u043b\u0443 \u043c\u044b\u0441\u049b\u0430\u043b \u043a\u04af\u043c\u0456\u0441 \u0442\u04e9\u043b\u0435\u0443\u0433\u0435 \u043c\u04d9\u0436\u0431\u04af\u0440\u043b\u0435\u0434\u0456. \u041a\u04af\u043c\u0456\u0441\u0442\u0456 \u0430\u043b\u0493\u0430\u043d \u0410\u0441\u0441\u0443\u0440 \u043f\u0430\u0442\u0448\u0430\u0441\u044b \u0418\u0441\u0440\u0430\u0438\u043b\u0434\u0435\u043d \u043a\u0435\u0442\u0456\u043f, \u0435\u043b\u0456\u043d\u0435 \u049b\u0430\u0439\u0442\u0430 \u043e\u0440\u0430\u043b\u0434\u044b."
        },
        {
            "chapter": 15,
            "verse": 21,
            "name": "2 Kings 15:21",
            "text": "\u041c\u0435\u043d\u0430\u0445\u0438\u043c\u043d\u0456\u04a3 \u049b\u0430\u043b\u0493\u0430\u043d \u0431\u0430\u0440\u043b\u044b\u049b \u0456\u0441-\u04d9\u0440\u0435\u043a\u0435\u0442\u0442\u0435\u0440\u0456 \u0442\u0443\u0440\u0430\u043b\u044b \u00ab\u0418\u0441\u0440\u0430\u0438\u043b \u043f\u0430\u0442\u0448\u0430\u043b\u0430\u0440\u044b\u043d\u044b\u04a3 \u0436\u044b\u043b\u043d\u0430\u043c\u0430\u043b\u0430\u0440\u044b\u00bb \u043a\u0456\u0442\u0430\u0431\u044b\u043d\u0434\u0430 \u0431\u0430\u044f\u043d\u0434\u0430\u043b\u0493\u0430\u043d."
        },
        {
            "chapter": 15,
            "verse": 22,
            "name": "2 Kings 15:22",
            "text": "\u041c\u0435\u043d\u0430\u0445\u0438\u043c \u043a\u04e9\u0437 \u0436\u04b1\u043c\u044b\u043f, \u0430\u0442\u0430-\u0431\u0430\u0431\u0430\u043b\u0430\u0440\u044b\u043d\u044b\u04a3 \u049b\u0430\u0441\u044b\u043d\u0430 \u0436\u04e9\u043d\u0435\u043b\u0433\u0435\u043d\u0434\u0435, \u043e\u043d\u044b\u04a3 \u04b1\u043b\u044b \u041f\u0430\u049b\u0438\u044f\u0445 \u043e\u0440\u043d\u044b\u043d \u0431\u0430\u0441\u044b\u043f \u043f\u0430\u0442\u0448\u0430 \u0431\u043e\u043b\u0434\u044b."
        },
        {
            "chapter": 15,
            "verse": 23,
            "name": "2 Kings 15:23",
            "text": "\u042f\u04bb\u0443\u0434\u0430 \u0435\u043b\u0456\u043d\u0435 \u04b0\u0437\u0438\u044f\u0445 \u043f\u0430\u0442\u0448\u0430\u043b\u044b\u049b \u049b\u04b1\u0440\u0493\u0430\u043d \u0435\u043b\u0443\u0456\u043d\u0448\u0456 \u0436\u044b\u043b\u044b \u041c\u0435\u043d\u0430\u0445\u0438\u043c \u04b1\u043b\u044b \u041f\u0430\u049b\u0438\u044f\u0445 \u0421\u0430\u043c\u0430\u0440\u0438\u044f \u049b\u0430\u043b\u0430\u0441\u044b\u043d\u0434\u0430 \u0421\u043e\u043b\u0442\u04af\u0441\u0442\u0456\u043a \u0418\u0441\u0440\u0430\u0438\u043b\u0434\u0456\u04a3 \u04af\u0441\u0442\u0456\u043d\u0435\u043d \u043f\u0430\u0442\u0448\u0430 \u0431\u043e\u043b\u0434\u044b. \u041e\u043b \u0435\u043b\u0433\u0435 \u0435\u043a\u0456 \u0436\u044b\u043b \u0431\u043e\u0439\u044b \u0431\u0438\u043b\u0456\u043a \u0436\u04af\u0440\u0433\u0456\u0437\u0434\u0456."
        },
        {
            "chapter": 15,
            "verse": 24,
            "name": "2 Kings 15:24",
            "text": "\u041f\u0430\u049b\u0438\u044f\u0445 \u0416\u0430\u0440\u0430\u0442\u049b\u0430\u043d \u0418\u0435\u0433\u0435 \u0436\u0435\u043a \u043a\u04e9\u0440\u0456\u043d\u0456\u0448\u0442\u0456 \u0456\u0441\u0442\u0435\u0440 \u0456\u0441\u0442\u0435\u043f, \u0435\u0436\u0435\u043b\u0434\u0435 \u041d\u0430\u0431\u0430\u0442 \u04b1\u043b\u044b \u0415\u0440\u043e\u0431\u043e\u0493\u0430\u043c\u043d\u044b\u04a3 \u0421\u043e\u043b\u0442\u04af\u0441\u0442\u0456\u043a \u0418\u0441\u0440\u0430\u0438\u043b\u0434\u0456\u04a3 \u0445\u0430\u043b\u049b\u044b\u043d \u0430\u0437\u0493\u044b\u0440\u0493\u0430\u043d \u043a\u04af\u043d\u04d9\u043b\u0430\u0440\u044b\u043d\u0430\u043d \u0431\u0430\u0441 \u0442\u0430\u0440\u0442\u043f\u0430\u0434\u044b."
        },
        {
            "chapter": 15,
            "verse": 25,
            "name": "2 Kings 15:25",
            "text": "\u041a\u0435\u0439\u0456\u043d \u043e\u043d\u044b\u04a3 \u0420\u0435\u043c\u0430\u043b\u0438\u044f\u0445 \u04b1\u043b\u044b \u041f\u0430\u049b\u0430\u0445 \u0434\u0435\u0433\u0435\u043d \u0431\u0456\u0440 \u043d\u04e9\u043a\u0435\u0440\u0456 \u043e\u0493\u0430\u043d \u049b\u0430\u0440\u0441\u044b \u0430\u0441\u0442\u044b\u0440\u0442\u044b\u043d \u0441\u04e9\u0437 \u0431\u0430\u0439\u043b\u0430\u0441\u0442\u044b. \u0421\u043e\u043b \u041f\u0430\u049b\u0430\u0445 \u0435\u043b\u0443 \u0493\u0438\u043b\u0430\u049b\u0430\u0434\u0442\u044b\u049b \u0430\u0434\u0430\u043c\u0434\u044b \u0435\u0440\u0442\u0456\u043f \u0430\u043b\u044b\u043f, \u041f\u0430\u049b\u0438\u044f\u0445 \u043f\u0430\u0442\u0448\u0430\u0493\u0430 \u0436\u04d9\u043d\u0435 \u0410\u0440\u0493\u043e\u043f \u043f\u0435\u043d \u0410\u0440\u0438\u0435 \u0434\u0435\u0433\u0435\u043d \u0442\u0430\u0493\u044b \u0435\u043a\u0456 \u0430\u0434\u0430\u043c\u0493\u0430 \u0421\u0430\u043c\u0430\u0440\u0438\u044f\u0434\u0430\u0493\u044b \u043f\u0430\u0442\u0448\u0430 \u0441\u0430\u0440\u0430\u0439\u044b\u043d\u044b\u04a3 \u049b\u043e\u0440\u0493\u0430\u043d\u044b\u043d\u0434\u0430 \u0431\u0430\u0441 \u0441\u0430\u043b\u044b\u043f, \u043e\u043b\u0430\u0440\u0434\u044b \u04e9\u043b\u0442\u0456\u0440\u0434\u0456. \u0421\u043e\u0434\u0430\u043d \u043a\u0435\u0439\u0456\u043d \u041f\u0430\u049b\u0430\u0445 \u041f\u0430\u049b\u0438\u044f\u0445\u0442\u044b\u04a3 \u043e\u0440\u043d\u044b\u043d\u0430 \u04e9\u0437\u0456 \u043f\u0430\u0442\u0448\u0430 \u0431\u043e\u043b\u044b\u043f \u0430\u043b\u0434\u044b."
        },
        {
            "chapter": 15,
            "verse": 26,
            "name": "2 Kings 15:26",
            "text": "\u041f\u0430\u049b\u0438\u044f\u0445\u0442\u044b\u04a3 \u049b\u0430\u043b\u0493\u0430\u043d \u0431\u0430\u0440\u043b\u044b\u049b \u0456\u0441-\u04d9\u0440\u0435\u043a\u0435\u0442\u0442\u0435\u0440\u0456 \u0442\u0443\u0440\u0430\u043b\u044b \u00ab\u0418\u0441\u0440\u0430\u0438\u043b \u043f\u0430\u0442\u0448\u0430\u043b\u0430\u0440\u044b\u043d\u044b\u04a3 \u0436\u044b\u043b\u043d\u0430\u043c\u0430\u043b\u0430\u0440\u044b\u00bb \u043a\u0456\u0442\u0430\u0431\u044b\u043d\u0434\u0430 \u0431\u0430\u044f\u043d\u0434\u0430\u043b\u0493\u0430\u043d."
        },
        {
            "chapter": 15,
            "verse": 27,
            "name": "2 Kings 15:27",
            "text": "\u042f\u04bb\u0443\u0434\u0430 \u0435\u043b\u0456\u043d\u0435 \u04b0\u0437\u0438\u044f\u0445 \u043f\u0430\u0442\u0448\u0430\u043b\u044b\u049b \u049b\u04b1\u0440\u0493\u0430\u043d \u0435\u043b\u0443 \u0435\u043a\u0456\u043d\u0448\u0456 \u0436\u044b\u043b\u044b \u0420\u0435\u043c\u0430\u043b\u0438\u044f\u0445 \u04b1\u043b\u044b \u041f\u0430\u049b\u0430\u0445 \u0421\u0430\u043c\u0430\u0440\u0438\u044f \u049b\u0430\u043b\u0430\u0441\u044b\u043d\u0434\u0430 \u0421\u043e\u043b\u0442\u04af\u0441\u0442\u0456\u043a \u0418\u0441\u0440\u0430\u0438\u043b\u0434\u0456\u04a3 \u04af\u0441\u0442\u0456\u043d\u0435\u043d \u043f\u0430\u0442\u0448\u0430 \u0431\u043e\u043b\u044b\u043f, \u043e\u0493\u0430\u043d \u0436\u0438\u044b\u0440\u043c\u0430 \u0436\u044b\u043b \u0431\u0438\u043b\u0456\u043a \u0436\u04af\u0440\u0433\u0456\u0437\u0434\u0456."
        },
        {
            "chapter": 15,
            "verse": 28,
            "name": "2 Kings 15:28",
            "text": "\u041f\u0430\u049b\u0430\u0445 \u0416\u0430\u0440\u0430\u0442\u049b\u0430\u043d \u0418\u0435\u0433\u0435 \u0436\u0435\u043a \u043a\u04e9\u0440\u0456\u043d\u0456\u0448\u0442\u0456 \u0456\u0441\u0442\u0435\u0440 \u0456\u0441\u0442\u0435\u043f, \u0435\u0436\u0435\u043b\u0434\u0435 \u041d\u0430\u0431\u0430\u0442 \u04b1\u043b\u044b \u0415\u0440\u043e\u0431\u043e\u0493\u0430\u043c\u043d\u044b\u04a3 \u0421\u043e\u043b\u0442\u04af\u0441\u0442\u0456\u043a \u0418\u0441\u0440\u0430\u0438\u043b\u0434\u0456 \u0430\u0437\u0493\u044b\u0440\u0493\u0430\u043d \u043a\u04af\u043d\u04d9\u043b\u0430\u0440\u044b\u043d\u0430\u043d \u0431\u0430\u0441 \u0442\u0430\u0440\u0442\u043f\u0430\u0434\u044b."
        },
        {
            "chapter": 15,
            "verse": 29,
            "name": "2 Kings 15:29",
            "text": "\u0421\u043e\u043b\u0442\u04af\u0441\u0442\u0456\u043a \u0418\u0441\u0440\u0430\u0438\u043b\u0434\u0456\u04a3 \u043f\u0430\u0442\u0448\u0430\u0441\u044b \u041f\u0430\u049b\u0430\u0445\u0442\u044b\u04a3 \u0437\u0430\u043c\u0430\u043d\u044b\u043d\u0434\u0430 \u0410\u0441\u0441\u0443\u0440 \u043f\u0430\u0442\u0448\u0430\u0441\u044b \u0422\u044b\u0493\u044b\u043b\u0430\u0442-\u041f\u0435\u043b\u04d9\u0441\u0435\u0440 \u049b\u0430\u0439\u0442\u0430\u0434\u0430\u043d \u0430\u0442\u0442\u0430\u043d\u044b\u043f \u043a\u0435\u043b\u0456\u043f, \u0418\u043e\u043d, \u04d8\u0431\u0435\u043b-\u0411\u0435\u0442-\u041c\u0430\u0445\u0430, \u042f\u043d\u043e\u0445, \u049a\u0430\u0434\u0435\u0448, \u0425\u0430\u0441\u043e\u0440 \u049b\u0430\u043b\u0430\u043b\u0430\u0440\u044b\u043d \u0436\u0430\u0443\u043b\u0430\u043f \u0430\u043b\u0434\u044b. \u0416\u0430\u0443 \u0441\u043e\u043d\u0434\u0430\u0439-\u0430\u049b \u0492\u0438\u043b\u0430\u049b\u0430\u0434 \u043f\u0435\u043d \u0492\u0430\u043b\u0438\u043b\u0435\u044f \u0430\u0439\u043c\u0430\u049b\u0442\u0430\u0440\u044b\u043d \u0436\u04d9\u043d\u0435 \u041d\u0430\u0444\u0442\u0430\u043b\u0438\u043c \u0440\u0443\u044b\u043d\u044b\u04a3 \u0431\u04af\u043a\u0456\u043b \u0436\u0435\u0440\u0456\u043d \u0431\u0430\u0441\u044b\u043f \u0430\u043b\u044b\u043f, \u0442\u04b1\u0440\u0493\u044b\u043d\u0434\u0430\u0440\u044b\u043d \u0410\u0441\u0441\u0443\u0440\u0493\u0430 \u0436\u0435\u0440 \u0430\u0443\u0434\u0430\u0440\u044b\u043f \u0430\u043b\u044b\u043f \u043a\u0435\u0442\u0442\u0456."
        },
        {
            "chapter": 15,
            "verse": 30,
            "name": "2 Kings 15:30",
            "text": "\u0411\u04b1\u0434\u0430\u043d \u043a\u0435\u0439\u0456\u043d \u0418\u043b\u0430 \u04b1\u043b\u044b \u041e\u0448\u0438\u044f \u0420\u0435\u043c\u0430\u043b\u0438\u044f\u0445 \u04b1\u043b\u044b \u041f\u0430\u049b\u0430\u0445\u049b\u0430 \u049b\u0430\u0440\u0441\u044b \u0430\u0441\u0442\u044b\u0440\u0442\u044b\u043d \u0441\u04e9\u0437 \u0431\u0430\u0439\u043b\u0430\u0441\u044b\u043f, \u043e\u043d\u044b \u04e9\u043b\u0442\u0456\u0440\u0434\u0456. \u0421\u043e\u0434\u0430\u043d \u041f\u0430\u049b\u0430\u0445\u0442\u044b\u04a3 \u043e\u0440\u043d\u044b\u043d\u0430 \u041e\u0448\u0438\u044f\u043d\u044b\u04a3 \u04e9\u0437\u0456 \u043f\u0430\u0442\u0448\u0430 \u0431\u043e\u043b\u044b\u043f \u0430\u043b\u0434\u044b. \u0411\u04b1\u043b \u042f\u04bb\u0443\u0434\u0430 \u0435\u043b\u0456\u043d\u0435 \u04b0\u0437\u0438\u044f\u0445 \u04b1\u043b\u044b \u0416\u043e\u0442\u0430\u043c\u043d\u044b\u04a3 \u043f\u0430\u0442\u0448\u0430\u043b\u044b\u049b \u049b\u04b1\u0440\u0493\u0430\u043d \u0436\u0438\u044b\u0440\u043c\u0430\u0441\u044b\u043d\u0448\u044b \u0436\u044b\u043b\u044b \u043e\u0440\u044b\u043d \u0430\u043b\u0434\u044b."
        },
        {
            "chapter": 15,
            "verse": 31,
            "name": "2 Kings 15:31",
            "text": "\u041f\u0430\u049b\u0430\u0445\u0442\u044b\u04a3 \u049b\u0430\u043b\u0493\u0430\u043d \u0431\u0430\u0440\u043b\u044b\u049b \u0456\u0441-\u04d9\u0440\u0435\u043a\u0435\u0442\u0442\u0435\u0440\u0456 \u0442\u0443\u0440\u0430\u043b\u044b \u00ab\u0418\u0441\u0440\u0430\u0438\u043b \u043f\u0430\u0442\u0448\u0430\u043b\u0430\u0440\u044b\u043d\u044b\u04a3 \u0436\u044b\u043b\u043d\u0430\u043c\u0430\u043b\u0430\u0440\u044b\u00bb \u043a\u0456\u0442\u0430\u0431\u044b\u043d\u0434\u0430 \u0431\u0430\u044f\u043d\u0434\u0430\u043b\u0493\u0430\u043d."
        },
        {
            "chapter": 15,
            "verse": 32,
            "name": "2 Kings 15:32",
            "text": "\u0421\u043e\u043b\u0442\u04af\u0441\u0442\u0456\u043a \u0418\u0441\u0440\u0430\u0438\u043b\u0433\u0435 \u0420\u0435\u043c\u0430\u043b\u0438\u044f\u0445 \u04b1\u043b\u044b \u041f\u0430\u049b\u0430\u0445 \u043f\u0430\u0442\u0448\u0430\u043b\u044b\u049b \u049b\u04b1\u0440\u0493\u0430\u043d \u0435\u043a\u0456\u043d\u0448\u0456 \u0436\u044b\u043b\u044b \u04b0\u0437\u0438\u044f\u0445 \u04b1\u043b\u044b \u0416\u043e\u0442\u0430\u043c \u042f\u04bb\u0443\u0434\u0430 \u0435\u043b\u0456\u043d\u0456\u04a3 \u043f\u0430\u0442\u0448\u0430\u0441\u044b \u0431\u043e\u043b\u0434\u044b."
        },
        {
            "chapter": 15,
            "verse": 33,
            "name": "2 Kings 15:33",
            "text": "\u0421\u043e\u043b \u043a\u0435\u0437\u0434\u0435 \u043e\u043d\u044b\u04a3 \u0436\u0430\u0441\u044b \u0436\u0438\u044b\u0440\u043c\u0430 \u0431\u0435\u0441\u0442\u0435 \u0435\u0434\u0456. \u041e\u043b \u0418\u0435\u0440\u0443\u0441\u0430\u043b\u0438\u043c\u0434\u0435 \u043e\u043d \u0430\u043b\u0442\u044b \u0436\u044b\u043b \u0431\u0438\u043b\u0456\u043a \u0436\u04af\u0440\u0433\u0456\u0437\u0434\u0456. \u0416\u043e\u0442\u0430\u043c\u043d\u044b\u04a3 \u0448\u0435\u0448\u0435\u0441\u0456\u043d\u0456\u04a3 \u0430\u0442\u044b-\u0436\u04e9\u043d\u0456 \u0421\u0430\u0434\u044b\u049b \u049b\u044b\u0437\u044b \u0415\u0440\u0443\u0448\u0430 \u0431\u043e\u043b\u0430\u0442\u044b\u043d."
        },
        {
            "chapter": 15,
            "verse": 34,
            "name": "2 Kings 15:34",
            "text": "\u04d8\u043a\u0435\u0441\u0456 \u04b0\u0437\u0438\u044f\u0445 (\u0430\u043b\u0493\u0430\u0448\u049b\u044b\u0434\u0430) \u0456\u0441\u0442\u0435\u0433\u0435\u043d\u0434\u0435\u0439, \u0416\u043e\u0442\u0430\u043c \u0434\u0430 \u0416\u0430\u0440\u0430\u0442\u049b\u0430\u043d \u0418\u0435\u0433\u0435 \u04b1\u043d\u0430\u043c\u0434\u044b \u04d9\u0434\u0456\u043b \u0456\u0441\u0442\u0435\u0440 \u0456\u0441\u0442\u0435\u0434\u0456."
        },
        {
            "chapter": 15,
            "verse": 35,
            "name": "2 Kings 15:35",
            "text": "\u0414\u0435\u0433\u0435\u043d\u043c\u0435\u043d \u0431\u0438\u0456\u043a\u0442\u0435\u0443 \u0436\u0435\u0440\u043b\u0435\u0440\u0434\u0435\u0433\u0456 \u0442\u0430\u0431\u044b\u043d\u0443 \u043e\u0440\u044b\u043d\u0434\u0430\u0440\u044b \u049b\u0438\u0440\u0430\u0442\u044b\u043b\u044b\u043f \u0442\u0430\u0441\u0442\u0430\u043b\u043c\u0430\u0434\u044b. \u0425\u0430\u043b\u044b\u049b \u0441\u043e\u043b \u0436\u0435\u0440\u043b\u0435\u0440\u0434\u0435 \u049b\u04b1\u0440\u0431\u0430\u043d\u0434\u044b\u049b \u0448\u0430\u043b\u044b\u043f \u04e9\u0440\u0442\u0435\u043f, \u0445\u043e\u0448 \u0438\u0456\u0441\u0442\u0456 \u0437\u0430\u0442\u0442\u0430\u0440\u0434\u044b \u0442\u04af\u0442\u0435\u0442\u0456\u043f \u04b1\u0441\u044b\u043d\u0443\u043b\u0430\u0440\u044b\u043d \u0436\u0430\u043b\u0493\u0430\u0441\u0442\u044b\u0440\u0430 \u0431\u0435\u0440\u0434\u0456. \u0410\u043b \u0416\u043e\u0442\u0430\u043c \u043f\u0430\u0442\u0448\u0430 \u0416\u0430\u0440\u0430\u0442\u049b\u0430\u043d \u0418\u0435\u043d\u0456\u04a3 \u043a\u0438\u0435\u043b\u0456 \u04af\u0439\u0456\u043d\u0456\u04a3 \u0416\u043e\u0493\u0430\u0440\u0493\u044b \u049b\u0430\u049b\u043f\u0430\u0441\u044b\u043d \u049b\u0430\u0439\u0442\u0430 \u0441\u0430\u043b\u0493\u044b\u0437\u0434\u044b."
        },
        {
            "chapter": 15,
            "verse": 36,
            "name": "2 Kings 15:36",
            "text": "\u0416\u043e\u0442\u0430\u043c\u043d\u044b\u04a3 \u049b\u0430\u043b\u0493\u0430\u043d \u0456\u0441\u0442\u0435\u0440\u0456\u043d\u0456\u04a3 \u0431\u04d9\u0440\u0456 \u0442\u0443\u0440\u0430\u043b\u044b \u00ab\u042f\u04bb\u0443\u0434\u0430 \u043f\u0430\u0442\u0448\u0430\u043b\u0430\u0440\u044b\u043d\u044b\u04a3 \u0436\u044b\u043b\u043d\u0430\u043c\u0430\u043b\u0430\u0440\u044b\u00bb \u043a\u0456\u0442\u0430\u0431\u044b\u043d\u0434\u0430 \u0431\u0430\u044f\u043d\u0434\u0430\u043b\u0493\u0430\u043d."
        },
        {
            "chapter": 15,
            "verse": 37,
            "name": "2 Kings 15:37",
            "text": "\u041e\u043d\u044b\u04a3 \u043f\u0430\u0442\u0448\u0430\u043b\u044b\u049b \u049b\u04b1\u0440\u0493\u0430\u043d \u0437\u0430\u043c\u0430\u043d\u044b\u043d\u0434\u0430 \u0416\u0430\u0440\u0430\u0442\u049b\u0430\u043d \u0418\u0435 \u0410\u0440\u0430\u043c\u0430\u043d\u044b\u04a3 \u043f\u0430\u0442\u0448\u0430\u0441\u044b \u0420\u0435\u0441\u0438\u043d\u0434\u0456 \u0436\u04d9\u043d\u0435 \u0421\u043e\u043b\u0442\u04af\u0441\u0442\u0456\u043a \u0418\u0441\u0440\u0430\u0438\u043b\u0434\u0456\u04a3 \u043f\u0430\u0442\u0448\u0430\u0441\u044b \u0420\u0435\u043c\u0430\u043b\u0438\u044f\u0445 \u04b1\u043b\u044b \u041f\u0430\u049b\u0430\u0445\u0442\u044b \u042f\u04bb\u0443\u0434\u0430 \u0435\u043b\u0456\u043d\u0435 \u049b\u0430\u0440\u0441\u044b \u0430\u0442\u0442\u0430\u043d\u0434\u044b\u0440\u044b\u043f, \u0448\u0430\u0431\u0443\u044b\u043b \u0436\u0430\u0441\u0430\u0442\u0430 \u0431\u0430\u0441\u0442\u0430\u0434\u044b."
        },
        {
            "chapter": 15,
            "verse": 38,
            "name": "2 Kings 15:38",
            "text": "\u0416\u043e\u0442\u0430\u043c \u043a\u04e9\u0437 \u0436\u04b1\u043c\u044b\u043f, \u0430\u0442\u0430-\u0431\u0430\u0431\u0430\u043b\u0430\u0440\u044b\u043d\u044b\u04a3 \u049b\u0430\u0441\u044b\u043d\u0430 \u0436\u04e9\u043d\u0435\u043b\u0433\u0435\u043d\u0434\u0435, \u043c\u04d9\u0439\u0456\u0442\u0456 \u043e\u043b\u0430\u0440\u0434\u044b\u04a3 \u0436\u0430\u043d\u044b\u043d\u0430 \u0442\u04af\u043f \u0430\u0442\u0430\u0441\u044b \u0414\u04d9\u0443\u0456\u0442\u0442\u0456\u04a3 \u0448\u0430\u04bb\u0430\u0440\u044b\u043d\u0434\u0430\u0493\u044b \u049b\u0430\u0431\u0456\u0440\u0433\u0435 \u049b\u043e\u0439\u044b\u043b\u0434\u044b. \u041e\u043d\u044b\u04a3 \u04b1\u043b\u044b \u0410\u0445\u0430\u0437 \u043e\u0440\u043d\u044b\u043d \u0431\u0430\u0441\u044b\u043f \u043f\u0430\u0442\u0448\u0430 \u0431\u043e\u043b\u0434\u044b. "
        }
    ]
}