{
    "translation": "Sveto pismo Kralja Jakoba (1769)",
    "abbreviation": "slokjv",
    "lang": "sl",
    "language": "Slovene",
    "direction": "LTR",
    "encoding": "UTF-8",
    "book_nr": 40,
    "book_name": "Matthew",
    "chapter": 21,
    "name": "Matthew 21",
    "verses": [
        {
            "chapter": 21,
            "verse": 1,
            "name": "Matthew 21:1",
            "text": " Ko pa so se bli\u017eali Jeruzalemu in so pri\u0161li do B\u00e9tfage pri Oljski gori, je Jezus torej poslal dva u\u010denca, "
        },
        {
            "chapter": 21,
            "verse": 2,
            "name": "Matthew 21:2",
            "text": "reko\u010d jima: \"Pojdita v vas tam pred vama in nemudoma bosta na\u0161la privezano oslico in \u017erebico z njo: odve\u017eita ju in ju privedita k meni. "
        },
        {
            "chapter": 21,
            "verse": 3,
            "name": "Matthew 21:3",
            "text": "In \u010de vama bo katerikoli \u010dlovek karkoli rekel, mu bosta rekla: 'Gospod ju potrebuje;' in nemudoma ju bo poslal.\" "
        },
        {
            "chapter": 21,
            "verse": 4,
            "name": "Matthew 21:4",
            "text": "Vse to je bilo storjeno, da bi se lahko izpolnilo, kar je bilo re\u010deno po preroku, reko\u010d: "
        },
        {
            "chapter": 21,
            "verse": 5,
            "name": "Matthew 21:5",
            "text": " \"Povejte sionski h\u010deri: 'Glej, tvoj Kralj prihaja k tebi, krotak in sede\u010d na oslici in \u017erebici, osli\u010djem \u017erebi\u010du.'\" "
        },
        {
            "chapter": 21,
            "verse": 6,
            "name": "Matthew 21:6",
            "text": " In u\u010denca sta od\u0161la ter storila, kakor jima je Jezus naro\u010dil "
        },
        {
            "chapter": 21,
            "verse": 7,
            "name": "Matthew 21:7",
            "text": "in pripeljala sta oslico ter \u017erebico in nanju polo\u017eila svoja obla\u010dila in posadili so ga nanjo. "
        },
        {
            "chapter": 21,
            "verse": 8,
            "name": "Matthew 21:8",
            "text": "Zelo velika mno\u017eica pa je svoje obleke razgrnila na pot; drugi so odsekali mladike iz dreves in jih nastlali po poti. "
        },
        {
            "chapter": 21,
            "verse": 9,
            "name": "Matthew 21:9",
            "text": "In mno\u017eice, ki so \u0161le spredaj in te, ki so sledile, so vzklikale, reko\u010d: \"Hozana Davidovemu Sinu: 'Blagoslovljen je kdor prihaja v Gospodovem imenu; Hozana na vi\u0161avah.'\" "
        },
        {
            "chapter": 21,
            "verse": 10,
            "name": "Matthew 21:10",
            "text": " Ko pa je pri\u0161el v Jeruzalem, je bilo vse mesto razdra\u017eeno, govore\u010d: \"Kdo je to?\" "
        },
        {
            "chapter": 21,
            "verse": 11,
            "name": "Matthew 21:11",
            "text": "Mno\u017eica pa je rekla: \"To je Jezus, prerok iz Nazareta v Galileji.\" "
        },
        {
            "chapter": 21,
            "verse": 12,
            "name": "Matthew 21:12",
            "text": " In Jezus je od\u0161el v Bo\u017eji tempelj in izgnal vse tiste, ki so v templju prodajali in kupovali in prevrnil mize menjalcem denarja in stole teh, ki so prodajali golobice "
        },
        {
            "chapter": 21,
            "verse": 13,
            "name": "Matthew 21:13",
            "text": "ter jim rekel: \"Pisano je: 'Moja hi\u0161a naj se imenuje hi\u0161a molitve;' toda vi ste jo naredili za razbojni\u0161ko gnezdo.\" "
        },
        {
            "chapter": 21,
            "verse": 14,
            "name": "Matthew 21:14",
            "text": "V templju pa so pri\u0161li k njemu slepi in hromi; in jih je ozdravil. "
        },
        {
            "chapter": 21,
            "verse": 15,
            "name": "Matthew 21:15",
            "text": "Ko pa so visoki duhovniki in pisarji videli \u010dudovita dela, katera je storil in otroke, ki so v templju vzklikali ter govorili: \"Hozana Davidovemu Sinu;\" so bili bole\u010de raz\u017ealjeni "
        },
        {
            "chapter": 21,
            "verse": 16,
            "name": "Matthew 21:16",
            "text": "in so mu rekli: \"Sli\u0161i\u0161 kaj ti govorijo?\" Jezus pa jim re\u010de: \"Da; ali niste nikoli brali: 'Iz ust otro\u010di\u010dev in dojen\u010dkov ima\u0161 popolno hvalo?'\" "
        },
        {
            "chapter": 21,
            "verse": 17,
            "name": "Matthew 21:17",
            "text": " In zapustil jih je ter od\u0161el iz mesta v Betanijo; in tam preno\u010dil. "
        },
        {
            "chapter": 21,
            "verse": 18,
            "name": "Matthew 21:18",
            "text": "Torej zjutraj, ko se je vrnil v mesto, je postal la\u010den. "
        },
        {
            "chapter": 21,
            "verse": 19,
            "name": "Matthew 21:19",
            "text": " In ko je na poti zagledal figovo drevo, je pri\u0161el k njemu, pa na njem ni na\u0161el ni\u010d, razen listja samega in mu rekel: \"Naj odslej na tebi ve\u010dno ne zraste noben sad.\" In figovo drevo je zelo kmalu ovenelo. "
        },
        {
            "chapter": 21,
            "verse": 20,
            "name": "Matthew 21:20",
            "text": "Ko pa so u\u010denci to videli, so se \u010dudili, reko\u010d: \"Kako hitro se je figovo drevo posu\u0161ilo!\" "
        },
        {
            "chapter": 21,
            "verse": 21,
            "name": "Matthew 21:21",
            "text": "Jezus jim je odgovoril in rekel: \"Resni\u010dno, povem vam: '\u010ce imate vero in ne dvomite, ne boste delali samo to, kar je bilo storjeno figovemu drevesu, temve\u010d tudi, \u010de boste rekli tej gori: 'Bodi odstranjena in vr\u017eena v morje;' se bo to zgodilo.' "
        },
        {
            "chapter": 21,
            "verse": 22,
            "name": "Matthew 21:22",
            "text": "In vse stvari, karkoli boste verovali in prosili v molitvi, boste prejeli.\" "
        },
        {
            "chapter": 21,
            "verse": 23,
            "name": "Matthew 21:23",
            "text": "  Ko pa je pri\u0161el v tempelj so k njemu, medtem ko je u\u010dil, pri\u0161li visoki duhovniki in stare\u0161ine ljudstva ter rekli: \"S kak\u0161no oblastjo dela\u0161 te stvari? In kdo ti je dal to oblast?\" "
        },
        {
            "chapter": 21,
            "verse": 24,
            "name": "Matthew 21:24",
            "text": "Jezus pa je odgovoril in jim rekel: \"Tudi jaz vas bom vpra\u0161al eno stvar in \u010de mi jo poveste, vam bom tudi jaz povedal s kak\u0161no oblastjo delam te stvari. "
        },
        {
            "chapter": 21,
            "verse": 25,
            "name": "Matthew 21:25",
            "text": "Janezov krst, od kod je bil? Iz neba ali od ljudi?\" Med seboj pa so razpravljali, reko\u010d: \"\u010ce bomo rekli: 'Iz neba;' nam bo rekel: 'Zakaj mu potem niste verjeli?' "
        },
        {
            "chapter": 21,
            "verse": 26,
            "name": "Matthew 21:26",
            "text": "Toda \u010de bomo rekli: 'Od ljudi;' se bojimo ljudstva; kajti Janeza so vsi imeli za preroka.\" "
        },
        {
            "chapter": 21,
            "verse": 27,
            "name": "Matthew 21:27",
            "text": "In odgovorili so Jezusu ter rekli: \"Ne moremo povedati.\" On pa jim je rekel: \"Tudi jaz vam ne morem povedati s kak\u0161no oblastjo delam te stvari. "
        },
        {
            "chapter": 21,
            "verse": 28,
            "name": "Matthew 21:28",
            "text": " Toda kaj vi mislite? [Nek] \u010dlovek je imel dva sinova; pa je pri\u0161el k prvemu in rekel: \"Sin, pojdi danes delat v moj vinograd.\" "
        },
        {
            "chapter": 21,
            "verse": 29,
            "name": "Matthew 21:29",
            "text": "Odgovoril je in rekel: 'No\u010dem:' toda kasneje se je pokesal in od\u0161el. "
        },
        {
            "chapter": 21,
            "verse": 30,
            "name": "Matthew 21:30",
            "text": "In pri\u0161el je k drugemu ter rekel enako. Ta je odgovoril in rekel: 'Grem, gospod:' pa ni od\u0161el. "
        },
        {
            "chapter": 21,
            "verse": 31,
            "name": "Matthew 21:31",
            "text": "Kateri izmed njiju dveh je izvr\u0161il voljo [svojega] o\u010deta?\" Povedo mu: \"Prvi.\" Jezus jim re\u010de: \"Resni\u010dno, povem vam: 'Da gredo davkarji in vla\u010duge pred vami v Bo\u017eje kraljestvo.' "
        },
        {
            "chapter": 21,
            "verse": 32,
            "name": "Matthew 21:32",
            "text": "Kajti Janez je pri\u0161el k vam po poti pravi\u010dnosti, pa mu niste verjeli: toda davkarji in vla\u010duge so mu verjeli: vi pa, ko ste to videli, se potem niste pokesali, da bi mu lahko verjeli. "
        },
        {
            "chapter": 21,
            "verse": 33,
            "name": "Matthew 21:33",
            "text": " Poslu\u0161ajte \u0161e eno prispodobo: 'Bil je nek hi\u0161ni gospodar, ki je nasadil vinograd in ga ogradil naokoli in v njem izkopal vinsko stiskalnico in zgradil stolp in ga prepustil kmetom ter od\u0161el v daljno de\u017eelo: "
        },
        {
            "chapter": 21,
            "verse": 34,
            "name": "Matthew 21:34",
            "text": "ko pa se je pribli\u017eal \u010das sadu, je h kmetom poslal svoje slu\u017eabnike, da bi lahko prejeli sadove od njega. "
        },
        {
            "chapter": 21,
            "verse": 35,
            "name": "Matthew 21:35",
            "text": "Kmetje pa so njegove slu\u017eabnike prijeli in enega pretepli in drugega ubili in \u0161e enega kamnali. "
        },
        {
            "chapter": 21,
            "verse": 36,
            "name": "Matthew 21:36",
            "text": "Ponovno po\u0161lje druge slu\u017eabnike, ve\u010d kakor prvi\u010d, pa so jim storili enako. "
        },
        {
            "chapter": 21,
            "verse": 37,
            "name": "Matthew 21:37",
            "text": "Toda zadnjega od vseh je poslal k njim svojega sina, reko\u010d: 'Mojega sina bodo spo\u0161tovali.' "
        },
        {
            "chapter": 21,
            "verse": 38,
            "name": "Matthew 21:38",
            "text": "Toda ko so kmetje zagledali sina, so si med seboj rekli: 'Ta je dedi\u010d; pridite, ubijmo ga in se polastimo njegove dedi\u0161\u010dine.' "
        },
        {
            "chapter": 21,
            "verse": 39,
            "name": "Matthew 21:39",
            "text": "In zgrabili so ga in ga vrgli iz vinograda in ga usmrtili. "
        },
        {
            "chapter": 21,
            "verse": 40,
            "name": "Matthew 21:40",
            "text": "Ko torej prihaja gospodar vinograda, kaj bo storil tem kmetom?'\" "
        },
        {
            "chapter": 21,
            "verse": 41,
            "name": "Matthew 21:41",
            "text": "Rekli so mu: \"Te zlobne\u017ee bo bedno uni\u010dil, svoj vinograd pa bo prepustil drugim kmetom, ki mu bodo vrnili sadove ob njihovih pravih obdobjih.\" "
        },
        {
            "chapter": 21,
            "verse": 42,
            "name": "Matthew 21:42",
            "text": "Jezus jim pravi: \"Ali niste nikoli brali v pismih: 'Kamen, ki so ga graditelji zavrgli, ta isti je postal glava vogalu: to je Gospodovo delo in to je \u010dudovito v na\u0161ih o\u010deh?' "
        },
        {
            "chapter": 21,
            "verse": 43,
            "name": "Matthew 21:43",
            "text": "Zatorej vam pravim: 'Bo\u017eje kraljestvo vam bo vzeto in dano narodu, ki prina\u0161a sadove od tega. "
        },
        {
            "chapter": 21,
            "verse": 44,
            "name": "Matthew 21:44",
            "text": "In kdorkoli bo padel na ta kamen, bo razbit: toda na kogarkoli bo ta padel, tega bo zmlel v prah.'\" "
        },
        {
            "chapter": 21,
            "verse": 45,
            "name": "Matthew 21:45",
            "text": "Ko pa so visoki duhovniki in farizeji sli\u0161ali njegove prispodobe, so dojeli, da je govoril o njih. "
        },
        {
            "chapter": 21,
            "verse": 46,
            "name": "Matthew 21:46",
            "text": "Toda ko so si prizadevali polo\u017eiti roke nanj, so se zbali mno\u017eice, ker so ga imeli za preroka. "
        }
    ]
}