{
    "translation": "La Bible de Zadoc Khan",
    "abbreviation": "frekhan",
    "lang": "fr",
    "language": "French",
    "direction": "LTR",
    "encoding": "UTF-8",
    "book_nr": 2,
    "book_name": "Exodus",
    "chapter": 21,
    "name": "Exodus 21",
    "verses": [
        {
            "chapter": 21,
            "verse": 1,
            "name": "Exodus 21:1",
            "text": "Et voici les statuts que tu leur exposeras. "
        },
        {
            "chapter": 21,
            "verse": 2,
            "name": "Exodus 21:2",
            "text": "Si tu ach\u00e8tes un esclave h\u00e9breu, il restera six ann\u00e9es esclave et \u00e0 la septi\u00e8me il sera remis en libert\u00e9 sans ran\u00e7on. "
        },
        {
            "chapter": 21,
            "verse": 3,
            "name": "Exodus 21:3",
            "text": "S\u2019Il est venu seul, seul il sortira; s\u2019il \u00e9tait mari\u00e9, sa femme sortira avec lui. "
        },
        {
            "chapter": 21,
            "verse": 4,
            "name": "Exodus 21:4",
            "text": "Si son ma\u00eetre lui a donn\u00e9 une femme, laquelle lui ait enfant\u00e9 des fils ou des filles, la femme, avec les enfants, appartiendra \u00e0 son ma\u00eetre et lui se retirera seul. "
        },
        {
            "chapter": 21,
            "verse": 5,
            "name": "Exodus 21:5",
            "text": "Que si l\u2019esclave dit: \"J\u2019Aime mon ma\u00eetre, ma femme et mes enfants, je ne veux pas \u00eatre affranchi\", "
        },
        {
            "chapter": 21,
            "verse": 6,
            "name": "Exodus 21:6",
            "text": "son ma\u00eetre l\u2019am\u00e8nera par-devant le tribunal, on le placera pr\u00e8s d\u2019une porte ou d\u2019un poteau; et son ma\u00eetre lui percera l\u2019oreille avec un poin\u00e7on et il le servira ind\u00e9finiment. "
        },
        {
            "chapter": 21,
            "verse": 7,
            "name": "Exodus 21:7",
            "text": "\"Si un homme vend sa fille comme esclave, elle ne quittera pas son ma\u00eetre \u00e0 la fa\u00e7on des esclaves. "
        },
        {
            "chapter": 21,
            "verse": 8,
            "name": "Exodus 21:8",
            "text": "Si elle lui d\u00e9pla\u00eet et qu\u2019il ne la r\u00e9serve point \u00e0 lui-m\u00eame, il la laissera s\u2019affranchir; il n\u2019aura pas pouvoir de la vendre \u00e0 une famille \u00e9trang\u00e8re, apr\u00e8s l\u2019avoir d\u00e9\u00e7ue. "
        },
        {
            "chapter": 21,
            "verse": 9,
            "name": "Exodus 21:9",
            "text": "Que s\u2019il la fiance \u00e0 son fils, il proc\u00e9dera \u00e0 son \u00e9gard selon. la r\u00e8gle des filles. "
        },
        {
            "chapter": 21,
            "verse": 10,
            "name": "Exodus 21:10",
            "text": "S\u2019Il lui en adjoint une autre, il ne devra point la frustrer de sa nourriture, de son habillement, ni du droit conjugal. "
        },
        {
            "chapter": 21,
            "verse": 11,
            "name": "Exodus 21:11",
            "text": "Et s\u2019il ne proc\u00e8de pas \u00e0 son \u00e9gard de l\u2019une de ces trois mani\u00e8res, elle se retirera gratuitement, sans ran\u00e7on. "
        },
        {
            "chapter": 21,
            "verse": 12,
            "name": "Exodus 21:12",
            "text": "\"Celui qui frappe un homme et le fait mourir sera puni de mort. "
        },
        {
            "chapter": 21,
            "verse": 13,
            "name": "Exodus 21:13",
            "text": "S\u2019Il n\u2019y a pas eu guet-apens et que Dieu seul ait conduit sa main, il se r\u00e9fugiera dans un des endroits que je te d\u00e9signerai. "
        },
        {
            "chapter": 21,
            "verse": 14,
            "name": "Exodus 21:14",
            "text": "\"Mais si quelqu\u2019un, agissant avec pr\u00e9m\u00e9ditation contre son prochain, le tue de guet-apens, du pied m\u00eame de mon autel tu le conduiras \u00e0 la mort. "
        },
        {
            "chapter": 21,
            "verse": 15,
            "name": "Exodus 21:15",
            "text": "\"Celui qui frappera son p\u00e8re ou sa m\u00e8re sera mis \u00e0 mort. "
        },
        {
            "chapter": 21,
            "verse": 16,
            "name": "Exodus 21:16",
            "text": "\"Celui qui aura enlev\u00e9 un homme et l\u2019aura vendu, si on l\u2019a pris sur le fait, sera mis \u00e0 mort. "
        },
        {
            "chapter": 21,
            "verse": 17,
            "name": "Exodus 21:17",
            "text": "\"Celui qui maudit son p\u00e8re ou sa m\u00e8re sera puni de mort. "
        },
        {
            "chapter": 21,
            "verse": 18,
            "name": "Exodus 21:18",
            "text": "\"Si des hommes se prennent de querelle et que l\u2019un frappe l\u2019autre d\u2019un coup de pierre ou de poing, sans qu\u2019il en meure, mais qu\u2019il soit forc\u00e9 de s\u2019aliter, "
        },
        {
            "chapter": 21,
            "verse": 19,
            "name": "Exodus 21:19",
            "text": "s\u2019il se rel\u00e8ve et qu\u2019il puisse sortir appuy\u00e9 sur son b\u00e2ton, l\u2019auteur de la blessure sera absous. Toutefois, il paiera le ch\u00f4mage et les frais de la gu\u00e9rison. "
        },
        {
            "chapter": 21,
            "verse": 20,
            "name": "Exodus 21:20",
            "text": "\"Si un homme frappe du b\u00e2ton son esclave m\u00e2le ou femelle et que l\u2019esclave meure sous sa main, il doit \u00eatre veng\u00e9. "
        },
        {
            "chapter": 21,
            "verse": 21,
            "name": "Exodus 21:21",
            "text": "Si pourtant il survit un jour ou deux, il ne sera pas veng\u00e9, parce qu\u2019il est sa propri\u00e9t\u00e9. "
        },
        {
            "chapter": 21,
            "verse": 22,
            "name": "Exodus 21:22",
            "text": "\"Si, des hommes ayant une rixe, l\u2019un d\u2019eux heurte une femme enceinte et la fait avorter sans autre malheur, il sera condamn\u00e9 \u00e0 l\u2019amende que lui fera infliger l\u2019\u00e9poux de cette femme et il la paiera \u00e0 dire d\u2019experts. "
        },
        {
            "chapter": 21,
            "verse": 23,
            "name": "Exodus 21:23",
            "text": "Mais si un malheur s\u2019ensuit, tu feras payer corps pour corps; "
        },
        {
            "chapter": 21,
            "verse": 24,
            "name": "Exodus 21:24",
            "text": "oeil pour oeil, dent pour dent, main pour main, pied pour pied; "
        },
        {
            "chapter": 21,
            "verse": 25,
            "name": "Exodus 21:25",
            "text": "br\u00fblure pour br\u00fblure, plaie pour plaie, contusion pour contusion. "
        },
        {
            "chapter": 21,
            "verse": 26,
            "name": "Exodus 21:26",
            "text": "\"Si un homme blesse l\u2019\u0153il de son esclave ou de sa servante de mani\u00e8re \u00e0 lui en \u00f4ter l\u2019usage, il le renverra libre \u00e0 cause de son \u0153il "
        },
        {
            "chapter": 21,
            "verse": 27,
            "name": "Exodus 21:27",
            "text": "et s\u2019il fait tomber une dent \u00e0 son esclave ou \u00e0 sa servante, il lui rendra la libert\u00e9 \u00e0 cause de sa dent. "
        },
        {
            "chapter": 21,
            "verse": 28,
            "name": "Exodus 21:28",
            "text": "\"Si un boeuf heurte un homme ou une femme et qu\u2019ils en meurent, ce boeuf doit \u00eatre lapid\u00e9 et il ne sera point permis d\u2019en manger la chair; mais le propri\u00e9taire du boeuf sera absous. "
        },
        {
            "chapter": 21,
            "verse": 29,
            "name": "Exodus 21:29",
            "text": "Si ce boeuf \u00e9tait sujet \u00e0 heurter, d\u00e9j\u00e0 ant\u00e9rieurement, que son ma\u00eetre, averti, ne l\u2019ait pas surveill\u00e9 et qu\u2019il ait fait p\u00e9rir un homme ou une femme, le boeuf sera lapid\u00e9 et m\u00eame son ma\u00eetre m\u00e9rite la mort. "
        },
        {
            "chapter": 21,
            "verse": 30,
            "name": "Exodus 21:30",
            "text": "Si toutefois une amende lui est impos\u00e9e, il paiera la ran\u00e7on de sa vie selon ce qu\u2019on lui aura impos\u00e9. "
        },
        {
            "chapter": 21,
            "verse": 31,
            "name": "Exodus 21:31",
            "text": "Si un b\u0153uf heurte soit un gar\u00e7on, soit une fille, la m\u00eame loi lui sera appliqu\u00e9e. "
        },
        {
            "chapter": 21,
            "verse": 32,
            "name": "Exodus 21:32",
            "text": "Si ce b\u0153uf heurte un esclave ou une esclave, on paiera \u00e0 leur ma\u00eetre une somme de trente sicles et le boeuf sera lapid\u00e9. "
        },
        {
            "chapter": 21,
            "verse": 33,
            "name": "Exodus 21:33",
            "text": "\"Si quelqu\u2019un d\u00e9couvre une citerne, ou si, en ayant creus\u00e9 une, il ne la couvre point et qu\u2019un boeuf ou un \u00e2ne y tombe, "
        },
        {
            "chapter": 21,
            "verse": 34,
            "name": "Exodus 21:34",
            "text": "le propri\u00e9taire de la citerne doit payer: il remboursera la valeur au ma\u00eetre et l\u2019animal mort lui restera. "
        },
        {
            "chapter": 21,
            "verse": 35,
            "name": "Exodus 21:35",
            "text": "\"Si le b\u0153uf appartenant \u00e0 un homme blesse celui d\u2019un autre et le fait p\u00e9rir, on vendra le b\u0153uf vivant; ils s\u2019en partageront le prix, et partageront aussi le b\u0153uf mort. "
        },
        {
            "chapter": 21,
            "verse": 36,
            "name": "Exodus 21:36",
            "text": "Mais si, notoirement, ce boeuf a d\u00e9j\u00e0 heurt\u00e9 \u00e0 plusieurs reprises et que son ma\u00eetre ne l\u2019ait pas surveill\u00e9, il devra restituer boeuf pour boeuf et le boeuf tu\u00e9 lui restera. "
        },
        {
            "chapter": 21,
            "verse": 37,
            "name": "Exodus 21:37",
            "text": "Si quelqu\u2019un d\u00e9robe un b\u0153uf ou une brebis, puis \u00e9gorge ou vend l\u2019animal, il donnera cinq pi\u00e8ces de gros b\u00e9tail en paiement du boeuf, quatre de menu b\u00e9tail pour la brebis.  "
        }
    ]
}