{
    "translation": "\u05de\u05e7\u05e8\u05d0 \u05e2\u05dc \u05e4\u05d9 \u05d4\u05de\u05e1\u05d5\u05e8\u05d4 (Miqra `al pi ha-Mesorah)",
    "abbreviation": "mapm",
    "lang": "he",
    "language": "Hebrew",
    "direction": "RTL",
    "encoding": "UTF-8",
    "book_nr": 14,
    "book_name": "2 Chronicles",
    "chapter": 15,
    "name": "2 Chronicles 15",
    "verses": [
        {
            "chapter": 15,
            "verse": 1,
            "name": "2 Chronicles 15:1",
            "text": "\u3000\u3000\u3000\u05d5\u05b7\u05e2\u05b2\u05d6\u05b7\u05e8\u05b0\u05d9\u05b8\u0599\u05d4\u05d5\u05bc\u0599 \u05d1\u05bc\u05b6\u05df\u05be\u05e2\u05d5\u05b9\u05d3\u05b5\u0594\u05d3 \u05d4\u05b8\u05d9\u05b0\u05ea\u05b8\u05a5\u05d4 \u05e2\u05b8\u05dc\u05b8\u0596\u05d9\u05d5 \u05e8\u05a5\u05d5\u05bc\u05d7\u05b7 \u05d0\u05b1\u05dc\u05b9\u05d4\u05b4\u05bd\u05d9\u05dd\u05c3"
        },
        {
            "chapter": 15,
            "verse": 2,
            "name": "2 Chronicles 15:2",
            "text": "\u05d5\u05b7\u05d9\u05bc\u05b5\u05e6\u05b5\u05d0\u05ae \u05dc\u05b4\u05e4\u05b0\u05e0\u05b5\u05a3\u05d9 \u05d0\u05b8\u05e1\u05b8\u05d0\u0592 \u05d5\u05b7\u05d9\u05bc\u05b9\u05a3\u05d0\u05de\u05b6\u05e8 \u05dc\u0594\u05d5\u05b9 \u05e9\u05c1\u05b0\u05de\u05b8\u05e2\u0595\u05d5\u05bc\u05e0\u05b4\u05d9 \u05d0\u05b8\u05e1\u05b8\u0596\u05d0 \u05d5\u05b0\u05db\u05c7\u05dc\u05be\u05d9\u05b0\u05d4\u05d5\u05bc\u05d3\u05b8\u05a3\u05d4 \u05d5\u05bc\u05d1\u05b4\u05e0\u05b0\u05d9\u05b8\u05de\u05b4\u0591\u05df \u05d9\u05b0\u05d4\u05b9\u05d5\u05b8\u05a4\u05d4 \u05e2\u05b4\u05de\u05bc\u05b8\u05db\u05b6\u05dd\u0599 \u05d1\u05bc\u05b4\u05bd\u05d4\u05b0\u05d9\u05d5\u05b9\u05ea\u05b0\u05db\u05b6\u05a3\u05dd \u05e2\u05b4\u05de\u05bc\u0594\u05d5\u05b9 \u05d5\u05b0\u05d0\u05b4\u05bd\u05dd\u05be\u05ea\u05bc\u05b4\u05d3\u05b0\u05e8\u05b0\u05e9\u05c1\u05bb\u0599\u05d4\u05d5\u05bc\u0599 \u05d9\u05b4\u05de\u05bc\u05b8\u05e6\u05b5\u05a3\u05d0 \u05dc\u05b8\u05db\u05b6\u0594\u05dd \u05d5\u05b0\u05d0\u05b4\u05dd\u05be\u05ea\u05bc\u05b7\u05e2\u05b7\u05d6\u05b0\u05d1\u05bb\u0596\u05d4\u05d5\u05bc \u05d9\u05b7\u05e2\u05b2\u05d6\u05b9\u05a5\u05d1 \u05d0\u05b6\u05ea\u05b0\u05db\u05b6\u05bd\u05dd\u05c3"
        },
        {
            "chapter": 15,
            "verse": 3,
            "name": "2 Chronicles 15:3",
            "text": " \u3000\u3000\u3000\u05d5\u05b0\u05d9\u05b8\u05de\u05b4\u05a5\u05d9\u05dd \u05e8\u05b7\u05d1\u05bc\u05b4\u0596\u05d9\u05dd \u05dc\u05b0\u05d9\u05b4\u05e9\u05c2\u05b0\u05e8\u05b8\u05d0\u05b5\u0591\u05dc \u05dc\u05b0\u05dc\u05b9\u05a3\u05d0\u00a0\u05c0 \u05d0\u05b1\u05dc\u05b9\u05d4\u05b5\u05a3\u05d9 \u05d0\u05b1\u05de\u05b6\u0597\u05ea \u05d5\u05bc\u05dc\u05b0\u05dc\u05b9\u059b\u05d0 \u05db\u05bc\u05b9\u05d4\u05b5\u05a5\u05df \u05de\u05d5\u05b9\u05e8\u05b6\u0596\u05d4 \u05d5\u05bc\u05dc\u05b0\u05dc\u05b9\u05a5\u05d0 \u05ea\u05d5\u05b9\u05e8\u05b8\u05bd\u05d4\u05c3"
        },
        {
            "chapter": 15,
            "verse": 4,
            "name": "2 Chronicles 15:4",
            "text": "\u05d5\u05b7\u05d9\u05bc\u05b8\u0599\u05e9\u05c1\u05c7\u05d1\u0599 \u05d1\u05bc\u05b7\u05e6\u05bc\u05b7\u05e8\u05be\u05dc\u0594\u05d5\u05b9 \u05e2\u05b7\u05dc\u05be\u05d9\u05b0\u05d4\u05b9\u05d5\u05b8\u0596\u05d4 \u05d0\u05b1\u05dc\u05b9\u05d4\u05b5\u05a3\u05d9 \u05d9\u05b4\u05e9\u05c2\u05b0\u05e8\u05b8\u05d0\u05b5\u0591\u05dc \u05d5\u05b7\u05d9\u05b0\u05d1\u05b7\u05e7\u05b0\u05e9\u05c1\u05bb\u0596\u05d4\u05d5\u05bc \u05d5\u05b7\u05d9\u05bc\u05b4\u05de\u05bc\u05b8\u05e6\u05b5\u05a5\u05d0 \u05dc\u05b8\u05d4\u05b6\u05bd\u05dd\u05c3"
        },
        {
            "chapter": 15,
            "verse": 5,
            "name": "2 Chronicles 15:5",
            "text": "\u05d5\u05bc\u05d1\u05b8\u05e2\u05b4\u05ea\u05bc\u05b4\u05a3\u05d9\u05dd \u05d4\u05b8\u05d4\u05b5\u0594\u05dd \u05d0\u05b5\u05a5\u05d9\u05df \u05e9\u05c1\u05b8\u05dc\u0596\u05d5\u05b9\u05dd \u05dc\u05b7\u05d9\u05bc\u05d5\u05b9\u05e6\u05b5\u05a3\u05d0 \u05d5\u05b0\u05dc\u05b7\u05d1\u05bc\u05b8\u0591\u05d0 \u05db\u05bc\u05b4\u059a\u05d9 \u05de\u05b0\u05d4\u05d5\u05bc\u05de\u05b9\u05a3\u05ea \u05e8\u05b7\u05d1\u05bc\u0594\u05d5\u05b9\u05ea \u05e2\u05b7\u05a5\u05dc \u05db\u05bc\u05c7\u05dc\u05be\u05d9\u05b9\u05e9\u05c1\u05b0\u05d1\u05b5\u0596\u05d9 \u05d4\u05b8\u05d0\u05b2\u05e8\u05b8\u05e6\u05bd\u05d5\u05b9\u05ea\u05c3"
        },
        {
            "chapter": 15,
            "verse": 6,
            "name": "2 Chronicles 15:6",
            "text": "\u05d5\u05b0\u05db\u05bb\u05ea\u05bc\u05b0\u05ea\u05a5\u05d5\u05bc \u05d2\u05d5\u05b9\u05d9\u05be\u05d1\u05bc\u05b0\u05d2\u0596\u05d5\u05b9\u05d9 \u05d5\u05b0\u05e2\u05b4\u05a3\u05d9\u05e8 \u05d1\u05bc\u05b0\u05e2\u05b4\u0591\u05d9\u05e8 \u05db\u05bc\u05b4\u05bd\u05d9\u05be\u05d0\u05b1\u05dc\u05b9\u05d4\u05b4\u05a5\u05d9\u05dd \u05d4\u05b2\u05de\u05b8\u05de\u05b8\u0596\u05dd \u05d1\u05bc\u05b0\u05db\u05c7\u05dc\u05be\u05e6\u05b8\u05e8\u05b8\u05bd\u05d4\u05c3"
        },
        {
            "chapter": 15,
            "verse": 7,
            "name": "2 Chronicles 15:7",
            "text": "\u05d5\u05b0\u05d0\u05b7\u05ea\u05bc\u05b6\u05a3\u05dd \u05d7\u05b4\u05d6\u05b0\u05e7\u0594\u05d5\u05bc \u05d5\u05b0\u05d0\u05b7\u05dc\u05be\u05d9\u05b4\u05e8\u05b0\u05e4\u05bc\u0596\u05d5\u05bc \u05d9\u05b0\u05d3\u05b5\u05d9\u05db\u05b6\u0591\u05dd \u05db\u05bc\u05b4\u059b\u05d9 \u05d9\u05b5\u05a5\u05e9\u05c1 \u05e9\u05c2\u05b8\u05db\u05b8\u0596\u05e8 \u05dc\u05b4\u05e4\u05b0\u05e2\u05bb\u05dc\u05bc\u05b7\u05ea\u05b0\u05db\u05b6\u05bd\u05dd\u05c3"
        },
        {
            "chapter": 15,
            "verse": 8,
            "name": "2 Chronicles 15:8",
            "text": " \u3000\u3000\u3000\u05d5\u05b0\u05db\u05b4\u05e9\u05c1\u05b0\u05de\u05b9\u05a8\u05e2\u05b7 \u05d0\u05b8\u05e1\u05b8\u059c\u05d0 \u05d4\u05b7\u05d3\u05bc\u05b0\u05d1\u05b8\u05e8\u05b4\u05a3\u05d9\u05dd \u05d4\u05b8\u05d0\u05b5\u0597\u05dc\u05bc\u05b6\u05d4 \u05d5\u05b0\u05d4\u05b7\u05e0\u05bc\u05b0\u05d1\u05d5\u05bc\u05d0\u05b8\u05d4\u05ae \u05e2\u05b9\u05d3\u05b5\u05a3\u05d3 \u05d4\u05b7\u05e0\u05bc\u05b8\u05d1\u05b4\u05d9\u05d0\u0592 \u05d4\u05b4\u05ea\u05b0\u05d7\u05b7\u05d6\u05bc\u05b7\u0597\u05e7 \u05d5\u05b7\u05d9\u05bc\u05b7\u05e2\u05b2\u05d1\u05b5\u05a4\u05e8 \u05d4\u05b7\u05e9\u05c1\u05bc\u05b4\u05e7\u05bc\u05d5\u05bc\u05e6\u05b4\u05d9\u05dd\u0599 \u05de\u05b4\u05db\u05bc\u05c7\u05dc\u05be\u05d0\u05b6\u05a4\u05e8\u05b6\u05e5 \u05d9\u05b0\u05d4\u05d5\u05bc\u05d3\u05b8\u05d4\u0599 \u05d5\u05bc\u05d1\u05b4\u05e0\u05b0\u05d9\u05b8\u05de\u05b4\u0594\u05df \u05d5\u05bc\u05de\u05b4\u05df\u05be\u05d4\u05b6\u05a3\u05e2\u05b8\u05e8\u05b4\u0594\u05d9\u05dd \u05d0\u05b2\u05e9\u05c1\u05b6\u05a5\u05e8 \u05dc\u05b8\u05db\u05b7\u0596\u05d3 \u05de\u05b5\u05d4\u05b7\u05a3\u05e8 \u05d0\u05b6\u05e4\u05b0\u05e8\u05b8\u0591\u05d9\u05b4\u05dd \u05d5\u05b7\u05d9\u05b0\u05d7\u05b7\u05d3\u05bc\u05b5\u05e9\u05c1\u0599 \u05d0\u05b6\u05ea\u05be\u05de\u05b4\u05d6\u05b0\u05d1\u05bc\u05b7\u05a3\u05d7 \u05d9\u05b0\u05d4\u05b9\u05d5\u05b8\u0594\u05d4 \u05d0\u05b2\u05e9\u05c1\u05b6\u0595\u05e8 \u05dc\u05b4\u05e4\u05b0\u05e0\u05b5\u0596\u05d9 \u05d0\u05d5\u05bc\u05dc\u05b8\u05a5\u05dd \u05d9\u05b0\u05d4\u05b9\u05d5\u05b8\u05bd\u05d4\u05c3"
        },
        {
            "chapter": 15,
            "verse": 9,
            "name": "2 Chronicles 15:9",
            "text": "\u05d5\u05b7\u05d9\u05bc\u05b4\u05e7\u05b0\u05d1\u05bc\u05b9\u0597\u05e5 \u05d0\u05b6\u05ea\u05be\u05db\u05bc\u05c7\u05dc\u05be\u05d9\u05b0\u05d4\u05d5\u05bc\u05d3\u05b8\u05d4\u0599 \u05d5\u05bc\u05d1\u05b4\u05e0\u05b0\u05d9\u05b8\u05de\u05b4\u0594\u05df \u05d5\u05b0\u05d4\u05b7\u05d2\u05bc\u05b8\u05e8\u05b4\u05d9\u05dd\u0599 \u05e2\u05b4\u05de\u05bc\u05b8\u05d4\u05b6\u0594\u05dd \u05de\u05b5\u05d0\u05b6\u05e4\u05b0\u05e8\u05b7\u05a5\u05d9\u05b4\u05dd \u05d5\u05bc\u05de\u05b0\u05e0\u05b7\u05e9\u05c1\u05bc\u05b6\u0596\u05d4 \u05d5\u05bc\u05de\u05b4\u05e9\u05c1\u05bc\u05b4\u05de\u05b0\u05e2\u0591\u05d5\u05b9\u05df \u05db\u05bc\u05b4\u05bd\u05d9\u05be\u05e0\u05b8\u05e4\u05b0\u05dc\u05a8\u05d5\u05bc \u05e2\u05b8\u05dc\u05b8\u05a4\u05d9\u05d5 \u05de\u05b4\u05d9\u05bc\u05b4\u05e9\u05c2\u05b0\u05e8\u05b8\u05d0\u05b5\u05dc\u0599 \u05dc\u05b8\u05e8\u05b9\u0594\u05d1 \u05d1\u05bc\u05b4\u05e8\u05b0\u05d0\u05b9\u05ea\u05b8\u0595\u05dd \u05db\u05bc\u05b4\u05bd\u05d9\u05be\u05d9\u05b0\u05d4\u05b9\u05d5\u05b8\u05a5\u05d4 \u05d0\u05b1\u05dc\u05b9\u05d4\u05b8\u0596\u05d9\u05d5 \u05e2\u05b4\u05de\u05bc\u05bd\u05d5\u05b9\u05c3"
        },
        {
            "chapter": 15,
            "verse": 10,
            "name": "2 Chronicles 15:10",
            "text": "  \u05d5\u05b7\u05d9\u05bc\u05b4\u05e7\u05bc\u05b8\u05d1\u05b0\u05e6\u05a5\u05d5\u05bc \u05d9\u05b0\u05e8\u05d5\u05bc\u05e9\u05c1\u05b8\u05dc\u05b7\u0596\u200d\u05b4\u05dd \u05d1\u05bc\u05b7\u05d7\u05b9\u05a3\u05d3\u05b6\u05e9\u05c1 \u05d4\u05b7\u05e9\u05c1\u05bc\u05b0\u05dc\u05b4\u05e9\u05c1\u05b4\u0591\u05d9 \u05dc\u05b4\u05e9\u05c1\u05b0\u05e0\u05b7\u05a5\u05ea \u05d7\u05b2\u05de\u05b5\u05e9\u05c1\u05be\u05e2\u05b6\u05e9\u05c2\u05b0\u05e8\u05b5\u0596\u05d4 \u05dc\u05b0\u05de\u05b7\u05dc\u05b0\u05db\u05a5\u05d5\u05bc\u05ea \u05d0\u05b8\u05e1\u05b8\u05bd\u05d0\u05c3"
        },
        {
            "chapter": 15,
            "verse": 11,
            "name": "2 Chronicles 15:11",
            "text": "\u05d5\u05b7\u05d9\u05bc\u05b4\u05d6\u05b0\u05d1\u05bc\u05b0\u05d7\u05a4\u05d5\u05bc \u05dc\u05b7\u05bd\u05d9\u05d4\u05b9\u05d5\u05b8\u05d4\u0599 \u05d1\u05bc\u05b7\u05d9\u05bc\u05a3\u05d5\u05b9\u05dd \u05d4\u05b7\u05d4\u0594\u05d5\u05bc\u05d0 \u05de\u05b4\u05df\u05be\u05d4\u05b7\u05e9\u05c1\u05bc\u05b8\u05dc\u05b8\u0596\u05dc \u05d4\u05b5\u05d1\u05b4\u0591\u05d9\u05d0\u05d5\u05bc \u05d1\u05bc\u05b8\u05e7\u05b8\u05e8\u0599 \u05e9\u05c1\u05b0\u05d1\u05b7\u05a3\u05e2 \u05de\u05b5\u05d0\u0594\u05d5\u05b9\u05ea \u05d5\u05b0\u05e6\u05b9\u0596\u05d0\u05df \u05e9\u05c1\u05b4\u05d1\u05b0\u05e2\u05b7\u05a5\u05ea \u05d0\u05b2\u05dc\u05b8\u05e4\u05b4\u05bd\u05d9\u05dd\u05c3"
        },
        {
            "chapter": 15,
            "verse": 12,
            "name": "2 Chronicles 15:12",
            "text": "\u05d5\u05b7\u05d9\u05bc\u05b8\u05d1\u05b9\u05a3\u05d0\u05d5\u05bc \u05d1\u05b7\u05d1\u05bc\u05b0\u05e8\u05b4\u0594\u05d9\u05ea \u05dc\u05b4\u05d3\u05b0\u05e8\u0595\u05d5\u05b9\u05e9\u05c1 \u05d0\u05b6\u05ea\u05be\u05d9\u05b0\u05d4\u05b9\u05d5\u05b8\u0596\u05d4 \u05d0\u05b1\u05dc\u05b9\u05d4\u05b5\u05a3\u05d9 \u05d0\u05b2\u05d1\u05d5\u05b9\u05ea\u05b5\u05d9\u05d4\u05b6\u0591\u05dd \u05d1\u05bc\u05b0\u05db\u05c7\u05dc\u05be\u05dc\u05b0\u05d1\u05b8\u05d1\u05b8\u0596\u05dd \u05d5\u05bc\u05d1\u05b0\u05db\u05c7\u05dc\u05be\u05e0\u05b7\u05e4\u05b0\u05e9\u05c1\u05b8\u05bd\u05dd\u05c3"
        },
        {
            "chapter": 15,
            "verse": 13,
            "name": "2 Chronicles 15:13",
            "text": "\u05d5\u05b0\u05db\u05b9\u05a8\u05dc \u05d0\u05b2\u05e9\u05c1\u05b6\u05a7\u05e8 \u05dc\u05b9\u05bd\u05d0\u05be\u05d9\u05b4\u05d3\u05b0\u05e8\u05b9\u059b\u05e9\u05c1 \u05dc\u05b7\u05d9\u05d4\u05b9\u05d5\u05b8\u05a5\u05d4 \u05d0\u05b1\u05dc\u05b9\u05d4\u05b5\u05bd\u05d9\u05be\u05d9\u05b4\u05e9\u05c2\u05b0\u05e8\u05b8\u05d0\u05b5\u0596\u05dc \u05d9\u05d5\u05bc\u05de\u05b8\u0591\u05ea \u05dc\u05b0\u05de\u05b4\u05df\u05be\u05e7\u05b8\u05d8\u05b9\u05df\u0599 \u05d5\u05b0\u05e2\u05b7\u05d3\u05be\u05d2\u05bc\u05b8\u05d3\u0594\u05d5\u05b9\u05dc \u05dc\u05b0\u05de\u05b5\u05d0\u05b4\u0596\u05d9\u05e9\u05c1 \u05d5\u05b0\u05e2\u05b7\u05d3\u05be\u05d0\u05b4\u05e9\u05c1\u05bc\u05b8\u05bd\u05d4\u05c3"
        },
        {
            "chapter": 15,
            "verse": 14,
            "name": "2 Chronicles 15:14",
            "text": "\u05d5\u05b7\u05d9\u05bc\u05b4\u05e9\u05c1\u05bc\u05b8\u05bd\u05d1\u05b0\u05e2\u05d5\u05bc\u0599 \u05dc\u05b7\u05bd\u05d9\u05d4\u05b9\u05d5\u05b8\u0594\u05d4 \u05d1\u05bc\u05b0\u05e7\u05a5\u05d5\u05b9\u05dc \u05d2\u05bc\u05b8\u05d3\u0596\u05d5\u05b9\u05dc \u05d5\u05bc\u05d1\u05b4\u05ea\u05b0\u05e8\u05d5\u05bc\u05e2\u05b8\u0591\u05d4 \u05d5\u05bc\u05d1\u05b7\u05d7\u05b2\u05e6\u05b9\u05e6\u05b0\u05e8\u0596\u05d5\u05b9\u05ea \u05d5\u05bc\u05d1\u05b0\u05e9\u05c1\u05d5\u05b9\u05e4\u05b8\u05e8\u05bd\u05d5\u05b9\u05ea\u05c3"
        },
        {
            "chapter": 15,
            "verse": 15,
            "name": "2 Chronicles 15:15",
            "text": "\u05d5\u05b7\u05d9\u05bc\u05b4\u05e9\u05c2\u05b0\u05de\u05b0\u05d7\u05a8\u05d5\u05bc \u05db\u05c7\u05dc\u05be\u05d9\u05b0\u05d4\u05d5\u05bc\u05d3\u05b8\u059c\u05d4 \u05e2\u05b7\u05dc\u05be\u05d4\u05b7\u05e9\u05c1\u05bc\u05b0\u05d1\u05d5\u05bc\u05e2\u05b8\u0597\u05d4 \u05db\u05bc\u05b4\u05a4\u05d9 \u05d1\u05b0\u05db\u05c7\u05dc\u05be\u05dc\u05b0\u05d1\u05b8\u05d1\u05b8\u05dd\u0599 \u05e0\u05b4\u05e9\u05c1\u05b0\u05d1\u05bc\u05b8\u0594\u05e2\u05d5\u05bc \u05d5\u05bc\u05d1\u05b0\u05db\u05c7\u05dc\u05be\u05e8\u05b0\u05e6\u05d5\u05b9\u05e0\u05b8\u05a3\u05dd \u05d1\u05bc\u05b4\u05e7\u05b0\u05e9\u05c1\u05bb\u0594\u05d4\u05d5\u05bc \u05d5\u05b7\u05d9\u05bc\u05b4\u05de\u05bc\u05b8\u05e6\u05b5\u0596\u05d0 \u05dc\u05b8\u05d4\u05b6\u0591\u05dd \u05d5\u05b7\u05d9\u05bc\u05b8\u05a7\u05e0\u05b7\u05d7 \u05d9\u05b0\u05d4\u05b9\u05d5\u05b8\u059b\u05d4 \u05dc\u05b8\u05d4\u05b6\u0596\u05dd \u05de\u05b4\u05e1\u05bc\u05b8\u05d1\u05b4\u05bd\u05d9\u05d1\u05c3"
        },
        {
            "chapter": 15,
            "verse": 16,
            "name": "2 Chronicles 15:16",
            "text": "\u05d5\u05b0\u05d2\u05b7\u05bd\u05dd\u05be\u05de\u05b7\u05e2\u05b2\u05db\u05b8\u059e\u05d4 \u05d0\u05b5\u05a3\u05dd\u00a0\u05c0 \u05d0\u05b8\u05e1\u05b8\u05a3\u05d0 \u05d4\u05b7\u05de\u05bc\u05b6\u0597\u05dc\u05b6\u05da\u05b0 \u05d4\u05b1\u05e1\u05b4\u05d9\u05e8\u05b8\u05d4\u05bc\u0599 \u05de\u05b4\u05d2\u05bc\u05b0\u05d1\u05b4\u05d9\u05e8\u05b8\u0594\u05d4 \u05d0\u05b2\u05e9\u05c1\u05b6\u05e8\u05be\u05e2\u05b8\u05e9\u05c2\u05b0\u05ea\u05b8\u05a5\u05d4 \u05dc\u05b8\u05d0\u05b2\u05e9\u05c1\u05b5\u05e8\u05b8\u0596\u05d4 \u05de\u05b4\u05e4\u05b0\u05dc\u05b8\u0591\u05e6\u05b6\u05ea \u05d5\u05b7\u05d9\u05bc\u05b4\u05db\u05b0\u05e8\u05b9\u05a4\u05ea \u05d0\u05b8\u05e1\u05b8\u05d0\u0599 \u05d0\u05b6\u05ea\u05be\u05de\u05b4\u05e4\u05b0\u05dc\u05b7\u05e6\u05b0\u05ea\u05bc\u05b8\u0594\u05d4\u05bc \u05d5\u05b7\u05d9\u05bc\u05b8\u0595\u05d3\u05b6\u05e7 \u05d5\u05b7\u05d9\u05bc\u05b4\u05e9\u05c2\u05b0\u05e8\u05b9\u0596\u05e3 \u05d1\u05bc\u05b0\u05e0\u05b7\u05a5\u05d7\u05b7\u05dc \u05e7\u05b4\u05d3\u05b0\u05e8\u05bd\u05d5\u05b9\u05df\u05c3"
        },
        {
            "chapter": 15,
            "verse": 17,
            "name": "2 Chronicles 15:17",
            "text": "\u05d5\u05b0\u05d4\u05b7\u05a8\u05d1\u05bc\u05b8\u05de\u0594\u05d5\u05b9\u05ea \u05dc\u05b9\u05d0\u05be\u05e1\u05b8\u0596\u05e8\u05d5\u05bc \u05de\u05b4\u05d9\u05bc\u05b4\u05e9\u05c2\u05b0\u05e8\u05b8\u05d0\u05b5\u0591\u05dc \u05e8\u05b7\u05a7\u05e7 \u05dc\u05b0\u05d1\u05b7\u05d1\u05be\u05d0\u05b8\u05e1\u05b8\u059b\u05d0 \u05d4\u05b8\u05d9\u05b8\u05a5\u05d4 \u05e9\u05c1\u05b8\u05dc\u05b5\u0596\u05dd \u05db\u05bc\u05c7\u05dc\u05be\u05d9\u05b8\u05de\u05b8\u05bd\u05d9\u05d5\u05c3"
        },
        {
            "chapter": 15,
            "verse": 18,
            "name": "2 Chronicles 15:18",
            "text": "\u05d5\u05b7\u05d9\u05bc\u05b8\u05d1\u05b5\u059e\u05d0 \u05d0\u05b6\u05ea\u05be\u05e7\u05c7\u05d3\u05b0\u05e9\u05c1\u05b5\u05a5\u05d9 \u05d0\u05b8\u05d1\u05b4\u059b\u05d9\u05d5 \u05d5\u05b0\u05e7\u05c7\u05d3\u05b8\u05e9\u05c1\u05b8\u0596\u05d9\u05d5 \u05d1\u05bc\u05b5\u05a3\u05d9\u05ea \u05d4\u05b8\u05d0\u05b1\u05dc\u05b9\u05d4\u05b4\u0591\u05d9\u05dd \u05db\u05bc\u05b6\u05a5\u05e1\u05b6\u05e3 \u05d5\u05b0\u05d6\u05b8\u05d4\u05b8\u0596\u05d1 \u05d5\u05b0\u05db\u05b5\u05dc\u05b4\u05bd\u05d9\u05dd\u05c3"
        },
        {
            "chapter": 15,
            "verse": 19,
            "name": "2 Chronicles 15:19",
            "text": "\u05d5\u05bc\u05de\u05b4\u05dc\u05b0\u05d7\u05b8\u05de\u05b8\u0596\u05d4 \u05dc\u05b9\u05a3\u05d0 \u05d4\u05b8\u05d9\u05b8\u0591\u05ea\u05b8\u05d4 \u05e2\u05b7\u059b\u05d3 \u05e9\u05c1\u05b0\u05e0\u05b7\u05ea\u05be\u05e9\u05c1\u05b0\u05dc\u05b9\u05e9\u05c1\u05b4\u05a5\u05d9\u05dd \u05d5\u05b0\u05d7\u05b8\u05de\u05b5\u0596\u05e9\u05c1 \u05dc\u05b0\u05de\u05b7\u05dc\u05b0\u05db\u05a5\u05d5\u05bc\u05ea \u05d0\u05b8\u05e1\u05b8\u05bd\u05d0\u05c3  "
        }
    ]
}