{
    "translation": "Russian Synodal Bible, Licht im Osten Edition",
    "abbreviation": "russynodallio",
    "lang": "ru",
    "language": "Russian",
    "direction": "LTR",
    "encoding": "UTF-8",
    "book_nr": 19,
    "book_name": "Psalms",
    "chapter": 139,
    "name": "Psalms 139",
    "verses": [
        {
            "chapter": 139,
            "verse": 1,
            "name": "Psalms 139:1",
            "text": "    9\u041d\u0430\u0447\u0430\u043b\u044c\u043d\u0438\u043a\u0443 \u0445\u043e\u0440\u0430. \u041f\u0441\u0430\u043b\u043e\u043c \u0414\u0430\u0432\u0438\u0434\u0430. "
        },
        {
            "chapter": 139,
            "verse": 2,
            "name": "Psalms 139:2",
            "text": "\u0418\u0437\u0431\u0430\u0432\u044c \u043c\u0435\u043d\u044f, \u0413\u043e\u0441\u043f\u043e\u0434\u0438, \u043e\u0442 \u0447\u0435\u043b\u043e\u0432\u0435\u043a\u0430 \u0437\u043b\u043e\u0433\u043e, \u0441\u043e\u0445\u0440\u0430\u043d\u0438 \u043c\u0435\u043d\u044f \u043e\u0442 \u043f\u0440\u0438\u0442\u0435\u0441\u043d\u0438\u0442\u0435\u043b\u044f: "
        },
        {
            "chapter": 139,
            "verse": 3,
            "name": "Psalms 139:3",
            "text": "\u043e\u043d\u0438 \u0437\u043b\u043e\u0435 \u043c\u044b\u0441\u043b\u044f\u0442 \u0432 \u0441\u0435\u0440\u0434\u0446\u0435, \u0432\u0441\u044f\u043a\u0438\u0439 \u0434\u0435\u043d\u044c \u043e\u043f\u043e\u043b\u0447\u0430\u044e\u0442\u0441\u044f \u043d\u0430 \u0431\u0440\u0430\u043d\u044c, "
        },
        {
            "chapter": 139,
            "verse": 4,
            "name": "Psalms 139:4",
            "text": "\u0438\u0437\u043e\u0449\u0440\u044f\u044e\u0442 \u044f\u0437\u044b\u043a \u0441\u0432\u043e\u0439, \u043a\u0430\u043a \u0437\u043c\u0435\u044f; \u044f\u0434 \u0430\u0441\u043f\u0438\u0434\u0430 \u043f\u043e\u0434 \u0443\u0441\u0442\u0430\u043c\u0438 \u0438\u0445. "
        },
        {
            "chapter": 139,
            "verse": 5,
            "name": "Psalms 139:5",
            "text": "\u0421\u043e\u0431\u043b\u044e\u0434\u0438 \u043c\u0435\u043d\u044f, \u0413\u043e\u0441\u043f\u043e\u0434\u0438, \u043e\u0442 \u0440\u0443\u043a \u043d\u0435\u0447\u0435\u0441\u0442\u0438\u0432\u043e\u0433\u043e, \u0441\u043e\u0445\u0440\u0430\u043d\u0438 \u043c\u0435\u043d\u044f \u043e\u0442 \u043f\u0440\u0438\u0442\u0435\u0441\u043d\u0438\u0442\u0435\u043b\u0435\u0439, \u043a\u043e\u0442\u043e\u0440\u044b\u0435 \u0437\u0430\u043c\u044b\u0441\u043b\u0438\u043b\u0438 \u043f\u043e\u043a\u043e\u043b\u0435\u0431\u0430\u0442\u044c \u0441\u0442\u043e\u043f\u044b \u043c\u043e\u0438. "
        },
        {
            "chapter": 139,
            "verse": 6,
            "name": "Psalms 139:6",
            "text": "\u0413\u043e\u0440\u0434\u044b\u0435 \u0441\u043a\u0440\u044b\u043b\u0438 \u0441\u0438\u043b\u043a\u0438 \u0434\u043b\u044f \u043c\u0435\u043d\u044f \u0438 \u043f\u0435\u0442\u043b\u0438, \u0440\u0430\u0441\u043a\u0438\u043d\u0443\u043b\u0438 \u0441\u0435\u0442\u044c \u043f\u043e \u0434\u043e\u0440\u043e\u0433\u0435, \u0442\u0435\u043d\u0435\u0442\u0430 \u0440\u0430\u0437\u043b\u043e\u0436\u0438\u043b\u0438 \u0434\u043b\u044f \u043c\u0435\u043d\u044f. "
        },
        {
            "chapter": 139,
            "verse": 7,
            "name": "Psalms 139:7",
            "text": "\u042f \u0441\u043a\u0430\u0437\u0430\u043b \u0413\u043e\u0441\u043f\u043e\u0434\u0443: \u0422\u044b \u0411\u043e\u0433 \u043c\u043e\u0439! \u0423\u0441\u043b\u044b\u0448\u044c, \u0413\u043e\u0441\u043f\u043e\u0434\u0438, \u0433\u043e\u043b\u043e\u0441 \u043c\u043e\u043b\u0435\u043d\u0438\u0439 \u043c\u043e\u0438\u0445! "
        },
        {
            "chapter": 139,
            "verse": 8,
            "name": "Psalms 139:8",
            "text": "\u0413\u043e\u0441\u043f\u043e\u0434\u0438, \u0413\u043e\u0441\u043f\u043e\u0434\u0438, \u0441\u0438\u043b\u0430 \u0441\u043f\u0430\u0441\u0435\u043d\u0438\u044f \u043c\u043e\u0435\u0433\u043e! \u0422\u044b \u043f\u043e\u043a\u0440\u044b\u043b \u0433\u043e\u043b\u043e\u0432\u0443 \u043c\u043e\u044e \u0432 \u0434\u0435\u043d\u044c \u0431\u0440\u0430\u043d\u0438. "
        },
        {
            "chapter": 139,
            "verse": 9,
            "name": "Psalms 139:9",
            "text": "\u041d\u0435 \u0434\u0430\u0439, \u0413\u043e\u0441\u043f\u043e\u0434\u0438, \u0436\u0435\u043b\u0430\u0435\u043c\u043e\u0433\u043e \u043d\u0435\u0447\u0435\u0441\u0442\u0438\u0432\u043e\u043c\u0443; \u043d\u0435 \u0434\u0430\u0439 \u0443\u0441\u043f\u0435\u0445\u0430 \u0437\u043b\u043e\u043c\u0443 \u0437\u0430\u043c\u044b\u0441\u043b\u0443 \u0435\u0433\u043e: \u043e\u043d\u0438 \u0432\u043e\u0437\u0433\u043e\u0440\u0434\u044f\u0442\u0441\u044f. "
        },
        {
            "chapter": 139,
            "verse": 10,
            "name": "Psalms 139:10",
            "text": "\u0414\u0430 \u043f\u043e\u043a\u0440\u043e\u0435\u0442 \u0433\u043e\u043b\u043e\u0432\u044b \u043e\u043a\u0440\u0443\u0436\u0430\u044e\u0449\u0438\u0445 \u043c\u0435\u043d\u044f \u0437\u043b\u043e \u0441\u043e\u0431\u0441\u0442\u0432\u0435\u043d\u043d\u044b\u0445 \u0443\u0441\u0442 \u0438\u0445. "
        },
        {
            "chapter": 139,
            "verse": 11,
            "name": "Psalms 139:11",
            "text": "\u0414\u0430 \u043f\u0430\u0434\u0443\u0442 \u043d\u0430 \u043d\u0438\u0445 \u0433\u043e\u0440\u044f\u0449\u0438\u0435 \u0443\u0433\u043b\u0438; \u0434\u0430 \u0431\u0443\u0434\u0443\u0442 \u043e\u043d\u0438 \u043f\u043e\u0432\u0435\u0440\u0436\u0435\u043d\u044b \u0432 \u043e\u0433\u043e\u043d\u044c, \u0432 \u043f\u0440\u043e\u043f\u0430\u0441\u0442\u0438 \u2013 \u0442\u0430\u043a, \u0447\u0442\u043e\u0431\u044b \u043d\u0435 \u0432\u0441\u0442\u0430\u043b\u0438. "
        },
        {
            "chapter": 139,
            "verse": 12,
            "name": "Psalms 139:12",
            "text": "\u0427\u0435\u043b\u043e\u0432\u0435\u043a \u0437\u043b\u043e\u044f\u0437\u044b\u0447\u043d\u044b\u0439 \u043d\u0435 \u0443\u0442\u0432\u0435\u0440\u0434\u0438\u0442\u0441\u044f \u043d\u0430 \u0437\u0435\u043c\u043b\u0435, \u0437\u043b\u043e \u0443\u0432\u043b\u0435\u0447\u0435\u0442 \u043f\u0440\u0438\u0442\u0435\u0441\u043d\u0438\u0442\u0435\u043b\u044f \u0432 \u043f\u043e\u0433\u0438\u0431\u0435\u043b\u044c. "
        },
        {
            "chapter": 139,
            "verse": 13,
            "name": "Psalms 139:13",
            "text": "\u0417\u043d\u0430\u044e, \u0447\u0442\u043e \u0413\u043e\u0441\u043f\u043e\u0434\u044c \u0441\u043e\u0442\u0432\u043e\u0440\u0438\u0442 \u0441\u0443\u0434 \u0443\u0433\u043d\u0435\u0442\u0435\u043d\u043d\u044b\u043c \u0438 \u0441\u043f\u0440\u0430\u0432\u0435\u0434\u043b\u0438\u0432\u043e\u0441\u0442\u044c \u2013 \u0431\u0435\u0434\u043d\u044b\u043c. "
        },
        {
            "chapter": 139,
            "verse": 14,
            "name": "Psalms 139:14",
            "text": "\u0422\u0430\u043a! \u041f\u0440\u0430\u0432\u0435\u0434\u043d\u044b\u0435 \u0431\u0443\u0434\u0443\u0442 \u0441\u043b\u0430\u0432\u0438\u0442\u044c \u0438\u043c\u044f \u0422\u0432\u043e\u0435, \u043d\u0435\u043f\u043e\u0440\u043e\u0447\u043d\u044b\u0435 \u0431\u0443\u0434\u0443\u0442 \u043e\u0431\u0438\u0442\u0430\u0442\u044c \u043f\u0440\u0435\u0434 \u043b\u0438\u0446\u043e\u043c \u0422\u0432\u043e\u0438\u043c.    "
        }
    ]
}