{
    "translation": "K'ekchi' Bible",
    "abbreviation": "kekchi",
    "lang": "kek",
    "language": "Kekchi",
    "direction": "LTR",
    "encoding": "UTF-8",
    "book_nr": 7,
    "book_name": "Judges",
    "chapter": 16,
    "name": "Judges 16",
    "verses": [
        {
            "chapter": 16,
            "verse": 1,
            "name": "Judges 16:1",
            "text": "Sa\u02c8 jun li cutan co\u0331 laj Sans\u00f3n sa\u02c8 li tenamit Gaza. Quiril jun li ixk xcomoneb li neque\u02c8xc\u02c8ayi ribeb ut co\u0331 chi cua\u0331rc riq\u02c8uin. "
        },
        {
            "chapter": 16,
            "verse": 2,
            "name": "Judges 16:2",
            "text": "Eb li cuanqueb Gaza que\u02c8rabi resil nak laj Sans\u00f3n cuan sa\u02c8 li tenamit a\u02c8an. Que\u02c8xsut li na\u02c8ajej li cuan cui\u02c8 ut chixjunil li cutan yo\u0331queb chixc\u02c8ac\u02c8alenquil li oqueba\u0331l re li tenamit. Chiru li k\u02c8ojyi\u0331n que\u02c8oc chi hila\u0331nc. Que\u02c8xc\u02c8oxla nak toj ta\u0331sake\u0331uk nak te\u02c8xcamsi. "
        },
        {
            "chapter": 16,
            "verse": 3,
            "name": "Judges 16:3",
            "text": "Abanan laj Sans\u00f3n inc\u02c8a\u02c8 quicuar chixjunil li k\u02c8ojyi\u0331n. Quicuacli ban sa\u02c8 tuktu k\u02c8ojyi\u0331n. Nak qui-el aran quixnume\u02c8c\u02c8am lix puertil li oqueba\u0331l re li tenamit, rech xiquic li rokechal ut li ch\u02c8i\u0331ch\u02c8 li natz\u02c8apoc re. Quixq\u02c8ue sa\u02c8 xbe\u0331n xtel ut quixc\u02c8am sa\u02c8 li tzu\u0331l li cuan sa\u02c8 xca\u02c8yaba\u0331l li tenamit Hebr\u00f3n.  "
        },
        {
            "chapter": 16,
            "verse": 4,
            "name": "Judges 16:4",
            "text": " <div scope=\"Judg.16.4-Judg.16.22\" type=\"section\">   Ut mokon chic co\u0331 xch\u02c8o\u0331l laj Sans\u00f3n chirix jun li ixk cuan sa\u02c8 li ru tak\u02c8a aran Sorec. Li ixk a\u02c8an xDalila xc\u02c8aba\u02c8. "
        },
        {
            "chapter": 16,
            "verse": 5,
            "name": "Judges 16:5",
            "text": "Eb li neque\u02c8taklan sa\u02c8 xbe\u0331neb laj filisteos que\u02c8xye re lix Dalila: \u2014Balak\u02c8i laj Sans\u00f3n re nak tixye a\u0331cue c\u02c8a\u02c8ut nak k\u02c8axal cuan xmetz\u02c8e\u0331u ut chanru nak ta\u0331ru\u0331k tonumta\u0331k sa\u02c8 xbe\u0331n re nak takachap ut takabac\u02c8. Cui ta\u0331ye ke, la\u0331o takaq\u02c8ue a\u0331tumin. Jun mil riq\u02c8uin jun ciento chi tumin plata takaq\u02c8ue a\u0331cue chikaju\u0331nkal, chanqueb laj filisteo. "
        },
        {
            "chapter": 16,
            "verse": 6,
            "name": "Judges 16:6",
            "text": "Jo\u02c8can nak lix Dalila quixye re laj Sans\u00f3n: \u2014Ba\u0331nu usilal, ye cue c\u02c8a\u02c8ut nak k\u02c8axal cau a\u0331cuib. Cui cuan anihak ta\u0331raj a\u0331bac\u02c8bal re ta\u0331numta\u0331k sa\u02c8 a\u0331be\u0331n, \u00bfchanru nak tixba\u0331nu? chan. "
        },
        {
            "chapter": 16,
            "verse": 7,
            "name": "Judges 16:7",
            "text": "Laj Sans\u00f3n quixye: \u2014Cui tine\u02c8xbac\u02c8 riq\u02c8uin cuukub chi xc\u02c8a\u0331mal li tzimaj li toj ma\u0331ji\u02c8 chaki, la\u0331in ma\u0331c\u02c8a\u02c8ak chic inmetz\u02c8e\u0331u, chan laj Sans\u00f3n. "
        },
        {
            "chapter": 16,
            "verse": 8,
            "name": "Judges 16:8",
            "text": "Ut eb li neque\u02c8taklan sa\u02c8 xbe\u0331neb laj filisteo que\u02c8xc\u02c8am cuukub chi xc\u02c8a\u0331mal li tzimaj li toj ma\u0331ji\u02c8 chaki ut que\u02c8xq\u02c8ue re lix Dalila re nak tixbac\u02c8 laj Sans\u00f3n. "
        },
        {
            "chapter": 16,
            "verse": 9,
            "name": "Judges 16:9",
            "text": "Ac cuanqueb cui\u0331nk mukmu\u0331queb sa\u02c8 rochoch lix Dalila nak quixbac\u02c8 laj Sans\u00f3n. Quixjap re chixyebal: \u2014At Sans\u00f3n, xe\u02c8chal laj filisteo cha\u0331chapbal, chan. Abanan laj Sans\u00f3n quixt\u02c8upi lix c\u02c8a\u0331mal li tzimaj. Chanchan c\u02c8atbil c\u02c8a\u0331m nak que\u02c8t\u02c8upe\u02c8. Ut inc\u02c8a\u02c8 ajcui\u02c8 que\u02c8xnau chanru nak k\u02c8axal cau rib laj Sans\u00f3n. "
        },
        {
            "chapter": 16,
            "verse": 10,
            "name": "Judges 16:10",
            "text": "Lix Dalila quixye re laj Sans\u00f3n: \u2014Yo\u0331cat chinbalak\u02c8inquil. Tic\u02c8ti\u02c8 li xaye cue. Ba\u0331nu usilal, ye cue chanru nak ta\u0331ru\u0331k a\u0331bac\u02c8bal, chan. "
        },
        {
            "chapter": 16,
            "verse": 11,
            "name": "Judges 16:11",
            "text": "Laj Sans\u00f3n quixye re: \u2014Cui tine\u02c8xbac\u02c8 riq\u02c8uin li laso li toj ac\u02c8, li toj ma\u0331ji\u02c8 ocsinbil, ma\u0331c\u02c8a\u02c8ak chic inmetz\u02c8e\u0331u. Chanchanakin chic jo\u02c8 chixjunileb li cui\u0331nk, chan. "
        },
        {
            "chapter": 16,
            "verse": 12,
            "name": "Judges 16:12",
            "text": "Ut lix Dalila quixsic\u02c8 li laso toj ac\u02c8 ut quixbac\u02c8 laj Sans\u00f3n. Tojo\u02c8nak quixye: \u2014At Sans\u00f3n, xe\u02c8chal laj filisteo cha\u0331chapbal, chan. Ac cuanqueb aj filisteo mukmu\u0331queb chak sa\u02c8 li rochoch lix Dalila roybeninquil nak te\u02c8xchap laj Sans\u00f3n. Abanan laj Sans\u00f3n quixt\u02c8upi li laso. Chanchan nok\u02c8 nak quixt\u02c8upi. "
        },
        {
            "chapter": 16,
            "verse": 13,
            "name": "Judges 16:13",
            "text": "Lix Dalila quixye re: \u2014Toj yo\u0331cat ajcui\u02c8 chinbalak\u02c8inquil ut yo\u0331cat chi tic\u02c8ti\u02c8ic. Ye cue lix ya\u0331lal. \u00bfChanru naru tatinbac\u02c8? chan. Laj Sans\u00f3n quixye re: \u2014Cui la\u0331at ta\u0331quem li cuukub jo\u0331b li cuismal sa\u02c8 li t\u02c8icr ut ta\u0331ch\u02c8ic chi cau sa\u02c8 ch\u02c8och\u02c8 riq\u02c8uin lix che\u02c8el la\u0331 quemleb, ma\u0331c\u02c8a\u02c8ak chic inmetz\u02c8e\u0331u. Chanchanakin chic jo\u02c8 chixjunileb li cui\u0331nk, chan. Jo\u02c8can nak lix Dalila quixcuartesi laj Sans\u00f3n. Quixchap li cuukub jo\u0331b li rismal laj Sans\u00f3n ut quixquem rochben lix t\u02c8icr. "
        },
        {
            "chapter": 16,
            "verse": 14,
            "name": "Judges 16:14",
            "text": "Nak yo\u0331 chi cua\u0331rc, quixchap chi us riq\u02c8uin lix che\u02c8el lix quemleb. Ut quixjap re: \u2014At Sans\u00f3n, xe\u02c8chal laj filisteos cha\u0331chapbal, chan. Ut laj Sans\u00f3n qui-aj ru, ut quixmich\u02c8 li che\u02c8 li chapcho cui\u02c8 li rismal rochben li t\u02c8icr. "
        },
        {
            "chapter": 16,
            "verse": 15,
            "name": "Judges 16:15",
            "text": "Ut lix Dalila quixye re laj Sans\u00f3n: \u2014\u00bfC\u02c8a\u02c8ut nak nacaye cue nak niquina\u0331ra? La\u0331at moco la\u0331in ta niquina\u0331c\u02c8oxla xban nak ac xina\u0331balak\u02c8i oxib sut ut toj ma\u0331ji\u02c8 ajcui\u02c8 nacaye cue c\u02c8a\u02c8ut nak k\u02c8axal cau a\u0331cuib, chan. "
        },
        {
            "chapter": 16,
            "verse": 16,
            "name": "Judges 16:16",
            "text": "Lix Dalila rajlal yo\u0331 chixch\u02c8i\u02c8ch\u02c8i\u02c8inquil laj Sans\u00f3n ut yo\u0331 chixpatz\u02c8bal re nak tixye re chanru nak cuan xmetz\u02c8e\u0331u toj retal quititz\u02c8 rabinquil ut inc\u02c8a\u02c8 chic quixcuy. "
        },
        {
            "chapter": 16,
            "verse": 17,
            "name": "Judges 16:17",
            "text": "Ut quixye li xya\u0331lal re: \u2014La\u0331in ma\u0331 jun sut quibese\u02c8 injolom xban nak la\u0331in aj nazareo. Ac k\u02c8axtesinbilin re li Dios nak toj ma\u0331ji\u02c8 ninyo\u02c8la. Cui ta\u0331besek\u02c8 li cuismal, ma\u0331c\u02c8a\u02c8 chic inmetz\u02c8e\u0331u tincana\u0331k. Chanchanakin chic jo\u02c8 chixjunileb li cui\u0331nk, chan. "
        },
        {
            "chapter": 16,
            "verse": 18,
            "name": "Judges 16:18",
            "text": "Lix Dalila quixq\u02c8ue retal nak laj Sans\u00f3n quixye li xya\u0331lal re. Jo\u02c8can nak quixtakla xbokbaleb li neque\u02c8taklan sa\u02c8 xya\u0331nkeb laj filisteo ut quixye reheb: \u2014Cha\u0331lkex anakcuan xban nak laj Sans\u00f3n ac xch\u02c8olob chicuu chixjunil lix ya\u0331lal. Anakcuan ninnau c\u02c8a\u02c8ut nak k\u02c8axal cau rib, chan. Ut eb li neque\u02c8taklan sa\u02c8 xya\u0331nkeb laj filisteo que\u02c8co\u0331eb riq\u02c8uin lix Dalila. Que\u02c8xc\u02c8am li tumin li que\u02c8xyechi\u02c8i re. "
        },
        {
            "chapter": 16,
            "verse": 19,
            "name": "Judges 16:19",
            "text": "Ut li ixk quixq\u02c8ue chi cua\u0331rc laj Sans\u00f3n chi ruch ra\u02c8. Ut quixbok jun li cui\u0331nk re tixbes li rismal. Quixset li rismal li tz\u02c8ulbil chi cuukub jo\u0331b. Ut ma\u0331c\u02c8a\u02c8 chic xmetz\u02c8e\u0331u quicana laj Sans\u00f3n. Lix Dalila qui-oc chixhobbal laj Sans\u00f3n. "
        },
        {
            "chapter": 16,
            "verse": 20,
            "name": "Judges 16:20",
            "text": "Ut quixye re: \u2014At Sans\u00f3n, xe\u02c8chal laj filisteos cha\u0331chapbal, chan. Nak qui-aj ru laj Sans\u00f3n quixye: \u2014Tine\u0331lelik chiruheb jo\u02c8 ninba\u0331nu rajlal, chan. Abanan inc\u02c8a\u02c8 quixq\u02c8ue retal nak ac xcanaba\u0331c xban li Ka\u0331cua\u02c8. "
        },
        {
            "chapter": 16,
            "verse": 21,
            "name": "Judges 16:21",
            "text": "Eb laj filisteos que\u02c8xchap laj Sans\u00f3n. Que\u02c8risi li xnak\u02c8 ru ut que\u02c8xc\u02c8am aran Gaza ut que\u02c8xq\u02c8ue sa\u02c8 tz\u02c8alam. Que\u02c8xbac\u02c8 riq\u02c8uin cadena ut que\u02c8xq\u02c8ue a\u02c8an chi trabajic chi cau sa\u02c8 li molino li cuan sa\u02c8 li tz\u02c8alam. "
        },
        {
            "chapter": 16,
            "verse": 22,
            "name": "Judges 16:22",
            "text": "Usta ac besbil li rismal, abanan nak cuan sa\u02c8 tz\u02c8alam quixtiquib cui\u02c8chic chamoc\u02c8 li rismal.  </div> "
        },
        {
            "chapter": 16,
            "verse": 23,
            "name": "Judges 16:23",
            "text": " <div scope=\"Judg.16.23-Judg.16.31\" type=\"section\">   Que\u02c8xch\u02c8utub ribeb chi nink\u02c8ei\u0331c chixjunileb li neque\u02c8taklan sa\u02c8 xya\u0331nkeb laj filisteos. Que\u02c8mayejac chiru laj Dag\u00f3n lix dioseb ut que\u02c8saho\u02c8 sa\u02c8 xch\u02c8o\u0331leb. Ut que\u02c8xye: \u2014Laj Dag\u00f3n li kadios quixk\u02c8axtesi sa\u02c8 kuk\u02c8 laj Sans\u00f3n li xic\u02c8 na-iloc ke, chanqueb. "
        },
        {
            "chapter": 16,
            "verse": 24,
            "name": "Judges 16:24",
            "text": "Nak que\u02c8ril ru laj Sans\u00f3n, eb li tenamit que\u02c8xlok\u02c8oni laj Dag\u00f3n lix dioseb, ut que\u02c8xye: \u2014Li kadios xk\u02c8axtesi sa\u02c8 kuk\u02c8 laj Sans\u00f3n, li xic\u02c8 na-iloc ke. A\u02c8an li quicamsin reheb nabal li kacomon ut a\u02c8an ajcui\u02c8 quisachoc re li katenamit, chanqueb. "
        },
        {
            "chapter": 16,
            "verse": 25,
            "name": "Judges 16:25",
            "text": "C\u02c8ajo\u02c8 nak que\u02c8saho\u02c8 sa\u02c8 xch\u02c8o\u0331leb li tenamit ut que\u02c8xye: \u2014C\u02c8amomak chak laj Sans\u00f3n. A\u02c8an tixq\u02c8ue xsahil kach\u02c8o\u0331l, chanqueb. Ut que\u02c8risi laj Sans\u00f3n sa\u02c8 tz\u02c8alam ut que\u02c8oc chixse\u02c8enquil ut chixhobbal. Ut que\u02c8xxakab sa\u02c8 xyi cuib li rokechal li nimla cab. "
        },
        {
            "chapter": 16,
            "verse": 26,
            "name": "Judges 16:26",
            "text": "Ut laj Sans\u00f3n quixye re li al li yo\u0331 chi ch\u02c8ilo\u0331nc re: \u2014Q\u02c8ue li cuuk\u02c8 chiruheb li rokechal li cab li nacu\u0331tun re. Nacuaj tinhila\u0331nk chiruheb, chan. "
        },
        {
            "chapter": 16,
            "verse": 27,
            "name": "Judges 16:27",
            "text": "Nabaleb li cristian cuanqueb chi sa\u02c8 li cab, jo\u02c8 cui\u0331nk, jo\u02c8 ixk. Cuanqueb ajcui\u02c8 chixjunileb li neque\u02c8taklan sa\u02c8 xbe\u0331neb laj filisteos. Numenak tana oxib mil chi cristian cuanqueb sa\u02c8 xcab tasal li cab yo\u0331queb chirilbal li c\u02c8a\u02c8ru yo\u0331queb chixba\u0331nunquil re laj Sans\u00f3n. "
        },
        {
            "chapter": 16,
            "verse": 28,
            "name": "Judges 16:28",
            "text": "Laj Sans\u00f3n quitijoc ut quixye re li Ka\u0331cua\u02c8: \u2014At nimajcual Dios, chacuil taxak xtok\u02c8oba\u0331l cuu ut china\u0331tenk\u02c8a taxak. Chaq\u02c8ue taxak inmetz\u02c8e\u0331u usta yal jun sut raj chic re nak tinq\u02c8ue re\u0331kaj chi junaj cua reheb laj filisteos li raylal xe\u02c8xba\u0331nu cue nak que\u02c8risi li xnak\u02c8 cuu, chan. "
        },
        {
            "chapter": 16,
            "verse": 29,
            "name": "Judges 16:29",
            "text": "Ut laj Sans\u00f3n quixtiquisi chi cau li cuib chi okech li cuan sa\u02c8 xyi li cab. Eb li okech a\u02c8an, a\u02c8aneb li neque\u02c8cu\u0331tun re li cab. Riq\u02c8uin lix nim uk\u02c8 quixtiquisi jun li okech ut riq\u02c8uin lix tz\u02c8e quixtiquisi li jun chic. "
        },
        {
            "chapter": 16,
            "verse": 30,
            "name": "Judges 16:30",
            "text": "Ut laj Sans\u00f3n quixjap re chi cau ut quixye: \u2014Anakcuan chinca\u0331mk cuochbeneb laj filisteos, chan. Quixtiquisi chi k\u02c8axal cau li cab ut quit\u02c8ane\u02c8 sa\u02c8 xbe\u0331neb li neque\u02c8taklan sa\u02c8 xbe\u0331neb laj filisteos, jo\u02c8 ajcui\u02c8 sa\u02c8 xbe\u0331neb chixjunileb li tenamit li cuanqueb aran. Sa\u02c8 xcamic laj Sans\u00f3n k\u02c8axal nabaleb li cristian quixcamsi chiruheb li quixcamsi nak toj yo\u02c8yo\u0331k. "
        },
        {
            "chapter": 16,
            "verse": 31,
            "name": "Judges 16:31",
            "text": "Eb li ri\u0331tz\u02c8in ut eb li rech\u02c8alal laj Sans\u00f3n que\u02c8xc\u02c8am li camenak ut que\u02c8xmuk sa\u02c8 li na\u02c8ajej li mukbil cui\u02c8 laj Manoa lix yucua\u02c8. Li mukleba\u0331l a\u02c8an nacana sa\u02c8 xyi li cuib chi tenamit Zora ut Estaol. Laj Sans\u00f3n quic\u02c8amoc be chiruheb laj Israel chiru junmay chihab.  </div>"
        }
    ]
}