{
    "translation": "Apostolic Bible Polyglot English Text",
    "abbreviation": "abp",
    "lang": "en",
    "language": "English",
    "direction": "LTR",
    "encoding": "UTF-8",
    "book_nr": 45,
    "book_name": "Romans",
    "chapter": 2,
    "name": "Romans 2",
    "verses": [
        {
            "chapter": 2,
            "verse": 1,
            "name": "Romans 2:1",
            "text": "  Therefore [2inexcusable 1you are], O man, every one  judging; [2in 3which way 1for] you judge the other, yourself you condemn; [3the 1for 4same things 2you do], O one judging."
        },
        {
            "chapter": 2,
            "verse": 2,
            "name": "Romans 2:2",
            "text": "For we know that the judgment  of God is according to truth upon the ones [2such things 1doing]."
        },
        {
            "chapter": 2,
            "verse": 3,
            "name": "Romans 2:3",
            "text": "But do you think this, O man, (the one judging the ones  [2such things 1doing], and yourself doing them,) that you shall flee from the judgment  of God?"
        },
        {
            "chapter": 2,
            "verse": 4,
            "name": "Romans 2:4",
            "text": "Or the riches  of his graciousness, and the forbearance and the leniency do you disdain; not knowing that the graciousness  of God [2to 3repentance 1leads you]?"
        },
        {
            "chapter": 2,
            "verse": 5,
            "name": "Romans 2:5",
            "text": "But according to  your hardness and impenitent heart you treasure up for yourself wrath in the day of wrath and of revelation of righteous judgment  of God;"
        },
        {
            "chapter": 2,
            "verse": 6,
            "name": "Romans 2:6",
            "text": "who will recompense each according to  his works;"
        },
        {
            "chapter": 2,
            "verse": 7,
            "name": "Romans 2:7",
            "text": "to the ones with endurance [2work 1of good], [2glory 3and 4honor 5and 6incorruptibility 1seeking anxiously] -- life eternal."
        },
        {
            "chapter": 2,
            "verse": 8,
            "name": "Romans 2:8",
            "text": "And to the ones of contention and resisting persuasion, indeed to the truth, and being yielded to iniquity -- rage and wrath,"
        },
        {
            "chapter": 2,
            "verse": 9,
            "name": "Romans 2:9",
            "text": "affliction and straits, will be upon every soul of man  manufacturing the evil thing, both of Jew first and Greek;"
        },
        {
            "chapter": 2,
            "verse": 10,
            "name": "Romans 2:10",
            "text": "but glory, and honor, and peace will be to all, to the one working the good, both to the Jew first and to the Greek."
        },
        {
            "chapter": 2,
            "verse": 11,
            "name": "Romans 2:11",
            "text": "[3no 1For 2there is] discrimination by  God. "
        },
        {
            "chapter": 2,
            "verse": 12,
            "name": "Romans 2:12",
            "text": "  For as many as lawlessly sinned, lawlessly also they shall perish; and as many as in law sinned, by law they shall be judged"
        },
        {
            "chapter": 2,
            "verse": 13,
            "name": "Romans 2:13",
            "text": "([6are not 1For 2the 3listeners 4of the 5law] just with  God, but the doers of the law shall be justified."
        },
        {
            "chapter": 2,
            "verse": 14,
            "name": "Romans 2:14",
            "text": "For whenever nations, the ones not [2law 1having] by nature [2the things 3of the 4law 1should do], these [3law 1not 2having 5to themselves 4are 6law] --"
        },
        {
            "chapter": 2,
            "verse": 15,
            "name": "Romans 2:15",
            "text": "ones who demonstrate the work of the law written in  their hearts, [3bearing witness with 1of their  2conscience], and between one another  with devices charging or also making a defense)"
        },
        {
            "chapter": 2,
            "verse": 16,
            "name": "Romans 2:16",
            "text": "in a day when God judges the hidden things  of men, according to  my good news, through Jesus Christ. "
        },
        {
            "chapter": 2,
            "verse": 17,
            "name": "Romans 2:17",
            "text": "  Behold! you are named a Jew, and rest upon the law, and boast in God,"
        },
        {
            "chapter": 2,
            "verse": 18,
            "name": "Romans 2:18",
            "text": "and you know the will, and you distinguish the differences, being instructed out of the law;"
        },
        {
            "chapter": 2,
            "verse": 19,
            "name": "Romans 2:19",
            "text": "also persuading yourself to be a guide of the blind, a light of the ones in darkness,"
        },
        {
            "chapter": 2,
            "verse": 20,
            "name": "Romans 2:20",
            "text": "a corrector of fools, a teacher of infants, having the appearance of the knowledge and of the truth in the law."
        },
        {
            "chapter": 2,
            "verse": 21,
            "name": "Romans 2:21",
            "text": "The one then teaching another -- [2yourself 1do you not teach]? The one proclaiming, not to steal -- do you steal?"
        },
        {
            "chapter": 2,
            "verse": 22,
            "name": "Romans 2:22",
            "text": "The one saying, do not commit adultery -- do you commit adultery? The one abhorring the idols -- do you commit sacrilege?"
        },
        {
            "chapter": 2,
            "verse": 23,
            "name": "Romans 2:23",
            "text": "The one who [2in 3the law 1boasts] -- through the violation of the law  do you dishonor God?"
        },
        {
            "chapter": 2,
            "verse": 24,
            "name": "Romans 2:24",
            "text": "For the name  of God [2through 3you 1is blasphemed] among the nations, as it has been written."
        },
        {
            "chapter": 2,
            "verse": 25,
            "name": "Romans 2:25",
            "text": "[2circumcision 1For indeed] derives benefit if [2the law 1you should practice]; but if [2a violator 3of the law 1you should be],  your circumcision [2uncircumcision 1becomes]."
        },
        {
            "chapter": 2,
            "verse": 26,
            "name": "Romans 2:26",
            "text": "If then the uncircumcised [2the 3ordinances 4of the 5law 1keep], shall not  his uncircumcision [2for 3circumcision 1be considered],"
        },
        {
            "chapter": 2,
            "verse": 27,
            "name": "Romans 2:27",
            "text": "and [8shall judge 1the one 2by 3nature 4uncircumcised 6the 7law 5fulfilling] you, the one with contract and circumcision a violator of the law?"
        },
        {
            "chapter": 2,
            "verse": 28,
            "name": "Romans 2:28",
            "text": "For not the one in the open [2a Jew 1is], nor the thing in the open in flesh circumcision;"
        },
        {
            "chapter": 2,
            "verse": 29,
            "name": "Romans 2:29",
            "text": "But the one in the hiding is a Jew, and circumcision is in the heart in spirit, not by contract; of whom the high praise is not of men, but of  God.  "
        }
    ]
}