{
    "translation": "\u8056\u7d93 (\u6587\u7406\u548c\u5408)",
    "abbreviation": "chiunl",
    "lang": "zh",
    "language": "Chinese",
    "direction": "LTR",
    "encoding": "UTF-8",
    "book_nr": 19,
    "book_name": "Psalms",
    "chapter": 93,
    "name": "Psalms 93",
    "verses": [
        {
            "chapter": 93,
            "verse": 1,
            "name": "Psalms 93:1",
            "text": "\u8036\u548c\u83ef\u79c9\u6b0a\u3001\u81ea\u88ab\u5a01\u56b4\u3001\u8036\u548c\u83ef\u4ee5\u529b\u7232\u8863\u3001\u4ee5\u529b\u81ea\u675f\u3001\u4e16\u754c\u5805\u7acb\u3001\u6c38\u4e0d\u52d5\u6416\u516e\u3001"
        },
        {
            "chapter": 93,
            "verse": 2,
            "name": "Psalms 93:2",
            "text": "\u723e\u4f4d\u4e99\u53e4\u5805\u7acb\u3001\u723e\u81ea\u592a\u53e4\u800c\u6709\u516e\u3001"
        },
        {
            "chapter": 93,
            "verse": 3,
            "name": "Psalms 93:3",
            "text": "\u8036\u548c\u83ef\u6b5f\u3001\u6ce2\u6fe4\u6d36\u6e67\u3001\u6ce2\u6fe4\u6f30\u6e24\u3001\u6ce2\u6fe4\u6f8e\u6e43\u3001"
        },
        {
            "chapter": 93,
            "verse": 4,
            "name": "Psalms 93:4",
            "text": "\u8036\u548c\u83ef\u6709\u80fd\u3001\u5dcd\u5dcd\u5728\u4e0a\u3001\u8d8a\u65bc\u5927\u6c34\u4e4b\u6f30\u6e24\u3001\u6ec4\u6d77\u4e4b\u6fc0\u6d6a\u516e\u3001"
        },
        {
            "chapter": 93,
            "verse": 5,
            "name": "Psalms 93:5",
            "text": "\u8036\u548c\u83ef\u6b5f\u3001\u723e\u6cd5\u81f3\u5be6\u3001\u723e\u5ba4\u5b9c\u5176\u7232\u8056\u3001\u8fc4\u65bc\u6c38\u4e45\u516e\u3001"
        }
    ]
}