{
    "translation": "John Wycliffe Bible (c.1395)",
    "abbreviation": "wycliffe",
    "lang": "enm",
    "language": "",
    "direction": "LTR",
    "encoding": "UTF-8",
    "book_nr": 19,
    "book_name": "Psalms",
    "chapter": 18,
    "name": "Psalms 18",
    "verses": [
        {
            "chapter": 18,
            "verse": 1,
            "name": "Psalms 18:1",
            "text": "The title of the eiytenthe salm. To victorie, the salm of Dauid. "
        },
        {
            "chapter": 18,
            "verse": 2,
            "name": "Psalms 18:2",
            "text": "Heuenes tellen out the glorie of God; and the firmament tellith the werkis of hise hondis. "
        },
        {
            "chapter": 18,
            "verse": 3,
            "name": "Psalms 18:3",
            "text": "The dai tellith out to the dai a word; and the nyyt schewith kunnyng to the nyyt. "
        },
        {
            "chapter": 18,
            "verse": 4,
            "name": "Psalms 18:4",
            "text": "No langagis ben, nether wordis; of whiche the voices of hem ben not herd. "
        },
        {
            "chapter": 18,
            "verse": 5,
            "name": "Psalms 18:5",
            "text": "The soun of hem yede out in to al erthe; and the wordis of hem `yeden out in to the endis of the world. "
        },
        {
            "chapter": 18,
            "verse": 6,
            "name": "Psalms 18:6",
            "text": "In the sunne he hath set his tabernacle; and he as a spouse comynge forth of his chaumbre. He fulli ioyede, as a giaunt, to renne his weie; "
        },
        {
            "chapter": 18,
            "verse": 7,
            "name": "Psalms 18:7",
            "text": "his goynge out was fro hiyeste heuene. And his goyng ayen was to the hiyeste therof; and noon is that hidith hym silf fro his heet. "
        },
        {
            "chapter": 18,
            "verse": 8,
            "name": "Psalms 18:8",
            "text": "The lawe of the Lord is with out wem, and conuertith soulis; the witnessyng of the Lord is feithful, and yyueth wisdom to litle children. "
        },
        {
            "chapter": 18,
            "verse": 9,
            "name": "Psalms 18:9",
            "text": "The riytfulnessis of the Lord ben riytful, gladdynge hertis; the comaundement of the Lord is cleere, liytnynge iyen. "
        },
        {
            "chapter": 18,
            "verse": 10,
            "name": "Psalms 18:10",
            "text": "The hooli drede of the Lord dwellith in to world of world; the domes of the Lord ben trewe, iustified in to hem silf. "
        },
        {
            "chapter": 18,
            "verse": 11,
            "name": "Psalms 18:11",
            "text": "Desirable more than gold, and a stoon myche preciouse; and swettere than hony and honycoomb. "
        },
        {
            "chapter": 18,
            "verse": 12,
            "name": "Psalms 18:12",
            "text": "`Forwhi thi seruaunt kepith thoo; myche yeldyng is in tho to be kept. "
        },
        {
            "chapter": 18,
            "verse": 13,
            "name": "Psalms 18:13",
            "text": "Who vndurstondith trespassis? make thou me cleene fro my priuy synnes; "
        },
        {
            "chapter": 18,
            "verse": 14,
            "name": "Psalms 18:14",
            "text": "and of alien synnes spare thi seruaunt. `If the forseid defautis ben not, Lord, of me, than Y schal be with out wem; and Y schal be clensid of the mooste synne. "
        },
        {
            "chapter": 18,
            "verse": 15,
            "name": "Psalms 18:15",
            "text": "And the spechis of my mouth schulen be, that tho plese; and the thenkynge of myn herte euere in thi siyt. Lord, myn helpere; and myn ayenbiere.  "
        }
    ]
}