{
    "translation": "John Wycliffe Bible (c.1395)",
    "abbreviation": "wycliffe",
    "lang": "enm",
    "language": "",
    "direction": "LTR",
    "encoding": "UTF-8",
    "book_nr": 19,
    "book_name": "Psalms",
    "chapter": 94,
    "name": "Psalms 94",
    "verses": [
        {
            "chapter": 94,
            "verse": 1,
            "name": "Psalms 94:1",
            "text": "The foure and nyntithe salm. Come ye, make we ful out ioie to the Lord; hertli synge we to God, oure heelthe. "
        },
        {
            "chapter": 94,
            "verse": 2,
            "name": "Psalms 94:2",
            "text": "Bifore ocupie we his face in knowleching; and hertli synge we to him in salmes. "
        },
        {
            "chapter": 94,
            "verse": 3,
            "name": "Psalms 94:3",
            "text": "For God is a greet Lord, and a greet king aboue alle goddis; for the Lord schal not putte awei his puple. "
        },
        {
            "chapter": 94,
            "verse": 4,
            "name": "Psalms 94:4",
            "text": "For alle the endis of erthe ben in his hond; and the hiynesses of hillis ben hise. "
        },
        {
            "chapter": 94,
            "verse": 5,
            "name": "Psalms 94:5",
            "text": "For the see is his, and he made it; and hise hondis formeden the drie lond. "
        },
        {
            "chapter": 94,
            "verse": 6,
            "name": "Psalms 94:6",
            "text": "Come ye, herie we, and falle we doun bifore God, wepe we bifore the Lord that made vs; "
        },
        {
            "chapter": 94,
            "verse": 7,
            "name": "Psalms 94:7",
            "text": "for he is oure Lord God. And we ben the puple of his lesewe; and the scheep of his hond. "
        },
        {
            "chapter": 94,
            "verse": 8,
            "name": "Psalms 94:8",
            "text": "If ye han herd his vois to dai; nyle ye make hard youre hertis. "
        },
        {
            "chapter": 94,
            "verse": 9,
            "name": "Psalms 94:9",
            "text": "As in the terryng to wraththe; bi the dai of temptacioun in desert. Where youre fadris temptiden me; thei preueden and sien my werkis. "
        },
        {
            "chapter": 94,
            "verse": 10,
            "name": "Psalms 94:10",
            "text": "Fourti yeer I was offendid to this generacioun; and Y seide, Euere thei erren in herte. "
        },
        {
            "chapter": 94,
            "verse": 11,
            "name": "Psalms 94:11",
            "text": "And these men knewen not my weies; to whiche Y swoor in myn ire, thei schulen not entre in to my reste.  "
        }
    ]
}