{
  "translation": "Klingon Language Version of the World English Bible",
  "abbreviation": "klv",
  "lang": "tlh",
  "language": "",
  "direction": "LTR",
  "encoding": "",
  "nr": 64,
  "name": "3 John",
  "chapters": [
    {
      "chapter": 1,
      "name": "3 John 1",
      "verses": [
        {
          "chapter": 1,
          "verse": 1,
          "name": "3 John 1:1",
          "text": "      The elder  Daq Gaius the  parmaqqay,  'Iv  jIH  muSHa'  Daq  vIt."
        },
        {
          "chapter": 1,
          "verse": 2,
          "name": "3 John 1:2",
          "text": "       parmaqqay,  jIH  tlhob  vetlh  SoH may  chep  Daq  Hoch  Dochmey  je  taH healthy,  'ach as  lIj  qa'  cheptaH."
        },
        {
          "chapter": 1,
          "verse": 3,
          "name": "3 John 1:3",
          "text": "       vaD  jIH rejoiced greatly,  ghorgh  loDnI'pu'  ghoSta'  je testified about  lIj  vIt,  'ach as  SoH  yIt  Daq  vIt."
        },
        {
          "chapter": 1,
          "verse": 4,
          "name": "3 John 1:4",
          "text": "       jIH  ghaj  ghobe' greater  Quch than  vam,  Daq  Qoy about  wIj  puqpu' walking  Daq  vIt."
        },
        {
          "chapter": 1,
          "verse": 5,
          "name": "3 John 1:5",
          "text": "       parmaqqay,  SoH  ta' a  voqmoH  vum  Daq whatever  SoH accomplish  vaD  chaH  'Iv  'oH  loDnI'pu'  je  novpu'."
        },
        {
          "chapter": 1,
          "verse": 6,
          "name": "3 John 1:6",
          "text": "       chaH  ghaj testified about  lIj  muSHa'  qaSpa' the  yej.  SoH  DichDaq  ta'  QaQ  Daq  ngeH  chaH forward  Daq  chaj journey  Daq a  Da worthy vo'  joH'a',"
        },
        {
          "chapter": 1,
          "verse": 7,
          "name": "3 John 1:7",
          "text": "      because  vaD the  chIch  vo' the  pong  chaH  mejta'  pa', taking  pagh  vo' the Gentiles."
        },
        {
          "chapter": 1,
          "verse": 8,
          "name": "3 John 1:8",
          "text": "       maH  vaj ought  Daq  Hev such,  vetlh  maH may  taH fellow workers  vaD the  vIt."
        },
        {
          "chapter": 1,
          "verse": 9,
          "name": "3 John 1:9",
          "text": "       jIH wrote  Daq the  yej,  'ach Diotrephes,  'Iv  muSHa'taH  Daq  taH  wa'Dich among  chaH,  ta'be' accept  nuq  maH  jatlh."
        },
        {
          "chapter": 1,
          "verse": 10,
          "name": "3 John 1:10",
          "text": "      vaj,  chugh  jIH  ghoS,  jIH  DichDaq  ja' attention  Daq  Daj deeds  nuq  ghaH  ta'taH, unjustly accusing  maH  tlhej  mIgh  mu'mey.  ghobe' content  tlhej     vam,  ghobe'  ta'taH  ghaH himself  Hev the  loDnI'pu',  je  chaH  'Iv would,  ghaH forbids  je throws  pa'  vo' the  yej."
        },
        {
          "chapter": 1,
          "verse": 11,
          "name": "3 John 1:11",
          "text": "      parmaqqay,  yImev imitate  vetlh  nuq  ghaH  mIghtaHghach,  'ach  vetlh  nuq  ghaH  QaQ.  ghaH  'Iv  ta'taH  QaQ  ghaH  vo'  joH'a'.  ghaH  'Iv  ta'taH  mIghtaHghach  ghajbe'  leghpu'  joH'a'."
        },
        {
          "chapter": 1,
          "verse": 12,
          "name": "3 John 1:12",
          "text": "     Demetrius  ghajtaH the testimony  vo'  Hoch,  je  vo' the  vIt itself;  HIja',  maH  je testify,  je  SoH  Sov  vetlh  maj testimony  ghaH true."
        },
        {
          "chapter": 1,
          "verse": 13,
          "name": "3 John 1:13",
          "text": "      jIH  ghajta'  law'  Dochmey  Daq write  Daq  SoH,  'ach  jIH  'oH unwilling  Daq write  Daq  SoH  tlhej ink  je pen;"
        },
        {
          "chapter": 1,
          "verse": 14,
          "name": "3 John 1:14",
          "text": "      'ach  jIH  tul  Daq  legh  SoH soon,  je  maH  DichDaq  jatlh  qab  Daq  qab.  roj  taH  Daq  SoH. The friends greet  SoH. Greet the friends  Sum  pong."
        }
      ]
    }
  ]
}
