{
    "translation": "Hungarian Karoli",
    "abbreviation": "karoli",
    "lang": "hu",
    "language": "Hungarian",
    "direction": "LTR",
    "encoding": "UTF-8",
    "book_nr": 4,
    "book_name": "Numbers",
    "chapter": 31,
    "name": "Numbers 31",
    "verses": [
        {
            "chapter": 31,
            "verse": 1,
            "name": "Numbers 31:1",
            "text": "\u00c9s sz\u00f3la az \u00dar M\u00f3zesnek, mondv\u00e1n: "
        },
        {
            "chapter": 31,
            "verse": 2,
            "name": "Numbers 31:2",
            "text": "\u00c1llj bossz\u00fat Izr\u00e1el fiai\u00e9rt a Midi\u00e1nit\u00e1kon, azut\u00e1n a te n\u00e9peidhez takar\u00edttatol. "
        },
        {
            "chapter": 31,
            "verse": 3,
            "name": "Numbers 31:3",
            "text": "Sz\u00f3la az\u00e9rt M\u00f3zes a n\u00e9pnek, mondv\u00e1n: K\u00e9sz\u00edts\u00e9tek fel magatok k\u00f6z\u00fcl a viadalra val\u00f3 embereket, \u00e9s induljanak Midi\u00e1n ellen, hogy bossz\u00fat \u00e1lljanak az \u00dar\u00e9rt Midi\u00e1non. "
        },
        {
            "chapter": 31,
            "verse": 4,
            "name": "Numbers 31:4",
            "text": "Ezret-ezret egy-egy t\u00f6rzsb\u0151l, Izr\u00e1elnek minden t\u00f6rzs\u00e9b\u0151l k\u00fcldjetek a hadba. "
        },
        {
            "chapter": 31,
            "verse": 5,
            "name": "Numbers 31:5",
            "text": "Kiv\u00e1logat\u00e1nak az\u00e9rt Izr\u00e1el ezereib\u0151l, ezeret t\u00f6rzsenk\u00e9nt, tizenk\u00e9t ezeret, viadalra k\u00e9szet. "
        },
        {
            "chapter": 31,
            "verse": 6,
            "name": "Numbers 31:6",
            "text": "\u00c9s elk\u00fcld\u00e9 \u0151ket M\u00f3zes, t\u00f6rzsenk\u00e9nt ezeret-ezeret a hadba, \u00e9s vel\u00f6k Fine\u00e1st, Ele\u00e1z\u00e1r papnak fi\u00e1t is a hadba; \u00e9s a szent ed\u00e9nyek \u00e9s a riad\u00f3 k\u00fcrt\u00f6k val\u00e1nak az \u0151 keze alatt. "
        },
        {
            "chapter": 31,
            "verse": 7,
            "name": "Numbers 31:7",
            "text": "\u00c9s harczol\u00e1nak Midi\u00e1n ellen, a mik\u00e9pen megparancsolta vala az \u00dar M\u00f3zesnek, \u00e9s minden f\u00e9rfi\u00fat meg\u00f6l\u00e9nek. "
        },
        {
            "chapter": 31,
            "verse": 8,
            "name": "Numbers 31:8",
            "text": "A Midi\u00e1n kir\u00e1lyait is meg\u00f6l\u00e9k, azoknak lev\u00e1gott n\u00e9peivel egybe: Evit, R\u00e9kemet, Cz\u00fart, H\u00fart, \u00e9s Reb\u00e1t, Midi\u00e1nnak \u00f6t kir\u00e1ly\u00e1t; \u00e9s B\u00e1l\u00e1mot a Be\u00f3r fi\u00e1t is meg\u00f6l\u00e9k fegyverrel. "
        },
        {
            "chapter": 31,
            "verse": 9,
            "name": "Numbers 31:9",
            "text": "\u00c9s fogs\u00e1gba viv\u00e9k Izr\u00e1el fiai a Midi\u00e1nit\u00e1k feles\u00e9geit \u00e9s azoknak kisdedeit, \u00e9s azoknak minden barm\u00e1t \u00e9s minden ny\u00e1j\u00e1t, \u00e9s minden vagyon\u00e1t pr\u00e9d\u00e1ra vet\u00e9k. "
        },
        {
            "chapter": 31,
            "verse": 10,
            "name": "Numbers 31:10",
            "text": "Minden v\u00e1rosukat pedig az \u0151 lakhelyeik szerint, \u00e9s minden falvaikat t\u0171zzel meg\u00e9get\u00e9k. "
        },
        {
            "chapter": 31,
            "verse": 11,
            "name": "Numbers 31:11",
            "text": "\u00c9s elviv\u00e9nek minden ragadom\u00e1nyt \u00e9s minden pr\u00e9d\u00e1t mind emberekb\u0151l, mind barmokb\u00f3l. "
        },
        {
            "chapter": 31,
            "verse": 12,
            "name": "Numbers 31:12",
            "text": "\u00c9s viv\u00e9k M\u00f3zeshez \u00e9s Ele\u00e1z\u00e1r paphoz, \u00e9s Izr\u00e1el fiainak gy\u00fclekezet\u00e9hez a foglyokat, a pr\u00e9d\u00e1t \u00e9s a ragadom\u00e1nyokat a t\u00e1borba, a mely a Mo\u00e1b mez\u0151s\u00e9g\u00e9n vala a Jord\u00e1n mellett, J\u00e9rikh\u00f3 \u00e1tellen\u00e9ben. "
        },
        {
            "chapter": 31,
            "verse": 13,
            "name": "Numbers 31:13",
            "text": "Kimen\u00e9nek az\u00e9rt M\u00f3zes \u00e9s Ele\u00e1z\u00e1r pap, \u00e9s a gy\u00fclekezetnek minden fejedelme \u0151 el\u00e9j\u00f6k a t\u00e1boron k\u00edv\u00fcl. "
        },
        {
            "chapter": 31,
            "verse": 14,
            "name": "Numbers 31:14",
            "text": "\u00c9s megharaguv\u00e9k M\u00f3zes a hadnak vezet\u0151ire, az ezredesekre \u00e9s sz\u00e1zadosokra, a kik megj\u00f6ttek vala a harczr\u00f3l. "
        },
        {
            "chapter": 31,
            "verse": 15,
            "name": "Numbers 31:15",
            "text": "\u00c9s monda n\u00e9kik M\u00f3zes: Megtartott\u00e1tok-\u00e9 \u00e9letben mind az asszonyokat? "
        },
        {
            "chapter": 31,
            "verse": 16,
            "name": "Numbers 31:16",
            "text": "\u00cdm\u00e9 \u0151k voltak, a kik Izr\u00e1el fiait B\u00e1l\u00e1m tan\u00e1cs\u00e1b\u00f3l h\u0171tlens\u00e9gre b\u00edrt\u00e1k az \u00dar ellen a Pe\u00f3r dolg\u00e1ban; \u00e9s l\u0151n csap\u00e1s az \u00dar gy\u00fclekezet\u00e9n. "
        },
        {
            "chapter": 31,
            "verse": 17,
            "name": "Numbers 31:17",
            "text": "Most az\u00e9rt \u00f6ljetek meg a kisdedek k\u00f6z\u00fcl minden finem\u0171t; \u00e9s minden asszonyt is, a ki f\u00e9rfit ismert azzal val\u00f3 h\u00e1l\u00e1s v\u00e9gett, meg\u00f6ljetek. "
        },
        {
            "chapter": 31,
            "verse": 18,
            "name": "Numbers 31:18",
            "text": "Minden le\u00e1nygyermeket pedig, a kik nem h\u00e1ltak f\u00e9rfi\u00faval, tartsatok \u00e9letben magatoknak. "
        },
        {
            "chapter": 31,
            "verse": 19,
            "name": "Numbers 31:19",
            "text": "Ti pedig maradjatok a t\u00e1boron kiv\u00fcl h\u00e9t napig; a ki meg\u00f6lt valakit, \u00e9s a ki hull\u00e1t \u00e9rintett, mind tiszt\u00edts\u00e1tok meg magatokat harmad \u00e9s hetednapon, magatokat \u00e9s foglyaitokat. "
        },
        {
            "chapter": 31,
            "verse": 20,
            "name": "Numbers 31:20",
            "text": "Minden ruh\u00e1t, minden b\u0151rb\u0151l val\u00f3 eszk\u00f6zt, minden kecskesz\u0151rb\u0151l val\u00f3 k\u00e9sz\u00edtm\u00e9nyt \u00e9s minden faed\u00e9nyt; tiszt\u00edts\u00e1tok meg magatokat. "
        },
        {
            "chapter": 31,
            "verse": 21,
            "name": "Numbers 31:21",
            "text": "\u00c9s monda Ele\u00e1z\u00e1r pap a vit\u00e9zeknek, a kik elmentek vala a hadba: Ez a t\u00f6rv\u00e9ny rendel\u00e9se, a melyet parancsolt vala az \u00dar M\u00f3zesnek: "
        },
        {
            "chapter": 31,
            "verse": 22,
            "name": "Numbers 31:22",
            "text": "Az aranyat, ez\u00fcst\u00f6t, rezet, vasat, az \u00f3nt \u00e9s \u00f3lmot bizony\u00e1ra; "
        },
        {
            "chapter": 31,
            "verse": 23,
            "name": "Numbers 31:23",
            "text": "Minden egyebet is, a mi \u00e1llja a t\u00fczet, vigyetek \u00e1t a t\u0171z\u00f6n, \u00e9s megtiszt\u00edttatik, de a tiszt\u00edt\u00f3 v\u00edzzel is tiszt\u00edttass\u00e9k meg; mindazt pedig, a mi nem \u00e1llja a t\u0171zet, v\u00edzen vigy\u00e9tek \u00e1t. "
        },
        {
            "chapter": 31,
            "verse": 24,
            "name": "Numbers 31:24",
            "text": "Ruh\u00e1itokat pedig moss\u00e1tok meg a hetedik napon, \u00e9s tiszt\u00e1k lesztek: \u00e9s azut\u00e1n bemehettek a t\u00e1borba. "
        },
        {
            "chapter": 31,
            "verse": 25,
            "name": "Numbers 31:25",
            "text": "\u00dajra sz\u00f3la az \u00dar M\u00f3zesnek, mondv\u00e1n: "
        },
        {
            "chapter": 31,
            "verse": 26,
            "name": "Numbers 31:26",
            "text": "Vedd sz\u00e1mba az elfoglalt pr\u00e9d\u00e1t, mind emberben, mind baromban, te \u00e9s Ele\u00e1z\u00e1r, a pap, \u00e9s a gy\u00fclekezet aty\u00e1inak fejei. "
        },
        {
            "chapter": 31,
            "verse": 27,
            "name": "Numbers 31:27",
            "text": "\u00c9s oszszad a pr\u00e9d\u00e1t k\u00e9t r\u00e9szre: a hadakoz\u00f3k k\u00f6z\u00f6tt, a kik hadba mentek, \u00e9s az eg\u00e9sz gy\u00fclekezet k\u00f6z\u00f6tt. "
        },
        {
            "chapter": 31,
            "verse": 28,
            "name": "Numbers 31:28",
            "text": "\u00c9s v\u00e9gy r\u00e9szt az \u00darnak a hadakoz\u00f3 f\u00e9rfiakt\u00f3l, akik hadba mentek: \u00f6tsz\u00e1zb\u00f3l egy lelket, az emberek k\u00f6z\u00fcl, az \u00f6kr\u00f6k k\u00f6z\u00fcl, a szamarak k\u00f6z\u00fcl, \u00e9s a juhok k\u00f6z\u00fcl. "
        },
        {
            "chapter": 31,
            "verse": 29,
            "name": "Numbers 31:29",
            "text": "Azoknak fele r\u00e9sz\u00e9b\u0151l vegy\u00e9tek, \u00e9s adjad Ele\u00e1z\u00e1rnak, a papnak, felemelt \u00e1ldozatul az \u00darnak. "
        },
        {
            "chapter": 31,
            "verse": 30,
            "name": "Numbers 31:30",
            "text": "Az Izr\u00e1el fiainak j\u00e1r\u00f3 fele r\u00e9szb\u0151l pedig egy elfogottat v\u00e9gy \u00f6tvenb\u0151l: emberekb\u0151l, \u00f6kr\u00f6kb\u0151l, szamarakb\u00f3l, juhokb\u00f3l, \u00e9s minden baromb\u00f3l; \u00e9s adjad azokat a l\u00e9vit\u00e1knak, a kik \u00fcgyelnek az \u00dar hajl\u00e9k\u00e1nak \u00fcgy\u00e9re. "
        },
        {
            "chapter": 31,
            "verse": 31,
            "name": "Numbers 31:31",
            "text": "\u00c9s \u00fagy cseleked\u00e9k M\u00f3zes \u00e9s Ele\u00e1z\u00e1r, a pap, a mik\u00e9pen parancsolta vala az \u00dar M\u00f3zesnek. "
        },
        {
            "chapter": 31,
            "verse": 32,
            "name": "Numbers 31:32",
            "text": "\u00c9s vala az a pr\u00e9da, azaz annak a zs\u00e1km\u00e1nynak marad\u00e9ka, a mit a hadakoz\u00f3 n\u00e9p zs\u00e1km\u00e1nyolt: hatsz\u00e1z hetven\u00f6t ezer juh. "
        },
        {
            "chapter": 31,
            "verse": 33,
            "name": "Numbers 31:33",
            "text": "\u00c9s hetvenh\u00e9t ezer \u00f6k\u00f6r. "
        },
        {
            "chapter": 31,
            "verse": 34,
            "name": "Numbers 31:34",
            "text": "\u00c9s hatvanegy ezer szam\u00e1r. "
        },
        {
            "chapter": 31,
            "verse": 35,
            "name": "Numbers 31:35",
            "text": "Emberi l\u00e9lek pedig: a le\u00e1nyok k\u00f6z\u00fcl, a kik nem ismertek vala f\u00e9rfival val\u00f3 egyes\u00fcl\u00e9st, ilyen l\u00e9lek \u00f6sszesen harminczk\u00e9t ezer. "
        },
        {
            "chapter": 31,
            "verse": 36,
            "name": "Numbers 31:36",
            "text": "Vala pedig az egyik fele, azoknak r\u00e9sze, a kik hadba mentek vala: sz\u00e1mszerint h\u00e1romsz\u00e1z harminczh\u00e9t ezer \u00e9s \u00f6tsz\u00e1z juh. "
        },
        {
            "chapter": 31,
            "verse": 37,
            "name": "Numbers 31:37",
            "text": "Vala pedig az \u00darnak r\u00e9sze a juhokb\u00f3l: hatsz\u00e1z \u00e9s hetven\u00f6t. "
        },
        {
            "chapter": 31,
            "verse": 38,
            "name": "Numbers 31:38",
            "text": "Az \u00f6k\u00f6r pedig: harminczhat ezer; \u00e9s azokb\u00f3l az \u00darnak r\u00e9sze: hetvenkett\u0151. "
        },
        {
            "chapter": 31,
            "verse": 39,
            "name": "Numbers 31:39",
            "text": "\u00c9s a szam\u00e1r: harmincz ezer \u00e9s \u00f6tsz\u00e1z; azokb\u00f3l az \u00darnak r\u00e9sze: hatvanegy. "
        },
        {
            "chapter": 31,
            "verse": 40,
            "name": "Numbers 31:40",
            "text": "Emberi l\u00e9lek pedig tizenhat ezer; \u00e9s azokb\u00f3l az \u00darnak r\u00e9sze: harminczh\u00e9t l\u00e9lek. "
        },
        {
            "chapter": 31,
            "verse": 41,
            "name": "Numbers 31:41",
            "text": "\u00c9s ad\u00e1 M\u00f3zes az \u00darnak r\u00e9sz\u00e9t felemelt \u00e1ldozatul Ele\u00e1z\u00e1rnak, a papnak, a mik\u00e9pen parancsolta vala az \u00dar M\u00f3zesnek. "
        },
        {
            "chapter": 31,
            "verse": 42,
            "name": "Numbers 31:42",
            "text": "Az Izr\u00e1el fiainak es\u0151 m\u00e1sik fele r\u00e9szb\u0151l pedig, a melyet elv\u00e1lasztott M\u00f3zes a hadakoz\u00f3 f\u00e9rfiak\u00e9t\u00f3l. "
        },
        {
            "chapter": 31,
            "verse": 43,
            "name": "Numbers 31:43",
            "text": "(Vala pedig a gy\u00fclekezetre es\u0151 feler\u00e9sz juhokb\u00f3l: h\u00e1romsz\u00e1z harminczh\u00e9t ezer \u00e9s \u00f6tsz\u00e1z; "
        },
        {
            "chapter": 31,
            "verse": 44,
            "name": "Numbers 31:44",
            "text": "\u00d6k\u00f6r: harminczhat ezer; "
        },
        {
            "chapter": 31,
            "verse": 45,
            "name": "Numbers 31:45",
            "text": "Szam\u00e1r: harmincz ezer \u00e9s \u00f6tsz\u00e1z: "
        },
        {
            "chapter": 31,
            "verse": 46,
            "name": "Numbers 31:46",
            "text": "Emberi l\u00e9lek: tizenhat ezer.) "
        },
        {
            "chapter": 31,
            "verse": 47,
            "name": "Numbers 31:47",
            "text": "Az Izr\u00e1el fiainak es\u0151 fele r\u00e9szb\u0151l pedig egy elfogottat vett M\u00f3zes \u00f6tvenb\u0151l, az emberekb\u0151l \u00e9s a barmokb\u00f3l; \u00e9s ad\u00e1 azokat a l\u00e9vit\u00e1knak, a kik \u00fcgyelnek az \u00dar hajl\u00e9k\u00e1nak \u00fcgy\u00e9re, a mik\u00e9pen parancsolta vala az \u00dar M\u00f3zesnek. "
        },
        {
            "chapter": 31,
            "verse": 48,
            "name": "Numbers 31:48",
            "text": "\u00c9s j\u00e1rul\u00e1nak M\u00f3zeshez a had ezereinek vezet\u0151i, az ezredesek \u00e9s sz\u00e1zadosok. "
        },
        {
            "chapter": 31,
            "verse": 49,
            "name": "Numbers 31:49",
            "text": "\u00c9s mond\u00e1nak M\u00f3zesnek: Szolg\u00e1id megsz\u00e1ml\u00e1lt\u00e1k a hadakoz\u00f3 f\u00e9rfiakat, a kik a mi kez\u00fcnk alatt voltak, \u00e9s senki k\u00f6z\u00fcl\u00fcnk el nem veszett. "
        },
        {
            "chapter": 31,
            "verse": 50,
            "name": "Numbers 31:50",
            "text": "Hoztunk az\u00e9rt az \u00darnak val\u00f3 \u00e1ldozatul kiki a mit tal\u00e1lt: aranyeszk\u00f6z\u00f6ket, karl\u00e1nczokat, karpereczeket, gy\u0171r\u0171ket, f\u00fcl\u00f6nf\u00fcgg\u0151ket, nyakl\u00e1nczokat, hogy engesztel\u00e9st v\u00e9gezz\u00fcnk a mi lelk\u00fcnk\u00e9rt az \u00dar el\u0151tt. "
        },
        {
            "chapter": 31,
            "verse": 51,
            "name": "Numbers 31:51",
            "text": "\u00c9s elvev\u00e9 M\u00f3zes \u00e9s Ele\u00e1z\u00e1r, a pap, az aranyat \u0151 t\u0151l\u00f6k, \u00e9s a megk\u00e9sz\u00edtett eszk\u00f6z\u00f6ket is mind. "
        },
        {
            "chapter": 31,
            "verse": 52,
            "name": "Numbers 31:52",
            "text": "\u00c9s mindaz az arany, a melyet felemelt \u00e1ldozatul viv\u00e9nek az \u00darnak, tizenhat ezer h\u00e9tsz\u00e1z \u00e9s \u00f6tven siklus vala az ezeredesekt\u0151l \u00e9s sz\u00e1zadosokt\u00f3l. "
        },
        {
            "chapter": 31,
            "verse": 53,
            "name": "Numbers 31:53",
            "text": "A hadakoz\u00f3 f\u00e9rfiak k\u00f6z\u00fcl kiki mag\u00e1nak zs\u00e1km\u00e1nyolt. "
        },
        {
            "chapter": 31,
            "verse": 54,
            "name": "Numbers 31:54",
            "text": "Miut\u00e1n elvette vala M\u00f3zes \u00e9s Ele\u00e1z\u00e1r, a pap, az aranyat az ezeredesekt\u0151l \u00e9s sz\u00e1zadosokt\u00f3l, beviv\u00e9k azt a gy\u00fclekezetnek s\u00e1tor\u00e1ba, Izr\u00e1el fiaira val\u00f3 eml\u00e9keztet\u0151\u00fcl az \u00dar el\u00e9.  "
        }
    ]
}