{
    "translation": "Swedish (1917)",
    "abbreviation": "swedish",
    "lang": "sv",
    "language": "Swedish",
    "direction": "LTR",
    "encoding": "UTF-8",
    "book_nr": 16,
    "book_name": "Nehemiah",
    "chapter": 7,
    "name": "Nehemiah 7",
    "verses": [
        {
            "chapter": 7,
            "verse": 1,
            "name": "Nehemiah 7:1",
            "text": "Bevakningen av Jerusalem.  F\u00f6rteckning p\u00e5 de med Serubbabel \u00e5terkomna.N\u00e4r nu muren var uppbyggd, satte jag in d\u00f6rrarna; och d\u00f6rrvaktare, s\u00e5ngare och leviter blevo anst\u00e4llda."
        },
        {
            "chapter": 7,
            "verse": 2,
            "name": "Nehemiah 7:2",
            "text": "Och till bef\u00e4lhavare \u00f6ver Jerusalem satte jag min broder Hanani j\u00e4mte Hananja, h\u00f6vitsman i borgen, ty denne h\u00f6lls f\u00f6r en p\u00e5litlig man och var gudfruktig mer \u00e4n m\u00e5nga andra."
        },
        {
            "chapter": 7,
            "verse": 3,
            "name": "Nehemiah 7:3",
            "text": "Och jag sade till dem: \u00bbJerusalems portar m\u00e5 icke \u00f6ppnas, f\u00f6rr\u00e4n solen \u00e4r h\u00f6gt uppe; och medan vakten \u00e4nnu st\u00e5r kvar, skall man st\u00e4nga d\u00f6rrarna och s\u00e4tta bommarna f\u00f6r.  Och I skolen st\u00e4lla ut vakter av Jerusalems inv\u00e5nare, var och en p\u00e5 hans post, s\u00e5 att envar f\u00e5r st\u00e5 framf\u00f6r sitt eget hus.\u00bb"
        },
        {
            "chapter": 7,
            "verse": 4,
            "name": "Nehemiah 7:4",
            "text": "Och staden var vidstr\u00e4ckt och stor, men d\u00e4r fanns icke mycket folk, och husen voro icke uppbyggda."
        },
        {
            "chapter": 7,
            "verse": 5,
            "name": "Nehemiah 7:5",
            "text": "Och min Gud ingav mig i hj\u00e4rtat att jag skulle f\u00f6rsamla \u00e4dlingarna, f\u00f6rest\u00e5ndarna och folket f\u00f6r att upptecknas i sl\u00e4ktregister.  D\u00e5 fann jag sl\u00e4ktf\u00f6rteckningen \u00f6ver dem som f\u00f6rst hade dragit upp, och jag fann d\u00e4ri s\u00e5 skrivet:"
        },
        {
            "chapter": 7,
            "verse": 6,
            "name": "Nehemiah 7:6",
            "text": "\u00bbDessa voro de m\u00e4n fr\u00e5n h\u00f6vdingd\u00f6met, som drogo upp ur den landsflykt och f\u00e5ngenskap till vilken de hade blivit bortf\u00f6rda av Nebukadnessar, konungen i Babel, och som v\u00e4nde tillbaka till Jerusalem och till Juda, var och en till sin stad,"
        },
        {
            "chapter": 7,
            "verse": 7,
            "name": "Nehemiah 7:7",
            "text": "i det att de f\u00f6ljde med Serubbabel, Jesua, Nehemja, Asarja, Raamja, Nahamani, Mordokai, Bilsan, Misperet, Bigvai, Nehum och Baana. Detta var antalet m\u00e4n av Israels meniga folk:"
        },
        {
            "chapter": 7,
            "verse": 8,
            "name": "Nehemiah 7:8",
            "text": "Pareos' barn: tv\u00e5 tusen ett hundra sjuttiotv\u00e5;"
        },
        {
            "chapter": 7,
            "verse": 9,
            "name": "Nehemiah 7:9",
            "text": "Sefatjas barn: tre hundra sjuttiotv\u00e5;"
        },
        {
            "chapter": 7,
            "verse": 10,
            "name": "Nehemiah 7:10",
            "text": "Aras barn: sex hundra femtiotv\u00e5;"
        },
        {
            "chapter": 7,
            "verse": 11,
            "name": "Nehemiah 7:11",
            "text": "Pahat-Moabs barn, av Jesuas och Joabs barn: tv\u00e5 tusen \u00e5tta hundra aderton;"
        },
        {
            "chapter": 7,
            "verse": 12,
            "name": "Nehemiah 7:12",
            "text": "Elams barn: ett tusen tv\u00e5 hundra femtiofyra;"
        },
        {
            "chapter": 7,
            "verse": 13,
            "name": "Nehemiah 7:13",
            "text": "Sattus barn: \u00e5tta hundra fyrtiofem;"
        },
        {
            "chapter": 7,
            "verse": 14,
            "name": "Nehemiah 7:14",
            "text": "Sackais barn: sju hundra sextio;"
        },
        {
            "chapter": 7,
            "verse": 15,
            "name": "Nehemiah 7:15",
            "text": "Binnuis barn: sex hundra fyrtio\u00e5tta;"
        },
        {
            "chapter": 7,
            "verse": 16,
            "name": "Nehemiah 7:16",
            "text": "Bebais barn: sex hundra tjugu\u00e5tta;"
        },
        {
            "chapter": 7,
            "verse": 17,
            "name": "Nehemiah 7:17",
            "text": "Asgads barn: tv\u00e5 tusen tre hundra tjugutv\u00e5;"
        },
        {
            "chapter": 7,
            "verse": 18,
            "name": "Nehemiah 7:18",
            "text": "Adonikams barn: sex hundra sextiosju;"
        },
        {
            "chapter": 7,
            "verse": 19,
            "name": "Nehemiah 7:19",
            "text": "Bigvais barn: tv\u00e5 tusen sextiosju;"
        },
        {
            "chapter": 7,
            "verse": 20,
            "name": "Nehemiah 7:20",
            "text": "Adins barn: sex hundra femtiofem;"
        },
        {
            "chapter": 7,
            "verse": 21,
            "name": "Nehemiah 7:21",
            "text": "Aters barn av Hiskia: nittio\u00e5tta;"
        },
        {
            "chapter": 7,
            "verse": 22,
            "name": "Nehemiah 7:22",
            "text": "Hasums barn: tre hundra tjugu\u00e5tta;"
        },
        {
            "chapter": 7,
            "verse": 23,
            "name": "Nehemiah 7:23",
            "text": "Besais barn: tre hundra tjugufyra;"
        },
        {
            "chapter": 7,
            "verse": 24,
            "name": "Nehemiah 7:24",
            "text": "Harifs barn: ett hundra tolv;"
        },
        {
            "chapter": 7,
            "verse": 25,
            "name": "Nehemiah 7:25",
            "text": "Gibeons barn: nittiofem;"
        },
        {
            "chapter": 7,
            "verse": 26,
            "name": "Nehemiah 7:26",
            "text": "m\u00e4nnen fr\u00e5n Bet-Lehem och Netofa: ett hundra \u00e5ttio\u00e5tta;"
        },
        {
            "chapter": 7,
            "verse": 27,
            "name": "Nehemiah 7:27",
            "text": "m\u00e4nnen fr\u00e5n Anatot: ett hundra tjugu\u00e5tta;"
        },
        {
            "chapter": 7,
            "verse": 28,
            "name": "Nehemiah 7:28",
            "text": "m\u00e4nnen fr\u00e5n Bet-Asmavet: fyrtiotv\u00e5;"
        },
        {
            "chapter": 7,
            "verse": 29,
            "name": "Nehemiah 7:29",
            "text": "m\u00e4nnen fr\u00e5n Kirjat-Jearim, Kefira och Beerot: sju hundra fyrtiotre;"
        },
        {
            "chapter": 7,
            "verse": 30,
            "name": "Nehemiah 7:30",
            "text": "m\u00e4nnen fr\u00e5n Rama och Geba: sex hundra tjuguen;"
        },
        {
            "chapter": 7,
            "verse": 31,
            "name": "Nehemiah 7:31",
            "text": "m\u00e4nnen fr\u00e5n Mikmas: ett hundra tjugutv\u00e5;"
        },
        {
            "chapter": 7,
            "verse": 32,
            "name": "Nehemiah 7:32",
            "text": "m\u00e4nnen fr\u00e5n Betel och Ai: ett hundra tjugutre;"
        },
        {
            "chapter": 7,
            "verse": 33,
            "name": "Nehemiah 7:33",
            "text": "m\u00e4nnen fr\u00e5n det andra Nebo: femtiotv\u00e5;"
        },
        {
            "chapter": 7,
            "verse": 34,
            "name": "Nehemiah 7:34",
            "text": "den andre Elams barn: ett tusen tv\u00e5 hundra femtiofyra;"
        },
        {
            "chapter": 7,
            "verse": 35,
            "name": "Nehemiah 7:35",
            "text": "Harims barn: tre hundra tjugu;"
        },
        {
            "chapter": 7,
            "verse": 36,
            "name": "Nehemiah 7:36",
            "text": "Jerikos barn: tre hundra fyrtiofem;"
        },
        {
            "chapter": 7,
            "verse": 37,
            "name": "Nehemiah 7:37",
            "text": "Lods, Hadids och Onos barn: sju hundra tjuguen;"
        },
        {
            "chapter": 7,
            "verse": 38,
            "name": "Nehemiah 7:38",
            "text": "Senaas barn: tre tusen nio hundra trettio."
        },
        {
            "chapter": 7,
            "verse": 39,
            "name": "Nehemiah 7:39",
            "text": "Av pr\u00e4sterna: Jedajas barn av Jesuas hus: nio hundra sjuttiotre;"
        },
        {
            "chapter": 7,
            "verse": 40,
            "name": "Nehemiah 7:40",
            "text": "Immers barn: ett tusen femtiotv\u00e5;"
        },
        {
            "chapter": 7,
            "verse": 41,
            "name": "Nehemiah 7:41",
            "text": "Pashurs barn: ett tusen tv\u00e5 hundra fyrtiosju;"
        },
        {
            "chapter": 7,
            "verse": 42,
            "name": "Nehemiah 7:42",
            "text": "Harims barn: ett tusen sjutton."
        },
        {
            "chapter": 7,
            "verse": 43,
            "name": "Nehemiah 7:43",
            "text": "Av leviterna: Jesuas barn av Kadmiel, av Hodevas barn: sjuttiofyra;"
        },
        {
            "chapter": 7,
            "verse": 44,
            "name": "Nehemiah 7:44",
            "text": "av s\u00e5ngarna: Asafs barn: ett hundra fyrtio\u00e5tta;"
        },
        {
            "chapter": 7,
            "verse": 45,
            "name": "Nehemiah 7:45",
            "text": "av d\u00f6rrvaktarna: Sallums barn, Aters barn, Talmons barn, Ackubs barn, Hatitas barn, Sobais barn: ett hundra trettio\u00e5tta."
        },
        {
            "chapter": 7,
            "verse": 46,
            "name": "Nehemiah 7:46",
            "text": "Av tempeltr\u00e4larna: Sihas barn, Hasufas barn, Tabbaots barn,"
        },
        {
            "chapter": 7,
            "verse": 47,
            "name": "Nehemiah 7:47",
            "text": "Keros' barn, Sias barn, Padons barn,"
        },
        {
            "chapter": 7,
            "verse": 48,
            "name": "Nehemiah 7:48",
            "text": "Lebanas barn, Hagabas barn, Salmais barn,"
        },
        {
            "chapter": 7,
            "verse": 49,
            "name": "Nehemiah 7:49",
            "text": "Hanans barn, Giddels barn, Gahars barn,"
        },
        {
            "chapter": 7,
            "verse": 50,
            "name": "Nehemiah 7:50",
            "text": "Reajas barn, Resins barn, Nekodas barn,"
        },
        {
            "chapter": 7,
            "verse": 51,
            "name": "Nehemiah 7:51",
            "text": "Gassams barn, Ussas barn, Paseas barn,"
        },
        {
            "chapter": 7,
            "verse": 52,
            "name": "Nehemiah 7:52",
            "text": "Besais barn, Meunims barn, Nefusesims barn,"
        },
        {
            "chapter": 7,
            "verse": 53,
            "name": "Nehemiah 7:53",
            "text": "Bakbuks barn, Hakufas barn, Harhurs barn,"
        },
        {
            "chapter": 7,
            "verse": 54,
            "name": "Nehemiah 7:54",
            "text": "Basluts barn, Mehidas barn, Harsas barn,"
        },
        {
            "chapter": 7,
            "verse": 55,
            "name": "Nehemiah 7:55",
            "text": "Barkos' barn, Siseras barn, Temas barn,"
        },
        {
            "chapter": 7,
            "verse": 56,
            "name": "Nehemiah 7:56",
            "text": "Nesias barn, Hatifas barn."
        },
        {
            "chapter": 7,
            "verse": 57,
            "name": "Nehemiah 7:57",
            "text": "Av Salomos tj\u00e4nares barn: Sotais barn, Soferets barn, Peridas barn,"
        },
        {
            "chapter": 7,
            "verse": 58,
            "name": "Nehemiah 7:58",
            "text": "Jaalas barn, Darkons barn, Giddels barn,"
        },
        {
            "chapter": 7,
            "verse": 59,
            "name": "Nehemiah 7:59",
            "text": "Sefatjas barn, Hattils barn, Pokeret-Hassebaims barn, Amons barn."
        },
        {
            "chapter": 7,
            "verse": 60,
            "name": "Nehemiah 7:60",
            "text": "Tempeltr\u00e4larna och Salomos tj\u00e4nares barn utgjorde tillsammans tre hundra nittiotv\u00e5."
        },
        {
            "chapter": 7,
            "verse": 61,
            "name": "Nehemiah 7:61",
            "text": "Och dessa voro de som drogo \u00e5stad fr\u00e5n Tel-Mela, Tel-Harsa, Kerub, Addon och Immer, men som icke kunde uppgiva sina familjer och sin sl\u00e4kt, och huruvida de voro av Israel:"
        },
        {
            "chapter": 7,
            "verse": 62,
            "name": "Nehemiah 7:62",
            "text": "Delajas barn, Tobias barn, Nekodas barn, sex hundra fyrtiotv\u00e5."
        },
        {
            "chapter": 7,
            "verse": 63,
            "name": "Nehemiah 7:63",
            "text": "Och av pr\u00e4sterna: Habajas barn, Hackos' barn, Barsillais barn, hans som tog en av gileaditen Barsillais d\u00f6ttrar till hustru och blev uppkallad efter deras namn."
        },
        {
            "chapter": 7,
            "verse": 64,
            "name": "Nehemiah 7:64",
            "text": "Dessa s\u00f6kte efter sina sl\u00e4ktregister, men man kunde icke finna dem; d\u00e4rf\u00f6r blevo de s\u00e5som ov\u00e4rdiga uteslutna fr\u00e5n pr\u00e4stad\u00f6met."
        },
        {
            "chapter": 7,
            "verse": 65,
            "name": "Nehemiah 7:65",
            "text": "Och st\u00e5th\u00e5llaren tillsade dem att de icke skulle f\u00e5 \u00e4ta av det h\u00f6gheliga, f\u00f6rr\u00e4n en pr\u00e4st uppstode med urim och tummim."
        },
        {
            "chapter": 7,
            "verse": 66,
            "name": "Nehemiah 7:66",
            "text": "Hela f\u00f6rsamlingen utgjorde sammanr\u00e4knad fyrtiotv\u00e5 tusen tre hundra sextio,"
        },
        {
            "chapter": 7,
            "verse": 67,
            "name": "Nehemiah 7:67",
            "text": "f\u00f6rutom deras tj\u00e4nare och tj\u00e4narinnor, som voro sju tusen tre hundra trettiosju.  Och till dem h\u00f6rde tv\u00e5 hundra fyrtiofem s\u00e5ngare och s\u00e5ngerskor."
        },
        {
            "chapter": 7,
            "verse": 68,
            "name": "Nehemiah 7:68",
            "text": "V. 68 se Gamla testamentets text i Ordf\u00f6rkl."
        },
        {
            "chapter": 7,
            "verse": 69,
            "name": "Nehemiah 7:69",
            "text": "Och de hade fyra hundra trettiofem kameler och sex tusen sju hundra tjugu \u00e5snor."
        },
        {
            "chapter": 7,
            "verse": 70,
            "name": "Nehemiah 7:70",
            "text": "Och somliga bland huvudm\u00e4nnen f\u00f6r familjerna g\u00e5vo sk\u00e4nker till arbetet.  St\u00e5th\u00e5llaren gav till kassan i guld ett tusen dariker, d\u00e4rtill femtio sk\u00e5lar och fem hundra trettio pr\u00e4sterliga livkl\u00e4dnader."
        },
        {
            "chapter": 7,
            "verse": 71,
            "name": "Nehemiah 7:71",
            "text": "Och somliga bland huvudm\u00e4nnen f\u00f6r familjerna g\u00e5vo till arbetskassan i guld tjugu tusen dariker och i silver tv\u00e5 tusen tv\u00e5 hundra minor."
        },
        {
            "chapter": 7,
            "verse": 72,
            "name": "Nehemiah 7:72",
            "text": "Och det \u00f6vriga folkets g\u00e5vor utgjorde i guld tjugu tusen dariker och i silver tv\u00e5 tusen minor, s\u00e5 ock sextiosju pr\u00e4sterliga livkl\u00e4dnader."
        },
        {
            "chapter": 7,
            "verse": 73,
            "name": "Nehemiah 7:73",
            "text": "Och pr\u00e4sterna, leviterna, d\u00f6rrvaktarna, s\u00e5ngarna, en del av meniga folket samt tempeltr\u00e4larna, korteligen hela Israel, bosatte sig i sina st\u00e4der.\u00bb"
        }
    ]
}