{
    "translation": "Studentm\u00e5llagsbibelen fr\u00e5 1921",
    "abbreviation": "norsmb",
    "lang": "nn",
    "language": "Norwegian nynorsk",
    "direction": "LTR",
    "encoding": "UTF-8",
    "book_nr": 23,
    "book_name": "Isaiah",
    "chapter": 44,
    "name": "Isaiah 44",
    "verses": [
        {
            "chapter": 44,
            "verse": 1,
            "name": "Isaiah 44:1",
            "text": "Men h\u00f8yr no, Jakob, tenaren min, du Israel som eg hev valt ut!"
        },
        {
            "chapter": 44,
            "verse": 2,
            "name": "Isaiah 44:2",
            "text": "So segjer Herren som skapte deg, som laga deg fr\u00e5 morsliv og hjelper deg: Ver ikkje r\u00e6dd, du min tenar Jakob, Jesurun som eg hev valt ut."
        },
        {
            "chapter": 44,
            "verse": 3,
            "name": "Isaiah 44:3",
            "text": "For eg vil renna vatn yver det tyrste, og straumar yver det turre. Eg vil renna min ande ut yver di \u00e6tt, og yver ditt avkj\u00f8me mi velsigning."
        },
        {
            "chapter": 44,
            "verse": 4,
            "name": "Isaiah 44:4",
            "text": "Dei skal veksa upp millom graset som pilar ved bekkjefar."
        },
        {
            "chapter": 44,
            "verse": 5,
            "name": "Isaiah 44:5",
            "text": "Ein segjer: \u00abEg h\u00f8yrer Herren til,\u00bb ein annan kallar seg med Jakob-namnet, ein skriv med si hand: \u00abFor Herren,\u00bb og brukar til \u00e6renamn Israel."
        },
        {
            "chapter": 44,
            "verse": 6,
            "name": "Isaiah 44:6",
            "text": "So segjer Herren, Israels konge, og hans utl\u00f8ysar Herren, allhers drott: Eg er den fyrste og eg er den siste, og utan meg finst det ingen Gud."
        },
        {
            "chapter": 44,
            "verse": 7,
            "name": "Isaiah 44:7",
            "text": "Kven forkynte jamt og samt som eg - lat han melda og leggja det fram for meg! - fr\u00e5 den tid eg skapte fornalder-folket? Og lat deim melda det som i framtidi kjem!"
        },
        {
            "chapter": 44,
            "verse": 8,
            "name": "Isaiah 44:8",
            "text": "Ver ikkje forst\u00f8kte og r\u00e6dde! Hev eg ikkje for lenge sidan forkynt og meldt deg det? De er mine vitne; finst det nokon Gud utan meg? Nei, eg veit ikkje um noko anna berg."
        },
        {
            "chapter": 44,
            "verse": 9,
            "name": "Isaiah 44:9",
            "text": "Dei som lagar gudebil\u00e6te er alle inkjevetta, og deira kj\u00e6re gudar kann ikkje hjelpa; deira vitne ser inkje og skynar inkje, difor vert dei til skammar."
        },
        {
            "chapter": 44,
            "verse": 10,
            "name": "Isaiah 44:10",
            "text": "Um nokon lagar ein gud og st\u00f8yper eit bil\u00e6te, er det til unyttes."
        },
        {
            "chapter": 44,
            "verse": 11,
            "name": "Isaiah 44:11",
            "text": "Alle som held seg til det, skal verta til skammar, og meistrarne er berre menneskje, lat deim samla seg og stiga fram alle, dei skal r\u00e6ddast og verta til skammar alle i hop."
        },
        {
            "chapter": 44,
            "verse": 12,
            "name": "Isaiah 44:12",
            "text": "Smeden kvesser ei \u00f8ks og lagar henne til i koleld og formar henne med sleggjor, og han gjer henne ferdig med sin sterke arm. Vert han so svolten, minkar magti, og f\u00e6r han ikkje drikka vatn, vert han veik."
        },
        {
            "chapter": 44,
            "verse": 13,
            "name": "Isaiah 44:13",
            "text": "Snikkaren spanar snori og ritar med gravstikka, han slettar med hyvelen og dreg ringar med passaren; so lagar han dei som eit mannslike, som ein fager mann som f\u00e6r bu i eit hus."
        },
        {
            "chapter": 44,
            "verse": 14,
            "name": "Isaiah 44:14",
            "text": "Ein gjev seg til \u00e5 hogga cedrar, og han tek steineik og eik og vel seg ut eit millom skogstrei. Han plantar ei fura, og regnet f\u00e6r henne til \u00e5 veksa."
        },
        {
            "chapter": 44,
            "verse": 15,
            "name": "Isaiah 44:15",
            "text": "Mannen brukar treet til \u00e5 brenna, han tek av det og vermer seg, ja, han kveikjer p\u00e5 og bakar br\u00f8d. So gjer han og ein gud som han bed til, han formar eit gudebil\u00e6te som han b\u00f8ygjer kne for."
        },
        {
            "chapter": 44,
            "verse": 16,
            "name": "Isaiah 44:16",
            "text": "Helvti av det brenner han upp i elden, ved den helvti et han kj\u00f8t, steikjer ei steik og mettar seg. Han vermer seg og, og segjer: \u00abH\u00e5, eg vert varm, eg merkar eld!\u00bb"
        },
        {
            "chapter": 44,
            "verse": 17,
            "name": "Isaiah 44:17",
            "text": "Resten av det gjer han til ein gud, til sin avgud som han b\u00f8ygjer seg for og bed til, og han bed soleis: \u00abFrels meg, for du er min gud!\u00bb"
        },
        {
            "chapter": 44,
            "verse": 18,
            "name": "Isaiah 44:18",
            "text": "Dei er utan vit og skyn, for attklistra er augo deira, so dei ikkje ser, og hjarto deira so dei ikkje skynar."
        },
        {
            "chapter": 44,
            "verse": 19,
            "name": "Isaiah 44:19",
            "text": "Ingen tenkjer seg um, ingen hev klokskap og skyn nok til \u00e5 segja med seg: \u00abHelvti hev eg brent upp i elden, i gl\u00f8derne hev eg baka br\u00f8d og steikt kj\u00f8t og ete, og so skulde eg laga resten til eit ufyselegt bil\u00e6te og b\u00f8ygja kne for ein trekubbe!\u00bb"
        },
        {
            "chapter": 44,
            "verse": 20,
            "name": "Isaiah 44:20",
            "text": "Den som agtar p\u00e5 oska, honom hev eit forvilla hjarta d\u00e5ra, so han ikkje kjem til \u00e5 frelsa si sj\u00e6l og segja: \u00abDet er lygn det eg held i mi h\u00f8gre hand!\u00bb"
        },
        {
            "chapter": 44,
            "verse": 21,
            "name": "Isaiah 44:21",
            "text": "Kom dette i hug, du Jakob, du Israel, min tenar! Eg hev skapt deg, du er min tenar, Israel, eg gl\u00f8ymer deg ikkje."
        },
        {
            "chapter": 44,
            "verse": 22,
            "name": "Isaiah 44:22",
            "text": "Eg hev stroke burt dine brot som ei skodda, og synderne dine som ei sky; vend um til meg, for eg hev l\u00f8yst deg ut."
        },
        {
            "chapter": 44,
            "verse": 23,
            "name": "Isaiah 44:23",
            "text": "Jubla, himlar! For Herren hev sett det i verk. Ropa med frygd, de dypter i jordi! Set i med jubel, de fjell! Du skog med kvart eit tre! For Herren hev l\u00f8yst ut Jakob, og syner seg herleg p\u00e5 Israel."
        },
        {
            "chapter": 44,
            "verse": 24,
            "name": "Isaiah 44:24",
            "text": "So segjer Herren, utl\u00f8ysaren din, skaparen din fr\u00e5 moderliv: Eg er Herren som allting gjer, himmelen spana eg ut \u00e5leine, jordi breidde eg ut utan medhjelp."
        },
        {
            "chapter": 44,
            "verse": 25,
            "name": "Isaiah 44:25",
            "text": "Eg gjer juglarteikni um inkje, og sp\u00e5menner gjer eg til f\u00e5mingar; eg let vismenner koma til kort og gjer deira vitskap til d\u00e5rskap."
        },
        {
            "chapter": 44,
            "verse": 26,
            "name": "Isaiah 44:26",
            "text": "Eg stadfester ordet \u00e5t tenaren min og fullf\u00f8rer r\u00e5di \u00e5t sendebodi mine. Eg segjer um Jerusalem: \u00abDer skal bu folk!\u00bb Og um Juda-byarne: \u00abDei skal byggjast!\u00bb Ruinarne der vil eg reisa att."
        },
        {
            "chapter": 44,
            "verse": 27,
            "name": "Isaiah 44:27",
            "text": "Eg segjer til djupet: \u00abTorna, dine straumar turkar eg ut!\u00bb"
        },
        {
            "chapter": 44,
            "verse": 28,
            "name": "Isaiah 44:28",
            "text": "Eg segjer til Kyrus: \u00abMin hyrding!\u00bb Han skal fullf\u00f8ra all min vilje og til Jerusalem segja: \u00abVert bygd! Og templet verta grunnlagt!\u00bb "
        }
    ]
}