{
    "translation": "Sveto pismo Kralja Jakoba (1769)",
    "abbreviation": "slokjv",
    "lang": "sl",
    "language": "Slovene",
    "direction": "LTR",
    "encoding": "UTF-8",
    "book_nr": 14,
    "book_name": "2 Chronicles",
    "chapter": 22,
    "name": "2 Chronicles 22",
    "verses": [
        {
            "chapter": 22,
            "verse": 1,
            "name": "2 Chronicles 22:1",
            "text": ""
        },
        {
            "chapter": 22,
            "verse": 2,
            "name": "2 Chronicles 22:2",
            "text": ""
        },
        {
            "chapter": 22,
            "verse": 3,
            "name": "2 Chronicles 22:3",
            "text": ""
        },
        {
            "chapter": 22,
            "verse": 4,
            "name": "2 Chronicles 22:4",
            "text": ""
        },
        {
            "chapter": 22,
            "verse": 5,
            "name": "2 Chronicles 22:5",
            "text": ""
        },
        {
            "chapter": 22,
            "verse": 6,
            "name": "2 Chronicles 22:6",
            "text": ""
        },
        {
            "chapter": 22,
            "verse": 7,
            "name": "2 Chronicles 22:7",
            "text": ""
        },
        {
            "chapter": 22,
            "verse": 8,
            "name": "2 Chronicles 22:8",
            "text": ""
        },
        {
            "chapter": 22,
            "verse": 9,
            "name": "2 Chronicles 22:9",
            "text": ""
        },
        {
            "chapter": 22,
            "verse": 10,
            "name": "2 Chronicles 22:10",
            "text": ""
        },
        {
            "chapter": 22,
            "verse": 11,
            "name": "2 Chronicles 22:11",
            "text": ""
        },
        {
            "chapter": 22,
            "verse": 12,
            "name": "2 Chronicles 22:12",
            "text": ""
        }
    ]
}