{
    "translation": "Veren's Contemporary Bible",
    "abbreviation": "bulveren",
    "lang": "bg",
    "language": "Bulgarian",
    "direction": "LTR",
    "encoding": "UTF-8",
    "book_nr": 11,
    "book_name": "1 Kings",
    "chapter": 20,
    "name": "1 Kings 20",
    "verses": [
        {
            "chapter": 20,
            "verse": 1,
            "name": "1 Kings 20:1",
            "text": "<verse osisID=\"1Kgs.20.1\">\u0410 \u0430\u0440\u0430\u043c\u0435\u0439\u0441\u043a\u0438\u044f\u0442 \u0446\u0430\u0440 \u0412\u0435\u043d\u0430\u0434\u0430\u0434 \u0441\u044a\u0431\u0440\u0430 \u0446\u044f\u043b\u0430\u0442\u0430 \u0441\u0438 \u0432\u043e\u0439\u0441\u043a\u0430. \u0422\u0440\u0438\u0434\u0435\u0441\u0435\u0442 \u0438 \u0434\u0432\u0430\u043c\u0430 \u0446\u0430\u0440\u0435 \u0431\u044f\u0445\u0430 \u0441 \u043d\u0435\u0433\u043e \u0438 \u043a\u043e\u043d\u0435, \u0438 \u043a\u043e\u043b\u0435\u0441\u043d\u0438\u0446\u0438. \u0418 \u0441\u0435 \u0438\u0437\u043a\u0430\u0447\u0438 \u0438 \u043e\u0431\u0441\u0430\u0434\u0438 \u0421\u0430\u043c\u0430\u0440\u0438\u044f, \u0438 \u0432\u043e\u044e\u0432\u0430\u0448\u0435 \u0441\u0440\u0435\u0449\u0443 \u043d\u0435\u044f.</verse>"
        },
        {
            "chapter": 20,
            "verse": 2,
            "name": "1 Kings 20:2",
            "text": "<verse osisID=\"1Kgs.20.2\">\u0418 \u0442\u043e\u0439 \u0438\u0437\u043f\u0440\u0430\u0442\u0438 \u043f\u0440\u0430\u0442\u0435\u043d\u0438\u0446\u0438 \u0432 \u0433\u0440\u0430\u0434\u0430 \u0434\u043e \u0438\u0437\u0440\u0430\u0438\u043b\u0435\u0432\u0438\u044f \u0446\u0430\u0440 \u0410\u0445\u0430\u0432 \u0438 \u043c\u0443 \u043a\u0430\u0437\u0430: \u0422\u0430\u043a\u0430 \u043a\u0430\u0437\u0432\u0430 \u0412\u0435\u043d\u0430\u0434\u0430\u0434:</verse>"
        },
        {
            "chapter": 20,
            "verse": 3,
            "name": "1 Kings 20:3",
            "text": "<verse osisID=\"1Kgs.20.3\">\u0421\u0440\u0435\u0431\u0440\u043e\u0442\u043e \u0442\u0438 \u0438 \u0437\u043b\u0430\u0442\u043e\u0442\u043e \u0442\u0438 \u0441\u0430 \u043c\u043e\u0438; \u0438 \u0436\u0435\u043d\u0438\u0442\u0435 \u0442\u0438, \u0438 \u0441\u0438\u043d\u043e\u0432\u0435\u0442\u0435 \u0442\u0438, \u043d\u0430\u0439-\u0445\u0443\u0431\u0430\u0432\u0438\u0442\u0435, \u0441\u0430 \u043c\u043e\u0438!</verse>"
        },
        {
            "chapter": 20,
            "verse": 4,
            "name": "1 Kings 20:4",
            "text": "<verse osisID=\"1Kgs.20.4\">\u0418 \u0438\u0437\u0440\u0430\u0438\u043b\u0435\u0432\u0438\u044f\u0442 \u0446\u0430\u0440 \u043e\u0442\u0433\u043e\u0432\u043e\u0440\u0438 \u0438 \u043a\u0430\u0437\u0430: \u0421\u043f\u043e\u0440\u0435\u0434 \u0434\u0443\u043c\u0430\u0442\u0430 \u0442\u0438, \u0433\u043e\u0441\u043f\u043e\u0434\u0430\u0440\u044e \u043c\u043e\u0439, \u0446\u0430\u0440\u044e \u2014 \u0442\u0432\u043e\u0439 \u0441\u044a\u043c \u0430\u0437 \u0441 \u0432\u0441\u0438\u0447\u043a\u043e, \u043a\u043e\u0435\u0442\u043e \u0438\u043c\u0430\u043c.</verse>"
        },
        {
            "chapter": 20,
            "verse": 5,
            "name": "1 Kings 20:5",
            "text": "<verse osisID=\"1Kgs.20.5\">\u0418 \u043f\u0440\u0430\u0442\u0435\u043d\u0438\u0446\u0438\u0442\u0435 \u0434\u043e\u0439\u0434\u043e\u0445\u0430 \u043f\u0430\u043a \u0438 \u043a\u0430\u0437\u0430\u0445\u0430: \u0422\u0430\u043a\u0430 \u0433\u043e\u0432\u043e\u0440\u0438 \u0412\u0435\u043d\u0430\u0434\u0430\u0434 \u0438 \u043a\u0430\u0437\u0432\u0430: \u041d\u0430\u0438\u0441\u0442\u0438\u043d\u0430 \u0430\u0437 \u0438\u0437\u043f\u0440\u0430\u0442\u0438\u0445 \u0434\u043e \u0442\u0435\u0431 \u0434\u0430 \u043a\u0430\u0436\u0430\u0442: \u0414\u0430 \u043c\u0438 \u0434\u0430\u0434\u0435\u0448 \u0441\u0440\u0435\u0431\u0440\u043e\u0442\u043e \u0441\u0438 \u0438 \u0437\u043b\u0430\u0442\u043e\u0442\u043e \u0441\u0438, \u0438 \u0436\u0435\u043d\u0438\u0442\u0435 \u0441\u0438, \u0438 \u0441\u0438\u043d\u043e\u0432\u0435\u0442\u0435 \u0441\u0438! \u2014</verse>"
        },
        {
            "chapter": 20,
            "verse": 6,
            "name": "1 Kings 20:6",
            "text": "<verse osisID=\"1Kgs.20.6\">\u043d\u043e \u0443\u0442\u0440\u0435 \u043e\u043a\u043e\u043b\u043e \u0442\u043e\u0432\u0430 \u0432\u0440\u0435\u043c\u0435, \u0430\u0437 \u0449\u0435 \u0438\u0437\u043f\u0440\u0430\u0442\u044f \u0441\u043b\u0443\u0433\u0438\u0442\u0435 \u0441\u0438 \u043f\u0440\u0438 \u0442\u0435\u0431 \u0438 \u0442\u0435 \u0449\u0435 \u043f\u0440\u0435\u0442\u044a\u0440\u0441\u044f\u0442 \u043a\u044a\u0449\u0430\u0442\u0430 \u0442\u0438 \u0438 \u043a\u044a\u0449\u0438\u0442\u0435 \u043d\u0430 \u0441\u043b\u0443\u0433\u0438\u0442\u0435 \u0442\u0438; \u0438 \u0432\u0441\u0438\u0447\u043a\u043e, \u043a\u043e\u0435\u0442\u043e \u0442\u0438 \u0441\u0435 \u0432\u0438\u0436\u0434\u0430 \u0436\u0435\u043b\u0430\u0442\u0435\u043b\u043d\u043e, \u0449\u0435 \u0433\u043e \u0432\u0437\u0435\u043c\u0430\u0442 \u0432 \u0440\u044a\u0446\u0435\u0442\u0435 \u0441\u0438 \u0438 \u0449\u0435 \u0433\u043e \u043e\u0442\u043d\u0435\u0441\u0430\u0442.</verse>"
        },
        {
            "chapter": 20,
            "verse": 7,
            "name": "1 Kings 20:7",
            "text": "<verse osisID=\"1Kgs.20.7\">\u0422\u043e\u0433\u0430\u0432\u0430 \u0438\u0437\u0440\u0430\u0438\u043b\u0435\u0432\u0438\u044f\u0442 \u0446\u0430\u0440 \u043f\u043e\u0432\u0438\u043a\u0430 \u0432\u0441\u0438\u0447\u043a\u0438\u0442\u0435 \u0441\u0442\u0430\u0440\u0435\u0439\u0448\u0438\u043d\u0438 \u043d\u0430 \u0437\u0435\u043c\u044f\u0442\u0430 \u0438 \u043a\u0430\u0437\u0430: \u0417\u0430\u0431\u0435\u043b\u0435\u0436\u0435\u0442\u0435, \u043c\u043e\u043b\u044f \u0432\u0438, \u0438 \u0432\u0438\u0436\u0442\u0435, \u0447\u0435 \u0442\u043e\u0437\u0438 \u0442\u044a\u0440\u0441\u0438 \u0437\u043b\u043e; \u0437\u0430\u0449\u043e\u0442\u043e \u0438\u0437\u043f\u0440\u0430\u0442\u0438 \u0434\u043e \u043c\u0435\u043d \u0437\u0430 \u0436\u0435\u043d\u0438\u0442\u0435 \u043c\u0438 \u0438 \u0441\u0438\u043d\u043e\u0432\u0435\u0442\u0435 \u043c\u0438 \u0438 \u0437\u0430 \u0441\u0440\u0435\u0431\u0440\u043e\u0442\u043e \u043c\u0438 \u0438 \u0437\u043b\u0430\u0442\u043e\u0442\u043e \u043c\u0438 \u0438 \u0430\u0437 \u043d\u0435 \u043c\u0443 \u043e\u0442\u043a\u0430\u0437\u0430\u0445.</verse>"
        },
        {
            "chapter": 20,
            "verse": 8,
            "name": "1 Kings 20:8",
            "text": "<verse osisID=\"1Kgs.20.8\">\u0418 \u0432\u0441\u0438\u0447\u043a\u0438\u0442\u0435 \u0441\u0442\u0430\u0440\u0435\u0439\u0448\u0438\u043d\u0438 \u0438 \u0446\u0435\u043b\u0438\u044f\u0442 \u043d\u0430\u0440\u043e\u0434 \u043c\u0443 \u043a\u0430\u0437\u0430\u0445\u0430: \u041d\u0435 \u0433\u043e \u0441\u043b\u0443\u0448\u0430\u0439 \u0438 \u043d\u0435 \u0441\u0435 \u0441\u044a\u0433\u043b\u0430\u0441\u044f\u0432\u0430\u0439.</verse>"
        },
        {
            "chapter": 20,
            "verse": 9,
            "name": "1 Kings 20:9",
            "text": "<verse osisID=\"1Kgs.20.9\">\u0418 \u0442\u043e\u0439 \u043a\u0430\u0437\u0430 \u043d\u0430 \u043f\u0440\u0430\u0442\u0435\u043d\u0438\u0446\u0438\u0442\u0435 \u043d\u0430 \u0412\u0435\u043d\u0430\u0434\u0430\u0434: \u041a\u0430\u0436\u0435\u0442\u0435 \u043d\u0430 \u0433\u043e\u0441\u043f\u043e\u0434\u0430\u0440\u044f \u043c\u0438, \u0446\u0430\u0440\u044f: \u0412\u0441\u0438\u0447\u043a\u043e, \u0437\u0430 \u043a\u043e\u0435\u0442\u043e \u043f\u044a\u0440\u0432\u043e \u0438\u0437\u043f\u0440\u0430\u0442\u0438 \u0434\u043e \u0441\u043b\u0443\u0433\u0430\u0442\u0430 \u0441\u0438, \u0449\u0435 \u043d\u0430\u043f\u0440\u0430\u0432\u044f, \u043d\u043e \u0442\u043e\u0432\u0430 \u043d\u0435\u0449\u043e \u043d\u0435 \u043c\u043e\u0433\u0430 \u0434\u0430 \u043d\u0430\u043f\u0440\u0430\u0432\u044f. \u0418 \u043f\u0440\u0430\u0442\u0435\u043d\u0438\u0446\u0438\u0442\u0435 \u0441\u0438 \u043e\u0442\u0438\u0434\u043e\u0445\u0430 \u0438 \u043c\u0443 \u043e\u0442\u043d\u0435\u0441\u043e\u0445\u0430 \u043e\u0442\u0433\u043e\u0432\u043e\u0440.</verse>"
        },
        {
            "chapter": 20,
            "verse": 10,
            "name": "1 Kings 20:10",
            "text": "<verse osisID=\"1Kgs.20.10\">\u0422\u043e\u0433\u0430\u0432\u0430 \u0412\u0435\u043d\u0430\u0434\u0430\u0434 \u0438\u0437\u043f\u0440\u0430\u0442\u0438 \u0434\u043e \u043d\u0435\u0433\u043e \u0438 \u043a\u0430\u0437\u0430: \u0422\u0430\u043a\u0430 \u0434\u0430 \u043c\u0438 \u043d\u0430\u043f\u0440\u0430\u0432\u044f\u0442 \u0431\u043e\u0433\u043e\u0432\u0435\u0442\u0435 \u0438 \u0442\u0430\u043a\u0430 \u0434\u0430 \u043f\u0440\u0438\u0431\u0430\u0432\u044f\u0442, \u0430\u043a\u043e \u043f\u0440\u044a\u0441\u0442\u0442\u0430 \u043d\u0430 \u0421\u0430\u043c\u0430\u0440\u0438\u044f \u0431\u044a\u0434\u0435 \u0434\u043e\u0441\u0442\u0430\u0442\u044a\u0447\u043d\u0430 \u0437\u0430 \u0448\u0435\u043f\u0438\u0442\u0435 \u043d\u0430 \u0446\u0435\u043b\u0438\u044f \u043d\u0430\u0440\u043e\u0434, \u043a\u043e\u0439\u0442\u043e \u043c\u0435 \u0441\u043b\u0435\u0434\u0432\u0430!</verse>"
        },
        {
            "chapter": 20,
            "verse": 11,
            "name": "1 Kings 20:11",
            "text": "<verse osisID=\"1Kgs.20.11\">\u0422\u043e\u0433\u0430\u0432\u0430 \u0438\u0437\u0440\u0430\u0438\u043b\u0435\u0432\u0438\u044f\u0442 \u0446\u0430\u0440 \u043e\u0442\u0433\u043e\u0432\u043e\u0440\u0438 \u0438 \u043a\u0430\u0437\u0430: \u041a\u0430\u0436\u0435\u0442\u0435 \u043c\u0443: \u041d\u0435\u043a\u0430 \u043e\u043d\u0437\u0438, \u043a\u043e\u0439\u0442\u043e \u043e\u043f\u0430\u0441\u0432\u0430 \u043e\u0440\u044a\u0436\u0438\u0435\u0442\u043e \u0441\u0438, \u043d\u0435 \u0441\u0435 \u0445\u0432\u0430\u043b\u0438 \u043a\u0430\u0442\u043e \u043e\u043d\u0437\u0438, \u043a\u043e\u0439\u0442\u043e \u0433\u043e \u0440\u0430\u0437\u043f\u0430\u0441\u0432\u0430!</verse>"
        },
        {
            "chapter": 20,
            "verse": 12,
            "name": "1 Kings 20:12",
            "text": "<verse osisID=\"1Kgs.20.12\">\u0418 \u043a\u043e\u0433\u0430\u0442\u043e \u0412\u0435\u043d\u0430\u0434\u0430\u0434 \u0447\u0443 \u0442\u0430\u0437\u0438 \u0434\u0443\u043c\u0430, \u0434\u043e\u043a\u0430\u0442\u043e \u0442\u043e\u0439 \u0438 \u0446\u0430\u0440\u0435\u0442\u0435, \u043a\u043e\u0438\u0442\u043e \u0431\u044f\u0445\u0430 \u0441 \u043d\u0435\u0433\u043e, \u043f\u0438\u0435\u0445\u0430 \u0432 \u0448\u0430\u0442\u0440\u0438\u0442\u0435, \u0442\u043e\u0439 \u043a\u0430\u0437\u0430 \u043d\u0430 \u0441\u043b\u0443\u0433\u0438\u0442\u0435 \u0441\u0438: \u0421\u0442\u0440\u043e\u0439\u0442\u0435 \u0441\u0435 \u0437\u0430 \u0431\u043e\u0439! \u0418 \u0442\u0435 \u0441\u0435 \u0441\u0442\u0440\u043e\u0438\u0445\u0430 \u0437\u0430 \u0431\u043e\u0439 \u0441\u0440\u0435\u0449\u0443 \u0433\u0440\u0430\u0434\u0430.</verse>"
        },
        {
            "chapter": 20,
            "verse": 13,
            "name": "1 Kings 20:13",
            "text": "<verse osisID=\"1Kgs.20.13\">\u0418 \u0435\u0442\u043e, \u0435\u0434\u0438\u043d \u043f\u0440\u043e\u0440\u043e\u043a \u0441\u0435 \u043f\u0440\u0438\u0431\u043b\u0438\u0436\u0438 \u0434\u043e \u0438\u0437\u0440\u0430\u0438\u043b\u0435\u0432\u0438\u044f \u0446\u0430\u0440 \u0410\u0445\u0430\u0432 \u0438 \u043a\u0430\u0437\u0430: \u0422\u0430\u043a\u0430 \u043a\u0430\u0437\u0432\u0430 \u0413\u041e\u0421\u041f\u041e\u0414: \u0412\u0438\u0434\u044f \u043b\u0438 \u0446\u044f\u043b\u043e\u0442\u043e \u0442\u043e\u0432\u0430 \u0433\u043e\u043b\u044f\u043c\u043e \u043c\u043d\u043e\u0436\u0435\u0441\u0442\u0432\u043e? \u0415\u0442\u043e, \u0434\u043d\u0435\u0441 \u0410\u0437 \u0449\u0435 \u0433\u043e \u043f\u0440\u0435\u0434\u0430\u043c \u0432 \u0440\u044a\u043a\u0430\u0442\u0430 \u0442\u0438 \u0438 \u0449\u0435 \u043f\u043e\u0437\u043d\u0430\u0435\u0448, \u0447\u0435 \u0410\u0437 \u0441\u044a\u043c \u0413\u041e\u0421\u041f\u041e\u0414.</verse>"
        },
        {
            "chapter": 20,
            "verse": 14,
            "name": "1 Kings 20:14",
            "text": "<verse osisID=\"1Kgs.20.14\">\u0410 \u0410\u0445\u0430\u0432 \u043a\u0430\u0437\u0430: \u0427\u0440\u0435\u0437 \u043a\u043e\u0433\u043e? \u0418 \u0442\u043e\u0439 \u043a\u0430\u0437\u0430: \u0422\u0430\u043a\u0430 \u043a\u0430\u0437\u0432\u0430 \u0413\u041e\u0421\u041f\u041e\u0414: \u0427\u0440\u0435\u0437 \u0441\u043b\u0443\u0433\u0438\u0442\u0435 \u043d\u0430 \u043e\u0431\u043b\u0430\u0441\u0442\u043d\u0438\u0442\u0435 \u0443\u043f\u0440\u0430\u0432\u0438\u0442\u0435\u043b\u0438. \u0418 \u0442\u043e\u0439 \u043a\u0430\u0437\u0430: \u041a\u043e\u0439 \u0434\u0430 \u0437\u0430\u043f\u043e\u0447\u043d\u0435 \u0441\u0440\u0430\u0436\u0435\u043d\u0438\u0435\u0442\u043e? \u0418 \u043f\u0440\u043e\u0440\u043e\u043a\u044a\u0442 \u043a\u0430\u0437\u0430: \u0422\u0438.</verse>"
        },
        {
            "chapter": 20,
            "verse": 15,
            "name": "1 Kings 20:15",
            "text": "<verse osisID=\"1Kgs.20.15\">\u0422\u043e\u0433\u0430\u0432\u0430 \u0442\u043e\u0439 \u043f\u0440\u0435\u0431\u0440\u043e\u0438 \u0441\u043b\u0443\u0433\u0438\u0442\u0435 \u043d\u0430 \u043e\u0431\u043b\u0430\u0441\u0442\u043d\u0438\u0442\u0435 \u0443\u043f\u0440\u0430\u0432\u0438\u0442\u0435\u043b\u0438, \u0430 \u0442\u0435 \u0431\u044f\u0445\u0430 \u0434\u0432\u0435\u0441\u0442\u0430 \u0442\u0440\u0438\u0434\u0435\u0441\u0435\u0442 \u0438 \u0434\u0432\u0430\u043c\u0430 \u0434\u0443\u0448\u0438; \u0430 \u0441\u043b\u0435\u0434 \u0442\u044f\u0445 \u043f\u0440\u0435\u0431\u0440\u043e\u0438 \u0446\u0435\u043b\u0438\u044f \u043d\u0430\u0440\u043e\u0434, \u0432\u0441\u0438\u0447\u043a\u0438 \u0438\u0437\u0440\u0430\u0438\u043b\u0435\u0432\u0438 \u0441\u0438\u043d\u043e\u0432\u0435 \u2014 \u0441\u0435\u0434\u0435\u043c \u0445\u0438\u043b\u044f\u0434\u0438 \u0434\u0443\u0448\u0438.</verse>"
        },
        {
            "chapter": 20,
            "verse": 16,
            "name": "1 Kings 20:16",
            "text": "<verse osisID=\"1Kgs.20.16\">\u0418 \u0442\u0435 \u0438\u0437\u043b\u044f\u0437\u043e\u0445\u0430 \u043f\u043e \u043f\u043b\u0430\u0434\u043d\u0435, \u0430 \u0412\u0435\u043d\u0430\u0434\u0430\u0434 \u043f\u0438\u0435\u0448\u0435 \u0438 \u0441\u0435 \u043d\u0430\u043f\u0438\u0432\u0430\u0448\u0435 \u0432 \u0448\u0430\u0442\u0440\u0438\u0442\u0435, \u0442\u043e\u0439 \u0438 \u0446\u0430\u0440\u0435\u0442\u0435, \u0442\u0440\u0438\u0434\u0435\u0441\u0435\u0442 \u0438 \u0434\u0432\u0430\u043c\u0430\u0442\u0430 \u0446\u0430\u0440\u0435, \u0441\u044a\u044e\u0437\u043d\u0438\u0446\u0438\u0442\u0435 \u043c\u0443.</verse>"
        },
        {
            "chapter": 20,
            "verse": 17,
            "name": "1 Kings 20:17",
            "text": "<verse osisID=\"1Kgs.20.17\">\u041f\u044a\u0440\u0432\u0438 \u0438\u0437\u043b\u044f\u0437\u043e\u0445\u0430 \u0441\u043b\u0443\u0433\u0438\u0442\u0435 \u043d\u0430 \u043e\u0431\u043b\u0430\u0441\u0442\u043d\u0438\u0442\u0435 \u0443\u043f\u0440\u0430\u0432\u0438\u0442\u0435\u043b\u0438. \u0418 \u0412\u0435\u043d\u0430\u0434\u0430\u0434 \u0438\u0437\u043f\u0440\u0430\u0442\u0438 \u0445\u043e\u0440\u0430 \u0438 \u043c\u0443 \u0441\u044a\u043e\u0431\u0449\u0438\u0445\u0430, \u0438 \u043a\u0430\u0437\u0430\u0445\u0430: \u041c\u044a\u0436\u0435 \u0438\u0437\u043b\u044f\u0437\u043e\u0445\u0430 \u043e\u0442 \u0421\u0430\u043c\u0430\u0440\u0438\u044f.</verse>"
        },
        {
            "chapter": 20,
            "verse": 18,
            "name": "1 Kings 20:18",
            "text": "<verse osisID=\"1Kgs.20.18\">\u0410 \u0442\u043e\u0439 \u043a\u0430\u0437\u0430: \u0410\u043a\u043e \u0441\u0430 \u0438\u0437\u043b\u0435\u0437\u043b\u0438 \u0437\u0430 \u043c\u0438\u0440, \u0445\u0432\u0430\u043d\u0435\u0442\u0435 \u0433\u0438 \u0436\u0438\u0432\u0438; \u0438 \u0430\u043a\u043e \u0441\u0430 \u0438\u0437\u043b\u0435\u0437\u043b\u0438 \u0437\u0430 \u0432\u043e\u0439\u043d\u0430, \u043f\u0430\u043a \u0433\u0438 \u0445\u0432\u0430\u043d\u0435\u0442\u0435 \u0436\u0438\u0432\u0438.</verse>"
        },
        {
            "chapter": 20,
            "verse": 19,
            "name": "1 Kings 20:19",
            "text": "<verse osisID=\"1Kgs.20.19\">\u0422\u0435\u0437\u0438 \u0438\u0437\u043b\u044f\u0437\u043e\u0445\u0430 \u043e\u0442 \u0433\u0440\u0430\u0434\u0430: \u0441\u043b\u0443\u0433\u0438\u0442\u0435 \u043d\u0430 \u043e\u0431\u043b\u0430\u0441\u0442\u043d\u0438\u0442\u0435 \u0443\u043f\u0440\u0430\u0432\u0438\u0442\u0435\u043b\u0438 \u0438 \u0432\u043e\u0439\u0441\u043a\u0430\u0442\u0430, \u043a\u043e\u044f\u0442\u043e \u0433\u0438 \u0441\u043b\u0435\u0434\u0432\u0430\u0448\u0435.</verse>"
        },
        {
            "chapter": 20,
            "verse": 20,
            "name": "1 Kings 20:20",
            "text": "<verse osisID=\"1Kgs.20.20\">\u0418 \u0432\u0441\u0435\u043a\u0438 \u0443\u0431\u0438 \u0447\u043e\u0432\u0435\u043a\u0430 \u043d\u0430\u0441\u0440\u0435\u0449\u0430 \u0441\u0438; \u0438 \u0430\u0440\u0430\u043c\u0435\u0439\u0446\u0438\u0442\u0435 \u043f\u043e\u0431\u044f\u0433\u043d\u0430\u0445\u0430, \u0438 \u0418\u0437\u0440\u0430\u0438\u043b \u0433\u0438 \u043f\u0440\u0435\u0441\u043b\u0435\u0434\u0432\u0430; \u0430 \u0430\u0440\u0430\u043c\u0435\u0439\u0441\u043a\u0438\u044f\u0442 \u0446\u0430\u0440 \u0412\u0435\u043d\u0430\u0434\u0430\u0434 \u0438\u0437\u0431\u044f\u0433\u0430 \u043d\u0430 \u043a\u043e\u043d \u0441 \u043a\u043e\u043d\u043d\u0438\u0446\u0438\u0442\u0435.</verse>"
        },
        {
            "chapter": 20,
            "verse": 21,
            "name": "1 Kings 20:21",
            "text": "<verse osisID=\"1Kgs.20.21\">\u0422\u043e\u0433\u0430\u0432\u0430 \u0438\u0437\u0440\u0430\u0438\u043b\u0435\u0432\u0438\u044f\u0442 \u0446\u0430\u0440 \u0438\u0437\u043b\u0435\u0437\u0435 \u0438 \u043d\u0430\u043f\u0430\u0434\u043d\u0430 \u043a\u043e\u043d\u0435\u0442\u0435 \u0438 \u043a\u043e\u043b\u0435\u0441\u043d\u0438\u0446\u0438\u0442\u0435, \u0438 \u043d\u0430\u043d\u0435\u0441\u0435 \u043d\u0430 \u0430\u0440\u0430\u043c\u0435\u0439\u0446\u0438\u0442\u0435 \u0433\u043e\u043b\u044f\u043c\u043e \u043f\u043e\u0440\u0430\u0436\u0435\u043d\u0438\u0435.</verse>"
        },
        {
            "chapter": 20,
            "verse": 22,
            "name": "1 Kings 20:22",
            "text": "<verse osisID=\"1Kgs.20.22\">\u0410 \u043f\u0440\u043e\u0440\u043e\u043a\u044a\u0442 \u0434\u043e\u0439\u0434\u0435 \u043f\u0440\u0438 \u0438\u0437\u0440\u0430\u0438\u043b\u0435\u0432\u0438\u044f \u0446\u0430\u0440 \u0438 \u043c\u0443 \u043a\u0430\u0437\u0430: \u0418\u0434\u0438, \u0443\u043a\u0440\u0435\u043f\u0438 \u0441\u0435 \u0438 \u0440\u0430\u0437\u043c\u0438\u0441\u043b\u0438, \u0438 \u0432\u0438\u0436 \u043a\u0430\u043a\u0432\u043e \u0442\u0440\u044f\u0431\u0432\u0430 \u0434\u0430 \u043d\u0430\u043f\u0440\u0430\u0432\u0438\u0448; \u0437\u0430\u0449\u043e\u0442\u043e \u043f\u0440\u0438 \u0437\u0430\u0432\u0440\u044a\u0449\u0430\u043d\u0435\u0442\u043e \u043d\u0430 \u0433\u043e\u0434\u0438\u043d\u0430\u0442\u0430 \u0446\u0430\u0440\u044f\u0442 \u043d\u0430 \u0410\u0440\u0430\u043c \u043e\u0442\u043d\u043e\u0432\u043e \u0449\u0435 \u0438\u0437\u043b\u0435\u0437\u0435 \u043f\u0440\u043e\u0442\u0438\u0432 \u0442\u0435\u0431.</verse>"
        },
        {
            "chapter": 20,
            "verse": 23,
            "name": "1 Kings 20:23",
            "text": "<verse osisID=\"1Kgs.20.23\">\u0410 \u0441\u043b\u0443\u0433\u0438\u0442\u0435 \u043d\u0430 \u0430\u0440\u0430\u043c\u0435\u0439\u0441\u043a\u0438\u044f \u0446\u0430\u0440 \u043c\u0443 \u043a\u0430\u0437\u0430\u0445\u0430: \u0422\u0435\u0445\u043d\u0438\u0442\u0435 \u0431\u043e\u0433\u043e\u0432\u0435 \u0441\u0430 \u043f\u043b\u0430\u043d\u0438\u043d\u0441\u043a\u0438 \u0431\u043e\u0433\u043e\u0432\u0435, \u0437\u0430\u0442\u043e\u0432\u0430 \u043d\u0438 \u043d\u0430\u0434\u0432\u0438\u0445\u0430; \u043d\u043e \u0430\u043a\u043e \u0441\u0435 \u0431\u0438\u0435\u043c \u043f\u0440\u043e\u0442\u0438\u0432 \u0442\u044f\u0445 \u0432 \u0440\u0430\u0432\u043d\u0438\u043d\u0430\u0442\u0430, \u043d\u0435\u043f\u0440\u0435\u043c\u0435\u043d\u043d\u043e \u0449\u0435 \u0438\u043c \u043d\u0430\u0434\u0432\u0438\u0435\u043c.</verse>"
        },
        {
            "chapter": 20,
            "verse": 24,
            "name": "1 Kings 20:24",
            "text": "<verse osisID=\"1Kgs.20.24\">\u041d\u043e \u043d\u0430\u043f\u0440\u0430\u0432\u0438 \u0442\u043e\u0432\u0430 \u043d\u0435\u0449\u043e: \u043c\u0430\u0445\u043d\u0438 \u0446\u0430\u0440\u0435\u0442\u0435, \u0432\u0441\u0435\u043a\u0438 \u043e\u0442 \u043c\u044f\u0441\u0442\u043e\u0442\u043e \u043c\u0443, \u0438 \u0432\u043c\u0435\u0441\u0442\u043e \u0442\u044f\u0445 \u043f\u043e\u0441\u0442\u0430\u0432\u0438 \u0443\u043f\u0440\u0430\u0432\u0438\u0442\u0435\u043b\u0438;</verse>"
        },
        {
            "chapter": 20,
            "verse": 25,
            "name": "1 Kings 20:25",
            "text": "<verse osisID=\"1Kgs.20.25\">\u0438 \u0441\u044a\u0431\u0435\u0440\u0438 \u0432\u043e\u0439\u0441\u043a\u0430, \u043a\u043e\u043b\u043a\u043e\u0442\u043e \u0432\u043e\u0439\u0441\u043a\u0430\u0442\u0430, \u043a\u043e\u044f\u0442\u043e \u0442\u0438 \u0437\u0430\u0433\u0438\u043d\u0430, \u043a\u043e\u043d \u0437\u0430 \u043a\u043e\u043d \u0438 \u043a\u043e\u043b\u0435\u0441\u043d\u0438\u0446\u0430 \u0437\u0430 \u043a\u043e\u043b\u0435\u0441\u043d\u0438\u0446\u0430. \u0422\u043e\u0433\u0430\u0432\u0430 \u0449\u0435 \u0441\u0435 \u0431\u0438\u0435\u043c \u043f\u0440\u043e\u0442\u0438\u0432 \u0442\u044f\u0445 \u0432 \u0440\u0430\u0432\u043d\u0438\u043d\u0430\u0442\u0430 \u0438 \u043d\u0435\u043f\u0440\u0435\u043c\u0435\u043d\u043d\u043e \u0449\u0435 \u0438\u043c \u043d\u0430\u0434\u0432\u0438\u0435\u043c. \u0418 \u0442\u043e\u0439 \u043f\u043e\u0441\u043b\u0443\u0448\u0430 \u0433\u043b\u0430\u0441\u0430 \u0438\u043c, \u0438 \u043d\u0430\u043f\u0440\u0430\u0432\u0438 \u0442\u0430\u043a\u0430.</verse>"
        },
        {
            "chapter": 20,
            "verse": 26,
            "name": "1 Kings 20:26",
            "text": "<verse osisID=\"1Kgs.20.26\">\u0418 \u043f\u0440\u0438 \u0437\u0430\u0432\u0440\u044a\u0449\u0430\u043d\u0435\u0442\u043e \u043d\u0430 \u0433\u043e\u0434\u0438\u043d\u0430\u0442\u0430 \u0412\u0435\u043d\u0430\u0434\u0430\u0434 \u0441\u044a\u0431\u0440\u0430 \u0430\u0440\u0430\u043c\u0435\u0439\u0446\u0438\u0442\u0435 \u0438 \u0441\u0435 \u0438\u0437\u043a\u0430\u0447\u0438 \u0432 \u0410\u0444\u0435\u043a, \u0437\u0430 \u0434\u0430 \u0441\u0435 \u0431\u0438\u0435 \u0441\u0440\u0435\u0449\u0443 \u0418\u0437\u0440\u0430\u0438\u043b.</verse>"
        },
        {
            "chapter": 20,
            "verse": 27,
            "name": "1 Kings 20:27",
            "text": "<verse osisID=\"1Kgs.20.27\">\u0418 \u0438\u0437\u0440\u0430\u0438\u043b\u0435\u0432\u0438\u0442\u0435 \u0441\u0438\u043d\u043e\u0432\u0435 \u0431\u044f\u0445\u0430 \u043f\u0440\u0435\u0431\u0440\u043e\u0435\u043d\u0438 \u0438 \u0441\u043d\u0430\u0431\u0434\u0435\u043d\u0438 \u0441 \u0445\u0440\u0430\u043d\u0430, \u0438 \u043e\u0442\u0438\u0434\u043e\u0445\u0430 \u0441\u0440\u0435\u0449\u0443 \u0442\u044f\u0445. \u0418 \u0438\u0437\u0440\u0430\u0438\u043b\u0435\u0432\u0438\u0442\u0435 \u0441\u0438\u043d\u043e\u0432\u0435 \u0441\u0435 \u0440\u0430\u0437\u043f\u043e\u043b\u043e\u0436\u0438\u0445\u0430 \u043d\u0430 \u0441\u0442\u0430\u043d \u0441\u0440\u0435\u0449\u0443 \u0442\u044f\u0445 \u043a\u0430\u0442\u043e \u0434\u0432\u0435 \u043c\u0430\u043b\u043a\u0438 \u0441\u0442\u0430\u0434\u0430 \u043a\u043e\u0437\u0438, \u0430 \u0430\u0440\u0430\u043c\u0435\u0439\u0446\u0438\u0442\u0435 \u0438\u0437\u043f\u044a\u043b\u043d\u0438\u0445\u0430 \u0437\u0435\u043c\u044f\u0442\u0430.</verse>"
        },
        {
            "chapter": 20,
            "verse": 28,
            "name": "1 Kings 20:28",
            "text": "<verse osisID=\"1Kgs.20.28\">\u0422\u043e\u0433\u0430\u0432\u0430 \u0411\u043e\u0436\u0438\u044f\u0442 \u0447\u043e\u0432\u0435\u043a \u0434\u043e\u0439\u0434\u0435 \u0438 \u0433\u043e\u0432\u043e\u0440\u0438 \u043d\u0430 \u0438\u0437\u0440\u0430\u0438\u043b\u0435\u0432\u0438\u044f \u0446\u0430\u0440, \u0438 \u043a\u0430\u0437\u0430: \u0422\u0430\u043a\u0430 \u043a\u0430\u0437\u0432\u0430 \u0413\u041e\u0421\u041f\u041e\u0414: \u041f\u043e\u043d\u0435\u0436\u0435 \u0430\u0440\u0430\u043c\u0435\u0439\u0446\u0438\u0442\u0435 \u043a\u0430\u0437\u0430\u0445\u0430: \u0413\u041e\u0421\u041f\u041e\u0414 \u0435 \u0411\u043e\u0433 \u043d\u0430 \u043f\u043b\u0430\u043d\u0438\u043d\u0438\u0442\u0435, \u0430 \u043d\u0435 \u0411\u043e\u0433 \u043d\u0430 \u0434\u043e\u043b\u0438\u043d\u0438\u0442\u0435. -- \u0437\u0430\u0442\u043e\u0432\u0430 \u0449\u0435 \u043f\u0440\u0435\u0434\u0430\u043c \u0432 \u0440\u044a\u043a\u0430\u0442\u0430 \u0442\u0438 \u0446\u044f\u043b\u043e\u0442\u043e \u0442\u043e\u0432\u0430 \u0433\u043e\u043b\u044f\u043c\u043e \u043c\u043d\u043e\u0436\u0435\u0441\u0442\u0432\u043e, \u0438 \u0449\u0435 \u043f\u043e\u0437\u043d\u0430\u0435\u0442\u0435, \u0447\u0435 \u0410\u0437 \u0441\u044a\u043c \u0413\u041e\u0421\u041f\u041e\u0414.</verse>"
        },
        {
            "chapter": 20,
            "verse": 29,
            "name": "1 Kings 20:29",
            "text": "<verse osisID=\"1Kgs.20.29\">\u0418 \u0442\u0435 \u0441\u0442\u043e\u044f\u0445\u0430 \u043d\u0430 \u0441\u0442\u0430\u043d \u0435\u0434\u043d\u0438 \u0441\u0440\u0435\u0449\u0443 \u0434\u0440\u0443\u0433\u0438 \u0441\u0435\u0434\u0435\u043c \u0434\u043d\u0438. \u0410 \u043d\u0430 \u0441\u0435\u0434\u043c\u0438\u044f \u0434\u0435\u043d \u0431\u043e\u044f\u0442 \u0437\u0430\u043f\u043e\u0447\u043d\u0430 \u0438 \u0438\u0437\u0440\u0430\u0438\u043b\u0435\u0432\u0438\u0442\u0435 \u0441\u0438\u043d\u043e\u0432\u0435 \u0438\u0437\u0431\u0438\u0445\u0430 \u043e\u0442 \u0430\u0440\u0430\u043c\u0435\u0439\u0446\u0438\u0442\u0435 \u0441\u0442\u043e \u0445\u0438\u043b\u044f\u0434\u0438 \u043f\u0435\u0448\u0430\u0446\u0438 \u0432 \u0435\u0434\u0438\u043d \u0434\u0435\u043d.</verse>"
        },
        {
            "chapter": 20,
            "verse": 30,
            "name": "1 Kings 20:30",
            "text": "<verse osisID=\"1Kgs.20.30\">\u0410 \u043e\u0441\u0442\u0430\u043d\u0430\u043b\u0438\u0442\u0435 \u0438\u0437\u0431\u044f\u0433\u0430\u0445\u0430 \u0432 \u0410\u0444\u0435\u043a, \u0432 \u0433\u0440\u0430\u0434\u0430, \u0438 \u0441\u0442\u0435\u043d\u0430\u0442\u0430 \u043f\u0430\u0434\u043d\u0430 \u0432\u044a\u0440\u0445\u0443 \u0434\u0432\u0430\u0434\u0435\u0441\u0435\u0442 \u0438 \u0441\u0435\u0434\u0435\u043c\u0442\u0435 \u0445\u0438\u043b\u044f\u0434\u0438 \u043c\u044a\u0436\u0435, \u043a\u043e\u0438\u0442\u043e \u0431\u044f\u0445\u0430 \u043e\u0441\u0442\u0430\u043d\u0430\u043b\u0438. \u0418 \u0412\u0435\u043d\u0430\u0434\u0430\u0434 \u0438\u0437\u0431\u044f\u0433\u0430 \u0438 \u0432\u043b\u0435\u0437\u0435 \u0432 \u0433\u0440\u0430\u0434\u0430, \u0438 \u0441\u0435 \u043a\u0440\u0438\u0435\u0448\u0435 \u043e\u0442 \u0441\u0442\u0430\u044f \u0432 \u0441\u0442\u0430\u044f.</verse>"
        },
        {
            "chapter": 20,
            "verse": 31,
            "name": "1 Kings 20:31",
            "text": "<verse osisID=\"1Kgs.20.31\">\u0422\u043e\u0433\u0430\u0432\u0430 \u0441\u043b\u0443\u0433\u0438\u0442\u0435 \u043c\u0443 \u043c\u0443 \u043a\u0430\u0437\u0430\u0445\u0430: \u0415\u0442\u043e \u0441\u0435\u0433\u0430, \u0447\u0443\u043b\u0438 \u0441\u043c\u0435, \u0447\u0435 \u0446\u0430\u0440\u0435\u0442\u0435 \u043e\u0442 \u0438\u0437\u0440\u0430\u0438\u043b\u0435\u0432\u0438\u044f \u0434\u043e\u043c \u0441\u0430 \u043c\u0438\u043b\u043e\u0441\u0442\u0438\u0432\u0438 \u0446\u0430\u0440\u0435; \u043c\u043e\u043b\u044f \u0442\u0435, \u043d\u0435\u043a\u0430 \u0441\u043b\u043e\u0436\u0438\u043c \u0432\u0440\u0435\u0442\u0438\u0449\u0435 \u043e\u043a\u043e\u043b\u043e \u0441\u043b\u0430\u0431\u0438\u043d\u0438\u0442\u0435 \u0441\u0438 \u0438 \u0432\u044a\u0436\u0435\u0442\u0430 \u043d\u0430 \u0433\u043b\u0430\u0432\u0438\u0442\u0435 \u0441\u0438, \u0438 \u0434\u0430 \u0438\u0437\u043b\u0435\u0437\u0435\u043c \u043f\u0440\u0438 \u0438\u0437\u0440\u0430\u0438\u043b\u0435\u0432\u0438\u044f \u0446\u0430\u0440. \u041c\u043e\u0436\u0435 \u0431\u0438 \u0449\u0435 \u0442\u0435 \u043e\u0441\u0442\u0430\u0432\u0438 \u0434\u0430 \u0436\u0438\u0432\u0435\u0435\u0448.</verse>"
        },
        {
            "chapter": 20,
            "verse": 32,
            "name": "1 Kings 20:32",
            "text": "<verse osisID=\"1Kgs.20.32\">\u0418 \u0442\u0435 \u0441\u0435 \u043f\u0440\u0435\u043f\u0430\u0441\u0430\u0445\u0430 \u0441 \u0432\u0440\u0435\u0442\u0438\u0449\u0435 \u043e\u043a\u043e\u043b\u043e \u0441\u043b\u0430\u0431\u0438\u043d\u0438\u0442\u0435 \u0441\u0438 \u0438 \u0441\u043b\u043e\u0436\u0438\u0445\u0430 \u0432\u044a\u0436\u0435\u0442\u0430 \u043d\u0430 \u0433\u043b\u0430\u0432\u0438\u0442\u0435 \u0441\u0438, \u0438 \u0434\u043e\u0439\u0434\u043e\u0445\u0430 \u043f\u0440\u0438 \u0438\u0437\u0440\u0430\u0438\u043b\u0435\u0432\u0438\u044f \u0446\u0430\u0440, \u0438 \u043a\u0430\u0437\u0430\u0445\u0430: \u0421\u043b\u0443\u0433\u0430\u0442\u0430 \u0442\u0438 \u0412\u0435\u043d\u0430\u0434\u0430\u0434 \u043a\u0430\u0437\u0432\u0430: \u041c\u043e\u043b\u044f \u0442\u0435, \u043e\u0441\u0442\u0430\u0432\u0438 \u043c\u0435 \u0434\u0430 \u0436\u0438\u0432\u0435\u044f. \u0410 \u0442\u043e\u0439 \u043a\u0430\u0437\u0430: \u0416\u0438\u0432 \u043b\u0438 \u0435 \u043e\u0449\u0435? \u0411\u0440\u0430\u0442 \u043c\u0438 \u0435.</verse>"
        },
        {
            "chapter": 20,
            "verse": 33,
            "name": "1 Kings 20:33",
            "text": "<verse osisID=\"1Kgs.20.33\">\u0410 \u043c\u044a\u0436\u0435\u0442\u0435 \u043f\u0440\u0438\u0435\u0445\u0430 \u0442\u043e\u0432\u0430 \u043a\u0430\u0442\u043e \u0434\u043e\u0431\u044a\u0440 \u0437\u043d\u0430\u043a \u0438 \u043f\u043e\u0431\u044a\u0440\u0437\u0430\u0445\u0430 \u0434\u0430 \u043f\u043e\u0432\u0442\u043e\u0440\u044f\u0442 \u0442\u043e\u0432\u0430, \u043a\u043e\u0435\u0442\u043e \u0438\u0437\u043b\u0435\u0437\u0435 \u043e\u0442 \u0443\u0441\u0442\u0430\u0442\u0430 \u043c\u0443, \u0438 \u043a\u0430\u0437\u0430\u0445\u0430: \u0414\u0430, \u0412\u0435\u043d\u0430\u0434\u0430\u0434 \u0442\u0438 \u0435 \u0431\u0440\u0430\u0442! \u0418 \u0442\u043e\u0439 \u043a\u0430\u0437\u0430: \u0418\u0434\u0435\u0442\u0435, \u0434\u043e\u0432\u0435\u0434\u0435\u0442\u0435 \u0433\u043e. \u0422\u043e\u0433\u0430\u0432\u0430 \u0412\u0435\u043d\u0430\u0434\u0430\u0434 \u0438\u0437\u043b\u0435\u0437\u0435 \u043f\u0440\u0438 \u043d\u0435\u0433\u043e \u0438 \u0442\u043e\u0439 \u0433\u043e \u043a\u0430\u0447\u0438 \u043d\u0430 \u043a\u043e\u043b\u0435\u0441\u043d\u0438\u0446\u0430\u0442\u0430.</verse>"
        },
        {
            "chapter": 20,
            "verse": 34,
            "name": "1 Kings 20:34",
            "text": "<verse osisID=\"1Kgs.20.34\">\u0418 \u0412\u0435\u043d\u0430\u0434\u0430\u0434 \u043c\u0443 \u043a\u0430\u0437\u0430: \u0413\u0440\u0430\u0434\u043e\u0432\u0435\u0442\u0435, \u043a\u043e\u0438\u0442\u043e \u0431\u0430\u0449\u0430 \u043c\u0438 \u0432\u0437\u0435 \u043e\u0442 \u0442\u0432\u043e\u044f \u0431\u0430\u0449\u0430, \u0449\u0435 \u0442\u0438 \u0433\u0438 \u0432\u044a\u0440\u043d\u0430; \u0438 \u0442\u0438 \u043c\u043e\u0436\u0435\u0448 \u0434\u0430 \u0441\u0438 \u043d\u0430\u043f\u0440\u0430\u0432\u0438\u0448 \u0443\u043b\u0438\u0446\u0438 \u0432 \u0414\u0430\u043c\u0430\u0441\u043a, \u043a\u0430\u043a\u0442\u043e \u0431\u0430\u0449\u0430 \u043c\u0438 \u043d\u0430\u043f\u0440\u0430\u0432\u0438 \u0432 \u0421\u0430\u043c\u0430\u0440\u0438\u044f. \u0410 \u0410\u0445\u0430\u0432 \u043e\u0442\u0433\u043e\u0432\u043e\u0440\u0438: \u0429\u0435 \u0442\u0435 \u043f\u0443\u0441\u043d\u0430 \u0434\u0430 \u0441\u0438 \u043e\u0442\u0438\u0434\u0435\u0448 \u0441 \u0442\u043e\u0437\u0438 \u0434\u043e\u0433\u043e\u0432\u043e\u0440. \u0422\u0430\u043a\u0430 \u0442\u043e\u0439 \u043d\u0430\u043f\u0440\u0430\u0432\u0438 \u0434\u043e\u0433\u043e\u0432\u043e\u0440 \u0441 \u043d\u0435\u0433\u043e \u0438 \u0433\u043e \u043f\u0443\u0441\u043d\u0430.</verse>"
        },
        {
            "chapter": 20,
            "verse": 35,
            "name": "1 Kings 20:35",
            "text": "<verse osisID=\"1Kgs.20.35\">\u0410 \u0435\u0434\u0438\u043d \u0447\u043e\u0432\u0435\u043a \u043e\u0442 \u0443\u0447\u0435\u043d\u0438\u0446\u0438\u0442\u0435 \u043d\u0430 \u043f\u0440\u043e\u0440\u043e\u0446\u0438\u0442\u0435 \u043a\u0430\u0437\u0430 \u043d\u0430 \u0434\u0440\u0443\u0433\u0430\u0440\u044f \u0441\u0438 \u0447\u0440\u0435\u0437 \u0413\u041e\u0421\u041f\u041e\u0414\u041d\u041e\u0422\u041e \u0441\u043b\u043e\u0432\u043e: \u041c\u043e\u043b\u044f \u0442\u0435, \u0443\u0434\u0430\u0440\u0438 \u043c\u0435. \u041d\u043e \u0447\u043e\u0432\u0435\u043a\u044a\u0442 \u043e\u0442\u043a\u0430\u0437\u0430 \u0434\u0430 \u0433\u043e \u0443\u0434\u0430\u0440\u0438.</verse>"
        },
        {
            "chapter": 20,
            "verse": 36,
            "name": "1 Kings 20:36",
            "text": "<verse osisID=\"1Kgs.20.36\">\u0422\u043e\u0433\u0430\u0432\u0430 \u0442\u043e\u0439 \u043c\u0443 \u043a\u0430\u0437\u0430: \u041f\u043e\u043d\u0435\u0436\u0435 \u043d\u0435 \u043f\u043e\u0441\u043b\u0443\u0448\u0430 \u0433\u043b\u0430\u0441\u0430 \u043d\u0430 \u0413\u041e\u0421\u041f\u041e\u0414\u0410, \u0435\u0442\u043e, \u0449\u043e\u043c \u0441\u0438 \u0442\u0440\u044a\u0433\u043d\u0435\u0448 \u043e\u0442 \u043c\u0435\u043d, \u0449\u0435 \u0442\u0435 \u0443\u0431\u0438\u0435 \u043b\u044a\u0432. \u0418 \u0449\u043e\u043c \u0442\u043e\u0439 \u0442\u0440\u044a\u0433\u043d\u0430 \u043e\u0442 \u043d\u0435\u0433\u043e, \u0435\u0434\u0438\u043d \u043b\u044a\u0432 \u0433\u043e \u043d\u0430\u043c\u0435\u0440\u0438 \u0438 \u0433\u043e \u0443\u0431\u0438.</verse>"
        },
        {
            "chapter": 20,
            "verse": 37,
            "name": "1 Kings 20:37",
            "text": "<verse osisID=\"1Kgs.20.37\">\u0418 \u0442\u043e\u0439 \u0441\u0440\u0435\u0449\u043d\u0430 \u0434\u0440\u0443\u0433 \u0447\u043e\u0432\u0435\u043a \u0438 \u043a\u0430\u0437\u0430: \u041c\u043e\u043b\u044f \u0442\u0435, \u0443\u0434\u0430\u0440\u0438 \u043c\u0435. \u0418 \u0447\u043e\u0432\u0435\u043a\u044a\u0442 \u0433\u043e \u0443\u0434\u0430\u0440\u0438, \u0443\u0434\u0430\u0440\u0438 \u0433\u043e \u0438 \u0433\u043e \u043d\u0430\u0440\u0430\u043d\u0438.</verse>"
        },
        {
            "chapter": 20,
            "verse": 38,
            "name": "1 Kings 20:38",
            "text": "<verse osisID=\"1Kgs.20.38\">\u0422\u043e\u0433\u0430\u0432\u0430 \u043f\u0440\u043e\u0440\u043e\u043a\u044a\u0442 \u043e\u0442\u0438\u0434\u0435 \u0438 \u0437\u0430\u0441\u0442\u0430\u043d\u0430 \u043d\u0430 \u043f\u044a\u0442\u044f \u043d\u0430 \u0446\u0430\u0440\u044f, \u0438 \u0441\u0435 \u043f\u0440\u0435\u0434\u0440\u0435\u0448\u0438 \u0441 \u043f\u0440\u0435\u0432\u0440\u044a\u0437\u043a\u0430 \u043d\u0430 \u043e\u0447\u0438\u0442\u0435 \u0441\u0438.</verse>"
        },
        {
            "chapter": 20,
            "verse": 39,
            "name": "1 Kings 20:39",
            "text": "<verse osisID=\"1Kgs.20.39\">\u0418 \u043a\u043e\u0433\u0430\u0442\u043e \u0446\u0430\u0440\u044f\u0442 \u043c\u0438\u043d\u0430\u0432\u0430\u0448\u0435, \u0442\u043e\u0439 \u0438\u0437\u0432\u0438\u043a\u0430 \u043a\u044a\u043c \u0446\u0430\u0440\u044f \u0438 \u043a\u0430\u0437\u0430: \u0421\u043b\u0443\u0433\u0430\u0442\u0430 \u0442\u0438 \u043e\u0442\u0438\u0434\u0435 \u0441\u0440\u0435\u0434 \u0441\u0440\u0430\u0436\u0435\u043d\u0438\u0435\u0442\u043e; \u0438 \u0435\u0442\u043e, \u0435\u0434\u0438\u043d \u0447\u043e\u0432\u0435\u043a \u0441\u0435 \u043e\u0442\u0431\u0438 \u043d\u0430\u0441\u0442\u0440\u0430\u043d\u0430 \u0438 \u0434\u043e\u0432\u0435\u0434\u0435 \u0435\u0434\u0438\u043d \u0447\u043e\u0432\u0435\u043a \u043f\u0440\u0438 \u043c\u0435\u043d, \u0438 \u043a\u0430\u0437\u0430: \u041f\u0430\u0437\u0438 \u0442\u043e\u0437\u0438 \u0447\u043e\u0432\u0435\u043a; \u0430\u043a\u043e \u043f\u043e \u043d\u044f\u043a\u0430\u043a\u044a\u0432 \u043d\u0430\u0447\u0438\u043d \u0441\u0435 \u0438\u0437\u0433\u0443\u0431\u0438, \u0442\u043e\u0433\u0430\u0432\u0430 \u0442\u0432\u043e\u044f\u0442 \u0436\u0438\u0432\u043e\u0442 \u0449\u0435 \u0431\u044a\u0434\u0435 \u0432\u043c\u0435\u0441\u0442\u043e \u043d\u0435\u0433\u043e\u0432\u0438\u044f \u0436\u0438\u0432\u043e\u0442, \u0438\u043b\u0438 \u0449\u0435 \u043f\u043b\u0430\u0442\u0438\u0448 \u0435\u0434\u0438\u043d \u0442\u0430\u043b\u0430\u043d\u0442 \u0441\u0440\u0435\u0431\u0440\u043e.</verse>"
        },
        {
            "chapter": 20,
            "verse": 40,
            "name": "1 Kings 20:40",
            "text": "<verse osisID=\"1Kgs.20.40\">\u041d\u043e \u0434\u043e\u043a\u0430\u0442\u043e \u0441\u043b\u0443\u0433\u0430\u0442\u0430 \u0442\u0438 \u0441\u0435 \u0437\u0430\u043d\u0438\u043c\u0430\u0432\u0430\u0448\u0435 \u0442\u0443\u043a \u0438 \u0442\u0430\u043c, \u0442\u043e\u0439 \u0438\u0437\u0447\u0435\u0437\u043d\u0430. \u0410 \u0438\u0437\u0440\u0430\u0438\u043b\u0435\u0432\u0438\u044f\u0442 \u0446\u0430\u0440 \u043c\u0443 \u043a\u0430\u0437\u0430: \u0422\u0430\u0437\u0438 \u0435 \u043f\u0440\u0438\u0441\u044a\u0434\u0430\u0442\u0430 \u0442\u0438, \u0442\u0438 \u0441\u0430\u043c \u044f \u0440\u0435\u0448\u0438.</verse>"
        },
        {
            "chapter": 20,
            "verse": 41,
            "name": "1 Kings 20:41",
            "text": "<verse osisID=\"1Kgs.20.41\">\u0422\u043e\u0433\u0430\u0432\u0430 \u0442\u043e\u0439 \u0431\u044a\u0440\u0437\u043e \u043c\u0430\u0445\u043d\u0430 \u043f\u0440\u0435\u0432\u0440\u044a\u0437\u043a\u0430\u0442\u0430 \u043e\u0442 \u043e\u0447\u0438\u0442\u0435 \u0441\u0438 \u0438 \u0438\u0437\u0440\u0430\u0438\u043b\u0435\u0432\u0438\u044f\u0442 \u0446\u0430\u0440 \u0433\u043e \u0440\u0430\u0437\u043f\u043e\u0437\u043d\u0430, \u0447\u0435 \u0431\u0435\u0448\u0435 \u043e\u0442 \u043f\u0440\u043e\u0440\u043e\u0446\u0438\u0442\u0435.</verse>"
        },
        {
            "chapter": 20,
            "verse": 42,
            "name": "1 Kings 20:42",
            "text": "<verse osisID=\"1Kgs.20.42\">\u0410 \u0442\u043e\u0439 \u043c\u0443 \u043a\u0430\u0437\u0430: \u0422\u0430\u043a\u0430 \u043a\u0430\u0437\u0432\u0430 \u0413\u041e\u0421\u041f\u041e\u0414: \u041f\u043e\u043d\u0435\u0436\u0435 \u0442\u0438 \u043f\u0443\u0441\u043d\u0430 \u043e\u0442 \u0440\u044a\u043a\u0430\u0442\u0430 \u0441\u0438 \u0447\u043e\u0432\u0435\u043a\u0430, \u043a\u043e\u0433\u043e\u0442\u043e \u0410\u0437 \u0431\u044f\u0445 \u043e\u043f\u0440\u0435\u0434\u0435\u043b\u0438\u043b \u0437\u0430 \u043f\u0440\u043e\u043a\u043b\u044f\u0442\u0438\u0435, \u0437\u0430\u0442\u043e\u0432\u0430 \u0442\u0432\u043e\u044f\u0442 \u0436\u0438\u0432\u043e\u0442 \u0449\u0435 \u0431\u044a\u0434\u0435 \u0432\u043c\u0435\u0441\u0442\u043e \u043d\u0435\u0433\u043e\u0432\u0438\u044f \u0436\u0438\u0432\u043e\u0442 \u0438 \u0442\u0432\u043e\u044f\u0442 \u043d\u0430\u0440\u043e\u0434 \u2014 \u0432\u043c\u0435\u0441\u0442\u043e \u043d\u0435\u0433\u043e\u0432\u0438\u044f \u043d\u0430\u0440\u043e\u0434.</verse>"
        },
        {
            "chapter": 20,
            "verse": 43,
            "name": "1 Kings 20:43",
            "text": "<verse osisID=\"1Kgs.20.43\">\u0418 \u0438\u0437\u0440\u0430\u0438\u043b\u0435\u0432\u0438\u044f\u0442 \u0446\u0430\u0440 \u043e\u0442\u0438\u0434\u0435 \u0443 \u0434\u043e\u043c\u0430 \u0441\u0438 \u043c\u0440\u0430\u0447\u0435\u043d \u0438 \u043e\u0433\u043e\u0440\u0447\u0435\u043d \u0438 \u0434\u043e\u0439\u0434\u0435 \u0432 \u0421\u0430\u043c\u0430\u0440\u0438\u044f.</verse>"
        }
    ]
}