{
    "translation": "Riveduta Bible (1927)",
    "abbreviation": "riveduta",
    "lang": "it",
    "language": "Italian",
    "direction": "LTR",
    "encoding": "",
    "book_nr": 42,
    "book_name": "Luke",
    "chapter": 9,
    "name": "Luke 9",
    "verses": [
        {
            "chapter": 9,
            "verse": 1,
            "name": "Luke 9:1",
            "text": "Ora Ges\u00f9, chiamati assieme i dodici, diede loro potest\u00e0 ed autorit\u00e0 su tutti i demoni e di guarir le malattie.\r"
        },
        {
            "chapter": 9,
            "verse": 2,
            "name": "Luke 9:2",
            "text": "E li mand\u00f2 a predicare il regno di Dio e a guarire gl\u2019infermi.\r"
        },
        {
            "chapter": 9,
            "verse": 3,
            "name": "Luke 9:3",
            "text": "E disse loro: Non prendete nulla per viaggio: n\u00e9 bastone, n\u00e9 sacca, n\u00e9 pane, n\u00e9 danaro, e non abbiate tunica di ricambio.\r"
        },
        {
            "chapter": 9,
            "verse": 4,
            "name": "Luke 9:4",
            "text": "E in qualunque casa sarete entrati, in quella dimorate e da quella ripartite.\r"
        },
        {
            "chapter": 9,
            "verse": 5,
            "name": "Luke 9:5",
            "text": "E quant\u2019\u00e8 a quelli che non vi riceveranno, uscendo dalla loro citt\u00e0, scotete la polvere dai vostri piedi, in testimonianza contro a loro.\r"
        },
        {
            "chapter": 9,
            "verse": 6,
            "name": "Luke 9:6",
            "text": "Ed essi, partitisi, andavano attorno di villaggio in villaggio, evangelizzando e facendo guarigioni per ogni dove.\r"
        },
        {
            "chapter": 9,
            "verse": 7,
            "name": "Luke 9:7",
            "text": "Ora, Erode il tetrarca ud\u00ec parlare di tutti que\u2019 fatti; e n\u2019era perplesso, perch\u00e9 taluni dicevano: Giovanni \u00e8 risuscitato dai morti;\r"
        },
        {
            "chapter": 9,
            "verse": 8,
            "name": "Luke 9:8",
            "text": "altri dicevano: E\u2019 apparso Elia; ed altri: E\u2019 risuscitato uno degli antichi profeti.\r"
        },
        {
            "chapter": 9,
            "verse": 9,
            "name": "Luke 9:9",
            "text": "Ma Erode disse: Giovanni l\u2019ho fatto decapitare; chi \u00e8 dunque costui del quale sento dir tali cose? E cercava di vederlo.\r"
        },
        {
            "chapter": 9,
            "verse": 10,
            "name": "Luke 9:10",
            "text": "E gli apostoli, essendo ritornati, raccontarono a Ges\u00f9 tutte le cose che aveano fatte; ed egli, presili seco, si ritir\u00f2 in disparte verso una citt\u00e0 chiamata Betsaida.\r"
        },
        {
            "chapter": 9,
            "verse": 11,
            "name": "Luke 9:11",
            "text": "Ma le turbe, avendolo saputo, lo seguirono; ed egli, accoltele, parlava loro del regno di Dio, e guariva quelli che avean bisogno di guarigione.\r"
        },
        {
            "chapter": 9,
            "verse": 12,
            "name": "Luke 9:12",
            "text": "Or il giorno cominciava a declinare; e i dodici, accostatisi, gli dissero: Licenzia la moltitudine, affinch\u00e9 se ne vada per i villaggi e per le campagne d\u2019intorno per albergarvi e per trovarvi da mangiare, perch\u00e9 qui siamo in un luogo deserto.\r"
        },
        {
            "chapter": 9,
            "verse": 13,
            "name": "Luke 9:13",
            "text": "Ma egli disse loro: Date lor voi da mangiare. Ed essi risposero: Noi non abbiamo altro che cinque pani e due pesci; se pur non andiamo noi a comprar dei viveri per tutto questo popolo.\r"
        },
        {
            "chapter": 9,
            "verse": 14,
            "name": "Luke 9:14",
            "text": "Poich\u00e9 v\u2019eran cinquemila uomini. Ed egli disse ai suoi discepoli: Fateli accomodare a cerchi d\u2019una cinquantina.\r"
        },
        {
            "chapter": 9,
            "verse": 15,
            "name": "Luke 9:15",
            "text": "E cos\u00ec li fecero accomodar tutti.\r"
        },
        {
            "chapter": 9,
            "verse": 16,
            "name": "Luke 9:16",
            "text": "Poi Ges\u00f9 prese i cinque pani e i due pesci; e levati gli occhi al cielo, li benedisse, li spezz\u00f2 e li dava ai suoi discepoli per metterli dinanzi alla gente.\r"
        },
        {
            "chapter": 9,
            "verse": 17,
            "name": "Luke 9:17",
            "text": "E tutti mangiarono e furon sazi; e de\u2019 pezzi loro avanzati si portaron via dodici ceste.\r"
        },
        {
            "chapter": 9,
            "verse": 18,
            "name": "Luke 9:18",
            "text": "Or avvenne che mentr\u2019egli stava pregando in disparte, i discepoli erano con lui; ed egli domand\u00f2 loro: Chi dicono le turbe ch\u2019io sia?\r"
        },
        {
            "chapter": 9,
            "verse": 19,
            "name": "Luke 9:19",
            "text": "E quelli risposero: Gli uni dicono Giovanni Battista; altri, Elia; ed altri, uno dei profeti antichi risuscitato.\r"
        },
        {
            "chapter": 9,
            "verse": 20,
            "name": "Luke 9:20",
            "text": "Ed egli disse loro: E voi, chi dite ch\u2019io sia? E Pietro, rispondendo, disse: Il Cristo di Dio.\r"
        },
        {
            "chapter": 9,
            "verse": 21,
            "name": "Luke 9:21",
            "text": "Ed egli viet\u00f2 loro severamente di dirlo ad alcuno, e aggiunse:\r"
        },
        {
            "chapter": 9,
            "verse": 22,
            "name": "Luke 9:22",
            "text": "Bisogna che il Figliuol dell\u2019uomo soffra molte cose, e sia reietto dagli anziani e dai capi sacerdoti e dagli scribi, e sia ucciso, e risusciti il terzo giorno.\r"
        },
        {
            "chapter": 9,
            "verse": 23,
            "name": "Luke 9:23",
            "text": "Diceva poi a tutti: Se uno vuol venire dietro a me, rinunzi a se stesso, prenda ogni giorno la sua croce e mi seguiti.\r"
        },
        {
            "chapter": 9,
            "verse": 24,
            "name": "Luke 9:24",
            "text": "Perch\u00e9 chi vorr\u00e0 salvare la sua vita, la perder\u00e0; ma chi avr\u00e0 perduto la propria vita per me, esso la salver\u00e0.\r"
        },
        {
            "chapter": 9,
            "verse": 25,
            "name": "Luke 9:25",
            "text": "Infatti, che giova egli all\u2019uomo l\u2019aver guadagnato tutto il mondo, se poi ha perduto o rovinato se stesso?\r"
        },
        {
            "chapter": 9,
            "verse": 26,
            "name": "Luke 9:26",
            "text": "Perch\u00e9 se uno ha vergogna di me e delle mie parole, il Figliuol dell\u2019uomo avr\u00e0 vergogna di lui, quando verr\u00e0 nella gloria sua e del Padre e de\u2019 santi angeli.\r"
        },
        {
            "chapter": 9,
            "verse": 27,
            "name": "Luke 9:27",
            "text": "Or io vi dico in verit\u00e0 che alcuni di coloro che son qui presenti non gusteranno la morte, finch\u00e9 non abbian veduto il regno di Dio.\r"
        },
        {
            "chapter": 9,
            "verse": 28,
            "name": "Luke 9:28",
            "text": "Or avvenne che circa otto giorni dopo questi ragionamenti, Ges\u00f9 prese seco Pietro, Giovanni e Giacomo, e sal\u00ec sul monte per pregare.\r"
        },
        {
            "chapter": 9,
            "verse": 29,
            "name": "Luke 9:29",
            "text": "E mentre pregava, l\u2019aspetto del suo volto fu mutato, e la sua veste divenne candida sfolgorante.\r"
        },
        {
            "chapter": 9,
            "verse": 30,
            "name": "Luke 9:30",
            "text": "Ed ecco, due uomini conversavano con lui; ed erano Mos\u00e8 ed Elia,\r"
        },
        {
            "chapter": 9,
            "verse": 31,
            "name": "Luke 9:31",
            "text": "i quali, appariti in gloria, parlavano della dipartenza ch\u2019egli stava per compiere in Gerusalemme.\r"
        },
        {
            "chapter": 9,
            "verse": 32,
            "name": "Luke 9:32",
            "text": "Or Pietro e quelli ch\u2019eran con lui, erano aggravati dal sonno; e quando si furono svegliati, videro la sua gloria e i due uomini che stavan con lui.\r"
        },
        {
            "chapter": 9,
            "verse": 33,
            "name": "Luke 9:33",
            "text": "E come questi si partivano da lui, Pietro disse a Ges\u00f9: Maestro, egli \u00e8 bene che stiamo qui; facciamo tre tende: una per te, una per Mos\u00e8, ed una per Elia; non sapendo quel che si dicesse.\r"
        },
        {
            "chapter": 9,
            "verse": 34,
            "name": "Luke 9:34",
            "text": "E mentre diceva cos\u00ec, venne una nuvola che li coperse della sua ombra; e i discepoli temettero quando quelli entrarono nella nuvola.\r"
        },
        {
            "chapter": 9,
            "verse": 35,
            "name": "Luke 9:35",
            "text": "Ed una voce venne dalla nuvola, dicendo: Questo \u00e8 il mio figliuolo, l\u2019eletto mio; ascoltatelo.\r"
        },
        {
            "chapter": 9,
            "verse": 36,
            "name": "Luke 9:36",
            "text": "E mentre si faceva quella voce, Ges\u00f9 si trov\u00f2 solo. Ed essi tacquero, e non riferirono in quei giorni ad alcuno nulla di quel che aveano veduto.\r"
        },
        {
            "chapter": 9,
            "verse": 37,
            "name": "Luke 9:37",
            "text": "Or avvenne il giorno seguente che essendo essi scesi dal monte, una gran moltitudine venne incontro a Ges\u00f9.\r"
        },
        {
            "chapter": 9,
            "verse": 38,
            "name": "Luke 9:38",
            "text": "Ed ecco, un uomo dalla folla esclam\u00f2: Maestro, te ne prego, volgi lo sguardo al mio figliuolo; \u00e8 l\u2019unico ch\u2019io abbia;\r"
        },
        {
            "chapter": 9,
            "verse": 39,
            "name": "Luke 9:39",
            "text": "ed ecco uno spirito lo prende, e subito egli grida, e lo spirito lo getta in convulsione facendolo schiumare, e a fatica si diparte da lui, fiaccandolo tutto.\r"
        },
        {
            "chapter": 9,
            "verse": 40,
            "name": "Luke 9:40",
            "text": "Ed ho pregato i tuoi discepoli di cacciarlo, ma non hanno potuto.\r"
        },
        {
            "chapter": 9,
            "verse": 41,
            "name": "Luke 9:41",
            "text": "E Ges\u00f9, rispondendo, disse: O generazione incredula e perversa, fino a quando sar\u00f2 io con voi e vi sopporter\u00f2?\r"
        },
        {
            "chapter": 9,
            "verse": 42,
            "name": "Luke 9:42",
            "text": "Mena qua il tuo figliuolo. E mentre il fanciullo si avvicinava, il demonio lo gett\u00f2 per terra e lo torse in convulsione; ma Ges\u00f9 sgrid\u00f2 lo spirito immondo, guar\u00ec il fanciullo, e lo rese a suo padre.\r"
        },
        {
            "chapter": 9,
            "verse": 43,
            "name": "Luke 9:43",
            "text": "E tutti sbigottivano della grandezza di Dio.\r"
        },
        {
            "chapter": 9,
            "verse": 44,
            "name": "Luke 9:44",
            "text": "Ora, mentre tutti si maravigliavano di tutte le cose che Ges\u00f9 faceva, egli disse ai suoi discepoli: Voi, tenete bene a mente queste parole: Il Figliuol dell\u2019uomo sta per esser dato nelle mani degli uomini.\r"
        },
        {
            "chapter": 9,
            "verse": 45,
            "name": "Luke 9:45",
            "text": "Ma essi non capivano quel detto ch\u2019era per loro coperto d\u2019un velo, per modo che non lo intendevano, e temevano d\u2019interrogarlo circa quel detto.\r"
        },
        {
            "chapter": 9,
            "verse": 46,
            "name": "Luke 9:46",
            "text": "Poi sorse fra loro una disputa sul chi di loro fosse il maggiore.\r"
        },
        {
            "chapter": 9,
            "verse": 47,
            "name": "Luke 9:47",
            "text": "Ma Ges\u00f9, conosciuto il pensiero del loro cuore, prese un piccolo fanciullo, se lo pose accanto, e disse loro:\r"
        },
        {
            "chapter": 9,
            "verse": 48,
            "name": "Luke 9:48",
            "text": "Chi riceve questo piccolo fanciullo nel nome mio, riceve me; e chi riceve me, riceve Colui che m\u2019ha mandato. Poich\u00e9 chi \u00e8 il minimo fra tutti voi, quello \u00e8 grande.\r"
        },
        {
            "chapter": 9,
            "verse": 49,
            "name": "Luke 9:49",
            "text": "Or Giovanni prese a dirgli: Maestro, noi abbiam veduto un tale che cacciava i demoni nel tuo nome, e glielo abbiamo vietato perch\u00e9 non ti segue con noi.\r"
        },
        {
            "chapter": 9,
            "verse": 50,
            "name": "Luke 9:50",
            "text": "Ma Ges\u00f9 gli disse: Non glielo vietate, perch\u00e9 chi non \u00e8 contro voi \u00e8 per voi.\r"
        },
        {
            "chapter": 9,
            "verse": 51,
            "name": "Luke 9:51",
            "text": "Poi, come s\u2019avvicinava il tempo della sua assunzione, Ges\u00f9 si mise risolutamente in via per andare a Gerusalemme.\r"
        },
        {
            "chapter": 9,
            "verse": 52,
            "name": "Luke 9:52",
            "text": "E mand\u00f2 davanti a s\u00e9 de\u2019 messi, i quali, partitisi, entrarono in un villaggio de\u2019 Samaritani per preparargli alloggio.\r"
        },
        {
            "chapter": 9,
            "verse": 53,
            "name": "Luke 9:53",
            "text": "Ma quelli non lo ricevettero perch\u00e9 era diretto verso Gerusalemme.\r"
        },
        {
            "chapter": 9,
            "verse": 54,
            "name": "Luke 9:54",
            "text": "Veduto ci\u00f2, i suoi discepoli Giacomo e Giovanni dissero: Signore, vuoi tu che diciamo che scenda fuoco dal cielo e li consumi?\r"
        },
        {
            "chapter": 9,
            "verse": 55,
            "name": "Luke 9:55",
            "text": "Ma egli, rivoltosi, li sgrid\u00f2.\r"
        },
        {
            "chapter": 9,
            "verse": 56,
            "name": "Luke 9:56",
            "text": "E se ne andarono in un altro villaggio.\r"
        },
        {
            "chapter": 9,
            "verse": 57,
            "name": "Luke 9:57",
            "text": "Or avvenne che mentre camminavano per la via, qualcuno gli disse: Io ti seguiter\u00f2 dovunque tu andrai.\r"
        },
        {
            "chapter": 9,
            "verse": 58,
            "name": "Luke 9:58",
            "text": "E Ges\u00f9 gli rispose: Le volpi hanno delle tane e gli uccelli del cielo dei nidi, ma il Figliuol dell\u2019uomo non ha dove posare il capo.\r"
        },
        {
            "chapter": 9,
            "verse": 59,
            "name": "Luke 9:59",
            "text": "E ad un altro disse: Seguitami. Ed egli rispose: Permettimi prima d\u2019andare a seppellir mio padre.\r"
        },
        {
            "chapter": 9,
            "verse": 60,
            "name": "Luke 9:60",
            "text": "Ma Ges\u00f9 gli disse: Lascia i morti seppellire i loro morti; ma tu va\u2019 ad annunziare il regno di Dio.\r"
        },
        {
            "chapter": 9,
            "verse": 61,
            "name": "Luke 9:61",
            "text": "E un altro ancora gli disse: Ti seguiter\u00f2, Signore, ma permettimi prima d\u2019accomiatarmi da que\u2019 di casa mia.\r"
        },
        {
            "chapter": 9,
            "verse": 62,
            "name": "Luke 9:62",
            "text": "Ma Ges\u00f9 gli disse: Nessuno che abbia messo la mano all\u2019aratro e poi riguardi indietro, \u00e8 adatto al regno di Dio.\r"
        }
    ]
}