{
    "translation": "Louis Segond (1910)",
    "abbreviation": "ls1910",
    "lang": "fr",
    "language": "French",
    "direction": "LTR",
    "encoding": "UTF-8",
    "book_nr": 23,
    "book_name": "Isaiah",
    "chapter": 1,
    "name": "Isaiah 1",
    "verses": [
        {
            "chapter": 1,
            "verse": 1,
            "name": "Isaiah 1:1",
            "text": "Proph\u00e9tie d'\u00c9sa\u00efe, fils d'Amots, sur Juda et J\u00e9rusalem, au temps d'Ozias, de Jotham, d'Achaz, d'\u00c9z\u00e9chias, rois de Juda."
        },
        {
            "chapter": 1,
            "verse": 2,
            "name": "Isaiah 1:2",
            "text": "Cieux, \u00e9coutez! terre, pr\u00eate l'oreille! Car l'\u00c9ternel parle. J'ai nourri et \u00e9lev\u00e9 des enfants, Mais ils se sont r\u00e9volt\u00e9s contre moi."
        },
        {
            "chapter": 1,
            "verse": 3,
            "name": "Isaiah 1:3",
            "text": "Le b\u0153uf conna\u00eet son possesseur, Et l'\u00e2ne la cr\u00e8che de son ma\u00eetre: Isra\u00ebl ne conna\u00eet rien, Mon peuple n'a point d'intelligence."
        },
        {
            "chapter": 1,
            "verse": 4,
            "name": "Isaiah 1:4",
            "text": "Malheur \u00e0 la nation p\u00e9cheresse, au peuple charg\u00e9 d'iniquit\u00e9s, \u00c0 la race des m\u00e9chants, aux enfants corrompus! Ils ont abandonn\u00e9 l'\u00c9ternel, ils ont m\u00e9pris\u00e9 le Saint d'Isra\u00ebl. Ils se sont retir\u00e9s en arri\u00e8re..."
        },
        {
            "chapter": 1,
            "verse": 5,
            "name": "Isaiah 1:5",
            "text": "Quels ch\u00e2timents nouveaux vous infliger, Quand vous multipliez vos r\u00e9voltes? La t\u00eate enti\u00e8re est malade, Et tout le c\u0153ur est souffrant."
        },
        {
            "chapter": 1,
            "verse": 6,
            "name": "Isaiah 1:6",
            "text": "De la plante du pied jusqu'\u00e0 la t\u00eate, rien n'est en bon \u00e9tat: Ce ne sont que blessures, contusions et plaies vives, Qui n'ont \u00e9t\u00e9 ni pans\u00e9es, ni band\u00e9es, Ni adoucies par l'huile."
        },
        {
            "chapter": 1,
            "verse": 7,
            "name": "Isaiah 1:7",
            "text": "Votre pays est d\u00e9vast\u00e9, Vos villes sont consum\u00e9es par le feu, Des \u00e9trangers d\u00e9vorent vos campagnes sous vos yeux, Ils ravagent et d\u00e9truisent, comme des barbares."
        },
        {
            "chapter": 1,
            "verse": 8,
            "name": "Isaiah 1:8",
            "text": "Et la fille de Sion est rest\u00e9e Comme une cabane dans une vigne, Comme une hutte dans un champ de concombres, Comme une ville \u00e9pargn\u00e9e."
        },
        {
            "chapter": 1,
            "verse": 9,
            "name": "Isaiah 1:9",
            "text": "Si l'\u00c9ternel des arm\u00e9es Ne nous e\u00fbt conserv\u00e9 un faible reste, Nous serions comme Sodome, Nous ressemblerions \u00e0 Gomorrhe."
        },
        {
            "chapter": 1,
            "verse": 10,
            "name": "Isaiah 1:10",
            "text": "\u00c9coutez la parole de l'\u00c9ternel, chefs de Sodome! Pr\u00eate l'oreille \u00e0 la loi de notre Dieu, peuple de Gomorrhe!"
        },
        {
            "chapter": 1,
            "verse": 11,
            "name": "Isaiah 1:11",
            "text": "Qu'ai-je affaire de la multitude de vos sacrifices? dit l'\u00c9ternel. Je suis rassasi\u00e9 des holocaustes de b\u00e9liers et de la graisse des veaux; Je ne prends point plaisir au sang des taureaux, des brebis et des boucs."
        },
        {
            "chapter": 1,
            "verse": 12,
            "name": "Isaiah 1:12",
            "text": "Quand vous venez vous pr\u00e9senter devant moi, Qui vous demande de souiller mes parvis?"
        },
        {
            "chapter": 1,
            "verse": 13,
            "name": "Isaiah 1:13",
            "text": "Cessez d'apporter de vaines offrandes: J'ai en horreur l'encens, Les nouvelles lunes, les sabbats et les assembl\u00e9es; Je ne puis voir le crime s'associer aux solennit\u00e9s."
        },
        {
            "chapter": 1,
            "verse": 14,
            "name": "Isaiah 1:14",
            "text": "Mon \u00e2me hait vos nouvelles lunes et vos f\u00eates; Elles me sont \u00e0 charge; Je suis las de les supporter."
        },
        {
            "chapter": 1,
            "verse": 15,
            "name": "Isaiah 1:15",
            "text": "Quand vous \u00e9tendez vos mains, je d\u00e9tourne de vous mes yeux; Quand vous multipliez les pri\u00e8res, je n'\u00e9coute pas: Vos mains sont pleines de sang."
        },
        {
            "chapter": 1,
            "verse": 16,
            "name": "Isaiah 1:16",
            "text": "Lavez-vous, purifiez-vous, Otez de devant mes yeux la m\u00e9chancet\u00e9 de vos actions; Cessez de faire le mal."
        },
        {
            "chapter": 1,
            "verse": 17,
            "name": "Isaiah 1:17",
            "text": "Apprenez \u00e0 faire le bien, recherchez la justice, Prot\u00e9gez l'opprim\u00e9; Faites droit \u00e0 l'orphelin, D\u00e9fendez la veuve."
        },
        {
            "chapter": 1,
            "verse": 18,
            "name": "Isaiah 1:18",
            "text": "Venez et plaidons! dit l'\u00c9ternel. Si vos p\u00e9ch\u00e9s sont comme le cramoisi, ils deviendront blancs comme la neige; S'ils sont rouges comme la pourpre, ils deviendront comme la laine."
        },
        {
            "chapter": 1,
            "verse": 19,
            "name": "Isaiah 1:19",
            "text": "Si vous avez de la bonne volont\u00e9 et si vous \u00eates dociles, Vous mangerez les meilleures productions du pays;"
        },
        {
            "chapter": 1,
            "verse": 20,
            "name": "Isaiah 1:20",
            "text": "Mais si vous r\u00e9sistez et si vous \u00eates rebelles, Vous serez d\u00e9vor\u00e9s par le glaive, Car la bouche de l'\u00c9ternel a parl\u00e9."
        },
        {
            "chapter": 1,
            "verse": 21,
            "name": "Isaiah 1:21",
            "text": "Quoi donc! la cit\u00e9 fid\u00e8le est devenue une prostitu\u00e9e! Elle \u00e9tait remplie d'\u00e9quit\u00e9, la justice y habitait, Et maintenant il y a des assassins!"
        },
        {
            "chapter": 1,
            "verse": 22,
            "name": "Isaiah 1:22",
            "text": "Ton argent s'est chang\u00e9 en scories, Ton vin a \u00e9t\u00e9 coup\u00e9 d'eau."
        },
        {
            "chapter": 1,
            "verse": 23,
            "name": "Isaiah 1:23",
            "text": "Tes chefs sont rebelles et complices des voleurs, Tous aiment les pr\u00e9sents et courent apr\u00e8s les r\u00e9compenses; Ils ne font pas droit \u00e0 l'orphelin, Et la cause de la veuve ne vient pas jusqu'\u00e0 eux."
        },
        {
            "chapter": 1,
            "verse": 24,
            "name": "Isaiah 1:24",
            "text": "C'est pourquoi voici ce que dit le Seigneur, l'\u00c9ternel des arm\u00e9es, Le Fort d'Isra\u00ebl: Ah! je tirerai satisfaction de mes adversaires, Et je me vengerai de mes ennemis."
        },
        {
            "chapter": 1,
            "verse": 25,
            "name": "Isaiah 1:25",
            "text": "Je porterai ma main sur toi, Je fondrai tes scories, comme avec de la potasse, Et j'enl\u00e8verai toutes tes parcelles de plomb."
        },
        {
            "chapter": 1,
            "verse": 26,
            "name": "Isaiah 1:26",
            "text": "Je r\u00e9tablirai tes juges tels qu'ils \u00e9taient autrefois, Et tes conseillers tels qu'ils \u00e9taient au commencement. Apr\u00e8s cela, on t'appellera ville de la justice, Cit\u00e9 fid\u00e8le."
        },
        {
            "chapter": 1,
            "verse": 27,
            "name": "Isaiah 1:27",
            "text": "Sion sera sauv\u00e9e par la droiture, Et ceux qui s'y convertiront seront sauv\u00e9s par la justice."
        },
        {
            "chapter": 1,
            "verse": 28,
            "name": "Isaiah 1:28",
            "text": "Mais la ruine atteindra tous les rebelles et les p\u00e9cheurs, Et ceux qui abandonnent l'\u00c9ternel p\u00e9riront."
        },
        {
            "chapter": 1,
            "verse": 29,
            "name": "Isaiah 1:29",
            "text": "On aura honte \u00e0 cause des t\u00e9r\u00e9binthes auxquels vous prenez plaisir, Et vous rougirez \u00e0 cause des jardins dont vous faites vos d\u00e9lices;"
        },
        {
            "chapter": 1,
            "verse": 30,
            "name": "Isaiah 1:30",
            "text": "Car vous serez comme un t\u00e9r\u00e9binthe au feuillage fl\u00e9tri, Comme un jardin qui n'a pas d'eau."
        },
        {
            "chapter": 1,
            "verse": 31,
            "name": "Isaiah 1:31",
            "text": "L'homme fort sera comme de l'\u00e9toupe, Et son \u0153uvre comme une \u00e9tincelle; Ils br\u00fbleront l'un et l'autre ensemble, Et il n'y aura personne pour \u00e9teindre. "
        }
    ]
}