{
    "translation": "Reina Valera (1909)",
    "abbreviation": "valera",
    "lang": "es",
    "language": "Spanish",
    "direction": "LTR",
    "encoding": "UTF-8",
    "book_nr": 26,
    "book_name": "Ezekiel",
    "chapter": 11,
    "name": "Ezekiel 11",
    "verses": [
        {
            "chapter": 11,
            "verse": 1,
            "name": "Ezekiel 11:1",
            "text": "Y EL esp\u00edritu me elev\u00f3, y meti\u00f3me por la puerta oriental de la casa de Jehov\u00e1, la cual mira hacia el oriente: y he aqu\u00ed \u00e1 la entrada de la puerta veinticinco varones, entre los cuales vi \u00e1 Jaazan\u00edas hijo de Azur, y \u00e1 Pelat\u00edas hijo de Bena\u00edas, pr\u00edncipes del pueblo."
        },
        {
            "chapter": 11,
            "verse": 2,
            "name": "Ezekiel 11:2",
            "text": "Y d\u00edjome: Hijo del hombre, \u00e9stos son los hombres que maquinan perversidad, y dan en esta ciudad mal consejo;"
        },
        {
            "chapter": 11,
            "verse": 3,
            "name": "Ezekiel 11:3",
            "text": "Los cuales dicen: No ser\u00e1 tan presto: edifiquemos casas: \u00e9sta ser\u00e1 la caldera, y nosotros la carne."
        },
        {
            "chapter": 11,
            "verse": 4,
            "name": "Ezekiel 11:4",
            "text": "Por tanto profetiza contra ellos, profetiza, hijo del hombre."
        },
        {
            "chapter": 11,
            "verse": 5,
            "name": "Ezekiel 11:5",
            "text": "Y cay\u00f3 sobre m\u00ed el esp\u00edritu de Jehov\u00e1, y d\u00edjome: Di: As\u00ed ha dicho Jehov\u00e1: As\u00ed hab\u00e9is hablado, oh casa de Israel, y las cosas que suben \u00e1 vuestro esp\u00edritu, yo las he entendido."
        },
        {
            "chapter": 11,
            "verse": 6,
            "name": "Ezekiel 11:6",
            "text": "Hab\u00e9is multiplicado vuestros muertos en esta ciudad, y hab\u00e9is henchido de muertos sus calles."
        },
        {
            "chapter": 11,
            "verse": 7,
            "name": "Ezekiel 11:7",
            "text": "Por tanto, as\u00ed ha dicho el Se\u00f1or Jehov\u00e1: Vuestros muertos que hab\u00e9is puesto en medio de ella, ellos son la carne, y ella es la caldera; mas yo os sacar\u00e9 \u00e1 vosotros de en medio de ella."
        },
        {
            "chapter": 11,
            "verse": 8,
            "name": "Ezekiel 11:8",
            "text": "Cuchillo hab\u00e9is temido, y cuchillo traer\u00e9 sobre vosotros, dice el Se\u00f1or Jehov\u00e1."
        },
        {
            "chapter": 11,
            "verse": 9,
            "name": "Ezekiel 11:9",
            "text": "Y os sacar\u00e9 de en medio de ella, y os entregar\u00e9 en manos de extra\u00f1os, y yo har\u00e9 juicios en vosotros."
        },
        {
            "chapter": 11,
            "verse": 10,
            "name": "Ezekiel 11:10",
            "text": "\u00c1 cuchillo caer\u00e9is; en el t\u00e9rmino de Israel os juzgar\u00e9, y sabr\u00e9is que yo soy Jehov\u00e1."
        },
        {
            "chapter": 11,
            "verse": 11,
            "name": "Ezekiel 11:11",
            "text": "Esta no os ser\u00e1 por caldera, ni vosotros ser\u00e9is en medio de ella la carne: en el t\u00e9rmino de Israel os tengo de juzgar."
        },
        {
            "chapter": 11,
            "verse": 12,
            "name": "Ezekiel 11:12",
            "text": "Y sabr\u00e9is que yo soy Jehov\u00e1: porque no hab\u00e9is andado en mis ordenanzas, ni hab\u00e9is hecho mis juicios, sino seg\u00fan los juicios de las gentes que est\u00e1n en vuestros alrededores hab\u00e9is hecho."
        },
        {
            "chapter": 11,
            "verse": 13,
            "name": "Ezekiel 11:13",
            "text": "Y aconteci\u00f3 que, estando yo profetizando, Pelat\u00edas hijo de Bena\u00edas muri\u00f3. Entonces ca\u00ed sobre mi rostro, y clam\u00e9 con grande voz, y dije: \u00a1Ah, Se\u00f1or Jehov\u00e1! \u00bfhar\u00e1s t\u00fa consumaci\u00f3n del resto de Israel?  "
        },
        {
            "chapter": 11,
            "verse": 14,
            "name": "Ezekiel 11:14",
            "text": "  Y fu\u00e9 \u00e1 m\u00ed palabra de Jehov\u00e1, diciendo:"
        },
        {
            "chapter": 11,
            "verse": 15,
            "name": "Ezekiel 11:15",
            "text": "Hijo del hombre, tus hermanos, tus hermanos, los hombres de tu parentesco y toda la casa de Israel, toda ella son aquellos \u00e1 quienes dijeron los moradores de Jerusalem: Alejaos de Jehov\u00e1; \u00e1 nosotros es dada la tierra en posesi\u00f3n."
        },
        {
            "chapter": 11,
            "verse": 16,
            "name": "Ezekiel 11:16",
            "text": "Por tanto di: As\u00ed ha dicho el Se\u00f1or Jehov\u00e1: Aunque los he echado lejos entre las gentes, y los he esparcido por las tierras, con todo eso les ser\u00e9 por un peque\u00f1o santuario en las tierras \u00e1 donde llegaren."
        },
        {
            "chapter": 11,
            "verse": 17,
            "name": "Ezekiel 11:17",
            "text": "Di por tanto: As\u00ed ha dicho el Se\u00f1or Jehov\u00e1: Yo os recoger\u00e9 de los pueblos, y os allegar\u00e9 de las tierras en las cuales est\u00e1is esparcidos, y os dar\u00e9 la tierra de Israel."
        },
        {
            "chapter": 11,
            "verse": 18,
            "name": "Ezekiel 11:18",
            "text": "Y vendr\u00e1n all\u00e1, y quitar\u00e1n de ella todas su torpezas, y todas sus abominaciones."
        },
        {
            "chapter": 11,
            "verse": 19,
            "name": "Ezekiel 11:19",
            "text": "Y darles he un coraz\u00f3n, y esp\u00edritu nuevo dar\u00e9 en sus entra\u00f1as; y quitar\u00e9 el coraz\u00f3n de piedra de su carne, y dar\u00e9les coraz\u00f3n de carne;"
        },
        {
            "chapter": 11,
            "verse": 20,
            "name": "Ezekiel 11:20",
            "text": "Para que anden en mis ordenanzas, y guarden mis juicios y los cumplan, y me sean por pueblo, y yo sea \u00e1 ellos por Dios."
        },
        {
            "chapter": 11,
            "verse": 21,
            "name": "Ezekiel 11:21",
            "text": "Mas \u00e1 aquellos cuyo coraz\u00f3n anda tras el deseo de sus torpezas y de sus abominaciones, yo tornar\u00e9 su camino sobre sus cabezas, dice el Se\u00f1or Jehov\u00e1.  "
        },
        {
            "chapter": 11,
            "verse": 22,
            "name": "Ezekiel 11:22",
            "text": "  Despu\u00e9s alzaron los querubines sus alas, y las ruedas en pos de ellos; y la gloria del Dios de Israel estaba sobre ellos encima."
        },
        {
            "chapter": 11,
            "verse": 23,
            "name": "Ezekiel 11:23",
            "text": "Y la gloria de Jehov\u00e1 se fu\u00e9 de en medio de la ciudad, y par\u00f3 sobre el monte que est\u00e1 al oriente de la ciudad."
        },
        {
            "chapter": 11,
            "verse": 24,
            "name": "Ezekiel 11:24",
            "text": "Luego me levant\u00f3 el esp\u00edritu, y volvi\u00f3me \u00e1 llevar en visi\u00f3n del esp\u00edritu de Dios \u00e1 la tierra de los Caldeos, \u00e1 los trasportados. Y parti\u00f3se de m\u00ed la visi\u00f3n que hab\u00eda visto."
        },
        {
            "chapter": 11,
            "verse": 25,
            "name": "Ezekiel 11:25",
            "text": "Y habl\u00e9 \u00e1 los trasportados todas las palabras de Jehov\u00e1 que \u00e9l me hab\u00eda mostrado.   "
        }
    ]
}