{
    "translation": "Reina Valera (1909)",
    "abbreviation": "valera",
    "lang": "es",
    "language": "Spanish",
    "direction": "LTR",
    "encoding": "UTF-8",
    "book_nr": 26,
    "book_name": "Ezekiel",
    "chapter": 23,
    "name": "Ezekiel 23",
    "verses": [
        {
            "chapter": 23,
            "verse": 1,
            "name": "Ezekiel 23:1",
            "text": "Y FU\u00c9 \u00e1 m\u00ed palabra de Jehov\u00e1, diciendo:"
        },
        {
            "chapter": 23,
            "verse": 2,
            "name": "Ezekiel 23:2",
            "text": "Hijo del hombre, hubo dos mujeres, hijas de una madre,"
        },
        {
            "chapter": 23,
            "verse": 3,
            "name": "Ezekiel 23:3",
            "text": "Las cuales fornicaron en Egipto; en sus mocedades fornicaron. All\u00ed fueron apretados sus pechos, y all\u00ed fueron estrujados los pechos de su virginidad."
        },
        {
            "chapter": 23,
            "verse": 4,
            "name": "Ezekiel 23:4",
            "text": "Y llam\u00e1banse, la mayor, Aholah, y su hermana, Aholibah; las cuales fueron m\u00edas, y parieron hijos \u00e9 hijas. Y llam\u00e1ronse, Samaria, Aholah; y Jerusalem, Aholibah."
        },
        {
            "chapter": 23,
            "verse": 5,
            "name": "Ezekiel 23:5",
            "text": "Y Aholah cometi\u00f3 fornicaci\u00f3n en mi poder: y prend\u00f3se de sus amantes, los Asirios sus vecinos,"
        },
        {
            "chapter": 23,
            "verse": 6,
            "name": "Ezekiel 23:6",
            "text": "Vestidos de c\u00e1rdeno, capitanes y pr\u00edncipes, mancebos todos de codiciar, caballeros que andaban \u00e1 caballo."
        },
        {
            "chapter": 23,
            "verse": 7,
            "name": "Ezekiel 23:7",
            "text": "Y puso sus fornicaciones con ellos, con todos los m\u00e1s escogidos de los hijos de los Asirios, y con todos aquellos de quienes se enamor\u00f3: contamin\u00f3se con todos los \u00eddolos de ellos."
        },
        {
            "chapter": 23,
            "verse": 8,
            "name": "Ezekiel 23:8",
            "text": "Y no dej\u00f3 sus fornicaciones de Egipto: porque con ella se echaron en su mocedad, y ellos comprimieron los pechos de su virginidad, y derramaron sobre ella su fornicaci\u00f3n."
        },
        {
            "chapter": 23,
            "verse": 9,
            "name": "Ezekiel 23:9",
            "text": "Por lo cual la entregu\u00e9 en mano de sus amantes, en mano de los hijos de los Asirios, de quienes se hab\u00eda enamorado."
        },
        {
            "chapter": 23,
            "verse": 10,
            "name": "Ezekiel 23:10",
            "text": "Ellos descubrieron sus verg\u00fcenzas, tomaron sus hijos y sus hijas, y \u00e1 ella mataron \u00e1 cuchillo: y vino \u00e1 ser de nombre entre las mujeres, pues en ella hicieron juicios.  "
        },
        {
            "chapter": 23,
            "verse": 11,
            "name": "Ezekiel 23:11",
            "text": "  Y vi\u00f3lo su hermana Aholibah, y estrag\u00f3 su amor m\u00e1s que ella; y sus fornicaciones, m\u00e1s que las fornicaciones de su hermana."
        },
        {
            "chapter": 23,
            "verse": 12,
            "name": "Ezekiel 23:12",
            "text": "Enamor\u00f3se de los hijos de los Asirios, sus vecinos, capitanes y pr\u00edncipes, vestidos en perfecci\u00f3n, caballeros que andaban \u00e1 caballo, todos ellos mancebos de codiciar."
        },
        {
            "chapter": 23,
            "verse": 13,
            "name": "Ezekiel 23:13",
            "text": "Y vi que se hab\u00eda contaminado: un camino era el de ambas."
        },
        {
            "chapter": 23,
            "verse": 14,
            "name": "Ezekiel 23:14",
            "text": "Y aument\u00f3 sus fornicaciones: pues cuando vi\u00f3 hombres pintados en la pared, im\u00e1genes de Caldeos pintadas de color,"
        },
        {
            "chapter": 23,
            "verse": 15,
            "name": "Ezekiel 23:15",
            "text": "Ce\u00f1idos de talabartes por sus lomos, y tiaras pintadas en sus cabezas, teniendo todos ellos parecer de capitanes, \u00e1 la manera de los hombres de Babilonia, nacidos en tierra de Caldeos,"
        },
        {
            "chapter": 23,
            "verse": 16,
            "name": "Ezekiel 23:16",
            "text": "Enamor\u00f3se de ellos en vi\u00e9ndolos, y envi\u00f3les mensajeros \u00e1 la tierra de los Caldeos."
        },
        {
            "chapter": 23,
            "verse": 17,
            "name": "Ezekiel 23:17",
            "text": "Y entraron \u00e1 ella los hombres de Babilonia \u00e1 la cama de los amores, y contamin\u00e1ronla con su fornicaci\u00f3n; y ella tambi\u00e9n se contamin\u00f3 con ellos, y su deseo se hart\u00f3 de ellos."
        },
        {
            "chapter": 23,
            "verse": 18,
            "name": "Ezekiel 23:18",
            "text": "As\u00ed hizo patentes sus fornicaciones, y descubri\u00f3 sus verg\u00fcenzas: por lo cual mi alma se hart\u00f3 de ella, como se hab\u00eda ya hartado mi alma de su hermana."
        },
        {
            "chapter": 23,
            "verse": 19,
            "name": "Ezekiel 23:19",
            "text": "Aun multiplic\u00f3 sus fornicaciones trayendo en memoria los d\u00edas de su mocedad, en los cuales hab\u00eda fornicado en la tierra de Egipto."
        },
        {
            "chapter": 23,
            "verse": 20,
            "name": "Ezekiel 23:20",
            "text": "Y enamor\u00f3se de sus rufianes, cuya carne es como carne de asnos, y cuyo flujo como flujo de caballos."
        },
        {
            "chapter": 23,
            "verse": 21,
            "name": "Ezekiel 23:21",
            "text": "As\u00ed tornaste \u00e1 la memoria la suciedad de tu mocedad, cuando comprimieron tus pechos en Egipto por los pechos de tu mocedad.  "
        },
        {
            "chapter": 23,
            "verse": 22,
            "name": "Ezekiel 23:22",
            "text": "  Por tanto, Aholibah, as\u00ed ha dicho el Se\u00f1or Jehov\u00e1: He aqu\u00ed que yo despierto tus amantes contra ti, de los cuales se hart\u00f3 tu deseo, y yo les har\u00e9 venir contra ti en derredor;"
        },
        {
            "chapter": 23,
            "verse": 23,
            "name": "Ezekiel 23:23",
            "text": "Los de Babilonia, y todos los Caldeos, mayordomos, y pr\u00edncipes, y capitanes, todos los de Asiria con ellos: mancebos todos ellos de codiciar, capitanes y pr\u00edncipes, nobles y principales, que montan \u00e1 caballo todos ellos."
        },
        {
            "chapter": 23,
            "verse": 24,
            "name": "Ezekiel 23:24",
            "text": "Y vendr\u00e1n sobre ti carros, carretas, y ruedas, y multitud de pueblos. Escudos, y paveses, y capacetes pondr\u00e1n contra ti en derredor; y yo dar\u00e9 el juicio delante de ellos, y por sus leyes te juzgar\u00e1n."
        },
        {
            "chapter": 23,
            "verse": 25,
            "name": "Ezekiel 23:25",
            "text": "Y pondr\u00e9 mi celo contra ti, y obrar\u00e1n contigo con furor; quitarte han tu nariz y tus orejas; y lo que te quedare caer\u00e1 \u00e1 cuchillo. Ellos tomar\u00e1n tus hijos y tus hijas, y tu residuo ser\u00e1 consumido por el fuego."
        },
        {
            "chapter": 23,
            "verse": 26,
            "name": "Ezekiel 23:26",
            "text": "Y te desnudar\u00e1n de tus vestidos, y tomar\u00e1n los vasos de tu gloria."
        },
        {
            "chapter": 23,
            "verse": 27,
            "name": "Ezekiel 23:27",
            "text": "Y har\u00e9 cesar de ti tu suciedad, y tu fornicaci\u00f3n de la tierra de Egipto: ni m\u00e1s levantar\u00e1s \u00e1 ellos tus ojos, ni nunca m\u00e1s te acordar\u00e1s de Egipto."
        },
        {
            "chapter": 23,
            "verse": 28,
            "name": "Ezekiel 23:28",
            "text": "Porque as\u00ed ha dicho el Se\u00f1or Jehov\u00e1: He aqu\u00ed, yo te entrego en mano de aquellos que t\u00fa aborreciste, en mano de aquellos de los cuales se hart\u00f3 tu deseo:"
        },
        {
            "chapter": 23,
            "verse": 29,
            "name": "Ezekiel 23:29",
            "text": "Los cuales obrar\u00e1n contigo con odio, y tomar\u00e1n todo lo que t\u00fa trabajaste, y te dejar\u00e1n desnuda y descubierta: y descubrir\u00e1se la torpeza de tus fornicaciones, y tu suciedad, y tus fornicaciones."
        },
        {
            "chapter": 23,
            "verse": 30,
            "name": "Ezekiel 23:30",
            "text": "Estas cosas se har\u00e1n contigo, porque fornicaste en pos de las gentes, con las cuales te contaminaste en sus \u00eddolos."
        },
        {
            "chapter": 23,
            "verse": 31,
            "name": "Ezekiel 23:31",
            "text": "En el camino de tu hermana anduviste: yo pues pondr\u00e9 su c\u00e1liz en tu mano."
        },
        {
            "chapter": 23,
            "verse": 32,
            "name": "Ezekiel 23:32",
            "text": "As\u00ed ha dicho el Se\u00f1or Jehov\u00e1: Beber\u00e1s el hondo y ancho c\u00e1liz de tu hermana; de ti se mofar\u00e1n las gentes, y te escarnecer\u00e1n: de grande cabida es."
        },
        {
            "chapter": 23,
            "verse": 33,
            "name": "Ezekiel 23:33",
            "text": "Ser\u00e1s llena de embriaguez y de dolor por el c\u00e1liz de soledad y de asolamiento, por el c\u00e1liz de tu hermana Samaria."
        },
        {
            "chapter": 23,
            "verse": 34,
            "name": "Ezekiel 23:34",
            "text": "Lo beber\u00e1s pues, y lo agotar\u00e1s, y quebrar\u00e1s sus tiestos; y tus pechos arrancar\u00e1s; porque yo he hablado, dice el Se\u00f1or Jehov\u00e1."
        },
        {
            "chapter": 23,
            "verse": 35,
            "name": "Ezekiel 23:35",
            "text": "Por tanto, as\u00ed ha dicho el Se\u00f1or Jehov\u00e1: Por cuanto te has olvidado de m\u00ed, y me has echado tras tus espaldas, por eso, lleva t\u00fa tambi\u00e9n tu suciedad y tus fornicaciones.  "
        },
        {
            "chapter": 23,
            "verse": 36,
            "name": "Ezekiel 23:36",
            "text": "  Y d\u00edjome Jehov\u00e1: Hijo del hombre, \u00bfno juzgar\u00e1s t\u00fa \u00e1 Aholah, y \u00e1 Aholibah, y les denunciar\u00e1s sus abominaciones?"
        },
        {
            "chapter": 23,
            "verse": 37,
            "name": "Ezekiel 23:37",
            "text": "Porque han adulterado, y hay sangre en sus manos, y han fornicado con sus \u00eddolos; y aun sus hijos que me hab\u00edan engendrado, hicieron pasar por el fuego, quem\u00e1ndolos."
        },
        {
            "chapter": 23,
            "verse": 38,
            "name": "Ezekiel 23:38",
            "text": "Aun esto m\u00e1s me hicieron: contaminaron mi santuario en aquel d\u00eda, y profanaron mis s\u00e1bados;"
        },
        {
            "chapter": 23,
            "verse": 39,
            "name": "Ezekiel 23:39",
            "text": "Pues habiendo sacrificado sus hijos \u00e1 sus \u00eddolos, entr\u00e1banse en mi santuario el mismo d\u00eda para contaminarlo: y he aqu\u00ed, as\u00ed hicieron en medio de mi casa."
        },
        {
            "chapter": 23,
            "verse": 40,
            "name": "Ezekiel 23:40",
            "text": "Y cuanto m\u00e1s, que enviaron por hombres que vienen de lejos, \u00e1 los cuales hab\u00eda sido enviado mensajero: y he aqu\u00ed vinieron; y por amor de ellos te lavaste, y alcoholaste tus ojos, y te ataviaste con adornos:"
        },
        {
            "chapter": 23,
            "verse": 41,
            "name": "Ezekiel 23:41",
            "text": "Y te sentaste sobre suntuoso estrado, y fu\u00e9 adornada mesa delante de \u00e9l, y sobre ella pusiste mi perfume y mi \u00f3leo."
        },
        {
            "chapter": 23,
            "verse": 42,
            "name": "Ezekiel 23:42",
            "text": "Y oy\u00f3se en ella voz de compa\u00f1\u00eda en holganza: y con los varones fueron tra\u00eddos de la gente com\u00fan los Sabeos del desierto; y pusieron manillas sobre sus manos, y coronas de gloria sobre sus cabezas."
        },
        {
            "chapter": 23,
            "verse": 43,
            "name": "Ezekiel 23:43",
            "text": "Y dije \u00e1 la envejecida en adulterios: Sus prostituciones cumplir\u00e1n ellos ahora, y ella con ellos:"
        },
        {
            "chapter": 23,
            "verse": 44,
            "name": "Ezekiel 23:44",
            "text": "Porque han venido \u00e1 ella como quien viene \u00e1 mujer ramera: as\u00ed vinieron \u00e1 Aholah y \u00e1 Aholibah, mujeres depravadas."
        },
        {
            "chapter": 23,
            "verse": 45,
            "name": "Ezekiel 23:45",
            "text": "Por tanto, hombres justos las juzgar\u00e1n por la ley de las ad\u00falteras, y por la ley de las que derraman sangre: porque son ad\u00falteras, y sangre hay en sus manos."
        },
        {
            "chapter": 23,
            "verse": 46,
            "name": "Ezekiel 23:46",
            "text": "Por lo que as\u00ed ha dicho el Se\u00f1or Jehov\u00e1: Yo har\u00e9 subir contra ellas compa\u00f1\u00edas, las entregar\u00e9 \u00e1 turbaci\u00f3n y \u00e1 rapi\u00f1a:"
        },
        {
            "chapter": 23,
            "verse": 47,
            "name": "Ezekiel 23:47",
            "text": "Y la compa\u00f1\u00eda de gentes las apedrear\u00e1 con piedras, y las acuchillar\u00e1 con sus espadas: matar\u00e1n \u00e1 sus hijos y \u00e1 sus hijas, y sus casas consumir\u00e1n con fuego."
        },
        {
            "chapter": 23,
            "verse": 48,
            "name": "Ezekiel 23:48",
            "text": "Y har\u00e9 cesar la depravaci\u00f3n de la tierra, y escarmentar\u00e1n todas las mujeres, y no har\u00e1n seg\u00fan vuestra torpeza."
        },
        {
            "chapter": 23,
            "verse": 49,
            "name": "Ezekiel 23:49",
            "text": "Y sobre vosotras pondr\u00e1n vuestra obscenidad, y llevar\u00e9is los pecados de vuestros \u00eddolos; y sabr\u00e9is que yo soy el Se\u00f1or Jehov\u00e1.   "
        }
    ]
}