{
    "translation": "Bible Perret-Gentil et Rilliet",
    "abbreviation": "frepgr",
    "lang": "fr",
    "language": "French",
    "direction": "LTR",
    "encoding": "UTF-8",
    "book_nr": 26,
    "book_name": "Ezekiel",
    "chapter": 41,
    "name": "Ezekiel 41",
    "verses": [
        {
            "chapter": 41,
            "verse": 1,
            "name": "Ezekiel 41:1",
            "text": "Alors il m'introduisit dans le temple m\u00eame, et il mesura les piliers ; il y avait six coud\u00e9es de largeur d'un c\u00f4t\u00e9, et six coud\u00e9es de largeur de l'autre, largeur du tabernacle."
        },
        {
            "chapter": 41,
            "verse": 2,
            "name": "Ezekiel 41:2",
            "text": "Et la largeur de la porte \u00e9tait de dix coud\u00e9es, et entre les panneaux de la porte il y avait cinq coud\u00e9es d'un c\u00f4t\u00e9, et cinq coud\u00e9es de l'autre. Et il mesura sa longueur qui \u00e9tait de quarante coud\u00e9es, et la largeur de vingt coud\u00e9es."
        },
        {
            "chapter": 41,
            "verse": 3,
            "name": "Ezekiel 41:3",
            "text": "Puis il entra dans l'int\u00e9rieur, et il mesura les piliers de la porte, deux coud\u00e9es, et l'ouverture six coud\u00e9es, et la largeur de la porte sept coud\u00e9es."
        },
        {
            "chapter": 41,
            "verse": 4,
            "name": "Ezekiel 41:4",
            "text": "Et il mesura vingt coud\u00e9es en longueur et vingt coud\u00e9es en largeur, devant le temple, et il me dit : C'est ici le lieu tr\u00e8s saint."
        },
        {
            "chapter": 41,
            "verse": 5,
            "name": "Ezekiel 41:5",
            "text": "Alors il mesura le mur de la maison ; il avait six coud\u00e9es, et la largeur des chambres lat\u00e9rales r\u00e9gnant tout autour de la maison \u00e9tait de quatre coud\u00e9es."
        },
        {
            "chapter": 41,
            "verse": 6,
            "name": "Ezekiel 41:6",
            "text": "Quant aux chambres lat\u00e9rales, elles \u00e9taient \u00e0 c\u00f4t\u00e9 les unes des autres ; il y en avait trente, et trois \u00e9tages, et elles entraient dans un mur construit int\u00e9rieurement pour ces chambres, afin qu'elles fussent adh\u00e9rentes et non inh\u00e9rentes au mur de la maison."
        },
        {
            "chapter": 41,
            "verse": 7,
            "name": "Ezekiel 41:7",
            "text": "Or l'espace qui r\u00e9gnait tout autour s'\u00e9largissait de plus en plus en s'\u00e9levant avec les chambres, car un escalier tournant s'\u00e9levait en suivant les contours int\u00e9rieurs de la maison, de mani\u00e8re que la maison allait s'\u00e9largissant \u00e0 mesure qu'on s'\u00e9levait ; et ainsi, de l'\u00e9tage inf\u00e9rieur on montait \u00e0 l'\u00e9tage sup\u00e9rieur par celui du milieu."
        },
        {
            "chapter": 41,
            "verse": 8,
            "name": "Ezekiel 41:8",
            "text": "Puis je consid\u00e9rai la hauteur int\u00e9rieure tout autour ; les fondements des chambres lat\u00e9rales avaient une perche enti\u00e8re, six coud\u00e9es jusqu'\u00e0 la jonction."
        },
        {
            "chapter": 41,
            "verse": 9,
            "name": "Ezekiel 41:9",
            "text": "La largeur du mur ext\u00e9rieur aux chambres lat\u00e9rales \u00e9tait de cinq coud\u00e9es, et le vide entre les chambres lat\u00e9rales de la maison"
        },
        {
            "chapter": 41,
            "verse": 10,
            "name": "Ezekiel 41:10",
            "text": "et les chambres, avait vingt coud\u00e9es de largeur tout autour de la maison."
        },
        {
            "chapter": 41,
            "verse": 11,
            "name": "Ezekiel 41:11",
            "text": "Or la porte des chambres lat\u00e9rales s'ouvrait sur l'espace libre : il y avait une porte au nord et une porte au midi, et la largeur de l'espace libre \u00e9tait de cinq coud\u00e9es tout autour."
        },
        {
            "chapter": 41,
            "verse": 12,
            "name": "Ezekiel 41:12",
            "text": "Ainsi l'\u00e9difice plac\u00e9 sur le devant de l'aire ferm\u00e9e avait, du c\u00f4t\u00e9 de l'occident, une largeur de soixante-dix coud\u00e9es, et le mur de l'\u00e9difice avait tout autour une largeur de cinq coud\u00e9es, et sa longueur \u00e9tait de quatre-vingt-dix coud\u00e9es."
        },
        {
            "chapter": 41,
            "verse": 13,
            "name": "Ezekiel 41:13",
            "text": "Et il mesura la maison : sa longueur \u00e9tait de cent coud\u00e9es, et l'aire ferm\u00e9e, avec ses constructions et ses murailles, avait cent coud\u00e9es de longueur,"
        },
        {
            "chapter": 41,
            "verse": 14,
            "name": "Ezekiel 41:14",
            "text": "et la largeur du front de la maison et de l'aire ferm\u00e9e \u00e9tait, du c\u00f4t\u00e9 de l'orient, de cent coud\u00e9es."
        },
        {
            "chapter": 41,
            "verse": 15,
            "name": "Ezekiel 41:15",
            "text": "Et il mesura la longueur de l'\u00e9difice devant l'aire ferm\u00e9e, ce qui \u00e9tait sur son c\u00f4t\u00e9 de derri\u00e8re, et les chambres lat\u00e9rales de l'un et de l'autre c\u00f4t\u00e9 ; elle \u00e9tait de cent coud\u00e9es."
        },
        {
            "chapter": 41,
            "verse": 16,
            "name": "Ezekiel 41:16",
            "text": "Et le temple int\u00e9rieur et son vestibule ext\u00e9rieur, les seuils et les fen\u00eatres ferm\u00e9es, et les appartements lat\u00e9raux du pourtour, \u00e0 tous les trois \u00e9tages, parall\u00e8lement au seuil, \u00e9taient recouverts de bois tout autour. Et du sol jusqu'aux fen\u00eatres, savoir aux fen\u00eatres cach\u00e9es,"
        },
        {
            "chapter": 41,
            "verse": 17,
            "name": "Ezekiel 41:17",
            "text": "au-dessus de la porte et jusque dans l'int\u00e9rieur de la maison, et en dehors, et \u00e0 toutes les parois tout autour, \u00e0 l'int\u00e9rieur et \u00e0 l'ext\u00e9rieur, les dimensions \u00e9taient exactes."
        },
        {
            "chapter": 41,
            "verse": 18,
            "name": "Ezekiel 41:18",
            "text": "Et on y avait sculpt\u00e9 des Ch\u00e9rubins et des palmiers, un palmier entre deux Ch\u00e9rubins, et chaque Ch\u00e9rubin avait deux faces,"
        },
        {
            "chapter": 41,
            "verse": 19,
            "name": "Ezekiel 41:19",
            "text": "c'est-\u00e0-dire une face d'homme tourn\u00e9e vers l'un des palmiers d'un c\u00f4t\u00e9, et une face de lion tourn\u00e9e vers l'autre palmier de l'autre c\u00f4t\u00e9 ; c'est ce qui avait \u00e9t\u00e9 fait tout autour de la maison."
        },
        {
            "chapter": 41,
            "verse": 20,
            "name": "Ezekiel 41:20",
            "text": "Du sol jusqu'au-dessus de la porte, des Ch\u00e9rubins et des palmiers avaient \u00e9t\u00e9 faits au mur du temple."
        },
        {
            "chapter": 41,
            "verse": 21,
            "name": "Ezekiel 41:21",
            "text": "Les jambages du temple \u00e9taient de forme carr\u00e9e, et la fa\u00e7ade du sanctuaire avait l'aspect qu'elle avait eu."
        },
        {
            "chapter": 41,
            "verse": 22,
            "name": "Ezekiel 41:22",
            "text": "L'autel \u00e9tait de bois, de trois coud\u00e9es en hauteur et de deux coud\u00e9es en longueur, et ses angles, son pi\u00e9destal, et ses parois \u00e9taient de bois ; et il me dit : \u00ab\u202fC'est la table dress\u00e9e devant l'\u00c9ternel.\u202f\u00bb"
        },
        {
            "chapter": 41,
            "verse": 23,
            "name": "Ezekiel 41:23",
            "text": "Et le temple et le sanctuaire avaient deux portes ; et"
        },
        {
            "chapter": 41,
            "verse": 24,
            "name": "Ezekiel 41:24",
            "text": "ces deux portes avaient deux battants mobiles ; une porte avait deux battants, et l'autre aussi deux battants."
        },
        {
            "chapter": 41,
            "verse": 25,
            "name": "Ezekiel 41:25",
            "text": "Et on y avait fait, aux portes du temple, des Ch\u00e9rubins et des palmiers, tels que ceux qui avaient \u00e9t\u00e9 faits au mur, et un seuil en bois \u00e9tait devant le vestibule en dehors."
        },
        {
            "chapter": 41,
            "verse": 26,
            "name": "Ezekiel 41:26",
            "text": "Et il y avait des fen\u00eatres ferm\u00e9es et des palmiers d'un c\u00f4t\u00e9 et de l'autre aux parois lat\u00e9rales du vestibule, et aux chambres lat\u00e9rales de la maison et \u00e0 leurs poutres. "
        }
    ]
}