{
    "translation": "Revised Webster Version (1833)",
    "abbreviation": "rwebster",
    "lang": "en",
    "language": "English",
    "direction": "LTR",
    "encoding": "",
    "book_nr": 18,
    "book_name": "Job",
    "chapter": 2,
    "name": "Job 2",
    "verses": [
        {
            "chapter": 2,
            "verse": 1,
            "name": "Job 2:1",
            "text": "Again there was a day when the sons of God came to present themselves before the LORD, and Satan came also among them to present himself before the LORD."
        },
        {
            "chapter": 2,
            "verse": 2,
            "name": "Job 2:2",
            "text": "And the LORD said to Satan, From where comest thou? And Satan answered the LORD, and said, From going to and fro on the earth, and from walking up and down upon it."
        },
        {
            "chapter": 2,
            "verse": 3,
            "name": "Job 2:3",
            "text": "And the LORD said to Satan, Hast thou considered my servant Job, that <FI>there is<Fi> none like him on the earth, a perfect and an upright man, one that feareth God, and turneth away from evil? and still he holdeth fast his integrity, although thou didst move me against him, to destroy him without cause. {to destroy...: Heb. to swallow him up}"
        },
        {
            "chapter": 2,
            "verse": 4,
            "name": "Job 2:4",
            "text": "And Satan answered the LORD, and said, Skin for skin, even, all that a man hath will he give for his life."
        },
        {
            "chapter": 2,
            "verse": 5,
            "name": "Job 2:5",
            "text": "But put forth thy hand now, and touch his bone and his flesh, and he will curse thee to thy face."
        },
        {
            "chapter": 2,
            "verse": 6,
            "name": "Job 2:6",
            "text": "And the LORD said to Satan, Behold, he <FI>is<Fi> in thy hand; but save his life. {but: or, only}"
        },
        {
            "chapter": 2,
            "verse": 7,
            "name": "Job 2:7",
            "text": "So Satan went forth from the presence of the LORD, and smote Job with severe boils from the sole of his foot to his crown."
        },
        {
            "chapter": 2,
            "verse": 8,
            "name": "Job 2:8",
            "text": "And he took a potsherd to scrape himself with; and he sat down among the ashes."
        },
        {
            "chapter": 2,
            "verse": 9,
            "name": "Job 2:9",
            "text": "Then said his wife to him, Dost thou still retain thy integrity? curse God, and die."
        },
        {
            "chapter": 2,
            "verse": 10,
            "name": "Job 2:10",
            "text": "But he said to her, Thou speakest as one of the foolish women speaketh. What? shall we receive good at the hand of God, and shall we not receive evil? In all this did not Job sin with his lips."
        },
        {
            "chapter": 2,
            "verse": 11,
            "name": "Job 2:11",
            "text": "Now when Job's three friends heard of all this evil that had come upon him, they came every one from his own place; Eliphaz the Temanite, and Bildad the Shuhite, and Zophar the Naamathite: for they had made an appointment together to come to mourn with him and to comfort him."
        },
        {
            "chapter": 2,
            "verse": 12,
            "name": "Job 2:12",
            "text": "And when they lifted up their eyes afar off, and knew him not, they raised their voice, and wept; and they tore every one his mantle, and sprinkled dust upon their heads toward heaven."
        },
        {
            "chapter": 2,
            "verse": 13,
            "name": "Job 2:13",
            "text": "So they sat down with him upon the ground seven days and seven nights, and none spoke a word to him: for they saw that <FI>his<Fi> grief was very great."
        }
    ]
}