{
    "translation": "Schlachter (1951)",
    "abbreviation": "schlachter",
    "lang": "de",
    "language": "German",
    "direction": "LTR",
    "encoding": "",
    "book_nr": 6,
    "book_name": "Josua",
    "chapter": 12,
    "name": "Josua 12",
    "verses": [
        {
            "chapter": 12,
            "verse": 1,
            "name": "Josua 12:1",
            "text": "Dies sind die K\u00f6nige des Landes, welche die Kinder Israel schlugen und deren Land sie einnahmen jenseits des Jordan, gegen Aufgang der Sonne, von dem Bache Arnon an bis zum Berg Hermon, und die ganze Ebene gegen Morgen:"
        },
        {
            "chapter": 12,
            "verse": 2,
            "name": "Josua 12:2",
            "text": "Sihon, der K\u00f6nig der Amoriter, der zu Hesbon wohnte und herrschte von Aroer an, das am Ufer des Baches Arnon liegt, und \u00fcber die Mitte des Tales und \u00fcber das halbe Gilead und bis an den Bach Jabbok, der die Grenze der Kinder Ammon ist,"
        },
        {
            "chapter": 12,
            "verse": 3,
            "name": "Josua 12:3",
            "text": "und \u00fcber die Ebene bis an den See Genezaret gegen Morgen und bis an das Meer der Ebene, n\u00e4mlich das Salzmeer gegen Morgen am Wege gen Beth-Jesimot; und von Teman an unterhalb der Abh\u00e4nge des Pisga."
        },
        {
            "chapter": 12,
            "verse": 4,
            "name": "Josua 12:4",
            "text": "Dann das Gebiet des K\u00f6nigs Og zu Basan, der noch von den Rephaitern \u00fcbrig war und zu Astarot und Edrei wohnte,"
        },
        {
            "chapter": 12,
            "verse": 5,
            "name": "Josua 12:5",
            "text": "welcher herrschte \u00fcber den Berg Hermon und \u00fcber Salcha und \u00fcber ganz Basan, bis an die Grenze der Gessuriter und Maachiter, und \u00fcber das halbe Gilead, bis zum Gebiet Sihons, des K\u00f6nigs zu Hesbon."
        },
        {
            "chapter": 12,
            "verse": 6,
            "name": "Josua 12:6",
            "text": "Mose, der Knecht des HERRN, und die Kinder Israel schlugen sie. Und Mose, der Knecht des HERRN, gab sie den Rubenitern, Gaditern und dem halben Stamme Manasse zum Besitz."
        },
        {
            "chapter": 12,
            "verse": 7,
            "name": "Josua 12:7",
            "text": "Folgendes aber sind die K\u00f6nige des Landes, die Josua und die Kinder Israel schlugen diesseits des Jordan, gegen Westen, von Baal-Gad an im Tale des Libanon bis an das kahle Gebirge, welches gegen Seir aufsteigt. Und Josua gab es den St\u00e4mmen Israels zum Besitz, einem jeden seinen Teil,"
        },
        {
            "chapter": 12,
            "verse": 8,
            "name": "Josua 12:8",
            "text": "auf den Gebirgen, in den T\u00e4lern, in der Ebene, an den Abh\u00e4ngen, in den W\u00fcsten und gegen Mittag, die Hetiter, Amoriter, Kanaaniter, Pheresiter, Heviter und Jebusiter:"
        },
        {
            "chapter": 12,
            "verse": 9,
            "name": "Josua 12:9",
            "text": "Der K\u00f6nig von Jericho, der K\u00f6nig von Ai, das zur Seite von Bethel liegt,"
        },
        {
            "chapter": 12,
            "verse": 10,
            "name": "Josua 12:10",
            "text": "der K\u00f6nig von Jerusalem, der K\u00f6nig von Hebron,"
        },
        {
            "chapter": 12,
            "verse": 11,
            "name": "Josua 12:11",
            "text": "der K\u00f6nig von Jarmut, der K\u00f6nig von Lachis,"
        },
        {
            "chapter": 12,
            "verse": 12,
            "name": "Josua 12:12",
            "text": "der K\u00f6nig von Eglon, der K\u00f6nig von Geser,"
        },
        {
            "chapter": 12,
            "verse": 13,
            "name": "Josua 12:13",
            "text": "der K\u00f6nig von Debir, der K\u00f6nig von Geder,"
        },
        {
            "chapter": 12,
            "verse": 14,
            "name": "Josua 12:14",
            "text": "der K\u00f6nig von Horma, der K\u00f6nig von Arad,"
        },
        {
            "chapter": 12,
            "verse": 15,
            "name": "Josua 12:15",
            "text": "der K\u00f6nig von Libna,"
        },
        {
            "chapter": 12,
            "verse": 16,
            "name": "Josua 12:16",
            "text": "der K\u00f6nig von Adullam, der K\u00f6nig von Makkeda,"
        },
        {
            "chapter": 12,
            "verse": 17,
            "name": "Josua 12:17",
            "text": "der K\u00f6nig von Bethel, der K\u00f6nig von Tappuach, der K\u00f6nig von Hepher,"
        },
        {
            "chapter": 12,
            "verse": 18,
            "name": "Josua 12:18",
            "text": "der K\u00f6nig von Aphek, der K\u00f6nig von Lascharon,"
        },
        {
            "chapter": 12,
            "verse": 19,
            "name": "Josua 12:19",
            "text": "der K\u00f6nig von Madon,"
        },
        {
            "chapter": 12,
            "verse": 20,
            "name": "Josua 12:20",
            "text": "der K\u00f6nig von Hazor, der K\u00f6nig von Simron-Meron, der K\u00f6nig von Achsaph,"
        },
        {
            "chapter": 12,
            "verse": 21,
            "name": "Josua 12:21",
            "text": "der K\u00f6nig von Taanach, der K\u00f6nig von Megiddo,"
        },
        {
            "chapter": 12,
            "verse": 22,
            "name": "Josua 12:22",
            "text": "der K\u00f6nig von Kedesch, der K\u00f6nig von Jokneam am Karmel,"
        },
        {
            "chapter": 12,
            "verse": 23,
            "name": "Josua 12:23",
            "text": "der K\u00f6nig von Dor, auf der H\u00f6he von Dor, der K\u00f6nig der Heiden zu Gilgal, der K\u00f6nig von Tirza."
        },
        {
            "chapter": 12,
            "verse": 24,
            "name": "Josua 12:24",
            "text": "Zusammen einunddrei\u00dfig K\u00f6nige."
        }
    ]
}