{
    "translation": "Latvian Gl\u00fcck 8th edition",
    "abbreviation": "lvgluck8",
    "lang": "lv",
    "language": "Latvian",
    "direction": "LTR",
    "encoding": "UTF-8",
    "book_nr": 24,
    "book_name": "Jeremiah",
    "chapter": 38,
    "name": "Jeremiah 38",
    "verses": [
        {
            "chapter": 38,
            "verse": 1,
            "name": "Jeremiah 38:1",
            "text": "Bet Zevatija, Matana d\u0113ls, un \u0122edalija, Pasura d\u0113ls, un Jukals, Zelemijas d\u0113ls, un Pasurs, Mal\u0137ijas d\u0113ls, dzird\u0113ja tos v\u0101rdus, ko Jeremija uz visiem \u013caud\u012bm run\u0101ja sac\u012bdams: "
        },
        {
            "chapter": 38,
            "verse": 2,
            "name": "Jeremiah 38:2",
            "text": "T\u0101 saka Tas Kungs: kas \u0161ai pils\u0113t\u0101 paliek, tas mirs caur zobenu, caur badu un caur m\u0113ri, bet kas iet \u0101r\u0101 pie Kaldejiem, tas dz\u012bvos un savu dv\u0113seli patur\u0113s un dz\u012bvos. "
        },
        {
            "chapter": 38,
            "verse": 3,
            "name": "Jeremiah 38:3",
            "text": "T\u0101 saka Tas Kungs: \u0161\u012b pils\u0113ta dotin taps dota B\u0101beles \u0137\u0113ni\u0146a karasp\u0113kam rok\u0101, ka tas to uz\u0146em. "
        },
        {
            "chapter": 38,
            "verse": 4,
            "name": "Jeremiah 38:4",
            "text": "Tad tie lielkungi sac\u012bja uz \u0137\u0113ni\u0146u: liec jel \u0161o v\u012bru nokaut; jo t\u0101 vi\u0146\u0161 rokas dara gurdenas tiem karav\u012briem, kas v\u0113l atliek \u0161ai pils\u0113t\u0101, un rokas visiem \u013caud\u012bm, kad vi\u0146\u0161 t\u0101dus v\u0101rdus uz tiem run\u0101; jo \u0161is v\u012brs nemekl\u0113 \u0161o \u013cau\u017eu labumu, bet vi\u0146u \u013caunumu. "
        },
        {
            "chapter": 38,
            "verse": 5,
            "name": "Jeremiah 38:5",
            "text": "Un \u0137\u0113ni\u0146\u0161 Cede\u0137ija sac\u012bja: redzi, vi\u0146\u0161 ir j\u016bsu rok\u0101s, jo \u0137\u0113ni\u0146\u0161 pret jums nek\u0101 nesp\u0113j."
        },
        {
            "chapter": 38,
            "verse": 6,
            "name": "Jeremiah 38:6",
            "text": "Tad tie \u0146\u0113ma Jeremiju, un to iemeta Mal\u0137ijas, \u0137\u0113ni\u0146a d\u0113la, bedr\u0113, kas bija cietuma pagalm\u0101, un Jeremiju nolaida ar virv\u0113m, bet tai bedr\u0113 nebija \u016bdens, bet dub\u013ci, un Jeremija iegrima dub\u013cos. "
        },
        {
            "chapter": 38,
            "verse": 7,
            "name": "Jeremiah 38:7",
            "text": "Un Ebedmele\u0137s, Moru v\u012brs, \u0137\u0113ni\u0146a sulainis, kas bija \u0137\u0113ni\u0146a nam\u0101, dzird\u0113ja, ka tie Jeremiju bija metu\u0161i bedr\u0113, un \u0137\u0113ni\u0146\u0161 s\u0113d\u0113ja Benjamina v\u0101rtos. "
        },
        {
            "chapter": 38,
            "verse": 8,
            "name": "Jeremiah 38:8",
            "text": "Tad Ebedmele\u0137s izg\u0101ja no \u0137\u0113ni\u0146a nama un run\u0101ja uz \u0137\u0113ni\u0146u un sac\u012bja:"
        },
        {
            "chapter": 38,
            "verse": 9,
            "name": "Jeremiah 38:9",
            "text": "Mans kungs un \u0137\u0113ni\u0146, \u0161ie v\u012bri ir \u013caunu dar\u012bju\u0161i ar visu, ko tie dar\u012bju\u0161i pravietim Jeremijam, ko tie metu\u0161i bedr\u0113, un vi\u0146am sav\u0101 viet\u0101 badu j\u0101mirst, t\u0101p\u0113c ka maizes pils\u0113t\u0101 vairs nav. "
        },
        {
            "chapter": 38,
            "verse": 10,
            "name": "Jeremiah 38:10",
            "text": "Tad \u0137\u0113ni\u0146\u0161 Ebedmele\u0137am, tam Moru v\u012bram, pav\u0113l\u0113ja un sac\u012bja: \u0146em no \u0161ejienes tr\u012bsdesmit v\u012brus l\u012bdz un izvelc pravieti Jeremiju no bedres, pirms vi\u0146\u0161 mirst."
        },
        {
            "chapter": 38,
            "verse": 11,
            "name": "Jeremiah 38:11",
            "text": "Tad Ebedmele\u0137s \u0146\u0113ma tos v\u012brus un n\u0101ca \u0137\u0113ni\u0146a nam\u0101 apak\u0161 mantu kambara un \u0146\u0113ma no turienes k\u0101das vecas sapl\u012bsu\u0161as dr\u0113bju lupatas un t\u0101s nolaida ar virv\u0113m pie Jeremijas bedr\u0113."
        },
        {
            "chapter": 38,
            "verse": 12,
            "name": "Jeremiah 38:12",
            "text": "Tad tas Moru v\u012brs Ebedmele\u0137s sac\u012bja uz Jeremiju: liec jel t\u0101s vec\u0101s sapl\u012bsu\u0161\u0101s dr\u0113bju lupatas apak\u0161 sav\u0101m roku padus\u0113m ap t\u0101m virv\u0113m, un Jeremija t\u0101 dar\u012bja."
        },
        {
            "chapter": 38,
            "verse": 13,
            "name": "Jeremiah 38:13",
            "text": "Un tie Jeremiju izvilka ar t\u0101m virv\u0113m un vi\u0146u izc\u0113la no bedres, un Jeremija palika cietuma pagalm\u0101."
        },
        {
            "chapter": 38,
            "verse": 14,
            "name": "Jeremiah 38:14",
            "text": "Tad \u0137\u0113ni\u0146\u0161 Cede\u0137ija nos\u016bt\u012bja un lika atvest pravieti Jeremiju pie sevis tre\u0161aj\u0101 ieejam\u0101 viet\u0101 pie T\u0101 Kunga nama. Un \u0137\u0113ni\u0146\u0161 sac\u012bja uz Jeremiju: es tev ko vaic\u0101\u0161u, neapsl\u0113p man nek\u0101."
        },
        {
            "chapter": 38,
            "verse": 15,
            "name": "Jeremiah 38:15",
            "text": "Tad Jeremija sac\u012bja uz Cede\u0137iju: kad es tev to sac\u012b\u0161u, tad tu mani kautin nokausi, un kad es tev padomu do\u0161u, tad tu tom\u0113r mani neklaus\u012bsi. "
        },
        {
            "chapter": 38,
            "verse": 16,
            "name": "Jeremiah 38:16",
            "text": "Un \u0137\u0113ni\u0146\u0161 Cede\u0137ija Jeremijam zv\u0113r\u0113ja paslepeni un sac\u012bja: tik tie\u0161\u0101m k\u0101 Tas Kungs dz\u012bvo, kas mums \u0161o dv\u0113seli rad\u012bjis, es tevi nenokau\u0161u un tevi nenodo\u0161u \u0161iem v\u012briem rok\u0101, kas tavu dv\u0113seli mekl\u0113. "
        },
        {
            "chapter": 38,
            "verse": 17,
            "name": "Jeremiah 38:17",
            "text": "Tad Jeremija sac\u012bja uz Cede\u0137iju: t\u0101 saka Tas Kungs, tas Dievs Cebaot, Izra\u0113la Dievs: ja tu iet iziesi pie B\u0101beles \u0137\u0113ni\u0146a lielkungiem, tad tava dv\u0113sele dz\u012bvos, un \u0161\u012b pils\u0113ta netaps ar uguni sadedzin\u0101ta, un tad tu dz\u012bvosi, tu un tavs nams. "
        },
        {
            "chapter": 38,
            "verse": 18,
            "name": "Jeremiah 38:18",
            "text": "Bet ja tu neiziesi pie B\u0101beles \u0137\u0113ni\u0146a lielkungiem, tad \u0161\u012b pils\u0113ta Kaldejiem taps dota rok\u0101, un tie to sadedzin\u0101s ar uguni, un tu no vi\u0146u rokas neizspruksi."
        },
        {
            "chapter": 38,
            "verse": 19,
            "name": "Jeremiah 38:19",
            "text": "Un \u0137\u0113ni\u0146\u0161 Cede\u0137ija sac\u012bja uz Jeremiju: es b\u012bstos no tiem J\u016bdiem, kas Kaldejiem piekritu\u0161i, ka mani nenodod vi\u0146u rok\u0101, un tie mani neapm\u0113da."
        },
        {
            "chapter": 38,
            "verse": 20,
            "name": "Jeremiah 38:20",
            "text": "Un Jeremija sac\u012bja: tevi nenodos; klausi jel T\u0101 Kunga balsij, ko es uz tevi run\u0101ju, tad tev labi kl\u0101sies, un tava dv\u0113sele dz\u012bvos."
        },
        {
            "chapter": 38,
            "verse": 21,
            "name": "Jeremiah 38:21",
            "text": "Bet ja tu liedzies iet \u0101r\u0101, tad \u0161is ir tas v\u0101rds, ko Tas Kungs man par\u0101d\u012bjis: "
        },
        {
            "chapter": 38,
            "verse": 22,
            "name": "Jeremiah 38:22",
            "text": "Redzi, visas sievas, kas J\u016bda \u0137\u0113ni\u0146a nam\u0101 atliek, taps izvestas pie B\u0101beles \u0137\u0113ni\u0146a lielkungiem, un t\u0101s sac\u012bs: tavi draugi tevi piev\u012blu\u0161i un tevi p\u0101rvar\u0113ju\u0161i, un kad nu tavas k\u0101jas iegrimu\u0161as dub\u013cos, tad tie griezu\u0161ies atpaka\u013c. "
        },
        {
            "chapter": 38,
            "verse": 23,
            "name": "Jeremiah 38:23",
            "text": "Un visas tavas sievas un visi tavi b\u0113rni taps izvesti pie Kaldejiem, un tu pats neizspruksi no vi\u0146u rok\u0101m, bet tu tapsi sagr\u0101bts caur B\u0101beles \u0137\u0113ni\u0146a roku un sadedzin\u0101si \u0161o pils\u0113tu ar uguni."
        },
        {
            "chapter": 38,
            "verse": 24,
            "name": "Jeremiah 38:24",
            "text": "Tad Cede\u0137ija sac\u012bja uz Jeremiju: lai neviens nezin par \u0161iem v\u0101rdiem, ka tu nemirsti."
        },
        {
            "chapter": 38,
            "verse": 25,
            "name": "Jeremiah 38:25",
            "text": "Un kad tie lielkungi dzird\u0113s, ka es ar tevi esmu run\u0101jis, un tie n\u0101k pie tevis un uz tevi saka: saki mums jel, ko tu ar \u0137\u0113ni\u0146u esi run\u0101jis, nesl\u0113p to mums, tad m\u0113s tevi nenokausim, un ko \u0137\u0113ni\u0146\u0161 uz tevi run\u0101jis? "
        },
        {
            "chapter": 38,
            "verse": 26,
            "name": "Jeremiah 38:26",
            "text": "Tad tev uz tiem b\u016bs sac\u012bt: es pakritu l\u016bgdams \u0137\u0113ni\u0146a priek\u0161\u0101, ka tas mani neliktu vest Jonatana nam\u0101, tur mirt. "
        },
        {
            "chapter": 38,
            "verse": 27,
            "name": "Jeremiah 38:27",
            "text": "Kad nu visi lielkungi pie Jeremijas n\u0101ca un vi\u0146u vaic\u0101ja, tad vi\u0146\u0161 tiem sac\u012bja p\u0113c visiem \u0161iem v\u0101rdiem, ko \u0137\u0113ni\u0146\u0161 bija pav\u0113l\u0113jis. Un tie vi\u0146u atst\u0101ja mier\u0101, jo tie to lietu nedab\u016bja dzird\u0113t."
        },
        {
            "chapter": 38,
            "verse": 28,
            "name": "Jeremiah 38:28",
            "text": "Un Jeremija palika cietuma pagalm\u0101 l\u012bdz tai dienai, kad Jeruz\u0101leme tapa uz\u0146emta.  "
        }
    ]
}