{
    "translation": "New Heart English Bible: Jehovah Edition",
    "abbreviation": "nhebje",
    "lang": "en",
    "language": "English",
    "direction": "LTR",
    "encoding": "UTF-8",
    "book_nr": 40,
    "book_name": "Matthew",
    "chapter": 16,
    "name": "Matthew 16",
    "verses": [
        {
            "chapter": 16,
            "verse": 1,
            "name": "Matthew 16:1",
            "text": "The Pharisees and Sadducees came, and testing him, asked him to show them a sign from heaven."
        },
        {
            "chapter": 16,
            "verse": 2,
            "name": "Matthew 16:2",
            "text": "But he answered them, \"When it is evening, you say, 'It will be fair weather, for the sky is red.'"
        },
        {
            "chapter": 16,
            "verse": 3,
            "name": "Matthew 16:3",
            "text": "In the morning, 'It will be foul weather today, for the sky is red and threatening.' Hypocrites! You know how to discern the appearance of the sky, but you cannot discern the signs of the times!"
        },
        {
            "chapter": 16,
            "verse": 4,
            "name": "Matthew 16:4",
            "text": "An evil and adulterous generation seeks after a sign, and there will be no sign given to it, except the sign of Jonah.\" He left them, and departed."
        },
        {
            "chapter": 16,
            "verse": 5,
            "name": "Matthew 16:5",
            "text": "The disciples came to the other side and had forgotten to take bread."
        },
        {
            "chapter": 16,
            "verse": 6,
            "name": "Matthew 16:6",
            "text": "Jesus said to them, \"Take heed and beware of the yeast of the Pharisees and Sadducees.\" "
        },
        {
            "chapter": 16,
            "verse": 7,
            "name": "Matthew 16:7",
            "text": "They reasoned among themselves, saying, \"We brought no bread.\" "
        },
        {
            "chapter": 16,
            "verse": 8,
            "name": "Matthew 16:8",
            "text": "Jesus, perceiving it, said, \"Why do you reason among yourselves, you of little faith, because you have no bread?"
        },
        {
            "chapter": 16,
            "verse": 9,
            "name": "Matthew 16:9",
            "text": "Do you not yet perceive, neither remember the five loaves for the five thousand, and how many baskets you took up?"
        },
        {
            "chapter": 16,
            "verse": 10,
            "name": "Matthew 16:10",
            "text": "Nor the seven loaves for the four thousand, and how many baskets you took up?"
        },
        {
            "chapter": 16,
            "verse": 11,
            "name": "Matthew 16:11",
            "text": "How is it that you do not perceive that I did not speak to you concerning bread? But beware of the yeast of the Pharisees and Sadducees.\" "
        },
        {
            "chapter": 16,
            "verse": 12,
            "name": "Matthew 16:12",
            "text": "Then they understood that he did not tell them to beware of the yeast of bread, but of the teaching of the Pharisees and Sadducees."
        },
        {
            "chapter": 16,
            "verse": 13,
            "name": "Matthew 16:13",
            "text": "Now when Jesus came into the parts of Caesarea Philippi, he asked his disciples, saying, \"Who do men say that the Son of Man is?\" "
        },
        {
            "chapter": 16,
            "verse": 14,
            "name": "Matthew 16:14",
            "text": "They said, \"Some say John the Baptist, some, Elijah, and others, Jeremiah, or one of the prophets.\" "
        },
        {
            "chapter": 16,
            "verse": 15,
            "name": "Matthew 16:15",
            "text": "He said to them, \"But who do you say that I am?\" "
        },
        {
            "chapter": 16,
            "verse": 16,
            "name": "Matthew 16:16",
            "text": "Simon Peter answered, \"You are the Messiah, the Son of the living God.\" "
        },
        {
            "chapter": 16,
            "verse": 17,
            "name": "Matthew 16:17",
            "text": "Jesus answered him, \"Blessed are you, Simon Bar Jonah, for flesh and blood has not revealed this to you, but my Father who is in heaven."
        },
        {
            "chapter": 16,
            "verse": 18,
            "name": "Matthew 16:18",
            "text": "I also tell you that you are Peter, and on this rock I will build my church, and the gates of hell will not prevail against it."
        },
        {
            "chapter": 16,
            "verse": 19,
            "name": "Matthew 16:19",
            "text": "I will give to you the keys of the Kingdom of Heaven, and whatever you bind on earth will have been bound in heaven; and whatever you release on earth will have been released in heaven.\""
        },
        {
            "chapter": 16,
            "verse": 20,
            "name": "Matthew 16:20",
            "text": "Then he commanded the disciples that they should tell no one that he is the Messiah."
        },
        {
            "chapter": 16,
            "verse": 21,
            "name": "Matthew 16:21",
            "text": "From that time, Jesus began to show his disciples that he must go to Jerusalem and suffer many things from the elders, chief priests, and scribes, and be killed, and the third day be raised up. "
        },
        {
            "chapter": 16,
            "verse": 22,
            "name": "Matthew 16:22",
            "text": "Peter took him aside, and began to rebuke him, saying, \"Far be it from you, Lord! This will never be done to you.\" "
        },
        {
            "chapter": 16,
            "verse": 23,
            "name": "Matthew 16:23",
            "text": "But he turned, and said to Peter, \"Get behind me, Satan! You are a stumbling block to me, for you are not setting your mind on the things of God, but on the things of men.\""
        },
        {
            "chapter": 16,
            "verse": 24,
            "name": "Matthew 16:24",
            "text": "Then Jesus said to his disciples, \"If anyone desires to come after me, let him deny himself, and take up his cross, and follow me."
        },
        {
            "chapter": 16,
            "verse": 25,
            "name": "Matthew 16:25",
            "text": "For whoever desires to save his life will lose it, and whoever will lose his life for my sake will find it."
        },
        {
            "chapter": 16,
            "verse": 26,
            "name": "Matthew 16:26",
            "text": "For what will it profit a man, if he gains the whole world, and forfeits his life? Or what will a man give in exchange for his life?"
        },
        {
            "chapter": 16,
            "verse": 27,
            "name": "Matthew 16:27",
            "text": "For the Son of Man will come in the glory of his Father with his angels, and then he will render to everyone according to his deeds."
        },
        {
            "chapter": 16,
            "verse": 28,
            "name": "Matthew 16:28",
            "text": "Truly I tell you, there are some standing here who will in no way taste of death, until they see the Son of Man coming in his Kingdom.\"  "
        }
    ]
}