{
    "translation": "Czech \u010cesk\u00fd studijn\u00ed p\u0159eklad",
    "abbreviation": "czecsp",
    "lang": "cs",
    "language": "Czech",
    "direction": "LTR",
    "encoding": "UTF-8",
    "book_nr": 14,
    "book_name": "2 Chronicles",
    "chapter": 10,
    "name": "2 Chronicles 10",
    "verses": [
        {
            "chapter": 10,
            "verse": 1,
            "name": "2 Chronicles 10:1",
            "text": "Rechabe\u00e1m \u0161el do \u0160ekemu, nebo\u0165 do \u0160ekemu p\u0159i\u0161el cel\u00fd Izrael, aby ho ustanovili kr\u00e1lem."
        },
        {
            "chapter": 10,
            "verse": 2,
            "name": "2 Chronicles 10:2",
            "text": "Kdy\u017e se to Jarobe\u00e1m, syn Nebat\u016fv, doslechl, byl je\u0161t\u011b v\u00a0Egypt\u011b, kam utekl p\u0159ed kr\u00e1lem \u0160alomounem. Jarobe\u00e1m se vr\u00e1til z\u00a0Egypta."
        },
        {
            "chapter": 10,
            "verse": 3,
            "name": "2 Chronicles 10:3",
            "text": "Poslali pro n\u011bj a\u00a0zavolali ho. Jarobe\u00e1m p\u0159i\u0161el s\u00a0cel\u00fdm Izraelem a\u00a0promluvili k\u00a0Rechabe\u00e1movi:"
        },
        {
            "chapter": 10,
            "verse": 4,
            "name": "2 Chronicles 10:4",
            "text": "Tv\u016fj otec u\u010dinil na\u0161e jho t\u011b\u017ek\u00fdm. Ty nyn\u00ed uleh\u010di tvrdou otro\u010dinu sv\u00e9ho otce a\u00a0jeho t\u011b\u017ek\u00e9 jho, kter\u00e9 na n\u00e1s vlo\u017eil, a\u00a0budeme ti slou\u017eit."
        },
        {
            "chapter": 10,
            "verse": 5,
            "name": "2 Chronicles 10:5",
            "text": "\u0158ekl jim: Po t\u0159ech dnech se ke mn\u011b vra\u0165te. Nato lid ode\u0161el."
        },
        {
            "chapter": 10,
            "verse": 6,
            "name": "2 Chronicles 10:6",
            "text": "Kr\u00e1l Rechabe\u00e1m se radil se star\u0161\u00edmi, kte\u0159\u00ed slou\u017eili jeho otci \u0160alomounovi, dokud byl \u017eiv: Co rad\u00edte odpov\u011bd\u011bt tomuto lidu?"
        },
        {
            "chapter": 10,
            "verse": 7,
            "name": "2 Chronicles 10:7",
            "text": "\u0158ekli mu: Jestli\u017ee bude\u0161 k\u00a0tomuto lidu laskav\u00fd, laskav\u011b je p\u0159ijme\u0161 a\u00a0promluv\u00ed\u0161 k\u00a0nim laskav\u00e1 slova, budou po celou dobu tv\u00fdmi otroky."
        },
        {
            "chapter": 10,
            "verse": 8,
            "name": "2 Chronicles 10:8",
            "text": "Nedbal na radu, kterou mu dali starci, a\u00a0radil se s\u00a0mlad\u00edky, kte\u0159\u00ed vyr\u016fstali s\u00a0n\u00edm a\u00a0slou\u017eili mu."
        },
        {
            "chapter": 10,
            "verse": 9,
            "name": "2 Chronicles 10:9",
            "text": "Zeptal se jich: Co vy rad\u00edte, abychom odpov\u011bd\u011bli tomuto lidu, kter\u00fd mi \u0159ekl: Uleh\u010di jho, kter\u00e9 na n\u00e1s vlo\u017eil tv\u016fj otec?"
        },
        {
            "chapter": 10,
            "verse": 10,
            "name": "2 Chronicles 10:10",
            "text": "Mlad\u00edci, kte\u0159\u00ed s\u00a0n\u00edm vyr\u016fstali, mu odpov\u011bd\u011bli: Toto pov\u011bz lidu, kter\u00fd ti \u0159ekl: Tv\u016fj otec u\u010dinil na\u0161e jho t\u011b\u017ek\u00fdm, ty n\u00e1m uleh\u010di, takto k\u00a0nim promluv: M\u016fj mal\u00edk je tlust\u0161\u00ed ne\u017eli bedra m\u00e9ho otce."
        },
        {
            "chapter": 10,
            "verse": 11,
            "name": "2 Chronicles 10:11",
            "text": "Nu\u017ee, m\u016fj otec na v\u00e1s nalo\u017eil t\u011b\u017ek\u00e9 jho a\u00a0j\u00e1 k\u00a0va\u0161emu jhu p\u0159id\u00e1m. M\u016fj otec v\u00e1s k\u00e1znil bi\u010di, j\u00e1 v\u00e1s budu k\u00e1znit d\u016ftkami."
        },
        {
            "chapter": 10,
            "verse": 12,
            "name": "2 Chronicles 10:12",
            "text": "Jarobe\u00e1m a\u00a0v\u0161echen lid p\u0159i\u0161el k\u00a0Rechabe\u00e1movi t\u0159et\u00edho dne, tak jak kr\u00e1l \u0159ekl: T\u0159et\u00edho dne se ke mn\u011b vra\u0165te."
        },
        {
            "chapter": 10,
            "verse": 13,
            "name": "2 Chronicles 10:13",
            "text": "Kr\u00e1l odpov\u011bd\u011bl tvrd\u011b. Tak kr\u00e1l Rechabe\u00e1m nedbal na radu star\u0161\u00edch."
        },
        {
            "chapter": 10,
            "verse": 14,
            "name": "2 Chronicles 10:14",
            "text": "Promluvil k\u00a0nim podle rady mlad\u00edk\u016f: \u2308M\u016fj otec u\u010dinil\u2309 va\u0161e jho t\u011b\u017ek\u00fdm a\u00a0j\u00e1 k\u00a0n\u011bmu p\u0159id\u00e1m. M\u016fj otec v\u00e1s k\u00e1znil bi\u010di, j\u00e1 v\u00e1s budu k\u00e1znit d\u016ftkami."
        },
        {
            "chapter": 10,
            "verse": 15,
            "name": "2 Chronicles 10:15",
            "text": "Kr\u00e1l nevysly\u0161el lid, nebo\u0165 nastal zvrat od Boha, aby Hospodin naplnil sv\u00e9 slovo, kter\u00e9 promluvil prost\u0159ednictv\u00edm Achij\u00e1\u0161e \u0160\u00edlosk\u00e9ho k\u00a0Jarobe\u00e1movi, synu Nebatovu."
        },
        {
            "chapter": 10,
            "verse": 16,
            "name": "2 Chronicles 10:16",
            "text": "Kdy\u017e cel\u00fd Izrael vid\u011bl, \u017ee je kr\u00e1l nevysly\u0161el, odpov\u011bd\u011bl lid kr\u00e1li: Jak\u00fd m\u00e1me pod\u00edl v\u00a0Davidovi? Nem\u00e1me d\u011bdictv\u00ed v\u00a0synu Ji\u0161ajovu! Ka\u017ed\u00fd ke sv\u00fdm stan\u016fm, Izraeli! Nyn\u00ed hle\u010f na sv\u016fj d\u016fm, Davide! A\u00a0cel\u00fd Izrael \u0161el ke sv\u00fdm stan\u016fm."
        },
        {
            "chapter": 10,
            "verse": 17,
            "name": "2 Chronicles 10:17",
            "text": "Nad syny Izraele, kte\u0159\u00ed s\u00eddlili v\u00a0judsk\u00fdch m\u011bstech, nad t\u011bmi v\u0161ak kraloval Rechabe\u00e1m."
        },
        {
            "chapter": 10,
            "verse": 18,
            "name": "2 Chronicles 10:18",
            "text": "Kr\u00e1l Rechabe\u00e1m poslal Hador\u00e1ma, kter\u00fd byl nad nucen\u00fdmi pracemi, ale synov\u00e9 Izraele na n\u011bj h\u00e1zeli kamen\u00ed, tak\u017ee zem\u0159el. Kr\u00e1l Rechabe\u00e1m honem vystoupil na v\u016fz a\u00a0utekl do Jeruzal\u00e9ma."
        },
        {
            "chapter": 10,
            "verse": 19,
            "name": "2 Chronicles 10:19",
            "text": "Tak se Izrael vzbou\u0159il proti domu Davidovu, jak je tomu dodnes. "
        }
    ]
}