{
    "translation": "Vulgata Clementina, Conte editore",
    "abbreviation": "vulgconte",
    "lang": "la",
    "language": "Latin",
    "direction": "LTR",
    "encoding": "UTF-8",
    "book_nr": 26,
    "book_name": "Ezekiel",
    "chapter": 29,
    "name": "Ezekiel 29",
    "verses": [
        {
            "chapter": 29,
            "verse": 1,
            "name": "Ezekiel 29:1",
            "text": "In anno decimo, decimo mense, undecima die mensis, factum est verbum Domini ad me, dicens:"
        },
        {
            "chapter": 29,
            "verse": 2,
            "name": "Ezekiel 29:2",
            "text": "Fili hominis pone faciem tuam contra Pharaonem regem \u00c6gypti, et prophetabis de eo, et de \u00c6gypto universa:"
        },
        {
            "chapter": 29,
            "verse": 3,
            "name": "Ezekiel 29:3",
            "text": "Loquere, et dices: H\u00e6c dicit Dominus Deus: Ecce ego ad te Pharao rex \u00c6gypti, draco magne, qui cubas in medio fluminum tuorum, et dicis: Meus est fluvius, et ego feci memetipsum."
        },
        {
            "chapter": 29,
            "verse": 4,
            "name": "Ezekiel 29:4",
            "text": "Et ponam frenum in maxillis tuis: et agglutinabo pisces fluminum tuorum squamis tuis: et extraham te de medio fluminum tuorum, et universi pisces tui squamis tuis adh\u00e6rebunt."
        },
        {
            "chapter": 29,
            "verse": 5,
            "name": "Ezekiel 29:5",
            "text": "Et proiiciam te in desertum, et omnes pisces fluminis tui: super faciem terr\u00e6 cades, non colligeris, neque congregaberis: bestiis terr\u00e6, et volatilibus c\u00e6li dedi te ad devorandum."
        },
        {
            "chapter": 29,
            "verse": 6,
            "name": "Ezekiel 29:6",
            "text": "Et scient omnes habitatores \u00c6gypti quia ego Dominus: pro eo quod fuisti baculus arundineus domui Israel."
        },
        {
            "chapter": 29,
            "verse": 7,
            "name": "Ezekiel 29:7",
            "text": "Quando apprehenderunt te manu, et confractus es, et lacerasti omnem humerum eorum: et innitentibus eis super te, comminutus es, et dissolvisti omnes renes eorum."
        },
        {
            "chapter": 29,
            "verse": 8,
            "name": "Ezekiel 29:8",
            "text": "Propterea h\u00e6c dicit Dominus Deus: Ecce ego adducam super te gladium: et interficiam de te hominem, et iumentum."
        },
        {
            "chapter": 29,
            "verse": 9,
            "name": "Ezekiel 29:9",
            "text": "Et erit Terra \u00c6gypti in desertum, et in solitudinem: et scient quia ego Dominus: pro eo quod dixeris: Fluvius meus est, et ego feci eum."
        },
        {
            "chapter": 29,
            "verse": 10,
            "name": "Ezekiel 29:10",
            "text": "Idcirco ecce ego ad te, et ad flumina tua: daboque Terram \u00c6gypti in solitudines, gladio dissipatam, a turre Syenes, usque ad terminos \u00c6thiopi\u00e6."
        },
        {
            "chapter": 29,
            "verse": 11,
            "name": "Ezekiel 29:11",
            "text": "Non pertransibit eam pes hominis, neque pes iumenti gradietur in ea: et non habitabitur quadraginta annis."
        },
        {
            "chapter": 29,
            "verse": 12,
            "name": "Ezekiel 29:12",
            "text": "Daboque Terram \u00c6gypti desertam in medio terrarum desertarum, et civitates eius in medio urbium subversarum, et erunt desolat\u00e6 quadraginta annis: et dispergam \u00c6gyptios in nationes, et ventilabo eos in terras."
        },
        {
            "chapter": 29,
            "verse": 13,
            "name": "Ezekiel 29:13",
            "text": "Quia h\u00e6c dicit Dominus Deus: Post finem quadraginta annorum congregabo \u00c6gyptum de populis, in quibus dispersi fuerant."
        },
        {
            "chapter": 29,
            "verse": 14,
            "name": "Ezekiel 29:14",
            "text": "Et reducam captivitatem \u00c6gypti, et collocabo eos in terra Phathures, in terra nativitatis su\u00e6: et erunt ibi in regnum humile:"
        },
        {
            "chapter": 29,
            "verse": 15,
            "name": "Ezekiel 29:15",
            "text": "inter cetera regna erit humillima, et non elevabitur ultra super nationes, et imminuam eos ne imperent Gentibus."
        },
        {
            "chapter": 29,
            "verse": 16,
            "name": "Ezekiel 29:16",
            "text": "Neque erunt ultra domui Israel in confidentia, docentes iniquitatem, ut fugiant, et sequantur eos: et scient quia ego Dominus Deus."
        },
        {
            "chapter": 29,
            "verse": 17,
            "name": "Ezekiel 29:17",
            "text": "Et factum est in vigesimo et septimo anno, in primo, in una mensis: factum est verbum Domini ad me, dicens:"
        },
        {
            "chapter": 29,
            "verse": 18,
            "name": "Ezekiel 29:18",
            "text": "Fili hominis Nabuchodonosor rex Babylonis servire fecit exercitum suum servitute magna adversum Tyrum: omne caput decalvatum, et omnis humerus depilatus est: et merces non est reddita ei, neque exercitui eius de Tyro pro servitute, qua servivit mihi adversus eam."
        },
        {
            "chapter": 29,
            "verse": 19,
            "name": "Ezekiel 29:19",
            "text": "Propterea h\u00e6c dicit Dominus Deus: Ecce ego dabo Nabuchodonosor regem Babylonis in Terra \u00c6gypti: et accipiet multitudinem eius, et depr\u00e6dabitur manubias eius, et diripiet spolia eius: et erit merces exercitui illius,"
        },
        {
            "chapter": 29,
            "verse": 20,
            "name": "Ezekiel 29:20",
            "text": "et operi, quo servivit adversus eam: dedi ei Terram \u00c6gypti, pro eo quod laboraverit mihi, ait Dominus Deus."
        },
        {
            "chapter": 29,
            "verse": 21,
            "name": "Ezekiel 29:21",
            "text": "In die illo pullulabit cornu domui Israel, et tibi dabo apertum os in medio eorum: et scient quia ego Dominus. "
        }
    ]
}