{
    "translation": "GOD'S WORD to the Nations",
    "abbreviation": "godsword",
    "lang": "en",
    "language": "English",
    "direction": "LTR",
    "encoding": "UTF-8",
    "book_nr": 9,
    "book_name": "1 Samuel",
    "chapter": 8,
    "name": "1 Samuel 8",
    "verses": [
        {
            "chapter": 8,
            "verse": 1,
            "name": "1 Samuel 8:1",
            "text": "When Samuel was old, he made his sons judges over Israel. "
        },
        {
            "chapter": 8,
            "verse": 2,
            "name": "1 Samuel 8:2",
            "text": "The name of his firstborn son was Joel; the name of his second son was Abijah. They were judges in Beersheba. "
        },
        {
            "chapter": 8,
            "verse": 3,
            "name": "1 Samuel 8:3",
            "text": "The sons didn't follow their father's example but turned to dishonest ways of making money. They took bribes and denied people justice.   "
        },
        {
            "chapter": 8,
            "verse": 4,
            "name": "1 Samuel 8:4",
            "text": "Then all the leaders of Israel gathered together and came to Samuel at Ramah. "
        },
        {
            "chapter": 8,
            "verse": 5,
            "name": "1 Samuel 8:5",
            "text": "They told him, \"You're old, and your sons aren't following your example. Now appoint a king to judge us so that we will be like all the other nations.\" "
        },
        {
            "chapter": 8,
            "verse": 6,
            "name": "1 Samuel 8:6",
            "text": "But Samuel considered it wrong for them to request a king to judge them. So Samuel prayed to the LORD. "
        },
        {
            "chapter": 8,
            "verse": 7,
            "name": "1 Samuel 8:7",
            "text": "The LORD told Samuel, \"Listen to everything the people are saying to you. They haven't rejected you; they've rejected me. "
        },
        {
            "chapter": 8,
            "verse": 8,
            "name": "1 Samuel 8:8",
            "text": "They're doing just what they've done since I took them out of Egypt--leaving me and serving other gods. "
        },
        {
            "chapter": 8,
            "verse": 9,
            "name": "1 Samuel 8:9",
            "text": "Listen to them now, but be sure to warn them and tell them about the rights of a king.\" "
        },
        {
            "chapter": 8,
            "verse": 10,
            "name": "1 Samuel 8:10",
            "text": "Then Samuel told the people who had asked him for a king everything the LORD had said. "
        },
        {
            "chapter": 8,
            "verse": 11,
            "name": "1 Samuel 8:11",
            "text": "Samuel said, \"These are the rights of a king: He will draft your sons, make them serve on his chariots and horses, and make them run ahead of his chariots. "
        },
        {
            "chapter": 8,
            "verse": 12,
            "name": "1 Samuel 8:12",
            "text": "He will appoint them to be his officers over 1,000 or over 50 soldiers, to plow his ground and harvest his crops, and to make weapons and equipment for his chariots. "
        },
        {
            "chapter": 8,
            "verse": 13,
            "name": "1 Samuel 8:13",
            "text": "He will take your daughters and have them make perfumes, cook, and bake. "
        },
        {
            "chapter": 8,
            "verse": 14,
            "name": "1 Samuel 8:14",
            "text": "He will take the best of your fields, vineyards, and olive orchards and give them to his officials. "
        },
        {
            "chapter": 8,
            "verse": 15,
            "name": "1 Samuel 8:15",
            "text": "He will take a tenth of your grain and wine and give it to his aids and officials. "
        },
        {
            "chapter": 8,
            "verse": 16,
            "name": "1 Samuel 8:16",
            "text": "He will take your male and female slaves, your best cattle, and your donkeys for his own use. "
        },
        {
            "chapter": 8,
            "verse": 17,
            "name": "1 Samuel 8:17",
            "text": "He will take a tenth of your flocks. In addition, you will be his servants. "
        },
        {
            "chapter": 8,
            "verse": 18,
            "name": "1 Samuel 8:18",
            "text": "\"When that day comes, you will cry out because of the king whom you have chosen for yourselves. The LORD will not answer you when that day comes.\" "
        },
        {
            "chapter": 8,
            "verse": 19,
            "name": "1 Samuel 8:19",
            "text": "But the people refused to listen to Samuel. They said, \"No, we want a king! "
        },
        {
            "chapter": 8,
            "verse": 20,
            "name": "1 Samuel 8:20",
            "text": "Then we, too, will be like all the other nations. Our king will judge us, lead us out to war, and fight our battles.\" "
        },
        {
            "chapter": 8,
            "verse": 21,
            "name": "1 Samuel 8:21",
            "text": "When Samuel heard everything the people had to say, he reported it privately to the LORD. "
        },
        {
            "chapter": 8,
            "verse": 22,
            "name": "1 Samuel 8:22",
            "text": "The LORD told him, \"Listen to them, and give them a king.\" Then Samuel told the people of Israel, \"Go back to your own cities.\"  "
        }
    ]
}