{
    "translation": "Open English Bible (US Spelling)",
    "abbreviation": "oeb",
    "lang": "en",
    "language": "English",
    "direction": "LTR",
    "encoding": "UTF-8",
    "book_nr": 20,
    "book_name": "Proverbs",
    "chapter": 5,
    "name": "Proverbs 5",
    "verses": [
        {
            "chapter": 5,
            "verse": 1,
            "name": "Proverbs 5:1",
            "text": ""
        },
        {
            "chapter": 5,
            "verse": 2,
            "name": "Proverbs 5:2",
            "text": ""
        },
        {
            "chapter": 5,
            "verse": 3,
            "name": "Proverbs 5:3",
            "text": ""
        },
        {
            "chapter": 5,
            "verse": 4,
            "name": "Proverbs 5:4",
            "text": ""
        },
        {
            "chapter": 5,
            "verse": 5,
            "name": "Proverbs 5:5",
            "text": ""
        },
        {
            "chapter": 5,
            "verse": 6,
            "name": "Proverbs 5:6",
            "text": ""
        },
        {
            "chapter": 5,
            "verse": 7,
            "name": "Proverbs 5:7",
            "text": ""
        },
        {
            "chapter": 5,
            "verse": 8,
            "name": "Proverbs 5:8",
            "text": ""
        },
        {
            "chapter": 5,
            "verse": 9,
            "name": "Proverbs 5:9",
            "text": ""
        },
        {
            "chapter": 5,
            "verse": 10,
            "name": "Proverbs 5:10",
            "text": ""
        },
        {
            "chapter": 5,
            "verse": 11,
            "name": "Proverbs 5:11",
            "text": ""
        },
        {
            "chapter": 5,
            "verse": 12,
            "name": "Proverbs 5:12",
            "text": ""
        },
        {
            "chapter": 5,
            "verse": 13,
            "name": "Proverbs 5:13",
            "text": ""
        },
        {
            "chapter": 5,
            "verse": 14,
            "name": "Proverbs 5:14",
            "text": ""
        },
        {
            "chapter": 5,
            "verse": 15,
            "name": "Proverbs 5:15",
            "text": ""
        },
        {
            "chapter": 5,
            "verse": 16,
            "name": "Proverbs 5:16",
            "text": ""
        },
        {
            "chapter": 5,
            "verse": 17,
            "name": "Proverbs 5:17",
            "text": ""
        },
        {
            "chapter": 5,
            "verse": 18,
            "name": "Proverbs 5:18",
            "text": ""
        },
        {
            "chapter": 5,
            "verse": 19,
            "name": "Proverbs 5:19",
            "text": ""
        },
        {
            "chapter": 5,
            "verse": 20,
            "name": "Proverbs 5:20",
            "text": ""
        },
        {
            "chapter": 5,
            "verse": 21,
            "name": "Proverbs 5:21",
            "text": ""
        },
        {
            "chapter": 5,
            "verse": 22,
            "name": "Proverbs 5:22",
            "text": ""
        },
        {
            "chapter": 5,
            "verse": 23,
            "name": "Proverbs 5:23",
            "text": ""
        }
    ]
}