{
    "translation": "Turkish",
    "abbreviation": "turkish",
    "lang": "tr",
    "language": "Turkish",
    "direction": "LTR",
    "encoding": "UTF-8",
    "book_nr": 4,
    "book_name": "Numbers",
    "chapter": 33,
    "name": "Numbers 33",
    "verses": [
        {
            "chapter": 33,
            "verse": 1,
            "name": "Numbers 33:1",
            "text": "  Musa\u2019yla Harun \u00f6nderli\u011finde birlikler halinde M\u0131s\u0131r\u2019dan \u00e7\u0131kan \u0130srailliler s\u0131ras\u0131yla a\u015fa\u011f\u0131daki yolculuklar\u0131 yapt\u0131lar."
        },
        {
            "chapter": 33,
            "verse": 2,
            "name": "Numbers 33:2",
            "text": "Musa RAB\u2019bin buyru\u011fu uyar\u0131nca s\u0131ras\u0131yla yap\u0131lan yolculuklar\u0131 kayda ge\u00e7irdi. Yap\u0131lan yolculuklar \u015funlard\u0131r: "
        },
        {
            "chapter": 33,
            "verse": 3,
            "name": "Numbers 33:3",
            "text": "\u0130srailliler F\u0131s\u0131h kurban\u0131n\u0131n ertesi g\u00fcn\u00fc \u2013birinci ay\u0131n on be\u015finci g\u00fcn\u00fc\u2013 M\u0131s\u0131rl\u0131lar\u2019\u0131n g\u00f6z\u00fc \u00f6n\u00fcnde zafer havas\u0131 i\u00e7inde Ramses\u2019ten yola \u00e7\u0131kt\u0131lar."
        },
        {
            "chapter": 33,
            "verse": 4,
            "name": "Numbers 33:4",
            "text": "O s\u0131rada M\u0131s\u0131rl\u0131lar RAB\u2019bin yok etti\u011fi ilk do\u011fan \u00e7ocuklar\u0131n\u0131 g\u00f6m\u00fcyorlard\u0131; RAB onlar\u0131n ilahlar\u0131n\u0131 yarg\u0131lam\u0131\u015ft\u0131. "
        },
        {
            "chapter": 33,
            "verse": 5,
            "name": "Numbers 33:5",
            "text": "\u0130srailliler Ramses\u2019ten yola \u00e7\u0131k\u0131p Sukkot\u2019ta konaklad\u0131lar. "
        },
        {
            "chapter": 33,
            "verse": 6,
            "name": "Numbers 33:6",
            "text": "Sukkot\u2019tan ayr\u0131l\u0131p \u00e7\u00f6l kenar\u0131ndaki Etam\u2019da konaklad\u0131lar. "
        },
        {
            "chapter": 33,
            "verse": 7,
            "name": "Numbers 33:7",
            "text": "Etam\u2019dan ayr\u0131l\u0131p Baal-Sefon\u2019un do\u011fusundaki Pi-Hahirot\u2019a d\u00f6nd\u00fcler, Migdol yak\u0131nlar\u0131nda konaklad\u0131lar. "
        },
        {
            "chapter": 33,
            "verse": 8,
            "name": "Numbers 33:8",
            "text": "Pi-Hahirot\u2019tan ayr\u0131l\u0131p denizden \u00e7\u00f6le ge\u00e7tiler. Etam \u00c7\u00f6l\u00fc\u2019nde \u00fc\u00e7 g\u00fcn y\u00fcr\u00fcd\u00fckten sonra Mara\u2019da konaklad\u0131lar. "
        },
        {
            "chapter": 33,
            "verse": 9,
            "name": "Numbers 33:9",
            "text": " Mara\u2019dan ayr\u0131l\u0131p on iki su kayna\u011f\u0131 ve yetmi\u015f hurma a\u011fac\u0131 olan Elim\u2019e giderek orada konaklad\u0131lar. "
        },
        {
            "chapter": 33,
            "verse": 10,
            "name": "Numbers 33:10",
            "text": "Elim\u2019den ayr\u0131l\u0131p Kam\u0131\u015f Denizi k\u0131y\u0131s\u0131nda konaklad\u0131lar. "
        },
        {
            "chapter": 33,
            "verse": 11,
            "name": "Numbers 33:11",
            "text": "Kam\u0131\u015f Denizi\u2019nden ayr\u0131l\u0131p Sin \u00c7\u00f6l\u00fc\u2019nde konaklad\u0131lar. "
        },
        {
            "chapter": 33,
            "verse": 12,
            "name": "Numbers 33:12",
            "text": "Sin \u00c7\u00f6l\u00fc\u2019nden ayr\u0131l\u0131p Dofka\u2019da konaklad\u0131lar. "
        },
        {
            "chapter": 33,
            "verse": 13,
            "name": "Numbers 33:13",
            "text": "Dofka\u2019dan ayr\u0131l\u0131p Alu\u015f\u2019ta konaklad\u0131lar. "
        },
        {
            "chapter": 33,
            "verse": 14,
            "name": "Numbers 33:14",
            "text": "Alu\u015f\u2019tan ayr\u0131l\u0131p Refidim\u2019de konaklad\u0131lar. Orada halk i\u00e7in i\u00e7ecek su yoktu. "
        },
        {
            "chapter": 33,
            "verse": 15,
            "name": "Numbers 33:15",
            "text": "Refidim\u2019den ayr\u0131l\u0131p Sina \u00c7\u00f6l\u00fc\u2019nde konaklad\u0131lar. "
        },
        {
            "chapter": 33,
            "verse": 16,
            "name": "Numbers 33:16",
            "text": "Sina \u00c7\u00f6l\u00fc\u2019nden ayr\u0131l\u0131p Kivrot-Hattaava\u2019da konaklad\u0131lar. "
        },
        {
            "chapter": 33,
            "verse": 17,
            "name": "Numbers 33:17",
            "text": "Kivrot-Hattaava\u2019dan ayr\u0131l\u0131p Haserot\u2019ta konaklad\u0131lar. "
        },
        {
            "chapter": 33,
            "verse": 18,
            "name": "Numbers 33:18",
            "text": "Haserot\u2019tan ayr\u0131l\u0131p Ritma\u2019da konaklad\u0131lar. "
        },
        {
            "chapter": 33,
            "verse": 19,
            "name": "Numbers 33:19",
            "text": "Ritma\u2019dan ayr\u0131l\u0131p Rimmon-Peres\u2019te konaklad\u0131lar. "
        },
        {
            "chapter": 33,
            "verse": 20,
            "name": "Numbers 33:20",
            "text": "Rimmon-Peres\u2019ten ayr\u0131l\u0131p Livna\u2019da konaklad\u0131lar. "
        },
        {
            "chapter": 33,
            "verse": 21,
            "name": "Numbers 33:21",
            "text": "Livna\u2019dan ayr\u0131l\u0131p Rissa\u2019da konaklad\u0131lar. "
        },
        {
            "chapter": 33,
            "verse": 22,
            "name": "Numbers 33:22",
            "text": "Rissa\u2019dan ayr\u0131l\u0131p Kehelata\u2019da konaklad\u0131lar. "
        },
        {
            "chapter": 33,
            "verse": 23,
            "name": "Numbers 33:23",
            "text": "Kehelata\u2019dan ayr\u0131l\u0131p \u015eefer Da\u011f\u0131\u2019nda konaklad\u0131lar. "
        },
        {
            "chapter": 33,
            "verse": 24,
            "name": "Numbers 33:24",
            "text": "\u015eefer Da\u011f\u0131\u2019ndan ayr\u0131l\u0131p Harada\u2019da konaklad\u0131lar. "
        },
        {
            "chapter": 33,
            "verse": 25,
            "name": "Numbers 33:25",
            "text": "Harada\u2019dan ayr\u0131l\u0131p Makhelot\u2019ta konaklad\u0131lar. "
        },
        {
            "chapter": 33,
            "verse": 26,
            "name": "Numbers 33:26",
            "text": "Makhelot\u2019tan ayr\u0131l\u0131p Tahat\u2019ta konaklad\u0131lar. "
        },
        {
            "chapter": 33,
            "verse": 27,
            "name": "Numbers 33:27",
            "text": "Tahat\u2019tan ayr\u0131l\u0131p Terah\u2019ta konaklad\u0131lar. "
        },
        {
            "chapter": 33,
            "verse": 28,
            "name": "Numbers 33:28",
            "text": "Terah\u2019tan ayr\u0131l\u0131p Mitka\u2019da konaklad\u0131lar. "
        },
        {
            "chapter": 33,
            "verse": 29,
            "name": "Numbers 33:29",
            "text": "Mitka\u2019dan ayr\u0131l\u0131p Ha\u015fmona\u2019da konaklad\u0131lar. "
        },
        {
            "chapter": 33,
            "verse": 30,
            "name": "Numbers 33:30",
            "text": "Ha\u015fmona\u2019dan ayr\u0131l\u0131p Moserot\u2019ta konaklad\u0131lar. "
        },
        {
            "chapter": 33,
            "verse": 31,
            "name": "Numbers 33:31",
            "text": "Moserot\u2019tan ayr\u0131l\u0131p Bene-Yaakan\u2019da konaklad\u0131lar. "
        },
        {
            "chapter": 33,
            "verse": 32,
            "name": "Numbers 33:32",
            "text": "Bene-Yaakan\u2019dan ayr\u0131l\u0131p Hor-Hagidgat\u2019ta konaklad\u0131lar. "
        },
        {
            "chapter": 33,
            "verse": 33,
            "name": "Numbers 33:33",
            "text": "Hor-Hagidgat\u2019tan ayr\u0131l\u0131p Yotvata\u2019da konaklad\u0131lar. "
        },
        {
            "chapter": 33,
            "verse": 34,
            "name": "Numbers 33:34",
            "text": "Yotvata\u2019dan ayr\u0131l\u0131p Avrona\u2019da konaklad\u0131lar. "
        },
        {
            "chapter": 33,
            "verse": 35,
            "name": "Numbers 33:35",
            "text": "Avrona\u2019dan ayr\u0131l\u0131p Esyon-Gever\u2019de konaklad\u0131lar. "
        },
        {
            "chapter": 33,
            "verse": 36,
            "name": "Numbers 33:36",
            "text": "Esyon-Gever\u2019den ayr\u0131l\u0131p Zin \u00c7\u00f6l\u00fc\u2019nde \u2013Kade\u015f\u2019te\u2013 konaklad\u0131lar. "
        },
        {
            "chapter": 33,
            "verse": 37,
            "name": "Numbers 33:37",
            "text": "Kade\u015f\u2019ten ayr\u0131l\u0131p Edom s\u0131n\u0131r\u0131ndaki Hor Da\u011f\u0131\u2019nda konaklad\u0131lar. "
        },
        {
            "chapter": 33,
            "verse": 38,
            "name": "Numbers 33:38",
            "text": " K\u00e2hin Harun RAB\u2019bin buyru\u011fu uyar\u0131nca Hor Da\u011f\u0131\u2019na \u00e7\u0131kt\u0131. \u0130srailliler\u2019in M\u0131s\u0131r\u2019dan \u00e7\u0131k\u0131\u015flar\u0131n\u0131n k\u0131rk\u0131nc\u0131 y\u0131l\u0131, be\u015finci ay\u0131n birinci g\u00fcn\u00fc orada \u00f6ld\u00fc."
        },
        {
            "chapter": 33,
            "verse": 39,
            "name": "Numbers 33:39",
            "text": "Hor Da\u011f\u0131\u2019nda \u00f6ld\u00fc\u011f\u00fcnde Harun 123 ya\u015f\u0131ndayd\u0131. "
        },
        {
            "chapter": 33,
            "verse": 40,
            "name": "Numbers 33:40",
            "text": " Kenan \u00fclkesinin Negev b\u00f6lgesinde ya\u015fayan Kenanl\u0131 Arat Kral\u0131 \u0130srailliler\u2019in geldi\u011fini duydu. "
        },
        {
            "chapter": 33,
            "verse": 41,
            "name": "Numbers 33:41",
            "text": "\u0130srailliler Hor Da\u011f\u0131\u2019ndan ayr\u0131l\u0131p Salmona\u2019da konaklad\u0131lar. "
        },
        {
            "chapter": 33,
            "verse": 42,
            "name": "Numbers 33:42",
            "text": "Salmona\u2019dan ayr\u0131l\u0131p Punon\u2019da konaklad\u0131lar. "
        },
        {
            "chapter": 33,
            "verse": 43,
            "name": "Numbers 33:43",
            "text": "Punon\u2019dan ayr\u0131l\u0131p Ovot\u2019ta konaklad\u0131lar. "
        },
        {
            "chapter": 33,
            "verse": 44,
            "name": "Numbers 33:44",
            "text": "Ovot\u2019tan ayr\u0131l\u0131p Moav s\u0131n\u0131r\u0131ndaki \u0130ye-Haavarim\u2019de konaklad\u0131lar. "
        },
        {
            "chapter": 33,
            "verse": 45,
            "name": "Numbers 33:45",
            "text": "\u0130yim\u2019den ayr\u0131l\u0131p Divon-Gad\u2019da konaklad\u0131lar. "
        },
        {
            "chapter": 33,
            "verse": 46,
            "name": "Numbers 33:46",
            "text": "Divon-Gad\u2019dan ayr\u0131l\u0131p Almon-Divlatayma\u2019da konaklad\u0131lar. "
        },
        {
            "chapter": 33,
            "verse": 47,
            "name": "Numbers 33:47",
            "text": "Almon-Divlatayma\u2019dan ayr\u0131l\u0131p Nevo yak\u0131nlar\u0131ndaki Haavarim da\u011fl\u0131k b\u00f6lgesinde konaklad\u0131lar. "
        },
        {
            "chapter": 33,
            "verse": 48,
            "name": "Numbers 33:48",
            "text": "Haavarim da\u011fl\u0131k b\u00f6lgesinden ayr\u0131l\u0131p \u015eeria Irma\u011f\u0131 yan\u0131nda, Eriha kar\u015f\u0131s\u0131ndaki Moav ovalar\u0131nda konaklad\u0131lar."
        },
        {
            "chapter": 33,
            "verse": 49,
            "name": "Numbers 33:49",
            "text": "\u015eeria Irma\u011f\u0131 boyunca Beythaye\u015fimot\u2019tan Avel-Ha\u015f\u015fittim\u2019e kadar Moav ovalar\u0131nda konaklad\u0131lar. "
        },
        {
            "chapter": 33,
            "verse": 50,
            "name": "Numbers 33:50",
            "text": "Orada, \u015eeria Irma\u011f\u0131 yan\u0131nda Eriha kar\u015f\u0131s\u0131ndaki Moav ovalar\u0131nda RAB Musa\u2019ya \u015f\u00f6yle dedi:"
        },
        {
            "chapter": 33,
            "verse": 51,
            "name": "Numbers 33:51",
            "text": "\u201c\u0130srailliler\u2019e de ki, \u2018\u015eeria Irma\u011f\u0131\u2019ndan Kenan \u00fclkesine ge\u00e7ince,"
        },
        {
            "chapter": 33,
            "verse": 52,
            "name": "Numbers 33:52",
            "text": "\u00fclkede ya\u015fayan b\u00fct\u00fcn halk\u0131 kovacaks\u0131n\u0131z. Oyma ve d\u00f6kme putlar\u0131n\u0131 yok edecek, tap\u0131nma yerlerini y\u0131kacaks\u0131n\u0131z."
        },
        {
            "chapter": 33,
            "verse": 53,
            "name": "Numbers 33:53",
            "text": "\u00dclkeyi yurt edinecek, oraya yerle\u015feceksiniz; \u00e7\u00fcnk\u00fc m\u00fclk edinesiniz diye oray\u0131 size verdim."
        },
        {
            "chapter": 33,
            "verse": 54,
            "name": "Numbers 33:54",
            "text": " \u00dclkeyi boylar\u0131n\u0131z aras\u0131nda kurayla payla\u015facaks\u0131n\u0131z. B\u00fcy\u00fck boya b\u00fcy\u00fck pay, k\u00fc\u00e7\u00fck boya k\u00fc\u00e7\u00fck pay vereceksiniz. Kurada kime ne \u00e7\u0131karsa, oras\u0131 onun olacak. Da\u011f\u0131t\u0131m\u0131 atalar\u0131n\u0131z\u0131n oymaklar\u0131na g\u00f6re yapacaks\u0131n\u0131z. "
        },
        {
            "chapter": 33,
            "verse": 55,
            "name": "Numbers 33:55",
            "text": "\u201c \u2018Ama \u00fclkede ya\u015fayanlar\u0131 kovmazsan\u0131z, orada b\u0131rakt\u0131\u011f\u0131n\u0131z halk g\u00f6zlerinizde kanca, b\u00f6\u011f\u00fcrlerinizde diken olacak. Ya\u015fayaca\u011f\u0131n\u0131z \u00fclkede size s\u0131k\u0131nt\u0131 verecekler."
        },
        {
            "chapter": 33,
            "verse": 56,
            "name": "Numbers 33:56",
            "text": "Ben de onlara yapmay\u0131 tasarlad\u0131\u011f\u0131m\u0131 size yapaca\u011f\u0131m.\u2019 \u201d   "
        }
    ]
}