{
    "translation": "Vietnamese (1934)",
    "abbreviation": "vietnamese",
    "lang": "vi",
    "language": "Vietnamese",
    "direction": "LTR",
    "encoding": "UTF-8",
    "book_nr": 38,
    "book_name": "Zechariah",
    "chapter": 4,
    "name": "Zechariah 4",
    "verses": [
        {
            "chapter": 4,
            "verse": 1,
            "name": "Zechariah 4:1",
            "text": "\u00d0o\u1ea1n, thi\u00ean s\u1ee9 n\u00f3i c\u00f9ng ta tr\u1edf l\u1ea1i, \u0111\u00e1nh th\u1ee9c ta, nh\u01b0 m\u1ed9t ng\u01b0\u1eddi \u0111\u01b0\u01a1ng ng\u1ee7 b\u1ecb ng\u01b0\u1eddi ta \u0111\u00e1nh th\u1ee9c."
        },
        {
            "chapter": 4,
            "verse": 2,
            "name": "Zechariah 4:2",
            "text": "Ng\u01b0\u1eddi n\u00f3i c\u00f9ng ta r\u1eb1ng: Ng\u01b0\u01a1i th\u1ea5y g\u00ec? Ta \u0111\u00e1p r\u1eb1ng: T\u00f4i nh\u00ecn xem, k\u00eca m\u1ed9t c\u00e1i ch\u01a1n \u0111\u00e8n b\u1eb1ng v\u00e0ng c\u1ea3, v\u00e0 m\u1ed9t c\u00e1i ch\u1eadu tr\u00ean ch\u00f3t n\u00f3, n\u00f3 c\u00f3 b\u1ea3y ng\u1ecdn \u0111\u00e8n; c\u00f3 b\u1ea3y c\u00e1i \u1ed1ng cho m\u1ed7i ng\u1ecdn \u0111\u00e8n \u1edf tr\u00ean ch\u00f3t n\u00f3."
        },
        {
            "chapter": 4,
            "verse": 3,
            "name": "Zechariah 4:3",
            "text": "\u1ee0 k\u1ec1 b\u00ean l\u1ea1i c\u00f3 hai c\u00e2y \u00f4-li-ve, m\u1ed9t c\u00e2y \u1edf b\u00ean h\u1eefu c\u00e1i ch\u1eadu, v\u00e0 m\u1ed9t c\u00e1i \u1edf b\u00ean t\u1ea3."
        },
        {
            "chapter": 4,
            "verse": 4,
            "name": "Zechariah 4:4",
            "text": "B\u1ea5y gi\u1edd ta c\u1ea5t ti\u1ebfng n\u00f3i c\u00f9ng thi\u00ean s\u1ee9 \u0111\u01b0\u01a1ng n\u00f3i v\u1edbi ta nh\u01b0 v\u1ea7y: H\u1ee1i ch\u00faa t\u00f4i, nh\u1eefng \u0111i\u1ec1u n\u1ea7y l\u00e0 g\u00ec?"
        },
        {
            "chapter": 4,
            "verse": 5,
            "name": "Zechariah 4:5",
            "text": "Thi\u00ean s\u1ee9 n\u00f3i c\u00f9ng ta \u0111\u00e1p r\u1eb1ng: Ng\u01b0\u01a1i kh\u00f4ng bi\u1ebft nh\u1eefng \u0111i\u1ec1u n\u1ea7y l\u00e0 g\u00ec sao? Ta n\u00f3i: Th\u01b0a ch\u00faa! t\u00f4i kh\u00f4ng bi\u1ebft."
        },
        {
            "chapter": 4,
            "verse": 6,
            "name": "Zechariah 4:6",
            "text": "Ng\u01b0\u1eddi \u0111\u00e1p l\u1ea1i r\u1eb1ng: \u00d0\u00e2y l\u00e0 l\u1eddi c\u1ee7a \u00d0\u1ee9c Gi\u00ea-h\u00f4-va ph\u00e1n cho X\u00f4-r\u00f4-ba-b\u00ean r\u1eb1ng: \u1ea4y ch\u1eb3ng ph\u1ea3i l\u00e0 b\u1edfi quy\u1ec1n th\u1ebf, c\u0169ng ch\u1eb3ng ph\u1ea3i l\u00e0 b\u1edfi n\u0103ng l\u1ef1c, b\u00e8n l\u00e0 b\u1edfi Th\u1ea7n ta, \u00d0\u1ee9c Gi\u00ea-h\u00f4-va v\u1ea1n qu\u00e2n ph\u00e1n v\u1eady."
        },
        {
            "chapter": 4,
            "verse": 7,
            "name": "Zechariah 4:7",
            "text": "H\u1ee1i n\u00fai l\u1edbn, ng\u01b0\u01a1i l\u00e0 ai? \u1ede tr\u01b0\u1edbc m\u1eb7t X\u00f4-r\u00f4-ba-b\u00ean ng\u01b0\u01a1i s\u1ebd tr\u1edf n\u00ean \u0111\u1ed3ng b\u1eb1ng. N\u00f3 s\u1ebd \u0111em \u0111\u00e1 ch\u00f3t ra; s\u1ebd c\u00f3 ti\u1ebfng k\u00eau r\u1eb1ng: Xin ban \u01a1n, ban \u01a1n cho n\u00f3!"
        },
        {
            "chapter": 4,
            "verse": 8,
            "name": "Zechariah 4:8",
            "text": "L\u1ea1i c\u00f3 l\u1eddi \u00d0\u1ee9c Gi\u00ea-h\u00f4-va ph\u00e1n c\u00f9ng ta r\u1eb1ng:"
        },
        {
            "chapter": 4,
            "verse": 9,
            "name": "Zechariah 4:9",
            "text": "Tay X\u00f4-r\u00f4-ba-b\u00ean \u0111\u00e3 l\u1eadp n\u1ec1n nh\u00e0 n\u1ea7y, th\u00ec tay n\u00f3 c\u0169ng s\u1ebd l\u00e0m xong; v\u00e0 ng\u01b0\u01a1i s\u1ebd bi\u1ebft r\u1eb1ng \u00d0\u1ee9c Gi\u00ea-h\u00f4-va v\u1ea1n qu\u00e2n \u0111\u00e3 sai ta \u0111\u1ebfn c\u00f9ng c\u00e1c ng\u01b0\u01a1i."
        },
        {
            "chapter": 4,
            "verse": 10,
            "name": "Zechariah 4:10",
            "text": "V\u00ec ai l\u00e0 k\u1ebb khinh d\u1ec3 ng\u00e0y c\u1ee7a nh\u1eefng \u0111i\u1ec1u nh\u1ecf m\u1ecdn? B\u1ea3y con m\u1eaft \u00d0\u1ee9c Gi\u00ea-h\u00f4-va tr\u1ea3i \u0111i qua l\u1ea1i kh\u1eafp \u0111\u1ea5t, s\u1ebd vui m\u00e0 xem th\u1ea5y d\u00e2y chu\u1ea9n m\u1ef1c \u1edf trong tay X\u00f4-r\u00f4-ba-b\u00ean."
        },
        {
            "chapter": 4,
            "verse": 11,
            "name": "Zechariah 4:11",
            "text": "Ta b\u00e8n \u0111\u00e1p l\u1ea1i c\u00f9ng ng\u01b0\u1eddi r\u1eb1ng: Hai nh\u00e1nh \u00f4-li-ve \u1edf b\u00ean h\u1eefu v\u00e0 b\u00ean t\u1ea3 ch\u01a1n \u0111\u00e8n l\u00e0 g\u00ec?"
        },
        {
            "chapter": 4,
            "verse": 12,
            "name": "Zechariah 4:12",
            "text": "Ta l\u1ea1i c\u1ea5t ti\u1ebfng n\u00f3i c\u00f9ng ng\u01b0\u1eddi l\u1ea7n th\u1ee9 hai m\u00e0 r\u1eb1ng: Hai nh\u00e1nh \u00f4-li-ve \u1edf k\u1ec1 b\u00ean hai \u1ed1ng v\u00f2i v\u00e0ng, c\u00f3 d\u1ea7u v\u00e0ng ch\u1ea3y ra, l\u00e0 g\u00ec?"
        },
        {
            "chapter": 4,
            "verse": 13,
            "name": "Zechariah 4:13",
            "text": "Ng\u01b0\u1eddi \u0111\u00e1p r\u1eb1ng: Ng\u01b0\u01a1i kh\u00f4ng bi\u1ebft nh\u1eefng \u0111i\u1ec1u \u0111\u00f3 l\u00e0 g\u00ec sao? Ta n\u00f3i: Th\u01b0a ch\u00faa, t\u00f4i kh\u00f4ng bi\u1ebft."
        },
        {
            "chapter": 4,
            "verse": 14,
            "name": "Zechariah 4:14",
            "text": "Ng\u01b0\u1eddi b\u00e8n n\u00f3i r\u1eb1ng: \u1ea4y l\u00e0 hai ng\u01b0\u1eddi ch\u1ecbu x\u1ee9c d\u1ea7u, \u0111\u1ee9ng b\u00ean Ch\u00faa c\u1ee7a c\u1ea3 \u0111\u1ea5t."
        }
    ]
}