{
    "translation": "Sagradas Escrituras (1569)",
    "abbreviation": "sse",
    "lang": "es",
    "language": "Spanish",
    "direction": "LTR",
    "encoding": "",
    "book_nr": 6,
    "book_name": "Joshua",
    "chapter": 14,
    "name": "Joshua 14",
    "verses": [
        {
            "chapter": 14,
            "verse": 1,
            "name": "Joshua 14:1",
            "text": "Esto pues <FI>es<Fi> lo que los hijos de Israel tomaron por heredad en la tierra de Cana\u00e1n, lo cual les repartieron Eleazar sacerdote, y Josu\u00e9 hijo de Nun, y los principales de los padres de las tribus de los hijos de Israel."
        },
        {
            "chapter": 14,
            "verse": 2,
            "name": "Joshua 14:2",
            "text": "Por suerte <FI>se les dio<Fi> su heredad, como el SE\u00d1OR lo hab\u00eda mandado por Mois\u00e9s, que diese a las nueve tribus y a la media tribu."
        },
        {
            "chapter": 14,
            "verse": 3,
            "name": "Joshua 14:3",
            "text": "Porque a las dos tribus, y a la media tribu, les hab\u00eda Mois\u00e9s dado heredad del otro lado del Jord\u00e1n; mas a los levitas no dio heredad entre ellos."
        },
        {
            "chapter": 14,
            "verse": 4,
            "name": "Joshua 14:4",
            "text": "Porque los hijos de Jos\u00e9 fueron dos tribus, Manas\u00e9s y Efra\u00edn; y no dieron parte a los levitas en la tierra, sino ciudades en que morasen, con sus ejidos para sus ganados y reba\u00f1os."
        },
        {
            "chapter": 14,
            "verse": 5,
            "name": "Joshua 14:5",
            "text": "De la manera que el SE\u00d1OR lo hab\u00eda mandado a Mois\u00e9s, as\u00ed lo hicieron los hijos de Israel en el repartimiento de la tierra."
        },
        {
            "chapter": 14,
            "verse": 6,
            "name": "Joshua 14:6",
            "text": "Y los hijos de Jud\u00e1 vinieron a Josu\u00e9 en Gilgal; y Caleb, hijo de Jefone cenezeo, le dijo: T\u00fa sabes lo que el SE\u00d1OR dijo a Mois\u00e9s, var\u00f3n de Dios, en Cades-barnea, tocante a m\u00ed y a ti."
        },
        {
            "chapter": 14,
            "verse": 7,
            "name": "Joshua 14:7",
            "text": "Yo era de edad de cuarenta a\u00f1os, cuando Mois\u00e9s siervo del SE\u00d1OR me envi\u00f3 de Cades-barnea a reconocer la tierra; y <FI>yo<Fi> le refer\u00ed el negocio como lo ten\u00eda en mi coraz\u00f3n;"
        },
        {
            "chapter": 14,
            "verse": 8,
            "name": "Joshua 14:8",
            "text": "mas mis hermanos, los que hab\u00edan subido conmigo, menguaron el coraz\u00f3n del pueblo; empero yo cumpl\u00ed siguiendo al SE\u00d1OR mi Dios."
        },
        {
            "chapter": 14,
            "verse": 9,
            "name": "Joshua 14:9",
            "text": "Entonces Mois\u00e9s jur\u00f3, diciendo: Si la tierra que holl\u00f3 tu pie no fuere para ti, y para tus hijos en herencia perpetua; por cuanto cumpliste siguiendo al SE\u00d1OR mi Dios."
        },
        {
            "chapter": 14,
            "verse": 10,
            "name": "Joshua 14:10",
            "text": "Y ahora El SE\u00d1OR me ha hecho vivir, como \u00e9l dijo, estos cuarenta y cinco a\u00f1os, desde el tiempo que el SE\u00d1OR habl\u00f3 estas palabras a Mois\u00e9s, que Israel ha andado por el desierto; y ahora, he aqu\u00ed soy hoy de edad de ochenta y cinco a\u00f1os;"
        },
        {
            "chapter": 14,
            "verse": 11,
            "name": "Joshua 14:11",
            "text": "y aun hoy estoy tan fuerte como el d\u00eda que Mois\u00e9s me envi\u00f3; cual era entonces mi fuerza, tal es ahora, para la guerra, y para salir y para entrar."
        },
        {
            "chapter": 14,
            "verse": 12,
            "name": "Joshua 14:12",
            "text": "Dame, pues, ahora este monte, del cual habl\u00f3 el SE\u00d1OR aquel d\u00eda; porque t\u00fa o\u00edste en aquel d\u00eda que los anaceos est\u00e1n all\u00ed, y grandes y fuertes ciudades. Por ventura el SE\u00d1OR <FI>ser\u00e1<Fi> conmigo, y los echar\u00e9 como el SE\u00d1OR ha dicho."
        },
        {
            "chapter": 14,
            "verse": 13,
            "name": "Joshua 14:13",
            "text": "Josu\u00e9 entonces le bendijo, y dio a Caleb hijo de Jefone a Hebr\u00f3n por heredad."
        },
        {
            "chapter": 14,
            "verse": 14,
            "name": "Joshua 14:14",
            "text": "Por tanto Hebr\u00f3n fue de Caleb, hijo de Jefone cenezeo, por heredad hasta hoy; porque cumpli\u00f3 siguiendo al SE\u00d1OR Dios de Israel."
        },
        {
            "chapter": 14,
            "verse": 15,
            "name": "Joshua 14:15",
            "text": "Mas Hebr\u00f3n fue antes llamada Quiriat-arba; <FI>porque Arba<Fi> fue un hombre grande entre los anaceos. Y la tierra tuvo reposo de las guerras."
        }
    ]
}