{
    "translation": "Russian Synodal Bible, Licht im Osten Edition",
    "abbreviation": "russynodallio",
    "lang": "ru",
    "language": "Russian",
    "direction": "LTR",
    "encoding": "UTF-8",
    "book_nr": 12,
    "book_name": "2 Kings",
    "chapter": 12,
    "name": "2 Kings 12",
    "verses": [
        {
            "chapter": 12,
            "verse": 1,
            "name": "2 Kings 12:1",
            "text": "    \u0412 \u0441\u0435\u0434\u044c\u043c\u043e\u0439 \u0433\u043e\u0434 \u0418\u0438\u0443\u044f \u0432\u043e\u0446\u0430\u0440\u0438\u043b\u0441\u044f \u0418\u043e\u0430\u0441 \u0438 \u0441\u043e\u0440\u043e\u043a \u043b\u0435\u0442 \u0446\u0430\u0440\u0441\u0442\u0432\u043e\u0432\u0430\u043b \u0432 \u0418\u0435\u0440\u0443\u0441\u0430\u043b\u0438\u043c\u0435. \u0418\u043c\u044f \u043c\u0430\u0442\u0435\u0440\u0438 \u0435\u0433\u043e \u0426\u0438\u0432\u044c\u044f, \u0438\u0437 \u0412\u0438\u0440\u0441\u0430\u0432\u0438\u0438. "
        },
        {
            "chapter": 12,
            "verse": 2,
            "name": "2 Kings 12:2",
            "text": "\u0418 \u0434\u0435\u043b\u0430\u043b \u0418\u043e\u0430\u0441 \u0443\u0433\u043e\u0434\u043d\u043e\u0435 \u0432 \u043e\u0447\u0430\u0445 \u0413\u043e\u0441\u043f\u043e\u0434\u043d\u0438\u0445 \u0432\u043e \u0432\u0441\u0435 \u0434\u043d\u0438 \u0441\u0432\u043e\u0438, \u0434\u043e\u043a\u043e\u043b\u0435 \u043d\u0430\u0441\u0442\u0430\u0432\u043b\u044f\u043b \u0435\u0433\u043e \u0441\u0432\u044f\u0449\u0435\u043d\u043d\u0438\u043a \u0418\u043e\u0434\u0430\u0439; "
        },
        {
            "chapter": 12,
            "verse": 3,
            "name": "2 Kings 12:3",
            "text": "\u0442\u043e\u043b\u044c\u043a\u043e \u0432\u044b\u0441\u043e\u0442\u044b \u043d\u0435 \u0431\u044b\u043b\u0438 \u043e\u0442\u043c\u0435\u043d\u0435\u043d\u044b; \u043d\u0430\u0440\u043e\u0434 \u0435\u0449\u0435 \u043f\u0440\u0438\u043d\u043e\u0441\u0438\u043b \u0436\u0435\u0440\u0442\u0432\u044b \u0438 \u043a\u0443\u0440\u0435\u043d\u0438\u044f \u043d\u0430 \u0432\u044b\u0441\u043e\u0442\u0430\u0445. "
        },
        {
            "chapter": 12,
            "verse": 4,
            "name": "2 Kings 12:4",
            "text": "\u0418 \u0441\u043a\u0430\u0437\u0430\u043b \u0418\u043e\u0430\u0441 \u0441\u0432\u044f\u0449\u0435\u043d\u043d\u0438\u043a\u0430\u043c: \u00ab\u0412\u0441\u0435 \u0441\u0435\u0440\u0435\u0431\u0440\u043e \u043f\u043e\u0441\u0432\u044f\u0449\u0430\u0435\u043c\u043e\u0435, \u043a\u043e\u0442\u043e\u0440\u043e\u0435 \u043f\u0440\u0438\u043d\u043e\u0441\u044f\u0442 \u0432 \u0434\u043e\u043c \u0413\u043e\u0441\u043f\u043e\u0434\u0435\u043d, \u0441\u0435\u0440\u0435\u0431\u0440\u043e \u043e\u0442 \u043f\u0440\u0438\u0445\u043e\u0434\u044f\u0449\u0438\u0445, \u0441\u0435\u0440\u0435\u0431\u0440\u043e, \u0432\u043d\u043e\u0441\u0438\u043c\u043e\u0435 \u0437\u0430 \u043a\u0430\u0436\u0434\u0443\u044e \u0434\u0443\u0448\u0443 \u043f\u043e \u043e\u0446\u0435\u043d\u043a\u0435, \u0432\u0441\u0435 \u0441\u0435\u0440\u0435\u0431\u0440\u043e, \u0441\u043a\u043e\u043b\u044c\u043a\u043e \u043a\u043e\u043c\u0443 \u043f\u0440\u0438\u0445\u043e\u0434\u0438\u0442 \u043d\u0430 \u0441\u0435\u0440\u0434\u0446\u0435 \u043f\u0440\u0438\u043d\u0435\u0441\u0442\u0438 \u0432 \u0434\u043e\u043c \u0413\u043e\u0441\u043f\u043e\u0434\u0435\u043d, "
        },
        {
            "chapter": 12,
            "verse": 5,
            "name": "2 Kings 12:5",
            "text": "\u043f\u0443\u0441\u0442\u044c \u0431\u0435\u0440\u0443\u0442 \u0441\u0432\u044f\u0449\u0435\u043d\u043d\u0438\u043a\u0438 \u0441\u0435\u0431\u0435, \u043a\u0430\u0436\u0434\u044b\u0439 \u043e\u0442 \u0441\u0432\u043e\u0435\u0433\u043e \u0437\u043d\u0430\u043a\u043e\u043c\u043e\u0433\u043e, \u0438 \u043f\u0443\u0441\u0442\u044c \u0438\u0441\u043f\u0440\u0430\u0432\u043b\u044f\u044e\u0442 \u043e\u043d\u0438 \u043f\u043e\u0432\u0440\u0435\u0436\u0434\u0435\u043d\u043d\u043e\u0435 \u0432 \u0445\u0440\u0430\u043c\u0435, \u0432\u0435\u0437\u0434\u0435, \u0433\u0434\u0435 \u043d\u0430\u0439\u0434\u0435\u0442\u0441\u044f \u043f\u043e\u0432\u0440\u0435\u0436\u0434\u0435\u043d\u0438\u0435\u00bb. "
        },
        {
            "chapter": 12,
            "verse": 6,
            "name": "2 Kings 12:6",
            "text": "\u041d\u043e \u043a\u0430\u043a \u0434\u043e \u0434\u0432\u0430\u0434\u0446\u0430\u0442\u044c \u0442\u0440\u0435\u0442\u044c\u0435\u0433\u043e \u0433\u043e\u0434\u0430 \u0446\u0430\u0440\u044f \u0418\u043e\u0430\u0441\u0430 \u0441\u0432\u044f\u0449\u0435\u043d\u043d\u0438\u043a\u0438 \u043d\u0435 \u0438\u0441\u043f\u0440\u0430\u0432\u043b\u044f\u043b\u0438 \u043f\u043e\u0432\u0440\u0435\u0436\u0434\u0435\u043d\u0438\u0439 \u0432 \u0445\u0440\u0430\u043c\u0435, "
        },
        {
            "chapter": 12,
            "verse": 7,
            "name": "2 Kings 12:7",
            "text": "\u0442\u043e \u0446\u0430\u0440\u044c \u0418\u043e\u0430\u0441 \u043f\u043e\u0437\u0432\u0430\u043b \u0441\u0432\u044f\u0449\u0435\u043d\u043d\u0438\u043a\u0430 \u0418\u043e\u0434\u0430\u044f \u0438 \u0441\u0432\u044f\u0449\u0435\u043d\u043d\u0438\u043a\u043e\u0432 \u0438 \u0441\u043a\u0430\u0437\u0430\u043b \u0438\u043c: \u00ab\u041f\u043e\u0447\u0435\u043c\u0443 \u0432\u044b \u043d\u0435 \u0438\u0441\u043f\u0440\u0430\u0432\u043b\u044f\u0435\u0442\u0435 \u043f\u043e\u0432\u0440\u0435\u0436\u0434\u0435\u043d\u0438\u0439 \u0432 \u0445\u0440\u0430\u043c\u0435? \u041d\u0435 \u0431\u0435\u0440\u0438\u0442\u0435 \u0436\u0435 \u043e\u0442\u043d\u044b\u043d\u0435 \u0441\u0435\u0440\u0435\u0431\u0440\u0430 \u0443 \u0437\u043d\u0430\u043a\u043e\u043c\u044b\u0445 \u0441\u0432\u043e\u0438\u0445, \u0430 \u043d\u0430 \u043f\u043e\u0447\u0438\u043d\u043a\u0443 \u043f\u043e\u0432\u0440\u0435\u0436\u0434\u0435\u043d\u0438\u0439 \u0432 \u0445\u0440\u0430\u043c\u0435 \u043e\u0442\u0434\u0430\u0439\u0442\u0435 \u0435\u0433\u043e\u00bb. "
        },
        {
            "chapter": 12,
            "verse": 8,
            "name": "2 Kings 12:8",
            "text": "\u0418 \u0441\u043e\u0433\u043b\u0430\u0441\u0438\u043b\u0438\u0441\u044c \u0441\u0432\u044f\u0449\u0435\u043d\u043d\u0438\u043a\u0438 \u043d\u0435 \u0431\u0440\u0430\u0442\u044c \u0441\u0435\u0440\u0435\u0431\u0440\u0430 \u0443 \u043d\u0430\u0440\u043e\u0434\u0430 \u043d\u0430 \u0438\u0441\u043f\u0440\u0430\u0432\u043b\u0435\u043d\u0438\u0435 \u043f\u043e\u0432\u0440\u0435\u0436\u0434\u0435\u043d\u0438\u0439 \u0432 \u0445\u0440\u0430\u043c\u0435. "
        },
        {
            "chapter": 12,
            "verse": 9,
            "name": "2 Kings 12:9",
            "text": "\u0418 \u0432\u0437\u044f\u043b \u0441\u0432\u044f\u0449\u0435\u043d\u043d\u0438\u043a \u0418\u043e\u0434\u0430\u0439 \u043e\u0434\u0438\u043d \u044f\u0449\u0438\u043a, \u0438 \u0441\u0434\u0435\u043b\u0430\u043b \u043e\u0442\u0432\u0435\u0440\u0441\u0442\u0438\u0435 \u0441\u0432\u0435\u0440\u0445\u0443 \u0435\u0433\u043e, \u0438 \u043f\u043e\u0441\u0442\u0430\u0432\u0438\u043b \u0435\u0433\u043e \u043f\u043e\u0434\u043b\u0435 \u0436\u0435\u0440\u0442\u0432\u0435\u043d\u043d\u0438\u043a\u0430 \u043d\u0430 \u043f\u0440\u0430\u0432\u043e\u0439 \u0441\u0442\u043e\u0440\u043e\u043d\u0435, \u0433\u0434\u0435 \u0432\u0445\u043e\u0434\u0438\u043b\u0438 \u0432 \u0434\u043e\u043c \u0413\u043e\u0441\u043f\u043e\u0434\u0435\u043d. \u0418 \u043f\u043e\u043b\u0430\u0433\u0430\u043b\u0438 \u0442\u0443\u0434\u0430 \u0441\u0432\u044f\u0449\u0435\u043d\u043d\u0438\u043a\u0438, \u0441\u0442\u043e\u044f\u0449\u0438\u0435 \u043d\u0430 \u0441\u0442\u0440\u0430\u0436\u0435 \u0443 \u043f\u043e\u0440\u043e\u0433\u0430, \u0432\u0441\u0435 \u0441\u0435\u0440\u0435\u0431\u0440\u043e, \u043f\u0440\u0438\u043d\u043e\u0441\u0438\u043c\u043e\u0435 \u0432 \u0434\u043e\u043c \u0413\u043e\u0441\u043f\u043e\u0434\u0435\u043d. "
        },
        {
            "chapter": 12,
            "verse": 10,
            "name": "2 Kings 12:10",
            "text": "\u0418 \u043a\u043e\u0433\u0434\u0430 \u0432\u0438\u0434\u0435\u043b\u0438, \u0447\u0442\u043e \u043c\u043d\u043e\u0433\u043e \u0441\u0435\u0440\u0435\u0431\u0440\u0430 \u0432 \u044f\u0449\u0438\u043a\u0435, \u043f\u0440\u0438\u0445\u043e\u0434\u0438\u043b\u0438 \u043f\u0438\u0441\u0435\u0446 \u0446\u0430\u0440\u0441\u043a\u0438\u0439 \u0438 \u043f\u0435\u0440\u0432\u043e\u0441\u0432\u044f\u0449\u0435\u043d\u043d\u0438\u043a, \u0438 \u0437\u0430\u0432\u044f\u0437\u044b\u0432\u0430\u043b\u0438 \u0432 \u043c\u0435\u0448\u043a\u0438, \u0438 \u043f\u0435\u0440\u0435\u0441\u0447\u0438\u0442\u044b\u0432\u0430\u043b\u0438 \u0441\u0435\u0440\u0435\u0431\u0440\u043e, \u043d\u0430\u0439\u0434\u0435\u043d\u043d\u043e\u0435 \u0432 \u0434\u043e\u043c\u0435 \u0413\u043e\u0441\u043f\u043e\u0434\u043d\u0435\u043c; "
        },
        {
            "chapter": 12,
            "verse": 11,
            "name": "2 Kings 12:11",
            "text": "\u0438 \u043e\u0442\u0434\u0430\u0432\u0430\u043b\u0438 \u0441\u043e\u0441\u0447\u0438\u0442\u0430\u043d\u043d\u043e\u0435 \u0441\u0435\u0440\u0435\u0431\u0440\u043e \u0432 \u0440\u0443\u043a\u0438 \u043f\u0440\u043e\u0438\u0437\u0432\u043e\u0434\u0438\u0442\u0435\u043b\u044f\u043c \u0440\u0430\u0431\u043e\u0442, \u043f\u0440\u0438\u0441\u0442\u0430\u0432\u043b\u0435\u043d\u043d\u044b\u043c \u043a \u0434\u043e\u043c\u0443 \u0413\u043e\u0441\u043f\u043e\u0434\u043d\u0435\u043c\u0443, \u0430 \u044d\u0442\u0438 \u0438\u0437\u0434\u0435\u0440\u0436\u0438\u0432\u0430\u043b\u0438 \u0435\u0433\u043e \u043d\u0430 \u043f\u043b\u043e\u0442\u043d\u0438\u043a\u043e\u0432 \u0438 \u0441\u0442\u0440\u043e\u0438\u0442\u0435\u043b\u0435\u0439, \u0440\u0430\u0431\u043e\u0442\u0430\u0432\u0448\u0438\u0445 \u0432 \u0434\u043e\u043c\u0435 \u0413\u043e\u0441\u043f\u043e\u0434\u043d\u0435\u043c, "
        },
        {
            "chapter": 12,
            "verse": 12,
            "name": "2 Kings 12:12",
            "text": "\u0438 \u043d\u0430 \u0434\u0435\u043b\u0430\u0442\u0435\u043b\u0435\u0439 \u0441\u0442\u0435\u043d \u0438 \u043d\u0430 \u043a\u0430\u043c\u0435\u043d\u043e\u0442\u0435\u0441\u043e\u0432, \u0442\u0430\u043a\u0436\u0435 \u043d\u0430 \u043f\u043e\u043a\u0443\u043f\u043a\u0443 \u0434\u0435\u0440\u0435\u0432\u044c\u0435\u0432 \u0438 \u0442\u0435\u0441\u0430\u043d\u044b\u0445 \u043a\u0430\u043c\u043d\u0435\u0439, \u0434\u043b\u044f \u043f\u043e\u0447\u0438\u043d\u043a\u0438 \u043f\u043e\u0432\u0440\u0435\u0436\u0434\u0435\u043d\u0438\u0439 \u0432 \u0434\u043e\u043c\u0435 \u0413\u043e\u0441\u043f\u043e\u0434\u043d\u0435\u043c, \u0438 \u043d\u0430 \u0432\u0441\u0435, \u0447\u0442\u043e \u0440\u0430\u0441\u0445\u043e\u0434\u043e\u0432\u0430\u043b\u043e\u0441\u044c \u0434\u043b\u044f \u043f\u043e\u0434\u0434\u0435\u0440\u0436\u0430\u043d\u0438\u044f \u0445\u0440\u0430\u043c\u0430. "
        },
        {
            "chapter": 12,
            "verse": 13,
            "name": "2 Kings 12:13",
            "text": "\u041d\u043e \u043d\u0435 \u0441\u0434\u0435\u043b\u0430\u043d\u043e \u0431\u044b\u043b\u043e \u0434\u043b\u044f \u0434\u043e\u043c\u0430 \u0413\u043e\u0441\u043f\u043e\u0434\u043d\u0435\u0433\u043e \u0441\u0435\u0440\u0435\u0431\u0440\u044f\u043d\u044b\u0445 \u0431\u043b\u044e\u0434, \u043d\u043e\u0436\u0435\u0439, \u0447\u0430\u0448 \u0434\u043b\u044f \u043e\u043a\u0440\u043e\u043f\u043b\u0435\u043d\u0438\u044f, \u0442\u0440\u0443\u0431, \u0432\u0441\u044f\u043a\u0438\u0445 \u0441\u043e\u0441\u0443\u0434\u043e\u0432 \u0437\u043e\u043b\u043e\u0442\u044b\u0445 \u0438 \u0441\u043e\u0441\u0443\u0434\u043e\u0432 \u0441\u0435\u0440\u0435\u0431\u0440\u044f\u043d\u044b\u0445 \u0438\u0437 \u0441\u0435\u0440\u0435\u0431\u0440\u0430, \u043f\u0440\u0438\u043d\u043e\u0441\u0438\u043c\u043e\u0433\u043e \u0432 \u0434\u043e\u043c \u0413\u043e\u0441\u043f\u043e\u0434\u0435\u043d, "
        },
        {
            "chapter": 12,
            "verse": 14,
            "name": "2 Kings 12:14",
            "text": "\u0430 \u043f\u0440\u043e\u0438\u0437\u0432\u043e\u0434\u0438\u0442\u0435\u043b\u044f\u043c \u0440\u0430\u0431\u043e\u0442 \u043e\u0442\u0434\u0430\u0432\u0430\u043b\u0438 \u0435\u0433\u043e, \u0438 \u043f\u043e\u0447\u0438\u043d\u0438\u043b\u0438 \u0438\u043c \u0434\u043e\u043c \u0413\u043e\u0441\u043f\u043e\u0434\u0435\u043d. "
        },
        {
            "chapter": 12,
            "verse": 15,
            "name": "2 Kings 12:15",
            "text": "\u0418 \u043d\u0435 \u0442\u0440\u0435\u0431\u043e\u0432\u0430\u043b\u0438 \u043e\u0442\u0447\u0435\u0442\u0430 \u043e\u0442 \u0442\u0435\u0445 \u043b\u044e\u0434\u0435\u0439, \u043a\u043e\u0442\u043e\u0440\u044b\u043c \u043f\u043e\u0440\u0443\u0447\u0430\u043b\u0438 \u0441\u0435\u0440\u0435\u0431\u0440\u043e \u0434\u043b\u044f \u0440\u0430\u0437\u0434\u0430\u0447\u0438 \u043f\u0440\u043e\u0438\u0437\u0432\u043e\u0434\u0438\u0442\u0435\u043b\u044f\u043c \u0440\u0430\u0431\u043e\u0442, \u0438\u0431\u043e \u043e\u043d\u0438 \u0434\u0435\u0439\u0441\u0442\u0432\u043e\u0432\u0430\u043b\u0438 \u0447\u0435\u0441\u0442\u043d\u043e. "
        },
        {
            "chapter": 12,
            "verse": 16,
            "name": "2 Kings 12:16",
            "text": "\u0421\u0435\u0440\u0435\u0431\u0440\u043e \u0437\u0430 \u0436\u0435\u0440\u0442\u0432\u0443 \u043e \u043f\u0440\u0435\u0441\u0442\u0443\u043f\u043b\u0435\u043d\u0438\u0438 \u0438 \u0441\u0435\u0440\u0435\u0431\u0440\u043e \u0437\u0430 \u0436\u0435\u0440\u0442\u0432\u0443 \u043e \u0433\u0440\u0435\u0445\u0435 \u043d\u0435 \u0432\u043d\u043e\u0441\u0438\u043b\u043e\u0441\u044c \u0432 \u0434\u043e\u043c \u0413\u043e\u0441\u043f\u043e\u0434\u0435\u043d: \u0441\u0432\u044f\u0449\u0435\u043d\u043d\u0438\u043a\u0430\u043c \u043e\u043d\u043e \u043f\u0440\u0438\u043d\u0430\u0434\u043b\u0435\u0436\u0430\u043b\u043e. "
        },
        {
            "chapter": 12,
            "verse": 17,
            "name": "2 Kings 12:17",
            "text": "\u0422\u043e\u0433\u0434\u0430 \u0432\u044b\u0441\u0442\u0443\u043f\u0438\u043b \u0432 \u043f\u043e\u0445\u043e\u0434 \u0410\u0437\u0430\u0438\u043b, \u0446\u0430\u0440\u044c \u0441\u0438\u0440\u0438\u0439\u0441\u043a\u0438\u0439, \u0438 \u043f\u043e\u0448\u0435\u043b \u0432\u043e\u0439\u043d\u043e\u0439 \u043d\u0430 \u0413\u0435\u0444, \u0438 \u0432\u0437\u044f\u043b \u0435\u0433\u043e; \u0438 \u0432\u043e\u0437\u043d\u0430\u043c\u0435\u0440\u0438\u043b\u0441\u044f \u0410\u0437\u0430\u0438\u043b \u0438\u0434\u0442\u0438 \u043d\u0430 \u0418\u0435\u0440\u0443\u0441\u0430\u043b\u0438\u043c. "
        },
        {
            "chapter": 12,
            "verse": 18,
            "name": "2 Kings 12:18",
            "text": "\u041d\u043e \u0418\u043e\u0430\u0441, \u0446\u0430\u0440\u044c \u0438\u0443\u0434\u0435\u0439\u0441\u043a\u0438\u0439, \u0432\u0437\u044f\u043b \u0432\u0441\u0435 \u043f\u043e\u0436\u0435\u0440\u0442\u0432\u043e\u0432\u0430\u043d\u043d\u043e\u0435, \u0447\u0442\u043e \u043f\u043e\u0436\u0435\u0440\u0442\u0432\u043e\u0432\u0430\u043b\u0438 \u0445\u0440\u0430\u043c\u0443 \u0418\u043e\u0441\u0430\u0444\u0430\u0442, \u0438 \u0418\u043e\u0440\u0430\u043c, \u0438 \u041e\u0445\u043e\u0437\u0438\u044f, \u043e\u0442\u0446\u044b \u0435\u0433\u043e, \u0446\u0430\u0440\u0438 \u0438\u0443\u0434\u0435\u0439\u0441\u043a\u0438\u0435, \u0438 \u0447\u0442\u043e \u043e\u043d \u0441\u0430\u043c \u043f\u043e\u0436\u0435\u0440\u0442\u0432\u043e\u0432\u0430\u043b, \u0438 \u0432\u0441\u0435 \u0437\u043e\u043b\u043e\u0442\u043e, \u043d\u0430\u0439\u0434\u0435\u043d\u043d\u043e\u0435 \u0432 \u0441\u043e\u043a\u0440\u043e\u0432\u0438\u0449\u043d\u0438\u0446\u0430\u0445 \u0434\u043e\u043c\u0430 \u0413\u043e\u0441\u043f\u043e\u0434\u043d\u0435\u0433\u043e \u0438 \u0434\u043e\u043c\u0430 \u0446\u0430\u0440\u0441\u043a\u043e\u0433\u043e, \u0438 \u043f\u043e\u0441\u043b\u0430\u043b \u0410\u0437\u0430\u0438\u043b\u0443, \u0446\u0430\u0440\u044e \u0441\u0438\u0440\u0438\u0439\u0441\u043a\u043e\u043c\u0443; \u0438 \u043e\u043d \u043e\u0442\u0441\u0442\u0443\u043f\u0438\u043b \u043e\u0442 \u0418\u0435\u0440\u0443\u0441\u0430\u043b\u0438\u043c\u0430. "
        },
        {
            "chapter": 12,
            "verse": 19,
            "name": "2 Kings 12:19",
            "text": "\u041f\u0440\u043e\u0447\u0435\u0435 \u043e\u0431 \u0418\u043e\u0430\u0441\u0435 \u0438 \u043e\u0431\u043e \u0432\u0441\u0435\u043c, \u0447\u0442\u043e \u043e\u043d \u0441\u0434\u0435\u043b\u0430\u043b, \u043d\u0430\u043f\u0438\u0441\u0430\u043d\u043e \u0432 \u043b\u0435\u0442\u043e\u043f\u0438\u0441\u0438 \u0446\u0430\u0440\u0435\u0439 \u0438\u0443\u0434\u0435\u0439\u0441\u043a\u0438\u0445. "
        },
        {
            "chapter": 12,
            "verse": 20,
            "name": "2 Kings 12:20",
            "text": "\u0418 \u0432\u043e\u0441\u0441\u0442\u0430\u043b\u0438 \u0441\u043b\u0443\u0433\u0438 \u0435\u0433\u043e, \u0438 \u0441\u043e\u0441\u0442\u0430\u0432\u0438\u043b\u0438 \u0437\u0430\u0433\u043e\u0432\u043e\u0440, \u0438 \u0443\u0431\u0438\u043b\u0438 \u0418\u043e\u0430\u0441\u0430 \u0432 \u0434\u043e\u043c\u0435 \u041c\u0438\u043b\u043b\u043e, \u043d\u0430 \u0434\u043e\u0440\u043e\u0433\u0435 \u043a \u0421\u0438\u043b\u043b\u0435. "
        },
        {
            "chapter": 12,
            "verse": 21,
            "name": "2 Kings 12:21",
            "text": "\u0415\u0433\u043e \u0443\u0431\u0438\u043b\u0438 \u0441\u043b\u0443\u0433\u0438 \u0435\u0433\u043e: \u0418\u043e\u0437\u0430\u043a\u0430\u0440, \u0441\u044b\u043d \u0428\u0438\u043c\u0435\u0430\u0442\u044b, \u0438 \u0418\u0435\u0433\u043e\u0437\u0430\u0432\u0430\u0434, \u0441\u044b\u043d \u0428\u043e\u043c\u0435\u0440\u044b; \u0438 \u043e\u043d \u0443\u043c\u0435\u0440, \u0438 \u043f\u043e\u0445\u043e\u0440\u043e\u043d\u0438\u043b\u0438 \u0435\u0433\u043e \u0441 \u043e\u0442\u0446\u0430\u043c\u0438 \u0435\u0433\u043e \u0432 \u0433\u043e\u0440\u043e\u0434\u0435 \u0414\u0430\u0432\u0438\u0434\u043e\u0432\u043e\u043c. \u0418 \u0432\u043e\u0446\u0430\u0440\u0438\u043b\u0441\u044f \u0410\u043c\u0430\u0441\u0438\u044f, \u0441\u044b\u043d \u0435\u0433\u043e, \u0432\u043c\u0435\u0441\u0442\u043e \u043d\u0435\u0433\u043e.    "
        }
    ]
}