{
    "translation": "Svenska Folkbibeln (1998)",
    "abbreviation": "swefolk1998",
    "lang": "sv",
    "language": "Swedish",
    "direction": "LTR",
    "encoding": "UTF-8",
    "book_nr": 19,
    "book_name": "Psalms",
    "chapter": 91,
    "name": "Psalms 91",
    "verses": [
        {
            "chapter": 91,
            "verse": 1,
            "name": "Psalms 91:1",
            "text": "<l level=\"1\">Den som sitter under den H\u00f6gstes beskyddoch vilar under den Allsm\u00e4ktiges skugga,</lg>"
        },
        {
            "chapter": 91,
            "verse": 2,
            "name": "Psalms 91:2",
            "text": "<l level=\"1\">han s\u00e4ger: \"I Herren har jag min tillflykt och min borg,min Gud som jag f\u00f6rtr\u00f6star p\u00e5.\"</lg>"
        },
        {
            "chapter": 91,
            "verse": 3,
            "name": "Psalms 91:3",
            "text": "<l level=\"1\">Han skall r\u00e4dda dig fr\u00e5n f\u00e5gelf\u00e4ngarens snara och fr\u00e5n den f\u00f6r\u00f6dande pesten.</lg>"
        },
        {
            "chapter": 91,
            "verse": 4,
            "name": "Psalms 91:4",
            "text": "<l level=\"1\">Med sina fj\u00e4drar skall han \u00f6vert\u00e4cka dig,under hans vingar skall du finna tillflykt.Hans trofasthet \u00e4r sk\u00f6ld och sk\u00e4rm.</lg>"
        },
        {
            "chapter": 91,
            "verse": 5,
            "name": "Psalms 91:5",
            "text": "<l level=\"1\">Du skall inte frukta nattens fasor,inte pilen som flyger om dagen,</lg>"
        },
        {
            "chapter": 91,
            "verse": 6,
            "name": "Psalms 91:6",
            "text": "<l level=\"1\">inte pesten som g\u00e5r fram i m\u00f6rkreteller farsoten som h\u00e4rjar vid middagens ljus.</lg>"
        },
        {
            "chapter": 91,
            "verse": 7,
            "name": "Psalms 91:7",
            "text": "<l level=\"1\">Om \u00e4n tusen faller vid din sida,ja, tio tusen vid din h\u00f6gra sida,s\u00e5 skall det inte drabba dig.</lg>"
        },
        {
            "chapter": 91,
            "verse": 8,
            "name": "Psalms 91:8",
            "text": "<l level=\"1\">Med egna \u00f6gon skall du sehur de ogudaktiga f\u00e5r sitt straff.</lg>"
        },
        {
            "chapter": 91,
            "verse": 9,
            "name": "Psalms 91:9",
            "text": "<l level=\"1\">Ty du har sagt att Herren \u00e4r ditt skydd,du har gjort den H\u00f6gste till din tillflykt.</lg>"
        },
        {
            "chapter": 91,
            "verse": 10,
            "name": "Psalms 91:10",
            "text": "<l level=\"1\">Ingen olycka skall drabba dig,ingen pl\u00e5ga n\u00e4rma sig din hydda.</lg>"
        },
        {
            "chapter": 91,
            "verse": 11,
            "name": "Psalms 91:11",
            "text": "<l level=\"1\">Ty han skall ge sina \u00e4nglar befallning om digatt bevara dig p\u00e5 alla dina v\u00e4gar.</lg>"
        },
        {
            "chapter": 91,
            "verse": 12,
            "name": "Psalms 91:12",
            "text": "<l level=\"1\">De skall b\u00e4ra dig p\u00e5 h\u00e4nderna,s\u00e5 att du inte st\u00f6ter din fot mot n\u00e5gon sten.</lg>"
        },
        {
            "chapter": 91,
            "verse": 13,
            "name": "Psalms 91:13",
            "text": "<l level=\"1\">\u00d6ver lejon och huggormar skall du g\u00e5 fram,du skall trampa ner unga lejon och drakar.</lg>"
        },
        {
            "chapter": 91,
            "verse": 14,
            "name": "Psalms 91:14",
            "text": "<l level=\"1\">\"Han h\u00e5ller mig k\u00e4r och jag skall befria honom, jag skall beskydda honom,ty han k\u00e4nner mitt namn.</lg>"
        },
        {
            "chapter": 91,
            "verse": 15,
            "name": "Psalms 91:15",
            "text": "<l level=\"1\">Han ropar till mig och jag svarar honom.Jag \u00e4r med honom i n\u00f6den,jag skall r\u00e4dda honom och ge honom \u00e4ra.</lg>"
        },
        {
            "chapter": 91,
            "verse": 16,
            "name": "Psalms 91:16",
            "text": "<l level=\"1\">Jag skall m\u00e4tta honom med l\u00e5ngt livoch l\u00e5ta honom se min fr\u00e4lsning.\"</lg>"
        }
    ]
}