{
    "translation": "Cornilescu",
    "abbreviation": "cornilescu",
    "lang": "ro",
    "language": "Romanian",
    "direction": "LTR",
    "encoding": "UTF-8",
    "book_nr": 23,
    "book_name": "Isaiah",
    "chapter": 13,
    "name": "Isaiah 13",
    "verses": [
        {
            "chapter": 13,
            "verse": 1,
            "name": "Isaiah 13:1",
            "text": "Prorocie \u00eempotriva Babilonului, descoperit\u0103 lui Isaia, fiul lui Amo\u0163."
        },
        {
            "chapter": 13,
            "verse": 2,
            "name": "Isaiah 13:2",
            "text": "Ridica\u0163i un steag pe un munte gol, \u00een\u0103l\u0163a\u0163i glasul spre ei, face\u0163i semne cu m\u00e2na, ca s\u0103 vin\u0103 la por\u0163ile asupritorilor!"
        },
        {
            "chapter": 13,
            "verse": 3,
            "name": "Isaiah 13:3",
            "text": "\u201eAm dat porunc\u0103 sfintei Mele o\u015ftiri \u2013 zice Domnul \u2013, am chemat pe vitejii Mei la judecata m\u00e2niei Mele, pe cei ce se bucur\u0103 de m\u0103rimea Mea.\u201d"
        },
        {
            "chapter": 13,
            "verse": 4,
            "name": "Isaiah 13:4",
            "text": "Un vuiet se aude pe mun\u0163i, ca vuietul de popor mult; se aude o zarv\u0103 de \u00eemp\u0103r\u0103\u0163ii, de neamuri adunate. Domnul o\u015ftirilor \u00ce\u015fi cerceteaz\u0103 oastea care va da lupta."
        },
        {
            "chapter": 13,
            "verse": 5,
            "name": "Isaiah 13:5",
            "text": "Ei vin dintr-o \u0163ar\u0103 dep\u0103rtat\u0103, de la marginea cerurilor: Domnul \u015fi uneltele m\u00e2niei Lui vor nimici tot p\u0103m\u00e2ntul."
        },
        {
            "chapter": 13,
            "verse": 6,
            "name": "Isaiah 13:6",
            "text": "Geme\u0163i, c\u0103ci ziua Domnului este aproape: ea vine ca o pustiire a Celui Atotputernic!"
        },
        {
            "chapter": 13,
            "verse": 7,
            "name": "Isaiah 13:7",
            "text": "De aceea, toate m\u00e2inile sl\u0103besc \u015fi orice inim\u0103 omeneasc\u0103 se tope\u015fte."
        },
        {
            "chapter": 13,
            "verse": 8,
            "name": "Isaiah 13:8",
            "text": "Ei sunt n\u0103p\u0103di\u0163i de spaim\u0103; \u00eei apuc\u0103 chinurile \u015fi durerile; se zv\u00e2rcolesc ca o femeie \u00een durerile na\u015fterii; se uit\u0103 unii la al\u0163ii \u00eencremeni\u0163i; fe\u0163ele lor sunt ro\u015fii ca focul."
        },
        {
            "chapter": 13,
            "verse": 9,
            "name": "Isaiah 13:9",
            "text": "Iat\u0103, vine Ziua Domnului, zi f\u0103r\u0103 mil\u0103, zi de m\u00e2nie \u015fi urgie aprins\u0103, care va preface tot p\u0103m\u00e2ntul \u00een pustiu \u015fi va nimici pe to\u0163i p\u0103c\u0103to\u015fii de pe el."
        },
        {
            "chapter": 13,
            "verse": 10,
            "name": "Isaiah 13:10",
            "text": "C\u0103ci stelele cerurilor \u015fi Orionul nu vor mai str\u0103luci; soarele se va \u00eentuneca la r\u0103s\u0103ritul lui \u015fi luna nu va mai lumina."
        },
        {
            "chapter": 13,
            "verse": 11,
            "name": "Isaiah 13:11",
            "text": "\u201eVoi pedepsi \u2013 zice Domnul \u2013 lumea pentru r\u0103utatea ei \u015fi pe cei r\u0103i pentru nelegiuirile lor; voi face s\u0103 \u00eenceteze m\u00e2ndria celor trufa\u015fi \u015fi voi dobor\u00ee seme\u0163ia celor asupritori."
        },
        {
            "chapter": 13,
            "verse": 12,
            "name": "Isaiah 13:12",
            "text": "Voi face pe oameni mai rari dec\u00e2t aurul curat \u015fi mai scumpi dec\u00e2t aurul din Ofir."
        },
        {
            "chapter": 13,
            "verse": 13,
            "name": "Isaiah 13:13",
            "text": "Pentru aceasta voi cl\u0103tina cerurile \u015fi p\u0103m\u00e2ntul se va zgudui din temelia lui, de m\u00e2nia Domnului o\u015ftirilor, \u00een ziua m\u00e2niei Lui aprinse."
        },
        {
            "chapter": 13,
            "verse": 14,
            "name": "Isaiah 13:14",
            "text": "Atunci, ca o c\u0103prioar\u0103 speriat\u0103, ca o turm\u0103 f\u0103r\u0103 p\u0103stor, fiecare se va \u00eentoarce la poporul s\u0103u, fiecare va fugi \u00een \u0163ara lui."
        },
        {
            "chapter": 13,
            "verse": 15,
            "name": "Isaiah 13:15",
            "text": "To\u0163i cei ce vor fi prin\u015fi vor fi str\u0103pun\u015fi \u015fi to\u0163i cei ce vor fi apuca\u0163i vor c\u0103dea uci\u015fi de sabie."
        },
        {
            "chapter": 13,
            "verse": 16,
            "name": "Isaiah 13:16",
            "text": "Copiii lor vor fi zdrobi\u0163i sub ochii lor, casele le vor fi jefuite \u015fi nevestele lor vor fi necinstite."
        },
        {
            "chapter": 13,
            "verse": 17,
            "name": "Isaiah 13:17",
            "text": "Iat\u0103, a\u0163\u00e2\u0163 \u00eempotriva lor pe mezi, care nu se uit\u0103 la argint \u015fi nu poftesc aurul."
        },
        {
            "chapter": 13,
            "verse": 18,
            "name": "Isaiah 13:18",
            "text": "Cu arcurile lor vor dobor\u00ee pe tineri \u015fi vor fi f\u0103r\u0103 mil\u0103 pentru rodul p\u00e2ntecelor: ochiul lor nu va cru\u0163a pe copii."
        },
        {
            "chapter": 13,
            "verse": 19,
            "name": "Isaiah 13:19",
            "text": "\u015ei astfel, Babilonul, podoaba \u00eemp\u0103ra\u0163ilor, falnica m\u00e2ndrie a caldeenilor, va fi ca Sodoma \u015fi Gomora, pe care le-a nimicit Dumnezeu."
        },
        {
            "chapter": 13,
            "verse": 20,
            "name": "Isaiah 13:20",
            "text": "El nu va mai fi locuit, nu va mai fi niciodat\u0103 popor \u00een el. Arabul nu-\u015fi va mai \u00eentinde cortul acolo \u015fi p\u0103storii nu-\u015fi vor mai \u0163\u0103rcui turmele acolo,"
        },
        {
            "chapter": 13,
            "verse": 21,
            "name": "Isaiah 13:21",
            "text": "ci fiarele pustiei \u00ee\u015fi vor face culcu\u015ful acolo, bufni\u0163ele \u00eei vor umple casele, stru\u0163ii vor locui acolo \u015fi stafiile se vor juca acolo."
        },
        {
            "chapter": 13,
            "verse": 22,
            "name": "Isaiah 13:22",
            "text": "\u015eacalii vor urla \u00een casele lui \u00eemp\u0103r\u0103te\u015fti pustii \u015fi c\u00e2inii s\u0103lbatici, \u00een casele lui de petrecere. Vremea lui este aproape s\u0103 vin\u0103 \u015fi zilele nu i se vor lungi.\u201d "
        }
    ]
}