{
    "translation": "Shona Bible",
    "abbreviation": "shona",
    "lang": "sn",
    "language": "Shona",
    "direction": "LTR",
    "encoding": "UTF-8",
    "book_nr": 15,
    "book_name": "Ezra",
    "chapter": 10,
    "name": "Ezra 10",
    "verses": [
        {
            "chapter": 10,
            "verse": 1,
            "name": "Ezra 10:1",
            "text": ""
        },
        {
            "chapter": 10,
            "verse": 2,
            "name": "Ezra 10:2",
            "text": ""
        },
        {
            "chapter": 10,
            "verse": 3,
            "name": "Ezra 10:3",
            "text": ""
        },
        {
            "chapter": 10,
            "verse": 4,
            "name": "Ezra 10:4",
            "text": ""
        },
        {
            "chapter": 10,
            "verse": 5,
            "name": "Ezra 10:5",
            "text": ""
        },
        {
            "chapter": 10,
            "verse": 6,
            "name": "Ezra 10:6",
            "text": ""
        },
        {
            "chapter": 10,
            "verse": 7,
            "name": "Ezra 10:7",
            "text": ""
        },
        {
            "chapter": 10,
            "verse": 8,
            "name": "Ezra 10:8",
            "text": ""
        },
        {
            "chapter": 10,
            "verse": 9,
            "name": "Ezra 10:9",
            "text": ""
        },
        {
            "chapter": 10,
            "verse": 10,
            "name": "Ezra 10:10",
            "text": ""
        },
        {
            "chapter": 10,
            "verse": 11,
            "name": "Ezra 10:11",
            "text": ""
        },
        {
            "chapter": 10,
            "verse": 12,
            "name": "Ezra 10:12",
            "text": ""
        },
        {
            "chapter": 10,
            "verse": 13,
            "name": "Ezra 10:13",
            "text": ""
        },
        {
            "chapter": 10,
            "verse": 14,
            "name": "Ezra 10:14",
            "text": ""
        },
        {
            "chapter": 10,
            "verse": 15,
            "name": "Ezra 10:15",
            "text": ""
        },
        {
            "chapter": 10,
            "verse": 16,
            "name": "Ezra 10:16",
            "text": ""
        },
        {
            "chapter": 10,
            "verse": 17,
            "name": "Ezra 10:17",
            "text": ""
        },
        {
            "chapter": 10,
            "verse": 18,
            "name": "Ezra 10:18",
            "text": ""
        },
        {
            "chapter": 10,
            "verse": 19,
            "name": "Ezra 10:19",
            "text": ""
        },
        {
            "chapter": 10,
            "verse": 20,
            "name": "Ezra 10:20",
            "text": ""
        },
        {
            "chapter": 10,
            "verse": 21,
            "name": "Ezra 10:21",
            "text": ""
        },
        {
            "chapter": 10,
            "verse": 22,
            "name": "Ezra 10:22",
            "text": ""
        },
        {
            "chapter": 10,
            "verse": 23,
            "name": "Ezra 10:23",
            "text": ""
        },
        {
            "chapter": 10,
            "verse": 24,
            "name": "Ezra 10:24",
            "text": ""
        },
        {
            "chapter": 10,
            "verse": 25,
            "name": "Ezra 10:25",
            "text": ""
        },
        {
            "chapter": 10,
            "verse": 26,
            "name": "Ezra 10:26",
            "text": ""
        },
        {
            "chapter": 10,
            "verse": 27,
            "name": "Ezra 10:27",
            "text": ""
        },
        {
            "chapter": 10,
            "verse": 28,
            "name": "Ezra 10:28",
            "text": ""
        },
        {
            "chapter": 10,
            "verse": 29,
            "name": "Ezra 10:29",
            "text": ""
        },
        {
            "chapter": 10,
            "verse": 30,
            "name": "Ezra 10:30",
            "text": ""
        },
        {
            "chapter": 10,
            "verse": 31,
            "name": "Ezra 10:31",
            "text": ""
        },
        {
            "chapter": 10,
            "verse": 32,
            "name": "Ezra 10:32",
            "text": ""
        },
        {
            "chapter": 10,
            "verse": 33,
            "name": "Ezra 10:33",
            "text": ""
        },
        {
            "chapter": 10,
            "verse": 34,
            "name": "Ezra 10:34",
            "text": ""
        },
        {
            "chapter": 10,
            "verse": 35,
            "name": "Ezra 10:35",
            "text": ""
        },
        {
            "chapter": 10,
            "verse": 36,
            "name": "Ezra 10:36",
            "text": ""
        },
        {
            "chapter": 10,
            "verse": 37,
            "name": "Ezra 10:37",
            "text": ""
        },
        {
            "chapter": 10,
            "verse": 38,
            "name": "Ezra 10:38",
            "text": ""
        },
        {
            "chapter": 10,
            "verse": 39,
            "name": "Ezra 10:39",
            "text": ""
        },
        {
            "chapter": 10,
            "verse": 40,
            "name": "Ezra 10:40",
            "text": ""
        },
        {
            "chapter": 10,
            "verse": 41,
            "name": "Ezra 10:41",
            "text": ""
        },
        {
            "chapter": 10,
            "verse": 42,
            "name": "Ezra 10:42",
            "text": ""
        },
        {
            "chapter": 10,
            "verse": 43,
            "name": "Ezra 10:43",
            "text": ""
        },
        {
            "chapter": 10,
            "verse": 44,
            "name": "Ezra 10:44",
            "text": ""
        }
    ]
}