{
  "translation": "Bible in Pohnpeian language",
  "abbreviation": "pohnpeian",
  "lang": "pon",
  "language": "Pohnpeian",
  "direction": "LTR",
  "encoding": "UTF-8",
  "nr": 51,
  "name": "Colossians",
  "chapters": [
    {
      "chapter": 1,
      "name": "Colossians 1",
      "verses": [
        {
          "chapter": 1,
          "verse": 1,
          "name": "Colossians 1:1",
          "text": "Sang Pohl me wiahla wahnpoaron en Krais Sises pwehki kupwur en Koht, oh sang riatail souleng Timoty-  "
        },
        {
          "chapter": 1,
          "verse": 2,
          "name": "Colossians 1:2",
          "text": "  Ong sapwellimen Koht aramas akan me kin koukousoan nan Kolose, riat souleng kan me kin loalopwoat oh miniminiong Krais:   Samatail Koht en ketikihong kumwail kalahngan oh popohl.  "
        },
        {
          "chapter": 1,
          "verse": 3,
          "name": "Colossians 1:3",
          "text": "    Se kin poaden kapingkalahngan ong Koht, Semen atail Kaun Sises Krais, ni at kin kapakapkin kumwail."
        },
        {
          "chapter": 1,
          "verse": 4,
          "name": "Colossians 1:4",
          "text": "Pwe se rongehr duwen amwail pwoson Krais Sises, oh amwail limpoak ong sapwellimen Koht aramas akan koaros."
        },
        {
          "chapter": 1,
          "verse": 5,
          "name": "Colossians 1:5",
          "text": "Ni ahnsou me mahsen mehlelo, iei Rongamwahu, lelohngkumwailehr, kumwail pil rongehr duwen koapworopwor me e kihong kumwail. Eri, amwail pwoson oh limpoak kin poahsoankihda dahme kumwail kin koapworopworki, me nekinek mwahu ong kumwail nanleng."
        },
        {
          "chapter": 1,
          "verse": 6,
          "name": "Colossians 1:6",
          "text": "Rongamwahu kin wahdo kapai kan, oh e kin lolohkseli wasa koaros nin sampah; duwehte eh pil wiawihier nanpwungamwail sangete ni rahn me kumwail tepin rongada kalahngan en Koht oh wehwehkihla mwahu duwe."
        },
        {
          "chapter": 1,
          "verse": 7,
          "name": "Colossians 1:7",
          "text": "Kumwail padahngkiher duwen sapwellimen Koht kupwurkalahngan sang rehn Epapras, kompoakepatail ladu, tohndoadoahk loalopwoat emen me sewesewesei kumwail ni doadoahk en Krais. "
        },
        {
          "chapter": 1,
          "verse": 8,
          "name": "Colossians 1:8",
          "text": "Iei ih me koasoiaiong kiht duwen limpoak me Ngehn Sarawio ketikihongkumwailehr.  "
        },
        {
          "chapter": 1,
          "verse": 9,
          "name": "Colossians 1:9",
          "text": "  Pwehki sang ni kahrepe wet, se kin poaden kapakapkin kumwail ahnsou koaros, sangete ni ahnsou me se rongada duwen kumwail. Se kin peki Koht en ketin audehkinkumwailda kupwure iangahki erpit koaros oh marain sang rehn Ngehno."
        },
        {
          "chapter": 1,
          "verse": 10,
          "name": "Colossians 1:10",
          "text": "Eri, kumwail ahpw pahn kak momour nin duwen me Kaun-o kin ketin kupwurki, oh pil wiewia dahme e kin ketin kupwurperenki. Amwail mour pahn kasalehda wa mwahu ni soangen doadoahk mwahu koaros, oh kumwail pil pahn kekeirda ni amwail marainkihla Koht."
        },
        {
          "chapter": 1,
          "verse": 11,
          "name": "Colossians 1:11",
          "text": "Se pil peki kumwail en kehlailkihda soangen kehlail koaros me kin pwilisang ni sapwellime roson lingan, pwe kumwail en kak nannanti nan apwal akan koaros ni kanengamah,"
        },
        {
          "chapter": 1,
          "verse": 12,
          "name": "Colossians 1:12",
          "text": "oh perenki amwail kapinga Koht, me ketin kaitarkumwaillahr, pwe kumwail en iang ahneki dahme Koht ketin nekinekid ong sapwellime aramas akan nan wehin marain."
        },
        {
          "chapter": 1,
          "verse": 13,
          "name": "Colossians 1:13",
          "text": "E ketin kapitkitailsang pahn manaman en rotorot, oh ketin kahreikitaildohng nan wehin Sapwellime Iehros kompoak,"
        },
        {
          "chapter": 1,
          "verse": 14,
          "name": "Colossians 1:14",
          "text": "iei ih me ketin kasaledengkitailla me wehwehki e ketin lapwahsang dipatail kan.    "
        },
        {
          "chapter": 1,
          "verse": 15,
          "name": "Colossians 1:15",
          "text": "    Krais me kasalepen Koht me soh sansal; iei ih me mesenih oh lapalap sang soahng kan koaros me kepikipikda. "
        },
        {
          "chapter": 1,
          "verse": 16,
          "name": "Colossians 1:16",
          "text": "Pwehki Krais Koht ketin kapikada soahng koaros me mi nanleng oh sampah, mehkan me sansal oh pil mehkan me soh sansal, iangahki ngehn manaman akan, ngehn me kaun akan, ngehn me soumas akan, oh ngehn me lapalap akan. Eri, Koht ketin kapikada audepen lahng oh sampah rehn Krais oh pil pwehki ih."
        },
        {
          "chapter": 1,
          "verse": 17,
          "name": "Colossians 1:17",
          "text": "Krais ketiketier mwohn mehkoaros, oh mehkoaros kin soandi mwahu pwehki ih."
        },
        {
          "chapter": 1,
          "verse": 18,
          "name": "Colossians 1:18",
          "text": "Ih me tapwin paliwere, iei mwomwohdiso; oh mouren waro kin pwilisang reh. Ih me mesenih, me iasadasangehr mehla, pwe ihete me kohmwowehn mehkoaros. "
        },
        {
          "chapter": 1,
          "verse": 19,
          "name": "Colossians 1:19",
          "text": "Eri, ih duwen kupwur en Koht, pwe sapwellimeo en sapwellimaniki uhdahn roson unsek en Seme."
        },
        {
          "chapter": 1,
          "verse": 20,
          "name": "Colossians 1:20",
          "text": "Oh Koht pil ketin kupwukupwure en ketin kasapahldohng audepen lahng oh sampah ong pein ih sang rehn Sapwellimeo. Eri, sang ni pwoulahn sapwellimeo nin lohpwu popohl en Koht pwarodohngkitailehr, oh ih duwen eh pil ketin kasapahldohngehr reh mehkoaros nin sampah oh pil nanleng.   "
        },
        {
          "chapter": 1,
          "verse": 21,
          "name": "Colossians 1:21",
          "text": "  Mahso kumwail dohsang Koht, oh pwehki amwail wiewia sapwung kan oh lamalam suwed akan, kumwail wialahr imwintihti en Koht."
        },
        {
          "chapter": 1,
          "verse": 22,
          "name": "Colossians 1:22",
          "text": "A met, sang ni pwoulahn kahlep en Sapwellime Iehros, Koht ketin wiahkinkumwaillahr kompoakepah, pwe en kasarawihkumwailla, kamwakeleikumwailda, kamineikumwailla, oh kahredohng kumwail mwohn silangi."
        },
        {
          "chapter": 1,
          "verse": 23,
          "name": "Colossians 1:23",
          "text": "Ahpw mehlel kumwail en nantihong oh loalopwoatohng poahsoan mehlelo, oh dehr kesehla koapworopworo me kumwail aleier ni amwail rongadahr rongamwahwo. Iei rongamwahu wet me padahkpe wiawihongehr aramas akan koaros nin sampah, oh me ngehi, Pohl, pil wialahr ladupe.   "
        },
        {
          "chapter": 1,
          "verse": 24,
          "name": "Colossians 1:24",
          "text": "    Eri met, I perenki ei lokolongkin kumwail, pwehki sang ni lokolok en paliwereiet I kin iang sewese kaunsekala dahme luhwehdi sang sapwellimen Krais lokolok kan pwehki paliwere, me iei mwomwohdiso."
        },
        {
          "chapter": 1,
          "verse": 25,
          "name": "Colossians 1:25",
          "text": "Oh Koht ketikidohr pweisei pwe I en papah mwomwohdiso oh sewesei kumwail. Eri, iei ei doadoahk: I en kalohkiseli sapwellime mahsen unsek,"
        },
        {
          "chapter": 1,
          "verse": 26,
          "name": "Colossians 1:26",
          "text": "me pein ih ketin karirihala sang aramas akan koaros sang nin tepin kawa; ahpw met e ketin kasalehiong sapwellime aramas akan."
        },
        {
          "chapter": 1,
          "verse": 27,
          "name": "Colossians 1:27",
          "text": "Pwe iei met duwen kupwur en Koht: pwe en ketin kehsehki sapwellime aramas akan duwen sapwellime kupwur rir wet me inenen kapai oh lingan, me e ketin nekinekidohng aramas koaros. Eri, iet sapwellime kupwur rir: Krais kin ketiket loalamwail, met wehwehki me kumwail pahn ahnekipene sapwellimen Koht lingan."
        },
        {
          "chapter": 1,
          "verse": 28,
          "name": "Colossians 1:28",
          "text": "Eri, se kin kalohkiwei duwen Krais ong aramas koaros; se kin panawih oh padahkih aramas koaros nin duwen soangen loalokong koaros me se kakohng, pwe re en koahiengkihla arail miniminiong Krais, oh pakahrdohng mwohn silangin Koht."
        },
        {
          "chapter": 1,
          "verse": 29,
          "name": "Colossians 1:29",
          "text": "I kin wia doadoahk laud oh apwal pwe I en kapwaiada ei kohwa wet. I kin doadoahngki sapwellimen Krais roson lapalap me kin doadoahk loalei.   "
        }
      ]
    },
    {
      "chapter": 2,
      "name": "Colossians 2",
      "verses": [
        {
          "chapter": 2,
          "verse": 1,
          "name": "Colossians 2:1",
          "text": "I men ndaiong kumwail duwen ei doadoahk laud kin kumwail, iangahki mehn Laodisia kan, oh pil meteikan koaros me saikinte kilang ie."
        },
        {
          "chapter": 2,
          "verse": 2,
          "name": "Colossians 2:2",
          "text": "I kin wia doadoahk wet pwe re en kak nan kapehd kehlail, oh re en patpene ni limpoak pwe ih duwen arail pahn ahnekipene koapworopwor unsek me kin pwilisang ni atail marainkihla me mehlelo. Eri, irail pahn ese sapwellimen Koht kupwur riro, me iei Krais."
        },
        {
          "chapter": 2,
          "verse": 3,
          "name": "Colossians 2:3",
          "text": "Iei ih me kak kasalehda sapwellimen Koht kapai rir kan koaros me kin pwilisang ni sapwellimen Koht erpit oh kupwurokong unsek.  "
        },
        {
          "chapter": 2,
          "verse": 4,
          "name": "Colossians 2:4",
          "text": "  Eri, I men ndaiong kumwail: kumwail dehr mweidohng emen en pitihekin kumwail akamai likamw kan, mehnda ma ngoararail kan me mwahu."
        },
        {
          "chapter": 2,
          "verse": 5,
          "name": "Colossians 2:5",
          "text": "Pwe I kin ieiang kumwail ni pali ngehn, mehnda ma I sohte kin mihmi rehmwail ni paliwar; oh I perenki ei rong duwen amwail tengeteng oh kehlail oh miniminpene ni amwail pwoson Krais.   "
        },
        {
          "chapter": 2,
          "verse": 6,
          "name": "Colossians 2:6",
          "text": "    Nin duwen amwail wiahkilahr Krais Sises amwail Kaun, kumwail en weweidki ih ni amwail miniminiong ih."
        },
        {
          "chapter": 2,
          "verse": 7,
          "name": "Colossians 2:7",
          "text": "Mourimwail en poadidiong reh, en pil kekeirkihda ih, oh amwail pwoson en kin kehlailla mehlel nin duwen me kumwail padahngkiher; oh kumwail en audaudki kapingkalahngan.  "
        },
        {
          "chapter": 2,
          "verse": 8,
          "name": "Colossians 2:8",
          "text": "  Eri, kumwail kanahieng pwe emen de pitihkinkumwaildi loalokong widing mwahl en aramas akan, me re kin alehdi sang ni padahk kodoudou en mehn kawa ko, oh sang rehn ngehn suwed akan me kin kakaun wasa nin sampah, a kaidehn sang rehn Krais."
        },
        {
          "chapter": 2,
          "verse": 9,
          "name": "Colossians 2:9",
          "text": "Pwe Krais kin ieiaski roson unsek en Koht ni eh wiearamasala;"
        },
        {
          "chapter": 2,
          "verse": 10,
          "name": "Colossians 2:10",
          "text": "oh kumwail pil iang pwaisanki roson wet ni amwail miniminiong ih; pwe ih me ketin kaunda soangen ngehn koaros me kakaun oh manaman.  "
        },
        {
          "chapter": 2,
          "verse": 11,
          "name": "Colossians 2:11",
          "text": "  Eri, ni amwail miniminiong Krais kumwail sirkumsaislahr, kaidehk sirkumsais me aramas kin wia, ahpw sirkumsais me Krais kin wia, me kasaledekihkitailla sang manaman en paliwaratail dipan akan."
        },
        {
          "chapter": 2,
          "verse": 12,
          "name": "Colossians 2:12",
          "text": "Pwe ni amwail papidaislahr, kumwail iangalahr Krais seridi; oh ni amwail papidaislahr, kumwail pil iangehr Krais iasada sang mehla, pwehki amwail pwoson sapwellimen Koht manamano me ketin kaiasada ih sang mehla. "
        },
        {
          "chapter": 2,
          "verse": 13,
          "name": "Colossians 2:13",
          "text": "Mahso kumwail mehkilahr dipamwail kan ni pali ngehn, oh pil pwehki amwail sohte ahneki Kosonnedo. Ahpw met, Koht ketikihongehr Krais mour iangahkin kumwail. Koht ketin kupwur mahkikihongkitailehr dipatail kan koaros. "
        },
        {
          "chapter": 2,
          "verse": 14,
          "name": "Colossians 2:14",
          "text": "E ketin kasohrehla neitail doaropwehn pweipwand akan me kin uhwong kitail, iangahki kosonnedpe kan; e ketin kasohrehla douluhl doaropwe wet ni eh ketin posdahng nin lohpwuwo. "
        },
        {
          "chapter": 2,
          "verse": 15,
          "name": "Colossians 2:15",
          "text": "Oh nin lohpwuwo Krais ketin kasohrehla manaman en ngehn akan me kakaun oh manaman; e ketin kasaleirailda mwohn pokon sansal pwe aramas akan en ese me pein ih poweiraildier oh kaliduwihirailla.  "
        },
        {
          "chapter": 2,
          "verse": 16,
          "name": "Colossians 2:16",
          "text": "  Eri, kaleke emen wiahda kosonned me pahn pid dahme kumwail en kang de nim, de iren rahn sarawi kan, de kaudok en maram pwul kan, de rahnen Sapad kan. "
        },
        {
          "chapter": 2,
          "verse": 17,
          "name": "Colossians 2:17",
          "text": "Soahng pwukat koaros mwetehn soahng me pahn pwarodo, a uhdahn waro, iei Krais."
        },
        {
          "chapter": 2,
          "verse": 18,
          "name": "Colossians 2:18",
          "text": "Kaleke emen pil kauweikumwailla, ni eh kin kosekosehiong pein ih me e me lapalap, pwehki kaudiahl kei me kohiengehr, oh ni eh kin mwomwmwomwen aktikitik likamw oh pwongih tohnleng kan. Soangen aramas menet kin aklapalapki pein eh lamalam, ahpw ni mehlel sohte kahrepe."
        },
        {
          "chapter": 2,
          "verse": 19,
          "name": "Colossians 2:19",
          "text": "E sohte kin poadidiong Krais, me tapwin mwomwohdiso. Pahn manaman en Krais waro pwon kin momour oh tengetengkipene kakone kan oh selin nan paliwar akan; oh e kin kekeirda nin duwen kupwur en Koht.    "
        },
        {
          "chapter": 2,
          "verse": 20,
          "name": "Colossians 2:20",
          "text": "    Eri, kumwail iangehr Krais pwoula, oh met kumwail saledeksangehr manaman en ngehn akan me kakaun nanleng oh sampah. Eri, dahme kahrehda likamwete kumwail pil kin momour nin duwen aramas en sampah wet? Dahme kahrehda kumwail kin peikikihong soangen kosonned me duwehte mepwukat:"
        },
        {
          "chapter": 2,
          "verse": 21,
          "name": "Colossians 2:21",
          "text": "\u201cKumwail dehr doadoahngki men,\u201d \u201cKumwail dehr song men,\u201d de \u201cKumwail dehr sair men\u201d?"
        },
        {
          "chapter": 2,
          "verse": 22,
          "name": "Colossians 2:22",
          "text": "Ni en aramas ar kin doadoahngki soahng pwukat, re kin diarada me sohte katepe; pwe soahng pwukat iei kosonned en aramas oh padahk en aramas."
        },
        {
          "chapter": 2,
          "verse": 23,
          "name": "Colossians 2:23",
          "text": "Aramas kin lemeleme me irail kan me wiahda kosonned pwukat me erpit, ahpw soh, re mwomwen idingohng aramas en pwongih tohnleng kan, de mwomwen mpahi likamw, de wia kaisihsol likamw en paliwar; ahpw uhdahn sohte kateparail ni ar pahn kakaun ineng en paliwaratail.   "
        }
      ]
    },
    {
      "chapter": 3,
      "name": "Colossians 3",
      "verses": [
        {
          "chapter": 3,
          "verse": 1,
          "name": "Colossians 3:1",
          "text": "Kumwail iangehr Krais iasada. Eri, kumwail kainenehda amwail lamalam akan ong ni mehkan me mi nanleng, wasa me Krais kin ketiket ie pohn mwoale ni palimaun en Koht. "
        },
        {
          "chapter": 3,
          "verse": 2,
          "name": "Colossians 3:2",
          "text": "Kumwail perenki medemedewe duwen soahng kan me mi wasao, kaidehn mehkan me mi sampah wet."
        },
        {
          "chapter": 3,
          "verse": 3,
          "name": "Colossians 3:3",
          "text": "Pwe kumwail melahr, oh mourimwail iangehr Krais nekinekla rehn Koht."
        },
        {
          "chapter": 3,
          "verse": 4,
          "name": "Colossians 3:4",
          "text": "Amwail mour mehlel, iei Krais; oh ni eh pahn sansalada, kumwail pil pahn iang sansalada oh iang ahneki sapwellime lingan!   "
        },
        {
          "chapter": 3,
          "verse": 5,
          "name": "Colossians 3:5",
          "text": "    Eri, kumwail uhdahn pahn kemehla ineng kan en sampah me kin wie doadoahk loalamwail, eri, iet akan; kamwahl, sarsuwed, ineng suwed, oh noahrok kepwe (pwe noahrok kepwe iei ehu soangen kaudok ong dikedik en eni kan)."
        },
        {
          "chapter": 3,
          "verse": 6,
          "name": "Colossians 3:6",
          "text": "Eri, pwehki soahng pwukat engieng en Koht pahn lelohng irail kan me sohte kin peikiong."
        },
        {
          "chapter": 3,
          "verse": 7,
          "name": "Colossians 3:7",
          "text": "Pein kumwail momourkiher soahng pwukat mahso, ni ahnsou me soangen ineng pwukat kin kakaun mourimwail kan.  "
        },
        {
          "chapter": 3,
          "verse": 8,
          "name": "Colossians 3:8",
          "text": "  Eri, met kumwail uhdahn pahn mweisang soahng pwukat koaros: iei lingeringer, ineng suwed oh kailok. Lokaiahn kailok de samin en dehr pwilisang nan awamwail kan."
        },
        {
          "chapter": 3,
          "verse": 9,
          "name": "Colossians 3:9",
          "text": "Kumwail dehr kin kine likamw nanpwungamwail, pwe kumwail pwilikidier mour mering en mahso iangahki eh wiewia kan; "
        },
        {
          "chapter": 3,
          "verse": 10,
          "name": "Colossians 3:10",
          "text": "oh met kumwail pwuhriongehr nan likoun mour kapw en aramas kapw. Iei aramas kapw me Koht, Sounwiepe, kin ketin onohne sapahl ahnsou koaros nin duwen pein sapwellime roson, pwe en ketin kamakamarainihekin kumwail duwen pein ih. "
        },
        {
          "chapter": 3,
          "verse": 11,
          "name": "Colossians 3:11",
          "text": "Eri, pwehki met, solahr mehkot mie me kin katohrepeseng mehn liki oh mehn Suhs, me sirkumsaisla de sohte sirkumsaisla kan, me rotorot akan, de mehn wai kan, lidu de me saledek kan; ahpw Krais ketin oarepene mehkoaros; pwe ihte Krais me kesempwal: ih me soahng koaros oh e kin ketiket nan mehkoaros.  "
        },
        {
          "chapter": 3,
          "verse": 12,
          "name": "Colossians 3:12",
          "text": "  Kumwail sapwellimen Koht aramas; e ketin loalloalei kumwail oh ketin pilkumwailda pwe en sapwellimanikinkumwailla. Ihme kahrehda kumwail en limpoak ong me mi nan apwal akan, kadek, mpahi oh karakarahk, aktikitik oh kanengamah. "
        },
        {
          "chapter": 3,
          "verse": 13,
          "name": "Colossians 3:13",
          "text": "Kumwail en sawaspene oh mahkpene nanpwungamwail, ni emen rehmwail eh pahn kin kaulime emen. Kumwail uhdahn pahn mahkpene nanpwungamwail, nin duwen Kaun-o eh ketin mahkohngkumwailehr. "
        },
        {
          "chapter": 3,
          "verse": 14,
          "name": "Colossians 3:14",
          "text": "Eri, kumwail kapatahiong soahng pwukat limpoak, pwe ih me kin kapatapene oh oarepene mehkoaros pwe en wiahla ehu ni mehlel."
        },
        {
          "chapter": 3,
          "verse": 15,
          "name": "Colossians 3:15",
          "text": "Popohl en Krais en kin kakaun nan mohngiongimwail kan, pwe ong ni popohl wet me Koht ketin malipehkinkumwailpene pwe kumwail en wiahla warteieu. Eri, kumwail en kin kasapahlkalahngan ong Koht."
        },
        {
          "chapter": 3,
          "verse": 16,
          "name": "Colossians 3:16",
          "text": "Eri, mahsen en Krais oh kapai kan koaros en rongamwahu en kadireikumwailla. Kumwail padahkpene oh pil peneupene nanpwungamwail ni soangen loalokong koaros. Kumwail koulki koulen kaudok oh koul sarawi kan; kumwail kouliong Koht, kapinga ih nan mohngiongimwail kan. "
        },
        {
          "chapter": 3,
          "verse": 17,
          "name": "Colossians 3:17",
          "text": "Eri, soahng koaros me kumwail pahn kin wia de nda, en wiawi ni mwaren Kaun Sises, oh kumwail en pil kapikapinga Koht Sahm ni mwaren Sises.   "
        },
        {
          "chapter": 3,
          "verse": 18,
          "name": "Colossians 3:18",
          "text": "    Kumwail lih akan, kumwail peikiong amwail pwoud kan, pwe ih me kumwail uhdahn pahn wia nin duwen tiahk en souleng.   "
        },
        {
          "chapter": 3,
          "verse": 19,
          "name": "Colossians 3:19",
          "text": "  Kumwail ohl akan, kumwail en poakohng amwail pwoud kan, oh dehr lemeiong irail.   "
        },
        {
          "chapter": 3,
          "verse": 20,
          "name": "Colossians 3:20",
          "text": "  Kumwail seri kan, iei amwail pwukoa nin duwen tiahk en souleng: kumwail pahn kin peikiong amwail pahpa oh nohno kan, pwe iei me Koht kin ketin kupwurperenki.   "
        },
        {
          "chapter": 3,
          "verse": 21,
          "name": "Colossians 3:21",
          "text": "  Kumwail pahpa oh nohno kan, kumwail dehr kamwakara mwahl noumwail seri kan, pwe re dehr mworoasala.   "
        },
        {
          "chapter": 3,
          "verse": 22,
          "name": "Colossians 3:22",
          "text": "  Kumwail lidu kan, kumwail peikiong amwail soumas akan ni soahng koaros, kaidehn ni ahnsou me re kin mahmahsanih kumwail pwe kumwail en ale keniken rehrail, ahpw kumwail wia sang nan mohngiong mehlel, pwehki amwail wauneki Kaun-o. "
        },
        {
          "chapter": 3,
          "verse": 23,
          "name": "Colossians 3:23",
          "text": "Sohte lipilipil soahng da me kumwail kin wia, kumwail loalenohng duwehte ma kumwail wie doadoahk ong Kaun-o, ahpw kaidehn ong aramas."
        },
        {
          "chapter": 3,
          "verse": 24,
          "name": "Colossians 3:24",
          "text": "Kumwail en tamataman me Kaun-o pahn ketin katingih kumwail; kumwail ahpw pahn ale dahme e ketin nekinekidohng sapwellime aramas akan, pwe Krais, iei ih Kaun mehlel me kumwail kin papah."
        },
        {
          "chapter": 3,
          "verse": 25,
          "name": "Colossians 3:25",
          "text": "A me kin wia sapwung kan, sohte lipilipil ihs ih, pahn pein pwukoahki sapwung me e wiahda, pwe Koht kin ketin kadeik aramas koaros duwepenehte.    "
        }
      ]
    },
    {
      "chapter": 4,
      "name": "Colossians 4",
      "verses": [
        {
          "chapter": 4,
          "verse": 1,
          "name": "Colossians 4:1",
          "text": "Kumwail soumas akan, kumwail en pwung oh pahrek ni soahng koaros me kumwail kin wiahiong noumwail lidu kan. Tamataman me kumwail pil ahneki emen soumas me ketiket nanleng.    "
        },
        {
          "chapter": 4,
          "verse": 2,
          "name": "Colossians 4:2",
          "text": "    Kumwail ngidingidiong amwail kapakap, oh kumwail mwasamwasahn oh kapinga Koht ni amwail kin kapakap."
        },
        {
          "chapter": 4,
          "verse": 3,
          "name": "Colossians 4:3",
          "text": "Oh pil ni ahnsowohte kumwail pil kapakapkin kiht, pwe Koht en ketikihong kiht ahnsou mwahu en padahkihwei sapwellime mahseno, pwe se en kalohkiseli sapwellime kupwur rir duwen Krais. Pwe ihme kahrehda I mihmihki nan imweteng."
        },
        {
          "chapter": 4,
          "verse": 4,
          "name": "Colossians 4:4",
          "text": "Eri, kumwail kapakap pwe I en kak kawehwe ni sansal, nin duwen me konehng I en kin wia.  "
        },
        {
          "chapter": 4,
          "verse": 5,
          "name": "Colossians 4:5",
          "text": "  Kumwail kanahieng amwail wiewia kan mwohn irail kan me seupwoson, oh isaneki doadoahngki amwail ahnsou mwahu kan. "
        },
        {
          "chapter": 4,
          "verse": 6,
          "name": "Colossians 4:6",
          "text": "Amwail koasoi mwohn aramas en katapan oh kansenamwahu; oh kumwail uhdahn pahn ese duwen amwail pahn sapeng koaros ni pwung.    "
        },
        {
          "chapter": 4,
          "verse": 7,
          "name": "Colossians 4:7",
          "text": "    Riatail kompoak Dikikus, iangat ladu nan doadoahk en Kaun-o me inenen loalopwoat, pahn koasoiaiong kumwail soahng koaros duwen irei.  "
        },
        {
          "chapter": 4,
          "verse": 8,
          "name": "Colossians 4:8",
          "text": "Ihme kahrehda I kadarkihwei rehmwail, pwe en kaparankumwailda ni eh pahn koasoiaiong kumwail duwen irat."
        },
        {
          "chapter": 4,
          "verse": 9,
          "name": "Colossians 4:9",
          "text": "Onesimus me pahn iang, kompoakepatail oh riatail souleng me pil kin loalopwoat, iei ih me kisehmwail. Ira ahpw pahn koasoiaiong kumwail duwen soahng koaros me kin wiawi wasaht.   "
        },
        {
          "chapter": 4,
          "verse": 10,
          "name": "Colossians 4:10",
          "text": "  Aristarkus, me iang ie selidi, e pil kadarowei eh rahnmwahu ong kumwail; iangahki Mark, rien Parnapas. (Kumwail aleier koasoiepen duwen amwail pahn kasamwo Mark, ma e pahn pwarowei rehmwail.) "
        },
        {
          "chapter": 4,
          "verse": 11,
          "name": "Colossians 4:11",
          "text": "Sosua, me pil adaneki Sustus, pil kadarowohng kumwail eh rahnmwahu. Irail me silimenette sang rehn mehn Suhs me soulenglahr, ih irail me kin iang ie doadoahkohng Wehin Koht; oh irail inenen wia sawas laud ong ie.  "
        },
        {
          "chapter": 4,
          "verse": 12,
          "name": "Colossians 4:12",
          "text": "  Rahnmwahu sang Epapras, pil emen kisehmwail, oh ladun Krais Sises. E kin ngidingidki eh kapakapkin kumwail, pekipeki pwe Koht en ketin kolokol kumwail pwe kumwail en tengeteng nan amwail pwoson, nin duwen souleng me koahieklahr oh unseklahr mehlel kei, ni peik unsek ong kupwur en Koht. "
        },
        {
          "chapter": 4,
          "verse": 13,
          "name": "Colossians 4:13",
          "text": "Pein ngehi kak kadehdehda duwen eh doadoahk laud kin kumwail, iangahki aramas akan nan Laodisia oh Ierapolis."
        },
        {
          "chapter": 4,
          "verse": 14,
          "name": "Colossians 4:14",
          "text": "Luk, kompoakepatail toahkte, oh Demas, ira pil kadarowohng kumwail ara rahnmwahu.   "
        },
        {
          "chapter": 4,
          "verse": 15,
          "name": "Colossians 4:15",
          "text": "  Kumwail kihong riatail souleng kan nan Laodisia at rahnmwahu, oh pil ong Nimpa oh pil tohn mwomwohdiso me kin pokonpene nan imwe."
        },
        {
          "chapter": 4,
          "verse": 16,
          "name": "Colossians 4:16",
          "text": "Mwurin amwail pahn wadek kisinlikou kiset, kumwail pahn kadarowohng tohn mwomwohdisohn Laodisia pwe irail en pil iang wadek. Oh kumwail pil iang wadek kisinlikou me mwomwohdisohn Laodisia pahn kadarodohng kumwail."
        },
        {
          "chapter": 4,
          "verse": 17,
          "name": "Colossians 4:17",
          "text": "Oh kumwail padahkihong Arkipus: \u201cKe uhdahn pahn kapwaiada pwaisomw doadoahk nan doadoahk en Kaun-o.\u201d   "
        },
        {
          "chapter": 4,
          "verse": 18,
          "name": "Colossians 4:18",
          "text": "  Eri, sang ni mengin pehiet, I ntingihdier: ei rahnmwahu sang ngehi, Pohl. Kumwail dehr manokehla ei selmete kat!   Kalahngan en Koht en ieiang kumwail.     "
        }
      ]
    }
  ]
}
