{
  "translation": "Bible in Pohnpeian language",
  "abbreviation": "pohnpeian",
  "lang": "pon",
  "language": "Pohnpeian",
  "direction": "LTR",
  "encoding": "UTF-8",
  "nr": 55,
  "name": "2 Timothy",
  "chapters": [
    {
      "chapter": 1,
      "name": "2 Timothy 1",
      "verses": [
        {
          "chapter": 1,
          "verse": 1,
          "name": "2 Timothy 1:1",
          "text": "Sang Pohl, wahnpoaron en Krais Sises nin duwen kupwur en Koht, me aleier poaron en kalohkiseli duwen mour me e ketin inoukihongkitailehr, me kitail kin ahnekipene ni atail miniminiong Krais Sises-  "
        },
        {
          "chapter": 1,
          "verse": 2,
          "name": "2 Timothy 1:2",
          "text": "  Ong Timoty, nei pwutak kompoak:   Koht Samatail oh Krais Sises atail Kaun en ketin kupwureiuk oh ketikihong uhk kalahngan, mahk, oh popohl.   "
        },
        {
          "chapter": 1,
          "verse": 3,
          "name": "2 Timothy 1:3",
          "text": "    I kapingkalahngan ong Koht, me I kin papah ni kapehd mwakelekel, duwehte me ei pahpa kahlap ako wiahier. I pil kin kapingkalahngan ong Koht ni ei kin taman uhk ahnsou koaros nan ei kapakap akan nipwong oh pil nin rahn."
        },
        {
          "chapter": 1,
          "verse": 4,
          "name": "2 Timothy 1:4",
          "text": "I kin tamataman pilen mesomw kan, oh I pil men pwurehng tuhwong uhk, pwe I en direkihla peren."
        },
        {
          "chapter": 1,
          "verse": 5,
          "name": "2 Timothy 1:5",
          "text": "I tamataman pwoson mehlel me ke ahneki, soangen pwoson me omw nohno kahlap Lois oh omw nohno Iunis pil ahnekiher. I uhdahn ese me ke pil ahneki soangen pwosonohte. "
        },
        {
          "chapter": 1,
          "verse": 6,
          "name": "2 Timothy 1:6",
          "text": "Pwehki kahrepe wet, I men katamankin uhk ke en kesempwalki kalahngano me Koht ketikihonguhkehr ni ahnsou me I pwil pehi kat pohmw."
        },
        {
          "chapter": 1,
          "verse": 7,
          "name": "2 Timothy 1:7",
          "text": "Pwe Ngehn Sarawi me Koht kin ketikihong kitail sohte kin kahrehiong kitail masak, ahpw sapwellime Ngehno kin ketin audehkinkitailda manaman, limpoak, oh kin sewese kitail en kakaun atail ineng kan.  "
        },
        {
          "chapter": 1,
          "verse": 8,
          "name": "2 Timothy 1:8",
          "text": "  Eri, ke dehr namenengki omw kadekadehde atail Kaun-o, de pil namenengkin ie nan ei mi nan imweteng pwehki Krais. Ahpw ale pwaisomw ni lokolongki Rongamwahu, pwe Koht me pahn ketikihong uhk omw kehlail ni lokolok wet."
        },
        {
          "chapter": 1,
          "verse": 9,
          "name": "2 Timothy 1:9",
          "text": "E ketin komourkitaillahr, oh ketin malipeikitailehr pwe kitail en wiahla sapwellime, kaidehn pwehki sang ni mehkot me kitail wiadahr, ahpw sang ni pein sapwellime koasoandi oh kalahngan. E ketikihong kitail kalahngan wet sang rehn Krais Sises mwohn tepin kawa."
        },
        {
          "chapter": 1,
          "verse": 10,
          "name": "2 Timothy 1:10",
          "text": "Ahpw met, kalahngan wet sansaldahr ong kitail ni ketidohn atail Sounkomour, Krais Sises. Pwe Krais ketin irehdi manaman en mehla, oh ketin kasalehkihda mour soutuk rongamwahu.  "
        },
        {
          "chapter": 1,
          "verse": 11,
          "name": "2 Timothy 1:11",
          "text": "  Eri, Koht ketin piliedahr pwe I en wia wahnpoaron oh sounpadahk, oh kalohkiseli Rongamwahu; "
        },
        {
          "chapter": 1,
          "verse": 12,
          "name": "2 Timothy 1:12",
          "text": "oh pwehki kahrepe wet me kahrehiong ie I en lokolongki soahng pwukat. Eri soh, I pil ahnekihte koapworopwor, pwe I dehdehki me I kin likih, oh I kin kamehlele me iei ih me kak kolokol soahng me e ketin likihong ie lao lel Rahno."
        },
        {
          "chapter": 1,
          "verse": 13,
          "name": "2 Timothy 1:13",
          "text": "Eri, katengeiukediong ni mahsen mehlel kan me I padahkihonguhkehr, pwe en wiahla mehn kahlemengi ehu ong kowe pwe ke en idawehn. Oh pil katengeiukediong nan pwoson oh limpoak me kitail ahnekipene ni atail miniminiong Krais Sises."
        },
        {
          "chapter": 1,
          "verse": 14,
          "name": "2 Timothy 1:14",
          "text": "Apwahpwalih soahng kan me kohienguhkehr ni likilik, sang ni manaman en Ngehn Sarawi me kin ketin ieias loalatail.  "
        },
        {
          "chapter": 1,
          "verse": 15,
          "name": "2 Timothy 1:15",
          "text": "  Ke ese me irail koaros me mihmi nan wehin Eisia, re keseielahr, iet riemen irail: Pikehlus oh Ermokenihs."
        },
        {
          "chapter": 1,
          "verse": 16,
          "name": "2 Timothy 1:16",
          "text": "Kaun-o en ketin kupwurkalahngan ong peneinei en Onesiporus, pwehki eh kin kaparaniehda pak tohto. E sohte namenengkihla ei mihmi nan imweteng;"
        },
        {
          "chapter": 1,
          "verse": 17,
          "name": "2 Timothy 1:17",
          "text": "pwe mwurin eh lel Rom, e tapihada rapahkin ie lao e diariehda."
        },
        {
          "chapter": 1,
          "verse": 18,
          "name": "2 Timothy 1:18",
          "text": "Kaun-o en ketin kupwurkalahngan ong ih ni Rahn Lapalapo. Eri, ke pil wehwehki uwen wiewia mwahu me e wiahiong ie nan Episos.    "
        }
      ]
    },
    {
      "chapter": 2,
      "name": "2 Timothy 2",
      "verses": [
        {
          "chapter": 2,
          "verse": 1,
          "name": "2 Timothy 2:1",
          "text": "    Ahpw kowe, nei pwutak kompoake, kehlailki kalahngan me kitail ahnekipene ni atail miniminiong Krais Sises."
        },
        {
          "chapter": 2,
          "verse": 2,
          "name": "2 Timothy 2:2",
          "text": "Oh mahsen kan me ke kin rong ei kalohki mwohn sounkadehde tohto, ke en pil likihong ohl lelepek kan me pahn kak padahkihong aramas teikan.  "
        },
        {
          "chapter": 2,
          "verse": 3,
          "name": "2 Timothy 2:3",
          "text": "  Eri, ale pwaisomw nan kamakam, nin duwen sounpei loalopwoat emen en Krais Sises."
        },
        {
          "chapter": 2,
          "verse": 4,
          "name": "2 Timothy 2:4",
          "text": "Sounpei men me kin pwahtiet nan eh doadoahk kin men kapwaiada nsenen eh kaun, oh e sohte kin pingkihda wiewiahn irail kan me kaidehn sounpei."
        },
        {
          "chapter": 2,
          "verse": 5,
          "name": "2 Timothy 2:5",
          "text": "Sounmwadong men me kin tang nan weirentang sohte kak koledi ehu kisakis ma e sohte pahn peikiong kosonned akan."
        },
        {
          "chapter": 2,
          "verse": 6,
          "name": "2 Timothy 2:6",
          "text": "Soumwet men me kin doadoahk laud uhdahn pahn ale pwaise mahs ni ahnsoun dolung."
        },
        {
          "chapter": 2,
          "verse": 7,
          "name": "2 Timothy 2:7",
          "text": "Eri, ke en medemedewe mepwukat me I koasoakoasoia, pwe Kaun-o pahn ketin seweseiuk pwe ke en kak wehwehki soahng pwukat koaros.  "
        },
        {
          "chapter": 2,
          "verse": 8,
          "name": "2 Timothy 2:8",
          "text": "  Tamataman Sises Krais, me iasadahsangehr mehla, me kisehn kadaudok en Depit, duwen me sansalehr nan Rongamwahu me I kin kalohki."
        },
        {
          "chapter": 2,
          "verse": 9,
          "name": "2 Timothy 2:9",
          "text": "I kin kamakamki ei kalohkiseli Rongamwahu, oh I pil selikihdi selmete duwehte aramas en nan imweteng; ahpw mahsen en Koht sohte kak selikihdi selmete."
        },
        {
          "chapter": 2,
          "verse": 10,
          "name": "2 Timothy 2:10",
          "text": "Eri, pwehki kahrepe wet I kin nantihong mehkoaros ni kanengamah pwehki sapwellimen Koht aramas pilipildahr kan, pwe irail en pil ale komouro me mi rehn Krais Sises, iangahki lingan poatopoat."
        },
        {
          "chapter": 2,
          "verse": 11,
          "name": "2 Timothy 2:11",
          "text": "Met mahsen mehlel pwoat:  \u201cMa kitail iang Krais pwoula, kitail pil pahn iang ieias. "
        },
        {
          "chapter": 2,
          "verse": 12,
          "name": "2 Timothy 2:12",
          "text": "Ma kitail pahn nantihong kanengamah ni mehkoaros, kitail pil pahn iang Krais kakaun.  Ma kitail pahn kahmahmki, e pil pahn ketin kahmahmkin kitail. "
        },
        {
          "chapter": 2,
          "verse": 13,
          "name": "2 Timothy 2:13",
          "text": "Ma kitail sohte pahn loalopwoatohng, a e uhdahn pahn ketin loalopwoatohng kitail, pwe e sohte kak wia sapwung ong pein ih.\u201d    "
        },
        {
          "chapter": 2,
          "verse": 14,
          "name": "2 Timothy 2:14",
          "text": "    Eri, ke en katamanohng omw kohwa aramas akan mepwukat, oh panawihekin irail kehlail mwohn silangin Koht re dehr akamaipene nanpwungarail. Soangen akamai pwukat sohte kak wia kamwahu ehu, ahpw e kin kauwehla irail kan me kin rongorong."
        },
        {
          "chapter": 2,
          "verse": 15,
          "name": "2 Timothy 2:15",
          "text": "Wia uwen omw kak mwohn silangin Koht, pwe en ketin pwungkin uhk, nin duwen soundoadoahk men me sohte kin namenengki eh doadoahk, me kin padahkihong aramas akan mahsen en Koht ni mehlel."
        },
        {
          "chapter": 2,
          "verse": 16,
          "name": "2 Timothy 2:16",
          "text": "Liksang koasoi mwahl akan me kin uhwong Koht, me kin kadohwanewei aramas akan sang Koht."
        },
        {
          "chapter": 2,
          "verse": 17,
          "name": "2 Timothy 2:17",
          "text": "Soangen padahk pwukat rasehng kens ehu me kin kangkangala uduk. Aimenihus oh Pailihdus, ih ira riemenet me kisehn soangen sounpadahk pwukat."
        },
        {
          "chapter": 2,
          "verse": 18,
          "name": "2 Timothy 2:18",
          "text": "Ira keselahr ahl mehlelo oh kasapwungelahr pwoson en ekei me pwosonlahr ni ara kin koasoakoasoia me atail iasada wiawiher."
        },
        {
          "chapter": 2,
          "verse": 19,
          "name": "2 Timothy 2:19",
          "text": "Ahpw poahsoan tengeteng me Koht ketin poasoanehdier sohte kak mwekidida; oh mahsen pwukat pil ntingdier powe: \u201cKaun-o ketin mwahngih irail kan me sapwellime,\u201d oh \u201cMehmen me kin koasoakoasoia me ih sapwellimen Kaun-o uhdahn pahn sohpeisang wiewia suwed kan.\u201d   "
        },
        {
          "chapter": 2,
          "verse": 20,
          "name": "2 Timothy 2:20",
          "text": "  Eri, nan ihmw laud ehu mie soangen dahl tohto loale: ekei wiawihkihda silper oh kohl, a ekei tuhke de pwehl; ekei kin doadoahk ahnsou koaros, a ekei ni ahnsou kesempwalte."
        },
        {
          "chapter": 2,
          "verse": 21,
          "name": "2 Timothy 2:21",
          "text": "Ma emen pahn kamwakelehda pein ih sang soahng suwed pwukat koaros, e pahn doadoahk ong ni kahrepe kesempwal kan, pwe e kasarawihalahr pein ih ong doadoahk en eh Kaun-o, oh pil onopohngehr soangen doadoahk mwahu koaros."
        },
        {
          "chapter": 2,
          "verse": 22,
          "name": "2 Timothy 2:22",
          "text": "Eri, kalekehkin uhk ineng en mwahnakapw akan; nantihong ke en pwung, pwoson, limpoak, oh popohl, iangahki irail kan me inengieng mwakelekel, me kin likweriong Kaun-o pwe en ketin sewese irail."
        },
        {
          "chapter": 2,
          "verse": 23,
          "name": "2 Timothy 2:23",
          "text": "Ahpw kaleke akamai pweipwei oh sawehwe kan, pwe ke ese me re kin imwikihla akamaite."
        },
        {
          "chapter": 2,
          "verse": 24,
          "name": "2 Timothy 2:24",
          "text": "Ladun Kaun-o men en dehr akamai. E pahn kin kadek ong aramas koaros, sounpadahk mwahu oh kanengamah men,"
        },
        {
          "chapter": 2,
          "verse": 25,
          "name": "2 Timothy 2:25",
          "text": "pahn kin kadek ni eh pahn kapwung pelie kan. Mwein Koht pahn ketikihong irail ahnsou mwahu en koluhla oh esehla me mehlelo."
        },
        {
          "chapter": 2,
          "verse": 26,
          "name": "2 Timothy 2:26",
          "text": "Eri, re ahpw pahn pehmada pein irail oh tangasang lidip en Tepil, me parokiraildier oh idingohng irail en peikiong ih.    "
        }
      ]
    },
    {
      "chapter": 3,
      "name": "2 Timothy 3",
      "verses": [
        {
          "chapter": 3,
          "verse": 1,
          "name": "2 Timothy 3:1",
          "text": "    Eri, tamataman mepwukat. Uhdahn pahn mie ahnsou apwal ekei ni imwin rahn akan."
        },
        {
          "chapter": 3,
          "verse": 2,
          "name": "2 Timothy 3:2",
          "text": "Aramas pahn roporop ong pein irail, mehwo, aksuwei oh pohnmwahso; re pahn kamwakara, re sohte pahn peikiong ar pahpa oh nohno kan, oh re sohte pahn kin kasapahlkalahnganki mehkot. Re sohte pahn poadidi ong palien lamalam;"
        },
        {
          "chapter": 3,
          "verse": 3,
          "name": "2 Timothy 3:3",
          "text": "irail pahn sempoak, soh mahk, karaun likamw oh pehmara, lemei, oh re pahn kailongki me mwahu;"
        },
        {
          "chapter": 3,
          "verse": 4,
          "name": "2 Timothy 3:4",
          "text": "re pahn pangala iangarail kan, re pahn loaumwohmw oh kalahwasa, oh re pahn inengieng pein arail peren laudsang kupwur en Koht."
        },
        {
          "chapter": 3,
          "verse": 5,
          "name": "2 Timothy 3:5",
          "text": "Re pahn kin liksansalamwahuki mwomwen atail palien lamalam, ahpw re kin kahmahmki katepe. Kalekeiukasang aramas pwukat."
        },
        {
          "chapter": 3,
          "verse": 6,
          "name": "2 Timothy 3:6",
          "text": "Ekei irail kin pedolong nan ihmw kan oh kaunda lih luwet kan me toutoukilahr ar tamataman diparail en mahs akan, oh kin mweidohng soangen ineng koaros en kaunirailda;"
        },
        {
          "chapter": 3,
          "verse": 7,
          "name": "2 Timothy 3:7",
          "text": "lih akan me kin songosong re en padahngki mehkot, ahpw re sohte kak dehdehkihla me mehlelo."
        },
        {
          "chapter": 3,
          "verse": 8,
          "name": "2 Timothy 3:8",
          "text": "Nin duwen Sanes oh Sampres ara pelianda Moses, iei pil duwehte ohl pwukat kin pelianda me mehlelo-aramas pwukat me arail medemedewe solahr doadoahk mwahu, oh me sohte kak pweida ni arail pwoson. "
        },
        {
          "chapter": 3,
          "verse": 9,
          "name": "2 Timothy 3:9",
          "text": "Ahpw arail doadoahk sohte pahn pweida, pwehki aramas akan pahn kilang uwen arail pweipwei, duwehte me wiawihongehr Sanes oh Sampres.   "
        },
        {
          "chapter": 3,
          "verse": 10,
          "name": "2 Timothy 3:10",
          "text": "    Eri, ke idawehnehr ei padahk, ei wiewia, oh pil kahrepen ei mour nan mour wet; ke kilangehr duwen ei pwoson, ei kanengamah, ei limpoak, ei kin nannanti ni ahnsou apwal akan,"
        },
        {
          "chapter": 3,
          "verse": 11,
          "name": "2 Timothy 3:11",
          "text": "ei kamakam akan, oh pil ei lokolok kan. Ke ese soahng kan koaros me lelohng ie nan Andiok, Aikoniomw, oh Listra, kamakam apwal akan me I aleier! Ahpw Kaun-o ketin kapitiehsang soahng pwukat koaros. "
        },
        {
          "chapter": 3,
          "verse": 12,
          "name": "2 Timothy 3:12",
          "text": "Aramas koaros me men ahneki mour mwahu ni arail pahn miniminiong Krais Sises, re pahn ale kamakam;"
        },
        {
          "chapter": 3,
          "verse": 13,
          "name": "2 Timothy 3:13",
          "text": "ahpw aramas suwed oh me likamw akan pahn nantihweite sang ni me suwed ong ni me suwedsang; re pahn pitipitihete meteikan, oh pein irail pahn pitida."
        },
        {
          "chapter": 3,
          "verse": 14,
          "name": "2 Timothy 3:14",
          "text": "Ahpw kowe, ke en nantihong ni me mehlelo me ke padahngkiher oh uhdahn kamehlele. Pein kowe ese ihs me omw sounpadahk,"
        },
        {
          "chapter": 3,
          "verse": 15,
          "name": "2 Timothy 3:15",
          "text": "oh ke pil ese me sang ni omw kisin seri ke pil kin ese Pwuhk Sarawi, me kak kasalehiong uhk erpit me kak kahluweiukalahng nan mour soutuk sang ni omw pwoson Krais Sises."
        },
        {
          "chapter": 3,
          "verse": 16,
          "name": "2 Timothy 3:16",
          "text": "Pwe audepen Pwuhk Sarawi unsek pwilisang rehn Koht, oh e mwahu ong atail doadoahk en padahkihong aramas akan me mehlelo, ong atail peneu ong tiahk sapwung, ong atail kapwungala wiewia sapwung kan, oh pil ong atail padahk duwen mour lelepek;"
        },
        {
          "chapter": 3,
          "verse": 17,
          "name": "2 Timothy 3:17",
          "text": "pwe irail kan me kin papah Koht en kak wia oh koahiekla ni soangen wiewia mwahu koaros.   "
        }
      ]
    },
    {
      "chapter": 4,
      "name": "2 Timothy 4",
      "verses": [
        {
          "chapter": 4,
          "verse": 1,
          "name": "2 Timothy 4:1",
          "text": "Eri, I pangenkin uhk mwohn silangin Koht oh Krais Sises, me pahn ketin kadeik aramas koaros, me momour oh me melahr akan: pwehki eh pahn ketido pwehn kakaun ni manaman nin duwen nanmwarki, I kapwukoahkin uhk:"
        },
        {
          "chapter": 4,
          "verse": 2,
          "name": "2 Timothy 4:2",
          "text": "ke en kalohkiseli mahseno, ke en nantihong koasoakoasoia duwe, mehnda ma ahnsou mengei de apwal; koangngoangehkin irail mahseno, panawih irail oh kakehlaka irail ni omw kin padahk ni kanengamah."
        },
        {
          "chapter": 4,
          "verse": 3,
          "name": "2 Timothy 4:3",
          "text": "Pwe ahnsou ehu pahn leledo me aramas akan sohla pahn men rong padahk mehlel, ahpw re pahn idawehnla pein nsenarail; oh re pahn piladahng pein irail sounpadahk tohto me pahn kin koasoiaiong irail soahng kan me re kin men rong."
        },
        {
          "chapter": 4,
          "verse": 4,
          "name": "2 Timothy 4:4",
          "text": "Re pahn sohpeiweisang ni ar rongorong me mehlelo, oh mweidohng ar ahnsou poadopoad mwahl akan."
        },
        {
          "chapter": 4,
          "verse": 5,
          "name": "2 Timothy 4:5",
          "text": "Ahpw kowe, ke uhdahn pahn kakaun pein uhk ahnsou koaros oh wasa koaros; kanengamahiong kamakam, oh wia omw pwais en sounpadahk en Rongamwahu, oh pil kapwaiada omw pwukoa koaros nin duwen me konehng ladun Koht men.  "
        },
        {
          "chapter": 4,
          "verse": 6,
          "name": "2 Timothy 4:6",
          "text": "  Ahpw ngehi, ahnsou me I pahn meirongala leledohr, oh ahnsou me I pahn mweselsang mour wet pil leledohr."
        },
        {
          "chapter": 4,
          "verse": 7,
          "name": "2 Timothy 4:7",
          "text": "I wiahier uwen ei kak nan mour wet, me rasehng weirentang, I kanekelahr weir wet, oh I pil kolokolete pwoson."
        },
        {
          "chapter": 4,
          "verse": 8,
          "name": "2 Timothy 4:8",
          "text": "Eri, met kisakis en powehdi awiawih ie pwehki ei pwungla rehn Koht, me Kaun-o, Sounkopwung pwung, pahn ketikihong ie ni Rahno; ahpw kaidehn ong iehte, ahpw pil ong koaros me kin awiawih ni limpoak eh pahn ketido.   "
        },
        {
          "chapter": 4,
          "verse": 9,
          "name": "2 Timothy 4:9",
          "text": "    Eri, wia uwen omw kak pwe ke en mwadangodo rehi,"
        },
        {
          "chapter": 4,
          "verse": 10,
          "name": "2 Timothy 4:10",
          "text": "Demas poakohngalahr sampah en ahnsou wet; ihme e kesehkinielahr oh samwalahr Deselonika. Eri, Kresens kohla Kalesia, oh Taitus kohla Dalmesia. "
        },
        {
          "chapter": 4,
          "verse": 11,
          "name": "2 Timothy 4:11",
          "text": "A Lukte me mihmi rehi. Mark en iang uhk kohdo, pwe e kak sewese ie nan ei doadoahket. "
        },
        {
          "chapter": 4,
          "verse": 12,
          "name": "2 Timothy 4:12",
          "text": "I kadaralahr Dikikus Episos. "
        },
        {
          "chapter": 4,
          "verse": 13,
          "name": "2 Timothy 4:13",
          "text": "Eri, ni ahnsou me ke pahn kohdo, ke ahpw wahdo ei sekiden me I pwilikihdi rehn Karpus nan Troas, oh pil iangahki pwuhk ko, ahpw keieu kesempwal ke en wahdo pwuhk kan me wiawihkihda kilin sihpw.   "
        },
        {
          "chapter": 4,
          "verse": 14,
          "name": "2 Timothy 4:14",
          "text": "  Aleksander, sounsukmeteo, inenen kauweielahr; ahpw Kaun-o pahn ketin kalokehki eh wiewiao. "
        },
        {
          "chapter": 4,
          "verse": 15,
          "name": "2 Timothy 4:15",
          "text": "Kalekehkin uhk ohlo, pwehki eh inenen uhwong mehlel atail padahk.  "
        },
        {
          "chapter": 4,
          "verse": 16,
          "name": "2 Timothy 4:16",
          "text": "  Sohte emen me poupalihkin ie ni ahnsou me I tepin doare ieo; pwe irail koaros keseielahr. Eri, Koht en dehr ketin kapwukoanekin irail met!"
        },
        {
          "chapter": 4,
          "verse": 17,
          "name": "2 Timothy 4:17",
          "text": "Eri soh, Kaun-o ketiket rehi, oh ketin kakehlaka ie; ihme kahrehda ei kak kalohkiseli mahseno unsek ong mehn liki kan koaros pwe re en rong; oh I pil pitsangehr mehla."
        },
        {
          "chapter": 4,
          "verse": 18,
          "name": "2 Timothy 4:18",
          "text": "Eri, Kaun-o pahn kapitiehsang nan soangen suwed koaros, oh pil ketikinielahng nan sapwellime Wehin nanleng. Ong ih lingano, sang met oh kohkohlahte! Amen.   "
        },
        {
          "chapter": 4,
          "verse": 19,
          "name": "2 Timothy 4:19",
          "text": "    Eri, I kadar ei rahnmwahu ong Persila oh Akwila, oh pil ong peneinei en Onesiporus koaros. "
        },
        {
          "chapter": 4,
          "verse": 20,
          "name": "2 Timothy 4:20",
          "text": "Erastus mihmihte Korint, oh iet kahrepen eh mweselsang Tropimus nan Mailitus, pwehki eh soumwahu. "
        },
        {
          "chapter": 4,
          "verse": 21,
          "name": "2 Timothy 4:21",
          "text": "Wia uwen omw kak pwe ke en leledo mwohn ahnsoun kopou.   Eupulus, Pudens, Linus, oh Klaudia pil iang kadarowei ar rahnmwahu, pil iangahki souleng teikan koaros.  "
        },
        {
          "chapter": 4,
          "verse": 22,
          "name": "2 Timothy 4:22",
          "text": "  Kaun-o en ketin ieiang ngenomw.   Kalahngan en Koht en ketin ieiang kumwail koaros.     "
        }
      ]
    }
  ]
}
