{
    "translation": "Vietnamese (1934)",
    "abbreviation": "vietnamese",
    "lang": "vi",
    "language": "Vietnamese",
    "direction": "LTR",
    "encoding": "UTF-8",
    "book_nr": 13,
    "book_name": "1 Chronicles",
    "chapter": 18,
    "name": "1 Chronicles 18",
    "verses": [
        {
            "chapter": 18,
            "verse": 1,
            "name": "1 Chronicles 18:1",
            "text": "Sau vi\u1ec7c \u1ea5y, \u00d0a-v\u00edt \u0111\u00e1nh d\u00e2n Phi-li-tin, b\u1eaft ph\u1ee5c ch\u00fang n\u00f3; v\u00e0 \u0111o\u1ea1t l\u1ea5y kh\u1ecfi tay ch\u00fang n\u00f3 th\u00e0nh G\u00e1t v\u00e0 c\u00e1c h\u01b0\u01a1ng th\u00f4n n\u00f3."
        },
        {
            "chapter": 18,
            "verse": 2,
            "name": "1 Chronicles 18:2",
            "text": "Ng\u01b0\u1eddi c\u0169ng \u0111\u00e1nh M\u00f4-\u00e1p; d\u00e2n M\u00f4-\u00e1p b\u00e8n ph\u1ee5c d\u1ecbch \u00d0a-v\u00edt, v\u00e0 ti\u1ebfn c\u1ed1ng cho ng\u01b0\u1eddi."
        },
        {
            "chapter": 18,
            "verse": 3,
            "name": "1 Chronicles 18:3",
            "text": "\u00d0a-v\u00edt \u0111\u00e1nh Ha-\u0111a-r\u00ea-xe, vua X\u00f4-ba, t\u1ea1i Ha-m\u00e1t, khi ng\u01b0\u1eddi \u0111\u01b0\u01a1ng \u0111i l\u1eadp n\u01b0\u1edbc m\u00ecnh tr\u00ean s\u00f4ng \u01a0-ph\u01a1-r\u00e1t."
        },
        {
            "chapter": 18,
            "verse": 4,
            "name": "1 Chronicles 18:4",
            "text": "\u00d0a-v\u00edt chi\u1ebfm l\u1ea5y c\u1ee7a ng\u01b0\u1eddi m\u1ed9t ng\u00e0n c\u1ed7 xe, b\u1ea3y ng\u00e0n l\u00ednh k\u1ef5, v\u00e0 hai v\u1ea1n l\u00ednh b\u1ed9; \u00d0a-v\u00edt c\u1eaft nh\u01b0\u1ee3ng c\u1ee7a c\u00e1c ng\u1ef1a k\u00e9o xe, duy ch\u1eeba l\u1ea1i m\u1ed9t tr\u0103m con."
        },
        {
            "chapter": 18,
            "verse": 5,
            "name": "1 Chronicles 18:5",
            "text": "D\u00e2n Sy-ri \u1edf \u00d0a-m\u00e1ch \u0111\u1ebfn c\u1ee9u gi\u00fap Ha-\u0111a-r\u00ea-xe, vua X\u00f4-ba, \u00d0a-v\u00edt b\u00e8n gi\u1ebft ch\u00fang hai v\u1ea1n hai ng\u00e0n ng\u01b0\u1eddi."
        },
        {
            "chapter": 18,
            "verse": 6,
            "name": "1 Chronicles 18:6",
            "text": "\u00d0a-v\u00edt l\u1eadp \u0111\u1ed3n trong Sy-ri c\u1ee7a \u00d0a-m\u00e1ch, d\u00e2n Sy-ri ph\u1ee5c d\u1ecbch ng\u01b0\u1eddi, v\u00e0 \u0111em n\u1ed9p thu\u1ebf cho ng\u01b0\u1eddi. \u00d0a-v\u00edt \u0111i \u0111\u1ebfn \u0111\u00e2u, th\u00ec \u00d0\u1ee9c Gi\u00ea-h\u00f4-va c\u0169ng khi\u1ebfn cho ng\u01b0\u1eddi \u0111\u01b0\u1ee3c th\u1eafng."
        },
        {
            "chapter": 18,
            "verse": 7,
            "name": "1 Chronicles 18:7",
            "text": "\u00d0a-v\u00edt \u0111o\u1ea1t nh\u1eefng khi\u00ean v\u00e0ng c\u1ee7a c\u00e1c \u0111\u1ea7y t\u1edb Ha-\u0111a-r\u00ea-xe, r\u1ed3i \u0111em v\u1ec1 Gi\u00ea-ru-sa-lem."
        },
        {
            "chapter": 18,
            "verse": 8,
            "name": "1 Chronicles 18:8",
            "text": "T\u1eeb Ti-b\u00e1t v\u00e0 Cun, hai th\u00e0nh c\u1ee7a Ha-\u0111a-r\u00ea-xe, \u00d0a-v\u00edt l\u1ea1i \u0111o\u1ea1t l\u1ea5y nhi\u1ec1u \u0111\u1ed3ng, m\u00e0 Sa-l\u00f4-m\u00f4n d\u00f9ng l\u00e0m c\u00e1i bi\u1ec3n \u0111\u1ed3ng, c\u00e1c tr\u1ee5 v\u00e0 ch\u1eadu b\u1eb1ng \u0111\u1ed3ng."
        },
        {
            "chapter": 18,
            "verse": 9,
            "name": "1 Chronicles 18:9",
            "text": "Khi T\u00f4-hu, vua Ha-m\u00e1t, hay r\u1eb1ng \u00d0a-v\u00edt \u0111\u00e3 \u0111\u00e1nh c\u1ea3 \u0111\u1ed9i binh c\u1ee7a Ha-\u0111a-r\u00ea-xe, vua X\u00f4-ba,"
        },
        {
            "chapter": 18,
            "verse": 10,
            "name": "1 Chronicles 18:10",
            "text": "th\u00ec sai Ha-\u0111\u00f4-ram, con trai ng\u01b0\u1eddi, \u0111\u1ebfn ch\u00e0o m\u1eebng v\u00e0 ng\u1ee3i khen \u00d0a-v\u00edt, b\u1edfi ng\u01b0\u1eddi \u0111\u00e3 chinh chi\u1ebfn v\u1edbi Ha-\u0111a-r\u00ea-xe, v\u00e0 \u0111\u00e3 \u0111\u00e1nh ng\u01b0\u1eddi; v\u00ec Ha-\u0111a-r\u00ea-xe v\u00e0 T\u00f4-hu th\u01b0\u1eddng \u0111\u00e1nh gi\u1eb7c v\u1edbi nhau lu\u00f4n; T\u00f4-hu c\u0169ng g\u1edfi \u0111\u1ebfn c\u00e1c th\u1ee9 ch\u1eadu b\u1eb1ng v\u00e0ng, b\u1ea1c, v\u00e0 \u0111\u1ed3ng."
        },
        {
            "chapter": 18,
            "verse": 11,
            "name": "1 Chronicles 18:11",
            "text": "C\u00e1c \u0111\u1ed3 \u1ea5y \u00d0a-v\u00edt c\u0169ng bi\u1ec7t ri\u00eang ra th\u00e1nh cho \u00d0\u1ee9c Gi\u00ea-h\u00f4-va, lu\u00f4n v\u1edbi b\u1ea1c v\u00e0 v\u00e0ng m\u00e0 ng\u01b0\u1eddi \u0111\u00e3 \u0111o\u1ea1t l\u1ea5y \u0111em v\u1ec1 t\u1eeb c\u00e1c d\u00e2n t\u1ed9c, t\u1ee9c t\u1eeb \u00ca-\u0111\u00f4m, M\u00f4-\u00e1p, d\u00e2n Am-m\u00f4n, d\u00e2n Phi-li-tin, v\u00e0 d\u00e2n A-ma-l\u00e9c."
        },
        {
            "chapter": 18,
            "verse": 12,
            "name": "1 Chronicles 18:12",
            "text": "V\u1ea3 l\u1ea1i, A-bi-sai, con trai c\u1ee7a X\u00ea-ru-gia, \u0111\u00e1nh gi\u1ebft t\u1ea1i trong tr\u0169ng Mu\u1ed1i, m\u1ed9t v\u1ea1n t\u00e1m ng\u00e0n ng\u01b0\u1eddi \u00ca-\u0111\u00f4m."
        },
        {
            "chapter": 18,
            "verse": 13,
            "name": "1 Chronicles 18:13",
            "text": "Ng\u01b0\u1eddi \u0111\u1eb7t \u0111\u1ed3n t\u1ea1i \u00ca-\u0111\u00f4m, v\u00e0 c\u1ea3 d\u00e2n \u00ca-\u0111\u00f4m \u0111\u1ec1u ph\u1ea3i ph\u1ee5c d\u1ecbch \u00d0a-v\u00edt. \u00d0a-v\u00edt \u0111i \u0111\u1ebfn \u0111\u00e2u, th\u00ec \u00d0\u1ee9c Gi\u00ea-h\u00f4-va c\u0169ng khi\u1ebfn cho ng\u01b0\u1eddi \u0111\u01b0\u1ee3c th\u1eafng."
        },
        {
            "chapter": 18,
            "verse": 14,
            "name": "1 Chronicles 18:14",
            "text": "\u00d0a-v\u00edt l\u00e0m vua tr\u00ean c\u1ea3 Y-s\u01a1-ra-\u00ean, l\u1ea5y s\u1ef1 ngay th\u1eb3ng v\u00e0 c\u00f4ng b\u00ecnh m\u00e0 x\u1eed v\u1edbi d\u00e2n s\u1ef1 c\u1ee7a ng\u01b0\u1eddi."
        },
        {
            "chapter": 18,
            "verse": 15,
            "name": "1 Chronicles 18:15",
            "text": "Gi\u00f4-\u00e1p, con trai c\u1ee7a X\u00ea-ru-gia, th\u1ed1ng l\u00e3nh \u0111\u1ed9i binh; Gi\u00f4-sa-ph\u00e1t con trai c\u1ee7a A-hi-l\u00fat, l\u00e0m quan th\u00e1i s\u1eed;"
        },
        {
            "chapter": 18,
            "verse": 16,
            "name": "1 Chronicles 18:16",
            "text": "Xa-\u0111\u1ed1c, con trai c\u1ee7a A-hi-t\u00fap, v\u00e0 A-bi-m\u00ea-l\u00e9c, con trai c\u1ee7a A-bia-tha, l\u00e0m th\u1ea7y t\u1ebf l\u1ec5; Sa-v\u00ea-sa l\u00e0m quan k\u00fd l\u1ee5c."
        },
        {
            "chapter": 18,
            "verse": 17,
            "name": "1 Chronicles 18:17",
            "text": "B\u00ea-na-gia, con trai c\u1ee7a Gi\u00ea-h\u00f4-gia-\u0111a, cai qu\u1ea3n ng\u01b0\u1eddi K\u00ea-r\u00ea-th\u00edt v\u00e0 ng\u01b0\u1eddi Ph\u00ea-l\u00ea-th\u00edt, c\u00f2n c\u00e1c con trai \u00d0a-v\u00edt \u0111\u1ec1u l\u00e0m quan \u0111\u1ea1i th\u1ea7n g\u1ea7n b\u00ean vua."
        }
    ]
}