{
    "translation": "The Lexham English Bible",
    "abbreviation": "leb",
    "lang": "en",
    "language": "English",
    "direction": "LTR",
    "encoding": "UTF-8",
    "book_nr": 23,
    "book_name": "Isaiah",
    "chapter": 45,
    "name": "Isaiah 45",
    "verses": [
        {
            "chapter": 45,
            "verse": 1,
            "name": "Isaiah 45:1",
            "text": "  Thus says Yahweh to his anointed one, to Cyrus, whose right hand I have grasped to subjugate nations before him, and I uncover the loins of kings to open doors before him, and the gates shall not be shut: "
        },
        {
            "chapter": 45,
            "verse": 2,
            "name": "Isaiah 45:2",
            "text": "\u201cI myself will go before you, and I will level the \u231emountains\u231f. I will break the doors of bronze and cut throughthe bars of iron. "
        },
        {
            "chapter": 45,
            "verse": 3,
            "name": "Isaiah 45:3",
            "text": "And I will give you the treasures of darkness and treasures of secret places so that you may know that I am Yahweh, the one who calls you by your name, the God of Israel, "
        },
        {
            "chapter": 45,
            "verse": 4,
            "name": "Isaiah 45:4",
            "text": "for the sake of my servant Jacob, and Israel my chosen one. And I call you by your name; I give you a name of honor, though you do not know me. "
        },
        {
            "chapter": 45,
            "verse": 5,
            "name": "Isaiah 45:5",
            "text": "I am Yahweh, and there is none besides me; besides me there is no god. I gird you though you do not know me, "
        },
        {
            "chapter": 45,
            "verse": 6,
            "name": "Isaiah 45:6",
            "text": "so that they may know from the rising of the sun and from the west that there is none besides me; I am Yahweh and there is none besides me. "
        },
        {
            "chapter": 45,
            "verse": 7,
            "name": "Isaiah 45:7",
            "text": "I form light and I create darkness; I make peace and I create evil; I am Yahweh; I do all these things. "
        },
        {
            "chapter": 45,
            "verse": 8,
            "name": "Isaiah 45:8",
            "text": "Trickle, O heavens, from above, and let clouds trickle with righteousness; let the earth open so that salvation may be fruitful, and let it cause righteousness to sprout along with it. I myself, Yahweh, have created it. "
        },
        {
            "chapter": 45,
            "verse": 9,
            "name": "Isaiah 45:9",
            "text": "Woe to the one who strives with his \u231emaker\u231f, a potsherd among potsherds of earth! Does the clay say to the one who fashions it, \u2018What are you making?\u2019 and \u2018Your work has no hands\u2019? "
        },
        {
            "chapter": 45,
            "verse": 10,
            "name": "Isaiah 45:10",
            "text": "Woe to the one who says to a father, \u2018What you are begetting?\u2019 or to a woman, \u2018With what are you in labor?\u2019\u00a0\u201d "
        },
        {
            "chapter": 45,
            "verse": 11,
            "name": "Isaiah 45:11",
            "text": "Thus says Yahweh, the holy one of Israel, and its \u231emaker\u231f: \u201cAsk me of the things to come \u231eabout\u231f my children, and you command me about the work of my hands. "
        },
        {
            "chapter": 45,
            "verse": 12,
            "name": "Isaiah 45:12",
            "text": "I myself made the earth, and I created humankind upon it. I, my hands, stretched out the heavens, and I commanded all their host. "
        },
        {
            "chapter": 45,
            "verse": 13,
            "name": "Isaiah 45:13",
            "text": "I myself have stirred him up in righteousness, and I will make all his paths smooth. He himself shall build my city, and he shall set my exiles free,  not for price or a gift,\u201d says Yahweh of hosts.  "
        },
        {
            "chapter": 45,
            "verse": 14,
            "name": "Isaiah 45:14",
            "text": "   Thus says Yahweh: \u201cThe acquisition of Egypt and the merchandise of Cush and the Sabeans, tall men, shall pass over to you; they shall be yours, and they shall walk behind you. They shall pass over in chains, and they shall bow down to you; they will pray to you: \u2018Surely God is with you, and there is no other. Besides him there is no God.\u2019\u00a0\u201d "
        },
        {
            "chapter": 45,
            "verse": 15,
            "name": "Isaiah 45:15",
            "text": "Surely you are a God who keeps yourself hidden, God of Israel, the savior. "
        },
        {
            "chapter": 45,
            "verse": 16,
            "name": "Isaiah 45:16",
            "text": "All of them are ashamed and indeed humiliated; the craftsmen of idols go together in insult. "
        },
        {
            "chapter": 45,
            "verse": 17,
            "name": "Isaiah 45:17",
            "text": "Israel is saved by Yahweh with everlasting salvation; you shall not be ashamed, and you shall not be humiliated \u231eto all eternity\u231f. "
        },
        {
            "chapter": 45,
            "verse": 18,
            "name": "Isaiah 45:18",
            "text": "For thus says Yahweh, \u231ewho created\u231f the heavens, he is God, \u231ewho formed\u231f the earth and \u231ewho made\u231f it. He himself established it; he did not create it as emptiness\u2014 he formed it for inhabiting.  \u201cI am Yahweh and there is none besides me. "
        },
        {
            "chapter": 45,
            "verse": 19,
            "name": "Isaiah 45:19",
            "text": " I have spoken not in secrecy, in a place, a land, of darkness, I have not said to the descendants of Jacob, \u2018Seek me \u231ein vain\u231f!\u2019 I, Yahweh, am speaking righteousness, declaring uprightness. "
        },
        {
            "chapter": 45,
            "verse": 20,
            "name": "Isaiah 45:20",
            "text": "Assemble and come; draw near together, survivors of the nations! They do not know, those who carry \u231etheir wooden idols\u231f and pray to a god who cannot save. "
        },
        {
            "chapter": 45,
            "verse": 21,
            "name": "Isaiah 45:21",
            "text": "Declare and present your case, also let them consult together! Who \u231emade this known\u231f from \u231eformer times\u231f, declared it from \u231eof old\u231f? Was it not I, Yahweh? And there is no other god besides me, a righteous God besides me, and no savior besides me. "
        },
        {
            "chapter": 45,
            "verse": 22,
            "name": "Isaiah 45:22",
            "text": "Turn to me and be saved, all the ends of the earth, for I am God and there is none besides me. "
        },
        {
            "chapter": 45,
            "verse": 23,
            "name": "Isaiah 45:23",
            "text": "I have sworn by myself; a word that shall not return has gone forth from my mouth in righteousness: \u2018Every knee shall kneel down to me; every tongue shall swear.\u2019 "
        },
        {
            "chapter": 45,
            "verse": 24,
            "name": "Isaiah 45:24",
            "text": "\u2018Only in Yahweh,\u2019 one shall say to me, \u2018are righteousness and strength.\u2019 He shall come to him, and all those who were angry with him shall be ashamed. "
        },
        {
            "chapter": 45,
            "verse": 25,
            "name": "Isaiah 45:25",
            "text": "In Yahweh all the offspring of Israel shall be in the right, and they shall boast.\u201d    "
        }
    ]
}