{
    "translation": "\u0423\u043a\u0440\u0430\u0457\u043d\u0441\u044c\u043a\u0430 \u0411\u0456\u0431\u043b\u0456\u044f. \u041f\u0435\u0440\u0435\u043a\u043b\u0430\u0434 \u0406\u0432\u0430\u043d\u0430 \u041e\u0433\u0456\u0454\u043d\u043a\u0430.",
    "abbreviation": "ukrainian",
    "lang": "uk",
    "language": "Ukrainian",
    "direction": "LTR",
    "encoding": "UTF-8",
    "book_nr": 14,
    "book_name": "2 Chronicles",
    "chapter": 27,
    "name": "2 Chronicles 27",
    "verses": [
        {
            "chapter": 27,
            "verse": 1,
            "name": "2 Chronicles 27:1",
            "text": "\u0419\u043e\u0442\u0430\u043c \u0431\u0443\u0432 \u0432\u0456\u043a\u0443 \u0434\u0432\u0430\u0434\u0446\u044f\u0442\u0438 \u0439 \u043f'\u044f\u0442\u0438 \u0440\u043e\u043a\u0456\u0432, \u043a\u043e\u043b\u0438 \u0437\u0430\u0446\u0430\u0440\u044e\u0432\u0430\u0432, \u0456 \u0448\u0456\u0441\u0442\u043d\u0430\u0434\u0446\u044f\u0442\u044c \u043b\u0456\u0442 \u0446\u0430\u0440\u044e\u0432\u0430\u0432 \u0432 \u0404\u0440\u0443\u0441\u0430\u043b\u0438\u043c\u0456. \u0410 \u0456\u043c'\u044f \u0439\u043e\u0433\u043e \u043c\u0430\u0442\u0435\u0440\u0456 \u0404\u0440\u0443\u0448\u0430, \u0421\u0430\u0434\u043e\u043a\u043e\u0432\u0430 \u0434\u043e\u0447\u043a\u0430."
        },
        {
            "chapter": 27,
            "verse": 2,
            "name": "2 Chronicles 27:2",
            "text": "\u0406 \u0440\u043e\u0431\u0438\u0432 \u0432\u0456\u043d \u0443\u0433\u043e\u0434\u043d\u0435 \u0432 \u0413\u043e\u0441\u043f\u043e\u0434\u043d\u0456\u0445 \u043e\u0447\u0430\u0445, \u0443\u0441\u0435, \u0449\u043e \u0440\u043e\u0431\u0438\u0432 \u0431\u0443\u0432 \u0439\u043e\u0433\u043e \u0431\u0430\u0442\u044c\u043a\u043e \u0423\u0437\u0437\u0456\u0439\u044f. \u0422\u0456\u043b\u044c\u043a\u0438 \u0432\u0456\u043d \u043d\u0435 \u0432\u0445\u043e\u0434\u0438\u0432 \u0434\u043e \u0413\u043e\u0441\u043f\u043e\u0434\u043d\u044c\u043e\u0433\u043e \u0445\u0440\u0430\u043c\u0443, \u0442\u0430 \u043d\u0430\u0440\u043e\u0434 \u0456\u0449\u0435 \u0433\u0440\u0456\u0448\u0438\u0432."
        },
        {
            "chapter": 27,
            "verse": 3,
            "name": "2 Chronicles 27:3",
            "text": "\u0412\u0456\u043d \u0437\u0431\u0443\u0434\u0443\u0432\u0430\u0432 \u0433\u043e\u0440\u0456\u0448\u043d\u044e \u0431\u0440\u0430\u043c\u0443 \u0413\u043e\u0441\u043f\u043e\u0434\u043d\u044c\u043e\u0433\u043e \u0434\u043e\u043c\u0443, \u0456 \u0431\u0430\u0433\u0430\u0442\u043e \u043f\u043e\u0431\u0443\u0434\u0443\u0432\u0430\u0432 \u043d\u0430 \u043c\u0443\u0440\u0456 \u041e\u0444\u0435\u043b."
        },
        {
            "chapter": 27,
            "verse": 4,
            "name": "2 Chronicles 27:4",
            "text": "\u0406 \u043f\u043e\u0431\u0443\u0434\u0443\u0432\u0430\u0432 \u0432\u0456\u043d \u043c\u0456\u0441\u0442\u0430 \u0432 \u042e\u0434\u0438\u043d\u0438\u0445 \u0433\u043e\u0440\u0430\u0445, \u0430 \u0432 \u043b\u0456\u0441\u0430\u0445 \u043f\u043e\u0431\u0443\u0434\u0443\u0432\u0430\u0432 \u0442\u0432\u0435\u0440\u0434\u0438\u043d\u0456 \u0442\u0430 \u0431\u0430\u0448\u0442\u0438."
        },
        {
            "chapter": 27,
            "verse": 5,
            "name": "2 Chronicles 27:5",
            "text": "\u0406 \u0432\u0456\u043d \u0432\u043e\u044e\u0432\u0430\u0432 \u0437 \u0446\u0430\u0440\u0435\u043c \u0430\u043c\u043c\u043e\u043d\u0456\u0442\u044f\u043d, \u0456 \u0431\u0443\u0432 \u0441\u0438\u043b\u044c\u043d\u0456\u0448\u0438\u0439 \u0432\u0456\u0434 \u043d\u0438\u0445. \u0406 \u0434\u0430\u043b\u0438 \u0439\u043e\u043c\u0443 \u0430\u043c\u043c\u043e\u043d\u0456\u0442\u044f\u043d\u0438 \u0442\u043e\u0433\u043e \u0440\u043e\u043a\u0443 \u0441\u043e\u0442\u043d\u044e \u0442\u0430\u043b\u0430\u043d\u0442\u0456\u0432 \u0441\u0440\u0456\u0431\u043b\u0430, \u0456 \u0434\u0435\u0441\u044f\u0442\u044c \u0442\u0438\u0441\u044f\u0447 \u043a\u043e\u0440\u0456\u0432 \u043f\u0448\u0435\u043d\u0438\u0446\u0456 \u0442\u0430 \u0434\u0435\u0441\u044f\u0442\u044c \u0442\u0438\u0441\u044f\u0447 \u044f\u0447\u043c\u0435\u043d\u044e. \u0426\u0435 \u0434\u0430\u0432\u0430\u043b\u0438 \u0439\u043e\u043c\u0443 \u0430\u043c\u043c\u043e\u043d\u0456\u0442\u044f\u043d\u0438 \u0439 \u0440\u043e\u043a\u0443 \u0434\u0440\u0443\u0433\u043e\u0433\u043e \u0442\u0430 \u0442\u0440\u0435\u0442\u044c\u043e\u0433\u043e."
        },
        {
            "chapter": 27,
            "verse": 6,
            "name": "2 Chronicles 27:6",
            "text": "\u0406 \u0441\u0442\u0430\u0432 \u0441\u0438\u043b\u044c\u043d\u0438\u0439 \u0419\u043e\u0442\u0430\u043c, \u0431\u043e \u043f\u043e\u043f\u0440\u0430\u0432\u0438\u0432 \u0434\u043e\u0440\u043e\u0433\u0438 \u0441\u0432\u043e\u0457 \u043f\u0435\u0440\u0435\u0434 \u043b\u0438\u0446\u0435\u043c \u0413\u043e\u0441\u043f\u043e\u0434\u0430, \u0411\u043e\u0433\u0430 \u0441\u0432\u043e\u0433\u043e."
        },
        {
            "chapter": 27,
            "verse": 7,
            "name": "2 Chronicles 27:7",
            "text": "\u0410 \u0440\u0435\u0448\u0442\u0430 \u0419\u043e\u0442\u0430\u043c\u043e\u0432\u0438\u0445 \u0434\u0456\u043b, \u0456 \u0432\u0441\u0456 \u0432\u0456\u0439\u043d\u0438 \u0439\u043e\u0433\u043e \u0442\u0430 \u0434\u043e\u0440\u043e\u0433\u0438 \u0439\u043e\u0433\u043e, \u043e\u0441\u044c \u0432\u043e\u043d\u0438 \u043e\u043f\u0438\u0441\u0430\u043d\u0456 \u0432 \u041a\u043d\u0438\u0437\u0456 \u0426\u0430\u0440\u0456\u0432 \u0406\u0437\u0440\u0430\u0457\u043b\u0435\u0432\u0438\u0445 \u0442\u0430 \u042e\u0434\u0438\u043d\u0438\u0445."
        },
        {
            "chapter": 27,
            "verse": 8,
            "name": "2 Chronicles 27:8",
            "text": "\u0412\u0456\u043d \u0431\u0443\u0432 \u0432\u0456\u043a\u0443 \u0434\u0432\u0430\u0434\u0446\u044f\u0442\u0438 \u0439 \u043f'\u044f\u0442\u0438 \u043b\u0456\u0442, \u043a\u043e\u043b\u0438 \u0437\u0430\u0446\u0430\u0440\u044e\u0432\u0430\u0432, \u0456 \u0448\u0456\u0441\u0442\u043d\u0430\u0434\u0446\u044f\u0442\u044c \u043b\u0456\u0442 \u0446\u0430\u0440\u044e\u0432\u0430\u0432 \u0432 \u0404\u0440\u0443\u0441\u0430\u043b\u0438\u043c\u0456."
        },
        {
            "chapter": 27,
            "verse": 9,
            "name": "2 Chronicles 27:9",
            "text": "\u0406 \u0441\u043f\u043e\u0447\u0438\u0432 \u0419\u043e\u0442\u0430\u043c \u0456\u0437 \u0441\u0432\u043e\u0457\u043c\u0438 \u0431\u0430\u0442\u044c\u043a\u0430\u043c\u0438, \u0456 \u043f\u043e\u0445\u043e\u0432\u0430\u043b\u0438 \u0439\u043e\u0433\u043e \u0432 \u0414\u0430\u0432\u0438\u0434\u043e\u0432\u043e\u043c\u0443 \u041c\u0456\u0441\u0442\u0456, \u0430 \u0437\u0430\u043c\u0456\u0441\u0442\u044c \u043d\u044c\u043e\u0433\u043e \u0437\u0430\u0446\u0430\u0440\u044e\u0432\u0430\u0432 \u0441\u0438\u043d \u0439\u043e\u0433\u043e \u0410\u0445\u0430\u0437. "
        }
    ]
}