{
    "translation": "Giovanni Diodati Bible (1649)",
    "abbreviation": "giovanni",
    "lang": "it",
    "language": "Italian",
    "direction": "LTR",
    "encoding": "",
    "book_nr": 2,
    "book_name": "Exodus",
    "chapter": 38,
    "name": "Exodus 38",
    "verses": [
        {
            "chapter": 38,
            "verse": 1,
            "name": "Exodus 38:1",
            "text": "POI fece l\u2019Altar degli olocausti, di legno di Sittim; la sua lunghezza era di cinque cubiti, e la larghezza di cinque cubiti, tal ch\u2019era quadrato, e l\u2019altezza di tre cubiti.\r"
        },
        {
            "chapter": 38,
            "verse": 2,
            "name": "Exodus 38:2",
            "text": "E gli fece delle corna a\u2019 suoi quattro canti, le quali erano tirate dall\u2019Altare; e lo coperse di rame.\r"
        },
        {
            "chapter": 38,
            "verse": 3,
            "name": "Exodus 38:3",
            "text": "Fece eziandio tutti gli strumenti dell\u2019Altare, i calderoni, e le palette, e i bacini, e le forcelle, e le cazze; egli fece tutti gli strumenti dell\u2019Altare di rame.\r"
        },
        {
            "chapter": 38,
            "verse": 4,
            "name": "Exodus 38:4",
            "text": "Fece ancora all\u2019Altare una grata di rame, di lavor reticolato, disotto al procinto dell\u2019Altare, a basso, ed era fino a mezzo l\u2019Altare.\r"
        },
        {
            "chapter": 38,
            "verse": 5,
            "name": "Exodus 38:5",
            "text": "E fond\u00e8 quattro anelli, i quali egli mise a\u2019 quattro canti della grata di rame, per mettervi dentro le stanghe.\r"
        },
        {
            "chapter": 38,
            "verse": 6,
            "name": "Exodus 38:6",
            "text": "Fece, oltre a ci\u00f2, le stanghe di legno di Sittim, e le coperse di rame.\r"
        },
        {
            "chapter": 38,
            "verse": 7,
            "name": "Exodus 38:7",
            "text": "E mise quelle stanghe dentro agli anelli, a\u2019 lati dell\u2019Altare, per portarlo con esse; egli fece l\u2019Altare di tavole, vuoto.\r"
        },
        {
            "chapter": 38,
            "verse": 8,
            "name": "Exodus 38:8",
            "text": "Fece ancora di rame la Conca, e il suo pi\u00e8 di rame, degli specchi delle donne, che a certi tempi ordinati venivano a servire nell\u2019entrata del Tabernacolo della convenenza.\r"
        },
        {
            "chapter": 38,
            "verse": 9,
            "name": "Exodus 38:9",
            "text": "Fece, oltre a ci\u00f2, il Cortile; dal lato Australe verso il Mezzod\u00ec v\u2019erano cento cubiti di cortine di fin lino ritorto, per lo Cortile,\r"
        },
        {
            "chapter": 38,
            "verse": 10,
            "name": "Exodus 38:10",
            "text": "con le lor venti colonne, e i lor venti piedistalli, di rame; ma i capitelli delle colonne, e i lor fili, erano di argento.\r"
        },
        {
            "chapter": 38,
            "verse": 11,
            "name": "Exodus 38:11",
            "text": "Cos\u00ec ancora dal lato Settentrionale v\u2019erano cento cubiti di cortine, con le lor venti colonne, e i lor venti piedistalli, di rame; ma i capitelli delle colonne, e i lor fili, erano d\u2019argento.\r"
        },
        {
            "chapter": 38,
            "verse": 12,
            "name": "Exodus 38:12",
            "text": "E dal lato Occidentale, v\u2019erano cinquanta cubiti di cortine, con le lor dieci colonne, e i lor dieci piedistalli; e i capitelli delle colonne, e i lor fili, erano di argento.\r"
        },
        {
            "chapter": 38,
            "verse": 13,
            "name": "Exodus 38:13",
            "text": "E dal lato Orientale, verso il Levante, v\u2019erano cinquanta cubiti di cortine.\r"
        },
        {
            "chapter": 38,
            "verse": 14,
            "name": "Exodus 38:14",
            "text": "Cio\u00e8, all\u2019un de\u2019 canti vi erano quindici cubiti di cortine, con le lor tre colonne, e i lor tre piedistalli;\r"
        },
        {
            "chapter": 38,
            "verse": 15,
            "name": "Exodus 38:15",
            "text": "e all\u2019altro canto, cio\u00e8 cos\u00ec di qua, come di l\u00e0 dell\u2019entrata del Cortile, quindici cubiti di cortine, con le lor tre colonne, e i lor tre piedistalli.\r"
        },
        {
            "chapter": 38,
            "verse": 16,
            "name": "Exodus 38:16",
            "text": "Tutte le cortine del Cortile d\u2019intorno erano di fin lino ritorto.\r"
        },
        {
            "chapter": 38,
            "verse": 17,
            "name": "Exodus 38:17",
            "text": "E i piedistalli e le colonne erano di rame; ma i capitelli delle colonne, e i lor fili erano di argento; tutte le colonne del Cortile aveano i capitelli coperti di argento; ma i lor fili erano di argento.\r"
        },
        {
            "chapter": 38,
            "verse": 18,
            "name": "Exodus 38:18",
            "text": "Fece ancora all\u2019entrata del Cortile un tappeto di lavoro di ricamatore, di violato, e di porpora, e di scarlatto, e di fin lino ritorto, di venti cubiti di lunghezza, e di cinque cubiti d\u2019altezza, nella larghezza corrispondente alle cortine del Cortile;\r"
        },
        {
            "chapter": 38,
            "verse": 19,
            "name": "Exodus 38:19",
            "text": "con le lor quattro colonne, e i lor quattro piedistalli, di rame; ma i lor capitelli erano di argento; esse aveano i lor capitelli coperti di argento, ma i lor fili erano di argento.\r"
        },
        {
            "chapter": 38,
            "verse": 20,
            "name": "Exodus 38:20",
            "text": "E fece tutti i piuoli del Tabernacolo, e del Cortile d\u2019intorno, di rame.\r"
        },
        {
            "chapter": 38,
            "verse": 21,
            "name": "Exodus 38:21",
            "text": "QUESTE son le somme dell\u2019oro, dell\u2019argento, e del rame, impiegato intorno al Tabernacolo della Testimonianza, le quali furono fatte d\u2019ordine di Mos\u00e8, per opera de\u2019 Leviti, sotto la condotta d\u2019Itamar, figliuol del Sacerdote Aaronne.\r"
        },
        {
            "chapter": 38,
            "verse": 22,
            "name": "Exodus 38:22",
            "text": "Delle quali Besaleel, figliuol di Uri, figliuol di Hur, della trib\u00f9 di Giuda, fece tutte quelle cose che il Signore avea comandate a Mos\u00e8;\r"
        },
        {
            "chapter": 38,
            "verse": 23,
            "name": "Exodus 38:23",
            "text": "insieme con Oholiab, figliuol di Ahisamac, della trib\u00f9 di Dan, e altri fabbri, e disegnatori, e ricamatori in violato, e in porpora, e in iscarlatto, e in fin lino.\r"
        },
        {
            "chapter": 38,
            "verse": 24,
            "name": "Exodus 38:24",
            "text": "Tutto l\u2019oro che fu impiegato nell\u2019opera, in tutto il lavorio del Santuario: l\u2019oro di quell\u2019offerta fu ventinove talenti, e settecentrenta sicli, a siclo di Santuario.\r"
        },
        {
            "chapter": 38,
            "verse": 25,
            "name": "Exodus 38:25",
            "text": "E l\u2019argento degli annoverati d\u2019infra la raunanza fu cento talenti, e mille settecensettanta cinque sicli, a siclo di Santuario;\r"
        },
        {
            "chapter": 38,
            "verse": 26,
            "name": "Exodus 38:26",
            "text": "prendendo un didramma per testa, ch\u2019\u00e8 la met\u00e0 d\u2019un siclo, a siclo di Santuario, da chiunque passava fra gli annoverati, dall\u2019et\u00e0 di vent\u2019anni in su, i quali furono seicentotremila cinquecentocinquanta.\r"
        },
        {
            "chapter": 38,
            "verse": 27,
            "name": "Exodus 38:27",
            "text": "Di questo argento cento talenti furono per fondere i piedistalli del Santuario, e i piedistalli della Cortina; cento talenti per cento piedistalli, un talento per piedistallo.\r"
        },
        {
            "chapter": 38,
            "verse": 28,
            "name": "Exodus 38:28",
            "text": "E con que\u2019 mille settecensettanta cinque sicli, egli fece i capitelli alle colonne, e coperse i lor capitelli; e fece lor de\u2019 fili.\r"
        },
        {
            "chapter": 38,
            "verse": 29,
            "name": "Exodus 38:29",
            "text": "E il rame dell\u2019offerta fu settanta talenti, e duemila quattrocento sicli.\r"
        },
        {
            "chapter": 38,
            "verse": 30,
            "name": "Exodus 38:30",
            "text": "E d\u2019esso fece i piedistalli dell\u2019entrata del Tabernacolo della convenenza, e l\u2019Altar di rame, e la sua grata di rame; e tutti gli strumenti dell\u2019Altare;\r"
        },
        {
            "chapter": 38,
            "verse": 31,
            "name": "Exodus 38:31",
            "text": "e i piedistalli del Cortile, d\u2019intorno, e i piedistalli dell\u2019entrata del Cortile, e tutti i piuoli del Tabernacolo, e tutti i piuoli del Cortile d\u2019intorno.\r"
        }
    ]
}