{
    "translation": "beibl.net",
    "abbreviation": "welbeiblnet",
    "lang": "cy",
    "language": "Welsh",
    "direction": "LTR",
    "encoding": "UTF-8",
    "book_nr": 42,
    "book_name": "Luke",
    "chapter": 24,
    "name": "Luke 24",
    "verses": [
        {
            "chapter": 24,
            "verse": 1,
            "name": "Luke 24:1",
            "text": "     Yn gynnar iawn y bore Sul aeth y gwragedd at y bedd gyda\u2019r perlysiau roedden nhw wedi eu paratoi."
        },
        {
            "chapter": 24,
            "verse": 2,
            "name": "Luke 24:2",
            "text": "Dyma nhw\u2019n darganfod fod y garreg fawr oedd ar geg y bedd wedi ei rholio i ffwrdd,"
        },
        {
            "chapter": 24,
            "verse": 3,
            "name": "Luke 24:3",
            "text": "a phan aethon nhw i mewn i\u2019r bedd doedd y corff ddim yno!"
        },
        {
            "chapter": 24,
            "verse": 4,
            "name": "Luke 24:4",
            "text": "Roedden nhw wedi drysu\u2019n l\u00e2n, ond yna\u2019n sydyn dyma ddau ddyn mewn dillad llachar yn sefyll wrth eu hymyl."
        },
        {
            "chapter": 24,
            "verse": 5,
            "name": "Luke 24:5",
            "text": "Roedd y gwragedd wedi dychryn am eu bywydau, a dyma nhw\u2019n plygu a\u2019u hwynebau i lawr o\u2019u blaenau. Yna dyma\u2019r dynion yn gofyn iddyn nhw, \u201cPam dych chi\u2019n edrych mewn bedd am rywun sy\u2019n fyw?"
        },
        {
            "chapter": 24,
            "verse": 6,
            "name": "Luke 24:6",
            "text": "Dydy Iesu ddim yma; mae yn \u00f4l yn fyw! Dych chi ddim yn cofio beth ddwedodd e pan oedd gyda chi yn Galilea?"
        },
        {
            "chapter": 24,
            "verse": 7,
            "name": "Luke 24:7",
            "text": "Dwedodd y byddai e, Mab y Dyn, yn cael ei drosglwyddo i afael dynion pechadurus fyddai\u2019n ei groeshoelio; ond yna ddeuddydd wedyn byddai e\u2019n dod yn \u00f4l yn fyw.\u201d"
        },
        {
            "chapter": 24,
            "verse": 8,
            "name": "Luke 24:8",
            "text": "A dyma nhw\u2019n cofio beth roedd wedi ei ddweud."
        },
        {
            "chapter": 24,
            "verse": 9,
            "name": "Luke 24:9",
            "text": "Felly dyma nhw\u2019n mynd yn \u00f4l i ddweud beth oedd wedi digwydd wrth yr unarddeg disgybl a phawb arall.  "
        },
        {
            "chapter": 24,
            "verse": 10,
            "name": "Luke 24:10",
            "text": "  Aeth Mair Magdalen, Joanna, Mair mam Iago, a nifer o wragedd eraill i ddweud yr hanes wrth yr apostolion."
        },
        {
            "chapter": 24,
            "verse": 11,
            "name": "Luke 24:11",
            "text": "Ond doedd yr apostolion ddim yn eu credu nhw \u2014 roedden nhw\u2019n meddwl fod y stori yn nonsens llwyr."
        },
        {
            "chapter": 24,
            "verse": 12,
            "name": "Luke 24:12",
            "text": "Ond dyma Pedr yn rhedeg at y bedd i edrych. Plygodd i edrych i mewn i\u2019r bedd a gweld y stribedi o liain yn gorwedd yno\u2019n wag. Gadawodd y bedd yn methu\u2019n l\u00e2n a deall beth oedd wedi digwydd.   "
        },
        {
            "chapter": 24,
            "verse": 13,
            "name": "Luke 24:13",
            "text": "     Yr un diwrnod, roedd dau o ddilynwyr Iesu ar eu ffordd i bentref Emaus, sydd ryw saith milltir o Jerwsalem."
        },
        {
            "chapter": 24,
            "verse": 14,
            "name": "Luke 24:14",
            "text": "Roedden nhw\u2019n sgwrsio am bopeth oedd wedi digwydd."
        },
        {
            "chapter": 24,
            "verse": 15,
            "name": "Luke 24:15",
            "text": "Wrth i\u2019r drafodaeth fynd yn ei blaen dyma Iesu\u2019n dod atyn nhw a dechrau cerdded gyda nhw."
        },
        {
            "chapter": 24,
            "verse": 16,
            "name": "Luke 24:16",
            "text": "Ond doedden nhw ddim yn sylweddoli pwy oedd e, am fod Duw wedi eu rhwystro rhag ei nabod e.  "
        },
        {
            "chapter": 24,
            "verse": 17,
            "name": "Luke 24:17",
            "text": "  Gofynnodd iddyn nhw, \u201cAm beth dych chi\u2019n dadlau gyda\u2019ch gilydd?\u201d Dyma nhw\u2019n sefyll yn stond. (Roedd eu tristwch i\u2019w weld ar eu hwynebau.)"
        },
        {
            "chapter": 24,
            "verse": 18,
            "name": "Luke 24:18",
            "text": "A dyma Cleopas, un ohonyn nhw, yn dweud, \u201cMae\u2019n rhaid mai ti ydy\u2019r unig berson yn Jerwsalem sydd ddim yn gwybod beth sydd wedi digwydd y dyddiau dwetha yma!\u201d"
        },
        {
            "chapter": 24,
            "verse": 19,
            "name": "Luke 24:19",
            "text": "\u201cGwybod beth?\u201d gofynnodd. \u201cBeth sydd wedi digwydd i Iesu o Nasareth,\u201d medden nhw. \u201cRoedd yn broffwyd i Dduw ac yn siaradwr gwych, ac roedd pawb wedi ei weld yn gwneud gwyrthiau rhyfeddol."
        },
        {
            "chapter": 24,
            "verse": 20,
            "name": "Luke 24:20",
            "text": "Ond dyma\u2019r prif offeiriaid a\u2019r arweinwyr crefyddol eraill yn ei arestio a\u2019i drosglwyddo i\u2019r Rhufeiniaid i gael ei ddedfrydu i farwolaeth, a\u2019i groeshoelio."
        },
        {
            "chapter": 24,
            "verse": 21,
            "name": "Luke 24:21",
            "text": "Roedden ni wedi gobeithio mai fe oedd y Meseia oedd yn mynd i ennill rhyddid i Israel. Digwyddodd hynny echdoe \u2014 Ond mae yna fwy\u2026"
        },
        {
            "chapter": 24,
            "verse": 22,
            "name": "Luke 24:22",
            "text": "Yn gynnar y bore ma dyma rai o\u2019r merched oedd gyda ni yn mynd at y bedd lle roedd ei gorff wedi cael ei osod,"
        },
        {
            "chapter": 24,
            "verse": 23,
            "name": "Luke 24:23",
            "text": "ond doedd y corff ddim yno! Roedden nhw\u2019n dweud eu bod nhw wedi gweld angylion, a bod y rheiny wedi dweud wrthyn nhw fod Iesu\u2019n fyw."
        },
        {
            "chapter": 24,
            "verse": 24,
            "name": "Luke 24:24",
            "text": "Felly dyma rai o\u2019r dynion oedd gyda ni yn mynd at y bedd i edrych, ac roedd popeth yn union fel roedd y gwragedd wedi dweud. Ond welon nhw ddim Iesu o gwbl.\u201d  "
        },
        {
            "chapter": 24,
            "verse": 25,
            "name": "Luke 24:25",
            "text": "  \u201cDych chi mor ddwl!\u201d meddai Iesu wrth y ddau oedd e\u2019n cerdded gyda nhw, \u201cPam dych chi\u2019n ei chael hi mor anodd i gredu\u2019r cwbl ddwedodd y proffwydi?"
        },
        {
            "chapter": 24,
            "verse": 26,
            "name": "Luke 24:26",
            "text": "Maen nhw\u2019n dweud fod rhaid i\u2019r Meseia ddioddef fel hyn cyn iddo gael ei anrhydeddu!\u201d"
        },
        {
            "chapter": 24,
            "verse": 27,
            "name": "Luke 24:27",
            "text": "A dyma Iesu\u2019n mynd dros bopeth ac yn esbonio iddyn nhw beth roedd Moses a\u2019r proffwydi eraill wedi ei ddweud amdano yn yr ysgrifau sanctaidd.  "
        },
        {
            "chapter": 24,
            "verse": 28,
            "name": "Luke 24:28",
            "text": "  Pan oedden nhw bron \u00e2 chyrraedd pen y daith, dyma Iesu\u2019n dweud ei fod e\u2019n mynd yn ei flaen."
        },
        {
            "chapter": 24,
            "verse": 29,
            "name": "Luke 24:29",
            "text": "Ond dyma nhw\u2019n erfyn yn daer arno: \u201cTyrd i aros gyda ni dros nos; mae\u2019n mynd yn hwyr.\u201d Felly aeth i aros gyda nhw.  "
        },
        {
            "chapter": 24,
            "verse": 30,
            "name": "Luke 24:30",
            "text": "  Pan oedden nhw\u2019n eistedd wrth y bwrdd i fwyta, cymerodd dorth o fara, ac adrodd gweddi o ddiolch cyn ei thorri a\u2019i rhannu iddyn nhw."
        },
        {
            "chapter": 24,
            "verse": 31,
            "name": "Luke 24:31",
            "text": "Yn sydyn dyma nhw\u2019n sylweddoli mai Iesu oedd gyda nhw, a\u2019r foment honno diflannodd o\u2019u golwg."
        },
        {
            "chapter": 24,
            "verse": 32,
            "name": "Luke 24:32",
            "text": "Dyma nhw\u2019n dweud wrth ei gilydd, \u201cRoedden ni\u2019n teimlo rhyw wefr, fel petai\u2019n calonnau ni ar d\u00e2n, wrth iddo siarad \u00e2 ni ar y ffordd ac esbonio beth mae\u2019r ysgrifau sanctaidd yn ei ddweud!\u201d  "
        },
        {
            "chapter": 24,
            "verse": 33,
            "name": "Luke 24:33",
            "text": "  Ymhen dim o amser roedden nhw ar eu ffordd yn \u00f4l i Jerwsalem. Dyma nhw\u2019n dod o hyd i\u2019r unarddeg disgybl a phawb arall gyda nhw,"
        },
        {
            "chapter": 24,
            "verse": 34,
            "name": "Luke 24:34",
            "text": "a\u2019r peth cyntaf gafodd ei ddweud wrthyn nhw oedd, \u201cMae\u2019n wir! Mae\u2019r Arglwydd wedi dod yn \u00f4l yn fyw. Mae Simon Pedr wedi ei weld!\u201d"
        },
        {
            "chapter": 24,
            "verse": 35,
            "name": "Luke 24:35",
            "text": "Yna dyma\u2019r ddau yn dweud beth oedd wedi digwydd iddyn nhw ar eu taith, a sut wnaethon nhw sylweddoli pwy oedd Iesu wrth iddo dorri\u2019r bara.   "
        },
        {
            "chapter": 24,
            "verse": 36,
            "name": "Luke 24:36",
            "text": "     Roedden nhw\u2019n dal i siarad am y peth pan ymddangosodd Iesu yn eu canol. \u201cShal\u00f4m!\u201d meddai wrthyn nhw.  "
        },
        {
            "chapter": 24,
            "verse": 37,
            "name": "Luke 24:37",
            "text": "  Roedden nhw wedi cael braw. Roedden nhw\u2019n meddwl eu bod nhw\u2019n gweld ysbryd."
        },
        {
            "chapter": 24,
            "verse": 38,
            "name": "Luke 24:38",
            "text": "Ond dyma Iesu\u2019n gofyn iddyn nhw, \u201cBeth sy\u2019n bod? Pam dych chi\u2019n amau pwy ydw i?"
        },
        {
            "chapter": 24,
            "verse": 39,
            "name": "Luke 24:39",
            "text": "Edrychwch ar fy nwylo a\u2019m traed i. Fi sydd yma go iawn! Cyffyrddwch fi. Byddwch chi\u2019n gweld wedyn mai dim ysbryd ydw i. Does gan ysbryd ddim corff ag esgyrn fel hyn!\u201d"
        },
        {
            "chapter": 24,
            "verse": 40,
            "name": "Luke 24:40",
            "text": "Roedd yn dangos ei ddwylo a\u2019i draed iddyn nhw wrth ddweud y peth.  "
        },
        {
            "chapter": 24,
            "verse": 41,
            "name": "Luke 24:41",
            "text": "  Roedden nhw\u2019n teimlo rhyw gymysgedd o lawenydd a syfrdandod, ac yn dal i fethu credu\u2019r peth. Felly gofynnodd Iesu iddyn nhw, \u201cOes gynnoch chi rywbeth i\u2019w fwyta yma?\u201d"
        },
        {
            "chapter": 24,
            "verse": 42,
            "name": "Luke 24:42",
            "text": "Dyma nhw\u2019n rhoi darn o bysgodyn wedi ei goginio iddo,"
        },
        {
            "chapter": 24,
            "verse": 43,
            "name": "Luke 24:43",
            "text": "a dyma Iesu\u2019n ei gymryd a\u2019i fwyta o flaen eu llygaid.  "
        },
        {
            "chapter": 24,
            "verse": 44,
            "name": "Luke 24:44",
            "text": "  Yna dwedodd wrthyn nhw, \u201cPan o\u2019n i gyda chi, dwedais fod rhaid i\u2019r cwbl ysgrifennodd Moses amdana i yn y Gyfraith, a beth sydd yn llyfrau\u2019r Proffwydi a\u2019r Salmau, ddod yn wir.\u201d"
        },
        {
            "chapter": 24,
            "verse": 45,
            "name": "Luke 24:45",
            "text": "Wedyn esboniodd iddyn nhw beth mae\u2019r ysgrifau sanctaidd yn ei ddweud, er mwyn iddyn nhw ddeall."
        },
        {
            "chapter": 24,
            "verse": 46,
            "name": "Luke 24:46",
            "text": "\u201cMae\u2019r ysgrifau yn dweud fod y Meseia yn mynd i ddioddef a marw, ac yna dod yn \u00f4l yn fyw ddeuddydd wedyn."
        },
        {
            "chapter": 24,
            "verse": 47,
            "name": "Luke 24:47",
            "text": "Rhaid cyhoeddi\u2019r neges yma yn Jerwsalem a thrwy\u2019r gwledydd i gyd: fod pobl i droi cefn ar eu pechod a bod Duw\u2019n barod i faddau iddyn nhw."
        },
        {
            "chapter": 24,
            "verse": 48,
            "name": "Luke 24:48",
            "text": "Chi ydy\u2019r llygad-dystion sydd wedi gweld y cwbl!"
        },
        {
            "chapter": 24,
            "verse": 49,
            "name": "Luke 24:49",
            "text": "Felly dw i\u2019n mynd i anfon beth wnaeth fy Nhad ei addo i chi \u2014 arhoswch yma yn y ddinas nes i\u2019r Ysbryd Gl\u00e2n ddod i lawr a\u2019ch gwisgo chi gyda nerth.\u201d   "
        },
        {
            "chapter": 24,
            "verse": 50,
            "name": "Luke 24:50",
            "text": "     Yna dyma Iesu\u2019n mynd \u00e2 nhw allan i ymyl Bethania. Wrth iddo godi ei ddwylo i\u2019w bendithio nhw"
        },
        {
            "chapter": 24,
            "verse": 51,
            "name": "Luke 24:51",
            "text": "cafodd ei gymryd i ffwrdd i\u2019r nefoedd,"
        },
        {
            "chapter": 24,
            "verse": 52,
            "name": "Luke 24:52",
            "text": "ac roedden nhw\u2019n ei addoli. Wedyn dyma nhw\u2019n mynd yn \u00f4l i Jerwsalem yn llawen,"
        },
        {
            "chapter": 24,
            "verse": 53,
            "name": "Luke 24:53",
            "text": "a threulio eu hamser i gyd yn y deml yn moli Duw.     "
        }
    ]
}