{
    "translation": "1757 Church Slavonic Elizabeth Bible",
    "abbreviation": "cslelizabeth",
    "lang": "cu",
    "language": "Slavonic Elizabeth",
    "direction": "LTR",
    "encoding": "UTF-8",
    "book_nr": 19,
    "book_name": "Psalms",
    "chapter": 66,
    "name": "Psalms 66",
    "verses": [
        {
            "chapter": 66,
            "verse": 1,
            "name": "Psalms 66:1",
            "text": "\u0412 \u043a\u043e\u043d\u0435\u0446, \u0432 \u043f\u0435\u0441\u043d\u0435\u0445, \u043f\u0441\u0430\u043b\u043e\u043c \u043f\u0435\u0441\u043d\u0438 \u0414\u0430\u0432\u0438\u0434\u0443."
        },
        {
            "chapter": 66,
            "verse": 2,
            "name": "Psalms 66:2",
            "text": "\u0411\u043e\u0436\u0435, \u0443\u0449\u0435\u0434\u0440\u0438 \u043d\u044b \u0438 \u0431\u043b\u0430\u0433\u043e\u0441\u043b\u043e\u0432\u0438 \u043d\u044b, \u043f\u0440\u043e\u0441\u0432\u0435\u0442\u0438 \u043b\u0438\u0446\u0435 \u0422\u0432\u043e\u0435 \u043d\u0430 \u043d\u044b \u0438 \u043f\u043e\u043c\u0438\u043b\u0443\u0439 \u043d\u044b:"
        },
        {
            "chapter": 66,
            "verse": 3,
            "name": "Psalms 66:3",
            "text": "\u043f\u043e\u0437\u043d\u0430\u0442\u0438 \u043d\u0430 \u0437\u0435\u043c\u043b\u0438 \u043f\u0443\u0442\u044c \u0422\u0432\u043e\u0439, \u0432\u043e \u0432\u0441\u0435\u0445 \u044f\u0437\u044b\u0446\u0435\u0445 \u0441\u043f\u0430\u0441\u0435\u043d\u0438\u0435 \u0422\u0432\u043e\u0435."
        },
        {
            "chapter": 66,
            "verse": 4,
            "name": "Psalms 66:4",
            "text": "\u0414\u0430 \u0438\u0441\u043f\u043e\u0432\u0435\u0434\u044f\u0442\u0441\u044f \u0422\u0435\u0431\u0435 \u043b\u044e\u0434\u0438\u0435, \u0411\u043e\u0436\u0435, \u0434\u0430 \u0438\u0441\u043f\u043e\u0432\u0435\u0434\u044f\u0442\u0441\u044f \u0422\u0435\u0431\u0435 \u043b\u044e\u0434\u0438\u0435 \u0432\u0441\u0438."
        },
        {
            "chapter": 66,
            "verse": 5,
            "name": "Psalms 66:5",
            "text": "\u0414\u0430 \u0432\u043e\u0437\u0432\u0435\u0441\u0435\u043b\u044f\u0442\u0441\u044f \u0438 \u0434\u0430 \u0432\u043e\u0437\u0440\u0430\u0434\u0443\u044e\u0442\u0441\u044f \u044f\u0437\u044b\u0446\u044b: \u044f\u043a\u043e \u0441\u0443\u0434\u0438\u0448\u0438 \u043b\u044e\u0434\u0435\u043c \u043f\u0440\u0430\u0432\u043e\u0442\u043e\u044e, \u0438 \u044f\u0437\u044b\u043a\u0438 \u043d\u0430 \u0437\u0435\u043c\u043b\u0438 \u043d\u0430\u0441\u0442\u0430\u0432\u0438\u0448\u0438."
        },
        {
            "chapter": 66,
            "verse": 6,
            "name": "Psalms 66:6",
            "text": "\u0414\u0430 \u0438\u0441\u043f\u043e\u0432\u0435\u0434\u044f\u0442\u0441\u044f \u0422\u0435\u0431\u0435 \u043b\u044e\u0434\u0438\u0435, \u0411\u043e\u0436\u0435, \u0434\u0430 \u0438\u0441\u043f\u043e\u0432\u0435\u0434\u044f\u0442\u0441\u044f \u0422\u0435\u0431\u0435 \u043b\u044e\u0434\u0438\u0435 \u0432\u0441\u0438."
        },
        {
            "chapter": 66,
            "verse": 7,
            "name": "Psalms 66:7",
            "text": "\u0417\u0435\u043c\u043b\u044f \u0434\u0430\u0434\u0435 \u043f\u043b\u043e\u0434 \u0441\u0432\u043e\u0439: \u0431\u043b\u0430\u0433\u043e\u0441\u043b\u043e\u0432\u0438 \u043d\u044b, \u0411\u043e\u0436\u0435, \u0411\u043e\u0436\u0435 \u043d\u0430\u0448,"
        },
        {
            "chapter": 66,
            "verse": 8,
            "name": "Psalms 66:8",
            "text": "\u0431\u043b\u0430\u0433\u043e\u0441\u043b\u043e\u0432\u0438 \u043d\u044b, \u0411\u043e\u0436\u0435: \u0438 \u0434\u0430 \u0443\u0431\u043e\u044f\u0442\u0441\u044f \u0415\u0433\u043e \u0432\u0441\u0438 \u043a\u043e\u043d\u0446\u044b \u0437\u0435\u043c\u043b\u0438. "
        }
    ]
}