{
    "translation": "Dutch Staten Vertaling",
    "abbreviation": "statenvertaling",
    "lang": "nl",
    "language": "Dutch",
    "direction": "LTR",
    "encoding": "UTF-8",
    "book_nr": 47,
    "book_name": "2 Corinthians",
    "chapter": 9,
    "name": "2 Corinthians 9",
    "verses": [
        {
            "chapter": 9,
            "verse": 1,
            "name": "2 Corinthians 9:1",
            "text": "Want van de bediening, die voor de heiligen geschiedt, is mij onnodig aan u te schrijven."
        },
        {
            "chapter": 9,
            "verse": 2,
            "name": "2 Corinthians 9:2",
            "text": "Want ik weet de volvaardigheid uws gemoeds, van welke ik roem over u bij de Macedoni\u00ebrs, dat Achaje van over een jaar bereid is geweest; en de ijver, van u begonnen, heeft er velen verwekt."
        },
        {
            "chapter": 9,
            "verse": 3,
            "name": "2 Corinthians 9:3",
            "text": "Maar ik heb deze broeders gezonden, opdat onze roem, dien wij over u hebben, niet zou ijdel gemaakt worden in dezen dele; opdat (gelijk ik gezegd heb) gij bereid moogt zijn;"
        },
        {
            "chapter": 9,
            "verse": 4,
            "name": "2 Corinthians 9:4",
            "text": "En dat niet mogelijk, zo de Macedoni\u00ebrs met mij kwamen, en u onbereid vonden, wij (opdat wij niet zeggen, gij) beschaamd worden in dezen vasten grond der roeming."
        },
        {
            "chapter": 9,
            "verse": 5,
            "name": "2 Corinthians 9:5",
            "text": "Ik heb dan nodig geacht deze broeders te vermanen, dat zij eerst tot u zouden komen, en voorbereiden uw te voren aangedienden zegen; opdat die gereed zij, alzo als een zegen, en niet als een vrekheid."
        },
        {
            "chapter": 9,
            "verse": 6,
            "name": "2 Corinthians 9:6",
            "text": "En dit zeg ik: Die spaarzamelijk zaait, zal ook spaarzamelijk maaien; en die in zegeningen zaait, zal ook in zegeningen maaien."
        },
        {
            "chapter": 9,
            "verse": 7,
            "name": "2 Corinthians 9:7",
            "text": "Een iegelijk doe, gelijk hij in zijn hart, voorneemt; niet uit droefheid, of uit nooddwang; want God heeft een blijmoedigen gever lief."
        },
        {
            "chapter": 9,
            "verse": 8,
            "name": "2 Corinthians 9:8",
            "text": "En God is machtig alle genade te doen overvloedig zijn in u; opdat gij in alles te allen tijd, alle genoegzaamheid hebbende, tot alle goed werk overvloedig moogt zijn."
        },
        {
            "chapter": 9,
            "verse": 9,
            "name": "2 Corinthians 9:9",
            "text": "Gelijk er geschreven is: Hij heeft gestrooid, hij heeft den armen gegeven; Zijn gerechtigheid blijft in der eeuwigheid."
        },
        {
            "chapter": 9,
            "verse": 10,
            "name": "2 Corinthians 9:10",
            "text": "Doch Die het zaad den zaaier verleent, Die verlene ook brood tot spijze, en vermenigvuldige uw gezaaisel, en vermeerdere de vruchten uwer gerechtigheid;"
        },
        {
            "chapter": 9,
            "verse": 11,
            "name": "2 Corinthians 9:11",
            "text": "Dat gij in alles rijk wordt tot alle goeddadigheid, welke door ons werkt dankzegging tot God."
        },
        {
            "chapter": 9,
            "verse": 12,
            "name": "2 Corinthians 9:12",
            "text": "Want de bediening van dezen dienst vervult niet alleen het gebrek der heiligen, maar is ook overvloedig door vele dankzeggingen tot God;"
        },
        {
            "chapter": 9,
            "verse": 13,
            "name": "2 Corinthians 9:13",
            "text": "Dewijl zij door de beproeving dezer bediening God verheerlijken over de onderwerping uwer belijdenis onder het Evangelie van Christus, en over de goeddadigheid der mededeling aan hen en aan allen;"
        },
        {
            "chapter": 9,
            "verse": 14,
            "name": "2 Corinthians 9:14",
            "text": "En door hun gebed voor u, welke naar u verlangen, om de uitnemende genade Gods over u."
        },
        {
            "chapter": 9,
            "verse": 15,
            "name": "2 Corinthians 9:15",
            "text": "Doch Gode zij dank voor Zijn onuitsprekelijke gave."
        }
    ]
}