{
    "translation": "Pyha Raamattu (1933 1938)",
    "abbreviation": "pyharaamattu1933",
    "lang": "fi",
    "language": "Finnish",
    "direction": "LTR",
    "encoding": "",
    "book_nr": 47,
    "book_name": "2 Corinthians",
    "chapter": 13,
    "name": "2 Corinthians 13",
    "verses": [
        {
            "chapter": 13,
            "verse": 1,
            "name": "2 Corinthians 13:1",
            "text": "Kolmannen kerran min\u00e4 nyt tulen teid\u00e4n tyk\u00f6nne. Kahden tai kolmen todistajan sanalla on jokainen asia vahvistettava."
        },
        {
            "chapter": 13,
            "verse": 2,
            "name": "2 Corinthians 13:2",
            "text": "Olen edelt\u00e4p\u00e4in sanonut ja sanon edelt\u00e4p\u00e4in niille, jotka ennen ovat synti\u00e4 tehneet, ja kaikille muille-niinkuin silloin sanoin, kun olin toista kertaa tyk\u00f6n\u00e4nne, samoin nytkin, kun olen poissa-etten, kun taas tulen, ole teit\u00e4 s\u00e4\u00e4st\u00e4v\u00e4,"
        },
        {
            "chapter": 13,
            "verse": 3,
            "name": "2 Corinthians 13:3",
            "text": "koska te etsitte todistetta siit\u00e4, ett\u00e4 minussa puhuu Kristus, joka ei ole heikko teit\u00e4 kohtaan, vaan on teiss\u00e4 voimallinen."
        },
        {
            "chapter": 13,
            "verse": 4,
            "name": "2 Corinthians 13:4",
            "text": "Sill\u00e4 vaikka h\u00e4net ristiinnaulittiin, kun h\u00e4n oli heikko, el\u00e4\u00e4 h\u00e4n kuitenkin Jumalan voimasta; olemmehan mekin h\u00e4ness\u00e4 heikot, mutta me el\u00e4mme h\u00e4nen kanssaan Jumalan voimasta teit\u00e4 kohtaan."
        },
        {
            "chapter": 13,
            "verse": 5,
            "name": "2 Corinthians 13:5",
            "text": "Koetelkaa itse\u00e4nne, oletteko uskossa; tutkikaa itse\u00e4nne. Vai ettek\u00f6 tunne itse\u00e4nne, ett\u00e4 Jeesus Kristus on teiss\u00e4? Ellei, niin ette kest\u00e4 koetusta."
        },
        {
            "chapter": 13,
            "verse": 6,
            "name": "2 Corinthians 13:6",
            "text": "Min\u00e4 toivon teid\u00e4n tulevan tuntemaan, ett\u00e4 me emme ole niit\u00e4, jotka eiv\u00e4t koetusta kest\u00e4."
        },
        {
            "chapter": 13,
            "verse": 7,
            "name": "2 Corinthians 13:7",
            "text": "Mutta me rukoilemme Jumalaa, ettette tekisi mit\u00e4\u00e4n pahaa, emme sit\u00e4 varten, ett\u00e4 n\u00e4ytt\u00e4isi silt\u00e4, kuin me olisimme koetuksen kest\u00e4vi\u00e4, vaan ett\u00e4 te tekisitte hyv\u00e4\u00e4 ja me olisimme ik\u00e4\u00e4nkuin ne, jotka eiv\u00e4t koetusta kest\u00e4."
        },
        {
            "chapter": 13,
            "verse": 8,
            "name": "2 Corinthians 13:8",
            "text": "Sill\u00e4 me emme voi mit\u00e4\u00e4n totuutta vastaan, vaan totuuden puolesta."
        },
        {
            "chapter": 13,
            "verse": 9,
            "name": "2 Corinthians 13:9",
            "text": "Sill\u00e4 me iloitsemme, kun me olemme heikot, mutta te olette voimalliset; sit\u00e4 me rukoilemmekin, ett\u00e4 te t\u00e4ydellisiksi tulisitte."
        },
        {
            "chapter": 13,
            "verse": 10,
            "name": "2 Corinthians 13:10",
            "text": "Sent\u00e4hden min\u00e4 kirjoitan t\u00e4m\u00e4n poissa ollessani, ettei minun teid\u00e4n luonanne ollessani tarvitsisi k\u00e4ytt\u00e4\u00e4 ankaruutta sen vallan nojalla, mink\u00e4 Herra on minulle antanut rakentamiseksi, ei kukistamiseksi."
        },
        {
            "chapter": 13,
            "verse": 11,
            "name": "2 Corinthians 13:11",
            "text": "Lopuksi, veljet, iloitkaa, tulkaa t\u00e4ydellisiksi, ottakaa vastaan kehoituksia, olkaa yht\u00e4 mielt\u00e4, el\u00e4k\u00e4\u00e4 sovussa, niin rakkauden ja rauhan Jumala on oleva teid\u00e4n kanssanne."
        },
        {
            "chapter": 13,
            "verse": 12,
            "name": "2 Corinthians 13:12",
            "text": "Tervehtik\u00e4\u00e4 toisianne pyh\u00e4ll\u00e4 suunannolla."
        },
        {
            "chapter": 13,
            "verse": 13,
            "name": "2 Corinthians 13:13",
            "text": " Kaikki pyh\u00e4t l\u00e4hett\u00e4v\u00e4t teille tervehdyksen."
        },
        {
            "chapter": 13,
            "verse": 14,
            "name": "2 Corinthians 13:14",
            "text": " Herran Jeesuksen Kristuksen armo ja Jumalan rakkaus ja Pyh\u00e4n Hengen osallisuus olkoon kaikkien teid\u00e4n kanssanne."
        }
    ]
}