{
  "1": "b8d41d853a8eb783d1354452969550fef24337b1",
  "2": "84c1dad8e4884a75b36123fa037e46d09051748a",
  "3": "9e2e529a09dbb2c0b043cbb0ee39393d4b43f341",
  "4": "be9a0e1eadf1515fc145f8176c9d770a08085811",
  "5": "eb11e1885d9170e18a0fd3d162f4eb741c3bde0c",
  "6": "8c3d1218fc31455176ad9558518a2288b7cc27f4",
  "7": "9486cefc78c0f5905fa912fff2144c79b631c240",
  "8": "6385c7513dfad415e9b9f62f5786212e84103d93",
  "9": "27210e490c3556cb305b91707276c525b433fb84",
  "10": "9c2dd2ec0ed63cdb59baf7821480796a2ded97dd",
  "11": "2970b4023737be58fd010e102278ac9735c34a8d",
  "12": "86d03a7ab239cf614770aed09a625d41f9911f99",
  "13": "d20117cc1669dc64b113eb758927efd4866fe3e3",
  "14": "5b98134ea38b2da6181b8fc5ff4e3792fd9ce8af",
  "15": "d60b65c0cbb99fbb8666806e415c7cb9e7da2cfb",
  "16": "5d1b99c8364fdd5dcc8f3c2162c9b3d6d8f62251",
  "17": "ba27a760cbcb8fc506ade2a9f834f1becca20fb7",
  "18": "73fe4bcc48a3bc49c91785f5361ff3d2830124a1",
  "19": "64a813159c50c03cabcfc4704bbc8d243c8eca5b",
  "20": "2c71cdfaa26d1aed2402608e21c8e438f623c626",
  "21": "af8677a5e0a94bcf57a6aad2bccd32eea11a77ac",
  "22": "b56e97afbc214b325b1ab4638022888a46b9abb8",
  "23": "3a23a7bbecfb75289951403dd1b4042f8acd28f8",
  "24": "021df148ad26145741f35571535aac55c4d3a061",
  "25": "dc3158fa79f77e51d346dccc9ba8faefc723c291",
  "26": "9d3471ecbb0a9a4e5bd3d2ea3d97905cbdff0004",
  "27": "1768e49df3f2bc2086c9ec8019f6aa930c855f7f",
  "28": "2194533cd1f2b01389436491999a8a04952ac119",
  "29": "2100c394b5a126b7c4d290a4502ab5cefbf819f7",
  "30": "adfc72231d5d70ca0bdaf00f7ee02e91efa44013",
  "31": "56766ecfbb0996edd48749a5ba306a79b10e9169",
  "32": "b3d97077f1c04383e7ee360dd1a593cb58feefac",
  "33": "7e72667b6dbad1a749ff4f5ec3de23f077c29d1c",
  "34": "d7957fbdbefdfa23114835ad5b089ead6f635f3c",
  "35": "c2cd980c0d61f59d3850906a5d0fc2e81f28d0b0",
  "36": "a13773b07c7365128cf3792fb12dbd61fc4e0168",
  "37": "c94bcb43f27d972a0be1ff4bbcd3f965836566af",
  "38": "b9be90bdd9707d26fe6979c9abef83117a479959",
  "39": "3e1a7f1cdac80caae62caff03e439058f7e2f9e6",
  "40": "999e2030a086462059914add04c84c06423d2984",
  "41": "f630301f3e9df016d35852adb2fc4f5f02d36974",
  "42": "ad9a7c717fe9db403363e4dd2dad7a5b84918253",
  "43": "0a4cddf68ddc41800598effd17f27271c9881979",
  "44": "130f41ce38c1463a5e1e08fe13e183ee92b9c914",
  "45": "cc49d18bce87ca7ec408912fde47c3004b248460",
  "46": "962b85f228cbb63fdedf4296fbfdb9c8d00c67b4",
  "47": "82a657e799f396f19af5eedc6c1d7e1d588d908f",
  "48": "1d95a12c7252faa5d0af98f4bb6f1d448ff4d17b",
  "49": "b59757d31a786e778b22b6b0bf4fce49f8a4e592",
  "50": "2502f2ee9613e8fc60421805a5f73fefde426f2f",
  "51": "951f3e34ad1f28c818ad0817399bf7c1878e23a0",
  "52": "c80156b35bd0277f8d0334c0c73288773511ea81",
  "53": "24b7dba9d1c8f2f64fffbe853bddf4bb5ad4f49e",
  "54": "f3282dadc27a8ad17bd6ee74439efa9bb5853120",
  "55": "e7d45d6523171c42eab1b45b5b4f7e87462f6f92",
  "56": "205ffe4c58ab829f77df20801aba6749438d4643",
  "57": "01fcca5f4c3280b99efa532aba192c3e8653085b",
  "58": "5502d578e4689ddbcef136770a79599666fb1008",
  "59": "8a3a927a50f53a75da7748e4779fb5019e63988d",
  "60": "68e5d3305efd5bb0709ffd6131af1630e3bbac30",
  "61": "9dc874c0f8670510abe3ddb12878619f384e6231",
  "62": "51a67993c1214d45baa65f82fbafafcdf1970c40",
  "63": "17d8dd3f6dbc7b9d89cdfb24f82c1b66e30950e9",
  "64": "cd8550cac21396adb87b8f8900c3371f231ed414",
  "65": "8e5f0d08b94c8a19bd583c311ecaaa566f5b4a59",
  "66": "7004e8276d08c1ad4b017440cea2a30c94739d17"
}
