{
    "translation": "Scots Gaelic (Gospel of Mark)",
    "abbreviation": "gaelic",
    "lang": "gd",
    "language": "Scottish Gaelic",
    "direction": "LTR",
    "encoding": "",
    "book_nr": 42,
    "book_name": "Luke",
    "chapter": 20,
    "name": "Luke 20",
    "verses": [
        {
            "chapter": 20,
            "verse": 1,
            "name": "Luke 20:1",
            "text": ""
        },
        {
            "chapter": 20,
            "verse": 2,
            "name": "Luke 20:2",
            "text": ""
        },
        {
            "chapter": 20,
            "verse": 3,
            "name": "Luke 20:3",
            "text": ""
        },
        {
            "chapter": 20,
            "verse": 4,
            "name": "Luke 20:4",
            "text": ""
        },
        {
            "chapter": 20,
            "verse": 5,
            "name": "Luke 20:5",
            "text": ""
        },
        {
            "chapter": 20,
            "verse": 6,
            "name": "Luke 20:6",
            "text": ""
        },
        {
            "chapter": 20,
            "verse": 7,
            "name": "Luke 20:7",
            "text": ""
        },
        {
            "chapter": 20,
            "verse": 8,
            "name": "Luke 20:8",
            "text": ""
        },
        {
            "chapter": 20,
            "verse": 9,
            "name": "Luke 20:9",
            "text": ""
        },
        {
            "chapter": 20,
            "verse": 10,
            "name": "Luke 20:10",
            "text": ""
        },
        {
            "chapter": 20,
            "verse": 11,
            "name": "Luke 20:11",
            "text": ""
        },
        {
            "chapter": 20,
            "verse": 12,
            "name": "Luke 20:12",
            "text": ""
        },
        {
            "chapter": 20,
            "verse": 13,
            "name": "Luke 20:13",
            "text": ""
        },
        {
            "chapter": 20,
            "verse": 14,
            "name": "Luke 20:14",
            "text": ""
        },
        {
            "chapter": 20,
            "verse": 15,
            "name": "Luke 20:15",
            "text": ""
        },
        {
            "chapter": 20,
            "verse": 16,
            "name": "Luke 20:16",
            "text": ""
        },
        {
            "chapter": 20,
            "verse": 17,
            "name": "Luke 20:17",
            "text": ""
        },
        {
            "chapter": 20,
            "verse": 18,
            "name": "Luke 20:18",
            "text": ""
        },
        {
            "chapter": 20,
            "verse": 19,
            "name": "Luke 20:19",
            "text": ""
        },
        {
            "chapter": 20,
            "verse": 20,
            "name": "Luke 20:20",
            "text": ""
        },
        {
            "chapter": 20,
            "verse": 21,
            "name": "Luke 20:21",
            "text": ""
        },
        {
            "chapter": 20,
            "verse": 22,
            "name": "Luke 20:22",
            "text": ""
        },
        {
            "chapter": 20,
            "verse": 23,
            "name": "Luke 20:23",
            "text": ""
        },
        {
            "chapter": 20,
            "verse": 24,
            "name": "Luke 20:24",
            "text": ""
        },
        {
            "chapter": 20,
            "verse": 25,
            "name": "Luke 20:25",
            "text": ""
        },
        {
            "chapter": 20,
            "verse": 26,
            "name": "Luke 20:26",
            "text": ""
        },
        {
            "chapter": 20,
            "verse": 27,
            "name": "Luke 20:27",
            "text": ""
        },
        {
            "chapter": 20,
            "verse": 28,
            "name": "Luke 20:28",
            "text": ""
        },
        {
            "chapter": 20,
            "verse": 29,
            "name": "Luke 20:29",
            "text": ""
        },
        {
            "chapter": 20,
            "verse": 30,
            "name": "Luke 20:30",
            "text": ""
        },
        {
            "chapter": 20,
            "verse": 31,
            "name": "Luke 20:31",
            "text": ""
        },
        {
            "chapter": 20,
            "verse": 32,
            "name": "Luke 20:32",
            "text": ""
        },
        {
            "chapter": 20,
            "verse": 33,
            "name": "Luke 20:33",
            "text": ""
        },
        {
            "chapter": 20,
            "verse": 34,
            "name": "Luke 20:34",
            "text": ""
        },
        {
            "chapter": 20,
            "verse": 35,
            "name": "Luke 20:35",
            "text": ""
        },
        {
            "chapter": 20,
            "verse": 36,
            "name": "Luke 20:36",
            "text": ""
        },
        {
            "chapter": 20,
            "verse": 37,
            "name": "Luke 20:37",
            "text": ""
        },
        {
            "chapter": 20,
            "verse": 38,
            "name": "Luke 20:38",
            "text": ""
        },
        {
            "chapter": 20,
            "verse": 39,
            "name": "Luke 20:39",
            "text": ""
        },
        {
            "chapter": 20,
            "verse": 40,
            "name": "Luke 20:40",
            "text": ""
        },
        {
            "chapter": 20,
            "verse": 41,
            "name": "Luke 20:41",
            "text": ""
        },
        {
            "chapter": 20,
            "verse": 42,
            "name": "Luke 20:42",
            "text": ""
        },
        {
            "chapter": 20,
            "verse": 43,
            "name": "Luke 20:43",
            "text": ""
        },
        {
            "chapter": 20,
            "verse": 44,
            "name": "Luke 20:44",
            "text": ""
        },
        {
            "chapter": 20,
            "verse": 45,
            "name": "Luke 20:45",
            "text": ""
        },
        {
            "chapter": 20,
            "verse": 46,
            "name": "Luke 20:46",
            "text": ""
        },
        {
            "chapter": 20,
            "verse": 47,
            "name": "Luke 20:47",
            "text": ""
        }
    ]
}