{
    "translation": "Open Scriptures Hebrew Bible",
    "abbreviation": "oshb",
    "lang": "he",
    "language": "Hebrew",
    "direction": "RTL",
    "encoding": "UTF-8",
    "book_nr": 17,
    "book_name": "Esther",
    "chapter": 5,
    "name": "Esther 5",
    "verses": [
        {
            "chapter": 5,
            "verse": 1,
            "name": "Esther 5:1",
            "text": "\u05d5\u05b7\u05d9\u05b0\u05d4\u05b4\u05a3\u05d9 \u05c0 \u05d1\u05bc\u05b7\u05d9\u05bc\u05a3\u05d5\u05b9\u05dd \u05d4\u05b7\u05e9\u05c1\u05bc\u05b0\u05dc\u05b4\u05d9\u05e9\u05c1\u05b4\u0597\u05d9 \u05d5\u05b7\u05ea\u05bc\u05b4\u05dc\u05b0\u05d1\u05bc\u05b7\u05a4\u05e9\u05c1 \u05d0\u05b6\u05e1\u05b0\u05ea\u05bc\u05b5\u05e8\u0599 \u05de\u05b7\u05dc\u05b0\u05db\u0594\u05d5\u05bc\u05ea \u05d5\u05b7\u05bd\u05ea\u05bc\u05b7\u05e2\u05b2\u05de\u05b9\u059e\u05d3 \u05d1\u05bc\u05b7\u05d7\u05b2\u05e6\u05b7\u05a4\u05e8 \u05d1\u05bc\u05b5\u05d9\u05ea\u05be\u05d4\u05b7\u05de\u05bc\u05b6\u05a8\u05dc\u05b6\u05da\u05b0\u0599 \u05d4\u05b7\u05e4\u05bc\u05b0\u05e0\u05b4\u05d9\u05de\u05b4\u0594\u05d9\u05ea \u05e0\u05b9\u0596\u05db\u05b7\u05d7 \u05d1\u05bc\u05b5\u05a3\u05d9\u05ea \u05d4\u05b7\u05de\u05bc\u05b6\u0591\u05dc\u05b6\u05da\u05b0 \u05d5\u05b0\u05a0\u05d4\u05b7\u05de\u05bc\u05b6\u05dc\u05b6\u05da\u05b0 \u05d9\u05d5\u05b9\u05e9\u05c1\u05b5\u059e\u05d1 \u05e2\u05b7\u05dc\u05be\u05db\u05bc\u05b4\u05e1\u05bc\u05b5\u05a4\u05d0 \u05de\u05b7\u05dc\u05b0\u05db\u05d5\u05bc\u05ea\u05d5\u05b9\u0599 \u05d1\u05bc\u05b0\u05d1\u05b5\u05a3\u05d9\u05ea \u05d4\u05b7\u05de\u05bc\u05b7\u05dc\u05b0\u05db\u0594\u05d5\u05bc\u05ea \u05e0\u05b9\u0596\u05db\u05b7\u05d7 \u05e4\u05bc\u05b6\u05a5\u05ea\u05b7\u05d7 \u05d4\u05b7\u05d1\u05bc\u05b8\u05bd\u05d9\u05b4\u05ea\u05c3 "
        },
        {
            "chapter": 5,
            "verse": 2,
            "name": "Esther 5:2",
            "text": "\u05d5\u05b7\u05d9\u05b0\u05d4\u05b4\u05d9\u05a9 \u05db\u05b4\u05e8\u05b0\u05d0\u05a8\u05d5\u05b9\u05ea \u05d4\u05b7\u05de\u05bc\u05b6\u059c\u05dc\u05b6\u05da\u05b0 \u05d0\u05b6\u05ea\u05be\u05d0\u05b6\u05e1\u05b0\u05ea\u05bc\u05b5\u05a3\u05e8 \u05d4\u05b7\u05de\u05bc\u05b7\u05dc\u05b0\u05db\u05bc\u05b8\u0597\u05d4 \u05e2\u05b9\u05de\u05b6\u05a8\u05d3\u05b6\u05ea\u0599 \u05d1\u05bc\u05b6\u05bd\u05d7\u05b8\u05e6\u05b5\u0594\u05e8 \u05e0\u05b8\u05e9\u05c2\u05b0\u05d0\u05b8\u05a5\u05d4 \u05d7\u05b5\u0596\u05df \u05d1\u05bc\u05b0\u05e2\u05b5\u05d9\u05e0\u05b8\u0591\u05d9\u05d5 \u05d5\u05b7\u05d9\u05bc\u05a8\u05d5\u05b9\u05e9\u05c1\u05b6\u05d8 \u05d4\u05b7\u05de\u05bc\u05b6\u059c\u05dc\u05b6\u05da\u05b0 \u05dc\u05b0\u05d0\u05b6\u05e1\u05b0\u05ea\u05bc\u05b5\u0597\u05e8 \u05d0\u05b6\u05ea\u05be\u05e9\u05c1\u05b7\u05e8\u05b0\u05d1\u05b4\u05a4\u05d9\u05d8 \u05d4\u05b7\u05d6\u05bc\u05b8\u05d4\u05b8\u05d1\u0599 \u05d0\u05b2\u05e9\u05c1\u05b6\u05a3\u05e8 \u05d1\u05bc\u05b0\u05d9\u05b8\u05d3\u0594\u05d5\u05b9 \u05d5\u05b7\u05ea\u05bc\u05b4\u05e7\u05b0\u05e8\u05b7\u05a3\u05d1 \u05d0\u05b6\u05e1\u05b0\u05ea\u05bc\u05b5\u0594\u05e8 \u05d5\u05b7\u05ea\u05bc\u05b4\u05d2\u05bc\u05b7\u0596\u05e2 \u05d1\u05bc\u05b0\u05e8\u05b9\u05a5\u05d0\u05e9\u05c1 \u05d4\u05b7\u05e9\u05c1\u05bc\u05b7\u05e8\u05b0\u05d1\u05b4\u05bd\u05d9\u05d8\u05c3 \u05e1 "
        },
        {
            "chapter": 5,
            "verse": 3,
            "name": "Esther 5:3",
            "text": "\u05d5\u05b7\u05d9\u05bc\u05b9\u05a4\u05d0\u05de\u05b6\u05e8 \u05dc\u05b8\u05d4\u05bc\u0599 \u05d4\u05b7\u05de\u05bc\u05b6\u0594\u05dc\u05b6\u05da\u05b0 \u05de\u05b7\u05d4\u05be\u05dc\u05bc\u05b8\u0596\u05da\u05b0 \u05d0\u05b6\u05e1\u05b0\u05ea\u05bc\u05b5\u05a3\u05e8 \u05d4\u05b7\u05de\u05bc\u05b7\u05dc\u05b0\u05db\u05bc\u05b8\u0591\u05d4 \u05d5\u05bc\u05de\u05b7\u05d4\u05be\u05d1\u05bc\u05b7\u05e7\u05bc\u05b8\u05e9\u05c1\u05b8\u05ea\u05b5\u059b\u05da\u05b0 \u05e2\u05b7\u05d3\u05be\u05d7\u05b2\u05e6\u05b4\u05a5\u05d9 \u05d4\u05b7\u05de\u05bc\u05b7\u05dc\u05b0\u05db\u0596\u05d5\u05bc\u05ea \u05d5\u05b0\u05d9\u05b4\u05e0\u05bc\u05b8\u05a5\u05ea\u05b5\u05bd\u05df \u05dc\u05b8\u05bd\u05da\u05b0\u05c3 "
        },
        {
            "chapter": 5,
            "verse": 4,
            "name": "Esther 5:4",
            "text": "\u05d5\u05b7\u05ea\u05bc\u05b9\u05a3\u05d0\u05de\u05b6\u05e8 \u05d0\u05b6\u05e1\u05b0\u05ea\u05bc\u05b5\u0594\u05e8 \u05d0\u05b4\u05dd\u05be\u05e2\u05b7\u05dc\u05be\u05d4\u05b7\u05de\u05bc\u05b6\u0596\u05dc\u05b6\u05da\u05b0 \u05d8\u0591\u05d5\u05b9\u05d1 \u05d9\u05b8\u05d1\u05a8\u05d5\u05b9\u05d0 \u05d4\u05b7\u05de\u05bc\u05b6\u05a4\u05dc\u05b6\u05da\u05b0 \u05d5\u05b0\u05d4\u05b8\u05de\u05b8\u05df\u0599 \u05d4\u05b7\u05d9\u05bc\u0594\u05d5\u05b9\u05dd \u05d0\u05b6\u05dc\u05be\u05d4\u05b7\u05de\u05bc\u05b4\u05e9\u05c1\u05b0\u05ea\u05bc\u05b6\u0596\u05d4 \u05d0\u05b2\u05e9\u05c1\u05b6\u05e8\u05be\u05e2\u05b8\u05e9\u05c2\u05b4\u05a5\u05d9\u05ea\u05b4\u05d9 \u05dc\u05bd\u05d5\u05b9\u05c3 "
        },
        {
            "chapter": 5,
            "verse": 5,
            "name": "Esther 5:5",
            "text": "\u05d5\u05b7\u05d9\u05bc\u05b9\u05a3\u05d0\u05de\u05b6\u05e8 \u05d4\u05b7\u05de\u05bc\u05b6\u0594\u05dc\u05b6\u05da\u05b0 \u05de\u05b7\u05d4\u05b2\u05e8\u05d5\u05bc\u0599 \u05d0\u05b6\u05ea\u05be\u05d4\u05b8\u05de\u05b8\u0594\u05df \u05dc\u05b7\u05e2\u05b2\u05e9\u05c2\u0596\u05d5\u05b9\u05ea \u05d0\u05b6\u05ea\u05be\u05d3\u05bc\u05b0\u05d1\u05b7\u05a3\u05e8 \u05d0\u05b6\u05e1\u05b0\u05ea\u05bc\u05b5\u0591\u05e8 \u05d5\u05b7\u05d9\u05bc\u05b8\u05d1\u05b9\u05a4\u05d0 \u05d4\u05b7\u05de\u05bc\u05b6\u05a8\u05dc\u05b6\u05da\u05b0\u0599 \u05d5\u05b0\u05d4\u05b8\u05de\u05b8\u0594\u05df \u05d0\u05b6\u05dc\u05be\u05d4\u05b7\u05de\u05bc\u05b4\u05e9\u05c1\u05b0\u05ea\u05bc\u05b6\u0596\u05d4 \u05d0\u05b2\u05e9\u05c1\u05b6\u05e8\u05be\u05e2\u05b8\u05e9\u05c2\u05b0\u05ea\u05b8\u05a5\u05d4 \u05d0\u05b6\u05e1\u05b0\u05ea\u05bc\u05b5\u05bd\u05e8\u05c3 "
        },
        {
            "chapter": 5,
            "verse": 6,
            "name": "Esther 5:6",
            "text": "\u05d5\u05b7\u05d9\u05bc\u05b9\u05a8\u05d0\u05de\u05b6\u05e8 \u05d4\u05b7\u05de\u05bc\u05b6\u05a4\u05dc\u05b6\u05da\u05b0 \u05dc\u05b0\u05d0\u05b6\u05e1\u05b0\u05ea\u05bc\u05b5\u05e8\u0599 \u05d1\u05bc\u05b0\u05de\u05b4\u05e9\u05c1\u05b0\u05ea\u05bc\u05b5\u05a3\u05d4 \u05d4\u05b7\u05d9\u05bc\u05b7\u0594\u05d9\u05b4\u05df \u05de\u05b7\u05d4\u05be\u05e9\u05c1\u05bc\u05b0\u05d0\u05b5\u05dc\u05b8\u05ea\u05b5\u0596\u05da\u05b0 \u05d5\u05b0\u05d9\u05b4\u05e0\u05bc\u05b8\u05a3\u05ea\u05b5\u05bd\u05df \u05dc\u05b8\u0591\u05da\u05b0 \u05d5\u05bc\u05de\u05b7\u05d4\u05be\u05d1\u05bc\u05b7\u05e7\u05bc\u05b8\u05e9\u05c1\u05b8\u05ea\u05b5\u059b\u05da\u05b0 \u05e2\u05b7\u05d3\u05be\u05d7\u05b2\u05e6\u05b4\u05a5\u05d9 \u05d4\u05b7\u05de\u05bc\u05b7\u05dc\u05b0\u05db\u0596\u05d5\u05bc\u05ea \u05d5\u05b0\u05ea\u05b5\u05e2\u05b8\u05bd\u05e9\u05c2\u05c3 "
        },
        {
            "chapter": 5,
            "verse": 7,
            "name": "Esther 5:7",
            "text": "\u05d5\u05b7\u05ea\u05bc\u05b7\u05a5\u05e2\u05b7\u05df \u05d0\u05b6\u05e1\u05b0\u05ea\u05bc\u05b5\u0596\u05e8 \u05d5\u05b7\u05ea\u05bc\u05b9\u05d0\u05de\u05b7\u0591\u05e8 \u05e9\u05c1\u05b0\u05d0\u05b5\u05dc\u05b8\u05ea\u05b4\u0596\u05d9 \u05d5\u05bc\u05d1\u05b7\u05e7\u05bc\u05b8\u05e9\u05c1\u05b8\u05ea\u05b4\u05bd\u05d9\u05c3 "
        },
        {
            "chapter": 5,
            "verse": 8,
            "name": "Esther 5:8",
            "text": "\u05d0\u05b4\u05dd\u05be\u05de\u05b8\u05e6\u05b8\u05a8\u05d0\u05ea\u05b4\u05d9 \u05d7\u05b5\u059c\u05df \u05d1\u05bc\u05b0\u05e2\u05b5\u05d9\u05e0\u05b5\u05a3\u05d9 \u05d4\u05b7\u05de\u05bc\u05b6\u0597\u05dc\u05b6\u05da\u05b0 \u05d5\u05b0\u05d0\u05b4\u05dd\u05be\u05e2\u05b7\u05dc\u05be\u05d4\u05b7\u05de\u05bc\u05b6\u05a8\u05dc\u05b6\u05da\u05b0\u0599 \u05d8\u0594\u05d5\u05b9\u05d1 \u05dc\u05b8\u05ea\u05b5\u05ea\u0599 \u05d0\u05b6\u05ea\u05be\u05e9\u05c1\u05b0\u05d0\u05b5\u05a3\u05dc\u05b8\u05ea\u05b4\u0594\u05d9 \u05d5\u05b0\u05dc\u05b7\u05e2\u05b2\u05e9\u05c2\u0596\u05d5\u05b9\u05ea \u05d0\u05b6\u05ea\u05be\u05d1\u05bc\u05b7\u05e7\u05bc\u05b8\u05e9\u05c1\u05b8\u05ea\u05b4\u0591\u05d9 \u05d9\u05b8\u05d1\u05a7\u05d5\u05b9\u05d0 \u05d4\u05b7\u05de\u05bc\u05b6\u05a3\u05dc\u05b6\u05da\u05b0 \u05d5\u05b0\u05d4\u05b8\u05de\u05b8\u0597\u05df \u05d0\u05b6\u05dc\u05be\u05d4\u05b7\u05de\u05bc\u05b4\u05e9\u05c1\u05b0\u05ea\u05bc\u05b6\u05d4\u0599 \u05d0\u05b2\u05e9\u05c1\u05b6\u05a3\u05e8 \u05d0\u05b6\u05bd\u05e2\u05b1\u05e9\u05c2\u05b6\u05a3\u05d4 \u05dc\u05b8\u05d4\u05b6\u0594\u05dd \u05d5\u05bc\u05de\u05b8\u05d7\u05b8\u05a5\u05e8 \u05d0\u05b6\u05bd\u05e2\u05b1\u05e9\u05c2\u05b6\u0596\u05d4 \u05db\u05bc\u05b4\u05d3\u05b0\u05d1\u05b7\u05a5\u05e8 \u05d4\u05b7\u05de\u05bc\u05b6\u05bd\u05dc\u05b6\u05da\u05b0\u05c3 "
        },
        {
            "chapter": 5,
            "verse": 9,
            "name": "Esther 5:9",
            "text": "\u05d5\u05b7\u05d9\u05bc\u05b5\u05e6\u05b5\u05a4\u05d0 \u05d4\u05b8\u05de\u05b8\u05df\u0599 \u05d1\u05bc\u05b7\u05d9\u05bc\u05a3\u05d5\u05b9\u05dd \u05d4\u05b7\u05d4\u0594\u05d5\u05bc\u05d0 \u05e9\u05c2\u05b8\u05de\u05b5\u0596\u05d7\u05b7 \u05d5\u05b0\u05d8\u05a3\u05d5\u05b9\u05d1 \u05dc\u05b5\u0591\u05d1 \u05d5\u05b0\u05db\u05b4\u05e8\u05b0\u05d0\u05d5\u05b9\u05ea\u05a9 \u05d4\u05b8\u05de\u05b8\u05a8\u05df \u05d0\u05b6\u05bd\u05ea\u05be\u05de\u05b8\u05e8\u05b0\u05d3\u05bc\u05b3\u05db\u05b7\u059c\u05d9 \u05d1\u05bc\u05b0\u05e9\u05c1\u05b7\u05a3\u05e2\u05b7\u05e8 \u05d4\u05b7\u05de\u05bc\u05b6\u0597\u05dc\u05b6\u05da\u05b0 \u05d5\u05b0\u05dc\u05b9\u05d0\u05be\u05e7\u05b8\u05dd\u0599 \u05d5\u05b0\u05dc\u05b9\u05d0\u05be\u05d6\u05b8\u05a3\u05e2 \u05de\u05b4\u05de\u05bc\u05b6\u0594\u05e0\u05bc\u05d5\u05bc \u05d5\u05b7\u05d9\u05bc\u05b4\u05de\u05bc\u05b8\u05dc\u05b5\u05a5\u05d0 \u05d4\u05b8\u05de\u05b8\u059b\u05df \u05e2\u05b7\u05bd\u05dc\u05be\u05de\u05b8\u05e8\u05b0\u05d3\u05bc\u05b3\u05db\u05b7\u0596\u05d9 \u05d7\u05b5\u05de\u05b8\u05bd\u05d4\u05c3 "
        },
        {
            "chapter": 5,
            "verse": 10,
            "name": "Esther 5:10",
            "text": "\u05d5\u05b7\u05d9\u05bc\u05b4\u05ea\u05b0\u05d0\u05b7\u05e4\u05bc\u05b7\u05a3\u05e7 \u05d4\u05b8\u05de\u05b8\u0594\u05df \u05d5\u05b7\u05d9\u05bc\u05b8\u05d1\u0596\u05d5\u05b9\u05d0 \u05d0\u05b6\u05dc\u05be\u05d1\u05bc\u05b5\u05d9\u05ea\u0591\u05d5\u05b9 \u05d5\u05b7\u05d9\u05bc\u05b4\u05e9\u05c1\u05b0\u05dc\u05b7\u059b\u05d7 \u05d5\u05b7\u05d9\u05bc\u05b8\u05d1\u05b5\u05a5\u05d0 \u05d0\u05b6\u05ea\u05be\u05d0\u05b9\u05d4\u05b2\u05d1\u05b8\u0596\u05d9\u05d5 \u05d5\u05b0\u05d0\u05b6\u05ea\u05be\u05d6\u05b6\u05a5\u05e8\u05b6\u05e9\u05c1 \u05d0\u05b4\u05e9\u05c1\u05b0\u05ea\u05bc\u05bd\u05d5\u05b9\u05c3 "
        },
        {
            "chapter": 5,
            "verse": 11,
            "name": "Esther 5:11",
            "text": "\u05d5\u05b7\u05d9\u05b0\u05e1\u05b7\u05e4\u05bc\u05b5\u05a8\u05e8 \u05dc\u05b8\u05d4\u05b6\u05a5\u05dd \u05d4\u05b8\u05de\u05b8\u059b\u05df \u05d0\u05b6\u05ea\u05be\u05db\u05bc\u05b0\u05d1\u05a5\u05d5\u05b9\u05d3 \u05e2\u05b8\u05e9\u05c1\u05b0\u05e8\u0596\u05d5\u05b9 \u05d5\u05b0\u05e8\u05b9\u05a3\u05d1 \u05d1\u05bc\u05b8\u05e0\u05b8\u0591\u05d9\u05d5 \u05d5\u05b0\u05d0\u05b5\u05ea\u05a9 \u05db\u05bc\u05b8\u05dc\u05be\u05d0\u05b2\u05e9\u05c1\u05b6\u05a8\u05e8 \u05d2\u05bc\u05b4\u05d3\u05bc\u05b0\u05dc\u05a4\u05d5\u05b9 \u05d4\u05b7\u05de\u05bc\u05b6\u05a8\u05dc\u05b6\u05da\u05b0\u0599 \u05d5\u05b0\u05d0\u05b5\u05a3\u05ea \u05d0\u05b2\u05e9\u05c1\u05b6\u05a3\u05e8 \u05e0\u05b4\u05e9\u05c2\u05bc\u05b0\u05d0\u0594\u05d5\u05b9 \u05e2\u05b7\u05dc\u05be\u05d4\u05b7\u05e9\u05c2\u05bc\u05b8\u05e8\u05b4\u0596\u05d9\u05dd \u05d5\u05b0\u05e2\u05b7\u05d1\u05b0\u05d3\u05b5\u05a5\u05d9 \u05d4\u05b7\u05de\u05bc\u05b6\u05bd\u05dc\u05b6\u05da\u05b0\u05c3 "
        },
        {
            "chapter": 5,
            "verse": 12,
            "name": "Esther 5:12",
            "text": "\u05d5\u05b7\u05d9\u05bc\u05b9\u05d0\u05de\u05b6\u05e8\u05ae \u05d4\u05b8\u05de\u05b8\u05df\u0592 \u05d0\u05b7\u05a3\u05e3 \u05dc\u05b9\u05d0\u05be\u05d4\u05b5\u05d1\u05b4\u05d9\u05d0\u05b8\u05d4\u05a9 \u05d0\u05b6\u05e1\u05b0\u05ea\u05bc\u05b5\u05a8\u05e8 \u05d4\u05b7\u05de\u05bc\u05b7\u05dc\u05b0\u05db\u05bc\u05b8\u05a7\u05d4 \u05e2\u05b4\u05dd\u05be\u05d4\u05b7\u05de\u05bc\u05b6\u059b\u05dc\u05b6\u05da\u05b0 \u05d0\u05b6\u05dc\u05be\u05d4\u05b7\u05de\u05bc\u05b4\u05e9\u05c1\u05b0\u05ea\u05bc\u05b6\u05a5\u05d4 \u05d0\u05b2\u05e9\u05c1\u05b6\u05e8\u05be\u05e2\u05b8\u05e9\u05c2\u05b8\u0596\u05ea\u05b8\u05d4 \u05db\u05bc\u05b4\u05a3\u05d9 \u05d0\u05b4\u05dd\u05be\u05d0\u05d5\u05b9\u05ea\u05b4\u0591\u05d9 \u05d5\u05b0\u05d2\u05b7\u05dd\u05be\u05dc\u05b0\u05de\u05b8\u05d7\u05b8\u059b\u05e8 \u05d0\u05b2\u05e0\u05b4\u05a5\u05d9 \u05e7\u05b8\u05bd\u05e8\u05d5\u05bc\u05d0\u05be\u05dc\u05b8\u0596\u05d4\u05bc \u05e2\u05b4\u05dd\u05be\u05d4\u05b7\u05de\u05bc\u05b6\u05bd\u05dc\u05b6\u05da\u05b0\u05c3 "
        },
        {
            "chapter": 5,
            "verse": 13,
            "name": "Esther 5:13",
            "text": "\u05d5\u05b0\u05db\u05b8\u05dc\u05be\u05d6\u05b6\u0595\u05d4 \u05d0\u05b5\u05d9\u05e0\u05b6\u05a5\u05e0\u05bc\u05d5\u05bc \u05e9\u05c1\u05b9\u05d5\u05b6\u0596\u05d4 \u05dc\u05b4\u0591\u05d9 \u05d1\u05bc\u05b0\u05db\u05b8\u05dc\u05be\u05e2\u05b5\u0597\u05ea \u05d0\u05b2\u05e9\u05c1\u05b6\u05a8\u05e8 \u05d0\u05b2\u05e0\u05b4\u05a4\u05d9 \u05e8\u05b9\u05d0\u05b6\u05d4\u0599 \u05d0\u05b6\u05ea\u05be\u05de\u05b8\u05e8\u05b0\u05d3\u05bc\u05b3\u05db\u05b7\u05a3\u05d9 \u05d4\u05b7\u05d9\u05bc\u05b0\u05d4\u05d5\u05bc\u05d3\u05b4\u0594\u05d9 \u05d9\u05d5\u05b9\u05e9\u05c1\u05b5\u0596\u05d1 \u05d1\u05bc\u05b0\u05e9\u05c1\u05b7\u05a5\u05e2\u05b7\u05e8 \u05d4\u05b7\u05de\u05bc\u05b6\u05bd\u05dc\u05b6\u05da\u05b0\u05c3 "
        },
        {
            "chapter": 5,
            "verse": 14,
            "name": "Esther 5:14",
            "text": "\u05d5\u05b7\u05ea\u05bc\u05b9\u05a3\u05d0\u05de\u05b6\u05e8 \u05dc\u05d5\u05b9\u05a9 \u05d6\u05b6\u05a8\u05e8\u05b6\u05e9\u05c1 \u05d0\u05b4\u05e9\u05c1\u05b0\u05ea\u05bc\u059c\u05d5\u05b9 \u05d5\u05b0\u05db\u05b8\u05dc\u05be\u05d0\u05b9\u05bd\u05d4\u05b2\u05d1\u05b8\u0597\u05d9\u05d5 \u05d9\u05b7\u05bd\u05e2\u05b2\u05e9\u05c2\u05d5\u05bc\u05be\u05e2\u05b5\u05e5\u05ae \u05d2\u05bc\u05b8\u05d1\u05b9\u05a3\u05d4\u05bc\u05b7 \u05d7\u05b2\u05de\u05b4\u05e9\u05c1\u05bc\u05b4\u05a3\u05d9\u05dd \u05d0\u05b7\u05de\u05bc\u05b8\u05d4\u0592 \u05d5\u05bc\u05d1\u05b7\u05d1\u05bc\u05b9\u05a3\u05e7\u05b6\u05e8 \u05c0 \u05d0\u05b1\u05de\u05b9\u05a3\u05e8 \u05dc\u05b7\u05de\u05bc\u05b6\u0597\u05dc\u05b6\u05da\u05b0 \u05d5\u05b0\u05d9\u05b4\u05ea\u05b0\u05dc\u05a4\u05d5\u05bc \u05d0\u05b6\u05bd\u05ea\u05be\u05de\u05b8\u05e8\u05b0\u05d3\u05bc\u05b3\u05db\u05b7\u05d9\u0599 \u05e2\u05b8\u05dc\u05b8\u0594\u05d9\u05d5 \u05d5\u05bc\u05d1\u05b9\u05bd\u05d0\u05be\u05e2\u05b4\u05dd\u05be\u05d4\u05b7\u05de\u05bc\u05b6\u05a5\u05dc\u05b6\u05da\u05b0 \u05d0\u05b6\u05dc    \u05d4\u05b7\u05de\u05bc\u05b4\u05e9\u05c1\u05b0\u05ea\u05bc\u05b6\u0596\u05d4 \u05e9\u05c2\u05b8\u05de\u05b5\u0591\u05d7\u05b7 \u05d5\u05b7\u05d9\u05bc\u05b4\u05d9\u05d8\u05b7\u05a7\u05d1 \u05d4\u05b7\u05d3\u05bc\u05b8\u05d1\u05b8\u059b\u05e8 \u05dc\u05b4\u05e4\u05b0\u05e0\u05b5\u05a5\u05d9 \u05d4\u05b8\u05de\u05b8\u0596\u05df \u05d5\u05b7\u05d9\u05bc\u05b7\u05a5\u05e2\u05b7\u05e9\u05c2 \u05d4\u05b8\u05e2\u05b5\u05bd\u05e5\u05c3 \u05e4  "
        }
    ]
}