{
    "translation": "Almeida Atualizada",
    "abbreviation": "almeida",
    "lang": "pt",
    "language": "Portuguese",
    "direction": "LTR",
    "encoding": "UTF-8",
    "book_nr": 24,
    "book_name": "Jeremiah",
    "chapter": 4,
    "name": "Jeremiah 4",
    "verses": [
        {
            "chapter": 4,
            "verse": 1,
            "name": "Jeremiah 4:1",
            "text": "Se voltares, \u00f3 Israel, diz o Senhor, se voltares para mim e tirares as tuas abomina\u00e7\u00f5es de diante de mim, e n\u00e3o andares mais vagueando;"
        },
        {
            "chapter": 4,
            "verse": 2,
            "name": "Jeremiah 4:2",
            "text": "e se jurares: Como vive o Senhor, na verdade, na justi\u00e7a e na retid\u00e3o; ent\u00e3o nele se bendir\u00e3o as na\u00e7\u00f5es, e nele se gloriar\u00e3o."
        },
        {
            "chapter": 4,
            "verse": 3,
            "name": "Jeremiah 4:3",
            "text": "Porque assim diz o Senhor aos homens de Jud\u00e1 e a Jerusal\u00e9m: Lavrai o vosso terreno alqueivado, e n\u00e3o semeeis entre espinhos."
        },
        {
            "chapter": 4,
            "verse": 4,
            "name": "Jeremiah 4:4",
            "text": "Circuncidai-vos ao Senhor, e tirai os prep\u00facios do vosso cora\u00e7\u00e3o, \u00f3 homens de Jud\u00e1 e habitadores de Jerusal\u00e9m, para que a minha indigna\u00e7\u00e3o n\u00e3o venha a sair como fogo, e arda de modo que ningu\u00e9m o possa apagar, por causa da maldade das vossas obras."
        },
        {
            "chapter": 4,
            "verse": 5,
            "name": "Jeremiah 4:5",
            "text": "Anunciai em Jud\u00e1, e publicai em Jerusal\u00e9m; e dizei: Tocai a trombeta na terra; gritai em alta voz, dizendo: Ajuntai-vos, e entremos nas cidades fortificadas."
        },
        {
            "chapter": 4,
            "verse": 6,
            "name": "Jeremiah 4:6",
            "text": "Arvorai um estandarte no caminho para Si\u00e3o; buscai ref\u00fagio, n\u00e3o demoreis; porque eu trago do norte um mal, sim, uma grande destrui\u00e7\u00e3o."
        },
        {
            "chapter": 4,
            "verse": 7,
            "name": "Jeremiah 4:7",
            "text": "Subiu um le\u00e3o da sua ramada, um destruidor de na\u00e7\u00f5es; ele j\u00e1 partiu, saiu do seu lugar para fazer da tua terra uma desola\u00e7\u00e3o, a fim de que as tuas cidades sejam assoladas, e ningu\u00e9m habite nelas."
        },
        {
            "chapter": 4,
            "verse": 8,
            "name": "Jeremiah 4:8",
            "text": "Por isso cingi-vos de saco, lamentai, e uivai, porque o ardor da ira do Senhor n\u00e3o se desviou de n\u00f3s."
        },
        {
            "chapter": 4,
            "verse": 9,
            "name": "Jeremiah 4:9",
            "text": "Naquele dia, diz o Senhor, desfalecer\u00e1 o cora\u00e7\u00e3o do rei e o cora\u00e7\u00e3o dos pr\u00edncipes; os sacerdotes pasmar\u00e3o, e os profetas se maravilhar\u00e3o."
        },
        {
            "chapter": 4,
            "verse": 10,
            "name": "Jeremiah 4:10",
            "text": "Ent\u00e3o disse eu: Ah, Senhor Deus! Verdadeiramente trouxeste grande ilus\u00e3o a este povo e a Jerusal\u00e9m, dizendo: Tereis paz; entretanto a espada penetra-lhe at\u00e9 a alma."
        },
        {
            "chapter": 4,
            "verse": 11,
            "name": "Jeremiah 4:11",
            "text": "Naquele tempo se dir\u00e1 a este povo e a Jerusal\u00e9m: Um vento abrasador, vindo dos altos escalvados no deserto, aproxima-se da filha do meu povo, n\u00e3o para cirandar, nem para alimpar,"
        },
        {
            "chapter": 4,
            "verse": 12,
            "name": "Jeremiah 4:12",
            "text": "mas um vento forte demais para isto vir\u00e1 da minha parte; agora tamb\u00e9m pronunciarei eu ju\u00edzos contra eles."
        },
        {
            "chapter": 4,
            "verse": 13,
            "name": "Jeremiah 4:13",
            "text": "Eis que vem subindo como nuvens, como o redemoinho s\u00e3o os seus carros; os seus cavalos s\u00e3o mais ligeiros do que as \u00e1guias. Ai de n\u00f3s! Pois estamos arruinados!"
        },
        {
            "chapter": 4,
            "verse": 14,
            "name": "Jeremiah 4:14",
            "text": "Lava o teu cora\u00e7\u00e3o da maldade, \u00f3 Jerusal\u00e9m, para que sejas salva; at\u00e9 quando permanecer\u00e3o em ti os teus maus pensamentos?"
        },
        {
            "chapter": 4,
            "verse": 15,
            "name": "Jeremiah 4:15",
            "text": "Porque uma voz anuncia desde D\u00e3, e proclama a calamidade desde o monte de Efraim."
        },
        {
            "chapter": 4,
            "verse": 16,
            "name": "Jeremiah 4:16",
            "text": "Anunciai isto \u00e0s na\u00e7\u00f5es; eis, proclamai contra Jerusal\u00e9m que vigias v\u00eam de uma terra remota; eles levantam a voz contra as cidades de Jud\u00e1."
        },
        {
            "chapter": 4,
            "verse": 17,
            "name": "Jeremiah 4:17",
            "text": "Como guardas de campo est\u00e3o contra ela ao redor; porquanto ela se rebelou contra mim, diz o Senhor."
        },
        {
            "chapter": 4,
            "verse": 18,
            "name": "Jeremiah 4:18",
            "text": "O teu caminho e as tuas obras te trouxeram essas coisas; essa e a tua iniquidade, e amargosa \u00e9, chegando at\u00e9 o cora\u00e7\u00e3o."
        },
        {
            "chapter": 4,
            "verse": 19,
            "name": "Jeremiah 4:19",
            "text": "Ah, entranhas minhas, entranhas minhas! Eu me tor\u00e7o em dores! Paredes do meu cora\u00e7\u00e3o! O meu cora\u00e7\u00e3o se aflige em mim. N\u00e3o posso calar; porque tu, \u00f3 minha alma, ouviste o som da trombeta e o alarido da guerra."
        },
        {
            "chapter": 4,
            "verse": 20,
            "name": "Jeremiah 4:20",
            "text": "Destrui\u00e7\u00e3o sobre destrui\u00e7\u00e3o se apregoa; porque j\u00e1 toda a terra est\u00e1 assolada; de repente s\u00e3o destru\u00eddas as minhas tendas, e as minhas cortinas num momento."
        },
        {
            "chapter": 4,
            "verse": 21,
            "name": "Jeremiah 4:21",
            "text": "At\u00e9 quando verei o estandarte, e ouvirei a voz da trombeta?"
        },
        {
            "chapter": 4,
            "verse": 22,
            "name": "Jeremiah 4:22",
            "text": "Deveras o meu povo \u00e9 insensato, j\u00e1 me n\u00e3o conhece; s\u00e3o filhos obtusos, e n\u00e3o entendidos; s\u00e3o s\u00e1bios para fazerem o mal, mas n\u00e3o sabem fazer o bem."
        },
        {
            "chapter": 4,
            "verse": 23,
            "name": "Jeremiah 4:23",
            "text": "Observei a terra, e eis que era sem forma e vazia; tamb\u00e9m os c\u00e9us, e n\u00e3o tinham a sua luz."
        },
        {
            "chapter": 4,
            "verse": 24,
            "name": "Jeremiah 4:24",
            "text": "Observei os montes, e eis que estavam tremendo; e todos os outeiros estremeciam."
        },
        {
            "chapter": 4,
            "verse": 25,
            "name": "Jeremiah 4:25",
            "text": "Observei e eis que n\u00e3o havia homem algum, e todas as aves do c\u00e9u tinham fugido."
        },
        {
            "chapter": 4,
            "verse": 26,
            "name": "Jeremiah 4:26",
            "text": "Vi tamb\u00e9m que a terra f\u00e9rtil era um deserto, e todas as suas cidades estavam derrubadas diante do Senhor, diante do furor da sua ira."
        },
        {
            "chapter": 4,
            "verse": 27,
            "name": "Jeremiah 4:27",
            "text": "Pois assim diz o Senhor: Toda a terra ficar\u00e1 assolada; de todo, por\u00e9m, n\u00e3o a consumirei."
        },
        {
            "chapter": 4,
            "verse": 28,
            "name": "Jeremiah 4:28",
            "text": "Por isso lamentar\u00e1 a terra, e os c\u00e9us em cima se enegrecer\u00e3o; porquanto assim o disse eu, assim o propus, e n\u00e3o me arrependi, nem me desviarei disso."
        },
        {
            "chapter": 4,
            "verse": 29,
            "name": "Jeremiah 4:29",
            "text": "Ao clamor dos cavaleiros e dos flecheiros fogem todas as cidades; entram pelas matas, e trepam pelos penhascos; todas as cidades ficam desamparadas, e j\u00e1 ningu\u00e9m habita nelas."
        },
        {
            "chapter": 4,
            "verse": 30,
            "name": "Jeremiah 4:30",
            "text": "Agora, pois, \u00f3 assolada, que far\u00e1s? Embora te vistas de escarlate, e te adornes com enfeites de ouro, embora te pintes em volta dos olhos com antim\u00f4nio, debalde te farias bela; os teus amantes te desprezam, e procuram tirar-te a vida."
        },
        {
            "chapter": 4,
            "verse": 31,
            "name": "Jeremiah 4:31",
            "text": "Pois ouvi uma voz, como a de mulher que est\u00e1 de parto, a ang\u00fastia como a de quem d\u00e1 \u00e0 luz o seu primeiro filho; a voz da filha de Si\u00e3o, ofegante, que estende as m\u00e3os, dizendo: Ai de mim agora! Porque a minha alma desfalece por causa dos assassinos. "
        }
    ]
}