{
    "translation": "Thai from kjv",
    "abbreviation": "thai",
    "lang": "th",
    "language": "Thai",
    "direction": "LTR",
    "encoding": "UTF-8",
    "book_nr": 56,
    "book_name": "Titus",
    "chapter": 1,
    "name": "Titus 1",
    "verses": [
        {
            "chapter": 1,
            "verse": 1,
            "name": "Titus 1:1",
            "text": "\u0e40\u0e1b\u0e32\u0e42\u0e25 \u0e1c\u0e39\u0e49\u0e23\u0e31\u0e1a\u0e43\u0e0a\u0e49\u0e02\u0e2d\u0e07\u0e1e\u0e23\u0e30\u0e40\u0e08\u0e49\u0e32 \u0e41\u0e25\u0e30\u0e2d\u0e31\u0e04\u0e23\u0e2a\u0e32\u0e27\u0e01\u0e02\u0e2d\u0e07\u0e1e\u0e23\u0e30\u0e40\u0e22\u0e0b\u0e39\u0e04\u0e23\u0e34\u0e2a\u0e15\u0e4c \u0e40\u0e19\u0e37\u0e48\u0e2d\u0e07\u0e14\u0e49\u0e27\u0e22\u0e04\u0e27\u0e32\u0e21\u0e40\u0e0a\u0e37\u0e48\u0e2d\u0e02\u0e2d\u0e07\u0e1c\u0e39\u0e49\u0e17\u0e35\u0e48\u0e1e\u0e23\u0e30\u0e40\u0e08\u0e49\u0e32\u0e44\u0e14\u0e49\u0e17\u0e23\u0e07\u0e40\u0e25\u0e37\u0e2d\u0e01\u0e2a\u0e23\u0e23\u0e44\u0e27\u0e49 \u0e41\u0e25\u0e30\u0e43\u0e2b\u0e49\u0e23\u0e39\u0e49\u0e08\u0e31\u0e01\u0e04\u0e27\u0e32\u0e21\u0e08\u0e23\u0e34\u0e07\u0e15\u0e32\u0e21\u0e17\u0e32\u0e07\u0e02\u0e2d\u0e07\u0e1e\u0e23\u0e30\u0e40\u0e08\u0e49\u0e32"
        },
        {
            "chapter": 1,
            "verse": 2,
            "name": "Titus 1:2",
            "text": "\u0e14\u0e49\u0e27\u0e22\u0e2b\u0e27\u0e31\u0e07\u0e27\u0e48\u0e32\u0e08\u0e30\u0e44\u0e14\u0e49\u0e0a\u0e35\u0e27\u0e34\u0e15\u0e19\u0e34\u0e23\u0e31\u0e19\u0e14\u0e23\u0e4c \u0e0b\u0e36\u0e48\u0e07\u0e1e\u0e23\u0e30\u0e40\u0e08\u0e49\u0e32\u0e1c\u0e39\u0e49\u0e44\u0e21\u0e48\u0e2a\u0e32\u0e21\u0e32\u0e23\u0e16\u0e15\u0e23\u0e31\u0e2a\u0e21\u0e38\u0e2a\u0e32 \u0e44\u0e14\u0e49\u0e17\u0e23\u0e07\u0e2a\u0e31\u0e0d\u0e0d\u0e32\u0e44\u0e27\u0e49\u0e15\u0e31\u0e49\u0e07\u0e41\u0e15\u0e48\u0e01\u0e48\u0e2d\u0e19\u0e2a\u0e23\u0e49\u0e32\u0e07\u0e42\u0e25\u0e01"
        },
        {
            "chapter": 1,
            "verse": 3,
            "name": "Titus 1:3",
            "text": "\u0e41\u0e15\u0e48\u0e43\u0e19\u0e40\u0e27\u0e25\u0e32\u0e17\u0e35\u0e48\u0e1e\u0e23\u0e30\u0e40\u0e08\u0e49\u0e32\u0e17\u0e23\u0e07\u0e01\u0e33\u0e2b\u0e19\u0e14\u0e44\u0e27\u0e49 \u0e01\u0e47\u0e44\u0e14\u0e49\u0e17\u0e23\u0e07\u0e42\u0e1b\u0e23\u0e14\u0e43\u0e2b\u0e49\u0e1e\u0e23\u0e30\u0e27\u0e08\u0e19\u0e30\u0e02\u0e2d\u0e07\u0e1e\u0e23\u0e30\u0e2d\u0e07\u0e04\u0e4c\u0e1b\u0e23\u0e32\u0e01\u0e0f\u0e14\u0e49\u0e27\u0e22\u0e01\u0e32\u0e23\u0e40\u0e17\u0e28\u0e19\u0e32 \u0e0b\u0e36\u0e48\u0e07\u0e02\u0e49\u0e32\u0e1e\u0e40\u0e08\u0e49\u0e32\u0e44\u0e14\u0e49\u0e23\u0e31\u0e1a\u0e21\u0e2d\u0e1a\u0e44\u0e27\u0e49 \u0e15\u0e32\u0e21\u0e1e\u0e23\u0e30\u0e1a\u0e31\u0e0d\u0e0d\u0e31\u0e15\u0e34\u0e02\u0e2d\u0e07\u0e1e\u0e23\u0e30\u0e40\u0e08\u0e49\u0e32\u0e1c\u0e39\u0e49\u0e17\u0e23\u0e07\u0e0a\u0e48\u0e27\u0e22\u0e40\u0e23\u0e32\u0e17\u0e31\u0e49\u0e07\u0e2b\u0e25\u0e32\u0e22\u0e43\u0e2b\u0e49\u0e23\u0e2d\u0e14"
        },
        {
            "chapter": 1,
            "verse": 4,
            "name": "Titus 1:4",
            "text": "\u0e16\u0e36\u0e07 \u0e17\u0e34\u0e15\u0e31\u0e2a \u0e1c\u0e39\u0e49\u0e40\u0e1b\u0e47\u0e19\u0e1a\u0e38\u0e15\u0e23\u0e41\u0e17\u0e49\u0e02\u0e2d\u0e07\u0e02\u0e49\u0e32\u0e1e\u0e40\u0e08\u0e49\u0e32\u0e43\u0e19\u0e04\u0e27\u0e32\u0e21\u0e40\u0e0a\u0e37\u0e48\u0e2d\u0e40\u0e14\u0e35\u0e22\u0e27\u0e01\u0e31\u0e19 \u0e02\u0e2d\u0e1e\u0e23\u0e30\u0e04\u0e38\u0e13 \u0e1e\u0e23\u0e30\u0e40\u0e21\u0e15\u0e15\u0e32 \u0e41\u0e25\u0e30\u0e2a\u0e31\u0e19\u0e15\u0e34\u0e2a\u0e38\u0e02\u0e08\u0e32\u0e01\u0e1e\u0e23\u0e30\u0e40\u0e08\u0e49\u0e32\u0e1e\u0e23\u0e30\u0e1a\u0e34\u0e14\u0e32 \u0e41\u0e25\u0e30\u0e1e\u0e23\u0e30\u0e40\u0e22\u0e0b\u0e39\u0e04\u0e23\u0e34\u0e2a\u0e15\u0e4c\u0e40\u0e08\u0e49\u0e32\u0e1e\u0e23\u0e30\u0e1c\u0e39\u0e49\u0e0a\u0e48\u0e27\u0e22\u0e43\u0e2b\u0e49\u0e23\u0e2d\u0e14\u0e02\u0e2d\u0e07\u0e40\u0e23\u0e32 \u0e08\u0e07\u0e14\u0e33\u0e23\u0e07\u0e2d\u0e22\u0e39\u0e48\u0e01\u0e31\u0e1a\u0e17\u0e48\u0e32\u0e19\u0e40\u0e16\u0e34\u0e14"
        },
        {
            "chapter": 1,
            "verse": 5,
            "name": "Titus 1:5",
            "text": "\u0e40\u0e1e\u0e23\u0e32\u0e30\u0e40\u0e2b\u0e15\u0e38\u0e19\u0e35\u0e49\u0e40\u0e2d\u0e07\u0e02\u0e49\u0e32\u0e1e\u0e40\u0e08\u0e49\u0e32\u0e08\u0e36\u0e07\u0e25\u0e30\u0e17\u0e48\u0e32\u0e19\u0e44\u0e27\u0e49\u0e17\u0e35\u0e48\u0e40\u0e01\u0e32\u0e30\u0e04\u0e23\u0e35\u0e15 \u0e01\u0e47\u0e40\u0e1e\u0e37\u0e48\u0e2d\u0e17\u0e48\u0e32\u0e19\u0e08\u0e30\u0e44\u0e14\u0e49\u0e41\u0e01\u0e49\u0e44\u0e02\u0e2a\u0e34\u0e48\u0e07\u0e17\u0e35\u0e48\u0e22\u0e31\u0e07\u0e1a\u0e01\u0e1e\u0e23\u0e48\u0e2d\u0e07\u0e43\u0e2b\u0e49\u0e40\u0e23\u0e35\u0e22\u0e1a\u0e23\u0e49\u0e2d\u0e22 \u0e41\u0e25\u0e30\u0e15\u0e31\u0e49\u0e07\u0e1c\u0e39\u0e49\u0e1b\u0e01\u0e04\u0e23\u0e2d\u0e07\u0e44\u0e27\u0e49\u0e17\u0e38\u0e01\u0e40\u0e21\u0e37\u0e2d\u0e07\u0e15\u0e32\u0e21\u0e17\u0e35\u0e48\u0e02\u0e49\u0e32\u0e1e\u0e40\u0e08\u0e49\u0e32\u0e44\u0e14\u0e49\u0e01\u0e33\u0e0a\u0e31\u0e1a\u0e17\u0e48\u0e32\u0e19\u0e41\u0e25\u0e49\u0e27"
        },
        {
            "chapter": 1,
            "verse": 6,
            "name": "Titus 1:6",
            "text": "\u0e04\u0e37\u0e2d\u0e16\u0e49\u0e32\u0e21\u0e35\u0e43\u0e04\u0e23\u0e44\u0e21\u0e48\u0e21\u0e35\u0e02\u0e49\u0e2d\u0e15\u0e33\u0e2b\u0e19\u0e34 \u0e40\u0e1b\u0e47\u0e19\u0e2a\u0e32\u0e21\u0e35\u0e02\u0e2d\u0e07\u0e2b\u0e0d\u0e34\u0e07\u0e04\u0e19\u0e40\u0e14\u0e35\u0e22\u0e27 \u0e21\u0e35\u0e1a\u0e38\u0e15\u0e23\u0e2a\u0e31\u0e15\u0e22\u0e4c\u0e0b\u0e37\u0e48\u0e2d \u0e41\u0e25\u0e30\u0e44\u0e21\u0e48\u0e21\u0e35\u0e43\u0e04\u0e23\u0e01\u0e25\u0e48\u0e32\u0e27\u0e2b\u0e32\u0e27\u0e48\u0e32\u0e1a\u0e38\u0e15\u0e23\u0e19\u0e31\u0e49\u0e19\u0e40\u0e1b\u0e47\u0e19\u0e19\u0e31\u0e01\u0e40\u0e25\u0e07\u0e2b\u0e23\u0e37\u0e2d\u0e40\u0e1b\u0e47\u0e19\u0e04\u0e19\u0e14\u0e37\u0e49\u0e2d\u0e01\u0e23\u0e30\u0e14\u0e49\u0e32\u0e07"
        },
        {
            "chapter": 1,
            "verse": 7,
            "name": "Titus 1:7",
            "text": "\u0e40\u0e1e\u0e23\u0e32\u0e30\u0e27\u0e48\u0e32\u0e1c\u0e39\u0e49\u0e14\u0e39\u0e41\u0e25\u0e19\u0e31\u0e49\u0e19 \u0e43\u0e19\u0e10\u0e32\u0e19\u0e30\u0e17\u0e35\u0e48\u0e40\u0e1b\u0e47\u0e19\u0e1c\u0e39\u0e49\u0e23\u0e31\u0e1a\u0e21\u0e2d\u0e1a\u0e09\u0e31\u0e19\u0e17\u0e30\u0e08\u0e32\u0e01\u0e1e\u0e23\u0e30\u0e40\u0e08\u0e49\u0e32 \u0e15\u0e49\u0e2d\u0e07\u0e40\u0e1b\u0e47\u0e19\u0e04\u0e19\u0e17\u0e35\u0e48\u0e44\u0e21\u0e48\u0e21\u0e35\u0e02\u0e49\u0e2d\u0e15\u0e33\u0e2b\u0e19\u0e34 \u0e44\u0e21\u0e48\u0e40\u0e1b\u0e47\u0e19\u0e04\u0e19\u0e40\u0e22\u0e48\u0e2d\u0e2b\u0e22\u0e34\u0e48\u0e07 \u0e44\u0e21\u0e48\u0e40\u0e1b\u0e47\u0e19\u0e04\u0e19\u0e40\u0e25\u0e37\u0e2d\u0e14\u0e23\u0e49\u0e2d\u0e19 \u0e44\u0e21\u0e48\u0e40\u0e1b\u0e47\u0e19\u0e19\u0e31\u0e01\u0e40\u0e25\u0e07\u0e2a\u0e38\u0e23\u0e32 \u0e44\u0e21\u0e48\u0e40\u0e1b\u0e47\u0e19\u0e19\u0e31\u0e01\u0e40\u0e25\u0e07\u0e2b\u0e31\u0e27\u0e44\u0e21\u0e49 \u0e41\u0e25\u0e30\u0e44\u0e21\u0e48\u0e40\u0e1b\u0e47\u0e19\u0e04\u0e19\u0e42\u0e25\u0e20\u0e21\u0e31\u0e01\u0e44\u0e14\u0e49"
        },
        {
            "chapter": 1,
            "verse": 8,
            "name": "Titus 1:8",
            "text": "\u0e41\u0e15\u0e48\u0e40\u0e1b\u0e47\u0e19\u0e04\u0e19\u0e21\u0e35\u0e2d\u0e31\u0e0a\u0e0c\u0e32\u0e2a\u0e31\u0e22\u0e23\u0e31\u0e1a\u0e41\u0e02\u0e01\u0e14\u0e35 \u0e40\u0e1b\u0e47\u0e19\u0e1c\u0e39\u0e49\u0e23\u0e31\u0e01\u0e04\u0e19\u0e14\u0e35 \u0e40\u0e1b\u0e47\u0e19\u0e04\u0e19\u0e21\u0e35\u0e2a\u0e15\u0e34\u0e2a\u0e31\u0e21\u0e1b\u0e0a\u0e31\u0e0d\u0e0d\u0e30 \u0e40\u0e1b\u0e47\u0e19\u0e04\u0e19\u0e0a\u0e2d\u0e1a\u0e18\u0e23\u0e23\u0e21 \u0e40\u0e1b\u0e47\u0e19\u0e04\u0e19\u0e1a\u0e23\u0e34\u0e2a\u0e38\u0e17\u0e18\u0e34\u0e4c \u0e23\u0e39\u0e49\u0e08\u0e31\u0e01\u0e1a\u0e31\u0e07\u0e04\u0e31\u0e1a\u0e43\u0e08\u0e15\u0e19\u0e40\u0e2d\u0e07"
        },
        {
            "chapter": 1,
            "verse": 9,
            "name": "Titus 1:9",
            "text": "\u0e41\u0e25\u0e30\u0e40\u0e1b\u0e47\u0e19\u0e04\u0e19\u0e22\u0e36\u0e14\u0e21\u0e31\u0e48\u0e19\u0e43\u0e19\u0e2b\u0e25\u0e31\u0e01\u0e04\u0e33\u0e2a\u0e2d\u0e19\u0e2d\u0e31\u0e19\u0e2a\u0e31\u0e15\u0e22\u0e4c\u0e0b\u0e37\u0e48\u0e2d\u0e15\u0e32\u0e21\u0e17\u0e35\u0e48\u0e44\u0e14\u0e49\u0e40\u0e23\u0e35\u0e22\u0e19\u0e21\u0e32\u0e41\u0e25\u0e49\u0e27 \u0e40\u0e1e\u0e37\u0e48\u0e2d\u0e40\u0e02\u0e32\u0e08\u0e30\u0e2a\u0e32\u0e21\u0e32\u0e23\u0e16\u0e40\u0e15\u0e37\u0e2d\u0e19\u0e2a\u0e15\u0e34\u0e14\u0e49\u0e27\u0e22\u0e04\u0e33\u0e2a\u0e2d\u0e19\u0e2d\u0e31\u0e19\u0e16\u0e39\u0e01\u0e15\u0e49\u0e2d\u0e07 \u0e41\u0e25\u0e30\u0e0a\u0e35\u0e49\u0e41\u0e08\u0e07\u0e41\u0e01\u0e48\u0e1c\u0e39\u0e49\u0e17\u0e35\u0e48\u0e04\u0e31\u0e14\u0e04\u0e49\u0e32\u0e19\u0e04\u0e33\u0e2a\u0e2d\u0e19\u0e19\u0e31\u0e49\u0e19"
        },
        {
            "chapter": 1,
            "verse": 10,
            "name": "Titus 1:10",
            "text": "\u0e40\u0e1e\u0e23\u0e32\u0e30\u0e27\u0e48\u0e32\u0e21\u0e35\u0e04\u0e19\u0e40\u0e1b\u0e47\u0e19\u0e2d\u0e31\u0e19\u0e21\u0e32\u0e01\u0e17\u0e35\u0e48\u0e14\u0e37\u0e49\u0e2d\u0e01\u0e23\u0e30\u0e14\u0e49\u0e32\u0e07 \u0e1e\u0e39\u0e14\u0e21\u0e32\u0e01\u0e44\u0e21\u0e48\u0e40\u0e1b\u0e47\u0e19\u0e2a\u0e32\u0e23\u0e30 \u0e41\u0e25\u0e30\u0e2b\u0e25\u0e2d\u0e01\u0e25\u0e27\u0e07 \u0e42\u0e14\u0e22\u0e40\u0e09\u0e1e\u0e32\u0e30\u0e1a\u0e23\u0e23\u0e14\u0e32\u0e1c\u0e39\u0e49\u0e17\u0e35\u0e48\u0e40\u0e02\u0e49\u0e32\u0e2a\u0e38\u0e2b\u0e19\u0e31\u0e15"
        },
        {
            "chapter": 1,
            "verse": 11,
            "name": "Titus 1:11",
            "text": "\u0e08\u0e33\u0e40\u0e1b\u0e47\u0e19\u0e15\u0e49\u0e2d\u0e07\u0e43\u0e2b\u0e49\u0e40\u0e02\u0e32\u0e2a\u0e07\u0e1a\u0e1b\u0e32\u0e01\u0e40\u0e2a\u0e35\u0e22 \u0e14\u0e49\u0e27\u0e22\u0e40\u0e02\u0e32\u0e1e\u0e25\u0e34\u0e01\u0e1a\u0e49\u0e32\u0e19\u0e04\u0e27\u0e48\u0e33\u0e17\u0e31\u0e49\u0e07\u0e04\u0e23\u0e31\u0e27\u0e40\u0e23\u0e37\u0e2d\u0e19\u0e43\u0e2b\u0e49\u0e40\u0e2a\u0e35\u0e22\u0e44\u0e1b \u0e42\u0e14\u0e22\u0e2a\u0e2d\u0e19\u0e2a\u0e34\u0e48\u0e07\u0e17\u0e35\u0e48\u0e44\u0e21\u0e48\u0e04\u0e27\u0e23\u0e08\u0e30\u0e2a\u0e2d\u0e19\u0e40\u0e25\u0e22 \u0e40\u0e1e\u0e23\u0e32\u0e30\u0e40\u0e2b\u0e47\u0e19\u0e41\u0e01\u0e48\u0e40\u0e25\u0e47\u0e01\u0e41\u0e01\u0e48\u0e19\u0e49\u0e2d\u0e22"
        },
        {
            "chapter": 1,
            "verse": 12,
            "name": "Titus 1:12",
            "text": "\u0e43\u0e19\u0e1e\u0e27\u0e01\u0e40\u0e02\u0e32\u0e40\u0e2d\u0e07\u0e21\u0e35\u0e04\u0e19\u0e2b\u0e19\u0e36\u0e48\u0e07\u0e40\u0e1b\u0e47\u0e19\u0e1c\u0e39\u0e49\u0e1e\u0e22\u0e32\u0e01\u0e23\u0e13\u0e4c\u0e44\u0e14\u0e49\u0e01\u0e25\u0e48\u0e32\u0e27\u0e27\u0e48\u0e32 \u201c\u0e0a\u0e32\u0e27\u0e04\u0e23\u0e35\u0e15\u0e40\u0e1b\u0e47\u0e19\u0e04\u0e19\u0e1e\u0e39\u0e14\u0e1b\u0e14\u0e40\u0e2a\u0e21\u0e2d \u0e40\u0e1b\u0e47\u0e19\u0e40\u0e2b\u0e21\u0e37\u0e2d\u0e19\u0e2d\u0e22\u0e48\u0e32\u0e07\u0e2a\u0e31\u0e15\u0e27\u0e4c\u0e23\u0e49\u0e32\u0e22 \u0e40\u0e1b\u0e47\u0e19\u0e04\u0e19\u0e40\u0e01\u0e35\u0e22\u0e08\u0e04\u0e23\u0e49\u0e32\u0e19\u0e01\u0e34\u0e19\u0e40\u0e15\u0e34\u0e1a\u201d"
        },
        {
            "chapter": 1,
            "verse": 13,
            "name": "Titus 1:13",
            "text": "\u0e04\u0e33\u0e17\u0e35\u0e48\u0e40\u0e02\u0e32\u0e2d\u0e49\u0e32\u0e07\u0e19\u0e35\u0e49\u0e40\u0e1b\u0e47\u0e19\u0e04\u0e27\u0e32\u0e21\u0e08\u0e23\u0e34\u0e07 \u0e40\u0e2b\u0e15\u0e38\u0e09\u0e30\u0e19\u0e31\u0e49\u0e19\u0e17\u0e48\u0e32\u0e19\u0e08\u0e07\u0e15\u0e48\u0e2d\u0e27\u0e48\u0e32\u0e40\u0e02\u0e32\u0e43\u0e2b\u0e49\u0e41\u0e23\u0e07\u0e46\u0e40\u0e1e\u0e37\u0e48\u0e2d\u0e40\u0e02\u0e32\u0e08\u0e30\u0e44\u0e14\u0e49\u0e21\u0e35\u0e04\u0e27\u0e32\u0e21\u0e40\u0e0a\u0e37\u0e48\u0e2d\u0e2d\u0e31\u0e19\u0e16\u0e39\u0e01\u0e15\u0e49\u0e2d\u0e07"
        },
        {
            "chapter": 1,
            "verse": 14,
            "name": "Titus 1:14",
            "text": "\u0e41\u0e25\u0e30\u0e08\u0e30\u0e21\u0e34\u0e44\u0e14\u0e49\u0e2a\u0e19\u0e43\u0e08\u0e43\u0e19\u0e19\u0e34\u0e22\u0e32\u0e22\u0e02\u0e2d\u0e07\u0e1e\u0e27\u0e01\u0e22\u0e34\u0e27 \u0e41\u0e25\u0e30\u0e43\u0e19\u0e1a\u0e17\u0e1a\u0e31\u0e0d\u0e0d\u0e31\u0e15\u0e34\u0e02\u0e2d\u0e07\u0e21\u0e19\u0e38\u0e29\u0e22\u0e4c\u0e0b\u0e36\u0e48\u0e07\u0e43\u0e2b\u0e49\u0e2b\u0e31\u0e19\u0e44\u0e1b\u0e40\u0e2a\u0e35\u0e22\u0e08\u0e32\u0e01\u0e04\u0e27\u0e32\u0e21\u0e08\u0e23\u0e34\u0e07"
        },
        {
            "chapter": 1,
            "verse": 15,
            "name": "Titus 1:15",
            "text": "\u0e2a\u0e33\u0e2b\u0e23\u0e31\u0e1a\u0e04\u0e19\u0e1a\u0e23\u0e34\u0e2a\u0e38\u0e17\u0e18\u0e34\u0e4c\u0e19\u0e31\u0e49\u0e19 \u0e17\u0e38\u0e01\u0e2a\u0e34\u0e48\u0e07\u0e01\u0e47\u0e1a\u0e23\u0e34\u0e2a\u0e38\u0e17\u0e18\u0e34\u0e4c \u0e41\u0e15\u0e48\u0e2a\u0e33\u0e2b\u0e23\u0e31\u0e1a\u0e04\u0e19\u0e0a\u0e31\u0e48\u0e27\u0e0a\u0e49\u0e32 \u0e41\u0e25\u0e30\u0e04\u0e19\u0e17\u0e35\u0e48\u0e44\u0e21\u0e48\u0e40\u0e0a\u0e37\u0e48\u0e2d\u0e19\u0e31\u0e49\u0e19 \u0e01\u0e47\u0e44\u0e21\u0e48\u0e21\u0e35\u0e2a\u0e34\u0e48\u0e07\u0e43\u0e14\u0e1a\u0e23\u0e34\u0e2a\u0e38\u0e17\u0e18\u0e34\u0e4c\u0e40\u0e25\u0e22 \u0e41\u0e15\u0e48\u0e08\u0e34\u0e15\u0e43\u0e08\u0e41\u0e25\u0e30\u0e08\u0e34\u0e15\u0e2a\u0e33\u0e19\u0e36\u0e01\u0e1c\u0e34\u0e14\u0e0a\u0e2d\u0e1a\u0e02\u0e2d\u0e07\u0e40\u0e02\u0e32\u0e01\u0e47\u0e0a\u0e31\u0e48\u0e27\u0e21\u0e25\u0e17\u0e34\u0e19\u0e44\u0e1b"
        },
        {
            "chapter": 1,
            "verse": 16,
            "name": "Titus 1:16",
            "text": "\u0e40\u0e02\u0e32\u0e2d\u0e2d\u0e01\u0e1b\u0e32\u0e01\u0e22\u0e2d\u0e21\u0e23\u0e31\u0e1a\u0e27\u0e48\u0e32\u0e40\u0e02\u0e32\u0e23\u0e39\u0e49\u0e08\u0e31\u0e01\u0e1e\u0e23\u0e30\u0e40\u0e08\u0e49\u0e32 \u0e41\u0e15\u0e48\u0e27\u0e48\u0e32\u0e43\u0e19\u0e01\u0e32\u0e23\u0e01\u0e23\u0e30\u0e17\u0e33\u0e02\u0e2d\u0e07\u0e40\u0e02\u0e32 \u0e40\u0e02\u0e32\u0e01\u0e47\u0e1b\u0e0f\u0e34\u0e40\u0e2a\u0e18\u0e1e\u0e23\u0e30\u0e2d\u0e07\u0e04\u0e4c \u0e42\u0e14\u0e22\u0e01\u0e32\u0e23\u0e1b\u0e23\u0e30\u0e1e\u0e24\u0e15\u0e34\u0e15\u0e31\u0e27\u0e19\u0e48\u0e32\u0e23\u0e31\u0e07\u0e40\u0e01\u0e35\u0e22\u0e08 \u0e41\u0e25\u0e30\u0e44\u0e21\u0e48\u0e40\u0e0a\u0e37\u0e48\u0e2d\u0e1f\u0e31\u0e07 \u0e41\u0e25\u0e30\u0e44\u0e21\u0e48\u0e40\u0e2b\u0e21\u0e32\u0e30\u0e17\u0e35\u0e48\u0e08\u0e30\u0e01\u0e23\u0e30\u0e17\u0e33\u0e01\u0e32\u0e23\u0e14\u0e35\u0e43\u0e14\u0e46\u0e40\u0e25\u0e22  "
        }
    ]
}