{
    "translation": "Almeida Atualizada",
    "abbreviation": "almeida",
    "lang": "pt",
    "language": "Portuguese",
    "direction": "LTR",
    "encoding": "UTF-8",
    "book_nr": 10,
    "book_name": "2 Samuel",
    "chapter": 19,
    "name": "2 Samuel 19",
    "verses": [
        {
            "chapter": 19,
            "verse": 1,
            "name": "2 Samuel 19:1",
            "text": "Disseram a Joabe: Eis que o rei est\u00e1 chorando e se lamentando por Absal\u00e3o."
        },
        {
            "chapter": 19,
            "verse": 2,
            "name": "2 Samuel 19:2",
            "text": "Ent\u00e3o a vit\u00f3ria se tornou naquele dia em tristeza para todo o povo, porque nesse dia o povo ouviu dizer: O rei est\u00e1 muito triste por causa de seu filho."
        },
        {
            "chapter": 19,
            "verse": 3,
            "name": "2 Samuel 19:3",
            "text": "E nesse dia o povo entrou furtivamente na cidade, como o faz quando, envergonhado, foge da peleja."
        },
        {
            "chapter": 19,
            "verse": 4,
            "name": "2 Samuel 19:4",
            "text": "Estava, pois, o rei com o rosto coberto, e clamava em alta voz: Meu filho Absal\u00e3o, Absal\u00e3o meu filho, meu filho!"
        },
        {
            "chapter": 19,
            "verse": 5,
            "name": "2 Samuel 19:5",
            "text": "Ent\u00e3o entrou Joabe na casa onde estava o rei, e disse: Hoje envergonhaste todos os teus servos, que livraram neste dia a tua vida, a vida de teus filhos e filhas, e a vida de tuas mulheres e concubinas,"
        },
        {
            "chapter": 19,
            "verse": 6,
            "name": "2 Samuel 19:6",
            "text": "amando aos que te odeiam, e odiando aos que te amam. Porque hoje d\u00e1s a entender que nada valem para ti nem chefes nem servos; pois agora entendo que se Absal\u00e3o vivesse, e todos n\u00f3s hoje f\u00f4ssemos mortos, ficarias bem contente."
        },
        {
            "chapter": 19,
            "verse": 7,
            "name": "2 Samuel 19:7",
            "text": "Levanta-te, pois, agora; sai e fala ao cora\u00e7\u00e3o de teus servos. Porque pelo Senhor te juro que, se n\u00e3o sa\u00edres, nem um s\u00f3 homem ficar\u00e1 contigo esta noite; e isso te ser\u00e1 pior do que todo o mal que tem vindo sobre ti desde a tua mocidade at\u00e9 agora."
        },
        {
            "chapter": 19,
            "verse": 8,
            "name": "2 Samuel 19:8",
            "text": "Pelo que o rei se levantou, e se sentou \u00e0 porta; e avisaram a todo o povo, dizendo: Eis que o rei est\u00e1 sentado \u00e0 porta. Ent\u00e3o todo o povo veio apresentar-se diante do rei. Ora, Israel havia fugido, cada um para a sua tenda."
        },
        {
            "chapter": 19,
            "verse": 9,
            "name": "2 Samuel 19:9",
            "text": "Entrementes todo o povo, em todas as tribos de Israel, andava altercando entre si, dizendo: O rei nos tirou das m\u00e3os de nossos inimigos, e nos livrou das m\u00e3os dos filisteus; e agora fugiu da terra por causa de Absal\u00e3o."
        },
        {
            "chapter": 19,
            "verse": 10,
            "name": "2 Samuel 19:10",
            "text": "Tamb\u00e9m Absal\u00e3o, a quem ungimos sobre n\u00f3s, morreu na peleja. Agora, pois, porque vos calais, e n\u00e3o fazeis voltar o rei?"
        },
        {
            "chapter": 19,
            "verse": 11,
            "name": "2 Samuel 19:11",
            "text": "Ent\u00e3o o rei Davi mandou dizer a Zadoque e a Abiatar, sacerdotes: Falai aos anci\u00e3os de Jud\u00e1, dizendo: Por que ser\u00edeis v\u00f3s os \u00faltimos em tornar a trazer o rei para sua casa? Porque a palavra de todo o Israel tem chegado ao rei, at\u00e9 a sua casa."
        },
        {
            "chapter": 19,
            "verse": 12,
            "name": "2 Samuel 19:12",
            "text": "V\u00f3s sois meus irm\u00e3os; meus ossos e minha carne sois v\u00f3s; por que, pois, ser\u00edeis os \u00faltimos em tornar a trazer o rei?"
        },
        {
            "chapter": 19,
            "verse": 13,
            "name": "2 Samuel 19:13",
            "text": "Dizei a Amasa: Porventura n\u00e3o \u00e9s tu meu osso e minha carne? Assim me fa\u00e7a Deus e outro tanto, se n\u00e3o fores chefe do exercito diante e mim para sempre, em lugar de Joabe."
        },
        {
            "chapter": 19,
            "verse": 14,
            "name": "2 Samuel 19:14",
            "text": "Assim moveu ele o cora\u00e7\u00e3o de todos os homens de Jud\u00e1, como se fosse o de um s\u00f3 homem; e enviaram ao rei, dizendo: Volta, com todos os teus servos."
        },
        {
            "chapter": 19,
            "verse": 15,
            "name": "2 Samuel 19:15",
            "text": "Ent\u00e3o o rei voltou, e chegou at\u00e9 o Jord\u00e3o; e Jud\u00e1 veio a Gilgal, para encontrar-se com o rei, a fim de faz\u00ea-lo passar o Jord\u00e3o."
        },
        {
            "chapter": 19,
            "verse": 16,
            "name": "2 Samuel 19:16",
            "text": "Ora, apressou-se Simei, filho de G\u00eara, benjamita, que era de Baurim, e desceu com os homens de Jud\u00e1 a encontrar-se com o rei Davi;"
        },
        {
            "chapter": 19,
            "verse": 17,
            "name": "2 Samuel 19:17",
            "text": "e com ele mil homens de Benjamim, como tamb\u00e9m Ziba, servo da casa de Saul, e seus quinze filhos, e seus vinte servos com ele; desceram apressadamente ao Jord\u00e3o adiante do rei,"
        },
        {
            "chapter": 19,
            "verse": 18,
            "name": "2 Samuel 19:18",
            "text": "atravessando o vau para trazer a casa do rei e para fazer o que aprouvesse a ele. Quando o rei ia passar o Jord\u00e3o, Simei, filho de G\u00eara, se prostrou diante dele,"
        },
        {
            "chapter": 19,
            "verse": 19,
            "name": "2 Samuel 19:19",
            "text": "e lhe disse: N\u00e3o me impute meu senhor \u00e0 minha culpa, e n\u00e3o te lembres do que t\u00e3o perversamente fez teu servo, no dia em que o rei meu senhor saiu de Jerusal\u00e9m; n\u00e3o conserve o rei isso no cora\u00e7\u00e3o."
        },
        {
            "chapter": 19,
            "verse": 20,
            "name": "2 Samuel 19:20",
            "text": "Porque eu, teu servo, deveras confesso que pequei; por isso eis que eu sou o primeiro, de toda a casa de Jos\u00e9, a descer ao encontro do rei meu senhor."
        },
        {
            "chapter": 19,
            "verse": 21,
            "name": "2 Samuel 19:21",
            "text": "Respondeu Abisai, filho de Zeruia, dizendo: N\u00e3o h\u00e1 de ser morto Simei por haver amaldi\u00e7oado ao ungido do Senhor?"
        },
        {
            "chapter": 19,
            "verse": 22,
            "name": "2 Samuel 19:22",
            "text": "Mas Davi disse: Que tenho eu convosco, filhos de Zeruia, para que hoje me sejais advers\u00e1rios? Ser\u00e1 morto algu\u00e9m hoje em Israel? Pois n\u00e3o sei eu que hoje sou rei sobre Israel?"
        },
        {
            "chapter": 19,
            "verse": 23,
            "name": "2 Samuel 19:23",
            "text": "Ent\u00e3o disse o rei a Simei: N\u00e3o morrer\u00e1s. E o rei lho jurou."
        },
        {
            "chapter": 19,
            "verse": 24,
            "name": "2 Samuel 19:24",
            "text": "Tamb\u00e9m Mefibosete, filho de Saul, desceu a encontrar-se com o rei, e n\u00e3o cuidara dos p\u00e9s, nem fizera a barba, nem lavara as suas vestes desde o dia em que o rei sa\u00edra at\u00e9 o dia em que voltou em paz."
        },
        {
            "chapter": 19,
            "verse": 25,
            "name": "2 Samuel 19:25",
            "text": "E sucedeu que, vindo ele a Jerusal\u00e9m a encontrar-se com o rei, este lhe perguntou: Por que n\u00e3o foste comigo, Mefibosete?"
        },
        {
            "chapter": 19,
            "verse": 26,
            "name": "2 Samuel 19:26",
            "text": "Respondeu ele: O rei meu senhor, o meu servo me enganou. Porque o teu servo dizia: Albardarei um jumento, para nele montar e ir com o rei; pois o teu servo \u00e9 coxo."
        },
        {
            "chapter": 19,
            "verse": 27,
            "name": "2 Samuel 19:27",
            "text": "E ele acusou falsamente o teu servo diante do rei meu senhor; por\u00e9m o rei meu senhor \u00e9 como um anjo de Deus; faze, pois, o que bem te parecer."
        },
        {
            "chapter": 19,
            "verse": 28,
            "name": "2 Samuel 19:28",
            "text": "Pois toda a casa de meu pai n\u00e3o era sen\u00e3o de homens dignos de morte diante do rei meu senhor; contudo, puseste teu servo entre os que comem \u00e0 tua mesa. E que direito mais tenho eu de clamar ainda ao rei."
        },
        {
            "chapter": 19,
            "verse": 29,
            "name": "2 Samuel 19:29",
            "text": "Ao que lhe respondeu o rei: Por que falas ainda de teus neg\u00f3cios? J\u00e1 decidi: Tu e Ziba reparti as terras."
        },
        {
            "chapter": 19,
            "verse": 30,
            "name": "2 Samuel 19:30",
            "text": "Ent\u00e3o disse Mefibosete ao rei: Deixe que ele tome tudo, uma vez que o rei meu senhor j\u00e1 voltou em paz \u00e0 sua casa."
        },
        {
            "chapter": 19,
            "verse": 31,
            "name": "2 Samuel 19:31",
            "text": "Tamb\u00e9m Barzilai, o gileadita, desceu de Rogelim, e passou com o rei o Jord\u00e3o, para acompanh\u00e1-lo at\u00e9 a outra banda do rio."
        },
        {
            "chapter": 19,
            "verse": 32,
            "name": "2 Samuel 19:32",
            "text": "E era Barzilai mui velho, da idade de oitenta anos; e ele tinha provido o rei de v\u00edveres enquanto este se demorara em Maanaim, pois era homem muito rico."
        },
        {
            "chapter": 19,
            "verse": 33,
            "name": "2 Samuel 19:33",
            "text": "Disse, pois, o rei a Barzilai: Passa tu comigo e eu te sustentarei em Jerusal\u00e9m, em minha companhia."
        },
        {
            "chapter": 19,
            "verse": 34,
            "name": "2 Samuel 19:34",
            "text": "Barzilai, por\u00e9m, respondeu ao rei: Quantos anos viverei ainda, para que suba com o rei a Jerusal\u00e9m."
        },
        {
            "chapter": 19,
            "verse": 35,
            "name": "2 Samuel 19:35",
            "text": "Oitenta anos tenho hoje; poderei eu discernir entre e bom e o mau? Poder\u00e1 o teu servo perceber sabor no que comer e beber? Poderei eu mais ouvir a voz dos cantores e das cantoras? E por que ser\u00e1 o teu servo ainda pesado ao rei meu senhor?"
        },
        {
            "chapter": 19,
            "verse": 36,
            "name": "2 Samuel 19:36",
            "text": "O teu servo passar\u00e1 com o rei at\u00e9 um pouco al\u00e9m do Jord\u00e3o. Por que me daria o rei tal recompensa?"
        },
        {
            "chapter": 19,
            "verse": 37,
            "name": "2 Samuel 19:37",
            "text": "Deixa voltar o teu servo, para que eu morra na minha cidade, junto \u00e0 sepultura de meu pai e de minha m\u00e3e. Mas eis a\u00ed o teu servo Quim\u00e3; passe ele com o rei meu senhor, e faze-lhe o que for do teu agrado."
        },
        {
            "chapter": 19,
            "verse": 38,
            "name": "2 Samuel 19:38",
            "text": "Ao que disse o rei: Quim\u00e3 passar\u00e1 comigo, e eu lhe farei o que te parecer bem, e tudo quanto me pedires te farei."
        },
        {
            "chapter": 19,
            "verse": 39,
            "name": "2 Samuel 19:39",
            "text": "Havendo, pois, todo o povo passado o Jord\u00e3o, e tendo passado tamb\u00e9m o rei, beijou o rei a Barzilai, e o aben\u00e7oou; e este voltou para o seu lugar."
        },
        {
            "chapter": 19,
            "verse": 40,
            "name": "2 Samuel 19:40",
            "text": "Dali passou o rei a Gilgal, e Quim\u00e3 com ele; e todo o povo de Jud\u00e1, juntamente com a metade do povo de Israel, conduziu o rei."
        },
        {
            "chapter": 19,
            "verse": 41,
            "name": "2 Samuel 19:41",
            "text": "Ent\u00e3o todos os homens de Israel vieram ter com o rei, e lhe disseram: Por que te furtaram nossos irm\u00e3os, os homens de Jud\u00e1, e fizeram passar o Jord\u00e3o o rei e a sua casa, e todos os seus homens com ele?"
        },
        {
            "chapter": 19,
            "verse": 42,
            "name": "2 Samuel 19:42",
            "text": "Responderam todos os homens de Jud\u00e1 aos homens de Israel: Porquanto o rei \u00e9 nosso parente: Por que vos irais por isso. Acaso temos comido \u00e0 custa do rei, ou nos deu ele algum presente?"
        },
        {
            "chapter": 19,
            "verse": 43,
            "name": "2 Samuel 19:43",
            "text": "Ao que os homens de Israel responderam aos homens de Jud\u00e1: Dez partes temos no rei; mais temos n\u00f3s em Davi do que v\u00f3s. Por que, pois, fizestes pouca conta de n\u00f3s. N\u00e3o foi a nossa palavra a primeira, para tornar a trazer o nosso rei? Por\u00e9m a palavra dos homens de Jud\u00e1 foi mais forte do que a palavra dos homens de Israel. "
        }
    ]
}