{
    "translation": "Green's Modern King James Version",
    "abbreviation": "mkjv",
    "lang": "en",
    "language": "English",
    "direction": "LTR",
    "encoding": "",
    "book_nr": 4,
    "book_name": "Numbers",
    "chapter": 20,
    "name": "Numbers 20",
    "verses": [
        {
            "chapter": 20,
            "verse": 1,
            "name": "Numbers 20:1",
            "text": "Then the sons of Israel came, the whole congregation, into the desert of Zin in the first month. And the people stayed in Kadesh. And Miriam died there and was buried there. "
        },
        {
            "chapter": 20,
            "verse": 2,
            "name": "Numbers 20:2",
            "text": "And there was no water for the congregation. And they gathered themselves against Moses and against Aaron. "
        },
        {
            "chapter": 20,
            "verse": 3,
            "name": "Numbers 20:3",
            "text": "And the people contended with Moses and spoke, saying, Oh that we had died when our brothers died before the LORD! "
        },
        {
            "chapter": 20,
            "verse": 4,
            "name": "Numbers 20:4",
            "text": "And why have you brought up the congregation of the LORD into this wilderness, so that we and our cattle should die there? "
        },
        {
            "chapter": 20,
            "verse": 5,
            "name": "Numbers 20:5",
            "text": "And why have you made us to come up out of Egypt, to bring us into this evil place? It is no place of seed or of figs or of vines or of pomegranates. And there is no water to drink. "
        },
        {
            "chapter": 20,
            "verse": 6,
            "name": "Numbers 20:6",
            "text": "And Moses and Aaron went from the presence of the assembly to the door of the tabernacle of the congregation, and they fell upon their faces. And the glory of the LORD appeared to them. "
        },
        {
            "chapter": 20,
            "verse": 7,
            "name": "Numbers 20:7",
            "text": "And the LORD spoke to Moses saying, "
        },
        {
            "chapter": 20,
            "verse": 8,
            "name": "Numbers 20:8",
            "text": "Take the rod, and gather the assembly, you and Aaron your brother, and speak to the rock before their eyes. And it shall give forth its water, and you shall bring forth to them water out of the rock. So you shall give the congregation and their animals drink. "
        },
        {
            "chapter": 20,
            "verse": 9,
            "name": "Numbers 20:9",
            "text": "And Moses took the rod from before the LORD as He commanded him. "
        },
        {
            "chapter": 20,
            "verse": 10,
            "name": "Numbers 20:10",
            "text": "And Moses and Aaron gathered the congregation together before the rock, and he said to them, Hear now you rebels. Must we bring water for you out of this rock? "
        },
        {
            "chapter": 20,
            "verse": 11,
            "name": "Numbers 20:11",
            "text": "And Moses lifted up his hand, and with his rod he struck the rock twice. And the water came out plentifully, and the congregation and their animals drank. "
        },
        {
            "chapter": 20,
            "verse": 12,
            "name": "Numbers 20:12",
            "text": "And the LORD spoke to Moses and Aaron, Because you did not believe Me, to sanctify Me in the eyes of the sons of Israel, therefore you shall not bring this congregation into the land which I have given them. "
        },
        {
            "chapter": 20,
            "verse": 13,
            "name": "Numbers 20:13",
            "text": "These are the Waters of Strife, because the sons of Israel fought with the LORD, and He showed Himself holy among them.   "
        },
        {
            "chapter": 20,
            "verse": 14,
            "name": "Numbers 20:14",
            "text": "And Moses sent messengers from Kadesh to the king of Edom, so says your brother Israel, You know all the trouble that has happened to us, "
        },
        {
            "chapter": 20,
            "verse": 15,
            "name": "Numbers 20:15",
            "text": "how our fathers went down into Egypt, and we have lived in Egypt a long time. And the Egyptians troubled us and our fathers. "
        },
        {
            "chapter": 20,
            "verse": 16,
            "name": "Numbers 20:16",
            "text": "And when we cried to the LORD, He heard our voice and sent an Angel, and has brought us forth out of Egypt. And behold! We are in Kadesh, a city in the outermost part of your border. "
        },
        {
            "chapter": 20,
            "verse": 17,
            "name": "Numbers 20:17",
            "text": "Let us pass, I pray you, through your country. We will not pass through a field, nor through a vineyard, neither will we drink of the water of a well. We will go by the king's highway. We will not turn to the right hand nor to the left until we have passed your borders. "
        },
        {
            "chapter": 20,
            "verse": 18,
            "name": "Numbers 20:18",
            "text": "And Edom said to him, You shall not pass by me, lest I come out against you with the sword. "
        },
        {
            "chapter": 20,
            "verse": 19,
            "name": "Numbers 20:19",
            "text": "And the sons of Israel said to him, We will go by the highway. And if I and my cattle drink of your water, then I will pay for it. Without doing anything, I will only go through on my feet. "
        },
        {
            "chapter": 20,
            "verse": 20,
            "name": "Numbers 20:20",
            "text": "And he said, You shall not go through. And Edom came out against him with many people, and with a strong hand. "
        },
        {
            "chapter": 20,
            "verse": 21,
            "name": "Numbers 20:21",
            "text": "So Edom refused to give Israel passage through his border. Therefore Israel turned away from him.   "
        },
        {
            "chapter": 20,
            "verse": 22,
            "name": "Numbers 20:22",
            "text": "And the sons of Israel, the whole congregation, pulled up from Kadesh and came to Mount Hor. "
        },
        {
            "chapter": 20,
            "verse": 23,
            "name": "Numbers 20:23",
            "text": "And the LORD spoke to Moses and Aaron in Mount Hor, by the border of the land of Edom, saying, "
        },
        {
            "chapter": 20,
            "verse": 24,
            "name": "Numbers 20:24",
            "text": "Aaron shall be gathered to his people. For he shall not enter into the land which I have given to the sons of Israel, because you rebelled against My word at the Waters of Strife. "
        },
        {
            "chapter": 20,
            "verse": 25,
            "name": "Numbers 20:25",
            "text": "Take Aaron and Eleazar his son, and bring them up to Mount Hor. "
        },
        {
            "chapter": 20,
            "verse": 26,
            "name": "Numbers 20:26",
            "text": "And strip Aaron of his garments, and put them upon Eleazar his son. And Aaron shall be gathered to his people, and shall die there. "
        },
        {
            "chapter": 20,
            "verse": 27,
            "name": "Numbers 20:27",
            "text": "And Moses did as the LORD commanded. And they went up into Mount Hor in the sight of all the congregation. "
        },
        {
            "chapter": 20,
            "verse": 28,
            "name": "Numbers 20:28",
            "text": "And Moses stripped Aaron of his garments, and put them upon Eleazar his son. And Aaron died there in the top of the mount. And Moses and Eleazar came down from the mountain. "
        },
        {
            "chapter": 20,
            "verse": 29,
            "name": "Numbers 20:29",
            "text": "And when all the congregation saw that Aaron was dead, they mourned for Aaron thirty days, all the house of Israel.  "
        }
    ]
}