{
    "translation": "Det Norsk Bibelselskap (1930)",
    "abbreviation": "bibelselskap",
    "lang": "nb",
    "language": "Norwegian bokmal",
    "direction": "LTR",
    "encoding": "UTF-8",
    "book_nr": 29,
    "book_name": "Joel",
    "chapter": 3,
    "name": "Joel 3",
    "verses": [
        {
            "chapter": 3,
            "verse": 1,
            "name": "Joel 3:1",
            "text": "Og derefter skal det skje at jeg vil utgyde min \u00c5nd over alt kj\u00f8d, og eders s\u00f8nner og eders d\u00f8tre skal tale profetiske ord; eders oldinger skal ha dr\u00f8mmer, eders unge menn skal se syner;"
        },
        {
            "chapter": 3,
            "verse": 2,
            "name": "Joel 3:2",
            "text": "ja, endog over tr\u00e6lene og over tr\u00e6lkvinnene vil jeg i de dager utgyde min \u00c5nd."
        },
        {
            "chapter": 3,
            "verse": 3,
            "name": "Joel 3:3",
            "text": "Og jeg vil gj\u00f8re underfulle tegn p\u00e5 himmelen og p\u00e5 jorden: blod og ild og r\u00f8kst\u00f8tter."
        },
        {
            "chapter": 3,
            "verse": 4,
            "name": "Joel 3:4",
            "text": "Solen skal omskiftes til m\u00f8rke, og m\u00e5nen til blod, f\u00f8r Herrens dag kommer, den store og forferdelige."
        },
        {
            "chapter": 3,
            "verse": 5,
            "name": "Joel 3:5",
            "text": "Og det skal skje: Hver den som p\u00e5kaller Herrens navn, skal bli frelst; for p\u00e5 Sions berg og i Jerusalem skal det v\u00e6re en flokk av undkomne, s\u00e5ledes som Herren har sagt, og blandt de undslopne skal de v\u00e6re som Herren kaller."
        },
        {
            "chapter": 3,
            "verse": 6,
            "name": "Joel 3:6",
            "text": "For se, i de dager og p\u00e5 den tid, n\u00e5r jeg gj\u00f8r ende p\u00e5 Judas og Jerusalems fangenskap,"
        },
        {
            "chapter": 3,
            "verse": 7,
            "name": "Joel 3:7",
            "text": "da vil jeg samle alle hedningefolk og f\u00f8re dem ned i Josafats dal, og jeg vil der g\u00e5 i rette med dem for mitt folks og min arvs, Israels skyld, fordi de spredte dem blandt hedningene og delte mitt land;"
        },
        {
            "chapter": 3,
            "verse": 8,
            "name": "Joel 3:8",
            "text": "om mitt folk kastet de lodd, de gav en gutt for en skj\u00f8ge, de solgte en pike for vin, og den drakk de op."
        },
        {
            "chapter": 3,
            "verse": 9,
            "name": "Joel 3:9",
            "text": "Og I, Tyrus og Sidon og alle Filisterlands bygder! Hvad vil mig? Er det noget I vil gjengjelde mig, eller vil I gj\u00f8re mig noget? Snart, i en hast, skal jeg la eders gjerning falle tilbake p\u00e5 eders eget hode,"
        },
        {
            "chapter": 3,
            "verse": 10,
            "name": "Joel 3:10",
            "text": "I som tok mitt s\u00f8lv og gull og f\u00f8rte mine dyreste skatter bort til eders templer,"
        },
        {
            "chapter": 3,
            "verse": 11,
            "name": "Joel 3:11",
            "text": "og Judas barn og Jerusalems barn solgte I til Javans barn for \u00e5 f\u00e5 dem langt bort fra sitt land."
        },
        {
            "chapter": 3,
            "verse": 12,
            "name": "Joel 3:12",
            "text": "Se, jeg kaller dem fra det sted som I har solgt dem til, og lar eders gjerning falle tilbake p\u00e5 eders eget hode."
        },
        {
            "chapter": 3,
            "verse": 13,
            "name": "Joel 3:13",
            "text": "Og jeg vil selge eders s\u00f8nner og d\u00f8tre til Judas barn, og de skal selge dem til sabeerne, et folk som bor langt borte; for Herren har talt."
        },
        {
            "chapter": 3,
            "verse": 14,
            "name": "Joel 3:14",
            "text": "Rop dette ut blandt hedningefolkene, rust eder til en hellig krig, kall p\u00e5 heltene, la alle krigsmenn stige frem og dra ut!"
        },
        {
            "chapter": 3,
            "verse": 15,
            "name": "Joel 3:15",
            "text": "Smi eders hakker om til sverd og eders ving\u00e5rdskniver til spyd! Den veke si: Jeg er en helt!"
        },
        {
            "chapter": 3,
            "verse": 16,
            "name": "Joel 3:16",
            "text": "Skynd eder og kom, alle I hedningefolk fra alle kanter, og samle eder sammen! Dit la du, Herre, dine helter stige ned!"
        },
        {
            "chapter": 3,
            "verse": 17,
            "name": "Joel 3:17",
            "text": "Hedningefolkene skal v\u00e5kne op og dra til Josafats dal; for der vil jeg sitte og d\u00f8mme alle hedningefolk fra alle kanter."
        },
        {
            "chapter": 3,
            "verse": 18,
            "name": "Joel 3:18",
            "text": "Send sigden ut, for h\u00f8sten er moden! Kom og tred vinpersen, for den er full, persekarene flyter over, deres ondskap er stor!"
        },
        {
            "chapter": 3,
            "verse": 19,
            "name": "Joel 3:19",
            "text": "Skare p\u00e5 skare samler sig i avgj\u00f8relsens dal. For n\u00e6r er Herrens dag i avgj\u00f8relsens dal."
        },
        {
            "chapter": 3,
            "verse": 20,
            "name": "Joel 3:20",
            "text": "Sol og m\u00e5ne sortner, og stjernene holder op \u00e5 lyse."
        },
        {
            "chapter": 3,
            "verse": 21,
            "name": "Joel 3:21",
            "text": "Og Herren skal br\u00f8le fra Sion og la sin r\u00f8st h\u00f8re fra Jerusalem, og himmel og jord skal skjelve; men Herren er en tilflukt for sitt folk og et vern for Israels barn. Og I skal kjenne at jeg er Herren eders Gud, som bor p\u00e5 Sion, mitt hellige berg; og Jerusalem skal v\u00e6re et hellig sted, og fremmede skal ikke mere trenge inn der. Og det skal skje p\u00e5 den dag at fjellene skal dryppe av most, og haugene flyte over av melk, og alle bekker i Juda str\u00f8mme med vann; og det skal utg\u00e5 en kilde fra Herrens hus og vanne Sittims dal. Egypten skal bli til en \u00f8demark og Edom til en \u00f8de \u00f8rken for deres vold mot Judas barn, fordi de har ut\u00f8st uskyldig blod i sitt land. Men Juda skal bli til evig tid, og Jerusalem fra slekt til slekt. Og jeg vil hevne deres blod, det som jeg ikke f\u00f8r har hevnet. Og Herren bor p\u00e5 Sion."
        }
    ]
}