{
    "translation": "Studentm\u00e5llagsbibelen fr\u00e5 1921",
    "abbreviation": "norsmb",
    "lang": "nn",
    "language": "Norwegian nynorsk",
    "direction": "LTR",
    "encoding": "UTF-8",
    "book_nr": 3,
    "book_name": "Leviticus",
    "chapter": 21,
    "name": "Leviticus 21",
    "verses": [
        {
            "chapter": 21,
            "verse": 1,
            "name": "Leviticus 21:1",
            "text": "Og Herren sagde til Moses: \u00abTala til prestarne, Arons-s\u00f8nerne, og seg med deim: \u00abEin prest m\u00e5 ikkje gjera seg urein for landsmennerne sine med \u00e5 r\u00f8ra noko lik,"
        },
        {
            "chapter": 21,
            "verse": 2,
            "name": "Leviticus 21:2",
            "text": "minder det er ein av hans n\u00e6maste skyldfolk, anten mor eller far eller son eller dotter eller bror,"
        },
        {
            "chapter": 21,
            "verse": 3,
            "name": "Leviticus 21:3",
            "text": "eller ei syster som var m\u00f8y og end\u00e5 h\u00f8yrde til \u00e6tti, med di ho ikkje var burtgift; henne kann han koma n\u00e6r, um ho ligg lik;"
        },
        {
            "chapter": 21,
            "verse": 4,
            "name": "Leviticus 21:4",
            "text": "men ei som var gift kona, m\u00e5 han ikkje r\u00f8yva; for d\u00e5 gjer han seg urein for landsfolket sitt, og vanhelgar seg."
        },
        {
            "chapter": 21,
            "verse": 5,
            "name": "Leviticus 21:5",
            "text": "Prestane m\u00e5 ikkje raka seg snaude i kruna, og ikkje stytta skjegget sitt, og ikkje skjera seg i holdet."
        },
        {
            "chapter": 21,
            "verse": 6,
            "name": "Leviticus 21:6",
            "text": "Heilage skal dei vera for sin Gud, dei m\u00e5 ikkje vanhelga namnet hans; for det er dei som ber fram eldofferi \u00e5t Herren, maten \u00e5t deira Gud; di skal dei vera heilage."
        },
        {
            "chapter": 21,
            "verse": 7,
            "name": "Leviticus 21:7",
            "text": "Ingen av deim m\u00e5 gifta seg med ei skj\u00f8kja eller ei kvinna som er utskjemd, heller ikkje med ei som er skild fr\u00e5 mannen sin; heilag skal presten vera for sin Gud,"
        },
        {
            "chapter": 21,
            "verse": 8,
            "name": "Leviticus 21:8",
            "text": "og du skal halda honom heilag; for det er han som ber fram maten \u00e5t din Gud: heilag skal han vera deg; for eg er heilag, eg, Herren, som helgar dykk."
        },
        {
            "chapter": 21,
            "verse": 9,
            "name": "Leviticus 21:9",
            "text": "Og dersom ei prestedotter skjemdar seg med ulivnad, so vanhelgar ho far sin: ho skal brennast p\u00e5 b\u00e5l."
        },
        {
            "chapter": 21,
            "verse": 10,
            "name": "Leviticus 21:10",
            "text": "Den presten som er yver alle br\u00f8rne sine, han som f\u00e6r salvingsoljen p\u00e5 hovudet sitt, og vert vigd til \u00f8vsteprest og kl\u00e6dd i den heilage bunaden, han m\u00e5 ikkje ganga med uflitt h\u00e5r, og ikkje riva sund kl\u00e6di sine."
        },
        {
            "chapter": 21,
            "verse": 11,
            "name": "Leviticus 21:11",
            "text": "Han m\u00e5 ikkje ganga inn til noko lik; ikkje far eller mor di heller m\u00e5 han koma n\u00e6r, etter dei hev andast; for d\u00e5 vert han urein."
        },
        {
            "chapter": 21,
            "verse": 12,
            "name": "Leviticus 21:12",
            "text": "Han m\u00e5 ikkje ganga ut or det heilage huset, so han vanhelgar heilagdomen \u00e5t sin Gud; for vigsla av Guds salvingsolje er yver honom. Eg er Herren!"
        },
        {
            "chapter": 21,
            "verse": 13,
            "name": "Leviticus 21:13",
            "text": "Han skal taka ei rein m\u00f8y til kona."
        },
        {
            "chapter": 21,
            "verse": 14,
            "name": "Leviticus 21:14",
            "text": "Ei enkja, eller ei kvinna som er fr\u00e5skild eller utskjemd, eller ei skj\u00f8kja, slik ei m\u00e5 han aldri gifta seg med. Berre ei m\u00f8y av folket sitt m\u00e5 han egta;"
        },
        {
            "chapter": 21,
            "verse": 15,
            "name": "Leviticus 21:15",
            "text": "elles vanhelgar han \u00e6tti si millom folket. Kom i hug: det er eg, Herren, som hev helga honom!\u00bb\u00bb"
        },
        {
            "chapter": 21,
            "verse": 16,
            "name": "Leviticus 21:16",
            "text": "Og Herren tala meir til Moses, og sagde:"
        },
        {
            "chapter": 21,
            "verse": 17,
            "name": "Leviticus 21:17",
            "text": "\u00abTala til Aron og seg: \u00abEr det nokon av \u00e6tti di no eller i komande tider, som hev eit lyte, so m\u00e5 han ikkje ganga inn\u00e5t og bera fram maten \u00e5t sin Gud."
        },
        {
            "chapter": 21,
            "verse": 18,
            "name": "Leviticus 21:18",
            "text": "Ingen som det er noko lyte p\u00e5, m\u00e5 ganga inn\u00e5t, ingen som er blind eller halt eller haremynt, eller hev ein vanskapt lem"
        },
        {
            "chapter": 21,
            "verse": 19,
            "name": "Leviticus 21:19",
            "text": "eller ein broten fot eller arm,"
        },
        {
            "chapter": 21,
            "verse": 20,
            "name": "Leviticus 21:20",
            "text": "eller som er krylryggja eller skinnturr, eller som hev ein kvit flekk p\u00e5 augnesteinen, eller hev skabb eller gardorm eller slit i pungarne."
        },
        {
            "chapter": 21,
            "verse": 21,
            "name": "Leviticus 21:21",
            "text": "Ingen etterkomar av Aron, presten, som hev noko lyte, m\u00e5 ganga inn\u00e5t og bera fram eldofferi \u00e5t Herren; det er lyte p\u00e5 honom: han m\u00e5 ikkje ganga inn\u00e5t og bera fram maten for sin Gud."
        },
        {
            "chapter": 21,
            "verse": 22,
            "name": "Leviticus 21:22",
            "text": "Han m\u00e5 nok eta av retterne \u00e5t sin Gud, b\u00e5de dei h\u00f8gheilage og dei heilage;"
        },
        {
            "chapter": 21,
            "verse": 23,
            "name": "Leviticus 21:23",
            "text": "men etter di det er lyte p\u00e5 honom, m\u00e5 han ikkje ganga fram til forhenget, og ikkje koma inn\u00e5t altaret; for d\u00e5 vanhelgar han heilagdomarne mine. Kom i hug: det er eg, Herren, som hev helga deim.\u00bb\u00bb"
        },
        {
            "chapter": 21,
            "verse": 24,
            "name": "Leviticus 21:24",
            "text": "Og Moses sagde alt dette til Aron og s\u00f8nerne hans og til heile Israels-lyden. "
        }
    ]
}