{
    "translation": "Dari Translation",
    "abbreviation": "dari",
    "lang": "prs",
    "language": "Dari",
    "direction": "RTL",
    "encoding": "UTF-8",
    "book_nr": 23,
    "book_name": "Isaiah",
    "chapter": 46,
    "name": "Isaiah 46",
    "verses": [
        {
            "chapter": 46,
            "verse": 1,
            "name": "Isaiah 46:1",
            "text": "   \u00ab\u0628\u0650\u0644 \u062e\u0645 \u0634\u062f\u0647 \u0648 \u0646\u0650\u0628\u0648 \u062e\u0645\u06cc\u062f\u0647 \u06af\u0631\u062f\u06cc\u062f\u0647 \u0627\u0633\u062a. \u0628\u062a\u0647\u0627\u06cc \u0622\u0646 \u0647\u0627 \u0628\u0631 \u062f\u0648\u0634 \u062d\u06cc\u0648\u0627\u0646\u0627\u062a \u062e\u0633\u062a\u0647 \u0648 \u0636\u0639\u06cc\u0641 \u062d\u0645\u0644 \u0645\u06cc \u0634\u0648\u0646\u062f. "
        },
        {
            "chapter": 46,
            "verse": 2,
            "name": "Isaiah 46:2",
            "text": "\u0627\u06cc\u0646\u0647\u0627 \u0628\u062a\u0647\u0627\u06cc \u0636\u0639\u06cc\u0641 \u0627\u0646\u062f \u0648 \u0646\u0645\u06cc \u062a\u0648\u0627\u0646\u0646\u062f \u067e\u0631\u0633\u062a\u0634 \u06a9\u0646\u0646\u062f\u06af\u0627\u0646 \u062e\u0648\u062f \u0631\u0627 \u06a9\u0647 \u0627\u0633\u06cc\u0631 \u0634\u062f\u0647 \u0627\u0646\u062f \u0646\u062c\u0627\u062a \u0628\u062f\u0647\u0646\u062f\u060c \u0628\u0644\u06a9\u0647 \u062e\u0648\u062f \u0634\u0627\u0646 \u0647\u0645 \u0628\u0647 \u0647\u0645\u0627\u0646 \u0633\u0631\u0646\u0648\u0634\u062a \u062f\u0686\u0627\u0631 \u06af\u0631\u062f\u06cc\u062f\u0647 \u0627\u0646\u062f.   "
        },
        {
            "chapter": 46,
            "verse": 3,
            "name": "Isaiah 46:3",
            "text": "\u0627\u06cc \u062e\u0627\u0646\u062f\u0627\u0646 \u06cc\u0639\u0642\u0648\u0628 \u0648 \u0627\u06cc \u0628\u0627\u0632\u0645\u0627\u0646\u062f\u06af\u0627\u0646 \u0642\u0648\u0645 \u0627\u0633\u0631\u0627\u0626\u06cc\u0644\u060c \u0628\u0647 \u0645\u0646 \u06af\u0648\u0634 \u0628\u062f\u0647\u06cc\u062f. \u0645\u0646 \u0634\u0645\u0627 \u0631\u0627 \u0627\u0632 \u0631\u064e\u062d\u0650\u0645 \u0645\u0627\u062f\u0631 \u0628\u062f\u0646\u06cc\u0627 \u0622\u0648\u0631\u062f\u0645 \u0648 \u0627\u0632 \u0632\u0645\u0627\u0646 \u062a\u0648\u0644\u062f \u0627\u0632 \u0634\u0645\u0627 \u0645\u0631\u0627\u0642\u0628\u062a \u06a9\u0631\u062f\u0647 \u0627\u0645 "
        },
        {
            "chapter": 46,
            "verse": 4,
            "name": "Isaiah 46:4",
            "text": "\u0648 \u062a\u0627 \u062f\u0648\u0631\u0627\u0646 \u067e\u06cc\u0631\u06cc \u0648 \u062a\u0627 \u06a9\u0647 \u0645\u0648\u0647\u0627\u06cc \u062a\u0627\u0646 \u0633\u0641\u06cc\u062f \u0634\u0648\u0646\u062f\u060c \u0628\u0627\u0632 \u0647\u0645 \u0645\u0631\u0627\u0642\u0628 \u0634\u0645\u0627 \u0645\u06cc \u0628\u0627\u0634\u0645. \u0645\u0646 \u0634\u0645\u0627 \u0631\u0627 \u0622\u0641\u0631\u06cc\u062f\u0647 \u0627\u0645 \u0648 \u0627\u0632 \u0634\u0645\u0627 \u0645\u0648\u0627\u0638\u0628\u062a \u0645\u06cc \u06a9\u0646\u0645\u060c \u0634\u0645\u0627 \u0631\u0627 \u0628\u0627 \u062e\u0648\u062f \u0645\u06cc \u0628\u0631\u0645 \u0648 \u0646\u062c\u0627\u062a \u0645\u06cc \u062f\u0647\u0645.   "
        },
        {
            "chapter": 46,
            "verse": 5,
            "name": "Isaiah 46:5",
            "text": "\u0628\u0627 \u0686\u0647 \u06a9\u0633\u06cc \u0645\u0631\u0627 \u0634\u0628\u06cc\u0647 \u0648 \u0628\u0631\u0627\u0628\u0631 \u0645\u06cc \u0633\u0627\u0632\u06cc\u062f \u0648 \u0645\u0642\u0627\u06cc\u0633\u0647 \u0645\u06cc \u06a9\u0646\u06cc\u062f\u061f \u0622\u06cc\u0627 \u06a9\u0633\u06cc \u0645\u0627\u0646\u0646\u062f \u0645\u0646 \u0647\u0633\u062a\u061f "
        },
        {
            "chapter": 46,
            "verse": 6,
            "name": "Isaiah 46:6",
            "text": "\u0622\u0646\u0647\u0627\u0626\u06cc \u06a9\u0647 \u0637\u0644\u0627 \u0648 \u0646\u0642\u0631\u0647 \u062f\u0627\u0631\u0646\u062f\u060c \u0632\u0631\u06af\u0631 \u0631\u0627 \u0627\u062c\u06cc\u0631 \u0645\u06cc \u06a9\u0646\u0646\u062f \u062a\u0627 \u0628\u0631\u0627\u06cc \u0634\u0627\u0646 \u062e\u062f\u0627\u0626\u06cc \u0628\u0633\u0627\u0632\u062f \u0648 \u0622\u0646 \u0648\u0642\u062a \u0628\u0647 \u0633\u062c\u062f\u0647 \u0645\u06cc \u0627\u0641\u062a\u0646\u062f \u0648 \u0622\u0646\u0631\u0627 \u067e\u0631\u0633\u062a\u0634 \u0645\u06cc \u06a9\u0646\u0646\u062f. "
        },
        {
            "chapter": 46,
            "verse": 7,
            "name": "Isaiah 46:7",
            "text": "\u0622\u0646\u0631\u0627 \u0628\u0631 \u0645\u06cc \u062f\u0627\u0631\u0646\u062f \u0628\u0631 \u0634\u0627\u0646\u0647 \u0647\u0627\u06cc \u062e\u0648\u062f \u0645\u06cc \u0628\u0631\u0646\u062f \u0648 \u0628\u0639\u062f \u0622\u0646\u0631\u0627 \u0628\u0631 \u0632\u0645\u06cc\u0646 \u0642\u0631\u0627\u0631 \u0645\u06cc \u062f\u0647\u0646\u062f. \u0622\u0646 \u0628\u062a \u062f\u0631 \u0647\u0645\u0627\u0646 \u062c\u0627 \u0628\u0627\u0642\u06cc \u0645\u06cc \u0645\u0627\u0646\u062f \u0648 \u0627\u0632 \u062c\u0627\u06cc \u062e\u0648\u062f \u062d\u0631\u06a9\u062a \u06a9\u0631\u062f\u0647 \u0646\u0645\u06cc \u062a\u0648\u0627\u0646\u062f. \u0627\u06af\u0631 \u06a9\u0633\u06cc \u067e\u06cc\u0634 \u0622\u0646 \u062f\u0639\u0627 \u06a9\u0646\u062f\u060c \u062c\u0648\u0627\u0628 \u0646\u0645\u06cc \u062f\u0647\u062f \u0648 \u0642\u0627\u062f\u0631 \u0646\u06cc\u0633\u062a \u06a9\u0647 \u0645\u0634\u06a9\u0644 \u0627\u0648 \u0631\u0627 \u0631\u0641\u0639 \u0633\u0627\u0632\u062f.   "
        },
        {
            "chapter": 46,
            "verse": 8,
            "name": "Isaiah 46:8",
            "text": "\u0627\u06cc \u06af\u0646\u0627\u0647\u06a9\u0627\u0631\u0627\u0646\u060c \u0628\u06cc\u0627\u062f \u062f\u0627\u0634\u062a\u0647 \u0628\u0627\u0634\u06cc\u062f \u0648 \u062a\u0648\u062c\u0647 \u06a9\u0646\u06cc\u062f "
        },
        {
            "chapter": 46,
            "verse": 9,
            "name": "Isaiah 46:9",
            "text": "\u0648 \u0686\u06cc\u0632\u0647\u0627\u0626\u06cc \u0631\u0627 \u06a9\u0647 \u062f\u0631 \u06af\u0630\u0634\u062a\u0647 \u0627\u062a\u0641\u0627\u0642 \u0627\u0641\u062a\u0627\u062f\u0647 \u0628\u0648\u062f\u0646\u062f\u060c \u0628\u062e\u0627\u0637\u0631 \u0628\u06cc\u0627\u0648\u0631\u06cc\u062f. \u0632\u06cc\u0631\u0627 \u062a\u0646\u0647\u0627 \u0645\u0646 \u062e\u062f\u0627 \u0647\u0633\u062a\u0645 \u0648 \u0645\u0627\u0646\u0646\u062f \u0646\u062f\u0627\u0631\u0645. "
        },
        {
            "chapter": 46,
            "verse": 10,
            "name": "Isaiah 46:10",
            "text": "\u06a9\u0627\u0631\u0647\u0627\u0626\u06cc \u0631\u0627 \u06a9\u0647 \u062f\u0631 \u06af\u0630\u0634\u062a\u0647 \u0627\u0646\u062c\u0627\u0645 \u062f\u0627\u062f\u0645\u060c \u067e\u06cc\u0634\u06af\u0648\u0626\u06cc \u0646\u0645\u0648\u062f\u0645. \u0647\u0631 \u0686\u06cc\u0632\u06cc \u0631\u0627 \u0627\u0631\u0627\u062f\u0647 \u06a9\u0631\u062f\u0645\u060c \u0628\u062c\u0627 \u0622\u0648\u0631\u062f\u0647 \u0634\u062f. "
        },
        {
            "chapter": 46,
            "verse": 11,
            "name": "Isaiah 46:11",
            "text": "\u0634\u062e\u0635\u06cc \u0631\u0627 \u0627\u0632 \u0645\u0634\u0631\u0642 \u0641\u0631\u0627 \u0645\u06cc \u062e\u0648\u0627\u0646\u0645 \u0648 \u0627\u0648 \u0645\u0627\u0646\u0646\u062f \u06cc\u06a9 \u067e\u0631\u0646\u062f\u06c0 \u0634\u06a9\u0627\u0631\u06cc \u0641\u0631\u0648\u062f \u0645\u06cc \u0622\u06cc\u062f \u0648 \u0622\u0646\u0686\u0647 \u0631\u0627 \u06a9\u0647 \u0645\u0646 \u0628\u062e\u0648\u0627\u0647\u0645\u060c \u0627\u0646\u062c\u0627\u0645 \u0645\u06cc \u062f\u0647\u062f \u0648 \u0627\u0645\u0631 \u0645\u0631\u0627 \u0628\u062c\u0627 \u0645\u06cc \u0622\u0648\u0631\u062f. "
        },
        {
            "chapter": 46,
            "verse": 12,
            "name": "Isaiah 46:12",
            "text": "\u0627\u06cc \u0645\u0631\u062f\u0645\u0627\u0646 \u0644\u062c\u0648\u062c \u0648 \u062e\u06cc\u0631\u0647 \u0633\u0631 \u06a9\u0647 \u0641\u06a9\u0631 \u0645\u06cc \u06a9\u0646\u06cc\u062f \u0628\u0632\u0648\u062f\u06cc \u0622\u0632\u0627\u062f \u0646\u0645\u06cc \u0634\u0648\u06cc\u062f\u060c \u0628\u0647 \u0645\u0646 \u06af\u0648\u0634 \u0628\u062f\u0647\u06cc\u062f! "
        },
        {
            "chapter": 46,
            "verse": 13,
            "name": "Isaiah 46:13",
            "text": "\u0645\u0646 \u0632\u0645\u0627\u0646 \u0622\u0632\u0627\u062f\u06cc \u0634\u0645\u0627 \u0631\u0627 \u0646\u0632\u062f\u06cc\u06a9 \u0645\u06cc \u0622\u0648\u0631\u0645 \u0648 \u062f\u0631 \u0645\u0648\u0631\u062f \u0646\u062c\u0627\u062a \u0634\u0645\u0627 \u062a\u0623\u062e\u06cc\u0631 \u0646\u0645\u06cc \u06a9\u0646\u0645. \u0633\u0647\u06cc\u0648\u0646 \u0631\u0627 \u0646\u062c\u0627\u062a \u0645\u06cc \u062f\u0647\u0645 \u0648 \u0627\u0633\u0631\u0627\u0626\u06cc\u0644 \u0631\u0627 \u0633\u0631\u0641\u0631\u0627\u0632 \u0645\u06cc \u0633\u0627\u0632\u0645.\u00bb   "
        }
    ]
}