{
    "translation": "Dari Translation",
    "abbreviation": "dari",
    "lang": "prs",
    "language": "Dari",
    "direction": "RTL",
    "encoding": "UTF-8",
    "book_nr": 23,
    "book_name": "Isaiah",
    "chapter": 63,
    "name": "Isaiah 63",
    "verses": [
        {
            "chapter": 63,
            "verse": 1,
            "name": "Isaiah 63:1",
            "text": "   \u0627\u06cc\u0646 \u06a9\u06cc\u0633\u062a \u06a9\u0647 \u0627\u0632 \u0634\u0647\u0631 \u0628\u0632\u0631\u06c0 \u0627\u062f\u0648\u0645 \u0628\u0627 \u0644\u0628\u0627\u0633 \u0633\u0631\u062e \u0648 \u0645\u062c\u0644\u0644 \u0645\u06cc \u0622\u06cc\u062f \u0648 \u0628\u0627 \u0642\u062f\u0631\u062a \u0648 \u0634\u06a9\u0648\u0647 \u0645\u06cc \u062e\u0631\u0627\u0645\u062f\u061f   \u0627\u06cc\u0646 \u062e\u062f\u0627\u0648\u0646\u062f \u0642\u0627\u062f\u0631 \u0648 \u062a\u0648\u0627\u0646\u0627 \u0627\u0633\u062a \u0648 \u0645\u06cc \u0622\u06cc\u062f \u062a\u0627 \u0639\u062f\u0627\u0644\u062a \u062e\u0648\u062f \u0648 \u0646\u062c\u0627\u062a \u0645\u0631\u062f\u0645 \u0631\u0627 \u0627\u0639\u0644\u0627\u0645 \u06a9\u0646\u062f.   "
        },
        {
            "chapter": 63,
            "verse": 2,
            "name": "Isaiah 63:2",
            "text": "\u0686\u0631\u0627 \u0644\u0628\u0627\u0633 \u0627\u0648 \u0633\u0631\u062e \u0627\u0633\u062a\u061f \u0622\u06cc\u0627 \u0627\u0646\u06af\u0648\u0631 \u0631\u0627 \u0628\u0631\u0627\u06cc \u0634\u0631\u0627\u0628 \u0633\u0627\u062e\u062a\u0646 \u0632\u06cc\u0631 \u067e\u0627\u06cc \u062e\u0648\u062f \u0641\u0634\u0631\u062f\u0647 \u0627\u0633\u062a\u061f   "
        },
        {
            "chapter": 63,
            "verse": 3,
            "name": "Isaiah 63:3",
            "text": "\u062e\u062f\u0627\u0648\u0646\u062f \u062c\u0648\u0627\u0628 \u0645\u06cc \u062f\u0647\u062f: \u00ab\u0628\u0644\u06cc\u060c \u0645\u0646 \u0628\u0647 \u062a\u0646\u0647\u0627\u0626\u06cc \u0648 \u0628\u062f\u0648\u0646 \u06a9\u0645\u06a9\u0650 \u06a9\u0633\u06cc\u060c \u0645\u062e\u0627\u0644\u0641\u06cc\u0646 \u0631\u0627 \u0628\u0627 \u062e\u0634\u0645 \u0648 \u063a\u0636\u0628 \u0647\u0645\u0686\u0648\u0646 \u0627\u0646\u06af\u0648\u0631 \u0632\u06cc\u0631 \u067e\u0627\u0647\u0627\u06cc\u0645 \u067e\u0627\u06cc\u0645\u0627\u0644 \u06a9\u0631\u062f\u0645 \u0648 \u062e\u0648\u0646 \u0622\u0646 \u0647\u0627 \u0644\u0628\u0627\u0633 \u0645\u0631\u0627 \u0633\u0631\u062e \u0648 \u0631\u0646\u06af\u06cc\u0646 \u0633\u0627\u062e\u062a. "
        },
        {
            "chapter": 63,
            "verse": 4,
            "name": "Isaiah 63:4",
            "text": "\u0631\u0648\u0632 \u0622\u0646 \u0631\u0633\u06cc\u062f\u0647 \u0627\u0633\u062a \u06a9\u0647 \u0627\u0632 \u062f\u0634\u0645\u0646\u0627\u0646 \u0627\u0646\u062a\u0642\u0627\u0645 \u0628\u06af\u06cc\u0631\u0645 \u0648 \u0642\u0648\u0645 \u0628\u0631\u06af\u0632\u06cc\u062f\u06c0 \u062e\u0648\u062f \u0631\u0627 \u0646\u062c\u0627\u062a \u0628\u062f\u0647\u0645. "
        },
        {
            "chapter": 63,
            "verse": 5,
            "name": "Isaiah 63:5",
            "text": "\u0628\u0647 \u0647\u0631 \u0637\u0631\u0641 \u0646\u06af\u0627\u0647 \u06a9\u0631\u062f\u0645 \u062a\u0627 \u06a9\u0633\u06cc \u0631\u0627 \u0628\u06cc\u0627\u0628\u0645 \u06a9\u0647 \u0628\u0647 \u0645\u0646 \u06a9\u0645\u06a9 \u06a9\u0646\u062f\u060c \u0648\u0644\u06cc \u0628\u0627 \u06a9\u0645\u0627\u0644 \u062a\u0639\u062c\u0628 \u062f\u06cc\u062f\u0645 \u06a9\u0647 \u0645\u062f\u062f\u06af\u0627\u0631\u06cc \u0648\u062c\u0648\u062f \u0646\u062f\u0627\u0631\u062f\u060c \u0628\u0646\u0627\u0628\u0631\u0627\u0646\u060c \u0628\u06cc\u0627\u0631\u06cc \u0642\u062f\u0631\u062a \u0648 \u063a\u0636\u0628 \u062e\u0648\u062f \u067e\u06cc\u0631\u0648\u0632 \u0634\u062f\u0645. "
        },
        {
            "chapter": 63,
            "verse": 6,
            "name": "Isaiah 63:6",
            "text": "\u0645\u0646 \u0628\u0627 \u062e\u0634\u0645 \u0648 \u063a\u0636\u0628 \u062e\u0648\u062f \u0627\u0642\u0648\u0627\u0645 \u062c\u0647\u0627\u0646 \u0631\u0627 \u067e\u0627\u06cc\u0645\u0627\u0644 \u0648 \u062e\u064f\u0631\u062f \u06a9\u0631\u062f\u0645 \u0648 \u062e\u0648\u0646 \u0634\u0627\u0646 \u0631\u0627 \u0628\u0647 \u0632\u0645\u06cc\u0646 \u0631\u06cc\u062e\u062a\u0645.\u00bb         "
        },
        {
            "chapter": 63,
            "verse": 7,
            "name": "Isaiah 63:7",
            "text": "\u0627\u0632 \u0627\u062d\u0633\u0627\u0646 \u0648 \u0644\u0637\u0641 \u062e\u062f\u0627\u0648\u0646\u062f \u0633\u062e\u0646 \u0645\u06cc \u0631\u0627\u0646\u0645. \u06a9\u0627\u0631\u0647\u0627\u06cc \u062e\u062f\u0627\u0648\u0646\u062f \u0642\u0627\u0628\u0644 \u0633\u062a\u0627\u06cc\u0634 \u0627\u0633\u062a. \u0627\u0648 \u062e\u0648\u0628\u06cc \u0647\u0627\u06cc \u0632\u06cc\u0627\u062f\u06cc \u062f\u0631 \u062d\u0642 \u0645\u0627 \u06a9\u0631\u062f\u0647 \u0627\u0633\u062a. \u0642\u0648\u0645 \u0627\u0633\u0631\u0627\u0626\u06cc\u0644 \u0631\u0627 \u0645\u0648\u0631\u062f \u0644\u0637\u0641 \u0648 \u0645\u0631\u062d\u0645\u062a \u062e\u0648\u062f \u0642\u0631\u0627\u0631 \u062f\u0627\u062f \u0648 \u0622\u0646 \u0647\u0627 \u0631\u0627 \u0627\u0632 \u0645\u062d\u0628\u062a \u067e\u0627\u06cc\u062f\u0627\u0631 \u062e\u0648\u062f \u0628\u0631\u062e\u0648\u0631\u062f\u0627\u0631 \u06a9\u0631\u062f. "
        },
        {
            "chapter": 63,
            "verse": 8,
            "name": "Isaiah 63:8",
            "text": "\u062e\u062f\u0627\u0648\u0646\u062f \u0641\u0631\u0645\u0648\u062f: \u00ab\u0622\u0646 \u0647\u0627 \u0642\u0648\u0645 \u0645\u0646 \u0647\u0633\u062a\u0646\u062f \u0648 \u0628\u0647 \u0645\u0646 \u062e\u06cc\u0627\u0646\u062a \u0646\u0645\u06cc \u06a9\u0646\u0646\u062f.\u00bb \u067e\u0633 \u0627\u0648 \u0646\u062c\u0627\u062a \u0628\u062e\u0634\u0627\u06cc \u0622\u0646 \u0647\u0627 \u0634\u062f "
        },
        {
            "chapter": 63,
            "verse": 9,
            "name": "Isaiah 63:9",
            "text": "\u0648 \u0622\u0646 \u0647\u0627 \u0631\u0627 \u0627\u0632 \u062a\u0645\u0627\u0645 \u0633\u062e\u062a\u06cc \u0647\u0627 \u0631\u0647\u0627\u0626\u06cc \u0628\u062e\u0634\u06cc\u062f. \u0631\u0633\u0648\u0644 \u06cc\u0627 \u0641\u0631\u0634\u062a\u0647 \u0627\u06cc \u0627\u06cc\u0646 \u06a9\u0627\u0631 \u0631\u0627 \u0646\u06a9\u0631\u062f\u060c \u0628\u0644\u06a9\u0647 \u062e\u0648\u062f \u062e\u062f\u0627\u0648\u0646\u062f \u0627\u0632 \u0631\u0648\u06cc \u0645\u062d\u0628\u062a \u0648 \u0634\u0641\u0642\u062a \u0622\u0646 \u0647\u0627 \u0631\u0627 \u0646\u062c\u0627\u062a \u062f\u0627\u062f \u0648 \u0633\u0627\u0644\u0647\u0627\u06cc \u0633\u0627\u0644 \u0627\u0632 \u0622\u0646 \u0647\u0627 \u0645\u0631\u0627\u0642\u0628\u062a \u06a9\u0631\u062f.   "
        },
        {
            "chapter": 63,
            "verse": 10,
            "name": "Isaiah 63:10",
            "text": "\u0686\u0648\u0646 \u0622\u0646 \u0647\u0627 \u062a\u0645\u0631\u062f \u06a9\u0631\u062f\u0646\u062f \u0648 \u0631\u0648\u062d \u067e\u0627\u06a9 \u0627\u0648 \u0631\u0627 \u0627\u0641\u0633\u0631\u062f\u0647 \u0633\u0627\u062e\u062a\u0646\u062f\u060c \u0628\u0646\u0627\u0628\u0631\u0627\u0646\u060c \u0627\u0648 \u0647\u0645 \u062f\u0634\u0645\u0646 \u0622\u0646 \u0647\u0627 \u0634\u062f \u0648 \u0639\u0644\u06cc\u0647 \u0634\u0627\u0646 \u062c\u0646\u06af\u06cc\u062f. "
        },
        {
            "chapter": 63,
            "verse": 11,
            "name": "Isaiah 63:11",
            "text": "\u0622\u0646\u06af\u0627\u0647 \u0622\u0646 \u0647\u0627 \u0631\u0648\u0632\u06af\u0627\u0631 \u06af\u0630\u0634\u062a\u0647 \u0631\u0627 \u0628\u06cc\u0627\u062f \u0622\u0648\u0631\u062f\u0646\u062f \u06a9\u0647 \u0686\u0637\u0648\u0631 \u0628\u0646\u062f\u0647 \u0627\u0648\u060c \u0645\u0648\u0633\u06cc \u0622\u0646 \u0647\u0627 \u0631\u0627 \u0627\u0632 \u0645\u0635\u0631 \u0628\u06cc\u0631\u0648\u0646 \u0622\u0648\u0631\u062f. \u06af\u0641\u062a\u0646\u062f: \u06a9\u062c\u0627\u0633\u062a \u0622\u0646 \u06a9\u0633\u06cc \u06a9\u0647 \u0642\u0648\u0645 \u0627\u0633\u0631\u0627\u0626\u06cc\u0644 \u0631\u0627 \u0627\u0632 \u0628\u06cc\u0646 \u0628\u062d\u0631 \u0639\u0628\u0648\u0631 \u062f\u0627\u062f\u061f \u06a9\u062c\u0627\u0633\u062a \u0622\u0646 \u062e\u062f\u0627\u0626\u06cc \u06a9\u0647 \u0631\u0648\u062d \u067e\u0627\u06a9 \u062e\u0648\u062f \u0631\u0627 \u062f\u0631 \u0628\u06cc\u0646 \u0622\u0646 \u0647\u0627 \u0641\u0631\u0633\u062a\u0627\u062f\u061f "
        },
        {
            "chapter": 63,
            "verse": 12,
            "name": "Isaiah 63:12",
            "text": "\u0648 \u0628\u0648\u0633\u06cc\u0644\u06c0 \u0645\u0648\u0633\u06cc \u06a9\u0627\u0631\u0647\u0627\u06cc \u0628\u0632\u0631\u06af\u06cc \u0627\u0646\u062c\u0627\u0645 \u062f\u0627\u062f. \u0628\u0627 \u0642\u062f\u0631\u062a \u0639\u0638\u06cc\u0645 \u062e\u0648\u062f \u0622\u0628 \u0628\u062d\u0631 \u0631\u0627 \u062f\u0648 \u0634\u0642 \u06a9\u0631\u062f \u0648 \u0646\u0627\u0645 \u0627\u0648 \u0634\u0647\u0631\u062a \u0627\u0628\u062f\u06cc \u06cc\u0627\u0641\u062a. "
        },
        {
            "chapter": 63,
            "verse": 13,
            "name": "Isaiah 63:13",
            "text": "\u062e\u062f\u0627\u0648\u0646\u062f \u0642\u0648\u0645 \u0627\u0633\u0631\u0627\u0626\u06cc\u0644 \u0631\u0627 \u0627\u0632 \u0627\u0639\u0645\u0627\u0642\u0650 \u0628\u062d\u0631 \u0647\u062f\u0627\u06cc\u062a \u06a9\u0631\u062f \u0648 \u0622\u0646 \u0647\u0627 \u0628\u062f\u0648\u0646 \u0622\u0646\u06a9\u0647 \u0628\u0644\u063a\u0632\u0646\u062f \u0645\u062b\u0644 \u0627\u0633\u067e\u0647\u0627\u06cc \u062a\u06cc\u0632\u0631\u064e\u0648 \u0645\u06cc \u062f\u0648\u06cc\u062f\u0646\u062f. "
        },
        {
            "chapter": 63,
            "verse": 14,
            "name": "Isaiah 63:14",
            "text": "\u0645\u0627\u0646\u0646\u062f \u06af\u0644\u0647 \u0627\u06cc \u06a9\u0647 \u062f\u0631 \u0648\u0627\u062f\u06cc \u0628\u0647 \u0622\u0633\u0648\u062f\u06af\u06cc \u062f\u0631\u062d\u0627\u0644 \u0686\u0631\u06cc\u062f\u0646 \u0628\u0627\u0634\u062f\u060c \u0631\u0648\u062d \u062e\u062f\u0627\u0648\u0646\u062f \u0628\u0647 \u0622\u0646 \u0647\u0627 \u0622\u0631\u0627\u0645\u0634 \u0645\u06cc \u0628\u062e\u0634\u062f. \u0628\u0647 \u0627\u06cc\u0646 \u062a\u0631\u062a\u06cc\u0628\u060c \u0642\u0648\u0645 \u0628\u0631\u06af\u0632\u06cc\u062f\u06c0 \u062e\u0648\u062f \u0631\u0627 \u0647\u062f\u0627\u06cc\u062a \u0646\u0645\u0648\u062f \u062a\u0627 \u0646\u0627\u0645 \u0627\u0648 \u062c\u0644\u0627\u0644 \u06cc\u0627\u0628\u062f.         "
        },
        {
            "chapter": 63,
            "verse": 15,
            "name": "Isaiah 63:15",
            "text": "\u0627\u0632 \u0622\u0633\u0645\u0627\u0646 \u0628\u0647 \u067e\u0627\u0626\u06cc\u0646 \u0646\u06af\u0627\u0647 \u06a9\u0646 \u0648 \u0627\u0632 \u0645\u0633\u06a9\u0646 \u0645\u0642\u062f\u0633 \u0648 \u0628\u0627 \u0634\u06a9\u0648\u0647\u062a \u0628\u0631 \u0645\u0646 \u0646\u0638\u0631 \u0628\u06cc\u0641\u06af\u0646. \u06a9\u062c\u0627\u0633\u062a \u063a\u06cc\u0631\u062a \u0648 \u0642\u062f\u0631\u062a\u062a\u061f \u06a9\u062c\u0627\u0633\u062a \u0622\u0646 \u062f\u0644\u0633\u0648\u0632\u06cc \u0648 \u0634\u0641\u0642\u062a\u06cc \u06a9\u0647 \u0628\u0647 \u0645\u0627 \u062f\u0627\u0634\u062a\u06cc\u061f \u0686\u0631\u0627 \u0622\u0646\u0631\u0627 \u0627\u0632 \u0645\u0627 \u062f\u0631\u06cc\u063a \u0645\u06cc \u06a9\u0646\u06cc\u061f "
        },
        {
            "chapter": 63,
            "verse": 16,
            "name": "Isaiah 63:16",
            "text": "\u062a\u0648 \u067e\u062f\u0631 \u0645\u0627 \u0647\u0633\u062a\u06cc. \u062d\u062a\u06cc \u0627\u06af\u0631 \u0627\u0628\u0631\u0627\u0647\u06cc\u0645 \u0645\u0627 \u0631\u0627 \u0646\u0634\u0646\u0627\u0633\u062f \u0648 \u06cc\u0639\u0642\u0648\u0628 \u0627\u0632 \u0645\u0627 \u0627\u0646\u06a9\u0627\u0631 \u06a9\u0646\u062f\u060c \u062a\u0648 \u0627\u06cc \u062e\u062f\u0627\u0648\u0646\u062f\u060c \u067e\u062f\u0631 \u0645\u0627 \u0648 \u0646\u062c\u0627\u062a \u062f\u0647\u0646\u062f\u06c0 \u0645\u0627 \u0647\u0633\u062a\u06cc \u0648 \u0646\u0627\u0645 \u062a\u0648 \u0627\u0632\u0644\u06cc \u0627\u0633\u062a. "
        },
        {
            "chapter": 63,
            "verse": 17,
            "name": "Isaiah 63:17",
            "text": "\u0627\u06cc \u062e\u062f\u0627\u0648\u0646\u062f\u060c \u0686\u0631\u0627 \u0645\u06cc \u06af\u0630\u0627\u0631\u06cc \u06a9\u0647 \u0645\u0627 \u0627\u0632 \u0631\u0627\u0647 \u0631\u0627\u0633\u062a \u0645\u0646\u062d\u0631\u0641 \u0634\u0648\u06cc\u0645\u061f \u0686\u0631\u0627 \u062f\u0644\u0647\u0627\u06cc \u0645\u0627 \u0631\u0627 \u0633\u062e\u062a \u0633\u0627\u062e\u062a\u0647 \u0627\u06cc \u06a9\u0647 \u0627\u0632 \u062a\u0648 \u0646\u0645\u06cc \u062a\u0631\u0633\u06cc\u0645\u061f \u0628\u062e\u0627\u0637\u0631 \u0628\u0646\u062f\u06af\u0627\u0646\u062a \u0648 \u0628\u062e\u0627\u0637\u0631 \u0622\u0646\u0647\u0627\u06cc\u06cc \u06a9\u0647 \u0642\u0648\u0645\u062a \u0647\u0633\u062a\u0646\u062f\u060c \u0628\u0647 \u0633\u0648\u06cc \u0645\u0627 \u0628\u0627\u0632\u06af\u0631\u062f. "
        },
        {
            "chapter": 63,
            "verse": 18,
            "name": "Isaiah 63:18",
            "text": "\u0642\u0648\u0645 \u0645\u0642\u062f\u0633 \u062a\u0648 \u0628\u0631\u0627\u06cc \u0632\u0645\u0627\u0646 \u06a9\u0648\u062a\u0627\u0647\u06cc \u062c\u0627\u06cc\u06af\u0627\u0647 \u0645\u0642\u062f\u0633 \u062a\u0631\u0627 \u062f\u0631 \u062a\u0635\u0631\u0641 \u062e\u0648\u062f \u062f\u0627\u0634\u062a\u0646\u062f\u060c \u0627\u0645\u0627 \u0628\u0639\u062f \u062f\u0634\u0645\u0646\u0627\u0646 \u0622\u0645\u062f\u0646\u062f \u0648 \u0622\u0646\u0631\u0627 \u067e\u0627\u06cc\u0645\u0627\u0644 \u06a9\u0631\u062f\u0646\u062f. "
        },
        {
            "chapter": 63,
            "verse": 19,
            "name": "Isaiah 63:19",
            "text": "\u062a\u0648 \u0628\u0627 \u0645\u0627 \u0637\u0648\u0631\u06cc \u0631\u0641\u062a\u0627\u0631 \u0645\u06cc \u06a9\u0646\u06cc \u06a9\u0647 \u06af\u0648\u0626\u06cc \u0647\u06cc\u0686\u06af\u0627\u0647\u06cc \u062d\u06a9\u0645\u0641\u0631\u0645\u0627\u06cc \u0645\u0627 \u0646\u0628\u0648\u062f\u0647 \u0627\u06cc \u0648 \u0645\u0627 \u0628\u0646\u0627\u0645 \u062a\u0648 \u06cc\u0627\u062f \u0646\u0645\u06cc \u0634\u0648\u06cc\u0645.  "
        }
    ]
}