{
    "translation": "Danish OT1871 + NT1907 with original orthography",
    "abbreviation": "daot1871nt1907",
    "lang": "da",
    "language": "Danish",
    "direction": "LTR",
    "encoding": "UTF-8",
    "book_nr": 19,
    "book_name": "Psalms",
    "chapter": 76,
    "name": "Psalms 76",
    "verses": [
        {
            "chapter": 76,
            "verse": 1,
            "name": "Psalms 76:1",
            "text": "Til Sangmesteren; med Strengeleg; en Psalme af Asaf, en Sang."
        },
        {
            "chapter": 76,
            "verse": 2,
            "name": "Psalms 76:2",
            "text": " Gud er kendt i Juda, hans Navn er stort i Israel, "
        },
        {
            "chapter": 76,
            "verse": 3,
            "name": "Psalms 76:3",
            "text": "og hans Paulun var i Salem, og hans Bolig i Zion. "
        },
        {
            "chapter": 76,
            "verse": 4,
            "name": "Psalms 76:4",
            "text": "Der s\u00f8nderbr\u00f8d han Buens Lyn, Skjold og Sv\u00e6rd og Krig. Sela. "
        },
        {
            "chapter": 76,
            "verse": 5,
            "name": "Psalms 76:5",
            "text": "Du straaler i Glans og Herlighed fra de paa Bytte rige Bjerge. "
        },
        {
            "chapter": 76,
            "verse": 6,
            "name": "Psalms 76:6",
            "text": "De stolte af Hjerte blive plyndrede, de slumre deres S\u00f8vn; og ingen af Stridsm\u00e6ndene fandt Magt i deres H\u00e6nder. "
        },
        {
            "chapter": 76,
            "verse": 7,
            "name": "Psalms 76:7",
            "text": "For din Trusel, Jakobs Gud! er baade Hest og Vogn falden i den dybe S\u00f8vn. "
        },
        {
            "chapter": 76,
            "verse": 8,
            "name": "Psalms 76:8",
            "text": "Du, ja, du er forf\u00e6rdelig, og hvo kan bestaa for dit Ansigt, saa snart som du bliver vred? "
        },
        {
            "chapter": 76,
            "verse": 9,
            "name": "Psalms 76:9",
            "text": "Du lod h\u00f8re Dom fra Himmelen; Jorden frygtede og blev stille, "
        },
        {
            "chapter": 76,
            "verse": 10,
            "name": "Psalms 76:10",
            "text": "da Gud gjorde sig rede til Dom, til at frelse alle de sagtmodige paa Jorden. Sela. "
        },
        {
            "chapter": 76,
            "verse": 11,
            "name": "Psalms 76:11",
            "text": "Thi et Menneskes Vrede bereder dig Pris; hvad der bliver tilovers af Vreden, omgjorde du dig med."
        },
        {
            "chapter": 76,
            "verse": 12,
            "name": "Psalms 76:12",
            "text": " G\u00f8rer L\u00f8fte og betaler Herren, eders Gud det; alle I, som ere omkring ham, skulle bringe ham, den forf\u00e6rdelige, Gave. Han borttager Fyrsternes Mod, han er forf\u00e6rdelig for Kongerne paa Jorden."
        }
    ]
}