{
    "translation": "Esperanto",
    "abbreviation": "esperanto",
    "lang": "eo",
    "language": "Esperanto",
    "direction": "LTR",
    "encoding": "UTF-8",
    "book_nr": 18,
    "book_name": "Job",
    "chapter": 33,
    "name": "Job 33",
    "verses": [
        {
            "chapter": 33,
            "verse": 1,
            "name": "Job 33:1",
            "text": "A\u016dskultu do, Ijob, miajn parolojn,</l> Kaj atentu \u0109iujn miajn vortojn. <l>"
        },
        {
            "chapter": 33,
            "verse": 2,
            "name": "Job 33:2",
            "text": "Jen mi malfermis mian bu\u015don,</l> Parolas mia lango en mia gor\u011do. <l>"
        },
        {
            "chapter": 33,
            "verse": 3,
            "name": "Job 33:3",
            "text": "\u011custe el mia koro estas miaj paroloj,</l> Kaj puran scion eldiros miaj lipoj. <l>"
        },
        {
            "chapter": 33,
            "verse": 4,
            "name": "Job 33:4",
            "text": "La spirito de Dio min kreis,</l> Kaj la spiro de la Plejpotenculo min vivigas. <l>"
        },
        {
            "chapter": 33,
            "verse": 5,
            "name": "Job 33:5",
            "text": "Se vi povas, respondu al mi;</l> Armu vin kontra\u016d mi, kaj stari\u011du. <l>"
        },
        {
            "chapter": 33,
            "verse": 6,
            "name": "Job 33:6",
            "text": "Jen mi simile al vi estas de Dio;</l> Mi anka\u016d estas farita el argilo. <l>"
        },
        {
            "chapter": 33,
            "verse": 7,
            "name": "Job 33:7",
            "text": "Vidu, vi ne bezonas timi min,</l> Kaj mia \u015dar\u011do ne pezos sur vi. <l>"
        },
        {
            "chapter": 33,
            "verse": 8,
            "name": "Job 33:8",
            "text": "Vi parolis anta\u016d miaj oreloj,</l> Kaj mi a\u016ddis la sonon de tiaj vortoj: <l>"
        },
        {
            "chapter": 33,
            "verse": 9,
            "name": "Job 33:9",
            "text": "Mi estas pura, sen malbonagoj;</l> Senkulpa, mi ne havas pekon; <l>"
        },
        {
            "chapter": 33,
            "verse": 10,
            "name": "Job 33:10",
            "text": "Jen Li trovis ion ripro\u0109indan en mi,</l> Li rigardas min kiel Lian malamikon; <l>"
        },
        {
            "chapter": 33,
            "verse": 11,
            "name": "Job 33:11",
            "text": "Li metis miajn piedojn en \u015dtipon;</l> Li observas \u0109iujn miajn vojojn. <l>"
        },
        {
            "chapter": 33,
            "verse": 12,
            "name": "Job 33:12",
            "text": "Sed en tio vi ne estas prava, mi respondas al vi;</l> \u0108ar Dio estas pli granda ol homo. <l>"
        },
        {
            "chapter": 33,
            "verse": 13,
            "name": "Job 33:13",
            "text": "Kial vi havas pretendon kontra\u016d Li pro tio,</l> Ke Li ne donas al vi kalkulraporton pri \u0109iuj Siaj faroj? <l>"
        },
        {
            "chapter": 33,
            "verse": 14,
            "name": "Job 33:14",
            "text": "Cetere Dio parolas en unu maniero kaj en alia maniero,</l> Sed oni tion ne rimarkas. <l>"
        },
        {
            "chapter": 33,
            "verse": 15,
            "name": "Job 33:15",
            "text": "En son\u011do, en nokta vizio,</l> Kiam sur la homojn falis dormo, Kiam ili dormas sur la lito, <l>"
        },
        {
            "chapter": 33,
            "verse": 16,
            "name": "Job 33:16",
            "text": "Tiam Li malfermas la orelon de la homoj,</l> Kaj, doninte instruon, sigelas \u011din, <l>"
        },
        {
            "chapter": 33,
            "verse": 17,
            "name": "Job 33:17",
            "text": "Por deturni homon de ia faro</l> Kaj gardi viron kontra\u016d fiereco, <l>"
        },
        {
            "chapter": 33,
            "verse": 18,
            "name": "Job 33:18",
            "text": "Por \u015dirmi lian animon kontra\u016d pereo</l> Kaj lian vivon kontra\u016d falo sub glavon. <l>"
        },
        {
            "chapter": 33,
            "verse": 19,
            "name": "Job 33:19",
            "text": "Anka\u016d per malsano sur lia lito Li avertas lin,</l> Kiam \u0109iuj liaj ostoj estas ankora\u016d fortaj. <l>"
        },
        {
            "chapter": 33,
            "verse": 20,
            "name": "Job 33:20",
            "text": "Kaj abomenata fari\u011das por li en lia vivo la man\u011da\u0135o,</l> Kaj por lia animo la franda\u0135o. <l>"
        },
        {
            "chapter": 33,
            "verse": 21,
            "name": "Job 33:21",
            "text": "Lia karno konsumi\u011das tiel, ke oni \u011din jam ne vidas;</l> Kaj elstaras liaj ostoj, kiuj anta\u016de estis nevideblaj. <l>"
        },
        {
            "chapter": 33,
            "verse": 22,
            "name": "Job 33:22",
            "text": "Kaj lia animo alproksimi\u011das al la pereo,</l> Kaj lia vivo al la mortigo. <l>"
        },
        {
            "chapter": 33,
            "verse": 23,
            "name": "Job 33:23",
            "text": "Sed se li havas por si an\u011delon proparolanton,</l> Kvankam unu el mil, Kiu elmontrus pri la homo lian pravecon, <l>"
        },
        {
            "chapter": 33,
            "verse": 24,
            "name": "Job 33:24",
            "text": "Tiam Li indulgas lin, kaj diras:</l> Liberigu lin, ke li ne malsupreniru en la tombon, \u0108ar Mi trovis pardonigon. <l>"
        },
        {
            "chapter": 33,
            "verse": 25,
            "name": "Job 33:25",
            "text": "Tiam lia korpo fari\u011das denove fre\u015da, kiel en la juneco;</l> Li revenas al la tagoj de sia knabeco. <l>"
        },
        {
            "chapter": 33,
            "verse": 26,
            "name": "Job 33:26",
            "text": "Li pre\u011das al Dio,</l> Kaj \u0109i Tiu korfavoras lin, Kaj montras al li Sian viza\u011don kun \u011dojo, Kaj rekompencas la homon la\u016d lia virteco. <l>"
        },
        {
            "chapter": 33,
            "verse": 27,
            "name": "Job 33:27",
            "text": "Li rigardas la homojn, kaj diras:</l> Mi pekis, la veron mi kripligis, Kaj Li ne repagis al mi; <l>"
        },
        {
            "chapter": 33,
            "verse": 28,
            "name": "Job 33:28",
            "text": "Li liberigis mian animon, ke \u011di ne iru en pereon,</l> Kaj mia vivo vidas la lumon. <l>"
        },
        {
            "chapter": 33,
            "verse": 29,
            "name": "Job 33:29",
            "text": "\u0108ion \u0109i tion Dio faras</l> Du a\u016d tri fojojn kun homo, <l>"
        },
        {
            "chapter": 33,
            "verse": 30,
            "name": "Job 33:30",
            "text": "Por deturni lian animon de pereo</l> Kaj prilumi lin per la lumo de vivo. <l>"
        },
        {
            "chapter": 33,
            "verse": 31,
            "name": "Job 33:31",
            "text": "Atentu, Ijob, a\u016dskultu min;</l> Silentu, kaj mi parolos. <l>"
        },
        {
            "chapter": 33,
            "verse": 32,
            "name": "Job 33:32",
            "text": "Se vi havas, kion diri, respondu al mi;</l> Parolu, \u0109ar mi dezirus, ke vi montri\u011du prava. <l>"
        },
        {
            "chapter": 33,
            "verse": 33,
            "name": "Job 33:33",
            "text": "Se ne, tiam a\u016dskultu min;</l> Silentu, kaj mi instruos al vi sa\u011don. </lg> "
        }
    ]
}