{
    "translation": "Samaritan Pentateuch with variant readings",
    "abbreviation": "spvar",
    "lang": "he",
    "language": "Hebrew",
    "direction": "RTL",
    "encoding": "UTF-8",
    "book_nr": 9,
    "book_name": "1 Samuel",
    "chapter": 24,
    "name": "1 Samuel 24",
    "verses": [
        {
            "chapter": 24,
            "verse": 1,
            "name": "1 Samuel 24:1",
            "text": ""
        },
        {
            "chapter": 24,
            "verse": 2,
            "name": "1 Samuel 24:2",
            "text": ""
        },
        {
            "chapter": 24,
            "verse": 3,
            "name": "1 Samuel 24:3",
            "text": ""
        },
        {
            "chapter": 24,
            "verse": 4,
            "name": "1 Samuel 24:4",
            "text": ""
        },
        {
            "chapter": 24,
            "verse": 5,
            "name": "1 Samuel 24:5",
            "text": ""
        },
        {
            "chapter": 24,
            "verse": 6,
            "name": "1 Samuel 24:6",
            "text": ""
        },
        {
            "chapter": 24,
            "verse": 7,
            "name": "1 Samuel 24:7",
            "text": ""
        },
        {
            "chapter": 24,
            "verse": 8,
            "name": "1 Samuel 24:8",
            "text": ""
        },
        {
            "chapter": 24,
            "verse": 9,
            "name": "1 Samuel 24:9",
            "text": ""
        },
        {
            "chapter": 24,
            "verse": 10,
            "name": "1 Samuel 24:10",
            "text": ""
        },
        {
            "chapter": 24,
            "verse": 11,
            "name": "1 Samuel 24:11",
            "text": ""
        },
        {
            "chapter": 24,
            "verse": 12,
            "name": "1 Samuel 24:12",
            "text": ""
        },
        {
            "chapter": 24,
            "verse": 13,
            "name": "1 Samuel 24:13",
            "text": ""
        },
        {
            "chapter": 24,
            "verse": 14,
            "name": "1 Samuel 24:14",
            "text": ""
        },
        {
            "chapter": 24,
            "verse": 15,
            "name": "1 Samuel 24:15",
            "text": ""
        },
        {
            "chapter": 24,
            "verse": 16,
            "name": "1 Samuel 24:16",
            "text": ""
        },
        {
            "chapter": 24,
            "verse": 17,
            "name": "1 Samuel 24:17",
            "text": ""
        },
        {
            "chapter": 24,
            "verse": 18,
            "name": "1 Samuel 24:18",
            "text": ""
        },
        {
            "chapter": 24,
            "verse": 19,
            "name": "1 Samuel 24:19",
            "text": ""
        },
        {
            "chapter": 24,
            "verse": 20,
            "name": "1 Samuel 24:20",
            "text": ""
        },
        {
            "chapter": 24,
            "verse": 21,
            "name": "1 Samuel 24:21",
            "text": ""
        },
        {
            "chapter": 24,
            "verse": 22,
            "name": "1 Samuel 24:22",
            "text": ""
        },
        {
            "chapter": 24,
            "verse": 23,
            "name": "1 Samuel 24:23",
            "text": ""
        }
    ]
}