{
    "translation": "El Evangelio segun S. Lucas, traducido al Roman\u00ed, \u00f3 dialecto de los Gitanos de Espa\u00f1a",
    "abbreviation": "calo",
    "lang": "rmq",
    "language": "Calo",
    "direction": "LTR",
    "encoding": "UTF-8",
    "book_nr": 63,
    "book_name": "2 John",
    "chapter": 1,
    "name": "2 John 1",
    "verses": [
        {
            "chapter": 1,
            "verse": 1,
            "name": "2 John 1:1",
            "text": ""
        },
        {
            "chapter": 1,
            "verse": 2,
            "name": "2 John 1:2",
            "text": ""
        },
        {
            "chapter": 1,
            "verse": 3,
            "name": "2 John 1:3",
            "text": ""
        },
        {
            "chapter": 1,
            "verse": 4,
            "name": "2 John 1:4",
            "text": ""
        },
        {
            "chapter": 1,
            "verse": 5,
            "name": "2 John 1:5",
            "text": ""
        },
        {
            "chapter": 1,
            "verse": 6,
            "name": "2 John 1:6",
            "text": ""
        },
        {
            "chapter": 1,
            "verse": 7,
            "name": "2 John 1:7",
            "text": ""
        },
        {
            "chapter": 1,
            "verse": 8,
            "name": "2 John 1:8",
            "text": ""
        },
        {
            "chapter": 1,
            "verse": 9,
            "name": "2 John 1:9",
            "text": ""
        },
        {
            "chapter": 1,
            "verse": 10,
            "name": "2 John 1:10",
            "text": ""
        },
        {
            "chapter": 1,
            "verse": 11,
            "name": "2 John 1:11",
            "text": ""
        },
        {
            "chapter": 1,
            "verse": 12,
            "name": "2 John 1:12",
            "text": ""
        },
        {
            "chapter": 1,
            "verse": 13,
            "name": "2 John 1:13",
            "text": ""
        }
    ]
}