{
    "translation": "Luther (1545)",
    "abbreviation": "luther1545",
    "lang": "de",
    "language": "German",
    "direction": "LTR",
    "encoding": "UTF-8",
    "book_nr": 12,
    "book_name": "2. K\u00f6nige",
    "chapter": 11,
    "name": "2. K\u00f6nige 11",
    "verses": [
        {
            "chapter": 11,
            "verse": 1,
            "name": "2. K\u00f6nige 11:1",
            "text": "Athalja aber, Ahasjas Mutter, da sie sah, da\u00df ihr Sohn tot war, machte sie sich auf und brachte um allen k\u00f6niglichen Samen. "
        },
        {
            "chapter": 11,
            "verse": 2,
            "name": "2. K\u00f6nige 11:2",
            "text": "Aber Joseba, die Tochter des K\u00f6nigs Joram, Ahasjas Schwester, nahm Joas, den Sohn Ahasjas, und stahl ihn aus des K\u00f6nigs Kindern, die get\u00f6tet wurden, mit seiner Amme in der Schlafkammer; und sie verbargen ihn vor Athalja, da\u00df er nicht get\u00f6tet ward. "
        },
        {
            "chapter": 11,
            "verse": 3,
            "name": "2. K\u00f6nige 11:3",
            "text": "Und er war mit ihr versteckt im Hause des HErrn sechs Jahre. Athalja aber war K\u00f6nigin im Lande. "
        },
        {
            "chapter": 11,
            "verse": 4,
            "name": "2. K\u00f6nige 11:4",
            "text": "Im siebenten Jahr aber sandte hin Jojada und nahm die Obersten \u00fcber hundert mit den Hauptleuten und die Trabanten und lie\u00df sie zu sich ins Haus des HErrn kommen; und machte einen Bund mit ihnen und nahm einen Eid von ihnen im Hause des HErrn; und zeigte ihnen des K\u00f6nigs Sohn. "
        },
        {
            "chapter": 11,
            "verse": 5,
            "name": "2. K\u00f6nige 11:5",
            "text": "Und gebot ihnen und sprach: Das ist's, das ihr tun sollt: Euer ein dritter Teil, die ihr des Sabbats angehet, sollen der Hut warten im Hause des K\u00f6nigs; "
        },
        {
            "chapter": 11,
            "verse": 6,
            "name": "2. K\u00f6nige 11:6",
            "text": "und ein dritter Teil soll sein am Tor Sur und ein dritter Teil am Tor, das hinter den Trabanten ist; und sollt der Hut warten am Hause Massa. "
        },
        {
            "chapter": 11,
            "verse": 7,
            "name": "2. K\u00f6nige 11:7",
            "text": "Aber zwei Teile euer aller, die ihr des Sabbats abgehet, sollen der Hut warten im Hause des HErrn um den K\u00f6nig. "
        },
        {
            "chapter": 11,
            "verse": 8,
            "name": "2. K\u00f6nige 11:8",
            "text": "Und sollt rings um den K\u00f6nig euch machen, und ein jeglicher mit seiner Wehr in der Hand; und wer herein zwischen die Wand kommt, der sterbe, da\u00df ihr bei dem K\u00f6nige seid, wenn er aus und ein gehet. "
        },
        {
            "chapter": 11,
            "verse": 9,
            "name": "2. K\u00f6nige 11:9",
            "text": "Und die Obersten \u00fcber hundert taten alles, wie ihnen Jojada, der Priester, geboten hatte, und nahmen zu sich ihre M\u00e4nner, die des Sabbats angingen, mit denen, die des Sabbats abgingen, und kamen zu dem Priester Jojada. "
        },
        {
            "chapter": 11,
            "verse": 10,
            "name": "2. K\u00f6nige 11:10",
            "text": "Und der Priester gab den Hauptleuten Spie\u00dfe und Schilde, die des K\u00f6nigs Davids gewesen waren und in dem Hause des HErrn waren. "
        },
        {
            "chapter": 11,
            "verse": 11,
            "name": "2. K\u00f6nige 11:11",
            "text": "Und die Trabanten stunden um den K\u00f6nig her, ein jeglicher mit seiner Wehr in der Hand, von dem Winkel des Hauses zur Rechten bis zum Winkel zur Linken, zum Altar zu und zum Hause. "
        },
        {
            "chapter": 11,
            "verse": 12,
            "name": "2. K\u00f6nige 11:12",
            "text": "Und er lie\u00df des K\u00f6nigs Sohn hervorkommen und setzte ihm eine Krone auf und gab ihm das Zeugnis; und machten ihn zum K\u00f6nige und salbeten ihn und schlugen die H\u00e4nde zusammen und sprachen: Gl\u00fcck zu dem K\u00f6nige! "
        },
        {
            "chapter": 11,
            "verse": 13,
            "name": "2. K\u00f6nige 11:13",
            "text": "Und da Athalja h\u00f6rete das Geschrei des Volks, das zulief, kam sie zum Volk in das Haus des HErrn "
        },
        {
            "chapter": 11,
            "verse": 14,
            "name": "2. K\u00f6nige 11:14",
            "text": "und sah, siehe, da stund der K\u00f6nig an der S\u00e4ule, wie es Gewohnheit war, und die S\u00e4nger und Trommeten bei dem K\u00f6nige; und alles Volk des Landes war fr\u00f6hlich und bliesen mit Trommeten. Athalja aber zerri\u00df ihre Kleider und sprach: Aufruhr, Aufruhr! "
        },
        {
            "chapter": 11,
            "verse": 15,
            "name": "2. K\u00f6nige 11:15",
            "text": "Aber der Priester Jojada gebot den Obersten \u00fcber hundert, die \u00fcber das Heer gesetzt waren, und sprach zu ihnen: F\u00fchret sie zum Hause hinaus in den Hof; und wer ihr folget, der sterbe des Schwerts! Denn der Priester hatte gesagt, sie sollte nicht im Hause des HErrn sterben. "
        },
        {
            "chapter": 11,
            "verse": 16,
            "name": "2. K\u00f6nige 11:16",
            "text": "Und sie legten die H\u00e4nde an sie; und sie ging hinein des Weges, da die Rosse zum Hause des K\u00f6nigs gehen, und ward daselbst get\u00f6tet. "
        },
        {
            "chapter": 11,
            "verse": 17,
            "name": "2. K\u00f6nige 11:17",
            "text": "Da machte Jojada einen Bund zwischen dem HErrn und dem K\u00f6nige und dem Volk, da\u00df sie des HErrn Volk sein sollten; also auch zwischen dem K\u00f6nige und dem Volk. "
        },
        {
            "chapter": 11,
            "verse": 18,
            "name": "2. K\u00f6nige 11:18",
            "text": "Da ging alles Volk des Landes in die Kirche Baals und brachen seine Alt\u00e4re ab und zerbrachen seine Bildnisse recht wohl; und Mathan, den Priester Baals, erw\u00fcrgeten sie vor den Alt\u00e4ren. Der Priester aber bestellete die \u00c4mter im Hause des HErrn. "
        },
        {
            "chapter": 11,
            "verse": 19,
            "name": "2. K\u00f6nige 11:19",
            "text": "Und nahm die Obersten \u00fcber hundert und die Hauptleute und die Trabanten und alles Volk des Landes und f\u00fchreten den K\u00f6nig hinab vom Hause des HErrn; und kamen auf dem Wege von dem Tor der Trabanten zum K\u00f6nigshause; und er setzte sich auf der K\u00f6nige Stuhl. "
        },
        {
            "chapter": 11,
            "verse": 20,
            "name": "2. K\u00f6nige 11:20",
            "text": "Und alles Volk im Lande war fr\u00f6hlich, und die Stadt war stille. Athalja aber t\u00f6teten sie mit dem Schwert in des K\u00f6nigs Hause. "
        },
        {
            "chapter": 11,
            "verse": 21,
            "name": "2. K\u00f6nige 11:21",
            "text": "Und Joas war sieben Jahre alt, da er K\u00f6nig ward.  "
        }
    ]
}