{
    "translation": "NT (1987 1994)",
    "abbreviation": "tnt",
    "lang": "grc",
    "language": "Greek",
    "direction": "LTR",
    "encoding": "UTF-8",
    "book_nr": 40,
    "book_name": "Matthew",
    "chapter": 26,
    "name": "Matthew 26",
    "verses": [
        {
            "chapter": 26,
            "verse": 1,
            "name": "Matthew 26:1",
            "text": "  \u039a\u03b1\u1f76 \u1f10\u03b3\u03ad\u03bd\u03b5\u03c4\u03bf \u1f45\u03c4\u03b5 \u1f10\u03c4\u03ad\u03bb\u03b5\u03c3\u03b5\u03bd \u1f41 \u1f38\u03b7\u03c3\u03bf\u1fe6\u03c2 \u03c0\u03ac\u03bd\u03c4\u03b1\u03c2 \u03c4\u03bf\u1f7a\u03c2 \u03bb\u03cc\u03b3\u03bf\u03c5\u03c2 \u03c4\u03bf\u03cd\u03c4\u03bf\u03c5\u03c2, \u03b5\u1f36\u03c0\u03b5\u03bd \u03c4\u03bf\u1fd6\u03c2 \u03bc\u03b1\u03b8\u03b7\u03c4\u03b1\u1fd6\u03c2 \u03b1\u1f50\u03c4\u03bf\u1fe6,"
        },
        {
            "chapter": 26,
            "verse": 2,
            "name": "Matthew 26:2",
            "text": "\u039f\u1f34\u03b4\u03b1\u03c4\u03b5 \u1f45\u03c4\u03b9 \u03bc\u03b5\u03c4\u1f70 \u03b4\u03cd\u03bf \u1f21\u03bc\u03ad\u03c1\u03b1\u03c2 \u03c4\u1f78 \u03c0\u03ac\u03c3\u03c7\u03b1 \u03b3\u03af\u03bd\u03b5\u03c4\u03b1\u03b9, \u03ba\u03b1\u1f76 \u1f41 \u03c5\u1f31\u1f78\u03c2 \u03c4\u03bf\u1fe6 \u1f00\u03bd\u03b8\u03c1\u03ce\u03c0\u03bf\u03c5 \u03c0\u03b1\u03c1\u03b1\u03b4\u03af\u03b4\u03bf\u03c4\u03b1\u03b9 \u03b5\u1f30\u03c2 \u03c4\u1f78 \u03c3\u03c4\u03b1\u03c5\u03c1\u03c9\u03b8\u1fc6\u03bd\u03b1\u03b9."
        },
        {
            "chapter": 26,
            "verse": 3,
            "name": "Matthew 26:3",
            "text": "\u03a4\u03cc\u03c4\u03b5 \u03c3\u03c5\u03bd\u03ae\u03c7\u03b8\u03b7\u03c3\u03b1\u03bd \u03bf\u1f31 \u1f00\u03c1\u03c7\u03b9\u03b5\u03c1\u03b5\u1fd6\u03c2 \u03ba\u03b1\u1f76 \u03bf\u1f31 \u03c0\u03c1\u03b5\u03c3\u03b2\u03cd\u03c4\u03b5\u03c1\u03bf\u03b9 \u03c4\u03bf\u1fe6 \u03bb\u03b1\u03bf\u1fe6 \u03b5\u1f30\u03c2 \u03c4\u1f74\u03bd \u03b1\u1f50\u03bb\u1f74\u03bd \u03c4\u03bf\u1fe6 \u1f00\u03c1\u03c7\u03b9\u03b5\u03c1\u03ad\u03c9\u03c2 \u03c4\u03bf\u1fe6 \u03bb\u03b5\u03b3\u03bf\u03bc\u03ad\u03bd\u03bf\u03c5 \u039a\u03b1\u03ca\u03ac\u03c6\u03b1,"
        },
        {
            "chapter": 26,
            "verse": 4,
            "name": "Matthew 26:4",
            "text": "\u03ba\u03b1\u1f76 \u03c3\u03c5\u03bd\u03b5\u03b2\u03bf\u03c5\u03bb\u03b5\u03cd\u03c3\u03b1\u03bd\u03c4\u03bf \u1f35\u03bd\u03b1 \u03c4\u1f78\u03bd \u1f38\u03b7\u03c3\u03bf\u1fe6\u03bd \u03b4\u03cc\u03bb\u1ff3 \u03ba\u03c1\u03b1\u03c4\u03ae\u03c3\u03c9\u03c3\u03b9\u03bd, \u03ba\u03b1\u1f76 \u1f00\u03c0\u03bf\u03ba\u03c4\u03b5\u03af\u03bd\u03c9\u03c3\u03b9\u03bd."
        },
        {
            "chapter": 26,
            "verse": 5,
            "name": "Matthew 26:5",
            "text": "\u1f14\u03bb\u03b5\u03b3\u03bf\u03bd \u03b4\u03ad, \u039c\u1f74 \u1f10\u03bd \u03c4\u1fc7 \u1f11\u03bf\u03c1\u03c4\u1fc7, \u1f35\u03bd\u03b1 \u03bc\u1f74 \u03b8\u03cc\u03c1\u03c5\u03b2\u03bf\u03c2 \u03b3\u03ad\u03bd\u03b7\u03c4\u03b1\u03b9 \u1f10\u03bd \u03c4\u1ff7 \u03bb\u03b1\u1ff7. "
        },
        {
            "chapter": 26,
            "verse": 6,
            "name": "Matthew 26:6",
            "text": " \u03a4\u03bf\u1fe6 \u03b4\u1f72 \u1f38\u03b7\u03c3\u03bf\u1fe6 \u03b3\u03b5\u03bd\u03bf\u03bc\u03ad\u03bd\u03bf\u03c5 \u1f10\u03bd \u0392\u03b7\u03b8\u03b1\u03bd\u03af\u03b1 \u1f10\u03bd \u03bf\u1f30\u03ba\u03af\u1fb3 \u03a3\u03af\u03bc\u03c9\u03bd\u03bf\u03c2 \u03c4\u03bf\u1fe6 \u03bb\u03b5\u03c0\u03c1\u03bf\u1fe6,"
        },
        {
            "chapter": 26,
            "verse": 7,
            "name": "Matthew 26:7",
            "text": "\u03c0\u03c1\u03bf\u03c3\u1fc6\u03bb\u03b8\u03b5\u03bd \u03b1\u1f50\u03c4\u1ff7 \u03b3\u03c5\u03bd\u1f74 \u1f14\u03c7\u03bf\u03c5\u03c3\u03b1 \u1f00\u03bb\u03ac\u03b2\u03b1\u03c3\u03c4\u03c1\u03bf\u03bd \u03bc\u03cd\u03c1\u03bf\u03c5 \u03b2\u03b1\u03c1\u03c5\u03c4\u03af\u03bc\u03bf\u03c5, \u03ba\u03b1\u1f76 \u03ba\u03b1\u03c4\u03ad\u03c7\u03b5\u03b5\u03bd \u1f10\u03c0\u1f76 \u03c4\u1fc6\u03c2 \u03ba\u03b5\u03c6\u03b1\u03bb\u1fc6\u03c2 \u03b1\u1f50\u03c4\u03bf\u1fe6 \u1f00\u03bd\u03b1\u03ba\u03b5\u03b9\u03bc\u03ad\u03bd\u03bf\u03c5."
        },
        {
            "chapter": 26,
            "verse": 8,
            "name": "Matthew 26:8",
            "text": "\u1f30\u03b4\u03cc\u03bd\u03c4\u03b5\u03c2 \u03b4\u1f72 \u03bf\u1f31 \u03bc\u03b1\u03b8\u03b7\u03c4\u03b1\u1f76 \u1f20\u03b3\u03b1\u03bd\u03ac\u03ba\u03c4\u03b7\u03c3\u03b1\u03bd \u03bb\u03ad\u03b3\u03bf\u03bd\u03c4\u03b5\u03c2, \u0395\u1f30\u03c2 \u03c4\u03af \u1f21 \u1f00\u03c0\u03ce\u03bb\u03b5\u03b9\u03b1 \u03b1\u1f55\u03c4\u03b7;"
        },
        {
            "chapter": 26,
            "verse": 9,
            "name": "Matthew 26:9",
            "text": "\u1f20\u03b4\u03cd\u03bd\u03b1\u03c4\u03bf \u03b3\u1f70\u03c1 \u03c4\u03bf\u1fe6\u03c4\u03bf \u03c0\u03c1\u03b1\u03b8\u1fc6\u03bd\u03b1\u03b9 \u03c0\u03bf\u03bb\u03bb\u03bf\u1fe6 \u03ba\u03b1\u1f76 \u03b4\u03bf\u03b8\u1fc6\u03bd\u03b1\u03b9 \u03c0\u03c4\u03c9\u03c7\u03bf\u1fd6\u03c2."
        },
        {
            "chapter": 26,
            "verse": 10,
            "name": "Matthew 26:10",
            "text": "\u03b3\u03bd\u03bf\u1f7a\u03c2 \u03b4\u1f72 \u1f41 \u1f38\u03b7\u03c3\u03bf\u1fe6\u03c2 \u03b5\u1f36\u03c0\u03b5\u03bd \u03b1\u1f50\u03c4\u03bf\u1fd6\u03c2, \u03a4\u03af \u03ba\u03cc\u03c0\u03bf\u03c5\u03c2 \u03c0\u03b1\u03c1\u03ad\u03c7\u03b5\u03c4\u03b5 \u03c4\u1fc7 \u03b3\u03c5\u03bd\u03b1\u03b9\u03ba\u03af; \u1f14\u03c1\u03b3\u03bf\u03bd \u03b3\u1f70\u03c1 \u03ba\u03b1\u03bb\u1f78\u03bd \u03b5\u1f30\u03c1\u03b3\u03ac\u03c3\u03b1\u03c4\u03bf \u03b5\u1f30\u03c2 \u1f10\u03bc\u03ad."
        },
        {
            "chapter": 26,
            "verse": 11,
            "name": "Matthew 26:11",
            "text": "\u03c0\u03ac\u03bd\u03c4\u03bf\u03c4\u03b5 \u03b3\u1f70\u03c1 \u03c4\u03bf\u1f7a\u03c2 \u03c0\u03c4\u03c9\u03c7\u03bf\u1f7a\u03c2 \u1f14\u03c7\u03b5\u03c4\u03b5 \u03bc\u03b5\u03b8\u1fbd \u1f11\u03b1\u03c5\u03c4\u1ff6\u03bd, \u1f10\u03bc\u1f72 \u03b4\u1f72 \u03bf\u1f50 \u03c0\u03ac\u03bd\u03c4\u03bf\u03c4\u03b5 \u1f14\u03c7\u03b5\u03c4\u03b5."
        },
        {
            "chapter": 26,
            "verse": 12,
            "name": "Matthew 26:12",
            "text": "\u03b2\u03b1\u03bb\u03bf\u1fe6\u03c3\u03b1 \u03b3\u1f70\u03c1 \u03b1\u1f55\u03c4\u03b7 \u03c4\u1f78 \u03bc\u03cd\u03c1\u03bf\u03bd \u03c4\u03bf\u1fe6\u03c4\u03bf \u1f10\u03c0\u1f76 \u03c4\u03bf\u1fe6 \u03c3\u03ce\u03bc\u03b1\u03c4\u03cc\u03c2 \u03bc\u03bf\u03c5, \u03c0\u03c1\u1f78\u03c2 \u03c4\u1f78 \u1f10\u03bd\u03c4\u03b1\u03c6\u03b9\u03ac\u03c3\u03b1\u03b9 \u03bc\u03b5 \u1f10\u03c0\u03bf\u03af\u03b7\u03c3\u03b5\u03bd."
        },
        {
            "chapter": 26,
            "verse": 13,
            "name": "Matthew 26:13",
            "text": "\u1f00\u03bc\u1f74\u03bd \u03bb\u03ad\u03b3\u03c9 \u1f51\u03bc\u1fd6\u03bd, \u1f45\u03c0\u03bf\u03c5 \u1f10\u1f70\u03bd \u03ba\u03b7\u03c1\u03c5\u03c7\u03b8\u1fc7 \u03c4\u1f78 \u03b5\u1f50\u03b1\u03b3\u03b3\u03ad\u03bb\u03b9\u03bf\u03bd \u03c4\u03bf\u1fe6\u03c4\u03bf \u1f10\u03bd \u1f45\u03bb\u1ff3 \u03c4\u1ff7 \u03ba\u03cc\u03c3\u03bc\u1ff3, \u03bb\u03b1\u03bb\u03b7\u03b8\u03ae\u03c3\u03b5\u03c4\u03b1\u03b9 \u03ba\u03b1\u1f76 \u1f43 \u1f10\u03c0\u03bf\u03af\u03b7\u03c3\u03b5\u03bd \u03b1\u1f55\u03c4\u03b7, \u03b5\u1f30\u03c2 \u03bc\u03bd\u03b7\u03bc\u03cc\u03c3\u03c5\u03bd\u03bf\u03bd \u03b1\u1f50\u03c4\u1fc6\u03c2. "
        },
        {
            "chapter": 26,
            "verse": 14,
            "name": "Matthew 26:14",
            "text": " \u03a4\u03cc\u03c4\u03b5 \u03c0\u03bf\u03c1\u03b5\u03c5\u03b8\u03b5\u1f76\u03c2 \u03b5\u1f37\u03c2 \u03c4\u1ff6\u03bd \u03b4\u03ce\u03b4\u03b5\u03ba\u03b1, \u1f41 \u03bb\u03b5\u03b3\u03cc\u03bc\u03b5\u03bd\u03bf\u03c2 \u1f38\u03bf\u03cd\u03b4\u03b1\u03c2 \u1f38\u03c3\u03ba\u03b1\u03c1\u03b9\u03ce\u03c4\u03b7\u03c2, \u03c0\u03c1\u1f78\u03c2 \u03c4\u03bf\u1f7a\u03c2 \u1f00\u03c1\u03c7\u03b9\u03b5\u03c1\u03b5\u1fd6\u03c2"
        },
        {
            "chapter": 26,
            "verse": 15,
            "name": "Matthew 26:15",
            "text": "\u03b5\u1f36\u03c0\u03b5\u03bd, \u03a4\u03af \u03b8\u03ad\u03bb\u03b5\u03c4\u03ad \u03bc\u03bf\u03b9 \u03b4\u03bf\u1fe6\u03bd\u03b1\u03b9, \u03ba\u1f00\u03b3\u1f7c \u1f51\u03bc\u1fd6\u03bd \u03c0\u03b1\u03c1\u03b1\u03b4\u03ce\u03c3\u03c9 \u03b1\u1f50\u03c4\u03cc\u03bd; \u03bf\u1f31 \u03b4\u1f72 \u1f14\u03c3\u03c4\u03b7\u03c3\u03b1\u03bd \u03b1\u1f50\u03c4\u1ff7 \u03c4\u03c1\u03b9\u03ac\u03ba\u03bf\u03bd\u03c4\u03b1 \u1f00\u03c1\u03b3\u03cd\u03c1\u03b9\u03b1\u00b7"
        },
        {
            "chapter": 26,
            "verse": 16,
            "name": "Matthew 26:16",
            "text": "\u03ba\u03b1\u1f76 \u1f00\u03c0\u1f78 \u03c4\u03cc\u03c4\u03b5 \u1f10\u03b6\u03ae\u03c4\u03b5\u03b9 \u03b5\u1f50\u03ba\u03b1\u03b9\u03c1\u03af\u03b1\u03bd \u1f35\u03bd\u03b1 \u03b1\u1f50\u03c4\u1f78\u03bd \u03c0\u03b1\u03c1\u03b1\u03b4\u1ff7. "
        },
        {
            "chapter": 26,
            "verse": 17,
            "name": "Matthew 26:17",
            "text": " \u03a4\u1fc7 \u03b4\u1f72 \u03c0\u03c1\u03ce\u03c4\u1fc3 \u03c4\u1ff6\u03bd \u1f00\u03b6\u03cd\u03bc\u03c9\u03bd \u03c0\u03c1\u03bf\u03c3\u1fc6\u03bb\u03b8\u03bf\u03bd \u03bf\u1f31 \u03bc\u03b1\u03b8\u03b7\u03c4\u03b1\u1f76 \u03c4\u1ff7 \u1f38\u03b7\u03c3\u03bf\u1fe6, \u03bb\u03ad\u03b3\u03bf\u03bd\u03c4\u03b5\u03c2, \u03a0\u03bf\u1fe6 \u03b8\u03ad\u03bb\u03b5\u03b9\u03c2 \u1f11\u03c4\u03bf\u03b9\u03bc\u03ac\u03c3\u03c9\u03bc\u03ad\u03bd \u03c3\u03bf\u03b9 \u03c6\u03b1\u03b3\u03b5\u1fd6\u03bd \u03c4\u1f78 \u03c0\u03ac\u03c3\u03c7\u03b1;"
        },
        {
            "chapter": 26,
            "verse": 18,
            "name": "Matthew 26:18",
            "text": "\u1f41 \u03b4\u1f72 \u03b5\u1f36\u03c0\u03b5\u03bd, \u1f59\u03c0\u03ac\u03b3\u03b5\u03c4\u03b5 \u03b5\u1f30\u03c2 \u03c4\u1f74\u03bd \u03c0\u03cc\u03bb\u03b9\u03bd \u03c0\u03c1\u1f78\u03c2 \u03c4\u1f78\u03bd \u03b4\u03b5\u1fd6\u03bd\u03b1, \u03ba\u03b1\u1f76 \u03b5\u1f34\u03c0\u03b1\u03c4\u03b5 \u03b1\u1f50\u03c4\u1ff7, \u1f49 \u03b4\u03b9\u03b4\u03ac\u03c3\u03ba\u03b1\u03bb\u03bf\u03c2 \u03bb\u03ad\u03b3\u03b5\u03b9, \u1f49 \u03ba\u03b1\u03b9\u03c1\u03cc\u03c2 \u03bc\u03bf\u03c5 \u1f10\u03b3\u03b3\u03cd\u03c2 \u1f10\u03c3\u03c4\u03b9\u03bd, \u03c0\u03c1\u1f78\u03c2 \u03c3\u1f72 \u03c0\u03bf\u03b9\u1ff6 \u03c4\u1f78 \u03c0\u03ac\u03c3\u03c7\u03b1 \u03bc\u03b5\u03c4\u1f70 \u03c4\u1ff6\u03bd \u03bc\u03b1\u03b8\u03b7\u03c4\u1ff6\u03bd \u03bc\u03bf\u03c5."
        },
        {
            "chapter": 26,
            "verse": 19,
            "name": "Matthew 26:19",
            "text": "\u03ba\u03b1\u1f76 \u1f10\u03c0\u03bf\u03af\u03b7\u03c3\u03b1\u03bd \u03bf\u1f31 \u03bc\u03b1\u03b8\u03b7\u03c4\u03b1\u1f76 \u1f61\u03c2 \u03c3\u03c5\u03bd\u03ad\u03c4\u03b1\u03be\u03b5\u03bd \u03b1\u1f50\u03c4\u03bf\u1fd6\u03c2 \u1f41 \u1f38\u03b7\u03c3\u03bf\u1fe6\u03c2, \u03ba\u03b1\u1f76 \u1f21\u03c4\u03bf\u03af\u03bc\u03b1\u03c3\u03b1\u03bd \u03c4\u1f78 \u03c0\u03ac\u03c3\u03c7\u03b1. "
        },
        {
            "chapter": 26,
            "verse": 20,
            "name": "Matthew 26:20",
            "text": " \u1f48\u03c8\u03af\u03b1\u03c2 \u03b4\u1f72 \u03b3\u03b5\u03bd\u03bf\u03bc\u03ad\u03bd\u03b7\u03c2 \u1f00\u03bd\u03ad\u03ba\u03b5\u03b9\u03c4\u03bf \u03bc\u03b5\u03c4\u1f70 \u03c4\u1ff6\u03bd \u03b4\u03ce\u03b4\u03b5\u03ba\u03b1\u00b7"
        },
        {
            "chapter": 26,
            "verse": 21,
            "name": "Matthew 26:21",
            "text": "\u03ba\u03b1\u1f76 \u1f10\u03c3\u03b8\u03b9\u03cc\u03bd\u03c4\u03c9\u03bd \u03b1\u1f50\u03c4\u1ff6\u03bd \u03b5\u1f36\u03c0\u03b5\u03bd, \u1f08\u03bc\u1f74\u03bd \u03bb\u03ad\u03b3\u03c9 \u1f51\u03bc\u1fd6\u03bd \u1f45\u03c4\u03b9 \u03b5\u1f37\u03c2 \u1f10\u03be \u1f51\u03bc\u1ff6\u03bd \u03c0\u03b1\u03c1\u03b1\u03b4\u03ce\u03c3\u03b5\u03b9 \u03bc\u03b5."
        },
        {
            "chapter": 26,
            "verse": 22,
            "name": "Matthew 26:22",
            "text": "\u03ba\u03b1\u1f76 \u03bb\u03c5\u03c0\u03bf\u03cd\u03bc\u03b5\u03bd\u03bf\u03b9 \u03c3\u03c6\u03cc\u03b4\u03c1\u03b1 \u1f24\u03c1\u03be\u03b1\u03bd\u03c4\u03bf \u03bb\u03ad\u03b3\u03b5\u03b9\u03bd \u03b1\u1f50\u03c4\u1ff7, \u03b5\u1f37\u03c2 \u1f15\u03ba\u03b1\u03c3\u03c4\u03bf\u03c2, \u039c\u03ae\u03c4\u03b9 \u1f10\u03b3\u03ce \u03b5\u1f30\u03bc\u03b9, \u03ba\u03cd\u03c1\u03b9\u03b5;"
        },
        {
            "chapter": 26,
            "verse": 23,
            "name": "Matthew 26:23",
            "text": "\u1f41 \u03b4\u1f72 \u1f00\u03c0\u03bf\u03ba\u03c1\u03b9\u03b8\u03b5\u1f76\u03c2 \u03b5\u1f36\u03c0\u03b5\u03bd, \u1f49 \u1f10\u03bc\u03b2\u03ac\u03c8\u03b1\u03c2 \u03bc\u03b5\u03c4\u1fbd \u1f10\u03bc\u03bf\u1fe6 \u03c4\u1f74\u03bd \u03c7\u03b5\u1fd6\u03c1\u03b1 \u1f10\u03bd \u03c4\u1ff7 \u03c4\u03c1\u03c5\u03b2\u03bb\u03af\u1ff3, \u03bf\u1f57\u03c4\u03cc\u03c2 \u03bc\u03b5 \u03c0\u03b1\u03c1\u03b1\u03b4\u03ce\u03c3\u03b5\u03b9."
        },
        {
            "chapter": 26,
            "verse": 24,
            "name": "Matthew 26:24",
            "text": "\u1f41 \u03bc\u1f72\u03bd \u03c5\u1f31\u1f78\u03c2 \u03c4\u03bf\u1fe6 \u1f00\u03bd\u03b8\u03c1\u03ce\u03c0\u03bf\u03c5 \u1f51\u03c0\u03ac\u03b3\u03b5\u03b9 \u03ba\u03b1\u03b8\u1f7c\u03c2 \u03b3\u03ad\u03b3\u03c1\u03b1\u03c0\u03c4\u03b1\u03b9 \u03c0\u03b5\u03c1\u1f76 \u03b1\u1f50\u03c4\u03bf\u1fe6, \u03bf\u1f50\u03b1\u1f76 \u03b4\u1f72 \u03c4\u1ff7 \u1f00\u03bd\u03b8\u03c1\u03ce\u03c0\u1ff3 \u1f10\u03ba\u03b5\u03af\u03bd\u1ff3 \u03b4\u03b9\u1fbd \u03bf\u1f57 \u1f41 \u03c5\u1f31\u1f78\u03c2 \u03c4\u03bf\u1fe6 \u1f00\u03bd\u03b8\u03c1\u03ce\u03c0\u03bf\u03c5 \u03c0\u03b1\u03c1\u03b1\u03b4\u03af\u03b4\u03bf\u03c4\u03b1\u03b9\u00b7 \u03ba\u03b1\u03bb\u1f78\u03bd \u1f26\u03bd \u03b1\u1f50\u03c4\u1ff7, \u03b5\u1f30 \u03bf\u1f50\u03ba \u1f10\u03b3\u03b5\u03bd\u03bd\u03ae\u03b8\u03b7 \u1f41 \u1f04\u03bd\u03b8\u03c1\u03c9\u03c0\u03bf\u03c2 \u1f10\u03ba\u03b5\u1fd6\u03bd\u03bf\u03c2."
        },
        {
            "chapter": 26,
            "verse": 25,
            "name": "Matthew 26:25",
            "text": "\u1f00\u03c0\u03bf\u03ba\u03c1\u03b9\u03b8\u03b5\u1f76\u03c2 \u03b4\u1f72 \u1f38\u03bf\u03cd\u03b4\u03b1\u03c2 \u1f41 \u03c0\u03b1\u03c1\u03b1\u03b4\u03b9\u03b4\u03bf\u1f7a\u03c2 \u03b1\u1f50\u03c4\u1f78\u03bd \u03b5\u1f36\u03c0\u03b5\u03bd, \u039c\u03ae\u03c4\u03b9 \u1f10\u03b3\u03ce \u03b5\u1f30\u03bc\u03b9, \u1fe5\u03b1\u03b2\u03b2\u03af; \u03bb\u03ad\u03b3\u03b5\u03b9 \u03b1\u1f50\u03c4\u1ff7, \u03a3\u1f7a \u03b5\u1f36\u03c0\u03b1\u03c2. "
        },
        {
            "chapter": 26,
            "verse": 26,
            "name": "Matthew 26:26",
            "text": " \u1f18\u03c3\u03b8\u03b9\u03cc\u03bd\u03c4\u03c9\u03bd \u03b4\u1f72 \u03b1\u1f50\u03c4\u1ff6\u03bd \u03bb\u03b1\u03b2\u1f7c\u03bd \u1f41 \u1f38\u03b7\u03c3\u03bf\u1fe6\u03c2 \u1f04\u03c1\u03c4\u03bf\u03bd \u03ba\u03b1\u1f76 \u03b5\u1f50\u03bb\u03bf\u03b3\u03ae\u03c3\u03b1\u03c2 \u1f14\u03ba\u03bb\u03b1\u03c3\u03b5\u03bd, \u03ba\u03b1\u1f76 \u03b4\u03bf\u1f7a\u03c2 \u03c4\u03bf\u1fd6\u03c2 \u03bc\u03b1\u03b8\u03b7\u03c4\u03b1\u1fd6\u03c2 \u03b5\u1f36\u03c0\u03b5\u03bd, \u039b\u03ac\u03b2\u03b5\u03c4\u03b5 \u03c6\u03ac\u03b3\u03b5\u03c4\u03b5\u00b7 \u03c4\u03bf\u1fe6\u03c4\u03cc \u1f10\u03c3\u03c4\u03b9\u03bd \u03c4\u1f78 \u03c3\u1ff6\u03bc\u03ac \u03bc\u03bf\u03c5."
        },
        {
            "chapter": 26,
            "verse": 27,
            "name": "Matthew 26:27",
            "text": "\u03ba\u03b1\u1f76 \u03bb\u03b1\u03b2\u1f7c\u03bd \u03c0\u03bf\u03c4\u03ae\u03c1\u03b9\u03bf\u03bd [\u03ba\u03b1\u1f76] \u03b5\u1f50\u03c7\u03b1\u03c1\u03b9\u03c3\u03c4\u03ae\u03c3\u03b1\u03c2 \u1f14\u03b4\u03c9\u03ba\u03b5\u03bd \u03b1\u1f50\u03c4\u03bf\u1fd6\u03c2 \u03bb\u03ad\u03b3\u03c9\u03bd, \u03a0\u03af\u03b5\u03c4\u03b5 \u1f10\u03be \u03b1\u1f50\u03c4\u03bf\u1fe6 \u03c0\u03ac\u03bd\u03c4\u03b5\u03c2\u00b7"
        },
        {
            "chapter": 26,
            "verse": 28,
            "name": "Matthew 26:28",
            "text": "\u03c4\u03bf\u1fe6\u03c4\u03bf \u03b3\u03ac\u03c1 \u1f10\u03c3\u03c4\u03b9\u03bd \u03c4\u1f78 \u03b1\u1f37\u03bc\u03ac \u03bc\u03bf\u03c5 \u03c4\u1fc6\u03c2 \u03ba\u03b1\u03b9\u03bd\u1fc6\u03c2 \u03b4\u03b9\u03b1\u03b8\u03ae\u03ba\u03b7\u03c2, \u03c4\u1f78 \u03c0\u03b5\u03c1\u1f76 \u03c0\u03bf\u03bb\u03bb\u1ff6\u03bd \u1f10\u03ba\u03c7\u03c5\u03bd\u03bd\u03cc\u03bc\u03b5\u03bd\u03bf\u03bd \u03b5\u1f30\u03c2 \u1f04\u03c6\u03b5\u03c3\u03b9\u03bd \u1f01\u03bc\u03b1\u03c1\u03c4\u03b9\u1ff6\u03bd."
        },
        {
            "chapter": 26,
            "verse": 29,
            "name": "Matthew 26:29",
            "text": "\u03bb\u03ad\u03b3\u03c9 \u03b4\u1f72 \u1f51\u03bc\u1fd6\u03bd, \u03bf\u1f50 \u03bc\u1f74 \u03c0\u03af\u03c9 \u1f00\u03c0\u1fbd \u1f04\u03c1\u03c4\u03b9 \u1f10\u03ba \u03c4\u03bf\u03cd\u03c4\u03bf\u03c5 \u03c4\u03bf\u1fe6 \u03b3\u03b5\u03bd\u03ae\u03bc\u03b1\u03c4\u03bf\u03c2 \u03c4\u1fc6\u03c2 \u1f00\u03bc\u03c0\u03ad\u03bb\u03bf\u03c5, \u1f15\u03c9\u03c2 \u03c4\u1fc6\u03c2 \u1f21\u03bc\u03ad\u03c1\u03b1\u03c2 \u1f10\u03ba\u03b5\u03af\u03bd\u03b7\u03c2 \u1f45\u03c4\u03b1\u03bd \u03b1\u1f50\u03c4\u1f78 \u03c0\u03af\u03bd\u03c9 \u03bc\u03b5\u03b8\u1fbd \u1f51\u03bc\u1ff6\u03bd \u03ba\u03b1\u03b9\u03bd\u1f78\u03bd \u1f10\u03bd \u03c4\u1fc7 \u03b2\u03b1\u03c3\u03b9\u03bb\u03b5\u03af\u1fb3 \u03c4\u03bf\u1fe6 \u03c0\u03b1\u03c4\u03c1\u03cc\u03c2 \u03bc\u03bf\u03c5."
        },
        {
            "chapter": 26,
            "verse": 30,
            "name": "Matthew 26:30",
            "text": "\u039a\u03b1\u1f76 \u1f51\u03bc\u03bd\u03ae\u03c3\u03b1\u03bd\u03c4\u03b5\u03c2 \u1f10\u03be\u1fc6\u03bb\u03b8\u03bf\u03bd \u03b5\u1f30\u03c2 \u03c4\u1f78 \u1f44\u03c1\u03bf\u03c2 \u03c4\u1ff6\u03bd \u1f10\u03bb\u03b1\u03b9\u1ff6\u03bd. "
        },
        {
            "chapter": 26,
            "verse": 31,
            "name": "Matthew 26:31",
            "text": " \u03a4\u03cc\u03c4\u03b5 \u03bb\u03ad\u03b3\u03b5\u03b9 \u03b1\u1f50\u03c4\u03bf\u1fd6\u03c2 \u1f41 \u1f38\u03b7\u03c3\u03bf\u1fe6\u03c2, \u03a0\u03ac\u03bd\u03c4\u03b5\u03c2 \u1f51\u03bc\u03b5\u1fd6\u03c2 \u03c3\u03ba\u03b1\u03bd\u03b4\u03b1\u03bb\u03b9\u03c3\u03b8\u03ae\u03c3\u03b5\u03c3\u03b8\u03b5 \u1f10\u03bd \u1f10\u03bc\u03bf\u1f76 \u1f10\u03bd \u03c4\u1fc7 \u03bd\u03c5\u03ba\u03c4\u1f76 \u03c4\u03b1\u03cd\u03c4\u1fc3\u00b7 \u03b3\u03ad\u03b3\u03c1\u03b1\u03c0\u03c4\u03b1\u03b9 \u03b3\u03ac\u03c1, \u03a0\u03b1\u03c4\u03ac\u03be\u03c9 \u03c4\u1f78\u03bd \u03c0\u03bf\u03b9\u03bc\u03ad\u03bd\u03b1, \u03ba\u03b1\u1f76 \u03b4\u03b9\u03b1\u03c3\u03ba\u03bf\u03c1\u03c0\u03b9\u03c3\u03b8\u03ae\u03c3\u03bf\u03bd\u03c4\u03b1\u03b9 \u03c4\u1f70 \u03c0\u03c1\u03cc\u03b2\u03b1\u03c4\u03b1 \u03c4\u1fc6\u03c2 \u03c0\u03bf\u03af\u03bc\u03bd\u03b7\u03c2."
        },
        {
            "chapter": 26,
            "verse": 32,
            "name": "Matthew 26:32",
            "text": "\u03bc\u03b5\u03c4\u1f70 \u03b4\u1f72 \u03c4\u1f78 \u1f10\u03b3\u03b5\u03c1\u03b8\u1fc6\u03bd\u03b1\u03af \u03bc\u03b5 \u03c0\u03c1\u03bf\u03ac\u03be\u03c9 \u1f51\u03bc\u1fb6\u03c2 \u03b5\u1f30\u03c2 \u03c4\u1f74\u03bd \u0393\u03b1\u03bb\u03b9\u03bb\u03b1\u03af\u03b1\u03bd."
        },
        {
            "chapter": 26,
            "verse": 33,
            "name": "Matthew 26:33",
            "text": "\u1f00\u03c0\u03bf\u03ba\u03c1\u03b9\u03b8\u03b5\u1f76\u03c2 \u03b4\u1f72 \u1f41 \u03a0\u03ad\u03c4\u03c1\u03bf\u03c2 \u03b5\u1f36\u03c0\u03b5\u03bd \u03b1\u1f50\u03c4\u1ff7, \u0395\u1f30 \u03c0\u03ac\u03bd\u03c4\u03b5\u03c2 \u03c3\u03ba\u03b1\u03bd\u03b4\u03b1\u03bb\u03b9\u03c3\u03b8\u03ae\u03c3\u03bf\u03bd\u03c4\u03b1\u03b9 \u1f10\u03bd \u03c3\u03bf\u03af, \u1f10\u03b3\u1f7c \u03bf\u1f50\u03b4\u03ad\u03c0\u03bf\u03c4\u03b5 \u03c3\u03ba\u03b1\u03bd\u03b4\u03b1\u03bb\u03b9\u03c3\u03b8\u03ae\u03c3\u03bf\u03bc\u03b1\u03b9."
        },
        {
            "chapter": 26,
            "verse": 34,
            "name": "Matthew 26:34",
            "text": "\u1f14\u03c6\u03b7 \u03b1\u1f50\u03c4\u1ff7 \u1f41 \u1f38\u03b7\u03c3\u03bf\u1fe6\u03c2, \u1f08\u03bc\u1f74\u03bd \u03bb\u03ad\u03b3\u03c9 \u03c3\u03bf\u03b9 \u1f45\u03c4\u03b9 \u1f10\u03bd \u03c4\u03b1\u03cd\u03c4\u1fc3 \u03c4\u1fc7 \u03bd\u03c5\u03ba\u03c4\u1f76 \u03c0\u03c1\u1f76\u03bd \u1f00\u03bb\u03ad\u03ba\u03c4\u03bf\u03c1\u03b1 \u03c6\u03c9\u03bd\u1fc6\u03c3\u03b1\u03b9 \u03c4\u03c1\u1f76\u03c2 \u1f00\u03c0\u03b1\u03c1\u03bd\u03ae\u03c3\u1fc3 \u03bc\u03b5."
        },
        {
            "chapter": 26,
            "verse": 35,
            "name": "Matthew 26:35",
            "text": "\u03bb\u03ad\u03b3\u03b5\u03b9 \u03b1\u1f50\u03c4\u1ff7 \u1f41 \u03a0\u03ad\u03c4\u03c1\u03bf\u03c2, \u039a\u1f02\u03bd \u03b4\u03ad\u1fc3 \u03bc\u03b5 \u03c3\u1f7a\u03bd \u03c3\u03bf\u1f76 \u1f00\u03c0\u03bf\u03b8\u03b1\u03bd\u03b5\u1fd6\u03bd, \u03bf\u1f50 \u03bc\u03ae \u03c3\u03b5 \u1f00\u03c0\u03b1\u03c1\u03bd\u03ae\u03c3\u03bf\u03bc\u03b1\u03b9. \u1f41\u03bc\u03bf\u03af\u03c9\u03c2 \u03ba\u03b1\u1f76 \u03c0\u03ac\u03bd\u03c4\u03b5\u03c2 \u03bf\u1f31 \u03bc\u03b1\u03b8\u03b7\u03c4\u03b1\u1f76 \u03b5\u1f36\u03c0\u03bf\u03bd."
        },
        {
            "chapter": 26,
            "verse": 36,
            "name": "Matthew 26:36",
            "text": "\u03a4\u03cc\u03c4\u03b5 \u1f14\u03c1\u03c7\u03b5\u03c4\u03b1\u03b9 \u03bc\u03b5\u03c4\u1fbd \u03b1\u1f50\u03c4\u1ff6\u03bd \u1f41 \u1f38\u03b7\u03c3\u03bf\u1fe6\u03c2 \u03b5\u1f30\u03c2 \u03c7\u03c9\u03c1\u03af\u03bf\u03bd \u03bb\u03b5\u03b3\u03cc\u03bc\u03b5\u03bd\u03bf\u03bd \u0393\u03b5\u03b8\u03c3\u03b7\u03bc\u03b1\u03bd\u03b5\u1fd6, \u03ba\u03b1\u1f76 \u03bb\u03ad\u03b3\u03b5\u03b9 \u03c4\u03bf\u1fd6\u03c2 \u03bc\u03b1\u03b8\u03b7\u03c4\u03b1\u1fd6\u03c2, \u039a\u03b1\u03b8\u03af\u03c3\u03b1\u03c4\u03b5 \u03b1\u1f50\u03c4\u03bf\u1fe6, \u1f15\u03c9\u03c2 \u03bf\u1f57 \u1f00\u03c0\u03b5\u03bb\u03b8\u1f7c\u03bd \u1f10\u03ba\u03b5\u1fd6 \u03c0\u03c1\u03bf\u03c3\u03b5\u03cd\u03be\u03c9\u03bc\u03b1\u03b9."
        },
        {
            "chapter": 26,
            "verse": 37,
            "name": "Matthew 26:37",
            "text": "\u03ba\u03b1\u1f76 \u03c0\u03b1\u03c1\u03b1\u03bb\u03b1\u03b2\u1f7c\u03bd \u03c4\u1f78\u03bd \u03a0\u03ad\u03c4\u03c1\u03bf\u03bd \u03ba\u03b1\u1f76 \u03c4\u03bf\u1f7a\u03c2 \u03b4\u03cd\u03bf \u03c5\u1f31\u03bf\u1f7a\u03c2 \u0396\u03b5\u03b2\u03b5\u03b4\u03b1\u03af\u03bf\u03c5 \u1f24\u03c1\u03be\u03b1\u03c4\u03bf \u03bb\u03c5\u03c0\u03b5\u1fd6\u03c3\u03b8\u03b1\u03b9 \u03ba\u03b1\u1f76 \u1f00\u03b4\u03b7\u03bc\u03bf\u03bd\u03b5\u1fd6\u03bd."
        },
        {
            "chapter": 26,
            "verse": 38,
            "name": "Matthew 26:38",
            "text": "\u03c4\u03cc\u03c4\u03b5 \u03bb\u03ad\u03b3\u03b5\u03b9 \u03b1\u1f50\u03c4\u03bf\u1fd6\u03c2, \u03a0\u03b5\u03c1\u03af\u03bb\u03c5\u03c0\u03cc\u03c2 \u1f10\u03c3\u03c4\u03b9\u03bd \u1f21 \u03c8\u03c5\u03c7\u03ae \u03bc\u03bf\u03c5 \u1f15\u03c9\u03c2 \u03b8\u03b1\u03bd\u03ac\u03c4\u03bf\u03c5\u00b7 \u03bc\u03b5\u03af\u03bd\u03b1\u03c4\u03b5 \u1f67\u03b4\u03b5 \u03ba\u03b1\u1f76 \u03b3\u03c1\u03b7\u03b3\u03bf\u03c1\u03b5\u1fd6\u03c4\u03b5 \u03bc\u03b5\u03c4\u1fbd \u1f10\u03bc\u03bf\u1fe6."
        },
        {
            "chapter": 26,
            "verse": 39,
            "name": "Matthew 26:39",
            "text": "\u03ba\u03b1\u1f76 \u03c0\u03c1\u03bf\u03c3\u03b5\u03bb\u03b8\u1f7c\u03bd \u03bc\u03b9\u03ba\u03c1\u1f78\u03bd \u1f14\u03c0\u03b5\u03c3\u03b5\u03bd \u1f10\u03c0\u1f76 \u03c0\u03c1\u03cc\u03c3\u03c9\u03c0\u03bf\u03bd \u03b1\u1f50\u03c4\u03bf\u1fe6 \u03c0\u03c1\u03bf\u03c3\u03b5\u03c5\u03c7\u03cc\u03bc\u03b5\u03bd\u03bf\u03c2 \u03ba\u03b1\u1f76 \u03bb\u03ad\u03b3\u03c9\u03bd, \u03a0\u03ac\u03c4\u03b5\u03c1 [\u03bc\u03bf\u03c5,] \u03b5\u1f30 \u03b4\u03c5\u03bd\u03b1\u03c4\u03cc\u03bd \u1f10\u03c3\u03c4\u03b9\u03bd, \u03c0\u03b1\u03c1\u03b5\u03bb\u03b8\u03ac\u03c4\u03c9 \u1f00\u03c0\u1fbd \u1f10\u03bc\u03bf\u1fe6 \u03c4\u1f78 \u03c0\u03bf\u03c4\u03ae\u03c1\u03b9\u03bf\u03bd \u03c4\u03bf\u1fe6\u03c4\u03bf\u00b7 \u03c0\u03bb\u1f74\u03bd \u03bf\u1f50\u03c7 \u1f61\u03c2 \u1f10\u03b3\u1f7c \u03b8\u03ad\u03bb\u03c9, \u1f00\u03bb\u03bb\u1fbd \u1f61\u03c2 \u03c3\u03cd."
        },
        {
            "chapter": 26,
            "verse": 40,
            "name": "Matthew 26:40",
            "text": "\u03ba\u03b1\u1f76 \u1f14\u03c1\u03c7\u03b5\u03c4\u03b1\u03b9 \u03c0\u03c1\u1f78\u03c2 \u03c4\u03bf\u1f7a\u03c2 \u03bc\u03b1\u03b8\u03b7\u03c4\u1f70\u03c2 \u03ba\u03b1\u1f76 \u03b5\u1f51\u03c1\u03af\u03c3\u03ba\u03b5\u03b9 \u03b1\u1f50\u03c4\u03bf\u1f7a\u03c2 \u03ba\u03b1\u03b8\u03b5\u03cd\u03b4\u03bf\u03bd\u03c4\u03b1\u03c2, \u03ba\u03b1\u1f76 \u03bb\u03ad\u03b3\u03b5\u03b9 \u03c4\u1ff7 \u03a0\u03ad\u03c4\u03c1\u1ff3, \u039f\u1f55\u03c4\u03c9\u03c2 \u03bf\u1f50\u03ba \u1f30\u03c3\u03c7\u03cd\u03c3\u03b1\u03c4\u03b5 \u03bc\u03af\u03b1\u03bd \u1f65\u03c1\u03b1\u03bd \u03b3\u03c1\u03b7\u03b3\u03bf\u03c1\u1fc6\u03c3\u03b1\u03b9 \u03bc\u03b5\u03c4\u1fbd \u1f10\u03bc\u03bf\u1fe6;"
        },
        {
            "chapter": 26,
            "verse": 41,
            "name": "Matthew 26:41",
            "text": "\u03b3\u03c1\u03b7\u03b3\u03bf\u03c1\u03b5\u1fd6\u03c4\u03b5 \u03ba\u03b1\u1f76 \u03c0\u03c1\u03bf\u03c3\u03b5\u03cd\u03c7\u03b5\u03c3\u03b8\u03b5 \u1f35\u03bd\u03b1 \u03bc\u1f74 \u03b5\u1f30\u03c3\u03ad\u03bb\u03b8\u03b7\u03c4\u03b5 \u03b5\u1f30\u03c2 \u03c0\u03b5\u03b9\u03c1\u03b1\u03c3\u03bc\u03cc\u03bd. \u03c4\u1f78 \u03bc\u1f72\u03bd \u03c0\u03bd\u03b5\u1fe6\u03bc\u03b1 \u03c0\u03c1\u03cc\u03b8\u03c5\u03bc\u03bf\u03bd, \u1f21 \u03b4\u1f72 \u03c3\u1f70\u03c1\u03be \u1f00\u03c3\u03b8\u03b5\u03bd\u03ae\u03c2. "
        },
        {
            "chapter": 26,
            "verse": 42,
            "name": "Matthew 26:42",
            "text": " \u03a0\u03ac\u03bb\u03b9\u03bd \u1f10\u03ba \u03b4\u03b5\u03c5\u03c4\u03ad\u03c1\u03bf\u03c5 \u1f00\u03c0\u03b5\u03bb\u03b8\u1f7c\u03bd \u03c0\u03c1\u03bf\u03c3\u03b7\u03cd\u03be\u03b1\u03c4\u03bf \u03bb\u03ad\u03b3\u03c9\u03bd, \u03a0\u03ac\u03c4\u03b5\u03c1 \u03bc\u03bf\u03c5, \u03b5\u1f30 \u03bf\u1f50 \u03b4\u03cd\u03bd\u03b1\u03c4\u03b1\u03b9 \u03c4\u03bf\u1fe6\u03c4\u03bf \u03c0\u03b1\u03c1\u03b5\u03bb\u03b8\u03b5\u1fd6\u03bd \u1f10\u1f70\u03bd \u03bc\u1f74 \u03b1\u1f50\u03c4\u1f78 \u03c0\u03af\u03c9, \u03b3\u03b5\u03bd\u03b7\u03b8\u03ae\u03c4\u03c9 \u03c4\u1f78 \u03b8\u03ad\u03bb\u03b7\u03bc\u03ac \u03c3\u03bf\u03c5."
        },
        {
            "chapter": 26,
            "verse": 43,
            "name": "Matthew 26:43",
            "text": "\u03ba\u03b1\u1f76 \u1f10\u03bb\u03b8\u1f7c\u03bd \u03c0\u03ac\u03bb\u03b9\u03bd \u03b5\u1f57\u03c1\u03b5\u03bd \u03b1\u1f50\u03c4\u03bf\u1f7a\u03c2 \u03ba\u03b1\u03b8\u03b5\u03cd\u03b4\u03bf\u03bd\u03c4\u03b1\u03c2\u00b7 \u1f26\u03c3\u03b1\u03bd \u03b3\u1f70\u03c1 \u03b1\u1f50\u03c4\u1ff6\u03bd \u03bf\u1f31 \u1f40\u03c6\u03b8\u03b1\u03bb\u03bc\u03bf\u1f76 \u03b2\u03b5\u03b2\u03b1\u03c1\u03b7\u03bc\u03ad\u03bd\u03bf\u03b9."
        },
        {
            "chapter": 26,
            "verse": 44,
            "name": "Matthew 26:44",
            "text": "\u03ba\u03b1\u1f76 \u1f00\u03c6\u03b5\u1f76\u03c2 \u03b1\u1f50\u03c4\u03bf\u1f7a\u03c2 \u03c0\u03ac\u03bb\u03b9\u03bd \u1f00\u03c0\u03b5\u03bb\u03b8\u03ce\u03bd, \u03c0\u03c1\u03bf\u03c3\u03b7\u03cd\u03be\u03b1\u03c4\u03bf \u1f10\u03ba \u03c4\u03c1\u03af\u03c4\u03bf\u03c5, \u03c4\u1f78\u03bd \u03b1\u1f50\u03c4\u1f78\u03bd \u03bb\u03cc\u03b3\u03bf\u03bd \u03b5\u1f30\u03c0\u03ce\u03bd."
        },
        {
            "chapter": 26,
            "verse": 45,
            "name": "Matthew 26:45",
            "text": "\u03c4\u03cc\u03c4\u03b5 \u1f14\u03c1\u03c7\u03b5\u03c4\u03b1\u03b9 \u03c0\u03c1\u1f78\u03c2 \u03c4\u03bf\u1f7a\u03c2 \u03bc\u03b1\u03b8\u03b7\u03c4\u1f70\u03c2 \u03ba\u03b1\u1f76 \u03bb\u03ad\u03b3\u03b5\u03b9 \u03b1\u1f50\u03c4\u03bf\u1fd6\u03c2, \u039a\u03b1\u03b8\u03b5\u03cd\u03b4\u03b5\u03c4\u03b5 [\u03c4\u1f78] \u03bb\u03bf\u03b9\u03c0\u1f78\u03bd \u03ba\u03b1\u1f76 \u1f00\u03bd\u03b1\u03c0\u03b1\u03cd\u03b5\u03c3\u03b8\u03b5\u00b7 \u1f30\u03b4\u03bf\u1f7a \u1f24\u03b3\u03b3\u03b9\u03ba\u03b5\u03bd \u1f21 \u1f65\u03c1\u03b1, \u03ba\u03b1\u1f76 \u1f41 \u03c5\u1f31\u1f78\u03c2 \u03c4\u03bf\u1fe6 \u1f00\u03bd\u03b8\u03c1\u03ce\u03c0\u03bf\u03c5 \u03c0\u03b1\u03c1\u03b1\u03b4\u03af\u03b4\u03bf\u03c4\u03b1\u03b9 \u03b5\u1f30\u03c2 \u03c7\u03b5\u1fd6\u03c1\u03b1\u03c2 \u1f01\u03bc\u03b1\u03c1\u03c4\u03c9\u03bb\u1ff6\u03bd."
        },
        {
            "chapter": 26,
            "verse": 46,
            "name": "Matthew 26:46",
            "text": "\u1f10\u03b3\u03b5\u03af\u03c1\u03b5\u03c3\u03b8\u03b5 \u1f04\u03b3\u03c9\u03bc\u03b5\u03bd\u00b7 \u1f30\u03b4\u03bf\u1f7a \u1f24\u03b3\u03b3\u03b9\u03ba\u03b5\u03bd \u1f41 \u03c0\u03b1\u03c1\u03b1\u03b4\u03b9\u03b4\u03bf\u03cd\u03c2 \u03bc\u03b5. "
        },
        {
            "chapter": 26,
            "verse": 47,
            "name": "Matthew 26:47",
            "text": " \u039a\u03b1\u1f76 \u1f14\u03c4\u03b9 \u03b1\u1f50\u03c4\u03bf\u1fe6 \u03bb\u03b1\u03bb\u03bf\u1fe6\u03bd\u03c4\u03bf\u03c2, \u1f30\u03b4\u03bf\u1f7a \u1f38\u03bf\u03cd\u03b4\u03b1\u03c2 \u03b5\u1f37\u03c2 \u03c4\u1ff6\u03bd \u03b4\u03ce\u03b4\u03b5\u03ba\u03b1 \u1f26\u03bb\u03b8\u03b5\u03bd, \u03ba\u03b1\u1f76 \u03bc\u03b5\u03c4\u1fbd \u03b1\u1f50\u03c4\u03bf\u1fe6 \u1f44\u03c7\u03bb\u03bf\u03c2 \u03c0\u03bf\u03bb\u1f7a\u03c2 \u03bc\u03b5\u03c4\u1f70 \u03bc\u03b1\u03c7\u03b1\u03b9\u03c1\u1ff6\u03bd \u03ba\u03b1\u1f76 \u03be\u03cd\u03bb\u03c9\u03bd, \u1f00\u03c0\u1f78 \u03c4\u1ff6\u03bd \u1f00\u03c1\u03c7\u03b9\u03b5\u03c1\u03ad\u03c9\u03bd \u03ba\u03b1\u1f76 \u03c0\u03c1\u03b5\u03c3\u03b2\u03c5\u03c4\u03ad\u03c1\u03c9\u03bd \u03c4\u03bf\u1fe6 \u03bb\u03b1\u03bf\u1fe6."
        },
        {
            "chapter": 26,
            "verse": 48,
            "name": "Matthew 26:48",
            "text": "\u1f41 \u03b4\u1f72 \u03c0\u03b1\u03c1\u03b1\u03b4\u03b9\u03b4\u03bf\u1f7a\u03c2 \u03b1\u1f50\u03c4\u1f78\u03bd \u1f14\u03b4\u03c9\u03ba\u03b5\u03bd \u03b1\u1f50\u03c4\u03bf\u1fd6\u03c2 \u03c3\u03b7\u03bc\u03b5\u1fd6\u03bf\u03bd \u03bb\u03ad\u03b3\u03c9\u03bd, \u1f4b\u03bd \u1f02\u03bd \u03c6\u03b9\u03bb\u03ae\u03c3\u03c9, \u03b1\u1f50\u03c4\u03cc\u03c2 \u1f10\u03c3\u03c4\u03b9\u03bd\u00b7 \u03ba\u03c1\u03b1\u03c4\u03ae\u03c3\u03b1\u03c4\u03b5 \u03b1\u1f50\u03c4\u03cc\u03bd."
        },
        {
            "chapter": 26,
            "verse": 49,
            "name": "Matthew 26:49",
            "text": "\u03ba\u03b1\u1f76 \u03b5\u1f50\u03b8\u03ad\u03c9\u03c2 \u03c0\u03c1\u03bf\u03c3\u03b5\u03bb\u03b8\u1f7c\u03bd \u03c4\u1ff7 \u1f38\u03b7\u03c3\u03bf\u1fe6 \u03b5\u1f36\u03c0\u03b5\u03bd, \u03a7\u03b1\u1fd6\u03c1\u03b5 \u1fe5\u03b1\u03b2\u03b2\u03af, \u03ba\u03b1\u1f76 \u03ba\u03b1\u03c4\u03b5\u03c6\u03af\u03bb\u03b7\u03c3\u03b5\u03bd \u03b1\u1f50\u03c4\u03cc\u03bd."
        },
        {
            "chapter": 26,
            "verse": 50,
            "name": "Matthew 26:50",
            "text": "\u1f41 \u03b4\u1f72 \u1f38\u03b7\u03c3\u03bf\u1fe6\u03c2 \u03b5\u1f36\u03c0\u03b5\u03bd \u03b1\u1f50\u03c4\u1ff7, \u1f19\u03c4\u03b1\u1fd6\u03c1\u03b5, \u1f10\u03c6\u1fbd \u1f43 \u03c0\u03ac\u03c1\u03b5\u03b9; \u03c4\u03cc\u03c4\u03b5 \u03c0\u03c1\u03bf\u03c3\u03b5\u03bb\u03b8\u03cc\u03bd\u03c4\u03b5\u03c2 \u1f10\u03c0\u03ad\u03b2\u03b1\u03bb\u03bf\u03bd \u03c4\u1f70\u03c2 \u03c7\u03b5\u1fd6\u03c1\u03b1\u03c2 \u1f10\u03c0\u1f76 \u03c4\u1f78\u03bd \u1f38\u03b7\u03c3\u03bf\u1fe6\u03bd \u03ba\u03b1\u1f76 \u1f10\u03ba\u03c1\u03ac\u03c4\u03b7\u03c3\u03b1\u03bd \u03b1\u1f50\u03c4\u03cc\u03bd."
        },
        {
            "chapter": 26,
            "verse": 51,
            "name": "Matthew 26:51",
            "text": "\u03ba\u03b1\u1f76 \u1f30\u03b4\u03bf\u1f7a \u03b5\u1f37\u03c2 \u03c4\u1ff6\u03bd \u03bc\u03b5\u03c4\u1f70 \u1f38\u03b7\u03c3\u03bf\u1fe6 \u1f10\u03ba\u03c4\u03b5\u03af\u03bd\u03b1\u03c2 \u03c4\u1f74\u03bd \u03c7\u03b5\u1fd6\u03c1\u03b1 \u1f00\u03c0\u03ad\u03c3\u03c0\u03b1\u03c3\u03b5\u03bd \u03c4\u1f74\u03bd \u03bc\u03ac\u03c7\u03b1\u03b9\u03c1\u03b1\u03bd \u03b1\u1f50\u03c4\u03bf\u1fe6, \u03ba\u03b1\u1f76 \u03c0\u03b1\u03c4\u03ac\u03be\u03b1\u03c2 \u03c4\u1f78\u03bd \u03b4\u03bf\u1fe6\u03bb\u03bf\u03bd \u03c4\u03bf\u1fe6 \u1f00\u03c1\u03c7\u03b9\u03b5\u03c1\u03ad\u03c9\u03c2 \u1f00\u03c6\u03b5\u1fd6\u03bb\u03b5\u03bd \u03b1\u1f50\u03c4\u03bf\u1fe6 \u03c4\u1f78 \u1f60\u03c4\u03af\u03bf\u03bd."
        },
        {
            "chapter": 26,
            "verse": 52,
            "name": "Matthew 26:52",
            "text": "\u03c4\u03cc\u03c4\u03b5 \u03bb\u03ad\u03b3\u03b5\u03b9 \u03b1\u1f50\u03c4\u1ff7 \u1f41 \u1f38\u03b7\u03c3\u03bf\u1fe6\u03c2, \u1f08\u03c0\u03cc\u03c3\u03c4\u03c1\u03b5\u03c8\u03bf\u03bd \u03c4\u1f74\u03bd \u03bc\u03ac\u03c7\u03b1\u03b9\u03c1\u03ac\u03bd \u03c3\u03bf\u03c5 \u03b5\u1f30\u03c2 \u03c4\u1f78\u03bd \u03c4\u03cc\u03c0\u03bf\u03bd \u03b1\u1f50\u03c4\u1fc6\u03c2\u00b7 \u03c0\u03ac\u03bd\u03c4\u03b5\u03c2 \u03b3\u1f70\u03c1 \u03bf\u1f31 \u03bb\u03b1\u03b2\u03cc\u03bd\u03c4\u03b5\u03c2 \u03bc\u03ac\u03c7\u03b1\u03b9\u03c1\u03b1\u03bd \u1f10\u03bd \u03bc\u03b1\u03c7\u03b1\u03af\u03c1\u1fc3 \u1f00\u03c0\u03bf\u03bb\u03bf\u1fe6\u03bd\u03c4\u03b1\u03b9."
        },
        {
            "chapter": 26,
            "verse": 53,
            "name": "Matthew 26:53",
            "text": "\u1f22 \u03b4\u03bf\u03ba\u03b5\u1fd6\u03c2 \u1f45\u03c4\u03b9 \u03bf\u1f50 \u03b4\u03cd\u03bd\u03b1\u03bc\u03b1\u03b9 \u03c0\u03b1\u03c1\u03b1\u03ba\u03b1\u03bb\u03ad\u03c3\u03b1\u03b9 \u03c4\u1f78\u03bd \u03c0\u03b1\u03c4\u03ad\u03c1\u03b1 \u03bc\u03bf\u03c5, \u03ba\u03b1\u1f76 \u03c0\u03b1\u03c1\u03b1\u03c3\u03c4\u03ae\u03c3\u03b5\u03b9 \u03bc\u03bf\u03b9 \u1f04\u03c1\u03c4\u03b9 \u03c0\u03bb\u03b5\u03af\u03c9 \u03b4\u03ce\u03b4\u03b5\u03ba\u03b1 \u03bb\u03b5\u03b3\u03b5\u1ff6\u03bd\u03b1\u03c2 \u1f00\u03b3\u03b3\u03ad\u03bb\u03c9\u03bd;"
        },
        {
            "chapter": 26,
            "verse": 54,
            "name": "Matthew 26:54",
            "text": "\u03c0\u1ff6\u03c2 \u03bf\u1f56\u03bd \u03c0\u03bb\u03b7\u03c1\u03c9\u03b8\u1ff6\u03c3\u03b9\u03bd \u03b1\u1f31 \u03b3\u03c1\u03b1\u03c6\u03b1\u1f76 \u1f45\u03c4\u03b9 \u03bf\u1f55\u03c4\u03c9\u03c2 \u03b4\u03b5\u1fd6 \u03b3\u03b5\u03bd\u03ad\u03c3\u03b8\u03b1\u03b9; "
        },
        {
            "chapter": 26,
            "verse": 55,
            "name": "Matthew 26:55",
            "text": " \u1f18\u03bd \u1f10\u03ba\u03b5\u03af\u03bd\u1fc3 \u03c4\u1fc7 \u1f65\u03c1\u1fb3 \u03b5\u1f36\u03c0\u03b5\u03bd \u1f41 \u1f38\u03b7\u03c3\u03bf\u1fe6\u03c2 \u03c4\u03bf\u1fd6\u03c2 \u1f44\u03c7\u03bb\u03bf\u03b9\u03c2, \u1f69\u03c2 \u1f10\u03c0\u1f76 \u03bb\u1fc3\u03c3\u03c4\u1f74\u03bd \u1f10\u03be\u03ae\u03bb\u03b8\u03b1\u03c4\u03b5 \u03bc\u03b5\u03c4\u1f70 \u03bc\u03b1\u03c7\u03b1\u03b9\u03c1\u1ff6\u03bd \u03ba\u03b1\u1f76 \u03be\u03cd\u03bb\u03c9\u03bd \u03c3\u03c5\u03bb\u03bb\u03b1\u03b2\u03b5\u1fd6\u03bd \u03bc\u03b5; \u03ba\u03b1\u03b8\u1fbd \u1f21\u03bc\u03ad\u03c1\u03b1\u03bd [\u03c0\u03c1\u1f78\u03c2 \u1f51\u03bc\u1fb6\u03c2] \u1f10\u03bd \u03c4\u1ff7 \u1f31\u03b5\u03c1\u1ff7 \u1f10\u03ba\u03b1\u03b8\u03b5\u03b6\u03cc\u03bc\u03b7\u03bd \u03b4\u03b9\u03b4\u03ac\u03c3\u03ba\u03c9\u03bd, \u03ba\u03b1\u1f76 \u03bf\u1f50\u03ba \u1f10\u03ba\u03c1\u03b1\u03c4\u03ae\u03c3\u03b1\u03c4\u03ad \u03bc\u03b5."
        },
        {
            "chapter": 26,
            "verse": 56,
            "name": "Matthew 26:56",
            "text": "\u03c4\u03bf\u1fe6\u03c4\u03bf \u03b4\u1f72 \u1f45\u03bb\u03bf\u03bd \u03b3\u03ad\u03b3\u03bf\u03bd\u03b5\u03bd, \u1f35\u03bd\u03b1 \u03c0\u03bb\u03b7\u03c1\u03c9\u03b8\u1ff6\u03c3\u03b9\u03bd \u03b1\u1f31 \u03b3\u03c1\u03b1\u03c6\u03b1\u1f76 \u03c4\u1ff6\u03bd \u03c0\u03c1\u03bf\u03c6\u03b7\u03c4\u1ff6\u03bd. \u03c4\u03cc\u03c4\u03b5 \u03bf\u1f31 \u03bc\u03b1\u03b8\u03b7\u03c4\u03b1\u1f76 \u03c0\u03ac\u03bd\u03c4\u03b5\u03c2 \u1f00\u03c6\u03ad\u03bd\u03c4\u03b5\u03c2 \u03b1\u1f50\u03c4\u1f78\u03bd \u1f14\u03c6\u03c5\u03b3\u03bf\u03bd."
        },
        {
            "chapter": 26,
            "verse": 57,
            "name": "Matthew 26:57",
            "text": "\u039f\u1f31 \u03b4\u1f72 \u03ba\u03c1\u03b1\u03c4\u03ae\u03c3\u03b1\u03bd\u03c4\u03b5\u03c2 \u03c4\u1f78\u03bd \u1f38\u03b7\u03c3\u03bf\u1fe6\u03bd \u1f00\u03c0\u03ae\u03b3\u03b1\u03b3\u03bf\u03bd \u03c0\u03c1\u1f78\u03c2 \u039a\u03b1\u03ca\u03ac\u03c6\u03b1\u03bd \u03c4\u1f78\u03bd \u1f00\u03c1\u03c7\u03b9\u03b5\u03c1\u03ad\u03b1, \u1f45\u03c0\u03bf\u03c5 \u03bf\u1f31 \u03b3\u03c1\u03b1\u03bc\u03bc\u03b1\u03c4\u03b5\u1fd6\u03c2 \u03ba\u03b1\u1f76 \u03bf\u1f31 \u03c0\u03c1\u03b5\u03c3\u03b2\u03cd\u03c4\u03b5\u03c1\u03bf\u03b9 \u03c3\u03c5\u03bd\u03ae\u03c7\u03b8\u03b7\u03c3\u03b1\u03bd."
        },
        {
            "chapter": 26,
            "verse": 58,
            "name": "Matthew 26:58",
            "text": "\u1f41 \u03b4\u1f72 \u03a0\u03ad\u03c4\u03c1\u03bf\u03c2 \u1f20\u03ba\u03bf\u03bb\u03bf\u03cd\u03b8\u03b5\u03b9 \u03b1\u1f50\u03c4\u1ff7 \u1f00\u03c0\u1f78 \u03bc\u03b1\u03ba\u03c1\u03cc\u03b8\u03b5\u03bd \u1f15\u03c9\u03c2 \u03c4\u1fc6\u03c2 \u03b1\u1f50\u03bb\u1fc6\u03c2 \u03c4\u03bf\u1fe6 \u1f00\u03c1\u03c7\u03b9\u03b5\u03c1\u03ad\u03c9\u03c2, \u03ba\u03b1\u1f76 \u03b5\u1f30\u03c3\u03b5\u03bb\u03b8\u1f7c\u03bd \u1f14\u03c3\u03c9 \u1f10\u03ba\u03ac\u03b8\u03b7\u03c4\u03bf \u03bc\u03b5\u03c4\u1f70 \u03c4\u1ff6\u03bd \u1f51\u03c0\u03b7\u03c1\u03b5\u03c4\u1ff6\u03bd \u1f30\u03b4\u03b5\u1fd6\u03bd \u03c4\u1f78 \u03c4\u03ad\u03bb\u03bf\u03c2. "
        },
        {
            "chapter": 26,
            "verse": 59,
            "name": "Matthew 26:59",
            "text": " \u039f\u1f31 \u03b4\u1f72 \u1f00\u03c1\u03c7\u03b9\u03b5\u03c1\u03b5\u1fd6\u03c2 \u03ba\u03b1\u1f76 \u03c4\u1f78 \u03c3\u03c5\u03bd\u03ad\u03b4\u03c1\u03b9\u03bf\u03bd \u1f45\u03bb\u03bf\u03bd \u1f10\u03b6\u03ae\u03c4\u03bf\u03c5\u03bd \u03c8\u03b5\u03c5\u03b4\u03bf\u03bc\u03b1\u03c1\u03c4\u03c5\u03c1\u03af\u03b1\u03bd \u03ba\u03b1\u03c4\u1f70 \u03c4\u03bf\u1fe6 \u1f38\u03b7\u03c3\u03bf\u1fe6, \u1f45\u03c0\u03c9\u03c2 \u03b1\u1f50\u03c4\u1f78\u03bd \u03b8\u03b1\u03bd\u03b1\u03c4\u03ce\u03c3\u03bf\u03c5\u03c3\u03b9\u03bd,"
        },
        {
            "chapter": 26,
            "verse": 60,
            "name": "Matthew 26:60",
            "text": "\u03ba\u03b1\u1f76 \u03bf\u1f50\u03c7 \u03b5\u1f57\u03c1\u03bf\u03bd, \u03c0\u03bf\u03bb\u03bb\u1ff6\u03bd \u03c0\u03c1\u03bf\u03c3\u03b5\u03bb\u03b8\u03cc\u03bd\u03c4\u03c9\u03bd \u03c8\u03b5\u03c5\u03b4\u03bf\u03bc\u03b1\u03c1\u03c4\u03cd\u03c1\u03c9\u03bd\u00b7 \u1f55\u03c3\u03c4\u03b5\u03c1\u03bf\u03bd \u03b4\u1f72 \u03c0\u03c1\u03bf\u03c3\u03b5\u03bb\u03b8\u03cc\u03bd\u03c4\u03b5\u03c2 \u03b4\u03cd\u03bf"
        },
        {
            "chapter": 26,
            "verse": 61,
            "name": "Matthew 26:61",
            "text": "\u03b5\u1f36\u03c0\u03bf\u03bd, \u039f\u1f57\u03c4\u03bf\u03c2 \u1f14\u03c6\u03b7, \u0394\u03cd\u03bd\u03b1\u03bc\u03b1\u03b9 \u03ba\u03b1\u03c4\u03b1\u03bb\u1fe6\u03c3\u03b1\u03b9 \u03c4\u1f78\u03bd \u03bd\u03b1\u1f78\u03bd \u03c4\u03bf\u1fe6 \u03b8\u03b5\u03bf\u1fe6, \u03ba\u03b1\u1f76 \u03b4\u03b9\u1f70 \u03c4\u03c1\u03b9\u1ff6\u03bd \u1f21\u03bc\u03b5\u03c1\u1ff6\u03bd \u03bf\u1f30\u03ba\u03bf\u03b4\u03bf\u03bc\u1fc6\u03c3\u03b1\u03b9."
        },
        {
            "chapter": 26,
            "verse": 62,
            "name": "Matthew 26:62",
            "text": "\u03ba\u03b1\u1f76 \u1f00\u03bd\u03b1\u03c3\u03c4\u1f70\u03c2 \u1f41 \u1f00\u03c1\u03c7\u03b9\u03b5\u03c1\u03b5\u1f7a\u03c2 \u03b5\u1f36\u03c0\u03b5\u03bd \u03b1\u1f50\u03c4\u1ff7, \u039f\u1f50\u03b4\u1f72\u03bd \u1f00\u03c0\u03bf\u03ba\u03c1\u03af\u03bd\u1fc3; \u03c4\u03af \u03bf\u1f57\u03c4\u03bf\u03af \u03c3\u03bf\u03c5 \u03ba\u03b1\u03c4\u03b1\u03bc\u03b1\u03c1\u03c4\u03c5\u03c1\u03bf\u1fe6\u03c3\u03b9\u03bd;"
        },
        {
            "chapter": 26,
            "verse": 63,
            "name": "Matthew 26:63",
            "text": "\u1f41 \u03b4\u1f72 \u1f38\u03b7\u03c3\u03bf\u1fe6\u03c2, \u1f10\u03c3\u03b9\u03ce\u03c0\u03b1. \u03ba\u03b1\u1f76 \u1f41 \u1f00\u03c1\u03c7\u03b9\u03b5\u03c1\u03b5\u1f7a\u03c2 \u03b5\u1f36\u03c0\u03b5\u03bd \u03b1\u1f50\u03c4\u1ff7, \u1f18\u03be\u03bf\u03c1\u03ba\u03af\u03b6\u03c9 \u03c3\u03b5 \u03ba\u03b1\u03c4\u1f70 \u03c4\u03bf\u1fe6 \u03b8\u03b5\u03bf\u1fe6 \u03c4\u03bf\u1fe6 \u03b6\u1ff6\u03bd\u03c4\u03bf\u03c2, \u1f35\u03bd\u03b1 \u1f21\u03bc\u1fd6\u03bd \u03b5\u1f34\u03c0\u1fc3\u03c2 \u03b5\u1f30 \u03c3\u1f7a \u03b5\u1f36 \u1f41 \u03c7\u03c1\u03b9\u03c3\u03c4\u1f78\u03c2 \u1f41 \u03c5\u1f31\u1f78\u03c2 \u03c4\u03bf\u1fe6 \u03b8\u03b5\u03bf\u1fe6."
        },
        {
            "chapter": 26,
            "verse": 64,
            "name": "Matthew 26:64",
            "text": "\u03bb\u03ad\u03b3\u03b5\u03b9 \u03b1\u1f50\u03c4\u1ff7 \u1f41 \u1f38\u03b7\u03c3\u03bf\u1fe6\u03c2, \u03a3\u1f7a \u03b5\u1f36\u03c0\u03b1\u03c2\u00b7 \u03c0\u03bb\u1f74\u03bd \u03bb\u03ad\u03b3\u03c9 \u1f51\u03bc\u1fd6\u03bd, \u1f00\u03c0\u1fbd \u1f04\u03c1\u03c4\u03b9 \u1f44\u03c8\u03b5\u03c3\u03b8\u03b5 \u03c4\u1f78\u03bd \u03c5\u1f31\u1f78\u03bd \u03c4\u03bf\u1fe6 \u1f00\u03bd\u03b8\u03c1\u03ce\u03c0\u03bf\u03c5 \u03ba\u03b1\u03b8\u03ae\u03bc\u03b5\u03bd\u03bf\u03bd \u1f10\u03ba \u03b4\u03b5\u03be\u03b9\u1ff6\u03bd \u03c4\u1fc6\u03c2 \u03b4\u03c5\u03bd\u03ac\u03bc\u03b5\u03c9\u03c2 \u03ba\u03b1\u1f76 \u1f10\u03c1\u03c7\u03cc\u03bc\u03b5\u03bd\u03bf\u03bd \u1f10\u03c0\u1f76 \u03c4\u1ff6\u03bd \u03bd\u03b5\u03c6\u03b5\u03bb\u1ff6\u03bd \u03c4\u03bf\u1fe6 \u03bf\u1f50\u03c1\u03b1\u03bd\u03bf\u1fe6."
        },
        {
            "chapter": 26,
            "verse": 65,
            "name": "Matthew 26:65",
            "text": "\u03c4\u03cc\u03c4\u03b5 \u1f41 \u1f00\u03c1\u03c7\u03b9\u03b5\u03c1\u03b5\u1f7a\u03c2 \u03b4\u03b9\u03ad\u1fe4\u1fe5\u03b7\u03be\u03b5\u03bd \u03c4\u1f70 \u1f31\u03bc\u03ac\u03c4\u03b9\u03b1 \u03b1\u1f50\u03c4\u03bf\u1fe6 \u03bb\u03ad\u03b3\u03c9\u03bd, \u1f18\u03b2\u03bb\u03b1\u03c3\u03c6\u03ae\u03bc\u03b7\u03c3\u03b5\u03bd\u00b7 \u03c4\u03af \u1f14\u03c4\u03b9 \u03c7\u03c1\u03b5\u03af\u03b1\u03bd \u1f14\u03c7\u03bf\u03bc\u03b5\u03bd \u03bc\u03b1\u03c1\u03c4\u03cd\u03c1\u03c9\u03bd; \u1f34\u03b4\u03b5 \u03bd\u1fe6\u03bd \u1f20\u03ba\u03bf\u03cd\u03c3\u03b1\u03c4\u03b5 \u03c4\u1f74\u03bd \u03b2\u03bb\u03b1\u03c3\u03c6\u03b7\u03bc\u03af\u03b1\u03bd."
        },
        {
            "chapter": 26,
            "verse": 66,
            "name": "Matthew 26:66",
            "text": "\u03c4\u03af \u1f51\u03bc\u1fd6\u03bd \u03b4\u03bf\u03ba\u03b5\u1fd6; \u03bf\u1f31 \u03b4\u1f72 \u1f00\u03c0\u03bf\u03ba\u03c1\u03b9\u03b8\u03ad\u03bd\u03c4\u03b5\u03c2 \u03b5\u1f36\u03c0\u03bf\u03bd, \u1f1c\u03bd\u03bf\u03c7\u03bf\u03c2 \u03b8\u03b1\u03bd\u03ac\u03c4\u03bf\u03c5 \u1f10\u03c3\u03c4\u03af\u03bd."
        },
        {
            "chapter": 26,
            "verse": 67,
            "name": "Matthew 26:67",
            "text": "\u03c4\u03cc\u03c4\u03b5 \u1f10\u03bd\u03ad\u03c0\u03c4\u03c5\u03c3\u03b1\u03bd \u03b5\u1f30\u03c2 \u03c4\u1f78 \u03c0\u03c1\u03cc\u03c3\u03c9\u03c0\u03bf\u03bd \u03b1\u1f50\u03c4\u03bf\u1fe6 \u03ba\u03b1\u1f76 \u1f10\u03ba\u03bf\u03bb\u03ac\u03c6\u03b9\u03c3\u03b1\u03bd \u03b1\u1f50\u03c4\u03cc\u03bd\u00b7 \u03bf\u1f31 \u03b4\u1f72 \u1f10\u03c1\u03ac\u03c0\u03b9\u03c3\u03b1\u03bd"
        },
        {
            "chapter": 26,
            "verse": 68,
            "name": "Matthew 26:68",
            "text": "\u03bb\u03ad\u03b3\u03bf\u03bd\u03c4\u03b5\u03c2, \u03a0\u03c1\u03bf\u03c6\u03ae\u03c4\u03b5\u03c5\u03c3\u03bf\u03bd \u1f21\u03bc\u1fd6\u03bd, \u03c7\u03c1\u03b9\u03c3\u03c4\u03ad, \u03c4\u03af\u03c2 \u1f10\u03c3\u03c4\u03b9\u03bd \u1f41 \u03c0\u03b1\u03af\u03c3\u03b1\u03c2 \u03c3\u03b5; "
        },
        {
            "chapter": 26,
            "verse": 69,
            "name": "Matthew 26:69",
            "text": " \u1f49 \u03b4\u1f72 \u03a0\u03ad\u03c4\u03c1\u03bf\u03c2 \u1f10\u03ba\u03ac\u03b8\u03b7\u03c4\u03bf \u1f14\u03be\u03c9 \u1f10\u03bd \u03c4\u1fc7 \u03b1\u1f50\u03bb\u1fc7\u00b7 \u03ba\u03b1\u1f76 \u03c0\u03c1\u03bf\u03c3\u1fc6\u03bb\u03b8\u03b5\u03bd \u03b1\u1f50\u03c4\u1ff7 \u03bc\u03af\u03b1 \u03c0\u03b1\u03b9\u03b4\u03af\u03c3\u03ba\u03b7 \u03bb\u03ad\u03b3\u03bf\u03c5\u03c3\u03b1, \u039a\u03b1\u1f76 \u03c3\u1f7a \u1f26\u03c3\u03b8\u03b1 \u03bc\u03b5\u03c4\u1f70 \u1f38\u03b7\u03c3\u03bf\u1fe6 \u03c4\u03bf\u1fe6 \u0393\u03b1\u03bb\u03b9\u03bb\u03b1\u03af\u03bf\u03c5."
        },
        {
            "chapter": 26,
            "verse": 70,
            "name": "Matthew 26:70",
            "text": "\u1f41 \u03b4\u1f72 \u1f20\u03c1\u03bd\u03ae\u03c3\u03b1\u03c4\u03bf \u1f14\u03bc\u03c0\u03c1\u03bf\u03c3\u03b8\u03b5\u03bd \u03c0\u03ac\u03bd\u03c4\u03c9\u03bd \u03bb\u03ad\u03b3\u03c9\u03bd, \u039f\u1f50\u03ba \u03bf\u1f36\u03b4\u03b1 \u03c4\u03af \u03bb\u03ad\u03b3\u03b5\u03b9\u03c2."
        },
        {
            "chapter": 26,
            "verse": 71,
            "name": "Matthew 26:71",
            "text": "\u1f10\u03be\u03b5\u03bb\u03b8\u03cc\u03bd\u03c4\u03b1 \u03b4\u1f72 \u03b5\u1f30\u03c2 \u03c4\u1f78\u03bd \u03c0\u03c5\u03bb\u1ff6\u03bd\u03b1 \u03b5\u1f36\u03b4\u03b5\u03bd \u03b1\u1f50\u03c4\u1f78\u03bd \u1f04\u03bb\u03bb\u03b7, \u03ba\u03b1\u1f76 \u03bb\u03ad\u03b3\u03b5\u03b9 \u03c4\u03bf\u1fd6\u03c2 \u1f10\u03ba\u03b5\u1fd6, \u039a\u03b1\u1f76 \u03bf\u1f57\u03c4\u03bf\u03c2 \u1f26\u03bd \u03bc\u03b5\u03c4\u1f70 \u1f38\u03b7\u03c3\u03bf\u1fe6 \u03c4\u03bf\u1fe6 \u039d\u03b1\u03b6\u03c9\u03c1\u03b1\u03af\u03bf\u03c5."
        },
        {
            "chapter": 26,
            "verse": 72,
            "name": "Matthew 26:72",
            "text": "\u03ba\u03b1\u1f76 \u03c0\u03ac\u03bb\u03b9\u03bd \u1f20\u03c1\u03bd\u03ae\u03c3\u03b1\u03c4\u03bf \u03bc\u03b5\u03c4\u1f70 \u1f45\u03c1\u03ba\u03bf\u03c5 \u1f45\u03c4\u03b9 \u039f\u1f50\u03ba \u03bf\u1f36\u03b4\u03b1 \u03c4\u1f78\u03bd \u1f04\u03bd\u03b8\u03c1\u03c9\u03c0\u03bf\u03bd."
        },
        {
            "chapter": 26,
            "verse": 73,
            "name": "Matthew 26:73",
            "text": "\u03bc\u03b5\u03c4\u1f70 \u03bc\u03b9\u03ba\u03c1\u1f78\u03bd \u03b4\u1f72 \u03c0\u03c1\u03bf\u03c3\u03b5\u03bb\u03b8\u03cc\u03bd\u03c4\u03b5\u03c2 \u03bf\u1f31 \u1f11\u03c3\u03c4\u1ff6\u03c4\u03b5\u03c2 \u03b5\u1f36\u03c0\u03bf\u03bd \u03c4\u1ff7 \u03a0\u03ad\u03c4\u03c1\u1ff3, \u1f08\u03bb\u03b7\u03b8\u1ff6\u03c2 \u03ba\u03b1\u1f76 \u03c3\u1f7a \u1f10\u03be \u03b1\u1f50\u03c4\u1ff6\u03bd \u03b5\u1f36\u00b7 \u03ba\u03b1\u1f76 \u03b3\u1f70\u03c1 \u1f21 \u03bb\u03b1\u03bb\u03b9\u03ac \u03c3\u03bf\u03c5 \u03b4\u1fc6\u03bb\u03cc\u03bd \u03c3\u03b5 \u03c0\u03bf\u03b9\u03b5\u1fd6."
        },
        {
            "chapter": 26,
            "verse": 74,
            "name": "Matthew 26:74",
            "text": "\u03c4\u03cc\u03c4\u03b5 \u1f24\u03c1\u03be\u03b1\u03c4\u03bf \u03ba\u03b1\u03c4\u03b1\u03b8\u03b5\u03bc\u03b1\u03c4\u03af\u03b6\u03b5\u03b9\u03bd \u03ba\u03b1\u1f76 \u1f40\u03bc\u03bd\u03cd\u03b5\u03b9\u03bd \u1f45\u03c4\u03b9 \u039f\u1f50\u03ba \u03bf\u1f36\u03b4\u03b1 \u03c4\u1f78\u03bd \u1f04\u03bd\u03b8\u03c1\u03c9\u03c0\u03bf\u03bd. \u03ba\u03b1\u1f76 \u03b5\u1f50\u03b8\u1f7a\u03c2 \u1f00\u03bb\u03ad\u03ba\u03c4\u03c9\u03c1 \u1f10\u03c6\u03ce\u03bd\u03b7\u03c3\u03b5\u03bd."
        },
        {
            "chapter": 26,
            "verse": 75,
            "name": "Matthew 26:75",
            "text": "\u03ba\u03b1\u1f76 \u1f10\u03bc\u03bd\u03ae\u03c3\u03b8\u03b7 \u1f41 \u03a0\u03ad\u03c4\u03c1\u03bf\u03c2 \u03c4\u03bf\u1fe6 \u1fe5\u03ae\u03bc\u03b1\u03c4\u03bf\u03c2 \u1f38\u03b7\u03c3\u03bf\u1fe6 \u03b5\u1f30\u03c1\u03b7\u03ba\u03cc\u03c4\u03bf\u03c2 \u1f45\u03c4\u03b9 \u03a0\u03c1\u1f76\u03bd \u1f00\u03bb\u03ad\u03ba\u03c4\u03bf\u03c1\u03b1 \u03c6\u03c9\u03bd\u1fc6\u03c3\u03b1\u03b9 \u03c4\u03c1\u1f76\u03c2 \u1f00\u03c0\u03b1\u03c1\u03bd\u03ae\u03c3\u1fc3 \u03bc\u03b5\u00b7 \u03ba\u03b1\u1f76 \u1f10\u03be\u03b5\u03bb\u03b8\u1f7c\u03bd \u1f14\u03be\u03c9 \u1f14\u03ba\u03bb\u03b1\u03c5\u03c3\u03b5\u03bd \u03c0\u03b9\u03ba\u03c1\u1ff6\u03c2.   "
        }
    ]
}