{
    "translation": "Open English Bible (US Spelling)",
    "abbreviation": "oeb",
    "lang": "en",
    "language": "English",
    "direction": "LTR",
    "encoding": "UTF-8",
    "book_nr": 4,
    "book_name": "Numbers",
    "chapter": 14,
    "name": "Numbers 14",
    "verses": [
        {
            "chapter": 14,
            "verse": 1,
            "name": "Numbers 14:1",
            "text": ""
        },
        {
            "chapter": 14,
            "verse": 2,
            "name": "Numbers 14:2",
            "text": ""
        },
        {
            "chapter": 14,
            "verse": 3,
            "name": "Numbers 14:3",
            "text": ""
        },
        {
            "chapter": 14,
            "verse": 4,
            "name": "Numbers 14:4",
            "text": ""
        },
        {
            "chapter": 14,
            "verse": 5,
            "name": "Numbers 14:5",
            "text": ""
        },
        {
            "chapter": 14,
            "verse": 6,
            "name": "Numbers 14:6",
            "text": ""
        },
        {
            "chapter": 14,
            "verse": 7,
            "name": "Numbers 14:7",
            "text": ""
        },
        {
            "chapter": 14,
            "verse": 8,
            "name": "Numbers 14:8",
            "text": ""
        },
        {
            "chapter": 14,
            "verse": 9,
            "name": "Numbers 14:9",
            "text": ""
        },
        {
            "chapter": 14,
            "verse": 10,
            "name": "Numbers 14:10",
            "text": ""
        },
        {
            "chapter": 14,
            "verse": 11,
            "name": "Numbers 14:11",
            "text": ""
        },
        {
            "chapter": 14,
            "verse": 12,
            "name": "Numbers 14:12",
            "text": ""
        },
        {
            "chapter": 14,
            "verse": 13,
            "name": "Numbers 14:13",
            "text": ""
        },
        {
            "chapter": 14,
            "verse": 14,
            "name": "Numbers 14:14",
            "text": ""
        },
        {
            "chapter": 14,
            "verse": 15,
            "name": "Numbers 14:15",
            "text": ""
        },
        {
            "chapter": 14,
            "verse": 16,
            "name": "Numbers 14:16",
            "text": ""
        },
        {
            "chapter": 14,
            "verse": 17,
            "name": "Numbers 14:17",
            "text": ""
        },
        {
            "chapter": 14,
            "verse": 18,
            "name": "Numbers 14:18",
            "text": ""
        },
        {
            "chapter": 14,
            "verse": 19,
            "name": "Numbers 14:19",
            "text": ""
        },
        {
            "chapter": 14,
            "verse": 20,
            "name": "Numbers 14:20",
            "text": ""
        },
        {
            "chapter": 14,
            "verse": 21,
            "name": "Numbers 14:21",
            "text": ""
        },
        {
            "chapter": 14,
            "verse": 22,
            "name": "Numbers 14:22",
            "text": ""
        },
        {
            "chapter": 14,
            "verse": 23,
            "name": "Numbers 14:23",
            "text": ""
        },
        {
            "chapter": 14,
            "verse": 24,
            "name": "Numbers 14:24",
            "text": ""
        },
        {
            "chapter": 14,
            "verse": 25,
            "name": "Numbers 14:25",
            "text": ""
        },
        {
            "chapter": 14,
            "verse": 26,
            "name": "Numbers 14:26",
            "text": ""
        },
        {
            "chapter": 14,
            "verse": 27,
            "name": "Numbers 14:27",
            "text": ""
        },
        {
            "chapter": 14,
            "verse": 28,
            "name": "Numbers 14:28",
            "text": ""
        },
        {
            "chapter": 14,
            "verse": 29,
            "name": "Numbers 14:29",
            "text": ""
        },
        {
            "chapter": 14,
            "verse": 30,
            "name": "Numbers 14:30",
            "text": ""
        },
        {
            "chapter": 14,
            "verse": 31,
            "name": "Numbers 14:31",
            "text": ""
        },
        {
            "chapter": 14,
            "verse": 32,
            "name": "Numbers 14:32",
            "text": ""
        },
        {
            "chapter": 14,
            "verse": 33,
            "name": "Numbers 14:33",
            "text": ""
        },
        {
            "chapter": 14,
            "verse": 34,
            "name": "Numbers 14:34",
            "text": ""
        },
        {
            "chapter": 14,
            "verse": 35,
            "name": "Numbers 14:35",
            "text": ""
        },
        {
            "chapter": 14,
            "verse": 36,
            "name": "Numbers 14:36",
            "text": ""
        },
        {
            "chapter": 14,
            "verse": 37,
            "name": "Numbers 14:37",
            "text": ""
        },
        {
            "chapter": 14,
            "verse": 38,
            "name": "Numbers 14:38",
            "text": ""
        },
        {
            "chapter": 14,
            "verse": 39,
            "name": "Numbers 14:39",
            "text": ""
        },
        {
            "chapter": 14,
            "verse": 40,
            "name": "Numbers 14:40",
            "text": ""
        },
        {
            "chapter": 14,
            "verse": 41,
            "name": "Numbers 14:41",
            "text": ""
        },
        {
            "chapter": 14,
            "verse": 42,
            "name": "Numbers 14:42",
            "text": ""
        },
        {
            "chapter": 14,
            "verse": 43,
            "name": "Numbers 14:43",
            "text": ""
        },
        {
            "chapter": 14,
            "verse": 44,
            "name": "Numbers 14:44",
            "text": ""
        },
        {
            "chapter": 14,
            "verse": 45,
            "name": "Numbers 14:45",
            "text": ""
        }
    ]
}