{
    "translation": "Haitian Creole Bible",
    "abbreviation": "haitian",
    "lang": "ht",
    "language": "Haitian Creole",
    "direction": "LTR",
    "encoding": "UTF-8",
    "book_nr": 36,
    "book_name": "Zephaniah",
    "chapter": 1,
    "name": "Zephaniah 1",
    "verses": [
        {
            "chapter": 1,
            "verse": 1,
            "name": "Zephaniah 1:1",
            "text": "Men mesaj Sey\u00e8 a te bay Sofoni sou r\u00e8y Jozyas, pitit Amon an, ki te wa peyi Jida. Sofoni te pitit Kouchi. Kouchi te pitit Gedalya. Gedalya sa a te pitit Amarya ki li menm te pitit wa Ezekyas."
        },
        {
            "chapter": 1,
            "verse": 2,
            "name": "Zephaniah 1:2",
            "text": "Sey\u00e8 a di konsa: -Mwen pral detwi d\u00e8nye bagay sou lat\u00e8."
        },
        {
            "chapter": 1,
            "verse": 3,
            "name": "Zephaniah 1:3",
            "text": "Mwen pral detwi tout moun, tout b\u00e8t, tout zwezo nan sy\u00e8l la ak tout pwason nan lanm\u00e8, mechan yo ansanm ak tou sa k'ap f\u00e8 yo tonbe nan peche. Mwen pral detwi tout moun, mwen p'ap kite yonn sou lat\u00e8. Se mwen menm, Sey\u00e8 a, ki di sa."
        },
        {
            "chapter": 1,
            "verse": 4,
            "name": "Zephaniah 1:4",
            "text": "Mwen pral kraze moun peyi Jida yo ansanm ak moun ki rete lavil Jerizal\u00e8m yo anba men m'. Mwen pral dispar\u00e8t d\u00e8nye kras zid\u00f2l Baal nan peyi a. Pesonn p'ap janm chonje pr\u00e8t k'ap s\u00e8vi l' yo ank\u00f2."
        },
        {
            "chapter": 1,
            "verse": 5,
            "name": "Zephaniah 1:5",
            "text": "Mwen pral dispar\u00e8t d\u00e8nye moun k'ap moute sou teras anwo kay pou adore sol\u00e8y, lalin ak zetwal nan sy\u00e8l la. M'ap detwi moun k'ap pran non mwen mete ansanm ak non zid\u00f2l Milk\u00f2m lan pou f\u00e8 s\u00e8man."
        },
        {
            "chapter": 1,
            "verse": 6,
            "name": "Zephaniah 1:6",
            "text": "M'ap detwi tout moun ki vire do ban mwen, ki pa koute paw\u00f2l mwen yo, ki pa vin mande m' kons\u00e8y ank\u00f2."
        },
        {
            "chapter": 1,
            "verse": 7,
            "name": "Zephaniah 1:7",
            "text": "Jou pou Sey\u00e8 a vin jije a pa lwen rive! Se pou tout moun pe bouch yo devan Sey\u00e8 a. Sey\u00e8 a ap pare pou li f\u00e8 gwo s\u00e8vis pou touye b\u00e8t. Li chwazi moun l'ap envite yo."
        },
        {
            "chapter": 1,
            "verse": 8,
            "name": "Zephaniah 1:8",
            "text": "Jou gwo s\u00e8vis ofrann b\u00e8t sa a, m'ap pini tout gwo ch\u00e8f yo, tout pitit wa yo ansanm ak tout moun k'ap kopye sou moun l\u00f2t nasyon yo. Se Sey\u00e8 a menm ki di sa."
        },
        {
            "chapter": 1,
            "verse": 9,
            "name": "Zephaniah 1:9",
            "text": "M'ap pini tout moun k'ap f\u00e8 s\u00e8vis tankou moun l\u00f2t nasyon yo. Wi, jou sa a, m'ap pini tout moun k'ap v\u00f2l\u00f2, k'ap touye moun pou yo ka plen tanp zid\u00f2l yo ak sa yo pran."
        },
        {
            "chapter": 1,
            "verse": 10,
            "name": "Zephaniah 1:10",
            "text": "Se mwen menm Sey\u00e8 a k'ap pale toujou. Jou sa a n'a tande gwo r\u00e8l b\u00f2 P\u00f2tay Pwason nan lavil Jerizal\u00e8m. N'a tande moun ap plenn byen f\u00f2 nan katye n\u00e8f lavil la. N'a tande yon gwo deblozay pete sou ti m\u00f2n yo."
        },
        {
            "chapter": 1,
            "verse": 11,
            "name": "Zephaniah 1:11",
            "text": "Nou menm ki rete anba lavil, rele byen f\u00f2 paske tout moun ki t'ap f\u00e8 trafik yo pral mouri. Wi, yo pral dispar\u00e8t tout moun ki t'ap f\u00e8 lajan sou t\u00e8t moun nan k\u00f2m\u00e8s."
        },
        {
            "chapter": 1,
            "verse": 12,
            "name": "Zephaniah 1:12",
            "text": "L\u00e8 sa a, men sa k'ap rive. M'ap limen lanp pou m' fouye lavil Jerizal\u00e8m. M'ap pini tout moun ki chita chita yo tou dousman, epi k'ap di nan k\u00e8 yo: Bondye p'ap f\u00e8 anyen."
        },
        {
            "chapter": 1,
            "verse": 13,
            "name": "Zephaniah 1:13",
            "text": "Se sa yo kw\u00e8! Y'ap piye tout rich\u00e8s yo, y'ap kraze tout kay yo. Y'ap bati kay, men yo p'ap menm gen tan antre ladan yo. Y'ap plante pye rezen, men yo p'ap menm gen tan pran fre diven an."
        },
        {
            "chapter": 1,
            "verse": 14,
            "name": "Zephaniah 1:14",
            "text": "Wi, gwo jou Sey\u00e8 a pa lwen rive. Sa pral yon gwo jou vre. Li pa lwen rive. L'ap rive byen vit. Jou sa a, sa pral r\u00e8d n\u00e8t! Ata s\u00f2lda ki pi vanyan yo pral rele anmwe."
        },
        {
            "chapter": 1,
            "verse": 15,
            "name": "Zephaniah 1:15",
            "text": "Jou sa a pral yon jou dechennen, yon jou lafliksyon ak k\u00e8 sere, yon jou kraze brize, yon jou k'ap f\u00e8 nw\u00e8 kou lank, yon jou van ak gwo nwaj nwa ap plen sy\u00e8l la."
        },
        {
            "chapter": 1,
            "verse": 16,
            "name": "Zephaniah 1:16",
            "text": "Yon jou twonp\u00e8t ap k\u00f2nen, s\u00f2lda ap rele pou yo gen kouray pou y' al atake lavil ki gen gwo miray ranpa ak f\u00f2 byen wo nan chak kwen pou pwoteje yo."
        },
        {
            "chapter": 1,
            "verse": 17,
            "name": "Zephaniah 1:17",
            "text": "Sey\u00e8 a te di ank\u00f2: -Mwen pral manyen ak l\u00e8z\u00f2m! Yo pral tatonnen tankou av\u00e8g, paske yo te peche kont Sey\u00e8 a. San yo pral koule kou dlo, kadav yo pral pouri tankou fatra."
        },
        {
            "chapter": 1,
            "verse": 18,
            "name": "Zephaniah 1:18",
            "text": "Jou Sey\u00e8 a pral move sou yo a, ni lajan yo ni l\u00f2 yo p'ap ka sove yo. K\u00f2l\u00e8 li tankou yon dife k'ap boule tout t\u00e8 a, paske yon s\u00e8l kou a, l'ap dispar\u00e8t tout moun ki rete sou lat\u00e8. L'ap fini ak yo.  "
        }
    ]
}