{
    "translation": "Catholic Public Domain Version",
    "abbreviation": "cpdv",
    "lang": "en",
    "language": "English",
    "direction": "LTR",
    "encoding": "UTF-8",
    "book_nr": 19,
    "book_name": "Psalms",
    "chapter": 20,
    "name": "Psalms 20",
    "verses": [
        {
            "chapter": 20,
            "verse": 1,
            "name": "Psalms 20:1",
            "text": "Unto the end. A Psalm of David."
        },
        {
            "chapter": 20,
            "verse": 2,
            "name": "Psalms 20:2",
            "text": "In your virtue, Lord, the king will rejoice, and over your salvation, he will exult exceedingly."
        },
        {
            "chapter": 20,
            "verse": 3,
            "name": "Psalms 20:3",
            "text": "You have granted him the desire of his heart, and you have not cheated him of the wish of his lips."
        },
        {
            "chapter": 20,
            "verse": 4,
            "name": "Psalms 20:4",
            "text": "For you have gone ahead of him with blessings of sweetness. You have placed a crown of precious stones on his head."
        },
        {
            "chapter": 20,
            "verse": 5,
            "name": "Psalms 20:5",
            "text": "He petitioned you for life, and you have granted him length of days, in the present time, and forever and ever."
        },
        {
            "chapter": 20,
            "verse": 6,
            "name": "Psalms 20:6",
            "text": "Great is his glory in your salvation. Glory and great adornment, you will lay upon him."
        },
        {
            "chapter": 20,
            "verse": 7,
            "name": "Psalms 20:7",
            "text": "For you will give him as a blessing forever and ever. You will make him rejoice with gladness in your presence."
        },
        {
            "chapter": 20,
            "verse": 8,
            "name": "Psalms 20:8",
            "text": "Because the king hopes in the Lord, and in the mercy of the Most High, he will not be disturbed."
        },
        {
            "chapter": 20,
            "verse": 9,
            "name": "Psalms 20:9",
            "text": "May your hand be found by all your enemies. May your right hand discover all those who hate you."
        },
        {
            "chapter": 20,
            "verse": 10,
            "name": "Psalms 20:10",
            "text": "You will make them like an oven of fire, in the time of your presence. The Lord will stir them up with his wrath, and fire will devour them."
        },
        {
            "chapter": 20,
            "verse": 11,
            "name": "Psalms 20:11",
            "text": "You will destroy their fruit from the earth and their offspring from the sons of men."
        },
        {
            "chapter": 20,
            "verse": 12,
            "name": "Psalms 20:12",
            "text": "For they have turned evils upon you; they have devised plans, which they have not been able to accomplish."
        },
        {
            "chapter": 20,
            "verse": 13,
            "name": "Psalms 20:13",
            "text": "For you will make them turn their back; with your remnants, you will prepare their countenance."
        },
        {
            "chapter": 20,
            "verse": 14,
            "name": "Psalms 20:14",
            "text": "Be exalted, Lord, by your own power. We will play music and sing psalms to your virtues. "
        }
    ]
}