{
    "translation": "Pyha Raamattu (1992)",
    "abbreviation": "pyharaamattu1992",
    "lang": "fi",
    "language": "Finnish",
    "direction": "LTR",
    "encoding": "UTF-8",
    "book_nr": 28,
    "book_name": "Hosea",
    "chapter": 1,
    "name": "Hosea 1",
    "verses": [
        {
            "chapter": 1,
            "verse": 1,
            "name": "Hosea 1:1",
            "text": "Herran sana, joka tuli Hoosealle, Beerin pojalle. H\u00e4nen aikanaan olivat Juudan kuninkaina Ussia, Jotam, Ahas ja Hiskia, ja Israelin kuninkaana oli Jerobeam, Joasin poika."
        },
        {
            "chapter": 1,
            "verse": 2,
            "name": "Hosea 1:2",
            "text": "Herra alkoi puhua Hoosealle ja sanoi n\u00e4in: \"Mene ja ota portto vaimoksesi ja ota lapsiksesi ne lapset, jotka h\u00e4n saa. T\u00e4m\u00e4 maa on uskoton Herraa kohtaan, se on kuin portto, se palvelee vieraita jumalia.\""
        },
        {
            "chapter": 1,
            "verse": 3,
            "name": "Hosea 1:3",
            "text": "Niin Hoosea otti vaimokseen Gomerin, Diblaimin tytt\u00e4ren, ja t\u00e4m\u00e4 tuli raskaaksi ja synnytti h\u00e4nelle pojan."
        },
        {
            "chapter": 1,
            "verse": 4,
            "name": "Hosea 1:4",
            "text": "Herra sanoi Hoosealle: \"Anna pojalle nimeksi Jisreel, sill\u00e4 pian min\u00e4 kostan Jehun suvulle verity\u00f6t, jotka h\u00e4n on tehnyt Jisreeliss\u00e4, ja teen lopun Israelin kuninkaista."
        },
        {
            "chapter": 1,
            "verse": 5,
            "name": "Hosea 1:5",
            "text": "Sin\u00e4 p\u00e4iv\u00e4n\u00e4 min\u00e4 s\u00e4rjen Israelin jousen Jisreelin tasangolla.\""
        },
        {
            "chapter": 1,
            "verse": 6,
            "name": "Hosea 1:6",
            "text": "Hoosean vaimo tuli j\u00e4lleen raskaaksi ja synnytti tytt\u00e4ren. Herra sanoi Hoosealle: \"Anna h\u00e4nelle nimeksi Lo-Ruhama, sill\u00e4 min\u00e4 en en\u00e4\u00e4 osoita rakkautta Israelia kohtaan enk\u00e4 anna sille anteeksi."
        },
        {
            "chapter": 1,
            "verse": 7,
            "name": "Hosea 1:7",
            "text": "Mutta Juudan heimoa min\u00e4 rakastan. Min\u00e4 itse pelastan heid\u00e4t, sill\u00e4 min\u00e4 olen heid\u00e4n Jumalansa. Min\u00e4 pelastan heid\u00e4t, mutta en jousella, miekalla enk\u00e4 sodalla, en hevosilla enk\u00e4 sotavaunuilla.\""
        },
        {
            "chapter": 1,
            "verse": 8,
            "name": "Hosea 1:8",
            "text": "Vieroitettuaan Lo-Ruhaman Hoosean vaimo tuli taas raskaaksi ja synnytti pojan."
        },
        {
            "chapter": 1,
            "verse": 9,
            "name": "Hosea 1:9",
            "text": "Herra sanoi Hoosealle: \"Anna h\u00e4nelle nimeksi Lo-Ammi, sill\u00e4 te ette ole minun kansani enk\u00e4 min\u00e4 ole teid\u00e4n Jumalanne.\""
        },
        {
            "chapter": 1,
            "verse": 10,
            "name": "Hosea 1:10",
            "text": " -- Kerran Israelin j\u00e4lkel\u00e4isi\u00e4 on oleva kuin merenrannan hiekkaa, jota ei voi mitata eik\u00e4 laskea. Sen sijaan ett\u00e4 heille nyt sanotaan: \"Te ette ole minun kansani\", heille sanotaankin n\u00e4in: \"Te olette el\u00e4v\u00e4n Jumalan lapset.\""
        },
        {
            "chapter": 1,
            "verse": 11,
            "name": "Hosea 1:11",
            "text": "Silloin Juuda ja Israel kokoontuvat yhteen. He asettavat itselleen yhteisen johtajan ja levi\u00e4v\u00e4t yli koko maan. Totisesti, suuri on oleva Jisreelin p\u00e4iv\u00e4, Jumalan kylv\u00f6n p\u00e4iv\u00e4!"
        }
    ]
}