{
    "translation": "Masoretic Text parallel to the Samaritan Pentateuch",
    "abbreviation": "spmt",
    "lang": "he",
    "language": "Hebrew",
    "direction": "RTL",
    "encoding": "UTF-8",
    "book_nr": 26,
    "book_name": "Ezekiel",
    "chapter": 15,
    "name": "Ezekiel 15",
    "verses": [
        {
            "chapter": 15,
            "verse": 1,
            "name": "Ezekiel 15:1",
            "text": ""
        },
        {
            "chapter": 15,
            "verse": 2,
            "name": "Ezekiel 15:2",
            "text": ""
        },
        {
            "chapter": 15,
            "verse": 3,
            "name": "Ezekiel 15:3",
            "text": ""
        },
        {
            "chapter": 15,
            "verse": 4,
            "name": "Ezekiel 15:4",
            "text": ""
        },
        {
            "chapter": 15,
            "verse": 5,
            "name": "Ezekiel 15:5",
            "text": ""
        },
        {
            "chapter": 15,
            "verse": 6,
            "name": "Ezekiel 15:6",
            "text": ""
        },
        {
            "chapter": 15,
            "verse": 7,
            "name": "Ezekiel 15:7",
            "text": ""
        },
        {
            "chapter": 15,
            "verse": 8,
            "name": "Ezekiel 15:8",
            "text": ""
        }
    ]
}