{
    "translation": "\u548c\u5408\u672c (\u7e41\u9ad4\u5b57)",
    "abbreviation": "chiun",
    "lang": "zh",
    "language": "",
    "direction": "LTR",
    "encoding": "UTF-8",
    "book_nr": 23,
    "book_name": "Isaiah",
    "chapter": 47,
    "name": "Isaiah 47",
    "verses": [
        {
            "chapter": 47,
            "verse": 1,
            "name": "Isaiah 47:1",
            "text": "\u5df4\u6bd4\u502b\u7684\u8655\u5973\u554a\uff0c\u4e0b\u4f86\u5750\u5728\u5875\u57c3\uff1b\u8fe6\u52d2\u5e95\u7684\u95a8\u5973\u554a\uff0c\u6c92\u6709\u5bf6\u5ea7\uff0c\u8981\u5750\u5728\u5730\u4e0a\uff1b\u56e0\u70ba\u4f60\u4e0d\u518d\u7a31\u70ba\u67d4\u5f31\u5b0c\u5ae9\u7684\u3002"
        },
        {
            "chapter": 47,
            "verse": 2,
            "name": "Isaiah 47:2",
            "text": "\u8981\u7528\u78e8\u78e8\u9eb5\uff0c\u63ed\u53bb\u5e15\u5b50\uff0c\u812b\u53bb\u9577\u8863\uff0c\u9732\u817f\u8e5a\u6cb3\u3002"
        },
        {
            "chapter": 47,
            "verse": 3,
            "name": "Isaiah 47:3",
            "text": "\u4f60\u7684\u4e0b\u9ad4\u5fc5\u88ab\u9732\u51fa\uff1b\u4f60\u7684\u919c\u964b\u5fc5\u88ab\u770b\u898b\u3002\u6211\u8981\u5831\u4ec7\uff0c\u8ab0\u4e5f\u4e0d\u5bec\u5bb9\u3002"
        },
        {
            "chapter": 47,
            "verse": 4,
            "name": "Isaiah 47:4",
            "text": "\u6211\u5011\u6551\u8d16\u4e3b\u7684\u540d\u662f\u842c\u8ecd\u4e4b\u8036\u548c\u83ef\u2500\u4ee5\u8272\u5217\u7684\u8056\u8005\u3002"
        },
        {
            "chapter": 47,
            "verse": 5,
            "name": "Isaiah 47:5",
            "text": "\u8fe6\u52d2\u5e95\u7684\u95a8\u5973\u554a\uff0c\u4f60\u8981\u9ed8\u7136\u975c\u5750\uff0c\u9032\u5165\u6697\u4e2d\uff0c\u56e0\u70ba\u4f60\u4e0d\u518d\u7a31\u70ba\u5217\u570b\u7684\u4e3b\u6bcd\u3002"
        },
        {
            "chapter": 47,
            "verse": 6,
            "name": "Isaiah 47:6",
            "text": "\u6211\u5411\u6211\u7684\u767e\u59d3\u767c\u6012\uff0c\u4f7f\u6211\u7684\u7522\u696d\u88ab\u893b\u7006\uff0c\u5c07\u4ed6\u5011\u4ea4\u5728\u4f60\u624b\u4e2d\uff0c\u4f60\u6beb\u4e0d\u6190\u61ab\u4ed6\u5011\uff0c\u628a\u6975\u91cd\u7684\u8edb\u52a0\u5728\u8001\u5e74\u4eba\u8eab\u4e0a\u3002"
        },
        {
            "chapter": 47,
            "verse": 7,
            "name": "Isaiah 47:7",
            "text": "\u4f60\u81ea\u5df1\u8aaa\uff1a\u6211\u5fc5\u6c38\u70ba\u4e3b\u6bcd\uff0c\u6240\u4ee5\u4f60\u4e0d\u5c07\u9019\u4e8b\u653e\u5728\u5fc3\u4e0a\uff0c\u4e5f\u4e0d\u60f3\u9019\u4e8b\u7684\u7d50\u5c40\u3002"
        },
        {
            "chapter": 47,
            "verse": 8,
            "name": "Isaiah 47:8",
            "text": "\u4f60\u9019\u5c08\u597d\u5bb4\u6a02\u3001\u5b89\u7136\u5c45\u4f4f\u7684\uff0c\u73fe\u5728\u7576\u807d\u9019\u8a71\u3002\u4f60\u5fc3\u4e2d\u8aaa\uff1a\u60df\u6709\u6211\uff0c\u9664\u6211\u4ee5\u5916\u518d\u6c92\u6709\u5225\u7684\u3002\u6211\u5fc5\u4e0d\u81f4\u5be1\u5c45\uff0c\u4e5f\u4e0d\u906d\u55aa\u5b50\u4e4b\u4e8b\u3002"
        },
        {
            "chapter": 47,
            "verse": 9,
            "name": "Isaiah 47:9",
            "text": "\u54ea\u77e5\uff0c\u55aa\u5b50\u3001\u5be1\u5c45\u9019\u5169\u4ef6\u4e8b\u5728\u4e00\u65e5\u8f49\u773c\u4e4b\u9593\u5fc5\u81e8\u5230\u4f60\uff1b\u6b63\u5728\u4f60\u591a\u884c\u90aa\u8853\u3001\u5ee3\u65bd\u7b26\u5492\u7684\u6642\u5019\uff0c\u9019\u5169\u4ef6\u4e8b\u5fc5\u5168\u7136\u81e8\u5230\u4f60\u8eab\u4e0a\u3002"
        },
        {
            "chapter": 47,
            "verse": 10,
            "name": "Isaiah 47:10",
            "text": "\u4f60\u7d20\u4f86\u501a\u4ed7\u81ea\u5df1\u7684\u60e1\u884c\uff0c\u8aaa\uff1a\u7121\u4eba\u770b\u898b\u6211\u3002\u4f60\u7684\u667a\u6167\u8070\u660e\u4f7f\u4f60\u504f\u90aa\uff0c\u4e26\u4e14\u4f60\u5fc3\u88e1\u8aaa\uff1a\u60df\u6709\u6211\uff0c\u9664\u6211\u4ee5\u5916\u518d\u6c92\u6709\u5225\u7684\u3002"
        },
        {
            "chapter": 47,
            "verse": 11,
            "name": "Isaiah 47:11",
            "text": "\u56e0\u6b64\uff0c\u798d\u60a3\u8981\u81e8\u5230\u4f60\u8eab\uff1b\u4f60\u4e0d\u77e5\u4f55\u6642\u767c\u73fe\uff08\u6216\u8b6f\uff1a\u5982\u4f55\u9a45\u9010\uff09\u707d\u5bb3\u843d\u5728\u4f60\u8eab\u4e0a\uff0c\u4f60\u4e5f\u4e0d\u80fd\u9664\u6389\uff1b\u6240\u4e0d\u77e5\u9053\u7684\u6bc0\u6ec5\u4e5f\u5fc5\u5ffd\u7136\u81e8\u5230\u4f60\u8eab\u3002"
        },
        {
            "chapter": 47,
            "verse": 12,
            "name": "Isaiah 47:12",
            "text": "\u7ad9\u8d77\u4f86\u5427\uff01\u7528\u4f60\u5f9e\u5e7c\u5e74\u52de\u795e\u65bd\u884c\u7684\u7b26\u5492\u548c\u4f60\u8a31\u591a\u7684\u90aa\u8853\uff1b\u6216\u8005\u53ef\u5f97\u76ca\u8655\uff0c\u6216\u8005\u53ef\u5f97\u5f37\u52dd\u3002"
        },
        {
            "chapter": 47,
            "verse": 13,
            "name": "Isaiah 47:13",
            "text": "\u4f60\u7c4c\u5283\u592a\u591a\uff0c\u4ee5\u81f4\u75b2\u5026\u3002\u8b93\u90a3\u4e9b\u89c0\u5929\u8c61\u7684\uff0c\u770b\u661f\u5bbf\u7684\uff0c\u5728\u6708\u6714\u8aaa\u9810\u8a00\u7684\uff0c\u90fd\u7ad9\u8d77\u4f86\uff0c\u6551\u4f60\u812b\u96e2\u6240\u8981\u81e8\u5230\u4f60\u7684\u4e8b\u3002"
        },
        {
            "chapter": 47,
            "verse": 14,
            "name": "Isaiah 47:14",
            "text": "\u4ed6\u5011\u8981\u50cf\u788e\u79f8\u88ab\u706b\u711a\u71d2\uff0c\u4e0d\u80fd\u6551\u81ea\u5df1\u812b\u96e2\u706b\u7130\u4e4b\u529b\uff1b\u9019\u706b\u4e26\u975e\u53ef\u70e4\u7684\u70ad\u706b\uff0c\u4e5f\u4e0d\u662f\u53ef\u4ee5\u5750\u5728\u5176\u524d\u7684\u706b\u3002"
        },
        {
            "chapter": 47,
            "verse": 15,
            "name": "Isaiah 47:15",
            "text": "\u4f60\u6240\u52de\u795e\u7684\u4e8b\u90fd\u8981\u9019\u6a23\u8207\u4f60\u7121\u76ca\uff1b\u5f9e\u5e7c\u5e74\u8207\u4f60\u8cbf\u6613\u7684\u4e5f\u90fd\u5404\u5954\u5404\u9109\uff0c\u7121\u4eba\u6551\u4f60\u3002  "
        }
    ]
}