{
    "translation": "Oja\u010dano Sveto pismo (Ps + Gal)",
    "abbreviation": "sloojacano",
    "lang": "sl",
    "language": "Slovene",
    "direction": "LTR",
    "encoding": "UTF-8",
    "book_nr": 19,
    "book_name": "Psalms",
    "chapter": 114,
    "name": "Psalms 114",
    "verses": [
        {
            "chapter": 114,
            "verse": 1,
            "name": "Psalms 114:1",
            "text": "KO JE IZRAEL pri\u0161el ven iz Egipta, hi\u0161a Jakobova iz ljudstva tujega jezika, "
        },
        {
            "chapter": 114,
            "verse": 2,
            "name": "Psalms 114:2",
            "text": "je Juda postal [Bo\u017eje] sveti\u0161\u010de, (sveti kraj Njegovega prebivali\u0161\u010da) in Izrael Njegovo gospostvo.  "
        },
        {
            "chapter": 114,
            "verse": 3,
            "name": "Psalms 114:3",
            "text": "[Rde\u010de] morje je gledalo in zbe\u017ealo; [reka] Jordan je bila obrnjena nazaj.  "
        },
        {
            "chapter": 114,
            "verse": 4,
            "name": "Psalms 114:4",
            "text": "Gore so poskakovale kakor ovni, majhni gri\u010di kakor jagnjeta. "
        },
        {
            "chapter": 114,
            "verse": 5,
            "name": "Psalms 114:5",
            "text": "Kaj ti je, o [Rde\u010de] morje, da be\u017ei\u0161? O Jordan, da se obra\u010da\u0161 nazaj? "
        },
        {
            "chapter": 114,
            "verse": 6,
            "name": "Psalms 114:6",
            "text": "Ve gore, ki ska\u010dete kakor ovni in vi majhni gri\u010di kakor jagnjeta? "
        },
        {
            "chapter": 114,
            "verse": 7,
            "name": "Psalms 114:7",
            "text": "Trepetaj, o zemlja, ob prisotnosti Gospoda, ob prisotnosti Jakobovega Boga, "
        },
        {
            "chapter": 114,
            "verse": 8,
            "name": "Psalms 114:8",
            "text": "ki je skalo spremenil v vodni bazen, kremen v izvir vod\u00e1.  "
        }
    ]
}