{
    "translation": "Union Simplified",
    "abbreviation": "cus",
    "lang": "zh",
    "language": "",
    "direction": "LTR",
    "encoding": "UTF-8",
    "book_nr": 54,
    "book_name": "1 Timothy",
    "chapter": 3,
    "name": "1 Timothy 3",
    "verses": [
        {
            "chapter": 3,
            "verse": 1,
            "name": "1 Timothy 3:1",
            "text": "\u4eba\u82e5\u60f3\u8981\u5f97\u76d1\u7763\u7684\u804c\u5206\uff0c\u5c31\u662f\u7fa8\u6155\u5584\u5de5\u3002\u8fd9\u8bdd\u662f\u53ef\u4fe1\u7684\u3002"
        },
        {
            "chapter": 3,
            "verse": 2,
            "name": "1 Timothy 3:2",
            "text": "\u4f5c\u76d1\u7763\u7684\uff0c\u5fc5\u987b\u65e0\u53ef\u6307\u8d23\uff0c\u53ea\u4f5c\u4e00\u4e2a\u5987\u4eba\u7684\u4e08\u592b\uff0c\u6709\u8282\u5236\uff0c\u81ea\u5b88\uff0c\u7aef\u6b63\uff0c\u4e50\u610f\u63a5\u5f85\u8fdc\u4eba\uff0c\u5584\u4e8e\u6559\u5bfc\uff1b"
        },
        {
            "chapter": 3,
            "verse": 3,
            "name": "1 Timothy 3:3",
            "text": "\u4e0d\u56e0\u9152\u6ecb\u4e8b\uff0c\u4e0d\u6253\u4eba\uff0c\u53ea\u8981\u6e29\u548c\uff0c\u4e0d\u4e89\u7ade\uff0c\u4e0d\u8d2a\u8d22\uff1b"
        },
        {
            "chapter": 3,
            "verse": 4,
            "name": "1 Timothy 3:4",
            "text": "\u597d\u597d\u7ba1\u7406\u81ea\u5df1\u7684\u5bb6\uff0c\u4f7f\u513f\u5973\u51e1\u4e8b\u7aef\u5e84\u987a\u670d\uff08\u6216\u4f5c\uff1a\u7aef\u7aef\u5e84\u5e84\u5730\u4f7f\u513f\u5973\u987a\u670d\uff09\u3002"
        },
        {
            "chapter": 3,
            "verse": 5,
            "name": "1 Timothy 3:5",
            "text": "\u4eba\u82e5\u4e0d\u77e5\u9053\u7ba1\u7406\u81ea\u5df1\u7684\u5bb6\uff0c\u7109\u80fd\u7167\u7ba1\u3000\u795e\u7684\u6559\u4f1a\u5462\uff1f"
        },
        {
            "chapter": 3,
            "verse": 6,
            "name": "1 Timothy 3:6",
            "text": "\u521d\u5165\u6559\u7684\u4e0d\u53ef\u4f5c\u76d1\u7763\uff0c\u6050\u6015\u4ed6\u81ea\u9ad8\u81ea\u5927\uff0c\u5c31\u843d\u5728\u9b54\u9b3c\u6240\u53d7\u7684\u5211\u7f5a\u91cc\u3002"
        },
        {
            "chapter": 3,
            "verse": 7,
            "name": "1 Timothy 3:7",
            "text": "\u76d1\u7763\u4e5f\u5fc5\u987b\u5728\u6559\u5916\u6709\u597d\u540d\u58f0\uff0c\u6050\u6015\u88ab\u4eba\u6bc1\u8c24\uff0c\u843d\u5728\u9b54\u9b3c\u7684\u7f51\u7f57\u91cc\u3002"
        },
        {
            "chapter": 3,
            "verse": 8,
            "name": "1 Timothy 3:8",
            "text": "\u4f5c\u6267\u4e8b\u7684\uff0c\u4e5f\u662f\u5982\u6b64\uff1a\u5fc5\u987b\u7aef\u5e84\uff0c\u4e0d\u4e00\u53e3\u4e24\u820c\uff0c\u4e0d\u597d\u559d\u9152\uff0c\u4e0d\u8d2a\u4e0d\u4e49\u4e4b\u8d22\uff1b"
        },
        {
            "chapter": 3,
            "verse": 9,
            "name": "1 Timothy 3:9",
            "text": "\u8981\u5b58\u6e05\u6d01\u7684\u826f\u5fc3\uff0c\u56fa\u5b88\u771f\u9053\u7684\u5965\u7955\u3002"
        },
        {
            "chapter": 3,
            "verse": 10,
            "name": "1 Timothy 3:10",
            "text": "\u8fd9\u7b49\u4eba\u4e5f\u8981\u5148\u53d7\u8bd5\u9a8c\uff0c\u82e5\u6ca1\u6709\u53ef\u8d23\u4e4b\u5904\uff0c\u7136\u540e\u53eb\u4ed6\u4eec\u4f5c\u6267\u4e8b\u3002"
        },
        {
            "chapter": 3,
            "verse": 11,
            "name": "1 Timothy 3:11",
            "text": "\u5973\u6267\u4e8b\uff08\u539f\u6587\u662f\u5973\u4eba\uff09\u4e5f\u662f\u5982\u6b64\uff1a\u5fc5\u987b\u7aef\u5e84\uff0c\u4e0d\u8bf4\u8c17\u8a00\uff0c\u6709\u8282\u5236\uff0c\u51e1\u4e8b\u5fe0\u5fc3\u3002"
        },
        {
            "chapter": 3,
            "verse": 12,
            "name": "1 Timothy 3:12",
            "text": "\u6267\u4e8b\u53ea\u8981\u4f5c\u4e00\u4e2a\u5987\u4eba\u7684\u4e08\u592b\uff0c\u597d\u597d\u7ba1\u7406\u513f\u5973\u548c\u81ea\u5df1\u7684\u5bb6\u3002"
        },
        {
            "chapter": 3,
            "verse": 13,
            "name": "1 Timothy 3:13",
            "text": "\u56e0\u4e3a\u5584\u4f5c\u6267\u4e8b\u7684\uff0c\u81ea\u5df1\u5c31\u5f97\u5230\u7f8e\u597d\u7684\u5730\u6b65\uff0c\u5e76\u4e14\u5728\u57fa\u7763\u8036\u7a23\u91cc\u7684\u771f\u9053\u4e0a\u5927\u6709\u80c6\u91cf\u3002"
        },
        {
            "chapter": 3,
            "verse": 14,
            "name": "1 Timothy 3:14",
            "text": "\u6211\u6307\u671b\u5feb\u5230\u4f60\u90a3\u91cc\u53bb\uff0c\u6240\u4ee5\u5148\u5c06\u8fd9\u4e9b\u4e8b\u5199\u7ed9\u4f60\u3002"
        },
        {
            "chapter": 3,
            "verse": 15,
            "name": "1 Timothy 3:15",
            "text": "\u5018\u82e5\u6211\u803d\u5ef6\u65e5\u4e45\uff0c\u4f60\u4e5f\u53ef\u4ee5\u77e5\u9053\u5728\u3000\u795e\u7684\u5bb6\u4e2d\u5f53\u600e\u6837\u884c\u3002\u8fd9\u5bb6\u5c31\u662f\u6c38\u751f\u3000\u795e\u7684\u6559\u4f1a\uff0c\u771f\u7406\u7684\u67f1\u77f3\u548c\u6839\u57fa\u3002"
        },
        {
            "chapter": 3,
            "verse": 16,
            "name": "1 Timothy 3:16",
            "text": "\u5927\u54c9\uff0c\u656c\u8654\u7684\u5965\u7955\uff01\u65e0\u4eba\u4e0d\u4ee5\u4e3a\u7136\uff1a\u5c31\u662f\u3000\u795e\u5728\u8089\u8eab\u663e\u73b0\uff0c\u88ab\u5723\u7075\u79f0\u4e49\uff08\u6216\u4f5c\uff1a\u5728\u7075\u6027\u79f0\u4e49\uff09\uff0c\u88ab\u5929\u4f7f\u770b\u89c1\uff0c\u88ab\u4f20\u4e8e\u5916\u90a6\uff0c\u88ab\u4e16\u4eba\u4fe1\u670d\uff0c\u88ab\u63a5\u5728\u8363\u8000\u91cc\u3002  "
        }
    ]
}