{
    "translation": "Bible Perret-Gentil et Rilliet",
    "abbreviation": "frepgr",
    "lang": "fr",
    "language": "French",
    "direction": "LTR",
    "encoding": "UTF-8",
    "book_nr": 24,
    "book_name": "Jeremiah",
    "chapter": 1,
    "name": "Jeremiah 1",
    "verses": [
        {
            "chapter": 1,
            "verse": 1,
            "name": "Jeremiah 1:1",
            "text": "Paroles de J\u00e9r\u00e9mie, fils d'Hilkia, l'un des sacrificateurs d'Anathoth au pays de Benjamin,"
        },
        {
            "chapter": 1,
            "verse": 2,
            "name": "Jeremiah 1:2",
            "text": "\u00e0 qui fut adress\u00e9e la parole de l'\u00c9ternel dans le temps de Josias, fils d'Amon, roi de Juda, la treizi\u00e8me ann\u00e9e de son r\u00e8gne,"
        },
        {
            "chapter": 1,
            "verse": 3,
            "name": "Jeremiah 1:3",
            "text": "et dans le temps de J\u00e9hojakim, fils de Josias, roi de Juda, jusqu'\u00e0 la fin de la onzi\u00e8me ann\u00e9e de S\u00e9d\u00e9cias, fils de Josias, roi de Juda, jusqu'\u00e0 la d\u00e9portation de J\u00e9rusalem, au cinqui\u00e8me mois."
        },
        {
            "chapter": 1,
            "verse": 4,
            "name": "Jeremiah 1:4",
            "text": "La parole de l'\u00c9ternel me fut adress\u00e9e en ces mots :"
        },
        {
            "chapter": 1,
            "verse": 5,
            "name": "Jeremiah 1:5",
            "text": "Avant de te former dans les flancs de ta m\u00e8re, je te connaissais, et avant que tu sortisses de son sein, je te consacrai, et je t'\u00e9tablis proph\u00e8te des nations."
        },
        {
            "chapter": 1,
            "verse": 6,
            "name": "Jeremiah 1:6",
            "text": "Et je dis : H\u00e9las ! Seigneur, \u00c9ternel, voici, je ne sais point parler, car je suis un enfant."
        },
        {
            "chapter": 1,
            "verse": 7,
            "name": "Jeremiah 1:7",
            "text": "Et l'\u00c9ternel me dit : Ne dis pas : \u00ab\u202fJe suis un enfant ;\u202f\u00bb mais va vers quiconque je t'enverrai, et dis tout ce que je t'ordonnerai !"
        },
        {
            "chapter": 1,
            "verse": 8,
            "name": "Jeremiah 1:8",
            "text": "N'aie point peur devant eux ! car je suis avec toi pour te d\u00e9livrer, dit l'\u00c9ternel."
        },
        {
            "chapter": 1,
            "verse": 9,
            "name": "Jeremiah 1:9",
            "text": "Et l'\u00c9ternel \u00e9tendit sa main, et toucha ma bouche, et l'\u00c9ternel me dit : Voici, je mets mes paroles en ta bouche."
        },
        {
            "chapter": 1,
            "verse": 10,
            "name": "Jeremiah 1:10",
            "text": "Vois, je te pr\u00e9pose en ce jour sur les peuples et sur les royaumes, pour arracher et pour abattre, pour perdre et pour d\u00e9truire, pour \u00e9difier et pour planter."
        },
        {
            "chapter": 1,
            "verse": 11,
            "name": "Jeremiah 1:11",
            "text": "Et la parole de l'\u00c9ternel me fut adress\u00e9e en ces mots : Que vois-tu, J\u00e9r\u00e9mie ? Et je dis : Je vois un jet d'amandier."
        },
        {
            "chapter": 1,
            "verse": 12,
            "name": "Jeremiah 1:12",
            "text": "Et l'\u00c9ternel me dit : Tu as bien vu ; car je veille sur ma parole pour y donner effet."
        },
        {
            "chapter": 1,
            "verse": 13,
            "name": "Jeremiah 1:13",
            "text": "Et la parole de l'\u00c9ternel me fut adress\u00e9e une seconde fois en ces mots : Que vois-tu ? Et je dis : Je vois une chaudi\u00e8re qui bout, dans la direction du septentrion."
        },
        {
            "chapter": 1,
            "verse": 14,
            "name": "Jeremiah 1:14",
            "text": "Et l'\u00c9ternel me dit : C'est du septentrion que la calamit\u00e9 \u00e9clatera sur tous les habitants du pays."
        },
        {
            "chapter": 1,
            "verse": 15,
            "name": "Jeremiah 1:15",
            "text": "Car voici, je vais convoquer toutes les tribus des royaumes au septentrion, dit l'\u00c9ternel, et ils viendront, et placeront chacun leur station \u00e0 l'avenue des portes de J\u00e9rusalem, et contre ses murailles tout \u00e0 l'entour, et contre toutes les villes de Juda,"
        },
        {
            "chapter": 1,
            "verse": 16,
            "name": "Jeremiah 1:16",
            "text": "et je prononcerai ma sentence contre eux \u00e0 cause de toute leur m\u00e9chancet\u00e9, parce qu'ils m'ont abandonn\u00e9, et qu'ils ont encens\u00e9 d'autres dieux, et ador\u00e9 l'ouvrage de leurs mains."
        },
        {
            "chapter": 1,
            "verse": 17,
            "name": "Jeremiah 1:17",
            "text": "Mais toi, ceins tes reins, et te l\u00e8ve, et leur dis tout ce que je t'ordonnerai ; ne sois point timide devant eux, afin que je ne t'intimide pas devant eux."
        },
        {
            "chapter": 1,
            "verse": 18,
            "name": "Jeremiah 1:18",
            "text": "Et voici, je fais de toi en ce jour une ville forte, et une colonne de fer, et un mur d'airain contre tout le pays, les rois de Juda, ses princes, ses sacrificateurs, et contre le peuple du pays."
        },
        {
            "chapter": 1,
            "verse": 19,
            "name": "Jeremiah 1:19",
            "text": "Et ils te feront la guerre, mais ils ne pourront rien contre toi ; car je suis avec toi, dit l'\u00c9ternel, pour te prot\u00e9ger. "
        }
    ]
}