{
    "translation": "Scots Gaelic (Gospel of Mark)",
    "abbreviation": "gaelic",
    "lang": "gd",
    "language": "Scottish Gaelic",
    "direction": "LTR",
    "encoding": "",
    "book_nr": 44,
    "book_name": "Acts",
    "chapter": 11,
    "name": "Acts 11",
    "verses": [
        {
            "chapter": 11,
            "verse": 1,
            "name": "Acts 11:1",
            "text": ""
        },
        {
            "chapter": 11,
            "verse": 2,
            "name": "Acts 11:2",
            "text": ""
        },
        {
            "chapter": 11,
            "verse": 3,
            "name": "Acts 11:3",
            "text": ""
        },
        {
            "chapter": 11,
            "verse": 4,
            "name": "Acts 11:4",
            "text": ""
        },
        {
            "chapter": 11,
            "verse": 5,
            "name": "Acts 11:5",
            "text": ""
        },
        {
            "chapter": 11,
            "verse": 6,
            "name": "Acts 11:6",
            "text": ""
        },
        {
            "chapter": 11,
            "verse": 7,
            "name": "Acts 11:7",
            "text": ""
        },
        {
            "chapter": 11,
            "verse": 8,
            "name": "Acts 11:8",
            "text": ""
        },
        {
            "chapter": 11,
            "verse": 9,
            "name": "Acts 11:9",
            "text": ""
        },
        {
            "chapter": 11,
            "verse": 10,
            "name": "Acts 11:10",
            "text": ""
        },
        {
            "chapter": 11,
            "verse": 11,
            "name": "Acts 11:11",
            "text": ""
        },
        {
            "chapter": 11,
            "verse": 12,
            "name": "Acts 11:12",
            "text": ""
        },
        {
            "chapter": 11,
            "verse": 13,
            "name": "Acts 11:13",
            "text": ""
        },
        {
            "chapter": 11,
            "verse": 14,
            "name": "Acts 11:14",
            "text": ""
        },
        {
            "chapter": 11,
            "verse": 15,
            "name": "Acts 11:15",
            "text": ""
        },
        {
            "chapter": 11,
            "verse": 16,
            "name": "Acts 11:16",
            "text": ""
        },
        {
            "chapter": 11,
            "verse": 17,
            "name": "Acts 11:17",
            "text": ""
        },
        {
            "chapter": 11,
            "verse": 18,
            "name": "Acts 11:18",
            "text": ""
        },
        {
            "chapter": 11,
            "verse": 19,
            "name": "Acts 11:19",
            "text": ""
        },
        {
            "chapter": 11,
            "verse": 20,
            "name": "Acts 11:20",
            "text": ""
        },
        {
            "chapter": 11,
            "verse": 21,
            "name": "Acts 11:21",
            "text": ""
        },
        {
            "chapter": 11,
            "verse": 22,
            "name": "Acts 11:22",
            "text": ""
        },
        {
            "chapter": 11,
            "verse": 23,
            "name": "Acts 11:23",
            "text": ""
        },
        {
            "chapter": 11,
            "verse": 24,
            "name": "Acts 11:24",
            "text": ""
        },
        {
            "chapter": 11,
            "verse": 25,
            "name": "Acts 11:25",
            "text": ""
        },
        {
            "chapter": 11,
            "verse": 26,
            "name": "Acts 11:26",
            "text": ""
        },
        {
            "chapter": 11,
            "verse": 27,
            "name": "Acts 11:27",
            "text": ""
        },
        {
            "chapter": 11,
            "verse": 28,
            "name": "Acts 11:28",
            "text": ""
        },
        {
            "chapter": 11,
            "verse": 29,
            "name": "Acts 11:29",
            "text": ""
        },
        {
            "chapter": 11,
            "verse": 30,
            "name": "Acts 11:30",
            "text": ""
        }
    ]
}