{
    "translation": "Urdu Geo Version Latin Script (UGV)",
    "abbreviation": "urdugeoroman",
    "lang": "ur",
    "language": "Urdu",
    "direction": "RTL",
    "encoding": "UTF-8",
    "book_nr": 47,
    "book_name": "2 Corinthians",
    "chapter": 6,
    "name": "2 Corinthians 6",
    "verses": [
        {
            "chapter": 6,
            "verse": 1,
            "name": "2 Corinthians 6:1",
            "text": "all\u0101h ke ham\u1e33hidmat hote hue ham \u0101p se minnat karte hai\u1e45 ki jo fazl \u0101p ko mil\u0101 hai wuh z\u0101e na j\u0101e."
        },
        {
            "chapter": 6,
            "verse": 2,
            "name": "2 Corinthians 6:2",
            "text": "ky\u016b\u1e45ki all\u0101h farm\u0101t\u0101 hai, \u201cqab\u016bliyat ke waqt mai\u1e45 ne ter\u012b sun\u012b, naj\u0101t ke din ter\u012b madad k\u012b.\u201d sune\u1e45! ab qab\u016bliyat k\u0101 waqt \u0101 gay\u0101 hai, ab naj\u0101t k\u0101 din hai."
        },
        {
            "chapter": 6,
            "verse": 3,
            "name": "2 Corinthians 6:3",
            "text": "ham kis\u012b ke lie bh\u012b \u1e6dhokar k\u0101 b\u0101is nah\u012b\u1e45 bante t\u0101ki log ham\u0101r\u012b \u1e33hidmat me\u1e45 nuqs na nik\u0101l sake\u1e45."
        },
        {
            "chapter": 6,
            "verse": 4,
            "name": "2 Corinthians 6:4",
            "text": "h\u0101\u1e45, hame\u1e45 sif\u0101rish k\u012b zar\u016brat h\u012b nah\u012b\u1e45, ky\u016b\u1e45ki all\u0101h ke \u1e33h\u0101dim hote hue ham har h\u0101lat me\u1e45 apn\u012b nekn\u0101m\u012b z\u0101hir karte hai\u1e45: jab ham sabar se mus\u012bbate\u1e45, mushkil\u0101t aur \u0101fate\u1e45 bard\u0101sht karte hai\u1e45,"
        },
        {
            "chapter": 6,
            "verse": 5,
            "name": "2 Corinthians 6:5",
            "text": "jab log hame\u1e45 m\u0101rte aur qaid me\u1e45 \u1e0d\u0101lte hai\u1e45, jab ham beq\u0101b\u016b huj\u016bmo\u1e45 k\u0101 s\u0101mn\u0101 karte hai\u1e45, jab ham mehnat-mashaqqat karte, r\u0101t ke waqt j\u0101gte aur bh\u016bke rahte hai\u1e45,"
        },
        {
            "chapter": 6,
            "verse": 6,
            "name": "2 Corinthians 6:6",
            "text": "jab ham apn\u012b p\u0101k\u012bzag\u012b, ilm, sabar aur mehrb\u0101n sul\u016bk k\u0101 izh\u0101r karte hai\u1e45, jab ham r\u016bh-ul-quds ke was\u012ble se haq\u012bq\u012b muhabbat rakhte,"
        },
        {
            "chapter": 6,
            "verse": 7,
            "name": "2 Corinthians 6:7",
            "text": "sachch\u012b b\u0101te\u1e45 karte aur all\u0101h k\u012b qudrat se logo\u1e45 k\u012b \u1e33hidmat karte hai\u1e45. ham apn\u012b nekn\u0101m\u012b is me\u1e45 bh\u012b z\u0101hir karte hai\u1e45 ki ham dono\u1e45 h\u0101tho\u1e45 se r\u0101stb\u0101z\u012b ke hathiy\u0101r th\u0101me rakhte hai\u1e45."
        },
        {
            "chapter": 6,
            "verse": 8,
            "name": "2 Corinthians 6:8",
            "text": "ham apn\u012b \u1e33hidmat j\u0101r\u012b rakhte hai\u1e45, ch\u0101he log ham\u0101r\u012b izzat kare\u1e45 ch\u0101he be'izzat\u012b, ch\u0101he wuh ham\u0101r\u012b bur\u012b ripor\u1e6d de\u1e45 ch\u0101he achchh\u012b. agarche ham\u0101r\u012b \u1e33hidmat sachch\u012b hai, lekin log hame\u1e45 da\u0121h\u0101b\u0101z qar\u0101r dete hai\u1e45."
        },
        {
            "chapter": 6,
            "verse": 9,
            "name": "2 Corinthians 6:9",
            "text": "agarche log hame\u1e45 j\u0101nte hai\u1e45 to bh\u012b hame\u1e45 nazarand\u0101z kiy\u0101 j\u0101t\u0101 hai. ham marte marte zind\u0101 rahte hai\u1e45 aur log hame\u1e45 m\u0101r m\u0101r kar qatl nah\u012b\u1e45 kar sakte."
        },
        {
            "chapter": 6,
            "verse": 10,
            "name": "2 Corinthians 6:10",
            "text": "ham \u0121ham kh\u0101 kh\u0101 kar har waqt \u1e33hush rahte hai\u1e45, ham \u0121har\u012bb h\u0101lat me\u1e45 bahuto\u1e45 ko daulatmand ban\u0101 dete hai\u1e45. ham\u0101re p\u0101s kuchh nah\u012b\u1e45 hai, to bh\u012b hame\u1e45 sab kuchh h\u0101sil hai."
        },
        {
            "chapter": 6,
            "verse": 11,
            "name": "2 Corinthians 6:11",
            "text": "kurinthus ke az\u012bzo, ham ne khul kar \u0101p se b\u0101t k\u012b hai, ham\u0101r\u0101 dil \u0101p ke lie kush\u0101d\u0101 ho gay\u0101 hai."
        },
        {
            "chapter": 6,
            "verse": 12,
            "name": "2 Corinthians 6:12",
            "text": "jo jagah ham ne dil me\u1e45 \u0101p ko d\u012b hai wuh ab tak kam nah\u012b\u1e45 hu\u012b. lekin \u0101p ke dilo\u1e45 me\u1e45 ham\u0101re lie ko\u012b jagah nah\u012b\u1e45 rah\u012b."
        },
        {
            "chapter": 6,
            "verse": 13,
            "name": "2 Corinthians 6:13",
            "text": "ab mai\u1e45 \u0101p se jo mere bachche hai\u1e45 dar\u1e33hw\u0101st kart\u0101 h\u016b\u1e45 ki jaw\u0101b me\u1e45 hame\u1e45 bh\u012b apne dilo\u1e45 me\u1e45 jagah de\u1e45."
        },
        {
            "chapter": 6,
            "verse": 14,
            "name": "2 Corinthians 6:14",
            "text": " \u0121hair\u012bm\u0101nd\u0101ro\u1e45 ke s\u0101th mil kar ek j\u016be tale zindag\u012b na guz\u0101re\u1e45, ky\u016b\u1e45ki r\u0101st\u012b k\u0101 n\u0101r\u0101st\u012b se ky\u0101 w\u0101st\u0101 hai? y\u0101 raushn\u012b t\u0101r\u012bk\u012b ke s\u0101th ky\u0101 t\u0101lluq rakh sakt\u012b hai?"
        },
        {
            "chapter": 6,
            "verse": 15,
            "name": "2 Corinthians 6:15",
            "text": "mas\u012bh aur ibl\u012bs ke darmiy\u0101n ky\u0101 mut\u0101biqat ho sakt\u012b hai? \u012bm\u0101nd\u0101r k\u0101 \u0121hair\u012bm\u0101nd\u0101r ke s\u0101th ky\u0101 w\u0101st\u0101 hai?"
        },
        {
            "chapter": 6,
            "verse": 16,
            "name": "2 Corinthians 6:16",
            "text": "all\u0101h ke maqdis aur buto\u1e45 me\u1e45 ky\u0101 ittif\u0101q ho sakt\u0101 hai? ham to zind\u0101 \u1e33hud\u0101 k\u0101 ghar hai\u1e45. all\u0101h ne y\u016b\u1e45 farm\u0101y\u0101 hai, \u201cmai\u1e45 un ke darmiy\u0101n suk\u016bnat kar\u016b\u1e45ga aur un me\u1e45 phir\u016b\u1e45ga. mai\u1e45 un k\u0101 \u1e33hud\u0101 h\u016b\u1e45g\u0101, aur wuh mer\u012b qaum ho\u1e45ge.\u201d"
        },
        {
            "chapter": 6,
            "verse": 17,
            "name": "2 Corinthians 6:17",
            "text": "chun\u0101\u1e45che rab farm\u0101t\u0101 hai, \u201cis lie un me\u1e45 se nikal \u0101o aur un se alag ho j\u0101o. kis\u012b n\u0101p\u0101k ch\u012bz ko na chh\u016bn\u0101, to phir mai\u1e45 tumhe\u1e45 qab\u016bl kar\u016b\u1e45ga."
        },
        {
            "chapter": 6,
            "verse": 18,
            "name": "2 Corinthians 6:18",
            "text": "mai\u1e45 tumh\u0101r\u0101 b\u0101p h\u016b\u1e45g\u0101 aur tum mere be\u1e6de-be\u1e6diy\u0101\u1e45 hoge, rab q\u0101dir-e-mutlaq farm\u0101t\u0101 hai.\u201d "
        }
    ]
}