{
    "translation": "International Standard Version",
    "abbreviation": "isv",
    "lang": "en",
    "language": "English",
    "direction": "LTR",
    "encoding": "UTF-8",
    "book_nr": 41,
    "book_name": "Mark",
    "chapter": 6,
    "name": "Mark 6",
    "verses": [
        {
            "chapter": 6,
            "verse": 1,
            "name": "Mark 6:1",
            "text": "Jesus Is Rejected at Nazareth JesusLit. He left that place and went back to his hometown,I.e. Nazareth and his disciples followed him."
        },
        {
            "chapter": 6,
            "verse": 2,
            "name": "Mark 6:2",
            "text": "When the Sabbath came, he began to teach in the synagogue, and many who heard him were utterly amazed. They said, \u201cWhere did this man get all these things? What is this wisdom that has been given to him? What great miracles are being done by his hands!"
        },
        {
            "chapter": 6,
            "verse": 3,
            "name": "Mark 6:3",
            "text": "This is the builder,Or carpenter the son of Mary, and the brother of James, Joseph, Judas, and Simon, isn't it? His sisters are here with us, aren't they?\u201d And they were offended by him."
        },
        {
            "chapter": 6,
            "verse": 4,
            "name": "Mark 6:4",
            "text": "Jesus was telling them, \u201cA prophet is without honor only in his hometown, among his relatives, and in his own home.\u201d"
        },
        {
            "chapter": 6,
            "verse": 5,
            "name": "Mark 6:5",
            "text": "He couldn't perform a miracle there except to lay his hands on a few sick people and heal them."
        },
        {
            "chapter": 6,
            "verse": 6,
            "name": "Mark 6:6",
            "text": "He was utterly amazed at their unbelief. Then he went around to the villages and continued teaching."
        },
        {
            "chapter": 6,
            "verse": 7,
            "name": "Mark 6:7",
            "text": "Jesus Sends Out the Twelve He called the twelve and began to send them out two by two, giving them authority over unclean spirits."
        },
        {
            "chapter": 6,
            "verse": 8,
            "name": "Mark 6:8",
            "text": "He instructed them to take nothing along on the trip except a walking stick\u2014no bread, no traveling bag, nothing in their moneybag."
        },
        {
            "chapter": 6,
            "verse": 9,
            "name": "Mark 6:9",
            "text": "They could wear sandals but not take along an extra shirt.Lit. two shirts"
        },
        {
            "chapter": 6,
            "verse": 10,
            "name": "Mark 6:10",
            "text": "He told them repeatedly, \u201cWhenever you go into a home, stay there until you leave that place."
        },
        {
            "chapter": 6,
            "verse": 11,
            "name": "Mark 6:11",
            "text": "If any place will not welcome you and the peopleLit. they refuse to listen to you, when you leave, shake its dust off your feet as a testimony against them.\u201d"
        },
        {
            "chapter": 6,
            "verse": 12,
            "name": "Mark 6:12",
            "text": "So they went and preached that peopleLit. they should repent."
        },
        {
            "chapter": 6,
            "verse": 13,
            "name": "Mark 6:13",
            "text": "They also kept driving out many demons and pouring oil on many who were sick and healing them."
        },
        {
            "chapter": 6,
            "verse": 14,
            "name": "Mark 6:14",
            "text": "Jesus Recalls the Death of John the Baptist King Herod heard about this, because Jesus\u2019Lit. his name had become well-known. He wasOther mss. read They were saying, \u201cJohn the Baptist has been raised from the dead! That's why these miracles are at work in him.\u201d"
        },
        {
            "chapter": 6,
            "verse": 15,
            "name": "Mark 6:15",
            "text": "Others were saying, \u201cHe is Elijah.\u201d Still others were saying, \u201cHe is a prophet like one of the otherThe Gk. lacks other prophets.\u201d"
        },
        {
            "chapter": 6,
            "verse": 16,
            "name": "Mark 6:16",
            "text": "But when Herod heard about it, he said, \u201cJohn, whom I beheaded, has been raised!\u201d"
        },
        {
            "chapter": 6,
            "verse": 17,
            "name": "Mark 6:17",
            "text": "For Herod himself had sent men who arrestedLit. sent and arrested John, bound him with chains, and put him in prison on account of Herodias, his brother Philip's wife. For HerodLit. he had married her."
        },
        {
            "chapter": 6,
            "verse": 18,
            "name": "Mark 6:18",
            "text": "John had been telling Herod, \u201cIt's not lawful for you to have your brother's wife.\u201d"
        },
        {
            "chapter": 6,
            "verse": 19,
            "name": "Mark 6:19",
            "text": "So Herodias bore a grudge against JohnLit. him and wanted to kill him. But she couldn't do it"
        },
        {
            "chapter": 6,
            "verse": 20,
            "name": "Mark 6:20",
            "text": "because Herod was afraid of John. He knew that JohnLit. he was a righteous and holy man, and so he protected him. Whenever he listened to John,Lit. him he did much of what he said.Lit. did many things; other mss. read he became very disturbed In fact, he liked listening to him."
        },
        {
            "chapter": 6,
            "verse": 21,
            "name": "Mark 6:21",
            "text": "An opportunity came during Herod's birthday celebration, when he gave a banquet for his top officials, military officers, and the most important people of Galilee."
        },
        {
            "chapter": 6,
            "verse": 22,
            "name": "Mark 6:22",
            "text": "When the daughter of HerodiasOther mss. read his daughter by Herodias came in and danced, she pleased Herod and his guests. So the king told the girl, \u201cAsk me for anything you want, and I'll give it to you.\u201d"
        },
        {
            "chapter": 6,
            "verse": 23,
            "name": "Mark 6:23",
            "text": "He swore with an oath to her, \u201cI'll give you anything you ask for, up to half of my kingdom.\u201d"
        },
        {
            "chapter": 6,
            "verse": 24,
            "name": "Mark 6:24",
            "text": "So she went out and said to her mother, \u201cWhat should I ask for?\u201dHer motherLit. She replied, \u201cThe head of John the Baptist.\u201d"
        },
        {
            "chapter": 6,
            "verse": 25,
            "name": "Mark 6:25",
            "text": "Immediately the girlLit. she hurried back to the king with her request, \u201cI want you to give me right now the head of John the Baptist on a platter.\u201d"
        },
        {
            "chapter": 6,
            "verse": 26,
            "name": "Mark 6:26",
            "text": "The king was deeply saddened, yet because of his oaths and his guests he was reluctant to refuse her."
        },
        {
            "chapter": 6,
            "verse": 27,
            "name": "Mark 6:27",
            "text": "So without delay the king sent a soldier and ordered him to bring John'sLit. his head. The soldierLit. He went and beheaded him in prison."
        },
        {
            "chapter": 6,
            "verse": 28,
            "name": "Mark 6:28",
            "text": "Then he brought John'sLit. his head on a platter and gave it to the girl, and the girl gave it to her mother."
        },
        {
            "chapter": 6,
            "verse": 29,
            "name": "Mark 6:29",
            "text": "When John'sLit. his disciples heard about this, they came and carried off his body and laid it in a tomb."
        },
        {
            "chapter": 6,
            "verse": 30,
            "name": "Mark 6:30",
            "text": "Jesus Feeds More Than Five Thousand People The apostles gathered around Jesus and told him everything they had done and taught."
        },
        {
            "chapter": 6,
            "verse": 31,
            "name": "Mark 6:31",
            "text": "He said to them, \u201cCome away to a deserted place all by yourselves and rest for a while.\u201d For so many people were coming and going that theyLit. and they didn't even have time to eat."
        },
        {
            "chapter": 6,
            "verse": 32,
            "name": "Mark 6:32",
            "text": "So they went away in a boat to a deserted place by themselves."
        },
        {
            "chapter": 6,
            "verse": 33,
            "name": "Mark 6:33",
            "text": "But many people saw them leave and recognized them. So they hurried there on foot from all the towns and arrived ahead of them."
        },
        {
            "chapter": 6,
            "verse": 34,
            "name": "Mark 6:34",
            "text": "When he got out of the boat,The Gk. lacks of the boat he saw a large crowd. He had compassion for them, because they were like sheep without a shepherd, and he began to teach them many things."
        },
        {
            "chapter": 6,
            "verse": 35,
            "name": "Mark 6:35",
            "text": "When it was quite late, his disciples came to him and said, \u201cThis is a deserted place, and it's already late."
        },
        {
            "chapter": 6,
            "verse": 36,
            "name": "Mark 6:36",
            "text": "Send the crowdsLit. them away so that they can go to the neighboring farms and villages and buy themselves something to eat.\u201d"
        },
        {
            "chapter": 6,
            "verse": 37,
            "name": "Mark 6:37",
            "text": "But he answered them, \u201cYou give them something to eat.\u201dThey said to him, \u201cShould we go and buy 200 denariiThe denarius was the usual day's wage for a laborer. worth of bread and give it to them to eat?\u201d"
        },
        {
            "chapter": 6,
            "verse": 38,
            "name": "Mark 6:38",
            "text": "He asked them, \u201cHow many loaves of bread do you have? Go and see.\u201dThey found out and told him, \u201cFive loavesThe Gk. lacks loaves and two fish.\u201d"
        },
        {
            "chapter": 6,
            "verse": 39,
            "name": "Mark 6:39",
            "text": "Then he ordered them to have all the people sit down in groups on the green grass."
        },
        {
            "chapter": 6,
            "verse": 40,
            "name": "Mark 6:40",
            "text": "So they sat down in groups of hundreds and fifties."
        },
        {
            "chapter": 6,
            "verse": 41,
            "name": "Mark 6:41",
            "text": "Taking the five loaves and the two fish, he looked up to heaven and blessed them. Then he broke the loaves in pieces and kept giving them to his disciples to set before the people.Lit. before them He also divided the two fish among them all."
        },
        {
            "chapter": 6,
            "verse": 42,
            "name": "Mark 6:42",
            "text": "All of them ate and were filled."
        },
        {
            "chapter": 6,
            "verse": 43,
            "name": "Mark 6:43",
            "text": "Then the disciplesLit. they picked up twelve baskets full of leftover bread and fish."
        },
        {
            "chapter": 6,
            "verse": 44,
            "name": "Mark 6:44",
            "text": "There were 5,000 men who had eaten the loaves."
        },
        {
            "chapter": 6,
            "verse": 45,
            "name": "Mark 6:45",
            "text": "Jesus Walks on the Sea JesusLit. He immediately had his disciples get into a boat and cross to Bethsaida ahead of him, while he sent the crowd away."
        },
        {
            "chapter": 6,
            "verse": 46,
            "name": "Mark 6:46",
            "text": "After saying goodbye to them, he went up on a hillside to pray."
        },
        {
            "chapter": 6,
            "verse": 47,
            "name": "Mark 6:47",
            "text": "When evening had come, the boat was in the middle of the sea, while he was alone on the land."
        },
        {
            "chapter": 6,
            "verse": 48,
            "name": "Mark 6:48",
            "text": "He saw that they were straining at the oars, because the wind was against them. Shortly before dawnLit. In the fourth watch of the night he came to them, walking on the sea. He intended to go up right beside them,"
        },
        {
            "chapter": 6,
            "verse": 49,
            "name": "Mark 6:49",
            "text": "but when they saw him walking on the sea, they thought it was a ghost and began to scream."
        },
        {
            "chapter": 6,
            "verse": 50,
            "name": "Mark 6:50",
            "text": "All of them saw him and were terrified. Immediately he said to them, \u201cHave courage! It is I. Stop being afraid!\u201d"
        },
        {
            "chapter": 6,
            "verse": 51,
            "name": "Mark 6:51",
            "text": "Then he got into the boat with them, and the wind stopped blowing. The disciplesLit. They were utterly astounded,"
        },
        {
            "chapter": 6,
            "verse": 52,
            "name": "Mark 6:52",
            "text": "for they didn't understand the significance of the loaves. Instead, their hearts were hardened."
        },
        {
            "chapter": 6,
            "verse": 53,
            "name": "Mark 6:53",
            "text": "Jesus Heals the Sick in Gennesaret When they had crossed over, they came ashore at Gennesaret and anchored the boat."
        },
        {
            "chapter": 6,
            "verse": 54,
            "name": "Mark 6:54",
            "text": "As soon as they got out of the boat, the people recognized Jesus.Lit. him"
        },
        {
            "chapter": 6,
            "verse": 55,
            "name": "Mark 6:55",
            "text": "They ran all over the countryside and began carrying the sick on their cots to any place where they heard he was."
        },
        {
            "chapter": 6,
            "verse": 56,
            "name": "Mark 6:56",
            "text": "Wherever he went, whether into villages, towns, or farms, peopleLit. they would place their sick in the marketplaces and beg him to let them touch even the tassel of his garment, and all who touched it were healed."
        }
    ]
}