{
    "translation": "Vulgata Sistina",
    "abbreviation": "vulgsistine",
    "lang": "la",
    "language": "Latin",
    "direction": "LTR",
    "encoding": "UTF-8",
    "book_nr": 14,
    "book_name": "2 Chronicles",
    "chapter": 22,
    "name": "2 Chronicles 22",
    "verses": [
        {
            "chapter": 22,
            "verse": 1,
            "name": "2 Chronicles 22:1",
            "text": "Constituerunt autem habitatores Ierusalem Ochoziam filium eius minimum, regem pro eo: omnes enim maiores natu, qui ante eum fuerant, interfecerant latrones Arabum, qui irruerant in castra: regnavitque Ochozias filius Ioram regis Iuda. "
        },
        {
            "chapter": 22,
            "verse": 2,
            "name": "2 Chronicles 22:2",
            "text": "Quadraginta duorum annorum erat Ochozias cum regnare coepisset, et uno anno regnavit in Ierusalem, et nomen matris eius Athalia filia Amri. "
        },
        {
            "chapter": 22,
            "verse": 3,
            "name": "2 Chronicles 22:3",
            "text": "Sed et ipse ingressus est per vias domus Achab: mater enim eius impulit eum ut impie ageret. "
        },
        {
            "chapter": 22,
            "verse": 4,
            "name": "2 Chronicles 22:4",
            "text": "Fecit igitur malum in conspectu Domini, sicut domus Achab: ipsi enim fuerunt ei consiliarii post mortem patris sui, in interitum eius. "
        },
        {
            "chapter": 22,
            "verse": 5,
            "name": "2 Chronicles 22:5",
            "text": "Ambulavitque in consiliis eorum. Et perrexit cum Ioram filio Achab rege Israel, in bellum contra Hazael regem Syriae in Ramoth Galaad: vulneraveruntque Syri Ioram. "
        },
        {
            "chapter": 22,
            "verse": 6,
            "name": "2 Chronicles 22:6",
            "text": "Qui reversus est ut curaretur in Iezrahel: multas enim plagas acceperat in supradicto certamine. Igitur Ochozias filius Ioram rex Iuda, descendit ut inviseret Ioram filium Achab in Iezrahel aegrotantem. "
        },
        {
            "chapter": 22,
            "verse": 7,
            "name": "2 Chronicles 22:7",
            "text": "Voluntatis quippe fuit Dei adversus Ochoziam, ut veniret ad Ioram: et cum venisset, et egrederetur cum eo adversum Iehu filium Namsi, quem unxit Dominus ut deleret domum Achab. "
        },
        {
            "chapter": 22,
            "verse": 8,
            "name": "2 Chronicles 22:8",
            "text": "Cum ergo everteret Iehu domum Achab, invenit principes Iuda, et filios fratrum Ochoziae, qui ministrabant ei, et interfecit illos. "
        },
        {
            "chapter": 22,
            "verse": 9,
            "name": "2 Chronicles 22:9",
            "text": "Ipsum quoque perquirens Ochoziam, comprehendit latitantem in Samaria: adductumque ad se, occidit, et sepelierunt eum: eo quod esset filius Iosaphat, qui quaesierat Dominum in toto corde suo. nec erat ultra spes aliqua ut de stirpe quis regnaret Ochoziae. "
        },
        {
            "chapter": 22,
            "verse": 10,
            "name": "2 Chronicles 22:10",
            "text": "siquidem Athalia mater eius videns quod mortuus esset filius suus, surrexit, et interfecit omnem stirpem regiam domus Ioram. "
        },
        {
            "chapter": 22,
            "verse": 11,
            "name": "2 Chronicles 22:11",
            "text": "Porro Iosabeth filia regis tulit Ioas filium Ochoziae, et furata est eum de medio filiorum regis, cum interficerentur: absconditque eum cum nutrice sua in cubiculo lectulorum: Iosabeth autem, quae absconderat eum, erat filia regis Ioram, uxor Ioiadae pontificis, soror Ochoziae, et idcirco Athalia non interfecit eum. "
        },
        {
            "chapter": 22,
            "verse": 12,
            "name": "2 Chronicles 22:12",
            "text": "Fuit ergo cum eis in domo Dei absconditus sex annis, quibus regnavit Athalia super terram.  "
        }
    ]
}