{
    "translation": "World English Bible",
    "abbreviation": "web",
    "lang": "en",
    "language": "English",
    "direction": "LTR",
    "encoding": "UTF-8",
    "book_nr": 2,
    "book_name": "Exodus",
    "chapter": 35,
    "name": "Exodus 35",
    "verses": [
        {
            "chapter": 35,
            "verse": 1,
            "name": "Exodus 35:1",
            "text": "Moses assembled all the congregation of the children of Israel, and said to them, \u201cThese are the words which Yahweh has commanded, that you should do them."
        },
        {
            "chapter": 35,
            "verse": 2,
            "name": "Exodus 35:2",
            "text": "\u2018Six days shall work be done, but on the seventh day there shall be a holy day for you, a Sabbath of solemn rest to Yahweh: whoever does any work in it shall be put to death."
        },
        {
            "chapter": 35,
            "verse": 3,
            "name": "Exodus 35:3",
            "text": "You shall kindle no fire throughout your habitations on the Sabbath day.\u2019\u201d  "
        },
        {
            "chapter": 35,
            "verse": 4,
            "name": "Exodus 35:4",
            "text": "  Moses spoke to all the congregation of the children of Israel, saying, \u201cThis is the thing which Yahweh commanded, saying,"
        },
        {
            "chapter": 35,
            "verse": 5,
            "name": "Exodus 35:5",
            "text": "\u2018Take from among you an offering to Yahweh. Whoever is of a willing heart, let him bring it, Yahweh\u2019s offering: gold, silver, brass,"
        },
        {
            "chapter": 35,
            "verse": 6,
            "name": "Exodus 35:6",
            "text": "blue, purple, scarlet, fine linen, goats\u2019 hair,"
        },
        {
            "chapter": 35,
            "verse": 7,
            "name": "Exodus 35:7",
            "text": "rams\u2019 skins dyed red, sea cow hides, acacia wood,"
        },
        {
            "chapter": 35,
            "verse": 8,
            "name": "Exodus 35:8",
            "text": "oil for the light, spices for the anointing oil and for the sweet incense,"
        },
        {
            "chapter": 35,
            "verse": 9,
            "name": "Exodus 35:9",
            "text": "onyx stones, and stones to be set for the ephod and for the breastplate.  "
        },
        {
            "chapter": 35,
            "verse": 10,
            "name": "Exodus 35:10",
            "text": "  \u201c\u2018Let every wise-hearted man among you come, and make all that Yahweh has commanded:"
        },
        {
            "chapter": 35,
            "verse": 11,
            "name": "Exodus 35:11",
            "text": "the tabernacle, its outer covering, its roof, its clasps, its boards, its bars, its pillars, and its sockets;"
        },
        {
            "chapter": 35,
            "verse": 12,
            "name": "Exodus 35:12",
            "text": "the ark, and its poles, the mercy seat, the veil of the screen;"
        },
        {
            "chapter": 35,
            "verse": 13,
            "name": "Exodus 35:13",
            "text": "the table with its poles and all its vessels, and the show bread;"
        },
        {
            "chapter": 35,
            "verse": 14,
            "name": "Exodus 35:14",
            "text": "the lamp stand also for the light, with its vessels, its lamps, and the oil for the light;"
        },
        {
            "chapter": 35,
            "verse": 15,
            "name": "Exodus 35:15",
            "text": "and the altar of incense with its poles, the anointing oil, the sweet incense, the screen for the door, at the door of the tabernacle;"
        },
        {
            "chapter": 35,
            "verse": 16,
            "name": "Exodus 35:16",
            "text": "the altar of burnt offering, with its grating of brass, it poles, and all its vessels, the basin and its base;"
        },
        {
            "chapter": 35,
            "verse": 17,
            "name": "Exodus 35:17",
            "text": "the hangings of the court, its pillars, their sockets, and the screen for the gate of the court;"
        },
        {
            "chapter": 35,
            "verse": 18,
            "name": "Exodus 35:18",
            "text": "the pins of the tabernacle, the pins of the court, and their cords;"
        },
        {
            "chapter": 35,
            "verse": 19,
            "name": "Exodus 35:19",
            "text": "the finely worked garments, for ministering in the holy place, the holy garments for Aaron the priest, and the garments of his sons, to minister in the priest\u2019s office.\u2019\u201d  "
        },
        {
            "chapter": 35,
            "verse": 20,
            "name": "Exodus 35:20",
            "text": "  All the congregation of the children of Israel departed from the presence of Moses."
        },
        {
            "chapter": 35,
            "verse": 21,
            "name": "Exodus 35:21",
            "text": "They came, everyone whose heart stirred him up, and everyone whom his spirit made willing, and brought Yahweh\u2019s offering, for the work of the Tent of Meeting, and for all of its service, and for the holy garments."
        },
        {
            "chapter": 35,
            "verse": 22,
            "name": "Exodus 35:22",
            "text": "They came, both men and women, as many as were willing-hearted, and brought brooches, earrings, signet rings, and armlets, all jewels of gold; even every man who offered an offering of gold to Yahweh."
        },
        {
            "chapter": 35,
            "verse": 23,
            "name": "Exodus 35:23",
            "text": "Everyone, with whom was found blue, purple, scarlet, fine linen, goats\u2019 hair, rams\u2019 skins dyed red, and sea cow hides, brought them."
        },
        {
            "chapter": 35,
            "verse": 24,
            "name": "Exodus 35:24",
            "text": "Everyone who offered an offering of silver and brass brought Yahweh\u2019s offering; and everyone, with whom was found acacia wood for any work of the service, brought it."
        },
        {
            "chapter": 35,
            "verse": 25,
            "name": "Exodus 35:25",
            "text": "All the women who were wise-hearted spun with their hands, and brought that which they had spun, the blue, the purple, the scarlet, and the fine linen."
        },
        {
            "chapter": 35,
            "verse": 26,
            "name": "Exodus 35:26",
            "text": "All the women whose heart stirred them up in wisdom spun the goats\u2019 hair."
        },
        {
            "chapter": 35,
            "verse": 27,
            "name": "Exodus 35:27",
            "text": "The rulers brought the onyx stones, and the stones to be set, for the ephod and for the breastplate;"
        },
        {
            "chapter": 35,
            "verse": 28,
            "name": "Exodus 35:28",
            "text": "and the spice, and the oil for the light, for the anointing oil, and for the sweet incense."
        },
        {
            "chapter": 35,
            "verse": 29,
            "name": "Exodus 35:29",
            "text": "The children of Israel brought a freewill offering to Yahweh; every man and woman, whose heart made them willing to bring for all the work, which Yahweh had commanded to be made by Moses.  "
        },
        {
            "chapter": 35,
            "verse": 30,
            "name": "Exodus 35:30",
            "text": "  Moses said to the children of Israel, \u201cBehold, Yahweh has called by name Bezalel the son of Uri, the son of Hur, of the tribe of Judah."
        },
        {
            "chapter": 35,
            "verse": 31,
            "name": "Exodus 35:31",
            "text": "He has filled him with the Spirit of God, in wisdom, in understanding, in knowledge, and in all kinds of workmanship;"
        },
        {
            "chapter": 35,
            "verse": 32,
            "name": "Exodus 35:32",
            "text": "and to make skillful works, to work in gold, in silver, in brass,"
        },
        {
            "chapter": 35,
            "verse": 33,
            "name": "Exodus 35:33",
            "text": "in cutting of stones for setting, and in carving of wood, to work in all kinds of skillful workmanship."
        },
        {
            "chapter": 35,
            "verse": 34,
            "name": "Exodus 35:34",
            "text": "He has put in his heart that he may teach, both he, and Oholiab, the son of Ahisamach, of the tribe of Dan."
        },
        {
            "chapter": 35,
            "verse": 35,
            "name": "Exodus 35:35",
            "text": "He has filled them with wisdom of heart, to work all kinds of workmanship, of the engraver, of the skillful workman, and of the embroiderer, in blue, in purple, in scarlet, and in fine linen, and of the weaver, even of those who do any workmanship, and of those who make skillful works.   "
        }
    ]
}