{
    "translation": "World English Bible",
    "abbreviation": "web",
    "lang": "en",
    "language": "English",
    "direction": "LTR",
    "encoding": "UTF-8",
    "book_nr": 2,
    "book_name": "Exodus",
    "chapter": 9,
    "name": "Exodus 9",
    "verses": [
        {
            "chapter": 9,
            "verse": 1,
            "name": "Exodus 9:1",
            "text": "Then Yahweh said to Moses, \u201cGo in to Pharaoh, and tell him, \u2018This is what Yahweh, the God of the Hebrews, says: \u201cLet my people go, that they may serve me."
        },
        {
            "chapter": 9,
            "verse": 2,
            "name": "Exodus 9:2",
            "text": "For if you refuse to let them go, and hold them still,"
        },
        {
            "chapter": 9,
            "verse": 3,
            "name": "Exodus 9:3",
            "text": "behold, the hand of Yahweh is on your livestock which are in the field, on the horses, on the donkeys, on the camels, on the herds, and on the flocks with a very grievous pestilence."
        },
        {
            "chapter": 9,
            "verse": 4,
            "name": "Exodus 9:4",
            "text": "Yahweh will make a distinction between the livestock of Israel and the livestock of Egypt; and nothing shall die of all that belongs to the children of Israel.\u201d\u2019\u201d"
        },
        {
            "chapter": 9,
            "verse": 5,
            "name": "Exodus 9:5",
            "text": "Yahweh appointed a set time, saying, \u201cTomorrow Yahweh shall do this thing in the land.\u201d"
        },
        {
            "chapter": 9,
            "verse": 6,
            "name": "Exodus 9:6",
            "text": "Yahweh did that thing on the next day; and all the livestock of Egypt died, but of the livestock of the children of Israel, not one died."
        },
        {
            "chapter": 9,
            "verse": 7,
            "name": "Exodus 9:7",
            "text": "Pharaoh sent, and, behold, there was not so much as one of the livestock of the Israelites dead. But the heart of Pharaoh was stubborn, and he didn\u2019t let the people go.  "
        },
        {
            "chapter": 9,
            "verse": 8,
            "name": "Exodus 9:8",
            "text": "  Yahweh said to Moses and to Aaron, \u201cTake to you handfuls of ashes of the furnace, and let Moses sprinkle it toward the sky in the sight of Pharaoh."
        },
        {
            "chapter": 9,
            "verse": 9,
            "name": "Exodus 9:9",
            "text": "It shall become small dust over all the land of Egypt, and shall be a boil breaking out with boils on man and on animal, throughout all the land of Egypt.\u201d  "
        },
        {
            "chapter": 9,
            "verse": 10,
            "name": "Exodus 9:10",
            "text": "  They took ashes of the furnace, and stood before Pharaoh; and Moses sprinkled it up toward the sky; and it became a boil breaking out with boils on man and on animal."
        },
        {
            "chapter": 9,
            "verse": 11,
            "name": "Exodus 9:11",
            "text": "The magicians couldn\u2019t stand before Moses because of the boils; for the boils were on the magicians, and on all the Egyptians."
        },
        {
            "chapter": 9,
            "verse": 12,
            "name": "Exodus 9:12",
            "text": "Yahweh hardened the heart of Pharaoh, and he didn\u2019t listen to them, as Yahweh had spoken to Moses.  "
        },
        {
            "chapter": 9,
            "verse": 13,
            "name": "Exodus 9:13",
            "text": "  Yahweh said to Moses, \u201cRise up early in the morning, and stand before Pharaoh, and tell him, \u2018This is what Yahweh, the God of the Hebrews, says: \u201cLet my people go, that they may serve me."
        },
        {
            "chapter": 9,
            "verse": 14,
            "name": "Exodus 9:14",
            "text": "For this time I will send all my plagues against your heart, against your officials, and against your people; that you may know that there is no one like me in all the earth."
        },
        {
            "chapter": 9,
            "verse": 15,
            "name": "Exodus 9:15",
            "text": "For now I would have stretched out my hand, and struck you and your people with pestilence, and you would have been cut off from the earth;"
        },
        {
            "chapter": 9,
            "verse": 16,
            "name": "Exodus 9:16",
            "text": "but indeed for this cause I have made you stand: to show you my power, and that my name may be declared throughout all the earth;"
        },
        {
            "chapter": 9,
            "verse": 17,
            "name": "Exodus 9:17",
            "text": "as you still exalt yourself against my people, that you won\u2019t let them go."
        },
        {
            "chapter": 9,
            "verse": 18,
            "name": "Exodus 9:18",
            "text": "Behold, tomorrow about this time I will cause it to rain a very grievous hail, such as has not been in Egypt since the day it was founded even until now."
        },
        {
            "chapter": 9,
            "verse": 19,
            "name": "Exodus 9:19",
            "text": "Now therefore command that all of your livestock and all that you have in the field be brought into shelter. Every man and animal that is found in the field, and isn\u2019t brought home, the hail shall come down on them, and they shall die.\u201d\u2019\u201d  "
        },
        {
            "chapter": 9,
            "verse": 20,
            "name": "Exodus 9:20",
            "text": "  Those who feared Yahweh\u2019s word among the servants of Pharaoh made their servants and their livestock flee into the houses."
        },
        {
            "chapter": 9,
            "verse": 21,
            "name": "Exodus 9:21",
            "text": "Whoever didn\u2019t respect Yahweh\u2019s word left his servants and his livestock in the field.  "
        },
        {
            "chapter": 9,
            "verse": 22,
            "name": "Exodus 9:22",
            "text": "  Yahweh said to Moses, \u201cStretch out your hand toward the sky, that there may be hail in all the land of Egypt, on man, and on animal, and on every herb of the field, throughout the land of Egypt.\u201d  "
        },
        {
            "chapter": 9,
            "verse": 23,
            "name": "Exodus 9:23",
            "text": "  Moses stretched out his rod toward the heavens, and Yahweh sent thunder, hail, and lightning flashed down to the earth. Yahweh rained hail on the land of Egypt."
        },
        {
            "chapter": 9,
            "verse": 24,
            "name": "Exodus 9:24",
            "text": "So there was very severe hail, and lightning mixed with the hail, such as had not been in all the land of Egypt since it became a nation."
        },
        {
            "chapter": 9,
            "verse": 25,
            "name": "Exodus 9:25",
            "text": "The hail struck throughout all the land of Egypt all that was in the field, both man and animal; and the hail struck every herb of the field, and broke every tree of the field."
        },
        {
            "chapter": 9,
            "verse": 26,
            "name": "Exodus 9:26",
            "text": "Only in the land of Goshen, where the children of Israel were, there was no hail.  "
        },
        {
            "chapter": 9,
            "verse": 27,
            "name": "Exodus 9:27",
            "text": "  Pharaoh sent, and called for Moses and Aaron, and said to them, \u201cI have sinned this time. Yahweh is righteous, and I and my people are wicked."
        },
        {
            "chapter": 9,
            "verse": 28,
            "name": "Exodus 9:28",
            "text": "Pray to Yahweh; for there has been enough of mighty thunderings and hail. I will let you go, and you shall stay no longer.\u201d  "
        },
        {
            "chapter": 9,
            "verse": 29,
            "name": "Exodus 9:29",
            "text": "  Moses said to him, \u201cAs soon as I have gone out of the city, I will spread abroad my hands to Yahweh. The thunders shall cease, neither shall there be any more hail; that you may know that the earth is Yahweh\u2019s."
        },
        {
            "chapter": 9,
            "verse": 30,
            "name": "Exodus 9:30",
            "text": "But as for you and your servants, I know that you don\u2019t yet fear Yahweh God.\u201d  "
        },
        {
            "chapter": 9,
            "verse": 31,
            "name": "Exodus 9:31",
            "text": "  The flax and the barley were struck, for the barley was in the ear, and the flax was in bloom."
        },
        {
            "chapter": 9,
            "verse": 32,
            "name": "Exodus 9:32",
            "text": "But the wheat and the spelt were not struck, for they had not grown up."
        },
        {
            "chapter": 9,
            "verse": 33,
            "name": "Exodus 9:33",
            "text": "Moses went out of the city from Pharaoh, and spread abroad his hands to Yahweh; and the thunders and hail ceased, and the rain was not poured on the earth."
        },
        {
            "chapter": 9,
            "verse": 34,
            "name": "Exodus 9:34",
            "text": "When Pharaoh saw that the rain and the hail and the thunders were ceased, he sinned yet more, and hardened his heart, he and his servants."
        },
        {
            "chapter": 9,
            "verse": 35,
            "name": "Exodus 9:35",
            "text": "The heart of Pharaoh was hardened, and he didn\u2019t let the children of Israel go, just as Yahweh had spoken through Moses.   "
        }
    ]
}