{
    "translation": "Samaritan Pentateuch with variant readings",
    "abbreviation": "spvar",
    "lang": "he",
    "language": "Hebrew",
    "direction": "RTL",
    "encoding": "UTF-8",
    "book_nr": 5,
    "book_name": "Deuteronomy",
    "chapter": 33,
    "name": "Deuteronomy 33",
    "verses": [
        {
            "chapter": 33,
            "verse": 1,
            "name": "Deuteronomy 33:1",
            "text": "\u05d5\u05d6\u05d0\u05ea \u05d4\u05d1\u05e8\u05db\u05d4 \u05d0\u05e9\u05e8 \u05d1\u05e8\u05da \u05de\u05e9\u05d4 \u05d0\u05d9\u05e9 \u05d4\u05d0\u05dc\u05d4\u05d9\u05dd \u05d0\u05ea \u05d1\u05e0\u05d9 \u05d9\u05e9\u05e8\u05d0\u05dc \u05dc\u05e4\u05e0\u05d9 \u05de\u05d5\u05ea\u05d5"
        },
        {
            "chapter": 33,
            "verse": 2,
            "name": "Deuteronomy 33:2",
            "text": "\u05d5\u05d9\u05d0\u05de\u05e8 \u05d9\u05d4\u05d5\u05d4 \u05de\u05e1\u05d9\u05e0\u05d9 \u05d1\u05d0 \u05d5\u05d6\u05e8\u05d7 \u05de\u05e9\u05e2\u05d9\u05e8 \u05dc\u05de\u05d5 \u05d4\u05d5\u05e4\u05d9\u05e2 \u05de\u05d4\u05e8 \u05e4\u05e8\u05d0\u05df \u05d5\u05d0\u05ea\u05d5 \u05de\u05e8\u05d1\u05d1\u05d5\u05ea \u05e7\u05d3\u05e9 \u05de\u05d9\u05de\u05e0\u05d5 \u05d0\u05e9\u05d3\u05ea \u05dc\u05de\u05d5"
        },
        {
            "chapter": 33,
            "verse": 3,
            "name": "Deuteronomy 33:3",
            "text": "\u05d0\u05e3 \u05d7\u05d5\u05d1\u05d1 \u05e2\u05de\u05d9\u05dd \u05d5\u05db\u05dc \u05e7\u05d3\u05e9\u05d9\u05d5 \u05d1\u05d9\u05d3\u05da \u05d5\u05d4\u05dd \u05ea\u05db\u05d5 \u05dc\u05e8\u05d2\u05dc\u05d9\u05da \u05d5\u05e9\u05d0\u05d5 \u05de\u05d3\u05d1\u05e8\u05ea\u05da"
        },
        {
            "chapter": 33,
            "verse": 4,
            "name": "Deuteronomy 33:4",
            "text": "\u05ea\u05d5\u05e8\u05d4 \u05e6\u05d5\u05d4 \u05dc\u05e0\u05d5 \u05de\u05e9\u05d4 \u05de\u05d5\u05e8\u05e9\u05d4 \u05e7\u05d4\u05dc\u05ea \u05d9\u05e2\u05e7\u05d1"
        },
        {
            "chapter": 33,
            "verse": 5,
            "name": "Deuteronomy 33:5",
            "text": "\u05d5\u05d9\u05d4\u05d9 \u05d1\u05d9\u05e9\u05e8\u05d5\u05df \u05de\u05dc\u05da \u05d1\u05d4\u05ea\u05d0\u05e1\u05e3 \u05e8\u05d0\u05e9\u05d9 \u05d4\u05e2\u05dd \u05d9\u05d7\u05d3\u05d5 \u05e9\u05d1\u05d8\u05d9 \u05d9\u05e9\u05e8\u05d0\u05dc"
        },
        {
            "chapter": 33,
            "verse": 6,
            "name": "Deuteronomy 33:6",
            "text": "\u05d9\u05d7\u05d9 \u05e8\u05d0\u05d5\u05d1\u05df \u05d5\u05d0\u05dc \u05d9\u05de\u05d5\u05ea \u05d5\u05d9\u05d4\u05d9 \u05de\u05d0\u05ea\u05d5 \u05de\u05e1\u05e4\u05e8"
        },
        {
            "chapter": 33,
            "verse": 7,
            "name": "Deuteronomy 33:7",
            "text": "\u05d5\u05d6\u05d0\u05ea \u05dc\u05d9\u05d4\u05d5\u05d3\u05d4 \u05d5\u05d9\u05d0\u05de\u05e8 \u05e9\u05de\u05e2 \u05d9\u05d4\u05d5\u05d4 \u05e7\u05d5\u05dc \u05d9\u05d4\u05d5\u05d3\u05d4 \u05d5\u05d0\u05dc \u05e2\u05de\u05d5 \u05ea\u05d1\u05d9\u05d0\u05e0\u05d5 \u05d9\u05d3\u05d5 \u05e8\u05d1 \u05dc\u05d5 \u05d5\u05e2\u05d6\u05e8 \u05de\u05e6\u05e8\u05d9\u05d5 \u05ea\u05d4\u05d9\u05d4 "
        },
        {
            "chapter": 33,
            "verse": 8,
            "name": "Deuteronomy 33:8",
            "text": "\u05d5\u05dc\u05dc\u05d5\u05d9 \u05d0\u05de\u05e8 \u05ea\u05de\u05d9\u05da \u05d5\u05d0\u05e8\u05d9\u05da \u05dc\u05d0\u05d9\u05e9 \u05d7\u05e1\u05d9\u05d3\u05da \u05d0\u05e9\u05e8 \u05e0\u05e1\u05d9\u05ea\u05d4\u05d5 \u05d1\u05de\u05e1\u05d4 \u05d5\u05ea\u05e8\u05d9\u05d1\u05d4\u05d5 \u05e2\u05dc \u05de\u05d9 \u05de\u05e8\u05d9\u05d1\u05d4"
        },
        {
            "chapter": 33,
            "verse": 9,
            "name": "Deuteronomy 33:9",
            "text": "\u05d4\u05d0\u05de\u05e8 \u05dc\u05d0\u05d1\u05d9\u05d5 \u05d5\u05dc\u05d0\u05de\u05d5 \u05dc\u05d0 \u05e8\u05d0\u05d9\u05ea\u05d9 \u05d5\u05d0\u05ea \u05d0\u05d7\u05d9\u05d5 \u05dc\u05d0 \u05d4\u05db\u05e8 \u05d5\u05d0\u05ea \u05d1\u05e0\u05d5 \u05dc\u05d0 \u05d9\u05d3\u05e2 \u05db\u05d9 \u05e9\u05de\u05e8\u05d5 \u05d0\u05de\u05e8\u05ea\u05da \u05d5\u05d1\u05e8\u05d9\u05ea\u05da \u05d9\u05e0\u05e6\u05e8\u05d5"
        },
        {
            "chapter": 33,
            "verse": 10,
            "name": "Deuteronomy 33:10",
            "text": "\u05d9\u05d5\u05e8\u05d5 \u05de\u05e9\u05e4\u05d8\u05d9\u05da \u05dc\u05d9\u05e2\u05e7\u05d1 \u05d5\u05ea\u05d5\u05e8\u05ea\u05da \u05dc\u05d9\u05e9\u05e8\u05d0\u05dc \u05d9\u05e9\u05d9\u05de\u05d5 \u05e7\u05d8\u05e8\u05d4 \u05d1\u05d0\u05e4\u05da \u05d5\u05db\u05dc\u05d9\u05dc \u05e2\u05dc \u05de\u05d6\u05d1\u05d7\u05da"
        },
        {
            "chapter": 33,
            "verse": 11,
            "name": "Deuteronomy 33:11",
            "text": "\u05d1\u05e8\u05da \u05d9\u05d4\u05d5\u05d4 \u05d7\u05d9\u05dc\u05d5 \u05d5\u05e4\u05e2\u05dc \u05d9\u05d3\u05d5 \u05ea\u05e8\u05e6\u05d4 \u05de\u05d7\u05e5 \u05de\u05ea\u05e0\u05d9 \u05e7\u05de\u05d9\u05d5 \u05d5\u05de\u05e9\u05e0\u05d0\u05d9\u05d5 \u05de\u05df \u05d9\u05e7\u05d9\u05de\u05e0\u05d5"
        },
        {
            "chapter": 33,
            "verse": 12,
            "name": "Deuteronomy 33:12",
            "text": "\u05d5\u05dc\u05d1\u05e0\u05d9\u05de\u05d9\u05dd \u05d0\u05de\u05e8 \u05d9\u05d3 \u05d9\u05d3 \u05d9\u05d4\u05d5\u05d4 \u05d9\u05e9\u05db\u05df \u05dc\u05d1\u05d8\u05d7  \u05d7\u05e4\u05e3 \u05e2\u05dc\u05d9\u05d5 \u05db\u05dc \u05d4\u05d9\u05d5\u05dd \u05d5\u05d1\u05d9\u05df \u05db\u05ea\u05e4\u05ea\u05d9\u05d5 \u05e9\u05db\u05df"
        },
        {
            "chapter": 33,
            "verse": 13,
            "name": "Deuteronomy 33:13",
            "text": "\u05d5\u05dc\u05d9\u05d5\u05e1\u05e3 \u05d0\u05de\u05e8 \u05de\u05d1\u05e8\u05db\u05ea \u05d9\u05d4\u05d5\u05d4 \u05d0\u05e8\u05e6\u05d5 \u05de\u05de\u05d2\u05d3 \u05e9\u05de\u05d9\u05dd \u05de\u05d8\u05dc \u05d5\u05de\u05ea\u05d4\u05d5\u05dd \u05e8\u05d1\u05e6\u05ea \u05ea\u05d7\u05ea"
        },
        {
            "chapter": 33,
            "verse": 14,
            "name": "Deuteronomy 33:14",
            "text": "\u05d5\u05de\u05de\u05d2\u05d3 \u05ea\u05d1\u05d5\u05d0\u05ea \u05e9\u05de\u05e9 \u05d5\u05de\u05de\u05d2\u05d3 \u05d2\u05e8\u05d5\u05e9\u05d9 \u05d9\u05e8\u05d7\u05d9\u05dd"
        },
        {
            "chapter": 33,
            "verse": 15,
            "name": "Deuteronomy 33:15",
            "text": "\u05d5\u05de\u05e8\u05d0\u05e9 \u05d4\u05e8\u05d9 \u05e7\u05d3\u05dd \u05d5\u05de\u05de\u05d2\u05d3 \u05d2\u05d1\u05e2\u05ea \u05e2\u05d5\u05dc\u05dd "
        },
        {
            "chapter": 33,
            "verse": 16,
            "name": "Deuteronomy 33:16",
            "text": "\u05d5\u05de\u05de\u05d2\u05d3 \u05d0\u05e8\u05e5 \u05d5\u05de\u05dc\u05d5\u05d0\u05d4 \u05d5\u05e8\u05e6\u05d5\u05df \u05e9\u05db\u05df \u05e1\u05e0\u05d4 \u05ea\u05d1\u05d5\u05d0\u05ea\u05d4 \u05dc\u05e8\u05d0\u05e9 \u05d9\u05d5\u05e1\u05e3 \u05d5\u05dc\u05e7\u05d3\u05e7\u05d3 \u05e0\u05d6\u05d9\u05e8 \u05d0\u05d7\u05d9\u05d5"
        },
        {
            "chapter": 33,
            "verse": 17,
            "name": "Deuteronomy 33:17",
            "text": "\u05d1\u05db\u05d5\u05e8 \u05e9\u05d5\u05e8 \u05d4\u05d3\u05e8 \u05dc\u05d5 \u05d5\u05e7\u05e8\u05e0\u05d9 \u05e8\u05d0\u05de\u05d9 \u05e7\u05e8\u05e0\u05d9\u05d5 \u05d1\u05d4\u05dd \u05e2\u05de\u05d9\u05dd \u05d9\u05e0\u05d2\u05d7 \u05d9\u05d7\u05d3\u05d5 \u05d0\u05e4\u05e1\u05d9 \u05d4\u05d0\u05e8\u05e5 \u05d4\u05dd \u05e8\u05d1\u05d1\u05d5\u05ea \u05d0\u05e4\u05e8\u05d9\u05dd \u05d5\u05d4\u05dd \u05d0\u05dc\u05e4\u05d9 \u05de\u05e0\u05e9\u05d4"
        },
        {
            "chapter": 33,
            "verse": 18,
            "name": "Deuteronomy 33:18",
            "text": "\u05d5\u05dc\u05d6\u05d1\u05d5\u05dc\u05df \u05d0\u05de\u05e8 \u05e9\u05de\u05d7 \u05d6\u05d1\u05d5\u05dc\u05df \u05d1\u05e6\u05d0\u05ea\u05da \u05d5\u05d9\u05e9\u05e9\u05db\u05e8 \u05d1\u05d0\u05d4\u05dc\u05d9\u05da"
        },
        {
            "chapter": 33,
            "verse": 19,
            "name": "Deuteronomy 33:19",
            "text": "\u05e2\u05de\u05d9\u05dd \u05d4\u05e8\u05d9 \u05d9\u05e7\u05e8\u05d0\u05d5 \u05d5\u05e9\u05dd \u05d9\u05d6\u05d1\u05d7\u05d5 \u05d6\u05d1\u05d7\u05d9 \u05e6\u05d3\u05e7 \u05db\u05d9 \u05e9\u05e4\u05e2 \u05d9\u05de\u05d9\u05dd \u05d9\u05d9\u05e0\u05e7 \u05d5\u05e9\u05e4\u05d5\u05e0\u05d9 \u05d8\u05de\u05d5\u05e0\u05d9 \u05d7\u05d5\u05dc"
        },
        {
            "chapter": 33,
            "verse": 20,
            "name": "Deuteronomy 33:20",
            "text": "\u05d5\u05dc\u05d2\u05d3 \u05d0\u05de\u05e8 \u05d1\u05e8\u05d5\u05da \u05de\u05e8\u05d7\u05d9\u05d1 \u05d2\u05d3 \u05db\u05dc\u05d1\u05d9\u05d4 \u05e9\u05db\u05df \u05d8\u05e8\u05e3 \u05d6\u05e8\u05d5\u05e2 \u05d5\u05d2\u05dd \u05e7\u05d3\u05e7\u05d3"
        },
        {
            "chapter": 33,
            "verse": 21,
            "name": "Deuteronomy 33:21",
            "text": "\u05d5\u05d9\u05e8\u05d0 \u05e8\u05d0\u05e9\u05d9\u05ea \u05dc\u05d5 \u05db\u05d9 \u05e9\u05dd \u05d7\u05dc\u05e7\u05ea \u05de\u05d7\u05e7\u05e7 \u05e1\u05e4\u05d5\u05df \u05d5\u05d9\u05ea\u05d0 \u05e8\u05d0\u05e9\u05d9 \u05d4\u05e2\u05dd \u05e6\u05d3\u05e7\u05ea \u05d9\u05d4\u05d5\u05d4 \u05e2\u05e9\u05d4 \u05d5\u05de\u05e9\u05e4\u05d8\u05d9\u05d5 \u05e2\u05dd \u05d9\u05e9\u05e8\u05d0\u05dc"
        },
        {
            "chapter": 33,
            "verse": 22,
            "name": "Deuteronomy 33:22",
            "text": "\u05d5\u05dc\u05d3\u05df \u05d0\u05de\u05e8 \u05d3\u05df \u05d2\u05e8 \u05d0\u05e8\u05d9\u05d4 \u05d5\u05d9\u05d6\u05e0\u05e7 \u05de\u05df \u05d4\u05d1\u05e9\u05df"
        },
        {
            "chapter": 33,
            "verse": 23,
            "name": "Deuteronomy 33:23",
            "text": "\u05d5\u05dc\u05e0\u05e4\u05ea\u05dc\u05d9 \u05d0\u05de\u05e8 \u05e0\u05e4\u05ea\u05dc\u05d9 \u05e9\u05d1\u05e2 \u05d5\u05e8\u05e6\u05d5\u05df \u05d5\u05de\u05dc\u05d0 \u05d1\u05e8\u05db\u05ea \u05d9\u05d4\u05d5\u05d4 \u05d9\u05de\u05d4 \u05d5\u05d3\u05e8\u05d5\u05dd \u05d9\u05d9\u05e8\u05e9"
        },
        {
            "chapter": 33,
            "verse": 24,
            "name": "Deuteronomy 33:24",
            "text": "\u05d5\u05dc\u05d0\u05e9\u05e8 \u05d0\u05de\u05e8 \u05d1\u05e8\u05d5\u05da \u05de\u05d1\u05e0\u05d9\u05dd \u05d0\u05e9\u05e8 \u05d5\u05d9\u05d4\u05d9 \u05e8\u05e6\u05d5\u05d9 \u05d0\u05d7\u05d9\u05d5 \u05d5\u05d8\u05d1\u05dc \u05d1\u05e9\u05de\u05df \u05e8\u05d2\u05dc\u05d9\u05d5"
        },
        {
            "chapter": 33,
            "verse": 25,
            "name": "Deuteronomy 33:25",
            "text": "\u05d1\u05e8\u05d6\u05dc \u05d5\u05e0\u05d7\u05e9\u05ea \u05de\u05e0\u05e2\u05dc\u05d9\u05da \u05d5\u05db\u05d9\u05de\u05d9\u05da \u05e8\u05d1\u05d9\u05da"
        },
        {
            "chapter": 33,
            "verse": 26,
            "name": "Deuteronomy 33:26",
            "text": "\u05d0\u05d9\u05df \u05db\u05d0\u05dc \u05d9\u05e9\u05e8\u05d5\u05df \u05e8\u05db\u05d1 \u05e9\u05de\u05d9\u05dd \u05d1\u05e2\u05d6\u05e8\u05da \u05d5\u05d1\u05d2\u05d0\u05ea\u05d5 \u05e9\u05d7\u05e7\u05d9\u05dd"
        },
        {
            "chapter": 33,
            "verse": 27,
            "name": "Deuteronomy 33:27",
            "text": "\u05de\u05e2\u05d5\u05e0\u05d4 \u05d0\u05dc\u05d4\u05d9 \u05e7\u05d3\u05dd \u05d5\u05de\u05ea\u05d7\u05ea \u05d6\u05e8\u05d5\u05e2\u05ea \u05e2\u05d5\u05dc\u05dd \u05d5\u05d9\u05d2\u05e8\u05e9 \u05de\u05e4\u05e0\u05d9\u05da \u05d0\u05d5\u05d9\u05d1 \u05d5\u05d9\u05d0\u05de\u05e8 \u05d4\u05e9\u05de\u05d3"
        },
        {
            "chapter": 33,
            "verse": 28,
            "name": "Deuteronomy 33:28",
            "text": "\u05d5\u05d9\u05e9\u05db\u05df \u05d9\u05e9\u05e8\u05d0\u05dc \u05d1\u05d8\u05d7 \u05d1\u05d3\u05d3 \u05e2\u05d9\u05df \u05d9\u05e2\u05e7\u05d1 \u05e2\u05dc \u05d0\u05e8\u05e5 \u05d3\u05d2\u05df \u05d5\u05ea\u05d9\u05e8\u05e9 \u05d5\u05d0\u05e3 \u05e9\u05de\u05d9\u05da \u05d9\u05e2\u05e8\u05e4\u05d5 \u05d8\u05dc"
        },
        {
            "chapter": 33,
            "verse": 29,
            "name": "Deuteronomy 33:29",
            "text": "\u05d0\u05e9\u05e8\u05da \u05d9\u05e9\u05e8\u05d0\u05dc \u05de\u05d9 \u05db\u05de\u05d5\u05da \u05d4\u05e2\u05dd \u05d4\u05e0\u05d5\u05e9\u05e2 \u05d1\u05d9\u05d4\u05d5\u05d4 \u05de\u05d2\u05df \u05e2\u05d6\u05e8\u05da \u05d5\u05d0\u05e9\u05e8 \u05d7\u05e8\u05d1 \u05d2\u05d0\u05ea\u05da \u05d5\u05d9\u05db\u05d7\u05e9\u05d5 \u05d0\u05d9\u05d1\u05d9\u05da \u05dc\u05da \u05d5\u05d0\u05ea\u05d4 \u05e2\u05dc \u05d1\u05de\u05ea\u05dd \u05ea\u05d3\u05e8\u05da  "
        }
    ]
}