{
    "translation": "World English Bible",
    "abbreviation": "web",
    "lang": "en",
    "language": "English",
    "direction": "LTR",
    "encoding": "UTF-8",
    "book_nr": 12,
    "book_name": "2 Kings",
    "chapter": 14,
    "name": "2 Kings 14",
    "verses": [
        {
            "chapter": 14,
            "verse": 1,
            "name": "2 Kings 14:1",
            "text": "In the second year of Joash son of Joahaz king of Israel began Amaziah the son of Joash king of Judah to reign."
        },
        {
            "chapter": 14,
            "verse": 2,
            "name": "2 Kings 14:2",
            "text": "He was twenty-five years old when he began to reign; and he reigned twenty-nine years in Jerusalem: and his mother\u2019s name was Jehoaddin of Jerusalem."
        },
        {
            "chapter": 14,
            "verse": 3,
            "name": "2 Kings 14:3",
            "text": "He did that which was right in the eyes of Yahweh, yet not like David his father: he did according to all that Joash his father had done."
        },
        {
            "chapter": 14,
            "verse": 4,
            "name": "2 Kings 14:4",
            "text": "However the high places were not taken away: the people still sacrificed and burnt incense in the high places."
        },
        {
            "chapter": 14,
            "verse": 5,
            "name": "2 Kings 14:5",
            "text": "As soon as the kingdom was established in his hand, he killed his servants who had slain the king his father:"
        },
        {
            "chapter": 14,
            "verse": 6,
            "name": "2 Kings 14:6",
            "text": "but the children of the murderers he didn\u2019t put to death; according to that which is written in the book of the law of Moses, as Yahweh commanded, saying, \u201cThe fathers shall not be put to death for the children, nor the children be put to death for the fathers; but every man shall die for his own sin.\u201d"
        },
        {
            "chapter": 14,
            "verse": 7,
            "name": "2 Kings 14:7",
            "text": "He killed of Edom in the Valley of Salt ten thousand, and took Sela by war, and called its name Joktheel, to this day."
        },
        {
            "chapter": 14,
            "verse": 8,
            "name": "2 Kings 14:8",
            "text": "Then Amaziah sent messengers to Jehoash, the son of Jehoahaz son of Jehu, king of Israel, saying, \u201cCome, let us look one another in the face.\u201d  "
        },
        {
            "chapter": 14,
            "verse": 9,
            "name": "2 Kings 14:9",
            "text": "  Jehoash the king of Israel sent to Amaziah king of Judah, saying, \u201cThe thistle that was in Lebanon sent to the cedar that was in Lebanon, saying, \u2018Give your daughter to my son as wife. Then a wild animal that was in Lebanon passed by, and trampled down the thistle."
        },
        {
            "chapter": 14,
            "verse": 10,
            "name": "2 Kings 14:10",
            "text": "You have indeed struck Edom, and your heart has lifted you up. Enjoy the glory of it, and stay at home; for why should you meddle to your harm, that you should fall, even you, and Judah with you?\u2019\u201d"
        },
        {
            "chapter": 14,
            "verse": 11,
            "name": "2 Kings 14:11",
            "text": "But Amaziah would not listen. So Jehoash king of Israel went up; and he and Amaziah king of Judah looked one another in the face at Beth Shemesh, which belongs to Judah."
        },
        {
            "chapter": 14,
            "verse": 12,
            "name": "2 Kings 14:12",
            "text": "Judah was defeated by Israel; and they fled every man to his tent."
        },
        {
            "chapter": 14,
            "verse": 13,
            "name": "2 Kings 14:13",
            "text": "Jehoash king of Israel took Amaziah king of Judah, the son of Jehoash the son of Ahaziah, at Beth Shemesh, and came to Jerusalem, and broke down the wall of Jerusalem from the gate of Ephraim to the corner gate, four hundred cubits."
        },
        {
            "chapter": 14,
            "verse": 14,
            "name": "2 Kings 14:14",
            "text": "He took all the gold and silver, and all the vessels that were found in Yahweh\u2019s house, and in the treasures of the king\u2019s house, the hostages also, and returned to Samaria."
        },
        {
            "chapter": 14,
            "verse": 15,
            "name": "2 Kings 14:15",
            "text": "Now the rest of the acts of Jehoash which he did, and his might, and how he fought with Amaziah king of Judah, aren\u2019t they written in the book of the chronicles of the kings of Israel?"
        },
        {
            "chapter": 14,
            "verse": 16,
            "name": "2 Kings 14:16",
            "text": "Jehoash slept with his fathers, and was buried in Samaria with the kings of Israel; and Jeroboam his son reigned in his place."
        },
        {
            "chapter": 14,
            "verse": 17,
            "name": "2 Kings 14:17",
            "text": "Amaziah the son of Joash king of Judah lived after the death of Jehoash son of Jehoahaz king of Israel fifteen years."
        },
        {
            "chapter": 14,
            "verse": 18,
            "name": "2 Kings 14:18",
            "text": "Now the rest of the acts of Amaziah, aren\u2019t they written in the book of the chronicles of the kings of Judah?"
        },
        {
            "chapter": 14,
            "verse": 19,
            "name": "2 Kings 14:19",
            "text": "They made a conspiracy against him in Jerusalem; and he fled to Lachish: but they sent after him to Lachish, and killed him there."
        },
        {
            "chapter": 14,
            "verse": 20,
            "name": "2 Kings 14:20",
            "text": "They brought him on horses; and he was buried at Jerusalem with his fathers in the city of David."
        },
        {
            "chapter": 14,
            "verse": 21,
            "name": "2 Kings 14:21",
            "text": "All the people of Judah took Azariah, who was sixteen years old, and made him king in the place of his father Amaziah."
        },
        {
            "chapter": 14,
            "verse": 22,
            "name": "2 Kings 14:22",
            "text": "He built Elath, and restored it to Judah, after that the king slept with his fathers."
        },
        {
            "chapter": 14,
            "verse": 23,
            "name": "2 Kings 14:23",
            "text": "In the fifteenth year of Amaziah the son of Joash king of Judah, Jeroboam the son of Joash king of Israel began to reign in Samaria for forty-one years."
        },
        {
            "chapter": 14,
            "verse": 24,
            "name": "2 Kings 14:24",
            "text": "He did that which was evil in the sight of Yahweh: he didn\u2019t depart from all the sins of Jeroboam the son of Nebat, with which he made Israel to sin."
        },
        {
            "chapter": 14,
            "verse": 25,
            "name": "2 Kings 14:25",
            "text": "He restored the border of Israel from the entrance of Hamath to the sea of the Arabah, according to Yahweh\u2019s word, the God of Israel, which he spoke by his servant Jonah the son of Amittai, the prophet, who was of Gath Hepher."
        },
        {
            "chapter": 14,
            "verse": 26,
            "name": "2 Kings 14:26",
            "text": "For Yahweh saw the affliction of Israel, that it was very bitter; for there was no one shut up nor left at large, neither was there any helper for Israel."
        },
        {
            "chapter": 14,
            "verse": 27,
            "name": "2 Kings 14:27",
            "text": "Yahweh didn\u2019t say that he would blot out the name of Israel from under the sky; but he saved them by the hand of Jeroboam the son of Joash."
        },
        {
            "chapter": 14,
            "verse": 28,
            "name": "2 Kings 14:28",
            "text": "Now the rest of the acts of Jeroboam, and all that he did, and his might, how he fought, and how he recovered Damascus, and Hamath, which had belonged to Judah, for Israel, aren\u2019t they written in the book of the chronicles of the kings of Israel?"
        },
        {
            "chapter": 14,
            "verse": 29,
            "name": "2 Kings 14:29",
            "text": "Jeroboam slept with his fathers, even with the kings of Israel; and Zechariah his son reigned in his place.   "
        }
    ]
}