{
    "translation": "Haitian Creole Bible",
    "abbreviation": "haitian",
    "lang": "ht",
    "language": "Haitian Creole",
    "direction": "LTR",
    "encoding": "UTF-8",
    "book_nr": 19,
    "book_name": "Psalms",
    "chapter": 87,
    "name": "Psalms 87",
    "verses": [
        {
            "chapter": 87,
            "verse": 1,
            "name": "Psalms 87:1",
            "text": "Se yon s\u00f2m pitit Kore yo. Se yon chante li ye. Bondye bati lavil li a sou m\u00f2n ki apa pou li a!"
        },
        {
            "chapter": 87,
            "verse": 2,
            "name": "Psalms 87:2",
            "text": "Li renmen lavil Jerizal\u00e8m pi plis pase tout l\u00f2t kote nan peyi Jak\u00f2b la."
        },
        {
            "chapter": 87,
            "verse": 3,
            "name": "Psalms 87:3",
            "text": "Ou menm, lavil Bondye a, tande b\u00e8l bagay y'ap di sou ou:"
        },
        {
            "chapter": 87,
            "verse": 4,
            "name": "Psalms 87:4",
            "text": "L\u00e8 m'ap nonmen non moun k'ap s\u00e8vi m' yo, m'ap mete moun peyi Lejip, moun peyi Babil\u00f2n sou lis la. Moun peyi Filisti, moun peyi Tir ak moun peyi Etiopi, se Jerizal\u00e8m yo f\u00e8t."
        },
        {
            "chapter": 87,
            "verse": 5,
            "name": "Psalms 87:5",
            "text": "L\u00e8 moun ap pale sou m\u00f2n Siyon an yo di: -Yo rele l' manman, paske se la yo tout f\u00e8t. Se Bondye anwo nan sy\u00e8l la ki mete l' kanpe."
        },
        {
            "chapter": 87,
            "verse": 6,
            "name": "Psalms 87:6",
            "text": "Sey\u00e8 a f\u00e8 lis tout p\u00e8p yo, li f\u00e8 yo tout pase pou moun lavil Jerizal\u00e8m."
        },
        {
            "chapter": 87,
            "verse": 7,
            "name": "Psalms 87:7",
            "text": "Moun k'ap chante yo ansanm ak moun k'ap danse yo ap repete byen f\u00f2: -Se ou menm ki manman nou tout.  "
        }
    ]
}