{
    "translation": "New Heart English Bible: Jehovah Edition",
    "abbreviation": "nhebje",
    "lang": "en",
    "language": "English",
    "direction": "LTR",
    "encoding": "UTF-8",
    "book_nr": 48,
    "book_name": "Galatians",
    "chapter": 3,
    "name": "Galatians 3",
    "verses": [
        {
            "chapter": 3,
            "verse": 1,
            "name": "Galatians 3:1",
            "text": "Foolish Galatians, who has cunningly deceived you, before whose eyes Jesus Christ was openly set forth as crucified?"
        },
        {
            "chapter": 3,
            "verse": 2,
            "name": "Galatians 3:2",
            "text": "I just want to learn this from you. Did you receive the Spirit by the works of the law, or by hearing of faith?"
        },
        {
            "chapter": 3,
            "verse": 3,
            "name": "Galatians 3:3",
            "text": "Are you so foolish? Having begun in the Spirit, are you now completed in the flesh?"
        },
        {
            "chapter": 3,
            "verse": 4,
            "name": "Galatians 3:4",
            "text": "Did you suffer so many things in vain, if it is indeed in vain?"
        },
        {
            "chapter": 3,
            "verse": 5,
            "name": "Galatians 3:5",
            "text": "He therefore who supplies the Spirit to you, and works miracles among you, does he do it by the works of the law, or by hearing of faith?"
        },
        {
            "chapter": 3,
            "verse": 6,
            "name": "Galatians 3:6",
            "text": "Even as Abraham \"believed God, and it was counted to him for righteousness.\""
        },
        {
            "chapter": 3,
            "verse": 7,
            "name": "Galatians 3:7",
            "text": "Know therefore that those who are of faith, the same are children of Abraham."
        },
        {
            "chapter": 3,
            "verse": 8,
            "name": "Galatians 3:8",
            "text": "The Scripture, foreseeing that God would justify the Gentiles by faith, preached the Good News beforehand to Abraham, saying, \"In you all the nations will be blessed.\""
        },
        {
            "chapter": 3,
            "verse": 9,
            "name": "Galatians 3:9",
            "text": "So then, those who are of faith are blessed with the faithful Abraham."
        },
        {
            "chapter": 3,
            "verse": 10,
            "name": "Galatians 3:10",
            "text": "For as many as are of the works of the law are under a curse. For it is written, \"Cursed is everyone who does not continue in all things that are written in the scroll of the Law, to do them.\""
        },
        {
            "chapter": 3,
            "verse": 11,
            "name": "Galatians 3:11",
            "text": "Now that no man is justified by the law before God is evident, for, \"The righteous will live by faith.\""
        },
        {
            "chapter": 3,
            "verse": 12,
            "name": "Galatians 3:12",
            "text": "The law is not of faith, but, \"The man who does them will live by them.\" "
        },
        {
            "chapter": 3,
            "verse": 13,
            "name": "Galatians 3:13",
            "text": "Christ redeemed us from the curse of the law, having become a curse for us. For it is written, \"Cursed is everyone who hangs on a tree,\""
        },
        {
            "chapter": 3,
            "verse": 14,
            "name": "Galatians 3:14",
            "text": "that the blessing of Abraham might come on the Gentiles through Christ Jesus; that we might receive the promise of the Spirit through faith."
        },
        {
            "chapter": 3,
            "verse": 15,
            "name": "Galatians 3:15",
            "text": "Brothers, speaking of human terms, though it is only a man's covenant, yet when it has been confirmed, no one makes it void, or adds to it."
        },
        {
            "chapter": 3,
            "verse": 16,
            "name": "Galatians 3:16",
            "text": "Now the promises were spoken to Abraham and to his seed. He does not say, \"To seeds,\" as of many, but as of one, \"To your seed,\" which is Christ."
        },
        {
            "chapter": 3,
            "verse": 17,
            "name": "Galatians 3:17",
            "text": "Now I say this. A covenant confirmed beforehand by God, the law, which came four hundred thirty years after, does not annul, so as to make the promise of no effect."
        },
        {
            "chapter": 3,
            "verse": 18,
            "name": "Galatians 3:18",
            "text": "For if the inheritance is of the law, it is no more of promise; but God has granted it to Abraham by promise. "
        },
        {
            "chapter": 3,
            "verse": 19,
            "name": "Galatians 3:19",
            "text": "What then is the law? It was added because of transgressions, until the seed should come to whom the promise has been made. It was ordained through angels by the hand of a mediator."
        },
        {
            "chapter": 3,
            "verse": 20,
            "name": "Galatians 3:20",
            "text": "Now a mediator is not between one, but God is one."
        },
        {
            "chapter": 3,
            "verse": 21,
            "name": "Galatians 3:21",
            "text": "Is the law then against the promises of God? Certainly not! For if there had been a law given which could make alive, most certainly righteousness would have been of the law."
        },
        {
            "chapter": 3,
            "verse": 22,
            "name": "Galatians 3:22",
            "text": "But the Scriptures imprisoned all things under sin, that the promise by faith in Jesus Christ might be given to those who believe."
        },
        {
            "chapter": 3,
            "verse": 23,
            "name": "Galatians 3:23",
            "text": "But before faith came, we were kept in custody under the law, confined for the faith which should afterwards be revealed."
        },
        {
            "chapter": 3,
            "verse": 24,
            "name": "Galatians 3:24",
            "text": "So that the law has become our tutor to bring us to Christ, that we might be justified by faith."
        },
        {
            "chapter": 3,
            "verse": 25,
            "name": "Galatians 3:25",
            "text": "But now that faith has come, we are no longer under a tutor."
        },
        {
            "chapter": 3,
            "verse": 26,
            "name": "Galatians 3:26",
            "text": "For you are all children of God, through faith in Christ Jesus."
        },
        {
            "chapter": 3,
            "verse": 27,
            "name": "Galatians 3:27",
            "text": "For as many of you as were baptized into Christ have put on Christ."
        },
        {
            "chapter": 3,
            "verse": 28,
            "name": "Galatians 3:28",
            "text": "There is neither Jew nor Greek, there is neither slave nor free man, there is neither male nor female; for you are all one in Christ Jesus."
        },
        {
            "chapter": 3,
            "verse": 29,
            "name": "Galatians 3:29",
            "text": "If you are Christ's, then you are Abraham's seed and heirs according to promise.  "
        }
    ]
}