{
    "translation": "The Living Oracles NT",
    "abbreviation": "lo",
    "lang": "en",
    "language": "English",
    "direction": "LTR",
    "encoding": "",
    "book_nr": 41,
    "book_name": "Mark",
    "chapter": 5,
    "name": "Mark 5",
    "verses": [
        {
            "chapter": 5,
            "verse": 1,
            "name": "Mark 5:1",
            "text": "Then they crossed the sea, and came into the country of the Gadarenes."
        },
        {
            "chapter": 5,
            "verse": 2,
            "name": "Mark 5:2",
            "text": "He was no sooner gone ashore, than there met him a man coming from the monuments, possessed of an unclean spirit,"
        },
        {
            "chapter": 5,
            "verse": 3,
            "name": "Mark 5:3",
            "text": "who made his abode in the tombs; and no man could confine him, not even with chains,"
        },
        {
            "chapter": 5,
            "verse": 4,
            "name": "Mark 5:4",
            "text": "and broken the fetters, so that no person was able to tame him."
        },
        {
            "chapter": 5,
            "verse": 5,
            "name": "Mark 5:5",
            "text": "He was continually, night and day, in the mountains, and in the tombs, howling, and cutting himself with flints."
        },
        {
            "chapter": 5,
            "verse": 6,
            "name": "Mark 5:6",
            "text": "But when he saw Jesus afar off, he ran, and prostrating himself before him,"
        },
        {
            "chapter": 5,
            "verse": 7,
            "name": "Mark 5:7",
            "text": "cried out, What hast thou to do with me, Jesus, Son of the Most High God? I conjure thee by God not to torment me."
        },
        {
            "chapter": 5,
            "verse": 8,
            "name": "Mark 5:8",
            "text": "(For Jesus had said to him, Come out of the man, you unclean spirit.)"
        },
        {
            "chapter": 5,
            "verse": 9,
            "name": "Mark 5:9",
            "text": "Jesus asked him, What is your name? He answered, My name is Legion, for we are many."
        },
        {
            "chapter": 5,
            "verse": 10,
            "name": "Mark 5:10",
            "text": "And he earnestly entreated him not to drive them out of the country."
        },
        {
            "chapter": 5,
            "verse": 11,
            "name": "Mark 5:11",
            "text": "Now there was a great herd of swine feeding on the mountain."
        },
        {
            "chapter": 5,
            "verse": 12,
            "name": "Mark 5:12",
            "text": "And the fiends besought him, saying, Suffer us to go to the swine, that we may enter into them."
        },
        {
            "chapter": 5,
            "verse": 13,
            "name": "Mark 5:13",
            "text": "Jesus immediately permitted them. Then the unclean spirits being gone out, entered into the swine; and the herd, in number about two thousand, rushed down a precipice into the sea, and were choked."
        },
        {
            "chapter": 5,
            "verse": 14,
            "name": "Mark 5:14",
            "text": "And the swineherds fled, and told it in the city and villages. And the people flocked out to see what had happened."
        },
        {
            "chapter": 5,
            "verse": 15,
            "name": "Mark 5:15",
            "text": "When they came to Jesus, and saw him who had been possessed by the legion, sitting, and clothed, and in his right mind, they were afraid."
        },
        {
            "chapter": 5,
            "verse": 16,
            "name": "Mark 5:16",
            "text": "And those who had seen the whole, having related to them what had happened to the demoniac, and to the swine,"
        },
        {
            "chapter": 5,
            "verse": 17,
            "name": "Mark 5:17",
            "text": "they entreated him to leave their territories."
        },
        {
            "chapter": 5,
            "verse": 18,
            "name": "Mark 5:18",
            "text": "As he entered the bark, the man who had been possessed, begged permission to attend him."
        },
        {
            "chapter": 5,
            "verse": 19,
            "name": "Mark 5:19",
            "text": "Jesus however did not permit him, but said, Go home to your relations, and tell them what great things the Lord, in pity, jas done for you."
        },
        {
            "chapter": 5,
            "verse": 20,
            "name": "Mark 5:20",
            "text": "Accordingly he departed, publishing in Decapolis, what great things Jesus had done for him. And they were all amazed."
        },
        {
            "chapter": 5,
            "verse": 21,
            "name": "Mark 5:21",
            "text": "Jesus having repassed in the bark, a great crowd gathered round him, while he was on the shore."
        },
        {
            "chapter": 5,
            "verse": 22,
            "name": "Mark 5:22",
            "text": "Then came one of the directors of the synagogue, named Jairus, who seeing him threw himself at his feet,"
        },
        {
            "chapter": 5,
            "verse": 23,
            "name": "Mark 5:23",
            "text": "and entreated him earnestly, saying, My little daughter is in extreme danger; I pray you come and lay your hands upon her and to heal her, and she will be well."
        },
        {
            "chapter": 5,
            "verse": 24,
            "name": "Mark 5:24",
            "text": "And Jesus went with him, followed by a great multitude who thronged him."
        },
        {
            "chapter": 5,
            "verse": 25,
            "name": "Mark 5:25",
            "text": "And a woman, who had been twelve years distressed with an issue of blood,"
        },
        {
            "chapter": 5,
            "verse": 26,
            "name": "Mark 5:26",
            "text": "who had suffered much from several physicians, and spent her all without receiving any relief, but rather growing worse,"
        },
        {
            "chapter": 5,
            "verse": 27,
            "name": "Mark 5:27",
            "text": "having heard of Jesus, came in the crowd, behind, and touched his mantle;"
        },
        {
            "chapter": 5,
            "verse": 28,
            "name": "Mark 5:28",
            "text": "for she had said, If I but touch his cloths, I shall recover."
        },
        {
            "chapter": 5,
            "verse": 29,
            "name": "Mark 5:29",
            "text": "Instantly the source of her distemper was dried up, and she felt in her body, that she was delivered from that scourge."
        },
        {
            "chapter": 5,
            "verse": 30,
            "name": "Mark 5:30",
            "text": "Jesus immediately, conscious of the virtue which had issued from him, turned toward the crowd, saying, Who touched my clothes?"
        },
        {
            "chapter": 5,
            "verse": 31,
            "name": "Mark 5:31",
            "text": "His disciples answered, You see how the multitude throng you; yet you say, Who touched me?"
        },
        {
            "chapter": 5,
            "verse": 32,
            "name": "Mark 5:32",
            "text": "But he looked round him, to see her who had done it."
        },
        {
            "chapter": 5,
            "verse": 33,
            "name": "Mark 5:33",
            "text": "Then the woman, knowing the change wrought upon her, came trembling with fear, threw herself prostrate before him, and confessed the whole truth."
        },
        {
            "chapter": 5,
            "verse": 34,
            "name": "Mark 5:34",
            "text": "But he said to her, Daughter, your faith has cured you; go in peace, released from this scourge."
        },
        {
            "chapter": 5,
            "verse": 35,
            "name": "Mark 5:35",
            "text": "Before he had done speaking, messengers came from the house of the director of the synagogue, who said, Your daughter is dead, why should you trouble the teacher any further?"
        },
        {
            "chapter": 5,
            "verse": 36,
            "name": "Mark 5:36",
            "text": "Jesus hearing this message delivered, said immediately to the director, Fear not; only believe."
        },
        {
            "chapter": 5,
            "verse": 37,
            "name": "Mark 5:37",
            "text": "And he allowed no person to follow him except Peter and James, and John, the brother of James."
        },
        {
            "chapter": 5,
            "verse": 38,
            "name": "Mark 5:38",
            "text": "Being arrived at the director's house, and seeing the tumult, and the people weeping and wailing immoderately,"
        },
        {
            "chapter": 5,
            "verse": 39,
            "name": "Mark 5:39",
            "text": "he said to them, as he entered, Why do you weep and make a bustle? The child is not dead, but asleep."
        },
        {
            "chapter": 5,
            "verse": 40,
            "name": "Mark 5:40",
            "text": "And they derided him. But having made them all go out, he took with him the child's father and mother, and those who came with him; and he entered the chamber where she was;"
        },
        {
            "chapter": 5,
            "verse": 41,
            "name": "Mark 5:41",
            "text": "and, taking her by the hand, said to her, Talitha cumi, (which signified, Young woman, arise,) I command you."
        },
        {
            "chapter": 5,
            "verse": 42,
            "name": "Mark 5:42",
            "text": "Immediately the maid arose and walked, for she was twelve years old; and they were confounded with astonishment."
        },
        {
            "chapter": 5,
            "verse": 43,
            "name": "Mark 5:43",
            "text": "But he strictly enjoined them not to mention it to any person, and ordered that something should be given her to eat."
        }
    ]
}