{
    "translation": "Japanese Kougo-yaku \u53e3\u8a9e\u8a33\u300c\u8056\u66f8\u300d(1954/1955\u5e74\u7248)",
    "abbreviation": "japkougo",
    "lang": "ja",
    "language": "Japanese",
    "direction": "LTR",
    "encoding": "UTF-8",
    "book_nr": 13,
    "book_name": "1 Chronicles",
    "chapter": 4,
    "name": "1 Chronicles 4",
    "verses": [
        {
            "chapter": 4,
            "verse": 1,
            "name": "1 Chronicles 4:1",
            "text": "\u30e6\u30c0\u306e\u5b50\u3089\u306f\u30da\u30ec\u30c5\u3001\u30d8\u30c5\u30ed\u30f3\u3001\u30ab\u30eb\u30df\u3001\u30db\u30eb\u3001\u30b7\u30e7\u30d0\u30eb\u3067\u3042\u308b\u3002"
        },
        {
            "chapter": 4,
            "verse": 2,
            "name": "1 Chronicles 4:2",
            "text": "\u30b7\u30e7\u30d0\u30eb\u306e\u5b50\u30ec\u30a2\u30e4\u306f\u30e4\u30cf\u30c6\u3092\u751f\u307f\u3001\u30e4\u30cf\u30c6\u306f\u30a2\u30db\u30de\u30a4\u3068\u30e9\u30cf\u30c7\u3092\u751f\u3093\u3060\u3002\u3053\u308c\u3089\u306f\u30b6\u30ec\u30a2\u3073\u3068\u306e\u4e00\u65cf\u3067\u3042\u308b\u3002"
        },
        {
            "chapter": 4,
            "verse": 3,
            "name": "1 Chronicles 4:3",
            "text": "\u30a8\u30bf\u30e0\u306e\u5b50\u3089\u306f\u30a8\u30ba\u30ec\u30eb\u3001\u30a4\u30b7\u30de\u304a\u3088\u3073\u30a4\u30c7\u30d0\u30b7\u3001\u5f7c\u3089\u306e\u59c9\u59b9\u306e\u540d\u306f\u30cf\u30bc\u30ec\u30eb\u30dd\u30cb\u3067\u3042\u308b\u3002"
        },
        {
            "chapter": 4,
            "verse": 4,
            "name": "1 Chronicles 4:4",
            "text": "\u30b2\u30c9\u30eb\u306e\u7236\u306f\u30da\u30cc\u30a8\u30eb\u3001\u30db\u30b7\u30e3\u306e\u7236\u306f\u30a8\u30bc\u30eb\u3067\u3042\u308b\u3002\u3053\u308c\u3089\u306f\u30d9\u30c4\u30ec\u30d8\u30e0\u306e\u7236\u30a8\u30d5\u30e9\u30bf\u306e\u9577\u5b50\u30db\u30eb\u306e\u5b50\u3089\u3067\u3042\u308b\u3002"
        },
        {
            "chapter": 4,
            "verse": 5,
            "name": "1 Chronicles 4:5",
            "text": "\u30c6\u30b3\u30a2\u306e\u7236\u30a2\u30b7\u30e5\u30eb\u306b\u306f\u3075\u305f\u308a\u306e\u59bb\u30d8\u30e9\u3068\u30ca\u30a2\u30e9\u3068\u304c\u3042\u3063\u305f\u3002"
        },
        {
            "chapter": 4,
            "verse": 6,
            "name": "1 Chronicles 4:6",
            "text": "\u30ca\u30a2\u30e9\u306f\u30a2\u30b7\u30e5\u30eb\u306b\u3088\u3063\u3066\u30a2\u30db\u30b6\u30e0\u3001\u30d8\u30da\u30eb\u3001\u30c6\u30e1\u30cb\u304a\u3088\u3073\u30a2\u30cf\u30b7\u30bf\u30ea\u3092\u7523\u3093\u3060\u3002\u3053\u308c\u3089\u306f\u30ca\u30a2\u30e9\u306e\u5b50\u3067\u3042\u308b\u3002"
        },
        {
            "chapter": 4,
            "verse": 7,
            "name": "1 Chronicles 4:7",
            "text": "\u30d8\u30e9\u306e\u5b50\u3089\u306f\u30bc\u30ec\u30c6\u3001\u30a8\u30be\u30a2\u30eb\u3001\u30a8\u30c6\u30ca\u30f3\u3067\u3042\u308b\u3002"
        },
        {
            "chapter": 4,
            "verse": 8,
            "name": "1 Chronicles 4:8",
            "text": "\u30b3\u30c5\u306f\u30a2\u30cc\u30d6\u3068\u30be\u30d9\u30d0\u3092\u751f\u3093\u3060\u3002\u307e\u305f\u30cf\u30eb\u30e0\u306e\u5b50\u30a2\u30cf\u30eb\u30d8\u30eb\u306e\u6c0f\u65cf\u3082\u5f7c\u304b\u3089\u51fa\u305f\u3002"
        },
        {
            "chapter": 4,
            "verse": 9,
            "name": "1 Chronicles 4:9",
            "text": "\u30e4\u30d9\u30c5\u306f\u305d\u306e\u5144\u5f1f\u306e\u3046\u3061\u3067\u6700\u3082\u5c0a\u3070\u308c\u305f\u8005\u3067\u3042\u3063\u305f\u3002\u305d\u306e\u6bcd\u304c\u300c\u308f\u305f\u3057\u306f\u82e6\u3057\u3093\u3067\u3053\u306e\u5b50\u3092\u7523\u3093\u3060\u304b\u3089\u300d\u3068\u8a00\u3063\u3066\u305d\u306e\u540d\u3092\u30e4\u30d9\u30c5\u3068\u540d\u3065\u3051\u305f\u306e\u3067\u3042\u308b\u3002"
        },
        {
            "chapter": 4,
            "verse": 10,
            "name": "1 Chronicles 4:10",
            "text": "\u30e4\u30d9\u30c5\u306f\u30a4\u30b9\u30e9\u30a8\u30eb\u306e\u795e\u306b\u547c\u3070\u308f\u3063\u3066\u8a00\u3063\u305f\u3001\u300c\u3069\u3046\u304b\u3001\u3042\u306a\u305f\u304c\u8c4a\u304b\u306b\u308f\u305f\u3057\u3092\u6075\u307f\u3001\u308f\u305f\u3057\u306e\u56fd\u5883\u3092\u5e83\u3052\u3001\u3042\u306a\u305f\u306e\u624b\u304c\u308f\u305f\u3057\u3068\u3068\u3082\u306b\u3042\u3063\u3066\u3001\u308f\u305f\u3057\u3092\u707d\u304b\u3089\u514d\u308c\u3055\u305b\u3001\u82e6\u3057\u307f\u3092\u3046\u3051\u3055\u305b\u3089\u308c\u306a\u3044\u3088\u3046\u306b\u300d\u3002\u795e\u306f\u5f7c\u306e\u6c42\u3081\u308b\u3068\u3053\u308d\u3092\u3086\u308b\u3055\u308c\u305f\u3002"
        },
        {
            "chapter": 4,
            "verse": 11,
            "name": "1 Chronicles 4:11",
            "text": "\u30b7\u30e5\u30ef\u306e\u5144\u5f1f\u30b1\u30eb\u30d6\u306f\u30e1\u30d2\u30eb\u3092\u751f\u3093\u3060\u3002\u30e1\u30d2\u30eb\u306f\u30a8\u30b7\u30c8\u30f3\u306e\u7236\u3001"
        },
        {
            "chapter": 4,
            "verse": 12,
            "name": "1 Chronicles 4:12",
            "text": "\u30a8\u30b7\u30c8\u30f3\u306f\u30d9\u30c6\u30e9\u30d1\u3001\u30d1\u30bb\u30a2\u304a\u3088\u3073\u30a4\u30eb\u30ca\u30cf\u30b7\u306e\u7236\u30c6\u30d2\u30f3\u30ca\u3092\u751f\u3093\u3060\u3002\u3053\u308c\u3089\u306f\u30ec\u30ab\u306e\u4eba\u3005\u3067\u3042\u308b\u3002"
        },
        {
            "chapter": 4,
            "verse": 13,
            "name": "1 Chronicles 4:13",
            "text": "\u30b1\u30ca\u30ba\u306e\u5b50\u3089\u306f\u30aa\u30c6\u30cb\u30a8\u30eb\u3068\u30bb\u30e9\u30e4\u3002\u30aa\u30c6\u30cb\u30a8\u30eb\u306e\u5b50\u3089\u306f\u30cf\u30bf\u30c6\u3068\u30e1\u30aa\u30ce\u30bf\u30a4\u3002"
        },
        {
            "chapter": 4,
            "verse": 14,
            "name": "1 Chronicles 4:14",
            "text": "\u30e1\u30aa\u30ce\u30bf\u30a4\u306f\u30aa\u30d5\u30e9\u3092\u751f\u307f\u3001\u30bb\u30e9\u30e4\u306f\u30b2\u30cf\u30e9\u30b7\u30e0\u306e\u7236\u30e8\u30a2\u30d6\u3092\u751f\u3093\u3060\u3002\u5f7c\u3089\u306f\u5de5\u4eba\u3067\u3042\u3063\u305f\u306e\u3067\u30b2\u30cf\u30e9\u30b7\u30e0\u3068\u547c\u3070\u308c\u305f\u306e\u3067\u3042\u308b\u3002"
        },
        {
            "chapter": 4,
            "verse": 15,
            "name": "1 Chronicles 4:15",
            "text": "\u30a8\u30d5\u30f3\u30cd\u306e\u5b50\u30ab\u30ec\u30d6\u306e\u5b50\u3089\u306f\u30a4\u30eb\u3001\u30a8\u30e9\u304a\u3088\u3073\u30ca\u30a2\u30e0\u3002\u30a8\u30e9\u306e\u5b50\u306f\u30b1\u30ca\u30ba\u3002"
        },
        {
            "chapter": 4,
            "verse": 16,
            "name": "1 Chronicles 4:16",
            "text": "\u30a8\u30cf\u30ec\u30ec\u30eb\u306e\u5b50\u3089\u306f\u30b8\u30d5\u3001\u30b8\u30d0\u3001\u30c6\u30ea\u30a2\u3001\u30a2\u30b5\u30ec\u30eb\u3067\u3042\u308b\u3002"
        },
        {
            "chapter": 4,
            "verse": 17,
            "name": "1 Chronicles 4:17",
            "text": "\u30a8\u30ba\u30e9\u306e\u5b50\u3089\u306f\u30a8\u30c6\u30eb\u3001\u30e1\u30ec\u30c7\u3001\u30a8\u30da\u30eb\u3001\u30e4\u30ed\u30f3\u3002\u6b21\u306e\u3082\u306e\u306f\u30e1\u30ec\u30c7\u304c\u3081\u3068\u3063\u305f\u30d1\u30ed\u306e\u5a18\u30d3\u30c6\u30e4\u306e\u5b50\u3089\u3067\u3042\u308b\u3002\u3059\u306a\u308f\u3061\u5f7c\u5973\u306f\u307f\u3054\u3082\u3063\u3066\u30df\u30ea\u30a2\u30e0\u3001\u30b7\u30e3\u30f3\u30de\u30a4\u304a\u3088\u3073\u30a4\u30b7\u30d0\u3092\u7523\u3093\u3060\u3002\u30a4\u30b7\u30d0\u306f\u30a8\u30b7\u30c6\u30e2\u30a2\u306e\u7236\u3067\u3042\u308b\u3002"
        },
        {
            "chapter": 4,
            "verse": 18,
            "name": "1 Chronicles 4:18",
            "text": "\u5f7c\u306e\u59bb\u306f\u30e6\u30c0\u30e4\u4eba\u3067\u3001\u30b2\u30c9\u30eb\u306e\u7236\u30a8\u30ec\u30c7\u3068\u30bd\u30b3\u306e\u7236\u30d8\u30d9\u30eb\u3068\u30b6\u30ce\u30a2\u306e\u7236\u30a8\u30af\u30c6\u30a8\u30eb\u3092\u7523\u3093\u3060\u3002"
        },
        {
            "chapter": 4,
            "verse": 19,
            "name": "1 Chronicles 4:19",
            "text": "\u30ca\u30cf\u30e0\u306e\u59c9\u59b9\u3067\u3042\u308b\u30db\u30c7\u30e4\u306e\u59bb\u306e\u5b50\u3089\u306f\u30ac\u30eb\u30e0\u3073\u3068\u30b1\u30a4\u30e9\u306e\u7236\u304a\u3088\u3073\u30de\u30a2\u30ab\u3073\u3068\u30a8\u30b7\u30c6\u30e2\u30a2\u3067\u3042\u308b\u3002"
        },
        {
            "chapter": 4,
            "verse": 20,
            "name": "1 Chronicles 4:20",
            "text": "\u30b7\u30e2\u30f3\u306e\u5b50\u3089\u306f\u30a2\u30e0\u30ce\u30f3\u3001\u30ea\u30f3\u30ca\u3001\u30d9\u30cd\u30cf\u30ca\u30f3\u3001\u30c6\u30ed\u30f3\u3067\u3042\u308b\u3002\u30a4\u30b7\u306e\u5b50\u3089\u306f\u30be\u30d8\u30c6\u3068\u30d9\u30cd\u30be\u30d8\u30c6\u3067\u3042\u308b\u3002"
        },
        {
            "chapter": 4,
            "verse": 21,
            "name": "1 Chronicles 4:21",
            "text": "\u30e6\u30c0\u306e\u5b50\u30b7\u30e9\u306e\u5b50\u3089\u306f\u30ec\u30ab\u306e\u7236\u30a8\u30eb\u3001\u30de\u30ec\u30b7\u30e3\u306e\u7236\u30e9\u30c0\u304a\u3088\u3073\u30d9\u30c6\u30a2\u30b7\u30d9\u30a2\u306e\u4e9c\u9ebb\u5e03\u7e54\u306e\u5bb6\u306e\u4e00\u65cf\u3001"
        },
        {
            "chapter": 4,
            "verse": 22,
            "name": "1 Chronicles 4:22",
            "text": "\u306a\u3089\u3073\u306b\u30e2\u30a2\u30d6\u3092\u6cbb\u3081\u3066\u30ec\u30d8\u30e0\u306b\u5e30\u3063\u305f\u30e8\u30ad\u30e0\u3001\u30b3\u30bc\u30d0\u306e\u4eba\u3005\u3001\u30e8\u30a2\u30b7\u304a\u3088\u3073\u30b5\u30e9\u30d5\u3067\u3042\u308b\u3002\u305d\u306e\u8a18\u9332\u306f\u53e4\u3044\u3002"
        },
        {
            "chapter": 4,
            "verse": 23,
            "name": "1 Chronicles 4:23",
            "text": "\u3053\u308c\u3089\u306e\u8005\u306f\u9676\u5668\u3092\u9020\u308b\u4eba\u3067\u3001\u30cd\u30bf\u30a4\u30e0\u304a\u3088\u3073\u30b2\u30c7\u30e9\u306b\u4f4f\u307f\u3001\u738b\u306e\u7528\u3092\u3059\u308b\u305f\u3081\u3001\u738b\u3068\u3068\u3082\u306b\u3001\u305d\u3053\u306b\u4f4f\u3093\u3060\u3002"
        },
        {
            "chapter": 4,
            "verse": 24,
            "name": "1 Chronicles 4:24",
            "text": "\u30b7\u30e1\u30aa\u30f3\u306e\u5b50\u3089\u306f\u30cd\u30e0\u30a8\u30eb\u3001\u30e4\u30df\u30f3\u3001\u30e4\u30ea\u30d6\u3001\u30bc\u30e9\u3001\u30b7\u30e3\u30a6\u30eb\u3002"
        },
        {
            "chapter": 4,
            "verse": 25,
            "name": "1 Chronicles 4:25",
            "text": "\u30b7\u30e3\u30a6\u30eb\u306e\u5b50\u306f\u30b7\u30e3\u30eb\u30e0\u3001\u305d\u306e\u5b50\u306f\u30df\u30d6\u30b5\u30e0\u3001\u305d\u306e\u5b50\u306f\u30df\u30b7\u30de\u3002"
        },
        {
            "chapter": 4,
            "verse": 26,
            "name": "1 Chronicles 4:26",
            "text": "\u30df\u30b7\u30de\u306e\u5b50\u5b6b\u306f\u3001\u305d\u306e\u5b50\u306f\u30cf\u30e0\u30a8\u30eb\u3001\u305d\u306e\u5b50\u306f\u30b6\u30c3\u30af\u30eb\u3001\u305d\u306e\u5b50\u306f\u30b7\u30e1\u30a4\u3002"
        },
        {
            "chapter": 4,
            "verse": 27,
            "name": "1 Chronicles 4:27",
            "text": "\u30b7\u30e1\u30a4\u306b\u306f\u7537\u306e\u5b50\u5341\u516d\u4eba\u3001\u5973\u306e\u5b50\u516d\u4eba\u3042\u3063\u305f\u304c\u3001\u305d\u306e\u5144\u5f1f\u305f\u3061\u306b\u306f\u591a\u304f\u306e\u5b50\u306f\u306a\u304b\u3063\u305f\u3002\u307e\u305f\u305d\u306e\u6c0f\u65cf\u306e\u8005\u306f\u3059\u3079\u3066\u30e6\u30c0\u306e\u5b50\u5b6b\u307b\u3069\u306b\u306f\u3075\u3048\u306a\u304b\u3063\u305f\u3002"
        },
        {
            "chapter": 4,
            "verse": 28,
            "name": "1 Chronicles 4:28",
            "text": "\u5f7c\u3089\u306e\u4f4f\u3093\u3060\u6240\u306f\u30d9\u30a8\u30eb\u30b7\u30d0\u3001\u30e2\u30e9\u30c0\u3001\u30cf\u30b6\u30eb\u30fb\u30b7\u30e5\u30a2\u30eb\u3001"
        },
        {
            "chapter": 4,
            "verse": 29,
            "name": "1 Chronicles 4:29",
            "text": "\u30d3\u30eb\u30cf\u3001\u30a8\u30bc\u30e0\u3001\u30c8\u30e9\u30c7\u3001"
        },
        {
            "chapter": 4,
            "verse": 30,
            "name": "1 Chronicles 4:30",
            "text": "\u30d9\u30c8\u30a8\u30eb\u3001\u30db\u30eb\u30de\u3001\u30c1\u30af\u30e9\u30b0\u3001"
        },
        {
            "chapter": 4,
            "verse": 31,
            "name": "1 Chronicles 4:31",
            "text": "\u30d9\u30c6\u30fb\u30de\u30eb\u30ab\u30dc\u30c6\u3001\u30cf\u30b6\u30eb\u30fb\u30b9\u30b7\u30e0\u3001\u30d9\u30c6\u30fb\u30d3\u30ea\u3001\u304a\u3088\u3073\u30b7\u30e3\u30e9\u30a4\u30e0\u3067\u3042\u308b\u3002\u3053\u308c\u3089\u306f\u30c0\u30d3\u30c7\u306e\u4e16\u306b\u81f3\u308b\u307e\u3067\u5f7c\u3089\u306e\u753a\u3067\u3042\u3063\u305f\u3002"
        },
        {
            "chapter": 4,
            "verse": 32,
            "name": "1 Chronicles 4:32",
            "text": "\u305d\u306e\u6751\u91cc\u306f\u30a8\u30bf\u30e0\u3001\u30a2\u30a4\u30f3\u3001\u30ea\u30f3\u30e2\u30f3\u3001\u30c8\u30b1\u30f3\u3001\u30a2\u30b7\u30e3\u30f3\u306e\u4e94\u3064\u306e\u753a\u3067\u3042\u308b\u3002"
        },
        {
            "chapter": 4,
            "verse": 33,
            "name": "1 Chronicles 4:33",
            "text": "\u307e\u305f\u3053\u308c\u3089\u306e\u753a\u3005\u306e\u5468\u56f2\u306b\u591a\u304f\u306e\u6751\u304c\u3042\u3063\u3066\u3001\u30d0\u30a2\u30eb\u307e\u3067\u304a\u3088\u3093\u3060\u3002\u5f7c\u3089\u306e\u3059\u307f\u304b\u306f\u4ee5\u4e0a\u306e\u3068\u304a\u308a\u3067\u3001\u5f7c\u3089\u306f\u304a\u306e\u304a\u306e\u7cfb\u56f3\u3092\u3082\u3063\u3066\u3044\u305f\u3002"
        },
        {
            "chapter": 4,
            "verse": 34,
            "name": "1 Chronicles 4:34",
            "text": "\u30e1\u30b7\u30e7\u30d0\u30d6\u3001\u30e4\u30e0\u30ec\u30af\u3001\u30a2\u30de\u30b8\u30e4\u306e\u5b50\u30e8\u30b7\u30e3\u3001"
        },
        {
            "chapter": 4,
            "verse": 35,
            "name": "1 Chronicles 4:35",
            "text": "\u30e8\u30a8\u30eb\u3001\u30a2\u30b7\u30a8\u30eb\u306e\u3072\u3053\u3001\u30bb\u30e9\u30e4\u306e\u5b6b\u3001\u30e8\u30b7\u30d3\u30a2\u306e\u5b50\u30a8\u30d2\u30a6\u3002"
        },
        {
            "chapter": 4,
            "verse": 36,
            "name": "1 Chronicles 4:36",
            "text": "\u30a8\u30ea\u30aa\u30a8\u30ca\u30a4\u3001\u30e4\u30b3\u30d0\u3001\u30a8\u30b7\u30e7\u30cf\u30e4\u3001\u30a2\u30b5\u30e4\u3001\u30a2\u30c7\u30a8\u30eb\u3001\u30a8\u30b7\u30df\u30a8\u30eb\u3001\u30d9\u30ca\u30e4\u3001"
        },
        {
            "chapter": 4,
            "verse": 37,
            "name": "1 Chronicles 4:37",
            "text": "\u304a\u3088\u3073\u30b7\u30d4\u306e\u5b50\u30b8\u30b6\u3002\u30b7\u30d4\u306f\u30a2\u30ed\u30f3\u306e\u5b50\u3001\u30a2\u30ed\u30f3\u306f\u30a8\u30c0\u30e4\u306e\u5b50\u3001\u30a8\u30c0\u30e4\u306f\u30b7\u30e0\u30ea\u306e\u5b50\u3001\u30b7\u30e0\u30ea\u306f\u30b7\u30de\u30e4\u306e\u5b50\u3067\u3042\u308b\u3002"
        },
        {
            "chapter": 4,
            "verse": 38,
            "name": "1 Chronicles 4:38",
            "text": "\u3053\u3053\u306b\u540d\u3092\u3042\u3052\u305f\u8005\u3069\u3082\u306f\u305d\u306e\u6c0f\u65cf\u306e\u9577\u3067\u3042\u3063\u3066\u3001\u305d\u308c\u3089\u306e\u6c0f\u65cf\u306f\u5927\u3044\u306b\u3075\u3048\u5e83\u304c\u3063\u305f\u3002"
        },
        {
            "chapter": 4,
            "verse": 39,
            "name": "1 Chronicles 4:39",
            "text": "\u5f7c\u3089\u306f\u7fa4\u308c\u306e\u305f\u3081\u306b\u7267\u5834\u3092\u6c42\u3081\u3066\u30b2\u30c9\u30eb\u306e\u5165\u53e3\u306b\u884c\u304d\u3001\u8c37\u306e\u6771\u306e\u65b9\u307e\u3067\u9032\u307f\u3001"
        },
        {
            "chapter": 4,
            "verse": 40,
            "name": "1 Chronicles 4:40",
            "text": "\u3064\u3044\u306b\u8c4a\u304b\u306a\u826f\u3044\u7267\u5834\u3092\u898b\u3044\u3060\u3057\u305f\u3002\u305d\u306e\u5730\u306f\u5e83\u304f\u7a4f\u3084\u304b\u3067\u3001\u5b89\u3089\u304b\u3067\u3042\u3063\u305f\u3002\u305d\u306e\u5730\u306e\u524d\u306e\u4f4f\u6c11\u306f\u30cf\u30e0\u3073\u3068\u3067\u3042\u3063\u305f\u304b\u3089\u3067\u3042\u308b\u3002"
        },
        {
            "chapter": 4,
            "verse": 41,
            "name": "1 Chronicles 4:41",
            "text": "\u3053\u308c\u3089\u306e\u540d\u3092\u3057\u308b\u3057\u305f\u8005\u3069\u3082\u306f\u30e6\u30c0\u306e\u738b\u30d2\u30bc\u30ad\u30e4\u306e\u4e16\u306b\u884c\u3063\u3066\u3001\u5f7c\u3089\u306e\u5929\u5e55\u3068\u3001\u305d\u3053\u306b\u3044\u305f\u30e1\u30a6\u30cb\u3073\u3068\u3092\u6483\u3061\u7834\u308a\u3001\u5f7c\u3089\u3092\u3053\u3068\u3054\u3068\u304f\u6ec5\u307c\u3057\u3066\u4eca\u65e5\u306b\u81f3\u3063\u3066\u3044\u308b\u3002\u305d\u3053\u306b\u306f\u3001\u7fa4\u308c\u306e\u305f\u3081\u306e\u7267\u5834\u304c\u3042\u3063\u305f\u306e\u3067\u3001\u5f7c\u3089\u306f\u305d\u3053\u306b\u4f4f\u3093\u3060\u3002"
        },
        {
            "chapter": 4,
            "verse": 42,
            "name": "1 Chronicles 4:42",
            "text": "\u307e\u305f\u30b7\u30e1\u30aa\u30f3\u3073\u3068\u306e\u3046\u3061\u306e\u4e94\u767e\u4eba\u306f\u30a4\u30b7\u306e\u5b50\u3089\u30da\u30e9\u30c6\u30e4\u3001\u30cd\u30a2\u30ea\u30e4\u3001\u30ec\u30d1\u30e4\u3001\u30a6\u30b8\u30a8\u30eb\u3092\u304b\u3057\u3089\u3068\u3057\u3066\u30bb\u30a4\u30eb\u5c71\u306b\u884c\u304d\u3001"
        },
        {
            "chapter": 4,
            "verse": 43,
            "name": "1 Chronicles 4:43",
            "text": "\u30a2\u30de\u30ec\u30af\u3073\u3068\u3067\u3001\u306e\u304c\u308c\u3066\u6b8b\u3063\u3066\u3044\u305f\u8005\u3092\u6483\u3061\u6ec5\u307c\u3057\u3066\u3001\u4eca\u65e5\u307e\u3067\u305d\u3053\u306b\u4f4f\u3093\u3067\u3044\u308b\u3002"
        }
    ]
}