{
    "translation": "Schlachter (1951)",
    "abbreviation": "schlachter",
    "lang": "de",
    "language": "German",
    "direction": "LTR",
    "encoding": "",
    "book_nr": 46,
    "book_name": "1. Korinther",
    "chapter": 2,
    "name": "1. Korinther 2",
    "verses": [
        {
            "chapter": 2,
            "verse": 1,
            "name": "1. Korinther 2:1",
            "text": "So bin auch ich, meine Br\u00fcder, als ich zu euch kam, nicht gekommen, um euch in hervorragender Rede oder Weisheit das Zeugnis Gottes zu verk\u00fcndigen."
        },
        {
            "chapter": 2,
            "verse": 2,
            "name": "1. Korinther 2:2",
            "text": "Denn ich hatte mir vorgenommen, unter euch nichts anderes zu wissen, als nur Jesus Christus, und zwar als Gekreuzigten."
        },
        {
            "chapter": 2,
            "verse": 3,
            "name": "1. Korinther 2:3",
            "text": "Und ich war in Schwachheit und mit viel Furcht und Zittern unter euch."
        },
        {
            "chapter": 2,
            "verse": 4,
            "name": "1. Korinther 2:4",
            "text": "Und meine Rede und meine Predigt bestand nicht in \u00fcberredenden Worten menschlicher Weisheit, sondern in Beweisung des Geistes und der Kraft,"
        },
        {
            "chapter": 2,
            "verse": 5,
            "name": "1. Korinther 2:5",
            "text": "auf da\u00df euer Glaube nicht auf Menschenweisheit beruhe, sondern auf Gotteskraft."
        },
        {
            "chapter": 2,
            "verse": 6,
            "name": "1. Korinther 2:6",
            "text": "Wir reden allerdings Weisheit, unter den Gereiften; aber keine Weisheit dieser Welt, auch nicht der Obersten dieser Welt, welche vergehen."
        },
        {
            "chapter": 2,
            "verse": 7,
            "name": "1. Korinther 2:7",
            "text": "Sondern wir reden Gottes Weisheit im Geheimnis, die verborgene, welche Gott vor den Weltzeiten zu unserer Herrlichkeit vorherbestimmt hat,"
        },
        {
            "chapter": 2,
            "verse": 8,
            "name": "1. Korinther 2:8",
            "text": "welche keiner der Obersten dieser Welt erkannt hat; denn h\u00e4tten sie sie erkannt, so w\u00fcrden sie den Herrn der Herrlichkeit nicht gekreuzigt haben."
        },
        {
            "chapter": 2,
            "verse": 9,
            "name": "1. Korinther 2:9",
            "text": "Sondern, wie geschrieben steht: \u00abWas kein Auge gesehen und kein Ohr geh\u00f6rt und keinem Menschen in den Sinn gekommen ist, was Gott denen bereitet hat, die ihn lieben\u00bb,"
        },
        {
            "chapter": 2,
            "verse": 10,
            "name": "1. Korinther 2:10",
            "text": "hat Gott uns aber geoffenbart durch seinen Geist; denn der Geist erforscht alles, auch die Tiefen der Gottheit."
        },
        {
            "chapter": 2,
            "verse": 11,
            "name": "1. Korinther 2:11",
            "text": "Denn welcher Mensch wei\u00df, was im Menschen ist, als nur der Geist des Menschen, der in ihm ist? So wei\u00df auch niemand, was in Gott ist, als nur der Geist Gottes."
        },
        {
            "chapter": 2,
            "verse": 12,
            "name": "1. Korinther 2:12",
            "text": "Wir aber haben nicht den Geist der Welt empfangen, sondern den Geist aus Gott, so da\u00df wir wissen k\u00f6nnen, was uns von Gott gegeben ist;"
        },
        {
            "chapter": 2,
            "verse": 13,
            "name": "1. Korinther 2:13",
            "text": "und davon reden wir auch, nicht in Worten, die von menschlicher Weisheit gelehrt sind, sondern in solchen, die vom Geist gelehrt sind, indem wir Geistliches geistlich beurteilen."
        },
        {
            "chapter": 2,
            "verse": 14,
            "name": "1. Korinther 2:14",
            "text": "Der seelische Mensch aber nimmt nicht an, was vom Geiste Gottes ist; denn es ist ihm eine Torheit, und er kann es nicht verstehen, weil es geistlich beurteilt werden mu\u00df."
        },
        {
            "chapter": 2,
            "verse": 15,
            "name": "1. Korinther 2:15",
            "text": "Der geistliche <FI>Mensch<Fi> aber erforscht alles, er selbst jedoch wird von niemand erforscht;"
        },
        {
            "chapter": 2,
            "verse": 16,
            "name": "1. Korinther 2:16",
            "text": "denn wer hat des Herrn Sinn erkannt, da\u00df er ihn belehre? Wir aber haben Christi Sinn."
        }
    ]
}