{
    "translation": "Det Norsk Bibelselskap (1930)",
    "abbreviation": "bibelselskap",
    "lang": "nb",
    "language": "Norwegian bokmal",
    "direction": "LTR",
    "encoding": "UTF-8",
    "book_nr": 5,
    "book_name": "Deuteronomy",
    "chapter": 11,
    "name": "Deuteronomy 11",
    "verses": [
        {
            "chapter": 11,
            "verse": 1,
            "name": "Deuteronomy 11:1",
            "text": "S\u00e5 skal du da elske Herren din Gud og ta vare p\u00e5 det han vil ha varetatt, hans lover og hans forskrifter og hans bud, alle dager."
        },
        {
            "chapter": 11,
            "verse": 2,
            "name": "Deuteronomy 11:2",
            "text": "Og I skal idag - for det er ikke eders barn jeg taler med, de som ikke kjenner det og ikke har sett det - komme I hu Herrens, eders Guds optuktelse, hans storhet, hans sterke h\u00e5nd og hans utrakte arm"
        },
        {
            "chapter": 11,
            "verse": 3,
            "name": "Deuteronomy 11:3",
            "text": "og hans tegn og gjerninger, som han gjorde i Egypten med Farao, kongen i Egypten, og med hele hans land,"
        },
        {
            "chapter": 11,
            "verse": 4,
            "name": "Deuteronomy 11:4",
            "text": "og hvad han gjorde med egypternes h\u00e6r, med deres hester og vogner, da han lot det R\u00f8de Havs vann str\u00f8mme sammen over dem mens de forfulgte eder, og lot dem g\u00e5 til grunne, s\u00e5 ingen har sett dem mere til denne dag,"
        },
        {
            "chapter": 11,
            "verse": 5,
            "name": "Deuteronomy 11:5",
            "text": "og hvad han gjorde med eder i \u00f8rkenen inntil I kom til dette sted,"
        },
        {
            "chapter": 11,
            "verse": 6,
            "name": "Deuteronomy 11:6",
            "text": "og hvad han gjorde med Datan og Abiram, s\u00f8nnene til Eliab, Rubens s\u00f8nn, da jorden lukket op sin munn og midt iblandt hele Israel slukte dem og deres hus og deres telter og hvert liv som var i f\u00f8lge med dem;"
        },
        {
            "chapter": 11,
            "verse": 7,
            "name": "Deuteronomy 11:7",
            "text": "for I har selv med egne \u00f8ine sett alle de storverk Herren har gjort."
        },
        {
            "chapter": 11,
            "verse": 8,
            "name": "Deuteronomy 11:8",
            "text": "Ta da vare p\u00e5 alle de bud jeg gir dig idag, forat I kan bli sterke og komme inn og eie det land I nu drar over til og skal ta i eie,"
        },
        {
            "chapter": 11,
            "verse": 9,
            "name": "Deuteronomy 11:9",
            "text": "og forat I kan f\u00e5 leve lenge i det land Herren tilsvor eders fedre \u00e5 ville gi dem og deres \u00e6tt, et land som flyter med melk og honning."
        },
        {
            "chapter": 11,
            "verse": 10,
            "name": "Deuteronomy 11:10",
            "text": "For det land du kommer inn i og skal ta i eie, er ikke som Egyptens land, som I drog ut fra, hvor du s\u00e5dde din s\u00e6d og s\u00e5 vannet jorden med din fot som en k\u00e5lhave."
        },
        {
            "chapter": 11,
            "verse": 11,
            "name": "Deuteronomy 11:11",
            "text": "Men det land I drar over til og skal ta i eie, er et land med fjell og daler, som drikker vann av himmelens regn,"
        },
        {
            "chapter": 11,
            "verse": 12,
            "name": "Deuteronomy 11:12",
            "text": "et land som Herren din Gud b\u00e6rer omsorg for; alltid hviler Herrens, din Guds \u00f8ine p\u00e5 det, fra \u00e5rets begynnelse til dets ende."
        },
        {
            "chapter": 11,
            "verse": 13,
            "name": "Deuteronomy 11:13",
            "text": "Dersom I nu er lydige mot mine bud, som jeg gir eder idag, s\u00e5 I elsker Herren eders Gud og tjener ham av alt eders hjerte og av all eders sjel,"
        },
        {
            "chapter": 11,
            "verse": 14,
            "name": "Deuteronomy 11:14",
            "text": "da vil jeg gi eders land regn i rette tid, h\u00f8stregn og v\u00e5rregn, og du skal samle i hus ditt korn og din most og din olje,"
        },
        {
            "chapter": 11,
            "verse": 15,
            "name": "Deuteronomy 11:15",
            "text": "og for ditt fe vil jeg gi dig gress p\u00e5 dine marker, og du skal ete og bli mett."
        },
        {
            "chapter": 11,
            "verse": 16,
            "name": "Deuteronomy 11:16",
            "text": "Ta eder i vare at eders hjerte ikke d\u00e5res, s\u00e5 I viker av og dyrker andre guder og tilbeder dem,"
        },
        {
            "chapter": 11,
            "verse": 17,
            "name": "Deuteronomy 11:17",
            "text": "og Herrens vrede optendes mot eder, og han lukker himmelen til, s\u00e5 det ikke kommer regn, og jorden ikke gir sin gr\u00f8de, og I hastig blir utryddet av det gode land Herren gir eder."
        },
        {
            "chapter": 11,
            "verse": 18,
            "name": "Deuteronomy 11:18",
            "text": "S\u00e5 legg eder da disse mine ord p\u00e5 hjerte og p\u00e5 sinne og bind dem som et tegn p\u00e5 eders h\u00e5nd og la dem v\u00e6re som en minneseddel p\u00e5 eders panne"
        },
        {
            "chapter": 11,
            "verse": 19,
            "name": "Deuteronomy 11:19",
            "text": "og l\u00e6r eders barn dem ved \u00e5 tale om dem n\u00e5r du sitter i ditt hus, og n\u00e5r du g\u00e5r p\u00e5 veien, og n\u00e5r du legger dig, og n\u00e5r du st\u00e5r op,"
        },
        {
            "chapter": 11,
            "verse": 20,
            "name": "Deuteronomy 11:20",
            "text": "og skriv dem p\u00e5 d\u00f8rstolpene i ditt hus og p\u00e5 dine porter,"
        },
        {
            "chapter": 11,
            "verse": 21,
            "name": "Deuteronomy 11:21",
            "text": "forat eders og eders barns dager m\u00e5 bli mange i det land som Herren tilsvor eders fedre \u00e5 ville gi dem, og I m\u00e5 leve der like s\u00e5 lenge som himmelen hvelver sig over jorden."
        },
        {
            "chapter": 11,
            "verse": 22,
            "name": "Deuteronomy 11:22",
            "text": "For tar I vare p\u00e5 alle disse bud som jeg byder eder \u00e5 holde, s\u00e5 I elsker Herren eders Gud og vandrer p\u00e5 alle hans veier og holder fast ved ham,"
        },
        {
            "chapter": 11,
            "verse": 23,
            "name": "Deuteronomy 11:23",
            "text": "da skal Herren drive ut alle disse folk for eder, og I skal jage bort folk som er st\u00f8rre og tallrikere enn I selv."
        },
        {
            "chapter": 11,
            "verse": 24,
            "name": "Deuteronomy 11:24",
            "text": "Hvert sted I treder p\u00e5 med eders fot, skal h\u00f8re eder til; fra \u00f8rkenen og Libanon, fra den store elv, elven Frat, og til havet i vest skal eders landemerker n\u00e5."
        },
        {
            "chapter": 11,
            "verse": 25,
            "name": "Deuteronomy 11:25",
            "text": "Ingen skal kunne st\u00e5 sig imot eder; redsel for eder og frykt for eder skal Herren eders Gud la komme over hele det land I treder p\u00e5, s\u00e5ledes som han har sagt til eder."
        },
        {
            "chapter": 11,
            "verse": 26,
            "name": "Deuteronomy 11:26",
            "text": "Se, jeg legger idag frem for eder velsignelse og forbannelse:"
        },
        {
            "chapter": 11,
            "verse": 27,
            "name": "Deuteronomy 11:27",
            "text": "velsignelsen, s\u00e5 sant I lyder Herrens, eders Guds bud, som jeg gir eder idag,"
        },
        {
            "chapter": 11,
            "verse": 28,
            "name": "Deuteronomy 11:28",
            "text": "og forbannelsen, dersom I ikke lyder Herrens, eders Guds bud, men viker av fra den vei jeg idag byder eder \u00e5 vandre p\u00e5, og f\u00f8lger andre guder, som I ikke kjenner."
        },
        {
            "chapter": 11,
            "verse": 29,
            "name": "Deuteronomy 11:29",
            "text": "Og n\u00e5r Herren din Gud f\u00f8rer dig inn i det land du nu drar inn i og skal ta i eie, da skal du lyse velsignelsen p\u00e5 fjellet Garisim og forbannelsen p\u00e5 fjellet Ebal."
        },
        {
            "chapter": 11,
            "verse": 30,
            "name": "Deuteronomy 11:30",
            "text": "Disse to fjell ligger, som i vet, p\u00e5 hin side Jordan bortenfor veien som b\u00e6rer mot vest, i kana'anittenes land, de som bor i \u00f8demarken midt imot Gilgal, ved Mores terebintelund."
        },
        {
            "chapter": 11,
            "verse": 31,
            "name": "Deuteronomy 11:31",
            "text": "For nu g\u00e5r I over Jordan for \u00e5 komme inn og ta det land i eie som Herren eders Gud gir eder, og I skal ta det i eie og bo der."
        },
        {
            "chapter": 11,
            "verse": 32,
            "name": "Deuteronomy 11:32",
            "text": "Akt da vel p\u00e5 at I holder alle de bud og lover som jeg idag legger frem for eder!"
        }
    ]
}