{
    "translation": "Danish New Testament from 1819 with original orthography",
    "abbreviation": "dant1819",
    "lang": "da",
    "language": "Danish",
    "direction": "LTR",
    "encoding": "UTF-8",
    "book_nr": 62,
    "book_name": "1 John",
    "chapter": 4,
    "name": "1 John 4",
    "verses": [
        {
            "chapter": 4,
            "verse": 1,
            "name": "1 John 4:1",
            "text": "I Elskelige! troer ikke hver Aand, men pr\u00f8ver Aanderne, om de ere af Gud; thi mange falske Propheter ere udgangne i Verden."
        },
        {
            "chapter": 4,
            "verse": 2,
            "name": "1 John 4:2",
            "text": "Derpaa kjende I Guds Aand: hver Aand, som bekjender Jesus Christus at v\u00e6re kommen i Kj\u00f8det, er af Gud,"
        },
        {
            "chapter": 4,
            "verse": 3,
            "name": "1 John 4:3",
            "text": "Og hver Aand, som ikke bekjender Jesus Christus at v\u00e6re kommen i Kj\u00f8det, er ikke af Gud; og denne er Antichristens Aand, om hvilken I h\u00f8rte, at han kommer, og han er allerede nu i Verden."
        },
        {
            "chapter": 4,
            "verse": 4,
            "name": "1 John 4:4",
            "text": "  Mine B\u00f8rn! I ere af Gud og have overvundet dem; thi den, som er i Eder, er st\u00f8rre end den, der i Verden."
        },
        {
            "chapter": 4,
            "verse": 5,
            "name": "1 John 4:5",
            "text": "De ere af Verden, derfor tale de af Verden, og Verden h\u00f8rer dem."
        },
        {
            "chapter": 4,
            "verse": 6,
            "name": "1 John 4:6",
            "text": "Vi ere af Gud. Hvo som kjender Gud, h\u00f8rer os; hvo som ikke er af Gud, h\u00f8rer os ikke. Derpaa kjende vi Sandhedens Aand og Vildfarelsens Aand."
        },
        {
            "chapter": 4,
            "verse": 7,
            "name": "1 John 4:7",
            "text": "  I Elskelige! lader os elske hverandre; thi Kj\u00e6rligheden er af Gud, og hver den, som elsker, er f\u00f8dt af Gud og kjender Gud."
        },
        {
            "chapter": 4,
            "verse": 8,
            "name": "1 John 4:8",
            "text": "Hvo som ikke elsker, kjender ikke Gud; thi Gud er Kj\u00e6rlighed."
        },
        {
            "chapter": 4,
            "verse": 9,
            "name": "1 John 4:9",
            "text": "Derudi er Guds Kj\u00e6rlighed aabenbaret iblandt os, at Gud haver sendt sin S\u00f8n den eenbaarne til Verden, at vi skulle leve ved ham."
        },
        {
            "chapter": 4,
            "verse": 10,
            "name": "1 John 4:10",
            "text": "Derudi bestaar Kj\u00e6rligheden: ikke at vi have elsket Gud, men at han haver elsket os og haver udsendt sin S\u00f8n til en Forsoning for vore Synder."
        },
        {
            "chapter": 4,
            "verse": 11,
            "name": "1 John 4:11",
            "text": "I elskelige! haver Gud saaledes elsket os, da ere vi og skyldige at elske hverandre."
        },
        {
            "chapter": 4,
            "verse": 12,
            "name": "1 John 4:12",
            "text": "Ingen haver nogen Tid seet Gud; dersom vi elske hverandre, bliver Gud i os, og hans Kj\u00e6rlighed er fuldkommet i os."
        },
        {
            "chapter": 4,
            "verse": 13,
            "name": "1 John 4:13",
            "text": "Derpaa kjende vi, at vi blive i ham, og han i os, fordi han gav os af sin Aand."
        },
        {
            "chapter": 4,
            "verse": 14,
            "name": "1 John 4:14",
            "text": "Og vi have seet og vidne, at Faderen udsendte S\u00f8nnen at v\u00e6re Verdens Frelser."
        },
        {
            "chapter": 4,
            "verse": 15,
            "name": "1 John 4:15",
            "text": "Hvo som bekjender, at Jesus er Guds S\u00f8n, i ham bliver Gud, og han i Gud."
        },
        {
            "chapter": 4,
            "verse": 16,
            "name": "1 John 4:16",
            "text": "Og vi have erkjendt og troet den Kj\u00e6rlighed, som Gud haver til os. Gud er Kj\u00e6rlighed, og hvo som bliver i Kj\u00e6rlighed, bliver i Gud, og Gud i ham."
        },
        {
            "chapter": 4,
            "verse": 17,
            "name": "1 John 4:17",
            "text": "Derudi fuldkommes Kj\u00e6rligheden hos os, at vi have Frimodighed paa Dommens Dag, fordi, ligesom han er, saa ere og vi i denne Verden."
        },
        {
            "chapter": 4,
            "verse": 18,
            "name": "1 John 4:18",
            "text": "Frygt er ikke i Kj\u00e6rligheden, men den fuldkomne Kj\u00e6rlighed driver Frygten ud, thi Frygt bringer Pine; men hvo som frygter, er ikke fuldkommet i Kj\u00e6rligheden."
        },
        {
            "chapter": 4,
            "verse": 19,
            "name": "1 John 4:19",
            "text": "Vi elske ham, fordi han elskede os f\u00f8rst."
        },
        {
            "chapter": 4,
            "verse": 20,
            "name": "1 John 4:20",
            "text": "Dersom Nogen siger: jeg elsker Gud, og hader sin Broder, han er en L\u00f8gner; thi hvo som ikke elsker sin Broder, som han haver seet, hvorledes kan han elske Gud, som han ikke haver seet?"
        },
        {
            "chapter": 4,
            "verse": 21,
            "name": "1 John 4:21",
            "text": "Og dette Bud have vi af ham, at den, som elsker Gud, skal og elske sin Broder. "
        }
    ]
}