{
    "translation": "Free version of New English Translation with limited notes",
    "abbreviation": "netfree",
    "lang": "en",
    "language": "English",
    "direction": "LTR",
    "encoding": "UTF-8",
    "book_nr": 15,
    "book_name": "Ezra",
    "chapter": 3,
    "name": "Ezra 3",
    "verses": [
        {
            "chapter": 3,
            "verse": 1,
            "name": "Ezra 3:1",
            "text": "When the seventh month arrived and the Israelites were living in their towns, the people assembled in Jerusalem."
        },
        {
            "chapter": 3,
            "verse": 2,
            "name": "Ezra 3:2",
            "text": "Then Jeshua the son of Jozadak and his priestly colleagues and Zerubbabel son of Shealtiel and his colleagues started to build the altar of the God of Israel so they could offer burnt offerings on it as required by the law of Moses the man of God."
        },
        {
            "chapter": 3,
            "verse": 3,
            "name": "Ezra 3:3",
            "text": "They established the altar on its foundations, even though they were in terror of the local peoples, and they offered burnt offerings on it to the LORD, both the morning and the evening offerings."
        },
        {
            "chapter": 3,
            "verse": 4,
            "name": "Ezra 3:4",
            "text": "They observed the Festival of Temporary Shelters as required and offered the proper number of daily burnt offerings according to the requirement for each day."
        },
        {
            "chapter": 3,
            "verse": 5,
            "name": "Ezra 3:5",
            "text": "Afterward they offered the continual burnt offerings and those for the new moons and those for all the holy assemblies of the LORD and all those that were being voluntarily offered to the LORD."
        },
        {
            "chapter": 3,
            "verse": 6,
            "name": "Ezra 3:6",
            "text": "From the first day of the seventh month they began to offer burnt offerings to the LORD. However, the LORD's temple was not at that time established. "
        },
        {
            "chapter": 3,
            "verse": 7,
            "name": "Ezra 3:7",
            "text": "So they provided money for the masons and carpenters, and food, beverages, and olive oil for the people of Sidon and Tyre, so that they would bring cedar timber from Lebanon to the seaport at Joppa, in accord with the edict of King Cyrus of Persia."
        },
        {
            "chapter": 3,
            "verse": 8,
            "name": "Ezra 3:8",
            "text": "In the second year after they had come to the temple of God in Jerusalem, in the second month, Zerubbabel the son of Shealtiel and Jeshua the son of Jozadak initiated the work, along with the rest of their associates, the priests and the Levites, and all those who were coming to Jerusalem from the exile. They appointed the Levites who were at least twenty years old to take charge of the work on the LORD's temple."
        },
        {
            "chapter": 3,
            "verse": 9,
            "name": "Ezra 3:9",
            "text": "So Jeshua appointed both his sons and his relatives, Kadmiel and his sons (the sons of Yehudah ), to take charge of the workers in the temple of God, along with the sons of Henadad, their sons, and their relatives the Levites."
        },
        {
            "chapter": 3,
            "verse": 10,
            "name": "Ezra 3:10",
            "text": "When the builders established the LORD's temple, the priests, ceremonially attired and with their clarions, and the Levites (the sons of Asaph) with their cymbals, stood to praise the LORD according to the instructions left by King David of Israel."
        },
        {
            "chapter": 3,
            "verse": 11,
            "name": "Ezra 3:11",
            "text": "With antiphonal response they sang, praising and glorifying the LORD:\"For he is good; his loyal love toward Israel is forever.\" All the people gave a loud shout as they praised the LORD when the temple of the LORD was established."
        },
        {
            "chapter": 3,
            "verse": 12,
            "name": "Ezra 3:12",
            "text": "Many of the priests, the Levites, and the leaders - older people who had seen with their own eyes the former temple while it was still established - were weeping loudly, and many others raised their voice in a joyous shout."
        },
        {
            "chapter": 3,
            "verse": 13,
            "name": "Ezra 3:13",
            "text": "People were unable to tell the difference between the sound of joyous shouting and the sound of the people's weeping, for the people were shouting so loudly that the sound was heard a long way off. </div>"
        }
    ]
}