{
    "translation": "Czech BKR",
    "abbreviation": "bkr",
    "lang": "cs",
    "language": "Czech",
    "direction": "LTR",
    "encoding": "UTF-8",
    "book_nr": 19,
    "book_name": "Psalms",
    "chapter": 107,
    "name": "Psalms 107",
    "verses": [
        {
            "chapter": 107,
            "verse": 1,
            "name": "Psalms 107:1",
            "text": "Oslavujte Hospodina, nebo jest dobr\u00fd, nebo na v\u011bky milosrdenstv\u00ed jeho."
        },
        {
            "chapter": 107,
            "verse": 2,
            "name": "Psalms 107:2",
            "text": "Nech\u0165 o tom vypravuj\u00ed ti, kte\u0159\u00ed\u017e jsou vykoupeni skrze Hospodina, jak je on vykoupil z ruky t\u011bch, kte\u0159\u00ed\u017e je ssu\u017eovali,"
        },
        {
            "chapter": 107,
            "verse": 3,
            "name": "Psalms 107:3",
            "text": "A shrom\u00e1\u017edil je z zem\u00ed, od v\u00fdchodu a od z\u00e1padu, od p\u016flnoci i od mo\u0159e."
        },
        {
            "chapter": 107,
            "verse": 4,
            "name": "Psalms 107:4",
            "text": "Bloudili po pou\u0161ti, po cest\u00e1ch pust\u00fdch, m\u011bsta k p\u0159eb\u00fdv\u00e1n\u00ed nenach\u00e1zej\u00edce."
        },
        {
            "chapter": 107,
            "verse": 5,
            "name": "Psalms 107:5",
            "text": "Hladovit\u00ed a \u017e\u00edzniv\u00ed byli, a\u017e v nich svadla du\u0161e jejich."
        },
        {
            "chapter": 107,
            "verse": 6,
            "name": "Psalms 107:6",
            "text": "Kdy\u017e volali k Hospodinu v ssou\u017een\u00ed sv\u00e9m, z \u00fazkost\u00ed jejich vytrhl je,"
        },
        {
            "chapter": 107,
            "verse": 7,
            "name": "Psalms 107:7",
            "text": "A vedl je po cest\u011b p\u0159\u00edm\u00e9, aby p\u0159i\u0161li do m\u011bsta k bydlen\u00ed."
        },
        {
            "chapter": 107,
            "verse": 8,
            "name": "Psalms 107:8",
            "text": "Necha\u0165 oslavuj\u00ed p\u0159ed Hospodinem milosrdenstv\u00ed jeho, a divn\u00e9 skutky jeho p\u0159ed syny lidsk\u00fdmi,"
        },
        {
            "chapter": 107,
            "verse": 9,
            "name": "Psalms 107:9",
            "text": "Pon\u011bvad\u017e nap\u00e1j\u00ed du\u0161i \u017e\u00edznivou, a du\u0161i hladovitou napl\u0148uje dobr\u00fdmi v\u011bcmi."
        },
        {
            "chapter": 107,
            "verse": 10,
            "name": "Psalms 107:10",
            "text": "Kte\u0159\u00ed\u017e sed\u00ed ve tm\u011b a v st\u00ednu smrti, sev\u0159\u00edni jsouce b\u00eddou i \u017eelezy,"
        },
        {
            "chapter": 107,
            "verse": 11,
            "name": "Psalms 107:11",
            "text": "Proto\u017ee odporni byli \u0159e\u010dem Boha siln\u00e9ho, a radou Nejvy\u0161\u0161\u00edho pohrdli."
        },
        {
            "chapter": 107,
            "verse": 12,
            "name": "Psalms 107:12",
            "text": "Pro\u010de\u017e pon\u00ed\u017eil b\u00eddou srdce jejich, padli, a nebylo pomocn\u00edka."
        },
        {
            "chapter": 107,
            "verse": 13,
            "name": "Psalms 107:13",
            "text": "Kdy\u017e volaj\u00ed k Hospodinu v ssou\u017een\u00ed sv\u00e9m, z \u00fazkost\u00ed je vysvobozuje."
        },
        {
            "chapter": 107,
            "verse": 14,
            "name": "Psalms 107:14",
            "text": "Vyvod\u00ed je z temnost\u00ed a st\u00ednu smrti, a svazky jejich trh\u00e1."
        },
        {
            "chapter": 107,
            "verse": 15,
            "name": "Psalms 107:15",
            "text": "Necha\u0165 oslavuj\u00ed p\u0159ed Hospodinem milosrdenstv\u00ed jeho, a divn\u00e9 skutky jeho p\u0159ed syny lidsk\u00fdmi,"
        },
        {
            "chapter": 107,
            "verse": 16,
            "name": "Psalms 107:16",
            "text": "Pon\u011bvad\u017e l\u00e1me br\u00e1ny m\u011bd\u011bn\u00e9, a z\u00e1vory \u017eelezn\u00e9 posek\u00e1v\u00e1."
        },
        {
            "chapter": 107,
            "verse": 17,
            "name": "Psalms 107:17",
            "text": "Bl\u00e1zni pro cestu p\u0159evr\u00e1cenosti sv\u00e9, a pro nepravosti sv\u00e9 v tr\u00e1pen\u00ed b\u00fdvaj\u00ed."
        },
        {
            "chapter": 107,
            "verse": 18,
            "name": "Psalms 107:18",
            "text": "O\u0161kliv\u00ed se jim v\u0161elik\u00fd pokrm, a\u017e se i k bran\u00e1m smrti p\u0159ibli\u017euj\u00ed."
        },
        {
            "chapter": 107,
            "verse": 19,
            "name": "Psalms 107:19",
            "text": "Kdy\u017e volaj\u00ed k Hospodinu v ssou\u017een\u00ed sv\u00e9m, z \u00fazkost\u00ed jejich je vysvobozuje."
        },
        {
            "chapter": 107,
            "verse": 20,
            "name": "Psalms 107:20",
            "text": "Pos\u00edl\u00e1 slovo sv\u00e9, a uzdravuje je, a vysvobozuje je z hrobu."
        },
        {
            "chapter": 107,
            "verse": 21,
            "name": "Psalms 107:21",
            "text": "Necha\u0165 oslavuj\u00ed p\u0159ed Hospodinem milosrdenstv\u00ed jeho, a divn\u00e9 skutky jeho p\u0159ed syny lidsk\u00fdmi,"
        },
        {
            "chapter": 107,
            "verse": 22,
            "name": "Psalms 107:22",
            "text": "A ob\u011btuj\u00edce ob\u011bti chv\u00e1ly, a\u0165 vypravuj\u00ed skutky jeho s prozp\u011bvov\u00e1n\u00edm."
        },
        {
            "chapter": 107,
            "verse": 23,
            "name": "Psalms 107:23",
            "text": "Kte\u0159\u00ed se plav\u00ed po mo\u0159i na lodech, pracuj\u00edce na velik\u00fdch vod\u00e1ch,"
        },
        {
            "chapter": 107,
            "verse": 24,
            "name": "Psalms 107:24",
            "text": "Ti\u0165 v\u00eddaj\u00ed skutky Hospodinovy, a divy jeho v hlubokosti."
        },
        {
            "chapter": 107,
            "verse": 25,
            "name": "Psalms 107:25",
            "text": "Jak\u017e jen d\u00ed, hned se strhne v\u00edtr bou\u0159liv\u00fd, a dme vlny mo\u0159sk\u00e9."
        },
        {
            "chapter": 107,
            "verse": 26,
            "name": "Psalms 107:26",
            "text": "Vzn\u00e1\u0161ej\u00ed se k nebi, sstupuj\u00ed do propasti, du\u0161e jejich v nebezpe\u010denstv\u00ed rozpl\u00fdv\u00e1 se."
        },
        {
            "chapter": 107,
            "verse": 27,
            "name": "Psalms 107:27",
            "text": "Motaj\u00ed se a naklo\u0148uj\u00ed jako opil\u00fd, a v\u0161ecko um\u011bn\u00ed jejich miz\u00ed."
        },
        {
            "chapter": 107,
            "verse": 28,
            "name": "Psalms 107:28",
            "text": "Kdy\u017e volaj\u00ed k Hospodinu v ssou\u017een\u00ed sv\u00e9m, z \u00fazkost\u00ed jejich je vysvobozuje."
        },
        {
            "chapter": 107,
            "verse": 29,
            "name": "Psalms 107:29",
            "text": "Prom\u011b\u0148uje bou\u0159i v uti\u0161en\u00ed, tak \u017ee umlkne vlnobit\u00ed jejich."
        },
        {
            "chapter": 107,
            "verse": 30,
            "name": "Psalms 107:30",
            "text": "I vesel\u00ed se, \u017ee utichlo; a tak p\u0159ivod\u00ed je k b\u0159ehu \u017e\u00e1dostiv\u00e9mu."
        },
        {
            "chapter": 107,
            "verse": 31,
            "name": "Psalms 107:31",
            "text": "Necha\u0165 oslavuj\u00ed p\u0159ed Hospodinem milosrdenstv\u00ed jeho, a divn\u00e9 skutky jeho p\u0159ed syny lidsk\u00fdmi."
        },
        {
            "chapter": 107,
            "verse": 32,
            "name": "Psalms 107:32",
            "text": "Nech\u0165 ho vyvy\u0161uj\u00ed v shrom\u00e1\u017ed\u011bn\u00ed lidu, a v rad\u011b starc\u016f chv\u00e1l\u00ed jej."
        },
        {
            "chapter": 107,
            "verse": 33,
            "name": "Psalms 107:33",
            "text": "Obrac\u00ed \u0159eky v pou\u0161\u0165, a prameny vod v suchost,"
        },
        {
            "chapter": 107,
            "verse": 34,
            "name": "Psalms 107:34",
            "text": "Zemi \u00farodnou v slatinnou, pro zlost obyvatel\u016f jej\u00edch."
        },
        {
            "chapter": 107,
            "verse": 35,
            "name": "Psalms 107:35",
            "text": "Pustiny obrac\u00ed v jezera, a zemi vyprahlou v prameny vod."
        },
        {
            "chapter": 107,
            "verse": 36,
            "name": "Psalms 107:36",
            "text": "I osazuje na n\u00ed hladovit\u00e9, aby stav\u011bli m\u011bsta k bydlen\u00ed."
        },
        {
            "chapter": 107,
            "verse": 37,
            "name": "Psalms 107:37",
            "text": "Kte\u0159\u00ed\u017e os\u00edvaj\u00ed pole, a d\u011blaj\u00ed vinice, a shroma\u017e\u010fuj\u00ed sob\u011b u\u017eitek \u00farody."
        },
        {
            "chapter": 107,
            "verse": 38,
            "name": "Psalms 107:38",
            "text": "Tak\u0165 on jim \u017eehn\u00e1, \u017ee se rozmno\u017euj\u00ed velmi, a dobytka jejich neumen\u0161uje."
        },
        {
            "chapter": 107,
            "verse": 39,
            "name": "Psalms 107:39",
            "text": "A n\u011bkdy pak umen\u0161eni a sn\u00ed\u017eeni b\u00fdvaj\u00ed ukrutenstv\u00edm, b\u00eddou a truchlost\u00ed,"
        },
        {
            "chapter": 107,
            "verse": 40,
            "name": "Psalms 107:40",
            "text": "Kdy\u017e vyl\u00e9v\u00e1 pohrd\u00e1n\u00ed na kn\u00ed\u017eata, dopou\u0161t\u011bje, aby bloudili po pou\u0161ti bezcestn\u00e9."
        },
        {
            "chapter": 107,
            "verse": 41,
            "name": "Psalms 107:41",
            "text": "On\u0165 vyzdvihuje nuzn\u00e9ho z tr\u00e1pen\u00ed, a rozmno\u017euje rodinu jako st\u00e1do."
        },
        {
            "chapter": 107,
            "verse": 42,
            "name": "Psalms 107:42",
            "text": "Nech\u0165 to spat\u0159uj\u00ed up\u0159\u00edm\u00ed, a rozvesel\u00ed se, ale v\u0161elik\u00e1 nepravost a\u0165 zacp\u00e1 \u00fasta sv\u00e1."
        },
        {
            "chapter": 107,
            "verse": 43,
            "name": "Psalms 107:43",
            "text": "Ale kdo jest tak moudr\u00fd, aby toho \u0161et\u0159il, a vyrozum\u00edval mnoh\u00e9mu milosrdenstv\u00ed Hospodinovu? "
        }
    ]
}