{
    "translation": "New Heart English Bible",
    "abbreviation": "nheb",
    "lang": "en",
    "language": "English",
    "direction": "LTR",
    "encoding": "UTF-8",
    "book_nr": 18,
    "book_name": "Job",
    "chapter": 38,
    "name": "Job 38",
    "verses": [
        {
            "chapter": 38,
            "verse": 1,
            "name": "Job 38:1",
            "text": "Then the Lord answered Job out of the whirlwind, "
        },
        {
            "chapter": 38,
            "verse": 2,
            "name": "Job 38:2",
            "text": "\"Who is this who darkens counsel by words without knowledge? "
        },
        {
            "chapter": 38,
            "verse": 3,
            "name": "Job 38:3",
            "text": "Brace yourself like a man, for I will question you, then you answer me! "
        },
        {
            "chapter": 38,
            "verse": 4,
            "name": "Job 38:4",
            "text": "\"Where were you when I laid the foundations of the earth? Declare, if you have understanding. "
        },
        {
            "chapter": 38,
            "verse": 5,
            "name": "Job 38:5",
            "text": "Who determined its measures, if you know? Or who stretched the line on it? "
        },
        {
            "chapter": 38,
            "verse": 6,
            "name": "Job 38:6",
            "text": "Whereupon were its foundations fastened? Or who laid its cornerstone, "
        },
        {
            "chapter": 38,
            "verse": 7,
            "name": "Job 38:7",
            "text": "when the morning stars sang together, and all the sons of God shouted for joy? "
        },
        {
            "chapter": 38,
            "verse": 8,
            "name": "Job 38:8",
            "text": "\"Or who shut up the sea with doors, when it broke forth from the womb, "
        },
        {
            "chapter": 38,
            "verse": 9,
            "name": "Job 38:9",
            "text": "when I made clouds its garment, and wrapped it in thick darkness, "
        },
        {
            "chapter": 38,
            "verse": 10,
            "name": "Job 38:10",
            "text": "marked out for it my bound, set bars and doors, "
        },
        {
            "chapter": 38,
            "verse": 11,
            "name": "Job 38:11",
            "text": "and said, 'Here you may come, but no further. Here your proud waves shall be stayed?' "
        },
        {
            "chapter": 38,
            "verse": 12,
            "name": "Job 38:12",
            "text": "\"Have you commanded the morning in your days, and caused the dawn to know its place; "
        },
        {
            "chapter": 38,
            "verse": 13,
            "name": "Job 38:13",
            "text": "that it might take hold of the ends of the earth, and shake the wicked out of it? "
        },
        {
            "chapter": 38,
            "verse": 14,
            "name": "Job 38:14",
            "text": "It is changed as clay under the seal, and stands forth as a garment. "
        },
        {
            "chapter": 38,
            "verse": 15,
            "name": "Job 38:15",
            "text": "From the wicked, their light is withheld. The high arm is broken. "
        },
        {
            "chapter": 38,
            "verse": 16,
            "name": "Job 38:16",
            "text": "\"Have you entered into the springs of the sea? Or have you walked in the recesses of the deep? "
        },
        {
            "chapter": 38,
            "verse": 17,
            "name": "Job 38:17",
            "text": "Have the gates of death been revealed to you? Or have you seen the gates of the shadow of death? "
        },
        {
            "chapter": 38,
            "verse": 18,
            "name": "Job 38:18",
            "text": "Have you comprehended the earth in its breadth? Declare, if you know it all. "
        },
        {
            "chapter": 38,
            "verse": 19,
            "name": "Job 38:19",
            "text": "\"What is the way to the dwelling of light? As for darkness, where is its place, "
        },
        {
            "chapter": 38,
            "verse": 20,
            "name": "Job 38:20",
            "text": "that you should take it to its bound, that you should discern the paths to its house? "
        },
        {
            "chapter": 38,
            "verse": 21,
            "name": "Job 38:21",
            "text": "Surely you know, for you were born then, and the number of your days is great! "
        },
        {
            "chapter": 38,
            "verse": 22,
            "name": "Job 38:22",
            "text": "Have you entered the treasuries of the snow, or have you seen the treasures of the hail, "
        },
        {
            "chapter": 38,
            "verse": 23,
            "name": "Job 38:23",
            "text": "which I have reserved against the time of trouble, against the day of battle and war? "
        },
        {
            "chapter": 38,
            "verse": 24,
            "name": "Job 38:24",
            "text": "By what way is the lightning distributed, or the east wind scattered on the earth? "
        },
        {
            "chapter": 38,
            "verse": 25,
            "name": "Job 38:25",
            "text": "Who has cut a channel for the flood water, or the path for the thunderstorm; "
        },
        {
            "chapter": 38,
            "verse": 26,
            "name": "Job 38:26",
            "text": "To cause it to rain on a land where no man is; on the wilderness, in which there is no man; "
        },
        {
            "chapter": 38,
            "verse": 27,
            "name": "Job 38:27",
            "text": "to satisfy the waste and desolate ground, to cause the tender grass to spring forth? "
        },
        {
            "chapter": 38,
            "verse": 28,
            "name": "Job 38:28",
            "text": "Does the rain have a father? Or who fathers the drops of dew? "
        },
        {
            "chapter": 38,
            "verse": 29,
            "name": "Job 38:29",
            "text": "Out of whose womb came the ice? The gray frost of the sky, who has given birth to it? "
        },
        {
            "chapter": 38,
            "verse": 30,
            "name": "Job 38:30",
            "text": "The waters become hard like stone, when the surface of the deep is frozen. "
        },
        {
            "chapter": 38,
            "verse": 31,
            "name": "Job 38:31",
            "text": "\"Can you bind the cluster of the Pleiades, or loosen the cords of Orion? "
        },
        {
            "chapter": 38,
            "verse": 32,
            "name": "Job 38:32",
            "text": "Can you lead forth the constellations in their season? Or can you guide the Bear with her cubs? "
        },
        {
            "chapter": 38,
            "verse": 33,
            "name": "Job 38:33",
            "text": "Do you know the laws of the heavens? Can you establish its dominion over the earth? "
        },
        {
            "chapter": 38,
            "verse": 34,
            "name": "Job 38:34",
            "text": "\"Can you lift up your voice to the clouds, That abundance of waters may cover you? "
        },
        {
            "chapter": 38,
            "verse": 35,
            "name": "Job 38:35",
            "text": "Can you send forth lightnings, that they may go? Do they report to you, 'Here we are?' "
        },
        {
            "chapter": 38,
            "verse": 36,
            "name": "Job 38:36",
            "text": "Who has put wisdom in the inward parts? Or who has given understanding to the mind? "
        },
        {
            "chapter": 38,
            "verse": 37,
            "name": "Job 38:37",
            "text": "Who can number the clouds by wisdom? Or who can pour out the bottles of the sky, "
        },
        {
            "chapter": 38,
            "verse": 38,
            "name": "Job 38:38",
            "text": "when the dust runs into a mass, and the clods of earth stick together? "
        },
        {
            "chapter": 38,
            "verse": 39,
            "name": "Job 38:39",
            "text": "\"Can you hunt the prey for the lioness, or satisfy the appetite of the young lions, "
        },
        {
            "chapter": 38,
            "verse": 40,
            "name": "Job 38:40",
            "text": "when they crouch in their dens, and lie in wait in the thicket? "
        },
        {
            "chapter": 38,
            "verse": 41,
            "name": "Job 38:41",
            "text": "Who provides for the raven his prey, when his young ones cry to God, and wander for lack of food?  "
        }
    ]
}