{
    "translation": "Belarusian Bible",
    "abbreviation": "bela",
    "lang": "be",
    "language": "Belarusian",
    "direction": "LTR",
    "encoding": "UTF-8",
    "book_nr": 48,
    "book_name": "Galatians",
    "chapter": 5,
    "name": "Galatians 5",
    "verses": [
        {
            "chapter": 5,
            "verse": 1,
            "name": "Galatians 5:1",
            "text": " \u0414\u044b\u043a \u0441\u0442\u043e\u0439\u0446\u0435 \u0436 \u0443 \u0441\u0432\u0430\u0431\u043e\u0434\u0437\u0435, \u044f\u043a\u0443\u044e \u0434\u0430\u045e \u043d\u0430\u043c \u0425\u0440\u044b\u0441\u0442\u043e\u0441, \u0456 \u043d\u044f \u0441\u0445\u0456\u043b\u044f\u0439\u0446\u0435\u0441\u044f \u0437\u043d\u043e\u045e \u043f\u0430\u0434 \u044f\u0440\u043c\u043e \u0440\u0430\u0431\u0441\u0442\u0432\u0430."
        },
        {
            "chapter": 5,
            "verse": 2,
            "name": "Galatians 5:2",
            "text": "\u0412\u043e\u0441\u044c, \u044f, \u041f\u0430\u0432\u0430\u043b, \u043a\u0430\u0436\u0443 \u0432\u0430\u043c: \u043a\u0430\u043b\u0456 \u0432\u044b \u0430\u0431\u0440\u0430\u0437\u0430\u0435\u0446\u0435\u0441\u044f, \u043d\u044f \u0431\u0443\u0434\u0437\u0435 \u0432\u0430\u043c \u043d\u0456\u044f\u043a\u0430\u0435 \u043a\u0430\u0440\u044b\u0441\u044c\u0446\u0456 \u0430\u0434 \u0425\u0440\u044b\u0441\u0442\u0430."
        },
        {
            "chapter": 5,
            "verse": 3,
            "name": "Galatians 5:3",
            "text": "\u042f\u0448\u0447\u044d \u0441\u044c\u0432\u0435\u0434\u0447\u0443 \u043a\u043e\u0436\u043d\u0430\u043c\u0443 \u0447\u0430\u043b\u0430\u0432\u0435\u043a\u0443, \u044f\u043a\u0456 \u0430\u0431\u0440\u0430\u0437\u0430\u0435\u0446\u0446\u0430, \u0448\u0442\u043e \u0451\u043d \u043f\u0430\u0432\u0456\u043d\u0435\u043d \u0432\u044b\u043a\u043e\u043d\u0432\u0430\u0446\u044c \u0443\u0432\u0435\u0441\u044c \u0437\u0430\u043a\u043e\u043d."
        },
        {
            "chapter": 5,
            "verse": 4,
            "name": "Galatians 5:4",
            "text": "\u0412\u044b, \u0445\u0442\u043e \u0430\u043f\u0440\u0430\u045e\u0434\u0432\u0430\u0435 \u0441\u044f\u0431\u0435 \u0437\u0430\u043a\u043e\u043d\u0430\u043c, \u0437\u0430\u0441\u0442\u0430\u043b\u0456\u0441\u044f \u0431\u044f\u0437 \u0425\u0440\u044b\u0441\u0442\u0430, \u0430\u0434\u043f\u0430\u043b\u0456\u0441\u044f \u0430\u0434 \u043c\u0456\u043b\u0430\u0442\u044b,"
        },
        {
            "chapter": 5,
            "verse": 5,
            "name": "Galatians 5:5",
            "text": "\u0430 \u043c\u044b \u0434\u0443\u0445\u0430\u043c \u0447\u0430\u043a\u0430\u0435\u043c \u0456 \u0441\u043f\u0430\u0434\u0437\u044f\u0451\u043c\u0441\u044f \u043d\u0430 \u043f\u0440\u0430\u0432\u0435\u0434\u043d\u0430\u0441\u044c\u0446\u044c \u0430\u0434 \u0432\u0435\u0440\u044b;"
        },
        {
            "chapter": 5,
            "verse": 6,
            "name": "Galatians 5:6",
            "text": "\u0431\u043e \u045e \u0425\u0440\u044b\u0441\u044c\u0446\u0435 \u0406\u0441\u0443\u0441\u0435 \u043d\u044f \u043c\u0430\u0435 \u0441\u0456\u043b\u044b \u043d\u0456 \u0430\u0431\u0440\u0430\u0437\u0430\u043d\u044c\u043d\u0435, \u043d\u0456 \u043d\u0435\u0430\u0431\u0440\u0430\u0437\u0430\u043d\u044c\u043d\u0435, \u0430 \u0432\u0435\u0440\u0430, \u044f\u043a\u0430\u044f \u0434\u0437\u0435\u0435 \u043f\u0440\u0430\u0437\u044c \u043b\u044e\u0431\u043e\u045e."
        },
        {
            "chapter": 5,
            "verse": 7,
            "name": "Galatians 5:7",
            "text": "\u0412\u044b \u0456\u0448\u043b\u0456 \u0445\u043e\u0440\u0430\u0448\u0430: \u0445\u0442\u043e \u0441\u043f\u044b\u043d\u0456\u045e \u0432\u0430\u0441, \u043a\u0430\u0431 \u0432\u044b \u043d\u0435 \u0441\u043a\u0430\u0440\u0430\u043b\u0456\u0441\u044f \u0456\u0441\u044c\u0446\u0456\u043d\u0435?"
        },
        {
            "chapter": 5,
            "verse": 8,
            "name": "Galatians 5:8",
            "text": "\u0422\u0430\u043a\u043e\u0435 \u043f\u0435\u0440\u0430\u043a\u0430\u043d\u0430\u043d\u044c\u043d\u0435 \u043d\u0435 \u0430\u0434 \u0422\u0430\u0433\u043e, \u0425\u0442\u043e \u0437\u0430\u043a\u043b\u0456\u043a\u0430\u0435 \u0432\u0430\u0441."
        },
        {
            "chapter": 5,
            "verse": 9,
            "name": "Galatians 5:9",
            "text": "\u041a\u0430\u043b\u0456\u0432\u0430 \u0437\u0430\u043a\u0432\u0430\u0441\u043a\u0456 \u0440\u0430\u0441\u0447\u044b\u043d\u044f\u0435 \u045e\u0441\u0451 \u0446\u0435\u0441\u0442\u0430."
        },
        {
            "chapter": 5,
            "verse": 10,
            "name": "Galatians 5:10",
            "text": "\u042f \u043f\u044d\u045e\u043d\u044b \u0437\u0430 \u0432\u0430\u0441 \u0443 \u0413\u043e\u0441\u043f\u0430\u0434\u0437\u0435, \u0448\u0442\u043e \u0432\u044b \u043d\u044f \u0431\u0443\u0434\u0437\u0435\u0446\u0435 \u0434\u0443\u043c\u0430\u0446\u044c \u0456\u043d\u0430\u0447\u0430\u0439; \u0430 \u0442\u043e\u0439, \u0445\u0442\u043e \u0437\u043c\u0443\u0448\u0447\u0430\u0435 \u0432\u0430\u0441, \u0445\u0442\u043e \u0431 \u0451\u043d \u043d\u0456 \u0431\u044b\u045e, \u043f\u0430\u043d\u044f\u0441\u0435 \u043d\u0430 \u0441\u0430\u0431\u0435 \u0430\u0441\u0443\u0434\u0443."
        },
        {
            "chapter": 5,
            "verse": 11,
            "name": "Galatians 5:11",
            "text": "\u0417\u0430 \u0448\u0442\u043e \u0436 \u0433\u043e\u043d\u044f\u0446\u044c \u043c\u044f\u043d\u0435, \u0431\u0440\u0430\u0442\u044b, \u043a\u0430\u043b\u0456 \u044f \u0456 \u0446\u044f\u043f\u0435\u0440 \u043f\u0440\u0430\u043f\u0430\u0432\u0435\u0434\u0443\u044e \u0430\u0431\u0440\u0430\u0437\u0430\u043d\u044c\u043d\u0435? \u0422\u0430\u0434\u044b \u0433\u0430\u043d\u044c\u0431\u0430 \u043a\u0440\u044b\u0436\u0430 \u0441\u043f\u044b\u043d\u0456\u043b\u0430\u0441\u044f \u0431."
        },
        {
            "chapter": 5,
            "verse": 12,
            "name": "Galatians 5:12",
            "text": "\u041e, \u043a\u0430\u043b\u0456 \u0431 \u0432\u044b\u0434\u0430\u043b\u0456\u0446\u044c \u0442\u044b\u0445, \u044f\u043a\u0456\u044f \u0431\u0430\u043b\u0430\u043c\u0443\u0446\u044f\u0446\u044c \u0432\u0430\u0441!"
        },
        {
            "chapter": 5,
            "verse": 13,
            "name": "Galatians 5:13",
            "text": "\u0414\u0430 \u0432\u043e\u043b\u044c\u043d\u0430\u0441\u044c\u0446\u0456 \u0437\u0430\u043a\u043b\u0456\u043a\u0430\u043d\u044b \u0432\u044b, \u0431\u0440\u0430\u0442\u044b, \u0442\u043e\u043b\u044c\u043a\u0456 \u0432\u043e\u043b\u044c\u043d\u0430\u0441\u044c\u0446\u044c \u0432\u0430\u0448\u0430 \u043d\u044f \u0431\u044b\u043b\u0430 \u0431 \u043f\u043e\u0432\u0430\u0434\u0430\u043c \u0434\u0430\u0433\u0430\u0434\u0436\u0430\u0446\u044c \u043f\u043b\u043e\u0446\u0456; \u0430 \u043b\u044e\u0431\u043e\u045e\u044e \u0441\u043b\u0443\u0436\u044d\u0446\u0435 \u0430\u0434\u043d\u043e \u0430\u0434\u043d\u0430\u043c\u0443."
        },
        {
            "chapter": 5,
            "verse": 14,
            "name": "Galatians 5:14",
            "text": "\u0411\u043e \u045e\u0432\u0435\u0441\u044c \u0437\u0430\u043a\u043e\u043d \u0443 \u0430\u0434\u0437\u0456\u043d \u0441\u043a\u0430\u0437 \u0443\u043a\u043b\u0430\u0434\u0432\u0430\u0435\u0446\u0446\u0430: \"\u043b\u044e\u0431\u0456 \u0431\u043b\u0456\u0437\u043a\u0430\u0433\u0430 \u0442\u0432\u0430\u0439\u0433\u043e, \u044f\u043a \u0441\u0430\u043c\u043e\u0433\u0430 \u0441\u044f\u0431\u0435\"."
        },
        {
            "chapter": 5,
            "verse": 15,
            "name": "Galatians 5:15",
            "text": "\u041a\u0430\u043b\u0456 \u0436 \u043f\u0430\u043c\u0456\u0436 \u0441\u0430\u0431\u043e\u044e \u0433\u0440\u044b\u0437\u044f\u0446\u0435\u0441\u044f \u0456 \u044f\u0441\u044c\u0446\u0435 \u0430\u0434\u043d\u043e \u0430\u0434\u043d\u0430\u0433\u043e, \u0434\u044b\u043a \u0433\u043b\u044f\u0434\u0437\u0435\u0446\u0435, \u043a\u0430\u0431 \u043d\u0435 \u043f\u0430\u043d\u0456\u0448\u0447\u044b\u043b\u0456 \u0432\u044b \u0430\u0434\u043d\u043e \u0430\u0434\u043d\u0430\u0433\u043e."
        },
        {
            "chapter": 5,
            "verse": 16,
            "name": "Galatians 5:16",
            "text": "\u042f \u043a\u0430\u0436\u0443: \u0440\u0430\u0431\u0435\u0446\u0435 \u043f\u0430\u0432\u043e\u0434\u043b\u0435 \u0414\u0443\u0445\u0430, \u0456 \u0432\u044b \u043d\u044f \u0431\u0443\u0434\u0437\u0435\u0446\u0435 \u043f\u0430\u0434\u0434\u0430\u0432\u0430\u0446\u0446\u0430 \u043f\u0430\u0436\u0430\u0434\u0437\u0435 \u043f\u043b\u043e\u0446\u0456;"
        },
        {
            "chapter": 5,
            "verse": 17,
            "name": "Galatians 5:17",
            "text": "\u0431\u043e \u043f\u043b\u043e\u0446\u044c \u0436\u0430\u0434\u0430\u0435 \u0441\u0443\u043f\u0440\u0430\u0446\u0456\u045e\u043d\u0430\u0433\u0430 \u0414\u0443\u0445\u0443, \u0430 \u0414\u0443\u0445 \u2014 \u0441\u0443\u043f\u0440\u0430\u0446\u0456\u045e\u043d\u0430\u0433\u0430 \u043f\u043b\u043e\u0446\u0456: \u044f\u043d\u044b \u0430\u0434\u043d\u043e \u0430\u0434\u043d\u0430\u043c\u0443 \u0441\u0443\u043f\u0440\u0430\u0446\u0456\u0432\u044f\u0446\u0446\u0430, \u0442\u0430\u043a \u0448\u0442\u043e \u0432\u044b \u043d\u044f \u0442\u043e\u0435 \u0440\u043e\u0431\u0456\u0446\u0435, \u0447\u0430\u0433\u043e \u0445\u0430\u0446\u0435\u043b\u0456 \u0431."
        },
        {
            "chapter": 5,
            "verse": 18,
            "name": "Galatians 5:18",
            "text": "\u041a\u0430\u043b\u0456 \u0436 \u0432\u0430\u0441 \u0414\u0443\u0445 \u0432\u043e\u0434\u0437\u0456\u0446\u044c, \u0434\u044b\u043a \u0432\u044b \u043d\u0435 \u043f\u0430\u0434 \u0437\u0430\u043a\u043e\u043d\u0430\u043c."
        },
        {
            "chapter": 5,
            "verse": 19,
            "name": "Galatians 5:19",
            "text": "\u0414\u0437\u0435\u0456 \u043f\u043b\u043e\u0446\u0456 \u0432\u044f\u0434\u043e\u043c\u044b\u044f; \u0432\u043e\u0441\u044c \u044f\u043d\u044b: \u043f\u0435\u0440\u0430\u043b\u044e\u0431\u0441\u0442\u0432\u0430, \u0431\u043b\u0443\u0434, \u043d\u0435\u0447\u044b\u0441\u0442\u0430\u0442\u0430, \u043d\u0435\u043f\u0430\u0442\u0440\u044d\u0431\u0441\u0442\u0432\u0430,"
        },
        {
            "chapter": 5,
            "verse": 20,
            "name": "Galatians 5:20",
            "text": "\u0456\u0434\u0430\u043b\u0430\u0441\u043b\u0443\u0436\u044d\u043d\u044c\u043d\u0435, \u0447\u0430\u0440\u0430\u0434\u0437\u0435\u0439\u0441\u0442\u0432\u0430, \u0432\u0430\u0440\u043e\u0436\u0430\u0441\u044c\u0446\u044c, \u0441\u0432\u0430\u0440\u044b, \u0437\u0430\u0439\u0437\u0434\u0440\u0430\u0441\u044c\u0446\u044c, \u0433\u043d\u0435\u045e, \u0437\u0432\u0430\u0434\u044b, \u0440\u0430\u0437\u0434\u043e\u0440\u044b (\u0441\u043f\u0430\u043a\u0443\u0441\u044b), \u0435\u0440\u0430\u0441\u0456,"
        },
        {
            "chapter": 5,
            "verse": 21,
            "name": "Galatians 5:21",
            "text": "\u043d\u044f\u043d\u0430\u0432\u0456\u0441\u044c\u0446\u044c, \u0437\u0430\u0431\u043e\u0439\u0441\u0442\u0432\u044b, \u043f\u2019\u044f\u043d\u0441\u0442\u0432\u0430, \u0437\u0430\u043a\u0430\u043b\u043e\u0442\u044b \u0456 \u0456\u043d\u0448\u0430\u0435 \u0442\u0430\u043a\u043e\u0435; \u043f\u0430\u043f\u044f\u0440\u044d\u0434\u0436\u0432\u0430\u044e \u0432\u0430\u0441, \u044f\u043a \u0456 \u0440\u0430\u043d\u0435\u0439 \u043f\u0430\u043f\u044f\u0440\u044d\u0434\u0436\u0432\u0430\u045e, \u0448\u0442\u043e \u0442\u044b\u044f, \u0445\u0442\u043e \u0440\u043e\u0431\u0456\u0446\u044c \u0442\u0430\u043a, \u0426\u0430\u0440\u0441\u0442\u0432\u0430 \u0411\u043e\u0436\u0430\u0433\u0430 \u043d\u0435 \u045e\u0441\u043f\u0430\u0434\u043a\u0443\u044e\u0446\u044c."
        },
        {
            "chapter": 5,
            "verse": 22,
            "name": "Galatians 5:22",
            "text": "\u0410 \u043f\u043b\u043e\u0434 \u0414\u0443\u0445\u0430: \u043b\u044e\u0431\u043e\u045e, \u0440\u0430\u0434\u0430\u0441\u044c\u0446\u044c, \u0437\u0433\u043e\u0434\u0430, \u0434\u043e\u045e\u0433\u0430\u044f \u0446\u044f\u0440\u043f\u043b\u0456\u0432\u0430\u0441\u044c\u0446\u044c, \u0434\u043e\u0431\u0440\u0430\u0441\u044c\u0446\u044c, \u043c\u0456\u043b\u0430\u0441\u044d\u0440\u043d\u0430\u0441\u044c\u0446\u044c, \u0432\u0435\u0440\u0430,"
        },
        {
            "chapter": 5,
            "verse": 23,
            "name": "Galatians 5:23",
            "text": "\u043b\u0430\u0433\u043e\u0434\u043d\u0430\u0441\u044c\u0446\u044c, \u0443\u0441\u0442\u0440\u044b\u043c\u043b\u0456\u0432\u0430\u0441\u044c\u0446\u044c. \u041d\u0430 \u0442\u0430\u043a\u0456\u0445 \u043d\u044f\u043c\u0430 \u0437\u0430\u043a\u043e\u043d\u0443."
        },
        {
            "chapter": 5,
            "verse": 24,
            "name": "Galatians 5:24",
            "text": "\u0410 \u0442\u044b\u044f, \u044f\u043a\u0456\u044f \u0425\u0440\u044b\u0441\u0442\u043e\u0432\u044b\u044f, \u0443\u043a\u0440\u044b\u0436\u0430\u0432\u0430\u043b\u0456 \u0446\u0435\u043b\u0430 \u0437 \u043f\u0430\u0436\u0430\u0434\u043b\u0456\u0432\u0430\u0441\u044c\u0446\u044e \u0456 \u043f\u0430\u0445\u0430\u0446\u0456\u043d\u0441\u0442\u0432\u0430\u043c\u0456."
        },
        {
            "chapter": 5,
            "verse": 25,
            "name": "Galatians 5:25",
            "text": "\u041a\u0430\u043b\u0456 \u043c\u044b \u0436\u044b\u0432\u0451\u043c \u0414\u0443\u0445\u0430\u043c, \u0434\u044b\u043a \u0437\u0433\u043e\u0434\u043d\u0430 \u0437 \u0414\u0443\u0445\u0430\u043c \u0456 \u0440\u0430\u0431\u0456\u0446\u044c \u043f\u0430\u0432\u0456\u043d\u043d\u044b."
        },
        {
            "chapter": 5,
            "verse": 26,
            "name": "Galatians 5:26",
            "text": "\u041d\u044f \u0431\u0443\u0434\u0437\u0435\u043c \u043f\u0443\u0441\u0442\u0430\u0441\u043b\u0430\u0432\u0456\u0446\u0446\u0430, \u0430\u0434\u043d\u043e \u0430\u0434\u043d\u0430\u0433\u043e \u0434\u0440\u0430\u0436\u043d\u0456\u0446\u044c, \u0430\u0434\u043d\u043e \u0430\u0434\u043d\u0430\u043c\u0443 \u0437\u0430\u0439\u0437\u0434\u0440\u043e\u0441\u044c\u0446\u0456\u0446\u044c. "
        }
    ]
}