{
    "translation": "Almeida Atualizada",
    "abbreviation": "almeida",
    "lang": "pt",
    "language": "Portuguese",
    "direction": "LTR",
    "encoding": "UTF-8",
    "book_nr": 11,
    "book_name": "1 Kings",
    "chapter": 20,
    "name": "1 Kings 20",
    "verses": [
        {
            "chapter": 20,
            "verse": 1,
            "name": "1 Kings 20:1",
            "text": "Ora, Bene-Hadade, rei da S\u00edria, ajuntou todo o seu ex\u00e9rcito; e havia com ele trinta e dois reis, e cavalos e carros. Ent\u00e3o subiu, cercou a Samaria, e pelejou contra ela."
        },
        {
            "chapter": 20,
            "verse": 2,
            "name": "1 Kings 20:2",
            "text": "E enviou \u00e0 cidade mensageiros a Acabe, rei de Israel, a dizer-lhe: Assim diz: Bene-Hadade:"
        },
        {
            "chapter": 20,
            "verse": 3,
            "name": "1 Kings 20:3",
            "text": "A tua prata e o teu ouro s\u00e3o meus; e tamb\u00e9m, das tuas mulheres e dos teus filhos, os melhores s\u00e3o meus."
        },
        {
            "chapter": 20,
            "verse": 4,
            "name": "1 Kings 20:4",
            "text": "Ao que respondeu o rei de Israel, dizendo: Conforme a tua palavra, \u00f3 rei meu senhor, sou teu, com tudo quanto tenho."
        },
        {
            "chapter": 20,
            "verse": 5,
            "name": "1 Kings 20:5",
            "text": "Tornaram a vir os mensageiros, e disseram: Assim fala Bene-Hadade, dizendo: Enviei-te, na verdade, mensageiros que dissessem: Tu me h\u00e1s de entregar a tua prata e o teu ouro, as tuas mulheres e os teus filhos;"
        },
        {
            "chapter": 20,
            "verse": 6,
            "name": "1 Kings 20:6",
            "text": "todavia amanh\u00e3 a estas horas te enviarei os meus servos, os quais esquadrinhar\u00e3o a tua casa, e as casas dos teus servos; e h\u00e1 de ser que tudo o que de precioso tiveres, eles tomar\u00e3o consigo e o levar\u00e3o."
        },
        {
            "chapter": 20,
            "verse": 7,
            "name": "1 Kings 20:7",
            "text": "Ent\u00e3o o rei de Israel chamou todos os anci\u00e3os da terra, e disse: Notai agora, e vede como esse homem procura o mal; pois mandou pedir-me as minhas mulheres, os meus filhos, a minha prata e o meu ouro, e n\u00e3o os neguei."
        },
        {
            "chapter": 20,
            "verse": 8,
            "name": "1 Kings 20:8",
            "text": "Responderam-lhe todos os anci\u00e3os e todo o povo: N\u00e3o lhe d\u00eas ouvidos, nem consintas."
        },
        {
            "chapter": 20,
            "verse": 9,
            "name": "1 Kings 20:9",
            "text": "Pelo que disse aos mensageiros de Bene-Hadade: Dizei ao rei, meu senhor: Tudo o que a princ\u00edpio mandaste pedir a teu servo, farei; por\u00e9m isto n\u00e3o posso fazer. Voltaram os mensageiros, e lhe levaram a resposta."
        },
        {
            "chapter": 20,
            "verse": 10,
            "name": "1 Kings 20:10",
            "text": "Tornou Bene-Hadade a enviar-lhe mensageiros, e disse: Assim me fa\u00e7am os deuses, e outro tanto, se o p\u00f3 de Samaria bastar para encher as m\u00e3os de todo o povo que me segue."
        },
        {
            "chapter": 20,
            "verse": 11,
            "name": "1 Kings 20:11",
            "text": "O rei de Israel, por\u00e9m, respondeu: Dizei-lhe: N\u00e3o se gabe quem se cinge das armas como aquele que as dep\u00f5e."
        },
        {
            "chapter": 20,
            "verse": 12,
            "name": "1 Kings 20:12",
            "text": "E sucedeu que, ouvindo ele esta palavra, estando a beber com os reis nas tendas, disse aos seus servos: Ponde-vos em ordem. E eles se puseram em ordem contra a cidade."
        },
        {
            "chapter": 20,
            "verse": 13,
            "name": "1 Kings 20:13",
            "text": "E eis que um profeta, chegando-se a Acabe, rei de Israel, lhe disse: Assim diz o Senhor: Viste toda esta grande multid\u00e3o eis que hoje ta entregarei nas m\u00e3os, e saber\u00e1s que eu sou o Senhor."
        },
        {
            "chapter": 20,
            "verse": 14,
            "name": "1 Kings 20:14",
            "text": "Perguntou Acabe: Por quem? Respondeu ele: Assim diz o Senhor: Pelos mo\u00e7os dos chefes das prov\u00edncias. Ainda perguntou Acabe: Quem come\u00e7ar\u00e1 a peleja? Respondeu ele: Tu."
        },
        {
            "chapter": 20,
            "verse": 15,
            "name": "1 Kings 20:15",
            "text": "Ent\u00e3o contou os mo\u00e7os dos chefes das prov\u00edncias, e eram duzentos e trinta e dois; e depois deles contou todo o povo, a saber, todos os filhos de Israel, e eram sete mil."
        },
        {
            "chapter": 20,
            "verse": 16,
            "name": "1 Kings 20:16",
            "text": "Sa\u00edram, pois, ao meio-dia. Bene-Hadade, por\u00e9m, estava bebendo e se embriagando nas tendas, com os reis, os trinta e dois reis que o ajudavam."
        },
        {
            "chapter": 20,
            "verse": 17,
            "name": "1 Kings 20:17",
            "text": "E os mo\u00e7os dos chefes das prov\u00edncias sa\u00edram primeiro; e Bene-Hadade enviou espias, que lhe deram aviso, dizendo: Sa\u00edram de Samaria uns homens."
        },
        {
            "chapter": 20,
            "verse": 18,
            "name": "1 Kings 20:18",
            "text": "Ao que ele disse: Quer venham eles tratar de paz, quer venham \u00e0 peleja, to-mai-os vivos."
        },
        {
            "chapter": 20,
            "verse": 19,
            "name": "1 Kings 20:19",
            "text": "Sa\u00edram, pois, da cidade os mo\u00e7os dos chefes das provincias, e o ex\u00e9rcito que os seguia."
        },
        {
            "chapter": 20,
            "verse": 20,
            "name": "1 Kings 20:20",
            "text": "E eles mataram cada um o seu advers\u00e1rio. Ent\u00e3o os s\u00edrios fugiram, e Israel os perseguiu; mas Bene-Hadade, rei da S\u00edria, escapou a cavalo, com alguns cavaleiros."
        },
        {
            "chapter": 20,
            "verse": 21,
            "name": "1 Kings 20:21",
            "text": "E saindo o rei de Israel, destruiu os cavalos e os carros, e infligiu aos s\u00edrios grande derrota."
        },
        {
            "chapter": 20,
            "verse": 22,
            "name": "1 Kings 20:22",
            "text": "Ent\u00e3o o profeta chegou-se ao rei de Israel e lhe disse: Vai, fortalece-te; atenta bem para o que h\u00e1s de fazer; porque decorrido um ano, o rei da S\u00edria subir\u00e1 contra ti."
        },
        {
            "chapter": 20,
            "verse": 23,
            "name": "1 Kings 20:23",
            "text": "Os servos do rei da S\u00edria lhe disseram: Seus deuses s\u00e3o deuses dos montes, por isso eles foram mais fortes do que n\u00f3s; mas pelejemos com eles na plan\u00edcie, e por certo prevaleceremos contra eles."
        },
        {
            "chapter": 20,
            "verse": 24,
            "name": "1 Kings 20:24",
            "text": "Faze, pois, isto: tira os reis, cada um do seu lugar, e substitui-os por capit\u00e3es;"
        },
        {
            "chapter": 20,
            "verse": 25,
            "name": "1 Kings 20:25",
            "text": "arregimenta outro ex\u00e9rcito, igual ao ex\u00e9rcito que perdeste, cavalo por cavalo, e carro por carro; pelejemos com eles na planicie, e por certo prevaleceremos contra eles. Ele deu ouvidos ao que disseram, e assim fez."
        },
        {
            "chapter": 20,
            "verse": 26,
            "name": "1 Kings 20:26",
            "text": "Passado um ano, Bene-Hadade arregimentou os s\u00edrios, e subiu a Afeque, para pelejar contra Israel."
        },
        {
            "chapter": 20,
            "verse": 27,
            "name": "1 Kings 20:27",
            "text": "Tamb\u00e9m os filhos de Israel foram arregimentados e, providos de v\u00edveres, marcharam contra eles. E os filhos de Israel acamparam-se defronte deles, como dois pequenos rebanhos de cabras; mas os s\u00edrios enchiam a terra."
        },
        {
            "chapter": 20,
            "verse": 28,
            "name": "1 Kings 20:28",
            "text": "Nisso chegou o homem de Deus, e disse ao rei de Israel: Assim diz o Senhor: Porquanto os s\u00edrios disseram: O Senhor \u00e9 Deus dos montes, e n\u00e3o Deus dos vales, entregarei nas tuas m\u00e3os toda esta grande multid\u00e3o, e saber\u00e1s que eu sou o Senhor."
        },
        {
            "chapter": 20,
            "verse": 29,
            "name": "1 Kings 20:29",
            "text": "Assim, pois, estiveram acampados sete dias, uns defronte dos outros. Ao s\u00e9timo dia a peleja come\u00e7ou, e num s\u00f3 dia os filhos de Israel mataram dos s\u00edrios cem mil homens da infantaria."
        },
        {
            "chapter": 20,
            "verse": 30,
            "name": "1 Kings 20:30",
            "text": "E os restantes fugiram para Afeque, e entraram na cidade; e caiu o muro sobre vinte e sete mil homens que restavam. Bene-Hadade, por\u00e9m, fugiu, e veio \u00e0 cidade, onde se meteu numa c\u00e2mara interior."
        },
        {
            "chapter": 20,
            "verse": 31,
            "name": "1 Kings 20:31",
            "text": "Disseram-lhe os seus servos: Eis que temos ouvido dizer que os reis da casa de Israel s\u00e3o reis clementes; ponhamos, pois, sacos aos lombos, e cordas aos pesco\u00e7os, e saiamos ao rei de Israel; pode ser que ele te poupe a vida."
        },
        {
            "chapter": 20,
            "verse": 32,
            "name": "1 Kings 20:32",
            "text": "Ent\u00e3o cingiram sacos aos lombos e cordas aos pesco\u00e7os e, indo ter com o rei de Israel, disseram-lhe: Diz o teu servo Bene-Hadade: Deixa-me viver, rogo-te. Ao que disse Acabe: Pois ainda vive? \u00c9 meu irm\u00e3o."
        },
        {
            "chapter": 20,
            "verse": 33,
            "name": "1 Kings 20:33",
            "text": "Aqueles homens, tomando isto por bom press\u00e1gio, apressaram-se em apanhar a sua palavra, e disseram: Bene-Hadade \u00e9 teu irm\u00e3o! Respondeu-lhes ele: Ide, trazei-me. Veio, pois, Bene-Hadade \u00e0 presen\u00e7a de Acabe; e este o fez subir ao carro."
        },
        {
            "chapter": 20,
            "verse": 34,
            "name": "1 Kings 20:34",
            "text": "Ent\u00e3o lhe disse Bene-Hadade: Eu te restituirei as cidades que meu pai tomou a teu pai; e far\u00e1s para ti pra\u00e7as em Damasco, como meu pai as fez em Samaria. E eu, respondeu Acabe, com esta alian\u00e7a te deixarei ir. E fez com ele alian\u00e7a e o deixou ir."
        },
        {
            "chapter": 20,
            "verse": 35,
            "name": "1 Kings 20:35",
            "text": "Ora, certo homem dentre os filhos dos profetas disse ao seu companheiro, pela palavra do Senhor: Fere-me, pe\u00e7o-te. Mas o homem recusou feri-lo."
        },
        {
            "chapter": 20,
            "verse": 36,
            "name": "1 Kings 20:36",
            "text": "Pelo que ele lhe disse: Porquanto n\u00e3o obedeceste \u00e0 voz do Senhor, eis que, em te apartando de mim, um le\u00e3o te matar\u00e1. E logo que se apartou dele um le\u00e3o o encontrou e o matou."
        },
        {
            "chapter": 20,
            "verse": 37,
            "name": "1 Kings 20:37",
            "text": "Depois o profeta encontrou outro homem, e disse-lhe: Fere-me, pe\u00e7o-te. E aquele homem deu nele e o feriu."
        },
        {
            "chapter": 20,
            "verse": 38,
            "name": "1 Kings 20:38",
            "text": "Ent\u00e3o foi o profeta, p\u00f4s-se a esperar e rei no caminho, e disfar\u00e7ou-se, cobrindo os olhos com o seu turbante."
        },
        {
            "chapter": 20,
            "verse": 39,
            "name": "1 Kings 20:39",
            "text": "E passando o rei, clamou ele ao rei, dizendo: Teu servo estava no meio da peleja; e eis que um homem, voltando-se, me trouxe um outro, e disse: Guarda-me este homem; se ele de qualquer maneira vier a faltar, a tua vida responder\u00e1 pela vida dele, ou ent\u00e3o pagar\u00e1s um talento de prata."
        },
        {
            "chapter": 20,
            "verse": 40,
            "name": "1 Kings 20:40",
            "text": "E estando o teu servo ocupado de uma e de outra parte, eis que o homem desapareceu. Ao que lhe respondeu o rei de Israel: Esta \u00e9 a tua senten\u00e7a; tu mesmo a pronunciaste."
        },
        {
            "chapter": 20,
            "verse": 41,
            "name": "1 Kings 20:41",
            "text": "Ent\u00e3o ele se apressou, e tirou o turbante de sobre os seus olhos; e o rei de Israel o reconheceu, que era um dos profetas."
        },
        {
            "chapter": 20,
            "verse": 42,
            "name": "1 Kings 20:42",
            "text": "E disse ele ao rei: Assim diz o Senhor: Porquanto deixaste escapar da m\u00e3o o homem que eu havia posto para destrui\u00e7\u00e3o, a tua vida responder\u00e1 pela sua vida, e o teu povo pelo seu povo."
        },
        {
            "chapter": 20,
            "verse": 43,
            "name": "1 Kings 20:43",
            "text": "E o rei de Israel seguiu para sua casa, desgostoso e indignado, e veio a Samaria. "
        }
    ]
}