{
    "translation": "Pyh\u00e4 Raamattu (STLK 2017)",
    "abbreviation": "finstlk2017",
    "lang": "fi",
    "language": "Finnish",
    "direction": "LTR",
    "encoding": "UTF-8",
    "book_nr": 11,
    "book_name": "1 Kings",
    "chapter": 15,
    "name": "1 Kings 15",
    "verses": [
        {
            "chapter": 15,
            "verse": 1,
            "name": "1 Kings 15:1",
            "text": "Kuningas Jerobeamin, Nebatin pojan, kahdeksantenatoista hallitusvuotena tuli Abijam Juudan kuninkaaksi. "
        },
        {
            "chapter": 15,
            "verse": 2,
            "name": "1 Kings 15:2",
            "text": "H\u00e4n hallitsi kolme vuotta Jerusalemissa. H\u00e4nen \u00e4itins\u00e4 oli nimelt\u00e4\u00e4n Maaka, Abisalomin tyt\u00e4r. "
        },
        {
            "chapter": 15,
            "verse": 3,
            "name": "1 Kings 15:3",
            "text": "H\u00e4n vaelsi kaikissa is\u00e4ns\u00e4 synneiss\u00e4, joita t\u00e4m\u00e4 oli tehnyt ennen h\u00e4nt\u00e4, eik\u00e4 h\u00e4n ollut syd\u00e4melt\u00e4\u00e4n ehe\u00e4 Herraa, h\u00e4nen Jumalaansa kohtaan, niin kuin h\u00e4nen is\u00e4ns\u00e4 Daavidin syd\u00e4n oli ollut. "
        },
        {
            "chapter": 15,
            "verse": 4,
            "name": "1 Kings 15:4",
            "text": "Mutta Daavidin t\u00e4hden Herra, h\u00e4nen Jumalansa, antoi h\u00e4nelle lampun Jerusalemissa, ja salli h\u00e4nen poikansa nousta h\u00e4nen j\u00e4lkeens\u00e4 ja salli Jerusalemin pysy\u00e4 pystyss\u00e4 \u2013 "
        },
        {
            "chapter": 15,
            "verse": 5,
            "name": "1 Kings 15:5",
            "text": "koska Daavid oli tehnyt sit\u00e4, mik\u00e4 on oikein Herran silmiss\u00e4, eik\u00e4 koko elinaikanaan ollut poikennut mist\u00e4\u00e4n, mit\u00e4 h\u00e4n oli k\u00e4skenyt, paitsi heettil\u00e4isen Uurian asiassa. "
        },
        {
            "chapter": 15,
            "verse": 6,
            "name": "1 Kings 15:6",
            "text": "Abijam oli koko elinaikansa sodassa Jerobeamin kanssa. "
        },
        {
            "chapter": 15,
            "verse": 7,
            "name": "1 Kings 15:7",
            "text": "Mit\u00e4 muuta kerrottavaa on Abijamista ja kaikesta, mit\u00e4 h\u00e4n teki, se on kirjoitettuna Juudan kuningasten aikakirjassa. Mutta Abijam ja Jerobeam olivat sodassa kesken\u00e4\u00e4n.  "
        },
        {
            "chapter": 15,
            "verse": 8,
            "name": "1 Kings 15:8",
            "text": "  Abijam meni lepoon isiens\u00e4 luo, ja h\u00e4net haudattiin Daavidin kaupunkiin. Aasa, h\u00e4nen poikansa, tuli kuninkaaksi h\u00e4nen j\u00e4lkeens\u00e4.  "
        },
        {
            "chapter": 15,
            "verse": 9,
            "name": "1 Kings 15:9",
            "text": " Israelin kuninkaan Jerobeamin kahdentenakymmenenten\u00e4 hallitusvuotena tuli Aasa Juudan kuninkaaksi."
        },
        {
            "chapter": 15,
            "verse": 10,
            "name": "1 Kings 15:10",
            "text": "H\u00e4n hallitsi nelj\u00e4kymment\u00e4 yksi vuotta Jerusalemissa. H\u00e4nen \u00e4itins\u00e4 oli nimelt\u00e4\u00e4n Maaka, Abisalomin tyt\u00e4r. "
        },
        {
            "chapter": 15,
            "verse": 11,
            "name": "1 Kings 15:11",
            "text": "Aasa teki sit\u00e4, mik\u00e4 oli oikein Herran silmiss\u00e4, niin kuin h\u00e4nen is\u00e4ns\u00e4 Daavid."
        },
        {
            "chapter": 15,
            "verse": 12,
            "name": "1 Kings 15:12",
            "text": "H\u00e4n toimitti pyh\u00e4kk\u00f6huorat pois maasta ja h\u00e4vitti kaikki ep\u00e4jumalat, jotka h\u00e4nen is\u00e4ns\u00e4 olivat tehneet. "
        },
        {
            "chapter": 15,
            "verse": 13,
            "name": "1 Kings 15:13",
            "text": "H\u00e4n jopa erotti \u00e4itins\u00e4 Maakan kuningattaren arvosta, koska t\u00e4m\u00e4 oli pystytt\u00e4nyt inhotuksen Aseralle. Aasa kukisti inhotuksen ja poltti sen Kidronin laaksossa. "
        },
        {
            "chapter": 15,
            "verse": 14,
            "name": "1 Kings 15:14",
            "text": "Mutta uhrikukkulat eiv\u00e4t h\u00e4vinneet. Kuitenkin oli Aasan syd\u00e4n ehe\u00e4 Herralle, niin kauan kuin h\u00e4n eli. "
        },
        {
            "chapter": 15,
            "verse": 15,
            "name": "1 Kings 15:15",
            "text": "H\u00e4n vei Herran temppeliin is\u00e4ns\u00e4 pyh\u00e4t lahjat ja omat pyh\u00e4t lahjansa: hopeaa, kultaa ja esineist\u00f6\u00e4. "
        },
        {
            "chapter": 15,
            "verse": 16,
            "name": "1 Kings 15:16",
            "text": "  Mutta Aasa ja Israelin kuningas Baesa olivat kaiken aikansa sodassa kesken\u00e4\u00e4n."
        },
        {
            "chapter": 15,
            "verse": 17,
            "name": "1 Kings 15:17",
            "text": "Baesa, Israelin kuningas, l\u00e4hti Juudaa vastaan ja linnoitti Raaman est\u00e4\u00e4kseen ket\u00e4\u00e4n p\u00e4\u00e4sem\u00e4st\u00e4 Aasan, Juudan kuninkaan, luota tai h\u00e4nen luokseen. "
        },
        {
            "chapter": 15,
            "verse": 18,
            "name": "1 Kings 15:18",
            "text": "Aasa otti kaiken hopean ja kullan, mik\u00e4 viel\u00e4 oli j\u00e4ljell\u00e4 Herran temppelin ja kuninkaan linnan aarrekammioissa, ja antoi sen palvelijoidensa haltuun. Kuningas Aasa l\u00e4hetti heid\u00e4t Benhadadin, Tabrimmonin pojan, Hesjonin pojanpojan, Aramin kuninkaan, luo, joka asui Damaskossa, ja k\u00e4ski sanoa h\u00e4nelle: "
        },
        {
            "chapter": 15,
            "verse": 19,
            "name": "1 Kings 15:19",
            "text": "\"Onhan liitto meid\u00e4n v\u00e4lill\u00e4mme, minun ja sinun, niin kuin oli minun is\u00e4ni ja sinun is\u00e4si v\u00e4lill\u00e4. Katso, min\u00e4 l\u00e4het\u00e4n sinulle hopeaa ja kultaa lahjaksi. Mene ja riko Baesan, Israelin kuninkaan, kanssa tekem\u00e4si liitto, ett\u00e4 h\u00e4n l\u00e4htisi pois kimpustani.\" "
        },
        {
            "chapter": 15,
            "verse": 20,
            "name": "1 Kings 15:20",
            "text": " Niin Benhadad kuuli kuningas Aasaa ja l\u00e4hetti sotajoukkojensa p\u00e4\u00e4llik\u00f6t Israelin kaupunkeja vastaan ja valtasi Iijonin, Daanin, Aabel-Beet-Maakan ja koko Kinnerotin sek\u00e4 koko Naftalin maan. "
        },
        {
            "chapter": 15,
            "verse": 21,
            "name": "1 Kings 15:21",
            "text": "Kun Baesa kuuli sen, h\u00e4n lakkasi linnoittamasta Raamaa ja j\u00e4i Tirsaan."
        },
        {
            "chapter": 15,
            "verse": 22,
            "name": "1 Kings 15:22",
            "text": "Kuningas Aasa kutsui kokoon koko Juudan vapauttamatta ket\u00e4\u00e4n. He veiv\u00e4t pois kivet ja puut, joilla Baesa oli linnoittanut Raamaa. Niill\u00e4 kuningas Aasa linnoitti Geban, joka on Benjaminissa, ja Mispan."
        },
        {
            "chapter": 15,
            "verse": 23,
            "name": "1 Kings 15:23",
            "text": "Mit\u00e4 kaikkea muuta on kerrottavaa Aasasta, kaikista h\u00e4nen urot\u00f6ist\u00e4\u00e4n, kaikesta, mit\u00e4 h\u00e4n teki, ja kaupungeista, jotka h\u00e4n rakensi, se on kirjoitettuna Juudan kuningasten aikakirjassa. Mutta vanhuutensa p\u00e4ivin\u00e4 h\u00e4n oli sairas jaloistaan. "
        },
        {
            "chapter": 15,
            "verse": 24,
            "name": "1 Kings 15:24",
            "text": "Sitten Aasa meni lepoon isiens\u00e4 luo, ja h\u00e4net haudattiin isiens\u00e4 viereen h\u00e4nen is\u00e4ns\u00e4 Daavidin kaupunkiin. H\u00e4nen poikansa Joosafat tuli kuninkaaksi h\u00e4nen j\u00e4lkeens\u00e4.  "
        },
        {
            "chapter": 15,
            "verse": 25,
            "name": "1 Kings 15:25",
            "text": "   Sitten Naadab, Jerobeamin poika, tuli Israelin kuninkaaksi Aasan, Juudan kuninkaan, toisena hallitusvuotena, ja h\u00e4n hallitsi Israelia kaksi vuotta."
        },
        {
            "chapter": 15,
            "verse": 26,
            "name": "1 Kings 15:26",
            "text": "H\u00e4n teki sit\u00e4, mik\u00e4 on pahaa Herran silmiss\u00e4, ja vaelsi is\u00e4ns\u00e4 teit\u00e4 ja h\u00e4nen synniss\u00e4\u00e4n, jolla h\u00e4n oli saattanut Israelin tekem\u00e4\u00e4n synti\u00e4.  "
        },
        {
            "chapter": 15,
            "verse": 27,
            "name": "1 Kings 15:27",
            "text": "  Mutta Baesa, Ahian poika, Isaskarin sukua, teki salaliiton h\u00e4nt\u00e4 vastaan, ja Baesa surmasi h\u00e4net Gibbetonin luona, joka oli filistealaisilla, sill\u00e4 Naadab ja koko Israel piirittiv\u00e4t Gibbetonia. "
        },
        {
            "chapter": 15,
            "verse": 28,
            "name": "1 Kings 15:28",
            "text": "Baesa tappoi h\u00e4net Juudan kuninkaan Aasan kolmantena hallitusvuotena ja tuli kuninkaaksi Naadabin j\u00e4lkeen."
        },
        {
            "chapter": 15,
            "verse": 29,
            "name": "1 Kings 15:29",
            "text": "Kuninkaaksi tultuaan h\u00e4n surmasi koko Jerobeamin suvun j\u00e4tt\u00e4m\u00e4tt\u00e4 Jerobeamin j\u00e4lkel\u00e4isist\u00e4 eloon ainoatakaan henke\u00e4: h\u00e4n h\u00e4vitti heid\u00e4t Herran sanan mukaan, jonka h\u00e4n oli puhunut palvelijansa, siilolaisen Ahian, kautta \u2013 "
        },
        {
            "chapter": 15,
            "verse": 30,
            "name": "1 Kings 15:30",
            "text": "niiden syntien t\u00e4hden, jotka Jerobeam oli tehnyt ja joilla h\u00e4n oli saattanut Israelin tekem\u00e4\u00e4n synti\u00e4, siten vihoittaen Herran, Israelin Jumalan. "
        },
        {
            "chapter": 15,
            "verse": 31,
            "name": "1 Kings 15:31",
            "text": "Mit\u00e4 muuta on kerrottavaa Naadabista ja kaikesta, mit\u00e4 h\u00e4n teki, se on kirjoitettuna Israelin kuningasten aikakirjassa. "
        },
        {
            "chapter": 15,
            "verse": 32,
            "name": "1 Kings 15:32",
            "text": "Mutta Aasa ja Israelin kuningas Baesa olivat kaiken aikansa sodassa kesken\u00e4\u00e4n. "
        },
        {
            "chapter": 15,
            "verse": 33,
            "name": "1 Kings 15:33",
            "text": " Aasan, Juudan kuninkaan, kolmantena hallitusvuotena tuli Baesa, Ahian poika, koko Israelin kuninkaaksi Tirsassa, ja h\u00e4n hallitsi kaksikymment\u00e4 nelj\u00e4 vuotta."
        },
        {
            "chapter": 15,
            "verse": 34,
            "name": "1 Kings 15:34",
            "text": "H\u00e4n teki sit\u00e4, mik\u00e4 on pahaa Herran silmiss\u00e4, ja vaelsi Jerobeamin teit\u00e4 ja h\u00e4nen synneiss\u00e4\u00e4n, joilla h\u00e4n oli saattanut Israelin tekem\u00e4\u00e4n synti\u00e4.   "
        }
    ]
}