{
    "translation": "World English Bible: British Edition",
    "abbreviation": "webbe",
    "lang": "en",
    "language": "English",
    "direction": "LTR",
    "encoding": "UTF-8",
    "book_nr": 2,
    "book_name": "Exodus",
    "chapter": 31,
    "name": "Exodus 31",
    "verses": [
        {
            "chapter": 31,
            "verse": 1,
            "name": "Exodus 31:1",
            "text": "The LORD spoke to Moses, saying,"
        },
        {
            "chapter": 31,
            "verse": 2,
            "name": "Exodus 31:2",
            "text": "\u201cBehold, I have called by name Bezalel the son of Uri, the son of Hur, of the tribe of Judah:"
        },
        {
            "chapter": 31,
            "verse": 3,
            "name": "Exodus 31:3",
            "text": "and I have filled him with the Spirit of God, in wisdom, and in understanding, and in knowledge, and in all kinds of workmanship,"
        },
        {
            "chapter": 31,
            "verse": 4,
            "name": "Exodus 31:4",
            "text": "to devise skilful works, to work in gold, and in silver, and in brass,"
        },
        {
            "chapter": 31,
            "verse": 5,
            "name": "Exodus 31:5",
            "text": "and in cutting of stones for setting, and in carving of wood, to work in all kinds of workmanship."
        },
        {
            "chapter": 31,
            "verse": 6,
            "name": "Exodus 31:6",
            "text": "Behold, I myself have appointed with him Oholiab, the son of Ahisamach, of the tribe of Dan; and in the heart of all who are wise-hearted I have put wisdom, that they may make all that I have commanded you:"
        },
        {
            "chapter": 31,
            "verse": 7,
            "name": "Exodus 31:7",
            "text": "the Tent of Meeting, the ark of the testimony, the mercy seat that is on it, all the furniture of the Tent,"
        },
        {
            "chapter": 31,
            "verse": 8,
            "name": "Exodus 31:8",
            "text": "the table and its vessels, the pure lamp stand with all its vessels, the altar of incense,"
        },
        {
            "chapter": 31,
            "verse": 9,
            "name": "Exodus 31:9",
            "text": "the altar of burnt offering with all its vessels, the basin and its base,"
        },
        {
            "chapter": 31,
            "verse": 10,
            "name": "Exodus 31:10",
            "text": "the finely worked garments\u2014the holy garments for Aaron the priest\u2014the garments of his sons to minister in the priest\u2019s office,"
        },
        {
            "chapter": 31,
            "verse": 11,
            "name": "Exodus 31:11",
            "text": "the anointing oil, and the incense of sweet spices for the holy place: according to all that I have commanded you they shall do.\u201d  "
        },
        {
            "chapter": 31,
            "verse": 12,
            "name": "Exodus 31:12",
            "text": "  The LORD spoke to Moses, saying,"
        },
        {
            "chapter": 31,
            "verse": 13,
            "name": "Exodus 31:13",
            "text": "\u201cSpeak also to the children of Israel, saying, \u2018Most certainly you shall keep my Sabbaths: for it is a sign between me and you throughout your generations; that you may know that I am the LORD who sanctifies you."
        },
        {
            "chapter": 31,
            "verse": 14,
            "name": "Exodus 31:14",
            "text": "You shall keep the Sabbath therefore; for it is holy to you. Everyone who profanes it shall surely be put to death; for whoever does any work therein, that soul shall be cut off from among his people."
        },
        {
            "chapter": 31,
            "verse": 15,
            "name": "Exodus 31:15",
            "text": "Six days shall work be done, but on the seventh day is a Sabbath of solemn rest, holy to the LORD. Whoever does any work on the Sabbath day shall surely be put to death."
        },
        {
            "chapter": 31,
            "verse": 16,
            "name": "Exodus 31:16",
            "text": "Therefore the children of Israel shall keep the Sabbath, to observe the Sabbath throughout their generations, for a perpetual covenant."
        },
        {
            "chapter": 31,
            "verse": 17,
            "name": "Exodus 31:17",
            "text": "It is a sign between me and the children of Israel forever; for in six days the LORD made heaven and earth, and on the seventh day he rested, and was refreshed.\u2019\u201d  "
        },
        {
            "chapter": 31,
            "verse": 18,
            "name": "Exodus 31:18",
            "text": "  He gave to Moses, when he finished speaking with him on Mount Sinai, the two tablets of the testimony, stone tablets, written with God\u2019s finger.   "
        }
    ]
}