{
    "translation": "A Conservative Version",
    "abbreviation": "acv",
    "lang": "en",
    "language": "English",
    "direction": "LTR",
    "encoding": "",
    "book_nr": 19,
    "book_name": "Psalms",
    "chapter": 27,
    "name": "Psalms 27",
    "verses": [
        {
            "chapter": 27,
            "verse": 1,
            "name": "Psalms 27:1",
            "text": "Jehovah is my light and my salvation, whom shall I fear? Jehovah is the strength of my life, of whom shall I be afraid?"
        },
        {
            "chapter": 27,
            "verse": 2,
            "name": "Psalms 27:2",
            "text": "When evildoers came upon me to eat up my flesh, even my adversaries and my foes, they stumbled and fell."
        },
        {
            "chapter": 27,
            "verse": 3,
            "name": "Psalms 27:3",
            "text": "Though an army should encamp against me, my heart shall not fear. Though war should rise against me, even then I will be confident."
        },
        {
            "chapter": 27,
            "verse": 4,
            "name": "Psalms 27:4",
            "text": "One thing I have asked of Jehovah, that I will seek after, that I may dwell in the house of Jehovah all the days of my life, to behold the beauty of Jehovah, and to inquire in his temple."
        },
        {
            "chapter": 27,
            "verse": 5,
            "name": "Psalms 27:5",
            "text": "For in the day of trouble he will hide me in his pavilion. In the covert of his tabernacle he will hide me. He will lift me up upon a rock."
        },
        {
            "chapter": 27,
            "verse": 6,
            "name": "Psalms 27:6",
            "text": "And now my head shall be lifted up above my enemies round about me. And I will offer in his tabernacle sacrifices of joy. I will sing, yea, I will sing praises to Jehovah."
        },
        {
            "chapter": 27,
            "verse": 7,
            "name": "Psalms 27:7",
            "text": "Hear, O Jehovah, when I cry with my voice. Have mercy also upon me, and answer me."
        },
        {
            "chapter": 27,
            "verse": 8,
            "name": "Psalms 27:8",
            "text": "My heart said to thee, I have sought thy face. O Jehovah, I will seek thy face."
        },
        {
            "chapter": 27,
            "verse": 9,
            "name": "Psalms 27:9",
            "text": "Hide not thy face from me. Put not thy servant away in anger. Thou have been my help. Cast me not off, nor forsake me, O God of my salvation."
        },
        {
            "chapter": 27,
            "verse": 10,
            "name": "Psalms 27:10",
            "text": "When my father and my mother forsake me, then Jehovah will take me up."
        },
        {
            "chapter": 27,
            "verse": 11,
            "name": "Psalms 27:11",
            "text": "Teach me thy way, O Jehovah, and lead me in a plain path, because of my enemies."
        },
        {
            "chapter": 27,
            "verse": 12,
            "name": "Psalms 27:12",
            "text": "Deliver me not over to the will of my adversaries. For false witnesses are risen up against me, and such as breathe out cruelty."
        },
        {
            "chapter": 27,
            "verse": 13,
            "name": "Psalms 27:13",
            "text": "I believe that I shall see the goodness of Jehovah in the land of the living."
        },
        {
            "chapter": 27,
            "verse": 14,
            "name": "Psalms 27:14",
            "text": "Wait for Jehovah. Be strong, and let thy heart take courage. Yea, wait thou for Jehovah."
        }
    ]
}