{
    "translation": "Vulgata Clementina",
    "abbreviation": "vulgate",
    "lang": "la",
    "language": "Latin",
    "direction": "LTR",
    "encoding": "UTF-8",
    "book_nr": 73,
    "book_name": "Sirach",
    "chapter": 19,
    "name": "Sirach 19",
    "verses": [
        {
            "chapter": 19,
            "verse": 1,
            "name": "Sirach 19:1",
            "text": "Operarius ebriosus non locupletabitur :  et qui spernit modica paulatim decidet. "
        },
        {
            "chapter": 19,
            "verse": 2,
            "name": "Sirach 19:2",
            "text": " Vinum et mulieres apostatare faciunt sapientes,  et arguent sensatos. "
        },
        {
            "chapter": 19,
            "verse": 3,
            "name": "Sirach 19:3",
            "text": " Et qui se jungit fornicariis erit nequam :  putredo et vermes h\u00e6reditabunt illum :  et extolletur in exemplum majus,  et tolletur de numero anima ejus. "
        },
        {
            "chapter": 19,
            "verse": 4,
            "name": "Sirach 19:4",
            "text": " Qui credit cito levis corde est, et minorabitur :  et qui delinquit in animam suam, insuper habebitur. "
        },
        {
            "chapter": 19,
            "verse": 5,
            "name": "Sirach 19:5",
            "text": " Qui gaudet iniquitate, denotabitur :  et qui odit correptionem, minuetur vita :  et qui odit loquacitatem, extinguit malitiam. "
        },
        {
            "chapter": 19,
            "verse": 6,
            "name": "Sirach 19:6",
            "text": " Qui peccat in animam suam, p\u0153nitebit :  et qui jucundatur in malitia, denotabitur. "
        },
        {
            "chapter": 19,
            "verse": 7,
            "name": "Sirach 19:7",
            "text": " Ne iteres verbum nequam et durum,  et non minoraberis. "
        },
        {
            "chapter": 19,
            "verse": 8,
            "name": "Sirach 19:8",
            "text": " Amico et inimico noli narrare sensum tuum :  et si est tibi delictum, noli denudare : "
        },
        {
            "chapter": 19,
            "verse": 9,
            "name": "Sirach 19:9",
            "text": " audiet enim te, et custodiet te,  et quasi defendens peccatum, odiet te,  et sic aderit tibi semper. "
        },
        {
            "chapter": 19,
            "verse": 10,
            "name": "Sirach 19:10",
            "text": " Audisti verbum adversus proximum tuum ?  commoriatur in te, fidens quoniam non te dirumpet. "
        },
        {
            "chapter": 19,
            "verse": 11,
            "name": "Sirach 19:11",
            "text": " A facie verbi parturit fatuus,  tamquam gemitus partus infantis. "
        },
        {
            "chapter": 19,
            "verse": 12,
            "name": "Sirach 19:12",
            "text": " Sagitta infixa femori carnis,  sic verbum in corde stulti. "
        },
        {
            "chapter": 19,
            "verse": 13,
            "name": "Sirach 19:13",
            "text": " Corripe amicum,  ne forte non intellexerit, et dicat : Non feci :  aut, si fecerit, ne iterum addat facere. "
        },
        {
            "chapter": 19,
            "verse": 14,
            "name": "Sirach 19:14",
            "text": " Corripe proximum, ne forte non dixerit :  et si dixerit, ne forte iteret. "
        },
        {
            "chapter": 19,
            "verse": 15,
            "name": "Sirach 19:15",
            "text": " Corripe amicum, s\u00e6pe enim fit commissio : "
        },
        {
            "chapter": 19,
            "verse": 16,
            "name": "Sirach 19:16",
            "text": " et non omni verbo credas.  Est qui labitur lingua, sed non ex animo : "
        },
        {
            "chapter": 19,
            "verse": 17,
            "name": "Sirach 19:17",
            "text": " quis est enim qui non deliquerit in lingua sua ?      Corripe proximum antequam commineris, "
        },
        {
            "chapter": 19,
            "verse": 18,
            "name": "Sirach 19:18",
            "text": " et da locum timori Altissimi :  quia omnis sapientia timor Dei, et in illa timere Deum,  et in omni sapientia dispositio legis. "
        },
        {
            "chapter": 19,
            "verse": 19,
            "name": "Sirach 19:19",
            "text": " Et non est sapientia nequiti\u00e6 disciplina,  et non est cogitatus peccatorum prudentia. "
        },
        {
            "chapter": 19,
            "verse": 20,
            "name": "Sirach 19:20",
            "text": " Est nequitia, et in ipsa execratio,  et est insipiens qui minuitur sapientia. "
        },
        {
            "chapter": 19,
            "verse": 21,
            "name": "Sirach 19:21",
            "text": " Melior est homo qui minuitur sapientia,  et deficiens sensu, in timore,  quam qui abundat sensu,  et transgreditur legem Altissimi. "
        },
        {
            "chapter": 19,
            "verse": 22,
            "name": "Sirach 19:22",
            "text": " Est solertia certa, et ipsa iniqua : "
        },
        {
            "chapter": 19,
            "verse": 23,
            "name": "Sirach 19:23",
            "text": " et est qui emittit verbum certum enarrans veritatem.  Est qui nequiter humiliat se,  et interiora ejus plena sunt dolo : "
        },
        {
            "chapter": 19,
            "verse": 24,
            "name": "Sirach 19:24",
            "text": " et est qui se nimium submittit a multa humilitate :  et est qui inclinat faciem suam,  et fingit se non videre quod ignoratum est : "
        },
        {
            "chapter": 19,
            "verse": 25,
            "name": "Sirach 19:25",
            "text": " et si ab imbecillitate virium vetetur peccare,  si invenerit tempus malefaciendi, malefaciet. "
        },
        {
            "chapter": 19,
            "verse": 26,
            "name": "Sirach 19:26",
            "text": " Ex visu cognoscitur vir,  et ab occursu faciei cognoscitur sensatus. "
        },
        {
            "chapter": 19,
            "verse": 27,
            "name": "Sirach 19:27",
            "text": " Amictus corporis, et risus dentium,  et ingressus hominis, enuntiant de illo. "
        },
        {
            "chapter": 19,
            "verse": 28,
            "name": "Sirach 19:28",
            "text": " Est correptio mendax in ira contumeliosi,  et est judicium quod non probatur esse bonum :  et est tacens, et ipse est prudens.  "
        }
    ]
}