{
    "translation": "Veren's Contemporary Bible",
    "abbreviation": "bulveren",
    "lang": "bg",
    "language": "Bulgarian",
    "direction": "LTR",
    "encoding": "UTF-8",
    "book_nr": 4,
    "book_name": "Numbers",
    "chapter": 33,
    "name": "Numbers 33",
    "verses": [
        {
            "chapter": 33,
            "verse": 1,
            "name": "Numbers 33:1",
            "text": "<verse osisID=\"Num.33.1\">\u0422\u043e\u0432\u0430 \u0441\u0430 \u043f\u044a\u0442\u0443\u0432\u0430\u043d\u0438\u044f\u0442\u0430 \u043d\u0430 \u0438\u0437\u0440\u0430\u0438\u043b\u0435\u0432\u0438\u0442\u0435 \u0441\u0438\u043d\u043e\u0432\u0435, \u043a\u043e\u0438\u0442\u043e \u0438\u0437\u043b\u044f\u0437\u043e\u0445\u0430 \u043e\u0442 \u0435\u0433\u0438\u043f\u0435\u0442\u0441\u043a\u0430\u0442\u0430 \u0437\u0435\u043c\u044f \u0441\u043f\u043e\u0440\u0435\u0434 \u0432\u043e\u0439\u043d\u0441\u0442\u0432\u0430\u0442\u0430 \u0441\u0438 \u043f\u043e\u0434 \u0440\u044a\u043a\u0430\u0442\u0430 \u043d\u0430 \u041c\u043e\u0439\u0441\u0435\u0439 \u0438 \u0410\u0430\u0440\u043e\u043d.</verse>"
        },
        {
            "chapter": 33,
            "verse": 2,
            "name": "Numbers 33:2",
            "text": "<verse osisID=\"Num.33.2\">\u0418 \u041c\u043e\u0439\u0441\u0435\u0439 \u0437\u0430\u043f\u0438\u0441\u0430 \u0442\u0440\u044a\u0433\u0432\u0430\u043d\u0438\u044f\u0442\u0430 \u0438\u043c \u0441\u043f\u043e\u0440\u0435\u0434 \u043f\u044a\u0442\u0443\u0432\u0430\u043d\u0438\u044f\u0442\u0430 \u0438\u043c \u043f\u043e \u0437\u0430\u043f\u043e\u0432\u0435\u0434\u0442\u0430 \u043d\u0430 \u0413\u041e\u0421\u041f\u041e\u0414\u0410; \u0438 \u0442\u043e\u0432\u0430 \u0441\u0430 \u043f\u044a\u0442\u0443\u0432\u0430\u043d\u0438\u044f\u0442\u0430 \u0438\u043c \u0441\u043f\u043e\u0440\u0435\u0434 \u0442\u0440\u044a\u0433\u0432\u0430\u043d\u0438\u044f\u0442\u0430 \u0438\u043c:</verse>"
        },
        {
            "chapter": 33,
            "verse": 3,
            "name": "Numbers 33:3",
            "text": "<verse osisID=\"Num.33.3\">\u0422\u0440\u044a\u0433\u043d\u0430\u0445\u0430 \u043e\u0442 \u0420\u0430\u043c\u0435\u0441\u0438\u0439 \u0432 \u043f\u044a\u0440\u0432\u0438\u044f \u043c\u0435\u0441\u0435\u0446, \u043d\u0430 \u043f\u0435\u0442\u043d\u0430\u0434\u0435\u0441\u0435\u0442\u0438\u044f \u0434\u0435\u043d \u043e\u0442 \u043f\u044a\u0440\u0432\u0438\u044f \u043c\u0435\u0441\u0435\u0446; \u043d\u0430 \u0441\u043b\u0435\u0434\u0432\u0430\u0449\u0438\u044f \u0434\u0435\u043d \u0441\u043b\u0435\u0434 \u041f\u0430\u0441\u0445\u0430\u0442\u0430 \u0438\u0437\u0440\u0430\u0438\u043b\u0435\u0432\u0438\u0442\u0435 \u0441\u0438\u043d\u043e\u0432\u0435 \u0438\u0437\u043b\u044f\u0437\u043e\u0445\u0430 \u0441 \u0438\u0437\u0434\u0438\u0433\u043d\u0430\u0442\u0430 \u0440\u044a\u043a\u0430 \u043f\u0440\u0435\u0434 \u043e\u0447\u0438\u0442\u0435 \u043d\u0430 \u0432\u0441\u0438\u0447\u043a\u0438\u0442\u0435 \u0435\u0433\u0438\u043f\u0442\u044f\u043d\u0438,</verse>"
        },
        {
            "chapter": 33,
            "verse": 4,
            "name": "Numbers 33:4",
            "text": "<verse osisID=\"Num.33.4\">\u043a\u043e\u0433\u0430\u0442\u043e \u0435\u0433\u0438\u043f\u0442\u044f\u043d\u0438\u0442\u0435 \u043f\u043e\u0433\u0440\u0435\u0431\u0432\u0430\u0445\u0430 \u043e\u043d\u0435\u0437\u0438, \u043a\u043e\u0438\u0442\u043e \u0413\u041e\u0421\u041f\u041e\u0414 \u0431\u0435\u0448\u0435 \u043f\u043e\u0440\u0430\u0437\u0438\u043b \u043f\u043e\u043c\u0435\u0436\u0434\u0443 \u0438\u043c, \u0432\u0441\u0438\u0447\u043a\u0438\u0442\u0435 \u043f\u044a\u0440\u0432\u043e\u0440\u043e\u0434\u043d\u0438. \u0410 \u0438 \u043d\u0430\u0434 \u0431\u043e\u0433\u043e\u0432\u0435\u0442\u0435 \u0438\u043c \u0413\u041e\u0421\u041f\u041e\u0414 \u0431\u0435\u0448\u0435 \u0438\u0437\u0432\u044a\u0440\u0448\u0438\u043b \u0441\u044a\u0434.</verse>"
        },
        {
            "chapter": 33,
            "verse": 5,
            "name": "Numbers 33:5",
            "text": "<verse osisID=\"Num.33.5\">\u0418 \u0438\u0437\u0440\u0430\u0438\u043b\u0435\u0432\u0438\u0442\u0435 \u0441\u0438\u043d\u043e\u0432\u0435 \u043e\u0442\u043f\u044a\u0442\u0443\u0432\u0430\u0445\u0430 \u043e\u0442 \u0420\u0430\u043c\u0435\u0441\u0438\u0439 \u0438 \u0440\u0430\u0437\u043f\u043e\u043b\u043e\u0436\u0438\u0445\u0430 \u0441\u0442\u0430\u043d \u0432 \u0421\u043e\u043a\u0445\u043e\u0442.</verse>"
        },
        {
            "chapter": 33,
            "verse": 6,
            "name": "Numbers 33:6",
            "text": "<verse osisID=\"Num.33.6\">\u0418 \u043e\u0442\u043f\u044a\u0442\u0443\u0432\u0430\u0445\u0430 \u043e\u0442 \u0421\u043e\u043a\u0445\u043e\u0442 \u0438 \u0440\u0430\u0437\u043f\u043e\u043b\u043e\u0436\u0438\u0445\u0430 \u0441\u0442\u0430\u043d \u0432 \u0415\u0442\u0430\u043c, \u043a\u043e\u0439\u0442\u043e \u0435 \u0432 \u043a\u0440\u0430\u044f \u043d\u0430 \u043f\u0443\u0441\u0442\u0438\u043d\u044f\u0442\u0430.</verse>"
        },
        {
            "chapter": 33,
            "verse": 7,
            "name": "Numbers 33:7",
            "text": "<verse osisID=\"Num.33.7\">\u0418 \u043e\u0442\u043f\u044a\u0442\u0443\u0432\u0430\u0445\u0430 \u043e\u0442 \u0415\u0442\u0430\u043c \u0438 \u0441\u0435 \u0432\u044a\u0440\u043d\u0430\u0445\u0430 \u043a\u044a\u043c \u041f\u0438\u0430\u0438\u0440\u043e\u0442, \u043a\u043e\u0439\u0442\u043e \u0435 \u0441\u0440\u0435\u0449\u0443 \u0412\u0435\u0435\u043b\u0441\u0435\u0444\u043e\u043d, \u0438 \u0440\u0430\u0437\u043f\u043e\u043b\u043e\u0436\u0438\u0445\u0430 \u0441\u0442\u0430\u043d \u0441\u0440\u0435\u0449\u0443 \u041c\u0438\u0433\u0434\u043e\u043b.</verse>"
        },
        {
            "chapter": 33,
            "verse": 8,
            "name": "Numbers 33:8",
            "text": "<verse osisID=\"Num.33.8\">\u0418 \u043e\u0442\u043f\u044a\u0442\u0443\u0432\u0430\u0445\u0430 \u043e\u0442 \u041f\u0438\u0430\u0438\u0440\u043e\u0442 \u0438 \u043f\u0440\u0435\u043c\u0438\u043d\u0430\u0445\u0430 \u043f\u0440\u0435\u0437 \u043c\u043e\u0440\u0435\u0442\u043e \u0432 \u043f\u0443\u0441\u0442\u0438\u043d\u044f\u0442\u0430, \u0438\u0437\u043c\u0438\u043d\u0430\u0445\u0430 \u0442\u0440\u0438\u0434\u043d\u0435\u0432\u0435\u043d \u043f\u044a\u0442 \u043f\u0440\u0435\u0437 \u043f\u0443\u0441\u0442\u0438\u043d\u044f\u0442\u0430 \u0415\u0442\u0430\u043c \u0438 \u0440\u0430\u0437\u043f\u043e\u043b\u043e\u0436\u0438\u0445\u0430 \u0441\u0442\u0430\u043d \u0432 \u041c\u0435\u0440\u0430.</verse>"
        },
        {
            "chapter": 33,
            "verse": 9,
            "name": "Numbers 33:9",
            "text": "<verse osisID=\"Num.33.9\">\u0418 \u043e\u0442\u043f\u044a\u0442\u0443\u0432\u0430\u0445\u0430 \u043e\u0442 \u041c\u0435\u0440\u0430 \u0438 \u0434\u043e\u0439\u0434\u043e\u0445\u0430 \u0432 \u0415\u043b\u0438\u043c; \u0430 \u0432 \u0415\u043b\u0438\u043c \u0438\u043c\u0430\u0448\u0435 \u0434\u0432\u0430\u043d\u0430\u0434\u0435\u0441\u0435\u0442 \u0432\u043e\u0434\u043d\u0438 \u0438\u0437\u0432\u043e\u0440\u0430 \u0438 \u0441\u0435\u0434\u0435\u043c\u0434\u0435\u0441\u0435\u0442 \u043f\u0430\u043b\u043c\u043e\u0432\u0438 \u0434\u044a\u0440\u0432\u0435\u0442\u0430 \u0438 \u0442\u0430\u043c \u0440\u0430\u0437\u043f\u043e\u043b\u043e\u0436\u0438\u0445\u0430 \u0441\u0442\u0430\u043d.</verse>"
        },
        {
            "chapter": 33,
            "verse": 10,
            "name": "Numbers 33:10",
            "text": "<verse osisID=\"Num.33.10\">\u0418 \u043e\u0442\u043f\u044a\u0442\u0443\u0432\u0430\u0445\u0430 \u043e\u0442 \u0415\u043b\u0438\u043c \u0438 \u0440\u0430\u0437\u043f\u043e\u043b\u043e\u0436\u0438\u0445\u0430 \u0441\u0442\u0430\u043d \u043f\u0440\u0438 \u0427\u0435\u0440\u0432\u0435\u043d\u043e\u0442\u043e \u043c\u043e\u0440\u0435.</verse>"
        },
        {
            "chapter": 33,
            "verse": 11,
            "name": "Numbers 33:11",
            "text": "<verse osisID=\"Num.33.11\">\u0418 \u043e\u0442\u043f\u044a\u0442\u0443\u0432\u0430\u0445\u0430 \u043e\u0442 \u0427\u0435\u0440\u0432\u0435\u043d\u043e\u0442\u043e \u043c\u043e\u0440\u0435 \u0438 \u0440\u0430\u0437\u043f\u043e\u043b\u043e\u0436\u0438\u0445\u0430 \u0441\u0442\u0430\u043d \u0432 \u043f\u0443\u0441\u0442\u0438\u043d\u044f\u0442\u0430 \u0421\u0438\u043d.</verse>"
        },
        {
            "chapter": 33,
            "verse": 12,
            "name": "Numbers 33:12",
            "text": "<verse osisID=\"Num.33.12\">\u0418 \u043e\u0442\u043f\u044a\u0442\u0443\u0432\u0430\u0445\u0430 \u043e\u0442 \u043f\u0443\u0441\u0442\u0438\u043d\u044f\u0442\u0430 \u0421\u0438\u043d \u0438 \u0440\u0430\u0437\u043f\u043e\u043b\u043e\u0436\u0438\u0445\u0430 \u0441\u0442\u0430\u043d \u0432 \u0414\u043e\u0444\u043a\u0430.</verse>"
        },
        {
            "chapter": 33,
            "verse": 13,
            "name": "Numbers 33:13",
            "text": "<verse osisID=\"Num.33.13\">\u0418 \u043e\u0442\u043f\u044a\u0442\u0443\u0432\u0430\u0445\u0430 \u043e\u0442 \u0414\u043e\u0444\u043a\u0430 \u0438 \u0440\u0430\u0437\u043f\u043e\u043b\u043e\u0436\u0438\u0445\u0430 \u0441\u0442\u0430\u043d \u0432 \u0415\u043b\u0443\u0441.</verse>"
        },
        {
            "chapter": 33,
            "verse": 14,
            "name": "Numbers 33:14",
            "text": "<verse osisID=\"Num.33.14\">\u0418 \u043e\u0442\u043f\u044a\u0442\u0443\u0432\u0430\u0445\u0430 \u043e\u0442 \u0415\u043b\u0443\u0441 \u0438 \u0440\u0430\u0437\u043f\u043e\u043b\u043e\u0436\u0438\u0445\u0430 \u0441\u0442\u0430\u043d \u0432 \u0420\u0430\u0444\u0438\u0434\u0438\u043c; \u0438 \u043d\u044f\u043c\u0430\u0448\u0435 \u0432\u043e\u0434\u0430 \u0434\u0430 \u043f\u0438\u0435 \u043d\u0430\u0440\u043e\u0434\u044a\u0442.</verse>"
        },
        {
            "chapter": 33,
            "verse": 15,
            "name": "Numbers 33:15",
            "text": "<verse osisID=\"Num.33.15\">\u0418 \u043e\u0442\u043f\u044a\u0442\u0443\u0432\u0430\u0445\u0430 \u043e\u0442 \u0420\u0430\u0444\u0438\u0434\u0438\u043c \u0438 \u0440\u0430\u0437\u043f\u043e\u043b\u043e\u0436\u0438\u0445\u0430 \u0441\u0442\u0430\u043d \u0432 \u0421\u0438\u043d\u0430\u0439\u0441\u043a\u0430\u0442\u0430 \u043f\u0443\u0441\u0442\u0438\u043d\u044f.</verse>"
        },
        {
            "chapter": 33,
            "verse": 16,
            "name": "Numbers 33:16",
            "text": "<verse osisID=\"Num.33.16\">\u0418 \u043e\u0442\u043f\u044a\u0442\u0443\u0432\u0430\u0445\u0430 \u043e\u0442 \u0421\u0438\u043d\u0430\u0439\u0441\u043a\u0430\u0442\u0430 \u043f\u0443\u0441\u0442\u0438\u043d\u044f \u0438 \u0440\u0430\u0437\u043f\u043e\u043b\u043e\u0436\u0438\u0445\u0430 \u0441\u0442\u0430\u043d \u0432 \u041a\u0438\u0432\u0440\u043e\u0442-\u0410\u0442\u0430\u0430\u0432\u0430.</verse>"
        },
        {
            "chapter": 33,
            "verse": 17,
            "name": "Numbers 33:17",
            "text": "<verse osisID=\"Num.33.17\">\u0418 \u043e\u0442\u043f\u044a\u0442\u0443\u0432\u0430\u0445\u0430 \u043e\u0442 \u041a\u0438\u0432\u0440\u043e\u0442-\u0410\u0442\u0430\u0430\u0432\u0430 \u0438 \u0440\u0430\u0437\u043f\u043e\u043b\u043e\u0436\u0438\u0445\u0430 \u0441\u0442\u0430\u043d \u0432 \u0410\u0441\u0438\u0440\u043e\u0442.</verse>"
        },
        {
            "chapter": 33,
            "verse": 18,
            "name": "Numbers 33:18",
            "text": "<verse osisID=\"Num.33.18\">\u0418 \u043e\u0442\u043f\u044a\u0442\u0443\u0432\u0430\u0445\u0430 \u043e\u0442 \u0410\u0441\u0438\u0440\u043e\u0442 \u0438 \u0440\u0430\u0437\u043f\u043e\u043b\u043e\u0436\u0438\u0445\u0430 \u0441\u0442\u0430\u043d \u0432 \u0420\u0438\u0442\u043c\u0430.</verse>"
        },
        {
            "chapter": 33,
            "verse": 19,
            "name": "Numbers 33:19",
            "text": "<verse osisID=\"Num.33.19\">\u0418 \u043e\u0442\u043f\u044a\u0442\u0443\u0432\u0430\u0445\u0430 \u043e\u0442 \u0420\u0438\u0442\u043c\u0430 \u0438 \u0440\u0430\u0437\u043f\u043e\u043b\u043e\u0436\u0438\u0445\u0430 \u0441\u0442\u0430\u043d \u0432 \u0420\u0438\u043c\u043e\u043d-\u0424\u0430\u0440\u0435\u0441.</verse>"
        },
        {
            "chapter": 33,
            "verse": 20,
            "name": "Numbers 33:20",
            "text": "<verse osisID=\"Num.33.20\">\u0418 \u043e\u0442\u043f\u044a\u0442\u0443\u0432\u0430\u0445\u0430 \u043e\u0442 \u0420\u0438\u043c\u043e\u043d-\u0424\u0430\u0440\u0435\u0441 \u0438 \u0440\u0430\u0437\u043f\u043e\u043b\u043e\u0436\u0438\u0445\u0430 \u0441\u0442\u0430\u043d \u0432 \u041b\u0438\u0432\u043d\u0430.</verse>"
        },
        {
            "chapter": 33,
            "verse": 21,
            "name": "Numbers 33:21",
            "text": "<verse osisID=\"Num.33.21\">\u0418 \u043e\u0442\u043f\u044a\u0442\u0443\u0432\u0430\u0445\u0430 \u043e\u0442 \u041b\u0438\u0432\u043d\u0430 \u0438 \u0440\u0430\u0437\u043f\u043e\u043b\u043e\u0436\u0438\u0445\u0430 \u0441\u0442\u0430\u043d \u0432 \u0420\u0438\u0441\u0430.</verse>"
        },
        {
            "chapter": 33,
            "verse": 22,
            "name": "Numbers 33:22",
            "text": "<verse osisID=\"Num.33.22\">\u0418 \u043e\u0442\u043f\u044a\u0442\u0443\u0432\u0430\u0445\u0430 \u043e\u0442 \u0420\u0438\u0441\u0430 \u0438 \u0440\u0430\u0437\u043f\u043e\u043b\u043e\u0436\u0438\u0445\u0430 \u0441\u0442\u0430\u043d \u0432 \u041a\u0435\u0435\u043b\u0442\u0430.</verse>"
        },
        {
            "chapter": 33,
            "verse": 23,
            "name": "Numbers 33:23",
            "text": "<verse osisID=\"Num.33.23\">\u0418 \u043e\u0442\u043f\u044a\u0442\u0443\u0432\u0430\u0445\u0430 \u043e\u0442 \u041a\u0435\u0435\u043b\u0442\u0430 \u0438 \u0440\u0430\u0437\u043f\u043e\u043b\u043e\u0436\u0438\u0445\u0430 \u0441\u0442\u0430\u043d \u0432 \u0445\u044a\u043b\u043c\u0430 \u0421\u0430\u0444\u0435\u0440.</verse>"
        },
        {
            "chapter": 33,
            "verse": 24,
            "name": "Numbers 33:24",
            "text": "<verse osisID=\"Num.33.24\">\u0418 \u043e\u0442\u043f\u044a\u0442\u0443\u0432\u0430\u0445\u0430 \u043e\u0442 \u0445\u044a\u043b\u043c\u0430 \u0421\u0430\u0444\u0435\u0440 \u0438 \u0440\u0430\u0437\u043f\u043e\u043b\u043e\u0436\u0438\u0445\u0430 \u0441\u0442\u0430\u043d \u0432 \u0425\u0430\u0440\u0430\u0434\u0430.</verse>"
        },
        {
            "chapter": 33,
            "verse": 25,
            "name": "Numbers 33:25",
            "text": "<verse osisID=\"Num.33.25\">\u0418 \u043e\u0442\u043f\u044a\u0442\u0443\u0432\u0430\u0445\u0430 \u043e\u0442 \u0425\u0430\u0440\u0430\u0434\u0430 \u0438 \u0440\u0430\u0437\u043f\u043e\u043b\u043e\u0436\u0438\u0445\u0430 \u0441\u0442\u0430\u043d \u0432 \u041c\u0430\u043a\u0438\u043b\u043e\u0442.</verse>"
        },
        {
            "chapter": 33,
            "verse": 26,
            "name": "Numbers 33:26",
            "text": "<verse osisID=\"Num.33.26\">\u0418 \u043e\u0442\u043f\u044a\u0442\u0443\u0432\u0430\u0445\u0430 \u043e\u0442 \u041c\u0430\u043a\u0438\u043b\u043e\u0442 \u0438 \u0440\u0430\u0437\u043f\u043e\u043b\u043e\u0436\u0438\u0445\u0430 \u0441\u0442\u0430\u043d \u0432 \u0422\u0430\u0445\u0430\u0442.</verse>"
        },
        {
            "chapter": 33,
            "verse": 27,
            "name": "Numbers 33:27",
            "text": "<verse osisID=\"Num.33.27\">\u0418 \u043e\u0442\u043f\u044a\u0442\u0443\u0432\u0430\u0445\u0430 \u043e\u0442 \u0422\u0430\u0445\u0430\u0442 \u0438 \u0440\u0430\u0437\u043f\u043e\u043b\u043e\u0436\u0438\u0445\u0430 \u0441\u0442\u0430\u043d \u0432 \u0422\u0430\u0440\u0430.</verse>"
        },
        {
            "chapter": 33,
            "verse": 28,
            "name": "Numbers 33:28",
            "text": "<verse osisID=\"Num.33.28\">\u0418 \u043e\u0442\u043f\u044a\u0442\u0443\u0432\u0430\u0445\u0430 \u043e\u0442 \u0422\u0430\u0440\u0430 \u0438 \u0440\u0430\u0437\u043f\u043e\u043b\u043e\u0436\u0438\u0445\u0430 \u0441\u0442\u0430\u043d \u0432 \u041c\u0438\u0442\u043a\u0430.</verse>"
        },
        {
            "chapter": 33,
            "verse": 29,
            "name": "Numbers 33:29",
            "text": "<verse osisID=\"Num.33.29\">\u0418 \u043e\u0442\u043f\u044a\u0442\u0443\u0432\u0430\u0445\u0430 \u043e\u0442 \u041c\u0438\u0442\u043a\u0430 \u0438 \u0440\u0430\u0437\u043f\u043e\u043b\u043e\u0436\u0438\u0445\u0430 \u0441\u0442\u0430\u043d \u0432 \u0410\u0441\u0435\u043c\u043e\u043d\u0430.</verse>"
        },
        {
            "chapter": 33,
            "verse": 30,
            "name": "Numbers 33:30",
            "text": "<verse osisID=\"Num.33.30\">\u0418 \u043e\u0442\u043f\u044a\u0442\u0443\u0432\u0430\u0445\u0430 \u043e\u0442 \u0410\u0441\u0435\u043c\u043e\u043d\u0430 \u0438 \u0440\u0430\u0437\u043f\u043e\u043b\u043e\u0436\u0438\u0445\u0430 \u0441\u0442\u0430\u043d \u0432 \u041c\u0430\u0441\u0438\u0440\u043e\u0442.</verse>"
        },
        {
            "chapter": 33,
            "verse": 31,
            "name": "Numbers 33:31",
            "text": "<verse osisID=\"Num.33.31\">\u0418 \u043e\u0442\u043f\u044a\u0442\u0443\u0432\u0430\u0445\u0430 \u043e\u0442 \u041c\u0430\u0441\u0438\u0440\u043e\u0442 \u0438 \u0440\u0430\u0437\u043f\u043e\u043b\u043e\u0436\u0438\u0445\u0430 \u0441\u0442\u0430\u043d \u0432\u044a\u0432 \u0412\u0435\u043d\u0435\u044f\u043a\u0430\u043d.</verse>"
        },
        {
            "chapter": 33,
            "verse": 32,
            "name": "Numbers 33:32",
            "text": "<verse osisID=\"Num.33.32\">\u0418 \u043e\u0442\u043f\u044a\u0442\u0443\u0432\u0430\u0445\u0430 \u043e\u0442 \u0412\u0435\u043d\u0435\u044f\u043a\u0430\u043d \u0438 \u0440\u0430\u0437\u043f\u043e\u043b\u043e\u0436\u0438\u0445\u0430 \u0441\u0442\u0430\u043d \u0432 \u0425\u043e\u0440\u0433\u0430\u0434\u0433\u0430\u0434.</verse>"
        },
        {
            "chapter": 33,
            "verse": 33,
            "name": "Numbers 33:33",
            "text": "<verse osisID=\"Num.33.33\">\u0418 \u043e\u0442\u043f\u044a\u0442\u0443\u0432\u0430\u0445\u0430 \u043e\u0442 \u0425\u043e\u0440\u0433\u0430\u0434\u0433\u0430\u0434 \u0438 \u0440\u0430\u0437\u043f\u043e\u043b\u043e\u0436\u0438\u0445\u0430 \u0441\u0442\u0430\u043d \u0432 \u0419\u043e\u0442\u0432\u0430\u0442\u0430.</verse>"
        },
        {
            "chapter": 33,
            "verse": 34,
            "name": "Numbers 33:34",
            "text": "<verse osisID=\"Num.33.34\">\u0418 \u043e\u0442\u043f\u044a\u0442\u0443\u0432\u0430\u0445\u0430 \u043e\u0442 \u0419\u043e\u0442\u0432\u0430\u0442\u0430 \u0438 \u0440\u0430\u0437\u043f\u043e\u043b\u043e\u0436\u0438\u0445\u0430 \u0441\u0442\u0430\u043d \u0432 \u0415\u0432\u0440\u043e\u043d\u0430.</verse>"
        },
        {
            "chapter": 33,
            "verse": 35,
            "name": "Numbers 33:35",
            "text": "<verse osisID=\"Num.33.35\">\u0418 \u043e\u0442\u043f\u044a\u0442\u0443\u0432\u0430\u0445\u0430 \u043e\u0442 \u0415\u0432\u0440\u043e\u043d\u0430 \u0438 \u0440\u0430\u0437\u043f\u043e\u043b\u043e\u0436\u0438\u0445\u0430 \u0441\u0442\u0430\u043d \u0432 \u0415\u0441\u0438\u043e\u043d-\u0413\u0430\u0432\u0435\u0440.</verse>"
        },
        {
            "chapter": 33,
            "verse": 36,
            "name": "Numbers 33:36",
            "text": "<verse osisID=\"Num.33.36\">\u0418 \u043e\u0442\u043f\u044a\u0442\u0443\u0432\u0430\u0445\u0430 \u043e\u0442 \u0415\u0441\u0438\u043e\u043d-\u0413\u0430\u0432\u0435\u0440 \u0438 \u0440\u0430\u0437\u043f\u043e\u043b\u043e\u0436\u0438\u0445\u0430 \u0441\u0442\u0430\u043d \u0432 \u043f\u0443\u0441\u0442\u0438\u043d\u044f\u0442\u0430 \u0426\u0438\u043d, \u043a\u043e\u044f\u0442\u043e \u0435 \u041a\u0430\u0434\u0438\u0441.</verse>"
        },
        {
            "chapter": 33,
            "verse": 37,
            "name": "Numbers 33:37",
            "text": "<verse osisID=\"Num.33.37\">\u0418 \u043e\u0442\u043f\u044a\u0442\u0443\u0432\u0430\u0445\u0430 \u043e\u0442 \u041a\u0430\u0434\u0438\u0441 \u0438 \u0440\u0430\u0437\u043f\u043e\u043b\u043e\u0436\u0438\u0445\u0430 \u0441\u0442\u0430\u043d \u0432 \u043f\u043b\u0430\u043d\u0438\u043d\u0430\u0442\u0430 \u041e\u0440, \u043f\u0440\u0438 \u043a\u0440\u0430\u044f \u043d\u0430 \u0435\u0434\u043e\u043c\u0441\u043a\u0430\u0442\u0430 \u0437\u0435\u043c\u044f.</verse>"
        },
        {
            "chapter": 33,
            "verse": 38,
            "name": "Numbers 33:38",
            "text": "<verse osisID=\"Num.33.38\">\u0418 \u0441\u0432\u0435\u0449\u0435\u043d\u0438\u043a\u044a\u0442 \u0410\u0430\u0440\u043e\u043d \u0441\u0435 \u0438\u0437\u043a\u0430\u0447\u0438 \u043d\u0430 \u043f\u043b\u0430\u043d\u0438\u043d\u0430\u0442\u0430 \u041e\u0440 \u043f\u043e \u0437\u0430\u043f\u043e\u0432\u0435\u0434 \u043d\u0430 \u0413\u041e\u0421\u041f\u041e\u0414\u0410 \u0438 \u0443\u043c\u0440\u044f \u0442\u0430\u043c \u0432 \u0447\u0435\u0442\u0438\u0440\u0438\u0434\u0435\u0441\u0435\u0442\u0430\u0442\u0430 \u0433\u043e\u0434\u0438\u043d\u0430 \u043e\u0442 \u0438\u0437\u043b\u0438\u0437\u0430\u043d\u0435\u0442\u043e \u043d\u0430 \u0438\u0437\u0440\u0430\u0438\u043b\u0435\u0432\u0438\u0442\u0435 \u0441\u0438\u043d\u043e\u0432\u0435 \u043e\u0442 \u0435\u0433\u0438\u043f\u0435\u0442\u0441\u043a\u0430\u0442\u0430 \u0437\u0435\u043c\u044f, \u0432 \u043f\u0435\u0442\u0438\u044f \u043c\u0435\u0441\u0435\u0446, \u043d\u0430 \u043f\u044a\u0440\u0432\u0438\u044f \u0434\u0435\u043d \u043e\u0442 \u043c\u0435\u0441\u0435\u0446\u0430.</verse>"
        },
        {
            "chapter": 33,
            "verse": 39,
            "name": "Numbers 33:39",
            "text": "<verse osisID=\"Num.33.39\">\u0410\u0430\u0440\u043e\u043d \u0431\u0435\u0448\u0435 \u043d\u0430 \u0441\u0442\u043e \u0438 \u0434\u0432\u0430\u0434\u0435\u0441\u0435\u0442 \u0438 \u0442\u0440\u0438 \u0433\u043e\u0434\u0438\u043d\u0438, \u043a\u043e\u0433\u0430\u0442\u043e \u0443\u043c\u0440\u044f \u043d\u0430 \u043f\u043b\u0430\u043d\u0438\u043d\u0430\u0442\u0430 \u041e\u0440.</verse>"
        },
        {
            "chapter": 33,
            "verse": 40,
            "name": "Numbers 33:40",
            "text": "<verse osisID=\"Num.33.40\">\u0418 \u0430\u0440\u0430\u0434\u0441\u043a\u0438\u044f\u0442 \u0446\u0430\u0440, \u0445\u0430\u043d\u0430\u0430\u043d\u0435\u0446\u044a\u0442, \u043a\u043e\u0439\u0442\u043e \u0436\u0438\u0432\u0435\u0435\u0448\u0435 \u043d\u0430 \u044e\u0433 \u0432 \u0445\u0430\u043d\u0430\u0430\u043d\u0441\u043a\u0430\u0442\u0430 \u0437\u0435\u043c\u044f, \u0447\u0443 \u0437\u0430 \u0438\u0434\u0432\u0430\u043d\u0435\u0442\u043e \u043d\u0430 \u0438\u0437\u0440\u0430\u0438\u043b\u0435\u0432\u0438\u0442\u0435 \u0441\u0438\u043d\u043e\u0432\u0435.</verse>"
        },
        {
            "chapter": 33,
            "verse": 41,
            "name": "Numbers 33:41",
            "text": "<verse osisID=\"Num.33.41\">\u0410 \u0442\u0435 \u043e\u0442\u043f\u044a\u0442\u0443\u0432\u0430\u0445\u0430 \u043e\u0442 \u043f\u043b\u0430\u043d\u0438\u043d\u0430\u0442\u0430 \u041e\u0440 \u0438 \u0440\u0430\u0437\u043f\u043e\u043b\u043e\u0436\u0438\u0445\u0430 \u0441\u0442\u0430\u043d \u0432 \u0421\u0430\u043b\u043c\u043e\u043d\u0430.</verse>"
        },
        {
            "chapter": 33,
            "verse": 42,
            "name": "Numbers 33:42",
            "text": "<verse osisID=\"Num.33.42\">\u0418 \u043e\u0442\u043f\u044a\u0442\u0443\u0432\u0430\u0445\u0430 \u043e\u0442 \u0421\u0430\u043b\u043c\u043e\u043d\u0430 \u0438 \u0440\u0430\u0437\u043f\u043e\u043b\u043e\u0436\u0438\u0445\u0430 \u0441\u0442\u0430\u043d \u0432\u044a\u0432 \u0424\u0438\u043d\u043e\u043d.</verse>"
        },
        {
            "chapter": 33,
            "verse": 43,
            "name": "Numbers 33:43",
            "text": "<verse osisID=\"Num.33.43\">\u0418 \u043e\u0442\u043f\u044a\u0442\u0443\u0432\u0430\u0445\u0430 \u043e\u0442 \u0424\u0438\u043d\u043e\u043d \u0438 \u0440\u0430\u0437\u043f\u043e\u043b\u043e\u0436\u0438\u0445\u0430 \u0441\u0442\u0430\u043d \u0432 \u041e\u0432\u043e\u0442.</verse>"
        },
        {
            "chapter": 33,
            "verse": 44,
            "name": "Numbers 33:44",
            "text": "<verse osisID=\"Num.33.44\">\u0418 \u043e\u0442\u043f\u044a\u0442\u0443\u0432\u0430\u0445\u0430 \u043e\u0442 \u041e\u0432\u043e\u0442 \u0438 \u0440\u0430\u0437\u043f\u043e\u043b\u043e\u0436\u0438\u0445\u0430 \u0441\u0442\u0430\u043d \u0432 \u0415\u0430\u0432\u0430\u0440\u0438\u043c, \u043d\u0430 \u043c\u043e\u0430\u0432\u0441\u043a\u0430\u0442\u0430 \u0433\u0440\u0430\u043d\u0438\u0446\u0430.</verse>"
        },
        {
            "chapter": 33,
            "verse": 45,
            "name": "Numbers 33:45",
            "text": "<verse osisID=\"Num.33.45\">\u0418 \u043e\u0442\u043f\u044a\u0442\u0443\u0432\u0430\u0445\u0430 \u043e\u0442 \u0418\u0438\u043c \u0438 \u0440\u0430\u0437\u043f\u043e\u043b\u043e\u0436\u0438\u0445\u0430 \u0441\u0442\u0430\u043d \u0432 \u0414\u0435\u0432\u043e\u043d-\u0413\u0430\u0434.</verse>"
        },
        {
            "chapter": 33,
            "verse": 46,
            "name": "Numbers 33:46",
            "text": "<verse osisID=\"Num.33.46\">\u0418 \u043e\u0442\u043f\u044a\u0442\u0443\u0432\u0430\u0445\u0430 \u043e\u0442 \u0414\u0435\u0432\u043e\u043d-\u0413\u0430\u0434 \u0438 \u0440\u0430\u0437\u043f\u043e\u043b\u043e\u0436\u0438\u0445\u0430 \u0441\u0442\u0430\u043d \u0432 \u0410\u043b\u043c\u043e\u043d-\u0414\u0438\u0432\u043b\u0430\u0442\u0430\u0438\u043c.</verse>"
        },
        {
            "chapter": 33,
            "verse": 47,
            "name": "Numbers 33:47",
            "text": "<verse osisID=\"Num.33.47\">\u0418 \u043e\u0442\u043f\u044a\u0442\u0443\u0432\u0430\u0445\u0430 \u043e\u0442 \u0410\u043b\u043c\u043e\u043d-\u0414\u0438\u0432\u043b\u0430\u0442\u0430\u0438\u043c \u0438 \u0440\u0430\u0437\u043f\u043e\u043b\u043e\u0436\u0438\u0445\u0430 \u0441\u0442\u0430\u043d \u043d\u0430 \u0445\u044a\u043b\u043c\u0430 \u0410\u0432\u0430\u0440\u0438\u043c, \u0441\u0440\u0435\u0449\u0443 \u041d\u0435\u0432\u043e.</verse>"
        },
        {
            "chapter": 33,
            "verse": 48,
            "name": "Numbers 33:48",
            "text": "<verse osisID=\"Num.33.48\">\u0418 \u043e\u0442\u043f\u044a\u0442\u0443\u0432\u0430\u0445\u0430 \u043e\u0442 \u0445\u044a\u043b\u043c\u0430 \u0410\u0432\u0430\u0440\u0438\u043c \u0438 \u0440\u0430\u0437\u043f\u043e\u043b\u043e\u0436\u0438\u0445\u0430 \u0441\u0442\u0430\u043d \u0432 \u043d\u0438\u0437\u0438\u043d\u0438\u0442\u0435 \u043d\u0430 \u041c\u043e\u0430\u0432 \u043f\u0440\u0438 \u0419\u043e\u0440\u0434\u0430\u043d, \u0441\u0440\u0435\u0449\u0443 \u0415\u0440\u0438\u0445\u043e\u043d.</verse>"
        },
        {
            "chapter": 33,
            "verse": 49,
            "name": "Numbers 33:49",
            "text": "<verse osisID=\"Num.33.49\">\u041f\u0440\u0438 \u0419\u043e\u0440\u0434\u0430\u043d \u0440\u0430\u0437\u043f\u043e\u043b\u043e\u0436\u0438\u0445\u0430 \u0441\u0442\u0430\u043d, \u043e\u0442 \u0412\u0435\u0442-\u0415\u0441\u0438\u043c\u043e\u0442 \u0434\u043e \u0410\u0432\u0435\u043b-\u0421\u0438\u0442\u0438\u043c \u043d\u0430 \u043d\u0438\u0437\u0438\u043d\u0438\u0442\u0435 \u043d\u0430 \u041c\u043e\u0430\u0432.</verse>"
        },
        {
            "chapter": 33,
            "verse": 50,
            "name": "Numbers 33:50",
            "text": "<verse osisID=\"Num.33.50\">\u0418 \u0413\u041e\u0421\u041f\u041e\u0414 \u0433\u043e\u0432\u043e\u0440\u0438 \u043d\u0430 \u041c\u043e\u0439\u0441\u0435\u0439 \u0432 \u043d\u0438\u0437\u0438\u043d\u0438\u0442\u0435 \u043d\u0430 \u041c\u043e\u0430\u0432 \u043f\u0440\u0438 \u0419\u043e\u0440\u0434\u0430\u043d \u0441\u0440\u0435\u0449\u0443 \u0415\u0440\u0438\u0445\u043e\u043d \u0438 \u043a\u0430\u0437\u0430:</verse>"
        },
        {
            "chapter": 33,
            "verse": 51,
            "name": "Numbers 33:51",
            "text": "<verse osisID=\"Num.33.51\">\u0413\u043e\u0432\u043e\u0440\u0438 \u043d\u0430 \u0438\u0437\u0440\u0430\u0438\u043b\u0435\u0432\u0438\u0442\u0435 \u0441\u0438\u043d\u043e\u0432\u0435 \u0438 \u0438\u043c \u043a\u0430\u0436\u0438: \u041a\u043e\u0433\u0430\u0442\u043e \u043c\u0438\u043d\u0435\u0442\u0435 \u043f\u0440\u0435\u0437 \u0419\u043e\u0440\u0434\u0430\u043d \u0432 \u0445\u0430\u043d\u0430\u0430\u043d\u0441\u043a\u0430\u0442\u0430 \u0437\u0435\u043c\u044f,</verse>"
        },
        {
            "chapter": 33,
            "verse": 52,
            "name": "Numbers 33:52",
            "text": "<verse osisID=\"Num.33.52\">\u0434\u0430 \u0438\u0437\u0433\u043e\u043d\u0438\u0442\u0435 \u043e\u0442 \u043f\u0440\u0435\u0434 \u0441\u0435\u0431\u0435 \u0441\u0438 \u0432\u0441\u0438\u0447\u043a\u0438\u0442\u0435 \u0436\u0438\u0442\u0435\u043b\u0438 \u043d\u0430 \u0437\u0435\u043c\u044f\u0442\u0430, \u0434\u0430 \u0443\u043d\u0438\u0449\u043e\u0436\u0438\u0442\u0435 \u0432\u0441\u0438\u0447\u043a\u0438\u0442\u0435 \u0438\u043c \u0438\u0437\u043e\u0431\u0440\u0430\u0436\u0435\u043d\u0438\u044f \u0438 \u0434\u0430 \u0443\u043d\u0438\u0449\u043e\u0436\u0438\u0442\u0435 \u0432\u0441\u0438\u0447\u043a\u0438\u0442\u0435 \u0438\u043c \u043b\u0435\u044f\u043d\u0438 \u043e\u0431\u0440\u0430\u0437\u0438, \u0438 \u0434\u0430 \u0441\u044a\u0431\u043e\u0440\u0438\u0442\u0435 \u0432\u0441\u0438\u0447\u043a\u0438\u0442\u0435 \u0438\u043c \u0432\u0438\u0441\u043e\u043a\u0438 \u043c\u0435\u0441\u0442\u0430.</verse>"
        },
        {
            "chapter": 33,
            "verse": 53,
            "name": "Numbers 33:53",
            "text": "<verse osisID=\"Num.33.53\">\u0418 \u0434\u0430 \u0437\u0430\u0432\u043b\u0430\u0434\u0435\u0435\u0442\u0435 \u0437\u0435\u043c\u044f\u0442\u0430 \u0438 \u0434\u0430 \u0441\u0435 \u0437\u0430\u0441\u0435\u043b\u0438\u0442\u0435 \u0432 \u043d\u0435\u044f, \u0437\u0430\u0449\u043e\u0442\u043e \u0432\u0438 \u0434\u0430\u0434\u043e\u0445 \u0442\u0430\u0437\u0438 \u0437\u0435\u043c\u044f \u0434\u0430 \u044f \u043f\u0440\u0438\u0442\u0435\u0436\u0430\u0432\u0430\u0442\u0435.</verse>"
        },
        {
            "chapter": 33,
            "verse": 54,
            "name": "Numbers 33:54",
            "text": "<verse osisID=\"Num.33.54\">\u0418 \u0434\u0430 \u0440\u0430\u0437\u0434\u0435\u043b\u0438\u0442\u0435 \u0437\u0435\u043c\u044f\u0442\u0430 \u0441 \u0436\u0440\u0435\u0431\u0438\u0439 \u043c\u0435\u0436\u0434\u0443 \u0440\u043e\u0434\u043e\u0432\u0435\u0442\u0435 \u0441\u0438 \u0437\u0430 \u043d\u0430\u0441\u043b\u0435\u0434\u0441\u0442\u0432\u043e: \u043d\u0430 \u043f\u043e-\u043c\u043d\u043e\u0433\u043e\u0431\u0440\u043e\u0439\u043d\u0438\u0442\u0435 \u0434\u0430 \u0434\u0430\u0434\u0435\u0442\u0435 \u043f\u043e-\u0433\u043e\u043b\u044f\u043c\u043e \u043d\u0430\u0441\u043b\u0435\u0434\u0441\u0442\u0432\u043e, \u0430 \u043d\u0430 \u043f\u043e-\u043c\u0430\u043b\u043e\u0431\u0440\u043e\u0439\u043d\u0438\u0442\u0435 \u0434\u0430 \u0434\u0430\u0434\u0435\u0442\u0435 \u043f\u043e-\u043c\u0430\u043b\u043a\u043e \u043d\u0430\u0441\u043b\u0435\u0434\u0441\u0442\u0432\u043e. \u041d\u0430 \u0432\u0441\u0435\u043a\u0438\u0433\u043e \u043d\u0430\u0441\u043b\u0435\u0434\u0441\u0442\u0432\u043e\u0442\u043e \u0434\u0430 \u0431\u044a\u0434\u0435 \u0442\u0430\u043c, \u043a\u044a\u0434\u0435\u0442\u043e \u043c\u0443 \u043f\u0430\u0434\u043d\u0435 \u0436\u0440\u0435\u0431\u0438\u044f\u0442. \u0421\u043f\u043e\u0440\u0435\u0434 \u0431\u0430\u0449\u0438\u043d\u0438\u0442\u0435 \u0441\u0438 \u043f\u043b\u0435\u043c\u0435\u043d\u0430 \u0434\u0430 \u043d\u0430\u0441\u043b\u0435\u0434\u0438\u0442\u0435.</verse>"
        },
        {
            "chapter": 33,
            "verse": 55,
            "name": "Numbers 33:55",
            "text": "<verse osisID=\"Num.33.55\">\u041d\u043e \u0430\u043a\u043e \u043d\u0435 \u0438\u0437\u0433\u043e\u043d\u0438\u0442\u0435 \u043e\u0442\u043f\u0440\u0435\u0434 \u0441\u0435\u0431\u0435 \u0441\u0438 \u0436\u0438\u0442\u0435\u043b\u0438\u0442\u0435 \u043d\u0430 \u0437\u0435\u043c\u044f\u0442\u0430, \u0442\u043e\u0433\u0430\u0432\u0430 \u043e\u043d\u0435\u0437\u0438 \u043e\u0442 \u0442\u044f\u0445, \u043a\u043e\u0438\u0442\u043e \u043e\u0441\u0442\u0430\u0432\u0438\u0442\u0435, \u0449\u0435 \u0431\u044a\u0434\u0430\u0442 \u0442\u0440\u044a\u043d\u0438 \u0432 \u043e\u0447\u0438\u0442\u0435 \u0432\u0438 \u0438 \u0431\u043e\u0434\u043b\u0438 \u0432 \u0440\u0435\u0431\u0440\u0430\u0442\u0430 \u0432\u0438 \u0438 \u0449\u0435 \u0432\u0438 \u043f\u0440\u0438\u0442\u0435\u0441\u043d\u044f\u0432\u0430\u0442 \u0432 \u0437\u0435\u043c\u044f\u0442\u0430, \u0432 \u043a\u043e\u044f\u0442\u043e \u0436\u0438\u0432\u0435\u0435\u0442\u0435.</verse>"
        },
        {
            "chapter": 33,
            "verse": 56,
            "name": "Numbers 33:56",
            "text": "<verse osisID=\"Num.33.56\">\u0418 \u043e\u043d\u043e\u0432\u0430, \u043a\u043e\u0435\u0442\u043e \u043c\u0438\u0441\u043b\u0435\u0445 \u0434\u0430 \u043d\u0430\u043f\u0440\u0430\u0432\u044f \u043d\u0430 \u0442\u044f\u0445, \u0449\u0435 \u0433\u043e \u043d\u0430\u043f\u0440\u0430\u0432\u044f \u043d\u0430 \u0432\u0430\u0441.</verse>"
        }
    ]
}