{
    "translation": "Apostolic Bible Polyglot Greek Text",
    "abbreviation": "abpgrk",
    "lang": "grc",
    "language": "Greek",
    "direction": "LTR",
    "encoding": "UTF-8",
    "book_nr": 25,
    "book_name": "Lamentations",
    "chapter": 1,
    "name": "Lamentations 1",
    "verses": [
        {
            "chapter": 1,
            "verse": 1,
            "name": "Lamentations 1:1",
            "text": "  \u03ba\u03b1\u03b9 \u03b5\u03b3\u03ad\u03bd\u03b5\u03c4\u03bf \u03bc\u03b5\u03c4\u03ac \u03c4\u03bf \u03b1\u03b9\u03c7\u03bc\u03b1\u03bb\u03c9\u03c4\u03b9\u03c3\u03b8\u03ae\u03bd\u03b1\u03b9 \u03c4\u03bf\u03bd \u0399\u03c3\u03c1\u03b1\u03ae\u03bb \u03ba\u03b1\u03b9 \u0399\u03b5\u03c1\u03bf\u03c5\u03c3\u03b1\u03bb\u03ae\u03bc \u03b5\u03c1\u03b7\u03bc\u03c9\u03b8\u03ae\u03bd\u03b1\u03b9 \u03b5\u03ba\u03ac\u03b8\u03b9\u03c3\u03b5\u03bd \u0399\u03b5\u03c1\u03b5\u03bc\u03af\u03b1\u03c2 \u03ba\u03bb\u03b1\u03af\u03c9\u03bd \u03ba\u03b1\u03b9 \u03b5\u03b8\u03c1\u03ae\u03bd\u03b7\u03c3\u03b5 \u03c4\u03bf\u03bd \u03b8\u03c1\u03ae\u03bd\u03bf\u03bd \u03c4\u03bf\u03cd\u03c4\u03bf\u03bd \u03b5\u03c0\u03af \u0399\u03b5\u03c1\u03bf\u03c5\u03c3\u03b1\u03bb\u03ae\u03bc \u03ba\u03b1\u03b9 \u03b5\u03af\u03c0\u03b5\u03bd \u0391\u039b\u0395\u03a6 \u03c0\u03c9\u03c2 \u03b5\u03ba\u03ac\u03b8\u03b9\u03c3\u03b5 \u03bc\u03cc\u03bd\u03b7 \u03b7 \u03c0\u03cc\u03bb\u03b9\u03c2 \u03b7 \u03c0\u03b5\u03c0\u03bb\u03b7\u03b8\u03c5\u03bc\u03bc\u03ad\u03bd\u03b7 \u03bb\u03b1\u03ce\u03bd \u03b5\u03b3\u03b5\u03bd\u03ae\u03b8\u03b7 \u03c9\u03c2 \u03c7\u03ae\u03c1\u03b1 \u03c0\u03b5\u03c0\u03bb\u03b7\u03b8\u03c5\u03bc\u03bc\u03ad\u03bd\u03b7 \u03b5\u03bd \u03ad\u03b8\u03bd\u03b5\u03c3\u03b9\u03bd \u03ac\u03c1\u03c7\u03bf\u03c5\u03c3\u03b1 \u03b5\u03bd \u03c7\u03ce\u03c1\u03b1\u03b9\u03c2 \u03b5\u03b3\u03b5\u03bd\u03ae\u03b8\u03b7 \u03b5\u03b9\u03c2 \u03c6\u03cc\u03c1\u03bf\u03bd"
        },
        {
            "chapter": 1,
            "verse": 2,
            "name": "Lamentations 1:2",
            "text": "\u0392\u0397\u0398 \u03ba\u03bb\u03b1\u03af\u03bf\u03c5\u03c3\u03b1 \u03ad\u03ba\u03bb\u03b1\u03c5\u03c3\u03b5\u03bd \u03b5\u03bd \u03bd\u03c5\u03ba\u03c4\u03af \u03ba\u03b1\u03b9 \u03c4\u03b1 \u03b4\u03ac\u03ba\u03c1\u03c5\u03b1 \u03b1\u03c5\u03c4\u03ae\u03c2 \u03b5\u03c0\u03af \u03c4\u03c9\u03bd \u03c3\u03b9\u03b1\u03b3\u03cc\u03bd\u03c9\u03bd \u03b1\u03c5\u03c4\u03ae\u03c2 \u03ba\u03b1\u03b9 \u03bf\u03c5\u03c7 \u03c5\u03c0\u03ae\u03c1\u03c7\u03b5\u03bd \u03bf \u03c0\u03b1\u03c1\u03b1\u03ba\u03b1\u03bb\u03ce\u03bd \u03b1\u03c5\u03c4\u03ae\u03bd \u03b1\u03c0\u03cc \u03c0\u03ac\u03bd\u03c4\u03c9\u03bd \u03c4\u03c9\u03bd \u03b1\u03b3\u03b1\u03c0\u03ce\u03bd\u03c4\u03c9\u03bd \u03b1\u03c5\u03c4\u03ae\u03bd \u03c0\u03ac\u03bd\u03c4\u03b5\u03c2 \u03bf\u03b9 \u03c6\u03b9\u03bb\u03bf\u03cd\u03bd\u03c4\u03b5\u03c2 \u03b1\u03c5\u03c4\u03ae\u03bd \u03b7\u03b8\u03ad\u03c4\u03b7\u03c3\u03b1\u03bd \u03b5\u03bd \u03b1\u03c5\u03c4\u03ae \u03b5\u03b3\u03ad\u03bd\u03bf\u03bd\u03c4\u03bf \u03b1\u03c5\u03c4\u03ae \u03b5\u03b9\u03c2 \u03b5\u03c7\u03b8\u03c1\u03bf\u03cd\u03c2"
        },
        {
            "chapter": 1,
            "verse": 3,
            "name": "Lamentations 1:3",
            "text": "\u0393\u0399\u039c\u0391\u039b \u03bc\u03b5\u03c4\u03c9\u03ba\u03af\u03c3\u03b8\u03b7 \u0399\u03bf\u03c5\u03b4\u03b1\u03af\u03b1 \u03b1\u03c0\u03cc \u03c4\u03b1\u03c0\u03b5\u03b9\u03bd\u03ce\u03c3\u03b5\u03c9\u03c2 \u03b1\u03c5\u03c4\u03ae\u03c2 \u03ba\u03b1\u03b9 \u03b1\u03c0\u03cc \u03c0\u03bb\u03ae\u03b8\u03bf\u03c5\u03c2 \u03b4\u03bf\u03c5\u03bb\u03b5\u03af\u03b1\u03c2 \u03b1\u03c5\u03c4\u03ae\u03c2 \u03b5\u03ba\u03ac\u03b8\u03b9\u03c3\u03b5\u03bd \u03b5\u03bd \u03ad\u03b8\u03bd\u03b5\u03c3\u03b9\u03bd \u03bf\u03c5\u03c7 \u03b5\u03cd\u03c1\u03b5\u03bd \u03b1\u03bd\u03ac\u03c0\u03b1\u03c5\u03c3\u03b9\u03bd \u03c0\u03ac\u03bd\u03c4\u03b5\u03c2 \u03bf\u03b9 \u03ba\u03b1\u03c4\u03b1\u03b4\u03b9\u03ce\u03ba\u03bf\u03bd\u03c4\u03b5\u03c2 \u03b1\u03c5\u03c4\u03ae\u03bd \u03ba\u03b1\u03c4\u03ad\u03bb\u03b1\u03b2\u03bf\u03bd \u03b1\u03c5\u03c4\u03ae\u03bd \u03b1\u03bd\u03b1\u03bc\u03ad\u03c3\u03bf\u03bd \u03c4\u03c9\u03bd \u03b8\u03bb\u03b9\u03b2\u03cc\u03bd\u03c4\u03c9\u03bd"
        },
        {
            "chapter": 1,
            "verse": 4,
            "name": "Lamentations 1:4",
            "text": "\u0394\u0391\u039b\u0395\u0398 \u03bf\u03b4\u03bf\u03af \u03a3\u03b9\u03ce\u03bd \u03c0\u03b5\u03bd\u03b8\u03bf\u03cd\u03c3\u03b9 \u03c0\u03b1\u03c1\u03ac \u03c4\u03bf \u03bc\u03b7 \u03b5\u03af\u03bd\u03b1\u03b9 \u03b5\u03c1\u03c7\u03bf\u03bc\u03ad\u03bd\u03bf\u03c5\u03c2 \u03b5\u03bd \u03b5\u03bf\u03c1\u03c4\u03ae \u03c0\u03ac\u03c3\u03b1\u03b9 \u03b1\u03b9 \u03c0\u03cd\u03bb\u03b1\u03b9 \u03b1\u03c5\u03c4\u03ae\u03c2 \u03b7\u03c6\u03b1\u03bd\u03b9\u03c3\u03bc\u03ad\u03bd\u03b1\u03b9 \u03bf\u03b9 \u03b9\u03b5\u03c1\u03b5\u03af\u03c2 \u03b1\u03c5\u03c4\u03ae\u03c2 \u03b1\u03bd\u03b1\u03c3\u03c4\u03b5\u03bd\u03ac\u03b6\u03bf\u03c5\u03c3\u03b9\u03bd \u03b1\u03b9 \u03c0\u03b1\u03c1\u03b8\u03ad\u03bd\u03bf\u03b9 \u03b1\u03c5\u03c4\u03ae\u03c2 \u03b1\u03b3\u03cc\u03bc\u03b5\u03bd\u03b1\u03b9 \u03ba\u03b1\u03b9 \u03b1\u03c5\u03c4\u03ae \u03c0\u03b9\u03ba\u03c1\u03b1\u03b9\u03bd\u03bf\u03bc\u03ad\u03bd\u03b7 \u03b5\u03bd \u03b5\u03b1\u03c5\u03c4\u03ae"
        },
        {
            "chapter": 1,
            "verse": 5,
            "name": "Lamentations 1:5",
            "text": "\u0397 \u03b5\u03b3\u03ad\u03bd\u03bf\u03bd\u03c4\u03bf \u03bf\u03b9 \u03b8\u03bb\u03af\u03b2\u03bf\u03bd\u03c4\u03b5\u03c2 \u03b1\u03c5\u03c4\u03ae\u03bd \u03b5\u03b9\u03c2 \u03ba\u03b5\u03c6\u03b1\u03bb\u03ae\u03bd \u03ba\u03b1\u03b9 \u03bf\u03b9 \u03b5\u03c7\u03b8\u03c1\u03bf\u03af \u03b1\u03c5\u03c4\u03ae\u03c2 \u03b5\u03c5\u03b8\u03c5\u03bd\u03bf\u03cd\u03c3\u03b9\u03bd \u03cc\u03c4\u03b9 \u03ba\u03cd\u03c1\u03b9\u03bf\u03c2 \u03b5\u03c4\u03b1\u03c0\u03b5\u03af\u03bd\u03c9\u03c3\u03b5\u03bd \u03b1\u03c5\u03c4\u03ae\u03bd \u03b5\u03c0\u03af \u03c4\u03bf \u03c0\u03bb\u03ae\u03b8\u03bf\u03c2 \u03c4\u03c9\u03bd \u03b1\u03c3\u03b5\u03b2\u03b5\u03b9\u03ce\u03bd \u03b1\u03c5\u03c4\u03ae\u03c2 \u03c4\u03b1 \u03bd\u03ae\u03c0\u03b9\u03b1 \u03b1\u03c5\u03c4\u03ae\u03c2 \u03b5\u03c0\u03bf\u03c1\u03b5\u03cd\u03b8\u03b7\u03c3\u03b1\u03bd \u03b5\u03bd \u03b1\u03b9\u03c7\u03bc\u03b1\u03bb\u03c9\u03c3\u03af\u03b1 \u03ba\u03b1\u03c4\u03ac \u03c0\u03c1\u03cc\u03c3\u03c9\u03c0\u03bf\u03bd \u03b8\u03bb\u03af\u03b2\u03bf\u03bd\u03c4\u03bf\u03c2"
        },
        {
            "chapter": 1,
            "verse": 6,
            "name": "Lamentations 1:6",
            "text": "\u039f\u03a5\u0391\u03a5 \u03ba\u03b1\u03b9 \u03b5\u03be\u03ae\u03bb\u03b8\u03b5 \u03b5\u03ba \u03b8\u03c5\u03b3\u03b1\u03c4\u03c1\u03cc\u03c2 \u03a3\u03b9\u03ce\u03bd \u03c0\u03ac\u03c3\u03b1 \u03b7 \u03b5\u03c5\u03c0\u03c1\u03ad\u03c0\u03b5\u03b9\u03b1 \u03b1\u03c5\u03c4\u03ae\u03c2 \u03b5\u03b3\u03ad\u03bd\u03bf\u03bd\u03c4\u03bf \u03bf\u03b9 \u03ac\u03c1\u03c7\u03bf\u03bd\u03c4\u03b5\u03c2 \u03b1\u03c5\u03c4\u03ae\u03c2 \u03c9\u03c2 \u03ba\u03c1\u03b9\u03bf\u03af \u03bf\u03c5\u03c7 \u03b5\u03c5\u03c1\u03af\u03c3\u03ba\u03bf\u03bd\u03c4\u03b5\u03c2 \u03bd\u03bf\u03bc\u03ae\u03bd \u03ba\u03b1\u03b9 \u03b5\u03c0\u03bf\u03c1\u03b5\u03cd\u03bf\u03bd\u03c4\u03bf \u03b5\u03bd \u03bf\u03c5\u03ba \u03b9\u03c3\u03c7\u03cd\u03ca \u03ba\u03b1\u03c4\u03ac \u03c0\u03c1\u03cc\u03c3\u03c9\u03c0\u03bf\u03bd \u03b4\u03b9\u03ce\u03ba\u03bf\u03bd\u03c4\u03bf\u03c2"
        },
        {
            "chapter": 1,
            "verse": 7,
            "name": "Lamentations 1:7",
            "text": "\u0396\u0391\u0399\u039d \u03b5\u03bc\u03bd\u03ae\u03c3\u03b8\u03b7 \u0399\u03b5\u03c1\u03bf\u03c5\u03c3\u03b1\u03bb\u03ae\u03bc \u03b7\u03bc\u03b5\u03c1\u03ce\u03bd \u03c4\u03b1\u03c0\u03b5\u03b9\u03bd\u03ce\u03c3\u03b5\u03c9\u03c2 \u03b1\u03c5\u03c4\u03ae\u03c2 \u03ba\u03b1\u03b9 \u03b1\u03c0\u03c9\u03c3\u03bc\u03ce\u03bd \u03b1\u03c5\u03c4\u03ae\u03c2 \u03c0\u03ac\u03bd\u03c4\u03b1 \u03c4\u03b1 \u03b5\u03c0\u03b9\u03b8\u03c5\u03bc\u03ae\u03bc\u03b1\u03c4\u03b1 \u03b1\u03c5\u03c4\u03ae\u03c2 \u03cc\u03c3\u03b1 \u03b7\u03bd \u03b5\u03be \u03b7\u03bc\u03b5\u03c1\u03ce\u03bd \u03b1\u03c1\u03c7\u03b1\u03af\u03c9\u03bd \u03b5\u03bd \u03c4\u03c9 \u03c0\u03b5\u03c3\u03b5\u03af\u03bd \u03c4\u03bf\u03bd \u03bb\u03b1\u03cc\u03bd \u03b1\u03c5\u03c4\u03ae\u03c2 \u03b5\u03b9\u03c2 \u03c7\u03b5\u03af\u03c1\u03b1\u03c2 \u03b8\u03bb\u03af\u03b2\u03bf\u03bd\u03c4\u03bf\u03c2 \u03ba\u03b1\u03b9 \u03bf\u03c5\u03ba \u03b7\u03bd \u03bf \u03b2\u03bf\u03b7\u03b8\u03ce\u03bd \u03b1\u03c5\u03c4\u03ae \u03b9\u03b4\u03cc\u03bd\u03c4\u03b5\u03c2 \u03bf\u03b9 \u03b5\u03c7\u03b8\u03c1\u03bf\u03af \u03b1\u03c5\u03c4\u03ae\u03c2 \u03b5\u03b3\u03ad\u03bb\u03b1\u03c3\u03b1\u03bd \u03b5\u03c0\u03af \u03c4\u03b7 \u03bc\u03b5\u03c4\u03bf\u03b9\u03ba\u03b5\u03c3\u03af\u03b1 \u03b1\u03c5\u03c4\u03ae\u03c2"
        },
        {
            "chapter": 1,
            "verse": 8,
            "name": "Lamentations 1:8",
            "text": "\u0397\u0398 \u03b1\u03bc\u03b1\u03c1\u03c4\u03af\u03b1\u03bd \u03ae\u03bc\u03b1\u03c1\u03c4\u03b5\u03bd \u0399\u03b5\u03c1\u03bf\u03c5\u03c3\u03b1\u03bb\u03ae\u03bc \u03b4\u03b9\u03ac \u03c4\u03bf\u03cd\u03c4\u03bf \u03b5\u03b9\u03c2 \u03c3\u03ac\u03bb\u03bf\u03bd \u03b5\u03b3\u03ad\u03bd\u03b5\u03c4\u03bf \u03c0\u03ac\u03bd\u03c4\u03b5\u03c2 \u03bf\u03b9 \u03b4\u03bf\u03be\u03ac\u03b6\u03bf\u03bd\u03c4\u03b5\u03c2 \u03b1\u03c5\u03c4\u03ae\u03bd \u03b5\u03c4\u03b1\u03c0\u03b5\u03af\u03bd\u03c9\u03c3\u03b1\u03bd \u03b1\u03c5\u03c4\u03ae\u03bd \u03b5\u03af\u03b4\u03bf\u03bd \u03b3\u03b1\u03c1 \u03c4\u03b7\u03bd \u03b1\u03c3\u03c7\u03b7\u03bc\u03bf\u03c3\u03cd\u03bd\u03b7\u03bd \u03b1\u03c5\u03c4\u03ae\u03c2 \u03ba\u03b1\u03b9 \u03b3\u03b5 \u03b1\u03c5\u03c4\u03ae \u03c3\u03c4\u03b5\u03bd\u03ac\u03b6\u03bf\u03c5\u03c3\u03b1 \u03ba\u03b1\u03b9 \u03b1\u03c0\u03b5\u03c3\u03c4\u03c1\u03ac\u03c6\u03b7 \u03b5\u03b9\u03c2 \u03c4\u03b1 \u03bf\u03c0\u03af\u03c3\u03c9"
        },
        {
            "chapter": 1,
            "verse": 9,
            "name": "Lamentations 1:9",
            "text": "\u03a4\u0397\u0398 \u03b1\u03ba\u03b1\u03b8\u03b1\u03c1\u03c3\u03af\u03b1 \u03b1\u03c5\u03c4\u03ae\u03c2 \u03c0\u03c1\u03bf\u03c2 \u03c0\u03bf\u03b4\u03ce\u03bd \u03b1\u03c5\u03c4\u03ae\u03c2 \u03bf\u03c5\u03ba \u03b5\u03bc\u03bd\u03ae\u03c3\u03b8\u03b7 \u03ad\u03c3\u03c7\u03b1\u03c4\u03b1 \u03b1\u03c5\u03c4\u03ae\u03c2 \u03ba\u03b1\u03b9 \u03ba\u03b1\u03c4\u03b5\u03b2\u03af\u03b2\u03b1\u03c3\u03b5\u03bd \u03c5\u03c0\u03ad\u03c1\u03bf\u03b3\u03ba\u03b1 \u03bf\u03c5\u03ba \u03ad\u03c3\u03c4\u03b9\u03bd \u03bf \u03c0\u03b1\u03c1\u03b1\u03ba\u03b1\u03bb\u03ce\u03bd \u03b1\u03c5\u03c4\u03ae\u03bd \u03af\u03b4\u03b5 \u03ba\u03cd\u03c1\u03b9\u03b5 \u03c4\u03b7\u03bd \u03c4\u03b1\u03c0\u03b5\u03af\u03bd\u03c9\u03c3\u03af\u03bd \u03bc\u03bf\u03c5 \u03cc\u03c4\u03b9 \u03b5\u03bc\u03b5\u03b3\u03b1\u03bb\u03cd\u03bd\u03b8\u03b7 \u03bf \u03b5\u03c7\u03b8\u03c1\u03cc\u03c2"
        },
        {
            "chapter": 1,
            "verse": 10,
            "name": "Lamentations 1:10",
            "text": "\u0399\u03a9\u0398 \u03c7\u03b5\u03af\u03c1\u03b1 \u03b1\u03c5\u03c4\u03bf\u03cd \u03b5\u03be\u03b5\u03c0\u03ad\u03c4\u03b1\u03c3\u03b5 \u03bf \u03b8\u03bb\u03af\u03b2\u03c9\u03bd \u03b5\u03c0\u03af \u03c0\u03ac\u03bd\u03c4\u03b1 \u03c4\u03b1 \u03b5\u03c0\u03b9\u03b8\u03c5\u03bc\u03ae\u03bc\u03b1\u03c4\u03b1 \u03b1\u03c5\u03c4\u03ae\u03c2 \u03b5\u03af\u03b4\u03b5 \u03b3\u03b1\u03c1 \u03ad\u03b8\u03bd\u03b7 \u03b5\u03b9\u03c3\u03b5\u03bb\u03b8\u03cc\u03bd\u03c4\u03b1 \u03b5\u03b9\u03c2 \u03c4\u03bf \u03b1\u03b3\u03b9\u03b1\u03c3\u03bc\u03ac \u03b1\u03c5\u03c4\u03ae\u03c2 \u03b1 \u03b5\u03bd\u03b5\u03c4\u03b5\u03af\u03bb\u03c9 \u03bc\u03b7 \u03b5\u03b9\u03c3\u03b5\u03bb\u03b8\u03b5\u03af\u03bd \u03b1\u03c5\u03c4\u03ac \u03b5\u03b9\u03c2 \u03b5\u03ba\u03ba\u03bb\u03b7\u03c3\u03af\u03b1\u03bd \u03c3\u03bf\u03c5"
        },
        {
            "chapter": 1,
            "verse": 11,
            "name": "Lamentations 1:11",
            "text": "\u03a7\u0391\u03a6 \u03c0\u03b1\u03c2 \u03bf \u03bb\u03b1\u03cc\u03c2 \u03b1\u03c5\u03c4\u03ae\u03c2 \u03ba\u03b1\u03c4\u03b1\u03c3\u03c4\u03b5\u03bd\u03ac\u03b6\u03bf\u03bd\u03c4\u03b5\u03c2 \u03b6\u03b7\u03c4\u03bf\u03cd\u03bd\u03c4\u03b5\u03c2 \u03ac\u03c1\u03c4\u03bf\u03bd \u03ad\u03b4\u03c9\u03ba\u03b1\u03bd \u03c4\u03b1 \u03b5\u03c0\u03b9\u03b8\u03c5\u03bc\u03ae\u03bc\u03b1\u03c4\u03b1 \u03b1\u03c5\u03c4\u03ae\u03c2 \u03b5\u03bd \u03b2\u03c1\u03ce\u03c3\u03b5\u03b9 \u03c4\u03bf\u03c5 \u03b5\u03c0\u03b9\u03c3\u03c4\u03c1\u03ad\u03c8\u03b1\u03b9 \u03c8\u03c5\u03c7\u03ae\u03bd \u03af\u03b4\u03b5 \u03ba\u03cd\u03c1\u03b9\u03b5 \u03ba\u03b1\u03b9 \u03b5\u03c0\u03af\u03b2\u03bb\u03b5\u03c8\u03bf\u03bd \u03cc\u03c4\u03b9 \u03b5\u03b3\u03b5\u03bd\u03ae\u03b8\u03b7 \u03b7\u03c4\u03b9\u03bc\u03c9\u03bc\u03ad\u03bd\u03b7"
        },
        {
            "chapter": 1,
            "verse": 12,
            "name": "Lamentations 1:12",
            "text": "\u039b\u0391\u039c\u0395\u0394 \u03bf\u03b9 \u03c0\u03c1\u03bf\u03c2 \u03c5\u03bc\u03ac\u03c2 \u03c0\u03ac\u03bd\u03c4\u03b5\u03c2 \u03c0\u03b1\u03c1\u03b1\u03c0\u03bf\u03c1\u03b5\u03c5\u03cc\u03bc\u03b5\u03bd\u03bf\u03b9 \u03bf\u03b4\u03cc\u03bd \u03b5\u03c0\u03b9\u03c3\u03c4\u03c1\u03ad\u03c8\u03b1\u03c4\u03b5 \u03ba\u03b1\u03b9 \u03af\u03b4\u03b5\u03c4\u03b5 \u03b5\u03b9 \u03ad\u03c3\u03c4\u03b9\u03bd \u03ac\u03bb\u03b3\u03bf\u03c2 \u03c9\u03c2 \u03ac\u03bb\u03b3\u03bf\u03c2 \u03bc\u03bf\u03c5 \u03bf \u03b5\u03b3\u03b5\u03bd\u03ae\u03b8\u03b7 \u03c6\u03b8\u03b5\u03b3\u03be\u03ac\u03bc\u03b5\u03bd\u03bf\u03c2 \u03b5\u03bd \u03b5\u03bc\u03bf\u03af \u03b5\u03c4\u03b1\u03c0\u03b5\u03af\u03bd\u03c9\u03c3\u03ad \u03bc\u03b5 \u03ba\u03cd\u03c1\u03b9\u03bf\u03c2 \u03b5\u03bd \u03b7\u03bc\u03ad\u03c1\u03b1 \u03bf\u03c1\u03b3\u03ae\u03c2 \u03b8\u03c5\u03bc\u03bf\u03cd \u03b1\u03c5\u03c4\u03bf\u03cd"
        },
        {
            "chapter": 1,
            "verse": 13,
            "name": "Lamentations 1:13",
            "text": "\u039c\u0397\u039c \u03b5\u03be \u03cd\u03c8\u03bf\u03c5\u03c2 \u03b1\u03c5\u03c4\u03bf\u03cd \u03b1\u03c0\u03ad\u03c3\u03c4\u03b5\u03b9\u03bb\u03b5 \u03c0\u03c5\u03c1 \u03b5\u03bd \u03c4\u03bf\u03b9\u03c2 \u03bf\u03c3\u03c4\u03ad\u03bf\u03b9\u03c2 \u03bc\u03bf\u03c5 \u03ba\u03b1\u03b9 \u03ba\u03b1\u03c4\u03ae\u03b3\u03b1\u03b3\u03b5\u03bd \u03b1\u03c5\u03c4\u03cc \u03b4\u03b9\u03b5\u03c0\u03ad\u03c4\u03b1\u03c3\u03b5 \u03b4\u03af\u03ba\u03c4\u03c5\u03bf\u03bd \u03c4\u03bf\u03b9\u03c2 \u03c0\u03bf\u03c3\u03af \u03bc\u03bf\u03c5 \u03b1\u03c0\u03ad\u03c3\u03c4\u03c1\u03b5\u03c8\u03ad \u03bc\u03b5 \u03b5\u03b9\u03c2 \u03c4\u03b1 \u03bf\u03c0\u03af\u03c3\u03c9 \u03ad\u03b4\u03c9\u03ba\u03ad \u03bc\u03b5 \u03b7\u03c6\u03b1\u03bd\u03b9\u03c3\u03bc\u03ad\u03bd\u03b7\u03bd \u03cc\u03bb\u03b7\u03bd \u03c4\u03b7\u03bd \u03b7\u03bc\u03ad\u03c1\u03b1\u03bd \u03bf\u03b4\u03c5\u03bd\u03c9\u03bc\u03ad\u03bd\u03b7\u03bd"
        },
        {
            "chapter": 1,
            "verse": 14,
            "name": "Lamentations 1:14",
            "text": "\u039d\u039f\u03a5\u039d \u03b5\u03b3\u03c1\u03b7\u03b3\u03bf\u03c1\u03ae\u03b8\u03b7 \u03b5\u03c0\u03af \u03c4\u03b1 \u03b1\u03c3\u03b5\u03b2\u03ae\u03bc\u03b1\u03c4\u03ac \u03bc\u03bf\u03c5 \u03b5\u03bd \u03c7\u03b5\u03c1\u03c3\u03af \u03bc\u03bf\u03c5 \u03c3\u03c5\u03bd\u03b5\u03c0\u03bb\u03ac\u03ba\u03b7\u03c3\u03b1\u03bd \u03b1\u03bd\u03ad\u03b2\u03b7\u03c3\u03b1\u03bd \u03b5\u03c0\u03af \u03c4\u03bf\u03bd \u03c4\u03c1\u03ac\u03c7\u03b7\u03bb\u03cc\u03bd \u03bc\u03bf\u03c5 \u03b7\u03c3\u03b8\u03ad\u03bd\u03b7\u03c3\u03b5\u03bd \u03b7 \u03b9\u03c3\u03c7\u03cd\u03c2 \u03bc\u03bf\u03c5 \u03cc\u03c4\u03b9 \u03ad\u03b4\u03c9\u03ba\u03b5 \u03ba\u03cd\u03c1\u03b9\u03bf\u03c2 \u03b5\u03bd \u03c7\u03b5\u03c1\u03c3\u03af \u03bc\u03bf\u03c5 \u03bf\u03b4\u03cd\u03bd\u03b1\u03c2 \u03bf\u03c5 \u03b4\u03c5\u03bd\u03ae\u03c3\u03bf\u03bc\u03b1\u03b9 \u03c3\u03c4\u03ae\u03bd\u03b1\u03b9"
        },
        {
            "chapter": 1,
            "verse": 15,
            "name": "Lamentations 1:15",
            "text": "\u03a3\u0391\u039c\u0395\u03a7 \u03b5\u03be\u03ae\u03c1\u03b5 \u03c0\u03ac\u03bd\u03c4\u03b1\u03c2 \u03c4\u03bf\u03c5\u03c2 \u03b9\u03c3\u03c7\u03c5\u03c1\u03bf\u03cd\u03c2 \u03bc\u03bf\u03c5 \u03bf \u03ba\u03cd\u03c1\u03b9\u03bf\u03c2 \u03b5\u03ba \u03bc\u03ad\u03c3\u03bf\u03c5 \u03bc\u03bf\u03c5 \u03b5\u03ba\u03ac\u03bb\u03b5\u03c3\u03b5\u03bd \u03b5\u03c0\u0384 \u03b5\u03bc\u03ad \u03ba\u03b1\u03b9\u03c1\u03cc\u03bd \u03c4\u03bf\u03c5 \u03c3\u03c5\u03bd\u03c4\u03c1\u03af\u03c8\u03b1\u03b9 \u03b5\u03ba\u03bb\u03b5\u03ba\u03c4\u03bf\u03cd\u03c2 \u03bc\u03bf\u03c5 \u03bb\u03b7\u03bd\u03cc\u03bd \u03b5\u03c0\u03ac\u03c4\u03b7\u03c3\u03b5 \u03ba\u03cd\u03c1\u03b9\u03bf\u03c2 \u03c0\u03b1\u03c1\u03b8\u03ad\u03bd\u03c9 \u03b8\u03c5\u03b3\u03b1\u03c4\u03c1\u03af \u0399\u03bf\u03cd\u03b4\u03b1"
        },
        {
            "chapter": 1,
            "verse": 16,
            "name": "Lamentations 1:16",
            "text": "\u0391\u0399\u039d \u03b5\u03c0\u03af \u03c4\u03bf\u03cd\u03c4\u03bf\u03b9\u03c2 \u03b5\u03b3\u03ce \u03ba\u03bb\u03b1\u03af\u03c9 \u03bf \u03bf\u03c6\u03b8\u03b1\u03bb\u03bc\u03cc\u03c2 \u03bc\u03bf\u03c5 \u03ba\u03b1\u03c4\u03ae\u03b3\u03b1\u03b3\u03b5\u03bd \u03cd\u03b4\u03c9\u03c1 \u03cc\u03c4\u03b9 \u03b5\u03bc\u03b1\u03ba\u03c1\u03cd\u03bd\u03b8\u03b7 \u03b1\u03c0\u0384 \u03b5\u03bc\u03bf\u03cd \u03bf \u03c0\u03b1\u03c1\u03b1\u03ba\u03b1\u03bb\u03ce\u03bd \u03bc\u03b5 \u03bf \u03b5\u03c0\u03b9\u03c3\u03c4\u03c1\u03ad\u03c6\u03c9\u03bd \u03c8\u03c5\u03c7\u03ae\u03bd \u03bc\u03bf\u03c5 \u03b5\u03b3\u03ad\u03bd\u03bf\u03bd\u03c4\u03bf \u03bf\u03b9 \u03c5\u03b9\u03bf\u03af \u03bc\u03bf\u03c5 \u03b7\u03c6\u03b1\u03bd\u03b9\u03c3\u03bc\u03ad\u03bd\u03bf\u03b9 \u03cc\u03c4\u03b9 \u03b5\u03ba\u03c1\u03b1\u03c4\u03b1\u03b9\u03ce\u03b8\u03b7 \u03bf \u03b5\u03c7\u03b8\u03c1\u03cc\u03c2"
        },
        {
            "chapter": 1,
            "verse": 17,
            "name": "Lamentations 1:17",
            "text": "\u03a6\u0397 \u03b4\u03b9\u03b5\u03c0\u03ad\u03c4\u03b1\u03c3\u03b5 \u03a3\u03b9\u03ce\u03bd \u03c7\u03b5\u03af\u03c1\u03b1\u03c2 \u03b1\u03c5\u03c4\u03ae\u03c2 \u03bf\u03c5\u03ba \u03ad\u03c3\u03c4\u03b9\u03bd \u03bf \u03c0\u03b1\u03c1\u03b1\u03ba\u03b1\u03bb\u03ce\u03bd \u03b1\u03c5\u03c4\u03ae\u03bd \u03b5\u03bd\u03b5\u03c4\u03b5\u03af\u03bb\u03b1\u03c4\u03bf \u03ba\u03cd\u03c1\u03b9\u03bf\u03c2 \u03c4\u03c9 \u0399\u03b1\u03ba\u03ce\u03b2 \u03ba\u03cd\u03ba\u03bb\u03c9 \u03b1\u03c5\u03c4\u03bf\u03cd \u03bf\u03b9 \u03b8\u03bb\u03af\u03b2\u03bf\u03bd\u03c4\u03b5\u03c2 \u03b1\u03c5\u03c4\u03cc\u03bd \u03b5\u03b3\u03b5\u03bd\u03ae\u03b8\u03b7 \u0399\u03b5\u03c1\u03bf\u03c5\u03c3\u03b1\u03bb\u03ae\u03bc \u03b5\u03b9\u03c2 \u03b1\u03c0\u03bf\u03ba\u03b1\u03b8\u03b7\u03bc\u03ad\u03bd\u03b7\u03bd \u03b1\u03bd\u03b1\u03bc\u03ad\u03c3\u03bf\u03bd \u03b1\u03c5\u03c4\u03ce\u03bd"
        },
        {
            "chapter": 1,
            "verse": 18,
            "name": "Lamentations 1:18",
            "text": "\u03a3\u0391\u0394\u0397 \u03b4\u03af\u03ba\u03b1\u03b9\u03cc\u03c2 \u03b5\u03c3\u03c4\u03b9 \u03ba\u03cd\u03c1\u03b9\u03bf\u03c2 \u03cc\u03c4\u03b9 \u03c4\u03bf \u03c3\u03c4\u03cc\u03bc\u03b1 \u03b1\u03c5\u03c4\u03bf\u03cd \u03c0\u03b1\u03c1\u03b5\u03c0\u03af\u03ba\u03c1\u03b1\u03bd\u03b1 \u03b1\u03ba\u03bf\u03cd\u03c3\u03b1\u03c4\u03b5 \u03b4\u03b7 \u03c0\u03ac\u03bd\u03c4\u03b5\u03c2 \u03bf\u03b9 \u03bb\u03b1\u03bf\u03af \u03ba\u03b1\u03b9 \u03af\u03b4\u03b5\u03c4\u03b5 \u03c4\u03bf \u03ac\u03bb\u03b3\u03bf\u03c2 \u03bc\u03bf\u03c5 \u03c0\u03b1\u03c1\u03b8\u03ad\u03bd\u03bf\u03b9 \u03bc\u03bf\u03c5 \u03ba\u03b1\u03b9 \u03bd\u03b5\u03b1\u03bd\u03af\u03c3\u03ba\u03bf\u03b9 \u03bc\u03bf\u03c5 \u03b5\u03c0\u03bf\u03c1\u03b5\u03cd\u03b8\u03b7\u03c3\u03b1\u03bd \u03b5\u03bd \u03b1\u03b9\u03c7\u03bc\u03b1\u03bb\u03c9\u03c3\u03af\u03b1"
        },
        {
            "chapter": 1,
            "verse": 19,
            "name": "Lamentations 1:19",
            "text": "\u039a\u03a9\u03a6 \u03b5\u03ba\u03ac\u03bb\u03b5\u03c3\u03b1 \u03c4\u03bf\u03c5\u03c2 \u03b5\u03c1\u03b1\u03c3\u03c4\u03ac\u03c2 \u03bc\u03bf\u03c5 \u03b1\u03c5\u03c4\u03bf\u03af \u03b4\u03b5 \u03c0\u03b1\u03c1\u03b5\u03bb\u03bf\u03b3\u03af\u03c3\u03b1\u03bd\u03c4\u03cc \u03bc\u03b5 \u03bf\u03b9 \u03b9\u03b5\u03c1\u03b5\u03af\u03c2 \u03bc\u03bf\u03c5 \u03ba\u03b1\u03b9 \u03bf\u03b9 \u03c0\u03c1\u03b5\u03c3\u03b2\u03cd\u03c4\u03b5\u03c1\u03bf\u03af \u03bc\u03bf\u03c5 \u03b5\u03bd \u03c4\u03b7 \u03c0\u03cc\u03bb\u03b5\u03b9 \u03b5\u03be\u03ad\u03bb\u03b9\u03c0\u03bf\u03bd \u03cc\u03c4\u03b9 \u03b5\u03b6\u03ae\u03c4\u03b7\u03c3\u03b1\u03bd \u03b2\u03c1\u03ce\u03c3\u03b9\u03bd \u03b1\u03c5\u03c4\u03bf\u03af\u03c2 \u03af\u03bd\u03b1 \u03b5\u03c0\u03b9\u03c3\u03c4\u03c1\u03ad\u03c8\u03c9\u03c3\u03b9 \u03c8\u03c5\u03c7\u03ac\u03c2 \u03b1\u03c5\u03c4\u03ce\u03bd"
        },
        {
            "chapter": 1,
            "verse": 20,
            "name": "Lamentations 1:20",
            "text": "\u03a1\u0397\u03a3 \u03af\u03b4\u03b5 \u03ba\u03cd\u03c1\u03b9\u03b5 \u03cc\u03c4\u03b9 \u03b8\u03bb\u03af\u03b2\u03bf\u03bc\u03b1\u03b9 \u03b7 \u03ba\u03bf\u03b9\u03bb\u03af\u03b1 \u03bc\u03bf\u03c5 \u03b5\u03c4\u03b1\u03c1\u03ac\u03c7\u03b8\u03b7 \u03ba\u03b1\u03b9 \u03b7 \u03ba\u03b1\u03c1\u03b4\u03af\u03b1 \u03bc\u03bf\u03c5 \u03b5\u03c3\u03c4\u03c1\u03ac\u03c6\u03b7 \u03b5\u03bd \u03b5\u03bc\u03bf\u03af \u03c0\u03b1\u03c1\u03b1\u03c0\u03b9\u03ba\u03c1\u03b1\u03af\u03bd\u03bf\u03c5\u03c3\u03b1 \u03c0\u03b1\u03c1\u03b5\u03c0\u03af\u03ba\u03c1\u03b1\u03bd\u03b1 \u03ad\u03be\u03c9\u03b8\u03b5\u03bd \u03b7\u03c4\u03ad\u03ba\u03bd\u03c9\u03c3\u03ad \u03bc\u03b5 \u03bc\u03ac\u03c7\u03b1\u03b9\u03c1\u03b1 \u03ce\u03c3\u03c0\u03b5\u03c1 \u03b8\u03ac\u03bd\u03b1\u03c4\u03bf\u03c2 \u03b5\u03bd \u03bf\u03af\u03ba\u03c9"
        },
        {
            "chapter": 1,
            "verse": 21,
            "name": "Lamentations 1:21",
            "text": "\u03a3\u0399\u039d \u03b1\u03ba\u03bf\u03cd\u03c3\u03b1\u03c4\u03b5 \u03b4\u03b7 \u03cc\u03c4\u03b9 \u03c3\u03c4\u03b5\u03bd\u03ac\u03b6\u03c9 \u03b5\u03b3\u03ce \u03bf\u03c5\u03ba \u03ad\u03c3\u03c4\u03b9\u03bd \u03bf \u03c0\u03b1\u03c1\u03b1\u03ba\u03b1\u03bb\u03ce\u03bd \u03bc\u03b5 \u03c0\u03ac\u03bd\u03c4\u03b5\u03c2 \u03bf\u03b9 \u03b5\u03c7\u03b8\u03c1\u03bf\u03af \u03bc\u03bf\u03c5 \u03ae\u03ba\u03bf\u03c5\u03c3\u03b1\u03bd \u03c4\u03b1 \u03ba\u03b1\u03ba\u03ac \u03bc\u03bf\u03c5 \u03ba\u03b1\u03b9 \u03b5\u03c7\u03ac\u03c1\u03b7\u03c3\u03b1\u03bd \u03cc\u03c4\u03b9 \u03c3\u03c5 \u03b5\u03c0\u03bf\u03af\u03b7\u03c3\u03b1\u03c2 \u03b5\u03c0\u03ae\u03b3\u03b1\u03b3\u03b5\u03c2 \u03b7\u03bc\u03ad\u03c1\u03b1\u03bd \u03b5\u03ba\u03ac\u03bb\u03b5\u03c3\u03b1\u03c2 \u03ba\u03b1\u03b9\u03c1\u03cc\u03bd \u03b5\u03b3\u03ad\u03bd\u03bf\u03bd\u03c4\u03bf \u03cc\u03bc\u03bf\u03b9\u03bf\u03af \u03bc\u03bf\u03af"
        },
        {
            "chapter": 1,
            "verse": 22,
            "name": "Lamentations 1:22",
            "text": "\u0398\u0391\u03a5 \u03b5\u03b9\u03c3\u03ad\u03bb\u03b8\u03bf\u03b9 \u03c0\u03ac\u03c3\u03b1 \u03b7 \u03ba\u03b1\u03ba\u03af\u03b1 \u03b1\u03c5\u03c4\u03ce\u03bd \u03ba\u03b1\u03c4\u03ac \u03c0\u03c1\u03cc\u03c3\u03c9\u03c0\u03cc\u03bd \u03c3\u03bf\u03c5 \u03ba\u03b1\u03b9 \u03b5\u03c0\u03b9\u03c6\u03cd\u03bb\u03bb\u03b9\u03c3\u03bf\u03bd \u03b1\u03c5\u03c4\u03bf\u03af\u03c2 \u03bf\u03bd \u03c4\u03c1\u03cc\u03c0\u03bf\u03bd \u03b5\u03c0\u03bf\u03af\u03b7\u03c3\u03b1\u03bd \u03b5\u03c0\u03b9\u03c6\u03c5\u03bb\u03bb\u03af\u03b4\u03b1 \u03c0\u03b5\u03c1\u03af \u03c0\u03ac\u03bd\u03c4\u03c9\u03bd \u03c4\u03c9\u03bd \u03b1\u03bc\u03b1\u03c1\u03c4\u03b7\u03bc\u03ac\u03c4\u03c9\u03bd \u03bc\u03bf\u03c5 \u03cc\u03c4\u03b9 \u03c0\u03bf\u03bb\u03bb\u03bf\u03af \u03bf\u03b9 \u03c3\u03c4\u03b5\u03bd\u03b1\u03b3\u03bc\u03bf\u03af \u03bc\u03bf\u03c5 \u03ba\u03b1\u03b9 \u03b7 \u03ba\u03b1\u03c1\u03b4\u03af\u03b1 \u03bc\u03bf\u03c5 \u03bb\u03c5\u03c0\u03b5\u03af\u03c4\u03b1\u03b9  "
        }
    ]
}