{
    "translation": "Latvian Gl\u00fcck 8th edition",
    "abbreviation": "lvgluck8",
    "lang": "lv",
    "language": "Latvian",
    "direction": "LTR",
    "encoding": "UTF-8",
    "book_nr": 48,
    "book_name": "Galatians",
    "chapter": 5,
    "name": "Galatians 5",
    "verses": [
        {
            "chapter": 5,
            "verse": 1,
            "name": "Galatians 5:1",
            "text": "Tad nu past\u0101viet tai svabad\u012bb\u0101, uz ko Kristus m\u016bs ir atsvabin\u0101jis, un neliekaties atkal g\u016bst\u012bties kalpo\u0161anas j\u016bg\u0101. "
        },
        {
            "chapter": 5,
            "verse": 2,
            "name": "Galatians 5:2",
            "text": "Redzi, es P\u0101vils jums saku: ja j\u016bs topat apgraiz\u012bti, tad Kristus jums neder\u0113s nenieka. "
        },
        {
            "chapter": 5,
            "verse": 3,
            "name": "Galatians 5:3",
            "text": "Un atkal es apliecin\u0101ju ikvienam cilv\u0113kam, kas top apgraiz\u012bts, ka tam visa bausl\u012bba j\u0101tur. "
        },
        {
            "chapter": 5,
            "verse": 4,
            "name": "Galatians 5:4",
            "text": "J\u016bs esat atk\u0101pu\u0161ies no Kristus, j\u016bs, kas caur bausl\u012bbu gribat tapt taisnoti; j\u016bs \u017e\u0113last\u012bbu esat pazaud\u0113ju\u0161i: "
        },
        {
            "chapter": 5,
            "verse": 5,
            "name": "Galatians 5:5",
            "text": "Jo no tic\u012bbas m\u0113s gar\u0101 gaid\u0101m taisn\u012bbas cer\u012bbu. "
        },
        {
            "chapter": 5,
            "verse": 6,
            "name": "Galatians 5:6",
            "text": "Jo iek\u0161 Kristus J\u0113zus nedz apgraiz\u012b\u0161ana ko sp\u0113j, nedz priek\u0161\u0101da, bet tic\u012bba, kas caur m\u012blest\u012bbu sp\u0113c\u012bga par\u0101d\u0101s. "
        },
        {
            "chapter": 5,
            "verse": 7,
            "name": "Galatians 5:7",
            "text": "J\u016bs gan labi tec\u0113j\u0101t; kas j\u016bs ir aizkav\u0113jis, ka j\u016bs paties\u012bbai nepaklaus\u0101t? "
        },
        {
            "chapter": 5,
            "verse": 8,
            "name": "Galatians 5:8",
            "text": "T\u0101 pierun\u0101\u0161ana nav no t\u0101, kas j\u016bs aicina. "
        },
        {
            "chapter": 5,
            "verse": 9,
            "name": "Galatians 5:9",
            "text": "Maz rauga saraudz\u0113 visu m\u012bklu."
        },
        {
            "chapter": 5,
            "verse": 10,
            "name": "Galatians 5:10",
            "text": "Es dro\u0161i uz jums pa\u013caujos iek\u0161 T\u0101 Kunga, ka j\u016bs citu pr\u0101tu netur\u0113siet; bet kas j\u016bs sajauc, tas nes\u012bs to sodu, lai b\u016btu, kas b\u016bdams. "
        },
        {
            "chapter": 5,
            "verse": 11,
            "name": "Galatians 5:11",
            "text": "Bet, br\u0101\u013ci, ja es v\u0113l apgraiz\u012b\u0161anu sludin\u0101ju, kam tad v\u0113l topu vaj\u0101ts? Tad t\u0101 piedauz\u012b\u0161an\u0101s pie krusta jau b\u016btu mit\u0113jusies. "
        },
        {
            "chapter": 5,
            "verse": 12,
            "name": "Galatians 5:12",
            "text": "Kaut jel ar\u012b tie taptu graiz\u012bti, kas j\u016bs musina! "
        },
        {
            "chapter": 5,
            "verse": 13,
            "name": "Galatians 5:13",
            "text": "Jo, br\u0101\u013ci, j\u016bs uz svabad\u012bbu esat aicin\u0101ti; tikai ne uz t\u0101du svabad\u012bbu, ka miesai ir va\u013ca; bet kalpojiet cits citam m\u012blest\u012bb\u0101. "
        },
        {
            "chapter": 5,
            "verse": 14,
            "name": "Galatians 5:14",
            "text": "Jo visa bausl\u012bba vien\u0101 v\u0101rd\u0101 top piepild\u012bta, proti \u0161in\u012b; Tev b\u016bs savu tuv\u0101ko m\u012bl\u0113t k\u0101 sevi pa\u0161u. "
        },
        {
            "chapter": 5,
            "verse": 15,
            "name": "Galatians 5:15",
            "text": "Bet ja j\u016bs sav\u0101 starp\u0101 ko\u017eaties un \u0113daties, tad piel\u016bkojiet, ka j\u016bs cits no cita netiekat apr\u012bti. "
        },
        {
            "chapter": 5,
            "verse": 16,
            "name": "Galatians 5:16",
            "text": "Bet es saku: staig\u0101jiet gar\u0101, tad j\u016bs miesas k\u0101r\u012bbu nepadar\u012bsiet. "
        },
        {
            "chapter": 5,
            "verse": 17,
            "name": "Galatians 5:17",
            "text": "Jo miesai grib\u0101s pret garu un garam pret miesu, un tie st\u0101v viens otram pret\u012b, ka j\u016bs nedar\u0101t, ko gribat."
        },
        {
            "chapter": 5,
            "verse": 18,
            "name": "Galatians 5:18",
            "text": "Bet ja j\u016bs no Gara topat vad\u012bti, tad j\u016bs neesat apak\u0161 bausl\u012bbas. "
        },
        {
            "chapter": 5,
            "verse": 19,
            "name": "Galatians 5:19",
            "text": "Bet miesas darbi ir zin\u0101mi, ka laul\u012bbas p\u0101rk\u0101p\u0161ana, mauc\u012bba, ne\u0161\u0137\u012bst\u012bba, bezkaun\u012bba, "
        },
        {
            "chapter": 5,
            "verse": 20,
            "name": "Galatians 5:20",
            "text": "Elkadiev\u012bba, burv\u012bba, ienaids, b\u0101r\u0161an\u0101s, n\u012bd\u0113\u0161an\u0101s, dusm\u012bbas, \u0137ildas, \u0161\u0137el\u0161an\u0101s, vilt\u012bgas m\u0101c\u012bbas, "
        },
        {
            "chapter": 5,
            "verse": 21,
            "name": "Galatians 5:21",
            "text": "Skaud\u012bbas, slepkav\u012bbas, pl\u012bt\u0113\u0161anas, r\u012b\u0161anas, un kas \u0161iem l\u012bdz\u012bgi; no tiem es jums papriek\u0161 saku, t\u0101 k\u0101 jau esmu sac\u012bjis, ka tie, kas t\u0101das lietas dara, Dieva valst\u012bbu neiemantos. "
        },
        {
            "chapter": 5,
            "verse": 22,
            "name": "Galatians 5:22",
            "text": "Bet T\u0101 Gara auglis ir: m\u012blest\u012bba, l\u012bksm\u012bba, miers, paciet\u012bba, laipn\u012bba, labpr\u0101t\u012bba, tic\u012bba, l\u0113npr\u0101t\u012bba, s\u0101t\u012bba. "
        },
        {
            "chapter": 5,
            "verse": 23,
            "name": "Galatians 5:23",
            "text": "Pret t\u0101diem nav bausl\u012bba. "
        },
        {
            "chapter": 5,
            "verse": 24,
            "name": "Galatians 5:24",
            "text": "Bet tie, kas Kristum pieder, savu miesu ir krust\u0101 situ\u0161i ar t\u0101m k\u0101r\u012bb\u0101m un iek\u0101ro\u0161an\u0101m. "
        },
        {
            "chapter": 5,
            "verse": 25,
            "name": "Galatians 5:25",
            "text": "Ja m\u0113s gar\u0101 dz\u012bvojam, tad lai ar\u012b gar\u0101 staig\u0101jam. "
        },
        {
            "chapter": 5,
            "verse": 26,
            "name": "Galatians 5:26",
            "text": "Lai nedzenamies p\u0113c n\u012bc\u012bga goda, cits citu kaitin\u0101dami, cits citu skauzdami.  "
        }
    ]
}