{
    "translation": "Young's Literal Translation",
    "abbreviation": "ylt",
    "lang": "en",
    "language": "English",
    "direction": "LTR",
    "encoding": "",
    "book_nr": 5,
    "book_name": "Deuteronomy",
    "chapter": 30,
    "name": "Deuteronomy 30",
    "verses": [
        {
            "chapter": 30,
            "verse": 1,
            "name": "Deuteronomy 30:1",
            "text": "`And it hath been, when all these things come upon thee, the blessing and the reviling, which I have set before thee, and thou hast brought <FI>them<Fi> back unto thy heart, among all the nations whither Jehovah thy God hath driven thee away,"
        },
        {
            "chapter": 30,
            "verse": 2,
            "name": "Deuteronomy 30:2",
            "text": "and hast turned back unto Jehovah thy God, and hearkened to His voice, according to all that I am commanding thee to-day, thou and thy sons, with all thy heart, and with all thy soul--"
        },
        {
            "chapter": 30,
            "verse": 3,
            "name": "Deuteronomy 30:3",
            "text": "then hath Jehovah thy God turned back <FI>to<Fi> thy captivity, and pitied thee, yea, He hath turned back and gathered thee out of all the peoples whither Jehovah thy God hath scattered thee."
        },
        {
            "chapter": 30,
            "verse": 4,
            "name": "Deuteronomy 30:4",
            "text": "`If thine outcast is in the extremity of the heavens, thence doth Jehovah thy God gather thee, and thence He doth take thee;"
        },
        {
            "chapter": 30,
            "verse": 5,
            "name": "Deuteronomy 30:5",
            "text": "and Jehovah thy God hath brought thee in unto the land which thy fathers have possessed, and thou hast inherited it, and He hath done thee good, and multiplied thee above thy fathers."
        },
        {
            "chapter": 30,
            "verse": 6,
            "name": "Deuteronomy 30:6",
            "text": "`And Jehovah thy God hath circumcised thy heart, and the heart of thy seed, to love Jehovah thy God with all thy heart, and with all thy soul, for the sake of thy life;"
        },
        {
            "chapter": 30,
            "verse": 7,
            "name": "Deuteronomy 30:7",
            "text": "and Jehovah thy God hath put all this oath on thine enemies, and on those hating thee, who have pursued thee."
        },
        {
            "chapter": 30,
            "verse": 8,
            "name": "Deuteronomy 30:8",
            "text": "`And thou dost turn back, and hast hearkened to the voice of Jehovah, and hast done all His commands which I am commanding thee to-day;"
        },
        {
            "chapter": 30,
            "verse": 9,
            "name": "Deuteronomy 30:9",
            "text": "and Jehovah thy God hath made thee abundant in every work of thy hand, in the fruit of thy body, and in the fruit of thy cattle, and in the fruit of thy ground, for good; for Jehovah turneth back to rejoice over thee for good, as He rejoiced over thy fathers,"
        },
        {
            "chapter": 30,
            "verse": 10,
            "name": "Deuteronomy 30:10",
            "text": "for thou dost hearken to the voice of Jehovah thy God, to keep His commands, and His statutes, which are written in the book of this law, for thou turnest back unto Jehovah thy God, with all thy heart, and with all thy soul."
        },
        {
            "chapter": 30,
            "verse": 11,
            "name": "Deuteronomy 30:11",
            "text": "`For this command which I am commanding thee to-day, it is not too wonderful for thee, nor <FI>is<Fi> it far off."
        },
        {
            "chapter": 30,
            "verse": 12,
            "name": "Deuteronomy 30:12",
            "text": "It is not in the heavens, --saying, Who doth go up for us into the heavens, and doth take it for us, and doth cause us to hear it--that we may do it."
        },
        {
            "chapter": 30,
            "verse": 13,
            "name": "Deuteronomy 30:13",
            "text": "And it <FI>is<Fi> not beyond the sea, --saying, Who doth pass over for us beyond the sea, and doth take it for us, and doth cause us to hear it--that we may do it?"
        },
        {
            "chapter": 30,
            "verse": 14,
            "name": "Deuteronomy 30:14",
            "text": "For very near unto thee is the word, in thy mouth, and in thy heart--to do it."
        },
        {
            "chapter": 30,
            "verse": 15,
            "name": "Deuteronomy 30:15",
            "text": "`See, I have set before thee to-day life and good, and death and evil,"
        },
        {
            "chapter": 30,
            "verse": 16,
            "name": "Deuteronomy 30:16",
            "text": "in that I am commanding thee to-day to love Jehovah thy God, to walk in His ways, and to keep His commands, and His statutes, and His judgments; and thou hast lived and multiplied, and Jehovah thy God hath blessed thee in the land whither thou art going in to possess it."
        },
        {
            "chapter": 30,
            "verse": 17,
            "name": "Deuteronomy 30:17",
            "text": "`And if thy heart doth turn, and thou dost not hearken, and hast been driven away, and hast bowed thyself to other gods, and served them,"
        },
        {
            "chapter": 30,
            "verse": 18,
            "name": "Deuteronomy 30:18",
            "text": "I have declared to you this day, that ye do certainly perish, ye do not prolong days on the ground which thou art passing over the Jordan to go in thither to possess it."
        },
        {
            "chapter": 30,
            "verse": 19,
            "name": "Deuteronomy 30:19",
            "text": "`I have caused to testify against you to-day the heavens and the earth; life and death I have set before thee, the blessing and the reviling; and thou hast fixed on life, so that thou dost live, thou and thy seed,"
        },
        {
            "chapter": 30,
            "verse": 20,
            "name": "Deuteronomy 30:20",
            "text": "to love Jehovah thy God, to hearken to His voice, and to cleave to Him (for He <FI>is<Fi> thy life, and the length of thy days), to dwell on the ground which Jehovah hath sworn to thy fathers, to Abraham, to Isaac, and to Jacob, to give to them.'"
        }
    ]
}