{
    "translation": "New English Translation text only with footnote markers",
    "abbreviation": "nettext",
    "lang": "en",
    "language": "English",
    "direction": "LTR",
    "encoding": "UTF-8",
    "book_nr": 10,
    "book_name": "2 Samuel",
    "chapter": 17,
    "name": "2 Samuel 17",
    "verses": [
        {
            "chapter": 17,
            "verse": 1,
            "name": "2 Samuel 17:1",
            "text": "Ahithophel said to Absalom, \"Let me pick out twelve thousand men. Then I will go and pursue David this very night."
        },
        {
            "chapter": 17,
            "verse": 2,
            "name": "2 Samuel 17:2",
            "text": "When I catch up with him he will be exhausted and worn out. I will rout him, and the entire army that is with him will flee. I will kill only the king"
        },
        {
            "chapter": 17,
            "verse": 3,
            "name": "2 Samuel 17:3",
            "text": "and will bring the entire army back to you. In exchange for the life of the man you are seeking, you will get back everyone. The entire army will return unharmed.\" "
        },
        {
            "chapter": 17,
            "verse": 4,
            "name": "2 Samuel 17:4",
            "text": "This seemed like a good idea to Absalom and to all the leaders of Israel."
        },
        {
            "chapter": 17,
            "verse": 5,
            "name": "2 Samuel 17:5",
            "text": "But Absalom said, \"Call for Hushai the Arkite, and let's hear what he has to say.\""
        },
        {
            "chapter": 17,
            "verse": 6,
            "name": "2 Samuel 17:6",
            "text": "So Hushai came to Absalom. Absalom said to him, \"Here is what Ahithophel has advised. Should we follow his advice? If not, what would you recommend?\""
        },
        {
            "chapter": 17,
            "verse": 7,
            "name": "2 Samuel 17:7",
            "text": "Hushai replied to Absalom, \"Ahithophel's advice is not sound this time.\""
        },
        {
            "chapter": 17,
            "verse": 8,
            "name": "2 Samuel 17:8",
            "text": "Hushai went on to say, \"You know your father and his men - they are soldiers and are as dangerous as a bear out in the wild that has been robbed of her cubs. Your father is an experienced soldier; he will not stay overnight with the army."
        },
        {
            "chapter": 17,
            "verse": 9,
            "name": "2 Samuel 17:9",
            "text": "At this very moment he is hiding out in one of the caves or in some other similar place. If it should turn out that he attacks our troops first, whoever hears about it will say, 'Absalom's army has been slaughtered!'"
        },
        {
            "chapter": 17,
            "verse": 10,
            "name": "2 Samuel 17:10",
            "text": "If that happens even the bravest soldier - one who is lion-hearted - will virtually melt away. For all Israel knows that your father is a warrior and that those who are with him are brave."
        },
        {
            "chapter": 17,
            "verse": 11,
            "name": "2 Samuel 17:11",
            "text": "My advice therefore is this: Let all Israel from Dan to Beer Sheba - in number like the sand by the sea! - be mustered to you, and you lead them personally into battle."
        },
        {
            "chapter": 17,
            "verse": 12,
            "name": "2 Samuel 17:12",
            "text": "We will come against him wherever he happens to be found. We will descend on him like the dew falls on the ground. Neither he nor any of the men who are with him will be spared alive - not one of them!"
        },
        {
            "chapter": 17,
            "verse": 13,
            "name": "2 Samuel 17:13",
            "text": "If he regroups in a city, all Israel will take up ropes to that city and drag it down to the valley, so that not a single pebble will be left there!\""
        },
        {
            "chapter": 17,
            "verse": 14,
            "name": "2 Samuel 17:14",
            "text": "Then Absalom and all the men of Israel said, \"The advice of Hushai the Arkite sounds better than the advice of Ahithophel.\" Now the LORD had decided to frustrate the sound advice of Ahithophel, so that the LORD could bring disaster on Absalom."
        },
        {
            "chapter": 17,
            "verse": 15,
            "name": "2 Samuel 17:15",
            "text": "Then Hushai reported to Zadok and Abiathar the priests, \"Here is what Ahithophel has advised Absalom and the leaders of Israel to do, and here is what I have advised."
        },
        {
            "chapter": 17,
            "verse": 16,
            "name": "2 Samuel 17:16",
            "text": "Now send word quickly to David and warn him, \"Don't spend the night at the fords of the desert tonight. Instead, be sure you cross over, or else the king and everyone who is with him may be overwhelmed.\" "
        },
        {
            "chapter": 17,
            "verse": 17,
            "name": "2 Samuel 17:17",
            "text": "Now Jonathan and Ahimaaz were staying in En Rogel. A female servant would go and inform them, and they would then go and inform King David. It was not advisable for them to be seen going into the city."
        },
        {
            "chapter": 17,
            "verse": 18,
            "name": "2 Samuel 17:18",
            "text": "But a young man saw them on one occasion and informed Absalom. So the two of them quickly departed and went to the house of a man in Bahurim. There was a well in his courtyard, and they got down in it."
        },
        {
            "chapter": 17,
            "verse": 19,
            "name": "2 Samuel 17:19",
            "text": "His wife then took the covering and spread it over the top of the well and scattered some grain over it. No one was aware of what she had done."
        },
        {
            "chapter": 17,
            "verse": 20,
            "name": "2 Samuel 17:20",
            "text": "When the servants of Absalom approached the woman at her home, they asked, \"Where are Ahimaaz and Jonathan?\" The woman replied to them, \"They crossed over the stream.\" Absalom's men searched but did not find them, so they returned to Jerusalem. "
        },
        {
            "chapter": 17,
            "verse": 21,
            "name": "2 Samuel 17:21",
            "text": "After the men had left, Ahimaaz and Jonathan climbed out of the well. Then they left and informed King David. They advised David, \"Get up and cross the stream quickly, for Ahithophel has devised a plan to catch you.\""
        },
        {
            "chapter": 17,
            "verse": 22,
            "name": "2 Samuel 17:22",
            "text": "So David and all the people who were with him got up and crossed the Jordan River. By dawn there was not one person left who had not crossed the Jordan."
        },
        {
            "chapter": 17,
            "verse": 23,
            "name": "2 Samuel 17:23",
            "text": "When Ahithophel realized that his advice had not been followed, he saddled his donkey and returned to his house in his hometown. After setting his household in order, he hanged himself. So he died and was buried in the grave of his father."
        },
        {
            "chapter": 17,
            "verse": 24,
            "name": "2 Samuel 17:24",
            "text": "Meanwhile David had gone to Mahanaim, while Absalom and all the men of Israel had crossed the Jordan River."
        },
        {
            "chapter": 17,
            "verse": 25,
            "name": "2 Samuel 17:25",
            "text": "Absalom had made Amasa general in command of the army in place of Joab. (Now Amasa was the son of an Israelite man named Jether, who had married Abigail the daughter of Nahash and sister of Zeruiah, Joab's mother.)"
        },
        {
            "chapter": 17,
            "verse": 26,
            "name": "2 Samuel 17:26",
            "text": "The army of Israel and Absalom camped in the land of Gilead."
        },
        {
            "chapter": 17,
            "verse": 27,
            "name": "2 Samuel 17:27",
            "text": "When David came to Mahanaim, Shobi the son of Nahash from Rabbah of the Ammonites, Makir the son of Ammiel from Lo Debar, and Barzillai the Gileadite from Rogelim"
        },
        {
            "chapter": 17,
            "verse": 28,
            "name": "2 Samuel 17:28",
            "text": "brought bedding, basins, and pottery utensils. They also brought food for David and all who were with him, including wheat, barley, flour, roasted grain, beans, lentils,"
        },
        {
            "chapter": 17,
            "verse": 29,
            "name": "2 Samuel 17:29",
            "text": "honey, curds, flocks, and cheese. For they said, \"The people are no doubt hungry, tired, and thirsty there in the desert.\"  </div>"
        }
    ]
}