{
    "translation": "French Bible Bovet Bonnet (1900)",
    "abbreviation": "frebbb",
    "lang": "fr",
    "language": "French",
    "direction": "LTR",
    "encoding": "UTF-8",
    "book_nr": 16,
    "book_name": "Nehemiah",
    "chapter": 3,
    "name": "Nehemiah 3",
    "verses": [
        {
            "chapter": 3,
            "verse": 1,
            "name": "Nehemiah 3:1",
            "text": "Et Eliasib, le grand sacrificateur, se leva, ainsi que ses fr\u00e8res, les sacrificateurs, et ils b\u00e2tirent la porte des Brebis. Ils la consacr\u00e8rent et ils en pos\u00e8rent les battants, et [ils b\u00e2tirent] jusqu'\u00e0 la tour de M\u00e9a, qu'ils consacr\u00e8rent, [et] jusqu'\u00e0 la tour de Hanan\u00e9el."
        },
        {
            "chapter": 3,
            "verse": 2,
            "name": "Nehemiah 3:2",
            "text": "Et \u00e0 c\u00f4t\u00e9 de lui b\u00e2tirent les hommes de J\u00e9richo, et \u00e0 c\u00f4t\u00e9, Zaccur, fils d'Imri."
        },
        {
            "chapter": 3,
            "verse": 3,
            "name": "Nehemiah 3:3",
            "text": "Et la porte des Poissons fut b\u00e2tie par les fils de S\u00e9naa\u00a0; ils en firent la charpente et en pos\u00e8rent les battants, les verrous et les barres."
        },
        {
            "chapter": 3,
            "verse": 4,
            "name": "Nehemiah 3:4",
            "text": "Et \u00e0 c\u00f4t\u00e9 d'eux r\u00e9para M\u00e9r\u00e9moth, fils d'Urie, fils de Kots\u00a0; et \u00e0 c\u00f4t\u00e9 d'eux r\u00e9para M\u00e9sullam, fils de Barachie, fils de M\u00e9s\u00e9zab\u00e9el\u00a0; et \u00e0 c\u00f4t\u00e9 d'eux r\u00e9para Tsadok, fils de Baana."
        },
        {
            "chapter": 3,
            "verse": 5,
            "name": "Nehemiah 3:5",
            "text": "Et \u00e0 c\u00f4t\u00e9 d'eux r\u00e9par\u00e8rent les Th\u00e9ko\u00eftes, dont les principaux ne pli\u00e8rent pas leur cou au service de leur Seigneur."
        },
        {
            "chapter": 3,
            "verse": 6,
            "name": "Nehemiah 3:6",
            "text": "Et la porte de la vieille [ville] fut r\u00e9par\u00e9e par Jojada, fils de Pas\u00e9ach, et M\u00e9sullam, fils de B\u00e9sodia\u00a0; ils en firent la charpente et en pos\u00e8rent les battants, les verrous et les barres."
        },
        {
            "chapter": 3,
            "verse": 7,
            "name": "Nehemiah 3:7",
            "text": "Et \u00e0 c\u00f4t\u00e9 d'eux r\u00e9par\u00e8rent M\u00e9latia, le Gabaonite, et Jadon, le M\u00e9ronothite, les hommes de Gabaon et de Mitspa, pr\u00e8s du si\u00e8ge du gouverneur d'au-del\u00e0 du fleuve."
        },
        {
            "chapter": 3,
            "verse": 8,
            "name": "Nehemiah 3:8",
            "text": "A c\u00f4t\u00e9, r\u00e9para Uzziel, fils de Harha\u00efa, [d'entre] les orf\u00e8vres\u00a0; et \u00e0 c\u00f4t\u00e9 de lui r\u00e9para Hanania, des parfumeurs. Ils laiss\u00e8rent J\u00e9rusalem jusqu'\u00e0 la muraille large."
        },
        {
            "chapter": 3,
            "verse": 9,
            "name": "Nehemiah 3:9",
            "text": "Et \u00e0 c\u00f4t\u00e9 d'eux r\u00e9para R\u00e9pha\u00efa, fils de Hur, chef de la moiti\u00e9 du district de J\u00e9rusalem."
        },
        {
            "chapter": 3,
            "verse": 10,
            "name": "Nehemiah 3:10",
            "text": "Et \u00e0 c\u00f4t\u00e9 d'eux r\u00e9para J\u00e9da\u00efa, fils de Harumaph, vis-\u00e0-vis de sa maison\u00a0; et \u00e0 c\u00f4t\u00e9 de lui r\u00e9para Hattusch, fils de Hasab\u00e9nia."
        },
        {
            "chapter": 3,
            "verse": 11,
            "name": "Nehemiah 3:11",
            "text": "Une seconde portion de muraille, de m\u00eame que la tour des Fours, furent r\u00e9par\u00e9es par Malkija, fils de Harim, et Hassub, fils de Pahath-Moab."
        },
        {
            "chapter": 3,
            "verse": 12,
            "name": "Nehemiah 3:12",
            "text": "Et \u00e0 c\u00f4t\u00e9 r\u00e9para avec ses filles Sallum, fils de Lohesch, chef de la moiti\u00e9 du district de J\u00e9rusalem."
        },
        {
            "chapter": 3,
            "verse": 13,
            "name": "Nehemiah 3:13",
            "text": "La porte de la Vall\u00e9e fut r\u00e9par\u00e9e par Hanun et par les habitants de Zanoah. Ils la reb\u00e2tirent et en pos\u00e8rent les battants, les verrous et les barres\u00a0; [ils r\u00e9par\u00e8rent] aussi mille coud\u00e9es de muraille jusqu'\u00e0 la porte du Fumier."
        },
        {
            "chapter": 3,
            "verse": 14,
            "name": "Nehemiah 3:14",
            "text": "Et la porte du Fumier fut r\u00e9par\u00e9e par Malkija, fils de R\u00e9cab, chef du district de Beth-Hakk\u00e9rem. Il la b\u00e2tit et il en posa les battants, les verrous et les barres."
        },
        {
            "chapter": 3,
            "verse": 15,
            "name": "Nehemiah 3:15",
            "text": "Et la porte de la Source fut r\u00e9par\u00e9e par Sallun, fils de Col-Hoz\u00e9, chef du district de Mitspa. Il la b\u00e2tit et la couvrit et il en posa les battants, les verrous et les barres\u00a0; [il fit] aussi la muraille de l'\u00e9tang de Silo\u00e9, pr\u00e8s du jardin du roi, et jusqu'aux degr\u00e9s qui descendent de la cit\u00e9 de David."
        },
        {
            "chapter": 3,
            "verse": 16,
            "name": "Nehemiah 3:16",
            "text": "Apr\u00e8s lui r\u00e9para N\u00e9h\u00e9mie, fils de Hazebuk, chef de la moiti\u00e9 du district de Beth-Tsur, jusque vis-\u00e0-vis des s\u00e9pulcres de David et jusqu'\u00e0 l'\u00e9tang artificiel et jusqu'\u00e0 la maison des vaillants hommes."
        },
        {
            "chapter": 3,
            "verse": 17,
            "name": "Nehemiah 3:17",
            "text": "Apr\u00e8s lui r\u00e9par\u00e8rent les L\u00e9vites, R\u00e9hum, fils de Bani\u00a0; \u00e0 c\u00f4t\u00e9 de lui r\u00e9para pour son district Hasabia, chef de la moiti\u00e9 du district de K\u00e9ila."
        },
        {
            "chapter": 3,
            "verse": 18,
            "name": "Nehemiah 3:18",
            "text": "Apr\u00e8s lui r\u00e9par\u00e8rent leurs fr\u00e8res, Bavva\u00ef, fils de H\u00e9nadad, chef de la moiti\u00e9 du district de K\u00e9ila."
        },
        {
            "chapter": 3,
            "verse": 19,
            "name": "Nehemiah 3:19",
            "text": "Et \u00e0 c\u00f4t\u00e9 de lui Ezer, fils de Josu\u00e9, chef de Mitspa, r\u00e9para une seconde portion de la muraille, vis-\u00e0-vis de la mont\u00e9e de l'arsenal, au coin."
        },
        {
            "chapter": 3,
            "verse": 20,
            "name": "Nehemiah 3:20",
            "text": "Apr\u00e8s lui Baruc, fils de Zabbai, r\u00e9para avec ardeur une seconde portion, depuis l'angle jusqu'\u00e0 la porte de la maison d'Eliasib, le grand sacrificateur."
        },
        {
            "chapter": 3,
            "verse": 21,
            "name": "Nehemiah 3:21",
            "text": "Apr\u00e8s lui, M\u00e9r\u00e9moth, fils d'Urie, fils de Kots, r\u00e9para une seconde portion, depuis la porte de la maison d'Eliasib jusqu'\u00e0 l'extr\u00e9mit\u00e9 de la maison d'Eliasib."
        },
        {
            "chapter": 3,
            "verse": 22,
            "name": "Nehemiah 3:22",
            "text": "Et apr\u00e8s lui r\u00e9par\u00e8rent les sacrificateurs habitant la banlieue."
        },
        {
            "chapter": 3,
            "verse": 23,
            "name": "Nehemiah 3:23",
            "text": "Apr\u00e8s lui r\u00e9par\u00e8rent devant leur maison Benjamin et Haschub\u00a0; apr\u00e8s lui r\u00e9para \u00e0 c\u00f4t\u00e9 de sa maison Azaria, fils de Maas\u00e9ia, fils d'Anania."
        },
        {
            "chapter": 3,
            "verse": 24,
            "name": "Nehemiah 3:24",
            "text": "Apr\u00e8s lui Binnui, fils de H\u00e9nadad, r\u00e9para une seconde portion de la muraille, depuis la maison d'Azaria jusqu'au coin et jusqu'\u00e0 l'angle."
        },
        {
            "chapter": 3,
            "verse": 25,
            "name": "Nehemiah 3:25",
            "text": "Palal, fils d'Uza\u00ef, [r\u00e9para] vis-\u00e0-vis du coin et de la tour sup\u00e9rieure qui est en saillie de la maison du roi et attenante \u00e0 la cour de la prison. Apr\u00e8s lui, P\u00e9da\u00efa, fils de Par\u00e9os."
        },
        {
            "chapter": 3,
            "verse": 26,
            "name": "Nehemiah 3:26",
            "text": "Or les N\u00e9thiniens habitaient sur Ophel jusque vis-\u00e0-vis de la porte des Eaux \u00e0 l'orient et de la tour en saillie."
        },
        {
            "chapter": 3,
            "verse": 27,
            "name": "Nehemiah 3:27",
            "text": "Apr\u00e8s lui les Th\u00e9ko\u00eftes r\u00e9par\u00e8rent une seconde portion, vis-\u00e0-vis de la grande tour en saillie, et jusqu'\u00e0 la muraille d'Ophel."
        },
        {
            "chapter": 3,
            "verse": 28,
            "name": "Nehemiah 3:28",
            "text": "Au-dessus de la porte des Chevaux, les sacrificateurs r\u00e9par\u00e8rent chacun devant sa maison."
        },
        {
            "chapter": 3,
            "verse": 29,
            "name": "Nehemiah 3:29",
            "text": "A la suite Tsadok, fils d'Immer, r\u00e9para devant sa maison, et apr\u00e8s lui r\u00e9para S\u00e9ma\u00efa, fils de S\u00e9cania, gardien de la porte orientale."
        },
        {
            "chapter": 3,
            "verse": 30,
            "name": "Nehemiah 3:30",
            "text": "Apr\u00e8s moi Hanania, fils de S\u00e9l\u00e9mia, et Hanun, le sixi\u00e8me fils de Tsalaph, r\u00e9par\u00e8rent une seconde portion. Apr\u00e8s lui Al\u00e9sullam, fils de Barachie, r\u00e9para vis-\u00e0-vis de sa chambre."
        },
        {
            "chapter": 3,
            "verse": 31,
            "name": "Nehemiah 3:31",
            "text": "Apr\u00e8s moi, Malkija, d'entre les orf\u00e8vres, r\u00e9para jusqu'\u00e0 la maison des N\u00e9thiniens et des marchands, vis-\u00e0-vis de la porte de Miphkad et jusqu'\u00e0 la mont\u00e9e du coin."
        },
        {
            "chapter": 3,
            "verse": 32,
            "name": "Nehemiah 3:32",
            "text": "Et les orf\u00e8vres et les marchands r\u00e9par\u00e8rent la muraille, entre la mont\u00e9e du coin et la porte des Brebis. "
        }
    ]
}