{
    "translation": "De 1911 Biblia Sagrada Traduzida em Portuguez Por Jo\u00e3o Ferreeira D'Almeida",
    "abbreviation": "poralmeida1911",
    "lang": "pt",
    "language": "Portuguese",
    "direction": "LTR",
    "encoding": "UTF-8",
    "book_nr": 41,
    "book_name": "Mark",
    "chapter": 3,
    "name": "Mark 3",
    "verses": [
        {
            "chapter": 3,
            "verse": 1,
            "name": "Mark 3:1",
            "text": "E outra vez entrou na synagoga, e estava ali um homem que tinha uma das m\u00e3os mirrada."
        },
        {
            "chapter": 3,
            "verse": 2,
            "name": "Mark 3:2",
            "text": "E estavam observando-o se curaria no sabbado, para o accusarem."
        },
        {
            "chapter": 3,
            "verse": 3,
            "name": "Mark 3:3",
            "text": "E disse ao homem que tinha a m\u00e3o secca: Levanta-te para o meio."
        },
        {
            "chapter": 3,
            "verse": 4,
            "name": "Mark 3:4",
            "text": "E disse-lhes: \u00c9 licito no sabbado fazer bem, ou fazer mal? salvar a vida, ou matar? E elles calavam-se."
        },
        {
            "chapter": 3,
            "verse": 5,
            "name": "Mark 3:5",
            "text": "E, olhando para elles em redor com indigna\u00e7\u00e3o, condoendo-se da dureza do seu cora\u00e7\u00e3o, disse ao homem: Estende a tua m\u00e3o. E elle a estendeu, e foi-lhe restituida a sua m\u00e3o, s\u00e3 como a outra."
        },
        {
            "chapter": 3,
            "verse": 6,
            "name": "Mark 3:6",
            "text": "E, tendo saido os phariseos, tomaram logo conselho com os herodianos contra elle, como o matariam."
        },
        {
            "chapter": 3,
            "verse": 7,
            "name": "Mark 3:7",
            "text": "E retirou-se Jesus com os seus discipulos para o mar, e seguia-o uma grande multid\u00e3o da Galilea e da Judea,"
        },
        {
            "chapter": 3,
            "verse": 8,
            "name": "Mark 3:8",
            "text": "E de Jerusalem, e da Idumea, e d'al\u00e9m do Jord\u00e3o; e de perto de Tyro e Sidon uma grande multid\u00e3o, ouvindo qu\u00e3o grandes coisas fazia, veem ter com elle."
        },
        {
            "chapter": 3,
            "verse": 9,
            "name": "Mark 3:9",
            "text": "E disse aos seus discipulos que lhe tivessem sempre prompto um barquinho junto d'elle, por causa da multid\u00e3o, para que o n\u00e3o opprimisse,"
        },
        {
            "chapter": 3,
            "verse": 10,
            "name": "Mark 3:10",
            "text": "Porque tinha curado a muitos, de tal maneira que todos quantos tinham algum mal se arrojavam sobre elle, para o tocarem."
        },
        {
            "chapter": 3,
            "verse": 11,
            "name": "Mark 3:11",
            "text": "E os espiritos immundos, vendo-o, prostravam-se diante d'elle, e clamavam, dizendo: Tu \u00e9s o Filho de Deus."
        },
        {
            "chapter": 3,
            "verse": 12,
            "name": "Mark 3:12",
            "text": "E elle os amea\u00e7ava muito, para que n\u00e3o o manifestassem."
        },
        {
            "chapter": 3,
            "verse": 13,
            "name": "Mark 3:13",
            "text": "E subiu ao monte, e chamou para si os que elle quiz; e vieram a elle."
        },
        {
            "chapter": 3,
            "verse": 14,
            "name": "Mark 3:14",
            "text": "E ordenou aos doze que estivessem com elle, para que os mandasse a pr\u00e9gar,"
        },
        {
            "chapter": 3,
            "verse": 15,
            "name": "Mark 3:15",
            "text": "E para que tivessem o poder de curar as enfermidades e expulsar os demonios:"
        },
        {
            "chapter": 3,
            "verse": 16,
            "name": "Mark 3:16",
            "text": "A Sim\u00e3o, a quem poz o nome de Pedro,"
        },
        {
            "chapter": 3,
            "verse": 17,
            "name": "Mark 3:17",
            "text": "E a Thiago, filho de Zebedeo, e a Jo\u00e3o, irm\u00e3o de Thiago, aos quaes poz o nome de Boanerges, que significa: Filhos do trov\u00e3o;"
        },
        {
            "chapter": 3,
            "verse": 18,
            "name": "Mark 3:18",
            "text": "E a Andr\u00e9, e a Philippe, e a Bartholomeo, e a Mattheus, e a Thom\u00e9, e a Thiago, filho de Alpheo, e a Thadeo, e a Sim\u00e3o, o cananeo,"
        },
        {
            "chapter": 3,
            "verse": 19,
            "name": "Mark 3:19",
            "text": "E a Judas Iscariotes, o que o entregou."
        },
        {
            "chapter": 3,
            "verse": 20,
            "name": "Mark 3:20",
            "text": "E foram para casa. E ajuntou-se outra vez a multid\u00e3o, de tal maneira que nem sequer podiam comer p\u00e3o."
        },
        {
            "chapter": 3,
            "verse": 21,
            "name": "Mark 3:21",
            "text": "E, quando os seus ouviram isto, sairam para o prender; porque diziam: Est\u00e1 f\u00f3ra de si."
        },
        {
            "chapter": 3,
            "verse": 22,
            "name": "Mark 3:22",
            "text": "E os escribas, que tinham descido de Jerusalem, diziam: Tem Beelzebu, e pelo principe dos demonios expulsa os demonios."
        },
        {
            "chapter": 3,
            "verse": 23,
            "name": "Mark 3:23",
            "text": "E, chamando-os a si, disse-lhes por parabolas: Como pode Satanaz expulsar Satanaz?"
        },
        {
            "chapter": 3,
            "verse": 24,
            "name": "Mark 3:24",
            "text": "E, se um reino se dividir contra si mesmo, tal reino n\u00e3o pode subsistir."
        },
        {
            "chapter": 3,
            "verse": 25,
            "name": "Mark 3:25",
            "text": "E, se uma casa se dividir contra si mesma, tal casa n\u00e3o pode subsistir."
        },
        {
            "chapter": 3,
            "verse": 26,
            "name": "Mark 3:26",
            "text": "E, se Satanaz se levantar contra si mesmo, e f\u00f4r dividido, n\u00e3o pode subsistir; antes tem fim."
        },
        {
            "chapter": 3,
            "verse": 27,
            "name": "Mark 3:27",
            "text": "Ninguem pode roubar as alfaias do valente, entrando-lhe em sua casa, se primeiro n\u00e3o manietar o valente; e ent\u00e3o roubar\u00e1 a sua casa."
        },
        {
            "chapter": 3,
            "verse": 28,
            "name": "Mark 3:28",
            "text": "Na verdade vos digo que todos os peccados ser\u00e3o perdoados aos filhos dos homens, e toda a sorte de blasphemias, com que blasphemarem;"
        },
        {
            "chapter": 3,
            "verse": 29,
            "name": "Mark 3:29",
            "text": "Qualquer, por\u00e9m, que blasphemar contra o Espirito Sancto, nunca obter\u00e1 perd\u00e3o para sempre, mas ser\u00e1 r\u00e9u do eterno juizo."
        },
        {
            "chapter": 3,
            "verse": 30,
            "name": "Mark 3:30",
            "text": "(Porque diziam: Tem espirito immundo.)"
        },
        {
            "chapter": 3,
            "verse": 31,
            "name": "Mark 3:31",
            "text": "Chegaram ent\u00e3o seus irm\u00e3os e sua m\u00e3e, e, estando de f\u00f3ra, enviaram a elle, chamando-o."
        },
        {
            "chapter": 3,
            "verse": 32,
            "name": "Mark 3:32",
            "text": "E a multid\u00e3o estava assentada ao redor d'elle, e disseram-lhe: Eis que tua m\u00e3e e teus irm\u00e3os te buscam l\u00e1 f\u00f3ra."
        },
        {
            "chapter": 3,
            "verse": 33,
            "name": "Mark 3:33",
            "text": "E elle lhes respondeu, dizendo: Quem \u00e9 minha m\u00e3e e meus irm\u00e3os?"
        },
        {
            "chapter": 3,
            "verse": 34,
            "name": "Mark 3:34",
            "text": "E, olhando em redor para os que estavam assentados junto d'elle, disse: Eis aqui minha m\u00e3e e meus irm\u00e3os."
        },
        {
            "chapter": 3,
            "verse": 35,
            "name": "Mark 3:35",
            "text": "Porque qualquer que fizer a vontade de Deus esse \u00e9 meu irm\u00e3o, e minha irm\u00e3, e minha m\u00e3e. "
        }
    ]
}