{
    "translation": "New Heart English Bible",
    "abbreviation": "nheb",
    "lang": "en",
    "language": "English",
    "direction": "LTR",
    "encoding": "UTF-8",
    "book_nr": 42,
    "book_name": "Luke",
    "chapter": 18,
    "name": "Luke 18",
    "verses": [
        {
            "chapter": 18,
            "verse": 1,
            "name": "Luke 18:1",
            "text": "He also spoke a parable to them that they must always pray, and not give up,"
        },
        {
            "chapter": 18,
            "verse": 2,
            "name": "Luke 18:2",
            "text": "saying, \"There was a judge in a certain city who did not fear God, and did not respect man."
        },
        {
            "chapter": 18,
            "verse": 3,
            "name": "Luke 18:3",
            "text": "A widow was in that city, and she often came to him, saying, 'Defend me from my adversary!'"
        },
        {
            "chapter": 18,
            "verse": 4,
            "name": "Luke 18:4",
            "text": "He would not for a while, but afterward he said to himself, 'Though I neither fear God, nor respect man,"
        },
        {
            "chapter": 18,
            "verse": 5,
            "name": "Luke 18:5",
            "text": "yet because this widow bothers me, I will defend her, or else she will wear me out by her continual coming.'\" "
        },
        {
            "chapter": 18,
            "verse": 6,
            "name": "Luke 18:6",
            "text": "The Lord said, \"Listen to what the unrighteous judge says."
        },
        {
            "chapter": 18,
            "verse": 7,
            "name": "Luke 18:7",
            "text": "Won't God avenge his chosen ones, who are crying out to him day and night, and yet he exercises patience with them?"
        },
        {
            "chapter": 18,
            "verse": 8,
            "name": "Luke 18:8",
            "text": "I tell you that he will avenge them quickly. Nevertheless, when the Son of Man comes, will he find faith on the earth?\" "
        },
        {
            "chapter": 18,
            "verse": 9,
            "name": "Luke 18:9",
            "text": "He spoke also this parable to certain people who were convinced of their own righteousness, and who despised all others."
        },
        {
            "chapter": 18,
            "verse": 10,
            "name": "Luke 18:10",
            "text": "\"Two men went up into the temple to pray; one was a Pharisee, and the other was a tax collector."
        },
        {
            "chapter": 18,
            "verse": 11,
            "name": "Luke 18:11",
            "text": "The Pharisee stood and prayed to himself like this: 'God, I thank you, that I am not like the rest of men, extortioners, unrighteous, adulterers, or even like this tax collector."
        },
        {
            "chapter": 18,
            "verse": 12,
            "name": "Luke 18:12",
            "text": "I fast twice a week. I give tithes of all that I get.'"
        },
        {
            "chapter": 18,
            "verse": 13,
            "name": "Luke 18:13",
            "text": "But the tax collector, standing far away, would not even lift up his eyes to heaven, but beat his breast, saying, 'God, be merciful to me, a sinner!'"
        },
        {
            "chapter": 18,
            "verse": 14,
            "name": "Luke 18:14",
            "text": "I tell you, this man went down to his house justified rather than the other; for everyone who exalts himself will be humbled, but he who humbles himself will be exalted.\" "
        },
        {
            "chapter": 18,
            "verse": 15,
            "name": "Luke 18:15",
            "text": "Now they were also bringing their babies to him, that he might touch them. But when the disciples saw it, they rebuked them."
        },
        {
            "chapter": 18,
            "verse": 16,
            "name": "Luke 18:16",
            "text": "Jesus summoned them, saying, \"Allow the little children to come to me, and do not hinder them, for the Kingdom of God belongs to such as these."
        },
        {
            "chapter": 18,
            "verse": 17,
            "name": "Luke 18:17",
            "text": "Truly, I tell you, whoever does not receive the Kingdom of God like a little child, he will in no way enter into it.\" "
        },
        {
            "chapter": 18,
            "verse": 18,
            "name": "Luke 18:18",
            "text": "A certain ruler asked him, saying, \"Good Teacher, what shall I do to inherit eternal life?\" "
        },
        {
            "chapter": 18,
            "verse": 19,
            "name": "Luke 18:19",
            "text": "Jesus asked him, \"Why do you call me good? No one is good, except one-God."
        },
        {
            "chapter": 18,
            "verse": 20,
            "name": "Luke 18:20",
            "text": "You know the commandments: 'Do not commit adultery,' 'Do not murder,' 'Do not steal,' 'Do not give false testimony,' 'Honor your father and your mother.'\" "
        },
        {
            "chapter": 18,
            "verse": 21,
            "name": "Luke 18:21",
            "text": "He said, \"I have observed all these things from my youth up.\" "
        },
        {
            "chapter": 18,
            "verse": 22,
            "name": "Luke 18:22",
            "text": "When Jesus heard it, he said to him, \"You still lack one thing. Sell all that you have, and distribute it to the poor. You will have treasure in heaven. Come, follow me.\" "
        },
        {
            "chapter": 18,
            "verse": 23,
            "name": "Luke 18:23",
            "text": "But when he heard these things, he became very sad, for he was very rich. "
        },
        {
            "chapter": 18,
            "verse": 24,
            "name": "Luke 18:24",
            "text": "Jesus, seeing that he became very sad, said, \"How hard it is for those who have riches to enter into the Kingdom of God!"
        },
        {
            "chapter": 18,
            "verse": 25,
            "name": "Luke 18:25",
            "text": "For it is easier for a camel to enter in through a needle's eye, than for a rich man to enter into the Kingdom of God.\" "
        },
        {
            "chapter": 18,
            "verse": 26,
            "name": "Luke 18:26",
            "text": "Those who heard it said, \"Then who can be saved?\" "
        },
        {
            "chapter": 18,
            "verse": 27,
            "name": "Luke 18:27",
            "text": "But he said, \"The things which are impossible with men are possible with God.\" "
        },
        {
            "chapter": 18,
            "verse": 28,
            "name": "Luke 18:28",
            "text": "Peter said, \"Look, we have left our homes and followed you.\" "
        },
        {
            "chapter": 18,
            "verse": 29,
            "name": "Luke 18:29",
            "text": "He said to them, \"Truly I tell you, there is no one who has left house, or wife, or brothers, or parents, or children, for the Kingdom of God's sake,"
        },
        {
            "chapter": 18,
            "verse": 30,
            "name": "Luke 18:30",
            "text": "who will not receive many times more in this time, and in the world to come, eternal life.\" "
        },
        {
            "chapter": 18,
            "verse": 31,
            "name": "Luke 18:31",
            "text": "He took the twelve aside, and said to them, \"Behold, we are going up to Jerusalem, and all the things that are written through the prophets concerning the Son of Man will be completed."
        },
        {
            "chapter": 18,
            "verse": 32,
            "name": "Luke 18:32",
            "text": "For he will be delivered up to the Gentiles, will be mocked, treated shamefully, and spit on."
        },
        {
            "chapter": 18,
            "verse": 33,
            "name": "Luke 18:33",
            "text": "They will scourge and kill him. On the third day, he will rise again.\" "
        },
        {
            "chapter": 18,
            "verse": 34,
            "name": "Luke 18:34",
            "text": "They understood none of these things. This saying was hidden from them, and they did not understand the things that were said."
        },
        {
            "chapter": 18,
            "verse": 35,
            "name": "Luke 18:35",
            "text": "It happened, as he came near Jericho, a certain blind man sat by the road, begging."
        },
        {
            "chapter": 18,
            "verse": 36,
            "name": "Luke 18:36",
            "text": "Hearing a multitude going by, he asked what this meant."
        },
        {
            "chapter": 18,
            "verse": 37,
            "name": "Luke 18:37",
            "text": "They told him that Jesus of Nazareth was passing by."
        },
        {
            "chapter": 18,
            "verse": 38,
            "name": "Luke 18:38",
            "text": "He called out, \"Jesus, you son of David, have mercy on me!\""
        },
        {
            "chapter": 18,
            "verse": 39,
            "name": "Luke 18:39",
            "text": "Those who led the way rebuked him, that he should be quiet; but he shouted all the more, \"You son of David, have mercy on me!\" "
        },
        {
            "chapter": 18,
            "verse": 40,
            "name": "Luke 18:40",
            "text": "Standing still, Jesus commanded him to be brought to him. When he had come near, he asked him,"
        },
        {
            "chapter": 18,
            "verse": 41,
            "name": "Luke 18:41",
            "text": "\"What do you want me to do?\" He said, \"Lord, that I may see again.\" "
        },
        {
            "chapter": 18,
            "verse": 42,
            "name": "Luke 18:42",
            "text": "Jesus said to him, \"Receive your sight. Your faith has healed you.\" "
        },
        {
            "chapter": 18,
            "verse": 43,
            "name": "Luke 18:43",
            "text": "And immediately he received his sight, and followed him, glorifying God. All the people, when they saw it, praised God.  "
        }
    ]
}