{
    "translation": "Vulgata Clementina, Hetzenauer editore",
    "abbreviation": "vulghetzenauer",
    "lang": "la",
    "language": "Latin",
    "direction": "LTR",
    "encoding": "UTF-8",
    "book_nr": 1,
    "book_name": "Genesis",
    "chapter": 1,
    "name": "Genesis 1",
    "verses": [
        {
            "chapter": 1,
            "verse": 1,
            "name": "Genesis 1:1",
            "text": "In principio creavit Deus c\u00e6lum, et terram."
        },
        {
            "chapter": 1,
            "verse": 2,
            "name": "Genesis 1:2",
            "text": "Terra autem erat inanis et vacua, et tenebr\u00e6 erant super faciem abyssi: et Spiritus Dei ferebatur super aquas."
        },
        {
            "chapter": 1,
            "verse": 3,
            "name": "Genesis 1:3",
            "text": "Dixitque Deus: Fiat lux. Et facta est lux."
        },
        {
            "chapter": 1,
            "verse": 4,
            "name": "Genesis 1:4",
            "text": "Et vidit Deus lucem quod esset bona: et divisit lucem a tenebris."
        },
        {
            "chapter": 1,
            "verse": 5,
            "name": "Genesis 1:5",
            "text": "Appellavitque lucem Diem, et tenebras Noctem: factumque est vespere et mane, dies unus."
        },
        {
            "chapter": 1,
            "verse": 6,
            "name": "Genesis 1:6",
            "text": "Dixit quoque Deus: Fiat firmamentum in medio aquarum: et dividat aquas ab aquis."
        },
        {
            "chapter": 1,
            "verse": 7,
            "name": "Genesis 1:7",
            "text": "Et fecit Deus firmamentum, divisitque aquas, qu\u00e6 erant sub firmamento, ab his, qu\u00e6 erant super firmamentum. Et factum est ita."
        },
        {
            "chapter": 1,
            "verse": 8,
            "name": "Genesis 1:8",
            "text": "Vocavitque Deus firmamentum, C\u00e6lum: et factum est vespere et mane, dies secundus."
        },
        {
            "chapter": 1,
            "verse": 9,
            "name": "Genesis 1:9",
            "text": "Dixit vero Deus: Congregentur aqu\u00e6, qu\u00e6 sub c\u00e6lo sunt, in locum unum: et appareat arida. Et factum est ita."
        },
        {
            "chapter": 1,
            "verse": 10,
            "name": "Genesis 1:10",
            "text": "Et vocavit Deus aridam, Terram, congregationesque aquarum appellavit Maria. Et vidit Deus quod esset bonum."
        },
        {
            "chapter": 1,
            "verse": 11,
            "name": "Genesis 1:11",
            "text": "Et ait: Germinet terra herbam virentem, et facientem semen, et lignum pomiferum faciens fructum iuxta genus suum, cuius semen in semetipso sit super terram. Et factum est ita."
        },
        {
            "chapter": 1,
            "verse": 12,
            "name": "Genesis 1:12",
            "text": "Et protulit terra herbam virentem, et facientem semen iuxta genus suum, lignumque faciens fructum, et habens unumquodque sementem secundum speciem suam. Et vidit Deus quod esset bonum."
        },
        {
            "chapter": 1,
            "verse": 13,
            "name": "Genesis 1:13",
            "text": "Et factum est vespere et mane, dies tertius."
        },
        {
            "chapter": 1,
            "verse": 14,
            "name": "Genesis 1:14",
            "text": "Dixit autem Deus: Fiant luminaria in firmamento c\u00e6li, et dividant diem ac noctem, et sint in signa et tempora, et dies et annos:"
        },
        {
            "chapter": 1,
            "verse": 15,
            "name": "Genesis 1:15",
            "text": "ut luceant in firmamento c\u00e6li, et illuminent terram. Et factum est ita."
        },
        {
            "chapter": 1,
            "verse": 16,
            "name": "Genesis 1:16",
            "text": "Fecitque Deus duo luminaria magna: luminare maius, ut pr\u00e6esset diei: et luminare minus, ut pr\u00e6esset nocti: et stellas."
        },
        {
            "chapter": 1,
            "verse": 17,
            "name": "Genesis 1:17",
            "text": "Et posuit eas in firmamento c\u00e6li, ut lucerent super terram,"
        },
        {
            "chapter": 1,
            "verse": 18,
            "name": "Genesis 1:18",
            "text": "et pr\u00e6essent diei ac nocti, et dividerent lucem ac tenebras. Et vidit Deus quod esset bonum."
        },
        {
            "chapter": 1,
            "verse": 19,
            "name": "Genesis 1:19",
            "text": "Et factum est vespere et mane, dies quartus."
        },
        {
            "chapter": 1,
            "verse": 20,
            "name": "Genesis 1:20",
            "text": "Dixit etiam Deus: Producant aqu\u00e6 reptile anim\u00e6 viventis, et volatile super terram sub firmamento c\u00e6li."
        },
        {
            "chapter": 1,
            "verse": 21,
            "name": "Genesis 1:21",
            "text": "Creavitque Deus Cete grandia, et omnem animam viventem atque motabilem, quam produxerant aqu\u00e6 in species suas, et omne volatile secundum genus suum. Et vidit Deus quod esset bonum."
        },
        {
            "chapter": 1,
            "verse": 22,
            "name": "Genesis 1:22",
            "text": "Benedixitque eis, dicens: Crescite, et multiplicamini, et replete aquas maris: avesque multiplicentur super terram."
        },
        {
            "chapter": 1,
            "verse": 23,
            "name": "Genesis 1:23",
            "text": "Et factum est vespere et mane, dies quintus."
        },
        {
            "chapter": 1,
            "verse": 24,
            "name": "Genesis 1:24",
            "text": "Dixit quoque Deus: Producat terra animam viventem in genere suo, iumenta, et reptilia, et bestias terr\u00e6 secundum species suas. Factumque est ita."
        },
        {
            "chapter": 1,
            "verse": 25,
            "name": "Genesis 1:25",
            "text": "Et fecit Deus bestias terr\u00e6 iuxta species suas, et iumenta, et omne reptile terr\u00e6 in genere suo. Et vidit Deus quod esset bonum,"
        },
        {
            "chapter": 1,
            "verse": 26,
            "name": "Genesis 1:26",
            "text": "et ait: Faciamus Hominem ad imaginem, et similitudinem nostram: et pr\u00e6sit piscibus maris, et volatilibus c\u00e6li, et bestiis, univers\u00e6que terr\u00e6, omnique reptili, quod movetur in terra."
        },
        {
            "chapter": 1,
            "verse": 27,
            "name": "Genesis 1:27",
            "text": "Et creavit Deus hominem ad imaginem suam: ad imaginem Dei creavit illum, masculum et feminam creavit eos."
        },
        {
            "chapter": 1,
            "verse": 28,
            "name": "Genesis 1:28",
            "text": "Benedixitque illis Deus, et ait: Crescite et multiplicamini, et replete terram, et subiicite eam, et dominamini piscibus maris, et volatilibus c\u00e6li, et universis animantibus, qu\u00e6 moventur super terram."
        },
        {
            "chapter": 1,
            "verse": 29,
            "name": "Genesis 1:29",
            "text": "Dixitque Deus: Ecce dedi vobis omnem herbam afferentem semen super terram, et universa ligna qu\u00e6 habent in semetipsis sementem generis sui, ut sint vobis in escam:"
        },
        {
            "chapter": 1,
            "verse": 30,
            "name": "Genesis 1:30",
            "text": "et cunctis animantibus terr\u00e6, omnique volucri c\u00e6li, et universis qu\u00e6 moventur in terra, et in quibus est anima vivens, ut habeant ad vescendum. Et factum est ita."
        },
        {
            "chapter": 1,
            "verse": 31,
            "name": "Genesis 1:31",
            "text": "Viditque Deus cuncta qu\u00e6 fecerat: et erant valde bona. Et factum est vespere et mane, dies sextus. "
        }
    ]
}