{
    "translation": "Free version of New English Translation with limited notes",
    "abbreviation": "netfree",
    "lang": "en",
    "language": "English",
    "direction": "LTR",
    "encoding": "UTF-8",
    "book_nr": 2,
    "book_name": "Exodus",
    "chapter": 18,
    "name": "Exodus 18",
    "verses": [
        {
            "chapter": 18,
            "verse": 1,
            "name": "Exodus 18:1",
            "text": "  Jethro, the priest of Midian, Moses' father-in-law, heard about all that God had done for Moses and for his people Israel, that the LORD had brought Israel out of Egypt. "
        },
        {
            "chapter": 18,
            "verse": 2,
            "name": "Exodus 18:2",
            "text": "Jethro, Moses' father-in-law, took Moses' wife Zipporah after he had sent her back,"
        },
        {
            "chapter": 18,
            "verse": 3,
            "name": "Exodus 18:3",
            "text": "and her two sons, one of whom was named Gershom (for Moses had said, \"I have been a foreigner in a foreign land\"),"
        },
        {
            "chapter": 18,
            "verse": 4,
            "name": "Exodus 18:4",
            "text": "and the other Eliezer (for Moses had said, \"The God of my father has been my help and delivered me from the sword of Pharaoh\")."
        },
        {
            "chapter": 18,
            "verse": 5,
            "name": "Exodus 18:5",
            "text": "Jethro, Moses' father-in-law, together with Moses' sons and his wife, came to Moses in the desert where he was camping by the mountain of God."
        },
        {
            "chapter": 18,
            "verse": 6,
            "name": "Exodus 18:6",
            "text": "He said to Moses, \"I, your father-in-law Jethro, am coming to you, along with your wife and her two sons with her.\""
        },
        {
            "chapter": 18,
            "verse": 7,
            "name": "Exodus 18:7",
            "text": "Moses went out to meet his father-in-law and bowed down and kissed him; they each asked about the other's welfare, and then they went into the tent."
        },
        {
            "chapter": 18,
            "verse": 8,
            "name": "Exodus 18:8",
            "text": "Moses told his father-in-law all that the LORD had done to Pharaoh and to Egypt for Israel's sake, and all the hardship that had come on them along the way, and how the LORD had delivered them."
        },
        {
            "chapter": 18,
            "verse": 9,
            "name": "Exodus 18:9",
            "text": "Jethro rejoiced because of all the good that the LORD had done for Israel, whom he had delivered from the hand of Egypt."
        },
        {
            "chapter": 18,
            "verse": 10,
            "name": "Exodus 18:10",
            "text": "Jethro said, \"Blessed be the LORD who has delivered you from the hand of Egypt, and from the hand of Pharaoh, who has delivered the people from the Egyptians' control!"
        },
        {
            "chapter": 18,
            "verse": 11,
            "name": "Exodus 18:11",
            "text": "Now I know that the LORD is greater than all the gods, for in the thing in which they dealt proudly against them he has destroyed them.\""
        },
        {
            "chapter": 18,
            "verse": 12,
            "name": "Exodus 18:12",
            "text": "Then Jethro, Moses' father-in-law, brought a burnt offering and sacrifices for God, and Aaron and all the elders of Israel came to eat food with the father-in-law of Moses before God."
        },
        {
            "chapter": 18,
            "verse": 13,
            "name": "Exodus 18:13",
            "text": "On the next day Moses sat to judge the people, and the people stood around Moses from morning until evening."
        },
        {
            "chapter": 18,
            "verse": 14,
            "name": "Exodus 18:14",
            "text": "When Moses' father-in-law saw all that he was doing for the people, he said, \"What is this that you are doing for the people? Why are you sitting by yourself, and all the people stand around you from morning until evening?\""
        },
        {
            "chapter": 18,
            "verse": 15,
            "name": "Exodus 18:15",
            "text": "Moses said to his father-in-law, \"Because the people come to me to inquire of God."
        },
        {
            "chapter": 18,
            "verse": 16,
            "name": "Exodus 18:16",
            "text": "When they have a dispute, it comes to me and I decide between a man and his neighbor, and I make known the decrees of God and his laws.\" "
        },
        {
            "chapter": 18,
            "verse": 17,
            "name": "Exodus 18:17",
            "text": "Moses' father-in-law said to him, \"What you are doing is not good!"
        },
        {
            "chapter": 18,
            "verse": 18,
            "name": "Exodus 18:18",
            "text": "You will surely wear out, both you and these people who are with you, for this is too heavy a burden for you; you are not able to do it by yourself."
        },
        {
            "chapter": 18,
            "verse": 19,
            "name": "Exodus 18:19",
            "text": "Now listen to me, I will give you advice, and may God be with you: You be a representative for the people to God, and you bring their disputes to God;"
        },
        {
            "chapter": 18,
            "verse": 20,
            "name": "Exodus 18:20",
            "text": "warn them of the statutes and the laws, and make known to them the way in which they must walk and the work they must do."
        },
        {
            "chapter": 18,
            "verse": 21,
            "name": "Exodus 18:21",
            "text": "But you choose from the people capable men, God-fearing, men of truth, those who hate bribes, and put them over the people as rulers of thousands, rulers of hundreds, rulers of fifties, and rulers of tens."
        },
        {
            "chapter": 18,
            "verse": 22,
            "name": "Exodus 18:22",
            "text": "They will judge the people under normal circumstances, and every difficult case they will bring to you, but every small case they themselves will judge, so that you may make it easier for yourself, and they will bear the burden with you."
        },
        {
            "chapter": 18,
            "verse": 23,
            "name": "Exodus 18:23",
            "text": "If you do this thing, and God so commands you, then you will be able to endure, and all these people will be able to go home satisfied.\" "
        },
        {
            "chapter": 18,
            "verse": 24,
            "name": "Exodus 18:24",
            "text": "Moses listened to his father-in-law and did everything he had said."
        },
        {
            "chapter": 18,
            "verse": 25,
            "name": "Exodus 18:25",
            "text": "Moses chose capable men from all Israel, and he made them heads over the people, rulers of thousands, rulers of hundreds, rulers of fifties, and rulers of tens."
        },
        {
            "chapter": 18,
            "verse": 26,
            "name": "Exodus 18:26",
            "text": "They judged the people under normal circumstances; the difficult cases they would bring to Moses, but every small case they would judge themselves."
        },
        {
            "chapter": 18,
            "verse": 27,
            "name": "Exodus 18:27",
            "text": "Then Moses sent his father-in-law on his way, and so Jethro went to his own land.  </div>"
        }
    ]
}