{
    "translation": "Finnish Bible (1776)",
    "abbreviation": "finnish1776",
    "lang": "fi",
    "language": "Finnish",
    "direction": "LTR",
    "encoding": "",
    "book_nr": 4,
    "book_name": "Numbers",
    "chapter": 32,
    "name": "Numbers 32",
    "verses": [
        {
            "chapter": 32,
            "verse": 1,
            "name": "Numbers 32:1",
            "text": "Rubenin lapsilla oli sangen paljo karjaa, ja Gadin lapsilla oli my\u00f6s aivan suuri joukko karjaa, ja he n\u00e4kiv\u00e4t Jaeserin ja Gileadin maan, ett\u00e4 se olis sovelias karjan laiduin."
        },
        {
            "chapter": 32,
            "verse": 2,
            "name": "Numbers 32:2",
            "text": "Sent\u00e4hden tulivat Gadin lapset ja Rubenin lapset ja puhuivat Mosekselle, ja papille Eleatsarille, ja kansan p\u00e4\u00e4miehille, sanoen:"
        },
        {
            "chapter": 32,
            "verse": 3,
            "name": "Numbers 32:3",
            "text": "Atarot, Dibon, Jaeser, Nimra, Hesbon, Eleale, Sebam, Nebo ja Beon,"
        },
        {
            "chapter": 32,
            "verse": 4,
            "name": "Numbers 32:4",
            "text": "Se maa, jonka Herra on ly\u00f6nyt Israelin kansan edess\u00e4, on sovelias maa karjalle, ja meill\u00e4 sinun palvelioillas on karjaa."
        },
        {
            "chapter": 32,
            "verse": 5,
            "name": "Numbers 32:5",
            "text": "Ja he (viel\u00e4) sanoivat: jos me olemme armon l\u00f6yt\u00e4neet sinun edess\u00e4s, niin anna sinun palvelioilles t\u00e4m\u00e4 maa omaksi, ettes meid\u00e4n antaisi menn\u00e4 Jordanin ylitse."
        },
        {
            "chapter": 32,
            "verse": 6,
            "name": "Numbers 32:6",
            "text": "Moses sanoi Gadin ja Rubenin lapsille: pit\u00e4isk\u00f6 veljenne menem\u00e4n sotaan ja teid\u00e4n t\u00e4nne j\u00e4\u00e4m\u00e4n?"
        },
        {
            "chapter": 32,
            "verse": 7,
            "name": "Numbers 32:7",
            "text": "Miksi k\u00e4\u00e4nn\u00e4tte Israelin lasten syd\u00e4met, ettei heid\u00e4n pit\u00e4isi menem\u00e4n ylitse siihen maahan, jonka Herra heille antoi."
        },
        {
            "chapter": 32,
            "verse": 8,
            "name": "Numbers 32:8",
            "text": "Niin tekiv\u00e4t teid\u00e4n is\u00e4nnekin, koska min\u00e4 l\u00e4hetin heid\u00e4t KadesBarneasta katsomaan t\u00e4t\u00e4 maata,"
        },
        {
            "chapter": 32,
            "verse": 9,
            "name": "Numbers 32:9",
            "text": "Ja kuin he tulivat Eskolin ojalle ja n\u00e4kiv\u00e4t maan, k\u00e4\u00e4nsiv\u00e4t he Israelin lasten syd\u00e4men, niin ettei he siihen maahan tahtoneet menn\u00e4, jonka Herra heille tahtoi antaa."
        },
        {
            "chapter": 32,
            "verse": 10,
            "name": "Numbers 32:10",
            "text": "Ja Herran viha julmistui sin\u00e4 p\u00e4iv\u00e4n\u00e4 ja h\u00e4n vannoi, sanoen:"
        },
        {
            "chapter": 32,
            "verse": 11,
            "name": "Numbers 32:11",
            "text": "T\u00e4m\u00e4 kansa, joka Egyptist\u00e4 l\u00e4htenyt on, kahdenkymmenen vuoden vanhasta ja sen ylitse, ei suinkaan pid\u00e4 n\u00e4kem\u00e4n sit\u00e4 maata, jonka min\u00e4 Abrahamille, Isaakille ja Jakobille vannonut olen, ettei he minua uskollisesti seuranneet,"
        },
        {
            "chapter": 32,
            "verse": 12,
            "name": "Numbers 32:12",
            "text": "Paitsi Kalebia Jephunnen Kenisil\u00e4isen poikaa, ja Josuaa Nunin poikaa; sill\u00e4 he uskollisesti seurasivat Herraa."
        },
        {
            "chapter": 32,
            "verse": 13,
            "name": "Numbers 32:13",
            "text": "Niin Herran viha julmistui Israelissa, ja laski heid\u00e4t menem\u00e4\u00e4n korpeen sinne ja t\u00e4nne nelj\u00e4ksikymmeneksi vuodeksi, siihenasti kuin kaikki se sukukunta hukkui, joka Herran edess\u00e4 pahaa tehnyt oli."
        },
        {
            "chapter": 32,
            "verse": 14,
            "name": "Numbers 32:14",
            "text": "Ja katso, te olette nousseet is\u00e4inne siaan, syntisten joukko, lis\u00e4\u00e4m\u00e4\u00e4n viel\u00e4 Herran vihan julmuutta Israelia vastaan;"
        },
        {
            "chapter": 32,
            "verse": 15,
            "name": "Numbers 32:15",
            "text": "Sill\u00e4 jos te k\u00e4\u00e4nnytte h\u00e4nest\u00e4 pois, niin h\u00e4n antaa teid\u00e4n enemm\u00e4n aikaa viipy\u00e4 korvessa, ja niin te turmelette kaiken t\u00e4m\u00e4n kansan."
        },
        {
            "chapter": 32,
            "verse": 16,
            "name": "Numbers 32:16",
            "text": "Niin he k\u00e4viv\u00e4t edes ja sanoivat: me rakennamme ainoastansa t\u00e4h\u00e4n pihatoita karjallemme, ja kaupungeita lapsillemme."
        },
        {
            "chapter": 32,
            "verse": 17,
            "name": "Numbers 32:17",
            "text": "Mutta me tahdomme olla joudukkaat varustettuina k\u00e4ym\u00e4\u00e4n Israelin lasten edell\u00e4, siihenasti ett\u00e4 me johdatamme heit\u00e4 sioillensa; vaan lapsemme ovat n\u00e4iss\u00e4 vahvoissa kaupungeissa maan asuvaisten t\u00e4hden."
        },
        {
            "chapter": 32,
            "verse": 18,
            "name": "Numbers 32:18",
            "text": "Emme my\u00f6s palaja huoneisiimme, siihenasti ett\u00e4 Israelin lapset itsekukin saavat perint\u00f6ns\u00e4."
        },
        {
            "chapter": 32,
            "verse": 19,
            "name": "Numbers 32:19",
            "text": "Sill\u00e4 emme tahdo heid\u00e4n kanssa peri\u00e4 toisella puolella Jordania eli etemp\u00e4\u00e4; vaan meid\u00e4n perint\u00f6mme olkoon t\u00e4ll\u00e4 puolella Jordania it\u00e4\u00e4n p\u00e4in."
        },
        {
            "chapter": 32,
            "verse": 20,
            "name": "Numbers 32:20",
            "text": "Ja Moses sanoi heille: jos t\u00e4m\u00e4n teette, ett\u00e4 hankitsette teit\u00e4nne sotaan Herran edess\u00e4,"
        },
        {
            "chapter": 32,
            "verse": 21,
            "name": "Numbers 32:21",
            "text": "Niin menk\u00e4\u00e4t Herran edess\u00e4 Jordanin ylitse, jokainen kuin teist\u00e4 hankittu on, siihenasti ett\u00e4 h\u00e4n ajaa kaikki vihollisensa pois kasvoinsa edest\u00e4,"
        },
        {
            "chapter": 32,
            "verse": 22,
            "name": "Numbers 32:22",
            "text": "Ja maa tulee Herran edess\u00e4 alamaiseksi; sitte pit\u00e4\u00e4 teid\u00e4n palajaman j\u00e4llens\u00e4 ja oleman viattomat Herran ja Israelin edess\u00e4, ja niin t\u00e4m\u00e4 maa on teid\u00e4n omanne Herran edess\u00e4."
        },
        {
            "chapter": 32,
            "verse": 23,
            "name": "Numbers 32:23",
            "text": "Mutta jos ette niin tee, katso, niin te rikotte Herraa vastaan, ja teid\u00e4n pit\u00e4\u00e4 tiet\u00e4m\u00e4n teid\u00e4n rikoksenne, ett\u00e4 se k\u00e4sitt\u00e4\u00e4 teid\u00e4t."
        },
        {
            "chapter": 32,
            "verse": 24,
            "name": "Numbers 32:24",
            "text": "Niin rakentakaat siis kaupungeita lapsillenne, ja pihatoita karjallenne, ja tehk\u00e4\u00e4t niinkuin te sanoitte."
        },
        {
            "chapter": 32,
            "verse": 25,
            "name": "Numbers 32:25",
            "text": "Gadin ja Rubenin lapset sanoivat Mosekselle: sinun palvelias tekev\u00e4t niinkuin minun Herrani on k\u00e4skenyt."
        },
        {
            "chapter": 32,
            "verse": 26,
            "name": "Numbers 32:26",
            "text": "Meid\u00e4n lapsemme, em\u00e4nt\u00e4mme, tavaramme ja kaikki meid\u00e4n karjamme pit\u00e4\u00e4 j\u00e4\u00e4m\u00e4n Gileadin kaupunkeihin."
        },
        {
            "chapter": 32,
            "verse": 27,
            "name": "Numbers 32:27",
            "text": "Mutta me sinun palvelias l\u00e4hdemme kaikki yhdess\u00e4 joukossa hankittuina sotaan Herran edess\u00e4, niinkuin minun Herrani sanonut on."
        },
        {
            "chapter": 32,
            "verse": 28,
            "name": "Numbers 32:28",
            "text": "Niin Moses k\u00e4ski heid\u00e4n puolestansa pappia Eleatsaria, ja Josuaa Nunin poikaa, ja Israelin lasten sukukuntain ylimm\u00e4isi\u00e4 isi\u00e4,"
        },
        {
            "chapter": 32,
            "verse": 29,
            "name": "Numbers 32:29",
            "text": "Ja sanoi heille: jos Gadin ja Rubenin lapset menev\u00e4t teid\u00e4n kanssanne Jordanin ylitse, kaikki hankittuina sotaan Herran edess\u00e4, ja te saatte kaikki maan allenne, niin antakaat heille Gileadin maa omaksi."
        },
        {
            "chapter": 32,
            "verse": 30,
            "name": "Numbers 32:30",
            "text": "Vaan jos ei he mene hankittuina teid\u00e4n kanssanne, niin pit\u00e4\u00e4 heid\u00e4n perim\u00e4n teid\u00e4n kanssanne Kanaanin maalla."
        },
        {
            "chapter": 32,
            "verse": 31,
            "name": "Numbers 32:31",
            "text": "Gadin ja Rubenin lapset vastasivat, ja sanoivat: niinkuin Herra on puhunut sinun palvelioilles, niin me teemme:"
        },
        {
            "chapter": 32,
            "verse": 32,
            "name": "Numbers 32:32",
            "text": "Me menemme hankittuina Herran eteen Kanaanin maalle, ja omistamme perint\u00f6osamme t\u00e4ll\u00e4 puolella Jordania."
        },
        {
            "chapter": 32,
            "verse": 33,
            "name": "Numbers 32:33",
            "text": "Niin Moses antoi Gadin ja Rubenin lapsille ja puolelle Manassen Josephin pojan sukukunnalle Sihonin Amorilaisten kuninkaan valtakunnan ja Ogin Basanin kuninkaan valtakunnan: maan kaupunkeinensa, jotka niiss\u00e4 maan \u00e4\u00e4riss\u00e4 ymp\u00e4rill\u00e4 olivat."
        },
        {
            "chapter": 32,
            "verse": 34,
            "name": "Numbers 32:34",
            "text": "Ja Gadin lapset rakensivat Dibonin, Atarotin, Aroerin,"
        },
        {
            "chapter": 32,
            "verse": 35,
            "name": "Numbers 32:35",
            "text": "Atarot-Sophanin, Jaeserin, Jogbehanin,"
        },
        {
            "chapter": 32,
            "verse": 36,
            "name": "Numbers 32:36",
            "text": "Betnimran ja Betaranin, vahvat kaupungit ja pihatot."
        },
        {
            "chapter": 32,
            "verse": 37,
            "name": "Numbers 32:37",
            "text": "Rubenin lapset rakensivat Hesbonin, Elealen, Kirjataimin,"
        },
        {
            "chapter": 32,
            "verse": 38,
            "name": "Numbers 32:38",
            "text": "Ja Nebon, BaalMeonin, MusabotSemin ja Sibman, ja antoivat nimet niille kaupungeille, jotka he rakensivat."
        },
        {
            "chapter": 32,
            "verse": 39,
            "name": "Numbers 32:39",
            "text": "Ja Makirin Manassen pojan lapset meniv\u00e4t Gileadiin ja voittivat sen, ja ajoivat ulos Amorilaiset, jotka siell\u00e4 asuivat."
        },
        {
            "chapter": 32,
            "verse": 40,
            "name": "Numbers 32:40",
            "text": "Niin Moses antoi Makirille Manassen pojalle Gileadin, ja h\u00e4n asui siell\u00e4."
        },
        {
            "chapter": 32,
            "verse": 41,
            "name": "Numbers 32:41",
            "text": "Mutta Jair Manassen poika meni, ja voitti heid\u00e4n maakyl\u00e4ns\u00e4, jotka h\u00e4n kutsui Jairin kyliksi,"
        },
        {
            "chapter": 32,
            "verse": 42,
            "name": "Numbers 32:42",
            "text": "Meni my\u00f6s Noba, ja voitti Kenatin tytt\u00e4rinens\u00e4, ja h\u00e4n kutsui sen Nobaksi nimest\u00e4ns\u00e4."
        }
    ]
}