{
  "translation": "Greek Modern",
  "abbreviation": "moderngreek",
  "lang": "el",
  "language": "Greek Modern",
  "direction": "LTR",
  "encoding": "UTF-8",
  "nr": 48,
  "name": "Galatians",
  "chapters": [
    {
      "chapter": 1,
      "name": "Galatians 1",
      "verses": [
        {
          "chapter": 1,
          "verse": 1,
          "name": "Galatians 1:1",
          "text": "\u03a0\u03b1\u03cd\u03bb\u03bf\u03c2 \u03b1\u03c0\u03cc\u03c3\u03c4\u03bf\u03bb\u03bf\u03c2 \u03bf\u03c5\u03c7\u03af \u03b1\u03c0\u03cc \u03b1\u03bd\u03b8\u03c1\u03ce\u03c0\u03c9\u03bd, \u03bf\u03c5\u03b4\u03ad \u03b4\u03b9' \u03b1\u03bd\u03b8\u03c1\u03ce\u03c0\u03bf\u03c5, \u03b1\u03bb\u03bb\u03ac \u03b4\u03b9\u03ac \u0399\u03b7\u03c3\u03bf\u03cd \u03a7\u03c1\u03b9\u03c3\u03c4\u03bf\u03cd \u03ba\u03b1\u03b9 \u0398\u03b5\u03bf\u03cd \u03a0\u03b1\u03c4\u03c1\u03cc\u03c2 \u03c4\u03bf\u03c5 \u03b1\u03bd\u03b1\u03c3\u03c4\u03ae\u03c3\u03b1\u03bd\u03c4\u03bf\u03c2 \u03b1\u03c5\u03c4\u03cc\u03bd \u03b5\u03ba \u03bd\u03b5\u03ba\u03c1\u03ce\u03bd, "
        },
        {
          "chapter": 1,
          "verse": 2,
          "name": "Galatians 1:2",
          "text": "\u03ba\u03b1\u03b9 \u03c0\u03ac\u03bd\u03c4\u03b5\u03c2 \u03bf\u03b9 \u03bc\u03b5\u03c4' \u03b5\u03bc\u03bf\u03cd \u03b1\u03b4\u03b5\u03bb\u03c6\u03bf\u03af, \u03c0\u03c1\u03bf\u03c2 \u03c4\u03b1\u03c2 \u03b5\u03ba\u03ba\u03bb\u03b7\u03c3\u03af\u03b1\u03c2 \u03c4\u03b7\u03c2 \u0393\u03b1\u03bb\u03b1\u03c4\u03af\u03b1\u03c2\u00b7 "
        },
        {
          "chapter": 1,
          "verse": 3,
          "name": "Galatians 1:3",
          "text": "\u03c7\u03ac\u03c1\u03b9\u03c2 \u03b5\u03af\u03b7 \u03c5\u03bc\u03af\u03bd \u03ba\u03b1\u03b9 \u03b5\u03b9\u03c1\u03ae\u03bd\u03b7 \u03b1\u03c0\u03cc \u0398\u03b5\u03bf\u03cd \u03a0\u03b1\u03c4\u03c1\u03cc\u03c2 \u03ba\u03b1\u03b9 \u039a\u03c5\u03c1\u03af\u03bf\u03c5 \u03b7\u03bc\u03ce\u03bd \u0399\u03b7\u03c3\u03bf\u03cd \u03a7\u03c1\u03b9\u03c3\u03c4\u03bf\u03cd, "
        },
        {
          "chapter": 1,
          "verse": 4,
          "name": "Galatians 1:4",
          "text": "\u03cc\u03c3\u03c4\u03b9\u03c2 \u03ad\u03b4\u03c9\u03ba\u03b5\u03bd \u03b5\u03b1\u03c5\u03c4\u03cc\u03bd \u03b4\u03b9\u03ac \u03c4\u03b1\u03c2 \u03b1\u03bc\u03b1\u03c1\u03c4\u03af\u03b1\u03c2 \u03b7\u03bc\u03ce\u03bd, \u03b4\u03b9\u03ac \u03bd\u03b1 \u03b5\u03bb\u03b5\u03c5\u03b8\u03b5\u03c1\u03ce\u03c3\u03b7 \u03b7\u03bc\u03ac\u03c2 \u03b5\u03ba \u03c4\u03bf\u03c5 \u03c0\u03b1\u03c1\u03cc\u03bd\u03c4\u03bf\u03c2 \u03c0\u03bf\u03bd\u03b7\u03c1\u03bf\u03cd \u03b1\u03b9\u03ce\u03bd\u03bf\u03c2 \u03ba\u03b1\u03c4\u03ac \u03c4\u03bf \u03b8\u03ad\u03bb\u03b7\u03bc\u03b1 \u03c4\u03bf\u03c5 \u0398\u03b5\u03bf\u03cd \u03ba\u03b1\u03b9 \u03a0\u03b1\u03c4\u03c1\u03cc\u03c2 \u03b7\u03bc\u03ce\u03bd, "
        },
        {
          "chapter": 1,
          "verse": 5,
          "name": "Galatians 1:5",
          "text": "\u03b5\u03b9\u03c2 \u03c4\u03bf\u03bd \u03bf\u03c0\u03bf\u03af\u03bf\u03bd \u03ad\u03c3\u03c4\u03c9 \u03b7 \u03b4\u03cc\u03be\u03b1 \u03b5\u03b9\u03c2 \u03c4\u03bf\u03c5\u03c2 \u03b1\u03b9\u03ce\u03bd\u03b1\u03c2 \u03c4\u03c9\u03bd \u03b1\u03b9\u03ce\u03bd\u03c9\u03bd\u00b7 \u03b1\u03bc\u03ae\u03bd. "
        },
        {
          "chapter": 1,
          "verse": 6,
          "name": "Galatians 1:6",
          "text": "\u0398\u03b1\u03c5\u03bc\u03ac\u03b6\u03c9 \u03cc\u03c4\u03b9 \u03c4\u03cc\u03c3\u03bf\u03bd \u03c4\u03b1\u03c7\u03ad\u03c9\u03c2 \u03bc\u03b5\u03c4\u03b1\u03c6\u03ad\u03c1\u03b5\u03c3\u03b8\u03b5 \u03b1\u03c0\u03cc \u03b5\u03ba\u03b5\u03af\u03bd\u03bf\u03c5, \u03cc\u03c3\u03c4\u03b9\u03c2 \u03c3\u03b1\u03c2 \u03b5\u03ba\u03ac\u03bb\u03b5\u03c3\u03b5 \u03b4\u03b9\u03ac \u03c4\u03b7\u03c2 \u03c7\u03ac\u03c1\u03b9\u03c4\u03bf\u03c2 \u03c4\u03bf\u03c5 \u03a7\u03c1\u03b9\u03c3\u03c4\u03bf\u03cd, \u03b5\u03b9\u03c2 \u03ac\u03bb\u03bb\u03bf \u03b5\u03c5\u03b1\u03b3\u03b3\u03ad\u03bb\u03b9\u03bf\u03bd, "
        },
        {
          "chapter": 1,
          "verse": 7,
          "name": "Galatians 1:7",
          "text": "\u03c4\u03bf \u03bf\u03c0\u03bf\u03af\u03bf\u03bd \u03b4\u03b5\u03bd \u03b5\u03af\u03bd\u03b1\u03b9 \u03ac\u03bb\u03bb\u03bf, \u03b1\u03bb\u03bb' \u03c5\u03c0\u03ac\u03c1\u03c7\u03bf\u03c5\u03c3\u03af \u03c4\u03b9\u03bd\u03ad\u03c2, \u03bf\u03b9 \u03bf\u03c0\u03bf\u03af\u03bf\u03b9 \u03c3\u03b1\u03c2 \u03c4\u03b1\u03c1\u03ac\u03c4\u03c4\u03bf\u03c5\u03c3\u03b9 \u03ba\u03b1\u03b9 \u03b8\u03ad\u03bb\u03bf\u03c5\u03c3\u03b9 \u03bd\u03b1 \u03bc\u03b5\u03c4\u03b1\u03c4\u03c1\u03ad\u03c8\u03c9\u03c3\u03b9 \u03c4\u03bf \u03b5\u03c5\u03b1\u03b3\u03b3\u03ad\u03bb\u03b9\u03bf\u03bd \u03c4\u03bf\u03c5 \u03a7\u03c1\u03b9\u03c3\u03c4\u03bf\u03cd. "
        },
        {
          "chapter": 1,
          "verse": 8,
          "name": "Galatians 1:8",
          "text": "\u0391\u03bb\u03bb\u03ac \u03ba\u03b1\u03b9 \u03b5\u03ac\u03bd \u03b7\u03bc\u03b5\u03af\u03c2 \u03ae \u03ac\u03b3\u03b3\u03b5\u03bb\u03bf\u03c2 \u03b5\u03be \u03bf\u03c5\u03c1\u03b1\u03bd\u03bf\u03cd \u03c3\u03b1\u03c2 \u03ba\u03b7\u03c1\u03cd\u03c4\u03c4\u03b7 \u03ac\u03bb\u03bb\u03bf \u03b5\u03c5\u03b1\u03b3\u03b3\u03ad\u03bb\u03b9\u03bf\u03bd \u03c0\u03b1\u03c1\u03ac \u03b5\u03ba\u03b5\u03af\u03bd\u03bf, \u03c4\u03bf \u03bf\u03c0\u03bf\u03af\u03bf\u03bd \u03c3\u03b1\u03c2 \u03b5\u03ba\u03b7\u03c1\u03cd\u03be\u03b1\u03bc\u03b5\u03bd, \u03b1\u03c2 \u03ae\u03bd\u03b1\u03b9 \u03b1\u03bd\u03ac\u03b8\u03b5\u03bc\u03b1. "
        },
        {
          "chapter": 1,
          "verse": 9,
          "name": "Galatians 1:9",
          "text": "\u039a\u03b1\u03b8\u03ce\u03c2 \u03c0\u03c1\u03bf\u03b5\u03af\u03c0\u03bf\u03bc\u03b5\u03bd, \u03ba\u03b1\u03b9 \u03c4\u03ce\u03c1\u03b1 \u03c0\u03ac\u03bb\u03b9\u03bd \u03bb\u03ad\u03b3\u03c9\u00b7 \u0395\u03ac\u03bd \u03c4\u03b9\u03c2 \u03c3\u03b1\u03c2 \u03ba\u03b7\u03c1\u03cd\u03c4\u03c4\u03b7 \u03ac\u03bb\u03bb\u03bf \u03b5\u03c5\u03b1\u03b3\u03b3\u03ad\u03bb\u03b9\u03bf\u03bd \u03c0\u03b1\u03c1\u03ac \u03b5\u03ba\u03b5\u03af\u03bd\u03bf, \u03c4\u03bf \u03bf\u03c0\u03bf\u03af\u03bf\u03bd \u03c0\u03b1\u03c1\u03b5\u03bb\u03ac\u03b2\u03b5\u03c4\u03b5, \u03b1\u03c2 \u03ae\u03bd\u03b1\u03b9 \u03b1\u03bd\u03ac\u03b8\u03b5\u03bc\u03b1. "
        },
        {
          "chapter": 1,
          "verse": 10,
          "name": "Galatians 1:10",
          "text": "\u0394\u03b9\u03cc\u03c4\u03b9 \u03c4\u03ce\u03c1\u03b1 \u03b1\u03bd\u03b8\u03c1\u03ce\u03c0\u03bf\u03c5\u03c2 \u03c0\u03b5\u03af\u03b8\u03c9 \u03ae \u03c4\u03bf\u03bd \u0398\u03b5\u03cc\u03bd; \u03ae \u03b6\u03b7\u03c4\u03ce \u03bd\u03b1 \u03b1\u03c1\u03ad\u03c3\u03ba\u03c9 \u03b5\u03b9\u03c2 \u03b1\u03bd\u03b8\u03c1\u03ce\u03c0\u03bf\u03c5\u03c2; \u03b4\u03b9\u03cc\u03c4\u03b9 \u03b5\u03ac\u03bd \u03b1\u03ba\u03cc\u03bc\u03b7 \u03ae\u03c1\u03b5\u03c3\u03ba\u03bf\u03bd \u03b5\u03b9\u03c2 \u03b1\u03bd\u03b8\u03c1\u03ce\u03c0\u03bf\u03c5\u03c2, \u03b4\u03b5\u03bd \u03ae\u03b8\u03b5\u03bb\u03bf\u03bd \u03b5\u03af\u03c3\u03b8\u03b1\u03b9 \u03b4\u03bf\u03cd\u03bb\u03bf\u03c2 \u03a7\u03c1\u03b9\u03c3\u03c4\u03bf\u03cd. "
        },
        {
          "chapter": 1,
          "verse": 11,
          "name": "Galatians 1:11",
          "text": "\u0391\u03bb\u03bb\u03ac \u03c3\u03b1\u03c2 \u03b3\u03bd\u03c9\u03c3\u03c4\u03bf\u03c0\u03bf\u03b9\u03ce, \u03b1\u03b4\u03b5\u03bb\u03c6\u03bf\u03af, \u03cc\u03c4\u03b9 \u03c4\u03bf \u03b5\u03c5\u03b1\u03b3\u03b3\u03ad\u03bb\u03b9\u03bf\u03bd \u03c4\u03bf \u03ba\u03b7\u03c1\u03c5\u03c7\u03b8\u03ad\u03bd \u03c5\u03c0' \u03b5\u03bc\u03bf\u03cd \u03b4\u03b5\u03bd \u03b5\u03af\u03bd\u03b1\u03b9 \u03b1\u03bd\u03b8\u03c1\u03ce\u03c0\u03b9\u03bd\u03bf\u03bd\u00b7 "
        },
        {
          "chapter": 1,
          "verse": 12,
          "name": "Galatians 1:12",
          "text": "\u03b4\u03b9\u03cc\u03c4\u03b9 \u03bf\u03c5\u03b4' \u03b5\u03b3\u03ce \u03c0\u03b1\u03c1\u03ad\u03bb\u03b1\u03b2\u03bf\u03bd \u03b1\u03c5\u03c4\u03cc \u03c0\u03b1\u03c1\u03ac \u03b1\u03bd\u03b8\u03c1\u03ce\u03c0\u03bf\u03c5 \u03bf\u03cd\u03c4\u03b5 \u03b5\u03b4\u03b9\u03b4\u03ac\u03c7\u03b8\u03b7\u03bd, \u03b1\u03bb\u03bb\u03ac \u03b4\u03b9' \u03b1\u03c0\u03bf\u03ba\u03b1\u03bb\u03cd\u03c8\u03b5\u03c9\u03c2 \u0399\u03b7\u03c3\u03bf\u03cd \u03a7\u03c1\u03b9\u03c3\u03c4\u03bf\u03cd. "
        },
        {
          "chapter": 1,
          "verse": 13,
          "name": "Galatians 1:13",
          "text": "\u0394\u03b9\u03cc\u03c4\u03b9 \u03b7\u03ba\u03bf\u03cd\u03c3\u03b1\u03c4\u03b5 \u03c4\u03b7\u03bd \u03c0\u03bf\u03c4\u03ad \u03b4\u03b9\u03b1\u03b3\u03c9\u03b3\u03ae\u03bd \u03bc\u03bf\u03c5 \u03b5\u03bd \u03c4\u03c9 \u0399\u03bf\u03c5\u03b4\u03b1\u03ca\u03c3\u03bc\u03ce, \u03cc\u03c4\u03b9 \u03ba\u03b1\u03b8' \u03c5\u03c0\u03b5\u03c1\u03b2\u03bf\u03bb\u03ae\u03bd \u03b5\u03b4\u03af\u03c9\u03ba\u03bf\u03bd \u03c4\u03b7\u03bd \u03b5\u03ba\u03ba\u03bb\u03b7\u03c3\u03af\u03b1\u03bd \u03c4\u03bf\u03c5 \u0398\u03b5\u03bf\u03cd \u03ba\u03b1\u03b9 \u03b5\u03ba\u03b1\u03ba\u03bf\u03c0\u03bf\u03af\u03bf\u03c5\u03bd \u03b1\u03c5\u03c4\u03ae\u03bd, "
        },
        {
          "chapter": 1,
          "verse": 14,
          "name": "Galatians 1:14",
          "text": "\u03ba\u03b1\u03b9 \u03c0\u03c1\u03bf\u03ad\u03ba\u03bf\u03c0\u03c4\u03bf\u03bd \u03b5\u03b9\u03c2 \u03c4\u03bf\u03bd \u0399\u03bf\u03c5\u03b4\u03b1\u03ca\u03c3\u03bc\u03cc\u03bd \u03c5\u03c0\u03ad\u03c1 \u03c0\u03bf\u03bb\u03bb\u03bf\u03cd\u03c2 \u03c3\u03c5\u03bd\u03b7\u03bb\u03b9\u03ba\u03b9\u03ce\u03c4\u03b1\u03c2 \u03b5\u03bd \u03c4\u03c9 \u03b3\u03ad\u03bd\u03b5\u03b9 \u03bc\u03bf\u03c5, \u03c0\u03b5\u03c1\u03b9\u03c3\u03c3\u03cc\u03c4\u03b5\u03c1\u03bf\u03bd \u03b6\u03b7\u03bb\u03c9\u03c4\u03ae\u03c2 \u03c5\u03c0\u03ac\u03c1\u03c7\u03c9\u03bd \u03c4\u03c9\u03bd \u03c0\u03b1\u03c4\u03c1\u03b9\u03ba\u03ce\u03bd \u03bc\u03bf\u03c5 \u03c0\u03b1\u03c1\u03b1\u03b4\u03cc\u03c3\u03b5\u03c9\u03bd. "
        },
        {
          "chapter": 1,
          "verse": 15,
          "name": "Galatians 1:15",
          "text": "\u038c\u03c4\u03b5 \u03b4\u03b5 \u03b7\u03c5\u03b4\u03cc\u03ba\u03b7\u03c3\u03b5\u03bd \u03bf \u0398\u03b5\u03cc\u03c2, \u03bf \u03c0\u03c1\u03bf\u03c3\u03b4\u03b9\u03bf\u03c1\u03af\u03c3\u03b1\u03c2 \u03bc\u03b5 \u03b5\u03ba \u03ba\u03bf\u03b9\u03bb\u03af\u03b1\u03c2 \u03bc\u03b7\u03c4\u03c1\u03cc\u03c2 \u03bc\u03bf\u03c5 \u03ba\u03b1\u03b9 \u03ba\u03b1\u03bb\u03ad\u03c3\u03b1\u03c2 \u03b4\u03b9\u03ac \u03c4\u03b7\u03c2 \u03c7\u03ac\u03c1\u03b9\u03c4\u03bf\u03c2 \u03b1\u03c5\u03c4\u03bf\u03cd, "
        },
        {
          "chapter": 1,
          "verse": 16,
          "name": "Galatians 1:16",
          "text": "\u03bd\u03b1 \u03b1\u03c0\u03bf\u03ba\u03b1\u03bb\u03cd\u03c8\u03b7 \u03c4\u03bf\u03bd \u03a5\u03b9\u03cc\u03bd \u03b1\u03c5\u03c4\u03bf\u03cd \u03b5\u03bd \u03b5\u03bc\u03bf\u03af, \u03b4\u03b9\u03ac \u03bd\u03b1 \u03ba\u03b7\u03c1\u03cd\u03c4\u03c4\u03c9 \u03b1\u03c5\u03c4\u03cc\u03bd \u03bc\u03b5\u03c4\u03b1\u03be\u03cd \u03c4\u03c9\u03bd \u03b5\u03b8\u03bd\u03ce\u03bd, \u03b5\u03c5\u03b8\u03cd\u03c2 \u03b4\u03b5\u03bd \u03c3\u03c5\u03bd\u03b5\u03b2\u03bf\u03c5\u03bb\u03b5\u03cd\u03b8\u03b7\u03bd \u03c3\u03ac\u03c1\u03ba\u03b1 \u03ba\u03b1\u03b9 \u03b1\u03af\u03bc\u03b1, "
        },
        {
          "chapter": 1,
          "verse": 17,
          "name": "Galatians 1:17",
          "text": "\u03bf\u03c5\u03b4\u03ad \u03b1\u03bd\u03ad\u03b2\u03b7\u03bd \u03b5\u03b9\u03c2 \u0399\u03b5\u03c1\u03bf\u03c3\u03cc\u03bb\u03c5\u03bc\u03b1 \u03c0\u03c1\u03bf\u03c2 \u03c4\u03bf\u03c5\u03c2 \u03c0\u03c1\u03bf \u03b5\u03bc\u03bf\u03cd \u03b1\u03c0\u03bf\u03c3\u03c4\u03cc\u03bb\u03bf\u03c5\u03c2, \u03b1\u03bb\u03bb' \u03b1\u03c0\u03ae\u03bb\u03b8\u03bf\u03bd \u03b5\u03b9\u03c2 \u0391\u03c1\u03b1\u03b2\u03af\u03b1\u03bd \u03ba\u03b1\u03b9 \u03c0\u03ac\u03bb\u03b9\u03bd \u03c5\u03c0\u03ad\u03c3\u03c4\u03c1\u03b5\u03c8\u03b1 \u03b5\u03b9\u03c2 \u0394\u03b1\u03bc\u03b1\u03c3\u03ba\u03cc\u03bd. "
        },
        {
          "chapter": 1,
          "verse": 18,
          "name": "Galatians 1:18",
          "text": "\u0388\u03c0\u03b5\u03b9\u03c4\u03b1 \u03bc\u03b5\u03c4\u03ac \u03ad\u03c4\u03b7 \u03c4\u03c1\u03af\u03b1 \u03b1\u03bd\u03ad\u03b2\u03b7\u03bd \u03b5\u03b9\u03c2 \u0399\u03b5\u03c1\u03bf\u03c3\u03cc\u03bb\u03c5\u03bc\u03b1, \u03b4\u03b9\u03ac \u03bd\u03b1 \u03b3\u03bd\u03c9\u03c1\u03af\u03c3\u03c9 \u03c0\u03c1\u03bf\u03c3\u03c9\u03c0\u03b9\u03ba\u03ce\u03c2 \u03c4\u03bf\u03bd \u03a0\u03ad\u03c4\u03c1\u03bf\u03bd, \u03ba\u03b1\u03b9 \u03ad\u03bc\u03b5\u03b9\u03bd\u03b1 \u03c0\u03b1\u03c1' \u03b1\u03c5\u03c4\u03ce \u03b7\u03bc\u03ad\u03c1\u03b1\u03c2 \u03b4\u03b5\u03ba\u03b1\u03c0\u03ad\u03bd\u03c4\u03b5\u00b7 "
        },
        {
          "chapter": 1,
          "verse": 19,
          "name": "Galatians 1:19",
          "text": "\u03ac\u03bb\u03bb\u03bf\u03bd \u03b4\u03b5 \u03c4\u03c9\u03bd \u03b1\u03c0\u03bf\u03c3\u03c4\u03cc\u03bb\u03c9\u03bd \u03b4\u03b5\u03bd \u03b5\u03af\u03b4\u03bf\u03bd, \u03b5\u03b9\u03bc\u03ae \u0399\u03ac\u03ba\u03c9\u03b2\u03bf\u03bd \u03c4\u03bf\u03bd \u03b1\u03b4\u03b5\u03bb\u03c6\u03cc\u03bd \u03c4\u03bf\u03c5 \u039a\u03c5\u03c1\u03af\u03bf\u03c5. "
        },
        {
          "chapter": 1,
          "verse": 20,
          "name": "Galatians 1:20",
          "text": "\u038c\u03c3\u03b1 \u03b4\u03b5 \u03c3\u03b1\u03c2 \u03b3\u03c1\u03ac\u03c6\u03c9, \u03b9\u03b4\u03bf\u03cd, \u03b5\u03bd\u03ce\u03c0\u03b9\u03bf\u03bd \u03c4\u03bf\u03c5 \u0398\u03b5\u03bf\u03cd \u03bf\u03bc\u03bf\u03bb\u03bf\u03b3\u03ce \u03cc\u03c4\u03b9 \u03b4\u03b5\u03bd \u03c8\u03b5\u03cd\u03b4\u03bf\u03bc\u03b1\u03b9. "
        },
        {
          "chapter": 1,
          "verse": 21,
          "name": "Galatians 1:21",
          "text": "\u0388\u03c0\u03b5\u03b9\u03c4\u03b1 \u03ae\u03bb\u03b8\u03bf\u03bd \u03b5\u03b9\u03c2 \u03c4\u03bf\u03c5\u03c2 \u03c4\u03cc\u03c0\u03bf\u03c5\u03c2 \u03c4\u03b7\u03c2 \u03a3\u03c5\u03c1\u03af\u03b1\u03c2 \u03ba\u03b1\u03b9 \u03c4\u03b7\u03c2 \u039a\u03b9\u03bb\u03b9\u03ba\u03af\u03b1\u03c2. "
        },
        {
          "chapter": 1,
          "verse": 22,
          "name": "Galatians 1:22",
          "text": "\u039a\u03b1\u03b9 \u03ae\u03bc\u03b7\u03bd \u03c0\u03c1\u03bf\u03c3\u03c9\u03c0\u03b9\u03ba\u03ce\u03c2 \u03b1\u03b3\u03bd\u03bf\u03bf\u03cd\u03bc\u03b5\u03bd\u03bf\u03c2 \u03b5\u03b9\u03c2 \u03c4\u03b1\u03c2 \u03b5\u03ba\u03ba\u03bb\u03b7\u03c3\u03af\u03b1\u03c2 \u03c4\u03b7\u03c2 \u0399\u03bf\u03c5\u03b4\u03b1\u03af\u03b1\u03c2 \u03c4\u03b1\u03c2 \u03b5\u03bd \u03a7\u03c1\u03b9\u03c3\u03c4\u03ce\u00b7 "
        },
        {
          "chapter": 1,
          "verse": 23,
          "name": "Galatians 1:23",
          "text": "\u03ae\u03ba\u03bf\u03c5\u03bf\u03bd \u03b4\u03b5 \u03bc\u03cc\u03bd\u03bf\u03bd \u03cc\u03c4\u03b9 \u03bf \u03c0\u03bf\u03c4\u03ad \u03b4\u03b9\u03ce\u03ba\u03c9\u03bd \u03b7\u03bc\u03ac\u03c2, \u03c4\u03ce\u03c1\u03b1 \u03ba\u03b7\u03c1\u03cd\u03c4\u03c4\u03b5\u03b9 \u03c4\u03b7\u03bd \u03c0\u03af\u03c3\u03c4\u03b9\u03bd, \u03c4\u03b7\u03bd \u03bf\u03c0\u03bf\u03af\u03b1\u03bd \u03c0\u03bf\u03c4\u03ad \u03ba\u03b1\u03c4\u03b5\u03c0\u03bf\u03bb\u03ad\u03bc\u03b5\u03b9, "
        },
        {
          "chapter": 1,
          "verse": 24,
          "name": "Galatians 1:24",
          "text": "\u03ba\u03b1\u03b9 \u03b5\u03b4\u03cc\u03be\u03b1\u03b6\u03bf\u03bd \u03c4\u03bf\u03bd \u0398\u03b5\u03cc\u03bd \u03b4\u03b9' \u03b5\u03bc\u03ad. "
        }
      ]
    },
    {
      "chapter": 2,
      "name": "Galatians 2",
      "verses": [
        {
          "chapter": 2,
          "verse": 1,
          "name": "Galatians 2:1",
          "text": "\u0388\u03c0\u03b5\u03b9\u03c4\u03b1 \u03bc\u03b5\u03c4\u03ac \u03b4\u03b5\u03ba\u03b1\u03c4\u03ad\u03c3\u03c3\u03b1\u03c1\u03b1 \u03ad\u03c4\u03b7 \u03c0\u03ac\u03bb\u03b9\u03bd \u03b1\u03bd\u03ad\u03b2\u03b7\u03bd \u03b5\u03b9\u03c2 \u0399\u03b5\u03c1\u03bf\u03c3\u03cc\u03bb\u03c5\u03bc\u03b1 \u03bc\u03b5\u03c4\u03ac \u03c4\u03bf\u03c5 \u0392\u03b1\u03c1\u03bd\u03ac\u03b2\u03b1, \u03c3\u03c5\u03bc\u03c0\u03b1\u03c1\u03b1\u03bb\u03b1\u03b2\u03ce\u03bd \u03ba\u03b1\u03b9 \u03c4\u03bf\u03bd \u03a4\u03af\u03c4\u03bf\u03bd\u00b7 "
        },
        {
          "chapter": 2,
          "verse": 2,
          "name": "Galatians 2:2",
          "text": "\u03b1\u03bd\u03ad\u03b2\u03b7\u03bd \u03b4\u03b5 \u03ba\u03b1\u03c4\u03ac \u03b1\u03c0\u03bf\u03ba\u03ac\u03bb\u03c5\u03c8\u03b9\u03bd\u00b7 \u03ba\u03b1\u03b9 \u03c0\u03b1\u03c1\u03ad\u03c3\u03c4\u03b7\u03c3\u03b1 \u03c0\u03c1\u03bf\u03c2 \u03b1\u03c5\u03c4\u03bf\u03cd\u03c2 \u03c4\u03bf \u03b5\u03c5\u03b1\u03b3\u03b3\u03ad\u03bb\u03b9\u03bf\u03bd, \u03c4\u03bf \u03bf\u03c0\u03bf\u03af\u03bf\u03bd \u03ba\u03b7\u03c1\u03cd\u03c4\u03c4\u03c9 \u03bc\u03b5\u03c4\u03b1\u03be\u03cd \u03c4\u03c9\u03bd \u03b5\u03b8\u03bd\u03ce\u03bd, \u03ba\u03b1\u03c4' \u03b9\u03b4\u03af\u03b1\u03bd \u03b4\u03b5 \u03c0\u03c1\u03bf\u03c2 \u03c4\u03bf\u03c5\u03c2 \u03b5\u03c0\u03b9\u03c3\u03b7\u03bc\u03bf\u03c4\u03ad\u03c1\u03bf\u03c5\u03c2, \u03bc\u03ae\u03c0\u03c9\u03c2 \u03c4\u03c1\u03ad\u03c7\u03c9 \u03ae \u03ad\u03c4\u03c1\u03b5\u03be\u03b1 \u03b5\u03b9\u03c2 \u03bc\u03ac\u03c4\u03b7\u03bd. "
        },
        {
          "chapter": 2,
          "verse": 3,
          "name": "Galatians 2:3",
          "text": "\u0391\u03bb\u03bb' \u03bf\u03c5\u03b4\u03ad \u03bf \u03a4\u03af\u03c4\u03bf\u03c2 \u03bf \u03bc\u03b5\u03c4' \u03b5\u03bc\u03bf\u03cd, \u0388\u03bb\u03bb\u03b7\u03bd \u03c9\u03bd, \u03b7\u03bd\u03b1\u03b3\u03ba\u03ac\u03c3\u03b8\u03b7 \u03bd\u03b1 \u03c0\u03b5\u03c1\u03b9\u03c4\u03bc\u03b7\u03b8\u03ae, "
        },
        {
          "chapter": 2,
          "verse": 4,
          "name": "Galatians 2:4",
          "text": "\u03b1\u03bb\u03bb\u03ac \u03b4\u03b9\u03ac \u03c4\u03bf\u03c5\u03c2 \u03c0\u03b1\u03c1\u03b5\u03b9\u03c3\u03ac\u03ba\u03c4\u03bf\u03c5\u03c2 \u03c8\u03b5\u03c5\u03b4\u03b1\u03b4\u03ad\u03bb\u03c6\u03bf\u03c5\u03c2, \u03bf\u03af\u03c4\u03b9\u03bd\u03b5\u03c2 \u03c0\u03b1\u03c1\u03b5\u03b9\u03c3\u03ae\u03bb\u03b8\u03bf\u03bd \u03b4\u03b9\u03ac \u03bd\u03b1 \u03ba\u03b1\u03c4\u03b1\u03c3\u03ba\u03bf\u03c0\u03b5\u03cd\u03c3\u03c9\u03c3\u03b9 \u03c4\u03b7\u03bd \u03b5\u03bb\u03b5\u03c5\u03b8\u03b5\u03c1\u03af\u03b1\u03bd \u03b7\u03bc\u03ce\u03bd, \u03c4\u03b7\u03bd \u03bf\u03c0\u03bf\u03af\u03b1\u03bd \u03ad\u03c7\u03bf\u03bc\u03b5\u03bd \u03b5\u03bd \u03a7\u03c1\u03b9\u03c3\u03c4\u03ce \u0399\u03b7\u03c3\u03bf\u03cd, \u03b4\u03b9\u03ac \u03bd\u03b1 \u03bc\u03b1\u03c2 \u03ba\u03b1\u03c4\u03b1\u03b4\u03bf\u03c5\u03bb\u03ce\u03c3\u03c9\u03c3\u03b9\u03bd\u00b7 "
        },
        {
          "chapter": 2,
          "verse": 5,
          "name": "Galatians 2:5",
          "text": "\u03b5\u03b9\u03c2 \u03c4\u03bf\u03c5\u03c2 \u03bf\u03c0\u03bf\u03af\u03bf\u03c5\u03c2 \u03bf\u03c5\u03b4\u03ad \u03c0\u03c1\u03bf\u03c2 \u03ce\u03c1\u03b1\u03bd \u03c5\u03c0\u03b5\u03c7\u03c9\u03c1\u03ae\u03c3\u03b1\u03bc\u03b5\u03bd \u03c5\u03c0\u03bf\u03c4\u03b1\u03c3\u03c3\u03cc\u03bc\u03b5\u03bd\u03bf\u03b9, \u03b4\u03b9\u03ac \u03bd\u03b1 \u03b4\u03b9\u03b1\u03bc\u03b5\u03af\u03bd\u03b7 \u03b5\u03b9\u03c2 \u03b5\u03c3\u03ac\u03c2 \u03b7 \u03b1\u03bb\u03ae\u03b8\u03b5\u03b9\u03b1 \u03c4\u03bf\u03c5 \u03b5\u03c5\u03b1\u03b3\u03b3\u03b5\u03bb\u03af\u03bf\u03c5. "
        },
        {
          "chapter": 2,
          "verse": 6,
          "name": "Galatians 2:6",
          "text": "\u03a0\u03b5\u03c1\u03af \u03b4\u03b5 \u03c4\u03c9\u03bd \u03bd\u03bf\u03bc\u03b9\u03b6\u03bf\u03bc\u03ad\u03bd\u03c9\u03bd \u03cc\u03c4\u03b9 \u03b5\u03af\u03bd\u03b1\u03b9 \u03c4\u03b9, \u03bf\u03c0\u03bf\u03af\u03bf\u03b9 \u03c0\u03bf\u03c4\u03ad \u03ba\u03b1\u03b9 \u03b1\u03bd \u03ae\u03c3\u03b1\u03bd, \u03bf\u03c5\u03b4\u03cc\u03bb\u03c9\u03c2 \u03c6\u03c1\u03bf\u03bd\u03c4\u03af\u03b6\u03c9\u00b7 \u03bf \u0398\u03b5\u03cc\u03c2 \u03b4\u03b5\u03bd \u03b2\u03bb\u03ad\u03c0\u03b5\u03b9 \u03b5\u03b9\u03c2 \u03c0\u03c1\u03cc\u03c3\u03c9\u03c0\u03bf\u03bd \u03b1\u03bd\u03b8\u03c1\u03ce\u03c0\u03bf\u03c5\u00b7 \u03b4\u03b9\u03cc\u03c4\u03b9 \u03b5\u03b9\u03c2 \u03b5\u03bc\u03ad \u03bf\u03b9 \u03b5\u03c0\u03b9\u03c3\u03b7\u03bc\u03cc\u03c4\u03b5\u03c1\u03bf\u03b9 \u03b4\u03b5\u03bd \u03c0\u03c1\u03bf\u03c3\u03ad\u03b8\u03b5\u03c3\u03b1\u03bd \u03bf\u03c5\u03b4\u03ad\u03bd \u03c0\u03b5\u03c1\u03b9\u03c3\u03c3\u03cc\u03c4\u03b5\u03c1\u03bf\u03bd, "
        },
        {
          "chapter": 2,
          "verse": 7,
          "name": "Galatians 2:7",
          "text": "\u03b1\u03bb\u03bb\u03ac \u03c4\u03bf \u03b5\u03bd\u03b1\u03bd\u03c4\u03af\u03bf\u03bd, \u03b1\u03c6\u03bf\u03cd \u03b5\u03af\u03b4\u03bf\u03bd \u03cc\u03c4\u03b9 \u03b5\u03bd\u03b5\u03c0\u03b9\u03c3\u03c4\u03b5\u03cd\u03b8\u03b7\u03bd \u03bd\u03b1 \u03ba\u03b7\u03c1\u03cd\u03c4\u03c4\u03c9 \u03c4\u03bf \u03b5\u03c5\u03b1\u03b3\u03b3\u03ad\u03bb\u03b9\u03bf\u03bd \u03c0\u03c1\u03bf\u03c2 \u03c4\u03bf\u03c5\u03c2 \u03b1\u03c0\u03b5\u03c1\u03b9\u03c4\u03bc\u03ae\u03c4\u03bf\u03c5\u03c2 \u03ba\u03b1\u03b8\u03ce\u03c2 \u03bf \u03a0\u03ad\u03c4\u03c1\u03bf\u03c2 \u03c0\u03c1\u03bf\u03c2 \u03c4\u03bf\u03c5\u03c2 \u03c0\u03b5\u03c1\u03b9\u03c4\u03b5\u03c4\u03bc\u03b7\u03bc\u03ad\u03bd\u03bf\u03c5\u03c2\u00b7 "
        },
        {
          "chapter": 2,
          "verse": 8,
          "name": "Galatians 2:8",
          "text": "\u03b4\u03b9\u03cc\u03c4\u03b9 \u03bf \u03b5\u03bd\u03b5\u03c1\u03b3\u03ae\u03c3\u03b1\u03c2 \u03b5\u03b9\u03c2 \u03c4\u03bf\u03bd \u03a0\u03ad\u03c4\u03c1\u03bf\u03bd, \u03ce\u03c3\u03c4\u03b5 \u03bd\u03b1 \u03b1\u03c0\u03bf\u03c3\u03c4\u03b1\u03bb\u03ae \u03c0\u03c1\u03bf\u03c2 \u03c4\u03bf\u03c5\u03c2 \u03c0\u03b5\u03c1\u03b9\u03c4\u03b5\u03c4\u03bc\u03b7\u03bc\u03ad\u03bd\u03bf\u03c5\u03c2, \u03b5\u03bd\u03ae\u03c1\u03b3\u03b7\u03c3\u03b5 \u03ba\u03b1\u03b9 \u03b5\u03b9\u03c2 \u03b5\u03bc\u03ad, \u03c0\u03c1\u03bf\u03c2 \u03c4\u03bf\u03c5\u03c2 \u03b5\u03b8\u03bd\u03b9\u03ba\u03bf\u03cd\u03c2\u00b7 "
        },
        {
          "chapter": 2,
          "verse": 9,
          "name": "Galatians 2:9",
          "text": "\u03ba\u03b1\u03b9 \u03b1\u03c6\u03bf\u03cd \u03b5\u03b3\u03bd\u03ce\u03c1\u03b9\u03c3\u03b1\u03bd \u03c4\u03b7\u03bd \u03c7\u03ac\u03c1\u03b9\u03bd \u03c4\u03b7\u03bd \u03b4\u03bf\u03b8\u03b5\u03af\u03c3\u03b1\u03bd \u03b5\u03b9\u03c2 \u03b5\u03bc\u03ad \u0399\u03ac\u03ba\u03c9\u03b2\u03bf\u03c2 \u03ba\u03b1\u03b9 \u039a\u03b7\u03c6\u03ac\u03c2 \u03ba\u03b1\u03b9 \u0399\u03c9\u03ac\u03bd\u03bd\u03b7\u03c2, \u03bf\u03b9 \u03b8\u03b5\u03c9\u03c1\u03bf\u03cd\u03bc\u03b5\u03bd\u03bf\u03b9 \u03cc\u03c4\u03b9 \u03b5\u03af\u03bd\u03b1\u03b9 \u03c3\u03c4\u03cd\u03bb\u03bf\u03b9, \u03b4\u03b5\u03be\u03b9\u03ac\u03c2 \u03ad\u03b4\u03c9\u03ba\u03b1\u03bd \u03ba\u03bf\u03b9\u03bd\u03c9\u03bd\u03af\u03b1\u03c2 \u03b5\u03b9\u03c2 \u03b5\u03bc\u03ad \u03ba\u03b1\u03b9 \u03b5\u03b9\u03c2 \u03c4\u03bf\u03bd \u0392\u03b1\u03c1\u03bd\u03ac\u03b2\u03b1\u03bd, \u03b4\u03b9\u03ac \u03bd\u03b1 \u03c5\u03c0\u03ac\u03b3\u03c9\u03bc\u03b5\u03bd \u03b7\u03bc\u03b5\u03af\u03c2 \u03bc\u03b5\u03bd \u03b5\u03b9\u03c2 \u03c4\u03b1 \u03ad\u03b8\u03bd\u03b7, \u03b1\u03c5\u03c4\u03bf\u03af \u03b4\u03b5 \u03b5\u03b9\u03c2 \u03c4\u03bf\u03c5\u03c2 \u03c0\u03b5\u03c1\u03b9\u03c4\u03b5\u03c4\u03bc\u03b7\u03bc\u03ad\u03bd\u03bf\u03c5\u03c2\u00b7 "
        },
        {
          "chapter": 2,
          "verse": 10,
          "name": "Galatians 2:10",
          "text": "\u03bc\u03cc\u03bd\u03bf\u03bd \u03bc\u03b1\u03c2 \u03c0\u03b1\u03c1\u03ae\u03b3\u03b3\u03b5\u03b9\u03bb\u03b1\u03bd \u03bd\u03b1 \u03b5\u03bd\u03b8\u03c5\u03bc\u03ce\u03bc\u03b5\u03b8\u03b1 \u03c4\u03bf\u03c5\u03c2 \u03c0\u03c4\u03c9\u03c7\u03bf\u03cd\u03c2, \u03c4\u03bf \u03bf\u03c0\u03bf\u03af\u03bf\u03bd \u03ba\u03b1\u03b9 \u03b5\u03c3\u03c0\u03bf\u03cd\u03b4\u03b1\u03c3\u03b1 \u03b1\u03c5\u03c4\u03cc \u03c4\u03bf\u03cd\u03c4\u03bf \u03bd\u03b1 \u03ba\u03ac\u03bc\u03c9. "
        },
        {
          "chapter": 2,
          "verse": 11,
          "name": "Galatians 2:11",
          "text": "\u038c\u03c4\u03b5 \u03b4\u03b5 \u03ae\u03bb\u03b8\u03b5\u03bd \u03bf \u03a0\u03ad\u03c4\u03c1\u03bf\u03c2 \u03b5\u03b9\u03c2 \u03c4\u03b7\u03bd \u0391\u03bd\u03c4\u03b9\u03cc\u03c7\u03b5\u03b9\u03b1\u03bd, \u03b7\u03bd\u03b1\u03bd\u03c4\u03b9\u03ce\u03b8\u03b7\u03bd \u03b5\u03b9\u03c2 \u03b1\u03c5\u03c4\u03cc\u03bd \u03ba\u03b1\u03c4\u03ac \u03c0\u03c1\u03cc\u03c3\u03c9\u03c0\u03bf\u03bd, \u03b4\u03b9\u03cc\u03c4\u03b9 \u03ae\u03c4\u03bf \u03b1\u03be\u03b9\u03cc\u03bc\u03b5\u03bc\u03c0\u03c4\u03bf\u03c2. "
        },
        {
          "chapter": 2,
          "verse": 12,
          "name": "Galatians 2:12",
          "text": "\u0395\u03c0\u03b5\u03b9\u03b4\u03ae \u03c0\u03c1\u03b9\u03bd \u03ad\u03bb\u03b8\u03c9\u03c3\u03af \u03c4\u03b9\u03bd\u03ad\u03c2 \u03b1\u03c0\u03cc \u03c4\u03bf\u03c5 \u0399\u03b1\u03ba\u03ce\u03b2\u03bf\u03c5, \u03c3\u03c5\u03bd\u03ad\u03c4\u03c1\u03c9\u03b3\u03b5 \u03bc\u03b5 \u03c4\u03bf\u03c5\u03c2 \u03b5\u03b8\u03bd\u03b9\u03ba\u03bf\u03cd\u03c2\u00b7 \u03cc\u03c4\u03b5 \u03b4\u03b5 \u03ae\u03bb\u03b8\u03bf\u03bd, \u03c3\u03c5\u03bd\u03b5\u03c3\u03c4\u03ad\u03bb\u03bb\u03b5\u03c4\u03bf \u03ba\u03b1\u03b9 \u03b1\u03c0\u03b5\u03c7\u03ce\u03c1\u03b9\u03b6\u03b5\u03bd \u03b5\u03b1\u03c5\u03c4\u03cc\u03bd, \u03c6\u03bf\u03b2\u03bf\u03cd\u03bc\u03b5\u03bd\u03bf\u03c2 \u03c4\u03bf\u03c5\u03c2 \u03b5\u03ba \u03c0\u03b5\u03c1\u03b9\u03c4\u03bf\u03bc\u03ae\u03c2. "
        },
        {
          "chapter": 2,
          "verse": 13,
          "name": "Galatians 2:13",
          "text": "\u039a\u03b1\u03b9 \u03bc\u03b5\u03c4' \u03b1\u03c5\u03c4\u03bf\u03cd \u03c3\u03c5\u03bd\u03c5\u03c0\u03b5\u03ba\u03c1\u03af\u03b8\u03b7\u03c3\u03b1\u03bd \u03ba\u03b1\u03b9 \u03bf\u03b9 \u03bb\u03bf\u03b9\u03c0\u03bf\u03af \u0399\u03bf\u03c5\u03b4\u03b1\u03af\u03bf\u03b9, \u03ce\u03c3\u03c4\u03b5 \u03ba\u03b1\u03b9 \u03bf \u0392\u03b1\u03c1\u03bd\u03ac\u03b2\u03b1\u03c2 \u03c3\u03c5\u03bc\u03c0\u03b1\u03c1\u03b5\u03c3\u03cd\u03c1\u03b8\u03b7 \u03b5\u03b9\u03c2 \u03c4\u03b7\u03bd \u03c5\u03c0\u03cc\u03ba\u03c1\u03b9\u03c3\u03b9\u03bd \u03b1\u03c5\u03c4\u03ce\u03bd. "
        },
        {
          "chapter": 2,
          "verse": 14,
          "name": "Galatians 2:14",
          "text": "\u0391\u03bb\u03bb' \u03cc\u03c4\u03b5 \u03b5\u03b3\u03ce \u03b5\u03af\u03b4\u03bf\u03bd \u03cc\u03c4\u03b9 \u03b4\u03b5\u03bd \u03bf\u03c1\u03b8\u03bf\u03c0\u03bf\u03b4\u03bf\u03cd\u03c3\u03b9 \u03c0\u03c1\u03bf\u03c2 \u03c4\u03b7\u03bd \u03b1\u03bb\u03ae\u03b8\u03b5\u03b9\u03b1\u03bd \u03c4\u03bf\u03c5 \u03b5\u03c5\u03b1\u03b3\u03b3\u03b5\u03bb\u03af\u03bf\u03c5, \u03b5\u03af\u03c0\u03bf\u03bd \u03c0\u03c1\u03bf\u03c2 \u03c4\u03bf\u03bd \u03a0\u03ad\u03c4\u03c1\u03bf\u03bd \u03ad\u03bc\u03c0\u03c1\u03bf\u03c3\u03b8\u03b5\u03bd \u03c0\u03ac\u03bd\u03c4\u03c9\u03bd\u00b7 \u0395\u03ac\u03bd \u03c3\u03c5 \u0399\u03bf\u03c5\u03b4\u03b1\u03af\u03bf\u03c2 \u03c9\u03bd \u03b6\u03b7\u03c2 \u03b5\u03b8\u03bd\u03b9\u03ba\u03ce\u03c2 \u03ba\u03b1\u03b9 \u03bf\u03c5\u03c7\u03af \u0399\u03bf\u03c5\u03b4\u03b1\u03ca\u03ba\u03ce\u03c2, \u03b4\u03b9\u03ac \u03c4\u03b9 \u03b1\u03bd\u03b1\u03b3\u03ba\u03ac\u03b6\u03b5\u03b9\u03c2 \u03c4\u03bf\u03c5\u03c2 \u03b5\u03b8\u03bd\u03b9\u03ba\u03bf\u03cd\u03c2 \u03bd\u03b1 \u03b9\u03bf\u03c5\u03b4\u03b1\u0390\u03b6\u03c9\u03c3\u03b9\u03bd; "
        },
        {
          "chapter": 2,
          "verse": 15,
          "name": "Galatians 2:15",
          "text": "\u0397\u03bc\u03b5\u03af\u03c2 \u03b5\u03ba \u03b3\u03b5\u03bd\u03bd\u03ae\u03c3\u03b5\u03c9\u03c2 \u0399\u03bf\u03c5\u03b4\u03b1\u03af\u03bf\u03b9 \u03cc\u03bd\u03c4\u03b5\u03c2 \u03ba\u03b1\u03b9 \u03bf\u03c5\u03c7\u03af \u03b5\u03ba \u03c4\u03c9\u03bd \u03b5\u03b8\u03bd\u03ce\u03bd \u03b1\u03bc\u03b1\u03c1\u03c4\u03c9\u03bb\u03bf\u03af, "
        },
        {
          "chapter": 2,
          "verse": 16,
          "name": "Galatians 2:16",
          "text": "\u03b5\u03be\u03b5\u03cd\u03c1\u03bf\u03bd\u03c4\u03b5\u03c2 \u03cc\u03c4\u03b9 \u03b4\u03b5\u03bd \u03b4\u03b9\u03ba\u03b1\u03b9\u03bf\u03cd\u03c4\u03b1\u03b9 \u03ac\u03bd\u03b8\u03c1\u03c9\u03c0\u03bf\u03c2 \u03b5\u03be \u03ad\u03c1\u03b3\u03c9\u03bd \u03bd\u03cc\u03bc\u03bf\u03c5 \u03b5\u03b9\u03bc\u03ae \u03b4\u03b9\u03ac \u03c0\u03af\u03c3\u03c4\u03b5\u03c9\u03c2 \u0399\u03b7\u03c3\u03bf\u03cd \u03a7\u03c1\u03b9\u03c3\u03c4\u03bf\u03cd, \u03ba\u03b1\u03b9 \u03b7\u03bc\u03b5\u03af\u03c2 \u03b5\u03c0\u03b9\u03c3\u03c4\u03b5\u03cd\u03c3\u03b1\u03bc\u03b5\u03bd \u03b5\u03b9\u03c2 \u03c4\u03bf\u03bd \u0399\u03b7\u03c3\u03bf\u03cd\u03bd \u03a7\u03c1\u03b9\u03c3\u03c4\u03cc\u03bd, \u03b4\u03b9\u03ac \u03bd\u03b1 \u03b4\u03b9\u03ba\u03b1\u03b9\u03c9\u03b8\u03ce\u03bc\u03b5\u03bd \u03b5\u03ba \u03c0\u03af\u03c3\u03c4\u03b5\u03c9\u03c2 \u03a7\u03c1\u03b9\u03c3\u03c4\u03bf\u03cd \u03ba\u03b1\u03b9 \u03bf\u03c5\u03c7\u03af \u03b5\u03be \u03ad\u03c1\u03b3\u03c9\u03bd \u03bd\u03cc\u03bc\u03bf\u03c5, \u03b4\u03b9\u03cc\u03c4\u03b9 \u03b4\u03b5\u03bd \u03b8\u03ad\u03bb\u03b5\u03b9 \u03b4\u03b9\u03ba\u03b1\u03b9\u03c9\u03b8\u03ae \u03b5\u03be \u03ad\u03c1\u03b3\u03c9\u03bd \u03bd\u03cc\u03bc\u03bf\u03c5 \u03bf\u03c5\u03b4\u03b5\u03af\u03c2 \u03ac\u03bd\u03b8\u03c1\u03c9\u03c0\u03bf\u03c2. "
        },
        {
          "chapter": 2,
          "verse": 17,
          "name": "Galatians 2:17",
          "text": "\u0391\u03bb\u03bb' \u03b5\u03ac\u03bd \u03b6\u03b7\u03c4\u03bf\u03cd\u03bd\u03c4\u03b5\u03c2 \u03bd\u03b1 \u03b4\u03b9\u03ba\u03b1\u03b9\u03c9\u03b8\u03ce\u03bc\u03b5\u03bd \u03b5\u03b9\u03c2 \u03c4\u03bf\u03bd \u03a7\u03c1\u03b9\u03c3\u03c4\u03cc\u03bd \u03b5\u03c5\u03c1\u03ad\u03b8\u03b7\u03bc\u03b5\u03bd \u03ba\u03b1\u03b9 \u03b7\u03bc\u03b5\u03af\u03c2 \u03b1\u03bc\u03b1\u03c1\u03c4\u03c9\u03bb\u03bf\u03af, \u03ac\u03c1\u03b1 \u03bf \u03a7\u03c1\u03b9\u03c3\u03c4\u03cc\u03c2 \u03b1\u03bc\u03b1\u03c1\u03c4\u03af\u03b1\u03c2 \u03b5\u03af\u03bd\u03b1\u03b9 \u03b4\u03b9\u03ac\u03ba\u03bf\u03bd\u03bf\u03c2; \u039c\u03b7 \u03b3\u03ad\u03bd\u03bf\u03b9\u03c4\u03bf. "
        },
        {
          "chapter": 2,
          "verse": 18,
          "name": "Galatians 2:18",
          "text": "\u0394\u03b9\u03cc\u03c4\u03b9 \u03b5\u03ac\u03bd \u03cc\u03c3\u03b1 \u03ba\u03b1\u03c4\u03ad\u03c3\u03c4\u03c1\u03b5\u03c8\u03b1 \u03c4\u03b1\u03cd\u03c4\u03b1 \u03c0\u03ac\u03bb\u03b9\u03bd \u03bf\u03b9\u03ba\u03bf\u03b4\u03bf\u03bc\u03ce, \u03c0\u03b1\u03c1\u03b1\u03b2\u03ac\u03c4\u03b7\u03bd \u03b4\u03b5\u03b9\u03ba\u03bd\u03cd\u03c9 \u03b5\u03bc\u03b1\u03c5\u03c4\u03cc\u03bd. "
        },
        {
          "chapter": 2,
          "verse": 19,
          "name": "Galatians 2:19",
          "text": "\u0394\u03b9\u03cc\u03c4\u03b9 \u03b5\u03b3\u03ce \u03b4\u03b9\u03ac \u03c4\u03bf\u03c5 \u03bd\u03cc\u03bc\u03bf\u03c5 \u03b1\u03c0\u03ad\u03b8\u03b1\u03bd\u03bf\u03bd \u03b5\u03b9\u03c2 \u03c4\u03bf\u03bd \u03bd\u03cc\u03bc\u03bf\u03bd, \u03b4\u03b9\u03ac \u03bd\u03b1 \u03b6\u03ae\u03c3\u03c9 \u03b5\u03b9\u03c2 \u03c4\u03bf\u03bd \u0398\u03b5\u03cc\u03bd. "
        },
        {
          "chapter": 2,
          "verse": 20,
          "name": "Galatians 2:20",
          "text": "\u039c\u03b5\u03c4\u03ac \u03c4\u03bf\u03c5 \u03a7\u03c1\u03b9\u03c3\u03c4\u03bf\u03cd \u03c3\u03c5\u03bd\u03b5\u03c3\u03c4\u03b1\u03c5\u03c1\u03ce\u03b8\u03b7\u03bd\u00b7 \u03b6\u03c9 \u03b4\u03b5 \u03bf\u03c5\u03c7\u03af \u03c0\u03bb\u03ad\u03bf\u03bd \u03b5\u03b3\u03ce, \u03b1\u03bb\u03bb' \u03bf \u03a7\u03c1\u03b9\u03c3\u03c4\u03cc\u03c2 \u03b6\u03b7 \u03b5\u03bd \u03b5\u03bc\u03bf\u03af\u00b7 \u03ba\u03b1\u03b8' \u03bf \u03b4\u03b5 \u03c4\u03ce\u03c1\u03b1 \u03b6\u03c9 \u03b5\u03bd \u03c3\u03b1\u03c1\u03ba\u03af, \u03b6\u03c9 \u03b5\u03bd \u03c4\u03b7 \u03c0\u03af\u03c3\u03c4\u03b5\u03b9 \u03c4\u03bf\u03c5 \u03a5\u03b9\u03bf\u03cd \u03c4\u03bf\u03c5 \u0398\u03b5\u03bf\u03cd, \u03cc\u03c3\u03c4\u03b9\u03c2 \u03bc\u03b5 \u03b7\u03b3\u03ac\u03c0\u03b7\u03c3\u03b5 \u03ba\u03b1\u03b9 \u03c0\u03b1\u03c1\u03ad\u03b4\u03c9\u03ba\u03b5\u03bd \u03b5\u03b1\u03c5\u03c4\u03cc\u03bd \u03c5\u03c0\u03ad\u03c1 \u03b5\u03bc\u03bf\u03cd. "
        },
        {
          "chapter": 2,
          "verse": 21,
          "name": "Galatians 2:21",
          "text": "\u0394\u03b5\u03bd \u03b1\u03b8\u03b5\u03c4\u03ce \u03c4\u03b7\u03bd \u03c7\u03ac\u03c1\u03b9\u03bd \u03c4\u03bf\u03c5 \u0398\u03b5\u03bf\u03cd\u00b7 \u03b4\u03b9\u03cc\u03c4\u03b9 \u03b1\u03bd \u03b7 \u03b4\u03b9\u03ba\u03b1\u03af\u03c9\u03c3\u03b9\u03c2 \u03b3\u03af\u03bd\u03b7\u03c4\u03b1\u03b9 \u03b4\u03b9\u03ac \u03c4\u03bf\u03c5 \u03bd\u03cc\u03bc\u03bf\u03c5, \u03ac\u03c1\u03b1 \u03bf \u03a7\u03c1\u03b9\u03c3\u03c4\u03cc\u03c2 \u03b5\u03b9\u03c2 \u03bc\u03ac\u03c4\u03b7\u03bd \u03b1\u03c0\u03ad\u03b8\u03b1\u03bd\u03b5. "
        }
      ]
    },
    {
      "chapter": 3,
      "name": "Galatians 3",
      "verses": [
        {
          "chapter": 3,
          "verse": 1,
          "name": "Galatians 3:1",
          "text": "\u03a9 \u03b1\u03bd\u03cc\u03b7\u03c4\u03bf\u03b9 \u0393\u03b1\u03bb\u03ac\u03c4\u03b1\u03b9, \u03c4\u03b9\u03c2 \u03c3\u03b1\u03c2 \u03b5\u03b2\u03ac\u03c3\u03ba\u03b1\u03bd\u03b5\u03bd, \u03ce\u03c3\u03c4\u03b5 \u03bd\u03b1 \u03bc\u03b7 \u03c0\u03b5\u03af\u03b8\u03b7\u03c3\u03b8\u03b5 \u03b5\u03b9\u03c2 \u03c4\u03b7\u03bd \u03b1\u03bb\u03ae\u03b8\u03b5\u03b9\u03b1\u03bd \u03c3\u03b5\u03b9\u03c2, \u03ad\u03bc\u03c0\u03c1\u03bf\u03c3\u03b8\u03b5\u03bd \u03b5\u03b9\u03c2 \u03c4\u03bf\u03c5\u03c2 \u03bf\u03c6\u03b8\u03b1\u03bb\u03bc\u03bf\u03cd\u03c2 \u03c4\u03c9\u03bd \u03bf\u03c0\u03bf\u03af\u03c9\u03bd \u03bf \u0399\u03b7\u03c3\u03bf\u03cd\u03c2 \u03a7\u03c1\u03b9\u03c3\u03c4\u03cc\u03c2, \u03b4\u03b9\u03b5\u03b3\u03c1\u03ac\u03c6\u03b7 \u03b5\u03c3\u03c4\u03b1\u03c5\u03c1\u03c9\u03bc\u03ad\u03bd\u03bf\u03c2 \u03bc\u03b5\u03c4\u03b1\u03be\u03cd \u03c3\u03b1\u03c2; "
        },
        {
          "chapter": 3,
          "verse": 2,
          "name": "Galatians 3:2",
          "text": "\u03a4\u03bf\u03cd\u03c4\u03bf \u03bc\u03cc\u03bd\u03bf\u03bd \u03b8\u03ad\u03bb\u03c9 \u03bd\u03b1 \u03bc\u03ac\u03b8\u03c9 \u03b1\u03c0\u03cc \u03c3\u03ac\u03c2\u00b7 \u0395\u03be \u03ad\u03c1\u03b3\u03c9\u03bd \u03bd\u03cc\u03bc\u03bf\u03c5 \u03b5\u03bb\u03ac\u03b2\u03b5\u03c4\u03b5 \u03c4\u03bf \u03a0\u03bd\u03b5\u03cd\u03bc\u03b1, \u03ae \u03b5\u03be \u03b1\u03ba\u03bf\u03ae\u03c2 \u03c4\u03b7\u03c2 \u03c0\u03af\u03c3\u03c4\u03b5\u03c9\u03c2; "
        },
        {
          "chapter": 3,
          "verse": 3,
          "name": "Galatians 3:3",
          "text": "\u03c4\u03cc\u03c3\u03bf\u03bd \u03b1\u03bd\u03cc\u03b7\u03c4\u03bf\u03b9 \u03b5\u03af\u03c3\u03b8\u03b5; \u03b1\u03c6\u03bf\u03cd \u03b7\u03c1\u03c7\u03af\u03c3\u03b1\u03c4\u03b5 \u03bc\u03b5 \u03c4\u03bf \u03a0\u03bd\u03b5\u03cd\u03bc\u03b1, \u03c4\u03ce\u03c1\u03b1 \u03c4\u03b5\u03bb\u03b5\u03b9\u03cc\u03bd\u03b5\u03c4\u03b5 \u03bc\u03b5 \u03c4\u03b7\u03bd \u03c3\u03ac\u03c1\u03ba\u03b1; "
        },
        {
          "chapter": 3,
          "verse": 4,
          "name": "Galatians 3:4",
          "text": "\u03b5\u03b9\u03c2 \u03bc\u03ac\u03c4\u03b7\u03bd \u03b5\u03c0\u03ac\u03b8\u03b5\u03c4\u03b5 \u03c4\u03cc\u03c3\u03b1; \u03b1\u03bd \u03bc\u03cc\u03bd\u03bf\u03bd \u03b5\u03b9\u03c2 \u03bc\u03ac\u03c4\u03b7\u03bd. "
        },
        {
          "chapter": 3,
          "verse": 5,
          "name": "Galatians 3:5",
          "text": "\u0395\u03ba\u03b5\u03af\u03bd\u03bf\u03c2 \u03bb\u03bf\u03b9\u03c0\u03cc\u03bd \u03cc\u03c3\u03c4\u03b9\u03c2 \u03c7\u03bf\u03c1\u03b7\u03b3\u03b5\u03af \u03b5\u03b9\u03c2 \u03b5\u03c3\u03ac\u03c2 \u03c4\u03bf \u03a0\u03bd\u03b5\u03cd\u03bc\u03b1 \u03ba\u03b1\u03b9 \u03b5\u03bd\u03b5\u03c1\u03b3\u03b5\u03af \u03b8\u03b1\u03cd\u03bc\u03b1\u03c4\u03b1 \u03bc\u03b5\u03c4\u03b1\u03be\u03cd \u03c3\u03b1\u03c2, \u03b5\u03be \u03ad\u03c1\u03b3\u03c9\u03bd \u03bd\u03cc\u03bc\u03bf\u03c5 \u03ba\u03ac\u03bc\u03bd\u03b5\u03b9 \u03c4\u03b1\u03cd\u03c4\u03b1 \u03ae \u03b5\u03be \u03b1\u03ba\u03bf\u03ae\u03c2 \u03c0\u03af\u03c3\u03c4\u03b5\u03c9\u03c2; "
        },
        {
          "chapter": 3,
          "verse": 6,
          "name": "Galatians 3:6",
          "text": "\u03ba\u03b1\u03b8\u03ce\u03c2 \u03bf \u0391\u03b2\u03c1\u03b1\u03ac\u03bc \u03b5\u03c0\u03af\u03c3\u03c4\u03b5\u03c5\u03c3\u03b5\u03bd \u03b5\u03b9\u03c2 \u03c4\u03bf\u03bd \u0398\u03b5\u03cc\u03bd, \u03ba\u03b1\u03b9 \u03b5\u03bb\u03bf\u03b3\u03af\u03c3\u03b8\u03b7 \u03b5\u03b9\u03c2 \u03b1\u03c5\u03c4\u03cc\u03bd \u03b5\u03b9\u03c2 \u03b4\u03b9\u03ba\u03b1\u03b9\u03bf\u03c3\u03cd\u03bd\u03b7\u03bd. "
        },
        {
          "chapter": 3,
          "verse": 7,
          "name": "Galatians 3:7",
          "text": "\u0395\u03be\u03b5\u03cd\u03c1\u03b5\u03c4\u03b5 \u03bb\u03bf\u03b9\u03c0\u03cc\u03bd \u03cc\u03c4\u03b9 \u03bf\u03b9 \u03cc\u03bd\u03c4\u03b5\u03c2 \u03b5\u03ba \u03c0\u03af\u03c3\u03c4\u03b5\u03c9\u03c2, \u03bf\u03cd\u03c4\u03bf\u03b9 \u03b5\u03af\u03bd\u03b1\u03b9 \u03c5\u03b9\u03bf\u03af \u03c4\u03bf\u03c5 \u0391\u03b2\u03c1\u03b1\u03ac\u03bc. "
        },
        {
          "chapter": 3,
          "verse": 8,
          "name": "Galatians 3:8",
          "text": "\u03a0\u03c1\u03bf\u03ca\u03b4\u03bf\u03cd\u03c3\u03b1 \u03b4\u03b5 \u03b7 \u03b3\u03c1\u03b1\u03c6\u03ae \u03cc\u03c4\u03b9 \u03b5\u03ba \u03c0\u03af\u03c3\u03c4\u03b5\u03c9\u03c2 \u03b4\u03b9\u03ba\u03b1\u03b9\u03cc\u03bd\u03b5\u03b9 \u03c4\u03b1 \u03ad\u03b8\u03bd\u03b7 \u03bf \u0398\u03b5\u03cc\u03c2, \u03c0\u03c1\u03bf\u03ae\u03b3\u03b3\u03b5\u03b9\u03bb\u03b5\u03bd \u03b5\u03b9\u03c2 \u03c4\u03bf\u03bd \u0391\u03b2\u03c1\u03b1\u03ac\u03bc \u03cc\u03c4\u03b9 \u03b8\u03ad\u03bb\u03bf\u03c5\u03c3\u03b9\u03bd \u03b5\u03c5\u03bb\u03bf\u03b3\u03b7\u03b8\u03ae \u03b5\u03bd \u03c3\u03bf\u03b9 \u03c0\u03ac\u03bd\u03c4\u03b1 \u03c4\u03b1 \u03ad\u03b8\u03bd\u03b7. "
        },
        {
          "chapter": 3,
          "verse": 9,
          "name": "Galatians 3:9",
          "text": "\u038f\u03c3\u03c4\u03b5 \u03bf\u03b9 \u03cc\u03bd\u03c4\u03b5\u03c2 \u03b5\u03ba \u03c0\u03af\u03c3\u03c4\u03b5\u03c9\u03c2 \u03b5\u03c5\u03bb\u03bf\u03b3\u03bf\u03cd\u03bd\u03c4\u03b1\u03b9 \u03bc\u03b5\u03c4\u03ac \u03c4\u03bf\u03c5 \u03c0\u03b9\u03c3\u03c4\u03bf\u03cd \u0391\u03b2\u03c1\u03b1\u03ac\u03bc. "
        },
        {
          "chapter": 3,
          "verse": 10,
          "name": "Galatians 3:10",
          "text": "\u0394\u03b9\u03cc\u03c4\u03b9 \u03cc\u03c3\u03bf\u03b9 \u03b5\u03af\u03bd\u03b1\u03b9 \u03b5\u03be \u03ad\u03c1\u03b3\u03c9\u03bd \u03bd\u03cc\u03bc\u03bf\u03c5, \u03c5\u03c0\u03cc \u03ba\u03b1\u03c4\u03ac\u03c1\u03b1\u03bd \u03b5\u03af\u03bd\u03b1\u03b9\u00b7 \u03b5\u03c0\u03b5\u03b9\u03b4\u03ae \u03b5\u03af\u03bd\u03b1\u03b9 \u03b3\u03b5\u03b3\u03c1\u03b1\u03bc\u03bc\u03ad\u03bd\u03bf\u03bd\u00b7 \u0395\u03c0\u03b9\u03ba\u03b1\u03c4\u03ac\u03c1\u03b1\u03c4\u03bf\u03c2 \u03c0\u03b1\u03c2 \u03cc\u03c3\u03c4\u03b9\u03c2 \u03b4\u03b5\u03bd \u03b5\u03bc\u03bc\u03ad\u03bd\u03b5\u03b9 \u03b5\u03bd \u03c0\u03ac\u03c3\u03b9 \u03c4\u03bf\u03b9\u03c2 \u03b3\u03b5\u03b3\u03c1\u03b1\u03bc\u03bc\u03ad\u03bd\u03bf\u03b9\u03c2 \u03b5\u03bd \u03c4\u03c9 \u03b2\u03b9\u03b2\u03bb\u03af\u03c9 \u03c4\u03bf\u03c5 \u03bd\u03cc\u03bc\u03bf\u03c5, \u03ce\u03c3\u03c4\u03b5 \u03bd\u03b1 \u03c0\u03c1\u03ac\u03be\u03b7 \u03b1\u03c5\u03c4\u03ac. "
        },
        {
          "chapter": 3,
          "verse": 11,
          "name": "Galatians 3:11",
          "text": "\u038c\u03c4\u03b9 \u03b4\u03b5 \u03bf\u03c5\u03b4\u03b5\u03af\u03c2 \u03b4\u03b9\u03ba\u03b1\u03b9\u03bf\u03cd\u03c4\u03b1\u03b9 \u03b4\u03b9\u03ac \u03c4\u03bf\u03c5 \u03bd\u03cc\u03bc\u03bf\u03c5 \u03b5\u03bd\u03ce\u03c0\u03b9\u03bf\u03bd \u03c4\u03bf\u03c5 \u0398\u03b5\u03bf\u03cd, \u03b5\u03af\u03bd\u03b1\u03b9 \u03c6\u03b1\u03bd\u03b5\u03c1\u03cc\u03bd, \u03b4\u03b9\u03cc\u03c4\u03b9 \u03bf \u03b4\u03af\u03ba\u03b1\u03b9\u03bf\u03c2 \u03b8\u03ad\u03bb\u03b5\u03b9 \u03b6\u03ae\u03c3\u03b5\u03b9 \u03b5\u03ba \u03c0\u03af\u03c3\u03c4\u03b5\u03c9\u03c2, "
        },
        {
          "chapter": 3,
          "verse": 12,
          "name": "Galatians 3:12",
          "text": "\u03bf \u03b4\u03b5 \u03bd\u03cc\u03bc\u03bf\u03c2 \u03b4\u03b5\u03bd \u03b5\u03af\u03bd\u03b1\u03b9 \u03b5\u03ba \u03c0\u03af\u03c3\u03c4\u03b5\u03c9\u03c2\u00b7 \u03b1\u03bb\u03bb' \u03bf \u03ac\u03bd\u03b8\u03c1\u03c9\u03c0\u03bf\u03c2 \u03bf \u03c0\u03c1\u03ac\u03c4\u03c4\u03c9\u03bd \u03b1\u03c5\u03c4\u03ac \u03b8\u03ad\u03bb\u03b5\u03b9 \u03b6\u03ae\u03c3\u03b5\u03b9 \u03b4\u03b9' \u03b1\u03c5\u03c4\u03ce\u03bd. "
        },
        {
          "chapter": 3,
          "verse": 13,
          "name": "Galatians 3:13",
          "text": "\u039f \u03a7\u03c1\u03b9\u03c3\u03c4\u03cc\u03c2 \u03b5\u03be\u03b7\u03b3\u03cc\u03c1\u03b1\u03c3\u03b5\u03bd \u03b7\u03bc\u03ac\u03c2 \u03b5\u03ba \u03c4\u03b7\u03c2 \u03ba\u03b1\u03c4\u03ac\u03c1\u03b1\u03c2 \u03c4\u03bf\u03c5 \u03bd\u03cc\u03bc\u03bf\u03c5, \u03b3\u03b5\u03bd\u03cc\u03bc\u03b5\u03bd\u03bf\u03c2 \u03ba\u03b1\u03c4\u03ac\u03c1\u03b1 \u03c5\u03c0\u03ad\u03c1 \u03b7\u03bc\u03ce\u03bd\u00b7 \u03b4\u03b9\u03cc\u03c4\u03b9 \u03b5\u03af\u03bd\u03b1\u03b9 \u03b3\u03b5\u03b3\u03c1\u03b1\u03bc\u03bc\u03ad\u03bd\u03bf\u03bd\u00b7 \u0395\u03c0\u03b9\u03ba\u03b1\u03c4\u03ac\u03c1\u03b1\u03c4\u03bf\u03c2 \u03c0\u03b1\u03c2 \u03bf \u03ba\u03c1\u03b5\u03bc\u03ac\u03bc\u03b5\u03bd\u03bf\u03c2 \u03b5\u03c0\u03af \u03be\u03cd\u03bb\u03bf\u03c5. "
        },
        {
          "chapter": 3,
          "verse": 14,
          "name": "Galatians 3:14",
          "text": "\u0394\u03b9\u03ac \u03bd\u03b1 \u03ad\u03bb\u03b8\u03b7 \u03b5\u03b9\u03c2 \u03c4\u03b1 \u03ad\u03b8\u03bd\u03b7 \u03b7 \u03b5\u03c5\u03bb\u03bf\u03b3\u03af\u03b1 \u03c4\u03bf\u03c5 \u0391\u03b2\u03c1\u03b1\u03ac\u03bc \u03b4\u03b9\u03ac \u0399\u03b7\u03c3\u03bf\u03cd \u03a7\u03c1\u03b9\u03c3\u03c4\u03bf\u03cd, \u03ce\u03c3\u03c4\u03b5 \u03bd\u03b1 \u03bb\u03ac\u03b2\u03c9\u03bc\u03b5\u03bd \u03c4\u03b7\u03bd \u03b5\u03c0\u03b1\u03b3\u03b3\u03b5\u03bb\u03af\u03b1\u03bd \u03c4\u03bf\u03c5 \u03a0\u03bd\u03b5\u03cd\u03bc\u03b1\u03c4\u03bf\u03c2 \u03b4\u03b9\u03ac \u03c4\u03b7\u03c2 \u03c0\u03af\u03c3\u03c4\u03b5\u03c9\u03c2. "
        },
        {
          "chapter": 3,
          "verse": 15,
          "name": "Galatians 3:15",
          "text": "\u0391\u03b4\u03b5\u03bb\u03c6\u03bf\u03af, \u03ba\u03b1\u03c4\u03ac \u03ac\u03bd\u03b8\u03c1\u03c9\u03c0\u03bf\u03bd \u03bf\u03bc\u03b9\u03bb\u03ce\u00b7 \u03cc\u03bc\u03c9\u03c2 \u03ba\u03b1\u03b9 \u03b1\u03bd\u03b8\u03c1\u03ce\u03c0\u03bf\u03c5 \u03b4\u03b9\u03b1\u03b8\u03ae\u03ba\u03b7\u03bd \u03ba\u03b5\u03ba\u03c5\u03c1\u03c9\u03bc\u03ad\u03bd\u03b7\u03bd \u03bf\u03c5\u03b4\u03b5\u03af\u03c2 \u03b1\u03b8\u03b5\u03c4\u03b5\u03af \u03ae \u03c0\u03c1\u03bf\u03c3\u03b8\u03ad\u03c4\u03b5\u03b9 \u03b5\u03b9\u03c2 \u03b1\u03c5\u03c4\u03ae\u03bd. "
        },
        {
          "chapter": 3,
          "verse": 16,
          "name": "Galatians 3:16",
          "text": "\u03a0\u03c1\u03bf\u03c2 \u03b4\u03b5 \u03c4\u03bf\u03bd \u0391\u03b2\u03c1\u03b1\u03ac\u03bc \u03b5\u03bb\u03b1\u03bb\u03ae\u03b8\u03b7\u03c3\u03b1\u03bd \u03b1\u03b9 \u03b5\u03c0\u03b1\u03b3\u03b3\u03b5\u03bb\u03af\u03b1\u03b9 \u03ba\u03b1\u03b9 \u03c0\u03c1\u03bf\u03c2 \u03c4\u03bf \u03c3\u03c0\u03ad\u03c1\u03bc\u03b1 \u03b1\u03c5\u03c4\u03bf\u03cd\u00b7 \u03b4\u03b5\u03bd \u03bb\u03ad\u03b3\u03b5\u03b9, \u039a\u03b1\u03b9 \u03c0\u03c1\u03bf\u03c2 \u03c4\u03b1 \u03c3\u03c0\u03ad\u03c1\u03bc\u03b1\u03c4\u03b1, \u03c9\u03c2 \u03c0\u03b5\u03c1\u03af \u03c0\u03bf\u03bb\u03bb\u03ce\u03bd, \u03b1\u03bb\u03bb' \u03c9\u03c2 \u03c0\u03b5\u03c1\u03af \u03b5\u03bd\u03cc\u03c2, \u039a\u03b1\u03b9 \u03c0\u03c1\u03bf\u03c2 \u03c4\u03bf \u03c3\u03c0\u03ad\u03c1\u03bc\u03b1 \u03c3\u03bf\u03c5, \u03cc\u03c3\u03c4\u03b9\u03c2 \u03b5\u03af\u03bd\u03b1\u03b9 \u03bf \u03a7\u03c1\u03b9\u03c3\u03c4\u03cc\u03c2. "
        },
        {
          "chapter": 3,
          "verse": 17,
          "name": "Galatians 3:17",
          "text": "\u03a4\u03bf\u03cd\u03c4\u03bf \u03b4\u03b5 \u03bb\u03ad\u03b3\u03c9\u00b7 \u03cc\u03c4\u03b9 \u03b4\u03b9\u03b1\u03b8\u03ae\u03ba\u03b7\u03bd \u03c0\u03c1\u03bf\u03ba\u03b5\u03ba\u03c5\u03c1\u03c9\u03bc\u03ad\u03bd\u03b7\u03bd \u03b5\u03b9\u03c2 \u03c4\u03bf\u03bd \u03a7\u03c1\u03b9\u03c3\u03c4\u03cc\u03bd \u03c5\u03c0\u03cc \u03c4\u03bf\u03c5 \u0398\u03b5\u03bf\u03cd \u03bf \u03bc\u03b5\u03c4\u03ac \u03ad\u03c4\u03b7 \u03c4\u03b5\u03c4\u03c1\u03b1\u03ba\u03cc\u03c3\u03b9\u03b1 \u03c4\u03c1\u03b9\u03ac\u03ba\u03bf\u03bd\u03c4\u03b1 \u03b3\u03b5\u03bd\u03cc\u03bc\u03b5\u03bd\u03bf\u03c2 \u03bd\u03cc\u03bc\u03bf\u03c2 \u03b4\u03b5\u03bd \u03b1\u03ba\u03c5\u03c1\u03cc\u03bd\u03b5\u03b9, \u03ce\u03c3\u03c4\u03b5 \u03bd\u03b1 \u03ba\u03b1\u03c4\u03b1\u03c1\u03b3\u03ae\u03c3\u03b7 \u03c4\u03b7\u03bd \u03b5\u03c0\u03b1\u03b3\u03b3\u03b5\u03bb\u03af\u03b1\u03bd. "
        },
        {
          "chapter": 3,
          "verse": 18,
          "name": "Galatians 3:18",
          "text": "\u0394\u03b9\u03cc\u03c4\u03b9 \u03b5\u03ac\u03bd \u03b7 \u03ba\u03bb\u03b7\u03c1\u03bf\u03bd\u03bf\u03bc\u03af\u03b1 \u03ae\u03bd\u03b1\u03b9 \u03b5\u03ba \u03bd\u03cc\u03bc\u03bf\u03c5, \u03b4\u03b5\u03bd \u03b5\u03af\u03bd\u03b1\u03b9 \u03c0\u03bb\u03ad\u03bf\u03bd \u03b5\u03be \u03b5\u03c0\u03b1\u03b3\u03b3\u03b5\u03bb\u03af\u03b1\u03c2\u00b7 \u03b1\u03bb\u03bb' \u03b5\u03b9\u03c2 \u03c4\u03bf\u03bd \u0391\u03b2\u03c1\u03b1\u03ac\u03bc \u03b4\u03b9' \u03b5\u03c0\u03b1\u03b3\u03b3\u03b5\u03bb\u03af\u03b1\u03c2 \u03b5\u03c7\u03ac\u03c1\u03b9\u03c3\u03b5 \u03c4\u03b1\u03cd\u03c4\u03b7\u03bd \u03bf \u0398\u03b5\u03cc\u03c2. "
        },
        {
          "chapter": 3,
          "verse": 19,
          "name": "Galatians 3:19",
          "text": "\u0394\u03b9\u03ac \u03c4\u03b9 \u03bb\u03bf\u03b9\u03c0\u03cc\u03bd \u03b5\u03b4\u03cc\u03b8\u03b7 \u03bf \u03bd\u03cc\u03bc\u03bf\u03c2; \u0395\u03be \u03b1\u03b9\u03c4\u03af\u03b1\u03c2 \u03c4\u03c9\u03bd \u03c0\u03b1\u03c1\u03b1\u03b2\u03ac\u03c3\u03b5\u03c9\u03bd \u03c0\u03c1\u03bf\u03c3\u03b5\u03c4\u03ad\u03b8\u03b7, \u03b5\u03c9\u03c3\u03bf\u03cd \u03ad\u03bb\u03b8\u03b7 \u03c4\u03bf \u03c3\u03c0\u03ad\u03c1\u03bc\u03b1, \u03c0\u03c1\u03bf\u03c2 \u03c4\u03bf \u03bf\u03c0\u03bf\u03af\u03bf\u03bd \u03ad\u03b3\u03b5\u03b9\u03bd\u03b5\u03bd \u03b7 \u03b5\u03c0\u03b1\u03b3\u03b3\u03b5\u03bb\u03af\u03b1, \u03b4\u03b9\u03b1\u03c4\u03b1\u03c7\u03b8\u03b5\u03af\u03c2 \u03b4\u03b9' \u03b1\u03b3\u03b3\u03ad\u03bb\u03c9\u03bd \u03b4\u03b9\u03ac \u03c7\u03b5\u03b9\u03c1\u03cc\u03c2 \u03bc\u03b5\u03c3\u03af\u03c4\u03bf\u03c5\u00b7 "
        },
        {
          "chapter": 3,
          "verse": 20,
          "name": "Galatians 3:20",
          "text": "\u03bf \u03b4\u03b5 \u03bc\u03b5\u03c3\u03af\u03c4\u03b7\u03c2 \u03b4\u03b5\u03bd \u03b5\u03af\u03bd\u03b1\u03b9 \u03b5\u03bd\u03cc\u03c2, \u03bf \u0398\u03b5\u03cc\u03c2 \u03cc\u03bc\u03c9\u03c2 \u03b5\u03af\u03bd\u03b1\u03b9 \u03b5\u03b9\u03c2. "
        },
        {
          "chapter": 3,
          "verse": 21,
          "name": "Galatians 3:21",
          "text": "\u039f \u03bd\u03cc\u03bc\u03bf\u03c2 \u03bb\u03bf\u03b9\u03c0\u03cc\u03bd \u03b5\u03bd\u03b1\u03bd\u03c4\u03af\u03bf\u03c2 \u03c4\u03c9\u03bd \u03b5\u03c0\u03b1\u03b3\u03b3\u03b5\u03bb\u03b9\u03ce\u03bd \u03c4\u03bf\u03c5 \u0398\u03b5\u03bf\u03cd \u03b5\u03af\u03bd\u03b1\u03b9; \u039c\u03b7 \u03b3\u03ad\u03bd\u03bf\u03b9\u03c4\u03bf. \u0394\u03b9\u03cc\u03c4\u03b9 \u03b5\u03ac\u03bd \u03ae\u03b8\u03b5\u03bb\u03b5 \u03b4\u03bf\u03b8\u03ae \u03bd\u03cc\u03bc\u03bf\u03c2 \u03b4\u03c5\u03bd\u03ac\u03bc\u03b5\u03bd\u03bf\u03c2 \u03bd\u03b1 \u03b6\u03c9\u03bf\u03c0\u03bf\u03b9\u03ae\u03c3\u03b7, \u03b7 \u03b4\u03b9\u03ba\u03b1\u03b9\u03bf\u03c3\u03cd\u03bd\u03b7 \u03ae\u03b8\u03b5\u03bb\u03b5\u03bd \u03b5\u03af\u03c3\u03b8\u03b1\u03b9 \u03c4\u03c9\u03cc\u03bd\u03c4\u03b9 \u03b5\u03ba \u03c4\u03bf\u03c5 \u03bd\u03cc\u03bc\u03bf\u03c5\u00b7 "
        },
        {
          "chapter": 3,
          "verse": 22,
          "name": "Galatians 3:22",
          "text": "\u03b7 \u03b3\u03c1\u03b1\u03c6\u03ae \u03cc\u03bc\u03c9\u03c2 \u03c3\u03c5\u03bd\u03ad\u03ba\u03bb\u03b5\u03b9\u03c3\u03b5 \u03c4\u03b1 \u03c0\u03ac\u03bd\u03c4\u03b1 \u03c5\u03c0\u03cc \u03c4\u03b7\u03bd \u03b1\u03bc\u03b1\u03c1\u03c4\u03af\u03b1\u03bd, \u03b4\u03b9\u03ac \u03bd\u03b1 \u03b4\u03bf\u03b8\u03ae \u03b7 \u03b5\u03c0\u03b1\u03b3\u03b3\u03b5\u03bb\u03af\u03b1 \u03b5\u03ba \u03c0\u03af\u03c3\u03c4\u03b5\u03c9\u03c2 \u0399\u03b7\u03c3\u03bf\u03cd \u03a7\u03c1\u03b9\u03c3\u03c4\u03bf\u03cd \u03b5\u03b9\u03c2 \u03c4\u03bf\u03c5\u03c2 \u03c0\u03b9\u03c3\u03c4\u03b5\u03cd\u03bf\u03bd\u03c4\u03b1\u03c2. "
        },
        {
          "chapter": 3,
          "verse": 23,
          "name": "Galatians 3:23",
          "text": "\u03a0\u03c1\u03b9\u03bd \u03b4\u03b5 \u03ad\u03bb\u03b8\u03b7 \u03b7 \u03c0\u03af\u03c3\u03c4\u03b9\u03c2, \u03b5\u03c6\u03c1\u03bf\u03c5\u03c1\u03bf\u03cd\u03bc\u03b5\u03b8\u03b1 \u03c5\u03c0\u03cc \u03c4\u03bf\u03bd \u03bd\u03cc\u03bc\u03bf\u03bd \u03c3\u03c5\u03b3\u03ba\u03b5\u03ba\u03bb\u03b5\u03b9\u03c3\u03bc\u03ad\u03bd\u03bf\u03b9 \u03b5\u03b9\u03c2 \u03c4\u03b7\u03bd \u03c0\u03af\u03c3\u03c4\u03b9\u03bd, \u03ae\u03c4\u03b9\u03c2 \u03ad\u03bc\u03b5\u03bb\u03bb\u03b5 \u03bd\u03b1 \u03b1\u03c0\u03bf\u03ba\u03b1\u03bb\u03c5\u03c6\u03b8\u03ae. "
        },
        {
          "chapter": 3,
          "verse": 24,
          "name": "Galatians 3:24",
          "text": "\u038f\u03c3\u03c4\u03b5 \u03bf \u03bd\u03cc\u03bc\u03bf\u03c2 \u03ad\u03b3\u03b5\u03b9\u03bd\u03b5 \u03c0\u03b1\u03b9\u03b4\u03b1\u03b3\u03c9\u03b3\u03cc\u03c2 \u03b7\u03bc\u03ce\u03bd \u03b5\u03b9\u03c2 \u03c4\u03bf\u03bd \u03a7\u03c1\u03b9\u03c3\u03c4\u03cc\u03bd, \u03b4\u03b9\u03ac \u03bd\u03b1 \u03b4\u03b9\u03ba\u03b1\u03b9\u03c9\u03b8\u03ce\u03bc\u03b5\u03bd \u03b5\u03ba \u03c0\u03af\u03c3\u03c4\u03b5\u03c9\u03c2. "
        },
        {
          "chapter": 3,
          "verse": 25,
          "name": "Galatians 3:25",
          "text": "\u03b1\u03c6\u03bf\u03cd \u03cc\u03bc\u03c9\u03c2 \u03ae\u03bb\u03b8\u03b5\u03bd \u03b7 \u03c0\u03af\u03c3\u03c4\u03b9\u03c2, \u03b4\u03b5\u03bd \u03b5\u03af\u03bc\u03b5\u03b8\u03b1 \u03c0\u03bb\u03ad\u03bf\u03bd \u03c5\u03c0\u03cc \u03c0\u03b1\u03b9\u03b4\u03b1\u03b3\u03c9\u03b3\u03cc\u03bd. "
        },
        {
          "chapter": 3,
          "verse": 26,
          "name": "Galatians 3:26",
          "text": "\u0394\u03b9\u03cc\u03c4\u03b9 \u03c0\u03ac\u03bd\u03c4\u03b5\u03c2 \u03b5\u03af\u03c3\u03b8\u03b5 \u03c5\u03b9\u03bf\u03af \u0398\u03b5\u03bf\u03cd \u03b4\u03b9\u03ac \u03c4\u03b7\u03c2 \u03c0\u03af\u03c3\u03c4\u03b5\u03c9\u03c2 \u03c4\u03b7\u03c2 \u03b5\u03bd \u03a7\u03c1\u03b9\u03c3\u03c4\u03ce \u0399\u03b7\u03c3\u03bf\u03cd\u00b7 "
        },
        {
          "chapter": 3,
          "verse": 27,
          "name": "Galatians 3:27",
          "text": "\u03b5\u03c0\u03b5\u03b9\u03b4\u03ae \u03cc\u03c3\u03bf\u03b9 \u03b5\u03b2\u03b1\u03c0\u03c4\u03af\u03c3\u03b8\u03b7\u03c4\u03b5 \u03b5\u03b9\u03c2 \u03a7\u03c1\u03b9\u03c3\u03c4\u03cc\u03bd, \u03a7\u03c1\u03b9\u03c3\u03c4\u03cc\u03bd \u03b5\u03bd\u03b5\u03b4\u03cd\u03b8\u03b7\u03c4\u03b5. "
        },
        {
          "chapter": 3,
          "verse": 28,
          "name": "Galatians 3:28",
          "text": "\u0394\u03b5\u03bd \u03b5\u03af\u03bd\u03b1\u03b9 \u03c0\u03bb\u03ad\u03bf\u03bd \u0399\u03bf\u03c5\u03b4\u03b1\u03af\u03bf\u03c2 \u03bf\u03c5\u03b4\u03ad \u0388\u03bb\u03bb\u03b7\u03bd, \u03b4\u03b5\u03bd \u03b5\u03af\u03bd\u03b1\u03b9 \u03b4\u03bf\u03cd\u03bb\u03bf\u03c2 \u03bf\u03c5\u03b4\u03ad \u03b5\u03bb\u03b5\u03cd\u03b8\u03b5\u03c1\u03bf\u03c2, \u03b4\u03b5\u03bd \u03b5\u03af\u03bd\u03b1\u03b9 \u03ac\u03c1\u03c3\u03b5\u03bd \u03ba\u03b1\u03b9 \u03b8\u03ae\u03bb\u03c5\u00b7 \u03b4\u03b9\u03cc\u03c4\u03b9 \u03c0\u03ac\u03bd\u03c4\u03b5\u03c2 \u03c3\u03b5\u03b9\u03c2 \u03b5\u03af\u03c3\u03b8\u03b5 \u03b5\u03b9\u03c2 \u03b5\u03bd \u03a7\u03c1\u03b9\u03c3\u03c4\u03ce \u0399\u03b7\u03c3\u03bf\u03cd\u00b7 "
        },
        {
          "chapter": 3,
          "verse": 29,
          "name": "Galatians 3:29",
          "text": "\u03b5\u03ac\u03bd \u03b4\u03b5 \u03ae\u03c3\u03b8\u03b5 \u03c4\u03bf\u03c5 \u03a7\u03c1\u03b9\u03c3\u03c4\u03bf\u03cd, \u03ac\u03c1\u03b1 \u03b5\u03af\u03c3\u03b8\u03b5 \u03c3\u03c0\u03ad\u03c1\u03bc\u03b1 \u03c4\u03bf\u03c5 \u0391\u03b2\u03c1\u03b1\u03ac\u03bc \u03ba\u03b1\u03b9 \u03ba\u03b1\u03c4\u03ac \u03c4\u03b7\u03bd \u03b5\u03c0\u03b1\u03b3\u03b3\u03b5\u03bb\u03af\u03b1\u03bd \u03ba\u03bb\u03b7\u03c1\u03bf\u03bd\u03cc\u03bc\u03bf\u03b9. "
        }
      ]
    },
    {
      "chapter": 4,
      "name": "Galatians 4",
      "verses": [
        {
          "chapter": 4,
          "verse": 1,
          "name": "Galatians 4:1",
          "text": "\u039b\u03ad\u03b3\u03c9 \u03b4\u03b5, \u03b5\u03c6' \u03cc\u03c3\u03bf\u03bd \u03c7\u03c1\u03cc\u03bd\u03bf\u03bd \u03bf \u03ba\u03bb\u03b7\u03c1\u03bf\u03bd\u03cc\u03bc\u03bf\u03c2 \u03b5\u03af\u03bd\u03b1\u03b9 \u03bd\u03ae\u03c0\u03b9\u03bf\u03c2, \u03b4\u03b5\u03bd \u03b4\u03b9\u03b1\u03c6\u03ad\u03c1\u03b5\u03b9 \u03b4\u03bf\u03cd\u03bb\u03bf\u03c5, \u03b1\u03bd \u03ba\u03b1\u03b9 \u03ae\u03bd\u03b1\u03b9 \u03ba\u03cd\u03c1\u03b9\u03bf\u03c2 \u03c0\u03ac\u03bd\u03c4\u03c9\u03bd, "
        },
        {
          "chapter": 4,
          "verse": 2,
          "name": "Galatians 4:2",
          "text": "\u03b1\u03bb\u03bb' \u03b5\u03af\u03bd\u03b1\u03b9 \u03c5\u03c0\u03cc \u03b5\u03c0\u03b9\u03c4\u03c1\u03cc\u03c0\u03bf\u03c5\u03c2 \u03ba\u03b1\u03b9 \u03bf\u03b9\u03ba\u03bf\u03bd\u03cc\u03bc\u03bf\u03c5\u03c2 \u03bc\u03ad\u03c7\u03c1\u03b9 \u03c4\u03b7\u03c2 \u03c0\u03c1\u03bf\u03b8\u03b5\u03c3\u03bc\u03af\u03b1\u03c2 \u03c5\u03c0\u03cc \u03c4\u03bf\u03c5 \u03c0\u03b1\u03c4\u03c1\u03cc\u03c2. "
        },
        {
          "chapter": 4,
          "verse": 3,
          "name": "Galatians 4:3",
          "text": "\u039f\u03cd\u03c4\u03c9 \u03ba\u03b1\u03b9 \u03b7\u03bc\u03b5\u03af\u03c2, \u03cc\u03c4\u03b5 \u03ae\u03bc\u03b5\u03b8\u03b1 \u03bd\u03ae\u03c0\u03b9\u03bf\u03b9, \u03c5\u03c0\u03cc \u03c4\u03b1 \u03c3\u03c4\u03bf\u03b9\u03c7\u03b5\u03af\u03b1 \u03c4\u03bf\u03c5 \u03ba\u03cc\u03c3\u03bc\u03bf\u03c5 \u03ae\u03bc\u03b5\u03b8\u03b1 \u03b4\u03b5\u03b4\u03bf\u03c5\u03bb\u03c9\u03bc\u03ad\u03bd\u03bf\u03b9\u00b7 "
        },
        {
          "chapter": 4,
          "verse": 4,
          "name": "Galatians 4:4",
          "text": "\u03cc\u03c4\u03b5 \u03cc\u03bc\u03c9\u03c2 \u03ae\u03bb\u03b8\u03b5 \u03c4\u03bf \u03c0\u03bb\u03ae\u03c1\u03c9\u03bc\u03b1 \u03c4\u03bf\u03c5 \u03c7\u03c1\u03cc\u03bd\u03bf\u03c5, \u03b5\u03be\u03b1\u03c0\u03ad\u03c3\u03c4\u03b5\u03b9\u03bb\u03b5\u03bd \u03bf \u0398\u03b5\u03cc\u03c2 \u03c4\u03bf\u03bd \u03a5\u03b9\u03cc\u03bd \u03b1\u03c5\u03c4\u03bf\u03cd, \u03cc\u03c3\u03c4\u03b9\u03c2 \u03b5\u03b3\u03b5\u03bd\u03bd\u03ae\u03b8\u03b7 \u03b5\u03ba \u03b3\u03c5\u03bd\u03b1\u03b9\u03ba\u03cc\u03c2 \u03ba\u03b1\u03b9 \u03c5\u03c0\u03b5\u03c4\u03ac\u03b3\u03b7 \u03b5\u03b9\u03c2 \u03c4\u03bf\u03bd \u03bd\u03cc\u03bc\u03bf\u03bd, "
        },
        {
          "chapter": 4,
          "verse": 5,
          "name": "Galatians 4:5",
          "text": "\u03b4\u03b9\u03ac \u03bd\u03b1 \u03b5\u03be\u03b1\u03b3\u03bf\u03c1\u03ac\u03c3\u03b7 \u03c4\u03bf\u03c5\u03c2 \u03c5\u03c0\u03cc \u03bd\u03cc\u03bc\u03bf\u03bd, \u03b4\u03b9\u03ac \u03bd\u03b1 \u03bb\u03ac\u03b2\u03c9\u03bc\u03b5\u03bd \u03c4\u03b7\u03bd \u03c5\u03b9\u03bf\u03b8\u03b5\u03c3\u03af\u03b1\u03bd. "
        },
        {
          "chapter": 4,
          "verse": 6,
          "name": "Galatians 4:6",
          "text": "\u039a\u03b1\u03b9 \u03b5\u03c0\u03b5\u03b9\u03b4\u03ae \u03b5\u03af\u03c3\u03b8\u03b5 \u03c5\u03b9\u03bf\u03af, \u03b5\u03be\u03b1\u03c0\u03ad\u03c3\u03c4\u03b5\u03b9\u03bb\u03b5\u03bd \u03bf \u0398\u03b5\u03cc\u03c2 \u03c4\u03bf \u03a0\u03bd\u03b5\u03cd\u03bc\u03b1 \u03c4\u03bf\u03c5 \u03a5\u03b9\u03bf\u03cd \u03b1\u03c5\u03c4\u03bf\u03cd \u03b5\u03b9\u03c2 \u03c4\u03b1\u03c2 \u03ba\u03b1\u03c1\u03b4\u03af\u03b1\u03c2 \u03c3\u03b1\u03c2, \u03c4\u03bf \u03bf\u03c0\u03bf\u03af\u03bf\u03bd \u03ba\u03c1\u03ac\u03b6\u03b5\u03b9\u00b7 \u0391\u03b2\u03b2\u03ac, \u03bf \u03a0\u03b1\u03c4\u03ae\u03c1. "
        },
        {
          "chapter": 4,
          "verse": 7,
          "name": "Galatians 4:7",
          "text": "\u038c\u03b8\u03b5\u03bd \u03b4\u03b5\u03bd \u03b5\u03af\u03c3\u03b1\u03b9 \u03c0\u03bb\u03ad\u03bf\u03bd \u03b4\u03bf\u03cd\u03bb\u03bf\u03c2 \u03b1\u03bb\u03bb' \u03c5\u03b9\u03cc\u03c2\u00b7 \u03b5\u03ac\u03bd \u03b4\u03b5 \u03c5\u03b9\u03cc\u03c2, \u03ba\u03b1\u03b9 \u03ba\u03bb\u03b7\u03c1\u03bf\u03bd\u03cc\u03bc\u03bf\u03c2 \u03c4\u03bf\u03c5 \u0398\u03b5\u03bf\u03cd \u03b4\u03b9\u03ac \u03c4\u03bf\u03c5 \u03a7\u03c1\u03b9\u03c3\u03c4\u03bf\u03cd. "
        },
        {
          "chapter": 4,
          "verse": 8,
          "name": "Galatians 4:8",
          "text": "\u0391\u03bb\u03bb\u03ac \u03c4\u03cc\u03c4\u03b5 \u03bc\u03b5\u03bd \u03bc\u03b7 \u03b3\u03bd\u03c9\u03c1\u03af\u03b6\u03bf\u03bd\u03c4\u03b5\u03c2 \u03c4\u03bf\u03bd \u0398\u03b5\u03cc\u03bd, \u03b5\u03b4\u03bf\u03c5\u03bb\u03b5\u03cd\u03c3\u03b1\u03c4\u03b5 \u03b5\u03b9\u03c2 \u03c4\u03bf\u03c5\u03c2 \u03bc\u03b7 \u03c6\u03cd\u03c3\u03b5\u03b9 \u03cc\u03bd\u03c4\u03b1\u03c2 \u0398\u03b5\u03bf\u03cd\u03c2\u00b7 "
        },
        {
          "chapter": 4,
          "verse": 9,
          "name": "Galatians 4:9",
          "text": "\u03c4\u03ce\u03c1\u03b1 \u03b4\u03b5 \u03b1\u03c6\u03bf\u03cd \u03b5\u03b3\u03bd\u03c9\u03c1\u03af\u03c3\u03b1\u03c4\u03b5 \u03c4\u03bf\u03bd \u0398\u03b5\u03cc\u03bd, \u03bc\u03ac\u03bb\u03bb\u03bf\u03bd \u03b4\u03b5 \u03b5\u03b3\u03bd\u03c9\u03c1\u03af\u03c3\u03b8\u03b7\u03c4\u03b5 \u03c5\u03c0\u03cc \u03c4\u03bf\u03c5 \u0398\u03b5\u03bf\u03cd, \u03c0\u03c9\u03c2 \u03b5\u03c0\u03b9\u03c3\u03c4\u03c1\u03ad\u03c6\u03b5\u03c4\u03b5 \u03c0\u03ac\u03bb\u03b9\u03bd \u03b5\u03b9\u03c2 \u03c4\u03b1 \u03b1\u03c3\u03b8\u03b5\u03bd\u03ae \u03ba\u03b1\u03b9 \u03c0\u03c4\u03c9\u03c7\u03ac \u03c3\u03c4\u03bf\u03b9\u03c7\u03b5\u03af\u03b1, \u03b5\u03b9\u03c2 \u03c4\u03b1 \u03bf\u03c0\u03bf\u03af\u03b1 \u03c0\u03ac\u03bb\u03b9\u03bd \u03c9\u03c2 \u03c0\u03c1\u03cc\u03c4\u03b5\u03c1\u03bf\u03bd \u03b8\u03ad\u03bb\u03b5\u03c4\u03b5 \u03bd\u03b1 \u03b4\u03bf\u03c5\u03bb\u03b5\u03cd\u03b7\u03c4\u03b5; "
        },
        {
          "chapter": 4,
          "verse": 10,
          "name": "Galatians 4:10",
          "text": "\u0397\u03bc\u03ad\u03c1\u03b1\u03c2 \u03c0\u03b1\u03c1\u03b1\u03c4\u03b7\u03c1\u03b5\u03af\u03c4\u03b5 \u03ba\u03b1\u03b9 \u03bc\u03ae\u03bd\u03b1\u03c2 \u03ba\u03b1\u03b9 \u03ba\u03b1\u03b9\u03c1\u03bf\u03cd\u03c2 \u03ba\u03b1\u03b9 \u03b5\u03bd\u03b9\u03b1\u03c5\u03c4\u03bf\u03cd\u03c2. "
        },
        {
          "chapter": 4,
          "verse": 11,
          "name": "Galatians 4:11",
          "text": "\u03a6\u03bf\u03b2\u03bf\u03cd\u03bc\u03b1\u03b9 \u03b4\u03b9\u03ac \u03c3\u03b1\u03c2, \u03bc\u03ae\u03c0\u03c9\u03c2 \u03bc\u03b1\u03c4\u03b1\u03af\u03c9\u03c2 \u03b5\u03ba\u03bf\u03c0\u03af\u03b1\u03c3\u03b1 \u03b5\u03b9\u03c2 \u03b5\u03c3\u03ac\u03c2. "
        },
        {
          "chapter": 4,
          "verse": 12,
          "name": "Galatians 4:12",
          "text": "\u0393\u03af\u03bd\u03b5\u03c3\u03b8\u03b5 \u03c9\u03c2 \u03b5\u03b3\u03ce, \u03b4\u03b9\u03cc\u03c4\u03b9 \u03ba\u03b1\u03b9 \u03b5\u03b3\u03ce \u03b5\u03af\u03bc\u03b1\u03b9 \u03ba\u03b1\u03b8\u03ce\u03c2 \u03c3\u03b5\u03b9\u03c2, \u03b1\u03b4\u03b5\u03bb\u03c6\u03bf\u03af, \u03c3\u03b1\u03c2 \u03c0\u03b1\u03c1\u03b1\u03ba\u03b1\u03bb\u03ce, \u03bf\u03c5\u03b4\u03cc\u03bb\u03c9\u03c2 \u03bc\u03b5 \u03b7\u03b4\u03b9\u03ba\u03ae\u03c3\u03b1\u03c4\u03b5\u00b7 "
        },
        {
          "chapter": 4,
          "verse": 13,
          "name": "Galatians 4:13",
          "text": "\u03b5\u03be\u03b5\u03cd\u03c1\u03b5\u03c4\u03b5 \u03b4\u03b5 \u03cc\u03c4\u03b9 \u03c0\u03c1\u03cc\u03c4\u03b5\u03c1\u03bf\u03bd \u03c3\u03b1\u03c2 \u03b5\u03ba\u03ae\u03c1\u03c5\u03be\u03b1 \u03c4\u03bf \u03b5\u03c5\u03b1\u03b3\u03b3\u03ad\u03bb\u03b9\u03bf\u03bd \u03b5\u03bd \u03b1\u03c3\u03b8\u03b5\u03bd\u03b5\u03af\u03b1 \u03c4\u03b7\u03c2 \u03c3\u03b1\u03c1\u03ba\u03cc\u03c2, "
        },
        {
          "chapter": 4,
          "verse": 14,
          "name": "Galatians 4:14",
          "text": "\u03ba\u03b1\u03b9 \u03b4\u03b5\u03bd \u03b5\u03be\u03bf\u03c5\u03b8\u03b5\u03bd\u03ae\u03c3\u03b1\u03c4\u03b5 \u03bf\u03c5\u03b4' \u03b1\u03c0\u03b5\u03c1\u03c1\u03af\u03c8\u03b1\u03c4\u03b5 \u03c4\u03bf\u03bd \u03c0\u03b5\u03b9\u03c1\u03b1\u03c3\u03bc\u03cc\u03bd \u03bc\u03bf\u03c5 \u03c4\u03bf\u03bd \u03b5\u03bd \u03c4\u03b7 \u03c3\u03b1\u03c1\u03ba\u03af \u03bc\u03bf\u03c5, \u03b1\u03bb\u03bb\u03ac \u03bc\u03b5 \u03b5\u03b4\u03ad\u03c7\u03b8\u03b7\u03c4\u03b5 \u03c9\u03c2 \u03ac\u03b3\u03b3\u03b5\u03bb\u03bf\u03bd \u0398\u03b5\u03bf\u03cd, \u03c9\u03c2 \u03a7\u03c1\u03b9\u03c3\u03c4\u03cc\u03bd \u0399\u03b7\u03c3\u03bf\u03cd\u03bd. "
        },
        {
          "chapter": 4,
          "verse": 15,
          "name": "Galatians 4:15",
          "text": "\u03a4\u03b9\u03c2 \u03bb\u03bf\u03b9\u03c0\u03cc\u03bd \u03ae\u03c4\u03bf \u03bf \u03bc\u03b1\u03ba\u03b1\u03c1\u03b9\u03c3\u03bc\u03cc\u03c2 \u03c3\u03b1\u03c2; \u03b5\u03c0\u03b5\u03b9\u03b4\u03ae \u03bc\u03b1\u03c1\u03c4\u03c5\u03c1\u03ce \u03c0\u03c1\u03bf\u03c2 \u03b5\u03c3\u03ac\u03c2 \u03cc\u03c4\u03b9 \u03b5\u03b9 \u03b4\u03c5\u03bd\u03b1\u03c4\u03cc\u03bd \u03c4\u03bf\u03c5\u03c2 \u03bf\u03c6\u03b8\u03b1\u03bb\u03bc\u03bf\u03cd\u03c2 \u03c3\u03b1\u03c2 \u03b7\u03b8\u03ad\u03bb\u03b5\u03c4\u03b5 \u03b5\u03ba\u03b2\u03ac\u03bb\u03b5\u03b9 \u03ba\u03b1\u03b9 \u03b4\u03ce\u03c3\u03b5\u03b9 \u03b5\u03b9\u03c2 \u03b5\u03bc\u03ad. "
        },
        {
          "chapter": 4,
          "verse": 16,
          "name": "Galatians 4:16",
          "text": "\u0395\u03c7\u03b8\u03c1\u03cc\u03c2 \u03c3\u03b1\u03c2 \u03ad\u03b3\u03b5\u03b9\u03bd\u03b1 \u03bb\u03bf\u03b9\u03c0\u03cc\u03bd, \u03b4\u03b9\u03cc\u03c4\u03b9 \u03c3\u03b1\u03c2 \u03bb\u03ad\u03b3\u03c9 \u03c4\u03b7\u03bd \u03b1\u03bb\u03ae\u03b8\u03b5\u03b9\u03b1\u03bd; "
        },
        {
          "chapter": 4,
          "verse": 17,
          "name": "Galatians 4:17",
          "text": "\u0394\u03b5\u03b9\u03ba\u03bd\u03cd\u03bf\u03c5\u03c3\u03b9 \u03b6\u03ae\u03bb\u03bf\u03bd \u03c0\u03c1\u03bf\u03c2 \u03b5\u03c3\u03ac\u03c2, \u03bf\u03c5\u03c7\u03af \u03cc\u03bc\u03c9\u03c2 \u03ba\u03b1\u03bb\u03cc\u03bd, \u03b1\u03bb\u03bb\u03ac \u03b8\u03ad\u03bb\u03bf\u03c5\u03c3\u03b9 \u03bd\u03b1 \u03c3\u03b1\u03c2 \u03b1\u03c0\u03bf\u03ba\u03bb\u03b5\u03af\u03c3\u03c9\u03c3\u03b9, \u03b4\u03b9\u03ac \u03bd\u03b1 \u03ad\u03c7\u03b7\u03c4\u03b5 \u03c3\u03b5\u03b9\u03c2 \u03b6\u03ae\u03bb\u03bf\u03bd \u03c0\u03c1\u03bf\u03c2 \u03b1\u03c5\u03c4\u03bf\u03cd\u03c2. "
        },
        {
          "chapter": 4,
          "verse": 18,
          "name": "Galatians 4:18",
          "text": "\u039a\u03b1\u03bb\u03cc\u03bd \u03b4\u03b5 \u03b5\u03af\u03bd\u03b1\u03b9 \u03bd\u03b1 \u03ae\u03c3\u03b8\u03b5 \u03b6\u03b7\u03bb\u03c9\u03c4\u03b1\u03af \u03c0\u03c1\u03bf\u03c2 \u03c4\u03bf \u03ba\u03b1\u03bb\u03cc\u03bd \u03c0\u03ac\u03bd\u03c4\u03bf\u03c4\u03b5 \u03ba\u03b1\u03b9 \u03bf\u03c5\u03c7\u03af \u03bc\u03cc\u03bd\u03bf\u03bd \u03cc\u03c4\u03b1\u03bd \u03b5\u03c5\u03c1\u03af\u03c3\u03ba\u03c9\u03bc\u03b1\u03b9 \u03bc\u03b5\u03c4\u03b1\u03be\u03cd \u03c3\u03b1\u03c2. "
        },
        {
          "chapter": 4,
          "verse": 19,
          "name": "Galatians 4:19",
          "text": "\u03a4\u03b5\u03ba\u03bd\u03af\u03b1 \u03bc\u03bf\u03c5, \u03b4\u03b9\u03ac \u03c4\u03bf\u03c5\u03c2 \u03bf\u03c0\u03bf\u03af\u03bf\u03c5\u03c2 \u03c0\u03ac\u03bb\u03b9\u03bd \u03b5\u03af\u03bc\u03b1\u03b9 \u03b5\u03b9\u03c2 \u03c9\u03b4\u03af\u03bd\u03b1\u03c2, \u03b5\u03c9\u03c3\u03bf\u03cd \u03bc\u03bf\u03c1\u03c6\u03c9\u03b8\u03ae \u03bf \u03a7\u03c1\u03b9\u03c3\u03c4\u03cc\u03c2 \u03b5\u03bd \u03c5\u03bc\u03af\u03bd\u00b7 "
        },
        {
          "chapter": 4,
          "verse": 20,
          "name": "Galatians 4:20",
          "text": "\u03ae\u03b8\u03b5\u03bb\u03bf\u03bd \u03b4\u03b5 \u03bd\u03b1 \u03c0\u03b1\u03c1\u03b5\u03c5\u03c1\u03af\u03c3\u03ba\u03c9\u03bc\u03b1\u03b9 \u03bc\u03b5\u03c4\u03b1\u03be\u03cd \u03c3\u03b1\u03c2 \u03c4\u03ce\u03c1\u03b1 \u03ba\u03b1\u03b9 \u03bd\u03b1 \u03b1\u03bb\u03bb\u03ac\u03be\u03c9 \u03c4\u03b7\u03bd \u03c6\u03c9\u03bd\u03ae\u03bd \u03bc\u03bf\u03c5, \u03b4\u03b9\u03cc\u03c4\u03b9 \u03b1\u03c0\u03bf\u03c1\u03ce \u03b4\u03b9\u03ac \u03c3\u03b1\u03c2. "
        },
        {
          "chapter": 4,
          "verse": 21,
          "name": "Galatians 4:21",
          "text": "\u0395\u03af\u03c0\u03b1\u03c4\u03ad \u03bc\u03bf\u03b9 \u03bf\u03b9 \u03b8\u03ad\u03bb\u03bf\u03bd\u03c4\u03b5\u03c2 \u03bd\u03b1 \u03ae\u03c3\u03b8\u03b5 \u03c5\u03c0\u03cc \u03bd\u03cc\u03bc\u03bf\u03bd\u00b7 \u03c4\u03bf\u03bd \u03bd\u03cc\u03bc\u03bf\u03bd \u03b4\u03b5\u03bd \u03b1\u03ba\u03bf\u03cd\u03b5\u03c4\u03b5; "
        },
        {
          "chapter": 4,
          "verse": 22,
          "name": "Galatians 4:22",
          "text": "\u0394\u03b9\u03cc\u03c4\u03b9 \u03b5\u03af\u03bd\u03b1\u03b9 \u03b3\u03b5\u03b3\u03c1\u03b1\u03bc\u03bc\u03ad\u03bd\u03bf\u03bd \u03cc\u03c4\u03b9 \u03bf \u0391\u03b2\u03c1\u03b1\u03ac\u03bc \u03b5\u03b3\u03ad\u03bd\u03bd\u03b7\u03c3\u03b5 \u03b4\u03cd\u03bf \u03c5\u03b9\u03bf\u03cd\u03c2, \u03ad\u03bd\u03b1 \u03b5\u03ba \u03c4\u03b7\u03c2 \u03b4\u03bf\u03cd\u03bb\u03b7\u03c2 \u03ba\u03b1\u03b9 \u03ad\u03bd\u03b1 \u03b5\u03ba \u03c4\u03b7\u03c2 \u03b5\u03bb\u03b5\u03c5\u03b8\u03ad\u03c1\u03b1\u03c2. "
        },
        {
          "chapter": 4,
          "verse": 23,
          "name": "Galatians 4:23",
          "text": "\u0391\u03bb\u03bb' \u03bf \u03bc\u03b5\u03bd \u03b5\u03ba \u03c4\u03b7\u03c2 \u03b4\u03bf\u03cd\u03bb\u03b7\u03c2 \u03b5\u03b3\u03b5\u03bd\u03bd\u03ae\u03b8\u03b7 \u03ba\u03b1\u03c4\u03ac \u03c3\u03ac\u03c1\u03ba\u03b1, \u03bf \u03b4\u03b5 \u03b5\u03ba \u03c4\u03b7\u03c2 \u03b5\u03bb\u03b5\u03c5\u03b8\u03ad\u03c1\u03b1\u03c2 \u03b4\u03b9\u03ac \u03c4\u03b7\u03c2 \u03b5\u03c0\u03b1\u03b3\u03b3\u03b5\u03bb\u03af\u03b1\u03c2\u00b7 "
        },
        {
          "chapter": 4,
          "verse": 24,
          "name": "Galatians 4:24",
          "text": "\u03a4\u03b1 \u03bf\u03c0\u03bf\u03af\u03b1 \u03b5\u03af\u03bd\u03b1\u03b9 \u03ba\u03b1\u03c4\u03ac \u03b1\u03bb\u03bb\u03b7\u03b3\u03bf\u03c1\u03af\u03b1\u03bd\u00b7 \u03b4\u03b9\u03cc\u03c4\u03b9 \u03b1\u03cd\u03c4\u03b1\u03b9 \u03b5\u03af\u03bd\u03b1\u03b9 \u03b1\u03b9 \u03b4\u03cd\u03bf \u03b4\u03b9\u03b1\u03b8\u03ae\u03ba\u03b1\u03b9, \u03bc\u03af\u03b1 \u03bc\u03b5\u03bd \u03b1\u03c0\u03cc \u03c4\u03bf\u03c5 \u03cc\u03c1\u03bf\u03c5\u03c2 \u03a3\u03b9\u03bd\u03ac, \u03b7 \u03b3\u03b5\u03bd\u03bd\u03ce\u03c3\u03b1 \u03c0\u03c1\u03bf\u03c2 \u03b4\u03bf\u03c5\u03bb\u03b5\u03af\u03b1\u03bd, \u03ae\u03c4\u03b9\u03c2 \u03b5\u03af\u03bd\u03b1\u03b9 \u03b7 \u0386\u03b3\u03b1\u03c1. "
        },
        {
          "chapter": 4,
          "verse": 25,
          "name": "Galatians 4:25",
          "text": "\u0394\u03b9\u03cc\u03c4\u03b9 \u03c4\u03bf \u0386\u03b3\u03b1\u03c1 \u03b5\u03af\u03bd\u03b1\u03b9 \u03c4\u03bf \u03cc\u03c1\u03bf\u03c2 \u03a3\u03b9\u03bd\u03ac \u03b5\u03bd \u03c4\u03b7 \u0391\u03c1\u03b1\u03b2\u03af\u03b1, \u03ba\u03b1\u03b9 \u03c4\u03b1\u03c5\u03c4\u03af\u03b6\u03b5\u03c4\u03b1\u03b9 \u03bc\u03b5 \u03c4\u03b7\u03bd \u03c3\u03b7\u03bc\u03b5\u03c1\u03b9\u03bd\u03ae\u03bd \u0399\u03b5\u03c1\u03bf\u03c5\u03c3\u03b1\u03bb\u03ae\u03bc, \u03b5\u03af\u03bd\u03b1\u03b9 \u03b4\u03b5 \u03b5\u03b9\u03c2 \u03b4\u03bf\u03c5\u03bb\u03b5\u03af\u03b1\u03bd \u03bc\u03b5\u03c4\u03ac \u03c4\u03c9\u03bd \u03c4\u03ad\u03ba\u03bd\u03c9\u03bd \u03b1\u03c5\u03c4\u03ae\u03c2\u00b7 "
        },
        {
          "chapter": 4,
          "verse": 26,
          "name": "Galatians 4:26",
          "text": "\u03b7 \u03b4\u03b5 \u03ac\u03bd\u03c9 \u0399\u03b5\u03c1\u03bf\u03c5\u03c3\u03b1\u03bb\u03ae\u03bc \u03b5\u03af\u03bd\u03b1\u03b9 \u03b5\u03bb\u03b5\u03c5\u03b8\u03ad\u03c1\u03b1, \u03ae\u03c4\u03b9\u03c2 \u03b5\u03af\u03bd\u03b1\u03b9 \u03bc\u03ae\u03c4\u03b7\u03c1 \u03c0\u03ac\u03bd\u03c4\u03c9\u03bd \u03b7\u03bc\u03ce\u03bd. "
        },
        {
          "chapter": 4,
          "verse": 27,
          "name": "Galatians 4:27",
          "text": "\u0394\u03b9\u03cc\u03c4\u03b9 \u03b5\u03af\u03bd\u03b1\u03b9 \u03b3\u03b5\u03b3\u03c1\u03b1\u03bc\u03bc\u03ad\u03bd\u03bf\u03bd\u00b7 \u0395\u03c5\u03c6\u03c1\u03ac\u03bd\u03b8\u03b7\u03c4\u03b9, \u03c3\u03c4\u03b5\u03af\u03c1\u03b1 \u03b7 \u03bc\u03b7 \u03c4\u03af\u03ba\u03c4\u03bf\u03c5\u03c3\u03b1, \u03ad\u03ba\u03b2\u03b1\u03bb\u03b5 \u03c6\u03c9\u03bd\u03ae\u03bd \u03ba\u03b1\u03b9 \u03b2\u03cc\u03b7\u03c3\u03bf\u03bd, \u03b7 \u03bc\u03b7 \u03c9\u03b4\u03af\u03bd\u03bf\u03c5\u03c3\u03b1\u00b7 \u03b4\u03b9\u03cc\u03c4\u03b9 \u03c4\u03b1 \u03c4\u03ad\u03ba\u03bd\u03b1 \u03c4\u03b7\u03c2 \u03b5\u03c1\u03ae\u03bc\u03bf\u03c5 \u03b5\u03af\u03bd\u03b1\u03b9 \u03c0\u03bb\u03b5\u03b9\u03cc\u03c4\u03b5\u03c1\u03b1 \u03c0\u03b1\u03c1\u03ac \u03c4\u03b1 \u03c4\u03ad\u03ba\u03bd\u03b1 \u03c4\u03b7\u03c2 \u03b5\u03c7\u03bf\u03cd\u03c3\u03b7\u03c2 \u03c4\u03bf\u03bd \u03ac\u03bd\u03b4\u03c1\u03b1. "
        },
        {
          "chapter": 4,
          "verse": 28,
          "name": "Galatians 4:28",
          "text": "\u0397\u03bc\u03b5\u03af\u03c2 \u03b4\u03b5, \u03b1\u03b4\u03b5\u03bb\u03c6\u03bf\u03af, \u03ba\u03b1\u03b8\u03ce\u03c2 \u03bf \u0399\u03c3\u03b1\u03ac\u03ba \u03b5\u03c0\u03b1\u03b3\u03b3\u03b5\u03bb\u03af\u03b1\u03c2 \u03c4\u03ad\u03ba\u03bd\u03b1 \u03b5\u03af\u03bc\u03b5\u03b8\u03b1. "
        },
        {
          "chapter": 4,
          "verse": 29,
          "name": "Galatians 4:29",
          "text": "\u0391\u03bb\u03bb\u03ac \u03ba\u03b1\u03b8\u03ce\u03c2 \u03c4\u03cc\u03c4\u03b5 \u03bf \u03ba\u03b1\u03c4\u03ac \u03c3\u03ac\u03c1\u03ba\u03b1 \u03b3\u03b5\u03bd\u03bd\u03b7\u03b8\u03b5\u03af\u03c2 \u03b5\u03b4\u03af\u03c9\u03ba\u03b5 \u03c4\u03bf\u03bd \u03ba\u03b1\u03c4\u03ac \u03c0\u03bd\u03b5\u03cd\u03bc\u03b1, \u03bf\u03cd\u03c4\u03c9 \u03ba\u03b1\u03b9 \u03c4\u03ce\u03c1\u03b1. "
        },
        {
          "chapter": 4,
          "verse": 30,
          "name": "Galatians 4:30",
          "text": "\u0391\u03bb\u03bb\u03ac \u03c4\u03b9 \u03bb\u03ad\u03b3\u03b5\u03b9 \u03b7 \u03b3\u03c1\u03b1\u03c6\u03ae; \u0388\u03ba\u03b2\u03b1\u03bb\u03b5 \u03c4\u03b7\u03bd \u03b4\u03bf\u03cd\u03bb\u03b7\u03bd \u03ba\u03b1\u03b9 \u03c4\u03bf\u03bd \u03c5\u03b9\u03cc\u03bd \u03b1\u03c5\u03c4\u03ae\u03c2\u00b7 \u03b4\u03b9\u03cc\u03c4\u03b9 \u03b4\u03b5\u03bd \u03b8\u03ad\u03bb\u03b5\u03b9 \u03ba\u03bb\u03b7\u03c1\u03bf\u03bd\u03bf\u03bc\u03ae\u03c3\u03b5\u03b9 \u03bf \u03c5\u03b9\u03cc\u03c2 \u03c4\u03b7\u03c2 \u03b4\u03bf\u03cd\u03bb\u03b7\u03c2 \u03bc\u03b5\u03c4\u03ac \u03c4\u03bf\u03c5 \u03c5\u03b9\u03bf\u03cd \u03c4\u03b7\u03c2 \u03b5\u03bb\u03b5\u03c5\u03b8\u03ad\u03c1\u03b1\u03c2. "
        },
        {
          "chapter": 4,
          "verse": 31,
          "name": "Galatians 4:31",
          "text": "\u039b\u03bf\u03b9\u03c0\u03cc\u03bd, \u03b1\u03b4\u03b5\u03bb\u03c6\u03bf\u03af, \u03b4\u03b5\u03bd \u03b5\u03af\u03bc\u03b5\u03b8\u03b1 \u03c4\u03b7\u03c2 \u03b4\u03bf\u03cd\u03bb\u03b7\u03c2 \u03c4\u03ad\u03ba\u03bd\u03b1, \u03b1\u03bb\u03bb\u03ac \u03c4\u03b7\u03c2 \u03b5\u03bb\u03b5\u03c5\u03b8\u03ad\u03c1\u03b1\u03c2. "
        }
      ]
    },
    {
      "chapter": 5,
      "name": "Galatians 5",
      "verses": [
        {
          "chapter": 5,
          "verse": 1,
          "name": "Galatians 5:1",
          "text": "\u0395\u03bd \u03c4\u03b7 \u03b5\u03bb\u03b5\u03c5\u03b8\u03b5\u03c1\u03af\u03b1 \u03bb\u03bf\u03b9\u03c0\u03cc\u03bd, \u03bc\u03b5 \u03c4\u03b7\u03bd \u03bf\u03c0\u03bf\u03af\u03b1\u03bd \u03b7\u03bb\u03b5\u03c5\u03b8\u03ad\u03c1\u03c9\u03c3\u03b5\u03bd \u03b7\u03bc\u03ac\u03c2 \u03bf \u03a7\u03c1\u03b9\u03c3\u03c4\u03cc\u03c2, \u03bc\u03ad\u03bd\u03b5\u03c4\u03b5 \u03c3\u03c4\u03b1\u03b8\u03b5\u03c1\u03bf\u03af, \u03ba\u03b1\u03b9 \u03bc\u03b7 \u03c5\u03c0\u03bf\u03b2\u03bb\u03b7\u03b8\u03ae\u03c4\u03b5 \u03c0\u03ac\u03bb\u03b9\u03bd \u03b5\u03b9\u03c2 \u03b6\u03c5\u03b3\u03cc\u03bd \u03b4\u03bf\u03c5\u03bb\u03b5\u03af\u03b1\u03c2. "
        },
        {
          "chapter": 5,
          "verse": 2,
          "name": "Galatians 5:2",
          "text": "\u0399\u03b4\u03bf\u03cd, \u03b5\u03b3\u03ce \u03bf \u03a0\u03b1\u03cd\u03bb\u03bf\u03c2 \u03c3\u03b1\u03c2 \u03bb\u03ad\u03b3\u03c9 \u03cc\u03c4\u03b9 \u03b5\u03ac\u03bd \u03c0\u03b5\u03c1\u03b9\u03c4\u03ad\u03bc\u03bd\u03b7\u03c3\u03b8\u03b5, \u03bf \u03a7\u03c1\u03b9\u03c3\u03c4\u03cc\u03c2 \u03b4\u03b5\u03bd \u03b8\u03ad\u03bb\u03b5\u03b9 \u03c3\u03b1\u03c2 \u03c9\u03c6\u03b5\u03bb\u03ae\u03c3\u03b5\u03b9 \u03bf\u03c5\u03b4\u03ad\u03bd. "
        },
        {
          "chapter": 5,
          "verse": 3,
          "name": "Galatians 5:3",
          "text": "\u039c\u03b1\u03c1\u03c4\u03cd\u03c1\u03bf\u03bc\u03b1\u03b9 \u03b4\u03b5 \u03c0\u03ac\u03bb\u03b9\u03bd \u03c0\u03c1\u03bf\u03c2 \u03c0\u03ac\u03bd\u03c4\u03b1 \u03ac\u03bd\u03b8\u03c1\u03c9\u03c0\u03bf\u03bd \u03c0\u03b5\u03c1\u03b9\u03c4\u03b5\u03bc\u03bd\u03cc\u03bc\u03b5\u03bd\u03bf\u03bd, \u03cc\u03c4\u03b9 \u03b5\u03af\u03bd\u03b1\u03b9 \u03c7\u03c1\u03b5\u03ce\u03c3\u03c4\u03b7\u03c2 \u03bd\u03b1 \u03b5\u03ba\u03c4\u03b5\u03bb\u03ae \u03cc\u03bb\u03bf\u03bd \u03c4\u03bf\u03bd \u03bd\u03cc\u03bc\u03bf\u03bd. "
        },
        {
          "chapter": 5,
          "verse": 4,
          "name": "Galatians 5:4",
          "text": "\u0391\u03c0\u03b5\u03c7\u03c9\u03c1\u03af\u03c3\u03b8\u03b7\u03c4\u03b5 \u03b1\u03c0\u03cc \u03c4\u03bf\u03c5 \u03a7\u03c1\u03b9\u03c3\u03c4\u03bf\u03cd \u03cc\u03c3\u03bf\u03b9 \u03b4\u03b9\u03ba\u03b1\u03b9\u03cc\u03bd\u03b5\u03c3\u03b8\u03b5 \u03b4\u03b9\u03ac \u03c4\u03bf\u03c5 \u03bd\u03cc\u03bc\u03bf\u03c5, \u03b5\u03be\u03b5\u03c0\u03ad\u03c3\u03b1\u03c4\u03b5 \u03b1\u03c0\u03cc \u03c4\u03b7\u03c2 \u03c7\u03ac\u03c1\u03b9\u03c4\u03bf\u03c2\u00b7 "
        },
        {
          "chapter": 5,
          "verse": 5,
          "name": "Galatians 5:5",
          "text": "\u03b4\u03b9\u03cc\u03c4\u03b9 \u03b7\u03bc\u03b5\u03af\u03c2 \u03b4\u03b9\u03ac \u03c4\u03bf\u03c5 \u03a0\u03bd\u03b5\u03cd\u03bc\u03b1\u03c4\u03bf\u03c2 \u03c0\u03c1\u03bf\u03c3\u03b4\u03bf\u03ba\u03ce\u03bc\u03b5\u03bd \u03b5\u03ba \u03c0\u03af\u03c3\u03c4\u03b5\u03c9\u03c2 \u03c4\u03b7\u03bd \u03b5\u03bb\u03c0\u03af\u03b4\u03b1 \u03c4\u03b7\u03c2 \u03b4\u03b9\u03ba\u03b1\u03b9\u03ce\u03c3\u03b5\u03c9\u03c2. "
        },
        {
          "chapter": 5,
          "verse": 6,
          "name": "Galatians 5:6",
          "text": "\u0394\u03b9\u03cc\u03c4\u03b9 \u03b5\u03bd \u03a7\u03c1\u03b9\u03c3\u03c4\u03ce \u0399\u03b7\u03c3\u03bf\u03cd \u03bf\u03cd\u03c4\u03b5 \u03c0\u03b5\u03c1\u03b9\u03c4\u03bf\u03bc\u03ae \u03ad\u03c7\u03b5\u03b9 \u03b9\u03c3\u03c7\u03cd\u03bd \u03c4\u03b9\u03bd\u03ac, \u03bf\u03cd\u03c4\u03b5 \u03b1\u03ba\u03c1\u03bf\u03b2\u03c5\u03c3\u03c4\u03af\u03b1, \u03b1\u03bb\u03bb\u03ac \u03c0\u03af\u03c3\u03c4\u03b9\u03c2 \u03b4\u03b9' \u03b1\u03b3\u03ac\u03c0\u03b7\u03c2 \u03b5\u03bd\u03b5\u03c1\u03b3\u03bf\u03c5\u03bc\u03ad\u03bd\u03b7. "
        },
        {
          "chapter": 5,
          "verse": 7,
          "name": "Galatians 5:7",
          "text": "\u0395\u03c4\u03c1\u03ad\u03c7\u03b5\u03c4\u03b5 \u03ba\u03b1\u03bb\u03ce\u03c2\u00b7 \u03c4\u03b9\u03c2 \u03c3\u03b1\u03c2 \u03b7\u03bc\u03c0\u03cc\u03b4\u03b9\u03c3\u03b5\u03bd \u03ce\u03c3\u03c4\u03b5 \u03bd\u03b1 \u03bc\u03b7 \u03c0\u03b5\u03af\u03b8\u03b7\u03c3\u03b8\u03b5 \u03b5\u03b9\u03c2 \u03c4\u03b7\u03bd \u03b1\u03bb\u03ae\u03b8\u03b5\u03b9\u03b1\u03bd; "
        },
        {
          "chapter": 5,
          "verse": 8,
          "name": "Galatians 5:8",
          "text": "\u0397 \u03ba\u03b1\u03c4\u03ac\u03c0\u03b5\u03b9\u03c3\u03b9\u03c2 \u03b1\u03cd\u03c4\u03b7 \u03b4\u03b5\u03bd \u03b5\u03af\u03bd\u03b1\u03b9 \u03b5\u03be \u03b5\u03ba\u03b5\u03af\u03bd\u03bf\u03c5, \u03cc\u03c3\u03c4\u03b9\u03c2 \u03c3\u03b1\u03c2 \u03ba\u03b1\u03bb\u03b5\u03af. "
        },
        {
          "chapter": 5,
          "verse": 9,
          "name": "Galatians 5:9",
          "text": "\u039f\u03bb\u03af\u03b3\u03b7 \u03b6\u03cd\u03bc\u03b7 \u03ba\u03b1\u03b8\u03b9\u03c3\u03c4\u03ac \u03cc\u03bb\u03bf\u03bd \u03c4\u03bf \u03c6\u03cd\u03c1\u03b1\u03bc\u03b1 \u03ad\u03bd\u03b6\u03c5\u03bc\u03bf\u03bd. "
        },
        {
          "chapter": 5,
          "verse": 10,
          "name": "Galatians 5:10",
          "text": "\u0395\u03b3\u03ce \u03ad\u03c7\u03c9 \u03c0\u03b5\u03c0\u03bf\u03af\u03b8\u03b7\u03c3\u03b9\u03bd \u03b5\u03b9\u03c2 \u03b5\u03c3\u03ac\u03c2 \u03b4\u03b9\u03ac \u03c4\u03bf\u03c5 \u039a\u03c5\u03c1\u03af\u03bf\u03c5 \u03cc\u03c4\u03b9 \u03b4\u03b5\u03bd \u03b8\u03ad\u03bb\u03b5\u03c4\u03b5 \u03c6\u03c1\u03bf\u03bd\u03ae\u03c3\u03b5\u03b9 \u03bf\u03c5\u03b4\u03ad\u03bd \u03ac\u03bb\u03bb\u03bf\u00b7 \u03cc\u03c3\u03c4\u03b9\u03c2 \u03cc\u03bc\u03c9\u03c2 \u03c3\u03b1\u03c2 \u03c4\u03b1\u03c1\u03ac\u03c4\u03c4\u03b5\u03b9, \u03b1\u03c5\u03c4\u03cc\u03c2 \u03b8\u03ad\u03bb\u03b5\u03b9 \u03c5\u03c0\u03bf\u03c6\u03ad\u03c1\u03b5\u03b9 \u03c4\u03b7\u03bd \u03c0\u03bf\u03b9\u03bd\u03ae\u03bd, \u03bf\u03c0\u03bf\u03af\u03bf\u03c2 \u03ba\u03b1\u03b9 \u03b1\u03bd \u03ae\u03bd\u03b1\u03b9. "
        },
        {
          "chapter": 5,
          "verse": 11,
          "name": "Galatians 5:11",
          "text": "\u0395\u03b3\u03ce \u03b4\u03b5, \u03b1\u03b4\u03b5\u03bb\u03c6\u03bf\u03af, \u03b5\u03ac\u03bd \u03b1\u03ba\u03cc\u03bc\u03b7 \u03ba\u03b7\u03c1\u03cd\u03c4\u03c4\u03c9 \u03c0\u03b5\u03c1\u03b9\u03c4\u03bf\u03bc\u03ae\u03bd, \u03b4\u03b9\u03ac \u03c4\u03b9 \u03c0\u03bb\u03ad\u03bf\u03bd \u03ba\u03b1\u03c4\u03b1\u03c4\u03c1\u03ad\u03c7\u03bf\u03bc\u03b1\u03b9; \u03ac\u03c1\u03b1 \u03ba\u03b1\u03c4\u03b7\u03c1\u03b3\u03ae\u03b8\u03b7 \u03c4\u03bf \u03c3\u03ba\u03ac\u03bd\u03b4\u03b1\u03bb\u03bf\u03bd \u03c4\u03bf\u03c5 \u03c3\u03c4\u03b1\u03c5\u03c1\u03bf\u03cd. "
        },
        {
          "chapter": 5,
          "verse": 12,
          "name": "Galatians 5:12",
          "text": "\u0395\u03af\u03b8\u03b5 \u03bd\u03b1 \u03b1\u03c0\u03bf\u03ba\u03bf\u03c0\u03ce\u03c3\u03b9\u03bd \u03bf\u03b9 \u03c4\u03b1\u03c1\u03ac\u03c4\u03c4\u03bf\u03bd\u03c4\u03ad\u03c2 \u03c3\u03b1\u03c2. "
        },
        {
          "chapter": 5,
          "verse": 13,
          "name": "Galatians 5:13",
          "text": "\u0394\u03b9\u03cc\u03c4\u03b9 \u03c3\u03b5\u03b9\u03c2, \u03b1\u03b4\u03b5\u03bb\u03c6\u03bf\u03af, \u03c0\u03c1\u03bf\u03c3\u03b5\u03ba\u03bb\u03ae\u03b8\u03b7\u03c4\u03b5 \u03b5\u03b9\u03c2 \u03b5\u03bb\u03b5\u03c5\u03b8\u03b5\u03c1\u03af\u03b1\u03bd\u00b7 \u03bc\u03cc\u03bd\u03bf\u03bd \u03bc\u03b7 \u03bc\u03b5\u03c4\u03b1\u03c7\u03b5\u03b9\u03c1\u03af\u03b6\u03b5\u03c3\u03b8\u03b5 \u03c4\u03b7\u03bd \u03b5\u03bb\u03b5\u03c5\u03b8\u03b5\u03c1\u03af\u03b1\u03bd \u03b5\u03b9\u03c2 \u03b1\u03c6\u03bf\u03c1\u03bc\u03ae\u03bd \u03c4\u03b7\u03c2 \u03c3\u03b1\u03c1\u03ba\u03cc\u03c2, \u03b1\u03bb\u03bb\u03ac \u03b4\u03b9\u03ac \u03c4\u03b7\u03c2 \u03b1\u03b3\u03ac\u03c0\u03b7\u03c2 \u03b4\u03bf\u03c5\u03bb\u03b5\u03cd\u03b5\u03c4\u03b5 \u03b1\u03bb\u03bb\u03ae\u03bb\u03bf\u03c5\u03c2. "
        },
        {
          "chapter": 5,
          "verse": 14,
          "name": "Galatians 5:14",
          "text": "\u0394\u03b9\u03cc\u03c4\u03b9 \u03cc\u03bb\u03bf\u03c2 \u03bf \u03bd\u03cc\u03bc\u03bf\u03c2 \u03b5\u03b9\u03c2 \u03ad\u03bd\u03b1 \u03bb\u03cc\u03b3\u03bf\u03bd \u03c3\u03c5\u03bc\u03c0\u03bb\u03b7\u03c1\u03bf\u03cd\u03c4\u03b1\u03b9, \u03b5\u03b9\u03c2 \u03c4\u03bf\u03bd, \u0398\u03ad\u03bb\u03b5\u03b9\u03c2 \u03b1\u03b3\u03b1\u03c0\u03ac \u03c4\u03bf\u03bd \u03c0\u03bb\u03b7\u03c3\u03af\u03bf\u03bd \u03c3\u03bf\u03c5 \u03c9\u03c2 \u03c3\u03b5\u03b1\u03c5\u03c4\u03cc\u03bd. "
        },
        {
          "chapter": 5,
          "verse": 15,
          "name": "Galatians 5:15",
          "text": "\u0395\u03ac\u03bd \u03cc\u03bc\u03c9\u03c2 \u03b4\u03ac\u03ba\u03bd\u03b7\u03c4\u03b5 \u03ba\u03b1\u03b9 \u03ba\u03b1\u03c4\u03b1\u03c4\u03c1\u03ce\u03b3\u03b7\u03c4\u03b5 \u03b1\u03bb\u03bb\u03ae\u03bb\u03bf\u03c5\u03c2, \u03c0\u03c1\u03bf\u03c3\u03ad\u03c7\u03b5\u03c4\u03b5 \u03bc\u03b7 \u03c5\u03c0' \u03b1\u03bb\u03bb\u03ae\u03bb\u03c9\u03bd \u03b1\u03c6\u03b1\u03bd\u03b9\u03c3\u03b8\u03ae\u03c4\u03b5. "
        },
        {
          "chapter": 5,
          "verse": 16,
          "name": "Galatians 5:16",
          "text": "\u039b\u03ad\u03b3\u03c9 \u03bb\u03bf\u03b9\u03c0\u03cc\u03bd, \u03a0\u03b5\u03c1\u03b9\u03c0\u03b1\u03c4\u03b5\u03af\u03c4\u03b5 \u03ba\u03b1\u03c4\u03ac \u03c4\u03bf \u03a0\u03bd\u03b5\u03cd\u03bc\u03b1 \u03ba\u03b1\u03b9 \u03b4\u03b5\u03bd \u03b8\u03ad\u03bb\u03b5\u03c4\u03b5 \u03b5\u03ba\u03c0\u03bb\u03b7\u03c1\u03bf\u03af \u03c4\u03b7\u03bd \u03b5\u03c0\u03b9\u03b8\u03c5\u03bc\u03af\u03b1\u03bd \u03c4\u03b7\u03c2 \u03c3\u03b1\u03c1\u03ba\u03cc\u03c2. "
        },
        {
          "chapter": 5,
          "verse": 17,
          "name": "Galatians 5:17",
          "text": "\u0394\u03b9\u03cc\u03c4\u03b9 \u03b7 \u03c3\u03b1\u03c1\u03be \u03b5\u03c0\u03b9\u03b8\u03c5\u03bc\u03b5\u03af \u03b5\u03bd\u03b1\u03bd\u03c4\u03af\u03b1 \u03c4\u03bf\u03c5 \u03a0\u03bd\u03b5\u03cd\u03bc\u03b1\u03c4\u03bf\u03c2, \u03c4\u03bf \u03b4\u03b5 \u03a0\u03bd\u03b5\u03cd\u03bc\u03b1 \u03b5\u03bd\u03b1\u03bd\u03c4\u03af\u03b1 \u03c4\u03b7\u03c2 \u03c3\u03b1\u03c1\u03ba\u03cc\u03c2\u00b7 \u03c4\u03b1\u03cd\u03c4\u03b1 \u03b4\u03b5 \u03b1\u03bd\u03c4\u03af\u03ba\u03b5\u03b9\u03bd\u03c4\u03b1\u03b9 \u03c0\u03c1\u03bf\u03c2 \u03ac\u03bb\u03bb\u03b7\u03bb\u03b1, \u03ce\u03c3\u03c4\u03b5 \u03b5\u03ba\u03b5\u03af\u03bd\u03b1, \u03c4\u03b1 \u03bf\u03c0\u03bf\u03af\u03b1 \u03b8\u03ad\u03bb\u03b5\u03c4\u03b5, \u03bd\u03b1 \u03bc\u03b7 \u03c0\u03c1\u03ac\u03c4\u03c4\u03b7\u03c4\u03b5. "
        },
        {
          "chapter": 5,
          "verse": 18,
          "name": "Galatians 5:18",
          "text": "\u0391\u03bb\u03bb' \u03b5\u03ac\u03bd \u03bf\u03b4\u03b7\u03b3\u03ae\u03c3\u03b8\u03b5 \u03c5\u03c0\u03cc \u03c4\u03bf\u03c5 \u03a0\u03bd\u03b5\u03cd\u03bc\u03b1\u03c4\u03bf\u03c2, \u03b4\u03b5\u03bd \u03b5\u03af\u03c3\u03b8\u03b5 \u03c5\u03c0\u03cc \u03bd\u03cc\u03bc\u03bf\u03bd. "
        },
        {
          "chapter": 5,
          "verse": 19,
          "name": "Galatians 5:19",
          "text": "\u03a6\u03b1\u03bd\u03b5\u03c1\u03ac \u03b4\u03b5 \u03b5\u03af\u03bd\u03b1\u03b9 \u03c4\u03b1 \u03ad\u03c1\u03b3\u03b1 \u03c4\u03b7\u03c2 \u03c3\u03b1\u03c1\u03ba\u03cc\u03c2, \u03c4\u03b1 \u03bf\u03c0\u03bf\u03af\u03b1 \u03b5\u03af\u03bd\u03b1\u03b9 \u03bc\u03bf\u03b9\u03c7\u03b5\u03af\u03b1, \u03c0\u03bf\u03c1\u03bd\u03b5\u03af\u03b1, \u03b1\u03ba\u03b1\u03b8\u03b1\u03c1\u03c3\u03af\u03b1, \u03b1\u03c3\u03ad\u03bb\u03b3\u03b5\u03b9\u03b1, "
        },
        {
          "chapter": 5,
          "verse": 20,
          "name": "Galatians 5:20",
          "text": "\u03b5\u03b9\u03b4\u03c9\u03bb\u03bf\u03bb\u03b1\u03c4\u03c1\u03b5\u03af\u03b1, \u03c6\u03b1\u03c1\u03bc\u03b1\u03ba\u03b5\u03af\u03b1, \u03ad\u03c7\u03b8\u03c1\u03b1\u03b9, \u03ad\u03c1\u03b9\u03b4\u03b5\u03c2, \u03b6\u03b7\u03bb\u03bf\u03c4\u03c5\u03c0\u03af\u03b1\u03b9, \u03b8\u03c5\u03bc\u03bf\u03af, \u03bc\u03ac\u03c7\u03b1\u03b9, \u03b4\u03b9\u03c7\u03bf\u03c3\u03c4\u03b1\u03c3\u03af\u03b1\u03b9, \u03b1\u03b9\u03c1\u03ad\u03c3\u03b5\u03b9\u03c2, "
        },
        {
          "chapter": 5,
          "verse": 21,
          "name": "Galatians 5:21",
          "text": "\u03c6\u03b8\u03cc\u03bd\u03bf\u03b9, \u03c6\u03cc\u03bd\u03bf\u03b9, \u03bc\u03ad\u03b8\u03b1\u03b9, \u03ba\u03ce\u03bc\u03bf\u03b9, \u03ba\u03b1\u03b9 \u03c4\u03b1 \u03cc\u03bc\u03bf\u03b9\u03b1 \u03c4\u03bf\u03cd\u03c4\u03c9\u03bd, \u03c0\u03b5\u03c1\u03af \u03c4\u03c9\u03bd \u03bf\u03c0\u03bf\u03af\u03c9\u03bd \u03c3\u03b1\u03c2 \u03c0\u03c1\u03bf\u03bb\u03ad\u03b3\u03c9, \u03ba\u03b1\u03b8\u03ce\u03c2 \u03ba\u03b1\u03b9 \u03c0\u03c1\u03bf\u03b5\u03af\u03c0\u03bf\u03bd, \u03cc\u03c4\u03b9 \u03bf\u03b9 \u03c4\u03b1 \u03c4\u03bf\u03b9\u03b1\u03cd\u03c4\u03b1 \u03c0\u03c1\u03ac\u03c4\u03c4\u03bf\u03bd\u03c4\u03b5\u03c2 \u03b2\u03b1\u03c3\u03b9\u03bb\u03b5\u03af\u03b1\u03bd \u0398\u03b5\u03bf\u03cd \u03b4\u03b5\u03bd \u03b8\u03ad\u03bb\u03bf\u03c5\u03c3\u03b9 \u03ba\u03bb\u03b7\u03c1\u03bf\u03bd\u03bf\u03bc\u03ae\u03c3\u03b5\u03b9. "
        },
        {
          "chapter": 5,
          "verse": 22,
          "name": "Galatians 5:22",
          "text": "\u039f \u03b4\u03b5 \u03ba\u03b1\u03c1\u03c0\u03cc\u03c2 \u03c4\u03bf\u03c5 \u03a0\u03bd\u03b5\u03cd\u03bc\u03b1\u03c4\u03bf\u03c2 \u03b5\u03af\u03bd\u03b1\u03b9 \u03b1\u03b3\u03ac\u03c0\u03b7, \u03c7\u03b1\u03c1\u03ac, \u03b5\u03b9\u03c1\u03ae\u03bd\u03b7, \u03bc\u03b1\u03ba\u03c1\u03bf\u03b8\u03c5\u03bc\u03af\u03b1, \u03c7\u03c1\u03b7\u03c3\u03c4\u03cc\u03c4\u03b7\u03c2, \u03b1\u03b3\u03b1\u03b8\u03c9\u03c3\u03cd\u03bd\u03b7, \u03c0\u03af\u03c3\u03c4\u03b9\u03c2, "
        },
        {
          "chapter": 5,
          "verse": 23,
          "name": "Galatians 5:23",
          "text": "\u03c0\u03c1\u03b1\u03cc\u03c4\u03b7\u03c2, \u03b5\u03b3\u03ba\u03c1\u03ac\u03c4\u03b5\u03b9\u03b1\u00b7 \u03ba\u03b1\u03c4\u03ac \u03c4\u03c9\u03bd \u03c4\u03bf\u03b9\u03bf\u03cd\u03c4\u03c9\u03bd \u03b4\u03b5\u03bd \u03c5\u03c0\u03ac\u03c1\u03c7\u03b5\u03b9 \u03bd\u03cc\u03bc\u03bf\u03c2. "
        },
        {
          "chapter": 5,
          "verse": 24,
          "name": "Galatians 5:24",
          "text": "\u038c\u03c3\u03bf\u03b9 \u03b4\u03b5 \u03b5\u03af\u03bd\u03b1\u03b9 \u03c4\u03bf\u03c5 \u03a7\u03c1\u03b9\u03c3\u03c4\u03bf\u03cd \u03b5\u03c3\u03c4\u03b1\u03cd\u03c1\u03c9\u03c3\u03b1\u03bd \u03c4\u03b7\u03bd \u03c3\u03ac\u03c1\u03ba\u03b1 \u03bf\u03bc\u03bf\u03cd \u03bc\u03b5 \u03c4\u03b1 \u03c0\u03ac\u03b8\u03b7 \u03ba\u03b1\u03b9 \u03c4\u03b1\u03c2 \u03b5\u03c0\u03b9\u03b8\u03c5\u03bc\u03af\u03b1\u03c2. "
        },
        {
          "chapter": 5,
          "verse": 25,
          "name": "Galatians 5:25",
          "text": "\u0395\u03ac\u03bd \u03b6\u03ce\u03bc\u03b5\u03bd \u03ba\u03b1\u03c4\u03ac \u03c4\u03bf \u03a0\u03bd\u03b5\u03cd\u03bc\u03b1, \u03b1\u03c2 \u03c0\u03b5\u03c1\u03b9\u03c0\u03b1\u03c4\u03ce\u03bc\u03b5\u03bd \u03ba\u03b1\u03b9 \u03ba\u03b1\u03c4\u03ac \u03c4\u03bf \u03a0\u03bd\u03b5\u03cd\u03bc\u03b1. "
        },
        {
          "chapter": 5,
          "verse": 26,
          "name": "Galatians 5:26",
          "text": "\u039c\u03b7 \u03b3\u03b9\u03bd\u03ce\u03bc\u03b5\u03b8\u03b1 \u03ba\u03b5\u03bd\u03cc\u03b4\u03bf\u03be\u03bf\u03b9, \u03b1\u03bb\u03bb\u03ae\u03bb\u03bf\u03c5\u03c2 \u03b5\u03c1\u03b5\u03b8\u03af\u03b6\u03bf\u03bd\u03c4\u03b5\u03c2, \u03b1\u03bb\u03bb\u03ae\u03bb\u03bf\u03c5\u03c2 \u03c6\u03b8\u03bf\u03bd\u03bf\u03cd\u03bd\u03c4\u03b5\u03c2. "
        }
      ]
    },
    {
      "chapter": 6,
      "name": "Galatians 6",
      "verses": [
        {
          "chapter": 6,
          "verse": 1,
          "name": "Galatians 6:1",
          "text": "\u0391\u03b4\u03b5\u03bb\u03c6\u03bf\u03af, \u03ba\u03b1\u03b9 \u03b5\u03ac\u03bd \u03ac\u03bd\u03b8\u03c1\u03c9\u03c0\u03bf\u03c2 \u03b1\u03c0\u03b5\u03c1\u03b9\u03c3\u03ba\u03ad\u03c0\u03c4\u03c9\u03c2 \u03c0\u03ad\u03c3\u03b7 \u03b5\u03b9\u03c2 \u03ba\u03b1\u03bd\u03ad\u03bd \u03b1\u03bc\u03ac\u03c1\u03c4\u03b7\u03bc\u03b1, \u03c3\u03b5\u03b9\u03c2 \u03bf\u03b9 \u03c0\u03bd\u03b5\u03c5\u03bc\u03b1\u03c4\u03b9\u03ba\u03bf\u03af \u03b4\u03b9\u03bf\u03c1\u03b8\u03cc\u03bd\u03b5\u03c4\u03b5 \u03c4\u03bf\u03bd \u03c4\u03bf\u03b9\u03bf\u03cd\u03c4\u03bf\u03bd \u03bc\u03b5 \u03c0\u03bd\u03b5\u03cd\u03bc\u03b1 \u03c0\u03c1\u03b1\u03cc\u03c4\u03b7\u03c4\u03bf\u03c2, \u03c0\u03c1\u03bf\u03c3\u03ad\u03c7\u03c9\u03bd \u03b5\u03b9\u03c2 \u03c3\u03b5\u03b1\u03c5\u03c4\u03cc\u03bd, \u03bc\u03b7 \u03ba\u03b1\u03b9 \u03c3\u03c5 \u03c0\u03b5\u03b9\u03c1\u03b1\u03c3\u03b8\u03ae\u03c2. "
        },
        {
          "chapter": 6,
          "verse": 2,
          "name": "Galatians 6:2",
          "text": "\u0391\u03bb\u03bb\u03ae\u03bb\u03c9\u03bd \u03c4\u03b1 \u03b2\u03ac\u03c1\u03b7 \u03b2\u03b1\u03c3\u03c4\u03ac\u03b6\u03b5\u03c4\u03b5 \u03ba\u03b1\u03b9 \u03bf\u03cd\u03c4\u03c9\u03c2 \u03b5\u03ba\u03c0\u03bb\u03b7\u03c1\u03ce\u03c3\u03b1\u03c4\u03b5 \u03c4\u03bf\u03bd \u03bd\u03cc\u03bc\u03bf\u03bd \u03c4\u03bf\u03c5 \u03a7\u03c1\u03b9\u03c3\u03c4\u03bf\u03cd. "
        },
        {
          "chapter": 6,
          "verse": 3,
          "name": "Galatians 6:3",
          "text": "\u0394\u03b9\u03cc\u03c4\u03b9 \u03b5\u03ac\u03bd \u03c4\u03b9\u03c2 \u03bd\u03bf\u03bc\u03af\u03b6\u03b7 \u03cc\u03c4\u03b9 \u03b5\u03af\u03bd\u03b1\u03b9 \u03c4\u03b9 \u03b5\u03bd\u03ce \u03b5\u03af\u03bd\u03b1\u03b9 \u03bc\u03b7\u03b4\u03ad\u03bd, \u03b5\u03b1\u03c5\u03c4\u03cc\u03bd \u03b5\u03be\u03b1\u03c0\u03b1\u03c4\u03ac. "
        },
        {
          "chapter": 6,
          "verse": 4,
          "name": "Galatians 6:4",
          "text": "\u0391\u03bb\u03bb' \u03ad\u03ba\u03b1\u03c3\u03c4\u03bf\u03c2 \u03b1\u03c2 \u03b5\u03be\u03b5\u03c4\u03ac\u03b6\u03b7 \u03c4\u03bf \u03b5\u03b1\u03c5\u03c4\u03bf\u03cd \u03ad\u03c1\u03b3\u03bf\u03bd, \u03ba\u03b1\u03b9 \u03c4\u03cc\u03c4\u03b5 \u03b5\u03b9\u03c2 \u03b5\u03b1\u03c5\u03c4\u03cc\u03bd \u03bc\u03cc\u03bd\u03bf\u03bd \u03b8\u03ad\u03bb\u03b5\u03b9 \u03ad\u03c7\u03b5\u03b9 \u03c4\u03bf \u03ba\u03b1\u03cd\u03c7\u03b7\u03bc\u03b1 \u03ba\u03b1\u03b9 \u03bf\u03c5\u03c7\u03af \u03b5\u03b9\u03c2 \u03c4\u03bf\u03bd \u03ac\u03bb\u03bb\u03bf\u03bd\u00b7 "
        },
        {
          "chapter": 6,
          "verse": 5,
          "name": "Galatians 6:5",
          "text": "\u03b4\u03b9\u03cc\u03c4\u03b9 \u03ad\u03ba\u03b1\u03c3\u03c4\u03bf\u03c2 \u03c4\u03bf \u03b5\u03b1\u03c5\u03c4\u03bf\u03cd \u03c6\u03bf\u03c1\u03c4\u03af\u03bf\u03bd \u03b8\u03ad\u03bb\u03b5\u03b9 \u03b2\u03b1\u03c3\u03c4\u03ac\u03c3\u03b5\u03b9. "
        },
        {
          "chapter": 6,
          "verse": 6,
          "name": "Galatians 6:6",
          "text": "\u039f \u03b4\u03b5 \u03ba\u03b1\u03c4\u03b7\u03c7\u03bf\u03cd\u03bc\u03b5\u03bd\u03bf\u03c2 \u03c4\u03bf\u03bd \u03bb\u03cc\u03b3\u03bf\u03bd \u03b1\u03c2 \u03ba\u03ac\u03bc\u03bd\u03b7 \u03c4\u03bf\u03bd \u03ba\u03b1\u03c4\u03b7\u03c7\u03bf\u03cd\u03bd\u03c4\u03b1 \u03bc\u03ad\u03c4\u03bf\u03c7\u03bf\u03bd \u03b5\u03b9\u03c2 \u03c0\u03ac\u03bd\u03c4\u03b1 \u03c4\u03b1 \u03b1\u03b3\u03b1\u03b8\u03ac \u03b1\u03c5\u03c4\u03bf\u03cd. "
        },
        {
          "chapter": 6,
          "verse": 7,
          "name": "Galatians 6:7",
          "text": "\u039c\u03b7 \u03c0\u03bb\u03b1\u03bd\u03ac\u03c3\u03b8\u03b5, \u03bf \u0398\u03b5\u03cc\u03c2 \u03b4\u03b5\u03bd \u03b5\u03bc\u03c0\u03b1\u03af\u03b6\u03b5\u03c4\u03b1\u03b9\u00b7 \u03b5\u03c0\u03b5\u03b9\u03b4\u03ae \u03cc,\u03c4\u03b9 \u03b1\u03bd \u03c3\u03c0\u03b5\u03af\u03c1\u03b7 \u03bf \u03ac\u03bd\u03b8\u03c1\u03c9\u03c0\u03bf\u03c2, \u03c4\u03bf\u03cd\u03c4\u03bf \u03ba\u03b1\u03b9 \u03b8\u03ad\u03bb\u03b5\u03b9 \u03b8\u03b5\u03c1\u03af\u03c3\u03b5\u03b9\u00b7 "
        },
        {
          "chapter": 6,
          "verse": 8,
          "name": "Galatians 6:8",
          "text": "\u03b4\u03b9\u03cc\u03c4\u03b9 \u03bf \u03c3\u03c0\u03b5\u03af\u03c1\u03c9\u03bd \u03b5\u03b9\u03c2 \u03c4\u03b7\u03bd \u03c3\u03ac\u03c1\u03ba\u03b1 \u03b5\u03b1\u03c5\u03c4\u03bf\u03cd \u03b8\u03ad\u03bb\u03b5\u03b9 \u03b8\u03b5\u03c1\u03af\u03c3\u03b5\u03b9 \u03b5\u03ba \u03c4\u03b7\u03c2 \u03c3\u03b1\u03c1\u03ba\u03cc\u03c2 \u03c6\u03b8\u03bf\u03c1\u03ac\u03bd, \u03b1\u03bb\u03bb' \u03bf \u03c3\u03c0\u03b5\u03af\u03c1\u03c9\u03bd \u03b5\u03b9\u03c2 \u03c4\u03bf \u03a0\u03bd\u03b5\u03cd\u03bc\u03b1 \u03b8\u03ad\u03bb\u03b5\u03b9 \u03b8\u03b5\u03c1\u03af\u03c3\u03b5\u03b9 \u03b5\u03ba \u03c4\u03bf\u03c5 \u03a0\u03bd\u03b5\u03cd\u03bc\u03b1\u03c4\u03bf\u03c2 \u03b6\u03c9\u03ae\u03bd \u03b1\u03b9\u03ce\u03bd\u03b9\u03bf\u03bd. "
        },
        {
          "chapter": 6,
          "verse": 9,
          "name": "Galatians 6:9",
          "text": "\u0391\u03c2 \u03bc\u03b7 \u03b1\u03c0\u03bf\u03ba\u03ac\u03bc\u03bd\u03c9\u03bc\u03b5\u03bd \u03b4\u03b5 \u03c0\u03c1\u03ac\u03c4\u03c4\u03bf\u03bd\u03c4\u03b5\u03c2 \u03c4\u03bf \u03ba\u03b1\u03bb\u03cc\u03bd\u00b7 \u03b4\u03b9\u03cc\u03c4\u03b9 \u03b5\u03ac\u03bd \u03b4\u03b5\u03bd \u03b1\u03c0\u03bf\u03ba\u03ac\u03bc\u03bd\u03c9\u03bc\u03b5\u03bd, \u03b8\u03ad\u03bb\u03bf\u03bc\u03b5\u03bd \u03b8\u03b5\u03c1\u03af\u03c3\u03b5\u03b9 \u03b5\u03bd \u03c4\u03c9 \u03b4\u03ad\u03bf\u03bd\u03c4\u03b9 \u03ba\u03b1\u03b9\u03c1\u03ce. "
        },
        {
          "chapter": 6,
          "verse": 10,
          "name": "Galatians 6:10",
          "text": "\u0386\u03c1\u03b1 \u03bb\u03bf\u03b9\u03c0\u03cc\u03bd \u03b5\u03bd\u03cc\u03c3\u03c9 \u03ad\u03c7\u03bf\u03bc\u03b5\u03bd \u03ba\u03b1\u03b9\u03c1\u03cc\u03bd, \u03b1\u03c2 \u03b5\u03c1\u03b3\u03b1\u03b6\u03ce\u03bc\u03b5\u03b8\u03b1 \u03c4\u03bf \u03ba\u03b1\u03bb\u03cc\u03bd \u03c0\u03c1\u03bf\u03c2 \u03c0\u03ac\u03bd\u03c4\u03b1\u03c2, \u03bc\u03ac\u03bb\u03b9\u03c3\u03c4\u03b1 \u03b4\u03b5 \u03c0\u03c1\u03bf\u03c2 \u03c4\u03bf\u03c5\u03c2 \u03bf\u03b9\u03ba\u03b5\u03af\u03bf\u03c5\u03c2 \u03c4\u03b7\u03c2 \u03c0\u03af\u03c3\u03c4\u03b5\u03c9\u03c2. "
        },
        {
          "chapter": 6,
          "verse": 11,
          "name": "Galatians 6:11",
          "text": "\u038a\u03b4\u03b5\u03c4\u03b5 \u03c0\u03cc\u03c3\u03bf\u03bd \u03bc\u03b1\u03ba\u03c1\u03ac\u03bd \u03b5\u03c0\u03b9\u03c3\u03c4\u03bf\u03bb\u03ae\u03bd \u03c3\u03b1\u03c2 \u03ad\u03b3\u03c1\u03b1\u03c8\u03b1 \u03bc\u03b5 \u03c4\u03b7\u03bd \u03c7\u03b5\u03af\u03c1\u03b1 \u03bc\u03bf\u03c5. "
        },
        {
          "chapter": 6,
          "verse": 12,
          "name": "Galatians 6:12",
          "text": "\u038c\u03c3\u03bf\u03b9 \u03b8\u03ad\u03bb\u03bf\u03c5\u03c3\u03b9 \u03bd\u03b1 \u03b1\u03c1\u03ad\u03c3\u03ba\u03c9\u03c3\u03b9 \u03ba\u03b1\u03c4\u03ac \u03c4\u03b7\u03bd \u03c3\u03ac\u03c1\u03ba\u03b1, \u03bf\u03cd\u03c4\u03bf\u03b9 \u03c3\u03b1\u03c2 \u03b1\u03bd\u03b1\u03b3\u03ba\u03ac\u03b6\u03bf\u03c5\u03c3\u03b9 \u03bd\u03b1 \u03c0\u03b5\u03c1\u03b9\u03c4\u03ad\u03bc\u03bd\u03b7\u03c3\u03b8\u03b5, \u03bc\u03cc\u03bd\u03bf\u03bd \u03b4\u03b9\u03ac \u03bd\u03b1 \u03bc\u03b7 \u03b4\u03b9\u03ce\u03ba\u03c9\u03bd\u03c4\u03b1\u03b9 \u03b4\u03b9\u03ac \u03c4\u03bf\u03bd \u03c3\u03c4\u03b1\u03c5\u03c1\u03cc\u03bd \u03c4\u03bf\u03c5 \u03a7\u03c1\u03b9\u03c3\u03c4\u03bf\u03cd. "
        },
        {
          "chapter": 6,
          "verse": 13,
          "name": "Galatians 6:13",
          "text": "\u0394\u03b9\u03cc\u03c4\u03b9 \u03bf\u03c5\u03b4\u03ad \u03bf\u03b9 \u03c0\u03b5\u03c1\u03b9\u03c4\u03b5\u03bc\u03bd\u03cc\u03bc\u03b5\u03bd\u03bf\u03b9 \u03b1\u03c5\u03c4\u03bf\u03af \u03c6\u03c5\u03bb\u03ac\u03c4\u03c4\u03bf\u03c5\u03c3\u03b9 \u03c4\u03bf\u03bd \u03bd\u03cc\u03bc\u03bf\u03bd\u00b7 \u03b1\u03bb\u03bb\u03ac \u03b8\u03ad\u03bb\u03bf\u03c5\u03c3\u03b9 \u03bd\u03b1 \u03c0\u03b5\u03c1\u03b9\u03c4\u03ad\u03bc\u03bd\u03b7\u03c3\u03b8\u03b5 \u03c3\u03b5\u03b9\u03c2, \u03b4\u03b9\u03ac \u03bd\u03b1 \u03ad\u03c7\u03c9\u03c3\u03b9 \u03ba\u03b1\u03cd\u03c7\u03b7\u03c3\u03b9\u03bd \u03b5\u03b9\u03c2 \u03c4\u03b7\u03bd \u03c3\u03ac\u03c1\u03ba\u03b1 \u03c3\u03b1\u03c2. "
        },
        {
          "chapter": 6,
          "verse": 14,
          "name": "Galatians 6:14",
          "text": "\u0395\u03b9\u03c2 \u03b5\u03bc\u03ad \u03b4\u03b5 \u03bc\u03b7 \u03b3\u03ad\u03bd\u03bf\u03b9\u03c4\u03bf \u03bd\u03b1 \u03ba\u03b1\u03c5\u03c7\u03ce\u03bc\u03b1\u03b9 \u03b5\u03b9\u03bc\u03ae \u03b5\u03b9\u03c2 \u03c4\u03bf\u03bd \u03c3\u03c4\u03b1\u03c5\u03c1\u03cc\u03bd \u03c4\u03bf\u03c5 \u039a\u03c5\u03c1\u03af\u03bf\u03c5 \u03b7\u03bc\u03ce\u03bd \u0399\u03b7\u03c3\u03bf\u03cd \u03a7\u03c1\u03b9\u03c3\u03c4\u03bf\u03cd, \u03b4\u03b9\u03ac \u03c4\u03bf\u03c5 \u03bf\u03c0\u03bf\u03af\u03bf\u03c5 \u03bf \u03ba\u03cc\u03c3\u03bc\u03bf\u03c2 \u03b5\u03c3\u03c4\u03b1\u03c5\u03c1\u03ce\u03b8\u03b7 \u03c9\u03c2 \u03c0\u03c1\u03bf\u03c2 \u03b5\u03bc\u03ad \u03ba\u03b1\u03b9 \u03b5\u03b3\u03ce \u03c9\u03c2 \u03c0\u03c1\u03bf\u03c2 \u03c4\u03bf\u03bd \u03ba\u03cc\u03c3\u03bc\u03bf\u03bd. "
        },
        {
          "chapter": 6,
          "verse": 15,
          "name": "Galatians 6:15",
          "text": "\u0394\u03b9\u03cc\u03c4\u03b9 \u03b5\u03bd \u03a7\u03c1\u03b9\u03c3\u03c4\u03ce \u0399\u03b7\u03c3\u03bf\u03cd \u03bf\u03cd\u03c4\u03b5 \u03c0\u03b5\u03c1\u03b9\u03c4\u03bf\u03bc\u03ae \u03b9\u03c3\u03c7\u03cd\u03b5\u03b9 \u03c4\u03b9 \u03bf\u03cd\u03c4\u03b5 \u03b1\u03ba\u03c1\u03bf\u03b2\u03c5\u03c3\u03c4\u03af\u03b1, \u03b1\u03bb\u03bb\u03ac \u03bd\u03ad\u03b1 \u03ba\u03c4\u03af\u03c3\u03b9\u03c2. "
        },
        {
          "chapter": 6,
          "verse": 16,
          "name": "Galatians 6:16",
          "text": "\u039a\u03b1\u03b9 \u03cc\u03c3\u03bf\u03b9 \u03c0\u03b5\u03c1\u03b9\u03c0\u03b1\u03c4\u03ae\u03c3\u03c9\u03c3\u03b9 \u03ba\u03b1\u03c4\u03ac \u03c4\u03bf\u03bd \u03ba\u03b1\u03bd\u03cc\u03bd\u03b1 \u03c4\u03bf\u03cd\u03c4\u03bf\u03bd, \u03b5\u03b9\u03c1\u03ae\u03bd\u03b7 \u03b5\u03c0' \u03b1\u03c5\u03c4\u03bf\u03cd\u03c2 \u03ba\u03b1\u03b9 \u03ad\u03bb\u03b5\u03bf\u03c2, \u03ba\u03b1\u03b9 \u03b5\u03c0\u03af \u03c4\u03bf\u03bd \u0399\u03c3\u03c1\u03b1\u03ae\u03bb \u03c4\u03bf\u03c5 \u0398\u03b5\u03bf\u03cd. "
        },
        {
          "chapter": 6,
          "verse": 17,
          "name": "Galatians 6:17",
          "text": "\u0395\u03b9\u03c2 \u03c4\u03bf \u03b5\u03be\u03ae\u03c2 \u03bc\u03b7\u03b4\u03b5\u03af\u03c2 \u03b1\u03c2 \u03bc\u03b7 \u03b4\u03af\u03b4\u03b7 \u03b5\u03b9\u03c2 \u03b5\u03bc\u03ad \u03b5\u03bd\u03cc\u03c7\u03bb\u03b7\u03c3\u03b9\u03bd\u00b7 \u03b4\u03b9\u03cc\u03c4\u03b9 \u03b5\u03b3\u03ce \u03b2\u03b1\u03c3\u03c4\u03ac\u03b6\u03c9 \u03c4\u03b1 \u03c3\u03c4\u03af\u03b3\u03bc\u03b1\u03c4\u03b1 \u03c4\u03bf\u03c5 \u039a\u03c5\u03c1\u03af\u03bf\u03c5 \u0399\u03b7\u03c3\u03bf\u03cd \u03b5\u03bd \u03c4\u03c9 \u03c3\u03ce\u03bc\u03b1\u03c4\u03af \u03bc\u03bf\u03c5. "
        },
        {
          "chapter": 6,
          "verse": 18,
          "name": "Galatians 6:18",
          "text": "\u0397 \u03c7\u03ac\u03c1\u03b9\u03c2 \u03c4\u03bf\u03c5 \u039a\u03c5\u03c1\u03af\u03bf\u03c5 \u03b7\u03bc\u03ce\u03bd \u0399\u03b7\u03c3\u03bf\u03cd \u03a7\u03c1\u03b9\u03c3\u03c4\u03bf\u03cd \u03b5\u03af\u03b7 \u03bc\u03b5\u03c4\u03ac \u03c4\u03bf\u03c5 \u03c0\u03bd\u03b5\u03cd\u03bc\u03b1\u03c4\u03bf\u03c2 \u03c5\u03bc\u03ce\u03bd, \u03b1\u03b4\u03b5\u03bb\u03c6\u03bf\u03af\u00b7 \u03b1\u03bc\u03ae\u03bd. "
        }
      ]
    }
  ]
}
