{
    "translation": "NCV Traditional",
    "abbreviation": "cnt",
    "lang": "zh",
    "language": "",
    "direction": "LTR",
    "encoding": "UTF-8",
    "book_nr": 9,
    "book_name": "1 Samuel",
    "chapter": 29,
    "name": "1 Samuel 29",
    "verses": [
        {
            "chapter": 29,
            "verse": 1,
            "name": "1 Samuel 29:1",
            "text": "\u975e\u5229\u58eb\u4eba\u628a\u4ed6\u5011\u6240\u6709\u7684\u8ecd\u968a\u90fd\u805a\u96c6\u5728\u4e9e\u5f17\uff0c\u4ee5\u8272\u5217\u4eba\u537b\u5728\u8036\u65af\u5217\u7684\u6cc9\u65c1\u5b89\u71df\u3002"
        },
        {
            "chapter": 29,
            "verse": 2,
            "name": "1 Samuel 29:2",
            "text": "\u975e\u5229\u58eb\u4eba\u7684\u9996\u9818\u5404\u7387\u9818\u767e\u4eba\u6216\u5343\u4eba\u524d\u9032\uff1b\u5927\u885b\u548c\u8ddf\u96a8\u4ed6\u7684\u4eba\u4e5f\u8ddf\u5728\u4e9e\u5409\u7684\u5f8c\u9762\u524d\u9032\u3002"
        },
        {
            "chapter": 29,
            "verse": 3,
            "name": "1 Samuel 29:3",
            "text": "\u975e\u5229\u58eb\u4eba\u7684\u9818\u8896\u8aaa\uff1a\u201c\u9019\u4e9b\u5e0c\u4f2f\u4f86\u4eba\u5728\u9019\u88e1\u4f5c\u751a\u9ebc\uff1f\u201d\u4e9e\u5409\u5c0d\u975e\u5229\u58eb\u4eba\u7684\u9818\u8896\u8aaa\uff1a\u201c\u9019\u4eba\u4e0d\u662f\u4ee5\u8272\u5217\u738b\u6383\u7f85\u7684\u81e3\u50d5\u5927\u885b\u55ce\uff1f\u4ed6\u5df2\u7d93\u5728\u6211\u9019\u88e1\u6709\u597d\u4e9b\u5e74\u65e5\u4e86\u3002\u81ea\u5f9e\u4ed6\u964d\u670d\u6211\u7684\u4e00\u5929\uff0c\u76f4\u5230\u4eca\u65e5\uff0c\u6211\u672a\u66fe\u767c\u73fe\u4ed6\u6709\u751a\u9ebc\u904e\u932f\u3002\u201d"
        },
        {
            "chapter": 29,
            "verse": 4,
            "name": "1 Samuel 29:4",
            "text": "\u975e\u5229\u58eb\u4eba\u7684\u9818\u8896\u5411\u4e9e\u5409\u767c\u6012\uff0c\u5c0d\u4ed6\u8aaa\uff1a\u201c\u4f60\u53eb\u9019\u4eba\u56de\u53bb\uff0c\u597d\u8b93\u4ed6\u56de\u5230\u4f60\u70ba\u4ed6\u5b89\u6392\u7684\u5730\u65b9\u53bb\u3002\u4ed6\u4e0d\u53ef\u8207\u6211\u5011\u4e00\u540c\u4e0b\u6230\u5834\uff0c\u514d\u5f97\u4ed6\u5728\u6230\u5834\u4e0a\u6210\u70ba\u6211\u5011\u7684\u5c0d\u982d\u3002\u9019\u4eba\u53ef\u7528\u751a\u9ebc\u53bb\u5f97\u4ed6\u4e3b\u4eba\u7684\u6b61\u5fc3\u5462\uff1f\u8c48\u4e0d\u662f\u7528\u6211\u5011\u9019\u4e9b\u4eba\u7684\u982d\u55ce\uff1f"
        },
        {
            "chapter": 29,
            "verse": 5,
            "name": "1 Samuel 29:5",
            "text": "\u9019\u4eba\u4e0d\u5c31\u662f\u5927\u885b\u55ce\uff1f\u5f9e\u524d\u4ee5\u8272\u5217\u7684\u5a66\u5973\u5411\u4ed6\u6b4c\u5531\u8df3\u821e\u8aaa\uff1a\u2018\u6383\u7f85\u6bba\u6b7b\u5343\u5343\uff0c\u5927\u885b\u6bba\u6b7b\u842c\u842c\uff01\u2019\u201d"
        },
        {
            "chapter": 29,
            "verse": 6,
            "name": "1 Samuel 29:6",
            "text": "\u4e9e\u5409\u628a\u5927\u885b\u53eb\u4f86\uff0c\u5c0d\u4ed6\u8aaa\uff1a\u201c\u6211\u6307\u8457\u6c38\u6d3b\u7684\u8036\u548c\u83ef\u8aaa\uff0c\u4f60\u662f\u6b63\u76f4\u7684\u4eba\uff0c\u4f60\u8207\u6211\u5728\u8ecd\u4e2d\u51fa\u5165\uff0c\u6211\u611f\u5230\u5f88\u6eff\u610f\uff0c\u56e0\u70ba\u81ea\u5f9e\u4f60\u5230\u6211\u9019\u88e1\u4f86\u7684\u90a3\u4e00\u5929\uff0c\u76f4\u5230\u4eca\u65e5\uff0c\u6211\u672a\u66fe\u5728\u4f60\u8eab\u4e0a\u627e\u5230\u751a\u9ebc\u904e\u5931\uff1b\u53ea\u662f\u5404\u9996\u9818\u4e0d\u559c\u6b61\u4f60\u3002"
        },
        {
            "chapter": 29,
            "verse": 7,
            "name": "1 Samuel 29:7",
            "text": "\u73fe\u5728\uff0c\u4f60\u53ef\u4ee5\u56de\u53bb\uff0c\u5e73\u5e73\u5b89\u5b89\u8d70\u5427\uff01\u4e0d\u8981\u884c\u975e\u5229\u58eb\u4eba\u7684\u9996\u9818\u770b\u70ba\u60e1\u7684\u4e8b\u3002\u201d"
        },
        {
            "chapter": 29,
            "verse": 8,
            "name": "1 Samuel 29:8",
            "text": "\u5927\u885b\u5c0d\u4e9e\u5409\u8aaa\uff1a\u201c\u6211\u4f5c\u4e86\u751a\u9ebc\u5462\uff1f\u81ea\u5f9e\u6211\u4f86\u5230\u4f60\u9762\u524d\u7684\u90a3\u4e00\u5929\uff0c\u76f4\u5230\u4eca\u65e5\uff0c\u4f60\u5728\u50d5\u4eba\u8eab\u4e0a\u627e\u5230\u751a\u9ebc\uff0c\u4f7f\u6211\u4e0d\u80fd\u8207\u6211\u4e3b\u6211\u738b\u7684\u4ec7\u6575\u722d\u6230\u5462\uff1f\u201d"
        },
        {
            "chapter": 29,
            "verse": 9,
            "name": "1 Samuel 29:9",
            "text": "\u4e9e\u5409\u56de\u7b54\u5927\u885b\uff0c\u8aaa\uff1a\u201c\u6211\u77e5\u9053\u4f60\u5728\u6211\u773c\u4e2d\u662f\u500b\u597d\u4eba\uff0c\u50cf\u3000\u795e\u7684\u4f7f\u8005\u4e00\u6a23\uff1b\u53ea\u662f\u975e\u5229\u58eb\u4eba\u7684\u9818\u8896\u66fe\u7d93\u8aaa\u904e\uff1a\u2018\u4ed6\u4e0d\u53ef\u8207\u6211\u5011\u4e00\u540c\u4e0a\u6230\u5834\u3002\u2019"
        },
        {
            "chapter": 29,
            "verse": 10,
            "name": "1 Samuel 29:10",
            "text": "\u6240\u4ee5\u660e\u5929\u65e9\u6668\uff0c\u4f60\u548c\u8ddf\u4f60\u4f86\u7684\u4eba\uff0c\u5c31\u662f\u4f60\u4e3b\u4eba\u7684\u50d5\u4eba\u90fd\u8981\u6e05\u65e9\u8d77\u4f86\u3002\u4f60\u5011\u660e\u5929\u65e9\u6668\u90fd\u8981\u65e9\u8d77\uff0c\u5929\u4e00\u4eae\u4f60\u5011\u5c31\u8981\u96e2\u958b\u3002\u201d"
        },
        {
            "chapter": 29,
            "verse": 11,
            "name": "1 Samuel 29:11",
            "text": "\u65bc\u662f\u5927\u885b\u548c\u8ddf\u96a8\u4ed6\u7684\u4eba\u6e05\u65e9\u8d77\u4f86\uff0c\u4e00\u65e9\u5c31\u96e2\u958b\uff0c\u56de\u5230\u975e\u5229\u58eb\u4eba\u7684\u5730\u53bb\u3002\u975e\u5229\u58eb\u4eba\u4e5f\u4e0a\u8036\u65af\u5217\u53bb\u4e86\u3002"
        }
    ]
}