{
    "translation": "Oja\u010dano Sveto pismo (Ps + Gal)",
    "abbreviation": "sloojacano",
    "lang": "sl",
    "language": "Slovene",
    "direction": "LTR",
    "encoding": "UTF-8",
    "book_nr": 18,
    "book_name": "Job",
    "chapter": 5,
    "name": "Job 5",
    "verses": [
        {
            "chapter": 5,
            "verse": 1,
            "name": "Job 5:1",
            "text": ""
        },
        {
            "chapter": 5,
            "verse": 2,
            "name": "Job 5:2",
            "text": ""
        },
        {
            "chapter": 5,
            "verse": 3,
            "name": "Job 5:3",
            "text": ""
        },
        {
            "chapter": 5,
            "verse": 4,
            "name": "Job 5:4",
            "text": ""
        },
        {
            "chapter": 5,
            "verse": 5,
            "name": "Job 5:5",
            "text": ""
        },
        {
            "chapter": 5,
            "verse": 6,
            "name": "Job 5:6",
            "text": ""
        },
        {
            "chapter": 5,
            "verse": 7,
            "name": "Job 5:7",
            "text": ""
        },
        {
            "chapter": 5,
            "verse": 8,
            "name": "Job 5:8",
            "text": ""
        },
        {
            "chapter": 5,
            "verse": 9,
            "name": "Job 5:9",
            "text": ""
        },
        {
            "chapter": 5,
            "verse": 10,
            "name": "Job 5:10",
            "text": ""
        },
        {
            "chapter": 5,
            "verse": 11,
            "name": "Job 5:11",
            "text": ""
        },
        {
            "chapter": 5,
            "verse": 12,
            "name": "Job 5:12",
            "text": ""
        },
        {
            "chapter": 5,
            "verse": 13,
            "name": "Job 5:13",
            "text": ""
        },
        {
            "chapter": 5,
            "verse": 14,
            "name": "Job 5:14",
            "text": ""
        },
        {
            "chapter": 5,
            "verse": 15,
            "name": "Job 5:15",
            "text": ""
        },
        {
            "chapter": 5,
            "verse": 16,
            "name": "Job 5:16",
            "text": ""
        },
        {
            "chapter": 5,
            "verse": 17,
            "name": "Job 5:17",
            "text": ""
        },
        {
            "chapter": 5,
            "verse": 18,
            "name": "Job 5:18",
            "text": ""
        },
        {
            "chapter": 5,
            "verse": 19,
            "name": "Job 5:19",
            "text": ""
        },
        {
            "chapter": 5,
            "verse": 20,
            "name": "Job 5:20",
            "text": ""
        },
        {
            "chapter": 5,
            "verse": 21,
            "name": "Job 5:21",
            "text": ""
        },
        {
            "chapter": 5,
            "verse": 22,
            "name": "Job 5:22",
            "text": ""
        },
        {
            "chapter": 5,
            "verse": 23,
            "name": "Job 5:23",
            "text": ""
        },
        {
            "chapter": 5,
            "verse": 24,
            "name": "Job 5:24",
            "text": ""
        },
        {
            "chapter": 5,
            "verse": 25,
            "name": "Job 5:25",
            "text": ""
        },
        {
            "chapter": 5,
            "verse": 26,
            "name": "Job 5:26",
            "text": ""
        },
        {
            "chapter": 5,
            "verse": 27,
            "name": "Job 5:27",
            "text": ""
        }
    ]
}