{
    "translation": "GOD'S WORD to the Nations",
    "abbreviation": "godsword",
    "lang": "en",
    "language": "English",
    "direction": "LTR",
    "encoding": "UTF-8",
    "book_nr": 19,
    "book_name": "Psalms",
    "chapter": 60,
    "name": "Psalms 60",
    "verses": [
        {
            "chapter": 60,
            "verse": 1,
            "name": "Psalms 60:1",
            "text": "O God, you have rejected us. You have broken down our defenses. You have been angry. Restore us! "
        },
        {
            "chapter": 60,
            "verse": 2,
            "name": "Psalms 60:2",
            "text": "You made the land quake. You split it wide open. Heal the cracks in it because it is falling apart. "
        },
        {
            "chapter": 60,
            "verse": 3,
            "name": "Psalms 60:3",
            "text": "You have made your people experience hardships. You have given us wine that makes us stagger. "
        },
        {
            "chapter": 60,
            "verse": 4,
            "name": "Psalms 60:4",
            "text": "Yet, you have raised a flag for those who fear you so that they can rally to it when attacked by bows and arrows. Selah "
        },
        {
            "chapter": 60,
            "verse": 5,
            "name": "Psalms 60:5",
            "text": "Save us with your powerful hand, and answer us so that those who are dear to you may be rescued.   "
        },
        {
            "chapter": 60,
            "verse": 6,
            "name": "Psalms 60:6",
            "text": "God has promised the following through his holiness: \"I will triumph! I will divide Shechem. I will measure the valley of Succoth. "
        },
        {
            "chapter": 60,
            "verse": 7,
            "name": "Psalms 60:7",
            "text": "Gilead is mine. Manasseh is mine. Ephraim is the helmet on my head. Judah is my scepter. "
        },
        {
            "chapter": 60,
            "verse": 8,
            "name": "Psalms 60:8",
            "text": "Moab is my washtub. I will throw my shoe over Edom. I will shout in triumph over Philistia.\" "
        },
        {
            "chapter": 60,
            "verse": 9,
            "name": "Psalms 60:9",
            "text": "Who will bring me into the fortified city? Who will lead me to Edom? "
        },
        {
            "chapter": 60,
            "verse": 10,
            "name": "Psalms 60:10",
            "text": "Isn't it you, O God, who rejected us? Isn't it you, O God, who refused to accompany our armies? "
        },
        {
            "chapter": 60,
            "verse": 11,
            "name": "Psalms 60:11",
            "text": "Give us help against the enemy because human assistance is worthless. "
        },
        {
            "chapter": 60,
            "verse": 12,
            "name": "Psalms 60:12",
            "text": "With God we will display great strength. He will trample our enemies.  "
        }
    ]
}