{
    "translation": "Ge'ez Bible",
    "abbreviation": "geez",
    "lang": "gez",
    "language": "Ge\u2019ez",
    "direction": "LTR",
    "encoding": "UTF-8",
    "book_nr": 30,
    "book_name": "Amos",
    "chapter": 9,
    "name": "Amos 9",
    "verses": [
        {
            "chapter": 9,
            "verse": 1,
            "name": "Amos 9:1",
            "text": ""
        },
        {
            "chapter": 9,
            "verse": 2,
            "name": "Amos 9:2",
            "text": ""
        },
        {
            "chapter": 9,
            "verse": 3,
            "name": "Amos 9:3",
            "text": ""
        },
        {
            "chapter": 9,
            "verse": 4,
            "name": "Amos 9:4",
            "text": ""
        },
        {
            "chapter": 9,
            "verse": 5,
            "name": "Amos 9:5",
            "text": ""
        },
        {
            "chapter": 9,
            "verse": 6,
            "name": "Amos 9:6",
            "text": ""
        },
        {
            "chapter": 9,
            "verse": 7,
            "name": "Amos 9:7",
            "text": ""
        },
        {
            "chapter": 9,
            "verse": 8,
            "name": "Amos 9:8",
            "text": ""
        },
        {
            "chapter": 9,
            "verse": 9,
            "name": "Amos 9:9",
            "text": ""
        },
        {
            "chapter": 9,
            "verse": 10,
            "name": "Amos 9:10",
            "text": ""
        },
        {
            "chapter": 9,
            "verse": 11,
            "name": "Amos 9:11",
            "text": ""
        },
        {
            "chapter": 9,
            "verse": 12,
            "name": "Amos 9:12",
            "text": ""
        },
        {
            "chapter": 9,
            "verse": 13,
            "name": "Amos 9:13",
            "text": ""
        },
        {
            "chapter": 9,
            "verse": 14,
            "name": "Amos 9:14",
            "text": ""
        },
        {
            "chapter": 9,
            "verse": 15,
            "name": "Amos 9:15",
            "text": ""
        }
    ]
}