{
    "translation": "Dead Sea Scrolls variants parallel to the Samaritan Pentateuch",
    "abbreviation": "spdss",
    "lang": "he",
    "language": "Hebrew",
    "direction": "RTL",
    "encoding": "UTF-8",
    "book_nr": 28,
    "book_name": "Hosea",
    "chapter": 4,
    "name": "Hosea 4",
    "verses": [
        {
            "chapter": 4,
            "verse": 1,
            "name": "Hosea 4:1",
            "text": ""
        },
        {
            "chapter": 4,
            "verse": 2,
            "name": "Hosea 4:2",
            "text": ""
        },
        {
            "chapter": 4,
            "verse": 3,
            "name": "Hosea 4:3",
            "text": ""
        },
        {
            "chapter": 4,
            "verse": 4,
            "name": "Hosea 4:4",
            "text": ""
        },
        {
            "chapter": 4,
            "verse": 5,
            "name": "Hosea 4:5",
            "text": ""
        },
        {
            "chapter": 4,
            "verse": 6,
            "name": "Hosea 4:6",
            "text": ""
        },
        {
            "chapter": 4,
            "verse": 7,
            "name": "Hosea 4:7",
            "text": ""
        },
        {
            "chapter": 4,
            "verse": 8,
            "name": "Hosea 4:8",
            "text": ""
        },
        {
            "chapter": 4,
            "verse": 9,
            "name": "Hosea 4:9",
            "text": ""
        },
        {
            "chapter": 4,
            "verse": 10,
            "name": "Hosea 4:10",
            "text": ""
        },
        {
            "chapter": 4,
            "verse": 11,
            "name": "Hosea 4:11",
            "text": ""
        },
        {
            "chapter": 4,
            "verse": 12,
            "name": "Hosea 4:12",
            "text": ""
        },
        {
            "chapter": 4,
            "verse": 13,
            "name": "Hosea 4:13",
            "text": ""
        },
        {
            "chapter": 4,
            "verse": 14,
            "name": "Hosea 4:14",
            "text": ""
        },
        {
            "chapter": 4,
            "verse": 15,
            "name": "Hosea 4:15",
            "text": ""
        },
        {
            "chapter": 4,
            "verse": 16,
            "name": "Hosea 4:16",
            "text": ""
        },
        {
            "chapter": 4,
            "verse": 17,
            "name": "Hosea 4:17",
            "text": ""
        },
        {
            "chapter": 4,
            "verse": 18,
            "name": "Hosea 4:18",
            "text": ""
        },
        {
            "chapter": 4,
            "verse": 19,
            "name": "Hosea 4:19",
            "text": ""
        }
    ]
}