{
    "translation": "Swahili",
    "abbreviation": "swahili",
    "lang": "sw",
    "language": "Swahili",
    "direction": "LTR",
    "encoding": "",
    "book_nr": 43,
    "book_name": "John",
    "chapter": 14,
    "name": "John 14",
    "verses": [
        {
            "chapter": 14,
            "verse": 1,
            "name": "John 14:1",
            "text": "Yesu aliwaambia, \"Msifadhaike mioyoni mwenu. Mwaminini Mungu, niaminini na mimi pia."
        },
        {
            "chapter": 14,
            "verse": 2,
            "name": "John 14:2",
            "text": "Nyumbani mwa Baba yangu mna makao mengi; la sivyo ningalikwisha waambieni. Sasa nakwenda kuwatayarishieni nafasi."
        },
        {
            "chapter": 14,
            "verse": 3,
            "name": "John 14:3",
            "text": "Na nikienda na kuwatayarishieni nafasi, nitarudi na kuwachukueni kwangu, ili nanyi muwe pale nilipo mimi."
        },
        {
            "chapter": 14,
            "verse": 4,
            "name": "John 14:4",
            "text": "Mnajua njia ya kwenda huko ninakokwenda.\""
        },
        {
            "chapter": 14,
            "verse": 5,
            "name": "John 14:5",
            "text": "Thoma akamwuliza, \"Bwana, hatujui unakokwenda, tutawezaje basi, kuijua hiyo njia?\""
        },
        {
            "chapter": 14,
            "verse": 6,
            "name": "John 14:6",
            "text": "Yesu akamjibu, \"Mimi ni njia, na ukweli na uzima. Hakuna awezaye kwenda kwa Baba ila kwa kupitia kwangu."
        },
        {
            "chapter": 14,
            "verse": 7,
            "name": "John 14:7",
            "text": "Ikiwa mnanijua mimi mnamjua na Baba yangu pia. Na tangu sasa, mnamjua, tena mmekwisha mwona.\""
        },
        {
            "chapter": 14,
            "verse": 8,
            "name": "John 14:8",
            "text": "Filipo akamwambia, \"Bwana, tuonyeshe Baba, nasi tutatosheka.\""
        },
        {
            "chapter": 14,
            "verse": 9,
            "name": "John 14:9",
            "text": "Yesu akamwambia, \"Filipo, nimekaa nanyi muda wote huu, nawe hujanijua? Aliyekwisha niona mimi amemwona Baba. Unawezaje basi, kusema: <FO>Tuonyeshe Baba?<Fo>"
        },
        {
            "chapter": 14,
            "verse": 10,
            "name": "John 14:10",
            "text": "Je, huamini kwamba mimi niko ndani ya Baba, naye Baba yuko ndani yangu? Maneno ninayowaambieni nyote siyasemi kwa mamlaka yangu; Baba aliye ndani yangu anafanya kazi yake."
        },
        {
            "chapter": 14,
            "verse": 11,
            "name": "John 14:11",
            "text": "Mnapaswa kuniamini ninaposema kwamba mimi niko ndani ya Baba naye Baba yuko ndani yangu. Ama sivyo, aminini kwa sababu ya mambo ninayofanya."
        },
        {
            "chapter": 14,
            "verse": 12,
            "name": "John 14:12",
            "text": "Kweli nawaambieni, anayeniamini atafanya mambo ninayofanya mimi; naam, atafanya hata makuu zaidi, maana nakwenda kwa Baba."
        },
        {
            "chapter": 14,
            "verse": 13,
            "name": "John 14:13",
            "text": "Na chochote mtakachoomba kwa jina langu nitafanya, ili Baba atukuzwe ndani ya Mwana."
        },
        {
            "chapter": 14,
            "verse": 14,
            "name": "John 14:14",
            "text": "Mkiniomba chochote kwa jina langu, nitawafanyieni."
        },
        {
            "chapter": 14,
            "verse": 15,
            "name": "John 14:15",
            "text": "\"Mkinipenda mtazishika amri zangu."
        },
        {
            "chapter": 14,
            "verse": 16,
            "name": "John 14:16",
            "text": "Nami nitamwomba Baba naye atawapeni Msaidizi mwingine, atakayekaa nanyi milele."
        },
        {
            "chapter": 14,
            "verse": 17,
            "name": "John 14:17",
            "text": "Yeye ni Roho wa kweli. Ulimwengu hauwezi kumpokea kwa sababu hauwezi kumwona wala kumjua. Lakini ninyi mnamjua kwa sababu anabaki nanyi na yu ndani yenu."
        },
        {
            "chapter": 14,
            "verse": 18,
            "name": "John 14:18",
            "text": "\"Sitawaacha ninyi yatima; nitakuja tena kwenu."
        },
        {
            "chapter": 14,
            "verse": 19,
            "name": "John 14:19",
            "text": "Bado kidogo nao ulimwengu hautaniona tena, lakini ninyi mtaniona; na kwa kuwa mimi ni hai, nanyi pia mtakuwa hai."
        },
        {
            "chapter": 14,
            "verse": 20,
            "name": "John 14:20",
            "text": "Siku ile itakapofika mtajua kwamba mimi niko ndani ya Baba, nanyi mko ndani yangu, nami ndani yenu."
        },
        {
            "chapter": 14,
            "verse": 21,
            "name": "John 14:21",
            "text": "Azipokeaye amri zangu na kuzishika, yeye ndiye anipendaye. Naye anipendaye mimi atapendwa na Baba yangu, nami nitampenda na kujidhihirisha kwake.\""
        },
        {
            "chapter": 14,
            "verse": 22,
            "name": "John 14:22",
            "text": "Yuda (si yule Iskarioti) akamwambia, \"Bwana, itawezekanaje wewe kujidhihirisha kwetu na si kwa ulimwengu?\""
        },
        {
            "chapter": 14,
            "verse": 23,
            "name": "John 14:23",
            "text": "Yesu akamjibu, \"Mtu akinipenda atashika neno langu, na Baba yangu atampenda, nasi tutakuja kwake na kukaa naye."
        },
        {
            "chapter": 14,
            "verse": 24,
            "name": "John 14:24",
            "text": "Asiyenipenda hashiki maneno yangu. Na neno mlilosikia si langu, bali ni lake Baba aliyenituma."
        },
        {
            "chapter": 14,
            "verse": 25,
            "name": "John 14:25",
            "text": "\"Nimewaambieni mambo haya nikiwa bado pamoja nanyi"
        },
        {
            "chapter": 14,
            "verse": 26,
            "name": "John 14:26",
            "text": "lakini Msaidizi, Roho Mtakatifu, ambaye Baba atamtuma kwa jina langu, atawafundisheni kila kitu na kuwakumbusheni yote niliyowaambieni."
        },
        {
            "chapter": 14,
            "verse": 27,
            "name": "John 14:27",
            "text": "\"Nawaachieni amani; nawapeni amani yangu. Siwapi ninyi kama vile ulimwengu ufanyavyo. Msiwe na wasiwasi, wala msifadhaike."
        },
        {
            "chapter": 14,
            "verse": 28,
            "name": "John 14:28",
            "text": "Mlikwisha sikia nikiwaambieni: <FO>Ninakwenda zangu, kisha nitarudi tena kwenu.<Fo> Kama mngalinipenda mngalifurahi kwa sababu ninakwenda kwa Baba, maana yeye ni mkuu kuliko mimi."
        },
        {
            "chapter": 14,
            "verse": 29,
            "name": "John 14:29",
            "text": "Nimewaambieni haya sasa kabla hayajatokea, ili yatakapotokea mpate kuamini."
        },
        {
            "chapter": 14,
            "verse": 30,
            "name": "John 14:30",
            "text": "Sitasema nanyi tena mambo mengi, maana mtawala wa ulimwengu huu anakuja. Kwangu mimi hawezi kitu;"
        },
        {
            "chapter": 14,
            "verse": 31,
            "name": "John 14:31",
            "text": "lakini ulimwengu unapaswa kujua kwamba nampenda Baba, na ndiyo maana nafanya kila kitu kama Baba alivyoniamuru. Simameni, tutoke hapa!\""
        }
    ]
}