{
    "translation": "Dutch Staten Vertaling",
    "abbreviation": "statenvertaling",
    "lang": "nl",
    "language": "Dutch",
    "direction": "LTR",
    "encoding": "UTF-8",
    "book_nr": 4,
    "book_name": "Numbers",
    "chapter": 30,
    "name": "Numbers 30",
    "verses": [
        {
            "chapter": 30,
            "verse": 1,
            "name": "Numbers 30:1",
            "text": "En Mozes sprak tot de hoofden der stammen van de kinderen Isra\u00ebls, zeggende: Dit is de zaak, die de Heere geboden heeft:"
        },
        {
            "chapter": 30,
            "verse": 2,
            "name": "Numbers 30:2",
            "text": "Wanneer een man den Heere een gelofte zal beloofd, of een eed zal gezworen hebben, zijn ziel met een verbintenis verbindende, zijn woord zal hij niet ontheiligen; naar alles, wat uit zijn mond gegaan is, zal hij doen."
        },
        {
            "chapter": 30,
            "verse": 3,
            "name": "Numbers 30:3",
            "text": "Maar als een vrouw den Heere een gelofte zal beloofd hebben, en zich met een verbintenis in het huis haars vaders in haar jonkheid zal verbonden hebben;"
        },
        {
            "chapter": 30,
            "verse": 4,
            "name": "Numbers 30:4",
            "text": "En haar vader haar gelofte, en haar verbintenis, waarmede zij haar ziel verbonden heeft, zal horen, en haar vader tegen haar zal stilzwijgen, zo zullen al haar geloften bestaan, en alle verbintenis, waarmede zij haar ziel verbonden heeft, zal bestaan."
        },
        {
            "chapter": 30,
            "verse": 5,
            "name": "Numbers 30:5",
            "text": "Maar indien haar vader dat zal breken, ten dage als hij het hoort, al haar geloften, en haar verbintenissen, waarmede zij haar ziel verbonden heeft, zullen niet bestaan; maar de Heere zal het haar vergeven; want haar vader heeft ze haar doen breken."
        },
        {
            "chapter": 30,
            "verse": 6,
            "name": "Numbers 30:6",
            "text": "Doch indien zij immers een man heeft, en haar geloften op haar zijn, of de uitspraak harer lippen, waarmede zij haar ziel verbonden heeft;"
        },
        {
            "chapter": 30,
            "verse": 7,
            "name": "Numbers 30:7",
            "text": "En haar man dat zal horen, en ten dage als hij het hoort, tegen haar zal stilzwijgen, zo zullen haar geloften bestaan, en haar verbintenissen, waarmede zij haar ziel verbonden heeft, zullen bestaan."
        },
        {
            "chapter": 30,
            "verse": 8,
            "name": "Numbers 30:8",
            "text": "Maar indien haar man ten dage, als hij het hoorde, dat zal breken, en haar gelofte, die op haar was, zal te niet maken, mitsgaders de uitspraak harer lippen, waarmede zij haar ziel verbonden heeft, zo zal het de Heere haar vergeven."
        },
        {
            "chapter": 30,
            "verse": 9,
            "name": "Numbers 30:9",
            "text": "Aangaande de gelofte ener weduwe, of ener verstotene: alles, waarmede zij haar ziel verbonden heeft, zal over haar bestaan."
        },
        {
            "chapter": 30,
            "verse": 10,
            "name": "Numbers 30:10",
            "text": "Maar indien zij ten huize haars mans gelofte gedaan heeft, of met een eed door verbintenis haar ziel verbonden heeft;"
        },
        {
            "chapter": 30,
            "verse": 11,
            "name": "Numbers 30:11",
            "text": "En haar man dat gehoord, en tegen haar stil zal gezwegen hebben, dat niet brekende; zo zullen al haar geloften bestaan, mitsgaders alle verbintenis, waarmede zij haar ziel verbonden heeft, zal bestaan."
        },
        {
            "chapter": 30,
            "verse": 12,
            "name": "Numbers 30:12",
            "text": "Maar indien haar man die dingen ganselijk te niet maakt, ten dage als hij het hoort, niets van al wat uit haar lippen gegaan is, van haar gelofte, en van de verbintenis harer ziel, zal bestaan; haar man heeft ze te niet gemaakt, en de Heere zal het haar vergeven."
        },
        {
            "chapter": 30,
            "verse": 13,
            "name": "Numbers 30:13",
            "text": "Alle gelofte, en allen eed der verbintenis, om de ziel te verootmoedigen, die zal haar man bevestigen, of die zal haar man te niet maken."
        },
        {
            "chapter": 30,
            "verse": 14,
            "name": "Numbers 30:14",
            "text": "Maar zo haar man tegen haar van dag tot dag ganselijk stilzwijgt, zo bevestigt hij al haar geloften, of al haar verbintenissen, dewelke op haar zijn; hij heeft ze bevestigd, omdat hij tegen haar stilgezwegen heeft, ten dage als hij het hoorde."
        },
        {
            "chapter": 30,
            "verse": 15,
            "name": "Numbers 30:15",
            "text": "Doch zo hij ze ganselijk te niet maken zal, nadat hij het gehoord zal hebben, zo zal hij haar ongerechtigheid dragen."
        },
        {
            "chapter": 30,
            "verse": 16,
            "name": "Numbers 30:16",
            "text": "Dat zijn de inzettingen, die de Heere Mozes geboden heeft, tussen een man en zijn huisvrouw, tussen een vader en zijn dochter, zijnde in haar jonkheid, ten huize haars vaders."
        }
    ]
}