{
    "translation": "Smith and Van Dyke",
    "abbreviation": "arabicsv",
    "lang": "ar",
    "language": "Arabic",
    "direction": "RTL",
    "encoding": "UTF-8",
    "book_nr": 58,
    "book_name": "Hebrews",
    "chapter": 4,
    "name": "Hebrews 4",
    "verses": [
        {
            "chapter": 4,
            "verse": 1,
            "name": "Hebrews 4:1",
            "text": "\u0641\u064e\u0644\u0652\u0646\u064e\u062e\u064e\u0641\u0652\u060c \u0623\u064e\u0646\u064e\u0651\u0647\u064f \u0645\u064e\u0639\u064e \u0628\u064e\u0642\u064e\u0627\u0621\u0650 \u0648\u064e\u0639\u0652\u062f\u064d \u0628\u0650\u0627\u0644\u062f\u064f\u0651\u062e\u064f\u0648\u0644\u0650 \u0625\u0650\u0644\u064e\u0649 \u0631\u064e\u0627\u062d\u064e\u062a\u0650\u0647\u0650\u060c \u064a\u064f\u0631\u064e\u0649 \u0623\u064e\u062d\u064e\u062f\u064c \u0645\u0650\u0646\u0652\u0643\u064f\u0645\u0652 \u0623\u064e\u0646\u064e\u0651\u0647\u064f \u0642\u064e\u062f\u0652 \u062e\u064e\u0627\u0628\u064e \u0645\u0650\u0646\u0652\u0647\u064f!"
        },
        {
            "chapter": 4,
            "verse": 2,
            "name": "Hebrews 4:2",
            "text": "\u0644\u0623\u064e\u0646\u064e\u0651\u0646\u064e\u0627 \u0646\u064e\u062d\u0652\u0646\u064f \u0623\u064e\u064a\u0652\u0636\u064b\u0627 \u0642\u064e\u062f\u0652 \u0628\u064f\u0634\u0650\u0651\u0631\u0652\u0646\u064e\u0627 \u0643\u064e\u0645\u064e\u0627 \u0623\u064f\u0648\u0644\u0626\u0650\u0643\u064e\u060c \u0644\u0643\u0650\u0646\u0652 \u0644\u064e\u0645\u0652 \u062a\u064e\u0646\u0652\u0641\u064e\u0639\u0652 \u0643\u064e\u0644\u0650\u0645\u064e\u0629\u064f \u0627\u0644\u0652\u062e\u064e\u0628\u064e\u0631\u0650 \u0623\u064f\u0648\u0644\u0626\u0650\u0643\u064e. \u0625\u0650\u0630\u0652 \u0644\u064e\u0645\u0652 \u062a\u064e\u0643\u064f\u0646\u0652 \u0645\u064f\u0645\u0652\u062a\u064e\u0632\u0650\u062c\u064e\u0629\u064b \u0628\u0650\u0627\u0644\u0625\u0650\u064a\u0645\u064e\u0627\u0646\u0650 \u0641\u0650\u064a \u0627\u0644\u064e\u0651\u0630\u0650\u064a\u0646\u064e \u0633\u064e\u0645\u0650\u0639\u064f\u0648\u0627."
        },
        {
            "chapter": 4,
            "verse": 3,
            "name": "Hebrews 4:3",
            "text": "\u0644\u0623\u064e\u0646\u064e\u0651\u0646\u064e\u0627 \u0646\u064e\u062d\u0652\u0646\u064f \u0627\u0644\u0652\u0645\u064f\u0624\u0652\u0645\u0650\u0646\u0650\u064a\u0646\u064e \u0646\u064e\u062f\u0652\u062e\u064f\u0644\u064f \u0627\u0644\u0631\u064e\u0651\u0627\u062d\u064e\u0629\u064e\u060c \u0643\u064e\u0645\u064e\u0627 \u0642\u064e\u0627\u0644\u064e:\u00ab\u062d\u064e\u062a\u064e\u0651\u0649 \u0623\u064e\u0642\u0652\u0633\u064e\u0645\u0652\u062a\u064f \u0641\u0650\u064a \u063a\u064e\u0636\u064e\u0628\u0650\u064a: \u0644\u064e\u0646\u0652 \u064a\u064e\u062f\u0652\u062e\u064f\u0644\u064f\u0648\u0627 \u0631\u064e\u0627\u062d\u064e\u062a\u0650\u064a\u00bb \u0645\u064e\u0639\u064e \u0643\u064e\u0648\u0652\u0646\u0650 \u0627\u0644\u0623\u064e\u0639\u0652\u0645\u064e\u0627\u0644\u0650 \u0642\u064e\u062f\u0652 \u0623\u064f\u0643\u0652\u0645\u0650\u0644\u064e\u062a\u0652 \u0645\u064f\u0646\u0652\u0630\u064f \u062a\u064e\u0623\u0652\u0633\u0650\u064a\u0633\u0650 \u0627\u0644\u0652\u0639\u064e\u0627\u0644\u064e\u0645\u0650."
        },
        {
            "chapter": 4,
            "verse": 4,
            "name": "Hebrews 4:4",
            "text": "\u0644\u0623\u064e\u0646\u064e\u0651\u0647\u064f \u0642\u064e\u0627\u0644\u064e \u0641\u0650\u064a \u0645\u064e\u0648\u0652\u0636\u0650\u0639\u064d \u0639\u064e\u0646\u0650 \u0627\u0644\u0633\u064e\u0651\u0627\u0628\u0639\u0650 \u0647\u0643\u064e\u0630\u064e\u0627:\u00ab\u0648\u064e\u0627\u0633\u0652\u062a\u064e\u0631\u064e\u0627\u062d\u064e \u0627\u0644\u0644\u0647\u064f \u0641\u0650\u064a \u0627\u0644\u0652\u064a\u064e\u0648\u0652\u0645\u0650 \u0627\u0644\u0633\u064e\u0651\u0627\u0628\u0639\u0650 \u0645\u0650\u0646\u0652 \u062c\u064e\u0645\u0650\u064a\u0639\u0650 \u0623\u064e\u0639\u0652\u0645\u064e\u0627\u0644\u0650\u0647\u0650\u00bb."
        },
        {
            "chapter": 4,
            "verse": 5,
            "name": "Hebrews 4:5",
            "text": "\u0648\u064e\u0641\u0650\u064a \u0647\u0630\u064e\u0627 \u0623\u064e\u064a\u0652\u0636\u064b\u0627:\u00ab\u0644\u064e\u0646\u0652 \u064a\u064e\u062f\u0652\u062e\u064f\u0644\u064f\u0648\u0627 \u0631\u064e\u0627\u062d\u064e\u062a\u0650\u064a\u00bb."
        },
        {
            "chapter": 4,
            "verse": 6,
            "name": "Hebrews 4:6",
            "text": "\u0641\u064e\u0625\u0650\u0630\u0652 \u0628\u064e\u0642\u0650\u064a\u064e \u0623\u064e\u0646\u064e\u0651 \u0642\u064e\u0648\u0652\u0645\u064b\u0627 \u064a\u064e\u062f\u0652\u062e\u064f\u0644\u064f\u0648\u0646\u064e\u0647\u064e\u0627\u060c \u0648\u064e\u0627\u0644\u064e\u0651\u0630\u0650\u064a\u0646\u064e \u0628\u064f\u0634\u0650\u0651\u0631\u064f\u0648\u0627 \u0623\u064e\u0648\u064e\u0651\u0644\u0627\u064b \u0644\u064e\u0645\u0652 \u064a\u064e\u062f\u0652\u062e\u064f\u0644\u064f\u0648\u0627 \u0644\u0650\u0633\u064e\u0628\u064e\u0628\u0650 \u0627\u0644\u0652\u0639\u0650\u0635\u0652\u064a\u064e\u0627\u0646\u0650\u060c"
        },
        {
            "chapter": 4,
            "verse": 7,
            "name": "Hebrews 4:7",
            "text": "\u064a\u064f\u0639\u064e\u064a\u0650\u0651\u0646\u064f \u0623\u064e\u064a\u0652\u0636\u064b\u0627 \u064a\u064e\u0648\u0652\u0645\u064b\u0627 \u0642\u064e\u0627\u0626\u0650\u0644\u0627\u064b \u0641\u0650\u064a \u062f\u064e\u0627\u0648\u064f\u062f\u064e:\u00ab\u0627\u0644\u0652\u064a\u064e\u0648\u0652\u0645\u064e\u00bb \u0628\u064e\u0639\u0652\u062f\u064e \u0632\u064e\u0645\u064e\u0627\u0646\u064d \u0647\u0630\u064e\u0627 \u0645\u0650\u0642\u0652\u062f\u064e\u0627\u0631\u064f\u0647\u064f\u060c \u0643\u064e\u0645\u064e\u0627 \u0642\u0650\u064a\u0644\u064e:\u00ab\u0627\u0644\u0652\u064a\u064e\u0648\u0652\u0645\u064e\u060c \u0625\u0650\u0646\u0652 \u0633\u064e\u0645\u0650\u0639\u0652\u062a\u064f\u0645\u0652 \u0635\u064e\u0648\u0652\u062a\u064e\u0647\u064f \u0641\u064e\u0644\u0627\u064e \u062a\u064f\u0642\u064e\u0633\u064f\u0651\u0648\u0627 \u0642\u064f\u0644\u064f\u0648\u0628\u064e\u0643\u064f\u0645\u0652\u00bb."
        },
        {
            "chapter": 4,
            "verse": 8,
            "name": "Hebrews 4:8",
            "text": "\u0644\u0623\u064e\u0646\u064e\u0651\u0647\u064f \u0644\u064e\u0648\u0652 \u0643\u064e\u0627\u0646\u064e \u064a\u064e\u0634\u064f\u0648\u0639\u064f \u0642\u064e\u062f\u0652 \u0623\u064e\u0631\u064e\u0627\u062d\u064e\u0647\u064f\u0645\u0652 \u0644\u064e\u0645\u064e\u0627 \u062a\u064e\u0643\u064e\u0644\u064e\u0651\u0645\u064e \u0628\u064e\u0639\u0652\u062f\u064e \u0630\u0644\u0650\u0643\u064e \u0639\u064e\u0646\u0652 \u064a\u064e\u0648\u0652\u0645\u064d \u0622\u062e\u064e\u0631\u064e."
        },
        {
            "chapter": 4,
            "verse": 9,
            "name": "Hebrews 4:9",
            "text": "\u0625\u0650\u0630\u064b\u0627 \u0628\u064e\u0642\u0650\u064a\u064e\u062a\u0652 \u0631\u064e\u0627\u062d\u064e\u0629\u064c \u0644\u0650\u0634\u064e\u0639\u0652\u0628\u0650 \u0627\u0644\u0644\u0647\u0650!"
        },
        {
            "chapter": 4,
            "verse": 10,
            "name": "Hebrews 4:10",
            "text": "\u0644\u0623\u064e\u0646\u064e\u0651 \u0627\u0644\u064e\u0651\u0630\u0650\u064a \u062f\u064e\u062e\u064e\u0644\u064e \u0631\u064e\u0627\u062d\u064e\u062a\u064e\u0647\u064f \u0627\u0633\u0652\u062a\u064e\u0631\u064e\u0627\u062d\u064e \u0647\u064f\u0648\u064e \u0623\u064e\u064a\u0652\u0636\u064b\u0627 \u0645\u0650\u0646\u0652 \u0623\u064e\u0639\u0652\u0645\u064e\u0627\u0644\u0650\u0647\u0650\u060c \u0643\u064e\u0645\u064e\u0627 \u0627\u0644\u0644\u0647\u064f \u0645\u0650\u0646\u0652 \u0623\u064e\u0639\u0652\u0645\u064e\u0627\u0644\u0650\u0647\u0650."
        },
        {
            "chapter": 4,
            "verse": 11,
            "name": "Hebrews 4:11",
            "text": "\u0641\u064e\u0644\u0652\u0646\u064e\u062c\u0652\u062a\u064e\u0647\u0650\u062f\u0652 \u0623\u064e\u0646\u0652 \u0646\u064e\u062f\u0652\u062e\u064f\u0644\u064e \u062a\u0650\u0644\u0652\u0643\u064e \u0627\u0644\u0631\u064e\u0651\u0627\u062d\u064e\u0629\u064e\u060c \u0644\u0650\u0626\u064e\u0644\u0627\u064e\u0651 \u064a\u064e\u0633\u0652\u0642\u064f\u0637\u064e \u0623\u064e\u062d\u064e\u062f\u064c \u0641\u0650\u064a \u0639\u0650\u0628\u0652\u0631\u064e\u0629\u0650 \u0627\u0644\u0652\u0639\u0650\u0635\u0652\u064a\u064e\u0627\u0646\u0650 \u0647\u0630\u0650\u0647\u0650 \u0639\u064e\u064a\u0652\u0646\u0650\u0647\u064e\u0627."
        },
        {
            "chapter": 4,
            "verse": 12,
            "name": "Hebrews 4:12",
            "text": "\u0644\u0623\u064e\u0646\u064e\u0651 \u0643\u064e\u0644\u0650\u0645\u064e\u0629\u064e \u0627\u0644\u0644\u0647\u0650 \u062d\u064e\u064a\u064e\u0651\u0629\u064c \u0648\u064e\u0641\u064e\u0639\u064e\u0651\u0627\u0644\u064e\u0629\u064c \u0648\u064e\u0623\u064e\u0645\u0652\u0636\u064e\u0649 \u0645\u0650\u0646\u0652 \u0643\u064f\u0644\u0650\u0651 \u0633\u064e\u064a\u0652\u0641\u064d \u0630\u0650\u064a \u062d\u064e\u062f\u064e\u0651\u064a\u0652\u0646\u0650\u060c \u0648\u064e\u062e\u064e\u0627\u0631\u0650\u0642\u064e\u0629\u064c \u0625\u0650\u0644\u064e\u0649 \u0645\u064e\u0641\u0652\u0631\u064e\u0642\u0650 \u0627\u0644\u0646\u064e\u0651\u0641\u0652\u0633\u0650 \u0648\u064e\u0627\u0644\u0631\u064f\u0651\u0648\u062d\u0650 \u0648\u064e\u0627\u0644\u0652\u0645\u064e\u0641\u064e\u0627\u0635\u0650\u0644\u0650 \u0648\u064e\u0627\u0644\u0652\u0645\u0650\u062e\u064e\u0627\u062e\u0650\u060c \u0648\u064e\u0645\u064f\u0645\u064e\u064a\u0650\u0651\u0632\u064e\u0629\u064c \u0623\u064e\u0641\u0652\u0643\u064e\u0627\u0631\u064e \u0627\u0644\u0652\u0642\u064e\u0644\u0652\u0628\u0650 \u0648\u064e\u0646\u0650\u064a\u064e\u0651\u0627\u062a\u0650\u0647\u0650."
        },
        {
            "chapter": 4,
            "verse": 13,
            "name": "Hebrews 4:13",
            "text": "\u0648\u064e\u0644\u064e\u064a\u0652\u0633\u064e\u062a\u0652 \u062e\u064e\u0644\u0650\u064a\u0642\u064e\u0629\u064c \u063a\u064e\u064a\u0652\u0631\u064e \u0638\u064e\u0627\u0647\u0650\u0631\u064e\u0629\u064d \u0642\u064f\u062f\u064e\u0651\u0627\u0645\u064e\u0647\u064f\u060c \u0628\u064e\u0644\u0652 \u0643\u064f\u0644\u064f\u0651 \u0634\u064e\u064a\u0652\u0621\u064d \u0639\u064f\u0631\u0652\u064a\u064e\u0627\u0646\u064c \u0648\u064e\u0645\u064e\u0643\u0652\u0634\u064f\u0648\u0641\u064c \u0644\u0650\u0639\u064e\u064a\u0652\u0646\u064e\u064a\u0652 \u0630\u0644\u0650\u0643\u064e \u0627\u0644\u064e\u0651\u0630\u0650\u064a \u0645\u064e\u0639\u064e\u0647\u064f \u0623\u064e\u0645\u0652\u0631\u064f\u0646\u064e\u0627.  "
        },
        {
            "chapter": 4,
            "verse": 14,
            "name": "Hebrews 4:14",
            "text": "\u0641\u064e\u0625\u0650\u0630\u0652 \u0644\u064e\u0646\u064e\u0627 \u0631\u064e\u0626\u0650\u064a\u0633\u064f\u0643\u064e\u0647\u064e\u0646\u064e\u0629\u064d \u0639\u064e\u0638\u0650\u064a\u0645\u064c \u0642\u064e\u062f\u0650 \u0627\u062c\u0652\u062a\u064e\u0627\u0632\u064e \u0627\u0644\u0633\u064e\u0651\u0645\u064e\u0627\u0648\u064e\u0627\u062a\u0650\u060c \u064a\u064e\u0633\u064f\u0648\u0639\u064f \u0627\u0628\u0652\u0646\u064f \u0627\u0644\u0644\u0647\u0650\u060c \u0641\u064e\u0644\u0652\u0646\u064e\u062a\u064e\u0645\u064e\u0633\u064e\u0651\u0643\u0652 \u0628\u0650\u0627\u0644\u0625\u0650\u0642\u0652\u0631\u064e\u0627\u0631\u0650."
        },
        {
            "chapter": 4,
            "verse": 15,
            "name": "Hebrews 4:15",
            "text": "\u0644\u0623\u064e\u0646\u0652 \u0644\u064e\u064a\u0652\u0633\u064e \u0644\u064e\u0646\u064e\u0627 \u0631\u064e\u0626\u0650\u064a\u0633\u064f \u0643\u064e\u0647\u064e\u0646\u064e\u0629\u064d \u063a\u064e\u064a\u0652\u0631\u064f \u0642\u064e\u0627\u062f\u0650\u0631\u064d \u0623\u064e\u0646\u0652 \u064a\u064e\u0631\u0652\u062b\u0650\u064a\u064e \u0644\u0650\u0636\u064e\u0639\u064e\u0641\u064e\u0627\u062a\u0650\u0646\u064e\u0627\u060c \u0628\u064e\u0644\u0652 \u0645\u064f\u062c\u064e\u0631\u064e\u0651\u0628\u064c \u0641\u0650\u064a \u0643\u064f\u0644\u0650\u0651 \u0634\u064e\u064a\u0652\u0621\u064d \u0645\u0650\u062b\u0652\u0644\u064f\u0646\u064e\u0627\u060c \u0628\u0650\u0644\u0627\u064e \u062e\u064e\u0637\u0650\u064a\u064e\u0651\u0629\u064d."
        },
        {
            "chapter": 4,
            "verse": 16,
            "name": "Hebrews 4:16",
            "text": "\u0641\u064e\u0644\u0652\u0646\u064e\u062a\u064e\u0642\u064e\u062f\u064e\u0651\u0645\u0652 \u0628\u0650\u062b\u0650\u0642\u064e\u0629\u064d \u0625\u0650\u0644\u064e\u0649 \u0639\u064e\u0631\u0652\u0634\u0650 \u0627\u0644\u0646\u0650\u0651\u0639\u0652\u0645\u064e\u0629\u0650 \u0644\u0650\u0643\u064e\u064a\u0652 \u0646\u064e\u0646\u064e\u0627\u0644\u064e \u0631\u064e\u062d\u0652\u0645\u064e\u0629\u064b \u0648\u064e\u0646\u064e\u062c\u0650\u062f\u064e \u0646\u0650\u0639\u0652\u0645\u064e\u0629\u064b \u0639\u064e\u0648\u0652\u0646\u064b\u0627 \u0641\u0650\u064a \u062d\u0650\u064a\u0646\u0650\u0647\u0650. "
        }
    ]
}