{
    "translation": "Scots Gaelic (Gospel of Mark)",
    "abbreviation": "gaelic",
    "lang": "gd",
    "language": "Scottish Gaelic",
    "direction": "LTR",
    "encoding": "",
    "book_nr": 41,
    "book_name": "Mark",
    "chapter": 8,
    "name": "Mark 8",
    "verses": [
        {
            "chapter": 8,
            "verse": 1,
            "name": "Mark 8:1",
            "text": "Anns na laithean sin a rithist nuair a bha moran sluaigh ann, gun ni aca a dh' itheadh iad, ghairm e a dheisciopuil, is thuirt e riutha "
        },
        {
            "chapter": 8,
            "verse": 2,
            "name": "Mark 8:2",
            "text": " Tha truas agam ris an t-sluagh: oir, seall, tha iad air giulan leam cheana tri latha, 's chan eil ni aca a dhitheas iad:"
        },
        {
            "chapter": 8,
            "verse": 3,
            "name": "Mark 8:3",
            "text": "Agus ma leigeas mi air falbh iad 'nan traisg dhan tighean, fannaichidh iad air an rathad; oir thainig cuid dhiu air astar."
        },
        {
            "chapter": 8,
            "verse": 4,
            "name": "Mark 8:4",
            "text": "Is fhreagair a dheisciopuil e: Ciamar is urrainn do neach an riarachadh le aran an so san fhasach?"
        },
        {
            "chapter": 8,
            "verse": 5,
            "name": "Mark 8:5",
            "text": "Is dh' fharraid e dhiu: Co miad bonnach a thagaibh? Thuirt iad: A seachd."
        },
        {
            "chapter": 8,
            "verse": 6,
            "name": "Mark 8:6",
            "text": "Agus dh' orduich e don t-sluagh suidhe air an lar. 'Sa glacadh nan seachd bonnaich, 'sa toirt buidheachais, bhrist e, is thug e dha dheisciopuil iad gus an cur air am bialaobh, agus chuir iad air bialaobh an t-sluaigh iad."
        },
        {
            "chapter": 8,
            "verse": 7,
            "name": "Mark 8:7",
            "text": "'S bha beagan de mheanbh-iasg aca; agus bheannaich e iad, agus dh' iarr e an cur air am bialaobh. "
        },
        {
            "chapter": 8,
            "verse": 8,
            "name": "Mark 8:8",
            "text": " Agus dh' ith iad, is riaraicheadh iad, agus den phronnaig a dh' fhagadh thog iad seachd cleibh."
        },
        {
            "chapter": 8,
            "verse": 9,
            "name": "Mark 8:9",
            "text": "Is bha an fheadhainn a dh' ith mun cuairt do cheithir mile: agus chuir e air falbh iad."
        },
        {
            "chapter": 8,
            "verse": 10,
            "name": "Mark 8:10",
            "text": "'S gun mhaille chaidh e air bord a bhata comhla ri dheisciopuil, agus thainig e gu criochan Dhalmanutha."
        },
        {
            "chapter": 8,
            "verse": 11,
            "name": "Mark 8:11",
            "text": "Agus thainig na Phairisich a mach, is thoisich iad ri cheasnachadh, ag iarraidh comharraidh air bho neamh, ga bhuaireadh."
        },
        {
            "chapter": 8,
            "verse": 12,
            "name": "Mark 8:12",
            "text": "'S ag osnaich 'na spiorad, thuirt e: Carson a tha an ginealach so ag iarraidh comharraidh? gu deimhinn tha mi ag radh ribh, nach toirear comharradh don ghinealach so."
        },
        {
            "chapter": 8,
            "verse": 13,
            "name": "Mark 8:13",
            "text": "Agus gam fagail chaidh e a rithist air bord bata, is dh' fhalbh e thar a chaol. "
        },
        {
            "chapter": 8,
            "verse": 14,
            "name": "Mark 8:14",
            "text": " Agus dhiochuimhnich iad aran a thoirt leo agus cha robh aca ach aon bhonnach maille riutha san eathar."
        },
        {
            "chapter": 8,
            "verse": 15,
            "name": "Mark 8:15",
            "text": "Is dh' aithn e orra, ag radh bithibh sealltuinneach agus faicilleach bho thaois-ghoirt nam Phairiseach, 's bho thaois ghoirt Heroid."
        },
        {
            "chapter": 8,
            "verse": 16,
            "name": "Mark 8:16",
            "text": "Agus bha iadsan a reusonachadh ri cheile, ag radh: 'S ann a chionn 's nach eil aran againn."
        },
        {
            "chapter": 8,
            "verse": 17,
            "name": "Mark 8:17",
            "text": "Thuirt Iosa riutha, 's e tuigsinn so: Carson tha sibh smaoineachadh a chionn 's nach eil aran agaibh? nach eil sibh a faicinn fhathast no a tuigsinn? a bheil ur cridhe dall fhathast?"
        },
        {
            "chapter": 8,
            "verse": 18,
            "name": "Mark 8:18",
            "text": "Tha suilean agaibh, 's nach eil sibh a faicinn? Agus cluasan agaibh, 's nach eil sibh a cluinntinn? Cha mhua tha sibh a cuimhneachadh,"
        },
        {
            "chapter": 8,
            "verse": 19,
            "name": "Mark 8:19",
            "text": "Nuair a bhrist mi na coig bonnaich am measg choig mile, co miad lan cleibh de phronnagan a thog sibh? Thuirt iad ris: A dha dhiag. "
        },
        {
            "chapter": 8,
            "verse": 20,
            "name": "Mark 8:20",
            "text": " A rithist, na seachd bonnaich am measg cheithir mile, co miad cliabh do phronnagan a thog sibh? Is thuirt iad ris: A seachd."
        },
        {
            "chapter": 8,
            "verse": 21,
            "name": "Mark 8:21",
            "text": "Is thuirt e riutha: Ciamar nach eil sibh a tuigsinn fhathast?"
        },
        {
            "chapter": 8,
            "verse": 22,
            "name": "Mark 8:22",
            "text": "Agus thainig iad gu Bethsaida, 's thug iad duine dall ga ionnsuidh, agus ghuidh iad air gum beanadh e dha."
        },
        {
            "chapter": 8,
            "verse": 23,
            "name": "Mark 8:23",
            "text": "'Sa breith air laimh an doill, thug e mach as a bhaile e; 'sa cur a shile air a shuilean, 'sa cur a lamhan air, dh' fharraid e dheth, an robh e faicinn dad."
        },
        {
            "chapter": 8,
            "verse": 24,
            "name": "Mark 8:24",
            "text": "'Sa sealltuinn suas thuirt e: Tha mi faicinn dhaoine mar chraobhan ag imeachd."
        },
        {
            "chapter": 8,
            "verse": 25,
            "name": "Mark 8:25",
            "text": "An sin chuir e a lamhan air a shuilean a rithist; agus thoisich e ri faicinn; is fhuair e fhradharc, air chor 's gum bu leir dha gach ni gu soilleir."
        },
        {
            "chapter": 8,
            "verse": 26,
            "name": "Mark 8:26",
            "text": "Is chuir e gu thigh fhein e, ag radh: Falbh gud thigh; agus ma theid thu stigh don bhaile, na innis do neach sam bith."
        },
        {
            "chapter": 8,
            "verse": 27,
            "name": "Mark 8:27",
            "text": "Agus chaidh Iosa agus a dheisciopuil a mach gu bailtean Chesarea Philippi; 'S air an t-slighe dh' fharraid e dhe dheisciopuil, ag radh riutha: Co tha daoine ag radh is mi? "
        },
        {
            "chapter": 8,
            "verse": 28,
            "name": "Mark 8:28",
            "text": " Fhreagair iad e ag radh: Eoin Baistidh, cuid Elias, ach cuid eile mar aon de na faidhean."
        },
        {
            "chapter": 8,
            "verse": 29,
            "name": "Mark 8:29",
            "text": "An sin thuirt e riutha: Ach co tha sibhse ag radh is mi? Fhreagair Peadar, is thuirt e ris: is tu Criosda."
        },
        {
            "chapter": 8,
            "verse": 30,
            "name": "Mark 8:30",
            "text": "Agus mhaoidh e orra, gun iad a dh 'innseadh so mu dheidhinn do neach sam bith."
        },
        {
            "chapter": 8,
            "verse": 31,
            "name": "Mark 8:31",
            "text": "Is thoisich e ri theagasg dhaibh gum feum Mac an duine moran fhulang, a bhith air a dhiultadh leis na seanairean, 's leis na h-ardshagairt, agus leis na Sgriobhaich, 'sa bhith air a chur gu bas; agus an deigh thri laithean eirigh a rithist."
        },
        {
            "chapter": 8,
            "verse": 32,
            "name": "Mark 8:32",
            "text": "Agus labhair e am facal gu follaiseach. Agus rug Peadar air, agus theann e ri chronachadh."
        },
        {
            "chapter": 8,
            "verse": 33,
            "name": "Mark 8:33",
            "text": "Ach Iosa a tionndadh, sheall e air a dheisciopuil, is bhagair e air Peadar, ag radh: Theirig air mo chulaobh, a shatain: oir chan eil tlachd agad do nithean Dhe, ach do nithean dhaoine."
        },
        {
            "chapter": 8,
            "verse": 34,
            "name": "Mark 8:34",
            "text": "'Sa gairm an t-sluaigh maille ri dheisciopuil ga ionnsuidh, thuirt e riutha: Ma 's aill le neach sam bith mise leantuinn, aicheadhadh e e fhein, is togadh e chrois, agus leanadh e mi. "
        },
        {
            "chapter": 8,
            "verse": 35,
            "name": "Mark 8:35",
            "text": " Oir co sam bith leis an aill a bheatha shabhaladh, caillidh e i: agus co sam bith a chailleas a bheatha air mo shonsa, 's air son an t-soisgeil, sabhailidh e i."
        },
        {
            "chapter": 8,
            "verse": 36,
            "name": "Mark 8:36",
            "text": "Oir ciod e is fheairrde duine, an saoghal a chosnadh gu leir, ma chailleas e anam?"
        },
        {
            "chapter": 8,
            "verse": 37,
            "name": "Mark 8:37",
            "text": "No ciod a bheir duine an eirig anma?"
        },
        {
            "chapter": 8,
            "verse": 38,
            "name": "Mark 8:38",
            "text": "Oir an neach a ghabhas naire asam-sa, is as mo bhriathran, anns a ghinealach adhaltrannach agus pheacach so, gabhaidh Mac an duine naire assan-san, nuair a thig e an gloir Athar maille ris na h-ainglean naomha.  "
        }
    ]
}