{
    "translation": "Serbian Bible Dani\u010di\u0107-Karad\u017ei\u0107 Ekavski",
    "abbreviation": "srkdekavski",
    "lang": "sr",
    "language": "Serbian",
    "direction": "LTR",
    "encoding": "UTF-8",
    "book_nr": 23,
    "book_name": "Isaiah",
    "chapter": 59,
    "name": "Isaiah 59",
    "verses": [
        {
            "chapter": 59,
            "verse": 1,
            "name": "Isaiah 59:1",
            "text": "\u0413\u043b\u0435, \u043d\u0438\u0458\u0435 \u043e\u043a\u0440\u0430\u045b\u0430\u043b\u0430 \u0440\u0443\u043a\u0430 \u0413\u043e\u0441\u043f\u043e\u0434\u045a\u0430 \u0434\u0430 \u043d\u0435 \u043c\u043e\u0436\u0435 \u0441\u043f\u0430\u0441\u0442\u0438, \u043d\u0438\u0442\u0438 \u0458\u0435 \u043e\u0442\u0435\u0436\u0430\u043b\u043e \u0443\u0445\u043e \u040a\u0435\u0433\u043e\u0432\u043e \u0434\u0430 \u043d\u0435 \u043c\u043e\u0436\u0435 \u0447\u0443\u0442\u0438."
        },
        {
            "chapter": 59,
            "verse": 2,
            "name": "Isaiah 59:2",
            "text": "\u041d\u0435\u0433\u043e \u0431\u0435\u0437\u0430\u043a\u043e\u045a\u0430 \u0432\u0430\u0448\u0430 \u0440\u0430\u0441\u0442\u0430\u0432\u0438\u0448\u0435 \u0432\u0430\u0441 \u0441 \u0411\u043e\u0433\u043e\u043c \u0432\u0430\u0448\u0438\u043c, \u0438 \u0433\u0440\u0435\u0441\u0438 \u0432\u0430\u0448\u0438 \u0437\u0430\u043a\u043b\u043e\u043d\u0438\u0448\u0435 \u043b\u0438\u0446\u0435 \u040a\u0435\u0433\u043e\u0432\u043e \u043e\u0434 \u0432\u0430\u0441, \u0434\u0430 \u043d\u0435 \u0447\u0443\u0458\u0435."
        },
        {
            "chapter": 59,
            "verse": 3,
            "name": "Isaiah 59:3",
            "text": "\u0408\u0435\u0440 \u0441\u0443 \u0440\u0443\u043a\u0435 \u0432\u0430\u0448\u0435 \u043e\u0441\u043a\u0432\u0440\u045a\u0435\u043d\u0435 \u043a\u0440\u0432\u0459\u0443 \u0438 \u043f\u0440\u0441\u0442\u0438 \u0432\u0430\u0448\u0438 \u0431\u0435\u0437\u0430\u043a\u043e\u045a\u0435\u043c; \u0443\u0441\u043d\u0435 \u0432\u0430\u0448\u0435 \u0433\u043e\u0432\u043e\u0440\u0435 \u043b\u0430\u0436 \u0438 \u0458\u0435\u0437\u0438\u043a \u0432\u0430\u0448 \u0438\u0437\u0440\u0438\u0447\u0435 \u043e\u043f\u0430\u0447\u0438\u043d\u0443."
        },
        {
            "chapter": 59,
            "verse": 4,
            "name": "Isaiah 59:4",
            "text": "\u041d\u0435\u043c\u0430 \u043d\u0438\u043a\u043e\u0433\u0430 \u0434\u0430 \u0432\u0438\u0447\u0435 \u0437\u0430 \u043f\u0440\u0430\u0432\u0434\u0443, \u043d\u0438\u0442\u0438 \u0438\u043c\u0430 \u0434\u0430 \u0441\u0435 \u043f\u0440\u0435 \u0437\u0430 \u0438\u0441\u0442\u0438\u043d\u0443; \u0443\u0437\u0434\u0430\u0458\u0443 \u0441\u0435 \u0443 \u043d\u0438\u0448\u0442\u0430\u0432\u0438\u043b\u043e, \u0438 \u0433\u043e\u0432\u043e\u0440\u0435 \u043b\u0430\u0436; \u0437\u0430\u0447\u0438\u045a\u0443 \u043d\u0435\u0432\u043e\u0459\u0443, \u0438 \u0440\u0430\u0452\u0430\u0458\u0443 \u043c\u0443\u043a\u0443."
        },
        {
            "chapter": 59,
            "verse": 5,
            "name": "Isaiah 59:5",
            "text": "\u041d\u043e\u0441\u0435 \u0458\u0430\u0458\u0430 \u0430\u0441\u043f\u0438\u0434\u0438\u043d\u0430 \u0438 \u0442\u043a\u0430\u0458\u0443 \u043f\u0430\u0443\u0447\u0438\u043d\u0443; \u043a\u043e \u043f\u043e\u0458\u0435\u0434\u0435 \u0458\u0430\u0458\u0435 \u045a\u0438\u0445\u043e\u0432\u043e \u0443\u043c\u0440\u0435, \u0438 \u0430\u043a\u043e \u043a\u043e\u0458\u0435 \u0440\u0430\u0437\u0431\u0438\u0458\u0435, \u0438\u0437\u0430\u0452\u0435 \u0433\u0443\u0458\u0430."
        },
        {
            "chapter": 59,
            "verse": 6,
            "name": "Isaiah 59:6",
            "text": "\u041f\u043b\u0430\u0442\u043d\u043e \u045a\u0438\u0445\u043e\u0432\u043e \u043d\u0438\u0458\u0435 \u0437\u0430 \u0445\u0430\u0459\u0438\u043d\u0435, \u043d\u0438\u0442\u0438 \u045b\u0435 \u0441\u0435 \u043e\u043d\u0438 \u043e\u0434\u0435\u043d\u0443\u0442\u0438 \u0441\u0432\u043e\u0458\u0438\u043c \u043f\u043e\u0441\u043b\u043e\u043c; \u043f\u043e\u0441\u0430\u043e \u0458\u0435 \u045a\u0438\u0445\u043e\u0432 \u0431\u0435\u0437\u0430\u043a\u043e\u045a\u0435 \u0438 \u0443 \u0440\u0443\u043a\u0430\u043c\u0430 \u0458\u0435 \u045a\u0438\u0445\u043e\u0432\u0438\u043c \u043d\u0430\u0441\u0438\u0459\u0435."
        },
        {
            "chapter": 59,
            "verse": 7,
            "name": "Isaiah 59:7",
            "text": "\u041d\u043e\u0433\u0435 \u0438\u043c \u0442\u0440\u0447\u0435 \u043d\u0430 \u0437\u043b\u043e \u0438 \u0431\u0440\u0437\u0435 \u0441\u0443 \u043d\u0430 \u043f\u0440\u043e\u043b\u0438\u0432\u0430\u045a\u0435 \u043a\u0440\u0432\u0438 \u043f\u0440\u0430\u0432\u0435; \u043c\u0438\u0441\u043b\u0438 \u0441\u0443 \u045a\u0438\u0445\u043e\u0432\u0435 \u0431\u0435\u0437\u0430\u043a\u043e\u045a\u0435; \u043d\u0430 \u043f\u0443\u0442\u0435\u0432\u0438\u043c\u0430 \u0458\u0435 \u045a\u0438\u0445\u043e\u0432\u0438\u043c \u043f\u0443\u0441\u0442\u043e\u0448 \u0438 \u0440\u0430\u0441\u0430\u043f."
        },
        {
            "chapter": 59,
            "verse": 8,
            "name": "Isaiah 59:8",
            "text": "\u041f\u0443\u0442 \u043c\u0438\u0440\u043d\u0438 \u043d\u0435 \u0437\u043d\u0430\u0458\u0443, \u0438 \u043d\u0430 \u043f\u0443\u0442\u0435\u0432\u0438\u043c\u0430 \u045a\u0438\u0445\u043e\u0432\u0438\u043c \u043d\u0435\u043c\u0430 \u043f\u0440\u0430\u0432\u0434\u0435; \u043d\u0430\u0447\u0438\u043d\u0438\u043b\u0438 \u0441\u0443 \u0441\u0435\u0431\u0438 \u043a\u0440\u0438\u0432\u0435 \u0441\u0442\u0430\u0437\u0435; \u043a\u043e \u0433\u043e\u0434 \u0438\u0434\u0435 \u043f\u043e \u045a\u0438\u043c\u0430, \u043d\u0435 \u0437\u043d\u0430 \u0437\u0430 \u043c\u0438\u0440."
        },
        {
            "chapter": 59,
            "verse": 9,
            "name": "Isaiah 59:9",
            "text": "\u0417\u0430\u0442\u043e \u0458\u0435 \u0441\u0443\u0434 \u0434\u0430\u043b\u0435\u043a\u043e \u043e\u0434 \u043d\u0430\u0441, \u0438 \u043f\u0440\u0430\u0432\u0434\u0430 \u043d\u0435 \u0434\u043e\u043b\u0430\u0437\u0438 \u0434\u043e \u043d\u0430\u0441; \u0447\u0435\u043a\u0430\u043c\u043e \u0432\u0438\u0434\u0435\u043b\u043e, \u0430 \u043e\u043d\u043e, \u0435\u0442\u043e \u043c\u0440\u0430\u043a; \u0441\u0432\u0435\u0442\u043b\u043e\u0441\u0442, \u0430 \u043e\u043d\u043e \u0445\u043e\u0434\u0438\u043c\u043e \u043f\u043e \u0442\u0430\u043c\u0438."
        },
        {
            "chapter": 59,
            "verse": 10,
            "name": "Isaiah 59:10",
            "text": "\u041f\u0438\u043f\u0430\u043c\u043e \u043a\u0430\u043e \u0441\u043b\u0435\u043f\u0446\u0438 \u0437\u0438\u0434, \u043a\u0430\u043e \u043e\u043d\u0438 \u043a\u043e\u0458\u0438 \u043d\u0435\u043c\u0430\u0458\u0443 \u043e\u0447\u0438\u0458\u0443 \u043f\u0438\u043f\u0430\u043c\u043e; \u0441\u043f\u043e\u0442\u0438\u0447\u0435\u043c\u043e \u0441\u0435 \u0443 \u043f\u043e\u0434\u043d\u0435 \u043a\u0430\u043e \u0443 \u0441\u0443\u043c\u0440\u0430\u0447\u0458\u0435; \u0443 \u043e\u0431\u0438\u0459\u0443 \u0441\u043c\u043e \u043a\u0430\u043e \u043c\u0440\u0442\u0432\u0438."
        },
        {
            "chapter": 59,
            "verse": 11,
            "name": "Isaiah 59:11",
            "text": "\u0420\u0438\u0447\u0435\u043c\u043e \u0441\u0432\u0438\u043a\u043e\u043b\u0438\u043a\u0438 \u043a\u0430\u043e \u043c\u0435\u0434\u0432\u0435\u0434\u0438, \u0438 \u0458\u0435\u0434\u043d\u0430\u043a\u043e \u0443\u0447\u0435\u043c\u043e \u043a\u0430\u043e \u0433\u043e\u043b\u0443\u0431\u0438\u0446\u0435; \u0447\u0435\u043a\u0430\u043c\u043e \u0441\u0443\u0434, \u0430 \u045a\u0435\u0433\u0430 \u043d\u0435\u043c\u0430, \u0441\u043f\u0430\u0441\u0435\u045a\u0435, \u0430 \u043e\u043d\u043e \u0458\u0435 \u0434\u0430\u043b\u0435\u043a\u043e \u043e\u0434 \u043d\u0430\u0441."
        },
        {
            "chapter": 59,
            "verse": 12,
            "name": "Isaiah 59:12",
            "text": "\u0408\u0435\u0440 \u0441\u0435 \u043f\u0440\u0435\u0441\u0442\u0443\u043f\u0438 \u043d\u0430\u0448\u0438 \u0443\u043c\u043d\u043e\u0436\u0438\u0448\u0435 \u043f\u0440\u0435\u0434 \u0422\u043e\u0431\u043e\u043c \u0438 \u0433\u0440\u0435\u0441\u0438 \u043d\u0430\u0448\u0438 \u0441\u0432\u0435\u0434\u043e\u0447\u0435 \u043d\u0430 \u043d\u0430\u0441; \u0458\u0435\u0440 \u0441\u0443 \u043f\u0440\u0435\u0441\u0442\u0443\u043f\u0438 \u043d\u0430\u0448\u0438 \u043a\u043e\u0434 \u043d\u0430\u0441 \u0438 \u0431\u0435\u0437\u0430\u043a\u043e\u045a\u0430 \u0441\u0432\u043e\u0458\u0430 \u0437\u043d\u0430\u043c\u043e,"
        },
        {
            "chapter": 59,
            "verse": 13,
            "name": "Isaiah 59:13",
            "text": "\u0414\u0430 \u043d\u0435\u0432\u0435\u0440\u0443 \u0443\u0447\u0438\u043d\u0438\u0441\u043c\u043e \u0438 \u0441\u043b\u0430\u0433\u0430\u0441\u043c\u043e \u0413\u043e\u0441\u043f\u043e\u0434\u0443, \u0438 \u043e\u0434\u0441\u0442\u0443\u043f\u0438\u0441\u043c\u043e \u043e\u0434 \u0411\u043e\u0433\u0430 \u0441\u0432\u043e\u0433, \u0433\u043e\u0432\u043e\u0440\u0438\u0441\u043c\u043e \u043e \u043d\u0430\u0441\u0438\u0459\u0443 \u0438 \u043e\u0434\u043c\u0435\u0442\u0443, \u0434\u0430, \u0441\u0430\u0441\u0442\u0430\u0432\u0459\u0430\u0441\u043c\u043e \u0438 \u0438\u0437\u043d\u043e\u0441\u0438\u0441\u043c\u043e \u0438\u0437 \u0441\u0440\u0446\u0430 \u0440\u0435\u0447\u0438 \u043b\u0430\u0436\u043d\u0435."
        },
        {
            "chapter": 59,
            "verse": 14,
            "name": "Isaiah 59:14",
            "text": "\u0417\u0430\u0442\u043e \u0441\u0443\u0434 \u043e\u0434\u0441\u0442\u0443\u043f\u0438 \u043d\u0430\u0442\u0440\u0430\u0433, \u0438 \u043f\u0440\u0430\u0432\u0434\u0430 \u0441\u0442\u043e\u0458\u0438 \u0434\u0430\u043b\u0435\u043a\u043e; \u0458\u0435\u0440 \u0438\u0441\u0442\u0438\u043d\u0430 \u043f\u0430\u0434\u0435 \u043d\u0430 \u0443\u043b\u0438\u0446\u0438 \u0438 \u043f\u0440\u0430\u0432\u0434\u0430 \u043d\u0435 \u043c\u043e\u0436\u0435 \u0434\u0430 \u043f\u0440\u043e\u0452\u0435."
        },
        {
            "chapter": 59,
            "verse": 15,
            "name": "Isaiah 59:15",
            "text": "\u0418 \u0438\u0441\u0442\u0438\u043d\u0435 \u0458\u0435 \u043d\u0435\u0441\u0442\u0430\u043b\u043e, \u0438 \u043a\u043e \u0441\u0435 \u0443\u043a\u043b\u0430\u045a\u0430 \u043e\u0434 \u0437\u043b\u0430, \u043f\u043e\u0441\u0442\u0430\u0458\u0435 \u043f\u043b\u0435\u043d. \u0422\u043e \u0432\u0438\u0434\u0435 \u0413\u043e\u0441\u043f\u043e\u0434, \u0438 \u043d\u0435 \u0431\u0438 \u041c\u0443 \u043c\u0438\u043b\u043e \u0448\u0442\u043e \u043d\u0435\u043c\u0430 \u0441\u0443\u0434\u0430."
        },
        {
            "chapter": 59,
            "verse": 16,
            "name": "Isaiah 59:16",
            "text": "\u0418 \u0432\u0438\u0434\u0435 \u0433\u0434\u0435 \u043d\u0435\u043c\u0430 \u0447\u043e\u0432\u0435\u043a\u0430, \u0438 \u0437\u0430\u0447\u0443\u0434\u0438 \u0441\u0435 \u0448\u0442\u043e \u043d\u0435\u043c\u0430 \u043f\u043e\u0441\u0440\u0435\u0434\u043d\u0438\u043a\u0430; \u0437\u0430\u0442\u043e \u0443\u0447\u0438\u043d\u0438 \u041c\u0443 \u0441\u043f\u0430\u0441\u0435\u045a\u0435 \u043c\u0438\u0448\u0438\u0446\u0430 \u040a\u0435\u0433\u043e\u0432\u0430, \u0438 \u043f\u0440\u0430\u0432\u0434\u0430 \u040a\u0435\u0433\u043e\u0432\u0430 \u043f\u043e\u0434\u0443\u043f\u0440\u0435 \u0413\u0430."
        },
        {
            "chapter": 59,
            "verse": 17,
            "name": "Isaiah 59:17",
            "text": "\u0408\u0435\u0440 \u0441\u0435 \u043e\u0431\u0443\u0447\u0435 \u0443 \u043f\u0440\u0430\u0432\u0434\u0443 \u043a\u0430\u043e \u0443 \u043e\u043a\u043b\u043e\u043f, \u0438 \u0448\u043b\u0435\u043c \u0441\u043f\u0430\u0441\u0435\u045a\u0430 \u043c\u0435\u0442\u043d\u0443 \u043d\u0430 \u0433\u043b\u0430\u0432\u0443; \u043e\u0434\u0435\u043d\u0443 \u0441\u0435 \u043e\u0441\u0432\u0435\u0442\u043e\u043c \u043a\u0430\u043e \u043e\u0434\u0435\u043b\u043e\u043c, \u0438 \u043e\u0433\u0440\u0442\u0435 \u0441\u0435 \u0440\u0435\u0432\u043d\u043e\u0448\u045b\u0443 \u043a\u0430\u043e \u043f\u043b\u0430\u0448\u0442\u0435\u043c."
        },
        {
            "chapter": 59,
            "verse": 18,
            "name": "Isaiah 59:18",
            "text": "\u041f\u043e \u0434\u0435\u043b\u0438\u043c\u0430, \u043f\u043e \u0434\u0435\u043b\u0438\u043c\u0430 \u0434\u0430 \u0432\u0440\u0430\u0442\u0438 \u0433\u043d\u0435\u0432 \u043f\u0440\u043e\u0442\u0438\u0432\u043d\u0438\u0446\u0438\u043c\u0430 \u0441\u0432\u043e\u0458\u0438\u043c, \u043f\u043b\u0430\u0442\u0443 \u043d\u0435\u043f\u0440\u0438\u0458\u0430\u0442\u0435\u0459\u0438\u043c\u0430 \u0441\u0432\u043e\u0458\u0438\u043c, \u043e\u0441\u0442\u0440\u0432\u0438\u043c\u0430 \u0434\u0430 \u043f\u043b\u0430\u0442\u0438."
        },
        {
            "chapter": 59,
            "verse": 19,
            "name": "Isaiah 59:19",
            "text": "\u0418 \u0431\u043e\u0458\u0430\u045b\u0435 \u0441\u0435 \u0438\u043c\u0435\u043d\u0430 \u0413\u043e\u0441\u043f\u043e\u0434\u045a\u0435\u0433 \u0441\u0430 \u0437\u0430\u043f\u0430\u0434\u0430, \u0438 \u0441\u043b\u0430\u0432\u0435 \u040a\u0435\u0433\u043e\u0432\u0435 \u0441 \u0438\u0441\u0442\u043e\u043a\u0430 \u0441\u0443\u043d\u0447\u0430\u043d\u043e\u0433; \u0458\u0435\u0440 \u045b\u0435 \u043d\u0435\u043f\u0440\u0438\u0458\u0430\u0442\u0435\u0459 \u043d\u0430\u0432\u0430\u043b\u0438\u0442\u0438 \u043a\u0430\u043e \u0440\u0435\u043a\u0430, \u0430 \u0414\u0443\u0445 \u045b\u0435 \u0413\u043e\u0441\u043f\u043e\u0434\u045a\u0438 \u043f\u043e\u0434\u0438\u0433\u043d\u0443\u0442\u0438 \u0437\u0430\u0441\u0442\u0430\u0432\u0443 \u0441\u0443\u043f\u0440\u043e\u0442 \u045a\u0435\u043c\u0443."
        },
        {
            "chapter": 59,
            "verse": 20,
            "name": "Isaiah 59:20",
            "text": "\u0418 \u0434\u043e\u045b\u0438 \u045b\u0435 \u0418\u0437\u0431\u0430\u0432\u0438\u0442\u0435\u0459 \u0443 \u0421\u0438\u043e\u043d \u0438 \u043a \u043e\u043d\u0438\u043c\u0430 \u043e\u0434 \u0408\u0430\u043a\u043e\u0432\u0430 \u043a\u043e\u0458\u0438 \u0441\u0435 \u043e\u0431\u0440\u0430\u045b\u0430\u0458\u0443 \u043e\u0434 \u0433\u0440\u0435\u0445\u0430, \u0432\u0435\u043b\u0438 \u0413\u043e\u0441\u043f\u043e\u0434."
        },
        {
            "chapter": 59,
            "verse": 21,
            "name": "Isaiah 59:21",
            "text": "\u0410 \u043e\u0432\u043e \u045b\u0435 \u0431\u0438\u0442\u0438 \u0437\u0430\u0432\u0435\u0442 \u043c\u043e\u0458 \u0441 \u045a\u0438\u043c\u0430, \u0432\u0435\u043b\u0438 \u0413\u043e\u0441\u043f\u043e\u0434: \u0414\u0443\u0445 \u043c\u043e\u0458, \u043a\u043e\u0458\u0438 \u0458\u0435 \u0443 \u0442\u0435\u0431\u0438, \u0438 \u0440\u0435\u0447\u0438 \u043c\u043e\u0458\u0435, \u043a\u043e\u0458\u0435 \u043c\u0435\u0442\u043d\u0443\u0445 \u0443 \u0443\u0441\u0442\u0430 \u0442\u0432\u043e\u0458\u0430, \u043d\u0435\u045b\u0435 \u043e\u0442\u0438\u045b\u0438 \u043e\u0434 \u0443\u0441\u0442\u0430 \u0442\u0432\u043e\u0458\u0438\u0445 \u043d\u0438 \u043e\u0434 \u0443\u0441\u0442\u0430 \u0441\u0435\u043c\u0435\u043d\u0430 \u0442\u0432\u043e\u0433, \u043d\u0438 \u043e\u0434 \u0443\u0441\u0442\u0430 \u0441\u0435\u043c\u0435\u043d\u0430 \u0441\u0435\u043c\u0435\u043d\u0430 \u0442\u0432\u043e\u0433, \u0432\u0435\u043b\u0438 \u0413\u043e\u0441\u043f\u043e\u0434, \u043e\u0434\u0441\u0435\u043b\u0435 \u0438 \u0434\u043e\u0432\u0435\u043a\u0430. "
        }
    ]
}