{
    "translation": "Sathyavedapusthakam (Malayalam Bible) published in 1910",
    "abbreviation": "mal1910",
    "lang": "ml",
    "language": "Malayalam",
    "direction": "RTL",
    "encoding": "UTF-8",
    "book_nr": 23,
    "book_name": "Isaiah",
    "chapter": 48,
    "name": "Isaiah 48",
    "verses": [
        {
            "chapter": 48,
            "verse": 1,
            "name": "Isaiah 48:1",
            "text": "\u0d2f\u0d3f\u0d38\u0d4d\u0d30\u0d3e\u0d2f\u0d47\u0d7d \u0d0e\u0d28\u0d4d\u0d28 \u0d2a\u0d47\u0d7c \u0d35\u0d3f\u0d33\u0d3f\u0d15\u0d4d\u0d15\u0d2a\u0d4d\u0d2a\u0d46\u0d1f\u0d4d\u0d1f\u0d35\u0d30\u0d41\u0d02 \u0d2f\u0d46\u0d39\u0d42\u0d26\u0d2f\u0d41\u0d1f\u0d46 \u0d35\u0d46\u0d33\u0d4d\u0d33\u0d24\u0d4d\u0d24\u0d3f\u0d7d\u0d28\u0d3f\u0d28\u0d4d\u0d28\u0d41 \u0d09\u0d24\u0d4d\u0d2d\u0d35\u0d3f\u0d1a\u0d4d\u0d1a\u0d3f\u0d30\u0d3f\u0d15\u0d4d\u0d15\u0d41\u0d28\u0d4d\u0d28\u0d35\u0d30\u0d41\u0d02 \u0d2f\u0d39\u0d4b\u0d35\u0d2f\u0d41\u0d1f\u0d46 \u0d28\u0d3e\u0d2e\u0d24\u0d4d\u0d24\u0d3f\u0d7d \u0d38\u0d24\u0d4d\u0d2f\u0d02 \u0d1a\u0d46\u0d2f\u0d4d\u0d2f\u0d41\u0d28\u0d4d\u0d28\u0d35\u0d30\u0d41\u0d02 \u0d38\u0d24\u0d4d\u0d2f\u0d24\u0d4d\u0d24\u0d4b\u0d1f\u0d41\u0d02 \u0d28\u0d40\u0d24\u0d3f\u0d2f\u0d4b\u0d1f\u0d41\u0d02 \u0d15\u0d42\u0d1f\u0d46\u0d2f\u0d32\u0d4d\u0d32\u0d46\u0d19\u0d4d\u0d15\u0d3f\u0d32\u0d41\u0d02 \u0d2f\u0d3f\u0d38\u0d4d\u0d30\u0d3e\u0d2f\u0d47\u0d32\u0d3f\u0d28\u0d4d\u0d31\u0d46 \u0d26\u0d48\u0d35\u0d24\u0d4d\u0d24\u0d46 \u0d15\u0d40\u0d4e\u0d24\u0d4d\u0d24\u0d3f\u0d15\u0d4d\u0d15\u0d41\u0d28\u0d4d\u0d28\u0d35\u0d30\u0d41\u0d02 \u0d06\u0d2f \u0d2f\u0d3e\u0d15\u0d4d\u0d15\u0d4b\u0d2c\u0d4d \u0d17\u0d43\u0d39\u0d2e\u0d47, \u0d07\u0d24\u0d41 \u0d15\u0d47\u0d1f\u0d4d\u0d1f\u0d41\u0d15\u0d4a\u0d7e\u0d35\u0d3f\u0d7b. "
        },
        {
            "chapter": 48,
            "verse": 2,
            "name": "Isaiah 48:2",
            "text": "\u0d05\u0d35\u0d7c \u0d24\u0d19\u0d4d\u0d19\u0d33\u0d46 \u0d24\u0d28\u0d4d\u0d28\u0d47 \u0d35\u0d3f\u0d36\u0d41\u0d26\u0d4d\u0d27\u0d28\u0d17\u0d30\u0d02 \u0d0e\u0d28\u0d4d\u0d28\u0d41 \u0d35\u0d3f\u0d33\u0d3f\u0d1a\u0d4d\u0d1a\u0d41 \u0d2f\u0d3f\u0d38\u0d4d\u0d30\u0d3e\u0d2f\u0d47\u0d32\u0d3f\u0d28\u0d4d\u0d31\u0d46 \u0d26\u0d48\u0d35\u0d24\u0d4d\u0d24\u0d3f\u0d7d \u0d06\u0d36\u0d4d\u0d30\u0d2f\u0d3f\u0d15\u0d4d\u0d15\u0d41\u0d28\u0d4d\u0d28\u0d41\u0d35\u0d32\u0d4d\u0d32\u0d4b; \u0d05\u0d35\u0d28\u0d4d\u0d31\u0d46 \u0d28\u0d3e\u0d2e\u0d02 \u0d38\u0d48\u0d28\u0d4d\u0d2f\u0d19\u0d4d\u0d19\u0d33\u0d41\u0d1f\u0d46 \u0d2f\u0d39\u0d4b\u0d35 \u0d0e\u0d28\u0d4d\u0d28\u0d3e\u0d15\u0d41\u0d28\u0d4d\u0d28\u0d41. "
        },
        {
            "chapter": 48,
            "verse": 3,
            "name": "Isaiah 48:3",
            "text": "\u0d2a\u0d42\u0d4e\u0d35\u0d4d\u0d35\u0d15\u0d3e\u0d4e\u0d2f\u0d4d\u0d2f\u0d19\u0d4d\u0d19\u0d33\u0d46 \u0d1e\u0d3e\u0d7b \u0d2a\u0d23\u0d4d\u0d1f\u0d41\u0d24\u0d28\u0d4d\u0d28\u0d47 \u0d2a\u0d4d\u0d30\u0d38\u0d4d\u0d24\u0d3e\u0d35\u0d3f\u0d1a\u0d4d\u0d1a\u0d41; \u0d05\u0d35 \u0d0e\u0d28\u0d4d\u0d31\u0d46 \u0d35\u0d3e\u0d2f\u0d3f\u0d7d\u0d28\u0d3f\u0d28\u0d4d\u0d28\u0d41 \u0d2a\u0d41\u0d31\u0d2a\u0d4d\u0d2a\u0d46\u0d1f\u0d4d\u0d1f\u0d41; \u0d1e\u0d3e\u0d7b \u0d05\u0d35\u0d2f\u0d46 \u0d15\u0d47\u0d7e\u0d2a\u0d4d\u0d2a\u0d3f\u0d1a\u0d4d\u0d1a\u0d41; \u0d2a\u0d46\u0d1f\u0d4d\u0d1f\u0d46\u0d28\u0d4d\u0d28\u0d41 \u0d1e\u0d3e\u0d7b \u0d2a\u0d4d\u0d30\u0d35\u0d4e\u0d24\u0d4d\u0d24\u0d3f\u0d1a\u0d4d\u0d1a\u0d41; \u0d05\u0d35 \u0d38\u0d02\u0d2d\u0d35\u0d3f\u0d1a\u0d4d\u0d1a\u0d41\u0d2e\u0d3f\u0d30\u0d3f\u0d15\u0d4d\u0d15\u0d41\u0d28\u0d4d\u0d28\u0d41. "
        },
        {
            "chapter": 48,
            "verse": 4,
            "name": "Isaiah 48:4",
            "text": "\u0d28\u0d40 \u0d15\u0d20\u0d3f\u0d28\u0d7b \u0d0e\u0d28\u0d4d\u0d28\u0d41\u0d02 \u0d28\u0d3f\u0d28\u0d4d\u0d31\u0d46 \u0d15\u0d34\u0d41\u0d24\u0d4d\u0d24\u0d41 \u0d07\u0d30\u0d3f\u0d2e\u0d4d\u0d2a\u0d41\u0d1e\u0d30\u0d2e\u0d4d\u0d2a\u0d41\u0d33\u0d4d\u0d33\u0d24\u0d46\u0d28\u0d4d\u0d28\u0d41\u0d02 \u0d28\u0d3f\u0d28\u0d4d\u0d31\u0d46 \u0d28\u0d46\u0d31\u0d4d\u0d31\u0d3f \u0d24\u0d3e\u0d2e\u0d4d\u0d30\u0d02 \u0d0e\u0d28\u0d4d\u0d28\u0d41\u0d02 \u0d1e\u0d3e\u0d7b \u0d05\u0d31\u0d3f\u0d15\u0d15\u0d4a\u0d23\u0d4d\u0d1f\u0d41 "
        },
        {
            "chapter": 48,
            "verse": 5,
            "name": "Isaiah 48:5",
            "text": "\u0d1e\u0d3e\u0d7b \u0d2a\u0d23\u0d4d\u0d1f\u0d41\u0d24\u0d28\u0d4d\u0d28\u0d47 \u0d28\u0d3f\u0d28\u0d4d\u0d28\u0d4b\u0d1f\u0d41 \u0d2a\u0d4d\u0d30\u0d38\u0d4d\u0d24\u0d3e\u0d35\u0d3f\u0d1a\u0d4d\u0d1a\u0d41; \u0d0e\u0d28\u0d4d\u0d31\u0d46 \u0d35\u0d3f\u0d17\u0d4d\u0d30\u0d39\u0d02 \u0d05\u0d35\u0d2f\u0d46 \u0d1a\u0d46\u0d2f\u0d4d\u0d24\u0d41 \u0d0e\u0d28\u0d4d\u0d28\u0d41\u0d02 \u0d0e\u0d28\u0d4d\u0d31\u0d46 \u0d35\u0d3f\u0d17\u0d4d\u0d30\u0d39\u0d35\u0d41\u0d02 \u0d2c\u0d3f\u0d02\u0d2c\u0d35\u0d41\u0d02 \u0d05\u0d35\u0d2f\u0d46 \u0d15\u0d32\u0d4d\u0d2a\u0d3f\u0d1a\u0d4d\u0d1a\u0d41 \u0d0e\u0d28\u0d4d\u0d28\u0d41\u0d02 \u0d28\u0d40 \u0d2a\u0d31\u0d2f\u0d3e\u0d24\u0d46 \u0d07\u0d30\u0d3f\u0d15\u0d4d\u0d15\u0d47\u0d23\u0d4d\u0d1f\u0d24\u0d3f\u0d28\u0d4d\u0d28\u0d41 \u0d05\u0d35 \u0d38\u0d02\u0d2d\u0d35\u0d3f\u0d15\u0d4d\u0d15\u0d41\u0d02 \u0d2e\u0d41\u0d2e\u0d4d\u0d2a\u0d46 \u0d1e\u0d3e\u0d7b \u0d28\u0d3f\u0d28\u0d4d\u0d28\u0d46 \u0d15\u0d47\u0d7e\u0d2a\u0d4d\u0d2a\u0d3f\u0d1a\u0d4d\u0d1a\u0d41\u0d2e\u0d3f\u0d30\u0d3f\u0d15\u0d4d\u0d15\u0d41\u0d28\u0d4d\u0d28\u0d41. "
        },
        {
            "chapter": 48,
            "verse": 6,
            "name": "Isaiah 48:6",
            "text": "\u0d28\u0d40 \u0d15\u0d47\u0d1f\u0d4d\u0d1f\u0d3f\u0d1f\u0d4d\u0d1f\u0d41\u0d23\u0d4d\u0d1f\u0d41; \u0d07\u0d2a\u0d4d\u0d2a\u0d4b\u0d7e \u0d0e\u0d32\u0d4d\u0d32\u0d3e\u0d02 \u0d15\u0d23\u0d4d\u0d1f\u0d41\u0d15\u0d4a\u0d7e\u0d15; \u0d28\u0d3f\u0d19\u0d4d\u0d19\u0d7e \u0d24\u0d28\u0d4d\u0d28\u0d47 \u0d05\u0d24\u0d41 \u0d2a\u0d4d\u0d30\u0d38\u0d4d\u0d24\u0d3e\u0d35\u0d3f\u0d15\u0d4d\u0d15\u0d2f\u0d3f\u0d32\u0d4d\u0d32\u0d2f\u0d4b? \u0d07\u0d28\u0d4d\u0d28\u0d41\u0d2e\u0d41\u0d24\u0d7d \u0d1e\u0d3e\u0d7b \u0d2a\u0d41\u0d24\u0d3f\u0d2f\u0d24\u0d41, \u0d28\u0d40 \u0d05\u0d31\u0d3f\u0d2f\u0d3e\u0d24\u0d46 \u0d2e\u0d31\u0d1e\u0d4d\u0d1e\u0d3f\u0d30\u0d3f\u0d15\u0d4d\u0d15\u0d41\u0d28\u0d4d\u0d28\u0d24\u0d41 \u0d24\u0d28\u0d4d\u0d28\u0d47 \u0d28\u0d3f\u0d28\u0d4d\u0d28\u0d46 \u0d15\u0d47\u0d7e\u0d2a\u0d4d\u0d2a\u0d3f\u0d15\u0d4d\u0d15\u0d41\u0d28\u0d4d\u0d28\u0d41. "
        },
        {
            "chapter": 48,
            "verse": 7,
            "name": "Isaiah 48:7",
            "text": "\u0d1e\u0d3e\u0d7b \u0d05\u0d24\u0d41 \u0d05\u0d31\u0d3f\u0d1e\u0d4d\u0d1e\u0d41\u0d35\u0d32\u0d4d\u0d32\u0d4b \u0d0e\u0d28\u0d4d\u0d28\u0d41 \u0d28\u0d40 \u0d2a\u0d31\u0d2f\u0d3e\u0d24\u0d46 \u0d07\u0d30\u0d3f\u0d15\u0d4d\u0d15\u0d47\u0d23\u0d4d\u0d1f\u0d24\u0d3f\u0d28\u0d4d\u0d28\u0d41 \u0d05\u0d24\u0d41 \u0d2a\u0d23\u0d4d\u0d1f\u0d32\u0d4d\u0d32, \u0d07\u0d2a\u0d4d\u0d2a\u0d4b\u0d7e \u0d24\u0d28\u0d4d\u0d28\u0d46 \u0d38\u0d43\u0d37\u0d4d\u0d1f\u0d3f\u0d15\u0d4d\u0d15\u0d2a\u0d4d\u0d2a\u0d46\u0d1f\u0d4d\u0d1f\u0d3f\u0d30\u0d3f\u0d15\u0d4d\u0d15\u0d41\u0d28\u0d4d\u0d28\u0d41; \u0d07\u0d28\u0d4d\u0d28\u0d47\u0d26\u0d3f\u0d35\u0d38\u0d24\u0d4d\u0d24\u0d3f\u0d28\u0d4d\u0d28\u0d41 \u0d2e\u0d41\u0d2e\u0d4d\u0d2a\u0d41 \u0d28\u0d40 \u0d05\u0d24\u0d3f\u0d28\u0d46\u0d15\u0d4d\u0d15\u0d41\u0d31\u0d3f\u0d1a\u0d4d\u0d1a\u0d41 \u0d12\u0d28\u0d4d\u0d28\u0d41\u0d02 \u0d15\u0d47\u0d1f\u0d4d\u0d1f\u0d3f\u0d1f\u0d4d\u0d1f\u0d3f\u0d32\u0d4d\u0d32. "
        },
        {
            "chapter": 48,
            "verse": 8,
            "name": "Isaiah 48:8",
            "text": "\u0d28\u0d40 \u0d15\u0d47\u0d7e\u0d15\u0d4d\u0d15\u0d2f\u0d4b \u0d05\u0d31\u0d3f\u0d15\u0d2f\u0d4b \u0d28\u0d3f\u0d28\u0d4d\u0d31\u0d46 \u0d1a\u0d46\u0d35\u0d3f \u0d05\u0d28\u0d4d\u0d28\u0d41 \u0d24\u0d41\u0d31\u0d15\u0d4d\u0d15\u0d2a\u0d4d\u0d2a\u0d46\u0d1f\u0d41\u0d15\u0d2f\u0d4b \u0d1a\u0d46\u0d2f\u0d4d\u0d24\u0d3f\u0d1f\u0d4d\u0d1f\u0d3f\u0d32\u0d4d\u0d32. \u0d28\u0d40 \u0d35\u0d33\u0d30\u0d46 \u0d26\u0d4d\u0d30\u0d4b\u0d39\u0d02 \u0d1a\u0d46\u0d2f\u0d4d\u0d24\u0d41, \u0d17\u0d4e\u0d2d\u0d02\u0d2e\u0d41\u0d24\u0d7d \u0d35\u0d3f\u0d36\u0d4d\u0d35\u0d3e\u0d38\u0d35\u0d1e\u0d4d\u0d1a\u0d15\u0d7b \u0d0e\u0d28\u0d4d\u0d28\u0d41 \u0d35\u0d3f\u0d33\u0d3f\u0d15\u0d4d\u0d15\u0d2a\u0d4d\u0d2a\u0d46\u0d1f\u0d4d\u0d1f\u0d3f\u0d30\u0d3f\u0d15\u0d4d\u0d15\u0d41\u0d28\u0d4d\u0d28\u0d41 \u0d0e\u0d28\u0d4d\u0d28\u0d41 \u0d1e\u0d3e\u0d7b \u0d05\u0d31\u0d3f\u0d1e\u0d4d\u0d1e\u0d41. "
        },
        {
            "chapter": 48,
            "verse": 9,
            "name": "Isaiah 48:9",
            "text": "\u0d0e\u0d28\u0d4d\u0d31\u0d46 \u0d28\u0d3e\u0d2e\u0d02\u0d28\u0d3f\u0d2e\u0d3f\u0d24\u0d4d\u0d24\u0d02 \u0d1e\u0d3e\u0d7b \u0d0e\u0d28\u0d4d\u0d31\u0d46 \u0d15\u0d4b\u0d2a\u0d24\u0d4d\u0d24\u0d46 \u0d24\u0d3e\u0d2e\u0d38\u0d3f\u0d2a\u0d4d\u0d2a\u0d3f\u0d15\u0d4d\u0d15\u0d41\u0d28\u0d4d\u0d28\u0d41; \u0d28\u0d3f\u0d28\u0d4d\u0d28\u0d46 \u0d38\u0d02\u0d39\u0d30\u0d3f\u0d15\u0d4d\u0d15\u0d47\u0d23\u0d4d\u0d1f\u0d24\u0d3f\u0d28\u0d4d\u0d28\u0d41 \u0d0e\u0d28\u0d4d\u0d31\u0d46 \u0d38\u0d4d\u0d24\u0d41\u0d24\u0d3f \u0d28\u0d3f\u0d2e\u0d3f\u0d24\u0d4d\u0d24\u0d02 \u0d1e\u0d3e\u0d7b \u0d05\u0d1f\u0d19\u0d4d\u0d19\u0d3f\u0d2f\u0d3f\u0d30\u0d3f\u0d15\u0d4d\u0d15\u0d41\u0d28\u0d4d\u0d28\u0d41. "
        },
        {
            "chapter": 48,
            "verse": 10,
            "name": "Isaiah 48:10",
            "text": "\u0d07\u0d24\u0d3e, \u0d1e\u0d3e\u0d7b \u0d28\u0d3f\u0d28\u0d4d\u0d28\u0d46 \u0d0a\u0d24\u0d3f\u0d15\u0d4d\u0d15\u0d34\u0d3f\u0d1a\u0d4d\u0d1a\u0d3f\u0d30\u0d3f\u0d15\u0d4d\u0d15\u0d41\u0d28\u0d4d\u0d28\u0d41, \u0d35\u0d46\u0d33\u0d4d\u0d33\u0d3f\u0d2f\u0d46\u0d2a\u0d4d\u0d2a\u0d4b\u0d32\u0d46 \u0d05\u0d32\u0d4d\u0d32\u0d24\u0d3e\u0d28\u0d41\u0d02; \u0d1e\u0d3e\u0d7b \u0d28\u0d3f\u0d28\u0d4d\u0d28\u0d46 \u0d15\u0d37\u0d4d\u0d1f\u0d24\u0d2f\u0d41\u0d1f\u0d46 \u0d1a\u0d42\u0d33\u0d2f\u0d3f\u0d7d \u0d06\u0d15\u0d41\u0d28\u0d4d\u0d28\u0d41 \u0d36\u0d4b\u0d27\u0d28 \u0d15\u0d34\u0d3f\u0d1a\u0d4d\u0d1a\u0d24\u0d41. "
        },
        {
            "chapter": 48,
            "verse": 11,
            "name": "Isaiah 48:11",
            "text": "\u0d0e\u0d28\u0d4d\u0d31\u0d46 \u0d28\u0d3f\u0d2e\u0d3f\u0d24\u0d4d\u0d24\u0d02, \u0d0e\u0d28\u0d4d\u0d31\u0d46 \u0d28\u0d3f\u0d2e\u0d3f\u0d24\u0d4d\u0d24\u0d02 \u0d24\u0d28\u0d4d\u0d28\u0d47, \u0d1e\u0d3e\u0d7b \u0d05\u0d24\u0d41 \u0d1a\u0d46\u0d2f\u0d4d\u0d2f\u0d41\u0d02; \u0d0e\u0d28\u0d4d\u0d31\u0d46 \u0d28\u0d3e\u0d2e\u0d02 \u0d05\u0d36\u0d41\u0d26\u0d4d\u0d27\u0d2e\u0d3e\u0d2f\u0d4d\u0d24\u0d40\u0d30\u0d41\u0d28\u0d4d\u0d28\u0d24\u0d46\u0d19\u0d4d\u0d19\u0d28\u0d46? \u0d1e\u0d3e\u0d7b \u0d0e\u0d28\u0d4d\u0d31\u0d46 \u0d2e\u0d39\u0d24\u0d4d\u0d35\u0d02 \u0d2e\u0d31\u0d4d\u0d31\u0d4a\u0d30\u0d41\u0d24\u0d4d\u0d24\u0d28\u0d4d\u0d28\u0d41\u0d02 \u0d15\u0d4a\u0d1f\u0d41\u0d15\u0d4d\u0d15\u0d2f\u0d3f\u0d32\u0d4d\u0d32. "
        },
        {
            "chapter": 48,
            "verse": 12,
            "name": "Isaiah 48:12",
            "text": "\u0d2f\u0d3e\u0d15\u0d4d\u0d15\u0d4b\u0d2c\u0d47, \u0d1e\u0d3e\u0d7b \u0d35\u0d3f\u0d33\u0d3f\u0d1a\u0d4d\u0d1a\u0d3f\u0d30\u0d3f\u0d15\u0d4d\u0d15\u0d41\u0d28\u0d4d\u0d28 \u0d2f\u0d3f\u0d38\u0d4d\u0d30\u0d3e\u0d2f\u0d47\u0d32\u0d47, \u0d0e\u0d28\u0d4d\u0d31\u0d46 \u0d35\u0d3e\u0d15\u0d4d\u0d15\u0d41 \u0d15\u0d47\u0d7e\u0d15\u0d4d\u0d15; \u0d1e\u0d3e\u0d7b \u0d05\u0d28\u0d28\u0d4d\u0d2f\u0d7b; \u0d1e\u0d3e\u0d7b \u0d06\u0d26\u0d4d\u0d2f\u0d28\u0d41\u0d02 \u0d1e\u0d3e\u0d7b \u0d05\u0d28\u0d4d\u0d24\u0d4d\u0d2f\u0d28\u0d41\u0d02 \u0d06\u0d15\u0d41\u0d28\u0d4d\u0d28\u0d41. "
        },
        {
            "chapter": 48,
            "verse": 13,
            "name": "Isaiah 48:13",
            "text": "\u0d0e\u0d28\u0d4d\u0d31\u0d46 \u0d15\u0d48 \u0d2d\u0d42\u0d2e\u0d3f\u0d15\u0d4d\u0d15\u0d41 \u0d05\u0d1f\u0d3f\u0d38\u0d4d\u0d25\u0d3e\u0d28\u0d2e\u0d3f\u0d1f\u0d4d\u0d1f\u0d41; \u0d0e\u0d28\u0d4d\u0d31\u0d46 \u0d35\u0d32\u0d19\u0d4d\u0d15\u0d48 \u0d06\u0d15\u0d3e\u0d36\u0d24\u0d4d\u0d24\u0d46 \u0d35\u0d3f\u0d30\u0d3f\u0d1a\u0d4d\u0d1a\u0d41; \u0d1e\u0d3e\u0d7b \u0d35\u0d3f\u0d33\u0d3f\u0d15\u0d4d\u0d15\u0d41\u0d2e\u0d4d\u0d2a\u0d4b\u0d7e \u0d05\u0d35 \u0d12\u0d15\u0d4d\u0d15\u0d46\u0d2f\u0d41\u0d02 \u0d09\u0d33\u0d35\u0d3e\u0d2f\u0d4d\u200c\u0d35\u0d30\u0d41\u0d28\u0d4d\u0d28\u0d41. "
        },
        {
            "chapter": 48,
            "verse": 14,
            "name": "Isaiah 48:14",
            "text": "\u0d28\u0d3f\u0d19\u0d4d\u0d19\u0d7e \u0d0e\u0d32\u0d4d\u0d32\u0d3e\u0d35\u0d30\u0d41\u0d02 \u0d15\u0d42\u0d1f\u0d3f\u0d35\u0d28\u0d4d\u0d28\u0d41 \u0d15\u0d47\u0d1f\u0d4d\u0d1f\u0d41\u0d15\u0d4a\u0d7e\u0d35\u0d3f\u0d7b; \u0d05\u0d35\u0d30\u0d3f\u0d7d \u0d06\u0d7c \u0d07\u0d24\u0d41 \u0d2a\u0d4d\u0d30\u0d38\u0d4d\u0d24\u0d3e\u0d35\u0d3f\u0d1a\u0d4d\u0d1a\u0d41? \u0d2f\u0d39\u0d4b\u0d35 \u0d38\u0d4d\u0d28\u0d47\u0d39\u0d3f\u0d15\u0d4d\u0d15\u0d41\u0d28\u0d4d\u0d28\u0d35\u0d7b \u0d2c\u0d3e\u0d2c\u0d47\u0d32\u0d3f\u0d28\u0d4b\u0d1f\u0d41 \u0d05\u0d35\u0d28\u0d4d\u0d31\u0d46 \u0d39\u0d3f\u0d24\u0d35\u0d41\u0d02 \u0d15\u0d32\u0d4d\u0d26\u0d2f\u0d30\u0d4b\u0d1f\u0d41 \u0d05\u0d35\u0d28\u0d4d\u0d31\u0d46 \u0d2d\u0d41\u0d1c\u0d2c\u0d32\u0d35\u0d41\u0d02 \u0d05\u0d28\u0d41\u0d37\u0d4d\u0d20\u0d3f\u0d15\u0d4d\u0d15\u0d41\u0d02. "
        },
        {
            "chapter": 48,
            "verse": 15,
            "name": "Isaiah 48:15",
            "text": "\u0d1e\u0d3e\u0d7b, \u0d1e\u0d3e\u0d7b \u0d24\u0d28\u0d4d\u0d28\u0d47 \u0d2a\u0d4d\u0d30\u0d38\u0d4d\u0d24\u0d3e\u0d35\u0d3f\u0d15\u0d4d\u0d15\u0d41\u0d28\u0d4d\u0d28\u0d41; \u0d1e\u0d3e\u0d7b \u0d05\u0d35\u0d28\u0d46 \u0d35\u0d3f\u0d33\u0d3f\u0d1a\u0d4d\u0d1a\u0d41\u0d35\u0d30\u0d41\u0d24\u0d4d\u0d24\u0d3f\u0d2f\u0d3f\u0d30\u0d3f\u0d15\u0d4d\u0d15\u0d41\u0d28\u0d4d\u0d28\u0d41; \u0d05\u0d35\u0d28\u0d4d\u0d31\u0d46 \u0d35\u0d34\u0d3f \u0d38\u0d3e\u0d26\u0d4d\u0d27\u0d4d\u0d2f\u0d2e\u0d3e\u0d15\u0d41\u0d02. "
        },
        {
            "chapter": 48,
            "verse": 16,
            "name": "Isaiah 48:16",
            "text": "\u0d28\u0d3f\u0d19\u0d4d\u0d19\u0d7e \u0d05\u0d1f\u0d41\u0d24\u0d4d\u0d24\u0d41\u0d35\u0d28\u0d4d\u0d28\u0d41 \u0d07\u0d24\u0d41 \u0d15\u0d47\u0d7e\u0d2a\u0d4d\u0d2a\u0d3f\u0d7b; \u0d1e\u0d3e\u0d7b \u0d06\u0d26\u0d3f\u0d2e\u0d41\u0d24\u0d7d \u0d30\u0d39\u0d38\u0d4d\u0d2f\u0d24\u0d4d\u0d24\u0d3f\u0d32\u0d32\u0d4d\u0d32 \u0d2a\u0d4d\u0d30\u0d38\u0d4d\u0d24\u0d3e\u0d35\u0d3f\u0d1a\u0d4d\u0d1a\u0d3f\u0d1f\u0d4d\u0d1f\u0d41\u0d33\u0d4d\u0d33\u0d24\u0d41; \u0d05\u0d24\u0d3f\u0d28\u0d4d\u0d31\u0d46 \u0d09\u0d24\u0d4d\u0d2d\u0d35\u0d15\u0d3e\u0d32\u0d02\u0d2e\u0d41\u0d24\u0d7d \u0d1e\u0d3e\u0d7b \u0d05\u0d35\u0d3f\u0d1f\u0d46 \u0d09\u0d23\u0d4d\u0d1f\u0d41; \u0d07\u0d2a\u0d4d\u0d2a\u0d4b\u0d34\u0d4b \u0d2f\u0d39\u0d4b\u0d35\u0d2f\u0d3e\u0d2f \u0d15\u0d4e\u0d24\u0d4d\u0d24\u0d3e\u0d35\u0d41 \u0d0e\u0d28\u0d4d\u0d28\u0d46\u0d2f\u0d41\u0d02 \u0d24\u0d28\u0d4d\u0d31\u0d46 \u0d06\u0d24\u0d4d\u0d2e\u0d3e\u0d35\u0d3f\u0d28\u0d46\u0d2f\u0d41\u0d02 \u0d05\u0d2f\u0d1a\u0d4d\u0d1a\u0d3f\u0d30\u0d3f\u0d15\u0d4d\u0d15\u0d41\u0d28\u0d4d\u0d28\u0d41. "
        },
        {
            "chapter": 48,
            "verse": 17,
            "name": "Isaiah 48:17",
            "text": "\u0d2f\u0d3f\u0d38\u0d4d\u0d30\u0d3e\u0d2f\u0d47\u0d32\u0d3f\u0d28\u0d4d\u0d31\u0d46 \u0d2a\u0d30\u0d3f\u0d36\u0d41\u0d26\u0d4d\u0d27\u0d28\u0d41\u0d02 \u0d28\u0d3f\u0d28\u0d4d\u0d31\u0d46 \u0d35\u0d40\u0d23\u0d4d\u0d1f\u0d46\u0d1f\u0d41\u0d2a\u0d4d\u0d2a\u0d41\u0d15\u0d3e\u0d30\u0d28\u0d41\u0d2e\u0d3e\u0d2f \u0d2f\u0d39\u0d4b\u0d35 \u0d07\u0d2a\u0d4d\u0d30\u0d15\u0d3e\u0d30\u0d02 \u0d05\u0d30\u0d41\u0d33\u0d3f\u0d1a\u0d4d\u0d1a\u0d46\u0d2f\u0d4d\u0d2f\u0d41\u0d28\u0d4d\u0d28\u0d41: \u0d36\u0d41\u0d2d\u0d15\u0d30\u0d2e\u0d3e\u0d2f\u0d3f \u0d2a\u0d4d\u0d30\u0d35\u0d4e\u0d24\u0d4d\u0d24\u0d3f\u0d2a\u0d4d\u0d2a\u0d3e\u0d7b \u0d28\u0d3f\u0d28\u0d4d\u0d28\u0d46 \u0d05\u0d2d\u0d4d\u0d2f\u0d38\u0d3f\u0d2a\u0d4d\u0d2a\u0d3f\u0d15\u0d4d\u0d15\u0d2f\u0d41\u0d02 \u0d28\u0d40 \u0d2a\u0d4b\u0d15\u0d47\u0d23\u0d4d\u0d1f\u0d41\u0d28\u0d4d\u0d28 \u0d35\u0d34\u0d3f\u0d2f\u0d3f\u0d7d \u0d28\u0d3f\u0d28\u0d4d\u0d28\u0d46 \u0d28\u0d1f\u0d24\u0d4d\u0d24\u0d41\u0d15\u0d2f\u0d41\u0d02 \u0d1a\u0d46\u0d2f\u0d4d\u0d2f\u0d41\u0d28\u0d4d\u0d28 \u0d28\u0d3f\u0d28\u0d4d\u0d31\u0d46 \u0d26\u0d48\u0d35\u0d2e\u0d3e\u0d2f \u0d2f\u0d39\u0d4b\u0d35 \u0d1e\u0d3e\u0d7b \u0d24\u0d28\u0d4d\u0d28\u0d47. "
        },
        {
            "chapter": 48,
            "verse": 18,
            "name": "Isaiah 48:18",
            "text": "\u0d05\u0d2f\u0d4d\u0d2f\u0d4b, \u0d28\u0d40 \u0d0e\u0d28\u0d4d\u0d31\u0d46 \u0d15\u0d32\u0d4d\u0d2a\u0d28\u0d15\u0d33\u0d46 \u0d15\u0d47\u0d1f\u0d4d\u0d1f\u0d28\u0d41\u0d38\u0d30\u0d3f\u0d1a\u0d4d\u0d1a\u0d46\u0d19\u0d4d\u0d15\u0d3f\u0d7d \u0d15\u0d4a\u0d33\u0d4d\u0d33\u0d3e\u0d2f\u0d3f\u0d30\u0d41\u0d28\u0d4d\u0d28\u0d41! \u0d0e\u0d28\u0d4d\u0d28\u0d3e\u0d7d \u0d28\u0d3f\u0d28\u0d4d\u0d31\u0d46 \u0d38\u0d2e\u0d3e\u0d27\u0d3e\u0d28\u0d02 \u0d28\u0d26\u0d3f\u0d2a\u0d4b\u0d32\u0d46\u0d2f\u0d41\u0d02 \u0d28\u0d3f\u0d28\u0d4d\u0d31\u0d46 \u0d28\u0d40\u0d24\u0d3f \u0d38\u0d2e\u0d41\u0d26\u0d4d\u0d30\u0d24\u0d4d\u0d24\u0d3f\u0d32\u0d46 \u0d24\u0d3f\u0d30\u0d2a\u0d4b\u0d32\u0d46\u0d2f\u0d41\u0d02 \u0d06\u0d15\u0d41\u0d2e\u0d3e\u0d2f\u0d3f\u0d30\u0d41\u0d28\u0d4d\u0d28\u0d41. "
        },
        {
            "chapter": 48,
            "verse": 19,
            "name": "Isaiah 48:19",
            "text": "\u0d28\u0d3f\u0d28\u0d4d\u0d31\u0d46 \u0d38\u0d28\u0d4d\u0d24\u0d24\u0d3f \u0d2e\u0d23\u0d7d\u0d2a\u0d4b\u0d32\u0d46\u0d2f\u0d41\u0d02 \u0d28\u0d3f\u0d28\u0d4d\u0d31\u0d46 \u0d17\u0d4e\u0d2d\u0d2b\u0d32\u0d02 \u0d2e\u0d23\u0d7d\u0d24\u0d30\u0d3f\u0d2a\u0d4b\u0d32\u0d46\u0d2f\u0d41\u0d02 \u0d06\u0d15\u0d41\u0d2e\u0d3e\u0d2f\u0d3f\u0d30\u0d41\u0d28\u0d4d\u0d28\u0d41. \u0d28\u0d3f\u0d28\u0d4d\u0d31\u0d46 \u0d2a\u0d47\u0d7c \u0d0e\u0d28\u0d4d\u0d31\u0d46 \u0d2e\u0d41\u0d2e\u0d4d\u0d2a\u0d3f\u0d7d\u0d28\u0d3f\u0d28\u0d4d\u0d28\u0d41 \u0d1b\u0d47\u0d26\u0d3f\u0d15\u0d4d\u0d15\u0d2a\u0d4d\u0d2a\u0d46\u0d1f\u0d41\u0d15\u0d2f\u0d4b \u0d28\u0d36\u0d3f\u0d1a\u0d4d\u0d1a\u0d41\u0d2a\u0d4b\u0d15\u0d2f\u0d4b \u0d1a\u0d46\u0d2f\u0d4d\u0d15\u0d2f\u0d3f\u0d32\u0d4d\u0d32\u0d3e\u0d2f\u0d3f\u0d30\u0d41\u0d28\u0d4d\u0d28\u0d41. "
        },
        {
            "chapter": 48,
            "verse": 20,
            "name": "Isaiah 48:20",
            "text": "\u0d2c\u0d3e\u0d2c\u0d47\u0d32\u0d3f\u0d7d\u0d28\u0d3f\u0d28\u0d4d\u0d28\u0d41 \u0d2a\u0d41\u0d31\u0d2a\u0d4d\u0d2a\u0d46\u0d1f\u0d41\u0d35\u0d3f\u0d7b; \u0d09\u0d32\u0d4d\u0d32\u0d3e\u0d38\u0d18\u0d4b\u0d37\u0d24\u0d4d\u0d24\u0d4b\u0d1f\u0d46 \u0d15\u0d32\u0d4d\u0d26\u0d2f\u0d30\u0d46 \u0d35\u0d3f\u0d1f\u0d4d\u0d1f\u0d41 \u0d13\u0d1f\u0d3f\u0d2a\u0d4d\u0d2a\u0d4b\u0d15\u0d41\u0d35\u0d3f\u0d7b: \u0d07\u0d24\u0d41 \u0d2a\u0d4d\u0d30\u0d38\u0d4d\u0d24\u0d3e\u0d35\u0d3f\u0d1a\u0d4d\u0d1a\u0d41 \u0d15\u0d47\u0d7e\u0d2a\u0d4d\u0d2a\u0d3f\u0d2a\u0d4d\u0d2a\u0d3f\u0d7b; \u0d2d\u0d42\u0d2e\u0d3f\u0d2f\u0d41\u0d1f\u0d46 \u0d05\u0d31\u0d4d\u0d31\u0d24\u0d4d\u0d24\u0d4b\u0d33\u0d02 \u0d07\u0d24\u0d41 \u0d2a\u0d4d\u0d30\u0d38\u0d3f\u0d26\u0d4d\u0d27\u0d2e\u0d3e\u0d15\u0d4d\u0d15\u0d41\u0d35\u0d3f\u0d7b; \u0d2f\u0d39\u0d4b\u0d35 \u0d24\u0d28\u0d4d\u0d31\u0d46 \u0d26\u0d3e\u0d38\u0d28\u0d3e\u0d2f \u0d2f\u0d3e\u0d15\u0d4d\u0d15\u0d4b\u0d2c\u0d3f\u0d28\u0d46 \u0d35\u0d40\u0d23\u0d4d\u0d1f\u0d46\u0d1f\u0d41\u0d24\u0d4d\u0d24\u0d3f\u0d30\u0d3f\u0d15\u0d4d\u0d15\u0d41\u0d28\u0d4d\u0d28\u0d41 \u0d0e\u0d28\u0d4d\u0d28\u0d41 \u0d2a\u0d31\u0d35\u0d3f\u0d7b. "
        },
        {
            "chapter": 48,
            "verse": 21,
            "name": "Isaiah 48:21",
            "text": "\u0d05\u0d35\u0d7b \u0d05\u0d35\u0d30\u0d46 \u0d36\u0d42\u0d28\u0d4d\u0d2f\u0d2a\u0d4d\u0d30\u0d26\u0d47\u0d36\u0d19\u0d4d\u0d19\u0d33\u0d3f\u0d7d\u0d15\u0d42\u0d1f\u0d3f \u0d28\u0d1f\u0d24\u0d4d\u0d24\u0d3f\u0d2f\u0d2a\u0d4d\u0d2a\u0d4b\u0d7e \u0d05\u0d35\u0d4e\u0d15\u0d4d\u0d15\u0d41 \u0d26\u0d3e\u0d39\u0d3f\u0d1a\u0d4d\u0d1a\u0d3f\u0d32\u0d4d\u0d32; \u0d05\u0d35\u0d7b \u0d05\u0d35\u0d4e\u0d15\u0d4d\u0d15\u0d41\u0d35\u0d47\u0d23\u0d4d\u0d1f\u0d3f \u0d2a\u0d3e\u0d31\u0d2f\u0d3f\u0d7d\u0d28\u0d3f\u0d28\u0d4d\u0d28\u0d41 \u0d35\u0d46\u0d33\u0d4d\u0d33\u0d02 \u0d12\u0d34\u0d41\u0d15\u0d41\u0d2e\u0d3e\u0d31\u0d3e\u0d15\u0d4d\u0d15\u0d3f; \u0d05\u0d35\u0d7b \u0d2a\u0d3e\u0d31 \u0d2a\u0d3f\u0d33\u0d4e\u0d28\u0d4d\u0d28\u0d2a\u0d4d\u0d2a\u0d4b\u0d7e \u0d35\u0d46\u0d33\u0d4d\u0d33\u0d02 \u0d1a\u0d3e\u0d1f\u0d3f\u0d2a\u0d41\u0d31\u0d2a\u0d4d\u0d2a\u0d46\u0d1f\u0d4d\u0d1f\u0d41. "
        },
        {
            "chapter": 48,
            "verse": 22,
            "name": "Isaiah 48:22",
            "text": "\u0d26\u0d41\u0d37\u0d4d\u0d1f\u0d28\u0d4d\u0d2e\u0d3e\u0d4e\u0d15\u0d4d\u0d15\u0d41 \u0d38\u0d2e\u0d3e\u0d27\u0d3e\u0d28\u0d02 \u0d07\u0d32\u0d4d\u0d32 \u0d0e\u0d28\u0d4d\u0d28\u0d41 \u0d2f\u0d39\u0d4b\u0d35 \u0d05\u0d30\u0d41\u0d33\u0d3f\u0d1a\u0d4d\u0d1a\u0d46\u0d2f\u0d4d\u0d2f\u0d41\u0d28\u0d4d\u0d28\u0d41.   "
        }
    ]
}