{
    "translation": "B\u00edblia Livre",
    "abbreviation": "porblivre",
    "lang": "pt",
    "language": "Portuguese",
    "direction": "LTR",
    "encoding": "UTF-8",
    "book_nr": 4,
    "book_name": "Numbers",
    "chapter": 36,
    "name": "Numbers 36",
    "verses": [
        {
            "chapter": 36,
            "verse": 1,
            "name": "Numbers 36:1",
            "text": "E chegaram os pr\u00edncipes dos pais da fam\u00edlia de Gileade, filho de Maquir, filho de Manass\u00e9s, das fam\u00edlias dos filhos de Jos\u00e9; e falaram diante de Mois\u00e9s, e dos pr\u00edncipes, cabe\u00e7as de pais dos filhos de Israel, "
        },
        {
            "chapter": 36,
            "verse": 2,
            "name": "Numbers 36:2",
            "text": "E disseram: o SENHOR mandou a meu senhor que por sorte desse a terra aos filhos de Israel em possess\u00e3o: tamb\u00e9m mandou o SENHOR a meu senhor, que d\u00ea a possess\u00e3o de Zelofeade nosso irm\u00e3o a suas filhas; "
        },
        {
            "chapter": 36,
            "verse": 3,
            "name": "Numbers 36:3",
            "text": "As quais, se se casarem com alguns dos filhos das outras tribos dos filhos de Israel, a heran\u00e7a delas ser\u00e1 assim tirada da heran\u00e7a de nossos pais, e ser\u00e1 acrescentada \u00e0 heran\u00e7a da tribo a que ser\u00e3o unidas: e ser\u00e1 removida da por\u00e7\u00e3o de nossa heran\u00e7a. "
        },
        {
            "chapter": 36,
            "verse": 4,
            "name": "Numbers 36:4",
            "text": "E quando vier o jubileu dos filhos de Israel, a heran\u00e7a delas ser\u00e1 acrescentada \u00e0 heran\u00e7a da tribo de seus maridos; e assim a heran\u00e7a delas ser\u00e1 removida da heran\u00e7a da tribo de nossos pais. "
        },
        {
            "chapter": 36,
            "verse": 5,
            "name": "Numbers 36:5",
            "text": "Ent\u00e3o Mois\u00e9s mandou aos filhos de Israel por dito do SENHOR, dizendo: A tribo dos filhos de Jos\u00e9 fala corretamente. "
        },
        {
            "chapter": 36,
            "verse": 6,
            "name": "Numbers 36:6",
            "text": "Isto \u00e9 o que mandou o SENHOR acerca das filhas de Zelofeade, dizendo: Casem-se como a elas lhes satisfizer, por\u00e9m na fam\u00edlia da tribo de seu pai se casar\u00e3o; "
        },
        {
            "chapter": 36,
            "verse": 7,
            "name": "Numbers 36:7",
            "text": "Para que a heran\u00e7a dos filhos de Israel n\u00e3o seja passada de tribo em tribo; porque cada um dos filhos de Israel se achegar\u00e1 \u00e0 heran\u00e7a da tribo de seus pais. "
        },
        {
            "chapter": 36,
            "verse": 8,
            "name": "Numbers 36:8",
            "text": "E qualquer filha que possuir heran\u00e7a das tribos dos filhos de Israel, com algum da fam\u00edlia da tribo de seu pai se casar\u00e1, para que os filhos de Israel possuam cada um a heran\u00e7a de seus pais. "
        },
        {
            "chapter": 36,
            "verse": 9,
            "name": "Numbers 36:9",
            "text": "E n\u00e3o ande a heran\u00e7a rodando de uma tribo a outra: mas cada uma das tribos dos filhos de Israel se chegue \u00e0 sua heran\u00e7a. "
        },
        {
            "chapter": 36,
            "verse": 10,
            "name": "Numbers 36:10",
            "text": "Como o SENHOR mandou a Mois\u00e9s, assim fizeram as filhas de Zelofeade. "
        },
        {
            "chapter": 36,
            "verse": 11,
            "name": "Numbers 36:11",
            "text": "E assim Maal\u00e1, e Tirsa, e Hogla, e Milca, e Noa, filhas de Zelofeade, se casaram com filhos de seus tios: "
        },
        {
            "chapter": 36,
            "verse": 12,
            "name": "Numbers 36:12",
            "text": "Da fam\u00edlia dos filhos de Manass\u00e9s, filho de Jos\u00e9, foram mulheres; e a heran\u00e7a delas ficou na tribo da fam\u00edlia de seu pai. "
        },
        {
            "chapter": 36,
            "verse": 13,
            "name": "Numbers 36:13",
            "text": "Estes s\u00e3o os mandamentos e os estatutos que mandou o SENHOR por meio de Mois\u00e9s aos filhos de Israel nos campos de Moabe, junto ao Jord\u00e3o de Jeric\u00f3."
        }
    ]
}