{
    "translation": "Svenska Karl XII:s Bibel (1873)",
    "abbreviation": "swekarlxii1873",
    "lang": "sv",
    "language": "Swedish",
    "direction": "LTR",
    "encoding": "UTF-8",
    "book_nr": 4,
    "book_name": "Numbers",
    "chapter": 19,
    "name": "Numbers 19",
    "verses": [
        {
            "chapter": 19,
            "verse": 1,
            "name": "Numbers 19:1",
            "text": "Och Herren talade med Mose och Aaron, och sade:"
        },
        {
            "chapter": 19,
            "verse": 2,
            "name": "Numbers 19:2",
            "text": "Detta s\u00e4ttet skall vara en lag, den Herren budit hafver, och sagt: S\u00e4g Israels barnom, att de hafva till dig en r\u00f6dlett ko utan vank, der ingen brist p\u00e5 \u00e4r, der intet ok \u00e4nnu p\u00e5kommet \u00e4r."
        },
        {
            "chapter": 19,
            "verse": 3,
            "name": "Numbers 19:3",
            "text": "Och f\u00e5 henne Prestenom Eleazar, han skall f\u00f6ra henne ut f\u00f6r l\u00e4gret, och l\u00e5ta der slagta henne f\u00f6r sig."
        },
        {
            "chapter": 19,
            "verse": 4,
            "name": "Numbers 19:4",
            "text": "Och Presten Eleazar skall taga af hennes blod med sitt finger, och st\u00e4nka r\u00e4tt emot vittnesb\u00f6rdsens tabernakel sju resor;"
        },
        {
            "chapter": 19,
            "verse": 5,
            "name": "Numbers 19:5",
            "text": "Och l\u00e5ta uppbr\u00e4nna kona f\u00f6r sig, b\u00e5de hennes hud och hennes k\u00f6tt, dertill hennes blod, samt med g\u00e5ret."
        },
        {
            "chapter": 19,
            "verse": 6,
            "name": "Numbers 19:6",
            "text": "Och Presten skall taga cedretr\u00e4 och isop, och rosenr\u00f6d ull, och kasta p\u00e5 den brinnande kona;"
        },
        {
            "chapter": 19,
            "verse": 7,
            "name": "Numbers 19:7",
            "text": "Och skall tv\u00e5 sin kl\u00e4der, och bada sin kropp med vatten, och sedan g\u00e5 i l\u00e4gret, och vara oren allt intill aftonen."
        },
        {
            "chapter": 19,
            "verse": 8,
            "name": "Numbers 19:8",
            "text": "Och den som uppbr\u00e4nde henne, skall ock tv\u00e5 sin kl\u00e4der med vatten, och bada sin kropp i vatten, och vara oren allt intill aftonen."
        },
        {
            "chapter": 19,
            "verse": 9,
            "name": "Numbers 19:9",
            "text": "Och en ren man skall upptaga askona af kone, och sl\u00e5 henne ut p\u00e5 ett rena rum utan l\u00e4gret, att hon varder der f\u00f6rvarad \u00e5t menighetene af Israels barnom till st\u00e4nkevatten; ty det \u00e4r ett syndoffer."
        },
        {
            "chapter": 19,
            "verse": 10,
            "name": "Numbers 19:10",
            "text": "Och den som askona af kone upptog, skall tv\u00e5 sin kl\u00e4der, och vara oren allt intill aftonen. Detta skall vara en evig r\u00e4tt Israels barnom, och fr\u00e4mlingomen, som bo ibland eder."
        },
        {
            "chapter": 19,
            "verse": 11,
            "name": "Numbers 19:11",
            "text": "Den som kommer vid ena d\u00f6da mennisko, han skall vara oren i sju dagar."
        },
        {
            "chapter": 19,
            "verse": 12,
            "name": "Numbers 19:12",
            "text": "S\u00e5 skall han h\u00e4rmed rena sig p\u00e5 tredje dagen, och p\u00e5 sjunde dagen, och s\u00e5 varder han ren. Och om han icke p\u00e5 tredje och sjunde dagen renar sig, s\u00e5 skall han icke ren varda."
        },
        {
            "chapter": 19,
            "verse": 13,
            "name": "Numbers 19:13",
            "text": "Men om n\u00e5gor kommer vid ena d\u00f6da mennisko, och icke vill rena sig, den orenar Herrans tabernakel, och s\u00e5dana sj\u00e4l skall utrotad varda utur Israel; derf\u00f6re, att st\u00e4nkevattnet icke \u00e4r st\u00e4nkt \u00f6fver honom, s\u00e5 \u00e4r han oren, s\u00e5 l\u00e4nge han sig icke rena l\u00e5ter."
        },
        {
            "chapter": 19,
            "verse": 14,
            "name": "Numbers 19:14",
            "text": "Detta \u00e4r lagen, om en menniska d\u00f6r i tj\u00e4llet: Den som g\u00e5r in i tj\u00e4llet, och allt det som i tj\u00e4llet \u00e4r, skall vara orent i sju dagar."
        },
        {
            "chapter": 19,
            "verse": 15,
            "name": "Numbers 19:15",
            "text": "Och hvart och ett botyg, som \u00f6ppet \u00e4r, det intet \u00f6fvert\u00e4ckelse eller band hafver, det \u00e4r orent."
        },
        {
            "chapter": 19,
            "verse": 16,
            "name": "Numbers 19:16",
            "text": "Desslikes den som p\u00e5 markene kommer vid n\u00e5gon, som slagen \u00e4r med sv\u00e4rd, eller eljest en d\u00f6dan, eller ene menniskos ben, eller graf, den \u00e4r oren i sju dagar."
        },
        {
            "chapter": 19,
            "verse": 17,
            "name": "Numbers 19:17",
            "text": "S\u00e5 skola de nu f\u00f6r den orena taga af desso uppbr\u00e4nda syndoffers asko, och l\u00e5ta derupp\u00e5 rinnande vatten uti ett k\u00e4ril."
        },
        {
            "chapter": 19,
            "verse": 18,
            "name": "Numbers 19:18",
            "text": "Och en ren man skall taga isop, och doppa i vattnet, och st\u00e4nka tj\u00e4llet, och alla botyg, och alla de sj\u00e4lar, som derinne \u00e4ro; sammalunda ock den som hafver kommit vid ens d\u00f6ds ben, eller en slagnan, eller en d\u00f6dan, eller n\u00e5gon graf."
        },
        {
            "chapter": 19,
            "verse": 19,
            "name": "Numbers 19:19",
            "text": "Och den rene skall st\u00e4nka den orena p\u00e5 tredje dagen, och p\u00e5 sjunde dagen, och rena honom p\u00e5 sjunde dagen; och skall tv\u00e5 sin kl\u00e4der, och bada sig i vatten, s\u00e5 varder han ren om aftonen."
        },
        {
            "chapter": 19,
            "verse": 20,
            "name": "Numbers 19:20",
            "text": "Men hvilken som varder oren, och icke vill rena sig, hans sj\u00e4l skall utrotad varda utu menighetene; f\u00f6rty han hafver orenat Herrans helgedom, och icke \u00e4r med st\u00e4nkevattne st\u00e4nkt; derf\u00f6re \u00e4r han oren."
        },
        {
            "chapter": 19,
            "verse": 21,
            "name": "Numbers 19:21",
            "text": "Och detta skall varda dem en evig r\u00e4tt. Skall ocks\u00e5 den som med st\u00e4nkevattnena st\u00e4nkte, tv\u00e5 sin kl\u00e4der; och den som kommer vid st\u00e4nkevattnet, han skall vara oren intill aftonen."
        },
        {
            "chapter": 19,
            "verse": 22,
            "name": "Numbers 19:22",
            "text": "Och allt det han kommer vid, det skall vara orent. Och hvilken sj\u00e4l, som han vederkommer, hon skall vara oren intill aftonen.  "
        }
    ]
}