{
    "translation": "Svenska Karl XII:s Bibel (1873)",
    "abbreviation": "swekarlxii1873",
    "lang": "sv",
    "language": "Swedish",
    "direction": "LTR",
    "encoding": "UTF-8",
    "book_nr": 4,
    "book_name": "Numbers",
    "chapter": 20,
    "name": "Numbers 20",
    "verses": [
        {
            "chapter": 20,
            "verse": 1,
            "name": "Numbers 20:1",
            "text": "Och Israels barn kommo med hela menighetene in uti den \u00f6knena Zin, i f\u00f6rsta m\u00e5naden; och folket blef i Kades. Och MirJam blef der d\u00f6d, och vardt der begrafven."
        },
        {
            "chapter": 20,
            "verse": 2,
            "name": "Numbers 20:2",
            "text": "Och menigheten hade intet vatten; och de f\u00f6rsamlade sig emot Mose och Aaron."
        },
        {
            "chapter": 20,
            "verse": 3,
            "name": "Numbers 20:3",
            "text": "Och folket tr\u00e4tte med Mose, och sade: Ack! det vi hade f\u00f6rg\u00e5ngits, der v\u00e5re br\u00f6der f\u00f6rgingos f\u00f6r Herranom."
        },
        {
            "chapter": 20,
            "verse": 4,
            "name": "Numbers 20:4",
            "text": "Hvi hafven I f\u00f6rt denna Herrans menighet uti denna \u00f6knena, att vi h\u00e4r d\u00f6 skole med v\u00e5rom boskap?"
        },
        {
            "chapter": 20,
            "verse": 5,
            "name": "Numbers 20:5",
            "text": "Och hvi hafven I f\u00f6rt oss utur Egypten intill denna onda platsen, der man intet s\u00e5 kan; der hvarken \u00e4ro fikon eller vintr\u00e4, ej heller granat\u00e4ple; och \u00e4r dertillmed intet vatten till att dricka?"
        },
        {
            "chapter": 20,
            "verse": 6,
            "name": "Numbers 20:6",
            "text": "D\u00e5 gingo Mose och Aaron ifr\u00e5 menighetene intill d\u00f6rrena af vittnesb\u00f6rdsens tabernakel, och f\u00f6llo p\u00e5 sitt ansigte; och Herrans h\u00e4rlighet syntes dem."
        },
        {
            "chapter": 20,
            "verse": 7,
            "name": "Numbers 20:7",
            "text": "Och Herren talade med Mose, och sade:"
        },
        {
            "chapter": 20,
            "verse": 8,
            "name": "Numbers 20:8",
            "text": "Tag stafven, och f\u00f6rsamla menighetena, du och din broder Aaron, och taler till h\u00e4lleberget f\u00f6r deras \u00f6gon; det skall gifva sitt vatten. Allts\u00e5 skall du skaffa dem vatten utu h\u00e4lleberget, och gifva menighetene dricka, och deras boskap."
        },
        {
            "chapter": 20,
            "verse": 9,
            "name": "Numbers 20:9",
            "text": "D\u00e5 tog Mose stafven f\u00f6r Herranom, s\u00e5som han honom budit hade."
        },
        {
            "chapter": 20,
            "verse": 10,
            "name": "Numbers 20:10",
            "text": "Och Mose och Aaron f\u00f6rsamlade menighetena inf\u00f6r h\u00e4lleberget, och sade till dem: H\u00f6rer, I olydige; m\u00e5nne vi ock skole skaffa eder vatten utu detta h\u00e4lleberget?"
        },
        {
            "chapter": 20,
            "verse": 11,
            "name": "Numbers 20:11",
            "text": "Och Mose hof upp sina hand, och slog p\u00e5 h\u00e4lleberget med sin staf tv\u00e5 g\u00e5nger; d\u00e5 gick der ut mycket vatten, s\u00e5 att menigheten fick dricka, och deras boskap."
        },
        {
            "chapter": 20,
            "verse": 12,
            "name": "Numbers 20:12",
            "text": "Och Herren sade till Mose och Aaron: Derf\u00f6re, att I icke trodden upp\u00e5 mig, att I m\u00e5tten helgat mig f\u00f6r Israels barnom, skolen I icke f\u00f6ra denna menighetena in i det land, som jag dem gifva skall."
        },
        {
            "chapter": 20,
            "verse": 13,
            "name": "Numbers 20:13",
            "text": "Detta \u00e4r det tr\u00e4tovattnet, \u00f6fver hvilket Israels barn tr\u00e4tte med Herranom, och han vardt helgad i dem."
        },
        {
            "chapter": 20,
            "verse": 14,
            "name": "Numbers 20:14",
            "text": "Och Mose s\u00e4nde b\u00e5dskap ut ifr\u00e5 Kades till de Edomeers Konung: S\u00e5 l\u00e5ter din broder Israel s\u00e4ga dig: Du vetst all den m\u00f6do, som oss p\u00e5kommen \u00e4r;"
        },
        {
            "chapter": 20,
            "verse": 15,
            "name": "Numbers 20:15",
            "text": "Att v\u00e5re f\u00e4der voro nederfarne in uti Egypten, och vi i l\u00e5ngan tid bodde uti Egypten, och de Egyptier handlade illa med oss och v\u00e5ra f\u00e4der."
        },
        {
            "chapter": 20,
            "verse": 16,
            "name": "Numbers 20:16",
            "text": "Och vi ropade till Herran, och han h\u00f6rde v\u00e5ra r\u00f6st, och uts\u00e4nde en \u00c4ngel, och f\u00f6rde oss utur Egypten: och si, vi \u00e4re i Kades, i den staden, som vid dina gr\u00e4nsor \u00e4r."
        },
        {
            "chapter": 20,
            "verse": 17,
            "name": "Numbers 20:17",
            "text": "L\u00e5t oss draga igenom ditt land; vi vilje icke fara \u00f6fver \u00e5ker eller ving\u00e5rdar, och icke dricka vattnet utu brunnarna; vi vilje draga r\u00e4tta landsstr\u00e5tena, hvarken vikande p\u00e5 den h\u00f6gra sidona eller p\u00e5 den venstra, tilldess vi komme igenom dina lands\u00e4ndar."
        },
        {
            "chapter": 20,
            "verse": 18,
            "name": "Numbers 20:18",
            "text": "De Edomeer sade till dem: Du skall icke draga h\u00e4rigenom, eller jag skall m\u00f6ta dig med sv\u00e4rd."
        },
        {
            "chapter": 20,
            "verse": 19,
            "name": "Numbers 20:19",
            "text": "Israels barn sade till dem: Vi vilje draga den meniga str\u00e5tena; och om vi dricke af ditt vatten, vi och v\u00e5r boskap, s\u00e5 vilje vi det betala; vi vilje icke utan allenast g\u00e5 till fot derigenom."
        },
        {
            "chapter": 20,
            "verse": 20,
            "name": "Numbers 20:20",
            "text": "Men han sade: Du skall icke draga h\u00e4rigenom. Och de Edomeer drogo ut emot dem med m\u00e4gtigt folk, och starka hand."
        },
        {
            "chapter": 20,
            "verse": 21,
            "name": "Numbers 20:21",
            "text": "Allts\u00e5 f\u00f6rv\u00e4grade de Edomeer Israel draga igenom deras lands\u00e4ndar. Och Israel vek ifr\u00e5 dem."
        },
        {
            "chapter": 20,
            "verse": 22,
            "name": "Numbers 20:22",
            "text": "Och Israels barn drogo ifr\u00e5 Kades, och kommo med hela menighetene intill det berget Hor."
        },
        {
            "chapter": 20,
            "verse": 23,
            "name": "Numbers 20:23",
            "text": "Och Herren talade med Mose och Aaron p\u00e5 bergena Hor, vid gr\u00e4nsen \u00e5t de Edomeers land, och sade:"
        },
        {
            "chapter": 20,
            "verse": 24,
            "name": "Numbers 20:24",
            "text": "L\u00e5t Aaron samla sig till sitt folk; ty han skall icke komma i det landet, som jag Israels barnom gifvit hafver, derf\u00f6re, att I voren minom mun oh\u00f6rsamme vid tr\u00e4tovattnet."
        },
        {
            "chapter": 20,
            "verse": 25,
            "name": "Numbers 20:25",
            "text": "S\u00e5 tag nu Aaron och hans son Eleazar, och haf dem upp p\u00e5 berget Hor;"
        },
        {
            "chapter": 20,
            "verse": 26,
            "name": "Numbers 20:26",
            "text": "Och afkl\u00e4d Aaron hans kl\u00e4der, och kl\u00e4d dem p\u00e5 hans son Eleazar; och Aaron skall der samlas, och d\u00f6."
        },
        {
            "chapter": 20,
            "verse": 27,
            "name": "Numbers 20:27",
            "text": "Mose gjorde s\u00e5som Herren honom b\u00f6d; och de stego upp p\u00e5 berget Hor, f\u00f6r hela menighetene."
        },
        {
            "chapter": 20,
            "verse": 28,
            "name": "Numbers 20:28",
            "text": "Och Mose afkl\u00e4dde Aaron hans kl\u00e4der, och kl\u00e4dde dem p\u00e5 hans son Eleazar. Och Aaron blef der d\u00f6d upp\u00e5 berget; men Mose och Eleazar stego neder utaf bergena."
        },
        {
            "chapter": 20,
            "verse": 29,
            "name": "Numbers 20:29",
            "text": "Och d\u00e5 hela menigheten s\u00e5g att Aaron var d\u00f6d, begreto de honom i tretio dagar, hela Israels hus.  "
        }
    ]
}