{
    "translation": "King James Version (1769) including Apocrypha, with Strongs Numbers and Morphology",
    "abbreviation": "kjva",
    "lang": "en",
    "language": "English",
    "direction": "LTR",
    "encoding": "UTF-8",
    "book_nr": 3,
    "book_name": "Leviticus",
    "chapter": 1,
    "name": "Leviticus 1",
    "verses": [
        {
            "chapter": 1,
            "verse": 1,
            "name": "Leviticus 1:1",
            "text": "And the Lord called unto Moses, and spake unto him out of the tabernacle of the congregation, saying,"
        },
        {
            "chapter": 1,
            "verse": 2,
            "name": "Leviticus 1:2",
            "text": "Speak unto the children of Israel, and say unto them, If any man of you bring an offering unto the Lord, ye shall bring your offering of the cattle, even of the herd, and of the flock."
        },
        {
            "chapter": 1,
            "verse": 3,
            "name": "Leviticus 1:3",
            "text": "If his offering be a burnt sacrifice of the herd, let him offer a male without blemish: he shall offer it of his own voluntary will at the door of the tabernacle of the congregation before the Lord."
        },
        {
            "chapter": 1,
            "verse": 4,
            "name": "Leviticus 1:4",
            "text": "And he shall put his hand upon the head of the burnt offering; and it shall be accepted for him to make atonement for him."
        },
        {
            "chapter": 1,
            "verse": 5,
            "name": "Leviticus 1:5",
            "text": "And he shall kill the bullock before the Lord: and the priests, Aaron's sons, shall bring the blood, and sprinkle the blood round about upon the altar that is by the door of the tabernacle of the congregation."
        },
        {
            "chapter": 1,
            "verse": 6,
            "name": "Leviticus 1:6",
            "text": "And he shall flay the burnt offering, and cut it into his pieces."
        },
        {
            "chapter": 1,
            "verse": 7,
            "name": "Leviticus 1:7",
            "text": "And the sons of Aaron the priest shall put fire upon the altar, and lay the wood in order upon the fire:"
        },
        {
            "chapter": 1,
            "verse": 8,
            "name": "Leviticus 1:8",
            "text": "And the priests, Aaron's sons, shall lay the parts, the head, and the fat, in order upon the wood that is on the fire which is upon the altar:"
        },
        {
            "chapter": 1,
            "verse": 9,
            "name": "Leviticus 1:9",
            "text": "But his inwards and his legs shall he wash in water: and the priest shall burn all on the altar, to be a burnt sacrifice, an offering made by fire, of a sweet savour unto the Lord."
        },
        {
            "chapter": 1,
            "verse": 10,
            "name": "Leviticus 1:10",
            "text": "And if his offering be of the flocks, namely, of the sheep, or of the goats, for a burnt sacrifice; he shall bring it a male without blemish."
        },
        {
            "chapter": 1,
            "verse": 11,
            "name": "Leviticus 1:11",
            "text": "And he shall kill it on the side of the altar northward before the Lord: and the priests, Aaron's sons, shall sprinkle his blood round about upon the altar."
        },
        {
            "chapter": 1,
            "verse": 12,
            "name": "Leviticus 1:12",
            "text": "And he shall cut it into his pieces, with his head and his fat: and the priest shall lay them in order on the wood that is on the fire which is upon the altar:"
        },
        {
            "chapter": 1,
            "verse": 13,
            "name": "Leviticus 1:13",
            "text": "But he shall wash the inwards and the legs with water: and the priest shall bring it all, and burn it upon the altar: it is a burnt sacrifice, an offering made by fire, of a sweet savour unto the Lord."
        },
        {
            "chapter": 1,
            "verse": 14,
            "name": "Leviticus 1:14",
            "text": "And if the burnt sacrifice for his offering to the Lord be of fowls, then he shall bring his offering of turtledoves, or of young pigeons."
        },
        {
            "chapter": 1,
            "verse": 15,
            "name": "Leviticus 1:15",
            "text": "And the priest shall bring it unto the altar, and wring off his head, and burn it on the altar; and the blood thereof shall be wrung out at the side of the altar:"
        },
        {
            "chapter": 1,
            "verse": 16,
            "name": "Leviticus 1:16",
            "text": "And he shall pluck away his crop with his feathers, and cast it beside the altar on the east part, by the place of the ashes:"
        },
        {
            "chapter": 1,
            "verse": 17,
            "name": "Leviticus 1:17",
            "text": "And he shall cleave it with the wings thereof, but shall not divide it asunder: and the priest shall burn it upon the altar, upon the wood that is upon the fire: it is a burnt sacrifice, an offering made by fire, of a sweet savour unto the Lord. "
        }
    ]
}