{
    "translation": "Belarusian Bible",
    "abbreviation": "bela",
    "lang": "be",
    "language": "Belarusian",
    "direction": "LTR",
    "encoding": "UTF-8",
    "book_nr": 12,
    "book_name": "2 Kings",
    "chapter": 5,
    "name": "2 Kings 5",
    "verses": [
        {
            "chapter": 5,
            "verse": 1,
            "name": "2 Kings 5:1",
            "text": " \u041d\u044d\u0435\u043c\u0430\u043d, \u0432\u0430\u0435\u043d\u0430\u0447\u0430\u043b\u044c\u043d\u0456\u043a \u0446\u0430\u0440\u0430 \u0421\u0456\u0440\u044b\u0439\u0441\u043a\u0430\u0433\u0430, \u0431\u044b\u045e \u0432\u044f\u043b\u0456\u043a\u0456 \u0447\u0430\u043b\u0430\u0432\u0435\u043a \u0443 \u0433\u0430\u0441\u043f\u0430\u0434\u0430\u0440\u0430 \u0441\u0432\u0430\u0439\u0433\u043e \u0456 \u043f\u0430\u0432\u0430\u0436\u0430\u043d\u044b, \u0431\u043e \u043f\u0440\u0430\u0437\u044c \u044f\u0433\u043e \u0434\u0430\u045e \u0413\u0430\u0441\u043f\u043e\u0434\u0437\u044c \u043f\u0435\u0440\u0430\u043c\u043e\u0433\u0443 \u0421\u0456\u0440\u044b\u0439\u0446\u0430\u043c; \u0456 \u0447\u0430\u043b\u0430\u0432\u0435\u043a \u0433\u044d\u0442\u044b \u0431\u044b\u045e \u0432\u044b\u0434\u0430\u0442\u043d\u044b \u0432\u043e\u0456\u043d, \u0430\u043b\u0435 \u043f\u0440\u0430\u043a\u0430\u0436\u043e\u043d\u044b."
        },
        {
            "chapter": 5,
            "verse": 2,
            "name": "2 Kings 5:2",
            "text": "\u0421\u0456\u0440\u044b\u0439\u0446\u044b \u0430\u0434\u043d\u043e\u0439\u0447\u044b \u043f\u0430\u0439\u0448\u043b\u0456 \u0430\u0442\u0440\u0430\u0434\u0430\u043c\u0456 \u0456 \u045e\u0437\u044f\u043b\u0456 \u045e \u043f\u0430\u043b\u043e\u043d \u0437\u044c \u0437\u044f\u043c\u043b\u0456 \u0406\u0437\u0440\u0430\u0456\u043b\u044c\u0441\u043a\u0430\u0439 \u043c\u0430\u043b\u0435\u043d\u044c\u043a\u0443\u044e \u0434\u0437\u044f\u045e\u0447\u044b\u043d\u043a\u0443, \u0456 \u044f\u043d\u0430 \u0441\u043b\u0443\u0433\u0430\u0432\u0430\u043b\u0430 \u0436\u043e\u043d\u0446\u044b \u041d\u044d\u0435\u043c\u0430\u043d\u0430\u0432\u0430\u0439."
        },
        {
            "chapter": 5,
            "verse": 3,
            "name": "2 Kings 5:3",
            "text": "\u0406 \u0441\u043a\u0430\u0437\u0430\u043b\u0430 \u044f\u043d\u0430 \u0433\u0430\u0441\u043f\u0430\u0434\u044b\u043d\u0456 \u0441\u0432\u0430\u0451\u0439: \u043e, \u043a\u0430\u043b\u0456 \u0431 \u0433\u0430\u0441\u043f\u0430\u0434\u0430\u0440 \u043c\u043e\u0439 \u043f\u0430\u0431\u044b\u0432\u0430\u045e \u0443 \u043f\u0440\u0430\u0440\u043e\u043a\u0430, \u044f\u043a\u0456 \u045e \u0421\u0430\u043c\u0430\u0440\u044b\u0456, \u0434\u044b\u043a \u0451\u043d \u0437\u044c\u043d\u044f\u045e \u0431\u044b \u0437\u044c \u044f\u0433\u043e \u043f\u0440\u0430\u043a\u0430\u0437\u0443 \u044f\u0433\u043e\u043d\u0443\u044e!"
        },
        {
            "chapter": 5,
            "verse": 4,
            "name": "2 Kings 5:4",
            "text": "\u0406 \u043f\u0430\u0439\u0448\u043e\u045e \u041d\u044d\u0435\u043c\u0430\u043d \u0456 \u043f\u0435\u0440\u0430\u0434\u0430\u045e \u0433\u044d\u0442\u0430 \u0433\u0430\u0441\u043f\u0430\u0434\u0430\u0440\u0443 \u0441\u0432\u0430\u0439\u043c\u0443, \u043a\u0430\u0436\u0443\u0447\u044b: \u0442\u0430\u043a \u0456 \u0442\u0430\u043a \u043a\u0430\u0436\u0430 \u0434\u0437\u044f\u045e\u0447\u044b\u043d\u043a\u0430, \u044f\u043a\u0430\u044f \u0437\u044c \u0437\u044f\u043c\u043b\u0456 \u0406\u0437\u0440\u0430\u0456\u043b\u044c\u0441\u043a\u0430\u0439."
        },
        {
            "chapter": 5,
            "verse": 5,
            "name": "2 Kings 5:5",
            "text": "\u0406 \u0441\u043a\u0430\u0437\u0430\u045e \u0446\u0430\u0440 \u0421\u0456\u0440\u044b\u0439\u0441\u043a\u0456 \u041d\u044d\u0435\u043c\u0430\u043d\u0443 : \u0456\u0434\u0437\u0456, \u0441\u0445\u0430\u0434\u0437\u0456, \u0430 \u044f \u043f\u0430\u0448\u043b\u044e \u043b\u0456\u0441\u0442 \u0434\u0430 \u0446\u0430\u0440\u0430 \u0406\u0437\u0440\u0430\u0456\u043b\u044c\u0441\u043a\u0430\u0433\u0430. \u0401\u043d \u043f\u0430\u0439\u0448\u043e\u045e \u0456 \u045e\u0437\u044f\u045e \u0437 \u0441\u0430\u0431\u043e\u044e \u0434\u0437\u0435\u0441\u044f\u0446\u044c \u0442\u0430\u043b\u0430\u043d\u0442\u0430\u045e \u0441\u0440\u044d\u0431\u0440\u0430 \u0456 \u0448\u044d\u0441\u044c\u0446\u044c \u0442\u044b\u0441\u044f\u0447 \u0441\u0456\u043a\u043b\u044f\u045e \u0437\u043e\u043b\u0430\u0442\u0430 \u0456 \u0434\u0437\u0435\u0441\u044f\u0446\u044c \u043f\u0435\u0440\u0430\u043c\u0435\u043d \u0432\u043e\u043f\u0440\u0430\u0442\u043a\u0456;"
        },
        {
            "chapter": 5,
            "verse": 6,
            "name": "2 Kings 5:6",
            "text": "\u0456 \u043f\u0440\u044b\u043d\u0451\u0441 \u043b\u0456\u0441\u0442 \u0446\u0430\u0440\u0443 \u0406\u0437\u0440\u0430\u0456\u043b\u044c\u0441\u043a\u0430\u043c\u0443, \u0443 \u044f\u043a\u0456\u043c \u0431\u044b\u043b\u043e \u0441\u043a\u0430\u0437\u0430\u043d\u0430: \u0440\u0430\u0437\u0430\u043c \u0437 \u043b\u0456\u0441\u0442\u043e\u043c \u0433\u044d\u0442\u044b\u043c, \u0432\u043e\u0441\u044c \u044f \u043f\u0430\u0441\u044b\u043b\u0430\u044e \u0434\u0430 \u0446\u044f\u0431\u0435 \u041d\u044d\u0435\u043c\u0430\u043d\u0430, \u0441\u043b\u0443\u0433\u0443 \u043c\u0430\u0439\u0433\u043e, \u043a\u0430\u0431 \u0442\u044b \u0437\u044c\u043d\u044f\u045e \u0437\u044c \u044f\u0433\u043e \u043f\u0440\u0430\u043a\u0430\u0437\u0443 \u044f\u0433\u043e\u043d\u0443\u044e."
        },
        {
            "chapter": 5,
            "verse": 7,
            "name": "2 Kings 5:7",
            "text": "\u0426\u0430\u0440 \u0406\u0437\u0440\u0430\u0456\u043b\u044c\u0441\u043a\u0456, \u043f\u0440\u0430\u0447\u044b\u0442\u0430\u045e\u0448\u044b \u043b\u0456\u0441\u0442, \u043f\u0430\u0434\u0440\u0430\u045e \u0432\u043e\u043f\u0440\u0430\u0442\u043a\u0443 \u043d\u0430 \u0441\u0430\u0431\u0435 \u0456 \u0441\u043a\u0430\u0437\u0430\u045e: \u0445\u0456\u0431\u0430 \u042f \u0411\u043e\u0433, \u043a\u0430\u0431 \u0443\u0441\u044c\u043c\u0435\u0440\u0447\u0432\u0430\u0446\u044c \u0456 \u0430\u0436\u044b\u045e\u043b\u044f\u0446\u044c, \u0448\u0442\u043e \u0451\u043d \u043f\u0430\u0441\u044b\u043b\u0430\u0435 \u0434\u0430 \u043c\u044f\u043d\u0435, \u043a\u0430\u0431 \u044f \u0437\u044c\u043d\u044f\u045e \u0437 \u0447\u0430\u043b\u0430\u0432\u0435\u043a\u0430 \u043f\u0440\u0430\u043a\u0430\u0437\u0443 \u044f\u0433\u043e\u043d\u0443\u044e? \u0432\u043e\u0441\u044c, \u0446\u044f\u043f\u0435\u0440 \u0432\u0435\u0434\u0430\u0439\u0446\u0435 \u0456 \u0433\u043b\u044f\u0434\u0437\u0435\u0446\u0435, \u0448\u0442\u043e \u0451\u043d \u0448\u0443\u043a\u0430\u0435 \u0437\u0430\u0447\u044d\u043f\u043a\u0456 \u0432\u0430\u0440\u0430\u0433\u0430\u0432\u0430\u0446\u044c \u0441\u0443\u043f\u0440\u043e\u0446\u044c \u043c\u044f\u043d\u0435."
        },
        {
            "chapter": 5,
            "verse": 8,
            "name": "2 Kings 5:8",
            "text": "\u041a\u0430\u043b\u0456 \u043f\u0430\u0447\u0443\u045e \u0415\u043b\u0456\u0441\u0435\u0439, \u0447\u0430\u043b\u0430\u0432\u0435\u043a \u0411\u043e\u0436\u044b, \u0448\u0442\u043e \u0446\u0430\u0440 \u0406\u0437\u0440\u0430\u0456\u043b\u044c\u0441\u043a\u0456 \u043f\u0430\u0434\u0440\u0430\u045e \u0432\u043e\u043f\u0440\u0430\u0442\u043a\u0443 \u043d\u0430 \u0441\u0430\u0431\u0435, \u0434\u044b\u043a \u043f\u0430\u0441\u043b\u0430\u045e \u0441\u043a\u0430\u0437\u0430\u0446\u044c \u0446\u0430\u0440\u0443: \u043d\u0430\u0432\u043e\u0448\u0442\u0430 \u0442\u044b \u043f\u0430\u0434\u0440\u0430\u045e \u0432\u043e\u043f\u0440\u0430\u0442\u043a\u0443 \u043d\u0430 \u0441\u0430\u0431\u0435? \u0445\u0430\u0439 \u0451\u043d \u043f\u0440\u044b\u0439\u0434\u0437\u0435 \u0434\u0430 \u043c\u044f\u043d\u0435 \u0456 \u0434\u0430\u0432\u0435\u0434\u0430\u0435\u0446\u0446\u0430, \u0448\u0442\u043e \u0451\u0441\u044c\u0446\u044c \u043f\u0440\u0430\u0440\u043e\u043a \u0443 \u0406\u0437\u0440\u0430\u0456\u043b\u0435."
        },
        {
            "chapter": 5,
            "verse": 9,
            "name": "2 Kings 5:9",
            "text": "\u0406 \u043f\u0440\u044b\u0431\u044b\u045e \u041d\u044d\u0435\u043c\u0430\u043d \u043d\u0430 \u043a\u043e\u043d\u044f\u0445 \u0441\u0432\u0430\u0456\u0445 \u0456 \u043d\u0430 \u043a\u0430\u043b\u044f\u0441\u044c\u043d\u0456\u0446\u044b \u0441\u0432\u0430\u0451\u0439 \u0456 \u0441\u043f\u044b\u043d\u0456\u045e\u0441\u044f \u043a\u0430\u043b\u044f \u045e\u0432\u0430\u0445\u043e\u0434\u0443 \u045e \u0434\u043e\u043c \u0415\u043b\u0456\u0441\u0435\u0435\u045e."
        },
        {
            "chapter": 5,
            "verse": 10,
            "name": "2 Kings 5:10",
            "text": "\u0406 \u0432\u044b\u0441\u043b\u0430\u045e \u0434\u0430 \u044f\u0433\u043e \u0415\u043b\u0456\u0441\u0435\u0439 \u0441\u043b\u0443\u0433\u0443 \u0441\u043a\u0430\u0437\u0430\u0446\u044c: \u0456\u0434\u0437\u0456, \u0430\u0431\u043c\u044b\u0439\u0441\u044f \u0441\u0435\u043c \u0440\u0430\u0437\u043e\u045e \u0443 \u042f\u0440\u0434\u0430\u043d\u0435, \u0456 \u0430\u0431\u043d\u043e\u0432\u0456\u0446\u0446\u0430 \u0446\u0435\u043b\u0430 \u0442\u0432\u0430\u0451 \u045e \u0446\u044f\u0431\u0435, \u0456 \u0431\u0443\u0434\u0437\u0435\u0448 \u0447\u044b\u0441\u0442\u044b."
        },
        {
            "chapter": 5,
            "verse": 11,
            "name": "2 Kings 5:11",
            "text": "\u0406 \u0440\u0430\u0437\u0433\u043d\u0435\u0432\u0430\u045e\u0441\u044f \u041d\u044d\u0435\u043c\u0430\u043d, \u0456 \u043f\u0430\u0439\u0448\u043e\u045e, \u0456 \u0441\u043a\u0430\u0437\u0430\u045e: \u0432\u043e\u0441\u044c, \u044f \u0434\u0443\u043c\u0430\u045e, \u0448\u0442\u043e \u0451\u043d \u0432\u044b\u0439\u0434\u0437\u0435, \u0441\u0442\u0430\u043d\u0435, \u0456 \u043f\u0430\u043a\u043b\u0456\u0447\u0430 \u0456\u043c\u044f \u0413\u043e\u0441\u043f\u0430\u0434\u0430 \u0411\u043e\u0433\u0430 \u0441\u0432\u0430\u0439\u0433\u043e, \u0456 \u043f\u0430\u043a\u043b\u0430\u0434\u0437\u0435 \u0440\u0443\u043a\u0443 \u0441\u0432\u0430\u044e \u043d\u0430 \u0442\u043e\u0435 \u043c\u0435\u0441\u0446\u0430, \u0456 \u0437\u0434\u044b\u043c\u0435 \u043f\u0440\u0430\u043a\u0430\u0437\u0443;"
        },
        {
            "chapter": 5,
            "verse": 12,
            "name": "2 Kings 5:12",
            "text": "\u0445\u0456\u0431\u0430 \u0410\u0432\u0430\u043d\u0430 \u0456 \u0424\u0430\u0440\u0444\u0430\u0440, \u0440\u044d\u043a\u0456 \u0414\u0430\u043c\u0430\u0441\u043a\u0456\u044f, \u043d\u044f \u043b\u0435\u043f\u0448\u044b\u044f \u0437\u0430 \u045e\u0441\u0435 \u0432\u043e\u0434\u044b \u0406\u0437\u0440\u0430\u0456\u043b\u044c\u0441\u043a\u0456\u044f? \u0445\u0456\u0431\u0430 \u044f \u043d\u044f \u043c\u043e\u0433 \u0431\u044b \u0430\u0431\u043c\u044b\u0446\u0446\u0430 \u045e \u0456\u0445 \u0456 \u0430\u0447\u044b\u0441\u044c\u0446\u0456\u0446\u0446\u0430? \u0406 \u043f\u0430\u0432\u044f\u0440\u043d\u0443\u045e\u0441\u044f \u0456 \u043f\u0430\u0439\u0448\u043e\u045e \u0443 \u0433\u043d\u0435\u0432\u0435."
        },
        {
            "chapter": 5,
            "verse": 13,
            "name": "2 Kings 5:13",
            "text": "\u0406 \u043f\u0430\u0434\u044b\u0448\u043b\u0456 \u0440\u0430\u0431\u044b \u044f\u0433\u043e\u043d\u044b\u044f, \u0456 \u043a\u0430\u0437\u0430\u043b\u0456 \u044f\u043c\u0443, \u0456 \u0441\u043a\u0430\u0437\u0430\u043b\u0456: \u0431\u0430\u0446\u044c\u043a\u0430 \u043c\u043e\u0439,\u043a\u0430\u043b\u0456 \u0431 \u0448\u0442\u043e-\u043d\u0435\u0431\u0443\u0434\u0437\u044c \u0432\u0430\u0436\u043d\u0430\u0435 \u0441\u043a\u0430\u0437\u0430\u045e \u0442\u0430\u0431\u0435 \u043f\u0440\u0430\u0440\u043e\u043a, \u0434\u044b\u043a \u0446\u0456 \u043d\u0435 \u0437\u0440\u0430\u0431\u0456\u045e \u0431\u044b \u0442\u044b? \u0430 \u0442\u044b\u043c \u0431\u043e\u043b\u0435\u0439, \u043a\u0430\u043b\u0456 \u0451\u043d \u0441\u043a\u0430\u0437\u0430\u045e \u0442\u0430\u0431\u0435 \u0442\u043e\u043b\u044c\u043a\u0456: \u0430\u0431\u043c\u044b\u0439\u0441\u044f, \u0456 \u0431\u0443\u0434\u0437\u0435\u0448 \u0447\u044b\u0441\u0442\u044b."
        },
        {
            "chapter": 5,
            "verse": 14,
            "name": "2 Kings 5:14",
            "text": "\u0406 \u043f\u0430\u0439\u0448\u043e\u045e \u0451\u043d \u0456 \u0430\u043a\u0443\u043d\u0443\u045e\u0441\u044f \u045e \u042f\u0440\u0434\u0430\u043d\u0435 \u0441\u0435\u043c \u0440\u0430\u0437\u043e\u045e, \u043f\u0430 \u0441\u043b\u043e\u0432\u0435 \u0447\u0430\u043b\u0430\u0432\u0435\u043a\u0430 \u0411\u043e\u0436\u0430\u0433\u0430, \u0456 \u0430\u0431\u043d\u0430\u0432\u0456\u043b\u0430\u0441\u044f \u0446\u0435\u043b\u0430 \u044f\u0433\u043e\u043d\u0430\u0435, \u044f\u043a \u0446\u0435\u043b\u0430 \u043c\u0430\u043b\u043e\u0433\u0430 \u0434\u0437\u0456\u0446\u044f\u0446\u0456, \u0456 \u0430\u0447\u044b\u0441\u044c\u0446\u0456\u045e\u0441\u044f."
        },
        {
            "chapter": 5,
            "verse": 15,
            "name": "2 Kings 5:15",
            "text": "\u0406 \u0432\u044f\u0440\u043d\u0443\u045e\u0441\u044f \u0434\u0430 \u0447\u0430\u043b\u0430\u0432\u0435\u043a\u0430 \u0411\u043e\u0436\u0430\u0433\u0430 \u0451\u043d \u0456 \u045e\u0441\u0435, \u0448\u0442\u043e \u0441\u0443\u043f\u0440\u0430\u0432\u0430\u0434\u0436\u0430\u043b\u0456 \u044f\u0433\u043e, \u0456 \u043f\u0440\u044b\u0439\u0448\u043e\u045e, \u0456 \u0441\u0442\u0430\u045e \u043f\u0435\u0440\u0430\u0434 \u0456\u043c, \u0456 \u0441\u043a\u0430\u0437\u0430\u045e: \u0432\u043e\u0441\u044c, \u044f \u0434\u0430\u0432\u0435\u0434\u0430\u045e\u0441\u044f, \u0448\u0442\u043e \u043d\u0430 \u045e\u0441\u0451\u0439 \u0437\u044f\u043c\u043b\u0456 \u043d\u044f\u043c\u0430 \u0411\u043e\u0433\u0430, \u044f\u043a \u0443 \u0406\u0437\u0440\u0430\u0456\u043b\u044f; \u0434\u044b\u043a \u0432\u043e\u0441\u044c \u043f\u0440\u044b\u043c\u0456 \u0434\u0430\u0440\u0443\u043d\u0430\u043a \u0430\u0434 \u0440\u0430\u0431\u0430 \u0442\u0432\u0430\u0439\u0433\u043e."
        },
        {
            "chapter": 5,
            "verse": 16,
            "name": "2 Kings 5:16",
            "text": "\u0406 \u0441\u043a\u0430\u0437\u0430\u045e \u0451\u043d: \u0436\u044b\u0432\u044b \u0413\u0430\u0441\u043f\u043e\u0434\u0437\u044c, \u043f\u0435\u0440\u0430\u0434 \u0430\u0431\u043b\u0456\u0447\u0447\u0430\u043c \u044f\u043a\u043e\u0433\u0430 \u0441\u0442\u0430\u044e! \u043d\u044f \u043f\u0440\u044b\u043c\u0443. \u0406 \u0442\u043e\u0439 \u043f\u0440\u044b\u043c\u0443\u0448\u0430\u045e \u044f\u0433\u043e \u045e\u0437\u044f\u0446\u044c, \u0430\u043b\u0435 \u0451\u043d \u043d\u0435 \u0437\u0433\u0430\u0434\u0437\u0456\u045e\u0441\u044f."
        },
        {
            "chapter": 5,
            "verse": 17,
            "name": "2 Kings 5:17",
            "text": "\u0406 \u0441\u043a\u0430\u0437\u0430\u045e \u041d\u044d\u0435\u043c\u0430\u043d: \u043a\u0430\u043b\u0456 \u045e\u0436\u043e \u043d\u044f \u0442\u0430\u043a, \u0434\u044b\u043a \u0445\u0430\u0439 \u0440\u0430\u0431\u0443 \u0442\u0432\u0430\u0439\u043c\u0443 \u0434\u0430\u0434\u0443\u0446\u044c \u0437\u044f\u043c\u043b\u0456, \u043a\u043e\u043b\u044c\u043a\u0456 \u043f\u0430\u043d\u044f\u0441\u0443\u0446\u044c \u0434\u0432\u0430 \u043c\u0443\u043b\u044b, \u0431\u043e \u043d\u044f \u0431\u0443\u0434\u0437\u0435 \u0431\u043e\u043b\u044c\u0448 \u0440\u0430\u0431 \u0442\u0432\u043e\u0439 \u043f\u0440\u044b\u043d\u043e\u0441\u0456\u0446\u044c \u0446\u044d\u043b\u0430\u0441\u043f\u0430\u043b\u0435\u043d\u044c\u043d\u0456 \u0456 \u0430\u0445\u0432\u044f\u0440\u044b \u0456\u043d\u0448\u044b\u043c \u0431\u0430\u0433\u0430\u043c, \u0430\u043f\u0440\u0430\u0447\u0430 \u0413\u043e\u0441\u043f\u0430\u0434\u0430;"
        },
        {
            "chapter": 5,
            "verse": 18,
            "name": "2 Kings 5:18",
            "text": "\u0442\u043e\u043b\u044c\u043a\u0456 \u0432\u043e\u0441\u044c \u0443 \u0447\u044b\u043c \u0445\u0430\u0439 \u0434\u0430\u0440\u0443\u0435 \u0413\u0430\u0441\u043f\u043e\u0434\u0437\u044c \u0440\u0430\u0431\u0443 \u0442\u0432\u0430\u0439\u043c\u0443: \u043a\u0430\u043b\u0456 \u043f\u043e\u0439\u0434\u0437\u0435 \u0433\u0430\u0441\u043f\u0430\u0434\u0430\u0440 \u043c\u043e\u0439 \u0443 \u0434\u043e\u043c \u0420\u044b\u043c\u043e\u043d\u0430 \u043d\u0430 \u043f\u0430\u043a\u043b\u0430\u043d\u0435\u043d\u044c\u043d\u0435 \u0442\u0430\u043c \u0456 \u0430\u0431\u0430\u043f\u0440\u044d\u0446\u0446\u0430 \u043d\u0430 \u0440\u0443\u043a\u0443 \u043c\u0430\u044e, \u0456 \u043f\u0430\u043a\u043b\u0430\u043d\u044e\u0441\u044f \u044f \u045e \u0434\u043e\u043c\u0435 \u0420\u044b\u043c\u043e\u043d\u0430, \u0434\u044b\u043a, \u0437\u0430 \u043c\u0430\u0451 \u043f\u0430\u043a\u043b\u0430\u043d\u0435\u043d\u044c\u043d\u0435 \u045e \u0434\u043e\u043c\u0435 \u0420\u044b\u043c\u043e\u043d\u0430, \u0445\u0430\u0439 \u0434\u0430\u0440\u0443\u0435 \u0413\u0430\u0441\u043f\u043e\u0434\u0437\u044c \u0440\u0430\u0431\u0443 \u0442\u0432\u0430\u0439\u043c\u0443 \u045e \u0433\u044d\u0442\u044b\u043c \u0432\u044b\u043f\u0430\u0434\u043a\u0443."
        },
        {
            "chapter": 5,
            "verse": 19,
            "name": "2 Kings 5:19",
            "text": "\u0406 \u0441\u043a\u0430\u0437\u0430\u045e \u044f\u043c\u0443: \u0456\u0434\u0437\u0456 \u0437\u044c \u043c\u0456\u0440\u0430\u043c. \u0406 \u0451\u043d \u0430\u0434'\u0435\u0445\u0430\u045e \u0430\u0434 \u044f\u0433\u043e \u043d\u0430 \u043d\u0435\u0434\u0430\u043b\u0451\u043a\u0443\u044e \u0430\u0434\u043b\u0435\u0433\u043b\u0430\u0441\u044c\u0446\u044c."
        },
        {
            "chapter": 5,
            "verse": 20,
            "name": "2 Kings 5:20",
            "text": "\u0406 \u0441\u043a\u0430\u0437\u0430\u045e \u0413\u0456\u0435\u0437\u0456\u0439, \u0441\u043b\u0443\u0433\u0430 \u0415\u043b\u0456\u0441\u0435\u044f, \u0447\u0430\u043b\u0430\u0432\u0435\u043a\u0430 \u0411\u043e\u0436\u0430\u0433\u0430: \u0432\u043e\u0441\u044c, \u0433\u0430\u0441\u043f\u0430\u0434\u0430\u0440 \u043c\u043e\u0439 \u0430\u0434\u043c\u043e\u0432\u0456\u045e\u0441\u044f \u045e\u0437\u044f\u0446\u044c \u0437 \u0440\u0443\u043a\u0456 \u041d\u044d\u0435\u043c\u0430\u043d\u0430, \u0433\u044d\u0442\u0430\u0433\u0430 \u0421\u0456\u0440\u044b\u0439\u0446\u0430, \u0442\u043e\u0435, \u0448\u0442\u043e \u0451\u043d \u043f\u0440\u044b\u043d\u043e\u0441\u0456\u045e. \u0416\u044b\u0432\u044b \u0413\u0430\u0441\u043f\u043e\u0434\u0437\u044c! \u043f\u0430\u0431\u044f\u0433\u0443 \u044f \u0437\u0430 \u0456\u043c \u0456 \u0432\u0430\u0437\u044c\u043c\u0443 \u045e \u044f\u0433\u043e \u0448\u0442\u043e-\u043d\u0435\u0431\u0443\u0434\u0437\u044c."
        },
        {
            "chapter": 5,
            "verse": 21,
            "name": "2 Kings 5:21",
            "text": "\u0406 \u043f\u0430\u0433\u043d\u0430\u045e\u0441\u044f \u0413\u0456\u0435\u0437\u0456\u0439 \u0437\u0430 \u041d\u044d\u0435\u043c\u0430\u043d\u0430\u043c. \u0406 \u045e\u0431\u0430\u0447\u044b\u045e \u041d\u044d\u0435\u043c\u0430\u043d, \u0448\u0442\u043e \u0431\u044f\u0436\u044b\u0446\u044c \u0437\u0430 \u0456\u043c, \u0456 \u0441\u044b\u0448\u043e\u045e \u0437 \u043a\u0430\u043b\u044f\u0441\u044c\u043d\u0456\u0446\u044b \u043d\u0430\u0441\u0443\u0441\u0442\u0440\u0430\u0447 \u044f\u043c\u0443, \u0456 \u0441\u043a\u0430\u0437\u0430\u045e: \u0446\u0456 \u0437\u044c \u043c\u0456\u0440\u0430\u043c?"
        },
        {
            "chapter": 5,
            "verse": 22,
            "name": "2 Kings 5:22",
            "text": "\u0422\u043e\u0439 \u0430\u0434\u043a\u0430\u0437\u0432\u0430\u045e: \u0437\u044c \u043c\u0456\u0440\u0430\u043c; \u0433\u0430\u0441\u043f\u0430\u0434\u0430\u0440 \u043c\u043e\u0439 \u043f\u0430\u0441\u043b\u0430\u045e \u043c\u044f\u043d\u0435 \u0441\u043a\u0430\u0437\u0430\u0446\u044c: \u0432\u043e\u0441\u044c, \u0446\u044f\u043f\u0435\u0440 \u043f\u0440\u044b\u0448\u043b\u0456 \u0434\u0430 \u043c\u044f\u043d\u0435 \u0437 \u0433\u0430\u0440\u044b \u042f\u0444\u0440\u044d\u043c\u0430\u0432\u0430\u0439 \u0434\u0432\u0443\u0445 \u043c\u0430\u043b\u0430\u0434\u044b\u0445 \u0447\u0430\u043b\u0430\u0432\u0435\u043a \u0437 \u0441\u044b\u043d\u043e\u045e \u043f\u0440\u0430\u0440\u043e\u043a\u0430\u0432\u044b\u0445; \u0434\u0430\u0439 \u0456\u043c \u0442\u0430\u043b\u0430\u043d\u0442 \u0441\u0440\u044d\u0431\u0440\u0430 \u0456 \u0434\u0437\u044c\u0432\u0435 \u043f\u0435\u0440\u0430\u043c\u0435\u043d\u044b \u0432\u043e\u043f\u0440\u0430\u0442\u043a\u0456."
        },
        {
            "chapter": 5,
            "verse": 23,
            "name": "2 Kings 5:23",
            "text": "\u0406 \u0441\u043a\u0430\u0437\u0430\u045e \u041d\u044d\u0435\u043c\u0430\u043d: \u0432\u0430\u0437\u044c\u043c\u0456, \u0431\u0430\u0434\u0430\u0439 \u0448\u0442\u043e, \u0434\u0432\u0430 \u0442\u0430\u043b\u0430\u043d\u0442\u044b. \u0406 \u045e\u043f\u0440\u043e\u0448\u0432\u0430\u045e \u044f\u0433\u043e. \u0406 \u0437\u0430\u0432\u044f\u0437\u0430\u045e \u0451\u043d \u0434\u0432\u0430 \u0442\u0430\u043b\u0430\u043d\u0442\u044b \u0441\u0440\u044d\u0431\u0440\u0430 \u045e \u0434\u0432\u0430 \u043c\u044f\u0445\u0456 \u0456 \u0434\u0437\u044c\u0432\u0435 \u043f\u0435\u0440\u0430\u043c\u0435\u043d\u044b \u0432\u043e\u043f\u0440\u0430\u0442\u043a\u0456 \u0456 \u0430\u0434\u0434\u0430\u045e \u0434\u0432\u0443\u043c \u0441\u043b\u0443\u0433\u0430\u043c \u0441\u0432\u0430\u0456\u043c, \u0456 \u043f\u0430\u043d\u0435\u0441\u044c\u043b\u0456 \u043f\u0435\u0440\u0430\u0434 \u0456\u043c."
        },
        {
            "chapter": 5,
            "verse": 24,
            "name": "2 Kings 5:24",
            "text": "\u041a\u0430\u043b\u0456 \u0451\u043d \u043f\u0440\u044b\u0439\u0448\u043e\u045e \u0434\u0430 \u043f\u0430\u0433\u043e\u0440\u043a\u0430, \u0434\u044b\u043a \u0443\u0437\u044f\u045e \u0437 \u0440\u0443\u043a \u0456\u0445\u043d\u0456\u0445 \u0456 \u0441\u0445\u0430\u0432\u0430\u045e \u0434\u043e\u043c\u0430. \u0406 \u0430\u0434\u043f\u0443\u0441\u044c\u0446\u0456\u045e \u043b\u044e\u0434\u0437\u0435\u0439, \u0456 \u044f\u043d\u044b \u043f\u0430\u0439\u0448\u043b\u0456."
        },
        {
            "chapter": 5,
            "verse": 25,
            "name": "2 Kings 5:25",
            "text": "\u041a\u0430\u043b\u0456 \u0451\u043d \u043f\u0440\u044b\u0439\u0448\u043e\u045e \u0456 \u0437\u044c\u044f\u0432\u0456\u045e\u0441\u044f \u0434\u0430 \u0433\u0430\u0441\u043f\u0430\u0434\u0430\u0440\u0430 \u0441\u0432\u0430\u0439\u0433\u043e, \u0415\u043b\u0456\u0441\u0435\u0439 \u0441\u043a\u0430\u0437\u0430\u045e \u044f\u043c\u0443: \u0430\u0434\u043a\u0443\u043b\u044c, \u0413\u0456\u0435\u0437\u0456\u0439? \u0406 \u0441\u043a\u0430\u0437\u0430\u045e \u0451\u043d: \u043d\u0456\u043a\u0443\u0434\u044b \u043d\u0435 \u0445\u0430\u0434\u0437\u0456\u045e \u0440\u0430\u0431 \u0442\u0432\u043e\u0439."
        },
        {
            "chapter": 5,
            "verse": 26,
            "name": "2 Kings 5:26",
            "text": "\u0406 \u0441\u043a\u0430\u0437\u0430\u045e \u0451\u043d \u044f\u043c\u0443: \u0445\u0456\u0431\u0430 \u0441\u044d\u0440\u0446\u0430 \u043c\u0430\u0451 \u043d\u0435 \u0441\u043f\u0430\u0434\u0430\u0440\u043e\u0436\u043d\u0456\u0447\u0430\u043b\u0430 \u0442\u0430\u0431\u0435, \u043a\u0430\u043b\u0456 \u043f\u0430\u0432\u044f\u0440\u043d\u0443\u045e\u0441\u044f \u043d\u0430\u0441\u0443\u0441\u0442\u0440\u0430\u0447 \u0442\u0430\u0431\u0435 \u0447\u0430\u043b\u0430\u0432\u0435\u043a \u0442\u043e\u0439 \u0437 \u043a\u0430\u043b\u044f\u0441\u044c\u043d\u0456\u0446\u044b \u0441\u0432\u0430\u0451\u0439? \u0446\u0456 \u0447\u0430\u0441 \u0431\u0440\u0430\u0446\u044c \u0441\u0440\u044d\u0431\u0440\u0430 \u0456 \u0431\u0440\u0430\u0446\u044c \u0432\u043e\u043f\u0440\u0430\u0442\u043a\u0443, \u0430\u0431\u043e \u043c\u0430\u0441\u044c\u043b\u0456\u0447\u043d\u044b\u044f \u0434\u0440\u044d\u0432\u044b \u0456 \u0432\u0456\u043d\u0430\u0433\u0440\u0430\u0434\u043d\u0456\u043a\u0456, \u0456 \u0434\u0440\u043e\u0431\u043d\u0430\u0435 \u0430\u043b\u044c\u0431\u043e \u0431\u0443\u0439\u043d\u043e\u0435 \u0431\u044b\u0434\u043b\u0430, \u0456 \u0440\u0430\u0431\u043e\u045e \u0430\u043b\u044c\u0431\u043e \u0440\u0430\u0431\u044b\u043d\u044f\u045e?"
        },
        {
            "chapter": 5,
            "verse": 27,
            "name": "2 Kings 5:27",
            "text": "\u043d\u044f\u0445\u0430\u0439 \u0436\u0430 \u043f\u0440\u0430\u043a\u0430\u0437\u0430 \u041d\u044d\u0435\u043c\u0430\u043d\u0430\u0432\u0430\u044f \u043f\u0440\u044b\u0441\u0442\u0430\u043d\u0435 \u0434\u0430 \u0446\u044f\u0431\u0435 \u0456 \u0434\u0430 \u043d\u0430\u0448\u0447\u0430\u0434\u043a\u0430\u045e \u0442\u0432\u0430\u0456\u0445 \u043d\u0430\u0432\u0435\u043a. \u0406 \u0432\u044b\u0439\u0448\u0430\u045e \u0451\u043d \u0430\u0434 \u044f\u0433\u043e \u0431\u0435\u043b\u044b \u0430\u0434 \u043f\u0440\u0430\u043a\u0430\u0437\u044b, \u044f\u043a \u0441\u044c\u043d\u0435\u0433. "
        }
    ]
}