{
    "translation": "The Apostles' Bible",
    "abbreviation": "ab",
    "lang": "en",
    "language": "English",
    "direction": "LTR",
    "encoding": "UTF-8",
    "book_nr": 20,
    "book_name": "Proverbs",
    "chapter": 6,
    "name": "Proverbs 6",
    "verses": [
        {
            "chapter": 6,
            "verse": 1,
            "name": "Proverbs 6:1",
            "text": "<verse osisID=\"Prov.6.1\">My son, if you become surety for your friend, you shall deliver your hand to an enemy."
        },
        {
            "chapter": 6,
            "verse": 2,
            "name": "Proverbs 6:2",
            "text": "<verse osisID=\"Prov.6.2\">For a man's own lips become a strong snare to him, and he is caught with the lips of his own mouth."
        },
        {
            "chapter": 6,
            "verse": 3,
            "name": "Proverbs 6:3",
            "text": "<verse osisID=\"Prov.6.3\">My son, do what I command you, and deliver yourself; for on your friend's account you have come into the power of evil men: faint not, but stir up even your friend for whom you have become surety."
        },
        {
            "chapter": 6,
            "verse": 4,
            "name": "Proverbs 6:4",
            "text": "<verse osisID=\"Prov.6.4\">Give not sleep to your eyes, nor slumber with your eyelids;"
        },
        {
            "chapter": 6,
            "verse": 5,
            "name": "Proverbs 6:5",
            "text": "<verse osisID=\"Prov.6.5\">that you may deliver yourself as a doe out of the toils, and as a bird out of a snare."
        },
        {
            "chapter": 6,
            "verse": 6,
            "name": "Proverbs 6:6",
            "text": "<verse osisID=\"Prov.6.6\">Go to the ant, O sluggard; and see, and emulate his ways, and become wiser than he."
        },
        {
            "chapter": 6,
            "verse": 7,
            "name": "Proverbs 6:7",
            "text": "<verse osisID=\"Prov.6.7\">For whereas he has no leader, nor anyone to compel him, and is under no master,"
        },
        {
            "chapter": 6,
            "verse": 8,
            "name": "Proverbs 6:8",
            "text": "<verse osisID=\"Prov.6.8\">he prepares food for himself in the summer, and lays up abundant supplies in harvest. <verse osisID=\"Prov.6.8!A\">Or go to the bee, and learn how diligent she is, and how earnestly she is engaged in her work; <verse osisID=\"Prov.6.8!B\">whose labors kings and private men use for health, and she is desired and respected by all: <verse osisID=\"Prov.6.8!C\">though weak in body, she is advanced by honoring wisdom."
        },
        {
            "chapter": 6,
            "verse": 9,
            "name": "Proverbs 6:9",
            "text": "<verse osisID=\"Prov.6.9\">How long will you lie, O sluggard? And when will you awake out of sleep?"
        },
        {
            "chapter": 6,
            "verse": 10,
            "name": "Proverbs 6:10",
            "text": "<verse osisID=\"Prov.6.10\">You sleep a little, and you rest a little, and you slumber a short time, and you fold your arms over your breast a little."
        },
        {
            "chapter": 6,
            "verse": 11,
            "name": "Proverbs 6:11",
            "text": "<verse osisID=\"Prov.6.11\">Then poverty comes upon you as an evil traveler, and your need as a swift courier. <verse osisID=\"Prov.6.11!A\">But if you be diligent, your harvest shall arrive as a fountain, and poverty shall flee away as a bad courier."
        },
        {
            "chapter": 6,
            "verse": 12,
            "name": "Proverbs 6:12",
            "text": "<verse osisID=\"Prov.6.12\">A foolish man and a transgressor goes in ways that are not good."
        },
        {
            "chapter": 6,
            "verse": 13,
            "name": "Proverbs 6:13",
            "text": "<verse osisID=\"Prov.6.13\">And the same winks with the eye, and makes a sign with his foot, and teaches with the beckonings of his fingers."
        },
        {
            "chapter": 6,
            "verse": 14,
            "name": "Proverbs 6:14",
            "text": "<verse osisID=\"Prov.6.14\">His perverse heart devises evils: at all times such a one causes troubles to a city."
        },
        {
            "chapter": 6,
            "verse": 15,
            "name": "Proverbs 6:15",
            "text": "<verse osisID=\"Prov.6.15\">Therefore his destruction shall come suddenly, overthrow and irretrievable ruin."
        },
        {
            "chapter": 6,
            "verse": 16,
            "name": "Proverbs 6:16",
            "text": "<verse osisID=\"Prov.6.16\">For he rejoices in all things which God hates, and he is ruined by reason of impurity of soul."
        },
        {
            "chapter": 6,
            "verse": 17,
            "name": "Proverbs 6:17",
            "text": "<verse osisID=\"Prov.6.17\">The eye of the haughty, an unjust tongue, hands shedding innocent blood,"
        },
        {
            "chapter": 6,
            "verse": 18,
            "name": "Proverbs 6:18",
            "text": "<verse osisID=\"Prov.6.18\">a heart devising evil thoughts, and feet hastening to do evil, are hateful to God."
        },
        {
            "chapter": 6,
            "verse": 19,
            "name": "Proverbs 6:19",
            "text": "<verse osisID=\"Prov.6.19\">An unjust witness kindles falsehoods, and brings on quarrels between brothers."
        },
        {
            "chapter": 6,
            "verse": 20,
            "name": "Proverbs 6:20",
            "text": "<verse osisID=\"Prov.6.20\">My son, keep the laws of your father, and do not reject the ordinances of your mother:"
        },
        {
            "chapter": 6,
            "verse": 21,
            "name": "Proverbs 6:21",
            "text": "<verse osisID=\"Prov.6.21\">but bind them upon your soul continually, and hang them as a chain about your neck."
        },
        {
            "chapter": 6,
            "verse": 22,
            "name": "Proverbs 6:22",
            "text": "<verse osisID=\"Prov.6.22\">Whenever you walk, lead this along and let it be with you, that it may talk with you when you wake."
        },
        {
            "chapter": 6,
            "verse": 23,
            "name": "Proverbs 6:23",
            "text": "<verse osisID=\"Prov.6.23\">For the commandment of the law is a lamp and a light; a way of life; reproof also and correction:"
        },
        {
            "chapter": 6,
            "verse": 24,
            "name": "Proverbs 6:24",
            "text": "<verse osisID=\"Prov.6.24\">to keep you continually from a married woman, and from the flattery of a strange tongue."
        },
        {
            "chapter": 6,
            "verse": 25,
            "name": "Proverbs 6:25",
            "text": "<verse osisID=\"Prov.6.25\">Let not the desire of beauty overcome you, neither be caught by her eyes, or captivated with her eyelids."
        },
        {
            "chapter": 6,
            "verse": 26,
            "name": "Proverbs 6:26",
            "text": "<verse osisID=\"Prov.6.26\">For the value of a harlot is as much as of one loaf of bread, and a woman hunts for the precious souls of men."
        },
        {
            "chapter": 6,
            "verse": 27,
            "name": "Proverbs 6:27",
            "text": "<verse osisID=\"Prov.6.27\">Shall anyone bind fire in his bosom, and not burn his garments?"
        },
        {
            "chapter": 6,
            "verse": 28,
            "name": "Proverbs 6:28",
            "text": "<verse osisID=\"Prov.6.28\">Or will anyone walk on coals of fire, and not burn his feet?"
        },
        {
            "chapter": 6,
            "verse": 29,
            "name": "Proverbs 6:29",
            "text": "<verse osisID=\"Prov.6.29\">So is he that goes in to a married woman; he shall not be held guiltless, neither anyone that touches her."
        },
        {
            "chapter": 6,
            "verse": 30,
            "name": "Proverbs 6:30",
            "text": "<verse osisID=\"Prov.6.30\">It is not to be wondered at if one should be caught stealing, for he steals that when hungry, he may satisfy his soul:"
        },
        {
            "chapter": 6,
            "verse": 31,
            "name": "Proverbs 6:31",
            "text": "<verse osisID=\"Prov.6.31\">but if he should be caught, he shall repay sevenfold, and shall deliver himself by giving all his goods."
        },
        {
            "chapter": 6,
            "verse": 32,
            "name": "Proverbs 6:32",
            "text": "<verse osisID=\"Prov.6.32\">But the adulterer through lack of understanding procures destruction to his soul."
        },
        {
            "chapter": 6,
            "verse": 33,
            "name": "Proverbs 6:33",
            "text": "<verse osisID=\"Prov.6.33\">He endures both pain and disgrace, and his reproach shall never be wiped off."
        },
        {
            "chapter": 6,
            "verse": 34,
            "name": "Proverbs 6:34",
            "text": "<verse osisID=\"Prov.6.34\">For the soul of her husband is full of jealousy: he will not spare in the day of vengeance."
        },
        {
            "chapter": 6,
            "verse": 35,
            "name": "Proverbs 6:35",
            "text": "<verse osisID=\"Prov.6.35\">He will not forego his enmity for any ransom: neither will he be reconciled by many gifts."
        }
    ]
}