{
    "translation": "Greek Modern",
    "abbreviation": "moderngreek",
    "lang": "el",
    "language": "Greek Modern",
    "direction": "LTR",
    "encoding": "UTF-8",
    "book_nr": 11,
    "book_name": "1 Kings",
    "chapter": 9,
    "name": "1 Kings 9",
    "verses": [
        {
            "chapter": 9,
            "verse": 1,
            "name": "1 Kings 9:1",
            "text": "\u039a\u03b1\u03b9 \u03b1\u03c6\u03bf\u03cd \u03b5\u03c4\u03b5\u03bb\u03b5\u03af\u03c9\u03c3\u03b5\u03bd \u03bf \u03a3\u03bf\u03bb\u03bf\u03bc\u03ce\u03bd, \u03bd\u03b1 \u03bf\u03b9\u03ba\u03bf\u03b4\u03bf\u03bc\u03ae \u03c4\u03bf\u03bd \u03bf\u03af\u03ba\u03bf\u03bd \u03c4\u03bf\u03c5 \u039a\u03c5\u03c1\u03af\u03bf\u03c5 \u03ba\u03b1\u03b9 \u03c4\u03bf\u03bd \u03bf\u03af\u03ba\u03bf\u03bd \u03c4\u03bf\u03c5 \u03b2\u03b1\u03c3\u03b9\u03bb\u03ad\u03c9\u03c2 \u03ba\u03b1\u03b9 \u03c0\u03ac\u03bd\u03c4\u03b1 \u03cc\u03c3\u03b1 \u03b5\u03c0\u03b5\u03b8\u03cd\u03bc\u03b5\u03b9 \u03bf \u03a3\u03bf\u03bb\u03bf\u03bc\u03ce\u03bd \u03ba\u03b1\u03b9 \u03ae\u03b8\u03b5\u03bb\u03b5 \u03bd\u03b1 \u03ba\u03ac\u03bc\u03b7, "
        },
        {
            "chapter": 9,
            "verse": 2,
            "name": "1 Kings 9:2",
            "text": "\u03b5\u03c6\u03ac\u03bd\u03b7 \u03bf \u039a\u03cd\u03c1\u03b9\u03bf\u03c2 \u03b5\u03b9\u03c2 \u03c4\u03bf\u03bd \u03a3\u03bf\u03bb\u03bf\u03bc\u03ce\u03bd\u03c4\u03b1 \u03b4\u03b5\u03c5\u03c4\u03ad\u03c1\u03b1\u03bd \u03c6\u03bf\u03c1\u03ac\u03bd, \u03ba\u03b1\u03b8\u03ce\u03c2 \u03b5\u03c6\u03ac\u03bd\u03b7 \u03b5\u03b9\u03c2 \u03b1\u03c5\u03c4\u03cc\u03bd \u03b5\u03bd \u0393\u03b1\u03b2\u03b1\u03ce\u03bd. "
        },
        {
            "chapter": 9,
            "verse": 3,
            "name": "1 Kings 9:3",
            "text": "\u039a\u03b1\u03b9 \u03b5\u03af\u03c0\u03b5\u03bd \u03bf \u039a\u03cd\u03c1\u03b9\u03bf\u03c2 \u03c0\u03c1\u03bf\u03c2 \u03b1\u03c5\u03c4\u03cc\u03bd, \u0389\u03ba\u03bf\u03c5\u03c3\u03b1 \u03c4\u03b7\u03c2 \u03c0\u03c1\u03bf\u03c3\u03b5\u03c5\u03c7\u03ae\u03c2 \u03c3\u03bf\u03c5 \u03ba\u03b1\u03b9 \u03c4\u03b7\u03c2 \u03b4\u03b5\u03ae\u03c3\u03b5\u03ce\u03c2 \u03c3\u03bf\u03c5, \u03c4\u03b7\u03bd \u03bf\u03c0\u03bf\u03af\u03b1\u03bd \u03b5\u03b4\u03b5\u03ae\u03b8\u03b7\u03c2 \u03b5\u03bd\u03ce\u03c0\u03b9\u03cc\u03bd \u03bc\u03bf\u03c5. \u0397\u03b3\u03af\u03b1\u03c3\u03b1 \u03c4\u03bf\u03bd \u03bf\u03af\u03ba\u03bf\u03bd \u03c4\u03bf\u03cd\u03c4\u03bf\u03bd, \u03c4\u03bf\u03bd \u03bf\u03c0\u03bf\u03af\u03bf\u03bd \u03c9\u03ba\u03bf\u03b4\u03cc\u03bc\u03b7\u03c3\u03b1\u03c2, \u03b4\u03b9\u03ac \u03bd\u03b1 \u03b8\u03ad\u03c3\u03c9 \u03b5\u03ba\u03b5\u03af \u03c4\u03bf \u03cc\u03bd\u03bf\u03bc\u03ac \u03bc\u03bf\u03c5 \u03b5\u03b9\u03c2 \u03c4\u03bf\u03bd \u03b1\u03b9\u03ce\u03bd\u03b1\u00b7 \u03ba\u03b1\u03b9 \u03b8\u03ad\u03bb\u03bf\u03c5\u03c3\u03b9\u03bd \u03b5\u03af\u03c3\u03b8\u03b1\u03b9 \u03bf\u03b9 \u03bf\u03c6\u03b8\u03b1\u03bb\u03bc\u03bf\u03af \u03bc\u03bf\u03c5 \u03ba\u03b1\u03b9 \u03b7 \u03ba\u03b1\u03c1\u03b4\u03af\u03b1 \u03bc\u03bf\u03c5 \u03b5\u03ba\u03b5\u03af \u03b4\u03b9\u03ac \u03c0\u03b1\u03bd\u03c4\u03cc\u03c2. "
        },
        {
            "chapter": 9,
            "verse": 4,
            "name": "1 Kings 9:4",
            "text": "\u039a\u03b1\u03b9 \u03c3\u03c5 \u03b5\u03ac\u03bd \u03c0\u03b5\u03c1\u03b9\u03c0\u03b1\u03c4\u03ae\u03c3\u03b7\u03c2 \u03b5\u03bd\u03ce\u03c0\u03b9\u03cc\u03bd \u03bc\u03bf\u03c5, \u03ba\u03b1\u03b8\u03ce\u03c2 \u03c0\u03b5\u03c1\u03b9\u03b5\u03c0\u03ac\u03c4\u03b7\u03c3\u03b5 \u0394\u03b1\u03b2\u03af\u03b4 \u03bf \u03c0\u03b1\u03c4\u03ae\u03c1 \u03c3\u03bf\u03c5, \u03b5\u03bd \u03b1\u03ba\u03b5\u03c1\u03b1\u03b9\u03cc\u03c4\u03b7\u03c4\u03b9 \u03ba\u03b1\u03c1\u03b4\u03af\u03b1\u03c2 \u03ba\u03b1\u03b9 \u03b5\u03bd \u03b5\u03c5\u03b8\u03cd\u03c4\u03b7\u03c4\u03b9, \u03ce\u03c3\u03c4\u03b5 \u03bd\u03b1 \u03ba\u03ac\u03bc\u03bd\u03b7\u03c2 \u03ba\u03b1\u03c4\u03ac \u03c0\u03ac\u03bd\u03c4\u03b1 \u03cc\u03c3\u03b1 \u03c0\u03c1\u03bf\u03c3\u03ad\u03c4\u03b1\u03be\u03b1 \u03b5\u03b9\u03c2 \u03c3\u03b5, \u03bd\u03b1 \u03c6\u03c5\u03bb\u03ac\u03c4\u03c4\u03b7\u03c2 \u03c4\u03b1 \u03b4\u03b9\u03b1\u03c4\u03ac\u03b3\u03bc\u03b1\u03c4\u03ac \u03bc\u03bf\u03c5 \u03ba\u03b1\u03b9 \u03c4\u03b1\u03c2 \u03ba\u03c1\u03af\u03c3\u03b5\u03b9\u03c2 \u03bc\u03bf\u03c5, "
        },
        {
            "chapter": 9,
            "verse": 5,
            "name": "1 Kings 9:5",
            "text": "\u03c4\u03cc\u03c4\u03b5 \u03b8\u03ad\u03bb\u03c9 \u03c3\u03c4\u03b5\u03c1\u03b5\u03ce\u03c3\u03b5\u03b9 \u03c4\u03bf\u03bd \u03b8\u03c1\u03cc\u03bd\u03bf\u03bd \u03c4\u03b7\u03c2 \u03b2\u03b1\u03c3\u03b9\u03bb\u03b5\u03af\u03b1\u03c2 \u03c3\u03bf\u03c5 \u03b5\u03c0\u03af \u03c4\u03bf\u03bd \u0399\u03c3\u03c1\u03b1\u03ae\u03bb \u03b5\u03b9\u03c2 \u03c4\u03bf\u03bd \u03b1\u03b9\u03ce\u03bd\u03b1, \u03ba\u03b1\u03b8\u03ce\u03c2 \u03c5\u03c0\u03b5\u03c3\u03c7\u03ad\u03b8\u03b7\u03bd \u03c0\u03c1\u03bf\u03c2 \u0394\u03b1\u03b2\u03af\u03b4 \u03c4\u03bf\u03bd \u03c0\u03b1\u03c4\u03ad\u03c1\u03b1 \u03c3\u03bf\u03c5, \u03bb\u03ad\u03b3\u03c9\u03bd, \u0394\u03b5\u03bd \u03b8\u03ad\u03bb\u03b5\u03b9 \u03b5\u03ba\u03bb\u03b5\u03af\u03c8\u03b5\u03b9 \u03b5\u03b9\u03c2 \u03c3\u03b5 \u03b1\u03bd\u03ae\u03c1 \u03b5\u03c0\u03ac\u03bd\u03c9\u03b8\u03b5\u03bd \u03c4\u03bf\u03c5 \u03b8\u03c1\u03cc\u03bd\u03bf\u03c5 \u03c4\u03bf\u03c5 \u0399\u03c3\u03c1\u03b1\u03ae\u03bb. "
        },
        {
            "chapter": 9,
            "verse": 6,
            "name": "1 Kings 9:6",
            "text": "\u0395\u03ac\u03bd \u03c0\u03bf\u03c4\u03ad \u03c3\u03c4\u03c1\u03b1\u03c6\u03ae\u03c4\u03b5 \u03b1\u03c0' \u03b5\u03bc\u03bf\u03cd, \u03c3\u03b5\u03b9\u03c2 \u03ae \u03c4\u03b1 \u03c4\u03ad\u03ba\u03bd\u03b1 \u03c3\u03b1\u03c2, \u03ba\u03b1\u03b9 \u03b4\u03b5\u03bd \u03c6\u03c5\u03bb\u03ac\u03be\u03b7\u03c4\u03b5 \u03c4\u03b1\u03c2 \u03b5\u03bd\u03c4\u03bf\u03bb\u03ac\u03c2 \u03bc\u03bf\u03c5, \u03c4\u03b1 \u03b4\u03b9\u03b1\u03c4\u03ac\u03b3\u03bc\u03b1\u03c4\u03ac \u03bc\u03bf\u03c5, \u03c4\u03b1 \u03bf\u03c0\u03bf\u03af\u03b1 \u03ad\u03b8\u03b5\u03c3\u03b1 \u03ad\u03bc\u03c0\u03c1\u03bf\u03c3\u03b8\u03ad\u03bd \u03c3\u03b1\u03c2, \u03b1\u03bb\u03bb\u03ac \u03c5\u03c0\u03ac\u03b3\u03b7\u03c4\u03b5 \u03ba\u03b1\u03b9 \u03bb\u03b1\u03c4\u03c1\u03b5\u03cd\u03c3\u03b7\u03c4\u03b5 \u03ac\u03bb\u03bb\u03bf\u03c5\u03c2 \u03b8\u03b5\u03bf\u03cd\u03c2 \u03ba\u03b1\u03b9 \u03c0\u03c1\u03bf\u03c3\u03ba\u03c5\u03bd\u03ae\u03c3\u03b7\u03c4\u03b5 \u03b1\u03c5\u03c4\u03bf\u03cd\u03c2, "
        },
        {
            "chapter": 9,
            "verse": 7,
            "name": "1 Kings 9:7",
            "text": "\u03c4\u03cc\u03c4\u03b5 \u03b8\u03ad\u03bb\u03c9 \u03b5\u03ba\u03c1\u03b9\u03b6\u03ce\u03c3\u03b5\u03b9 \u03c4\u03bf\u03bd \u0399\u03c3\u03c1\u03b1\u03ae\u03bb \u03b1\u03c0\u03cc \u03c0\u03c1\u03bf\u03c3\u03ce\u03c0\u03bf\u03c5 \u03c4\u03b7\u03c2 \u03b3\u03b7\u03c2, \u03c4\u03b7\u03bd \u03bf\u03c0\u03bf\u03af\u03b1\u03bd \u03ad\u03b4\u03c9\u03ba\u03b1 \u03b5\u03b9\u03c2 \u03b1\u03c5\u03c4\u03bf\u03cd\u03c2\u00b7 \u03ba\u03b1\u03b9 \u03c4\u03bf\u03bd \u03bf\u03af\u03ba\u03bf\u03bd \u03c4\u03bf\u03cd\u03c4\u03bf\u03bd, \u03c4\u03bf\u03bd \u03bf\u03c0\u03bf\u03af\u03bf\u03bd \u03b7\u03b3\u03af\u03b1\u03c3\u03b1 \u03b4\u03b9\u03ac \u03c4\u03bf \u03cc\u03bd\u03bf\u03bc\u03ac \u03bc\u03bf\u03c5, \u03b8\u03ad\u03bb\u03c9 \u03b1\u03c0\u03bf\u03c1\u03c1\u03af\u03c8\u03b5\u03b9 \u03b1\u03c0\u03cc \u03c0\u03c1\u03bf\u03c3\u03ce\u03c0\u03bf\u03c5 \u03bc\u03bf\u03c5\u00b7 \u03ba\u03b1\u03b9 \u03bf \u0399\u03c3\u03c1\u03b1\u03ae\u03bb \u03b8\u03ad\u03bb\u03b5\u03b9 \u03b5\u03af\u03c3\u03b8\u03b1\u03b9 \u03b5\u03b9\u03c2 \u03c0\u03b1\u03c1\u03bf\u03b9\u03bc\u03af\u03b1\u03bd \u03ba\u03b1\u03b9 \u03b5\u03bc\u03c0\u03b1\u03b9\u03b3\u03bc\u03cc\u03bd \u03bc\u03b5\u03c4\u03b1\u03be\u03cd \u03c0\u03ac\u03bd\u03c4\u03c9\u03bd \u03c4\u03c9\u03bd \u03bb\u03b1\u03ce\u03bd. "
        },
        {
            "chapter": 9,
            "verse": 8,
            "name": "1 Kings 9:8",
            "text": "\u03a0\u03b5\u03c1\u03af \u03b4\u03b5 \u03c4\u03bf\u03c5 \u03bf\u03af\u03ba\u03bf\u03c5 \u03c4\u03bf\u03cd\u03c4\u03bf\u03c5, \u03cc\u03c3\u03c4\u03b9\u03c2 \u03ad\u03b3\u03b5\u03b9\u03bd\u03b5 \u03c4\u03cc\u03c3\u03bf\u03bd \u03c5\u03c8\u03b7\u03bb\u03cc\u03c2, \u03c0\u03b1\u03c2 \u03bf \u03b4\u03b9\u03b1\u03b2\u03b1\u03af\u03bd\u03c9\u03bd \u03c0\u03bb\u03b7\u03c3\u03af\u03bf\u03bd \u03b1\u03c5\u03c4\u03bf\u03cd \u03b8\u03ad\u03bb\u03b5\u03b9 \u03bc\u03ad\u03bd\u03b5\u03b9 \u03ad\u03ba\u03b8\u03b1\u03bc\u03b2\u03bf\u03c2 \u03ba\u03b1\u03b9 \u03b8\u03ad\u03bb\u03b5\u03b9 \u03ba\u03ac\u03bc\u03bd\u03b5\u03b9 \u03c3\u03c5\u03c1\u03b9\u03b3\u03bc\u03cc\u03bd\u00b7 \u03ba\u03b1\u03b9 \u03b8\u03ad\u03bb\u03bf\u03c5\u03c3\u03b9 \u03bb\u03ad\u03b3\u03b5\u03b9, \u0394\u03b9\u03ac \u03c4\u03b9 \u03bf \u039a\u03cd\u03c1\u03b9\u03bf\u03c2 \u03ad\u03ba\u03b1\u03bc\u03b5\u03bd \u03bf\u03cd\u03c4\u03c9\u03c2 \u03b5\u03b9\u03c2 \u03c4\u03b7\u03bd \u03b3\u03b7\u03bd \u03c4\u03b1\u03cd\u03c4\u03b7\u03bd \u03ba\u03b1\u03b9 \u03b5\u03b9\u03c2 \u03c4\u03bf\u03bd \u03bf\u03af\u03ba\u03bf\u03bd \u03c4\u03bf\u03cd\u03c4\u03bf\u03bd; "
        },
        {
            "chapter": 9,
            "verse": 9,
            "name": "1 Kings 9:9",
            "text": "\u039a\u03b1\u03b9 \u03b8\u03ad\u03bb\u03bf\u03c5\u03c3\u03b9\u03bd \u03b1\u03c0\u03bf\u03ba\u03c1\u03af\u03bd\u03b5\u03c3\u03b8\u03b1\u03b9, \u0395\u03c0\u03b5\u03b9\u03b4\u03ae \u03b5\u03b3\u03ba\u03b1\u03c4\u03ad\u03bb\u03b9\u03c0\u03bf\u03bd \u039a\u03cd\u03c1\u03b9\u03bf\u03bd \u03c4\u03bf\u03bd \u0398\u03b5\u03cc\u03bd \u03b1\u03c5\u03c4\u03ce\u03bd, \u03cc\u03c3\u03c4\u03b9\u03c2 \u03b5\u03be\u03ae\u03b3\u03b1\u03b3\u03b5 \u03c4\u03bf\u03c5\u03c2 \u03c0\u03b1\u03c4\u03ad\u03c1\u03b1\u03c2 \u03b1\u03c5\u03c4\u03ce\u03bd \u03b5\u03ba \u03b3\u03b7\u03c2 \u0391\u03b9\u03b3\u03cd\u03c0\u03c4\u03bf\u03c5, \u03ba\u03b1\u03b9 \u03c0\u03c1\u03bf\u03c3\u03b5\u03ba\u03bf\u03bb\u03bb\u03ae\u03b8\u03b7\u03c3\u03b1\u03bd \u03b5\u03b9\u03c2 \u03ac\u03bb\u03bb\u03bf\u03c5\u03c2 \u03b8\u03b5\u03bf\u03cd\u03c2 \u03ba\u03b1\u03b9 \u03c0\u03c1\u03bf\u03c3\u03b5\u03ba\u03cd\u03bd\u03b7\u03c3\u03b1\u03bd \u03b1\u03c5\u03c4\u03bf\u03cd\u03c2 \u03ba\u03b1\u03b9 \u03b5\u03bb\u03ac\u03c4\u03c1\u03b5\u03c5\u03c3\u03b1\u03bd \u03b1\u03c5\u03c4\u03bf\u03cd\u03c2, \u03b4\u03b9\u03ac \u03c4\u03bf\u03cd\u03c4\u03bf \u03bf \u039a\u03cd\u03c1\u03b9\u03bf\u03c2 \u03b5\u03c0\u03ad\u03c6\u03b5\u03c1\u03b5\u03bd \u03b5\u03c0' \u03b1\u03c5\u03c4\u03bf\u03cd\u03c2 \u03ac\u03c0\u03b1\u03bd \u03c4\u03bf\u03cd\u03c4\u03bf \u03c4\u03bf \u03ba\u03b1\u03ba\u03cc\u03bd. "
        },
        {
            "chapter": 9,
            "verse": 10,
            "name": "1 Kings 9:10",
            "text": "\u0395\u03bd \u03b4\u03b5 \u03c4\u03c9 \u03c4\u03ad\u03bb\u03b5\u03b9 \u03c4\u03c9\u03bd \u03b5\u03af\u03ba\u03bf\u03c3\u03b9 \u03b5\u03c4\u03ce\u03bd \u03ba\u03b1\u03b8' \u03b1 \u03bf \u03a3\u03bf\u03bb\u03bf\u03bc\u03ce\u03bd \u03c9\u03ba\u03bf\u03b4\u03cc\u03bc\u03b7\u03c3\u03b5 \u03c4\u03bf\u03c5\u03c2 \u03b4\u03cd\u03bf \u03bf\u03af\u03ba\u03bf\u03c5\u03c2, \u03c4\u03bf\u03bd \u03bf\u03af\u03ba\u03bf\u03bd \u03c4\u03bf\u03c5 \u039a\u03c5\u03c1\u03af\u03bf\u03c5 \u03ba\u03b1\u03b9 \u03c4\u03bf\u03bd \u03bf\u03af\u03ba\u03bf\u03bd \u03c4\u03bf\u03c5 \u03b2\u03b1\u03c3\u03b9\u03bb\u03ad\u03c9\u03c2, "
        },
        {
            "chapter": 9,
            "verse": 11,
            "name": "1 Kings 9:11",
            "text": "\u03bf \u03b4\u03b5 \u03a7\u03b5\u03b9\u03c1\u03ac\u03bc \u03bf \u03b2\u03b1\u03c3\u03b9\u03bb\u03b5\u03cd\u03c2 \u03c4\u03b7\u03c2 \u03a4\u03cd\u03c1\u03bf\u03c5 \u03b5\u03af\u03c7\u03b5 \u03b2\u03bf\u03b7\u03b8\u03ae\u03c3\u03b5\u03b9 \u03c4\u03bf\u03bd \u03a3\u03bf\u03bb\u03bf\u03bc\u03ce\u03bd\u03c4\u03b1 \u03bc\u03b5 \u03be\u03cd\u03bb\u03b1 \u03ba\u03ad\u03b4\u03c1\u03bf\u03c5 \u03ba\u03b1\u03b9 \u03bc\u03b5 \u03be\u03cd\u03bb\u03b1 \u03c0\u03b5\u03cd\u03ba\u03b7\u03c2 \u03ba\u03b1\u03b9 \u03bc\u03b5 \u03c7\u03c1\u03c5\u03c3\u03af\u03bf\u03bd, \u03ba\u03b1\u03b8' \u03cc\u03bb\u03b7\u03bd \u03c4\u03b7\u03bd \u03b5\u03c0\u03b9\u03b8\u03c5\u03bc\u03af\u03b1\u03bd \u03b1\u03c5\u03c4\u03bf\u03cd, \u03c4\u03cc\u03c4\u03b5 \u03bf \u03b2\u03b1\u03c3\u03b9\u03bb\u03b5\u03cd\u03c2 \u03a3\u03bf\u03bb\u03bf\u03bc\u03ce\u03bd \u03ad\u03b4\u03c9\u03ba\u03b5\u03bd \u03b5\u03b9\u03c2 \u03c4\u03bf\u03bd \u03a7\u03b5\u03b9\u03c1\u03ac\u03bc \u03b5\u03af\u03ba\u03bf\u03c3\u03b9 \u03c0\u03cc\u03bb\u03b5\u03b9\u03c2 \u03b5\u03bd \u03c4\u03b7 \u03b3\u03b7 \u03c4\u03b7\u03c2 \u0393\u03b1\u03bb\u03b9\u03bb\u03b1\u03af\u03b1\u03c2. "
        },
        {
            "chapter": 9,
            "verse": 12,
            "name": "1 Kings 9:12",
            "text": "\u039a\u03b1\u03b9 \u03b5\u03be\u03ae\u03bb\u03b8\u03b5\u03bd \u03bf \u03a7\u03b5\u03b9\u03c1\u03ac\u03bc \u03b1\u03c0\u03cc \u03c4\u03b7\u03c2 \u03a4\u03cd\u03c1\u03bf\u03c5 \u03b4\u03b9\u03ac \u03bd\u03b1 \u03af\u03b4\u03b7 \u03c4\u03b1\u03c2 \u03c0\u03cc\u03bb\u03b5\u03b9\u03c2, \u03c4\u03b1\u03c2 \u03bf\u03c0\u03bf\u03af\u03b1\u03c2 \u03ad\u03b4\u03c9\u03ba\u03b5\u03bd \u03bf \u03a3\u03bf\u03bb\u03bf\u03bc\u03ce\u03bd \u03b5\u03b9\u03c2 \u03b1\u03c5\u03c4\u03cc\u03bd\u00b7 \u03ba\u03b1\u03b9 \u03b4\u03b5\u03bd \u03ae\u03c1\u03b5\u03c3\u03b1\u03bd \u03b5\u03b9\u03c2 \u03b1\u03c5\u03c4\u03cc\u03bd. "
        },
        {
            "chapter": 9,
            "verse": 13,
            "name": "1 Kings 9:13",
            "text": "\u039a\u03b1\u03b9 \u03b5\u03af\u03c0\u03b5, \u03a4\u03b9 \u03b5\u03af\u03bd\u03b1\u03b9 \u03b1\u03b9 \u03c0\u03cc\u03bb\u03b5\u03b9\u03c2 \u03b1\u03cd\u03c4\u03b1\u03b9, \u03c4\u03b1\u03c2 \u03bf\u03c0\u03bf\u03af\u03b1\u03c2 \u03bc\u03bf\u03b9 \u03ad\u03b4\u03c9\u03ba\u03b1\u03c2, \u03b1\u03b4\u03b5\u03bb\u03c6\u03ad \u03bc\u03bf\u03c5; \u03ba\u03b1\u03b9 \u03b5\u03ba\u03ac\u03bb\u03b5\u03c3\u03b5\u03bd \u03b1\u03c5\u03c4\u03ac\u03c2 \u03b3\u03b7\u03bd \u039a\u03b1\u03b2\u03bf\u03cd\u03bb, \u03ad\u03c9\u03c2 \u03c4\u03b7\u03c2 \u03b7\u03bc\u03ad\u03c1\u03b1\u03c2 \u03c4\u03b1\u03cd\u03c4\u03b7\u03c2. "
        },
        {
            "chapter": 9,
            "verse": 14,
            "name": "1 Kings 9:14",
            "text": "\u039a\u03b1\u03b9 \u03b1\u03c0\u03ad\u03c3\u03c4\u03b5\u03b9\u03bb\u03b5\u03bd \u03bf \u03a7\u03b5\u03b9\u03c1\u03ac\u03bc \u03b5\u03b9\u03c2 \u03c4\u03bf\u03bd \u03b2\u03b1\u03c3\u03b9\u03bb\u03ad\u03b1 \u03b5\u03ba\u03b1\u03c4\u03cc\u03bd \u03b5\u03af\u03ba\u03bf\u03c3\u03b9 \u03c4\u03ac\u03bb\u03b1\u03bd\u03c4\u03b1 \u03c7\u03c1\u03c5\u03c3\u03af\u03bf\u03c5. "
        },
        {
            "chapter": 9,
            "verse": 15,
            "name": "1 Kings 9:15",
            "text": "\u039f\u03cd\u03c4\u03bf\u03c2 \u03b4\u03b5 \u03b5\u03af\u03bd\u03b1\u03b9 \u03bf \u03c4\u03c1\u03cc\u03c0\u03bf\u03c2 \u03c4\u03bf\u03c5 \u03c6\u03cc\u03c1\u03bf\u03c5, \u03c4\u03bf\u03bd \u03bf\u03c0\u03bf\u03af\u03bf\u03bd \u03b5\u03c0\u03ad\u03b2\u03b1\u03bb\u03b5\u03bd \u03bf \u03b2\u03b1\u03c3\u03b9\u03bb\u03b5\u03cd\u03c2 \u03a3\u03bf\u03bb\u03bf\u03bc\u03ce\u03bd, \u03b4\u03b9\u03ac \u03bd\u03b1 \u03bf\u03b9\u03ba\u03bf\u03b4\u03bf\u03bc\u03ae\u03c3\u03b7 \u03c4\u03bf\u03bd \u03bf\u03af\u03ba\u03bf\u03bd \u03c4\u03bf\u03c5 \u039a\u03c5\u03c1\u03af\u03bf\u03c5 \u03ba\u03b1\u03b9 \u03c4\u03bf\u03bd \u03bf\u03af\u03ba\u03bf\u03bd \u03b5\u03b1\u03c5\u03c4\u03bf\u03cd \u03ba\u03b1\u03b9 \u03c4\u03b7\u03bd \u039c\u03b9\u03bb\u03bb\u03ce \u03ba\u03b1\u03b9 \u03c4\u03bf \u03c0\u03b5\u03c1\u03b9\u03c4\u03b5\u03af\u03c7\u03b9\u03c3\u03bc\u03b1 \u03c4\u03b7\u03c2 \u0399\u03b5\u03c1\u03bf\u03c5\u03c3\u03b1\u03bb\u03ae\u03bc \u03ba\u03b1\u03b9 \u03c4\u03b7\u03bd \u0391\u03c3\u03ce\u03c1 \u03ba\u03b1\u03b9 \u03c4\u03b7\u03bd \u039c\u03b5\u03b3\u03b9\u03b4\u03b4\u03ce \u03ba\u03b1\u03b9 \u03c4\u03b7\u03bd \u0393\u03b5\u03b6\u03ad\u03c1. "
        },
        {
            "chapter": 9,
            "verse": 16,
            "name": "1 Kings 9:16",
            "text": "\u0394\u03b9\u03cc\u03c4\u03b9 \u03a6\u03b1\u03c1\u03b1\u03ce \u03bf \u03b2\u03b1\u03c3\u03b9\u03bb\u03b5\u03cd\u03c2 \u0391\u03b9\u03b3\u03cd\u03c0\u03c4\u03bf\u03c5 \u03b5\u03af\u03c7\u03b5\u03bd \u03b1\u03bd\u03b1\u03b2\u03ae \u03ba\u03b1\u03b9 \u03ba\u03c5\u03c1\u03b9\u03b5\u03cd\u03c3\u03b5\u03b9 \u03c4\u03b7\u03bd \u0393\u03b5\u03b6\u03ad\u03c1 \u03ba\u03b1\u03b9 \u03ba\u03b1\u03c4\u03b1\u03ba\u03b1\u03cd\u03c3\u03b5\u03b9 \u03b1\u03c5\u03c4\u03ae\u03bd \u03b5\u03bd \u03c0\u03c5\u03c1\u03af, \u03ba\u03b1\u03b9 \u03c4\u03bf\u03c5\u03c2 \u03a7\u03b1\u03bd\u03b1\u03bd\u03b1\u03af\u03bf\u03c5\u03c2 \u03c4\u03bf\u03c5\u03c2 \u03ba\u03b1\u03c4\u03bf\u03b9\u03ba\u03bf\u03cd\u03bd\u03c4\u03b1\u03c2 \u03b5\u03bd \u03c4\u03b7 \u03c0\u03cc\u03bb\u03b5\u03b9 \u03b5\u03af\u03c7\u03b5 \u03c6\u03bf\u03bd\u03b5\u03cd\u03c3\u03b5\u03b9 \u03ba\u03b1\u03b9 \u03b5\u03af\u03c7\u03b5 \u03b4\u03ce\u03c3\u03b5\u03b9 \u03b1\u03c5\u03c4\u03ae\u03bd \u03b4\u03ce\u03c1\u03bf\u03bd \u03b5\u03b9\u03c2 \u03c4\u03b7\u03bd \u03b8\u03c5\u03b3\u03b1\u03c4\u03ad\u03c1\u03b1 \u03b1\u03c5\u03c4\u03bf\u03cd, \u03c4\u03b7\u03bd \u03b3\u03c5\u03bd\u03b1\u03af\u03ba\u03b1 \u03c4\u03bf\u03c5 \u03a3\u03bf\u03bb\u03bf\u03bc\u03ce\u03bd\u03c4\u03bf\u03c2. "
        },
        {
            "chapter": 9,
            "verse": 17,
            "name": "1 Kings 9:17",
            "text": "\u039a\u03b1\u03b9 \u03c9\u03ba\u03bf\u03b4\u03cc\u03bc\u03b7\u03c3\u03b5\u03bd \u03bf \u03a3\u03bf\u03bb\u03bf\u03bc\u03ce\u03bd \u03c4\u03b7\u03bd \u0393\u03b5\u03b6\u03ad\u03c1 \u03ba\u03b1\u03b9 \u03c4\u03b7\u03bd \u0392\u03b1\u03b9\u03b8-\u03c9\u03c1\u03ce\u03bd \u03c4\u03b7\u03bd \u03ba\u03b1\u03c4\u03c9\u03c4\u03ad\u03c1\u03b1\u03bd, "
        },
        {
            "chapter": 9,
            "verse": 18,
            "name": "1 Kings 9:18",
            "text": "\u03ba\u03b1\u03b9 \u03c4\u03b7\u03bd \u0392\u03b1\u03b1\u03bb\u03ac\u03b8, \u03ba\u03b1\u03b9 \u03c4\u03b7\u03bd \u0398\u03b1\u03b4\u03bc\u03ce\u03c1 \u03b5\u03bd \u03c4\u03b7 \u03b5\u03c1\u03ae\u03bc\u03c9 \u03c4\u03b7\u03c2 \u03b3\u03b7\u03c2, "
        },
        {
            "chapter": 9,
            "verse": 19,
            "name": "1 Kings 9:19",
            "text": "\u03ba\u03b1\u03b9 \u03c0\u03ac\u03c3\u03b1\u03c2 \u03c4\u03b1\u03c2 \u03c0\u03cc\u03bb\u03b5\u03b9\u03c2 \u03c4\u03c9\u03bd \u03b1\u03c0\u03bf\u03b8\u03b7\u03ba\u03ce\u03bd, \u03c4\u03b1\u03c2 \u03bf\u03c0\u03bf\u03af\u03b1\u03c2 \u03b5\u03af\u03c7\u03b5\u03bd \u03bf \u03a3\u03bf\u03bb\u03bf\u03bc\u03ce\u03bd, \u03ba\u03b1\u03b9 \u03c4\u03b1\u03c2 \u03c0\u03cc\u03bb\u03b5\u03b9\u03c2 \u03c4\u03c9\u03bd \u03b1\u03bc\u03b1\u03be\u03ce\u03bd \u03ba\u03b1\u03b9 \u03c4\u03b1\u03c2 \u03c0\u03cc\u03bb\u03b5\u03b9\u03c2 \u03c4\u03c9\u03bd \u03b9\u03c0\u03c0\u03ad\u03c9\u03bd \u03ba\u03b1\u03b9 \u03cc,\u03c4\u03b9 \u03b5\u03c0\u03b5\u03b8\u03cd\u03bc\u03b7\u03c3\u03b5\u03bd \u03bf \u03a3\u03bf\u03bb\u03bf\u03bc\u03ce\u03bd \u03bd\u03b1 \u03bf\u03b9\u03ba\u03bf\u03b4\u03bf\u03bc\u03ae\u03c3\u03b7 \u03b5\u03bd \u0399\u03b5\u03c1\u03bf\u03c5\u03c3\u03b1\u03bb\u03ae\u03bc \u03ba\u03b1\u03b9 \u03b5\u03bd \u03c4\u03c9 \u039b\u03b9\u03b2\u03ac\u03bd\u03c9 \u03ba\u03b1\u03b9 \u03b5\u03bd \u03c0\u03ac\u03c3\u03b7 \u03c4\u03b7 \u03b3\u03b7 \u03c4\u03b7\u03c2 \u03b5\u03c0\u03b9\u03ba\u03c1\u03b1\u03c4\u03b5\u03af\u03b1\u03c2 \u03b1\u03c5\u03c4\u03bf\u03cd. "
        },
        {
            "chapter": 9,
            "verse": 20,
            "name": "1 Kings 9:20",
            "text": "\u03a0\u03ac\u03bd\u03c4\u03b1 \u03b4\u03b5 \u03c4\u03bf\u03bd \u03bb\u03b1\u03cc\u03bd \u03c4\u03bf\u03bd \u03b5\u03bd\u03b1\u03c0\u03bf\u03bb\u03b5\u03b9\u03c6\u03b8\u03ad\u03bd\u03c4\u03b1 \u03b5\u03ba \u03c4\u03c9\u03bd \u0391\u03bc\u03bf\u03c1\u03c1\u03b1\u03af\u03c9\u03bd, \u03c4\u03c9\u03bd \u03a7\u03b5\u03c4\u03c4\u03b1\u03af\u03c9\u03bd, \u03c4\u03c9\u03bd \u03a6\u03b5\u03c1\u03b5\u03b6\u03b1\u03af\u03c9\u03bd, \u03c4\u03c9\u03bd \u0395\u03c5\u03b1\u03af\u03c9\u03bd \u03ba\u03b1\u03b9 \u03c4\u03c9\u03bd \u0399\u03b5\u03b2\u03bf\u03c5\u03c3\u03b1\u03af\u03c9\u03bd, \u03bf\u03af\u03c4\u03b9\u03bd\u03b5\u03c2 \u03b4\u03b5\u03bd \u03ae\u03c3\u03b1\u03bd \u03b5\u03ba \u03c4\u03c9\u03bd \u03c5\u03b9\u03ce\u03bd \u0399\u03c3\u03c1\u03b1\u03ae\u03bb, "
        },
        {
            "chapter": 9,
            "verse": 21,
            "name": "1 Kings 9:21",
            "text": "\u03b1\u03bb\u03bb' \u03b5\u03ba \u03c4\u03c9\u03bd \u03c4\u03ad\u03ba\u03bd\u03c9\u03bd \u03b5\u03ba\u03b5\u03af\u03bd\u03c9\u03bd \u03c4\u03c9\u03bd \u03b5\u03bd\u03b1\u03c0\u03bf\u03bb\u03b5\u03b9\u03c6\u03b8\u03ad\u03bd\u03c4\u03c9\u03bd \u03b5\u03bd \u03c4\u03b7 \u03b3\u03b7, \u03c4\u03bf\u03c5\u03c2 \u03bf\u03c0\u03bf\u03af\u03bf\u03c5\u03c2 \u03bf\u03b9 \u03c5\u03b9\u03bf\u03af \u0399\u03c3\u03c1\u03b1\u03ae\u03bb \u03b4\u03b5\u03bd \u03b7\u03b4\u03c5\u03bd\u03ae\u03b8\u03b7\u03c3\u03b1\u03bd \u03bd\u03b1 \u03b5\u03be\u03bf\u03bb\u03bf\u03b8\u03c1\u03b5\u03cd\u03c3\u03c9\u03c3\u03b9\u03bd, \u03b5\u03c0\u03af \u03c4\u03bf\u03cd\u03c4\u03bf\u03c5\u03c2 \u03bf \u03a3\u03bf\u03bb\u03bf\u03bc\u03ce\u03bd \u03b5\u03c0\u03ad\u03b2\u03b1\u03bb\u03b5 \u03c6\u03cc\u03c1\u03bf\u03bd \u03ad\u03c9\u03c2 \u03c4\u03b7\u03c2 \u03b7\u03bc\u03ad\u03c1\u03b1\u03c2 \u03c4\u03b1\u03cd\u03c4\u03b7\u03c2. "
        },
        {
            "chapter": 9,
            "verse": 22,
            "name": "1 Kings 9:22",
            "text": "\u0395\u03ba \u03b4\u03b5 \u03c4\u03c9\u03bd \u03c5\u03b9\u03ce\u03bd \u0399\u03c3\u03c1\u03b1\u03ae\u03bb \u03bf \u03a3\u03bf\u03bb\u03bf\u03bc\u03ce\u03bd \u03b4\u03b5\u03bd \u03ad\u03ba\u03b1\u03bc\u03b5\u03bd \u03bf\u03c5\u03b4\u03ad\u03bd\u03b1 \u03b4\u03bf\u03cd\u03bb\u03bf\u03bd\u00b7 \u03b4\u03b9\u03cc\u03c4\u03b9 \u03ae\u03c3\u03b1\u03bd \u03ac\u03bd\u03b4\u03c1\u03b5\u03c2 \u03c0\u03bf\u03bb\u03b5\u03bc\u03b9\u03c3\u03c4\u03b1\u03af \u03ba\u03b1\u03b9 \u03b8\u03b5\u03c1\u03ac\u03c0\u03bf\u03bd\u03c4\u03b5\u03c2 \u03b1\u03c5\u03c4\u03bf\u03cd \u03ba\u03b1\u03b9 \u03bc\u03b5\u03b3\u03b9\u03c3\u03c4\u03ac\u03bd\u03b5\u03c2 \u03b1\u03c5\u03c4\u03bf\u03cd \u03ba\u03b1\u03b9 \u03c4\u03b1\u03be\u03af\u03b1\u03c1\u03c7\u03bf\u03b9 \u03b1\u03c5\u03c4\u03bf\u03cd \u03ba\u03b1\u03b9 \u03ac\u03c1\u03c7\u03bf\u03bd\u03c4\u03b5\u03c2 \u03c4\u03c9\u03bd \u03b1\u03bc\u03b1\u03be\u03ce\u03bd \u03b1\u03c5\u03c4\u03bf\u03cd \u03ba\u03b1\u03b9 \u03c4\u03c9\u03bd \u03b9\u03c0\u03c0\u03ad\u03c9\u03bd \u03b1\u03c5\u03c4\u03bf\u03cd. "
        },
        {
            "chapter": 9,
            "verse": 23,
            "name": "1 Kings 9:23",
            "text": "\u039f\u03b9 \u03b4\u03b5 \u03b1\u03c1\u03c7\u03b7\u03b3\u03bf\u03af \u03c4\u03c9\u03bd \u03b5\u03c0\u03b9\u03c3\u03c4\u03b1\u03c4\u03bf\u03cd\u03bd\u03c4\u03c9\u03bd \u03b5\u03c0\u03af \u03c4\u03b1 \u03ad\u03c1\u03b3\u03b1 \u03c4\u03bf\u03c5 \u03a3\u03bf\u03bb\u03bf\u03bc\u03ce\u03bd\u03c4\u03bf\u03c2, \u03ae\u03c3\u03b1\u03bd \u03c0\u03b5\u03bd\u03c4\u03b1\u03ba\u03cc\u03c3\u03b9\u03bf\u03b9 \u03c0\u03b5\u03bd\u03c4\u03ae\u03ba\u03bf\u03bd\u03c4\u03b1, \u03b5\u03be\u03bf\u03c5\u03c3\u03b9\u03ac\u03b6\u03bf\u03bd\u03c4\u03b5\u03c2 \u03b5\u03c0\u03af \u03c4\u03bf\u03bd \u03bb\u03b1\u03cc\u03bd \u03c4\u03bf\u03bd \u03b4\u03bf\u03c5\u03bb\u03b5\u03cd\u03bf\u03bd\u03c4\u03b1 \u03b5\u03b9\u03c2 \u03c4\u03b1 \u03ad\u03c1\u03b3\u03b1. "
        },
        {
            "chapter": 9,
            "verse": 24,
            "name": "1 Kings 9:24",
            "text": "\u0391\u03bd\u03ad\u03b2\u03b7 \u03b4\u03b5 \u03b7 \u03b8\u03c5\u03b3\u03ac\u03c4\u03b7\u03c1 \u03c4\u03bf\u03c5 \u03a6\u03b1\u03c1\u03b1\u03ce \u03b5\u03ba \u03c4\u03b7\u03c2 \u03c0\u03cc\u03bb\u03b5\u03c9\u03c2 \u0394\u03b1\u03b2\u03af\u03b4 \u03b5\u03b9\u03c2 \u03c4\u03bf\u03bd \u03bf\u03af\u03ba\u03bf\u03bd \u03b1\u03c5\u03c4\u03ae\u03c2, \u03c4\u03bf\u03bd \u03bf\u03c0\u03bf\u03af\u03bf\u03bd \u03bf \u03a3\u03bf\u03bb\u03bf\u03bc\u03ce\u03bd \u03c9\u03ba\u03bf\u03b4\u03cc\u03bc\u03b7\u03c3\u03b5 \u03b4\u03b9' \u03b1\u03c5\u03c4\u03ae\u03bd\u00b7 \u03c4\u03cc\u03c4\u03b5 \u03c9\u03ba\u03bf\u03b4\u03cc\u03bc\u03b7\u03c3\u03b5 \u03c4\u03b7\u03bd \u039c\u03b9\u03bb\u03bb\u03ce. "
        },
        {
            "chapter": 9,
            "verse": 25,
            "name": "1 Kings 9:25",
            "text": "\u039a\u03b1\u03b9 \u03c0\u03c1\u03bf\u03c3\u03ad\u03c6\u03b5\u03c1\u03b5\u03bd \u03bf \u03a3\u03bf\u03bb\u03bf\u03bc\u03ce\u03bd \u03c4\u03c1\u03af\u03c2 \u03c4\u03bf\u03c5 \u03b5\u03bd\u03b9\u03b1\u03c5\u03c4\u03bf\u03cd \u03bf\u03bb\u03bf\u03ba\u03b1\u03c5\u03c4\u03ce\u03bc\u03b1\u03c4\u03b1 \u03ba\u03b1\u03b9 \u03b5\u03b9\u03c1\u03b7\u03bd\u03b9\u03ba\u03ac\u03c2 \u03c0\u03c1\u03bf\u03c3\u03c6\u03bf\u03c1\u03ac\u03c2 \u03b5\u03c0\u03af \u03c4\u03bf\u03c5 \u03b8\u03c5\u03c3\u03b9\u03b1\u03c3\u03c4\u03b7\u03c1\u03af\u03bf\u03c5, \u03c4\u03bf \u03bf\u03c0\u03bf\u03af\u03bf\u03bd \u03c9\u03ba\u03bf\u03b4\u03cc\u03bc\u03b7\u03c3\u03b5\u03bd \u03b5\u03b9\u03c2 \u03c4\u03bf\u03bd \u039a\u03cd\u03c1\u03b9\u03bf\u03bd, \u03ba\u03b1\u03b9 \u03b5\u03b8\u03c5\u03bc\u03af\u03b1\u03b6\u03b5\u03bd \u03b5\u03c0\u03af \u03c4\u03bf\u03c5 \u03cc\u03bd\u03c4\u03bf\u03c2 \u03ad\u03bc\u03c0\u03c1\u03bf\u03c3\u03b8\u03b5\u03bd \u03c4\u03bf\u03c5 \u039a\u03c5\u03c1\u03af\u03bf\u03c5\u00b7 \u03bf\u03cd\u03c4\u03c9\u03c2 \u03b5\u03c4\u03b5\u03bb\u03b5\u03af\u03c9\u03c3\u03b5 \u03c4\u03bf\u03bd \u03bf\u03af\u03ba\u03bf\u03bd. "
        },
        {
            "chapter": 9,
            "verse": 26,
            "name": "1 Kings 9:26",
            "text": "\u0388\u03ba\u03b1\u03bc\u03b5 \u03b4\u03b5 \u03c3\u03c4\u03cc\u03bb\u03bf\u03bd \u03bf \u03b2\u03b1\u03c3\u03b9\u03bb\u03b5\u03cd\u03c2 \u03a3\u03bf\u03bb\u03bf\u03bc\u03ce\u03bd \u03b5\u03bd \u0395\u03c3\u03b9\u03ce\u03bd-\u03b3\u03ac\u03b2\u03b5\u03c1, \u03ae\u03c4\u03b9\u03c2 \u03b5\u03af\u03bd\u03b1\u03b9 \u03c0\u03bb\u03b7\u03c3\u03af\u03bf\u03bd \u03c4\u03b7\u03c2 \u0391\u03b9\u03bb\u03ce\u03b8, \u03b5\u03c0\u03af \u03c4\u03bf \u03c7\u03b5\u03af\u03bb\u03bf\u03c2 \u03c4\u03b7\u03c2 \u0395\u03c1\u03c5\u03b8\u03c1\u03ac\u03c2 \u03b8\u03b1\u03bb\u03ac\u03c3\u03c3\u03b7\u03c2, \u03b5\u03bd \u03c4\u03b7 \u03b3\u03b7 \u0395\u03b4\u03ce\u03bc. "
        },
        {
            "chapter": 9,
            "verse": 27,
            "name": "1 Kings 9:27",
            "text": "\u039a\u03b1\u03b9 \u03b1\u03c0\u03ad\u03c3\u03c4\u03b5\u03b9\u03bb\u03b5\u03bd \u03bf \u03a7\u03b5\u03b9\u03c1\u03ac\u03bc \u03b5\u03b9\u03c2 \u03c4\u03bf\u03bd \u03c3\u03c4\u03cc\u03bb\u03bf\u03bd \u03b5\u03ba \u03c4\u03c9\u03bd \u03b4\u03bf\u03cd\u03bb\u03c9\u03bd \u03b1\u03c5\u03c4\u03bf\u03cd \u03bd\u03b1\u03cd\u03c4\u03b1\u03c2 \u03b5\u03bc\u03c0\u03b5\u03af\u03c1\u03bf\u03c5\u03c2 \u03c4\u03b7\u03c2 \u03b8\u03b1\u03bb\u03ac\u03c3\u03c3\u03b7\u03c2, \u03bc\u03b5\u03c4\u03ac \u03c4\u03c9\u03bd \u03b4\u03bf\u03cd\u03bb\u03c9\u03bd \u03c4\u03bf\u03c5 \u03a3\u03bf\u03bb\u03bf\u03bc\u03ce\u03bd\u03c4\u03bf\u03c2. "
        },
        {
            "chapter": 9,
            "verse": 28,
            "name": "1 Kings 9:28",
            "text": "\u039a\u03b1\u03b9 \u03ae\u03bb\u03b8\u03bf\u03bd \u03b5\u03b9\u03c2 \u039f\u03c6\u03b5\u03af\u03c1 \u03ba\u03b1\u03b9 \u03ad\u03bb\u03b1\u03b2\u03bf\u03bd \u03b5\u03ba\u03b5\u03af\u03b8\u03b5\u03bd \u03c4\u03b5\u03c4\u03c1\u03b1\u03ba\u03cc\u03c3\u03b9\u03b1 \u03ba\u03b1\u03b9 \u03b5\u03af\u03ba\u03bf\u03c3\u03b9 \u03c4\u03ac\u03bb\u03b1\u03bd\u03c4\u03b1 \u03c7\u03c1\u03c5\u03c3\u03af\u03bf\u03c5 \u03ba\u03b1\u03b9 \u03ad\u03c6\u03b5\u03c1\u03b1\u03bd \u03c0\u03c1\u03bf\u03c2 \u03c4\u03bf\u03bd \u03b2\u03b1\u03c3\u03b9\u03bb\u03ad\u03b1 \u03a3\u03bf\u03bb\u03bf\u03bc\u03ce\u03bd\u03c4\u03b1. "
        }
    ]
}