{
    "translation": "Apostolic Bible Polyglot Greek Text",
    "abbreviation": "abpgrk",
    "lang": "grc",
    "language": "Greek",
    "direction": "LTR",
    "encoding": "UTF-8",
    "book_nr": 11,
    "book_name": "1 Kings",
    "chapter": 8,
    "name": "1 Kings 8",
    "verses": [
        {
            "chapter": 8,
            "verse": 1,
            "name": "1 Kings 8:1",
            "text": "  \u03c4\u03cc\u03c4\u03b5 \u03b5\u03be\u03b5\u03ba\u03ba\u03bb\u03b7\u03c3\u03af\u03b1\u03c3\u03b5\u03bd \u03bf \u03b2\u03b1\u03c3\u03b9\u03bb\u03b5\u03cd\u03c2 \u03a3\u03bf\u03bb\u03bf\u03bc\u03ce\u03bd \u03c0\u03ac\u03bd\u03c4\u03b1\u03c2 \u03c4\u03bf\u03c5\u03c2 \u03c0\u03c1\u03b5\u03c3\u03b2\u03c5\u03c4\u03ad\u03c1\u03bf\u03c5\u03c2 \u0399\u03c3\u03c1\u03b1\u03ae\u03bb \u03ba\u03b1\u03b9 \u03c0\u03ac\u03bd\u03c4\u03b1\u03c2 \u03ac\u03c1\u03c7\u03bf\u03bd\u03c4\u03b1\u03c2 \u03c6\u03c5\u03bb\u03ce\u03bd \u03b7\u03b3\u03b5\u03bc\u03cc\u03bd\u03b1\u03c2 \u03c0\u03b1\u03c4\u03c1\u03b9\u03ce\u03bd \u03c5\u03b9\u03ce\u03bd \u0399\u03c3\u03c1\u03b1\u03ae\u03bb \u03c0\u03c1\u03bf\u03c2 \u03c4\u03bf\u03bd \u03b2\u03b1\u03c3\u03b9\u03bb\u03ad\u03b1 \u03a3\u03bf\u03bb\u03bf\u03bc\u03ce\u03bd\u03c4\u03b1 \u03b5\u03bd \u0399\u03b5\u03c1\u03bf\u03c5\u03c3\u03b1\u03bb\u03ae\u03bc \u03c4\u03bf\u03c5 \u03b1\u03bd\u03b5\u03bd\u03b5\u03b3\u03ba\u03b5\u03af\u03bd \u03c4\u03b7\u03bd \u03ba\u03b9\u03b2\u03c9\u03c4\u03cc\u03bd \u03c4\u03b7\u03c2 \u03b4\u03b9\u03b1\u03b8\u03ae\u03ba\u03b7\u03c2 \u03ba\u03c5\u03c1\u03af\u03bf\u03c5 \u03b5\u03ba \u03c0\u03cc\u03bb\u03b5\u03c9\u03c2 \u0394\u03b1\u03c5\u03af\u03b4 \u03b1\u03cd\u03c4\u03b7 \u03b5\u03c3\u03c4\u03af \u03a3\u03b9\u03ce\u03bd"
        },
        {
            "chapter": 8,
            "verse": 2,
            "name": "1 Kings 8:2",
            "text": "\u03b5\u03bd \u03bc\u03b7\u03bd\u03af \u03b1\u03b8\u03b1\u03bd\u03af\u03bc \u03b5\u03bd \u03b5\u03bf\u03c1\u03c4\u03ae \u03b1\u03c5\u03c4\u03cc\u03c2 \u03b1\u03c5\u03c4\u03cc\u03c2 \u03b5\u03c3\u03c4\u03b9\u03bd \u03bc\u03b7\u03bd \u03ad\u03b2\u03b4\u03bf\u03bc\u03bf\u03c2 \u03ba\u03b1\u03b9 \u03ae\u03bb\u03b8\u03bf\u03bd \u03c0\u03ac\u03bd\u03c4\u03b5\u03c2 \u03bf\u03b9 \u03c0\u03c1\u03b5\u03c3\u03b2\u03cd\u03c4\u03b5\u03c1\u03bf\u03b9 \u0399\u03c3\u03c1\u03b1\u03ae\u03bb"
        },
        {
            "chapter": 8,
            "verse": 3,
            "name": "1 Kings 8:3",
            "text": "\u03ba\u03b1\u03b9 \u03ae\u03c1\u03b1\u03bd \u03bf\u03b9 \u03b9\u03b5\u03c1\u03b5\u03af\u03c2 \u03c4\u03b7\u03bd \u03ba\u03b9\u03b2\u03c9\u03c4\u03cc\u03bd"
        },
        {
            "chapter": 8,
            "verse": 4,
            "name": "1 Kings 8:4",
            "text": "\u03ba\u03b1\u03b9 \u03c4\u03bf \u03c3\u03ba\u03ae\u03bd\u03c9\u03bc\u03b1 \u03c4\u03bf\u03c5 \u03bc\u03b1\u03c1\u03c4\u03c5\u03c1\u03af\u03bf\u03c5 \u03ba\u03b1\u03b9 \u03c0\u03ac\u03bd\u03c4\u03b1 \u03c4\u03b1 \u03c3\u03ba\u03b5\u03cd\u03b7 \u03c4\u03b1 \u03ac\u03b3\u03b9\u03b1 \u03c4\u03b1 \u03b5\u03bd \u03c4\u03c9 \u03c3\u03ba\u03b7\u03bd\u03ce\u03bc\u03b1\u03c4\u03b9 \u03c4\u03bf\u03c5 \u03bc\u03b1\u03c1\u03c4\u03c5\u03c1\u03af\u03bf\u03c5"
        },
        {
            "chapter": 8,
            "verse": 5,
            "name": "1 Kings 8:5",
            "text": "\u03ba\u03b1\u03b9 \u03bf \u03b2\u03b1\u03c3\u03b9\u03bb\u03b5\u03cd\u03c2 \u03ba\u03b1\u03b9 \u03c0\u03b1\u03c2 \u03bf \u03bb\u03b1\u03cc\u03c2 \u0399\u03c3\u03c1\u03b1\u03ae\u03bb \u03ad\u03bc\u03c0\u03c1\u03bf\u03c3\u03b8\u03b5\u03bd \u03c4\u03b7\u03c2 \u03ba\u03b9\u03b2\u03c9\u03c4\u03bf\u03cd \u03b8\u03cd\u03bf\u03bd\u03c4\u03b5\u03c2 \u03b2\u03cc\u03b1\u03c2 \u03ba\u03b1\u03b9 \u03c0\u03c1\u03cc\u03b2\u03b1\u03c4\u03b1 \u03b1\u03bd\u03b1\u03c1\u03af\u03b8\u03bc\u03b7\u03c4\u03b1"
        },
        {
            "chapter": 8,
            "verse": 6,
            "name": "1 Kings 8:6",
            "text": "\u03ba\u03b1\u03b9 \u03b5\u03b9\u03c3\u03c6\u03ad\u03c1\u03bf\u03c5\u03c3\u03b9\u03bd \u03bf\u03b9 \u03b9\u03b5\u03c1\u03b5\u03af\u03c2 \u03c4\u03b7\u03bd \u03ba\u03b9\u03b2\u03c9\u03c4\u03cc\u03bd \u03b4\u03b9\u03b1\u03b8\u03ae\u03ba\u03b7\u03c2 \u03ba\u03c5\u03c1\u03af\u03bf\u03c5 \u03b5\u03b9\u03c2 \u03c4\u03bf\u03bd \u03c4\u03cc\u03c0\u03bf\u03bd \u03b1\u03c5\u03c4\u03ae\u03c2 \u03b5\u03b9\u03c2 \u03c4\u03bf \u03b4\u03b1\u03b2\u03af\u03c1 \u03c4\u03bf\u03c5 \u03bf\u03af\u03ba\u03bf\u03c5 \u03b5\u03b9\u03c2 \u03c4\u03b1 \u03ac\u03b3\u03b9\u03b1 \u03c4\u03c9\u03bd \u03b1\u03b3\u03af\u03c9\u03bd \u03c5\u03c0\u03cc \u03c4\u03b1\u03c2 \u03c0\u03c4\u03ad\u03c1\u03c5\u03b3\u03b1\u03c2 \u03c4\u03c9\u03bd \u03c7\u03b5\u03c1\u03bf\u03c5\u03b2\u03af\u03bc"
        },
        {
            "chapter": 8,
            "verse": 7,
            "name": "1 Kings 8:7",
            "text": "\u03cc\u03c4\u03b9 \u03c4\u03b1 \u03c7\u03b5\u03c1\u03bf\u03c5\u03b2\u03af\u03bc \u03b4\u03b9\u03b1\u03c0\u03b5\u03c0\u03b5\u03c4\u03b1\u03c3\u03bc\u03ad\u03bd\u03b1 \u03c4\u03b1\u03b9\u03c2 \u03c0\u03c4\u03ad\u03c1\u03c5\u03be\u03b9\u03bd \u03b5\u03c0\u03af \u03c4\u03bf\u03bd \u03c4\u03cc\u03c0\u03bf\u03bd \u03c4\u03b7\u03c2 \u03ba\u03b9\u03b2\u03c9\u03c4\u03bf\u03cd \u03ba\u03b1\u03b9 \u03c0\u03b5\u03c1\u03b9\u03b5\u03ba\u03ac\u03bb\u03c5\u03c0\u03c4\u03bf\u03bd \u03c4\u03b1 \u03c7\u03b5\u03c1\u03bf\u03c5\u03b2\u03af\u03bc \u03b5\u03c0\u03af \u03c4\u03b7\u03bd \u03ba\u03b9\u03b2\u03c9\u03c4\u03cc\u03bd \u03ba\u03b1\u03b9 \u03b5\u03c0\u03af \u03c4\u03b1 \u03ac\u03b3\u03b9\u03b1 \u03b1\u03c5\u03c4\u03ae\u03c2 \u03b5\u03c0\u03ac\u03bd\u03c9\u03b8\u03b5\u03bd"
        },
        {
            "chapter": 8,
            "verse": 8,
            "name": "1 Kings 8:8",
            "text": "\u03ba\u03b1\u03b9 \u03c5\u03c0\u03b5\u03c1\u03b5\u03af\u03c7\u03bf\u03bd \u03c4\u03b1 \u03b7\u03b3\u03b9\u03b1\u03c3\u03bc\u03ad\u03bd\u03b1 \u03ba\u03b1\u03b9 \u03b5\u03bd\u03b5\u03b2\u03bb\u03ad\u03c0\u03bf\u03bd\u03c4\u03bf \u03b1\u03b9 \u03ba\u03b5\u03c6\u03b1\u03bb\u03b1\u03af \u03c4\u03c9\u03bd \u03b7\u03b3\u03b9\u03b1\u03c3\u03bc\u03ad\u03bd\u03c9\u03bd \u03b5\u03ba \u03c4\u03c9\u03bd \u03b1\u03b3\u03af\u03c9\u03bd \u03b5\u03c0\u03af \u03c0\u03c1\u03cc\u03c3\u03c9\u03c0\u03bf\u03bd \u03c4\u03bf\u03c5 \u03b4\u03b1\u03b2\u03af\u03c1 \u03ba\u03b1\u03b9 \u03bf\u03c5\u03ba \u03c9\u03c0\u03c4\u03ac\u03bd\u03bf\u03bd\u03c4\u03bf \u03ad\u03be\u03c9 \u03ba\u03b1\u03b9 \u03ae\u03c3\u03b1\u03bd \u03b5\u03ba\u03b5\u03af \u03ad\u03c9\u03c2 \u03c4\u03b7\u03c2 \u03b7\u03bc\u03ad\u03c1\u03b1\u03c2 \u03c4\u03b1\u03cd\u03c4\u03b7\u03c2"
        },
        {
            "chapter": 8,
            "verse": 9,
            "name": "1 Kings 8:9",
            "text": "\u03bf\u03c5\u03ba \u03b7\u03bd \u03b5\u03bd \u03c4\u03b7 \u03ba\u03b9\u03b2\u03c9\u03c4\u03ce \u03c0\u03bb\u03b7\u03bd \u03b1\u03b9 \u03b4\u03cd\u03bf \u03c0\u03bb\u03ac\u03ba\u03b5\u03c2 \u03bb\u03af\u03b8\u03b9\u03bd\u03b1\u03b9 \u03c0\u03bb\u03ac\u03ba\u03b5\u03c2 \u03c4\u03b7\u03c2 \u03b4\u03b9\u03b1\u03b8\u03ae\u03ba\u03b7\u03c2 \u03b1\u03c2 \u03ad\u03b8\u03b7\u03ba\u03b5\u03bd \u03b5\u03ba\u03b5\u03af \u039c\u03c9\u03c5\u03c3\u03ae\u03c2 \u03b5\u03bd \u03a7\u03c9\u03c1\u03ae\u03b2 \u03b1\u03c2 \u03b4\u03b9\u03ad\u03b8\u03b5\u03c4\u03bf \u03ba\u03cd\u03c1\u03b9\u03bf\u03c2 \u03bc\u03b5\u03c4\u03ac \u03c4\u03c9\u03bd \u03c5\u03b9\u03ce\u03bd \u0399\u03c3\u03c1\u03b1\u03ae\u03bb \u03b5\u03bd \u03c4\u03c9 \u03b5\u03ba\u03c0\u03bf\u03c1\u03b5\u03cd\u03b5\u03c3\u03b8\u03b1\u03b9 \u03b1\u03c5\u03c4\u03bf\u03cd\u03c2 \u03b5\u03ba \u03b3\u03b7\u03c2 \u0391\u03b9\u03b3\u03cd\u03c0\u03c4\u03bf\u03c5 "
        },
        {
            "chapter": 8,
            "verse": 10,
            "name": "1 Kings 8:10",
            "text": "  \u03ba\u03b1\u03b9 \u03b5\u03b3\u03ad\u03bd\u03b5\u03c4\u03bf \u03c9\u03c2 \u03b5\u03be\u03ae\u03bb\u03b8\u03bf\u03bd \u03bf\u03b9 \u03b9\u03b5\u03c1\u03b5\u03af\u03c2 \u03b5\u03ba \u03c4\u03bf\u03c5 \u03b1\u03b3\u03af\u03bf\u03c5 \u03ba\u03b1\u03b9 \u03b7 \u03bd\u03b5\u03c6\u03ad\u03bb\u03b7 \u03ad\u03c0\u03bb\u03b7\u03c3\u03b5 \u03c4\u03bf\u03bd \u03bf\u03af\u03ba\u03bf\u03bd"
        },
        {
            "chapter": 8,
            "verse": 11,
            "name": "1 Kings 8:11",
            "text": "\u03ba\u03b1\u03b9 \u03bf\u03c5\u03ba \u03b7\u03b4\u03cd\u03bd\u03b1\u03bd\u03c4\u03bf \u03bf\u03b9 \u03b9\u03b5\u03c1\u03b5\u03af\u03c2 \u03c3\u03c4\u03ae\u03bd\u03b1\u03b9 \u03bb\u03b5\u03b9\u03c4\u03bf\u03c5\u03c1\u03b3\u03b5\u03af\u03bd \u03b1\u03c0\u03cc \u03c0\u03c1\u03bf\u03c3\u03ce\u03c0\u03bf\u03c5 \u03c4\u03b7\u03c2 \u03bd\u03b5\u03c6\u03ad\u03bb\u03b7\u03c2 \u03cc\u03c4\u03b9 \u03ad\u03c0\u03bb\u03b7\u03c3\u03b5 \u03b4\u03cc\u03be\u03b1 \u03ba\u03c5\u03c1\u03af\u03bf\u03c5 \u03c4\u03bf\u03bd \u03bf\u03af\u03ba\u03bf\u03bd \u03ba\u03c5\u03c1\u03af\u03bf\u03c5"
        },
        {
            "chapter": 8,
            "verse": 12,
            "name": "1 Kings 8:12",
            "text": "\u03c4\u03cc\u03c4\u03b5 \u03b5\u03af\u03c0\u03b5 \u03a3\u03bf\u03bb\u03bf\u03bc\u03ce\u03bd \u03ba\u03cd\u03c1\u03b9\u03bf\u03c2 \u03b5\u03af\u03c0\u03b5\u03bd \u03c4\u03bf\u03c5 \u03ba\u03b1\u03c4\u03b1\u03c3\u03ba\u03b7\u03bd\u03ce\u03c3\u03b1\u03b9 \u03b5\u03bd \u03b3\u03bd\u03cc\u03c6\u03c9"
        },
        {
            "chapter": 8,
            "verse": 13,
            "name": "1 Kings 8:13",
            "text": "\u03ba\u03b1\u03b9 \u03b5\u03b3\u03ce \u03c9\u03ba\u03bf\u03b4\u03cc\u03bc\u03b7\u03c3\u03b1 \u03bf\u03af\u03ba\u03bf\u03bd \u03c4\u03c9 \u03bf\u03bd\u03cc\u03bc\u03b1\u03c4\u03af \u03c3\u03bf\u03c5 \u03ac\u03b3\u03b9\u03cc\u03bd \u03c3\u03bf\u03b9 \u03ba\u03b1\u03b9 \u03ad\u03c4\u03bf\u03b9\u03bc\u03bf\u03bd \u03ba\u03b1\u03b9 \u03c4\u03b7 \u03ba\u03b1\u03b8\u03ad\u03b4\u03c1\u03b1 \u03c3\u03bf\u03c5 \u03c4\u03bf\u03c5 \u03ba\u03b1\u03c4\u03b1\u03c3\u03ba\u03b7\u03bd\u03ce\u03c3\u03b1\u03af \u03c3\u03b5 \u03b5\u03bd \u03b1\u03c5\u03c4\u03ce \u03b5\u03b9\u03c2 \u03c4\u03bf\u03c5\u03c2 \u03b1\u03b9\u03ce\u03bd\u03b1\u03c2"
        },
        {
            "chapter": 8,
            "verse": 14,
            "name": "1 Kings 8:14",
            "text": "\u03ba\u03b1\u03b9 \u03b1\u03c0\u03ad\u03c3\u03c4\u03c1\u03b5\u03c8\u03b5\u03bd \u03bf \u03b2\u03b1\u03c3\u03b9\u03bb\u03b5\u03cd\u03c2 \u03c4\u03bf \u03c0\u03c1\u03cc\u03c3\u03c9\u03c0\u03bf\u03bd \u03b1\u03c5\u03c4\u03bf\u03cd \u03ba\u03b1\u03b9 \u03b5\u03c5\u03bb\u03cc\u03b3\u03b7\u03c3\u03b5\u03bd \u03c0\u03ac\u03bd\u03c4\u03b1 \u0399\u03c3\u03c1\u03b1\u03ae\u03bb \u03ba\u03b1\u03b9 \u03c0\u03ac\u03c3\u03b1 \u03b7 \u03b5\u03ba\u03ba\u03bb\u03b7\u03c3\u03af\u03b1 \u0399\u03c3\u03c1\u03b1\u03ae\u03bb \u03b5\u03b9\u03c3\u03c4\u03ae\u03ba\u03b5\u03b9"
        },
        {
            "chapter": 8,
            "verse": 15,
            "name": "1 Kings 8:15",
            "text": "\u03ba\u03b1\u03b9 \u03b5\u03af\u03c0\u03b5\u03bd \u03b5\u03c5\u03bb\u03bf\u03b3\u03b7\u03c4\u03cc\u03c2 \u03ba\u03cd\u03c1\u03b9\u03bf\u03c2 \u03bf \u03b8\u03b5\u03cc\u03c2 \u0399\u03c3\u03c1\u03b1\u03ae\u03bb \u03bf\u03c2 \u03b5\u03bb\u03ac\u03bb\u03b7\u03c3\u03b5\u03bd \u03b5\u03bd \u03c3\u03c4\u03cc\u03bc\u03b1\u03c4\u03b9 \u03b1\u03c5\u03c4\u03bf\u03cd \u03c0\u03b5\u03c1\u03af \u0394\u03b1\u03c5\u03af\u03b4 \u03c4\u03bf\u03c5 \u03c0\u03b1\u03c4\u03c1\u03cc\u03c2 \u03bc\u03bf\u03c5 \u03ba\u03b1\u03b9 \u03b5\u03bd \u03c4\u03b1\u03b9\u03c2 \u03c7\u03b5\u03c1\u03c3\u03af\u03bd \u03b1\u03c5\u03c4\u03bf\u03cd \u03b5\u03c0\u03bb\u03ae\u03c1\u03c9\u03c3\u03b5 \u03bb\u03ad\u03b3\u03c9\u03bd"
        },
        {
            "chapter": 8,
            "verse": 16,
            "name": "1 Kings 8:16",
            "text": "\u03b1\u03c6\u0384 \u03b7\u03c2 \u03b7\u03bc\u03ad\u03c1\u03b1\u03c2 \u03b5\u03be\u03ae\u03b3\u03b1\u03b3\u03bf\u03bd \u03c4\u03bf\u03bd \u03bb\u03b1\u03cc\u03bd \u03bc\u03bf\u03c5 \u0399\u03c3\u03c1\u03b1\u03ae\u03bb \u03b5\u03be \u0391\u03b9\u03b3\u03cd\u03c0\u03c4\u03bf\u03c5 \u03bf\u03c5\u03ba \u03b5\u03be\u03b5\u03bb\u03b5\u03be\u03ac\u03bc\u03b7\u03bd \u03b5\u03bd \u03c0\u03cc\u03bb\u03b5\u03b9 \u03b5\u03bd \u03b5\u03bd\u03af \u03c3\u03ba\u03ae\u03c0\u03c4\u03c1\u03c9 \u0399\u03c3\u03c1\u03b1\u03ae\u03bb \u03c4\u03bf\u03c5 \u03bf\u03b9\u03ba\u03bf\u03b4\u03bf\u03bc\u03ae\u03c3\u03b1\u03b9 \u03bf\u03af\u03ba\u03bf\u03bd \u03c4\u03bf\u03c5 \u03b5\u03af\u03bd\u03b1\u03b9 \u03c4\u03bf \u03cc\u03bd\u03bf\u03bc\u03ac \u03bc\u03bf\u03c5 \u03b5\u03ba\u03b5\u03af \u03b1\u03bb\u03bb\u0384 \u03b5\u03be\u03b5\u03bb\u03b5\u03be\u03ac\u03bc\u03b7\u03bd \u03b5\u03bd \u0394\u03b1\u03c5\u03af\u03b4 \u03c4\u03bf\u03c5 \u03b5\u03af\u03bd\u03b1\u03b9 \u03b7\u03b3\u03bf\u03cd\u03bc\u03b5\u03bd\u03bf\u03bd \u03b5\u03c0\u03af \u03c4\u03bf\u03bd \u03bb\u03b1\u03cc\u03bd \u03bc\u03bf\u03c5 \u0399\u03c3\u03c1\u03b1\u03ae\u03bb"
        },
        {
            "chapter": 8,
            "verse": 17,
            "name": "1 Kings 8:17",
            "text": "\u03ba\u03b1\u03b9 \u03b5\u03b3\u03ad\u03bd\u03b5\u03c4\u03bf \u03b5\u03c0\u03af \u03c4\u03b7\u03c2 \u03ba\u03b1\u03c1\u03b4\u03af\u03b1\u03c2 \u0394\u03b1\u03c5\u03af\u03b4 \u03c4\u03bf\u03c5 \u03c0\u03b1\u03c4\u03c1\u03cc\u03c2 \u03bc\u03bf\u03c5 \u03bf\u03b9\u03ba\u03bf\u03b4\u03bf\u03bc\u03ae\u03c3\u03b1\u03b9 \u03bf\u03af\u03ba\u03bf\u03bd \u03c4\u03c9 \u03bf\u03bd\u03cc\u03bc\u03b1\u03c4\u03b9 \u03ba\u03c5\u03c1\u03af\u03bf\u03c5 \u03b8\u03b5\u03bf\u03cd \u0399\u03c3\u03c1\u03b1\u03ae\u03bb"
        },
        {
            "chapter": 8,
            "verse": 18,
            "name": "1 Kings 8:18",
            "text": "\u03ba\u03b1\u03b9 \u03b5\u03af\u03c0\u03b5 \u03ba\u03cd\u03c1\u03b9\u03bf\u03c2 \u03c0\u03c1\u03bf\u03c2 \u0394\u03b1\u03c5\u03af\u03b4 \u03c4\u03bf\u03bd \u03c0\u03b1\u03c4\u03ad\u03c1\u03b1 \u03bc\u03bf\u03c5 \u03bf\u03c4\u03b9 \u03b5\u03b3\u03ad\u03bd\u03b5\u03c4\u03bf \u03b5\u03c0\u03af \u03c4\u03b7\u03bd \u03ba\u03b1\u03c1\u03b4\u03af\u03b1\u03bd \u03c3\u03bf\u03c5 \u03bf\u03b9\u03ba\u03bf\u03b4\u03bf\u03bc\u03ae\u03c3\u03b1\u03b9 \u03bf\u03af\u03ba\u03bf\u03bd \u03c4\u03c9 \u03bf\u03bd\u03cc\u03bc\u03b1\u03c4\u03af \u03bc\u03bf\u03c5 \u03ba\u03b1\u03bb\u03ce\u03c2 \u03b5\u03c0\u03bf\u03af\u03b7\u03c3\u03b1\u03c2 \u03cc\u03c4\u03b9 \u03b5\u03b3\u03ad\u03bd\u03b5\u03c4\u03bf \u03b5\u03c0\u03af \u03c4\u03b7\u03bd \u03ba\u03b1\u03c1\u03b4\u03af\u03b1\u03bd \u03c3\u03bf\u03c5"
        },
        {
            "chapter": 8,
            "verse": 19,
            "name": "1 Kings 8:19",
            "text": "\u03c0\u03bb\u03b7\u03bd \u03c3\u03c5 \u03bf\u03c5\u03ba \u03bf\u03b9\u03ba\u03bf\u03b4\u03bf\u03bc\u03ae\u03c3\u03b5\u03b9\u03c2 \u03c4\u03bf\u03bd \u03bf\u03af\u03ba\u03bf\u03bd \u03b1\u03bb\u03bb\u0384 \u03b7 \u03bf \u03c5\u03b9\u03cc\u03c2 \u03c3\u03bf\u03c5 \u03bf \u03b5\u03be\u03b5\u03bb\u03b8\u03ce\u03bd \u03b5\u03ba \u03c4\u03c9\u03bd \u03c0\u03bb\u03b5\u03c5\u03c1\u03ce\u03bd \u03c3\u03bf\u03c5 \u03bf\u03cd\u03c4\u03bf\u03c2 \u03bf\u03b9\u03ba\u03bf\u03b4\u03bf\u03bc\u03ae\u03c3\u03b5\u03b9 \u03c4\u03bf\u03bd \u03bf\u03af\u03ba\u03bf\u03bd \u03c4\u03c9 \u03bf\u03bd\u03cc\u03bc\u03b1\u03c4\u03af \u03bc\u03bf\u03c5"
        },
        {
            "chapter": 8,
            "verse": 20,
            "name": "1 Kings 8:20",
            "text": "\u03ba\u03b1\u03b9 \u03b1\u03bd\u03ad\u03c3\u03c4\u03b7\u03c3\u03b5 \u03ba\u03cd\u03c1\u03b9\u03bf\u03c2 \u03c4\u03bf \u03c1\u03ae\u03bc\u03b1 \u03b1\u03c5\u03c4\u03bf\u03cd \u03bf \u03b5\u03bb\u03ac\u03bb\u03b7\u03c3\u03b5 \u03ba\u03b1\u03b9 \u03b1\u03bd\u03ad\u03c3\u03c4\u03b7\u03bd \u03b1\u03bd\u03c4\u03af \u0394\u03b1\u03c5\u03af\u03b4 \u03c4\u03bf\u03c5 \u03c0\u03b1\u03c4\u03c1\u03cc\u03c2 \u03bc\u03bf\u03c5 \u03ba\u03b1\u03b9 \u03b5\u03ba\u03ac\u03b8\u03b9\u03c3\u03b1 \u03b5\u03c0\u03af \u03c4\u03bf\u03c5 \u03b8\u03c1\u03cc\u03bd\u03bf\u03c5 \u0399\u03c3\u03c1\u03b1\u03ae\u03bb \u03ba\u03b1\u03b8\u03ce\u03c2 \u03b5\u03bb\u03ac\u03bb\u03b7\u03c3\u03b5 \u03ba\u03cd\u03c1\u03b9\u03bf\u03c2 \u03ba\u03b1\u03b9 \u03c9\u03ba\u03bf\u03b4\u03cc\u03bc\u03b7\u03c3\u03b1 \u03c4\u03bf\u03bd \u03bf\u03af\u03ba\u03bf\u03bd \u03c4\u03c9 \u03bf\u03bd\u03cc\u03bc\u03b1\u03c4\u03b9 \u03ba\u03c5\u03c1\u03af\u03bf\u03c5 \u03c4\u03bf\u03c5 \u03b8\u03b5\u03bf\u03cd \u0399\u03c3\u03c1\u03b1\u03ae\u03bb"
        },
        {
            "chapter": 8,
            "verse": 21,
            "name": "1 Kings 8:21",
            "text": "\u03ba\u03b1\u03b9 \u03b5\u03b8\u03ad\u03bc\u03b7\u03bd \u03b5\u03ba\u03b5\u03af \u03c4\u03cc\u03c0\u03bf\u03bd \u03c4\u03b7 \u03ba\u03b9\u03b2\u03c9\u03c4\u03ce \u03b5\u03bd \u03b7 \u03b5\u03c3\u03c4\u03b9\u03bd \u03b5\u03ba\u03b5\u03af \u03b4\u03b9\u03b1\u03b8\u03ae\u03ba\u03b7 \u03ba\u03c5\u03c1\u03af\u03bf\u03c5 \u03b7\u03bd \u03b4\u03b9\u03ad\u03b8\u03b5\u03c4\u03bf \u03ba\u03cd\u03c1\u03b9\u03bf\u03c2 \u03bc\u03b5\u03c4\u03ac \u03c4\u03c9\u03bd \u03c0\u03b1\u03c4\u03ad\u03c1\u03c9\u03bd \u03b7\u03bc\u03ce\u03bd \u03b5\u03bd \u03c4\u03c9 \u03b5\u03be\u03b1\u03b3\u03b1\u03b3\u03b5\u03af\u03bd \u03b1\u03c5\u03c4\u03cc\u03bd \u03b1\u03c5\u03c4\u03bf\u03cd\u03c2 \u03b5\u03ba \u03b3\u03b7\u03c2 \u0391\u03b9\u03b3\u03cd\u03c0\u03c4\u03bf\u03c5 "
        },
        {
            "chapter": 8,
            "verse": 22,
            "name": "1 Kings 8:22",
            "text": "  \u03ba\u03b1\u03b9 \u03ad\u03c3\u03c4\u03b7 \u03a3\u03bf\u03bb\u03bf\u03bc\u03ce\u03bd \u03ba\u03b1\u03c4\u03ac \u03c0\u03c1\u03cc\u03c3\u03c9\u03c0\u03bf\u03bd \u03c4\u03bf\u03c5 \u03b8\u03c5\u03c3\u03b9\u03b1\u03c3\u03c4\u03b7\u03c1\u03af\u03bf\u03c5 \u03ba\u03c5\u03c1\u03af\u03bf\u03c5 \u03b5\u03bd\u03ce\u03c0\u03b9\u03bf\u03bd \u03c0\u03ac\u03c3\u03b7\u03c2 \u03b5\u03ba\u03ba\u03bb\u03b7\u03c3\u03af\u03b1\u03c2 \u0399\u03c3\u03c1\u03b1\u03ae\u03bb \u03ba\u03b1\u03b9 \u03b4\u03b9\u03b5\u03c0\u03ad\u03c4\u03b1\u03c3\u03b5 \u03c4\u03b1\u03c2 \u03c7\u03b5\u03af\u03c1\u03b1\u03c2 \u03b1\u03c5\u03c4\u03bf\u03cd \u03b5\u03b9\u03c2 \u03c4\u03bf\u03bd \u03bf\u03c5\u03c1\u03b1\u03bd\u03cc\u03bd"
        },
        {
            "chapter": 8,
            "verse": 23,
            "name": "1 Kings 8:23",
            "text": "\u03ba\u03b1\u03b9 \u03b5\u03af\u03c0\u03b5 \u03ba\u03cd\u03c1\u03b9\u03b5 \u03bf \u03b8\u03b5\u03cc\u03c2 \u0399\u03c3\u03c1\u03b1\u03ae\u03bb \u03bf\u03c5\u03ba \u03ad\u03c3\u03c4\u03b9\u03bd \u03c9\u03c2 \u03c3\u03c5 \u03b8\u03b5\u03cc\u03c2 \u03b5\u03bd \u03c4\u03c9 \u03bf\u03c5\u03c1\u03b1\u03bd\u03ce \u03ac\u03bd\u03c9 \u03ba\u03b1\u03b9 \u03b5\u03c0\u03af \u03c4\u03b7\u03c2 \u03b3\u03b7\u03c2 \u03ba\u03ac\u03c4\u03c9 \u03c6\u03c5\u03bb\u03ac\u03c3\u03c3\u03c9\u03bd \u03b4\u03b9\u03b1\u03b8\u03ae\u03ba\u03b7\u03bd \u03ba\u03b1\u03b9 \u03ad\u03bb\u03b5\u03bf\u03c2 \u03c4\u03c9 \u03b4\u03bf\u03cd\u03bb\u03c9 \u03c3\u03bf\u03c5 \u03c4\u03c9 \u03c0\u03bf\u03c1\u03b5\u03c5\u03bf\u03bc\u03ad\u03bd\u03c9 \u03b5\u03bd\u03ce\u03c0\u03b9\u03cc\u03bd \u03c3\u03bf\u03c5 \u03b5\u03bd \u03cc\u03bb\u03b7 \u03ba\u03b1\u03c1\u03b4\u03af\u03b1 \u03b1\u03c5\u03c4\u03bf\u03cd"
        },
        {
            "chapter": 8,
            "verse": 24,
            "name": "1 Kings 8:24",
            "text": "\u03b1 \u03b5\u03c6\u03cd\u03bb\u03b1\u03be\u03b1\u03c2 \u03c4\u03c9 \u03b4\u03bf\u03cd\u03bb\u03c9 \u03c3\u03bf\u03c5 \u0394\u03b1\u03c5\u03af\u03b4 \u03c4\u03c9 \u03c0\u03b1\u03c4\u03c1\u03af \u03bc\u03bf\u03c5 \u03b1 \u03b5\u03bb\u03ac\u03bb\u03b7\u03c3\u03b1\u03c2 \u03b5\u03bd \u03c4\u03c9 \u03c3\u03c4\u03cc\u03bc\u03b1\u03c4\u03af \u03c3\u03bf\u03c5 \u03ba\u03b1\u03b9 \u03b5\u03bd \u03c4\u03b1\u03b9\u03c2 \u03c7\u03b5\u03c1\u03c3\u03af \u03c3\u03bf\u03c5 \u03b5\u03c0\u03bb\u03ae\u03c1\u03c9\u03c3\u03b1\u03c2 \u03c9\u03c2 \u03b7 \u03b7\u03bc\u03ad\u03c1\u03b1 \u03b1\u03cd\u03c4\u03b7"
        },
        {
            "chapter": 8,
            "verse": 25,
            "name": "1 Kings 8:25",
            "text": "\u03ba\u03b1\u03b9 \u03bd\u03c5\u03bd \u03ba\u03cd\u03c1\u03b9\u03b5 \u03bf \u03b8\u03b5\u03cc\u03c2 \u0399\u03c3\u03c1\u03b1\u03ae\u03bb \u03c6\u03cd\u03bb\u03b1\u03be\u03bf\u03bd \u03c4\u03c9 \u03b4\u03bf\u03cd\u03bb\u03c9 \u03c3\u03bf\u03c5 \u0394\u03b1\u03c5\u03af\u03b4 \u03c4\u03c9 \u03c0\u03b1\u03c4\u03c1\u03af \u03bc\u03bf\u03c5 \u03b1 \u03b5\u03bb\u03ac\u03bb\u03b7\u03c3\u03b1\u03c2 \u03b1\u03c5\u03c4\u03ce \u03bb\u03ad\u03b3\u03c9\u03bd \u03bf\u03c5\u03ba \u03b5\u03be\u03b1\u03c1\u03b8\u03ae\u03c3\u03b5\u03c4\u03b1\u03af \u03c3\u03bf\u03b9 \u03b1\u03bd\u03ae\u03c1 \u03b5\u03ba \u03c0\u03c1\u03bf\u03c3\u03ce\u03c0\u03bf\u03c5 \u03bc\u03bf\u03c5 \u03ba\u03b1\u03b8\u03ae\u03bc\u03b5\u03bd\u03bf\u03c2 \u03b5\u03c0\u03af \u03b8\u03c1\u03cc\u03bd\u03bf\u03bd \u0399\u03c3\u03c1\u03b1\u03ae\u03bb \u03c0\u03bb\u03b7\u03bd \u03b5\u03ac\u03bd \u03c6\u03c5\u03bb\u03ac\u03be\u03c9\u03bd\u03c4\u03b1\u03b9 \u03bf\u03b9 \u03c5\u03b9\u03bf\u03af \u03c3\u03bf\u03c5 \u03c4\u03b1\u03c2 \u03bf\u03b4\u03bf\u03cd\u03c2 \u03b1\u03c5\u03c4\u03ce\u03bd \u03c4\u03bf\u03c5 \u03c0\u03bf\u03c1\u03b5\u03cd\u03b5\u03c3\u03b8\u03b1\u03b9 \u03b5\u03bd\u03ce\u03c0\u03b9\u03cc\u03bd \u03bc\u03bf\u03c5 \u03ba\u03b1\u03b8\u03ce\u03c2 \u03b5\u03c0\u03bf\u03c1\u03b5\u03cd\u03b8\u03b7\u03c2 \u03c3\u03c5 \u03b5\u03bd\u03ce\u03c0\u03b9\u03cc\u03bd \u03bc\u03bf\u03cd"
        },
        {
            "chapter": 8,
            "verse": 26,
            "name": "1 Kings 8:26",
            "text": "\u03ba\u03b1\u03b9 \u03bd\u03c5\u03bd \u03ba\u03cd\u03c1\u03b9\u03b5 \u03bf \u03b8\u03b5\u03cc\u03c2 \u0399\u03c3\u03c1\u03b1\u03ae\u03bb \u03c0\u03b9\u03c3\u03c4\u03c9\u03b8\u03ae\u03c4\u03c9 \u03b4\u03b7 \u03c4\u03bf \u03c1\u03ae\u03bc\u03ac \u03c3\u03bf\u03c5 \u0394\u03b1\u03c5\u03af\u03b4 \u03c4\u03c9 \u03c0\u03b1\u03c4\u03c1\u03af \u03bc\u03bf\u03c5"
        },
        {
            "chapter": 8,
            "verse": 27,
            "name": "1 Kings 8:27",
            "text": "\u03cc\u03c4\u03b9 \u03b5\u03b9 \u03b1\u03bb\u03b7\u03b8\u03ce\u03c2 \u03ba\u03b1\u03c4\u03bf\u03b9\u03ba\u03ae\u03c3\u03b5\u03b9 \u03bf \u03b8\u03b5\u03cc\u03c2 \u03bc\u03b5\u03c4\u03ac \u03b1\u03bd\u03b8\u03c1\u03ce\u03c0\u03c9\u03bd \u03b5\u03c0\u03af \u03c4\u03b7\u03c2 \u03b3\u03b7\u03c2 \u03b5\u03b9 \u03bf \u03bf\u03c5\u03c1\u03b1\u03bd\u03cc\u03c2 \u03ba\u03b1\u03b9 \u03bf\u03b9 \u03bf\u03c5\u03c1\u03b1\u03bd\u03bf\u03af \u03c4\u03c9\u03bd \u03bf\u03c5\u03c1\u03b1\u03bd\u03ce\u03bd \u03bf\u03c5\u03ba \u03b1\u03c1\u03ba\u03ad\u03c3\u03bf\u03c5\u03c3\u03af \u03c3\u03bf\u03b9 \u03c0\u03c9\u03c2 \u03ba\u03b1\u03b9 \u03bf \u03bf\u03af\u03ba\u03bf\u03c2 \u03bf\u03cd\u03c4\u03bf\u03c2 \u03bf\u03bd \u03c9\u03ba\u03bf\u03b4\u03cc\u03bc\u03b7\u03c3\u03b1 \u03c4\u03c9 \u03bf\u03bd\u03cc\u03bc\u03b1\u03c4\u03af \u03c3\u03bf\u03c5"
        },
        {
            "chapter": 8,
            "verse": 28,
            "name": "1 Kings 8:28",
            "text": "\u03ba\u03b1\u03b9 \u03b5\u03c0\u03b9\u03b2\u03bb\u03ad\u03c8\u03b7 \u03ba\u03b1\u03b9 \u03b5\u03c0\u03af \u03c4\u03b7\u03bd \u03c0\u03c1\u03bf\u03c3\u03b5\u03c5\u03c7\u03ae\u03bd \u03bc\u03bf\u03c5 \u03b5\u03c0\u03af \u03c4\u03b7\u03bd \u03b4\u03ad\u03b7\u03c3\u03af\u03bd \u03bc\u03bf\u03c5 \u03ba\u03cd\u03c1\u03b9\u03b5 \u03bf \u03b8\u03b5\u03cc\u03c2 \u0399\u03c3\u03c1\u03b1\u03ae\u03bb \u03b1\u03ba\u03bf\u03cd\u03b5\u03b9\u03bd \u03c4\u03b7\u03c2 \u03b4\u03b5\u03ae\u03c3\u03b5\u03c9\u03c2 \u03ba\u03b1\u03b9 \u03c4\u03b7\u03c2 \u03c0\u03c1\u03bf\u03c3\u03b5\u03c5\u03c7\u03ae\u03c2 \u03b7\u03c2 \u03bf \u03b4\u03bf\u03cd\u03bb\u03cc\u03c2 \u03c3\u03bf\u03c5 \u03c0\u03c1\u03bf\u03c3\u03b5\u03cd\u03c7\u03b5\u03c4\u03b1\u03b9 \u03b5\u03bd\u03ce\u03c0\u03b9\u03cc\u03bd \u03c3\u03bf\u03c5 \u03c0\u03c1\u03bf\u03c2 \u03c3\u03b5 \u03c3\u03ae\u03bc\u03b5\u03c1\u03bf\u03bd"
        },
        {
            "chapter": 8,
            "verse": 29,
            "name": "1 Kings 8:29",
            "text": "\u03c4\u03bf\u03c5 \u03b5\u03af\u03bd\u03b1\u03b9 \u03bf\u03c6\u03b8\u03b1\u03bb\u03bc\u03bf\u03cd\u03c2 \u03c3\u03bf\u03c5 \u03b7\u03bd\u03b5\u03c9\u03b3\u03bc\u03ad\u03bd\u03bf\u03c5\u03c2 \u03b5\u03b9\u03c2 \u03c4\u03bf\u03bd \u03bf\u03af\u03ba\u03bf\u03bd \u03c4\u03bf\u03cd\u03c4\u03bf\u03bd \u03b7\u03bc\u03ad\u03c1\u03b1\u03c2 \u03ba\u03b1\u03b9 \u03bd\u03c5\u03ba\u03c4\u03cc\u03c2 \u03b5\u03b9\u03c2 \u03c4\u03bf\u03bd \u03c4\u03cc\u03c0\u03bf\u03bd \u03c4\u03bf\u03cd\u03c4\u03bf\u03bd \u03bf\u03bd \u03b5\u03af\u03c0\u03b1\u03c2 \u03ad\u03c3\u03c4\u03b1\u03b9 \u03c4\u03bf \u03cc\u03bd\u03bf\u03bc\u03ac \u03bc\u03bf\u03c5 \u03b5\u03ba\u03b5\u03af \u03c4\u03bf\u03c5 \u03b5\u03b9\u03c3\u03b1\u03ba\u03bf\u03cd\u03b5\u03b9\u03bd \u03c4\u03b7\u03c2 \u03c0\u03c1\u03bf\u03c3\u03b5\u03c5\u03c7\u03ae\u03c2 \u03b7\u03c2 \u03c0\u03c1\u03bf\u03c3\u03b5\u03cd\u03c7\u03b5\u03c4\u03b1\u03b9 \u03bf \u03b4\u03bf\u03cd\u03bb\u03cc\u03c2 \u03c3\u03bf\u03c5 \u03b5\u03b9\u03c2 \u03c4\u03bf\u03bd \u03c4\u03cc\u03c0\u03bf\u03bd \u03c4\u03bf\u03cd\u03c4\u03bf\u03bd"
        },
        {
            "chapter": 8,
            "verse": 30,
            "name": "1 Kings 8:30",
            "text": "\u03ba\u03b1\u03b9 \u03b5\u03b9\u03c3\u03b1\u03ba\u03bf\u03cd\u03c3\u03b7 \u03c4\u03b7\u03c2 \u03b4\u03b5\u03ae\u03c3\u03b5\u03c9\u03c2 \u03c4\u03bf\u03c5 \u03b4\u03bf\u03cd\u03bb\u03bf\u03c5 \u03c3\u03bf\u03c5 \u03ba\u03b1\u03b9 \u03c4\u03bf\u03c5 \u03bb\u03b1\u03bf\u03cd \u03c3\u03bf\u03c5 \u0399\u03c3\u03c1\u03b1\u03ae\u03bb \u03cc\u03c3\u03b1 \u03b1\u03bd \u03c0\u03c1\u03bf\u03c3\u03b5\u03cd\u03be\u03c9\u03bd\u03c4\u03b1\u03b9 \u03b5\u03b9\u03c2 \u03c4\u03bf\u03bd \u03c4\u03cc\u03c0\u03bf\u03bd \u03c4\u03bf\u03cd\u03c4\u03bf\u03bd \u03ba\u03b1\u03b9 \u03c3\u03c5 \u03b5\u03b9\u03c3\u03b1\u03ba\u03bf\u03cd\u03c3\u03b7 \u03b5\u03bd \u03c4\u03c9 \u03c4\u03cc\u03c0\u03c9 \u03c4\u03b7\u03c2 \u03ba\u03b1\u03c4\u03bf\u03b9\u03ba\u03ae\u03c3\u03b5\u03ce\u03c2 \u03c3\u03bf\u03c5 \u03b5\u03bd \u03bf\u03c5\u03c1\u03b1\u03bd\u03ce \u03ba\u03b1\u03b9 \u03c0\u03bf\u03b9\u03ae\u03c3\u03b5\u03b9\u03c2 \u03ba\u03b1\u03b9 \u03af\u03bb\u03b5\u03c9\u03c2 \u03ad\u03c3\u03b7"
        },
        {
            "chapter": 8,
            "verse": 31,
            "name": "1 Kings 8:31",
            "text": "\u03cc\u03c3\u03b1 \u03b1\u03bd \u03b1\u03bc\u03ac\u03c1\u03c4\u03b7 \u03ac\u03bd\u03b8\u03c1\u03c9\u03c0\u03bf\u03c2 \u03c4\u03c9 \u03c0\u03bb\u03b7\u03c3\u03af\u03bf\u03bd \u03b1\u03c5\u03c4\u03bf\u03cd \u03ba\u03b1\u03b9 \u03b5\u03ac\u03bd \u03bb\u03ac\u03b2\u03b7 \u03b5\u03c0\u0384 \u03b1\u03c5\u03c4\u03cc\u03bd \u03b1\u03c1\u03ac\u03bd \u03c4\u03bf\u03c5 \u03b1\u03c1\u03ac\u03c3\u03b1\u03c3\u03b8\u03b1\u03b9 \u03b1\u03c5\u03c4\u03cc\u03bd \u03ba\u03b1\u03b9 \u03ad\u03bb\u03b8\u03b7 \u03ba\u03b1\u03b9 \u03b5\u03be\u03b1\u03b3\u03bf\u03c1\u03b5\u03cd\u03c3\u03b7 \u03ba\u03b1\u03c4\u03ac \u03c0\u03c1\u03cc\u03c3\u03c9\u03c0\u03bf\u03bd \u03c4\u03bf\u03c5 \u03b8\u03c5\u03c3\u03b9\u03b1\u03c3\u03c4\u03b7\u03c1\u03af\u03bf\u03c5 \u03c3\u03bf\u03c5 \u03b5\u03bd \u03c4\u03c9 \u03bf\u03af\u03ba\u03c9 \u03c4\u03bf\u03cd\u03c4\u03c9"
        },
        {
            "chapter": 8,
            "verse": 32,
            "name": "1 Kings 8:32",
            "text": "\u03ba\u03b1\u03b9 \u03b5\u03b9\u03c3\u03b1\u03ba\u03bf\u03cd\u03c3\u03b7 \u03b5\u03ba \u03c4\u03bf\u03c5 \u03bf\u03c5\u03c1\u03b1\u03bd\u03bf\u03cd \u03ba\u03b1\u03b9 \u03c0\u03bf\u03b9\u03ae\u03c3\u03b5\u03b9\u03c2 \u03ba\u03b1\u03b9 \u03ba\u03c1\u03b9\u03bd\u03b5\u03af\u03c2 \u03c4\u03bf\u03bd \u03bb\u03b1\u03cc\u03bd \u03c3\u03bf\u03c5 \u0399\u03c3\u03c1\u03b1\u03ae\u03bb \u03c4\u03bf\u03c5 \u03b1\u03bd\u03bf\u03bc\u03ae\u03c3\u03b1\u03b9 \u03ac\u03bd\u03bf\u03bc\u03bf\u03bd \u03b4\u03bf\u03cd\u03bd\u03b1\u03b9 \u03c4\u03b7\u03bd \u03bf\u03b4\u03cc\u03bd \u03b1\u03c5\u03c4\u03bf\u03cd \u03b5\u03b9\u03c2 \u03ba\u03b5\u03c6\u03b1\u03bb\u03ae\u03bd \u03b1\u03c5\u03c4\u03bf\u03cd \u03ba\u03b1\u03b9 \u03c4\u03bf\u03c5 \u03b4\u03b9\u03ba\u03b1\u03b9\u03ce\u03c3\u03b1\u03b9 \u03b4\u03af\u03ba\u03b1\u03b9\u03bf\u03bd \u03b4\u03bf\u03cd\u03bd\u03b1\u03b9 \u03b1\u03c5\u03c4\u03ce \u03ba\u03b1\u03c4\u03ac \u03c4\u03b7\u03bd \u03b4\u03b9\u03ba\u03b1\u03b9\u03bf\u03c3\u03cd\u03bd\u03b7\u03bd \u03b1\u03c5\u03c4\u03bf\u03cd"
        },
        {
            "chapter": 8,
            "verse": 33,
            "name": "1 Kings 8:33",
            "text": "\u03b5\u03bd \u03c4\u03c9 \u03c0\u03c4\u03b1\u03af\u03c3\u03b1\u03b9 \u03c4\u03bf\u03bd \u03bb\u03b1\u03cc\u03bd \u03c3\u03bf\u03c5 \u0399\u03c3\u03c1\u03b1\u03ae\u03bb \u03b5\u03bd\u03ce\u03c0\u03b9\u03bf\u03bd \u03b5\u03c7\u03b8\u03c1\u03ce\u03bd \u03b1\u03c5\u03c4\u03ce\u03bd \u03cc\u03c4\u03b9 \u03b1\u03bc\u03b1\u03c1\u03c4\u03ae\u03c3\u03bf\u03bd\u03c4\u03b1\u03af \u03c3\u03bf\u03b9 \u03ba\u03b1\u03b9 \u03b5\u03c0\u03b9\u03c3\u03c4\u03c1\u03ad\u03c8\u03bf\u03c5\u03c3\u03b9 \u03ba\u03b1\u03b9 \u03b5\u03be\u03bf\u03bc\u03bf\u03bb\u03bf\u03b3\u03ae\u03c3\u03bf\u03bd\u03c4\u03b1\u03b9 \u03c4\u03c9 \u03bf\u03bd\u03cc\u03bc\u03b1\u03c4\u03af \u03c3\u03bf\u03c5 \u03ba\u03b1\u03b9 \u03c0\u03c1\u03bf\u03c3\u03b5\u03cd\u03be\u03bf\u03bd\u03c4\u03b1\u03b9 \u03ba\u03b1\u03b9 \u03b4\u03b5\u03b7\u03b8\u03ae\u03c3\u03bf\u03bd\u03c4\u03b1\u03b9 \u03b5\u03bd \u03c4\u03c9 \u03bf\u03af\u03ba\u03c9 \u03c4\u03bf\u03cd\u03c4\u03c9"
        },
        {
            "chapter": 8,
            "verse": 34,
            "name": "1 Kings 8:34",
            "text": "\u03ba\u03b1\u03b9 \u03c3\u03c5 \u03b5\u03b9\u03c3\u03b1\u03ba\u03bf\u03cd\u03c3\u03b7 \u03b5\u03ba \u03c4\u03bf\u03c5 \u03bf\u03c5\u03c1\u03b1\u03bd\u03bf\u03cd \u03ba\u03b1\u03b9 \u03af\u03bb\u03b5\u03c9\u03c2 \u03ad\u03c3\u03b7 \u03c4\u03b1\u03b9\u03c2 \u03b1\u03bc\u03b1\u03c1\u03c4\u03af\u03b1\u03b9\u03c2 \u03c4\u03bf\u03c5 \u03bb\u03b1\u03bf\u03cd \u03c3\u03bf\u03c5 \u0399\u03c3\u03c1\u03b1\u03ae\u03bb \u03ba\u03b1\u03b9 \u03b5\u03c0\u03b9\u03c3\u03c4\u03c1\u03ad\u03c8\u03b5\u03b9\u03c2 \u03b1\u03c5\u03c4\u03bf\u03cd\u03c2 \u03b5\u03b9\u03c2 \u03c4\u03b7\u03bd \u03b3\u03b7\u03bd \u03b7\u03bd \u03ad\u03b4\u03c9\u03ba\u03b1\u03c2 \u03c4\u03bf\u03b9\u03c2 \u03c0\u03b1\u03c4\u03c1\u03ac\u03c3\u03b9\u03bd \u03b1\u03c5\u03c4\u03ce\u03bd"
        },
        {
            "chapter": 8,
            "verse": 35,
            "name": "1 Kings 8:35",
            "text": "\u03b5\u03bd \u03c4\u03c9 \u03c3\u03c5\u03c3\u03c7\u03b5\u03b8\u03ae\u03bd\u03b1\u03b9 \u03c4\u03bf\u03bd \u03bf\u03c5\u03c1\u03b1\u03bd\u03cc\u03bd \u03ba\u03b1\u03b9 \u03bc\u03b7 \u03b3\u03b5\u03bd\u03ad\u03c3\u03b8\u03b1\u03b9 \u03c5\u03b5\u03c4\u03cc\u03bd \u03cc\u03c4\u03b9 \u03b1\u03bc\u03b1\u03c1\u03c4\u03ae\u03c3\u03bf\u03bd\u03c4\u03b1\u03af \u03c3\u03bf\u03b9 \u03ba\u03b1\u03b9 \u03c0\u03c1\u03bf\u03c3\u03b5\u03cd\u03be\u03bf\u03bd\u03c4\u03b1\u03b9 \u03b5\u03b9\u03c2 \u03c4\u03bf\u03bd \u03c4\u03cc\u03c0\u03bf\u03bd \u03c4\u03bf\u03cd\u03c4\u03bf\u03bd \u03ba\u03b1\u03b9 \u03b5\u03be\u03bf\u03bc\u03bf\u03bb\u03bf\u03b3\u03ae\u03c3\u03bf\u03bd\u03c4\u03b1\u03b9 \u03c4\u03c9 \u03bf\u03bd\u03cc\u03bc\u03b1\u03c4\u03af \u03c3\u03bf\u03c5 \u03ba\u03b1\u03b9 \u03b1\u03c0\u03cc \u03c4\u03c9\u03bd \u03b1\u03bc\u03b1\u03c1\u03c4\u03b9\u03ce\u03bd \u03b1\u03c5\u03c4\u03ce\u03bd \u03b1\u03c0\u03bf\u03c3\u03c4\u03c1\u03ad\u03c8\u03bf\u03c5\u03c3\u03b9\u03bd \u03cc\u03c4\u03b1\u03bd \u03c4\u03b1\u03c0\u03b5\u03b9\u03bd\u03ce\u03c3\u03b7\u03c2 \u03b1\u03c5\u03c4\u03bf\u03cd\u03c2"
        },
        {
            "chapter": 8,
            "verse": 36,
            "name": "1 Kings 8:36",
            "text": "\u03ba\u03b1\u03b9 \u03b5\u03b9\u03c3\u03b1\u03ba\u03bf\u03cd\u03c3\u03b7 \u03b5\u03ba \u03c4\u03bf\u03c5 \u03bf\u03c5\u03c1\u03b1\u03bd\u03bf\u03cd \u03ba\u03b1\u03b9 \u03af\u03bb\u03b5\u03c9\u03c2 \u03ad\u03c3\u03b7 \u03c4\u03b1\u03b9\u03c2 \u03b1\u03bc\u03b1\u03c1\u03c4\u03af\u03b1\u03b9\u03c2 \u03c4\u03bf\u03c5 \u03b4\u03bf\u03cd\u03bb\u03bf\u03c5 \u03c3\u03bf\u03c5 \u03ba\u03b1\u03b9 \u03c4\u03bf\u03c5 \u03bb\u03b1\u03bf\u03cd \u03c3\u03bf\u03c5 \u0399\u03c3\u03c1\u03b1\u03ae\u03bb \u03cc\u03c4\u03b9 \u03b4\u03b7\u03bb\u03ce\u03c3\u03b5\u03b9\u03c2 \u03b1\u03c5\u03c4\u03bf\u03af\u03c2 \u03c4\u03b7\u03bd \u03bf\u03b4\u03cc\u03bd \u03c4\u03b7\u03bd \u03b1\u03b3\u03b1\u03b8\u03ae\u03bd \u03c0\u03bf\u03c1\u03b5\u03cd\u03b5\u03c3\u03b8\u03b1\u03b9 \u03b5\u03bd \u03b1\u03c5\u03c4\u03ae \u03ba\u03b1\u03b9 \u03b4\u03ce\u03c3\u03b5\u03b9\u03c2 \u03c5\u03b5\u03c4\u03cc\u03bd \u03b5\u03c0\u03af \u03c4\u03b7\u03bd \u03b3\u03b7\u03bd \u03c3\u03bf\u03c5 \u03b7\u03bd \u03ad\u03b4\u03c9\u03ba\u03b1\u03c2 \u03c4\u03c9 \u03bb\u03b1\u03ce \u03c3\u03bf\u03c5 \u03b5\u03bd \u03ba\u03bb\u03b7\u03c1\u03bf\u03bd\u03bf\u03bc\u03af\u03b1"
        },
        {
            "chapter": 8,
            "verse": 37,
            "name": "1 Kings 8:37",
            "text": "\u03bb\u03b9\u03bc\u03cc\u03c2 \u03b5\u03ac\u03bd \u03b3\u03ad\u03bd\u03b7\u03c4\u03b1\u03b9 \u03b8\u03ac\u03bd\u03b1\u03c4\u03bf\u03c2 \u03b5\u03ac\u03bd \u03b3\u03ad\u03bd\u03b7\u03c4\u03b1\u03b9 \u03cc\u03c4\u03b5 \u03ad\u03c3\u03c4\u03b1\u03b9 \u03b5\u03bc\u03c0\u03c5\u03c1\u03b9\u03c3\u03bc\u03cc\u03c2 \u03b2\u03c1\u03bf\u03cd\u03c7\u03bf\u03c2 \u03b5\u03c1\u03c5\u03c3\u03af\u03b2\u03b7 \u03b5\u03ac\u03bd \u03b3\u03ad\u03bd\u03b7\u03c4\u03b1\u03b9 \u03ba\u03b1\u03b9 \u03b5\u03ac\u03bd \u03b8\u03bb\u03af\u03c8\u03b7 \u03b1\u03c5\u03c4\u03cc\u03bd \u03bf \u03b5\u03c7\u03b8\u03c1\u03cc\u03c2 \u03b1\u03c5\u03c4\u03bf\u03cd \u03b5\u03bd \u03bc\u03af\u03b1 \u03c4\u03c9\u03bd \u03c0\u03cc\u03bb\u03b5\u03c9\u03bd \u03b1\u03c5\u03c4\u03ce\u03bd \u03c0\u03b1\u03bd \u03c3\u03c5\u03bd\u03ac\u03bd\u03c4\u03b7\u03bc\u03b1 \u03c0\u03ac\u03bd\u03c4\u03b1 \u03c0\u03cc\u03bd\u03bf\u03bd"
        },
        {
            "chapter": 8,
            "verse": 38,
            "name": "1 Kings 8:38",
            "text": "\u03c0\u03ac\u03c3\u03b1\u03bd \u03c0\u03c1\u03bf\u03c3\u03b5\u03c5\u03c7\u03ae \u03c0\u03ac\u03c3\u03b1\u03bd \u03b4\u03ad\u03b7\u03c3\u03b9\u03c2 \u03b5\u03ac\u03bd \u03b3\u03ad\u03bd\u03b7\u03c4\u03b1\u03b9 \u03c0\u03b1\u03bd\u03c4\u03af \u03b1\u03bd\u03b8\u03c1\u03ce\u03c0\u03c9 \u03c9\u03c2 \u03b1\u03bd \u03b3\u03bd\u03ce\u03c3\u03b9\u03bd \u03ad\u03ba\u03b1\u03c3\u03c4\u03bf\u03c2 \u03b1\u03c6\u03ae\u03bd \u03ba\u03b1\u03c1\u03b4\u03af\u03b1\u03c2 \u03b1\u03c5\u03c4\u03bf\u03cd \u03ba\u03b1\u03b9 \u03b4\u03b9\u03b1\u03c0\u03b5\u03c4\u03ac\u03c3\u03b7 \u03c4\u03b1\u03c2 \u03c7\u03b5\u03af\u03c1\u03b1\u03c2 \u03b1\u03c5\u03c4\u03bf\u03cd \u03b5\u03b9\u03c2 \u03c4\u03bf\u03bd \u03bf\u03af\u03ba\u03bf\u03bd \u03c4\u03bf\u03cd\u03c4\u03bf\u03bd"
        },
        {
            "chapter": 8,
            "verse": 39,
            "name": "1 Kings 8:39",
            "text": "\u03ba\u03b1\u03b9 \u03c3\u03c5 \u03b5\u03b9\u03c3\u03b1\u03ba\u03bf\u03cd\u03c3\u03b7 \u03b5\u03ba \u03c4\u03bf\u03c5 \u03bf\u03c5\u03c1\u03b1\u03bd\u03bf\u03cd \u03b5\u03be \u03b5\u03c4\u03bf\u03af\u03bc\u03bf\u03c5 \u03ba\u03b1\u03c4\u03bf\u03b9\u03ba\u03b7\u03c4\u03b7\u03c1\u03af\u03bf\u03c5 \u03c3\u03bf\u03c5 \u03ba\u03b1\u03b9 \u03af\u03bb\u03b5\u03c9\u03c2 \u03ad\u03c3\u03b7 \u03ba\u03b1\u03b9 \u03c0\u03bf\u03b9\u03ae\u03c3\u03b5\u03b9\u03c2 \u03ba\u03b1\u03b9 \u03b4\u03ce\u03c3\u03b5\u03b9\u03c2 \u03b1\u03bd\u03b4\u03c1\u03af \u03ba\u03b1\u03c4\u03ac \u03c0\u03ac\u03bd\u03c4\u03b1\u03c2 \u03c4\u03b1\u03c2 \u03bf\u03b4\u03bf\u03cd\u03c2 \u03b1\u03c5\u03c4\u03bf\u03cd \u03ba\u03b1\u03b8\u03ce\u03c2 \u03b1\u03bd \u03b3\u03bd\u03c9\u03c2 \u03c4\u03b7\u03bd \u03ba\u03b1\u03c1\u03b4\u03af\u03b1\u03bd \u03b1\u03c5\u03c4\u03bf\u03cd \u03cc\u03c4\u03b9 \u03c3\u03c5 \u03bc\u03bf\u03bd\u03ce\u03c4\u03b1\u03c4\u03bf\u03c2 \u03bf\u03af\u03b4\u03b1\u03c2 \u03c4\u03b7\u03bd \u03ba\u03b1\u03c1\u03b4\u03af\u03b1\u03bd \u03c0\u03ac\u03bd\u03c4\u03c9\u03bd \u03c4\u03c9\u03bd \u03c5\u03b9\u03ce\u03bd \u03b1\u03bd\u03b8\u03c1\u03ce\u03c0\u03c9\u03bd"
        },
        {
            "chapter": 8,
            "verse": 40,
            "name": "1 Kings 8:40",
            "text": "\u03cc\u03c0\u03c9\u03c2 \u03b1\u03bd \u03c6\u03bf\u03b2\u03ce\u03bd\u03c4\u03b1\u03af \u03c3\u03b5 \u03c0\u03ac\u03c3\u03b1\u03c2 \u03c4\u03b1\u03c2 \u03b7\u03bc\u03ad\u03c1\u03b1\u03c2 \u03b1\u03c2 \u03b1\u03c5\u03c4\u03bf\u03af \u03b6\u03ce\u03c3\u03b9\u03bd \u03b5\u03c0\u03af \u03c4\u03b7\u03c2 \u03b3\u03b7\u03c2 \u03b7\u03c2 \u03ad\u03b4\u03c9\u03ba\u03b1\u03c2 \u03c4\u03bf\u03b9\u03c2 \u03c0\u03b1\u03c4\u03c1\u03ac\u03c3\u03b9\u03bd \u03b7\u03bc\u03ce\u03bd"
        },
        {
            "chapter": 8,
            "verse": 41,
            "name": "1 Kings 8:41",
            "text": "\u03ba\u03b1\u03b9 \u03c4\u03c9 \u03b1\u03bb\u03bb\u03bf\u03c4\u03c1\u03af\u03c9 \u03bf\u03c2 \u03bf\u03c5\u03ba \u03ad\u03c3\u03c4\u03b9\u03bd \u03b5\u03ba \u03c4\u03bf\u03c5 \u03bb\u03b1\u03bf\u03cd \u03c3\u03bf\u03c5 \u0399\u03c3\u03c1\u03b1\u03ae\u03bb \u03bf\u03cd\u03c4\u03bf\u03c2 \u03ba\u03b1\u03b9 \u03ae\u03be\u03b5\u03b9 \u03b5\u03ba \u03b3\u03b7\u03c2 \u03bc\u03b1\u03ba\u03c1\u03cc\u03b8\u03b5\u03bd \u03b4\u03b9\u03ac \u03c4\u03bf \u03cc\u03bd\u03bf\u03bc\u03ac \u03c3\u03bf\u03c5"
        },
        {
            "chapter": 8,
            "verse": 42,
            "name": "1 Kings 8:42",
            "text": "\u03b4\u03b9\u03cc\u03c4\u03b9 \u03b1\u03ba\u03bf\u03cd\u03c3\u03bf\u03bd\u03c4\u03b1\u03b9 \u03c4\u03bf \u03cc\u03bd\u03bf\u03bc\u03ac \u03c3\u03bf\u03c5 \u03c4\u03bf \u03bc\u03ad\u03b3\u03b1 \u03ba\u03b1\u03b9 \u03c4\u03b7\u03bd \u03c7\u03b5\u03af\u03c1\u03b1 \u03c3\u03bf\u03c5 \u03c4\u03b7\u03bd \u03ba\u03c1\u03b1\u03c4\u03b1\u03b9\u03ac\u03bd \u03ba\u03b1\u03b9 \u03c4\u03bf\u03bd \u03b2\u03c1\u03b1\u03c7\u03af\u03bf\u03bd\u03ac \u03c3\u03bf\u03c5 \u03c4\u03bf\u03bd \u03c5\u03c8\u03b7\u03bb\u03cc\u03bd \u03ba\u03b1\u03b9 \u03ae\u03be\u03b5\u03b9 \u03ba\u03b1\u03b9 \u03c0\u03c1\u03bf\u03c3\u03b5\u03cd\u03be\u03b5\u03c4\u03b1\u03b9 \u03b5\u03b9\u03c2 \u03c4\u03bf\u03bd \u03c4\u03cc\u03c0\u03bf\u03bd \u03c4\u03bf\u03cd\u03c4\u03bf\u03bd"
        },
        {
            "chapter": 8,
            "verse": 43,
            "name": "1 Kings 8:43",
            "text": "\u03ba\u03b1\u03b9 \u03c3\u03c5 \u03b5\u03b9\u03c3\u03b1\u03ba\u03bf\u03cd\u03c3\u03b7 \u03b5\u03ba \u03c4\u03bf\u03c5 \u03bf\u03c5\u03c1\u03b1\u03bd\u03bf\u03cd \u03b5\u03be \u03b5\u03c4\u03bf\u03af\u03bc\u03bf\u03c5 \u03ba\u03b1\u03c4\u03bf\u03b9\u03ba\u03b7\u03c4\u03b7\u03c1\u03af\u03bf\u03c5 \u03c3\u03bf\u03c5 \u03ba\u03b1\u03b9 \u03c0\u03bf\u03b9\u03ae\u03c3\u03b5\u03b9\u03c2 \u03ba\u03b1\u03c4\u03ac \u03c0\u03ac\u03bd\u03c4\u03b1 \u03b1 \u03b5\u03c0\u03b9\u03ba\u03b1\u03bb\u03ad\u03c3\u03b7\u03c4\u03b1\u03af \u03c3\u03b5 \u03bf \u03b1\u03bb\u03bb\u03cc\u03c4\u03c1\u03b9\u03bf\u03c2 \u03cc\u03c0\u03c9\u03c2 \u03b1\u03bd \u03b3\u03bd\u03ce\u03c3\u03b9 \u03c0\u03ac\u03bd\u03c4\u03b5\u03c2 \u03bf\u03b9 \u03bb\u03b1\u03bf\u03af \u03c4\u03b7\u03c2 \u03b3\u03b7\u03c2 \u03c4\u03bf \u03cc\u03bd\u03bf\u03bc\u03ac \u03c3\u03bf\u03c5 \u03ba\u03b1\u03b9 \u03c6\u03bf\u03b2\u03ce\u03bd\u03c4\u03b1\u03af \u03c3\u03b5 \u03ba\u03b1\u03b8\u03ce\u03c2 \u03bf \u03bb\u03b1\u03cc\u03c2 \u03c3\u03bf\u03c5 \u0399\u03c3\u03c1\u03b1\u03ae\u03bb \u03ba\u03b1\u03b9 \u03b3\u03bd\u03ce\u03c3\u03b9\u03bd \u03cc\u03c4\u03b9 \u03c4\u03bf \u03cc\u03bd\u03bf\u03bc\u03ac \u03c3\u03bf\u03c5 \u03b5\u03c0\u03b9\u03ba\u03ad\u03ba\u03bb\u03b7\u03c4\u03b1\u03b9 \u03b5\u03c0\u03af \u03c4\u03bf\u03bd \u03bf\u03af\u03ba\u03bf\u03bd \u03c4\u03bf\u03cd\u03c4\u03bf\u03bd \u03bf\u03bd \u03c9\u03ba\u03bf\u03b4\u03cc\u03bc\u03b7\u03c3\u03b1"
        },
        {
            "chapter": 8,
            "verse": 44,
            "name": "1 Kings 8:44",
            "text": "\u03b5\u03ac\u03bd \u03b4\u03b5 \u03b5\u03be\u03ad\u03bb\u03b8\u03b7 \u03bf \u03bb\u03b1\u03cc\u03c2 \u03c3\u03bf\u03c5 \u03b5\u03b9\u03c2 \u03c0\u03cc\u03bb\u03b5\u03bc\u03bf\u03bd \u03b5\u03c0\u03af \u03c4\u03bf\u03c5\u03c2 \u03b5\u03c7\u03b8\u03c1\u03bf\u03cd\u03c2 \u03b1\u03c5\u03c4\u03bf\u03cd \u03b5\u03bd \u03bf\u03b4\u03ce \u03b7 \u03b1\u03c0\u03bf\u03c3\u03c4\u03b5\u03bb\u03b5\u03af\u03c2 \u03b1\u03c5\u03c4\u03bf\u03cd\u03c2 \u03ba\u03b1\u03b9 \u03c0\u03c1\u03bf\u03c3\u03b5\u03cd\u03be\u03bf\u03bd\u03c4\u03b1\u03b9 \u03b5\u03bd \u03bf\u03bd\u03cc\u03bc\u03b1\u03c4\u03b9 \u03ba\u03c5\u03c1\u03af\u03bf\u03c5 \u03bf\u03b4\u03cc\u03bd \u03c4\u03b7\u03c2 \u03c0\u03cc\u03bb\u03b5\u03c9\u03c2 \u03bf\u03c6 \u03b7\u03c2 \u03b5\u03be\u03b5\u03bb\u03ad\u03be\u03c9 \u03b5\u03bd \u03b1\u03c5\u03c4\u03ae \u03ba\u03b1\u03b9 \u03c4\u03bf\u03c5 \u03bf\u03af\u03ba\u03bf\u03c5 \u03bf\u03bd \u03c9\u03ba\u03bf\u03b4\u03cc\u03bc\u03b7\u03c3\u03b1 \u03c4\u03c9 \u03bf\u03bd\u03cc\u03bc\u03b1\u03c4\u03af \u03c3\u03bf\u03c5"
        },
        {
            "chapter": 8,
            "verse": 45,
            "name": "1 Kings 8:45",
            "text": "\u03ba\u03b1\u03b9 \u03b5\u03b9\u03c3\u03b1\u03ba\u03bf\u03cd\u03c3\u03b7 \u03b5\u03ba \u03c4\u03bf\u03c5 \u03bf\u03c5\u03c1\u03b1\u03bd\u03bf\u03cd \u03c4\u03b7\u03c2 \u03b4\u03b5\u03ae\u03c3\u03b5\u03c9\u03c2 \u03b1\u03c5\u03c4\u03ce\u03bd \u03ba\u03b1\u03b9 \u03c4\u03b7\u03c2 \u03c0\u03c1\u03bf\u03c3\u03b5\u03c5\u03c7\u03ae\u03c2 \u03b1\u03c5\u03c4\u03ce\u03bd \u03ba\u03b1\u03b9 \u03c0\u03bf\u03b9\u03ae\u03c3\u03b5\u03b9\u03c2 \u03c4\u03bf \u03b4\u03b9\u03ba\u03b1\u03af\u03c9\u03bc\u03b1 \u03b1\u03c5\u03c4\u03bf\u03af\u03c2"
        },
        {
            "chapter": 8,
            "verse": 46,
            "name": "1 Kings 8:46",
            "text": "\u03cc\u03c4\u03b9 \u03b1\u03bc\u03b1\u03c1\u03c4\u03ae\u03c3\u03bf\u03bd\u03c4\u03b1\u03af \u03c3\u03bf\u03b9 \u03cc\u03c4\u03b9 \u03bf\u03c5\u03ba \u03ad\u03c3\u03c4\u03b9\u03bd \u03ac\u03bd\u03b8\u03c1\u03c9\u03c0\u03bf\u03c2 \u03bf\u03c2 \u03bf\u03c5\u03c7 \u03b1\u03bc\u03b1\u03c1\u03c4\u03ae\u03c3\u03b5\u03c4\u03b1\u03b9 \u03ba\u03b1\u03b9 \u03b5\u03ac\u03bd \u03b5\u03c0\u03ac\u03be\u03b7\u03c2 \u03b5\u03c0\u0384 \u03b1\u03c5\u03c4\u03bf\u03cd\u03c2 \u03ba\u03b1\u03b9 \u03c0\u03b1\u03c1\u03b1\u03b4\u03ce\u03c2 \u03b1\u03c5\u03c4\u03bf\u03cd\u03c2 \u03b5\u03bd\u03ce\u03c0\u03b9\u03bf\u03bd \u03b5\u03c7\u03b8\u03c1\u03ce\u03bd \u03ba\u03b1\u03b9 \u03b1\u03b9\u03c7\u03bc\u03b1\u03bb\u03c9\u03c4\u03b5\u03cd\u03c3\u03c9\u03c3\u03b9\u03bd \u03b1\u03c5\u03c4\u03bf\u03cd\u03c2 \u03bf\u03b9 \u03b1\u03b9\u03c7\u03bc\u03b1\u03bb\u03c9\u03c4\u03af\u03b6\u03bf\u03bd\u03c4\u03b5\u03c2 \u03b5\u03b9\u03c2 \u03b3\u03b7\u03bd \u03bc\u03b1\u03ba\u03c1\u03ac\u03bd \u03b7 \u03b5\u03b3\u03b3\u03cd\u03c2"
        },
        {
            "chapter": 8,
            "verse": 47,
            "name": "1 Kings 8:47",
            "text": "\u03ba\u03b1\u03b9 \u03b5\u03c0\u03b9\u03c3\u03c4\u03c1\u03ad\u03c8\u03bf\u03c5\u03c3\u03b9 \u03c4\u03b1\u03c2 \u03ba\u03b1\u03c1\u03b4\u03af\u03b1\u03c2 \u03b1\u03c5\u03c4\u03ce\u03bd \u03b5\u03bd \u03c4\u03b7 \u03b3\u03b7 \u03bf\u03c5 \u03bc\u03b5\u03c4\u03ae\u03c7\u03b8\u03b7\u03c3\u03b1\u03bd \u03b5\u03ba\u03b5\u03af \u03ba\u03b1\u03b9 \u03b5\u03c0\u03b9\u03c3\u03c4\u03c1\u03ad\u03c8\u03c9\u03c3\u03b9 \u03ba\u03b1\u03b9 \u03b4\u03b5\u03b7\u03b8\u03ce\u03c3\u03b9 \u03c3\u03bf\u03c5 \u03b5\u03bd \u03c4\u03b7 \u03b3\u03b7 \u03c4\u03b7\u03c2 \u03bc\u03b5\u03c4\u03bf\u03b9\u03ba\u03af\u03b1\u03c2 \u03b1\u03c5\u03c4\u03ce\u03bd \u03bb\u03ad\u03b3\u03bf\u03bd\u03c4\u03b5\u03c2 \u03b7\u03bc\u03ac\u03c1\u03c4\u03bf\u03bc\u03b5\u03bd \u03b7\u03bd\u03bf\u03bc\u03ae\u03c3\u03b1\u03bc\u03b5\u03bd \u03b7\u03b4\u03b9\u03ba\u03ae\u03c3\u03b1\u03bc\u03b5\u03bd"
        },
        {
            "chapter": 8,
            "verse": 48,
            "name": "1 Kings 8:48",
            "text": "\u03ba\u03b1\u03b9 \u03b5\u03c0\u03b9\u03c3\u03c4\u03c1\u03ad\u03c8\u03c9\u03c3\u03b9 \u03c0\u03c1\u03bf\u03c2 \u03c3\u03b5 \u03b5\u03bd \u03cc\u03bb\u03b7 \u03c4\u03b7 \u03ba\u03b1\u03c1\u03b4\u03af\u03b1 \u03b1\u03c5\u03c4\u03ce\u03bd \u03ba\u03b1\u03b9 \u03b5\u03bd \u03cc\u03bb\u03b7 \u03c4\u03b7 \u03c8\u03c5\u03c7\u03ae \u03b1\u03c5\u03c4\u03ce\u03bd \u03b5\u03bd \u03c4\u03b7 \u03b3\u03b7 \u03c4\u03c9\u03bd \u03b5\u03c7\u03b8\u03c1\u03ce\u03bd \u03b1\u03c5\u03c4\u03ce\u03bd \u03bf\u03c5 \u03bc\u03b5\u03c4\u03ae\u03b3\u03b1\u03b3\u03b5\u03c2 \u03b1\u03c5\u03c4\u03bf\u03cd\u03c2 \u03ba\u03b1\u03b9 \u03c0\u03c1\u03bf\u03c3\u03b5\u03cd\u03be\u03c9\u03bd\u03c4\u03b1\u03b9 \u03c0\u03c1\u03bf\u03c2 \u03c3\u03b5 \u03bf\u03b4\u03cc\u03bd \u03c4\u03b7\u03c2 \u03b3\u03b7\u03c2 \u03b1\u03c5\u03c4\u03ce\u03bd \u03b7\u03c2 \u03ad\u03b4\u03c9\u03ba\u03b1\u03c2 \u03c4\u03bf\u03b9\u03c2 \u03c0\u03b1\u03c4\u03c1\u03ac\u03c3\u03b9\u03bd \u03b1\u03c5\u03c4\u03ce\u03bd \u03ba\u03b1\u03b9 \u03c4\u03b7\u03c2 \u03c0\u03cc\u03bb\u03b5\u03c9\u03c2 \u03b7\u03c2 \u03b5\u03be\u03b5\u03bb\u03ad\u03be\u03c9 \u03ba\u03b1\u03b9 \u03c4\u03bf\u03c5 \u03bf\u03af\u03ba\u03bf\u03c5 \u03bf\u03c5 \u03c9\u03ba\u03bf\u03b4\u03cc\u03bc\u03b7\u03c3\u03b1 \u03c4\u03c9 \u03bf\u03bd\u03cc\u03bc\u03b1\u03c4\u03af \u03c3\u03bf\u03c5"
        },
        {
            "chapter": 8,
            "verse": 49,
            "name": "1 Kings 8:49",
            "text": "\u03ba\u03b1\u03b9 \u03b5\u03b9\u03c3\u03b1\u03ba\u03bf\u03cd\u03c3\u03b7 \u03b5\u03ba \u03c4\u03bf\u03c5 \u03bf\u03c5\u03c1\u03b1\u03bd\u03bf\u03cd \u03b5\u03be \u03b5\u03c4\u03bf\u03af\u03bc\u03bf\u03c5 \u03ba\u03b1\u03c4\u03bf\u03b9\u03ba\u03b7\u03c4\u03b7\u03c1\u03af\u03bf\u03c5 \u03c3\u03bf\u03c5 \u03c4\u03b7\u03c2 \u03c0\u03c1\u03bf\u03c3\u03b5\u03c5\u03c7\u03ae\u03c2 \u03b1\u03c5\u03c4\u03ce\u03bd \u03ba\u03b1\u03b9 \u03c4\u03b7\u03c2 \u03b4\u03b5\u03ae\u03c3\u03b5\u03c9\u03c2 \u03b1\u03c5\u03c4\u03ce\u03bd \u03ba\u03b1\u03b9 \u03c0\u03bf\u03b9\u03ae\u03c3\u03b5\u03b9\u03c2 \u03c4\u03bf \u03b4\u03b9\u03ba\u03b1\u03af\u03c9\u03bc\u03b1 \u03b1\u03c5\u03c4\u03ce\u03bd"
        },
        {
            "chapter": 8,
            "verse": 50,
            "name": "1 Kings 8:50",
            "text": "\u03ba\u03b1\u03b9 \u03af\u03bb\u03b5\u03c9\u03c2 \u03ad\u03c3\u03b7 \u03c4\u03b1\u03b9\u03c2 \u03b1\u03b4\u03b9\u03ba\u03af\u03b1\u03b9\u03c2 \u03b1\u03c5\u03c4\u03ce\u03bd \u03b1\u03b9\u03c2 \u03ae\u03bc\u03b1\u03c1\u03c4\u03cc\u03bd \u03c3\u03bf\u03b9 \u03ba\u03b1\u03b9 \u03ba\u03b1\u03c4\u03ac \u03c0\u03ac\u03bd\u03c4\u03b1 \u03c4\u03b1 \u03b1\u03b8\u03b5\u03c4\u03ae\u03bc\u03b1\u03c4\u03b1 \u03b1\u03c5\u03c4\u03ce\u03bd \u03b1 \u03b1\u03bd \u03b7\u03b8\u03ad\u03c4\u03b7\u03c3\u03b1\u03bd \u03ba\u03b1\u03b9 \u03b4\u03ce\u03c3\u03b5\u03b9\u03c2 \u03b1\u03c5\u03c4\u03bf\u03cd\u03c2 \u03b5\u03b9\u03c2 \u03bf\u03b9\u03ba\u03c4\u03b9\u03c1\u03bc\u03bf\u03cd\u03c2 \u03b5\u03bd\u03ce\u03c0\u03b9\u03bf\u03bd \u03b1\u03b9\u03c7\u03bc\u03b1\u03bb\u03c9\u03c4\u03b5\u03c5\u03c3\u03ac\u03bd\u03c4\u03c9\u03bd \u03b1\u03c5\u03c4\u03bf\u03cd\u03c2 \u03ba\u03b1\u03b9 \u03bf\u03b9\u03ba\u03c4\u03b5\u03b9\u03c1\u03ae\u03c3\u03bf\u03c5\u03c3\u03b9\u03bd \u03b1\u03c5\u03c4\u03bf\u03cd\u03c2"
        },
        {
            "chapter": 8,
            "verse": 51,
            "name": "1 Kings 8:51",
            "text": "\u03cc\u03c4\u03b9 \u03bb\u03b1\u03cc\u03c2 \u03c3\u03bf\u03c5 \u03ba\u03b1\u03b9 \u03ba\u03bb\u03b7\u03c1\u03bf\u03bd\u03bf\u03bc\u03af\u03b1 \u03c3\u03bf\u03c5 \u03bf\u03c5\u03c2 \u03b5\u03be\u03ae\u03b3\u03b1\u03b3\u03b5\u03c2 \u03b5\u03ba \u03b3\u03b7\u03c2 \u0391\u03b9\u03b3\u03cd\u03c0\u03c4\u03bf\u03c5 \u03b5\u03ba \u03bc\u03ad\u03c3\u03bf\u03c5 \u03c7\u03c9\u03bd\u03b5\u03c5\u03c4\u03b7\u03c1\u03af\u03bf\u03c5 \u03c3\u03b9\u03b4\u03ae\u03c1\u03bf\u03c5"
        },
        {
            "chapter": 8,
            "verse": 52,
            "name": "1 Kings 8:52",
            "text": "\u03ba\u03b1\u03b9 \u03ad\u03c3\u03c4\u03c9\u03c3\u03b1\u03bd \u03bf\u03b9 \u03bf\u03c6\u03b8\u03b1\u03bb\u03bc\u03bf\u03af \u03c3\u03bf\u03c5 \u03ba\u03b1\u03b9 \u03c4\u03b1 \u03c9\u03c4\u03ac \u03c3\u03bf\u03c5 \u03b7\u03bd\u03b5\u03c9\u03b3\u03bc\u03ad\u03bd\u03b1 \u03b5\u03b9\u03c2 \u03c4\u03b7\u03bd \u03b4\u03ad\u03b7\u03c3\u03b9\u03bd \u03c4\u03bf\u03c5 \u03b4\u03bf\u03cd\u03bb\u03bf\u03c5 \u03c3\u03bf\u03c5 \u03ba\u03b1\u03b9 \u03b5\u03b9\u03c2 \u03c4\u03b7\u03bd \u03b4\u03ad\u03b7\u03c3\u03b9\u03bd \u03c4\u03bf\u03c5 \u03bb\u03b1\u03bf\u03cd \u03c3\u03bf\u03c5 \u0399\u03c3\u03c1\u03b1\u03ae\u03bb \u03b5\u03b9\u03c3\u03b1\u03ba\u03bf\u03cd\u03b5\u03b9\u03bd \u03b1\u03c5\u03c4\u03ce\u03bd \u03b5\u03bd \u03c0\u03ac\u03c3\u03b9\u03bd \u03bf\u03b9\u03c2 \u03b1\u03bd \u03b5\u03c0\u03b9\u03ba\u03b1\u03bb\u03ad\u03c3\u03c9\u03bd\u03c4\u03b1\u03af \u03c3\u03b5"
        },
        {
            "chapter": 8,
            "verse": 53,
            "name": "1 Kings 8:53",
            "text": "\u03cc\u03c4\u03b9 \u03c3\u03c5 \u03b4\u03b9\u03ad\u03c3\u03c4\u03b5\u03b9\u03bb\u03b1\u03c2 \u03b1\u03c5\u03c4\u03bf\u03cd\u03c2 \u03c3\u03b5\u03b1\u03c5\u03c4\u03ce \u03b5\u03b9\u03c2 \u03ba\u03bb\u03b7\u03c1\u03bf\u03bd\u03bf\u03bc\u03af\u03b1\u03bd \u03b5\u03ba \u03c0\u03ac\u03bd\u03c4\u03c9\u03bd \u03c4\u03c9\u03bd \u03bb\u03b1\u03ce\u03bd \u03c4\u03b7\u03c2 \u03b3\u03b7\u03c2 \u03ba\u03b1\u03b8\u03ce\u03c2 \u03b5\u03bb\u03ac\u03bb\u03b7\u03c3\u03b1\u03c2 \u03b5\u03bd \u03c7\u03b5\u03b9\u03c1\u03af \u03c4\u03bf\u03c5 \u03b4\u03bf\u03cd\u03bb\u03bf\u03c5 \u03c3\u03bf\u03c5 \u039c\u03c9\u03c5\u03c3\u03ae \u03b5\u03bd \u03c4\u03c9 \u03b5\u03be\u03b1\u03b3\u03b1\u03b3\u03b5\u03af\u03bd \u03c3\u03b5 \u03c4\u03bf\u03c5\u03c2 \u03c0\u03b1\u03c4\u03ad\u03c1\u03b1\u03c2 \u03b7\u03bc\u03ce\u03bd \u03b5\u03ba \u03b3\u03b7\u03c2 \u0391\u03b9\u03b3\u03cd\u03c0\u03c4\u03bf\u03c5 \u03ba\u03cd\u03c1\u03b9\u03b5 \u03ba\u03cd\u03c1\u03b9\u03b5"
        },
        {
            "chapter": 8,
            "verse": 54,
            "name": "1 Kings 8:54",
            "text": "\u03ba\u03b1\u03b9 \u03b5\u03b3\u03ad\u03bd\u03b5\u03c4\u03bf \u03c9\u03c2 \u03c3\u03c5\u03bd\u03b5\u03c4\u03ad\u03bb\u03b5\u03c3\u03b5 \u03a3\u03bf\u03bb\u03bf\u03bc\u03ce\u03bd \u03c0\u03c1\u03bf\u03c3\u03b5\u03c5\u03c7\u03cc\u03bc\u03b5\u03bd\u03bf\u03c2 \u03c0\u03c1\u03bf\u03c2 \u03ba\u03cd\u03c1\u03b9\u03bf\u03bd \u03cc\u03bb\u03b7\u03bd \u03c4\u03b7\u03bd \u03c0\u03c1\u03bf\u03c3\u03b5\u03c5\u03c7\u03ae\u03bd \u03ba\u03b1\u03b9 \u03c4\u03b7\u03bd \u03b4\u03ad\u03b7\u03c3\u03b9\u03bd \u03c4\u03b1\u03cd\u03c4\u03b7\u03bd \u03b1\u03bd\u03ad\u03c3\u03c4\u03b7 \u03b1\u03c0\u03cc \u03c0\u03c1\u03bf\u03c3\u03ce\u03c0\u03bf\u03c5 \u03c4\u03bf\u03c5 \u03b8\u03c5\u03c3\u03b9\u03b1\u03c3\u03c4\u03b7\u03c1\u03af\u03bf\u03c5 \u03ba\u03c5\u03c1\u03af\u03bf\u03c5 \u03bf\u03ba\u03bb\u03b1\u03ba\u03ce\u03c2 \u03b5\u03c0\u03af \u03c4\u03b1 \u03b3\u03cc\u03bd\u03b1\u03c4\u03b1 \u03b1\u03c5\u03c4\u03bf\u03cd \u03ba\u03b1\u03b9 \u03b1\u03b9 \u03c7\u03b5\u03af\u03c1\u03b5\u03c2 \u03b1\u03c5\u03c4\u03bf\u03cd \u03b4\u03b9\u03b1\u03c0\u03b5\u03c0\u03b5\u03c4\u03b1\u03c3\u03bc\u03ad\u03bd\u03b1\u03b9 \u03b5\u03b9\u03c2 \u03c4\u03bf\u03bd \u03bf\u03c5\u03c1\u03b1\u03bd\u03cc\u03bd"
        },
        {
            "chapter": 8,
            "verse": 55,
            "name": "1 Kings 8:55",
            "text": "\u03ba\u03b1\u03b9 \u03ad\u03c3\u03c4\u03b7 \u03ba\u03b1\u03b9 \u03b5\u03c5\u03bb\u03cc\u03b3\u03b7\u03c3\u03b5 \u03c0\u03ac\u03c3\u03b1\u03bd \u03c4\u03b7\u03bd \u03b5\u03ba\u03ba\u03bb\u03b7\u03c3\u03af\u03b1\u03bd \u0399\u03c3\u03c1\u03b1\u03ae\u03bb \u03c6\u03c9\u03bd\u03ae \u03bc\u03b5\u03b3\u03ac\u03bb\u03b7 \u03bb\u03ad\u03b3\u03c9\u03bd"
        },
        {
            "chapter": 8,
            "verse": 56,
            "name": "1 Kings 8:56",
            "text": "\u03b5\u03c5\u03bb\u03bf\u03b3\u03b7\u03c4\u03cc\u03c2 \u03ba\u03cd\u03c1\u03b9\u03bf\u03c2 \u03bf\u03c2 \u03ad\u03b4\u03c9\u03ba\u03b5 \u03c3\u03ae\u03bc\u03b5\u03c1\u03bf\u03bd \u03ba\u03b1\u03c4\u03ac\u03c0\u03b1\u03c5\u03c3\u03b9\u03bd \u03c4\u03c9 \u03bb\u03b1\u03ce \u03b1\u03c5\u03c4\u03bf\u03cd \u0399\u03c3\u03c1\u03b1\u03ae\u03bb \u03ba\u03b1\u03c4\u03ac \u03c0\u03ac\u03bd\u03c4\u03b1 \u03cc\u03c3\u03b1 \u03b5\u03bb\u03ac\u03bb\u03b7\u03c3\u03b5\u03bd \u03bf\u03c5 \u03b4\u03b9\u03b5\u03c6\u03ce\u03bd\u03b7\u03c3\u03b5 \u03bb\u03cc\u03b3\u03bf\u03c2 \u03b5\u03b9\u03c2 \u03b5\u03bd \u03c0\u03ac\u03c3\u03b9 \u03c4\u03bf\u03b9\u03c2 \u03bb\u03cc\u03b3\u03bf\u03b9\u03c2 \u03b1\u03c5\u03c4\u03bf\u03cd \u03c4\u03bf\u03b9\u03c2 \u03b1\u03b3\u03b1\u03b8\u03bf\u03af\u03c2 \u03bf\u03b9\u03c2 \u03b5\u03bb\u03ac\u03bb\u03b7\u03c3\u03b5\u03bd \u03b5\u03bd \u03c7\u03b5\u03b9\u03c1\u03af \u039c\u03c9\u03c5\u03c3\u03ae \u03c4\u03bf\u03c5 \u03b4\u03bf\u03cd\u03bb\u03bf\u03c5 \u03b1\u03c5\u03c4\u03bf\u03cd"
        },
        {
            "chapter": 8,
            "verse": 57,
            "name": "1 Kings 8:57",
            "text": "\u03b3\u03ad\u03bd\u03bf\u03b9\u03c4\u03bf \u03ba\u03cd\u03c1\u03b9\u03bf\u03c2 \u03bf \u03b8\u03b5\u03cc\u03c2 \u03b7\u03bc\u03ce\u03bd \u03bc\u03b5\u03b8\u0384 \u03b7\u03bc\u03ce\u03bd \u03ba\u03b1\u03b8\u03ce\u03c2 \u03b7\u03bd \u03bc\u03b5\u03c4\u03ac \u03c4\u03c9\u03bd \u03c0\u03b1\u03c4\u03ad\u03c1\u03c9\u03bd \u03b7\u03bc\u03ce\u03bd \u03bc\u03b7 \u03b5\u03b3\u03ba\u03b1\u03c4\u03b1\u03bb\u03af\u03c0\u03bf\u03b9\u03c4\u03bf \u03b7\u03bc\u03ac\u03c2 \u03bc\u03b7\u03b4\u03ad \u03b1\u03c0\u03bf\u03c3\u03c4\u03c1\u03ad\u03c8\u03bf\u03b9\u03c4\u03bf \u03b7\u03bc\u03ac\u03c2"
        },
        {
            "chapter": 8,
            "verse": 58,
            "name": "1 Kings 8:58",
            "text": "\u03b5\u03c0\u03b9\u03ba\u03bb\u03af\u03bd\u03b1\u03b9 \u03ba\u03b1\u03c1\u03b4\u03af\u03b1\u03c2 \u03b7\u03bc\u03ce\u03bd \u03c0\u03c1\u03bf\u03c2 \u03b1\u03c5\u03c4\u03cc\u03bd \u03c4\u03bf\u03c5 \u03c0\u03bf\u03c1\u03b5\u03cd\u03b5\u03c3\u03b8\u03b1\u03b9 \u03b5\u03bd \u03c0\u03ac\u03c3\u03b1\u03b9\u03c2 \u03c4\u03b1\u03b9\u03c2 \u03bf\u03b4\u03bf\u03af\u03c2 \u03b1\u03c5\u03c4\u03bf\u03cd \u03ba\u03b1\u03b9 \u03c6\u03c5\u03bb\u03ac\u03c3\u03c3\u03b5\u03b9\u03bd \u03c0\u03ac\u03c3\u03b1\u03c2 \u03c4\u03b1\u03c2 \u03b5\u03bd\u03c4\u03bf\u03bb\u03ac\u03c2 \u03b1\u03c5\u03c4\u03bf\u03cd \u03ba\u03b1\u03b9 \u03c4\u03b1 \u03c0\u03c1\u03bf\u03c3\u03c4\u03ac\u03b3\u03bc\u03b1\u03c4\u03b1 \u03b1\u03c5\u03c4\u03bf\u03cd \u03ba\u03b1\u03b9 \u03c4\u03b1 \u03b4\u03b9\u03ba\u03b1\u03b9\u03ce\u03bc\u03b1\u03c4\u03b1 \u03b1\u03c5\u03c4\u03bf\u03cd \u03b1 \u03b5\u03bd\u03b5\u03c4\u03b5\u03af\u03bb\u03b1\u03c4\u03bf \u03c4\u03bf\u03b9\u03c2 \u03c0\u03b1\u03c4\u03c1\u03ac\u03c3\u03b9\u03bd \u03b7\u03bc\u03ce\u03bd"
        },
        {
            "chapter": 8,
            "verse": 59,
            "name": "1 Kings 8:59",
            "text": "\u03ba\u03b1\u03b9 \u03ad\u03c3\u03c4\u03c9\u03c3\u03b1\u03bd \u03bf\u03b9 \u03bb\u03cc\u03b3\u03bf\u03b9 \u03bf\u03cd\u03c4\u03bf\u03b9 \u03bf\u03c5\u03c2 \u03b4\u03b5\u03b4\u03ad\u03b7\u03bc\u03b1\u03b9 \u03b5\u03bd\u03ce\u03c0\u03b9\u03bf\u03bd \u03ba\u03c5\u03c1\u03af\u03bf\u03c5 \u03b8\u03b5\u03bf\u03cd \u03b7\u03bc\u03ce\u03bd \u03c3\u03ae\u03bc\u03b5\u03c1\u03bf\u03bd \u03b5\u03b3\u03b3\u03af\u03b6\u03bf\u03bd\u03c4\u03b5\u03c2 \u03c0\u03c1\u03bf\u03c2 \u03ba\u03cd\u03c1\u03b9\u03bf\u03bd \u03b8\u03b5\u03cc\u03bd \u03b7\u03bc\u03ce\u03bd \u03b7\u03bc\u03ad\u03c1\u03b1\u03c2 \u03ba\u03b1\u03b9 \u03bd\u03c5\u03ba\u03c4\u03cc\u03c2 \u03c4\u03bf\u03c5 \u03c0\u03bf\u03b9\u03b5\u03af\u03bd \u03c4\u03bf \u03b4\u03b9\u03ba\u03b1\u03af\u03c9\u03bc\u03b1 \u03c4\u03bf\u03c5 \u03b4\u03bf\u03cd\u03bb\u03bf\u03c5 \u03c3\u03bf\u03c5 \u03ba\u03b1\u03b9 \u03c4\u03bf \u03b4\u03b9\u03ba\u03b1\u03af\u03c9\u03bc\u03b1 \u03c4\u03bf\u03c5 \u03bb\u03b1\u03bf\u03cd \u03c3\u03bf\u03c5 \u0399\u03c3\u03c1\u03b1\u03ae\u03bb \u03c1\u03ae\u03bc\u03b1 \u03b7\u03bc\u03ad\u03c1\u03b1\u03c2 \u03b5\u03bd \u03c4\u03b7 \u03b7\u03bc\u03ad\u03c1\u03b1 \u03b1\u03c5\u03c4\u03bf\u03cd"
        },
        {
            "chapter": 8,
            "verse": 60,
            "name": "1 Kings 8:60",
            "text": "\u03cc\u03c0\u03c9\u03c2 \u03b3\u03bd\u03ce\u03c3\u03b9 \u03c0\u03ac\u03bd\u03c4\u03b5\u03c2 \u03bf\u03b9 \u03bb\u03b1\u03bf\u03af \u03c4\u03b7\u03c2 \u03b3\u03b7\u03c2 \u03cc\u03c4\u03b9 \u03ba\u03cd\u03c1\u03b9\u03bf\u03c2 \u03bf \u03b8\u03b5\u03cc\u03c2 \u03b1\u03c5\u03c4\u03cc\u03c2 \u03b8\u03b5\u03cc\u03c2 \u03ba\u03b1\u03b9 \u03bf\u03c5\u03ba \u03ad\u03c3\u03c4\u03b9\u03bd \u03ad\u03c4\u03b9"
        },
        {
            "chapter": 8,
            "verse": 61,
            "name": "1 Kings 8:61",
            "text": "\u03ba\u03b1\u03b9 \u03ad\u03c3\u03c4\u03c9\u03c3\u03b1\u03bd \u03b1\u03b9 \u03ba\u03b1\u03c1\u03b4\u03af\u03b1\u03b9 \u03b7\u03bc\u03ce\u03bd \u03c4\u03ad\u03bb\u03b5\u03b9\u03b1\u03b9 \u03c0\u03c1\u03bf\u03c2 \u03ba\u03cd\u03c1\u03b9\u03bf\u03bd \u03c4\u03bf\u03bd \u03b8\u03b5\u03cc\u03bd \u03b7\u03bc\u03ce\u03bd \u03c4\u03bf\u03c5 \u03bf\u03c3\u03af\u03c9\u03c2 \u03c0\u03bf\u03c1\u03b5\u03cd\u03b5\u03c3\u03b8\u03b1\u03b9 \u03b5\u03bd \u03c4\u03bf\u03b9\u03c2 \u03c0\u03c1\u03bf\u03c3\u03c4\u03ac\u03b3\u03bc\u03b1\u03c3\u03b9\u03bd \u03b1\u03c5\u03c4\u03bf\u03cd \u03ba\u03b1\u03b9 \u03c6\u03c5\u03bb\u03ac\u03c3\u03c3\u03b5\u03b9\u03bd \u03c4\u03b1\u03c2 \u03b5\u03bd\u03c4\u03bf\u03bb\u03ac\u03c2 \u03b1\u03c5\u03c4\u03bf\u03cd \u03c9\u03c2 \u03b7 \u03b7\u03bc\u03ad\u03c1\u03b1 \u03b1\u03cd\u03c4\u03b7"
        },
        {
            "chapter": 8,
            "verse": 62,
            "name": "1 Kings 8:62",
            "text": "\u03ba\u03b1\u03b9 \u03bf \u03b2\u03b1\u03c3\u03b9\u03bb\u03b5\u03cd\u03c2 \u03ba\u03b1\u03b9 \u03c0\u03ac\u03bd\u03c4\u03b5\u03c2 \u03bf\u03b9 \u03c5\u03b9\u03bf\u03af \u0399\u03c3\u03c1\u03b1\u03ae\u03bb \u03ad\u03b8\u03c5\u03c3\u03b1\u03bd \u03b8\u03c5\u03c3\u03af\u03b1\u03bd \u03b5\u03bd\u03ce\u03c0\u03b9\u03bf\u03bd \u03ba\u03c5\u03c1\u03af\u03bf\u03c5"
        },
        {
            "chapter": 8,
            "verse": 63,
            "name": "1 Kings 8:63",
            "text": "\u03ba\u03b1\u03b9 \u03ad\u03b8\u03c5\u03c3\u03b5\u03bd \u03bf \u03b2\u03b1\u03c3\u03b9\u03bb\u03b5\u03cd\u03c2 \u03a3\u03bf\u03bb\u03bf\u03bc\u03ce\u03bd \u03c4\u03b1\u03c2 \u03b8\u03c5\u03c3\u03af\u03b1\u03c2 \u03c4\u03c9\u03bd \u03b5\u03b9\u03c1\u03b7\u03bd\u03b9\u03ba\u03ce\u03bd \u03b1\u03c2 \u03ad\u03b8\u03c5\u03c3\u03b5 \u03c4\u03c9 \u03ba\u03c5\u03c1\u03af\u03c9 \u03b2\u03bf\u03ce\u03bd \u03b4\u03cd\u03bf \u03ba\u03b1\u03b9 \u03b5\u03af\u03ba\u03bf\u03c3\u03b9 \u03c7\u03b9\u03bb\u03b9\u03ac\u03b4\u03b1\u03c2 \u03ba\u03b1\u03b9 \u03c0\u03c1\u03bf\u03b2\u03ac\u03c4\u03c9\u03bd \u03b5\u03ba\u03b1\u03c4\u03cc\u03bd \u03ba\u03b1\u03b9 \u03b5\u03af\u03ba\u03bf\u03c3\u03b9 \u03c7\u03b9\u03bb\u03b9\u03ac\u03b4\u03b1\u03c2 \u03ba\u03b1\u03b9 \u03b5\u03bd\u03b5\u03ba\u03b1\u03af\u03bd\u03b9\u03c3\u03b5 \u03c4\u03bf\u03bd \u03bf\u03af\u03ba\u03bf\u03bd \u03ba\u03c5\u03c1\u03af\u03bf\u03c5 \u03bf \u03b2\u03b1\u03c3\u03b9\u03bb\u03b5\u03cd\u03c2 \u03ba\u03b1\u03b9 \u03c0\u03ac\u03bd\u03c4\u03b5\u03c2 \u03bf\u03b9 \u03c5\u03b9\u03bf\u03af \u0399\u03c3\u03c1\u03b1\u03ae\u03bb"
        },
        {
            "chapter": 8,
            "verse": 64,
            "name": "1 Kings 8:64",
            "text": "\u03b5\u03bd \u03c4\u03b7 \u03b7\u03bc\u03ad\u03c1\u03b1 \u03b5\u03ba\u03b5\u03af\u03bd\u03b7 \u03b7\u03b3\u03af\u03b1\u03c3\u03b5\u03bd \u03bf \u03b2\u03b1\u03c3\u03b9\u03bb\u03b5\u03cd\u03c2 \u03c4\u03bf \u03bc\u03ad\u03c3\u03bf\u03bd \u03c4\u03b7\u03c2 \u03b1\u03c5\u03bb\u03ae\u03c2 \u03c4\u03bf \u03ba\u03b1\u03c4\u03ac \u03c0\u03c1\u03cc\u03c3\u03c9\u03c0\u03bf\u03bd \u03c4\u03bf\u03c5 \u03bf\u03af\u03ba\u03bf\u03c5 \u03ba\u03c5\u03c1\u03af\u03bf\u03c5 \u03cc\u03c4\u03b9 \u03b5\u03c0\u03bf\u03af\u03b7\u03c3\u03b5\u03bd \u03b5\u03ba\u03b5\u03af \u03c4\u03b7\u03bd \u03bf\u03bb\u03bf\u03ba\u03b1\u03cd\u03c4\u03c9\u03c3\u03b9\u03bd \u03ba\u03b1\u03b9 \u03c4\u03b1\u03c2 \u03b8\u03c5\u03c3\u03af\u03b1\u03c2 \u03ba\u03b1\u03b9 \u03c4\u03b1 \u03c3\u03c4\u03ad\u03b1\u03c4\u03b1 \u03c4\u03c9\u03bd \u03b5\u03b9\u03c1\u03b7\u03bd\u03b9\u03ba\u03ce\u03bd \u03cc\u03c4\u03b9 \u03c4\u03bf \u03b8\u03c5\u03c3\u03b9\u03b1\u03c3\u03c4\u03ae\u03c1\u03b9\u03bf\u03bd \u03c4\u03bf \u03c7\u03b1\u03bb\u03ba\u03bf\u03cd\u03bd \u03c4\u03bf \u03b5\u03bd\u03ce\u03c0\u03b9\u03bf\u03bd \u03ba\u03c5\u03c1\u03af\u03bf\u03c5 \u03bc\u03b9\u03ba\u03c1\u03cc\u03bd \u03c4\u03bf\u03c5 \u03bc\u03b7 \u03b4\u03cd\u03bd\u03b1\u03c3\u03b8\u03b1\u03b9 \u03b4\u03ad\u03be\u03b1\u03c3\u03b8\u03b1\u03b9 \u03c4\u03b7\u03bd \u03bf\u03bb\u03bf\u03ba\u03b1\u03cd\u03c4\u03c9\u03c3\u03b9\u03bd \u03ba\u03b1\u03b9 \u03c4\u03bf \u03b4\u03ce\u03c1\u03bf\u03bd \u03ba\u03b1\u03b9 \u03c4\u03b1\u03c2 \u03b8\u03c5\u03c3\u03af\u03b1\u03c2 \u03c4\u03c9\u03bd \u03b5\u03b9\u03c1\u03b7\u03bd\u03b9\u03ba\u03ce\u03bd"
        },
        {
            "chapter": 8,
            "verse": 65,
            "name": "1 Kings 8:65",
            "text": "\u03ba\u03b1\u03b9 \u03b5\u03c0\u03bf\u03af\u03b7\u03c3\u03b5 \u03a3\u03bf\u03bb\u03bf\u03bc\u03ce\u03bd \u03c4\u03b7\u03bd \u03b5\u03bf\u03c1\u03c4\u03ae\u03bd \u03b5\u03bd \u03c4\u03b7 \u03b7\u03bc\u03ad\u03c1\u03b1 \u03b5\u03ba\u03b5\u03af\u03bd\u03b7 \u03ba\u03b1\u03b9 \u03c4\u03b1\u03c2 \u0399\u03c3\u03c1\u03b1\u03ae\u03bb \u03bc\u03b5\u03c4\u0384 \u03b1\u03c5\u03c4\u03bf\u03cd \u03b5\u03ba\u03ba\u03bb\u03b7\u03c3\u03af\u03b1 \u03bc\u03b5\u03b3\u03ac\u03bb\u03b7 \u03b1\u03c0\u03cc \u03c4\u03b7\u03c2 \u03b5\u03b9\u03c3\u03cc\u03b4\u03bf\u03c5 \u0397\u03bc\u03ac\u03b8 \u03ad\u03c9\u03c2 \u03c0\u03bf\u03c4\u03b1\u03bc\u03bf\u03cd \u0391\u03b9\u03b3\u03cd\u03c0\u03c4\u03bf\u03c5 \u03b5\u03bd\u03ce\u03c0\u03b9\u03bf\u03bd \u03ba\u03c5\u03c1\u03af\u03bf\u03c5 \u03b8\u03b5\u03bf\u03cd \u03b7\u03bc\u03ce\u03bd \u03b5\u03c0\u03c4\u03ac \u03b7\u03bc\u03ad\u03c1\u03b1\u03c2 \u03ba\u03b1\u03b9 \u03b5\u03c0\u03c4\u03ac \u03b7\u03bc\u03ad\u03c1\u03b1\u03c2 \u03c4\u03ad\u03c3\u03c3\u03b1\u03c1\u03b5\u03c2 \u03ba\u03b1\u03b9 \u03b4\u03ad\u03ba\u03b1 \u03b7\u03bc\u03ad\u03c1\u03b1\u03c2"
        },
        {
            "chapter": 8,
            "verse": 66,
            "name": "1 Kings 8:66",
            "text": "\u03ba\u03b1\u03b9 \u03b5\u03bd \u03c4\u03b7 \u03b7\u03bc\u03ad\u03c1\u03b1 \u03c4\u03b7 \u03bf\u03b3\u03b4\u03cc\u03b7 \u03b5\u03be\u03b1\u03c0\u03ad\u03c3\u03c4\u03b5\u03b9\u03bb\u03b5 \u03c4\u03bf\u03bd \u03bb\u03b1\u03cc\u03bd \u03ba\u03b1\u03b9 \u03b5\u03c5\u03bb\u03cc\u03b3\u03b7\u03c3\u03b1\u03bd \u03c4\u03bf\u03bd \u03b2\u03b1\u03c3\u03b9\u03bb\u03ad\u03b1 \u03ba\u03b1\u03b9 \u03b1\u03c0\u03ae\u03bb\u03b8\u03b5\u03bd \u03ad\u03ba\u03b1\u03c3\u03c4\u03bf\u03c2 \u03b5\u03b9\u03c2 \u03c4\u03b1 \u03c3\u03ba\u03ae\u03bd\u03c9\u03bc\u03b1\u03c4\u03b1 \u03b1\u03c5\u03c4\u03bf\u03cd \u03c7\u03b1\u03af\u03c1\u03bf\u03bd\u03c4\u03b5\u03c2 \u03ba\u03b1\u03b9 \u03b1\u03b3\u03b1\u03b8\u03ae \u03ba\u03b1\u03c1\u03b4\u03af\u03b1 \u03b5\u03c0\u03af \u03c4\u03bf\u03b9\u03c2 \u03b1\u03b3\u03b1\u03b8\u03bf\u03af\u03c2 \u03bf\u03b9\u03c2 \u03b5\u03c0\u03bf\u03af\u03b7\u03c3\u03b5 \u03ba\u03cd\u03c1\u03b9\u03bf\u03c2 \u03c4\u03c9 \u0394\u03b1\u03c5\u03af\u03b4 \u03b4\u03bf\u03cd\u03bb\u03c9 \u03b1\u03c5\u03c4\u03bf\u03cd \u03ba\u03b1\u03b9 \u03c4\u03c9 \u0399\u03c3\u03c1\u03b1\u03ae\u03bb \u03c4\u03c9 \u03bb\u03b1\u03ce \u03b1\u03c5\u03c4\u03bf\u03cd  "
        }
    ]
}