{
    "translation": "Korean",
    "abbreviation": "korean",
    "lang": "ko",
    "language": "Korean",
    "direction": "LTR",
    "encoding": "UTF-8",
    "book_nr": 19,
    "book_name": "Psalms",
    "chapter": 102,
    "name": "Psalms 102",
    "verses": [
        {
            "chapter": 102,
            "verse": 1,
            "name": "Psalms 102:1",
            "text": " \uc5ec\ud638\uc640\uc5ec \ub0b4 \uae30\ub3c4\ub97c \ub4e4\uc73c\uc2dc\uace0 \ub098\uc758 \ubd80\ub974\uc9d6\uc74c\uc744 \uc8fc\uaed8 \uc0c1\ub2ec\ucf00 \ud558\uc18c\uc11c "
        },
        {
            "chapter": 102,
            "verse": 2,
            "name": "Psalms 102:2",
            "text": "\ub098\uc758 \uad34\ub85c\uc6b4 \ub0a0\uc5d0 \uc8fc\uc758 \uc5bc\uad74\uc744 \ub0b4\uac8c \uc228\uae30\uc9c0 \ub9c8\uc18c\uc11c \uc8fc\uc758 \uadc0\ub97c \uae30\uc6b8\uc774\uc0ac \ub0b4\uac00 \ubd80\ub974\uc9d6\ub294 \ub0a0\uc5d0 \uc18d\ud788 \ub0b4\uac8c \uc751\ub2f5\ud558\uc18c\uc11c "
        },
        {
            "chapter": 102,
            "verse": 3,
            "name": "Psalms 102:3",
            "text": "\ub300\uc800 \ub0b4 \ub0a0\uc774 \uc5f0\uae30 \uac19\uc774 \uc18c\uba78\ud558\uba70 \ub0b4 \ubf08\uac00 \ub0c9\uacfc\ub9ac \uac19\uc774 \ud0d4\ub098\uc774\ub2e4 "
        },
        {
            "chapter": 102,
            "verse": 4,
            "name": "Psalms 102:4",
            "text": "\ub0b4\uac00 \uc74c\uc2dd \uba39\uae30\ub3c4 \uc78a\uc5c8\uc74c\uc73c\ub85c \ub0b4 \ub9c8\uc74c\uc774 \ud480 \uac19\uc774 \uc1e0\uc794\ud558\uc600\uc0ac\uc624\uba70 "
        },
        {
            "chapter": 102,
            "verse": 5,
            "name": "Psalms 102:5",
            "text": "\ub098\uc758 \ud0c4\uc2dd \uc18c\ub9ac\ub97c \uc778\ud558\uc5ec \ub098\uc758 \uc0b4\uc774 \ubf08\uc5d0 \ubd99\uc5c8\ub098\uc774\ub2e4 "
        },
        {
            "chapter": 102,
            "verse": 6,
            "name": "Psalms 102:6",
            "text": "\ub098\ub294 \uad11\uc57c\uc758 \ub2f9\uc544\uc0c8 \uac19\uace0 \ud669\ud3d0\ud55c \uacf3\uc758 \ubd80\uc5c9\uc774 \uac19\uc774 \ub418\uc5c8\uc0ac\uc624\uba70 "
        },
        {
            "chapter": 102,
            "verse": 7,
            "name": "Psalms 102:7",
            "text": "\ub0b4\uac00 \ubc24\uc744 \uc0c8\uc6b0\ub2c8 \uc9c0\ubd95 \uc704\uc5d0 \uc678\ub85c\uc6b4 \ucc38\uc0c8 \uac19\uc73c\ub2c8\uc774\ub2e4 "
        },
        {
            "chapter": 102,
            "verse": 8,
            "name": "Psalms 102:8",
            "text": "\ub0b4 \uc6d0\uc218\ub4e4\uc774 \uc885\uc77c \ub098\ub97c \ud6fc\ubc29\ud558\uba70 \ub098\ub97c \ub300\ud558\uc5ec \ubbf8\uce60\ub4ef\uc774 \ub0a0\uce58\ub294 \uc790\ub4e4\uc774 \ub098\ub97c \uac00\ub9ac\ucf1c \ub9f9\uc138\ud558\ub098\uc774\ub2e4 "
        },
        {
            "chapter": 102,
            "verse": 9,
            "name": "Psalms 102:9",
            "text": "\ub098\ub294 \uc7ac\ub97c \uc591\uc2dd \uac19\uc774 \uba39\uc73c\uba70 \ub098\uc758 \ub9c8\uc2ec\uc5d0\ub294 \ub208\ubb3c\uc744 \uc11e\uc5c8\uc0ac\uc624\ub2c8 "
        },
        {
            "chapter": 102,
            "verse": 10,
            "name": "Psalms 102:10",
            "text": "\uc774\ub294 \uc8fc\uc758 \ubd84\uacfc \ub178\ub97c \uc778\ud568\uc774\ub77c \uc8fc\uaed8\uc11c \ub098\ub97c \ub4dc\uc168\ub2e4\uac00 \ub358\uc9c0\uc168\ub098\uc774\ub2e4 "
        },
        {
            "chapter": 102,
            "verse": 11,
            "name": "Psalms 102:11",
            "text": "\ub0b4 \ub0a0\uc774 \uae30\uc6b8\uc5b4\uc9c0\ub294 \uadf8\ub9bc\uc790 \uac19\uace0 \ub0b4\uac00 \ud480\uc758 \uc1e0\uc794\ud568 \uac19\uc73c\ub2c8\uc774\ub2e4 "
        },
        {
            "chapter": 102,
            "verse": 12,
            "name": "Psalms 102:12",
            "text": "\uc5ec\ud638\uc640\uc5ec \uc8fc\ub294 \uc601\uc6d0\ud788 \uacc4\uc2dc\uace0 \uc8fc\uc758 \uae30\ub150 \uba85\uce6d\uc740 \ub300\ub300\uc5d0 \uc774\ub974\ub9ac\uc774\ub2e4 "
        },
        {
            "chapter": 102,
            "verse": 13,
            "name": "Psalms 102:13",
            "text": "\uc8fc\uaed8\uc11c \uc77c\uc5b4\ub098\uc0ac \uc2dc\uc628\uc744 \uae0d\ud73c\ud788 \uc5ec\uae30\uc2dc\ub9ac\ub2c8 \uc9c0\uae08\uc740 \uadf8\ub97c \uae0d\ud73c\ud788 \uc5ec\uae30\uc2e4 \ub54c\ub77c \uc815\ud55c \uae30\ud55c\uc774 \uc634\uc774\ub2c8\uc774\ub2e4 "
        },
        {
            "chapter": 102,
            "verse": 14,
            "name": "Psalms 102:14",
            "text": "\uc8fc\uc758 \uc885\ub4e4\uc774 \uc2dc\uc628\uc758 \ub3cc\ub4e4\uc744 \uc990\uac70\uc6cc\ud558\uba70 \uadf8 \ud2f0\ub04c\ub3c4 \uc5f0\ud73c\ud788 \uc5ec\uae30\ub098\uc774\ub2e4 "
        },
        {
            "chapter": 102,
            "verse": 15,
            "name": "Psalms 102:15",
            "text": "\uc774\uc5d0 \uc5f4\ubc29\uc774 \uc5ec\ud638\uc640\uc758 \uc774\ub984\uc744 \uacbd\uc678\ud558\uba70 \uc138\uacc4 \uc5f4\uc655\uc774 \uc8fc\uc758 \uc601\uad11\uc744 \uacbd\uc678\ud558\ub9ac\ub2c8 "
        },
        {
            "chapter": 102,
            "verse": 16,
            "name": "Psalms 102:16",
            "text": "\ub300\uc800 \uc5ec\ud638\uc640\uaed8\uc11c \uc2dc\uc628\uc744 \uac74\uc124\ud558\uc2dc\uace0 \uadf8 \uc601\uad11 \uc911\uc5d0 \ub098\ud0c0\ub098\uc168\uc74c\uc774\ub77c "
        },
        {
            "chapter": 102,
            "verse": 17,
            "name": "Psalms 102:17",
            "text": "\uc5ec\ud638\uc640\uaed8\uc11c \ube48\uad81\ud55c \uc790\uc758 \uae30\ub3c4\ub97c \ub3cc\uc544\ubcf4\uc2dc\uba70 \uc800\ud76c \uae30\ub3c4\ub97c \uba78\uc2dc\uce58 \uc544\ub2c8\ud558\uc168\ub3c4\ub2e4 "
        },
        {
            "chapter": 102,
            "verse": 18,
            "name": "Psalms 102:18",
            "text": "\uc774 \uc77c\uc774 \uc7a5\ub798 \uc138\ub300\ub97c \uc704\ud558\uc5ec \uae30\ub85d\ub418\ub9ac\ub2c8 \ucc3d\uc870\ud568\uc744 \ubc1b\uc744 \ubc31\uc131\uc774 \uc5ec\ud638\uc640\ub97c \ucc2c\uc1a1\ud558\ub9ac\ub85c\ub2e4 "
        },
        {
            "chapter": 102,
            "verse": 19,
            "name": "Psalms 102:19",
            "text": "\uc5ec\ud638\uc640\uaed8\uc11c \uadf8 \ub192\uc740 \uc131\uc18c\uc5d0\uc11c \ud558\uac10\ud558\uc2dc\uba70 \ud558\ub298\uc5d0\uc11c \ub545\uc744 \uac10\ucc30\ud558\uc168\uc73c\ub2c8 "
        },
        {
            "chapter": 102,
            "verse": 20,
            "name": "Psalms 102:20",
            "text": "\uc774\ub294 \uac07\ud78c \uc790\uc758 \ud0c4\uc2dd\uc744 \ub4e4\uc73c\uc2dc\uba70 \uc8fd\uc774\uae30\ub85c \uc815\ud55c \uc790\ub97c \ud574\ubc29\ud558\uc0ac "
        },
        {
            "chapter": 102,
            "verse": 21,
            "name": "Psalms 102:21",
            "text": "\uc5ec\ud638\uc640\uc758 \uc774\ub984\uc744 \uc2dc\uc628\uc5d0\uc11c, \uadf8 \uc601\uc608\ub97c \uc608\ub8e8\uc0b4\ub818\uc5d0\uc11c \uc120\ud3ec\ucf00 \ud558\ub824 \ud558\uc2ec\uc774\ub77c "
        },
        {
            "chapter": 102,
            "verse": 22,
            "name": "Psalms 102:22",
            "text": "\ub54c\uc5d0 \ubbfc\uc871\ub4e4\uacfc \ub098\ub77c\ub4e4\uc774 \ubaa8\uc5ec \uc5ec\ud638\uc640\ub97c \uc12c\uae30\ub9ac\ub85c\ub2e4 "
        },
        {
            "chapter": 102,
            "verse": 23,
            "name": "Psalms 102:23",
            "text": "\uc800\uac00 \ub0b4 \ud798\uc744 \uc911\ub3c4\uc5d0 \uc1e0\uc57d\ucf00 \ud558\uc2dc\uba70 \ub0b4 \ub0a0\uc744 \ub2e8\ucd09\ucf00 \ud558\uc168\ub3c4\ub2e4 "
        },
        {
            "chapter": 102,
            "verse": 24,
            "name": "Psalms 102:24",
            "text": "\ub098\uc758 \ub9d0\uc774 \ub098\uc758 \ud558\ub098\ub2d8\uc774\uc5ec \ub098\uc758 \uc911\ub144\uc5d0 \ub098\ub97c \ub370\ub824\uac00\uc9c0 \ub9c8\uc635\uc18c\uc11c \uc8fc\uc758 \uc5f0\ub300\ub294 \ub300\ub300\uc5d0 \ubb34\uad81\ud558\ub2c8\uc774\ub2e4 "
        },
        {
            "chapter": 102,
            "verse": 25,
            "name": "Psalms 102:25",
            "text": "\uc8fc\uaed8\uc11c \uc61b\uc801\uc5d0 \ub545\uc758 \uae30\ucd08\ub8f0 \ub450\uc168\uc0ac\uc624\uba70 \ud558\ub298\ub3c4 \uc8fc\uc758 \uc190\uc73c\ub85c \uc9c0\uc73c\uc2e0 \ubc14\ub2c8\uc774\ub2e4 "
        },
        {
            "chapter": 102,
            "verse": 26,
            "name": "Psalms 102:26",
            "text": "\ucc9c\uc9c0\ub294 \uc5c6\uc5b4\uc9c0\ub824\ub2c8\uc640 \uc8fc\ub294 \uc601\uc874\ud558\uc2dc\uaca0\uace0 \uadf8\uac83\ub4e4\uc740 \ub2e4 \uc637 \uac19\uc774 \ub0a1\uc73c\ub9ac\ub2c8 \uc758\ubcf5 \uac19\uc774 \ubc14\uafb8\uc2dc\uba74 \ubc14\ub00c\ub824\ub2c8\uc640 "
        },
        {
            "chapter": 102,
            "verse": 27,
            "name": "Psalms 102:27",
            "text": "\uc8fc\ub294 \uc5ec\uc0c1\ud558\uc2dc\uace0 \uc8fc\uc758 \ub144\ub300\ub294 \ubb34\uad81\ud558\ub9ac\uc774\ub2e4 "
        },
        {
            "chapter": 102,
            "verse": 28,
            "name": "Psalms 102:28",
            "text": "\uc8fc\uc758 \uc885\ub4e4\uc758 \uc790\uc190\uc774 \ud56d\uc0c1 \uc788\uace0 \uadf8 \ud6c4\uc190\uc774 \uc8fc\uc758 \uc55e\uc5d0 \uad73\uac8c \uc11c\ub9ac\uc774\ub2e4 \ud558\uc600\ub3c4\ub2e4  "
        }
    ]
}