{
    "translation": "Korean",
    "abbreviation": "korean",
    "lang": "ko",
    "language": "Korean",
    "direction": "LTR",
    "encoding": "UTF-8",
    "book_nr": 19,
    "book_name": "Psalms",
    "chapter": 7,
    "name": "Psalms 7",
    "verses": [
        {
            "chapter": 7,
            "verse": 1,
            "name": "Psalms 7:1",
            "text": " \uc5ec\ud638\uc640 \ub0b4 \ud558\ub098\ub2d8\uc774\uc5ec \uc8fc\uaed8 \ud53c\ud558\uc624\ub2c8 \ub098\ub97c \ucad3\ub294 \ubaa8\ub4e0 \uc790\uc5d0\uac8c\uc11c \ub098\ub97c \uad6c\ud558\uc5ec \uac74\uc9c0\uc18c\uc11c "
        },
        {
            "chapter": 7,
            "verse": 2,
            "name": "Psalms 7:2",
            "text": "\uac74\uc838\ub0bc \uc790 \uc5c6\uc73c\uba74 \uc800\ud76c\uac00 \uc0ac\uc790 \uac19\uc774 \ub098\ub97c \ucc22\uace0 \ub72f\uc744\uae4c \ud558\ub098\uc774\ub2e4 "
        },
        {
            "chapter": 7,
            "verse": 3,
            "name": "Psalms 7:3",
            "text": "\uc5ec\ud638\uc640 \ub0b4 \ud558\ub098\ub2d8\uc774\uc5ec \ub0b4\uac00 \uc774\uac83\uc744 \ud589\ud558\uc600\uac70\ub098 \ub0b4 \uc190\uc5d0 \uc8c4\uc545\uc774 \uc788\uac70\ub098 "
        },
        {
            "chapter": 7,
            "verse": 4,
            "name": "Psalms 7:4",
            "text": "\ud654\uce5c\ud55c \uc790\ub97c \uc545\uc73c\ub85c \uac1a\uc558\uac70\ub098 \ub0b4 \ub300\uc801\uc5d0\uac8c \ubb34\uace0\ud788 \ube7c\uc557\uc558\uac70\ub4e0 "
        },
        {
            "chapter": 7,
            "verse": 5,
            "name": "Psalms 7:5",
            "text": "\uc6d0\uc218\ub85c \ub098\uc758 \uc601\ud63c\uc744 \ucad3\uc544 \uc7a1\uc544 \ub0b4 \uc0dd\uba85\uc744 \ub545\uc5d0 \uc9d3\ubc1f\uace0 \ub0b4 \uc601\uad11\uc744 \uc9c4\ud1a0\uc5d0 \ub5a8\uc5b4\ub728\ub9ac\uac8c \ud558\uc18c\uc11c(\uc140\ub77c) "
        },
        {
            "chapter": 7,
            "verse": 6,
            "name": "Psalms 7:6",
            "text": "\uc5ec\ud638\uc640\uc5ec \uc9c4\ub178\ub85c \uc77c\uc5b4\ub098\uc0ac \ub0b4 \ub300\uc801\ub4e4\uc758 \ub178\ub97c \ub9c9\uc73c\uc2dc\uba70 \ub098\ub97c \uc704\ud558\uc5ec \uae68\uc18c\uc11c \uc8fc\uaed8\uc11c \uc2ec\ud310\uc744 \uba85\ud558\uc168\ub098\uc774\ub2e4 "
        },
        {
            "chapter": 7,
            "verse": 7,
            "name": "Psalms 7:7",
            "text": "\ubbfc\uc871\ub4e4\uc758 \uc9d1\ud68c\ub85c \uc8fc\ub97c \ub450\ub974\uac8c \ud558\uc2dc\uace0 \uadf8 \uc704 \ub192\uc740 \uc790\ub9ac\uc5d0 \ub3cc\uc544\uc624\uc18c\uc11c "
        },
        {
            "chapter": 7,
            "verse": 8,
            "name": "Psalms 7:8",
            "text": "\uc5ec\ud638\uc640\uaed8\uc11c \ub9cc\ubbfc\uc5d0\uac8c \uc2ec\ud310\uc744 \ud589\ud558\uc2dc\uc624\ub2c8 \uc5ec\ud638\uc640\uc5ec \ub098\uc758 \uc758\uc640 \ub0b4\uac8c \uc788\ub294 \uc131\uc2e4\ud568\uc744 \ub530\ub77c \ub098\ub97c \ud310\ub2e8\ud558\uc18c\uc11c "
        },
        {
            "chapter": 7,
            "verse": 9,
            "name": "Psalms 7:9",
            "text": "\uc545\uc778\uc758 \uc545\uc744 \ub04a\uace0 \uc758\uc778\uc744 \uc138\uc6b0\uc18c\uc11c \uc758\ub85c\uc6b0\uc2e0 \ud558\ub098\ub2d8\uc774 \uc0ac\ub78c\uc758 \uc2ec\uc7a5\uc744 \uac10\ucc30\ud558\uc2dc\ub098\uc774\ub2e4 "
        },
        {
            "chapter": 7,
            "verse": 10,
            "name": "Psalms 7:10",
            "text": "\ub098\uc758 \ubc29\ud328\ub294 \ub9c8\uc74c\uc774 \uc815\uc9c1\ud55c \uc790\ub97c \uad6c\uc6d0\ud558\uc2dc\ub294 \ud558\ub098\ub2d8\uaed8 \uc788\ub3c4\ub2e4 "
        },
        {
            "chapter": 7,
            "verse": 11,
            "name": "Psalms 7:11",
            "text": "\ud558\ub098\ub2d8\uc740 \uc758\ub85c\uc6b0\uc2e0 \uc7ac\ud310\uc7a5\uc774\uc2ec\uc774\uc5ec \ub9e4\uc77c \ubd84\ub178\ud558\uc2dc\ub294 \ud558\ub098\ub2d8\uc774\uc2dc\ub85c\ub2e4 "
        },
        {
            "chapter": 7,
            "verse": 12,
            "name": "Psalms 7:12",
            "text": "\uc0ac\ub78c\uc774 \ud68c\uac1c\uce58 \uc544\ub2c8\ud558\uba74 \uc800\uac00 \uadf8 \uce7c\uc744 \uac08\uc73c\uc2ec\uc774\uc5ec \uadf8 \ud65c\uc744 \uc774\ubbf8 \ub2f9\uae30\uc5b4 \uc608\ube44\ud558\uc168\ub3c4\ub2e4 "
        },
        {
            "chapter": 7,
            "verse": 13,
            "name": "Psalms 7:13",
            "text": "\uc8fd\uc77c \uae30\uacc4\ub97c \ub610\ud55c \uc608\ube44\ud558\uc2ec\uc774\uc5ec \uadf8 \ub9cc\ub4e0 \uc0b4\uc740 \ud654\uc804\uc774\ub85c\ub2e4 "
        },
        {
            "chapter": 7,
            "verse": 14,
            "name": "Psalms 7:14",
            "text": "\uc545\uc778\uc774 \uc8c4\uc545\uc744 \ud574\uc0b0\ud568\uc774\uc5ec \uc794\ud574\ub97c \uc789\ud0dc\ud558\uba70 \uada4\ud73c\uc744 \ub0b3\uc558\ub3c4\ub2e4 "
        },
        {
            "chapter": 7,
            "verse": 15,
            "name": "Psalms 7:15",
            "text": "\uc800\uac00 \uc6c5\ub369\uc774\ub97c \ud30c \ub9cc\ub4e6\uc774\uc5ec \uc81c\uac00 \ub9cc\ub4e0 \ud568\uc815\uc5d0 \ube60\uc84c\ub3c4\ub2e4 "
        },
        {
            "chapter": 7,
            "verse": 16,
            "name": "Psalms 7:16",
            "text": "\uadf8 \uc794\ud574\ub294 \uc790\uae30 \uba38\ub9ac\ub85c \ub3cc\uc544\uc624\uace0 \uadf8 \ud3ec\ud559\uc740 \uc790\uae30 \uc815\uc218\ub9ac\uc5d0 \ub0b4\ub9ac\ub9ac\ub85c\ub2e4 "
        },
        {
            "chapter": 7,
            "verse": 17,
            "name": "Psalms 7:17",
            "text": "\ub0b4\uac00 \uc5ec\ud638\uc640\uc758 \uc758\ub97c \ub530\ub77c \uac10\uc0ac\ud568\uc774\uc5ec \uc9c0\uadf9\ud788 \ub192\uc73c\uc2e0 \uc5ec\ud638\uc640\uc758 \uc774\ub984\uc744 \ucc2c\uc591\ud558\ub9ac\ub85c\ub2e4  "
        }
    ]
}