{
    "translation": "English Jubilee 2000 Bible",
    "abbreviation": "jubilee2000",
    "lang": "en",
    "language": "English",
    "direction": "LTR",
    "encoding": "",
    "book_nr": 41,
    "book_name": "Mark",
    "chapter": 10,
    "name": "Mark 10",
    "verses": [
        {
            "chapter": 10,
            "verse": 1,
            "name": "Mark 10:1",
            "text": "And he left there and came into the borders of Judaea and behind the Jordan; and the multitude joined him again, and he taught them again as was his custom."
        },
        {
            "chapter": 10,
            "verse": 2,
            "name": "Mark 10:2",
            "text": "And the Pharisees came to him and asked him, Is it lawful for a man to put away [his] wife? tempting him."
        },
        {
            "chapter": 10,
            "verse": 3,
            "name": "Mark 10:3",
            "text": "And he answered and said unto them, What did Moses command you?"
        },
        {
            "chapter": 10,
            "verse": 4,
            "name": "Mark 10:4",
            "text": "And they said, Moses suffered to write a bill of divorce and to put [her] away."
        },
        {
            "chapter": 10,
            "verse": 5,
            "name": "Mark 10:5",
            "text": "And Jesus answered and said unto them, For the hardness of your heart he wrote you this commandment."
        },
        {
            "chapter": 10,
            "verse": 6,
            "name": "Mark 10:6",
            "text": "But at the beginning of the creation God made them male and female."
        },
        {
            "chapter": 10,
            "verse": 7,
            "name": "Mark 10:7",
            "text": "For this cause shall a man leave his father and his mother and shall join to his wife;"
        },
        {
            "chapter": 10,
            "verse": 8,
            "name": "Mark 10:8",
            "text": "and they that [were] two shall be made one flesh, so then they are no longer two, but one flesh."
        },
        {
            "chapter": 10,
            "verse": 9,
            "name": "Mark 10:9",
            "text": "Therefore what God has joined together, let not man separate."
        },
        {
            "chapter": 10,
            "verse": 10,
            "name": "Mark 10:10",
            "text": "And in the house his disciples asked him again of the same [matter]."
        },
        {
            "chapter": 10,
            "verse": 11,
            "name": "Mark 10:11",
            "text": "And he said unto them, Whosoever shall put away his wife and marry another commits adultery against her."
        },
        {
            "chapter": 10,
            "verse": 12,
            "name": "Mark 10:12",
            "text": "And if the woman shall put away her husband and be married to another, she commits adultery."
        },
        {
            "chapter": 10,
            "verse": 13,
            "name": "Mark 10:13",
            "text": "And they brought young children to him that he should touch them, and [his] disciples rebuked those that brought [them]."
        },
        {
            "chapter": 10,
            "verse": 14,
            "name": "Mark 10:14",
            "text": "And Jesus seeing it, became angry and said unto them, Suffer the little children to come unto me and hinder them not, for of such is the kingdom of God."
        },
        {
            "chapter": 10,
            "verse": 15,
            "name": "Mark 10:15",
            "text": "Verily I say unto you, Whosoever shall not receive the kingdom of God as a little child, he shall not enter therein."
        },
        {
            "chapter": 10,
            "verse": 16,
            "name": "Mark 10:16",
            "text": "And taking them up in his arms and putting [his] hands upon them, he blessed them."
        },
        {
            "chapter": 10,
            "verse": 17,
            "name": "Mark 10:17",
            "text": "And as he was leaving to continue his way, [there came] one running, [who] kneeled before him and asked him, Good Master, what shall I do that I may inherit eternal life?"
        },
        {
            "chapter": 10,
            "verse": 18,
            "name": "Mark 10:18",
            "text": "And Jesus said unto him, Why dost thou call me good? [there is] none good but one, [that is], God."
        },
        {
            "chapter": 10,
            "verse": 19,
            "name": "Mark 10:19",
            "text": "Thou knowest the commandments: Do not commit adultery, Do not murder, Do not steal, Do not bear false witness, Defraud not, Honour thy father and mother."
        },
        {
            "chapter": 10,
            "verse": 20,
            "name": "Mark 10:20",
            "text": "And he answered and said unto him, Master, all these I have observed from my youth."
        },
        {
            "chapter": 10,
            "verse": 21,
            "name": "Mark 10:21",
            "text": "Then Jesus beholding him loved him and said unto him, One thing thou lackest: go, sell all that thou hast and give to the poor, and thou shalt have treasure in heaven; and come, take up the stake, and follow me taking up thy stake (if thy desire is to be perfect)."
        },
        {
            "chapter": 10,
            "verse": 22,
            "name": "Mark 10:22",
            "text": "But he, saddened by this word, went away grieved, for he had great possessions."
        },
        {
            "chapter": 10,
            "verse": 23,
            "name": "Mark 10:23",
            "text": "Then Jesus, looking around, said unto his disciples, How hardly shall those that have riches enter into the kingdom of God!"
        },
        {
            "chapter": 10,
            "verse": 24,
            "name": "Mark 10:24",
            "text": "And the disciples were astonished at his words. But Jesus answered again and said unto them, Children, how hard is it for those that trust in riches to enter into the kingdom of God!"
        },
        {
            "chapter": 10,
            "verse": 25,
            "name": "Mark 10:25",
            "text": "It is easier to pass a cable through the eye of a needle than for a rich man to enter into the kingdom of God."
        },
        {
            "chapter": 10,
            "verse": 26,
            "name": "Mark 10:26",
            "text": "But they were astonished even more, saying in themselves, Who then can save himself?"
        },
        {
            "chapter": 10,
            "verse": 27,
            "name": "Mark 10:27",
            "text": "Then Jesus looking upon them said, For men [it is] impossible, but not for God because all things are possible for God."
        },
        {
            "chapter": 10,
            "verse": 28,
            "name": "Mark 10:28",
            "text": "Then Peter began to say unto him, Behold, we have left all and have followed thee."
        },
        {
            "chapter": 10,
            "verse": 29,
            "name": "Mark 10:29",
            "text": "And answering him, Jesus said, Verily I say unto you, There is no one that has left house or brethren or sisters or father or mother or wife or children or lands for my sake and the gospel's"
        },
        {
            "chapter": 10,
            "verse": 30,
            "name": "Mark 10:30",
            "text": "who shall not receive one hundredfold now in this time: houses and brethren and sisters and mothers and children and lands, with persecutions, and in the world to come eternal life."
        },
        {
            "chapter": 10,
            "verse": 31,
            "name": "Mark 10:31",
            "text": "But many [of the] first shall be last; and [of] the last first."
        },
        {
            "chapter": 10,
            "verse": 32,
            "name": "Mark 10:32",
            "text": "And they were in the way going up to Jerusalem, and Jesus went before them; and they were amazed, and they followed him with fear. Then, taking the twelve [aside] again, he began to tell them what things would happen unto him,"
        },
        {
            "chapter": 10,
            "verse": 33,
            "name": "Mark 10:33",
            "text": "[saying], Behold, we go up to Jerusalem; and the Son of man shall be delivered unto the princes of the priests and unto the scribes, and they shall condemn him to death and shall deliver him to the Gentiles,"
        },
        {
            "chapter": 10,
            "verse": 34,
            "name": "Mark 10:34",
            "text": "and they shall mock him and shall scourge him and shall spit upon him and shall kill him; but the third day he shall rise again."
        },
        {
            "chapter": 10,
            "verse": 35,
            "name": "Mark 10:35",
            "text": "Then James and John, the sons of Zebedee, came unto him, saying, Master, we would that thou should do for us whatever we shall ask."
        },
        {
            "chapter": 10,
            "verse": 36,
            "name": "Mark 10:36",
            "text": "And he said unto them, What would ye that I should do for you?"
        },
        {
            "chapter": 10,
            "verse": 37,
            "name": "Mark 10:37",
            "text": "They said unto him, Grant unto us that we may sit, one at thy right hand and the other at thy left hand in thy glory."
        },
        {
            "chapter": 10,
            "verse": 38,
            "name": "Mark 10:38",
            "text": "Then Jesus said unto them, Ye know not what ye ask; can ye drink the cup that I drink? Or be baptized with the baptism that I am baptized with?"
        },
        {
            "chapter": 10,
            "verse": 39,
            "name": "Mark 10:39",
            "text": "And they said unto him, We can. And Jesus said unto them, Ye shall indeed drink the cup that I drink, and of the baptism that I am baptized with ye shall be baptized;"
        },
        {
            "chapter": 10,
            "verse": 40,
            "name": "Mark 10:40",
            "text": "but to sit at my right hand and at my left hand is not mine to give, but [it shall be given to those] for whom it is prepared."
        },
        {
            "chapter": 10,
            "verse": 41,
            "name": "Mark 10:41",
            "text": "And when the ten heard [it], they began to be angry against James and John."
        },
        {
            "chapter": 10,
            "verse": 42,
            "name": "Mark 10:42",
            "text": "But Jesus, calling unto them, said unto them, Ye know that those who are seen to be princes among the Gentiles exercise lordship over them, and those that are great among them wield power over them."
        },
        {
            "chapter": 10,
            "verse": 43,
            "name": "Mark 10:43",
            "text": "But it shall not be like this among you, for whosoever desires to make himself great among you shall be your servant;"
        },
        {
            "chapter": 10,
            "verse": 44,
            "name": "Mark 10:44",
            "text": "and whosoever of you that desires to be first shall be servant of all."
        },
        {
            "chapter": 10,
            "verse": 45,
            "name": "Mark 10:45",
            "text": "For even the Son of man came not to be ministered unto, but to serve and to give his life in ransom for many."
        },
        {
            "chapter": 10,
            "verse": 46,
            "name": "Mark 10:46",
            "text": "And so they come to Jericho, and as he went out of Jericho with his disciples and a [great] multitude, blind Bartimaeus, the son of Timaeus, sat by the highway side begging."
        },
        {
            "chapter": 10,
            "verse": 47,
            "name": "Mark 10:47",
            "text": "And hearing that it was Jesus of Nazareth, he began to cry out and say, Jesus, [thou] Son of David, have mercy on me."
        },
        {
            "chapter": 10,
            "verse": 48,
            "name": "Mark 10:48",
            "text": "And many told him to be silent, but he cried even more, [Thou] Son of David, have mercy on me."
        },
        {
            "chapter": 10,
            "verse": 49,
            "name": "Mark 10:49",
            "text": "Then Jesus stood still and commanded him to be called. And they call the blind man, saying unto him, Have confidence, rise; he calls thee."
        },
        {
            "chapter": 10,
            "verse": 50,
            "name": "Mark 10:50",
            "text": "He, therefore, casting away his garment, rose and came to Jesus."
        },
        {
            "chapter": 10,
            "verse": 51,
            "name": "Mark 10:51",
            "text": "And Jesus, answering, said unto him, What wilt thou that I should do unto thee? And the blind man said unto him, Master, that I might receive my sight."
        },
        {
            "chapter": 10,
            "verse": 52,
            "name": "Mark 10:52",
            "text": "And Jesus said unto him, Go; thy faith has saved thee. And immediately he received his sight and followed Jesus in the way.:"
        }
    ]
}