{
    "translation": "Riveduta Bible (1927)",
    "abbreviation": "riveduta",
    "lang": "it",
    "language": "Italian",
    "direction": "LTR",
    "encoding": "",
    "book_nr": 4,
    "book_name": "Numbers",
    "chapter": 10,
    "name": "Numbers 10",
    "verses": [
        {
            "chapter": 10,
            "verse": 1,
            "name": "Numbers 10:1",
            "text": "L\u2019Eterno parl\u00f2 ancora a Mos\u00e8, dicendo:\r"
        },
        {
            "chapter": 10,
            "verse": 2,
            "name": "Numbers 10:2",
            "text": "\"Fatti due trombe d\u2019argento; le farai d\u2019argento battuto; ti serviranno per convocare la raunanza e per far muovere i campi.\r"
        },
        {
            "chapter": 10,
            "verse": 3,
            "name": "Numbers 10:3",
            "text": "Al suon d\u2019esse tutta la raunanza si raccoglier\u00e0 presso di te, all\u2019ingresso della tenda di convegno.\r"
        },
        {
            "chapter": 10,
            "verse": 4,
            "name": "Numbers 10:4",
            "text": "Al suono d\u2019una tromba sola, i principi, i capi delle migliaia d\u2019Israele, si aduneranno presso di te.\r"
        },
        {
            "chapter": 10,
            "verse": 5,
            "name": "Numbers 10:5",
            "text": "Quando sonerete a lunghi e forti squilli, i campi che sono a levante si metteranno in cammino.\r"
        },
        {
            "chapter": 10,
            "verse": 6,
            "name": "Numbers 10:6",
            "text": "Quando sonerete una seconda volta a lunghi e forti squilli, i campi che si trovano a mezzogiorno si metteranno in cammino; si soner\u00e0 a lunghi e forti squilli quando dovranno mettersi in cammino.\r"
        },
        {
            "chapter": 10,
            "verse": 7,
            "name": "Numbers 10:7",
            "text": "Quando dev\u2019esser convocata la raunanza, sonerete, ma non a lunghi e forti squilli.\r"
        },
        {
            "chapter": 10,
            "verse": 8,
            "name": "Numbers 10:8",
            "text": "E i sacerdoti figliuoli d\u2019Aaronne soneranno le trombe; sar\u00e0 una legge perpetua per voi e per i vostri discendenti.\r"
        },
        {
            "chapter": 10,
            "verse": 9,
            "name": "Numbers 10:9",
            "text": "Quando nel vostro paese andrete alla guerra contro il nemico che vi attaccher\u00e0, sonerete a lunghi e forti squilli con le trombe, e sarete ricordati dinanzi all\u2019Eterno, al vostro Dio, e sarete liberati dai vostri nemici.\r"
        },
        {
            "chapter": 10,
            "verse": 10,
            "name": "Numbers 10:10",
            "text": "Cos\u00ec pure nei vostri giorni di gioia, nelle vostre solennit\u00e0 e al principio de\u2019 vostri mesi, sonerete con le trombe quand\u2019offrirete i vostri olocausti e i vostri sacrifizi di azioni di grazie; ed esse vi faranno ricordare nel cospetto del vostro Dio. Io sono l\u2019Eterno, il vostro Dio\".\r"
        },
        {
            "chapter": 10,
            "verse": 11,
            "name": "Numbers 10:11",
            "text": "Or avvenne che, il secondo anno il secondo mese, il ventesimo giorno del mese, la nuvola s\u2019alz\u00f2 di sopra il tabernacolo della testimonianza.\r"
        },
        {
            "chapter": 10,
            "verse": 12,
            "name": "Numbers 10:12",
            "text": "E i figliuoli d\u2019Israele partirono dal deserto di Sinai, secondo l\u2019ordine fissato per le loro marce; e la nuvola si ferm\u00f2 nel deserto di Paran.\r"
        },
        {
            "chapter": 10,
            "verse": 13,
            "name": "Numbers 10:13",
            "text": "Cos\u00ec si misero in cammino la prima volta, secondo l\u2019ordine dell\u2019Eterno trasmesso per mezzo di Mos\u00e8.\r"
        },
        {
            "chapter": 10,
            "verse": 14,
            "name": "Numbers 10:14",
            "text": "La bandiera del campo de\u2019 figliuoli di Giuda, diviso secondo le loro schiere, si mosse la prima. Nahshon, figliuolo di Amminadab comandava l\u2019esercito di Giuda.\r"
        },
        {
            "chapter": 10,
            "verse": 15,
            "name": "Numbers 10:15",
            "text": "Nethaneel, figliuolo di Tsuar, comandava l\u2019esercito della trib\u00f9 de\u2019 figliuoli d\u2019Issacar,\r"
        },
        {
            "chapter": 10,
            "verse": 16,
            "name": "Numbers 10:16",
            "text": "ed Eliab, figliuolo di Helon, comandava l\u2019esercito della trib\u00f9 dei figliuoli di Zabulon.\r"
        },
        {
            "chapter": 10,
            "verse": 17,
            "name": "Numbers 10:17",
            "text": "Il tabernacolo fu smontato, e i figliuoli di Gherson e i figliuoli di Merari si misero in cammino, portando il tabernacolo.\r"
        },
        {
            "chapter": 10,
            "verse": 18,
            "name": "Numbers 10:18",
            "text": "Poi si mosse la bandiera del campo di Ruben, diviso secondo le sue schiere. Elitsur, figliuolo di Scedeur, comandava l\u2019esercito di Ruben.\r"
        },
        {
            "chapter": 10,
            "verse": 19,
            "name": "Numbers 10:19",
            "text": "Scelumiel, figliuolo di Tsurishaddai, comandava l\u2019esercito della trib\u00f9 de\u2019 figliuoli di Simeone,\r"
        },
        {
            "chapter": 10,
            "verse": 20,
            "name": "Numbers 10:20",
            "text": "ed Eliasaf, figliuolo di Deuel, comandava l\u2019esercito della trib\u00f9 de\u2019 figliuoli di Gad.\r"
        },
        {
            "chapter": 10,
            "verse": 21,
            "name": "Numbers 10:21",
            "text": "Poi si mossero i Kehathiti, portando gli oggetti sacri; e gli altri rizzavano il tabernacolo, prima che quelli arrivassero.\r"
        },
        {
            "chapter": 10,
            "verse": 22,
            "name": "Numbers 10:22",
            "text": "Poi si mosse la bandiera del campo de\u2019 figliuoli di Efraim, diviso secondo le sue schiere. Elishama, figliuolo di Ammihud, comandava l\u2019esercito di Efraim.\r"
        },
        {
            "chapter": 10,
            "verse": 23,
            "name": "Numbers 10:23",
            "text": "Gamaliel, figliuolo di Pedahtsur, comandava l\u2019esercito della trib\u00f9 dei figliuoli di Manasse,\r"
        },
        {
            "chapter": 10,
            "verse": 24,
            "name": "Numbers 10:24",
            "text": "e Abidan, figliuolo di Ghideoni, comandava l\u2019esercito della trib\u00f9 de\u2019 figliuoli di Beniamino.\r"
        },
        {
            "chapter": 10,
            "verse": 25,
            "name": "Numbers 10:25",
            "text": "Poi si mosse la bandiera del campo de\u2019 figliuoli di Dan, diviso secondo le sue schiere, formando la retroguardia di tutti i campi. Ahiezer, figliuolo di Ammishaddai, comandava l\u2019esercito di Dan.\r"
        },
        {
            "chapter": 10,
            "verse": 26,
            "name": "Numbers 10:26",
            "text": "Paghiel, figliuolo di Ocran, comandava l\u2019esercito della trib\u00f9 de\u2019 figliuoli di Ascer,\r"
        },
        {
            "chapter": 10,
            "verse": 27,
            "name": "Numbers 10:27",
            "text": "e Ahira, figliuolo di Enan, comandava l\u2019esercito della trib\u00f9 de\u2019 figliuoli di Neftali.\r"
        },
        {
            "chapter": 10,
            "verse": 28,
            "name": "Numbers 10:28",
            "text": "Tale era l\u2019ordine in cui i figliuoli d\u2019Israele si misero in cammino, secondo le loro schiere. E cos\u00ec partirono.\r"
        },
        {
            "chapter": 10,
            "verse": 29,
            "name": "Numbers 10:29",
            "text": "Or Mos\u00e8 disse a Hobab, figliuolo di Reuel, Madianita, suocero di Mos\u00e8: \"Noi c\u2019incamminiamo verso il luogo del quale l\u2019Eterno ha detto: Io ve lo dar\u00f2. Vieni con noi e ti faremo, del bene, perch\u00e9 l\u2019Eterno ha promesso di far del bene a Israele\".\r"
        },
        {
            "chapter": 10,
            "verse": 30,
            "name": "Numbers 10:30",
            "text": "Hobab gli rispose: \"Io non verr\u00f2, ma andr\u00f2 al mio paese e dal miei parenti\".\r"
        },
        {
            "chapter": 10,
            "verse": 31,
            "name": "Numbers 10:31",
            "text": "E Mos\u00e8 disse: \"Deh, non ci lasciare; poich\u00e9 tu conosci i luoghi dove dovremo accamparci nel deserto, e sarai la nostra guida.\r"
        },
        {
            "chapter": 10,
            "verse": 32,
            "name": "Numbers 10:32",
            "text": "E, se vieni con noi, qualunque bene l\u2019Eterno far\u00e0 a noi, noi lo faremo a te\".\r"
        },
        {
            "chapter": 10,
            "verse": 33,
            "name": "Numbers 10:33",
            "text": "Cos\u00ec partirono dal monte dell\u2019Eterno, e fecero tre giornate di cammino; e l\u2019arca del patto dell\u2019Eterno andava davanti a loro durante le tre giornate di cammino, per cercar loro un luogo di riposo.\r"
        },
        {
            "chapter": 10,
            "verse": 34,
            "name": "Numbers 10:34",
            "text": "E la nuvola dell\u2019Eterno era su loro, durante il giorno, quando partivano dal campo.\r"
        },
        {
            "chapter": 10,
            "verse": 35,
            "name": "Numbers 10:35",
            "text": "Quando l\u2019arca partiva, Mos\u00e8 diceva: \"L\u00e8vati, o Eterno, e siano dispersi i tuoi nemici, e fuggano dinanzi alla tua presenza quelli che t\u2019odiano!\"\r"
        },
        {
            "chapter": 10,
            "verse": 36,
            "name": "Numbers 10:36",
            "text": "E quando si posava, diceva: \"Torna, o Eterno, alle miriadi delle schiere d\u2019Israele!\"\r"
        }
    ]
}