{
    "translation": "Japanese Raguet-yaku \u30e9\u30b2\u8a33\u300c\u6211\u4e3b\u30a4\u30a8\u30ba\u30b9\u30ad\u30ea\u30b9\u30c8\u306e\u65b0\u7d04\u8056\u66f8\u300d(1910\u5e74\u7248)",
    "abbreviation": "japraguet",
    "lang": "ja",
    "language": "Japanese",
    "direction": "LTR",
    "encoding": "UTF-8",
    "book_nr": 47,
    "book_name": "2 Corinthians",
    "chapter": 6,
    "name": "2 Corinthians 6",
    "verses": [
        {
            "chapter": 6,
            "verse": 1,
            "name": "2 Corinthians 6:1",
            "text": "\u6211\u7b49\u306f[\u30ad\u30ea\u30b9\u30c8\u306e]\u52a9\u624b\u3068\u3057\u3066\u3001\u6c5d\u7b49\u304c\u795e\u306e\u6069\u5bf5\u3092\u5f92\u306b\u53d7\u3051\u3056\u3089\u3093\u4e8b\u3092\u52e7\u3080\u3001"
        },
        {
            "chapter": 6,
            "verse": 2,
            "name": "2 Corinthians 6:2",
            "text": "\u84cb\u66f0\u306f\u304f\u3001\u300c\u6211\u5b9c\u304d\u6642\u306b\u6c5d\u306e\u9858\u3092\u8074\u304d\u6551\u306e\u65e5\u306b\u6c5d\u3092\u52a9\u3051\u305f\u308a\u300d\u3068\u3002\u4eca\u3053\u305d\u306f\u5b9c\u304d\u6642\u306a\u308c\u3001\u4eca\u3053\u305d\u306f\u6551\u306e\u65e5\u306a\u308c\u3002"
        },
        {
            "chapter": 6,
            "verse": 3,
            "name": "2 Corinthians 6:3",
            "text": "\u6211\u7b49\u8056\u5f79\u3092\u8b4f\u3089\u308c\u3056\u3089\u3093\u70ba\u306b\u8ab0\u306e\u610f\u3092\u3082\u640d\u306f\u305a\u3001"
        },
        {
            "chapter": 6,
            "verse": 4,
            "name": "2 Corinthians 6:4",
            "text": "\u5374\u3066\u842c\u4e8b\u306b\u65bc\u3066\u5df1\u3092\u795e\u306e\u5f79\u8005\u3068\u3057\u3066\u9855\u3059\u3002\u5373\u3061\u5927\u3044\u306a\u308b\u582a\u5fcd\u3092\u4ee5\u3066\u3001\u60a3\u96e3\u306b\u3082\u3001\u56f0\u7aae\u306b\u3082\u3001\u82e6\u60a9\u306b\u3082\u3001"
        },
        {
            "chapter": 6,
            "verse": 5,
            "name": "2 Corinthians 6:5",
            "text": "\u8ca0\u50b7\u3059\u308b\u3082\u3001\u76e3\u7344\u306b\u5728\u308b\u3082\u3001\u9a12\u4e82\u306b\u3082\u3001\u52de\u50cd\u306b\u3082\u3001\u5fb9\u591c\u306b\u3082\u3001\u65ad\u98df\u306b\u3082\u3002"
        },
        {
            "chapter": 6,
            "verse": 6,
            "name": "2 Corinthians 6:6",
            "text": "\u8c9e\u6f54\u3068\u5b78\u8b58\u3068\u3001\u8010\u5fcd\u3068\u6e29\u826f\u3068\u3001\u8056\u970a[\u306e\u597d\u679c]\u3068\u50de\u306a\u304d\u611b\u3068\u3001"
        },
        {
            "chapter": 6,
            "verse": 7,
            "name": "2 Corinthians 6:7",
            "text": "\u771e\u7406\u306e\u8a00\u3068\u795e\u306e\u5fa1\u529b\u3068\u3001\u5de6\u53f3\u306b\u6301\u308b\u7fa9\u306e\u6b66\u5668\u3068\u3092\u4ee5\u3066\u3001"
        },
        {
            "chapter": 6,
            "verse": 8,
            "name": "2 Corinthians 6:8",
            "text": "\u53c8\u5c0a\u69ae\u3068\u803b\u8fb1\u3001\u60e1\u8a55\u3068\u597d\u8a55\u3068\u3092\u4ee5\u3066\u3001\u4eba\u3092\u60d1\u306f\u3059\u8005\u306e\u5982\u304f\u306b\u3057\u3066\u800c\u3082\u771e\u5be6\u306b\u3001\u77e5\u3089\u308c\u3056\u308b\u304c\u5982\u304f\u306b\u3057\u3066\u800c\u3082\u4eba\u306b\u77e5\u3089\u308c\u3001"
        },
        {
            "chapter": 6,
            "verse": 9,
            "name": "2 Corinthians 6:9",
            "text": "\u6b7b\u3059\u308b\u306b\u4f3c\u3066\u800c\u3082\u6d3b\u304f\u308b\u4e8b\u65af\u306e\u5982\u304f\u3001\u61f2\u3055\u308b\u308b\u306b\u4f3c\u3066\u800c\u3082\u6bba\u3055\u308c\u305a\u3001"
        },
        {
            "chapter": 6,
            "verse": 10,
            "name": "2 Corinthians 6:10",
            "text": "\u6182\u3075\u308b\u304c\u5982\u304f\u306a\u308b\u3082\u5e38\u306b\u559c\u3073\u3001\u4e4f\u3057\u304d\u304c\u5982\u304f\u306a\u308b\u3082\u591a\u304f\u306e\u4eba\u3092\u5bcc\u307e\u3057\u3081\u3001\u6709\u3059\u308b\u6240\u306a\u304d\u304c\u5982\u304f\u306b\u3057\u3066\u4e00\u5207\u3092\u6709\u3057\u3001[\u4ee5\u3066\u795e\u306e\u5f79\u8005\u3068\u3057\u3066\u5df1\u3092\u9855\u3059\u306a\u308a]\u3002"
        },
        {
            "chapter": 6,
            "verse": 11,
            "name": "2 Corinthians 6:11",
            "text": "\u55da\u547c\u30b3\u30ea\u30f3\u30c8\u4eba\u3088\u3001\u6211\u7b49\u306e\u53e3\u306f\u6c5d\u7b49\u306b\u958b\u304d\u3001\u6211\u7b49\u306e\u5fc3\u306f\u5e83\u304f\u306a\u308c\u308a\u3001"
        },
        {
            "chapter": 6,
            "verse": 12,
            "name": "2 Corinthians 6:12",
            "text": "\u6c5d\u7b49\u304c\u6211\u7b49\u306e\u4e2d\u306b\u72ed\u3081\u3089\u308b\u308b\u306b\u306f\u975e\u305a\u3001\u6c5d\u7b49\u306e\u8178\u3053\u305d\u72ed\u304d\u306a\u308c\u3002"
        },
        {
            "chapter": 6,
            "verse": 13,
            "name": "2 Corinthians 6:13",
            "text": "\u6211\u308f\u304c\u5b50\u306b\u8b02\u3075\u304c\u5982\u304f\u306b\u8a9e\u3089\u3093\u3001\u6211\u306b\u7b49\u3057\u304f\u5831\u3044\u3093\u70ba\u306b\u6c5d\u7b49\u3082\u958b\u304b\u308c\u3088\u3002"
        },
        {
            "chapter": 6,
            "verse": 14,
            "name": "2 Corinthians 6:14",
            "text": "\u6c5d\u7b49\u4e0d\u4fe1\u8005\u3068\u8edb\u3092\u540c\u3058\u3046\u3059\u308b\u4e8b\u52ff\u308c\u3001\u84cb\u7fa9\u3068\u4e0d\u7fa9\u3068\u4f55\u306e\u8207\u308b\u6240\u304b\u3042\u3089\u3093\u3001\u5149\u3068\u95c7\u3068\u4f55\u306e\u8207\u3059\u308b\u6240\u304b\u3042\u3089\u3093\u3001"
        },
        {
            "chapter": 6,
            "verse": 15,
            "name": "2 Corinthians 6:15",
            "text": "\u30ad\u30ea\u30b9\u30c8\u3068\u30d9\u30ea\u30a2\u30eb\u3068\u4f55\u306e\u7d04\u3059\u308b\u6240\u304b\u3042\u3089\u3093\u3001\u4fe1\u8005\u3068\u4e0d\u4fe1\u8005\u3068\u4f55\u306e\u95dc\u308b\u6240\u304b\u3042\u3089\u3093\u3001"
        },
        {
            "chapter": 6,
            "verse": 16,
            "name": "2 Corinthians 6:16",
            "text": "\u795e\u6bbf\u3068\u5076\u50cf\u3068\u4f55\u306e\u4e00\u81f4\u3059\u308b\u6240\u304b\u3042\u3089\u3093\u3001\u795e\u306e\u66f0\u3078\u308b\u5982\u304f\u3001\u6c5d\u7b49\u306f\u6d3b\u3051\u308b\u795e\u306e[\u795e]\u6bbf\u306a\u308a\u3001\u66f0\u304f\u3001\u300c\u6211\u5f7c\u7b49\u306e\u4e2d\u306b\u4f4f\u307f\u3001\u5f7c\u7b49\u306e\u9593\u306b\u6b69\u307e\u3093\u3068\u3059\u3001\u800c\u3057\u3066\u6211\u5f7c\u7b49\u306e\u795e\u3068\u306a\u308a\u3001\u5f7c\u7b49\u6211\u6c11\u3068\u306a\u308b\u3079\u3057\u300d\u3001"
        },
        {
            "chapter": 6,
            "verse": 17,
            "name": "2 Corinthians 6:17",
            "text": "\u53c8\u3001\u300c\u4e3b\u66f0\u306f\u304f\u3001\u7136\u308c\u3070\u6c5d\u7b49\u5f7c\u7b49\u306e\u4e2d\u3088\u308a\u51fa\u3067\u3066\u4e4b\u3092\u96e2\u308c\u3088\u3001\u4e0d\u6f54\u306a\u308b\u3082\u306e\u306b\u89e6\u308b\u4e8b\u52ff\u308c\u3001"
        },
        {
            "chapter": 6,
            "verse": 18,
            "name": "2 Corinthians 6:18",
            "text": "\u65af\u3066\u6211\u6c5d\u7b49\u3092\u627f\u3051\u3066\u6c5d\u7b49\u306e\u7236\u3068\u306a\u308a\u3001\u6c5d\u7b49\u308f\u304c\u5b50\u5973\u3068\u306a\u3089\u3093\u3001\u3068\u5168\u80fd\u306e\u795e\u66f0\u3078\u308a\u300d\u3068\u3002 "
        }
    ]
}