{
    "translation": "Western NT",
    "abbreviation": "westernarmenian",
    "lang": "hy",
    "language": "Armenian",
    "direction": "LTR",
    "encoding": "UTF-8",
    "book_nr": 45,
    "book_name": "Romans",
    "chapter": 9,
    "name": "Romans 9",
    "verses": [
        {
            "chapter": 9,
            "verse": 1,
            "name": "Romans 9:1",
            "text": "\u0543\u0577\u0574\u0561\u0580\u057f\u0578\u0582\u0569\u056b\u0582\u0576\u0568 \u056f\u055a\u0568\u057d\u0565\u0574 \u0554\u0580\u056b\u057d\u057f\u0578\u057d\u0578\u057e \u0578\u0582 \u0579\u0565\u0574 \u057d\u057f\u0565\u0580, (\u056b\u0574 \u056d\u0572\u0573\u0574\u057f\u0561\u0576\u0584\u057d \u0561\u056c \u056f\u0568 \u057e\u056f\u0561\u0575\u0567 \u056b\u0576\u056e\u056b \u054d\u0578\u0582\u0580\u0562 \u0540\u0578\u0563\u056b\u0578\u057e,)"
        },
        {
            "chapter": 9,
            "verse": 2,
            "name": "Romans 9:2",
            "text": "\u0569\u0567 \u0574\u0565\u056e \u057f\u0580\u057f\u0574\u0578\u0582\u0569\u056b\u0582\u0576 \u0578\u0582\u0576\u056b\u0574, \u0565\u0582 \u057d\u056b\u0580\u057f\u056b\u057d \u0574\u0567\u057b\u055d \u0575\u0561\u0580\u0561\u057f\u0565\u0582 \u0581\u0561\u0582:"
        },
        {
            "chapter": 9,
            "verse": 3,
            "name": "Romans 9:3",
            "text": "\u0554\u0561\u0576\u056b \u0578\u0580 \u056f\u055a\u0568\u0572\u0571\u0561\u0575\u056b \u0565\u057d \u056b\u0576\u0584\u057d \u0576\u0566\u0578\u057e\u0578\u0582\u0561\u056e \u0568\u056c\u056c\u0561\u056c \u0554\u0580\u056b\u057d\u057f\u0578\u057d\u0567, \u056b\u0574 \u0565\u0572\u0562\u0561\u0575\u0580\u0576\u0565\u0580\u0578\u0582\u057d\u055d \u0574\u0561\u0580\u0574\u056b\u0576\u056b \u056f\u0578\u0572\u0574\u0567\u0576 \u0561\u0566\u0563\u0561\u056f\u0561\u0576\u0576\u0565\u0580\u0578\u0582\u057d \u0570\u0561\u0574\u0561\u0580,"
        },
        {
            "chapter": 9,
            "verse": 4,
            "name": "Romans 9:4",
            "text": "\u0578\u0580\u0578\u0576\u0584 \u053b\u057d\u0580\u0561\u0575\u0565\u056c\u0561\u0581\u056b \u0565\u0576: \u0531\u0576\u0578\u055b\u0576\u0581\u0576 \u0565\u0576 \u0578\u0580\u0564\u0565\u0563\u0580\u0578\u0582\u0569\u056b\u0582\u0576\u0568, \u0583\u0561\u057c\u0584\u0568, \u0578\u0582\u056d\u057f\u0565\u0580\u0568, \u0585\u0580\u0567\u0576\u057d\u0564\u0580\u0578\u0582\u0569\u056b\u0582\u0576\u0568, \u057a\u0561\u0577\u057f\u0561\u0574\u0578\u0582\u0576\u0584\u0576 \u0578\u0582 \u056d\u0578\u057d\u057f\u0578\u0582\u0574\u0576\u0565\u0580\u0568:"
        },
        {
            "chapter": 9,
            "verse": 5,
            "name": "Romans 9:5",
            "text": "\u053b\u0580\u0565\u055b\u0576\u0581\u0576 \u0565\u0576 \u0576\u0561\u056d\u0561\u0570\u0561\u0575\u0580\u0565\u0580\u0568. \u056b\u0580\u0565\u0576\u0581\u0574\u0567\u055b \u0561\u056c \u0574\u0561\u0580\u0574\u056b\u0576\u056b \u056f\u0578\u0572\u0574\u0567\u0576 \u0565\u056f\u0561\u0582 \u0554\u0580\u056b\u057d\u057f\u0578\u057d, \u0578\u0580 \u0562\u0578\u056c\u0578\u0580\u056b\u0576 \u057e\u0580\u0561\u0575 \u0567, \u0575\u0561\u0582\u056b\u057f\u0565\u0561\u0576 \u0585\u0580\u0570\u0576\u0565\u0561\u055c\u056c \u0531\u057d\u057f\u0578\u0582\u0561\u056e: \u0531\u0574\u0567\u0576:"
        },
        {
            "chapter": 9,
            "verse": 6,
            "name": "Romans 9:6",
            "text": "\u0532\u0561\u0575\u0581 \u0531\u057d\u057f\u0578\u0582\u056e\u0578\u0575 \u056d\u0585\u057d\u0584\u0568 \u0561\u057a\u0561\u0580\u0564\u056b\u0582\u0576 \u0576\u056f\u0561\u057f\u0578\u0582\u0565\u056c\u0578\u0582 \u0579\u0567. \u0584\u0561\u0576\u056b \u0578\u0580 \u0562\u0578\u056c\u0578\u0580 \u053b\u057d\u0580\u0561\u0575\u0567\u056c\u0567 \u0565\u0572\u0578\u0572\u0576\u0565\u0580\u0568 \u053b\u057d\u0580\u0561\u0575\u0565\u056c\u0561\u0581\u056b \u0579\u0565\u0576,"
        },
        {
            "chapter": 9,
            "verse": 7,
            "name": "Romans 9:7",
            "text": "\u0578\u055b\u0579 \u0561\u056c \u0562\u0578\u056c\u0578\u0580\u0568 \u0566\u0561\u0582\u0561\u056f\u0576\u0565\u0580 \u0565\u0576\u055d \u0584\u0561\u0576\u056b \u0578\u0580 \u0531\u0562\u0580\u0561\u0570\u0561\u0574\u056b \u0566\u0561\u0580\u0574\u0576 \u0565\u0576. \u0570\u0561\u057a\u0561 \u0568\u057d\u0578\u0582\u0565\u0581\u0561\u0582. \u00ab\u053b\u057d\u0561\u0570\u0561\u056f\u056b\u055b \u0561\u0576\u0578\u0582\u0576\u0578\u057e \u057a\u056b\u057f\u056b \u056f\u0578\u0579\u0578\u0582\u056b \u0584\u0578\u0582 \u0566\u0561\u0580\u0574\u0564\u00bb:"
        },
        {
            "chapter": 9,
            "verse": 8,
            "name": "Romans 9:8",
            "text": "\u0531\u0575\u057d\u056b\u0576\u0584\u0576 \u0561\u0576\u0578\u0576\u0584 \u0578\u0580 \u0574\u0561\u0580\u0574\u056b\u0576\u056b \u0566\u0561\u0582\u0561\u056f\u0576\u0565\u0580\u0576 \u0565\u0576\u055d \u0531\u057d\u057f\u0578\u0582\u056e\u0578\u0575 \u0566\u0561\u0582\u0561\u056f\u0576\u0565\u0580\u0568 \u0579\u0565\u0576. \u0570\u0561\u057a\u0561 \u056d\u0578\u057d\u057f\u0578\u0582\u0574\u056b\u055b\u0576 \u0566\u0561\u0582\u0561\u056f\u0576\u0565\u0580\u0568 \u0566\u0561\u0580\u0574 \u056f\u0568 \u057d\u0565\u057a\u0578\u0582\u056b\u0576:"
        },
        {
            "chapter": 9,
            "verse": 9,
            "name": "Romans 9:9",
            "text": "\u0548\u0580\u0578\u057e\u0570\u0565\u057f\u0565\u0582 \u056d\u0578\u057d\u057f\u0578\u0582\u0574\u056b\u0576 \u056d\u0585\u057d\u0584\u0568 \u057d\u0561\u055b \u0567\u0580. \u00ab\u0531\u0575\u057d \u0561\u057f\u0565\u0576 \u057a\u056b\u057f\u056b \u0563\u0561\u0574, \u0578\u0582 \u054d\u0561\u057c\u0561 \u0578\u0580\u0564\u056b \u0574\u0568 \u057a\u056b\u057f\u056b \u0578\u0582\u0576\u0565\u0576\u0561\u0575\u00bb:"
        },
        {
            "chapter": 9,
            "verse": 10,
            "name": "Romans 9:10",
            "text": "\u0535\u0582 \u0578\u055b\u0579 \u0574\u056b\u0561\u0575\u0576 \u0561\u0575\u0564, \u0561\u0575\u056c \u0576\u0561\u0565\u0582 \u0565\u0580\u0562 \u054c\u0565\u0562\u0565\u056f\u0561 \u0575\u0572\u0561\u0581\u0561\u0582 \u0574\u0567\u056f\u0567\u0576\u055d \u0574\u0565\u0580 \u053b\u057d\u0561\u0570\u0561\u056f \u0570\u0585\u0580\u0574\u0567\u0576,"
        },
        {
            "chapter": 9,
            "verse": 11,
            "name": "Romans 9:11",
            "text": "(\u0584\u0561\u0576\u056b \u0578\u0580 \u0566\u0561\u0582\u0561\u056f\u0576\u0565\u0580\u0568 \u0564\u0565\u057c \u0579\u056e\u0576\u0561\u056e, \u0578\u055b\u0579 \u0561\u056c \u0578\u0580\u0565\u0582\u0567 \u0562\u0561\u0580\u056b\u0584 \u056f\u0561\u0574 \u0579\u0561\u0580\u056b\u0584 \u0563\u0578\u0580\u056e\u0561\u056e, \u0578\u0580\u057a\u0567\u057d\u0566\u056b \u0531\u057d\u057f\u0578\u0582\u056e\u0578\u0575 \u0561\u057c\u0561\u057b\u0561\u0564\u0580\u0578\u0582\u0569\u056b\u0582\u0576\u0568 \u0570\u0561\u057d\u057f\u0561\u057f \u0574\u0576\u0561\u0575\u055d \u0568\u0576\u057f\u0580\u0578\u0582\u0569\u0565\u0561\u0576 \u0570\u0561\u0574\u0561\u0571\u0561\u0575\u0576,"
        },
        {
            "chapter": 9,
            "verse": 12,
            "name": "Romans 9:12",
            "text": "\u0561\u0575\u057d\u056b\u0576\u0584\u0576 \u0578\u055b\u0579 \u0569\u0567 \u0563\u0578\u0580\u056e\u0565\u0580\u0567\u0576 \u0568\u056c\u056c\u0561\u0575, \u0570\u0561\u057a\u0561 \u0561\u0576\u056f\u0567\u055b \u0578\u0580 \u056f\u0561\u0576\u0579\u0565\u0581,) \u0561\u0576\u0578\u0580 \u0568\u057d\u0578\u0582\u0565\u0581\u0561\u0582."
        },
        {
            "chapter": 9,
            "verse": 13,
            "name": "Romans 9:13",
            "text": "\u00ab\u0535\u0580\u0567\u0581\u0568 \u057a\u056b\u057f\u056b \u056e\u0561\u057c\u0561\u0575\u0567 \u056f\u0580\u057f\u057d\u0565\u0580\u056b\u0576\u00bb, \u056b\u0576\u0579\u057a\u0567\u057d \u0563\u0580\u0578\u0582\u0561\u056e \u0567. \u00ab\u0545\u0561\u056f\u0578\u055b\u0562\u0568 \u057d\u056b\u0580\u0565\u0581\u056b, \u056b\u057d\u056f \u0535\u057d\u0561\u0582\u0568 \u0561\u057f\u0565\u0581\u056b\u00bb:"
        },
        {
            "chapter": 9,
            "verse": 14,
            "name": "Romans 9:14",
            "text": "\u0548\u0582\u0580\u0565\u0574\u0576 \u056b\u055e\u0576\u0579 \u0568\u057d\u0565\u0576\u0584. \u0574\u056b\u0569\u0567 \u0531\u057d\u057f\u0578\u0582\u056e\u0578\u0575 \u0584\u0578\u057e \u0561\u0576\u056b\u0580\u0561\u0582\u0578\u0582\u0569\u056b\u055e\u0582\u0576 \u056f\u0561\u0575: \u0531\u0574\u0565\u055b\u0576\u0565\u0582\u056b\u0576:"
        },
        {
            "chapter": 9,
            "verse": 15,
            "name": "Romans 9:15",
            "text": "\u0548\u0580\u0578\u057e\u0570\u0565\u057f\u0565\u0582 \u0561\u0576 \u0544\u0578\u057e\u057d\u0567\u057d\u056b \u056f\u055a\u0568\u057d\u0567. \u00ab\u0531\u0576\u0578\u055b\u0580 \u0578\u0580 \u057a\u056b\u057f\u056b \u0578\u0572\u0578\u0580\u0574\u056b\u0574\u055d \u056f\u055a\u0578\u0572\u0578\u0580\u0574\u056b\u0574, \u0565\u0582 \u0561\u0576\u0578\u055b\u0580 \u057e\u0580\u0561\u0575 \u0578\u0580 \u057a\u056b\u057f\u056b \u0563\u0569\u0561\u0574\u055d \u056f\u0568 \u0563\u0569\u0561\u0574\u00bb:"
        },
        {
            "chapter": 9,
            "verse": 16,
            "name": "Romans 9:16",
            "text": "\u0548\u0582\u0580\u0565\u0574\u0576 \u0578\u055b\u0579 \u0574\u0561\u0580\u0564\u0578\u0582\u0576 \u0578\u0582\u0566\u0565\u056c\u0567\u0576, \u0578\u055b\u0579 \u0561\u056c \u057e\u0561\u0566\u0565\u056c\u0567\u0576\u055d\u055d \u056f\u0561\u056d\u0565\u0561\u056c \u0567, \u0570\u0561\u057a\u0561 \u0531\u057d\u057f\u0578\u0582\u056e\u0574\u0567\u055d \u0578\u0580 \u056f\u055a\u0578\u0572\u0578\u0580\u0574\u056b:"
        },
        {
            "chapter": 9,
            "verse": 17,
            "name": "Romans 9:17",
            "text": "\u0554\u0561\u0576\u056b \u0578\u0580 \u0533\u056b\u0580\u0584\u0568 \u056f\u055a\u0568\u057d\u0567 \u0553\u0561\u0580\u0561\u0582\u0578\u0576\u056b. \u00ab\u0532\u0561\u0580\u0571\u0580\u0561\u0581\u0578\u0582\u0581\u056b \u0584\u0565\u0566, \u0578\u0580\u057a\u0567\u057d\u0566\u056b \u056b\u0574 \u0566\u0585\u0580\u0578\u0582\u0569\u056b\u0582\u0576\u057d \u0581\u0578\u0575\u0581 \u057f\u0561\u0574 \u0584\u0578\u0582 \u0574\u056b\u057b\u0578\u0581\u0578\u057e\u0564, \u0565\u0582 \u056b\u0574 \u0561\u0576\u0578\u0582\u0576\u057d \u0570\u057c\u0579\u0561\u056f\u0578\u0582\u056b \u0561\u0574\u0562\u0578\u0572\u057b \u0565\u0580\u056f\u0580\u056b\u0576 \u0574\u0567\u057b\u00bb:"
        },
        {
            "chapter": 9,
            "verse": 18,
            "name": "Romans 9:18",
            "text": "\u0548\u0582\u0580\u0565\u0574\u0576 \u056f\u055a\u0578\u0572\u0578\u0580\u0574\u056b \u0578\u0580\u0578\u055b\u0582\u0576 \u0578\u0580 \u0578\u0582\u0566\u0567, \u0565\u0582 \u056f\u0568 \u056d\u057d\u057f\u0561\u0581\u0576\u0567 \u0566\u0561\u055b\u0575\u0576 \u0578\u0580 \u0578\u0582\u0566\u0567:"
        },
        {
            "chapter": 9,
            "verse": 19,
            "name": "Romans 9:19",
            "text": "\u0540\u0565\u057f\u0565\u0582\u0561\u0562\u0561\u0580 \u0564\u0578\u0582\u0576 \u057a\u056b\u057f\u056b \u0568\u057d\u0565\u057d \u056b\u0576\u056e\u056b \u0569\u0567 \u201c\u0561\u055b\u056c \u056b\u0576\u0579\u0578\u055e\u0582 \u056f\u0568 \u0574\u0565\u0572\u0561\u0564\u0580\u0567, \u0578\u0580\u0578\u057e\u0570\u0565\u057f\u0565\u0582 \u0578\u055e\u057e \u056f\u0580\u0576\u0561\u0575 \u0568\u0576\u0564\u0564\u056b\u0574\u0561\u0576\u0561\u056c \u0561\u0576\u0578\u0580 \u056e\u0580\u0561\u0563\u056b\u0580\u056b\u0576\u201d:"
        },
        {
            "chapter": 9,
            "verse": 20,
            "name": "Romans 9:20",
            "text": "\u0532\u0561\u0575\u0581 \u0564\u0578\u0582\u0576 \u0578\u055e\u057e \u0565\u057d, \u0578\u055b\u057e \u0574\u0561\u0580\u0564, \u0578\u0580 \u056f\u0568 \u0564\u056b\u0574\u0561\u0564\u0561\u0580\u0571\u0565\u057d \u0531\u057d\u057f\u0578\u0582\u056e\u0578\u0575: \u0544\u056b\u0569\u0567 \u056f\u0565\u0580\u057f\u0578\u0582\u0561\u056e \u0568 \u056f\u0580\u0576\u0561\u055e\u0575 \u0568\u057d\u0565\u056c \u0566\u056b\u0576\u0584 \u056f\u0565\u0580\u057f\u0578\u0572\u056b\u0576. \u00ab\u053b\u0576\u0579\u0578\u055e\u0582 \u0561\u055b\u0575\u057d\u057a\u0567\u057d \u0577\u056b\u0576\u0565\u0581\u056b\u0580 \u0566\u056b\u057d\u00bb:"
        },
        {
            "chapter": 9,
            "verse": 21,
            "name": "Romans 9:21",
            "text": "\u0544\u056b\u0569\u0567 \u0562\u0580\u0578\u0582\u057f\u0568 \u056b\u0580\u0561\u0582\u0561\u057d\u0578\u0582\u0569\u056b\u0582\u0576 \u0579\u0578\u0582\u0576\u056b\u055e \u056f\u0561\u0582\u056b\u0576 \u057e\u0580\u0561\u0575, \u0578\u0580 \u0576\u0578\u0575\u0576 \u0566\u0561\u0576\u0563\u0578\u0582\u0561\u056e\u0567\u0576 \u0577\u056b\u0576\u0567 \u0561\u0576\u0585\u0569 \u0574\u0568\u055d \u057a\u0561\u057f\u056b\u0582\u056b \u0570\u0561\u0574\u0561\u0580, \u056b\u057d\u056f \u0578\u0582\u0580\u056b\u0577 \u0574\u0568\u055d \u0561\u0576\u057a\u0561\u057f\u0578\u0582\u0578\u0582\u0569\u0565\u0561\u0576 \u0570\u0561\u0574\u0561\u0580:"
        },
        {
            "chapter": 9,
            "verse": 22,
            "name": "Romans 9:22",
            "text": "\u053b\u055e\u0576\u0579 \u056f\u0580\u0576\u0561\u0576\u0584 \u0568\u057d\u0565\u056c\u055d \u0565\u0569\u0567 \u0531\u057d\u057f\u0578\u0582\u0561\u056e, \u0578\u0582\u0566\u0565\u056c\u0578\u057e \u0581\u0578\u0575\u0581 \u057f\u0561\u056c \u056b\u0580 \u0562\u0561\u0580\u056f\u0578\u0582\u0569\u056b\u0582\u0576\u0568 \u0565\u0582 \u0563\u056b\u057f\u0581\u0576\u0565\u056c \u056b\u0580 \u0566\u0585\u0580\u0578\u0582\u0569\u056b\u0582\u0576\u0568, \u0577\u0561\u057f \u0570\u0561\u0574\u0562\u0565\u0580\u0561\u057f\u0561\u0580\u0578\u0582\u0569\u0565\u0561\u0574\u0562 \u057f\u0578\u056f\u0561\u0581 \u056f\u0578\u0580\u057d\u0578\u0582\u0565\u056c\u0578\u0582 \u057a\u0561\u057f\u0580\u0561\u057d\u057f\u0578\u0582\u0561\u056e \u0562\u0561\u0580\u056f\u0578\u0582\u0569\u0565\u0561\u0576 \u0561\u0576\u0585\u0569\u0576\u0565\u0580\u0578\u0582\u0576,"
        },
        {
            "chapter": 9,
            "verse": 23,
            "name": "Romans 9:23",
            "text": "\u0578\u0580\u057a\u0567\u057d\u0566\u056b \u0563\u056b\u057f\u0581\u0576\u0567 \u056b\u0580 \u0583\u0561\u057c\u0584\u056b\u0576 \u0573\u0578\u056d\u0578\u0582\u0569\u056b\u0582\u0576\u0568\u055d \u0578\u0572\u0578\u0580\u0574\u0578\u0582\u0569\u056b\u0582\u0576 \u0563\u057f\u0576\u0578\u0572 \u0561\u0576\u0585\u0569\u0576\u0565\u0580\u0578\u0582\u0576, \u0578\u0580 \u0576\u0561\u056d\u0561\u057a\u0567\u057d \u057a\u0561\u057f\u0580\u0561\u057d\u057f\u0565\u0581 \u0583\u0561\u057c\u0584\u056b \u0570\u0561\u0574\u0561\u0580,"
        },
        {
            "chapter": 9,
            "verse": 24,
            "name": "Romans 9:24",
            "text": "\u0561\u0575\u057d\u056b\u0576\u0584\u0576\u055d \u0574\u0565\u0566\u056b, \u0578\u0580 \u056f\u0561\u0576\u0579\u0565\u0581 \u0578\u055b\u0579 \u0574\u056b\u0561\u0575\u0576 \u0540\u0580\u0565\u0561\u0576\u0565\u0580\u0567\u0576, \u0561\u0575\u056c \u0576\u0561\u0565\u0582 \u0570\u0565\u0569\u0561\u0576\u0578\u057d\u0576\u0565\u0580\u0567\u0576,"
        },
        {
            "chapter": 9,
            "verse": 25,
            "name": "Romans 9:25",
            "text": "\u056b\u0576\u0579\u057a\u0567\u057d \u0548\u057e\u057d\u0567\u0567\u056b \u0574\u0567\u057b \u0561\u056c \u056f\u055a\u0568\u057d\u0567. \u00ab\u053b\u0574 \u056a\u0578\u0572\u0578\u057e\u0578\u0582\u0580\u0564\u057d \u0579\u0565\u0572\u0578\u0572\u0568\u055d \u201c\u056b\u0574 \u056a\u0578\u0572\u0578\u057e\u0578\u0582\u0580\u0564\u057d\u201d \u057a\u056b\u057f\u056b \u056f\u0578\u0579\u0565\u0574, \u0578\u0582 \u057d\u056b\u0580\u0565\u056c\u056b \u0579\u0565\u0572\u0578\u0572\u0568\u055d \u201c\u057d\u056b\u0580\u0565\u056c\u056b\u201d:"
        },
        {
            "chapter": 9,
            "verse": 26,
            "name": "Romans 9:26",
            "text": "\u0535\u0582 \u0561\u0575\u0576 \u057f\u0565\u0572\u0568\u055d \u0578\u0582\u0580 \u0561\u0576\u0578\u0576\u0581 \u0568\u057d\u0578\u0582\u0561\u056e \u0567\u0580. \u201c\u0534\u0578\u0582\u0584 \u056b\u0574 \u056a\u0578\u0572\u0578\u057e\u0578\u0582\u0580\u0564\u057d \u0579\u0567\u0584\u201d, \u0570\u0578\u0576 \u0561\u0576\u0578\u0576\u0584 \u057a\u056b\u057f\u056b \u056f\u0578\u0579\u0578\u0582\u056b\u0576 \u201c\u0561\u057a\u0580\u0578\u0572 \u0531\u057d\u057f\u0578\u0582\u056e\u0578\u0575 \u0578\u0580\u0564\u056b\u0576\u0565\u0580\u0568\u201d:"
        },
        {
            "chapter": 9,
            "verse": 27,
            "name": "Romans 9:27",
            "text": "\u0535\u057d\u0561\u0575\u056b \u0561\u056c \u053b\u057d\u0580\u0561\u0575\u0567\u056c\u056b \u0574\u0561\u057d\u056b\u0576 \u056f\u055a\u0561\u0572\u0561\u0572\u0561\u056f\u0567. \u00ab\u0546\u0578\u0575\u0576\u056b\u057d\u056f \u0565\u0569\u0567 \u053b\u057d\u0580\u0561\u0575\u0567\u056c\u056b \u0578\u0580\u0564\u056b\u0576\u0565\u0580\u0578\u0582\u0576 \u0569\u056b\u0582\u0568 \u056e\u0578\u057e\u0578\u0582 \u0561\u0582\u0561\u0566\u056b\u0576 \u0579\u0561\u0583 \u0568\u056c\u056c\u0561\u0575, \u0574\u056b\u0561\u0575\u0576 \u0574\u0576\u0561\u0581\u0578\u0580\u0564 \u0574\u0568 \u057a\u056b\u057f\u056b \u0583\u0580\u056f\u0578\u0582\u056b:"
        },
        {
            "chapter": 9,
            "verse": 28,
            "name": "Romans 9:28",
            "text": "\u0554\u0561\u0576\u056b \u0578\u0580 \u0561\u0576 \u057a\u056b\u057f\u056b \u056f\u0561\u057f\u0561\u0580\u0567 \u056b\u0580 \u056d\u0585\u057d\u0584\u0568, \u056f\u057f\u0580\u0578\u0582\u056f \u056f\u0565\u0580\u057a\u0578\u057e \u0565\u0582 \u0561\u0580\u0564\u0561\u0580\u0578\u0582\u0569\u0565\u0561\u0574\u0562. \u054f\u0567\u0580\u0568 \u056f\u057f\u0580\u0578\u0582\u056f \u056f\u0565\u0580\u057a\u0578\u057e \u057a\u056b\u057f\u056b \u056b\u0580\u0561\u0563\u0578\u0580\u056e\u0567 \u056b\u0580 \u056d\u0585\u057d\u0584\u0568 \u0565\u0580\u056f\u0580\u056b \u057e\u0580\u0561\u0575\u00bb:"
        },
        {
            "chapter": 9,
            "verse": 29,
            "name": "Romans 9:29",
            "text": "\u0535\u0582 \u056b\u0576\u0579\u057a\u0567\u057d \u0535\u057d\u0561\u0575\u056b \u0576\u0561\u056d\u0561\u057a\u0567\u057d \u0568\u057d\u0561\u0582. \u00ab\u0535\u0569\u0567 \u0566\u0585\u0580\u0584\u0565\u0580\u0578\u0582 \u054f\u0567\u0580\u0568 \u0566\u0561\u0580\u0574 \u0574\u0568 \u0569\u0578\u0572\u0578\u0582\u0581\u0561\u056e \u0579\u0568\u056c\u056c\u0561\u0580 \u0574\u0565\u0566\u056b, \u0574\u0565\u0576\u0584 \u057a\u056b\u057f\u056b \u0568\u056c\u056c\u0561\u0575\u056b\u0576\u0584 \u054d\u0578\u0564\u0578\u0574\u056b \u057a\u0567\u057d, \u0578\u0582 \u057a\u056b\u057f\u056b \u0576\u0574\u0561\u0576\u0567\u056b\u0576\u0584 \u0533\u0578\u0574\u0578\u0580\u056b\u00bb:"
        },
        {
            "chapter": 9,
            "verse": 30,
            "name": "Romans 9:30",
            "text": "\u0548\u0582\u0580\u0565\u0574\u0576 \u056b\u055e\u0576\u0579 \u0568\u057d\u0565\u0576\u0584: \u0540\u0565\u057f\u0565\u0582\u0565\u0561\u055b\u056c\u0568, \u0569\u0567 \u0570\u0565\u0569\u0561\u0576\u0578\u057d\u0576\u0565\u0580\u0568\u055d \u0578\u0580\u0578\u0576\u0584 \u0570\u0565\u057f\u0561\u0574\u0578\u0582\u057f \u0579\u0567\u056b\u0576 \u0561\u0580\u0564\u0561\u0580\u0578\u0582\u0569\u0565\u0561\u0576\u055d \u0570\u0561\u057d\u0561\u0576 \u0561\u0580\u0564\u0561\u0580\u0578\u0582\u0569\u0565\u0561\u0576, \u0561\u055b\u0575\u0576 \u0561\u0580\u0564\u0561\u0580\u0578\u0582\u0569\u0565\u0561\u0576\u055d \u0578\u0580 \u0570\u0561\u0582\u0561\u057f\u0584\u0567\u0576 \u0567."
        },
        {
            "chapter": 9,
            "verse": 31,
            "name": "Romans 9:31",
            "text": "\u056b\u057d\u056f \u053b\u057d\u0580\u0561\u0575\u0567\u056c\u055d \u0578\u0580 \u0570\u0565\u057f\u0561\u0574\u0578\u0582\u057f \u0567\u0580 \u0561\u0580\u0564\u0561\u0580\u0578\u0582\u0569\u0565\u0561\u0576 \u0555\u0580\u0567\u0576\u0584\u056b\u0576\u055d \u0579\u0570\u0561\u057d\u0561\u0582 \u0561\u0580\u0564\u0561\u0580\u0578\u0582\u0569\u0565\u0561\u0576 \u0555\u0580\u0567\u0576\u0584\u056b\u0576:"
        },
        {
            "chapter": 9,
            "verse": 32,
            "name": "Romans 9:32",
            "text": "\u053b\u0576\u0579\u0578\u055e\u0582. \u0578\u0580\u0578\u057e\u0570\u0565\u057f\u0565\u0582 \u0578\u0582\u0566\u0565\u0581 \u0561\u0580\u0564\u0561\u0580\u0561\u0576\u0561\u056c \u0578\u055b\u0579 \u0569\u0567 \u0570\u0561\u0582\u0561\u057f\u0584\u0578\u057e, \u0570\u0561\u057a\u0561 \u0578\u0580\u057a\u0567\u057d \u0569\u0567 \u0555\u0580\u0567\u0576\u0584\u056b\u0576 \u0563\u0578\u0580\u056e\u0565\u0580\u0578\u057e: \u0531\u0580\u0564\u0561\u0580\u0565\u0582 \u0561\u0576\u0578\u0576\u0584 \u0563\u0561\u0575\u0569\u0565\u0581\u0561\u0576 \u057d\u0561\u0575\u0569\u0561\u0584\u0578\u0582\u0574\u056b \u0584\u0561\u0580\u056b\u0576 \u057e\u0580\u0561\u0575,"
        },
        {
            "chapter": 9,
            "verse": 33,
            "name": "Romans 9:33",
            "text": "\u056b\u0576\u0579\u057a\u0567\u057d \u0563\u0580\u0578\u0582\u0561\u056e \u0567. \u00ab\u0531\u0570\u0561\u055b \u054d\u056b\u0578\u0576\u056b \u0574\u0567\u057b \u056f\u0568 \u0564\u0576\u0565\u0574 \u057d\u0561\u0575\u0569\u0561\u0584\u0578\u0582\u0574\u056b \u0584\u0561\u0580 \u0574\u0568 \u0578\u0582 \u0563\u0561\u0575\u0569\u0561\u056f\u0572\u0578\u0582\u0569\u0565\u0561\u0576 \u056a\u0561\u0575\u057c \u0574\u0568, \u0565\u0582 \u0578\u055b\u057e \u0578\u0580 \u0570\u0561\u0582\u0561\u057f\u0561\u0575 \u0561\u0576\u0578\u0580\u055d \u0561\u0574\u0585\u0569\u0561\u0570\u0561\u0580 \u057a\u056b\u057f\u056b \u0579\u0568\u056c\u056c\u0561\u0575\u00bb:"
        }
    ]
}