{
    "translation": "Kitab Awal-Jaman maka Kitab Injil",
    "abbreviation": "sml_bl_2008",
    "lang": "sml",
    "language": "Sama",
    "direction": "LTR",
    "encoding": "UTF-8",
    "book_nr": 22,
    "book_name": "Song of Solomon",
    "chapter": 4,
    "name": "Song of Solomon 4",
    "verses": [
        {
            "chapter": 4,
            "verse": 1,
            "name": "Song of Solomon 4:1",
            "text": ""
        },
        {
            "chapter": 4,
            "verse": 2,
            "name": "Song of Solomon 4:2",
            "text": ""
        },
        {
            "chapter": 4,
            "verse": 3,
            "name": "Song of Solomon 4:3",
            "text": ""
        },
        {
            "chapter": 4,
            "verse": 4,
            "name": "Song of Solomon 4:4",
            "text": ""
        },
        {
            "chapter": 4,
            "verse": 5,
            "name": "Song of Solomon 4:5",
            "text": ""
        },
        {
            "chapter": 4,
            "verse": 6,
            "name": "Song of Solomon 4:6",
            "text": ""
        },
        {
            "chapter": 4,
            "verse": 7,
            "name": "Song of Solomon 4:7",
            "text": ""
        },
        {
            "chapter": 4,
            "verse": 8,
            "name": "Song of Solomon 4:8",
            "text": ""
        },
        {
            "chapter": 4,
            "verse": 9,
            "name": "Song of Solomon 4:9",
            "text": ""
        },
        {
            "chapter": 4,
            "verse": 10,
            "name": "Song of Solomon 4:10",
            "text": ""
        },
        {
            "chapter": 4,
            "verse": 11,
            "name": "Song of Solomon 4:11",
            "text": ""
        },
        {
            "chapter": 4,
            "verse": 12,
            "name": "Song of Solomon 4:12",
            "text": ""
        },
        {
            "chapter": 4,
            "verse": 13,
            "name": "Song of Solomon 4:13",
            "text": ""
        },
        {
            "chapter": 4,
            "verse": 14,
            "name": "Song of Solomon 4:14",
            "text": ""
        },
        {
            "chapter": 4,
            "verse": 15,
            "name": "Song of Solomon 4:15",
            "text": ""
        },
        {
            "chapter": 4,
            "verse": 16,
            "name": "Song of Solomon 4:16",
            "text": ""
        }
    ]
}