{
    "translation": "Cornilescu",
    "abbreviation": "cornilescu",
    "lang": "ro",
    "language": "Romanian",
    "direction": "LTR",
    "encoding": "UTF-8",
    "book_nr": 58,
    "book_name": "Hebrews",
    "chapter": 9,
    "name": "Hebrews 9",
    "verses": [
        {
            "chapter": 9,
            "verse": 1,
            "name": "Hebrews 9:1",
            "text": "Leg\u0103m\u00e2ntul dint\u00e2i avea \u015fi el porunci privitoare la slujba dumnezeiasc\u0103 \u015fi la un loca\u015f p\u0103m\u00e2ntesc de \u00eenchinare."
        },
        {
            "chapter": 9,
            "verse": 2,
            "name": "Hebrews 9:2",
            "text": "\u00cen adev\u0103r, s-a f\u0103cut un cort. \u00cen partea dinainte, numit\u0103 \u201eLocul Sf\u00e2nt\u201d, era sfe\u015fnicul, masa \u015fi p\u00e2inile pentru punerea \u00eenaintea Domnului;"
        },
        {
            "chapter": 9,
            "verse": 3,
            "name": "Hebrews 9:3",
            "text": "dup\u0103 perdeaua a doua se afla partea cortului care se chema \u201eLocul Preasf\u00e2nt\u201d."
        },
        {
            "chapter": 9,
            "verse": 4,
            "name": "Hebrews 9:4",
            "text": "El avea un altar de aur pentru t\u0103m\u00e2ie \u015fi chivotul leg\u0103m\u00e2ntului, ferecat peste tot cu aur. \u00cen chivot era un vas de aur cu man\u0103, toiagul lui Aaron, care \u00eenfrunzise, \u015fi tablele leg\u0103m\u00e2ntului."
        },
        {
            "chapter": 9,
            "verse": 5,
            "name": "Hebrews 9:5",
            "text": "Deasupra erau heruvimii slavei, care acopereau capacul isp\u0103\u015firii cu umbra lor. Nu este vremea s\u0103 vorbim acum cu de-am\u0103nuntul despre aceste lucruri."
        },
        {
            "chapter": 9,
            "verse": 6,
            "name": "Hebrews 9:6",
            "text": "\u015ei dup\u0103 ce au fost \u00eentocmite astfel lucrurile acestea, preo\u0163ii care fac slujbele, intr\u0103 totdeauna \u00een partea dint\u00e2i a cortului."
        },
        {
            "chapter": 9,
            "verse": 7,
            "name": "Hebrews 9:7",
            "text": "Dar \u00een partea a doua intr\u0103 numai marele preot, odat\u0103 pe an \u015fi nu f\u0103r\u0103 s\u00e2nge, pe care \u00eel aduce pentru sine \u00eensu\u015fi \u015fi pentru p\u0103catele din ne\u015ftiin\u0163\u0103 ale norodului."
        },
        {
            "chapter": 9,
            "verse": 8,
            "name": "Hebrews 9:8",
            "text": "Prin aceasta, Duhul Sf\u00e2nt ar\u0103ta c\u0103 drumul \u00een Locul Preasf\u00e2nt nu era \u00eenc\u0103 deschis c\u00e2t\u0103 vreme st\u0103tea \u00een picioare cortul dint\u00e2i."
        },
        {
            "chapter": 9,
            "verse": 9,
            "name": "Hebrews 9:9",
            "text": "Aceasta era o asem\u0103nare pentru vremurile de acum, c\u00e2nd se aduc daruri \u015fi jertfe care nu pot duce pe cel ce se \u00eenchin\u0103 \u00een felul acesta la des\u0103v\u00e2r\u015firea cerut\u0103 de cugetul lui."
        },
        {
            "chapter": 9,
            "verse": 10,
            "name": "Hebrews 9:10",
            "text": "Ele sunt doar ni\u015fte porunci p\u0103m\u00e2nte\u015fti, date ca toate cele privitoare la m\u00e2nc\u0103ruri, b\u0103uturi \u015fi felurite sp\u0103l\u0103turi, p\u00e2n\u0103 la o vreme de \u00eendreptare."
        },
        {
            "chapter": 9,
            "verse": 11,
            "name": "Hebrews 9:11",
            "text": "Dar Hristos a venit ca Mare Preot al bunurilor viitoare, a trecut prin cortul acela mai mare \u015fi mai des\u0103v\u00e2r\u015fit, care nu este f\u0103cut de m\u00e2ini, adic\u0103 nu este din zidirea aceasta,"
        },
        {
            "chapter": 9,
            "verse": 12,
            "name": "Hebrews 9:12",
            "text": "\u015fi a intrat, o dat\u0103 pentru totdeauna, \u00een Locul Preasf\u00e2nt nu cu s\u00e2nge de \u0163api \u015fi de vi\u0163ei, ci cu \u00eensu\u015fi s\u00e2ngele S\u0103u, dup\u0103 ce a c\u0103p\u0103tat o r\u0103scump\u0103rare ve\u015fnic\u0103."
        },
        {
            "chapter": 9,
            "verse": 13,
            "name": "Hebrews 9:13",
            "text": "C\u0103ci, dac\u0103 s\u00e2ngele taurilor \u015fi al \u0163apilor \u015fi cenu\u015fa unei vaci, stropit\u0103 peste cei \u00eentina\u0163i, \u00eei sfin\u0163esc \u015fi le aduc cur\u0103\u0163irea trupului,"
        },
        {
            "chapter": 9,
            "verse": 14,
            "name": "Hebrews 9:14",
            "text": "cu c\u00e2t mai mult s\u00e2ngele lui Hristos, care, prin Duhul cel ve\u015fnic, S-a adus pe Sine \u00censu\u015fi jertf\u0103 f\u0103r\u0103 pat\u0103 lui Dumnezeu, v\u0103 va cur\u0103\u0163i cugetul vostru de faptele moarte, ca s\u0103 sluji\u0163i Dumnezeului celui viu!"
        },
        {
            "chapter": 9,
            "verse": 15,
            "name": "Hebrews 9:15",
            "text": "\u015ei tocmai de aceea este El Mijlocitorul unui leg\u0103m\u00e2nt nou, pentru ca, prin moartea Lui pentru r\u0103scump\u0103rarea din abaterile f\u0103ptuite sub leg\u0103m\u00e2ntul dint\u00e2i, cei ce au fost chema\u0163i s\u0103 capete ve\u015fnica mo\u015ftenire care le-a fost f\u0103g\u0103duit\u0103."
        },
        {
            "chapter": 9,
            "verse": 16,
            "name": "Hebrews 9:16",
            "text": "\u00cen adev\u0103r, acolo unde este un testament, trebuie neap\u0103rat s\u0103 aib\u0103 loc moartea celui ce l-a f\u0103cut."
        },
        {
            "chapter": 9,
            "verse": 17,
            "name": "Hebrews 9:17",
            "text": "Pentru c\u0103 un testament nu cap\u0103t\u0103 putere dec\u00e2t dup\u0103 moarte. N-are nicio putere c\u00e2t\u0103 vreme tr\u0103ie\u015fte cel ce l-a f\u0103cut."
        },
        {
            "chapter": 9,
            "verse": 18,
            "name": "Hebrews 9:18",
            "text": "De aceea, \u015fi \u00eent\u00e2iul leg\u0103m\u00e2nt n-a fost sfin\u0163it f\u0103r\u0103 s\u00e2nge."
        },
        {
            "chapter": 9,
            "verse": 19,
            "name": "Hebrews 9:19",
            "text": "\u015ei, \u00eentr-adev\u0103r, Moise, dup\u0103 ce a rostit \u00eenaintea \u00eentregului norod toate poruncile Legii, a luat s\u00e2nge de vi\u0163ei \u015fi de \u0163api, cu ap\u0103, l\u00e2n\u0103 stacojie \u015fi isop, a stropit cartea \u015fi tot norodul"
        },
        {
            "chapter": 9,
            "verse": 20,
            "name": "Hebrews 9:20",
            "text": "\u015fi a zis: \u201eAcesta este s\u00e2ngele leg\u0103m\u00e2ntului care a poruncit Dumnezeu s\u0103 fie f\u0103cut cu voi\u201d."
        },
        {
            "chapter": 9,
            "verse": 21,
            "name": "Hebrews 9:21",
            "text": "De asemenea, a stropit cu s\u00e2nge cortul \u015fi toate vasele pentru slujb\u0103."
        },
        {
            "chapter": 9,
            "verse": 22,
            "name": "Hebrews 9:22",
            "text": "\u015ei, dup\u0103 Lege, aproape totul este cur\u0103\u0163it cu s\u00e2nge; \u015fi f\u0103r\u0103 v\u0103rsare de s\u00e2nge, nu este iertare."
        },
        {
            "chapter": 9,
            "verse": 23,
            "name": "Hebrews 9:23",
            "text": "Dar, deoarece chipurile lucrurilor care sunt \u00een ceruri au trebuit cur\u0103\u0163ite \u00een felul acesta, trebuia ca \u00eense\u015fi lucrurile cere\u015fti s\u0103 fie cur\u0103\u0163ite cu jertfe mai bune dec\u00e2t acestea."
        },
        {
            "chapter": 9,
            "verse": 24,
            "name": "Hebrews 9:24",
            "text": "C\u0103ci Hristos n-a intrat \u00eentr-un loca\u015f de \u00eenchinare f\u0103cut de m\u00e2n\u0103 omeneasc\u0103, dup\u0103 chipul adev\u0103ratului loca\u015f de \u00eenchinare, ci a intrat chiar \u00een cer, ca s\u0103 Se \u00eenf\u0103\u0163i\u015feze acum, pentru noi, \u00eenaintea lui Dumnezeu."
        },
        {
            "chapter": 9,
            "verse": 25,
            "name": "Hebrews 9:25",
            "text": "\u015ei nu ca s\u0103 Se aduc\u0103 de mai multe ori jertf\u0103 pe Sine \u00censu\u015fi, ca marele preot care intr\u0103 \u00een fiecare an \u00een Locul Preasf\u00e2nt cu un s\u00e2nge care nu este al lui,"
        },
        {
            "chapter": 9,
            "verse": 26,
            "name": "Hebrews 9:26",
            "text": "fiindc\u0103 atunci ar fi trebuit s\u0103 p\u0103timeasc\u0103 de mai multe ori de la \u00eentemeierea lumii, pe c\u00e2nd acum, la sf\u00e2r\u015fitul veacurilor, S-a ar\u0103tat o singur\u0103 dat\u0103 ca s\u0103 \u015ftearg\u0103 p\u0103catul prin jertfa Sa."
        },
        {
            "chapter": 9,
            "verse": 27,
            "name": "Hebrews 9:27",
            "text": "\u015ei, dup\u0103 cum oamenilor le este r\u00e2nduit s\u0103 moar\u0103 o singur\u0103 dat\u0103, iar dup\u0103 aceea vine judecata,"
        },
        {
            "chapter": 9,
            "verse": 28,
            "name": "Hebrews 9:28",
            "text": "tot a\u015fa, Hristos, dup\u0103 ce S-a adus jertf\u0103 o singur\u0103 dat\u0103, ca s\u0103 poarte p\u0103catele multora, Se va ar\u0103ta a doua oar\u0103 nu \u00een vederea p\u0103catului, ci ca s\u0103 aduc\u0103 m\u00e2ntuirea celor ce-L a\u015fteapt\u0103. "
        }
    ]
}