{
    "translation": "Louis Segond (1910)",
    "abbreviation": "ls1910",
    "lang": "fr",
    "language": "French",
    "direction": "LTR",
    "encoding": "UTF-8",
    "book_nr": 19,
    "book_name": "Psalms",
    "chapter": 88,
    "name": "Psalms 88",
    "verses": [
        {
            "chapter": 88,
            "verse": 1,
            "name": "Psalms 88:1",
            "text": "Cantique. Psaume des fils de Kor\u00e9. Au chef des chantres. Pour chanter sur la fl\u00fbte. Cantique d'H\u00e9man, l'\u00c9zrachite."
        },
        {
            "chapter": 88,
            "verse": 2,
            "name": "Psalms 88:2",
            "text": "\u00c9ternel, Dieu de mon salut! Je crie jour et nuit devant toi."
        },
        {
            "chapter": 88,
            "verse": 3,
            "name": "Psalms 88:3",
            "text": "Que ma pri\u00e8re parvienne en ta pr\u00e9sence! Pr\u00eate l'oreille \u00e0 mes supplications!"
        },
        {
            "chapter": 88,
            "verse": 4,
            "name": "Psalms 88:4",
            "text": "Car mon \u00e2me est rassasi\u00e9e de maux, Et ma vie s'approche du s\u00e9jour des morts."
        },
        {
            "chapter": 88,
            "verse": 5,
            "name": "Psalms 88:5",
            "text": "Je suis mis au rang de ceux qui descendent dans la fosse, Je suis comme un homme qui n'a plus de force."
        },
        {
            "chapter": 88,
            "verse": 6,
            "name": "Psalms 88:6",
            "text": "Je suis \u00e9tendu parmi les morts, Semblable \u00e0 ceux qui sont tu\u00e9s et couch\u00e9s dans le s\u00e9pulcre, \u00c0 ceux dont tu n'as plus le souvenir, Et qui sont s\u00e9par\u00e9s de ta main."
        },
        {
            "chapter": 88,
            "verse": 7,
            "name": "Psalms 88:7",
            "text": "Tu m'as jet\u00e9 dans une fosse profonde, Dans les t\u00e9n\u00e8bres, dans les ab\u00eemes."
        },
        {
            "chapter": 88,
            "verse": 8,
            "name": "Psalms 88:8",
            "text": "Ta fureur s'appesantit sur moi, Et tu m'accables de tous tes flots. Pause."
        },
        {
            "chapter": 88,
            "verse": 9,
            "name": "Psalms 88:9",
            "text": "Tu as \u00e9loign\u00e9 de moi mes amis, Tu m'as rendu pour eux un objet d'horreur; Je suis enferm\u00e9 et je ne puis sortir."
        },
        {
            "chapter": 88,
            "verse": 10,
            "name": "Psalms 88:10",
            "text": "Mes yeux se consument dans la souffrance; Je t'invoque tous les jours, \u00f4 \u00c9ternel! J'\u00e9tends vers toi les mains."
        },
        {
            "chapter": 88,
            "verse": 11,
            "name": "Psalms 88:11",
            "text": "Est-ce pour les morts que tu fais des miracles? Les morts se l\u00e8vent-ils pour te louer? Pause."
        },
        {
            "chapter": 88,
            "verse": 12,
            "name": "Psalms 88:12",
            "text": "Parle-t-on de ta bont\u00e9 dans le s\u00e9pulcre, De ta fid\u00e9lit\u00e9 dans l'ab\u00eeme?"
        },
        {
            "chapter": 88,
            "verse": 13,
            "name": "Psalms 88:13",
            "text": "Tes prodiges sont-ils connus dans les t\u00e9n\u00e8bres, Et ta justice dans la terre de l'oubli?"
        },
        {
            "chapter": 88,
            "verse": 14,
            "name": "Psalms 88:14",
            "text": "\u00d4 \u00c9ternel! j'implore ton secours, Et le matin ma pri\u00e8re s'\u00e9l\u00e8ve \u00e0 toi."
        },
        {
            "chapter": 88,
            "verse": 15,
            "name": "Psalms 88:15",
            "text": "Pourquoi, \u00c9ternel, repousses-tu mon \u00e2me? Pourquoi me caches-tu ta face?"
        },
        {
            "chapter": 88,
            "verse": 16,
            "name": "Psalms 88:16",
            "text": "Je suis malheureux et moribond d\u00e8s ma jeunesse, Je suis charg\u00e9 de tes terreurs, je suis troubl\u00e9."
        },
        {
            "chapter": 88,
            "verse": 17,
            "name": "Psalms 88:17",
            "text": "Tes fureurs passent sur moi, Tes terreurs m'an\u00e9antissent;"
        },
        {
            "chapter": 88,
            "verse": 18,
            "name": "Psalms 88:18",
            "text": "Elles m'environnent tout le jour comme des eaux, Elles m'enveloppent toutes \u00e0 la fois."
        },
        {
            "chapter": 88,
            "verse": 19,
            "name": "Psalms 88:19",
            "text": "Tu as \u00e9loign\u00e9 de moi amis et compagnons; Mes intimes ont disparu. "
        }
    ]
}