{
    "translation": "NCV Traditional",
    "abbreviation": "cnt",
    "lang": "zh",
    "language": "",
    "direction": "LTR",
    "encoding": "UTF-8",
    "book_nr": 66,
    "book_name": "Revelation",
    "chapter": 16,
    "name": "Revelation 16",
    "verses": [
        {
            "chapter": 16,
            "verse": 1,
            "name": "Revelation 16:1",
            "text": "\u6211\u807d\u898b\u6709\u5927\u8072\u97f3\u5f9e\u8056\u6240\u88e1\u767c\u51fa\u4f86\uff0c\u5411\u90a3\u4e03\u4f4d\u5929\u4f7f\u8aaa\uff1a\u201c\u4f60\u5011\u53bb\uff0c\u628a\u3000\u795e\u70c8\u6012\u7684\u4e03\u7897\u5012\u5728\u5730\u4e0a\uff01\u201d"
        },
        {
            "chapter": 16,
            "verse": 2,
            "name": "Revelation 16:2",
            "text": "\u7b2c\u4e00\u4f4d\u5929\u4f7f\u53bb\u4e86\uff0c\u628a\u7897\u5012\u5728\u5730\u4e0a\uff0c\u5c31\u6709\u60e1\u6027\u7684\u6bd2\u7621\uff0c\u751f\u5728\u90a3\u4e9b\u6709\u7378\u7684\u8a18\u865f\u548c\u62dc\u7378\u50cf\u7684\u4eba\u8eab\u4e0a\u3002"
        },
        {
            "chapter": 16,
            "verse": 3,
            "name": "Revelation 16:3",
            "text": "\u7b2c\u4e8c\u4f4d\u5929\u4f7f\u628a\u7897\u5012\u5728\u6d77\u88e1\uff0c\u6d77\u6c34\u5c31\u8b8a\u6210\u597d\u50cf\u6b7b\u4eba\u7684\u8840\uff0c\u6d77\u88e1\u7684\u4e00\u5207\u751f\u7269\u90fd\u6b7b\u4e86\u3002"
        },
        {
            "chapter": 16,
            "verse": 4,
            "name": "Revelation 16:4",
            "text": "\u7b2c\u4e09\u4f4d\u5929\u4f7f\u628a\u7897\u5012\u5728\u6c5f\u6cb3\u548c\u773e\u6c34\u7684\u6cc9\u6e90\u88e1\uff0c\u6c34\u5c31\u8b8a\u6210\u4e86\u8840\u3002"
        },
        {
            "chapter": 16,
            "verse": 5,
            "name": "Revelation 16:5",
            "text": "\u6211\u807d\u898b\u638c\u7ba1\u773e\u6c34\u7684\u5929\u4f7f\u8aaa\uff1a\u201c\u4eca\u5728\u6614\u5728\u7684\u8056\u8005\u554a\uff01\u4f60\u9019\u6a23\u5be9\u5224\u662f\u516c\u7fa9\u7684\uff0c"
        },
        {
            "chapter": 16,
            "verse": 6,
            "name": "Revelation 16:6",
            "text": "\u56e0\u70ba\u4ed6\u5011\u66fe\u6d41\u8056\u5f92\u548c\u5148\u77e5\u7684\u8840\uff0c\u73fe\u5728\u4f60\u7d66\u4ed6\u5011\u8840\u559d\uff0c\u9019\u662f\u4ed6\u5011\u8a72\u53d7\u7684\u3002\u201d"
        },
        {
            "chapter": 16,
            "verse": 7,
            "name": "Revelation 16:7",
            "text": "\u6211\u53c8\u807d\u898b\u796d\u58c7\u4e2d\u6709\u8072\u97f3\u8aaa\uff1a\u201c\u662f\u7684\uff0c\u4e3b\u554a\uff01\u5168\u80fd\u7684\u3000\u795e\uff0c\u4f60\u7684\u5be9\u5224\u771f\u5be6\u3001\u516c\u7fa9\uff01\u201d"
        },
        {
            "chapter": 16,
            "verse": 8,
            "name": "Revelation 16:8",
            "text": "\u7b2c\u56db\u4f4d\u5929\u4f7f\u628a\u7897\u5012\u5728\u592a\u967d\u4e0a\uff0c\u592a\u967d\u5c31\u5f97\u4e86\u80fd\u529b\uff0c\u53ef\u4ee5\u7528\u706b\u70e4\u4eba\u3002"
        },
        {
            "chapter": 16,
            "verse": 9,
            "name": "Revelation 16:9",
            "text": "\u4eba\u88ab\u9ad8\u71b1\u71d2\u70e4\uff0c\u5c31\u893b\u7006\u90a3\u6709\u6b0a\u67c4\u638c\u7ba1\u9019\u4e9b\u707d\u96e3\u7684\u3000\u795e\u7684\u540d\uff0c\u4e26\u4e0d\u6094\u6539\uff0c\u628a\u69ae\u8000\u6b78\u7d66\u4ed6\u3002"
        },
        {
            "chapter": 16,
            "verse": 10,
            "name": "Revelation 16:10",
            "text": "\u7b2c\u4e94\u4f4d\u5929\u4f7f\u628a\u7897\u5012\u5728\u7378\u7684\u5ea7\u4f4d\u4e0a\uff0c\u7378\u7684\u570b\u5c31\u9ed1\u6697\u4e86\u3002\u4eba\u56e0\u70ba\u75db\u82e6\u5c31\u54ac\u81ea\u5df1\u7684\u820c\u982d\u3002"
        },
        {
            "chapter": 16,
            "verse": 11,
            "name": "Revelation 16:11",
            "text": "\u4ed6\u5011\u53c8\u56e0\u70ba\u6240\u53d7\u7684\u75db\u82e6\u548c\u6240\u751f\u7684\u7621\uff0c\u893b\u7006\u5929\u4e0a\u7684\u3000\u795e\uff0c\u4e26\u4e0d\u70ba\u81ea\u5df1\u6240\u4f5c\u7684\u6094\u6539\u3002"
        },
        {
            "chapter": 16,
            "verse": 12,
            "name": "Revelation 16:12",
            "text": "\u7b2c\u516d\u4f4d\u5929\u4f7f\u628a\u7897\u5012\u5728\u5e7c\u767c\u62c9\u5e95\u5927\u6cb3\u4e0a\uff0c\u6cb3\u6c34\u5c31\u4e7e\u4e86\uff0c\u70ba\u4e86\u8981\u7d66\u90a3\u4e9b\u5f9e\u6771\u65b9\u4f86\u7684\u738b\u9810\u5099\u9053\u8def\u3002"
        },
        {
            "chapter": 16,
            "verse": 13,
            "name": "Revelation 16:13",
            "text": "\u6211\u770b\u898b\u4e09\u500b\u6c61\u9748\uff0c\u597d\u50cf\u9752\u86d9\u5f9e\u9f8d\u53e3\u3001\u7378\u53e3\u548c\u5047\u5148\u77e5\u7684\u53e3\u4e2d\u51fa\u4f86\u3002"
        },
        {
            "chapter": 16,
            "verse": 14,
            "name": "Revelation 16:14",
            "text": "\u4ed6\u5011\u539f\u662f\u9b3c\u9b54\u7684\u9748\uff0c\u65bd\u884c\u5947\u4e8b\uff1b\u7260\u5011\u5230\u666e\u5929\u4e0b\u7684\u773e\u738b\u90a3\u88e1\u53bb\uff0c\u53eb\u4ed6\u5011\u5728\u5168\u80fd\u3000\u795e\u7684\u5927\u65e5\u805a\u96c6\u4f5c\u6230\u3002"
        },
        {
            "chapter": 16,
            "verse": 15,
            "name": "Revelation 16:15",
            "text": "\uff08\u770b\u54ea\uff0c\u6211\u4f86\u50cf\u8cca\u4e00\u6a23\uff01\u90a3\u8b66\u9192\u3001\u770b\u5b88\u81ea\u5df1\u8863\u670d\u7684\u662f\u6709\u798f\u7684\uff01\u4ed6\u5c31\u4e0d\u81f3\u65bc\u8d64\u8eab\u884c\u8d70\uff0c\u8b93\u4eba\u770b\u898b\u4ed6\u7684\u7f9e\u6065\u3002\uff09"
        },
        {
            "chapter": 16,
            "verse": 16,
            "name": "Revelation 16:16",
            "text": "\u6c61\u9748\u5c31\u628a\u773e\u738b\u805a\u96c6\u5728\u4e00\u500b\u5730\u65b9\uff0c\u5e0c\u4f2f\u4f86\u8a71\u53eb\u54c8\u7c73\u5409\u591a\u9813\u3002"
        },
        {
            "chapter": 16,
            "verse": 17,
            "name": "Revelation 16:17",
            "text": "\u7b2c\u4e03\u4f4d\u5929\u4f7f\u628a\u7897\u5012\u5728\u7a7a\u4e2d\uff0c\u5c31\u6709\u5927\u8072\u97f3\u5f9e\u8056\u6240\u7684\u5bf6\u5ea7\u4e0a\u767c\u51fa\u4f86\uff0c\u8aaa\uff1a\u201c\u6210\u4e86\uff01\u201d"
        },
        {
            "chapter": 16,
            "verse": 18,
            "name": "Revelation 16:18",
            "text": "\u65bc\u662f\u6709\u9583\u96fb\u3001\u97ff\u8072\u3001\u96f7\u8f5f\u548c\u5927\u5730\u9707\uff0c\u81ea\u5f9e\u5730\u4e0a\u6709\u4eba\u4ee5\u4f86\uff0c\u6c92\u767c\u751f\u904e\u9019\u9ebc\u5927\u7684\u5730\u9707\uff0c"
        },
        {
            "chapter": 16,
            "verse": 19,
            "name": "Revelation 16:19",
            "text": "\u90a3\u5927\u57ce\u88c2\u70ba\u4e09\u6bb5\uff0c\u5217\u570b\u7684\u57ce\u4e5f\u90fd\u5012\u584c\u4e86\u3002\u3000\u795e\u4e5f\u60f3\u8d77\u5df4\u6bd4\u502b\u5927\u57ce\u4f86\uff0c\u8981\u628a\u81ea\u5df1\u70c8\u6012\u7684\u9152\u676f\u905e\u7d66\u5b83\u3002"
        },
        {
            "chapter": 16,
            "verse": 20,
            "name": "Revelation 16:20",
            "text": "\u5404\u6d77\u5cf6\u90fd\u9003\u907f\u4e86\uff0c\u773e\u5c71\u4e5f\u4e0d\u898b\u4e86\u3002"
        },
        {
            "chapter": 16,
            "verse": 21,
            "name": "Revelation 16:21",
            "text": "\u6709\u5927\u51b0\u96f9\u5f9e\u5929\u4e0a\u843d\u5728\u4eba\u7684\u8eab\u4e0a\uff0c\u6bcf\u584a\u91cd\u7d04\u56db\u5341\u516c\u65a4\u3002\u7531\u65bc\u9019\u51b0\u96f9\u7684\u707d\uff0c\u4eba\u5c31\u893b\u7006\u3000\u795e\uff0c\u56e0\u70ba\u9019\u707d\u592a\u56b4\u91cd\u4e86\u3002"
        }
    ]
}