{
    "translation": "\u548c\u5408\u672c (\u7e41\u9ad4\u5b57)",
    "abbreviation": "chiun",
    "lang": "zh",
    "language": "",
    "direction": "LTR",
    "encoding": "UTF-8",
    "book_nr": 5,
    "book_name": "Deuteronomy",
    "chapter": 6,
    "name": "Deuteronomy 6",
    "verses": [
        {
            "chapter": 6,
            "verse": 1,
            "name": "Deuteronomy 6:1",
            "text": "\u300c\u9019\u662f\u8036\u548c\u83ef\u2500\u4f60\u5011\u3000\u795e\u6240\u5429\u5490\u6559\u8a13\u4f60\u5011\u7684\u8aa1\u547d\u3001\u5f8b\u4f8b\u3001\u5178\u7ae0\uff0c\u4f7f\u4f60\u5011\u5728\u6240\u8981\u904e\u53bb\u5f97\u70ba\u696d\u7684\u5730\u4e0a\u9075\u884c\uff0c"
        },
        {
            "chapter": 6,
            "verse": 2,
            "name": "Deuteronomy 6:2",
            "text": "\u597d\u53eb\u4f60\u548c\u4f60\u5b50\u5b50\u5b6b\u5b6b\u4e00\u751f\u656c\u754f\u8036\u548c\u83ef\u2500\u4f60\u7684\u3000\u795e\uff0c\u8b39\u5b88\u4ed6\u7684\u4e00\u5207\u5f8b\u4f8b\u8aa1\u547d\uff0c\u5c31\u662f\u6211\u6240\u5429\u5490\u4f60\u7684\uff0c\u4f7f\u4f60\u7684\u65e5\u5b50\u5f97\u4ee5\u9577\u4e45\u3002"
        },
        {
            "chapter": 6,
            "verse": 3,
            "name": "Deuteronomy 6:3",
            "text": "\u4ee5\u8272\u5217\u554a\uff0c\u4f60\u8981\u807d\uff0c\u8981\u8b39\u5b88\u9075\u884c\uff0c\u4f7f\u4f60\u53ef\u4ee5\u5728\u90a3\u6d41\u5976\u8207\u871c\u4e4b\u5730\u5f97\u4ee5\u4eab\u798f\uff0c\u4eba\u6578\u6975\u5176\u589e\u591a\uff0c\u6b63\u5982\u8036\u548c\u83ef\u2500\u4f60\u5217\u7956\u7684\u3000\u795e\u6240\u61c9\u8a31\u4f60\u7684\u3002"
        },
        {
            "chapter": 6,
            "verse": 4,
            "name": "Deuteronomy 6:4",
            "text": "\u300c\u4ee5\u8272\u5217\u554a\uff0c\u4f60\u8981\u807d\uff01\u8036\u548c\u83ef\u2500\u6211\u5011\u3000\u795e\u662f\u7368\u4e00\u7684\u4e3b\u3002"
        },
        {
            "chapter": 6,
            "verse": 5,
            "name": "Deuteronomy 6:5",
            "text": "\u4f60\u8981\u76e1\u5fc3\u3001\u76e1\u6027\u3001\u76e1\u529b\u611b\u8036\u548c\u83ef\u2500\u4f60\u7684\u3000\u795e\u3002"
        },
        {
            "chapter": 6,
            "verse": 6,
            "name": "Deuteronomy 6:6",
            "text": "\u6211\u4eca\u65e5\u6240\u5429\u5490\u4f60\u7684\u8a71\u90fd\u8981\u8a18\u5728\u5fc3\u4e0a\uff0c"
        },
        {
            "chapter": 6,
            "verse": 7,
            "name": "Deuteronomy 6:7",
            "text": "\u4e5f\u8981\u6bb7\u52e4\u6559\u8a13\u4f60\u7684\u5152\u5973\u3002\u7121\u8ad6\u4f60\u5750\u5728\u5bb6\u88e1\uff0c\u884c\u5728\u8def\u4e0a\uff0c\u8eba\u4e0b\uff0c\u8d77\u4f86\uff0c\u90fd\u8981\u8ac7\u8ad6\u3002"
        },
        {
            "chapter": 6,
            "verse": 8,
            "name": "Deuteronomy 6:8",
            "text": "\u4e5f\u8981\u7e6b\u5728\u624b\u4e0a\u70ba\u8a18\u865f\uff0c\u6234\u5728\u984d\u4e0a\u70ba\u7d93\u6587\uff1b"
        },
        {
            "chapter": 6,
            "verse": 9,
            "name": "Deuteronomy 6:9",
            "text": "\u53c8\u8981\u5beb\u5728\u4f60\u623f\u5c4b\u7684\u9580\u6846\u4e0a\uff0c\u4e26\u4f60\u7684\u57ce\u9580\u4e0a\u3002\u300d"
        },
        {
            "chapter": 6,
            "verse": 10,
            "name": "Deuteronomy 6:10",
            "text": "\u300c\u8036\u548c\u83ef\u2500\u4f60\u7684\u3000\u795e\u9818\u4f60\u9032\u4ed6\u5411\u4f60\u5217\u7956\u4e9e\u4f2f\u62c9\u7f55\u3001\u4ee5\u6492\u3001\u96c5\u5404\u8d77\u8a93\u61c9\u8a31\u7d66\u4f60\u7684\u5730\u3002\u90a3\u88e1\u6709\u57ce\u9091\uff0c\u53c8\u5927\u53c8\u7f8e\uff0c\u975e\u4f60\u6240\u5efa\u9020\u7684\uff1b"
        },
        {
            "chapter": 6,
            "verse": 11,
            "name": "Deuteronomy 6:11",
            "text": "\u6709\u623f\u5c4b\uff0c\u88dd\u6eff\u5404\u6a23\u7f8e\u7269\uff0c\u975e\u4f60\u6240\u88dd\u6eff\u7684\uff1b\u6709\u947f\u6210\u7684\u6c34\u4e95\uff0c\u975e\u4f60\u6240\u947f\u6210\u7684\uff1b\u9084\u6709\u8461\u8404\u5712\u3001\u6a44\u6b16\u5712\uff0c\u975e\u4f60\u6240\u683d\u7a2e\u7684\uff1b\u4f60\u5403\u4e86\u800c\u4e14\u98fd\u8db3\u3002"
        },
        {
            "chapter": 6,
            "verse": 12,
            "name": "Deuteronomy 6:12",
            "text": "\u90a3\u6642\u4f60\u8981\u8b39\u614e\uff0c\u514d\u5f97\u4f60\u5fd8\u8a18\u5c07\u4f60\u5f9e\u57c3\u53ca\u5730\u3001\u70ba\u5974\u4e4b\u5bb6\u9818\u51fa\u4f86\u7684\u8036\u548c\u83ef\u3002"
        },
        {
            "chapter": 6,
            "verse": 13,
            "name": "Deuteronomy 6:13",
            "text": "\u4f60\u8981\u656c\u754f\u8036\u548c\u83ef\u2500\u4f60\u7684\u3000\u795e\uff0c\u4e8b\u5949\u4ed6\uff0c\u6307\u8457\u4ed6\u7684\u540d\u8d77\u8a93\u3002"
        },
        {
            "chapter": 6,
            "verse": 14,
            "name": "Deuteronomy 6:14",
            "text": "\u4e0d\u53ef\u96a8\u5f9e\u5225\u795e\uff0c\u5c31\u662f\u4f60\u5011\u56db\u570d\u570b\u6c11\u7684\u795e\uff1b"
        },
        {
            "chapter": 6,
            "verse": 15,
            "name": "Deuteronomy 6:15",
            "text": "\u56e0\u70ba\u5728\u4f60\u5011\u4e2d\u9593\u7684\u8036\u548c\u83ef\u2500\u4f60\u3000\u795e\u662f\u5fcc\u90aa\u7684\u3000\u795e\uff0c\u60df\u6050\u8036\u548c\u83ef\u2500\u4f60\u3000\u795e\u7684\u6012\u6c23\u5411\u4f60\u767c\u4f5c\uff0c\u5c31\u628a\u4f60\u5f9e\u5730\u4e0a\u9664\u6ec5\u3002"
        },
        {
            "chapter": 6,
            "verse": 16,
            "name": "Deuteronomy 6:16",
            "text": "\u300c\u4f60\u5011\u4e0d\u53ef\u8a66\u63a2\u8036\u548c\u83ef\u2500\u4f60\u5011\u7684\u3000\u795e\uff0c\u50cf\u4f60\u5011\u5728\u746a\u6492\u90a3\u6a23\u8a66\u63a2\u4ed6\u3002"
        },
        {
            "chapter": 6,
            "verse": 17,
            "name": "Deuteronomy 6:17",
            "text": "\u8981\u7559\u610f\u9075\u5b88\u8036\u548c\u83ef\u2500\u4f60\u5011\u3000\u795e\u6240\u5429\u5490\u7684\u8aa1\u547d\u3001\u6cd5\u5ea6\u3001\u5f8b\u4f8b\u3002"
        },
        {
            "chapter": 6,
            "verse": 18,
            "name": "Deuteronomy 6:18",
            "text": "\u8036\u548c\u83ef\u773c\u4e2d\u770b\u70ba\u6b63\u3001\u770b\u70ba\u5584\u7684\uff0c\u4f60\u90fd\u8981\u9075\u884c\uff0c\u4f7f\u4f60\u53ef\u4ee5\u4eab\u798f\uff0c\u4e26\u53ef\u4ee5\u9032\u53bb\u5f97\u8036\u548c\u83ef\u5411\u4f60\u5217\u7956\u8d77\u8a93\u61c9\u8a31\u7684\u90a3\u7f8e\u5730\uff0c"
        },
        {
            "chapter": 6,
            "verse": 19,
            "name": "Deuteronomy 6:19",
            "text": "\u7167\u8036\u548c\u83ef\u6240\u8aaa\u7684\uff0c\u5f9e\u4f60\u9762\u524d\u6506\u51fa\u4f60\u7684\u4e00\u5207\u4ec7\u6575\u3002"
        },
        {
            "chapter": 6,
            "verse": 20,
            "name": "Deuteronomy 6:20",
            "text": "\u300c\u65e5\u5f8c\uff0c\u4f60\u7684\u5152\u5b50\u554f\u4f60\u8aaa\uff1a\u300e\u8036\u548c\u83ef\u2500\u6211\u5011\u3000\u795e\u5429\u5490\u4f60\u5011\u7684\u9019\u4e9b\u6cd5\u5ea6\u3001\u5f8b\u4f8b\u3001\u5178\u7ae0\u662f\u751a\u9ebc\u610f\u601d\u5462\uff1f\u300f"
        },
        {
            "chapter": 6,
            "verse": 21,
            "name": "Deuteronomy 6:21",
            "text": "\u4f60\u5c31\u544a\u8a34\u4f60\u7684\u5152\u5b50\u8aaa\uff1a\u300e\u6211\u5011\u5728\u57c3\u53ca\u4f5c\u904e\u6cd5\u8001\u7684\u5974\u50d5\uff1b\u8036\u548c\u83ef\u7528\u5927\u80fd\u7684\u624b\u5c07\u6211\u5011\u5f9e\u57c3\u53ca\u9818\u51fa\u4f86\uff0c"
        },
        {
            "chapter": 6,
            "verse": 22,
            "name": "Deuteronomy 6:22",
            "text": "\u5728\u6211\u5011\u773c\u524d\uff0c\u5c07\u91cd\u5927\u53ef\u6015\u7684\u795e\u8e5f\u5947\u4e8b\u65bd\u884c\u5728\u57c3\u53ca\u5730\u548c\u6cd5\u8001\u4e26\u4ed6\u5168\u5bb6\u7684\u8eab\u4e0a\uff0c"
        },
        {
            "chapter": 6,
            "verse": 23,
            "name": "Deuteronomy 6:23",
            "text": "\u5c07\u6211\u5011\u5f9e\u90a3\u88e1\u9818\u51fa\u4f86\uff0c\u8981\u9818\u6211\u5011\u9032\u5165\u4ed6\u5411\u6211\u5011\u5217\u7956\u8d77\u8a93\u61c9\u8a31\u4e4b\u5730\uff0c\u628a\u9019\u5730\u8cdc\u7d66\u6211\u5011\u3002"
        },
        {
            "chapter": 6,
            "verse": 24,
            "name": "Deuteronomy 6:24",
            "text": "\u8036\u548c\u83ef\u53c8\u5429\u5490\u6211\u5011\u9075\u884c\u9019\u4e00\u5207\u5f8b\u4f8b\uff0c\u8981\u656c\u754f\u8036\u548c\u83ef\u2500\u6211\u5011\u7684\u3000\u795e\uff0c\u4f7f\u6211\u5011\u5e38\u5f97\u597d\u8655\uff0c\u8499\u4ed6\u4fdd\u5168\u6211\u5011\u7684\u751f\u547d\uff0c\u50cf\u4eca\u65e5\u4e00\u6a23\u3002"
        },
        {
            "chapter": 6,
            "verse": 25,
            "name": "Deuteronomy 6:25",
            "text": "\u6211\u5011\u82e5\u7167\u8036\u548c\u83ef\u2500\u6211\u5011\u3000\u795e\u6240\u5429\u5490\u7684\u4e00\u5207\u8aa1\u547d\u8b39\u5b88\u9075\u884c\uff0c\u9019\u5c31\u662f\u6211\u5011\u7684\u7fa9\u4e86\u3002\u300f\u300d  "
        }
    ]
}