{
    "translation": "Turkish",
    "abbreviation": "turkish",
    "lang": "tr",
    "language": "Turkish",
    "direction": "LTR",
    "encoding": "UTF-8",
    "book_nr": 26,
    "book_name": "Ezekiel",
    "chapter": 14,
    "name": "Ezekiel 14",
    "verses": [
        {
            "chapter": 14,
            "verse": 1,
            "name": "Ezekiel 14:1",
            "text": "  \u0130srail ileri gelenlerinden kimisi gelip yan\u0131ma oturdu."
        },
        {
            "chapter": 14,
            "verse": 2,
            "name": "Ezekiel 14:2",
            "text": "O s\u0131rada RAB bana \u015f\u00f6yle seslendi:"
        },
        {
            "chapter": 14,
            "verse": 3,
            "name": "Ezekiel 14:3",
            "text": "\u201c\u0130nsano\u011flu, bu adamlar\u0131n y\u00fcre\u011fi putlara ba\u011fl\u0131. Diktikleri putlar\u0131n kendilerini g\u00fcnaha sokmas\u0131na olanak veriyorlar. \u00d6yleyse onlar\u0131n bana dan\u0131\u015fmas\u0131na izin vermeli miyim?"
        },
        {
            "chapter": 14,
            "verse": 4,
            "name": "Ezekiel 14:4",
            "text": "Bunun i\u00e7in onlarla konu\u015f ve de ki, \u2018Egemen RAB \u015f\u00f6yle diyor: Y\u00fcre\u011fini puta ba\u011flayan, dikti\u011fi putun kendisini g\u00fcnaha sokmas\u0131na olanak veren, sonra da peygambere dan\u0131\u015fmaya gelen her \u0130srailli\u2019ye putlar\u0131n\u0131n \u00e7oklu\u011funa g\u00f6re ben RAB kendim kar\u015f\u0131l\u0131k verece\u011fim."
        },
        {
            "chapter": 14,
            "verse": 5,
            "name": "Ezekiel 14:5",
            "text": "Bunu, putlar\u0131 y\u00fcz\u00fcnden bana s\u0131rt \u00e7eviren \u0130srail halk\u0131n\u0131n y\u00fcre\u011fini yeniden kendime \u00e7ekmek i\u00e7in yapaca\u011f\u0131m.\u2019 "
        },
        {
            "chapter": 14,
            "verse": 6,
            "name": "Ezekiel 14:6",
            "text": "\u201cBu y\u00fczden \u0130srail halk\u0131na de ki, \u2018Egemen RAB \u015f\u00f6yle diyor: Geri d\u00f6n\u00fcn! Putlar\u0131n\u0131zdan vazge\u00e7in, i\u011fren\u00e7 uygulamalar\u0131n\u0131z\u0131 b\u0131rak\u0131n! "
        },
        {
            "chapter": 14,
            "verse": 7,
            "name": "Ezekiel 14:7",
            "text": "\u201c \u2018\u0130srail halk\u0131ndan biri ya da \u0130srail\u2019de ya\u015fayan bir yabanc\u0131 benden ayr\u0131l\u0131r, y\u00fcre\u011fini putlara ba\u011flar, dikti\u011fi putlar\u0131n kendisini g\u00fcnaha sokmas\u0131na olanak verir, sonra da bana dan\u0131\u015fmak \u00fczere bir peygambere giderse, ben RAB kendim ona kar\u015f\u0131l\u0131k verece\u011fim."
        },
        {
            "chapter": 14,
            "verse": 8,
            "name": "Ezekiel 14:8",
            "text": "O ki\u015fiye kar\u015f\u0131 \u00e7\u0131kaca\u011f\u0131m. Onu bir belirti, bir alay konusu yap\u0131p halk\u0131m\u0131n aras\u0131ndan ataca\u011f\u0131m. O zaman benim RAB oldu\u011fumu anlayacaks\u0131n\u0131z. "
        },
        {
            "chapter": 14,
            "verse": 9,
            "name": "Ezekiel 14:9",
            "text": "\u201c \u2018Bir peygamber ayart\u0131l\u0131r da bir s\u00f6z s\u00f6ylerse, onu ayartan benim. Elimi ona kar\u015f\u0131 uzataca\u011f\u0131m, onu halk\u0131m \u0130srail\u2019in aras\u0131ndan \u00e7\u0131kar\u0131p yok edece\u011fim."
        },
        {
            "chapter": 14,
            "verse": 10,
            "name": "Ezekiel 14:10",
            "text": "Su\u00e7lar\u0131n\u0131n cezas\u0131n\u0131 \u00e7ekecekler. Peygamber de ona dan\u0131\u015fan da ayn\u0131 \u015fekilde cezaland\u0131r\u0131lacak."
        },
        {
            "chapter": 14,
            "verse": 11,
            "name": "Ezekiel 14:11",
            "text": "B\u00f6ylece \u0130srail halk\u0131 bir daha benden ayr\u0131lmayacak, g\u00fcnahlar\u0131yla kendilerini kirletmeyecekler. Onlar halk\u0131m olacaklar, ben de onlar\u0131n Tanr\u0131s\u0131 olaca\u011f\u0131m. Egemen RAB b\u00f6yle diyor.\u2019 \u201d  "
        },
        {
            "chapter": 14,
            "verse": 12,
            "name": "Ezekiel 14:12",
            "text": "  RAB bana \u015f\u00f6yle seslendi:"
        },
        {
            "chapter": 14,
            "verse": 13,
            "name": "Ezekiel 14:13",
            "text": "\u201c\u0130nsano\u011flu, e\u011fer bir \u00fclke bana sadakatsizlik eder, g\u00fcnah i\u015flerse, ben de o \u00fclkeye kar\u015f\u0131 elimi uzat\u0131r, onu her t\u00fcrl\u00fc yiyecekten yoksun b\u0131rak\u0131r, \u00fczerine k\u0131tl\u0131k g\u00f6nderir, insanlar\u0131 ve hayvanlar\u0131 yok edersem;"
        },
        {
            "chapter": 14,
            "verse": 14,
            "name": "Ezekiel 14:14",
            "text": "\u015fu \u00fc\u00e7 adam \u2013Nuh, Daniel, Ey\u00fcp\u2013 orada olsalar bile, do\u011fruluklar\u0131yla ancak kendi canlar\u0131n\u0131 kurtarabilirler. Egemen RAB b\u00f6yle diyor. "
        },
        {
            "chapter": 14,
            "verse": 15,
            "name": "Ezekiel 14:15",
            "text": "\u201cYa da \u00fclkeye yaban\u0131l hayvanlar g\u00f6nderirsem ve \u00fclkeyi kimsesiz b\u0131rak\u0131rlarsa, \u00fclke viraneye d\u00f6ner, hayvanlar y\u00fcz\u00fcnden kimse i\u00e7inden ge\u00e7emezse;"
        },
        {
            "chapter": 14,
            "verse": 16,
            "name": "Ezekiel 14:16",
            "text": "Varl\u0131\u011f\u0131m hakk\u0131 i\u00e7in diyor Egemen RAB, bu \u00fc\u00e7 ki\u015fi o \u00fclkede ya\u015fasa bile, ne o\u011fullar\u0131n\u0131 ne de k\u0131zlar\u0131n\u0131 kurtarabilirler. Ancak kendi canlar\u0131n\u0131 kurtarabilirler. \u00dclke ise viraneye d\u00f6ner. "
        },
        {
            "chapter": 14,
            "verse": 17,
            "name": "Ezekiel 14:17",
            "text": "\u201cYa da o \u00fclkeye k\u0131l\u0131\u00e7 g\u00f6nderir, \u2018K\u0131l\u0131\u00e7 \u00fclkeyi yars\u0131n\u2019 der, oradaki insanlar\u0131 ve hayvanlar\u0131 yok edersem;"
        },
        {
            "chapter": 14,
            "verse": 18,
            "name": "Ezekiel 14:18",
            "text": "varl\u0131\u011f\u0131m hakk\u0131 i\u00e7in diyor Egemen RAB, bu \u00fc\u00e7 ki\u015fi orada olsa bile, ne o\u011fullar\u0131n\u0131 ne de k\u0131zlar\u0131n\u0131 kurtarabilirler. Ancak kendi canlar\u0131n\u0131 kurtarabilirler. "
        },
        {
            "chapter": 14,
            "verse": 19,
            "name": "Ezekiel 14:19",
            "text": "\u201cO \u00fclkeye salg\u0131n hastal\u0131k g\u00f6nderir, kan d\u00f6kerek \u00f6fkemi ya\u011fd\u0131r\u0131r, oradaki insanlar\u0131 ve hayvanlar\u0131 yok edersem;"
        },
        {
            "chapter": 14,
            "verse": 20,
            "name": "Ezekiel 14:20",
            "text": "varl\u0131\u011f\u0131m hakk\u0131 i\u00e7in diyor Egemen RAB, Nuh, Daniel ve Ey\u00fcp orada olsa bile, ne o\u011fullar\u0131n\u0131 ne de k\u0131zlar\u0131n\u0131 kurtarabilirler. Do\u011fruluklar\u0131yla ancak kendi canlar\u0131n\u0131 kurtarabilirler. "
        },
        {
            "chapter": 14,
            "verse": 21,
            "name": "Ezekiel 14:21",
            "text": " \u201cEgemen RAB \u015f\u00f6yle diyor: Yeru\u015falim\u2019deki insanlar\u0131 ve hayvanlar\u0131 yok etmek i\u00e7in \u00fczerine d\u00f6rt a\u011f\u0131r yarg\u0131m\u0131 \u2013k\u0131l\u0131c\u0131, k\u0131tl\u0131\u011f\u0131, yaban\u0131l hayvanlar\u0131, salg\u0131n hastal\u0131\u011f\u0131\u2013 g\u00f6nderdi\u011fimde daha neler neler olacak!"
        },
        {
            "chapter": 14,
            "verse": 22,
            "name": "Ezekiel 14:22",
            "text": "Orada sa\u011f b\u0131rak\u0131lacak kimi o\u011fullar\u0131n\u0131z, k\u0131zlar\u0131n\u0131z olacak, \u00e7\u0131k\u0131p yan\u0131n\u0131za gelecekler. Onlar\u0131n davran\u0131\u015flar\u0131n\u0131 ve yapt\u0131klar\u0131n\u0131 g\u00f6r\u00fcnce, Yeru\u015falim\u2019in ba\u015f\u0131na getirdi\u011fim y\u0131k\u0131mdan ve her t\u00fcr felaketten avuntu bulacaks\u0131n\u0131z."
        },
        {
            "chapter": 14,
            "verse": 23,
            "name": "Ezekiel 14:23",
            "text": "Onlar\u0131n davran\u0131\u015flar\u0131n\u0131 ve yapt\u0131klar\u0131n\u0131 g\u00f6r\u00fcnce avutulacak, Yeru\u015falim\u2019in ba\u015f\u0131na getirdiklerimin ama\u00e7s\u0131z olmad\u0131\u011f\u0131n\u0131 anlayacaks\u0131n\u0131z. Egemen RAB b\u00f6yle diyor.\u201d   "
        }
    ]
}