{
    "translation": "Latvian Gl\u00fcck 8th edition",
    "abbreviation": "lvgluck8",
    "lang": "lv",
    "language": "Latvian",
    "direction": "LTR",
    "encoding": "UTF-8",
    "book_nr": 19,
    "book_name": "Psalms",
    "chapter": 108,
    "name": "Psalms 108",
    "verses": [
        {
            "chapter": 108,
            "verse": 1,
            "name": "Psalms 108:1",
            "text": "D\u0101vida dziesma. Ak Dievs, mana sirds ir dro\u0161a, es dzied\u0101\u0161u un slav\u0113\u0161u ar dziesm\u0101m, mans gods ar\u012bdzan. "
        },
        {
            "chapter": 108,
            "verse": 2,
            "name": "Psalms 108:2",
            "text": "Mostaties, stabules un kokles, ar ausekli es mod\u012b\u0161os."
        },
        {
            "chapter": 108,
            "verse": 3,
            "name": "Psalms 108:3",
            "text": "Es tev pateik\u0161u, Kungs, starp \u013caud\u012bm, es tev dzied\u0101\u0161u starp taut\u0101m."
        },
        {
            "chapter": 108,
            "verse": 4,
            "name": "Psalms 108:4",
            "text": "Jo tava \u017e\u0113last\u012bba ir liela l\u012bdz pat debes\u012bm un tava paties\u012bba l\u012bdz augstiem padebe\u0161iem."
        },
        {
            "chapter": 108,
            "verse": 5,
            "name": "Psalms 108:5",
            "text": "Paaugstin\u0101jies, Dievs, p\u0101r debes\u012bm un savu god\u012bbu p\u0101r visu pasauli,"
        },
        {
            "chapter": 108,
            "verse": 6,
            "name": "Psalms 108:6",
            "text": "Lai tavi m\u012b\u013cie top atsvabin\u0101ti; atpest\u012b caur savu labo roku un paklausi mani. "
        },
        {
            "chapter": 108,
            "verse": 7,
            "name": "Psalms 108:7",
            "text": "Dievs run\u0101 sav\u0101 sv\u0113t\u0101 viet\u0101, par to es priec\u0101jos. Es dal\u012b\u0161u Zi\u0137emi un m\u0113ro\u0161u Zukota leju."
        },
        {
            "chapter": 108,
            "verse": 8,
            "name": "Psalms 108:8",
            "text": "\u0122ile\u0101ds man pieder, ir Manasus man pieder, Evra\u012bms ir manas galvas stiprums, J\u016bda ir mans vald\u012bbas zizlis."
        },
        {
            "chapter": 108,
            "verse": 9,
            "name": "Psalms 108:9",
            "text": "Mo\u0101bs ir mans mazg\u0101jamais trauks, savu kurpi es metu p\u0101r Edomu, par V\u012blistu zemi es gavil\u0113ju."
        },
        {
            "chapter": 108,
            "verse": 10,
            "name": "Psalms 108:10",
            "text": "Kas mani vad\u012bs tai stipr\u0101 pils\u0113t\u0101? Kas man pavad\u012bs l\u012bdz Edomam?"
        },
        {
            "chapter": 108,
            "verse": 11,
            "name": "Psalms 108:11",
            "text": "Vai ne tu, Dievs, kas m\u016bs biji atmetis un neizg\u0101ji, ak Dievs, ar m\u016bsu karasp\u0113ku?"
        },
        {
            "chapter": 108,
            "verse": 12,
            "name": "Psalms 108:12",
            "text": "Dod mums pal\u012bgu b\u0113du laik\u0101, jo cilv\u0113ku pest\u012b\u0161ana nav nekas."
        },
        {
            "chapter": 108,
            "verse": 13,
            "name": "Psalms 108:13",
            "text": "Ar Dievu m\u0113s dar\u012bsim stiprus darbus; vi\u0146\u0161 sasp\u0101rd\u012bs m\u016bsu spaid\u012bt\u0101jus. "
        }
    ]
}