{
    "translation": "Thai from kjv",
    "abbreviation": "thai",
    "lang": "th",
    "language": "Thai",
    "direction": "LTR",
    "encoding": "UTF-8",
    "book_nr": 15,
    "book_name": "Ezra",
    "chapter": 8,
    "name": "Ezra 8",
    "verses": [
        {
            "chapter": 8,
            "verse": 1,
            "name": "Ezra 8:1",
            "text": "\u0e15\u0e48\u0e2d\u0e44\u0e1b\u0e19\u0e35\u0e49\u0e40\u0e1b\u0e47\u0e19\u0e1b\u0e23\u0e30\u0e21\u0e38\u0e02\u0e02\u0e2d\u0e07\u0e1a\u0e23\u0e23\u0e1e\u0e1a\u0e38\u0e23\u0e38\u0e29\u0e02\u0e2d\u0e07\u0e40\u0e02\u0e32\u0e17\u0e31\u0e49\u0e07\u0e2b\u0e25\u0e32\u0e22 \u0e41\u0e25\u0e30\u0e19\u0e35\u0e48\u0e40\u0e1b\u0e47\u0e19\u0e2a\u0e33\u0e21\u0e30\u0e42\u0e19\u0e04\u0e23\u0e31\u0e27\u0e40\u0e0a\u0e37\u0e49\u0e2d\u0e2a\u0e32\u0e22\u0e02\u0e2d\u0e07\u0e1a\u0e23\u0e23\u0e14\u0e32\u0e1c\u0e39\u0e49\u0e17\u0e35\u0e48\u0e02\u0e36\u0e49\u0e19\u0e44\u0e1b\u0e01\u0e31\u0e1a\u0e02\u0e49\u0e32\u0e1e\u0e40\u0e08\u0e49\u0e32\u0e08\u0e32\u0e01\u0e1a\u0e32\u0e1a\u0e34\u0e42\u0e25\u0e19 \u0e43\u0e19\u0e23\u0e31\u0e0a\u0e01\u0e32\u0e25\u0e01\u0e29\u0e31\u0e15\u0e23\u0e34\u0e22\u0e4c\u0e2d\u0e32\u0e23\u0e17\u0e32\u0e40\u0e0b\u0e2d\u0e23\u0e4c\u0e0b\u0e35\u0e2a \u0e04\u0e37\u0e2d"
        },
        {
            "chapter": 8,
            "verse": 2,
            "name": "Ezra 8:2",
            "text": "\u0e08\u0e32\u0e01\u0e04\u0e19\u0e1f\u0e35\u0e40\u0e19\u0e2b\u0e31\u0e2a\u0e21\u0e35 \u0e40\u0e01\u0e2d\u0e23\u0e4c\u0e42\u0e0a\u0e21 \u0e08\u0e32\u0e01\u0e04\u0e19\u0e2d\u0e34\u0e18\u0e32\u0e21\u0e32\u0e23\u0e4c\u0e21\u0e35 \u0e14\u0e32\u0e40\u0e19\u0e35\u0e22\u0e25 \u0e08\u0e32\u0e01\u0e04\u0e19\u0e14\u0e32\u0e27\u0e34\u0e14\u0e21\u0e35 \u0e2e\u0e31\u0e17\u0e18\u0e31\u0e0a"
        },
        {
            "chapter": 8,
            "verse": 3,
            "name": "Ezra 8:3",
            "text": "\u0e08\u0e32\u0e01\u0e04\u0e19\u0e40\u0e0a\u0e04\u0e32\u0e19\u0e34\u0e22\u0e32\u0e2b\u0e4c \u0e08\u0e32\u0e01\u0e04\u0e19\u0e1b\u0e32\u0e42\u0e23\u0e0a\u0e21\u0e35 \u0e40\u0e28\u0e04\u0e32\u0e23\u0e34\u0e22\u0e32\u0e2b\u0e4c \u0e1e\u0e23\u0e49\u0e2d\u0e21\u0e01\u0e31\u0e1a\u0e17\u0e48\u0e32\u0e19\u0e21\u0e35\u0e1c\u0e39\u0e49\u0e0a\u0e32\u0e22\u0e1c\u0e39\u0e49\u0e02\u0e36\u0e49\u0e19\u0e17\u0e30\u0e40\u0e1a\u0e35\u0e22\u0e19\u0e44\u0e27\u0e49\u0e2b\u0e19\u0e36\u0e48\u0e07\u0e23\u0e49\u0e2d\u0e22\u0e2b\u0e49\u0e32\u0e2a\u0e34\u0e1a\u0e04\u0e19"
        },
        {
            "chapter": 8,
            "verse": 4,
            "name": "Ezra 8:4",
            "text": "\u0e08\u0e32\u0e01\u0e04\u0e19\u0e1b\u0e32\u0e2b\u0e31\u0e17\u0e42\u0e21\u0e2d\u0e31\u0e1a\u0e21\u0e35 \u0e40\u0e2d\u0e25\u0e35\u0e42\u0e2d\u0e19\u0e31\u0e22 \u0e1a\u0e38\u0e15\u0e23\u0e0a\u0e32\u0e22\u0e40\u0e28-\u0e23\u0e32\u0e2b\u0e34\u0e22\u0e32\u0e2b\u0e4c \u0e1e\u0e23\u0e49\u0e2d\u0e21\u0e01\u0e31\u0e1a\u0e17\u0e48\u0e32\u0e19\u0e21\u0e35\u0e1c\u0e39\u0e49\u0e0a\u0e32\u0e22\u0e2a\u0e2d\u0e07\u0e23\u0e49\u0e2d\u0e22\u0e04\u0e19"
        },
        {
            "chapter": 8,
            "verse": 5,
            "name": "Ezra 8:5",
            "text": "\u0e08\u0e32\u0e01\u0e04\u0e19\u0e40\u0e0a\u0e04\u0e32\u0e19\u0e34\u0e22\u0e32\u0e2b\u0e4c\u0e21\u0e35 \u0e1a\u0e38\u0e15\u0e23\u0e0a\u0e32\u0e22\u0e02\u0e2d\u0e07\u0e22\u0e32\u0e2e\u0e32\u0e0b\u0e35\u0e40\u0e2d\u0e25 \u0e1e\u0e23\u0e49\u0e2d\u0e21\u0e01\u0e31\u0e1a\u0e17\u0e48\u0e32\u0e19\u0e21\u0e35\u0e1c\u0e39\u0e49\u0e0a\u0e32\u0e22\u0e2a\u0e32\u0e21\u0e23\u0e49\u0e2d\u0e22\u0e04\u0e19"
        },
        {
            "chapter": 8,
            "verse": 6,
            "name": "Ezra 8:6",
            "text": "\u0e08\u0e32\u0e01\u0e04\u0e19\u0e2d\u0e32\u0e14\u0e35\u0e19\u0e21\u0e35 \u0e40\u0e2d\u0e40\u0e1a\u0e14 \u0e1a\u0e38\u0e15\u0e23\u0e0a\u0e32\u0e22\u0e42\u0e22\u0e19\u0e32\u0e18\u0e32\u0e19 \u0e1e\u0e23\u0e49\u0e2d\u0e21\u0e01\u0e31\u0e1a\u0e17\u0e48\u0e32\u0e19\u0e21\u0e35\u0e1c\u0e39\u0e49\u0e0a\u0e32\u0e22\u0e2b\u0e49\u0e32\u0e2a\u0e34\u0e1a\u0e04\u0e19"
        },
        {
            "chapter": 8,
            "verse": 7,
            "name": "Ezra 8:7",
            "text": "\u0e08\u0e32\u0e01\u0e04\u0e19\u0e40\u0e2d\u0e25\u0e32\u0e21\u0e21\u0e35 \u0e40\u0e22\u0e0a\u0e32\u0e22\u0e32\u0e2b\u0e4c \u0e1a\u0e38\u0e15\u0e23\u0e0a\u0e32\u0e22\u0e2d\u0e32\u0e18\u0e32\u0e25\u0e34\u0e22\u0e32\u0e2b\u0e4c \u0e1e\u0e23\u0e49\u0e2d\u0e21\u0e01\u0e31\u0e1a\u0e17\u0e48\u0e32\u0e19\u0e21\u0e35\u0e1c\u0e39\u0e49\u0e0a\u0e32\u0e22\u0e40\u0e08\u0e47\u0e14\u0e2a\u0e34\u0e1a\u0e04\u0e19"
        },
        {
            "chapter": 8,
            "verse": 8,
            "name": "Ezra 8:8",
            "text": "\u0e08\u0e32\u0e01\u0e04\u0e19\u0e40\u0e0a\u0e1f\u0e32\u0e17\u0e34\u0e22\u0e32\u0e2b\u0e4c\u0e21\u0e35 \u0e40\u0e28\u0e1a\u0e32\u0e14\u0e34\u0e22\u0e32\u0e2b\u0e4c \u0e1a\u0e38\u0e15\u0e23\u0e0a\u0e32\u0e22\u0e21\u0e35\u0e04\u0e32\u0e40\u0e2d\u0e25 \u0e1e\u0e23\u0e49\u0e2d\u0e21\u0e01\u0e31\u0e1a\u0e17\u0e48\u0e32\u0e19\u0e21\u0e35\u0e1c\u0e39\u0e49\u0e0a\u0e32\u0e22\u0e41\u0e1b\u0e14\u0e2a\u0e34\u0e1a\u0e04\u0e19"
        },
        {
            "chapter": 8,
            "verse": 9,
            "name": "Ezra 8:9",
            "text": "\u0e08\u0e32\u0e01\u0e04\u0e19\u0e42\u0e22\u0e2d\u0e32\u0e1a\u0e21\u0e35 \u0e42\u0e2d\u0e1a\u0e32\u0e14\u0e35\u0e2b\u0e4c \u0e1a\u0e38\u0e15\u0e23\u0e0a\u0e32\u0e22\u0e40\u0e22\u0e2e\u0e35\u0e40\u0e2d\u0e25 \u0e1e\u0e23\u0e49\u0e2d\u0e21\u0e01\u0e31\u0e1a\u0e17\u0e48\u0e32\u0e19\u0e21\u0e35\u0e1c\u0e39\u0e49\u0e0a\u0e32\u0e22\u0e2a\u0e2d\u0e07\u0e23\u0e49\u0e2d\u0e22\u0e2a\u0e34\u0e1a\u0e41\u0e1b\u0e14\u0e04\u0e19"
        },
        {
            "chapter": 8,
            "verse": 10,
            "name": "Ezra 8:10",
            "text": "\u0e08\u0e32\u0e01\u0e04\u0e19\u0e40\u0e0a\u0e42\u0e25\u0e21\u0e34\u0e17\u0e21\u0e35 \u0e1a\u0e38\u0e15\u0e23\u0e0a\u0e32\u0e22\u0e02\u0e2d\u0e07\u0e42\u0e22\u0e2a\u0e34\u0e1f\u0e35\u0e22\u0e32\u0e2b\u0e4c \u0e1e\u0e23\u0e49\u0e2d\u0e21\u0e01\u0e31\u0e1a\u0e17\u0e48\u0e32\u0e19\u0e21\u0e35\u0e1c\u0e39\u0e49\u0e0a\u0e32\u0e22\u0e2b\u0e19\u0e36\u0e48\u0e07\u0e23\u0e49\u0e2d\u0e22\u0e2b\u0e01\u0e2a\u0e34\u0e1a\u0e04\u0e19"
        },
        {
            "chapter": 8,
            "verse": 11,
            "name": "Ezra 8:11",
            "text": "\u0e08\u0e32\u0e01\u0e04\u0e19\u0e40\u0e1a\u0e1a\u0e31\u0e22\u0e21\u0e35 \u0e40\u0e28\u0e04\u0e32\u0e23\u0e34\u0e22\u0e32\u0e2b\u0e4c \u0e1a\u0e38\u0e15\u0e23\u0e0a\u0e32\u0e22\u0e40\u0e1a\u0e1a\u0e31\u0e22 \u0e1e\u0e23\u0e49\u0e2d\u0e21\u0e01\u0e31\u0e1a\u0e17\u0e48\u0e32\u0e19\u0e21\u0e35\u0e1c\u0e39\u0e49\u0e0a\u0e32\u0e22\u0e22\u0e35\u0e48\u0e2a\u0e34\u0e1a\u0e41\u0e1b\u0e14\u0e04\u0e19"
        },
        {
            "chapter": 8,
            "verse": 12,
            "name": "Ezra 8:12",
            "text": "\u0e08\u0e32\u0e01\u0e04\u0e19\u0e2d\u0e31\u0e2a\u0e01\u0e32\u0e14\u0e21\u0e35 \u0e42\u0e22\u0e2e\u0e32\u0e19\u0e31\u0e19 \u0e1a\u0e38\u0e15\u0e23\u0e0a\u0e32\u0e22\u0e2e\u0e31\u0e01\u0e04\u0e32\u0e17\u0e32\u0e19 \u0e1e\u0e23\u0e49\u0e2d\u0e21\u0e01\u0e31\u0e1a\u0e17\u0e48\u0e32\u0e19\u0e21\u0e35\u0e1c\u0e39\u0e49\u0e0a\u0e32\u0e22\u0e2b\u0e19\u0e36\u0e48\u0e07\u0e23\u0e49\u0e2d\u0e22\u0e2a\u0e34\u0e1a\u0e04\u0e19"
        },
        {
            "chapter": 8,
            "verse": 13,
            "name": "Ezra 8:13",
            "text": "\u0e08\u0e32\u0e01\u0e04\u0e19\u0e2d\u0e32\u0e42\u0e14\u0e19\u0e35\u0e04\u0e31\u0e21\u0e21\u0e35\u0e1c\u0e39\u0e49\u0e17\u0e35\u0e48\u0e21\u0e32\u0e17\u0e35\u0e2b\u0e25\u0e31\u0e07 \u0e19\u0e35\u0e48\u0e40\u0e1b\u0e47\u0e19\u0e0a\u0e37\u0e48\u0e2d\u0e02\u0e2d\u0e07\u0e40\u0e02\u0e32\u0e04\u0e37\u0e2d \u0e40\u0e2d\u0e25\u0e35\u0e40\u0e1f\u0e40\u0e25\u0e17 \u0e40\u0e22\u0e2d\u0e35\u0e40\u0e2d\u0e25\u0e41\u0e25\u0e30\u0e40\u0e0a\u0e44\u0e21\u0e2d\u0e32\u0e2b\u0e4c \u0e1e\u0e23\u0e49\u0e2d\u0e21\u0e01\u0e31\u0e1a\u0e1e\u0e27\u0e01\u0e40\u0e02\u0e32\u0e21\u0e35\u0e1c\u0e39\u0e49\u0e0a\u0e32\u0e22\u0e2b\u0e01\u0e2a\u0e34\u0e1a\u0e04\u0e19"
        },
        {
            "chapter": 8,
            "verse": 14,
            "name": "Ezra 8:14",
            "text": "\u0e08\u0e32\u0e01\u0e04\u0e19\u0e1a\u0e34\u0e01\u0e27\u0e31\u0e22\u0e21\u0e35 \u0e2d\u0e38\u0e18\u0e31\u0e22\u0e41\u0e25\u0e30\u0e28\u0e31\u0e1a\u0e1a\u0e39\u0e14 \u0e1e\u0e23\u0e49\u0e2d\u0e21\u0e01\u0e31\u0e1a\u0e40\u0e02\u0e32\u0e17\u0e31\u0e49\u0e07\u0e2a\u0e2d\u0e07\u0e21\u0e35\u0e1c\u0e39\u0e49\u0e0a\u0e32\u0e22\u0e40\u0e08\u0e47\u0e14\u0e2a\u0e34\u0e1a\u0e04\u0e19"
        },
        {
            "chapter": 8,
            "verse": 15,
            "name": "Ezra 8:15",
            "text": "\u0e02\u0e49\u0e32\u0e1e\u0e40\u0e08\u0e49\u0e32\u0e44\u0e14\u0e49\u0e23\u0e27\u0e1a\u0e23\u0e27\u0e21\u0e40\u0e02\u0e32\u0e17\u0e31\u0e49\u0e07\u0e2b\u0e25\u0e32\u0e22\u0e40\u0e02\u0e49\u0e32\u0e21\u0e32\u0e22\u0e31\u0e07\u0e41\u0e21\u0e48\u0e19\u0e49\u0e33\u0e17\u0e35\u0e48\u0e44\u0e2b\u0e25\u0e44\u0e1b\u0e2a\u0e39\u0e48\u0e2d\u0e32\u0e2b\u0e30\u0e27\u0e32 \u0e40\u0e23\u0e32\u0e15\u0e31\u0e49\u0e07\u0e04\u0e48\u0e32\u0e22\u0e2d\u0e22\u0e39\u0e48\u0e17\u0e35\u0e48\u0e19\u0e31\u0e48\u0e19\u0e2a\u0e32\u0e21\u0e27\u0e31\u0e19 \u0e40\u0e21\u0e37\u0e48\u0e2d\u0e02\u0e49\u0e32\u0e1e\u0e40\u0e08\u0e49\u0e32\u0e2a\u0e33\u0e23\u0e27\u0e08\u0e14\u0e39\u0e1b\u0e23\u0e30\u0e0a\u0e32\u0e0a\u0e19\u0e41\u0e25\u0e30\u0e1b\u0e38\u0e42\u0e23\u0e2b\u0e34\u0e15 \u0e02\u0e49\u0e32\u0e1e\u0e40\u0e08\u0e49\u0e32\u0e44\u0e21\u0e48\u0e40\u0e2b\u0e47\u0e19\u0e25\u0e39\u0e01\u0e2b\u0e25\u0e32\u0e19\u0e02\u0e2d\u0e07\u0e40\u0e25\u0e27\u0e35\u0e17\u0e35\u0e48\u0e19\u0e31\u0e48\u0e19\u0e40\u0e25\u0e22"
        },
        {
            "chapter": 8,
            "verse": 16,
            "name": "Ezra 8:16",
            "text": "\u0e41\u0e25\u0e49\u0e27\u0e02\u0e49\u0e32\u0e1e\u0e40\u0e08\u0e49\u0e32\u0e08\u0e36\u0e07\u0e43\u0e2b\u0e49\u0e44\u0e1b\u0e40\u0e23\u0e35\u0e22\u0e01\u0e40\u0e2d\u0e25\u0e35\u0e40\u0e22\u0e40\u0e0b\u0e2d\u0e23\u0e4c \u0e2d\u0e32\u0e23\u0e35\u0e40\u0e2d\u0e25 \u0e40\u0e0a\u0e44\u0e21\u0e2d\u0e32\u0e2b\u0e4c \u0e40\u0e2d\u0e25\u0e19\u0e32\u0e18\u0e31\u0e19 \u0e22\u0e32\u0e23\u0e35\u0e1a \u0e40\u0e2d\u0e25\u0e19\u0e32\u0e18\u0e31\u0e19 \u0e19\u0e32\u0e18\u0e31\u0e19 \u0e40\u0e28\u0e04\u0e32\u0e23\u0e34\u0e22\u0e32\u0e2b\u0e4c \u0e41\u0e25\u0e30\u0e40\u0e21\u0e0a\u0e38\u0e25\u0e25\u0e32\u0e21 \u0e1a\u0e38\u0e04\u0e04\u0e25\u0e0a\u0e31\u0e49\u0e19\u0e2b\u0e31\u0e27\u0e2b\u0e19\u0e49\u0e32 \u0e41\u0e25\u0e30\u0e43\u0e2b\u0e49\u0e2b\u0e32\u0e42\u0e22\u0e22\u0e32\u0e23\u0e34\u0e1a \u0e41\u0e25\u0e30\u0e40\u0e2d\u0e25\u0e19\u0e32\u0e18\u0e31\u0e19 \u0e1c\u0e39\u0e49\u0e40\u0e1b\u0e47\u0e19\u0e04\u0e19\u0e21\u0e35\u0e04\u0e27\u0e32\u0e21\u0e40\u0e02\u0e49\u0e32\u0e43\u0e08"
        },
        {
            "chapter": 8,
            "verse": 17,
            "name": "Ezra 8:17",
            "text": "\u0e41\u0e25\u0e30\u0e2a\u0e48\u0e07\u0e40\u0e02\u0e32\u0e14\u0e49\u0e27\u0e22\u0e04\u0e33\u0e2a\u0e31\u0e48\u0e07\u0e44\u0e1b\u0e22\u0e31\u0e07\u0e17\u0e48\u0e32\u0e19\u0e2d\u0e34\u0e14\u0e42\u0e14 \u0e1a\u0e38\u0e04\u0e04\u0e25\u0e0a\u0e31\u0e49\u0e19\u0e2b\u0e31\u0e27\u0e2b\u0e19\u0e49\u0e32\u0e22\u0e31\u0e07\u0e2a\u0e16\u0e32\u0e19\u0e17\u0e35\u0e48\u0e17\u0e35\u0e48\u0e0a\u0e37\u0e48\u0e2d\u0e04\u0e32\u0e2a\u0e34\u0e40\u0e1f\u0e35\u0e22 \u0e04\u0e37\u0e2d\u0e43\u0e2b\u0e49\u0e1a\u0e2d\u0e01\u0e17\u0e48\u0e32\u0e19\u0e2d\u0e34\u0e14\u0e42\u0e14\u0e41\u0e25\u0e30\u0e1e\u0e35\u0e48\u0e19\u0e49\u0e2d\u0e07\u0e02\u0e2d\u0e07\u0e17\u0e48\u0e32\u0e19\u0e1c\u0e39\u0e49\u0e40\u0e1b\u0e47\u0e19\u0e04\u0e19\u0e43\u0e0a\u0e49\u0e1b\u0e23\u0e30\u0e08\u0e33\u0e1e\u0e23\u0e30\u0e27\u0e34\u0e2b\u0e32\u0e23\u0e17\u0e35\u0e48\u0e2a\u0e16\u0e32\u0e19\u0e17\u0e35\u0e48\u0e17\u0e35\u0e48\u0e0a\u0e37\u0e48\u0e2d\u0e04\u0e32\u0e2a\u0e34\u0e40\u0e1f\u0e35\u0e22\u0e27\u0e48\u0e32 \u0e02\u0e2d\u0e2a\u0e48\u0e07\u0e1c\u0e39\u0e49\u0e1b\u0e23\u0e19\u0e19\u0e34\u0e1a\u0e31\u0e15\u0e34\u0e2a\u0e33\u0e2b\u0e23\u0e31\u0e1a\u0e1e\u0e23\u0e30\u0e19\u0e34\u0e40\u0e27\u0e28\u0e02\u0e2d\u0e07\u0e1e\u0e23\u0e30\u0e40\u0e08\u0e49\u0e32\u0e02\u0e2d\u0e07\u0e40\u0e23\u0e32\u0e21\u0e32\u0e22\u0e31\u0e07\u0e40\u0e23\u0e32"
        },
        {
            "chapter": 8,
            "verse": 18,
            "name": "Ezra 8:18",
            "text": "\u0e41\u0e25\u0e30\u0e42\u0e14\u0e22\u0e1e\u0e23\u0e30\u0e2b\u0e31\u0e15\u0e16\u0e4c\u0e2d\u0e31\u0e19\u0e17\u0e23\u0e07\u0e1e\u0e23\u0e30\u0e04\u0e38\u0e13\u0e02\u0e2d\u0e07\u0e1e\u0e23\u0e30\u0e40\u0e08\u0e49\u0e32\u0e02\u0e2d\u0e07\u0e40\u0e23\u0e32\u0e2d\u0e22\u0e39\u0e48\u0e01\u0e31\u0e1a\u0e40\u0e23\u0e32 \u0e40\u0e02\u0e32\u0e44\u0e14\u0e49\u0e19\u0e33\u0e04\u0e19\u0e17\u0e35\u0e48\u0e21\u0e35\u0e04\u0e27\u0e32\u0e21\u0e2a\u0e38\u0e02\u0e38\u0e21\u0e21\u0e32\u0e43\u0e2b\u0e49\u0e40\u0e23\u0e32 \u0e40\u0e1b\u0e47\u0e19\u0e25\u0e39\u0e01\u0e2b\u0e25\u0e32\u0e19\u0e02\u0e2d\u0e07\u0e21\u0e32\u0e2b\u0e4c\u0e25\u0e35\u0e1a\u0e38\u0e15\u0e23\u0e0a\u0e32\u0e22\u0e40\u0e25\u0e27\u0e35 \u0e1c\u0e39\u0e49\u0e40\u0e1b\u0e47\u0e19\u0e1a\u0e38\u0e15\u0e23\u0e0a\u0e32\u0e22\u0e2d\u0e34\u0e2a\u0e23\u0e32\u0e40\u0e2d\u0e25 \u0e0a\u0e37\u0e48\u0e2d\u0e40\u0e0a\u0e40\u0e23\u0e1a\u0e34\u0e22\u0e32\u0e2b\u0e4c \u0e01\u0e31\u0e1a\u0e1a\u0e38\u0e15\u0e23\u0e0a\u0e32\u0e22\u0e41\u0e25\u0e30\u0e0d\u0e32\u0e15\u0e34\u0e1e\u0e35\u0e48\u0e19\u0e49\u0e2d\u0e07 \u0e23\u0e27\u0e21\u0e2a\u0e34\u0e1a\u0e41\u0e1b\u0e14\u0e04\u0e19"
        },
        {
            "chapter": 8,
            "verse": 19,
            "name": "Ezra 8:19",
            "text": "\u0e17\u0e31\u0e49\u0e07\u0e2e\u0e32\u0e0a\u0e32\u0e1a\u0e34\u0e22\u0e32\u0e2b\u0e4c\u0e41\u0e25\u0e30\u0e40\u0e22\u0e0a\u0e32\u0e22\u0e32\u0e2b\u0e4c \u0e25\u0e39\u0e01\u0e2b\u0e25\u0e32\u0e19\u0e02\u0e2d\u0e07\u0e40\u0e21\u0e23\u0e32\u0e23\u0e35\u0e01\u0e31\u0e1a\u0e0d\u0e32\u0e15\u0e34\u0e1e\u0e35\u0e48\u0e19\u0e49\u0e2d\u0e07\u0e41\u0e25\u0e30\u0e1a\u0e38\u0e15\u0e23\u0e0a\u0e32\u0e22\u0e02\u0e2d\u0e07\u0e40\u0e02\u0e32\u0e23\u0e27\u0e21\u0e22\u0e35\u0e48\u0e2a\u0e34\u0e1a\u0e04\u0e19"
        },
        {
            "chapter": 8,
            "verse": 20,
            "name": "Ezra 8:20",
            "text": "\u0e41\u0e25\u0e30\u0e04\u0e19\u0e43\u0e0a\u0e49\u0e1b\u0e23\u0e30\u0e08\u0e33\u0e1e\u0e23\u0e30\u0e27\u0e34\u0e2b\u0e32\u0e23 \u0e0b\u0e36\u0e48\u0e07\u0e14\u0e32\u0e27\u0e34\u0e14\u0e41\u0e25\u0e30\u0e02\u0e49\u0e32\u0e23\u0e32\u0e0a\u0e01\u0e32\u0e23\u0e02\u0e2d\u0e07\u0e1e\u0e23\u0e30\u0e2d\u0e07\u0e04\u0e4c\u0e44\u0e14\u0e49\u0e08\u0e31\u0e14\u0e15\u0e31\u0e49\u0e07\u0e02\u0e36\u0e49\u0e19\u0e44\u0e27\u0e49\u0e40\u0e1e\u0e37\u0e48\u0e2d\u0e1b\u0e23\u0e19\u0e19\u0e34\u0e1a\u0e31\u0e15\u0e34\u0e04\u0e19\u0e40\u0e25\u0e27\u0e35 \u0e21\u0e35\u0e04\u0e19\u0e43\u0e0a\u0e49\u0e1b\u0e23\u0e30\u0e08\u0e33\u0e1e\u0e23\u0e30\u0e27\u0e34\u0e2b\u0e32\u0e23\u0e2a\u0e2d\u0e07\u0e23\u0e49\u0e2d\u0e22\u0e22\u0e35\u0e48\u0e2a\u0e34\u0e1a\u0e04\u0e19 \u0e1a\u0e38\u0e04\u0e04\u0e25\u0e40\u0e2b\u0e25\u0e48\u0e32\u0e19\u0e35\u0e49\u0e17\u0e31\u0e49\u0e07\u0e2a\u0e34\u0e49\u0e19\u0e21\u0e35\u0e0a\u0e37\u0e48\u0e2d\u0e23\u0e30\u0e1a\u0e38\u0e44\u0e27\u0e49"
        },
        {
            "chapter": 8,
            "verse": 21,
            "name": "Ezra 8:21",
            "text": "\u0e41\u0e25\u0e49\u0e27\u0e02\u0e49\u0e32\u0e1e\u0e40\u0e08\u0e49\u0e32\u0e01\u0e47\u0e1b\u0e23\u0e30\u0e01\u0e32\u0e28\u0e43\u0e2b\u0e49\u0e16\u0e37\u0e2d\u0e2d\u0e14\u0e2d\u0e32\u0e2b\u0e32\u0e23\u0e17\u0e35\u0e48\u0e19\u0e31\u0e48\u0e19 \u0e04\u0e37\u0e2d\u0e17\u0e35\u0e48\u0e41\u0e21\u0e48\u0e19\u0e49\u0e33\u0e2d\u0e32\u0e2b\u0e30\u0e27\u0e32 \u0e40\u0e1e\u0e37\u0e48\u0e2d\u0e40\u0e23\u0e32\u0e17\u0e31\u0e49\u0e07\u0e2b\u0e25\u0e32\u0e22\u0e08\u0e30\u0e44\u0e14\u0e49\u0e16\u0e48\u0e2d\u0e21\u0e15\u0e31\u0e27\u0e25\u0e07\u0e15\u0e48\u0e2d\u0e1e\u0e23\u0e30\u0e1e\u0e31\u0e01\u0e15\u0e23\u0e4c\u0e1e\u0e23\u0e30\u0e40\u0e08\u0e49\u0e32\u0e02\u0e2d\u0e07\u0e40\u0e23\u0e32 \u0e40\u0e1e\u0e37\u0e48\u0e2d\u0e08\u0e30\u0e17\u0e39\u0e25\u0e02\u0e2d\u0e2b\u0e19\u0e17\u0e32\u0e07\u0e2d\u0e31\u0e19\u0e16\u0e39\u0e01\u0e15\u0e49\u0e2d\u0e07\u0e08\u0e32\u0e01\u0e1e\u0e23\u0e30\u0e2d\u0e07\u0e04\u0e4c \u0e2a\u0e33\u0e2b\u0e23\u0e31\u0e1a\u0e40\u0e23\u0e32 \u0e25\u0e39\u0e01\u0e2b\u0e25\u0e32\u0e19\u0e02\u0e2d\u0e07\u0e40\u0e23\u0e32 \u0e41\u0e25\u0e30\u0e02\u0e49\u0e32\u0e27\u0e02\u0e2d\u0e07\u0e17\u0e31\u0e49\u0e07\u0e2a\u0e34\u0e49\u0e19\u0e02\u0e2d\u0e07\u0e40\u0e23\u0e32"
        },
        {
            "chapter": 8,
            "verse": 22,
            "name": "Ezra 8:22",
            "text": "\u0e40\u0e1e\u0e23\u0e32\u0e30\u0e02\u0e49\u0e32\u0e1e\u0e40\u0e08\u0e49\u0e32\u0e25\u0e30\u0e2d\u0e32\u0e22\u0e17\u0e35\u0e48\u0e08\u0e30\u0e17\u0e39\u0e25\u0e02\u0e2d\u0e01\u0e2d\u0e07\u0e17\u0e2b\u0e32\u0e23\u0e41\u0e25\u0e30\u0e1e\u0e25\u0e21\u0e49\u0e32\u0e08\u0e32\u0e01\u0e01\u0e29\u0e31\u0e15\u0e23\u0e34\u0e22\u0e4c\u0e40\u0e1e\u0e37\u0e48\u0e2d\u0e0a\u0e48\u0e27\u0e22\u0e40\u0e23\u0e32\u0e2a\u0e39\u0e49\u0e28\u0e31\u0e15\u0e23\u0e39\u0e15\u0e32\u0e21\u0e17\u0e32\u0e07\u0e02\u0e2d\u0e07\u0e40\u0e23\u0e32 \u0e43\u0e19\u0e40\u0e21\u0e37\u0e48\u0e2d\u0e40\u0e23\u0e32\u0e44\u0e14\u0e49\u0e01\u0e23\u0e32\u0e1a\u0e17\u0e39\u0e25\u0e01\u0e29\u0e31\u0e15\u0e23\u0e34\u0e22\u0e4c\u0e41\u0e25\u0e49\u0e27\u0e27\u0e48\u0e32 \u201c\u0e1e\u0e23\u0e30\u0e2b\u0e31\u0e15\u0e16\u0e4c\u0e02\u0e2d\u0e07\u0e1e\u0e23\u0e30\u0e40\u0e08\u0e49\u0e32\u0e02\u0e2d\u0e07\u0e40\u0e23\u0e32\u0e2d\u0e22\u0e39\u0e48\u0e01\u0e31\u0e1a\u0e1a\u0e23\u0e23\u0e14\u0e32\u0e1c\u0e39\u0e49\u0e17\u0e35\u0e48\u0e41\u0e2a\u0e27\u0e07\u0e2b\u0e32\u0e1e\u0e23\u0e30\u0e2d\u0e07\u0e04\u0e4c\u0e43\u0e2b\u0e49\u0e22\u0e31\u0e07\u0e1c\u0e25\u0e14\u0e35 \u0e41\u0e15\u0e48\u0e24\u0e17\u0e18\u0e32\u0e19\u0e38\u0e20\u0e32\u0e1e\u0e41\u0e25\u0e30\u0e1e\u0e23\u0e30\u0e1e\u0e34\u0e42\u0e23\u0e18\u0e02\u0e2d\u0e07\u0e1e\u0e23\u0e30\u0e2d\u0e07\u0e04\u0e4c\u0e15\u0e48\u0e2d\u0e2a\u0e39\u0e49\u0e04\u0e19\u0e40\u0e2b\u0e25\u0e48\u0e32\u0e19\u0e31\u0e49\u0e19\u0e17\u0e35\u0e48\u0e25\u0e30\u0e17\u0e34\u0e49\u0e07\u0e1e\u0e23\u0e30\u0e2d\u0e07\u0e04\u0e4c\u201d"
        },
        {
            "chapter": 8,
            "verse": 23,
            "name": "Ezra 8:23",
            "text": "\u0e40\u0e23\u0e32\u0e08\u0e36\u0e07\u0e2d\u0e14\u0e2d\u0e32\u0e2b\u0e32\u0e23\u0e41\u0e25\u0e30\u0e27\u0e34\u0e07\u0e27\u0e2d\u0e19\u0e1e\u0e23\u0e30\u0e40\u0e08\u0e49\u0e32\u0e02\u0e2d\u0e07\u0e40\u0e23\u0e32\u0e40\u0e1e\u0e37\u0e48\u0e2d\u0e40\u0e23\u0e37\u0e48\u0e2d\u0e07\u0e19\u0e35\u0e49 \u0e41\u0e25\u0e30\u0e1e\u0e23\u0e30\u0e2d\u0e07\u0e04\u0e4c\u0e17\u0e23\u0e07\u0e1f\u0e31\u0e07\u0e40\u0e2a\u0e35\u0e22\u0e07\u0e23\u0e49\u0e2d\u0e07\u0e17\u0e39\u0e25\u0e02\u0e2d\u0e07\u0e40\u0e23\u0e32"
        },
        {
            "chapter": 8,
            "verse": 24,
            "name": "Ezra 8:24",
            "text": "\u0e41\u0e25\u0e30\u0e02\u0e49\u0e32\u0e1e\u0e40\u0e08\u0e49\u0e32\u0e44\u0e14\u0e49\u0e41\u0e22\u0e01\u0e1b\u0e38\u0e42\u0e23\u0e2b\u0e34\u0e15\u0e43\u0e2b\u0e0d\u0e48\u0e2d\u0e2d\u0e01\u0e2a\u0e34\u0e1a\u0e2a\u0e2d\u0e07\u0e04\u0e19\u0e04\u0e37\u0e2d \u0e40\u0e0a\u0e40\u0e23\u0e1a\u0e34\u0e22\u0e32\u0e2b\u0e4c \u0e2e\u0e32\u0e0a\u0e32\u0e1a\u0e34\u0e22\u0e32\u0e2b\u0e4c \u0e41\u0e25\u0e30\u0e1e\u0e35\u0e48\u0e19\u0e49\u0e2d\u0e07\u0e2a\u0e34\u0e1a\u0e04\u0e19\u0e02\u0e2d\u0e07\u0e40\u0e02\u0e32\u0e17\u0e35\u0e48\u0e2d\u0e22\u0e39\u0e48\u0e01\u0e31\u0e1a\u0e40\u0e02\u0e32"
        },
        {
            "chapter": 8,
            "verse": 25,
            "name": "Ezra 8:25",
            "text": "\u0e41\u0e25\u0e30\u0e02\u0e49\u0e32\u0e1e\u0e40\u0e08\u0e49\u0e32\u0e44\u0e14\u0e49\u0e0a\u0e31\u0e48\u0e07\u0e40\u0e07\u0e34\u0e19 \u0e41\u0e25\u0e30\u0e17\u0e2d\u0e07\u0e04\u0e33 \u0e41\u0e25\u0e30\u0e40\u0e04\u0e23\u0e37\u0e48\u0e2d\u0e07\u0e43\u0e0a\u0e49 \u0e01\u0e31\u0e1a\u0e40\u0e04\u0e23\u0e37\u0e48\u0e2d\u0e07\u0e1a\u0e39\u0e0a\u0e32\u0e2a\u0e33\u0e2b\u0e23\u0e31\u0e1a\u0e1e\u0e23\u0e30\u0e19\u0e34\u0e40\u0e27\u0e28\u0e02\u0e2d\u0e07\u0e1e\u0e23\u0e30\u0e40\u0e08\u0e49\u0e32\u0e02\u0e2d\u0e07\u0e40\u0e23\u0e32 \u0e21\u0e2d\u0e1a\u0e43\u0e2b\u0e49\u0e40\u0e02\u0e32\u0e17\u0e31\u0e49\u0e07\u0e2b\u0e25\u0e32\u0e22\u0e0b\u0e36\u0e48\u0e07\u0e01\u0e29\u0e31\u0e15\u0e23\u0e34\u0e22\u0e4c\u0e41\u0e25\u0e30\u0e17\u0e35\u0e48\u0e1b\u0e23\u0e36\u0e01\u0e29\u0e32\u0e41\u0e25\u0e30\u0e40\u0e08\u0e49\u0e32\u0e19\u0e32\u0e22\u0e02\u0e2d\u0e07\u0e1e\u0e23\u0e30\u0e2d\u0e07\u0e04\u0e4c \u0e41\u0e25\u0e30\u0e04\u0e19\u0e2d\u0e34\u0e2a\u0e23\u0e32\u0e40\u0e2d\u0e25\u0e17\u0e31\u0e49\u0e07\u0e1b\u0e27\u0e07\u0e17\u0e35\u0e48\u0e19\u0e31\u0e48\u0e19\u0e44\u0e14\u0e49\u0e16\u0e27\u0e32\u0e22\u0e44\u0e27\u0e49"
        },
        {
            "chapter": 8,
            "verse": 26,
            "name": "Ezra 8:26",
            "text": "\u0e02\u0e49\u0e32\u0e1e\u0e40\u0e08\u0e49\u0e32\u0e44\u0e14\u0e49\u0e0a\u0e31\u0e48\u0e07\u0e43\u0e2a\u0e48\u0e21\u0e37\u0e2d\u0e02\u0e2d\u0e07\u0e40\u0e02\u0e32\u0e40\u0e1b\u0e47\u0e19\u0e40\u0e07\u0e34\u0e19\u0e2b\u0e01\u0e23\u0e49\u0e2d\u0e22\u0e2b\u0e49\u0e32\u0e2a\u0e34\u0e1a\u0e15\u0e30\u0e25\u0e31\u0e19\u0e15\u0e4c \u0e41\u0e25\u0e30\u0e40\u0e04\u0e23\u0e37\u0e48\u0e2d\u0e07\u0e43\u0e0a\u0e49\u0e17\u0e35\u0e48\u0e17\u0e33\u0e14\u0e49\u0e27\u0e22\u0e40\u0e07\u0e34\u0e19\u0e21\u0e35\u0e04\u0e48\u0e32\u0e2b\u0e19\u0e36\u0e48\u0e07\u0e23\u0e49\u0e2d\u0e22\u0e15\u0e30\u0e25\u0e31\u0e19\u0e15\u0e4c \u0e41\u0e25\u0e30\u0e17\u0e2d\u0e07\u0e04\u0e33\u0e23\u0e49\u0e2d\u0e22\u0e15\u0e30\u0e25\u0e31\u0e19\u0e15\u0e4c"
        },
        {
            "chapter": 8,
            "verse": 27,
            "name": "Ezra 8:27",
            "text": "\u0e0a\u0e32\u0e21\u0e17\u0e2d\u0e07\u0e04\u0e33\u0e22\u0e35\u0e48\u0e2a\u0e34\u0e1a\u0e43\u0e1a\u0e21\u0e35\u0e04\u0e48\u0e32\u0e2b\u0e19\u0e36\u0e48\u0e07\u0e1e\u0e31\u0e19\u0e14\u0e32\u0e23\u0e34\u0e04 \u0e41\u0e25\u0e30\u0e40\u0e04\u0e23\u0e37\u0e48\u0e2d\u0e07\u0e43\u0e0a\u0e49\u0e17\u0e2d\u0e07\u0e41\u0e14\u0e07\u0e40\u0e19\u0e37\u0e49\u0e2d\u0e25\u0e30\u0e40\u0e2d\u0e35\u0e22\u0e14\u0e2a\u0e38\u0e01\u0e43\u0e2a\u0e2a\u0e2d\u0e07\u0e43\u0e1a\u0e21\u0e35\u0e04\u0e48\u0e32\u0e40\u0e17\u0e48\u0e32\u0e01\u0e31\u0e1a\u0e17\u0e2d\u0e07\u0e04\u0e33"
        },
        {
            "chapter": 8,
            "verse": 28,
            "name": "Ezra 8:28",
            "text": "\u0e41\u0e25\u0e30\u0e02\u0e49\u0e32\u0e1e\u0e40\u0e08\u0e49\u0e32\u0e1a\u0e2d\u0e01\u0e40\u0e02\u0e32\u0e27\u0e48\u0e32 \u201c\u0e17\u0e48\u0e32\u0e19\u0e17\u0e31\u0e49\u0e07\u0e2b\u0e25\u0e32\u0e22\u0e1a\u0e23\u0e34\u0e2a\u0e38\u0e17\u0e18\u0e34\u0e4c\u0e15\u0e48\u0e2d\u0e1e\u0e23\u0e30\u0e40\u0e22\u0e42\u0e2e\u0e27\u0e32\u0e2b\u0e4c \u0e41\u0e25\u0e30\u0e40\u0e04\u0e23\u0e37\u0e48\u0e2d\u0e07\u0e43\u0e0a\u0e49\u0e01\u0e47\u0e1a\u0e23\u0e34\u0e2a\u0e38\u0e17\u0e18\u0e34\u0e4c \u0e41\u0e25\u0e30\u0e40\u0e07\u0e34\u0e19\u0e01\u0e31\u0e1a\u0e17\u0e2d\u0e07\u0e04\u0e33\u0e40\u0e1b\u0e47\u0e19\u0e02\u0e2d\u0e07\u0e16\u0e27\u0e32\u0e22\u0e14\u0e49\u0e27\u0e22\u0e43\u0e08\u0e2a\u0e21\u0e31\u0e04\u0e23\u0e41\u0e14\u0e48\u0e1e\u0e23\u0e30\u0e40\u0e22\u0e42\u0e2e\u0e27\u0e32\u0e2b\u0e4c\u0e1e\u0e23\u0e30\u0e40\u0e08\u0e49\u0e32\u0e41\u0e2b\u0e48\u0e07\u0e1a\u0e23\u0e23\u0e1e\u0e1a\u0e38\u0e23\u0e38\u0e29\u0e02\u0e2d\u0e07\u0e17\u0e48\u0e32\u0e19\u0e17\u0e31\u0e49\u0e07\u0e2b\u0e25\u0e32\u0e22"
        },
        {
            "chapter": 8,
            "verse": 29,
            "name": "Ezra 8:29",
            "text": "\u0e08\u0e07\u0e40\u0e1d\u0e49\u0e32\u0e14\u0e39\u0e41\u0e25\u0e44\u0e27\u0e49\u0e08\u0e19\u0e01\u0e27\u0e48\u0e32\u0e17\u0e48\u0e32\u0e19\u0e0a\u0e31\u0e48\u0e07\u0e2a\u0e34\u0e48\u0e07\u0e40\u0e2b\u0e25\u0e48\u0e32\u0e19\u0e31\u0e49\u0e19\u0e15\u0e48\u0e2d\u0e2b\u0e19\u0e49\u0e32\u0e1e\u0e27\u0e01\u0e1b\u0e38\u0e42\u0e23\u0e2b\u0e34\u0e15\u0e43\u0e2b\u0e0d\u0e48\u0e41\u0e25\u0e30\u0e04\u0e19\u0e40\u0e25\u0e27\u0e35 \u0e41\u0e25\u0e30\u0e1b\u0e23\u0e30\u0e21\u0e38\u0e02\u0e02\u0e2d\u0e07\u0e1a\u0e23\u0e23\u0e1e\u0e1a\u0e38\u0e23\u0e38\u0e29\u0e2d\u0e34\u0e2a\u0e23\u0e32\u0e40\u0e2d\u0e25\u0e43\u0e19\u0e40\u0e22\u0e23\u0e39\u0e0b\u0e32\u0e40\u0e25\u0e47\u0e21 \u0e20\u0e32\u0e22\u0e43\u0e19\u0e2b\u0e49\u0e2d\u0e07\u0e1e\u0e23\u0e30\u0e19\u0e34\u0e40\u0e27\u0e28\u0e02\u0e2d\u0e07\u0e1e\u0e23\u0e30\u0e40\u0e22\u0e42\u0e2e\u0e27\u0e32\u0e2b\u0e4c\u201d"
        },
        {
            "chapter": 8,
            "verse": 30,
            "name": "Ezra 8:30",
            "text": "\u0e1a\u0e23\u0e23\u0e14\u0e32\u0e1b\u0e38\u0e42\u0e23\u0e2b\u0e34\u0e15\u0e41\u0e25\u0e30\u0e04\u0e19\u0e40\u0e25\u0e27\u0e35\u0e08\u0e36\u0e07\u0e23\u0e31\u0e1a\u0e40\u0e07\u0e34\u0e19\u0e41\u0e25\u0e30\u0e17\u0e2d\u0e07\u0e04\u0e33\u0e17\u0e35\u0e48\u0e44\u0e14\u0e49\u0e0a\u0e31\u0e48\u0e07 \u0e41\u0e25\u0e30\u0e40\u0e04\u0e23\u0e37\u0e48\u0e2d\u0e07\u0e43\u0e0a\u0e49 \u0e40\u0e1e\u0e37\u0e48\u0e2d\u0e19\u0e33\u0e44\u0e1b\u0e22\u0e31\u0e07\u0e40\u0e22\u0e23\u0e39\u0e0b\u0e32\u0e40\u0e25\u0e47\u0e21 \u0e22\u0e31\u0e07\u0e1e\u0e23\u0e30\u0e19\u0e34\u0e40\u0e27\u0e28\u0e02\u0e2d\u0e07\u0e1e\u0e23\u0e30\u0e40\u0e08\u0e49\u0e32\u0e02\u0e2d\u0e07\u0e40\u0e23\u0e32"
        },
        {
            "chapter": 8,
            "verse": 31,
            "name": "Ezra 8:31",
            "text": "\u0e41\u0e25\u0e30\u0e40\u0e23\u0e32\u0e01\u0e47\u0e2d\u0e2d\u0e01\u0e08\u0e32\u0e01\u0e41\u0e21\u0e48\u0e19\u0e49\u0e33\u0e2d\u0e32\u0e2b\u0e30\u0e27\u0e32\u0e43\u0e19\u0e27\u0e31\u0e19\u0e17\u0e35\u0e48\u0e2a\u0e34\u0e1a\u0e2a\u0e2d\u0e07\u0e02\u0e2d\u0e07\u0e40\u0e14\u0e37\u0e2d\u0e19\u0e15\u0e49\u0e19 \u0e40\u0e1e\u0e37\u0e48\u0e2d\u0e44\u0e1b\u0e22\u0e31\u0e07\u0e40\u0e22\u0e23\u0e39\u0e0b\u0e32\u0e40\u0e25\u0e47\u0e21 \u0e41\u0e25\u0e30\u0e1e\u0e23\u0e30\u0e2b\u0e31\u0e15\u0e16\u0e4c\u0e02\u0e2d\u0e07\u0e1e\u0e23\u0e30\u0e40\u0e08\u0e49\u0e32\u0e02\u0e2d\u0e07\u0e40\u0e23\u0e32\u0e2d\u0e22\u0e39\u0e48\u0e01\u0e31\u0e1a\u0e40\u0e23\u0e32 \u0e41\u0e25\u0e30\u0e1e\u0e23\u0e30\u0e2d\u0e07\u0e04\u0e4c\u0e17\u0e23\u0e07\u0e0a\u0e48\u0e27\u0e22\u0e40\u0e23\u0e32\u0e43\u0e2b\u0e49\u0e1e\u0e49\u0e19\u0e08\u0e32\u0e01\u0e21\u0e37\u0e2d\u0e02\u0e2d\u0e07\u0e28\u0e31\u0e15\u0e23\u0e39\u0e41\u0e25\u0e30\u0e08\u0e32\u0e01\u0e1e\u0e27\u0e01\u0e0b\u0e38\u0e48\u0e21\u0e04\u0e2d\u0e22\u0e2d\u0e22\u0e39\u0e48\u0e15\u0e32\u0e21\u0e17\u0e32\u0e07"
        },
        {
            "chapter": 8,
            "verse": 32,
            "name": "Ezra 8:32",
            "text": "\u0e40\u0e23\u0e32\u0e21\u0e32\u0e16\u0e36\u0e07\u0e40\u0e22\u0e23\u0e39\u0e0b\u0e32\u0e40\u0e25\u0e47\u0e21\u0e41\u0e25\u0e30\u0e1e\u0e31\u0e01\u0e2d\u0e22\u0e39\u0e48\u0e17\u0e35\u0e48\u0e19\u0e31\u0e48\u0e19\u0e2a\u0e32\u0e21\u0e27\u0e31\u0e19"
        },
        {
            "chapter": 8,
            "verse": 33,
            "name": "Ezra 8:33",
            "text": "\u0e43\u0e19\u0e27\u0e31\u0e19\u0e17\u0e35\u0e48\u0e2a\u0e35\u0e48\u0e20\u0e32\u0e22\u0e43\u0e19\u0e1e\u0e23\u0e30\u0e19\u0e34\u0e40\u0e27\u0e28\u0e02\u0e2d\u0e07\u0e1e\u0e23\u0e30\u0e40\u0e08\u0e49\u0e32\u0e02\u0e2d\u0e07\u0e40\u0e23\u0e32 \u0e01\u0e47\u0e0a\u0e31\u0e48\u0e07\u0e40\u0e07\u0e34\u0e19 \u0e17\u0e2d\u0e07\u0e04\u0e33\u0e41\u0e25\u0e30\u0e40\u0e04\u0e23\u0e37\u0e48\u0e2d\u0e07\u0e43\u0e0a\u0e49\u0e43\u0e2a\u0e48\u0e21\u0e37\u0e2d\u0e02\u0e2d\u0e07\u0e40\u0e21\u0e40\u0e23\u0e42\u0e21\u0e17\u0e1b\u0e38\u0e42\u0e23\u0e2b\u0e34\u0e15 \u0e1a\u0e38\u0e15\u0e23\u0e0a\u0e32\u0e22\u0e2d\u0e38\u0e23\u0e35\u0e2d\u0e32\u0e2b\u0e4c \u0e41\u0e25\u0e30\u0e04\u0e19\u0e17\u0e35\u0e48\u0e2d\u0e22\u0e39\u0e48\u0e01\u0e31\u0e1a\u0e40\u0e02\u0e32\u0e04\u0e37\u0e2d\u0e40\u0e2d\u0e40\u0e25\u0e2d\u0e32\u0e0b\u0e32\u0e23\u0e4c\u0e1a\u0e38\u0e15\u0e23\u0e0a\u0e32\u0e22\u0e1f\u0e35\u0e40\u0e19\u0e2b\u0e31\u0e2a \u0e41\u0e25\u0e30\u0e04\u0e19\u0e17\u0e35\u0e48\u0e2d\u0e22\u0e39\u0e48\u0e01\u0e31\u0e1a\u0e40\u0e02\u0e32\u0e17\u0e31\u0e49\u0e07\u0e2b\u0e25\u0e32\u0e22\u0e04\u0e37\u0e2d \u0e42\u0e22\u0e0b\u0e32\u0e1a\u0e32\u0e14 \u0e1a\u0e38\u0e15\u0e23\u0e0a\u0e32\u0e22\u0e40\u0e22\u0e0a\u0e39\u0e2d\u0e32 \u0e41\u0e25\u0e30\u0e42\u0e19\u0e2d\u0e31\u0e14\u0e22\u0e32\u0e2b\u0e4c\u0e1a\u0e38\u0e15\u0e23\u0e0a\u0e32\u0e22\u0e1a\u0e34\u0e19\u0e19\u0e38\u0e22 \u0e04\u0e19\u0e40\u0e25\u0e27\u0e35"
        },
        {
            "chapter": 8,
            "verse": 34,
            "name": "Ezra 8:34",
            "text": "\u0e40\u0e02\u0e32\u0e0a\u0e31\u0e48\u0e07\u0e41\u0e25\u0e30\u0e19\u0e31\u0e1a\u0e17\u0e31\u0e49\u0e07\u0e2b\u0e21\u0e14\u0e41\u0e25\u0e30\u0e1a\u0e31\u0e19\u0e17\u0e36\u0e01\u0e19\u0e49\u0e33\u0e2b\u0e19\u0e31\u0e01\u0e02\u0e2d\u0e07\u0e17\u0e38\u0e01\u0e2a\u0e34\u0e48\u0e07\u0e44\u0e27\u0e49"
        },
        {
            "chapter": 8,
            "verse": 35,
            "name": "Ezra 8:35",
            "text": "\u0e1a\u0e23\u0e23\u0e14\u0e32\u0e25\u0e39\u0e01\u0e2b\u0e25\u0e32\u0e19\u0e02\u0e2d\u0e07\u0e1e\u0e27\u0e01\u0e17\u0e35\u0e48\u0e16\u0e39\u0e01\u0e01\u0e27\u0e32\u0e14\u0e44\u0e1b\u0e40\u0e1b\u0e47\u0e19\u0e40\u0e0a\u0e25\u0e22 \u0e0b\u0e36\u0e48\u0e07\u0e21\u0e32\u0e08\u0e32\u0e01\u0e01\u0e32\u0e23\u0e40\u0e1b\u0e47\u0e19\u0e40\u0e0a\u0e25\u0e22 \u0e44\u0e14\u0e49\u0e16\u0e27\u0e32\u0e22\u0e40\u0e04\u0e23\u0e37\u0e48\u0e2d\u0e07\u0e40\u0e1c\u0e32\u0e1a\u0e39\u0e0a\u0e32\u0e41\u0e14\u0e48\u0e1e\u0e23\u0e30\u0e40\u0e08\u0e49\u0e32\u0e41\u0e2b\u0e48\u0e07\u0e2d\u0e34\u0e2a\u0e23\u0e32\u0e40\u0e2d\u0e25 \u0e21\u0e35\u0e27\u0e31\u0e27\u0e1c\u0e39\u0e49\u0e2a\u0e34\u0e1a\u0e2a\u0e2d\u0e07\u0e15\u0e31\u0e27\u0e2a\u0e33\u0e2b\u0e23\u0e31\u0e1a\u0e1e\u0e27\u0e01\u0e2d\u0e34\u0e2a\u0e23\u0e32\u0e40\u0e2d\u0e25\u0e17\u0e31\u0e49\u0e07\u0e1b\u0e27\u0e07 \u0e41\u0e01\u0e30\u0e1c\u0e39\u0e49\u0e40\u0e01\u0e49\u0e32\u0e2a\u0e34\u0e1a\u0e2b\u0e01\u0e15\u0e31\u0e27 \u0e25\u0e39\u0e01\u0e41\u0e01\u0e30\u0e40\u0e08\u0e47\u0e14\u0e2a\u0e34\u0e1a\u0e40\u0e08\u0e47\u0e14\u0e15\u0e31\u0e27 \u0e41\u0e25\u0e30\u0e41\u0e1e\u0e30\u0e1c\u0e39\u0e49\u0e2a\u0e34\u0e1a\u0e2a\u0e2d\u0e07\u0e15\u0e31\u0e27\u0e40\u0e1b\u0e47\u0e19\u0e40\u0e04\u0e23\u0e37\u0e48\u0e2d\u0e07\u0e1a\u0e39\u0e0a\u0e32\u0e44\u0e16\u0e48\u0e1a\u0e32\u0e1b \u0e17\u0e31\u0e49\u0e07\u0e2a\u0e34\u0e49\u0e19\u0e19\u0e35\u0e49\u0e40\u0e1b\u0e47\u0e19\u0e40\u0e04\u0e23\u0e37\u0e48\u0e2d\u0e07\u0e40\u0e1c\u0e32\u0e1a\u0e39\u0e0a\u0e32\u0e16\u0e27\u0e32\u0e22\u0e1e\u0e23\u0e30\u0e40\u0e22\u0e42\u0e2e\u0e27\u0e32\u0e2b\u0e4c"
        },
        {
            "chapter": 8,
            "verse": 36,
            "name": "Ezra 8:36",
            "text": "\u0e40\u0e02\u0e32\u0e17\u0e31\u0e49\u0e07\u0e2b\u0e25\u0e32\u0e22\u0e44\u0e14\u0e49\u0e21\u0e2d\u0e1a\u0e1e\u0e23\u0e30\u0e23\u0e32\u0e0a\u0e42\u0e2d\u0e07\u0e01\u0e32\u0e23\u0e43\u0e2b\u0e49\u0e41\u0e01\u0e48\u0e2a\u0e21\u0e38\u0e2b\u0e40\u0e17\u0e28\u0e32\u0e20\u0e34\u0e1a\u0e32\u0e25\u0e02\u0e2d\u0e07\u0e01\u0e29\u0e31\u0e15\u0e23\u0e34\u0e22\u0e4c \u0e41\u0e25\u0e30\u0e41\u0e01\u0e48\u0e1c\u0e39\u0e49\u0e27\u0e48\u0e32\u0e23\u0e32\u0e0a\u0e01\u0e32\u0e23\u0e21\u0e13\u0e11\u0e25\u0e1f\u0e32\u0e01\u0e41\u0e21\u0e48\u0e19\u0e49\u0e33\u0e02\u0e49\u0e32\u0e07\u0e19\u0e35\u0e49 \u0e41\u0e25\u0e30\u0e17\u0e48\u0e32\u0e19\u0e40\u0e2b\u0e25\u0e48\u0e32\u0e19\u0e35\u0e49\u0e44\u0e14\u0e49\u0e0a\u0e48\u0e27\u0e22\u0e40\u0e2b\u0e25\u0e37\u0e2d\u0e1b\u0e23\u0e30\u0e0a\u0e32\u0e0a\u0e19\u0e41\u0e25\u0e30\u0e1e\u0e23\u0e30\u0e19\u0e34\u0e40\u0e27\u0e28\u0e02\u0e2d\u0e07\u0e1e\u0e23\u0e30\u0e40\u0e08\u0e49\u0e32  "
        }
    ]
}