{
    "translation": "NCV Simplified",
    "abbreviation": "cns",
    "lang": "zh",
    "language": "",
    "direction": "LTR",
    "encoding": "UTF-8",
    "book_nr": 35,
    "book_name": "Habakkuk",
    "chapter": 3,
    "name": "Habakkuk 3",
    "verses": [
        {
            "chapter": 3,
            "verse": 1,
            "name": "Habakkuk 3:1",
            "text": "\t\u54c8\u5df4\u8c37\u5148\u77e5\u7684\u7977\u544a\uff0c\u914d\u6fc0\u52a8\u7684\u97f3\u8c03\u3002"
        },
        {
            "chapter": 3,
            "verse": 2,
            "name": "Habakkuk 3:2",
            "text": "\u8036\u548c\u534e\u554a\uff01\u6211\u542c\u89c1\u4f60\u7684\u58f0\u97f3\uff0c\u60e7\u6015\u4f60\u7684\u4f5c\u4e3a\uff1b\u6c42\u4f60\u5728\u8fd9\u4e9b\u5e74\u95f4\u590d\u5174\uff0c\u5728\u8fd9\u4e9b\u5e74\u95f4\u5f70\u663e\uff0c\u53d1\u6012\u7684\u65f6\u5019\u4ee5\u601c\u60af\u4e3a\u6000\u3002"
        },
        {
            "chapter": 3,
            "verse": 3,
            "name": "Habakkuk 3:3",
            "text": "\u3000\u795e\u7531\u63d0\u5e54\u800c\u6765\uff0c\u5723\u8005\u4ece\u5df4\u5170\u5c71\u4e34\u5230\u3002\uff08\u7ec6\u62c9\uff09\u4ed6\u7684\u8363\u5149\u5f25\u6f2b\u7a79\u82cd\uff0c\u8d5e\u7f8e\u4ed6\u7684\u58f0\u97f3\u54cd\u5f7b\u5bf0\u5b87\u3002"
        },
        {
            "chapter": 3,
            "verse": 4,
            "name": "Habakkuk 3:4",
            "text": "\u4ed6\u7684\u8f89\u714c\u5982\u5149\uff0c\u624b\u4e2d\u56db\u5c04\u5149\u8292\uff0c\u5c31\u5728\u5176\u4e2d\u9690\u85cf\u7740\u80fd\u529b\u3002"
        },
        {
            "chapter": 3,
            "verse": 5,
            "name": "Habakkuk 3:5",
            "text": "\u761f\u75ab\u5728\u4ed6\u9762\u524d\u884c\u8d70\uff0c\u707e\u75c5\u5728\u4ed6\u811a\u4e0b\u53d1\u51fa\u3002"
        },
        {
            "chapter": 3,
            "verse": 6,
            "name": "Habakkuk 3:6",
            "text": "\u4ed6\u7ad9\u7acb\uff0c\u9707\u64bc\u5168\u5730\uff1b\u4ed6\u89c2\u770b\uff0c\u60ca\u6563\u5217\u56fd\u3002\u6c38\u5728\u7684\u5c71\u5d29\u88c2\uff0c\u957f\u5b58\u7684\u5cad\u584c\u9677\uff1b\u4ed6\u7684\u9053\u8def\u5b58\u5230\u6c38\u8fdc\u3002"
        },
        {
            "chapter": 3,
            "verse": 7,
            "name": "Habakkuk 3:7",
            "text": "\u6211\u770b\u89c1\u53e4\u73ca\u7684\u5e10\u68da\u906d\u96be\uff0c\u7c73\u7538\u5730\u7684\u5e10\u5e55\u60ca\u60f6\u3002"
        },
        {
            "chapter": 3,
            "verse": 8,
            "name": "Habakkuk 3:8",
            "text": "\u8036\u548c\u534e\u554a\uff01\u4f60\u9a91\u4e0a\u4f60\u7684\u9a6c\uff0c\u4e58\u9a7e\u5f97\u80dc\u7684\u6218\u8f66\uff0c\u96be\u9053\u662f\u5411\u6c5f\u6cb3\u53d1\u6012\uff1f\u662f\u5411\u6d77\u6d0b\u6cc4\u6124\uff1f"
        },
        {
            "chapter": 3,
            "verse": 9,
            "name": "Habakkuk 3:9",
            "text": "\u4f60\u7684\u5f13\u663e\u9732\uff0c\u4f60\u7684\u7bad\u4e0a\u5f26\u3002\uff08\u539f\u6587\u610f\u4e49\u4e0d\u660e\uff0c\u8fd9\u53e5\u53c2\u8003RSV,JB\u7b49\u8bd1\u672c\u7ffb\u8bd1\uff09\uff08\u7ec6\u62c9\uff09\u4f60\u88c2\u5f00\u5927\u5730\u4e3a\u6c5f\u6cb3\u3002"
        },
        {
            "chapter": 3,
            "verse": 10,
            "name": "Habakkuk 3:10",
            "text": "\u8bf8\u5c71\u89c1\u4f60\u800c\u98a4\u6296\uff0c\u4f17\u6c34\u66b4\u6d41\u800c\u8fc7\uff1b\u6df1\u6e0a\u53d1\u58f0\uff0c\u4e3e\u624b\u9ad8\u626c\u3002"
        },
        {
            "chapter": 3,
            "verse": 11,
            "name": "Habakkuk 3:11",
            "text": "\u65e5\u6708\u505c\u5728\u672c\u4f4d\uff0c\u4f60\u7684\u7bad\u53d1\u5c04\u5982\u5149\uff1b\u4f60\u7684\u77db\u95ea\u70c1\u8f89\u8000\u3002"
        },
        {
            "chapter": 3,
            "verse": 12,
            "name": "Habakkuk 3:12",
            "text": "\u4f60\u6fc0\u6124\u8df5\u8e0f\u5168\u5730\uff0c\u4f60\u6000\u6012\u6253\u788e\u5217\u56fd\u3002"
        },
        {
            "chapter": 3,
            "verse": 13,
            "name": "Habakkuk 3:13",
            "text": "\u4f60\u51fa\u6765\u6551\u62d4\u5b50\u6c11\uff0c\u62ef\u6551\u4f60\u6240\u818f\u7acb\u7684\u3002\u4f60\u51fb\u6253\u6076\u4eba\u7684\u623f\u9876\uff0c\u4f7f\u6839\u57fa\u5168\u7136\u663e\u9732\uff08\u539f\u6587\u4f5c\u201c\u76f4\u5230\u9888\u9879\u201d\uff0c\u8fd9\u662f\u95ea\u65cf\u8bed\u8a00\u60ef\u7528\u8bed\uff0c\u610f\u5373\u201c\u5230\u4e86\u6781\u70b9\u201d\ufe5d\u53c2\u8d5b8:8\uff1b\u8bd775:5\ufe5e\uff1b\u53e6\u4e00\u53ef\u80fd\u662f\u201c\u5927\u77f3\u201d\u3001\u201c\u78d0\u77f3\u201d\u7684\u610f\u601d\uff09\u3002\uff08\u7ec6\u62c9\uff09"
        },
        {
            "chapter": 3,
            "verse": 14,
            "name": "Habakkuk 3:14",
            "text": "\u4f60\u7528\u4ed6\u7684\u67aa\uff0c\u523a\u900f\u4ed6\u6218\u58eb\u7684\u5934\u3002\u4ed6\u4eec\u6765\u5982\u66b4\u98ce\uff0c\u628a\u6211\u4eec\u9a71\u6563\u3002\u4ed6\u4eec\u7684\u559c\u597d\uff0c\u662f\u6697\u4e2d\u541e\u566c\u7a77\u4eba\u3002"
        },
        {
            "chapter": 3,
            "verse": 15,
            "name": "Habakkuk 3:15",
            "text": "\u4f60\u4e58\u9a6c\u9a70\u9a8b\u6d77\u4e0a\uff0c\u5927\u6c34\u6c79\u6d8c\u7ffb\u817e\u3002"
        },
        {
            "chapter": 3,
            "verse": 16,
            "name": "Habakkuk 3:16",
            "text": "\u6211\u4e00\u542c\u89c1\uff0c\u5c31\u5168\u8eab\u53d1\u6296\uff1b\u56e0\u8fd9\u58f0\u97f3\uff0c\u6211\u5634\u5507\u9707\u98a4\u3002\u8150\u70c2\u4fb5\u8680\u6211\u9aa8\uff0c\u6211\u5728\u7ad9\u7acb\u4e4b\u5730\u6218\u5162\u3002\u6211\u9759\u5019\u707e\u96be\u4e4b\u65e5\uff0c\u72af\u5883\u7684\u6c11\u4e0a\u6765\u3002"
        },
        {
            "chapter": 3,
            "verse": 17,
            "name": "Habakkuk 3:17",
            "text": "\u65e0\u82b1\u679c\u6811\u7eb5\u4e0d\u53d1\u82bd\uff0c\u8461\u8404\u6811\u4e0d\u7ed3\u679c\uff0c\u6a44\u6984\u6811\u65e0\u6240\u51fa\uff0c\u7530\u91cc\u65e0\u6536\u6210\uff0c\u5708\u5185\u6ca1\u6709\u7f8a\uff0c\u68da\u91cc\u4e5f\u6ca1\u6709\u725b\uff0c"
        },
        {
            "chapter": 3,
            "verse": 18,
            "name": "Habakkuk 3:18",
            "text": "\u6211\u5374\u8981\u56e0\u8036\u548c\u534e\u6b22\u559c\uff0c\u4ee5\u6551\u6211\u7684\u3000\u795e\u4e3a\u4e50\u3002"
        },
        {
            "chapter": 3,
            "verse": 19,
            "name": "Habakkuk 3:19",
            "text": "\u4e3b\u8036\u548c\u534e\u662f\u6211\u7684\u529b\u91cf\uff0c\u4ed6\u4f7f\u6211\u7684\u811a\u5feb\u5982\u6bcd\u9e7f\u7684\u8e44\uff0c\u5728\u9ad8\u5730\u4e0a\u884c\u8d70\u3002\u4ea4\u8bd7\u73ed\u957f\uff0c\u7528\u4e1d\u5f26\u7684\u4e50\u5668\u4f34\u594f\u3002"
        }
    ]
}