{
    "translation": "Basic English Bible",
    "abbreviation": "basicenglish",
    "lang": "en",
    "language": "English",
    "direction": "LTR",
    "encoding": "",
    "book_nr": 57,
    "book_name": "Philemon",
    "chapter": 1,
    "name": "Philemon 1",
    "verses": [
        {
            "chapter": 1,
            "verse": 1,
            "name": "Philemon 1:1",
            "text": "Paul, a prisoner of Jesus Christ, and Timothy our brother, to Philemon, our dear helper in the faith,"
        },
        {
            "chapter": 1,
            "verse": 2,
            "name": "Philemon 1:2",
            "text": "And to Apphia, our sister, and to Archippus, our brother in God's army, and to the church in your house:"
        },
        {
            "chapter": 1,
            "verse": 3,
            "name": "Philemon 1:3",
            "text": "Grace to you and peace from God our Father and the Lord Jesus Christ."
        },
        {
            "chapter": 1,
            "verse": 4,
            "name": "Philemon 1:4",
            "text": "I give praise to God at all times and make prayer for you,"
        },
        {
            "chapter": 1,
            "verse": 5,
            "name": "Philemon 1:5",
            "text": "Hearing of the love and the faith which you have to the Lord Jesus and to all the saints;"
        },
        {
            "chapter": 1,
            "verse": 6,
            "name": "Philemon 1:6",
            "text": "That the faith which you have in common with them may be working with power, in the knowledge of every good thing in you, for Christ."
        },
        {
            "chapter": 1,
            "verse": 7,
            "name": "Philemon 1:7",
            "text": "For I had great joy and comfort in your love, because the hearts of the saints have been made strong again through you, brother."
        },
        {
            "chapter": 1,
            "verse": 8,
            "name": "Philemon 1:8",
            "text": "And so, though I might, in the name of Christ, give you orders to do what is right,"
        },
        {
            "chapter": 1,
            "verse": 9,
            "name": "Philemon 1:9",
            "text": "Still, because of love, in place of an order, I make a request to you, I, Paul, an old man and now a prisoner of Christ Jesus:"
        },
        {
            "chapter": 1,
            "verse": 10,
            "name": "Philemon 1:10",
            "text": "My request is for my child Onesimus, the child of my chains,"
        },
        {
            "chapter": 1,
            "verse": 11,
            "name": "Philemon 1:11",
            "text": "Who in the past was of no profit to you, but now is of profit to you and to me:"
        },
        {
            "chapter": 1,
            "verse": 12,
            "name": "Philemon 1:12",
            "text": "Whom I have sent back to you, him who is my very heart:"
        },
        {
            "chapter": 1,
            "verse": 13,
            "name": "Philemon 1:13",
            "text": "Though my desire was to keep him with me, to be my servant in the chains of the good news, in your place:"
        },
        {
            "chapter": 1,
            "verse": 14,
            "name": "Philemon 1:14",
            "text": "But without your approval I would do nothing; so that your good works might not be forced, but done freely from your heart."
        },
        {
            "chapter": 1,
            "verse": 15,
            "name": "Philemon 1:15",
            "text": "For it is possible that for this reason he was parted from you for a time, so that you might have him for ever;"
        },
        {
            "chapter": 1,
            "verse": 16,
            "name": "Philemon 1:16",
            "text": "No longer as a servant, but more than a servant, a brother, very dear to me specially, but much more to you, in the flesh as well as in the Lord."
        },
        {
            "chapter": 1,
            "verse": 17,
            "name": "Philemon 1:17",
            "text": "If then you take me to be your friend and brother, take him in as myself."
        },
        {
            "chapter": 1,
            "verse": 18,
            "name": "Philemon 1:18",
            "text": "If he has done you any wrong or is in debt to you for anything, put it to my account."
        },
        {
            "chapter": 1,
            "verse": 19,
            "name": "Philemon 1:19",
            "text": "I, Paul, writing this myself, say, I will make payment to you: and I do not say to you that you are in debt to me even for your life."
        },
        {
            "chapter": 1,
            "verse": 20,
            "name": "Philemon 1:20",
            "text": "So brother, let me have joy of you in the Lord: give new life to my heart in Christ."
        },
        {
            "chapter": 1,
            "verse": 21,
            "name": "Philemon 1:21",
            "text": "Being certain that you will do my desire, I am writing to you, in the knowledge that you will do even more than I say."
        },
        {
            "chapter": 1,
            "verse": 22,
            "name": "Philemon 1:22",
            "text": "And make a room ready for me; for I am hoping that through your prayers I will be given to you."
        },
        {
            "chapter": 1,
            "verse": 23,
            "name": "Philemon 1:23",
            "text": "Epaphras, my brother-prisoner in Christ Jesus, sends you his love;"
        },
        {
            "chapter": 1,
            "verse": 24,
            "name": "Philemon 1:24",
            "text": "And so do Mark, Aristarchus, Demas, and Luke, my brother-workers."
        },
        {
            "chapter": 1,
            "verse": 25,
            "name": "Philemon 1:25",
            "text": "The grace of our Lord Jesus Christ be with your spirit. So be it."
        }
    ]
}