{
    "translation": "Sathyavedapusthakam (Malayalam Bible) published in 1910",
    "abbreviation": "mal1910",
    "lang": "ml",
    "language": "Malayalam",
    "direction": "RTL",
    "encoding": "UTF-8",
    "book_nr": 11,
    "book_name": "1 Kings",
    "chapter": 8,
    "name": "1 Kings 8",
    "verses": [
        {
            "chapter": 8,
            "verse": 1,
            "name": "1 Kings 8:1",
            "text": "\u0d2a\u0d3f\u0d28\u0d4d\u0d28\u0d46 \u0d2f\u0d39\u0d4b\u0d35\u0d2f\u0d41\u0d1f\u0d46 \u0d28\u0d3f\u0d2f\u0d2e\u0d2a\u0d46\u0d1f\u0d4d\u0d1f\u0d15\u0d02 \u0d38\u0d40\u0d2f\u0d4b\u0d7b \u0d0e\u0d28\u0d4d\u0d28 \u0d26\u0d3e\u0d35\u0d40\u0d26\u0d3f\u0d28\u0d4d\u0d31\u0d46 \u0d28\u0d17\u0d30\u0d24\u0d4d\u0d24\u0d3f\u0d7d\u0d28\u0d3f\u0d28\u0d4d\u0d28\u0d41 \u0d15\u0d4a\u0d23\u0d4d\u0d1f\u0d41\u0d35\u0d30\u0d47\u0d23\u0d4d\u0d1f\u0d24\u0d3f\u0d28\u0d4d\u0d28\u0d41 \u0d36\u0d32\u0d4b\u0d2e\u0d4b\u0d7b \u0d2f\u0d3f\u0d38\u0d4d\u0d30\u0d3e\u0d2f\u0d47\u0d7d\u0d2e\u0d42\u0d2a\u0d4d\u0d2a\u0d28\u0d4d\u0d2e\u0d3e\u0d30\u0d46\u0d2f\u0d41\u0d02 \u0d2f\u0d3f\u0d38\u0d4d\u0d30\u0d3e\u0d2f\u0d47\u0d7d\u0d2e\u0d15\u0d4d\u0d15\u0d33\u0d41\u0d1f\u0d46 \u0d2a\u0d3f\u0d24\u0d43\u0d2d\u0d35\u0d28\u0d19\u0d4d\u0d19\u0d33\u0d3f\u0d32\u0d46 \u0d2a\u0d4d\u0d30\u0d2d\u0d41\u0d15\u0d4d\u0d15\u0d28\u0d4d\u0d2e\u0d3e\u0d30\u0d3e\u0d2f \u0d38\u0d15\u0d32\u0d17\u0d4b\u0d24\u0d4d\u0d30\u0d2a\u0d4d\u0d30\u0d27\u0d3e\u0d28\u0d3f\u0d15\u0d33\u0d46\u0d2f\u0d41\u0d02 \u0d2f\u0d46\u0d30\u0d42\u0d36\u0d32\u0d47\u0d2e\u0d3f\u0d7d \u0d36\u0d32\u0d4b\u0d2e\u0d4b\u0d7b\u0d30\u0d3e\u0d1c\u0d3e\u0d35\u0d3f\u0d28\u0d4d\u0d31\u0d46 \u0d05\u0d1f\u0d41\u0d15\u0d4d\u0d15\u0d7d \u0d15\u0d42\u0d1f\u0d4d\u0d1f\u0d3f\u0d35\u0d30\u0d41\u0d24\u0d4d\u0d24\u0d3f. "
        },
        {
            "chapter": 8,
            "verse": 2,
            "name": "1 Kings 8:2",
            "text": "\u0d2f\u0d3f\u0d38\u0d4d\u0d30\u0d3e\u0d2f\u0d47\u0d7d\u0d2a\u0d41\u0d30\u0d41\u0d37\u0d28\u0d4d\u0d2e\u0d3e\u0d7c \u0d12\u0d15\u0d4d\u0d15\u0d46\u0d2f\u0d41\u0d02 \u0d0f\u0d34\u0d3e\u0d02\u0d2e\u0d3e\u0d38\u0d2e\u0d3e\u0d2f \u0d0f\u0d25\u0d3e\u0d28\u0d40\u0d02\u0d2e\u0d3e\u0d38\u0d24\u0d4d\u0d24\u0d3f\u0d32\u0d46 \u0d09\u0d24\u0d4d\u0d38\u0d35\u0d24\u0d4d\u0d24\u0d3f\u0d7d \u0d36\u0d32\u0d4b\u0d2e\u0d4b\u0d7b\u0d30\u0d3e\u0d1c\u0d3e\u0d35\u0d3f\u0d28\u0d4d\u0d31\u0d46 \u0d05\u0d1f\u0d41\u0d15\u0d4d\u0d15\u0d7d \u0d35\u0d28\u0d4d\u0d28\u0d41\u0d15\u0d42\u0d1f\u0d3f. "
        },
        {
            "chapter": 8,
            "verse": 3,
            "name": "1 Kings 8:3",
            "text": "\u0d2f\u0d3f\u0d38\u0d4d\u0d30\u0d3e\u0d2f\u0d47\u0d7d\u0d2e\u0d42\u0d2a\u0d4d\u0d2a\u0d28\u0d4d\u0d2e\u0d3e\u0d7c \u0d12\u0d15\u0d4d\u0d15\u0d46\u0d2f\u0d41\u0d02 \u0d35\u0d28\u0d4d\u0d28\u0d2a\u0d4d\u0d2a\u0d4b\u0d7e \u0d2a\u0d41\u0d30\u0d4b\u0d39\u0d3f\u0d24\u0d28\u0d4d\u0d2e\u0d3e\u0d7c \u0d2f\u0d39\u0d4b\u0d35\u0d2f\u0d41\u0d1f\u0d46 \u0d2a\u0d46\u0d1f\u0d4d\u0d1f\u0d15\u0d02 \u0d0e\u0d1f\u0d41\u0d24\u0d4d\u0d24\u0d41. "
        },
        {
            "chapter": 8,
            "verse": 4,
            "name": "1 Kings 8:4",
            "text": "\u0d05\u0d35\u0d7c \u0d2f\u0d39\u0d4b\u0d35\u0d2f\u0d41\u0d1f\u0d46 \u0d2a\u0d46\u0d1f\u0d4d\u0d1f\u0d15\u0d35\u0d41\u0d02 \u0d38\u0d2e\u0d3e\u0d17\u0d2e\u0d28\u0d15\u0d42\u0d1f\u0d3e\u0d30\u0d35\u0d41\u0d02 \u0d15\u0d42\u0d1f\u0d3e\u0d30\u0d24\u0d4d\u0d24\u0d3f\u0d32\u0d46 \u0d35\u0d3f\u0d36\u0d41\u0d26\u0d4d\u0d27\u0d09\u0d2a\u0d15\u0d30\u0d23\u0d19\u0d4d\u0d19\u0d33\u0d4a\u0d15\u0d4d\u0d15\u0d46\u0d2f\u0d41\u0d02 \u0d15\u0d4a\u0d23\u0d4d\u0d1f\u0d41\u0d35\u0d28\u0d4d\u0d28\u0d41; \u0d2a\u0d41\u0d30\u0d4b\u0d39\u0d3f\u0d24\u0d28\u0d4d\u0d2e\u0d3e\u0d30\u0d41\u0d02 \u0d32\u0d47\u0d35\u0d4d\u0d2f\u0d30\u0d41\u0d2e\u0d24\u0d4d\u0d30\u0d47 \u0d05\u0d35\u0d2f\u0d46 \u0d15\u0d4a\u0d23\u0d4d\u0d1f\u0d41\u0d35\u0d28\u0d4d\u0d28\u0d24\u0d41. "
        },
        {
            "chapter": 8,
            "verse": 5,
            "name": "1 Kings 8:5",
            "text": "\u0d36\u0d32\u0d4b\u0d2e\u0d4b\u0d7b\u0d30\u0d3e\u0d1c\u0d3e\u0d35\u0d41\u0d02 \u0d05\u0d35\u0d28\u0d4d\u0d31\u0d46 \u0d05\u0d1f\u0d41\u0d15\u0d4d\u0d15\u0d7d \u0d35\u0d28\u0d4d\u0d28\u0d41\u0d15\u0d42\u0d1f\u0d3f\u0d2f \u0d2f\u0d3f\u0d38\u0d4d\u0d30\u0d3e\u0d2f\u0d47\u0d7d\u0d38\u0d2d \u0d12\u0d15\u0d4d\u0d15\u0d46\u0d2f\u0d41\u0d02 \u0d05\u0d35\u0d28\u0d4b\u0d1f\u0d41\u0d15\u0d42\u0d1f\u0d46 \u0d2a\u0d46\u0d1f\u0d4d\u0d1f\u0d15\u0d24\u0d4d\u0d24\u0d3f\u0d28\u0d4d\u0d28\u0d41 \u0d2e\u0d41\u0d2e\u0d4d\u0d2a\u0d3f\u0d7d \u0d0e\u0d23\u0d4d\u0d23\u0d35\u0d41\u0d02 \u0d15\u0d23\u0d15\u0d4d\u0d15\u0d41\u0d2e\u0d3f\u0d32\u0d4d\u0d32\u0d3e\u0d24\u0d46 \u0d05\u0d28\u0d35\u0d27\u0d3f \u0d06\u0d1f\u0d41\u0d15\u0d33\u0d46\u0d2f\u0d41\u0d02 \u0d15\u0d3e\u0d33\u0d15\u0d33\u0d46\u0d2f\u0d41\u0d02 \u0d2f\u0d3e\u0d17\u0d02 \u0d15\u0d34\u0d3f\u0d1a\u0d4d\u0d1a\u0d41. "
        },
        {
            "chapter": 8,
            "verse": 6,
            "name": "1 Kings 8:6",
            "text": "\u0d2a\u0d41\u0d30\u0d4b\u0d39\u0d3f\u0d24\u0d28\u0d4d\u0d2e\u0d3e\u0d7c \u0d2f\u0d39\u0d4b\u0d35\u0d2f\u0d41\u0d1f\u0d46 \u0d28\u0d3f\u0d2f\u0d2e\u0d2a\u0d46\u0d1f\u0d4d\u0d1f\u0d15\u0d02 \u0d05\u0d24\u0d3f\u0d28\u0d4d\u0d31\u0d46 \u0d38\u0d4d\u0d25\u0d32\u0d24\u0d4d\u0d24\u0d41, \u0d06\u0d32\u0d2f\u0d24\u0d4d\u0d24\u0d3f\u0d32\u0d46 \u0d05\u0d28\u0d4d\u0d24\u0d4e\u0d2e\u0d4d\u0d2e\u0d28\u0d4d\u0d26\u0d3f\u0d30\u0d24\u0d4d\u0d24\u0d3f\u0d7d \u0d05\u0d24\u0d3f\u0d35\u0d3f\u0d36\u0d41\u0d26\u0d4d\u0d27\u0d38\u0d4d\u0d25\u0d32\u0d24\u0d4d\u0d24\u0d41, \u0d15\u0d46\u0d30\u0d42\u0d2c\u0d41\u0d15\u0d33\u0d41\u0d1f\u0d46 \u0d1a\u0d3f\u0d31\u0d15\u0d3f\u0d7b \u0d15\u0d40\u0d34\u0d46 \u0d15\u0d4a\u0d23\u0d4d\u0d1f\u0d41\u0d1a\u0d46\u0d28\u0d4d\u0d28\u0d41 \u0d35\u0d46\u0d1a\u0d4d\u0d1a\u0d41. "
        },
        {
            "chapter": 8,
            "verse": 7,
            "name": "1 Kings 8:7",
            "text": "\u0d15\u0d46\u0d30\u0d42\u0d2c\u0d41\u0d15\u0d7e \u0d2a\u0d46\u0d1f\u0d4d\u0d1f\u0d15\u0d24\u0d4d\u0d24\u0d3f\u0d28\u0d4d\u0d31\u0d46 \u0d38\u0d4d\u0d25\u0d32\u0d24\u0d4d\u0d24\u0d3f\u0d28\u0d4d\u0d28\u0d41 \u0d2e\u0d40\u0d24\u0d46 \u0d1a\u0d3f\u0d31\u0d15\u0d41 \u0d35\u0d3f\u0d30\u0d3f\u0d1a\u0d4d\u0d1a\u0d41 \u0d2a\u0d46\u0d1f\u0d4d\u0d1f\u0d15\u0d24\u0d4d\u0d24\u0d46\u0d2f\u0d41\u0d02 \u0d05\u0d24\u0d3f\u0d28\u0d4d\u0d31\u0d46 \u0d24\u0d23\u0d4d\u0d1f\u0d41\u0d15\u0d33\u0d46\u0d2f\u0d41\u0d02 \u0d2e\u0d42\u0d1f\u0d3f\u0d28\u0d3f\u0d28\u0d4d\u0d28\u0d41. "
        },
        {
            "chapter": 8,
            "verse": 8,
            "name": "1 Kings 8:8",
            "text": "\u0d24\u0d23\u0d4d\u0d1f\u0d41\u0d15\u0d7e \u0d28\u0d40\u0d23\u0d4d\u0d1f\u0d3f\u0d30\u0d3f\u0d15\u0d4d\u0d15\u0d2f\u0d3e\u0d7d \u0d24\u0d23\u0d4d\u0d1f\u0d41\u0d15\u0d33\u0d41\u0d1f\u0d46 \u0d05\u0d31\u0d4d\u0d31\u0d19\u0d4d\u0d19\u0d7e \u0d05\u0d28\u0d4d\u0d24\u0d4e\u0d2e\u0d4d\u0d2e\u0d28\u0d4d\u0d26\u0d3f\u0d30\u0d24\u0d4d\u0d24\u0d3f\u0d28\u0d4d\u0d31\u0d46 \u0d2e\u0d41\u0d2e\u0d4d\u0d2a\u0d3f\u0d32\u0d41\u0d33\u0d4d\u0d33 \u0d35\u0d3f\u0d36\u0d41\u0d26\u0d4d\u0d27\u0d2e\u0d28\u0d4d\u0d26\u0d3f\u0d30\u0d24\u0d4d\u0d24\u0d3f\u0d7d\u0d28\u0d3f\u0d28\u0d4d\u0d28\u0d41 \u0d15\u0d3e\u0d23\u0d41\u0d02; \u0d0e\u0d19\u0d4d\u0d15\u0d3f\u0d32\u0d41\u0d02 \u0d2a\u0d41\u0d31\u0d24\u0d4d\u0d24\u0d41\u0d28\u0d3f\u0d28\u0d4d\u0d28\u0d41 \u0d15\u0d3e\u0d23\u0d41\u0d15\u0d2f\u0d3f\u0d32\u0d4d\u0d32; \u0d05\u0d35 \u0d07\u0d28\u0d4d\u0d28\u0d41\u0d35\u0d30\u0d46\u0d2f\u0d41\u0d02 \u0d05\u0d35\u0d3f\u0d1f\u0d46 \u0d07\u0d30\u0d3f\u0d15\u0d4d\u0d15\u0d41\u0d28\u0d4d\u0d28\u0d41. "
        },
        {
            "chapter": 8,
            "verse": 9,
            "name": "1 Kings 8:9",
            "text": "\u0d2f\u0d3f\u0d38\u0d4d\u0d30\u0d3e\u0d2f\u0d47\u0d7d\u0d2e\u0d15\u0d4d\u0d15\u0d7e \u0d2e\u0d3f\u0d38\u0d4d\u0d30\u0d2f\u0d40\u0d2e\u0d3f\u0d7d\u0d28\u0d3f\u0d28\u0d4d\u0d28\u0d41 \u0d2a\u0d41\u0d31\u0d2a\u0d4d\u0d2a\u0d46\u0d1f\u0d4d\u0d1f\u0d36\u0d47\u0d37\u0d02 \u0d2f\u0d39\u0d4b\u0d35 \u0d05\u0d35\u0d30\u0d4b\u0d1f\u0d41 \u0d28\u0d3f\u0d2f\u0d2e\u0d02 \u0d1a\u0d46\u0d2f\u0d4d\u0d24\u0d2a\u0d4d\u0d2a\u0d4b\u0d7e \u0d2e\u0d4b\u0d36\u0d46 \u0d39\u0d4b\u0d30\u0d47\u0d2c\u0d3f\u0d7d\u0d35\u0d46\u0d1a\u0d4d\u0d1a\u0d41 \u0d05\u0d24\u0d3f\u0d7d \u0d35\u0d46\u0d1a\u0d4d\u0d1a\u0d3f\u0d30\u0d41\u0d28\u0d4d\u0d28 \u0d30\u0d23\u0d4d\u0d1f\u0d41 \u0d15\u0d32\u0d4d\u0d2a\u0d32\u0d15\u0d2f\u0d32\u0d4d\u0d32\u0d3e\u0d24\u0d46 \u0d2a\u0d46\u0d1f\u0d4d\u0d1f\u0d15\u0d24\u0d4d\u0d24\u0d3f\u0d7d \u0d2e\u0d31\u0d4d\u0d31\u0d4a\u0d28\u0d4d\u0d28\u0d41\u0d02 \u0d09\u0d23\u0d4d\u0d1f\u0d3e\u0d2f\u0d3f\u0d30\u0d41\u0d28\u0d4d\u0d28\u0d3f\u0d32\u0d4d\u0d32; "
        },
        {
            "chapter": 8,
            "verse": 10,
            "name": "1 Kings 8:10",
            "text": "\u0d2a\u0d41\u0d30\u0d4b\u0d39\u0d3f\u0d24\u0d28\u0d4d\u0d2e\u0d3e\u0d7c \u0d35\u0d3f\u0d36\u0d41\u0d26\u0d4d\u0d27\u0d2e\u0d28\u0d4d\u0d26\u0d3f\u0d30\u0d24\u0d4d\u0d24\u0d3f\u0d7d\u0d28\u0d3f\u0d28\u0d4d\u0d28\u0d41 \u0d2a\u0d41\u0d31\u0d2a\u0d4d\u0d2a\u0d46\u0d1f\u0d4d\u0d1f\u0d2a\u0d4d\u0d2a\u0d4b\u0d7e \u0d2e\u0d47\u0d18\u0d02 \u0d2f\u0d39\u0d4b\u0d35\u0d2f\u0d41\u0d1f\u0d46 \u0d06\u0d32\u0d2f\u0d24\u0d4d\u0d24\u0d3f\u0d7d \u0d28\u0d3f\u0d31\u0d1e\u0d4d\u0d1e\u0d41. "
        },
        {
            "chapter": 8,
            "verse": 11,
            "name": "1 Kings 8:11",
            "text": "\u0d2f\u0d39\u0d4b\u0d35\u0d2f\u0d41\u0d1f\u0d46 \u0d24\u0d47\u0d1c\u0d38\u0d4d\u0d38\u0d41 \u0d2f\u0d39\u0d4b\u0d35\u0d2f\u0d41\u0d1f\u0d46 \u0d06\u0d32\u0d2f\u0d24\u0d4d\u0d24\u0d3f\u0d7d \u0d28\u0d3f\u0d31\u0d1e\u0d4d\u0d1e\u0d3f\u0d30\u0d41\u0d28\u0d4d\u0d28\u0d24\u0d41\u0d15\u0d4a\u0d23\u0d4d\u0d1f\u0d41 \u0d2e\u0d47\u0d18\u0d02\u0d28\u0d3f\u0d2e\u0d3f\u0d24\u0d4d\u0d24\u0d02 \u0d36\u0d41\u0d36\u0d4d\u0d30\u0d42\u0d37 \u0d1a\u0d46\u0d2f\u0d4d\u0d2f\u0d47\u0d23\u0d4d\u0d1f\u0d24\u0d3f\u0d28\u0d4d\u0d28\u0d41 \u0d28\u0d3f\u0d32\u0d4d\u0d2a\u0d3e\u0d7b \u0d2a\u0d41\u0d30\u0d4b\u0d39\u0d3f\u0d24\u0d28\u0d4d\u0d2e\u0d3e\u0d4e\u0d15\u0d4d\u0d15\u0d41 \u0d15\u0d34\u0d3f\u0d1e\u0d4d\u0d1e\u0d3f\u0d32\u0d4d\u0d32.   "
        },
        {
            "chapter": 8,
            "verse": 12,
            "name": "1 Kings 8:12",
            "text": "\u0d05\u0d2a\u0d4d\u0d2a\u0d4b\u0d7e \u0d36\u0d32\u0d4b\u0d2e\u0d4b\u0d7b: \u0d24\u0d3e\u0d7b \u0d15\u0d42\u0d30\u0d3f\u0d30\u0d41\u0d33\u0d3f\u0d7d \u0d35\u0d38\u0d3f\u0d15\u0d4d\u0d15\u0d41\u0d2e\u0d46\u0d28\u0d4d\u0d28\u0d41 \u0d2f\u0d39\u0d4b\u0d35 \u0d05\u0d30\u0d41\u0d33\u0d3f\u0d1a\u0d4d\u0d1a\u0d46\u0d2f\u0d4d\u0d24\u0d3f\u0d30\u0d3f\u0d15\u0d4d\u0d15\u0d41\u0d28\u0d4d\u0d28\u0d41; "
        },
        {
            "chapter": 8,
            "verse": 13,
            "name": "1 Kings 8:13",
            "text": "\u0d0e\u0d19\u0d4d\u0d15\u0d3f\u0d32\u0d41\u0d02 \u0d1e\u0d3e\u0d7b \u0d28\u0d3f\u0d28\u0d15\u0d4d\u0d15\u0d41 \u0d12\u0d30\u0d41 \u0d28\u0d3f\u0d35\u0d3e\u0d38\u0d3e\u0d32\u0d2f\u0d02, \u0d28\u0d3f\u0d28\u0d15\u0d4d\u0d15\u0d41 \u0d0e\u0d28\u0d4d\u0d28\u0d47\u0d15\u0d4d\u0d15\u0d41\u0d02 \u0d35\u0d38\u0d3f\u0d2a\u0d4d\u0d2a\u0d3e\u0d7b \u0d12\u0d30\u0d41 \u0d38\u0d4d\u0d25\u0d32\u0d02, \u0d2a\u0d23\u0d3f\u0d24\u0d3f\u0d30\u0d3f\u0d15\u0d4d\u0d15\u0d41\u0d28\u0d4d\u0d28\u0d41 \u0d0e\u0d28\u0d4d\u0d28\u0d41 \u0d2a\u0d31\u0d1e\u0d4d\u0d1e\u0d41. "
        },
        {
            "chapter": 8,
            "verse": 14,
            "name": "1 Kings 8:14",
            "text": "\u0d2a\u0d3f\u0d28\u0d4d\u0d28\u0d46 \u0d2f\u0d3f\u0d38\u0d4d\u0d30\u0d3e\u0d2f\u0d47\u0d7d\u0d38\u0d2d \u0d2e\u0d41\u0d34\u0d41\u0d35\u0d28\u0d41\u0d02 \u0d28\u0d3f\u0d28\u0d4d\u0d28\u0d41\u0d15\u0d4a\u0d23\u0d4d\u0d1f\u0d3f\u0d30\u0d3f\u0d15\u0d4d\u0d15\u0d46 \u0d30\u0d3e\u0d1c\u0d3e\u0d35\u0d41 \u0d2e\u0d41\u0d16\u0d02 \u0d24\u0d3f\u0d30\u0d3f\u0d1a\u0d4d\u0d1a\u0d41 \u0d2f\u0d3f\u0d38\u0d4d\u0d30\u0d3e\u0d2f\u0d47\u0d32\u0d3f\u0d28\u0d4d\u0d31\u0d46 \u0d38\u0d4e\u0d35\u0d4d\u0d35\u0d38\u0d2d\u0d2f\u0d46\u0d2f\u0d41\u0d02 \u0d05\u0d28\u0d41\u0d17\u0d4d\u0d30\u0d39\u0d3f\u0d1a\u0d4d\u0d1a\u0d41 \u0d2a\u0d31\u0d1e\u0d4d\u0d1e\u0d24\u0d41 \u0d0e\u0d28\u0d4d\u0d24\u0d46\u0d28\u0d4d\u0d28\u0d3e\u0d7d: "
        },
        {
            "chapter": 8,
            "verse": 15,
            "name": "1 Kings 8:15",
            "text": "\u0d0e\u0d28\u0d4d\u0d31\u0d46 \u0d05\u0d2a\u0d4d\u0d2a\u0d28\u0d3e\u0d2f \u0d26\u0d3e\u0d35\u0d40\u0d26\u0d3f\u0d28\u0d4b\u0d1f\u0d41 \u0d24\u0d3f\u0d30\u0d41\u0d35\u0d3e\u0d2f\u0d4d\u0d15\u0d4a\u0d23\u0d4d\u0d1f\u0d41 \u0d05\u0d30\u0d41\u0d33\u0d3f\u0d1a\u0d4d\u0d1a\u0d46\u0d2f\u0d4d\u0d24\u0d24\u0d41 \u0d24\u0d43\u0d15\u0d4d\u0d15\u0d48\u0d15\u0d4a\u0d23\u0d4d\u0d1f\u0d41 \u0d28\u0d3f\u0d35\u0d4e\u0d24\u0d4d\u0d24\u0d3f\u0d1a\u0d4d\u0d1a\u0d3f\u0d30\u0d3f\u0d15\u0d4d\u0d15\u0d41\u0d28\u0d4d\u0d28 \u0d2f\u0d3f\u0d38\u0d4d\u0d30\u0d3e\u0d2f\u0d47\u0d32\u0d3f\u0d28\u0d4d\u0d31\u0d46 \u0d26\u0d48\u0d35\u0d2e\u0d3e\u0d2f \u0d2f\u0d39\u0d4b\u0d35 \u0d35\u0d3e\u0d34\u0d4d\u0d24\u0d4d\u0d24\u0d2a\u0d4d\u0d2a\u0d46\u0d1f\u0d4d\u0d1f\u0d35\u0d7b. "
        },
        {
            "chapter": 8,
            "verse": 16,
            "name": "1 Kings 8:16",
            "text": "\u0d0e\u0d28\u0d4d\u0d31\u0d46 \u0d1c\u0d28\u0d2e\u0d3e\u0d2f \u0d2f\u0d3f\u0d38\u0d4d\u0d30\u0d3e\u0d2f\u0d47\u0d32\u0d3f\u0d28\u0d46 \u0d2e\u0d3f\u0d38\u0d4d\u0d30\u0d2f\u0d40\u0d2e\u0d3f\u0d7d\u0d28\u0d3f\u0d28\u0d4d\u0d28\u0d41 \u0d15\u0d4a\u0d23\u0d4d\u0d1f\u0d41\u0d35\u0d28\u0d4d\u0d28 \u0d28\u0d3e\u0d7e\u0d2e\u0d41\u0d24\u0d7d \u0d0e\u0d28\u0d4d\u0d31\u0d46 \u0d28\u0d3e\u0d2e\u0d02 \u0d07\u0d30\u0d3f\u0d15\u0d4d\u0d15\u0d47\u0d23\u0d4d\u0d1f\u0d24\u0d3f\u0d28\u0d4d\u0d28\u0d41 \u0d12\u0d30\u0d41 \u0d06\u0d32\u0d2f\u0d02 \u0d2a\u0d23\u0d3f\u0d35\u0d3e\u0d7b \u0d1e\u0d3e\u0d7b \u0d2f\u0d3f\u0d38\u0d4d\u0d30\u0d3e\u0d2f\u0d47\u0d32\u0d3f\u0d28\u0d4d\u0d31\u0d46 \u0d38\u0d15\u0d32\u0d17\u0d4b\u0d24\u0d4d\u0d30\u0d19\u0d4d\u0d19\u0d33\u0d3f\u0d32\u0d41\u0d02 \u0d12\u0d30\u0d41 \u0d2a\u0d1f\u0d4d\u0d1f\u0d23\u0d02 \u0d24\u0d3f\u0d30\u0d1e\u0d4d\u0d1e\u0d46\u0d1f\u0d41\u0d24\u0d4d\u0d24\u0d3f\u0d32\u0d4d\u0d32; \u0d0e\u0d28\u0d4d\u0d28\u0d3e\u0d7d \u0d0e\u0d28\u0d4d\u0d31\u0d46 \u0d1c\u0d28\u0d2e\u0d3e\u0d2f \u0d2f\u0d3f\u0d38\u0d4d\u0d30\u0d3e\u0d2f\u0d47\u0d32\u0d3f\u0d28\u0d4d\u0d28\u0d41 \u0d2a\u0d4d\u0d30\u0d2d\u0d41\u0d35\u0d3e\u0d2f\u0d3f\u0d30\u0d3f\u0d2a\u0d4d\u0d2a\u0d3e\u0d7b \u0d1e\u0d3e\u0d7b \u0d26\u0d3e\u0d35\u0d40\u0d26\u0d3f\u0d28\u0d46 \u0d24\u0d3f\u0d30\u0d1e\u0d4d\u0d1e\u0d46\u0d1f\u0d41\u0d24\u0d4d\u0d24\u0d41 \u0d0e\u0d28\u0d4d\u0d28\u0d41 \u0d05\u0d35\u0d7b \u0d05\u0d30\u0d41\u0d33\u0d3f\u0d1a\u0d4d\u0d1a\u0d46\u0d2f\u0d4d\u0d24\u0d41. "
        },
        {
            "chapter": 8,
            "verse": 17,
            "name": "1 Kings 8:17",
            "text": "\u0d2f\u0d3f\u0d38\u0d4d\u0d30\u0d3e\u0d2f\u0d47\u0d32\u0d3f\u0d28\u0d4d\u0d31\u0d46 \u0d26\u0d48\u0d35\u0d2e\u0d3e\u0d2f \u0d2f\u0d39\u0d4b\u0d35\u0d2f\u0d41\u0d1f\u0d46 \u0d28\u0d3e\u0d2e\u0d24\u0d4d\u0d24\u0d3f\u0d28\u0d4d\u0d28\u0d41 \u0d12\u0d30\u0d41 \u0d06\u0d32\u0d2f\u0d02 \u0d2a\u0d23\u0d3f\u0d2f\u0d47\u0d23\u0d02 \u0d0e\u0d28\u0d4d\u0d28\u0d41 \u0d0e\u0d28\u0d4d\u0d31\u0d46 \u0d05\u0d2a\u0d4d\u0d2a\u0d28\u0d3e\u0d2f \u0d26\u0d3e\u0d35\u0d40\u0d26\u0d3f\u0d28\u0d4d\u0d28\u0d41 \u0d24\u0d3e\u0d32\u0d4d\u0d2a\u0d4e\u0d2f\u0d4d\u0d2f\u0d02 \u0d09\u0d23\u0d4d\u0d1f\u0d3e\u0d2f\u0d3f\u0d30\u0d41\u0d28\u0d4d\u0d28\u0d41. "
        },
        {
            "chapter": 8,
            "verse": 18,
            "name": "1 Kings 8:18",
            "text": "\u0d0e\u0d28\u0d4d\u0d28\u0d3e\u0d7d \u0d2f\u0d39\u0d4b\u0d35 \u0d0e\u0d28\u0d4d\u0d31\u0d46 \u0d05\u0d2a\u0d4d\u0d2a\u0d28\u0d3e\u0d2f \u0d26\u0d3e\u0d35\u0d40\u0d26\u0d3f\u0d28\u0d4b\u0d1f\u0d41: \u0d0e\u0d28\u0d4d\u0d31\u0d46 \u0d28\u0d3e\u0d2e\u0d24\u0d4d\u0d24\u0d3f\u0d28\u0d4d\u0d28\u0d41 \u0d12\u0d30\u0d41 \u0d06\u0d32\u0d2f\u0d02 \u0d2a\u0d23\u0d3f\u0d2f\u0d47\u0d23\u0d2e\u0d46\u0d28\u0d4d\u0d28\u0d41 \u0d28\u0d3f\u0d28\u0d15\u0d4d\u0d15\u0d41 \u0d24\u0d3e\u0d32\u0d4d\u0d2a\u0d4e\u0d2f\u0d4d\u0d2f\u0d02 \u0d09\u0d23\u0d4d\u0d1f\u0d3e\u0d2f\u0d32\u0d4d\u0d32\u0d4b; \u0d05\u0d19\u0d4d\u0d19\u0d28\u0d46 \u0d24\u0d3e\u0d32\u0d4d\u0d2a\u0d4e\u0d2f\u0d4d\u0d2f\u0d02 \u0d09\u0d23\u0d4d\u0d1f\u0d3e\u0d2f\u0d24\u0d41 \u0d28\u0d32\u0d4d\u0d32\u0d24\u0d41. "
        },
        {
            "chapter": 8,
            "verse": 19,
            "name": "1 Kings 8:19",
            "text": "\u0d0e\u0d19\u0d4d\u0d15\u0d3f\u0d32\u0d41\u0d02 \u0d06\u0d32\u0d2f\u0d02 \u0d2a\u0d23\u0d3f\u0d2f\u0d47\u0d23\u0d4d\u0d1f\u0d24\u0d41 \u0d28\u0d40\u0d2f\u0d32\u0d4d\u0d32, \u0d28\u0d3f\u0d28\u0d4d\u0d31\u0d46 \u0d15\u0d1f\u0d3f\u0d2a\u0d4d\u0d30\u0d26\u0d47\u0d36\u0d24\u0d4d\u0d24\u0d41\u0d28\u0d3f\u0d28\u0d4d\u0d28\u0d41\u0d24\u0d4d\u0d2d\u0d35\u0d3f\u0d15\u0d4d\u0d15\u0d41\u0d28\u0d4d\u0d28 \u0d2e\u0d15\u0d7b \u0d24\u0d28\u0d4d\u0d28\u0d47 \u0d0e\u0d28\u0d4d\u0d31\u0d46 \u0d28\u0d3e\u0d2e\u0d24\u0d4d\u0d24\u0d3f\u0d28\u0d4d\u0d28\u0d41 \u0d06\u0d32\u0d2f\u0d02 \u0d2a\u0d23\u0d3f\u0d2f\u0d41\u0d02 \u0d0e\u0d28\u0d4d\u0d28\u0d41 \u0d15\u0d32\u0d4d\u0d2a\u0d3f\u0d1a\u0d4d\u0d1a\u0d41. "
        },
        {
            "chapter": 8,
            "verse": 20,
            "name": "1 Kings 8:20",
            "text": "\u0d05\u0d19\u0d4d\u0d19\u0d28\u0d46 \u0d2f\u0d39\u0d4b\u0d35 \u0d24\u0d3e\u0d7b \u0d05\u0d30\u0d41\u0d33\u0d3f\u0d1a\u0d4d\u0d1a\u0d46\u0d2f\u0d4d\u0d24 \u0d35\u0d1a\u0d28\u0d02 \u0d28\u0d3f\u0d35\u0d4e\u0d24\u0d4d\u0d24\u0d3f\u0d1a\u0d4d\u0d1a\u0d3f\u0d30\u0d3f\u0d15\u0d4d\u0d15\u0d41\u0d28\u0d4d\u0d28\u0d41; \u0d2f\u0d39\u0d4b\u0d35 \u0d35\u0d3e\u0d17\u0d4d\u0d26\u0d3e\u0d28\u0d02 \u0d1a\u0d46\u0d2f\u0d4d\u0d24\u0d24\u0d41\u0d2a\u0d4b\u0d32\u0d46 \u0d0e\u0d28\u0d4d\u0d31\u0d46 \u0d05\u0d2a\u0d4d\u0d2a\u0d28\u0d3e\u0d2f \u0d26\u0d3e\u0d35\u0d40\u0d26\u0d3f\u0d28\u0d4d\u0d28\u0d41 \u0d2a\u0d15\u0d30\u0d02 \u0d1e\u0d3e\u0d7b \u0d0e\u0d34\u0d41\u0d28\u0d4d\u0d28\u0d47\u0d31\u0d4d\u0d31\u0d41 \u0d2f\u0d3f\u0d38\u0d4d\u0d30\u0d3e\u0d2f\u0d47\u0d32\u0d3f\u0d28\u0d4d\u0d31\u0d46 \u0d38\u0d3f\u0d02\u0d39\u0d3e\u0d38\u0d28\u0d24\u0d4d\u0d24\u0d3f\u0d7d \u0d07\u0d30\u0d3f\u0d15\u0d4d\u0d15\u0d41\u0d28\u0d4d\u0d28\u0d41; \u0d2f\u0d3f\u0d38\u0d4d\u0d30\u0d3e\u0d2f\u0d47\u0d32\u0d3f\u0d28\u0d4d\u0d31\u0d46 \u0d26\u0d48\u0d35\u0d2e\u0d3e\u0d2f \u0d2f\u0d39\u0d4b\u0d35\u0d2f\u0d41\u0d1f\u0d46 \u0d28\u0d3e\u0d2e\u0d24\u0d4d\u0d24\u0d3f\u0d28\u0d4d\u0d28\u0d41 \u0d12\u0d30\u0d41 \u0d06\u0d32\u0d2f\u0d35\u0d41\u0d02 \u0d2a\u0d23\u0d3f\u0d24\u0d3f\u0d30\u0d3f\u0d15\u0d4d\u0d15\u0d41\u0d28\u0d4d\u0d28\u0d41. "
        },
        {
            "chapter": 8,
            "verse": 21,
            "name": "1 Kings 8:21",
            "text": "\u0d2f\u0d39\u0d4b\u0d35 \u0d28\u0d2e\u0d4d\u0d2e\u0d41\u0d1f\u0d46 \u0d2a\u0d3f\u0d24\u0d3e\u0d15\u0d4d\u0d15\u0d28\u0d4d\u0d2e\u0d3e\u0d30\u0d46 \u0d2e\u0d3f\u0d38\u0d4d\u0d30\u0d2f\u0d40\u0d02\u0d26\u0d47\u0d36\u0d24\u0d4d\u0d24\u0d41 \u0d28\u0d3f\u0d28\u0d4d\u0d28\u0d41 \u0d15\u0d4a\u0d23\u0d4d\u0d1f\u0d41\u0d35\u0d28\u0d4d\u0d28\u0d2a\u0d4d\u0d2a\u0d4b\u0d7e, \u0d05\u0d35\u0d30\u0d4b\u0d1f\u0d41 \u0d1a\u0d46\u0d2f\u0d4d\u0d24 \u0d28\u0d3f\u0d2f\u0d2e\u0d02 \u0d07\u0d30\u0d3f\u0d15\u0d4d\u0d15\u0d41\u0d28\u0d4d\u0d28 \u0d2a\u0d46\u0d1f\u0d4d\u0d1f\u0d15\u0d24\u0d4d\u0d24\u0d3f\u0d28\u0d4d\u0d28\u0d41 \u0d1e\u0d3e\u0d7b \u0d05\u0d24\u0d3f\u0d7d \u0d12\u0d30\u0d41 \u0d38\u0d4d\u0d25\u0d32\u0d02 \u0d12\u0d30\u0d3f\u0d15\u0d4d\u0d15\u0d3f\u0d2f\u0d3f\u0d30\u0d3f\u0d15\u0d4d\u0d15\u0d41\u0d28\u0d4d\u0d28\u0d41.   "
        },
        {
            "chapter": 8,
            "verse": 22,
            "name": "1 Kings 8:22",
            "text": "\u0d05\u0d28\u0d28\u0d4d\u0d24\u0d30\u0d02 \u0d36\u0d32\u0d4b\u0d2e\u0d4b\u0d7b \u0d2f\u0d39\u0d4b\u0d35\u0d2f\u0d41\u0d1f\u0d46 \u0d2f\u0d3e\u0d17\u0d2a\u0d40\u0d20\u0d24\u0d4d\u0d24\u0d3f\u0d7b\u0d2e\u0d41\u0d2e\u0d4d\u0d2a\u0d3f\u0d7d \u0d2f\u0d3f\u0d38\u0d4d\u0d30\u0d3e\u0d2f\u0d47\u0d32\u0d3f\u0d28\u0d4d\u0d31\u0d46 \u0d38\u0d4e\u0d35\u0d4d\u0d35\u0d38\u0d2d\u0d2f\u0d41\u0d1f\u0d46\u0d2f\u0d41\u0d02 \u0d38\u0d2e\u0d15\u0d4d\u0d37\u0d24\u0d4d\u0d24\u0d41 \u0d28\u0d3f\u0d28\u0d4d\u0d28\u0d41\u0d15\u0d4a\u0d23\u0d4d\u0d1f\u0d41 \u0d06\u0d15\u0d3e\u0d36\u0d24\u0d4d\u0d24\u0d3f\u0d32\u0d47\u0d15\u0d4d\u0d15\u0d41 \u0d15\u0d48\u0d2e\u0d32\u0d4e\u0d24\u0d4d\u0d24\u0d3f \u0d2a\u0d31\u0d1e\u0d4d\u0d1e\u0d24\u0d41 \u0d0e\u0d28\u0d4d\u0d24\u0d46\u0d28\u0d4d\u0d28\u0d3e\u0d7d: "
        },
        {
            "chapter": 8,
            "verse": 23,
            "name": "1 Kings 8:23",
            "text": "\u0d2f\u0d3f\u0d38\u0d4d\u0d30\u0d3e\u0d2f\u0d47\u0d32\u0d3f\u0d28\u0d4d\u0d31\u0d46 \u0d26\u0d48\u0d35\u0d2e\u0d3e\u0d2f \u0d2f\u0d39\u0d4b\u0d35\u0d47, \u0d2a\u0d42\u0d4e\u0d23\u0d4d\u0d23\u0d39\u0d43\u0d26\u0d2f\u0d24\u0d4d\u0d24\u0d4b\u0d1f\u0d46 \u0d28\u0d3f\u0d28\u0d4d\u0d31\u0d46 \u0d2e\u0d41\u0d2e\u0d4d\u0d2a\u0d3e\u0d15\u0d46 \u0d28\u0d1f\u0d15\u0d4d\u0d15\u0d41\u0d28\u0d4d\u0d28 \u0d28\u0d3f\u0d28\u0d4d\u0d31\u0d46 \u0d26\u0d3e\u0d38\u0d28\u0d4d\u0d2e\u0d3e\u0d4e\u0d15\u0d4d\u0d15\u0d3e\u0d2f\u0d3f \u0d28\u0d3f\u0d2f\u0d2e\u0d35\u0d41\u0d02 \u0d26\u0d2f\u0d2f\u0d41\u0d02 \u0d2a\u0d3e\u0d32\u0d3f\u0d15\u0d4d\u0d15\u0d41\u0d28\u0d4d\u0d28 \u0d28\u0d3f\u0d28\u0d4d\u0d28\u0d46\u0d2a\u0d4d\u0d2a\u0d4b\u0d32\u0d46 \u0d2e\u0d40\u0d24\u0d46 \u0d38\u0d4d\u0d35\u0d4e\u0d17\u0d4d\u0d17\u0d24\u0d4d\u0d24\u0d3f\u0d32\u0d41\u0d02 \u0d24\u0d3e\u0d34\u0d46 \u0d2d\u0d42\u0d2e\u0d3f\u0d2f\u0d3f\u0d32\u0d41\u0d02 \u0d2f\u0d3e\u0d24\u0d4a\u0d30\u0d41 \u0d26\u0d48\u0d35\u0d35\u0d41\u0d02 \u0d07\u0d32\u0d4d\u0d32. "
        },
        {
            "chapter": 8,
            "verse": 24,
            "name": "1 Kings 8:24",
            "text": "\u0d28\u0d40 \u0d0e\u0d28\u0d4d\u0d31\u0d46 \u0d05\u0d2a\u0d4d\u0d2a\u0d28\u0d3e\u0d2f \u0d26\u0d3e\u0d35\u0d40\u0d26\u0d4d \u0d0e\u0d28\u0d4d\u0d28 \u0d28\u0d3f\u0d28\u0d4d\u0d31\u0d46 \u0d26\u0d3e\u0d38\u0d28\u0d4d\u0d28\u0d41 \u0d1a\u0d46\u0d2f\u0d4d\u0d24 \u0d35\u0d3e\u0d17\u0d4d\u0d26\u0d3e\u0d28\u0d02 \u0d2a\u0d3e\u0d32\u0d3f\u0d1a\u0d4d\u0d1a\u0d3f\u0d30\u0d3f\u0d15\u0d4d\u0d15\u0d41\u0d28\u0d4d\u0d28\u0d41; \u0d24\u0d3f\u0d30\u0d41\u0d35\u0d3e\u0d2f\u0d4d\u0d15\u0d4a\u0d23\u0d4d\u0d1f\u0d41 \u0d05\u0d30\u0d41\u0d33\u0d3f\u0d1a\u0d4d\u0d1a\u0d46\u0d2f\u0d4d\u0d24\u0d24\u0d41 \u0d07\u0d28\u0d4d\u0d28\u0d41 \u0d15\u0d3e\u0d23\u0d41\u0d02\u0d2a\u0d4b\u0d32\u0d46 \u0d24\u0d43\u0d15\u0d4d\u0d15\u0d48\u0d15\u0d4a\u0d23\u0d4d\u0d1f\u0d41 \u0d28\u0d3f\u0d35\u0d4e\u0d24\u0d4d\u0d24\u0d3f\u0d1a\u0d4d\u0d1a\u0d41\u0d2e\u0d3f\u0d30\u0d3f\u0d15\u0d4d\u0d15\u0d41\u0d28\u0d4d\u0d28\u0d41. "
        },
        {
            "chapter": 8,
            "verse": 25,
            "name": "1 Kings 8:25",
            "text": "\u0d06\u0d15\u0d2f\u0d3e\u0d7d \u0d2f\u0d3f\u0d38\u0d4d\u0d30\u0d3e\u0d2f\u0d47\u0d32\u0d3f\u0d28\u0d4d\u0d31\u0d46 \u0d26\u0d48\u0d35\u0d2e\u0d3e\u0d2f \u0d2f\u0d39\u0d4b\u0d35\u0d47, \u0d28\u0d40 \u0d0e\u0d28\u0d4d\u0d31\u0d46 \u0d05\u0d2a\u0d4d\u0d2a\u0d28\u0d3e\u0d2f \u0d26\u0d3e\u0d35\u0d40\u0d26\u0d4d \u0d0e\u0d28\u0d4d\u0d28 \u0d28\u0d3f\u0d28\u0d4d\u0d31\u0d46 \u0d26\u0d3e\u0d38\u0d28\u0d4b\u0d1f\u0d41: \u0d28\u0d40 \u0d0e\u0d28\u0d4d\u0d31\u0d46 \u0d2e\u0d41\u0d2e\u0d4d\u0d2a\u0d3e\u0d15\u0d46 \u0d28\u0d1f\u0d28\u0d4d\u0d28\u0d24\u0d41\u0d2a\u0d4b\u0d32\u0d46 \u0d28\u0d3f\u0d28\u0d4d\u0d31\u0d46 \u0d2a\u0d41\u0d24\u0d4d\u0d30\u0d28\u0d4d\u0d2e\u0d3e\u0d30\u0d41\u0d02 \u0d0e\u0d28\u0d4d\u0d31\u0d46 \u0d2e\u0d41\u0d2e\u0d4d\u0d2a\u0d3e\u0d15\u0d46 \u0d28\u0d1f\u0d15\u0d4d\u0d15\u0d24\u0d4d\u0d24\u0d15\u0d4d\u0d15\u0d35\u0d23\u0d4d\u0d23\u0d02 \u0d24\u0d19\u0d4d\u0d19\u0d33\u0d41\u0d1f\u0d46 \u0d35\u0d34\u0d3f \u0d38\u0d42\u0d15\u0d4d\u0d37\u0d3f\u0d15\u0d4d\u0d15\u0d2e\u0d3e\u0d24\u0d4d\u0d30\u0d02 \u0d1a\u0d46\u0d2f\u0d4d\u0d24\u0d3e\u0d7d \u0d2f\u0d3f\u0d38\u0d4d\u0d30\u0d3e\u0d2f\u0d47\u0d32\u0d3f\u0d28\u0d4d\u0d31\u0d46 \u0d38\u0d3f\u0d02\u0d39\u0d3e\u0d38\u0d28\u0d24\u0d4d\u0d24\u0d3f\u0d7d \u0d07\u0d30\u0d3f\u0d2a\u0d4d\u0d2a\u0d3e\u0d7b \u0d28\u0d3f\u0d28\u0d15\u0d4d\u0d15\u0d41 \u0d12\u0d30\u0d41 \u0d2a\u0d41\u0d30\u0d41\u0d37\u0d7b \u0d0e\u0d28\u0d4d\u0d31\u0d46 \u0d2e\u0d41\u0d2e\u0d4d\u0d2a\u0d3e\u0d15\u0d46 \u0d07\u0d32\u0d4d\u0d32\u0d3e\u0d24\u0d46\u0d35\u0d30\u0d3f\u0d15\u0d2f\u0d3f\u0d32\u0d4d\u0d32 \u0d0e\u0d28\u0d4d\u0d28\u0d41 \u0d05\u0d30\u0d41\u0d33\u0d3f\u0d1a\u0d4d\u0d1a\u0d46\u0d2f\u0d4d\u0d24\u0d3f\u0d30\u0d3f\u0d15\u0d4d\u0d15\u0d41\u0d28\u0d4d\u0d28\u0d24\u0d41 \u0d28\u0d3f\u0d35\u0d4e\u0d24\u0d4d\u0d24\u0d3f\u0d15\u0d4d\u0d15\u0d47\u0d23\u0d2e\u0d47. "
        },
        {
            "chapter": 8,
            "verse": 26,
            "name": "1 Kings 8:26",
            "text": "\u0d07\u0d2a\u0d4d\u0d2a\u0d4b\u0d7e \u0d2f\u0d3f\u0d38\u0d4d\u0d30\u0d3e\u0d2f\u0d47\u0d32\u0d3f\u0d28\u0d4d\u0d31\u0d46 \u0d26\u0d48\u0d35\u0d2e\u0d47, \u0d0e\u0d28\u0d4d\u0d31\u0d46 \u0d05\u0d2a\u0d4d\u0d2a\u0d28\u0d3e\u0d2f \u0d26\u0d3e\u0d35\u0d40\u0d26\u0d4d \u0d0e\u0d28\u0d4d\u0d28 \u0d28\u0d3f\u0d28\u0d4d\u0d31\u0d46 \u0d26\u0d3e\u0d38\u0d28\u0d4b\u0d1f\u0d41 \u0d28\u0d40 \u0d05\u0d30\u0d41\u0d33\u0d3f\u0d1a\u0d4d\u0d1a\u0d46\u0d2f\u0d4d\u0d24 \u0d35\u0d1a\u0d28\u0d02 \u0d12\u0d24\u0d4d\u0d24\u0d41\u0d35\u0d30\u0d41\u0d2e\u0d3e\u0d31\u0d3e\u0d15\u0d1f\u0d4d\u0d1f\u0d46. "
        },
        {
            "chapter": 8,
            "verse": 27,
            "name": "1 Kings 8:27",
            "text": "\u0d0e\u0d28\u0d4d\u0d28\u0d3e\u0d7d \u0d26\u0d48\u0d35\u0d02 \u0d2f\u0d25\u0d3e\u0d4e\u0d24\u0d4d\u0d25\u0d2e\u0d3e\u0d2f\u0d3f \u0d2d\u0d42\u0d2e\u0d3f\u0d2f\u0d3f\u0d7d \u0d35\u0d38\u0d3f\u0d15\u0d4d\u0d15\u0d41\u0d2e\u0d4b? \u0d38\u0d4d\u0d35\u0d4e\u0d17\u0d4d\u0d17\u0d24\u0d4d\u0d24\u0d3f\u0d32\u0d41\u0d02 \u0d38\u0d4d\u0d35\u0d4e\u0d17\u0d4d\u0d17\u0d3e\u0d27\u0d3f\u0d38\u0d4d\u0d35\u0d4e\u0d17\u0d4d\u0d17\u0d24\u0d4d\u0d24\u0d3f\u0d32\u0d41\u0d02 \u0d28\u0d40 \u0d05\u0d1f\u0d19\u0d4d\u0d19\u0d41\u0d15\u0d2f\u0d3f\u0d32\u0d4d\u0d32\u0d32\u0d4d\u0d32\u0d4b; \u0d2a\u0d3f\u0d28\u0d4d\u0d28\u0d46 \u0d1e\u0d3e\u0d7b \u0d2a\u0d23\u0d3f\u0d24\u0d3f\u0d30\u0d3f\u0d15\u0d4d\u0d15\u0d41\u0d28\u0d4d\u0d28 \u0d08 \u0d06\u0d32\u0d2f\u0d24\u0d4d\u0d24\u0d3f\u0d7d \u0d05\u0d1f\u0d19\u0d4d\u0d19\u0d41\u0d28\u0d4d\u0d28\u0d24\u0d41 \u0d0e\u0d19\u0d4d\u0d19\u0d28\u0d46? "
        },
        {
            "chapter": 8,
            "verse": 28,
            "name": "1 Kings 8:28",
            "text": "\u0d0e\u0d19\u0d4d\u0d15\u0d3f\u0d32\u0d41\u0d02 \u0d0e\u0d28\u0d4d\u0d31\u0d46 \u0d26\u0d48\u0d35\u0d2e\u0d3e\u0d2f \u0d2f\u0d39\u0d4b\u0d35\u0d47, \u0d05\u0d1f\u0d3f\u0d2f\u0d7b \u0d07\u0d28\u0d4d\u0d28\u0d41 \u0d24\u0d3f\u0d30\u0d41\u0d2e\u0d41\u0d2e\u0d4d\u0d2a\u0d3f\u0d7d \u0d15\u0d34\u0d3f\u0d15\u0d4d\u0d15\u0d41\u0d28\u0d4d\u0d28 \u0d28\u0d3f\u0d32\u0d35\u0d3f\u0d33\u0d3f\u0d2f\u0d41\u0d02 \u0d2a\u0d4d\u0d30\u0d3e\u0d4e\u0d24\u0d4d\u0d25\u0d28\u0d2f\u0d41\u0d02 \u0d15\u0d47\u0d7e\u0d15\u0d4d\u0d15\u0d47\u0d23\u0d4d\u0d1f\u0d24\u0d3f\u0d28\u0d4d\u0d28\u0d41 \u0d05\u0d1f\u0d3f\u0d2f\u0d28\u0d4d\u0d31\u0d46 \u0d2a\u0d4d\u0d30\u0d3e\u0d4e\u0d24\u0d4d\u0d25\u0d28\u0d2f\u0d3f\u0d32\u0d47\u0d15\u0d4d\u0d15\u0d41\u0d02 \u0d2f\u0d3e\u0d1a\u0d28\u0d2f\u0d3f\u0d32\u0d47\u0d15\u0d4d\u0d15\u0d41\u0d02 \u0d24\u0d3f\u0d30\u0d3f\u0d1e\u0d4d\u0d1e\u0d41 \u0d15\u0d1f\u0d3e\u0d15\u0d4d\u0d37\u0d3f\u0d15\u0d4d\u0d15\u0d47\u0d23\u0d2e\u0d47. "
        },
        {
            "chapter": 8,
            "verse": 29,
            "name": "1 Kings 8:29",
            "text": "\u0d05\u0d1f\u0d3f\u0d2f\u0d7b \u0d08 \u0d38\u0d4d\u0d25\u0d32\u0d24\u0d4d\u0d24\u0d41\u0d35\u0d46\u0d1a\u0d4d\u0d1a\u0d41 \u0d15\u0d34\u0d3f\u0d15\u0d4d\u0d15\u0d41\u0d28\u0d4d\u0d28 \u0d2a\u0d4d\u0d30\u0d3e\u0d4e\u0d24\u0d4d\u0d25\u0d28 \u0d15\u0d47\u0d7e\u0d15\u0d4d\u0d15\u0d47\u0d23\u0d4d\u0d1f\u0d24\u0d3f\u0d28\u0d4d\u0d28\u0d41 \u0d28\u0d3f\u0d28\u0d4d\u0d31\u0d46 \u0d28\u0d3e\u0d2e\u0d02 \u0d09\u0d23\u0d4d\u0d1f\u0d3e\u0d2f\u0d3f\u0d30\u0d3f\u0d15\u0d4d\u0d15\u0d41\u0d2e\u0d46\u0d28\u0d4d\u0d28\u0d41 \u0d28\u0d40 \u0d05\u0d30\u0d41\u0d33\u0d3f\u0d1a\u0d4d\u0d1a\u0d46\u0d2f\u0d4d\u0d24 \u0d38\u0d4d\u0d25\u0d32\u0d2e\u0d3e\u0d2f \u0d08 \u0d06\u0d32\u0d2f\u0d24\u0d4d\u0d24\u0d3f\u0d32\u0d47\u0d15\u0d4d\u0d15\u0d41 \u0d30\u0d3e\u0d35\u0d41\u0d02 \u0d2a\u0d15\u0d32\u0d41\u0d02 \u0d24\u0d43\u0d15\u0d4d\u0d15\u0d7a\u0d2a\u0d3e\u0d4e\u0d24\u0d4d\u0d24\u0d30\u0d41\u0d33\u0d47\u0d23\u0d2e\u0d47, "
        },
        {
            "chapter": 8,
            "verse": 30,
            "name": "1 Kings 8:30",
            "text": "\u0d08 \u0d38\u0d4d\u0d25\u0d32\u0d24\u0d4d\u0d24\u0d41\u0d35\u0d46\u0d1a\u0d4d\u0d1a\u0d41 \u0d2a\u0d4d\u0d30\u0d3e\u0d4e\u0d24\u0d4d\u0d25\u0d3f\u0d2a\u0d4d\u0d2a\u0d3e\u0d28\u0d3f\u0d30\u0d3f\u0d15\u0d4d\u0d15\u0d41\u0d28\u0d4d\u0d28 \u0d05\u0d1f\u0d3f\u0d2f\u0d28\u0d4d\u0d31\u0d46\u0d2f\u0d41\u0d02 \u0d28\u0d3f\u0d28\u0d4d\u0d31\u0d46 \u0d1c\u0d28\u0d2e\u0d3e\u0d2f \u0d2f\u0d3f\u0d38\u0d4d\u0d30\u0d3e\u0d2f\u0d47\u0d32\u0d3f\u0d28\u0d4d\u0d31\u0d46\u0d2f\u0d41\u0d02 \u0d2f\u0d3e\u0d1a\u0d28 \u0d15\u0d47\u0d7e\u0d15\u0d4d\u0d15\u0d47\u0d23\u0d2e\u0d47. \u0d28\u0d3f\u0d28\u0d4d\u0d31\u0d46 \u0d35\u0d3e\u0d38\u0d38\u0d4d\u0d25\u0d32\u0d2e\u0d3e\u0d2f \u0d38\u0d4d\u0d35\u0d4e\u0d17\u0d4d\u0d17\u0d24\u0d4d\u0d24\u0d3f\u0d7d \u0d15\u0d47\u0d7e\u0d15\u0d4d\u0d15\u0d47\u0d23\u0d2e\u0d47; \u0d15\u0d47\u0d1f\u0d4d\u0d1f\u0d41 \u0d15\u0d4d\u0d37\u0d2e\u0d3f\u0d15\u0d4d\u0d15\u0d47\u0d23\u0d2e\u0d47. "
        },
        {
            "chapter": 8,
            "verse": 31,
            "name": "1 Kings 8:31",
            "text": "\u0d12\u0d30\u0d41\u0d24\u0d4d\u0d24\u0d7b \u0d24\u0d28\u0d4d\u0d31\u0d46 \u0d15\u0d42\u0d1f\u0d4d\u0d1f\u0d41\u0d15\u0d3e\u0d30\u0d28\u0d4b\u0d1f\u0d41 \u0d15\u0d41\u0d31\u0d4d\u0d31\u0d02 \u0d1a\u0d46\u0d2f\u0d4d\u0d15\u0d2f\u0d41\u0d02 \u0d05\u0d35\u0d7b \u0d05\u0d35\u0d28\u0d46\u0d15\u0d4d\u0d15\u0d4a\u0d23\u0d4d\u0d1f\u0d41 \u0d38\u0d24\u0d4d\u0d2f\u0d02 \u0d1a\u0d46\u0d2f\u0d4d\u0d2f\u0d3f\u0d15\u0d4d\u0d15\u0d47\u0d23\u0d4d\u0d1f\u0d24\u0d3f\u0d28\u0d4d\u0d28\u0d41 \u0d15\u0d3e\u0d4e\u0d2f\u0d4d\u0d2f\u0d02 \u0d38\u0d24\u0d4d\u0d2f\u0d24\u0d4d\u0d24\u0d3f\u0d28\u0d4d\u0d28\u0d41 \u0d35\u0d46\u0d15\u0d4d\u0d15\u0d41\u0d15\u0d2f\u0d41\u0d02 \u0d05\u0d35\u0d7b \u0d08 \u0d06\u0d32\u0d2f\u0d24\u0d4d\u0d24\u0d3f\u0d7d \u0d28\u0d3f\u0d28\u0d4d\u0d31\u0d46 \u0d2f\u0d3e\u0d17\u0d2a\u0d40\u0d20\u0d24\u0d4d\u0d24\u0d3f\u0d28\u0d4d\u0d28\u0d41 \u0d2e\u0d41\u0d2e\u0d4d\u0d2a\u0d3e\u0d15\u0d46 \u0d35\u0d28\u0d4d\u0d28\u0d41 \u0d38\u0d24\u0d4d\u0d2f\u0d02 \u0d1a\u0d46\u0d2f\u0d4d\u0d15\u0d2f\u0d41\u0d02 \u0d1a\u0d46\u0d2f\u0d4d\u0d24\u0d3e\u0d7d "
        },
        {
            "chapter": 8,
            "verse": 32,
            "name": "1 Kings 8:32",
            "text": "\u0d28\u0d40 \u0d38\u0d4d\u0d35\u0d4e\u0d17\u0d4d\u0d17\u0d24\u0d4d\u0d24\u0d3f\u0d7d \u0d15\u0d47\u0d1f\u0d4d\u0d1f\u0d41 \u0d2a\u0d4d\u0d30\u0d35\u0d4e\u0d24\u0d4d\u0d24\u0d3f\u0d1a\u0d4d\u0d1a\u0d41, \u0d26\u0d41\u0d37\u0d4d\u0d1f\u0d28\u0d4d\u0d31\u0d46 \u0d28\u0d1f\u0d2a\u0d4d\u0d2a\u0d41 \u0d05\u0d35\u0d28\u0d4d\u0d31\u0d46 \u0d24\u0d32\u0d2e\u0d47\u0d7d \u0d35\u0d30\u0d41\u0d24\u0d4d\u0d24\u0d3f \u0d05\u0d35\u0d28\u0d46 \u0d36\u0d3f\u0d15\u0d4d\u0d37\u0d3f\u0d2a\u0d4d\u0d2a\u0d3e\u0d28\u0d41\u0d02 \u0d28\u0d40\u0d24\u0d3f\u0d2e\u0d3e\u0d28\u0d4d\u0d31\u0d46 \u0d28\u0d40\u0d24\u0d3f\u0d15\u0d4d\u0d15\u0d41 \u0d24\u0d15\u0d4d\u0d15\u0d35\u0d23\u0d4d\u0d23\u0d02 \u0d05\u0d35\u0d28\u0d4d\u0d28\u0d41 \u0d28\u0d32\u0d4d\u0d15\u0d3f \u0d05\u0d35\u0d28\u0d46 \u0d28\u0d40\u0d24\u0d40\u0d15\u0d30\u0d3f\u0d2a\u0d4d\u0d2a\u0d3e\u0d28\u0d41\u0d02 \u0d05\u0d1f\u0d3f\u0d2f\u0d19\u0d4d\u0d19\u0d7e\u0d15\u0d4d\u0d15\u0d41 \u0d28\u0d4d\u0d2f\u0d3e\u0d2f\u0d02 \u0d2a\u0d3e\u0d32\u0d3f\u0d1a\u0d4d\u0d1a\u0d41\u0d24\u0d30\u0d47\u0d23\u0d2e\u0d47. "
        },
        {
            "chapter": 8,
            "verse": 33,
            "name": "1 Kings 8:33",
            "text": "\u0d28\u0d3f\u0d28\u0d4d\u0d31\u0d46 \u0d1c\u0d28\u0d2e\u0d3e\u0d2f \u0d2f\u0d3f\u0d38\u0d4d\u0d30\u0d3e\u0d2f\u0d47\u0d7d \u0d28\u0d3f\u0d28\u0d4d\u0d28\u0d4b\u0d1f\u0d41 \u0d2a\u0d3e\u0d2a\u0d02 \u0d1a\u0d46\u0d2f\u0d4d\u0d15\u0d28\u0d3f\u0d2e\u0d3f\u0d24\u0d4d\u0d24\u0d02 \u0d05\u0d35\u0d7c \u0d36\u0d24\u0d4d\u0d30\u0d41\u0d35\u0d3f\u0d28\u0d4b\u0d1f\u0d41 \u0d24\u0d4b\u0d31\u0d4d\u0d31\u0d3f\u0d1f\u0d4d\u0d1f\u0d41 \u0d28\u0d3f\u0d19\u0d4d\u0d15\u0d32\u0d47\u0d15\u0d4d\u0d15\u0d41 \u0d24\u0d3f\u0d30\u0d3f\u0d1e\u0d4d\u0d1e\u0d41 \u0d28\u0d3f\u0d28\u0d4d\u0d31\u0d46 \u0d28\u0d3e\u0d2e\u0d24\u0d4d\u0d24\u0d46 \u0d38\u0d4d\u0d35\u0d40\u0d15\u0d30\u0d3f\u0d1a\u0d4d\u0d1a\u0d41\u0d15\u0d4a\u0d23\u0d4d\u0d1f\u0d41 \u0d08 \u0d06\u0d32\u0d2f\u0d24\u0d4d\u0d24\u0d3f\u0d7d\u0d35\u0d46\u0d1a\u0d4d\u0d1a\u0d41 \u0d28\u0d3f\u0d28\u0d4d\u0d28\u0d4b\u0d1f\u0d41 \u0d2a\u0d4d\u0d30\u0d3e\u0d4e\u0d24\u0d4d\u0d25\u0d3f\u0d15\u0d4d\u0d15\u0d2f\u0d41\u0d02 \u0d2f\u0d3e\u0d1a\u0d3f\u0d15\u0d4d\u0d15\u0d2f\u0d41\u0d02 \u0d1a\u0d46\u0d2f\u0d4d\u0d24\u0d3e\u0d7d "
        },
        {
            "chapter": 8,
            "verse": 34,
            "name": "1 Kings 8:34",
            "text": "\u0d28\u0d40 \u0d38\u0d4d\u0d35\u0d4e\u0d17\u0d4d\u0d17\u0d24\u0d4d\u0d24\u0d3f\u0d7d \u0d15\u0d47\u0d1f\u0d4d\u0d1f\u0d41 \u0d28\u0d3f\u0d28\u0d4d\u0d31\u0d46 \u0d1c\u0d28\u0d2e\u0d3e\u0d2f \u0d2f\u0d3f\u0d38\u0d4d\u0d30\u0d3e\u0d2f\u0d47\u0d32\u0d3f\u0d28\u0d4d\u0d31\u0d46 \u0d2a\u0d3e\u0d2a\u0d02 \u0d15\u0d4d\u0d37\u0d2e\u0d3f\u0d1a\u0d4d\u0d1a\u0d41 \u0d05\u0d35\u0d30\u0d41\u0d1f\u0d46 \u0d2a\u0d3f\u0d24\u0d3e\u0d15\u0d4d\u0d15\u0d28\u0d4d\u0d2e\u0d3e\u0d4e\u0d15\u0d4d\u0d15\u0d41 \u0d15\u0d4a\u0d1f\u0d41\u0d24\u0d4d\u0d24 \u0d26\u0d47\u0d36\u0d24\u0d4d\u0d24\u0d47\u0d15\u0d4d\u0d15\u0d41 \u0d05\u0d35\u0d30\u0d46 \u0d2e\u0d1f\u0d15\u0d4d\u0d15\u0d3f\u0d35\u0d30\u0d41\u0d24\u0d4d\u0d24\u0d47\u0d23\u0d2e\u0d47. "
        },
        {
            "chapter": 8,
            "verse": 35,
            "name": "1 Kings 8:35",
            "text": "\u0d05\u0d35\u0d7c \u0d28\u0d3f\u0d28\u0d4d\u0d28\u0d4b\u0d1f\u0d41 \u0d2a\u0d3e\u0d2a\u0d02 \u0d1a\u0d46\u0d2f\u0d4d\u0d15\u0d15\u0d4a\u0d23\u0d4d\u0d1f\u0d41 \u0d06\u0d15\u0d3e\u0d36\u0d02 \u0d05\u0d1f\u0d1e\u0d4d\u0d1e\u0d41 \u0d2e\u0d34\u0d2a\u0d46\u0d2f\u0d4d\u0d2f\u0d3e\u0d24\u0d3f\u0d30\u0d3f\u0d15\u0d4d\u0d15\u0d41\u0d2e\u0d4d\u0d2a\u0d4b\u0d7e \u0d05\u0d35\u0d7c \u0d08 \u0d38\u0d4d\u0d25\u0d32\u0d24\u0d4d\u0d24\u0d47\u0d15\u0d4d\u0d15\u0d41 \u0d24\u0d3f\u0d30\u0d3f\u0d1e\u0d4d\u0d1e\u0d41 \u0d2a\u0d4d\u0d30\u0d3e\u0d4e\u0d24\u0d4d\u0d25\u0d3f\u0d1a\u0d4d\u0d1a\u0d41 \u0d28\u0d3f\u0d28\u0d4d\u0d31\u0d46 \u0d28\u0d3e\u0d2e\u0d24\u0d4d\u0d24\u0d46 \u0d38\u0d4d\u0d35\u0d40\u0d15\u0d30\u0d3f\u0d15\u0d4d\u0d15\u0d2f\u0d41\u0d02 \u0d28\u0d40 \u0d05\u0d35\u0d30\u0d46 \u0d24\u0d3e\u0d34\u0d4d\u0d24\u0d4d\u0d24\u0d3f\u0d2f\u0d24\u0d41\u0d15\u0d4a\u0d23\u0d4d\u0d1f\u0d41 \u0d05\u0d35\u0d7c \u0d24\u0d19\u0d4d\u0d19\u0d33\u0d41\u0d1f\u0d46 \u0d2a\u0d3e\u0d2a\u0d19\u0d4d\u0d19\u0d33\u0d46 \u0d35\u0d3f\u0d1f\u0d4d\u0d1f\u0d41\u0d24\u0d30\u0d3f\u0d15\u0d2f\u0d41\u0d02 \u0d1a\u0d46\u0d2f\u0d4d\u0d24\u0d3e\u0d7d "
        },
        {
            "chapter": 8,
            "verse": 36,
            "name": "1 Kings 8:36",
            "text": "\u0d28\u0d40 \u0d38\u0d4d\u0d35\u0d4e\u0d17\u0d4d\u0d17\u0d24\u0d4d\u0d24\u0d3f\u0d7d \u0d15\u0d47\u0d1f\u0d4d\u0d1f\u0d41 \u0d28\u0d3f\u0d28\u0d4d\u0d31\u0d46 \u0d26\u0d3e\u0d38\u0d28\u0d4d\u0d2e\u0d3e\u0d30\u0d41\u0d1f\u0d46\u0d2f\u0d41\u0d02 \u0d28\u0d3f\u0d28\u0d4d\u0d31\u0d46 \u0d1c\u0d28\u0d2e\u0d3e\u0d2f \u0d2f\u0d3f\u0d38\u0d4d\u0d30\u0d3e\u0d2f\u0d47\u0d32\u0d3f\u0d28\u0d4d\u0d31\u0d46\u0d2f\u0d41\u0d02 \u0d2a\u0d3e\u0d2a\u0d02 \u0d15\u0d4d\u0d37\u0d2e\u0d3f\u0d1a\u0d4d\u0d1a\u0d41, \u0d05\u0d35\u0d7c \u0d28\u0d1f\u0d15\u0d4d\u0d15\u0d47\u0d23\u0d4d\u0d1f\u0d41\u0d28\u0d4d\u0d28 \u0d28\u0d32\u0d4d\u0d32 \u0d35\u0d34\u0d3f \u0d05\u0d35\u0d30\u0d46 \u0d09\u0d2a\u0d26\u0d47\u0d36\u0d3f\u0d15\u0d4d\u0d15\u0d2f\u0d41\u0d02 \u0d28\u0d3f\u0d28\u0d4d\u0d31\u0d46 \u0d1c\u0d28\u0d24\u0d4d\u0d24\u0d3f\u0d28\u0d4d\u0d28\u0d41 \u0d05\u0d35\u0d15\u0d3e\u0d36\u0d2e\u0d3e\u0d2f\u0d3f \u0d15\u0d4a\u0d1f\u0d41\u0d24\u0d4d\u0d24 \u0d28\u0d3f\u0d28\u0d4d\u0d31\u0d46 \u0d26\u0d47\u0d36\u0d24\u0d4d\u0d24\u0d41 \u0d2e\u0d34 \u0d2a\u0d46\u0d2f\u0d4d\u0d2f\u0d3f\u0d15\u0d4d\u0d15\u0d2f\u0d41\u0d02 \u0d1a\u0d46\u0d2f\u0d4d\u0d2f\u0d47\u0d23\u0d2e\u0d47. "
        },
        {
            "chapter": 8,
            "verse": 37,
            "name": "1 Kings 8:37",
            "text": "\u0d26\u0d47\u0d36\u0d24\u0d4d\u0d24\u0d41 \u0d15\u0d4d\u0d37\u0d3e\u0d2e\u0d2e\u0d4b \u0d2e\u0d39\u0d3e\u0d2e\u0d3e\u0d30\u0d3f\u0d2f\u0d4b \u0d35\u0d46\u0d7a\u0d15\u0d24\u0d3f\u0d7c, \u0d35\u0d3f\u0d37\u0d2e\u0d1e\u0d4d\u0d1e\u0d41, \u0d35\u0d46\u0d1f\u0d4d\u0d1f\u0d41\u0d15\u0d4d\u0d15\u0d3f\u0d33\u0d3f, \u0d24\u0d41\u0d33\u0d4d\u0d33\u0d7b \u0d0e\u0d28\u0d4d\u0d28\u0d3f\u0d35\u0d2f\u0d4b \u0d09\u0d23\u0d4d\u0d1f\u0d3e\u0d2f\u0d3e\u0d7d \u0d05\u0d35\u0d30\u0d41\u0d1f\u0d46 \u0d36\u0d24\u0d4d\u0d30\u0d41 \u0d05\u0d35\u0d30\u0d41\u0d1f\u0d46 \u0d2a\u0d1f\u0d4d\u0d1f\u0d23\u0d19\u0d4d\u0d19\u0d33\u0d41\u0d33\u0d4d\u0d33 \u0d26\u0d47\u0d36\u0d24\u0d4d\u0d24\u0d41 \u0d05\u0d35\u0d30\u0d46 \u0d28\u0d3f\u0d30\u0d4b\u0d27\u0d3f\u0d1a\u0d4d\u0d1a\u0d3e\u0d7d \u0d35\u0d32\u0d4d\u0d32 \u0d35\u0d4d\u0d2f\u0d3e\u0d27\u0d3f\u0d2f\u0d4b \u0d35\u0d32\u0d4d\u0d32 \u0d26\u0d40\u0d28\u0d2e\u0d4b \u0d09\u0d23\u0d4d\u0d1f\u0d3e\u0d2f\u0d3e\u0d7d \u0d2f\u0d3e\u0d24\u0d4a\u0d30\u0d41\u0d24\u0d4d\u0d24\u0d28\u0d46\u0d19\u0d4d\u0d15\u0d3f\u0d32\u0d41\u0d02 "
        },
        {
            "chapter": 8,
            "verse": 38,
            "name": "1 Kings 8:38",
            "text": "\u0d28\u0d3f\u0d28\u0d4d\u0d31\u0d46 \u0d1c\u0d28\u0d2e\u0d3e\u0d2f \u0d2f\u0d3f\u0d38\u0d4d\u0d30\u0d3e\u0d2f\u0d47\u0d7d \u0d2e\u0d41\u0d34\u0d41\u0d35\u0d28\u0d46\u0d19\u0d4d\u0d15\u0d3f\u0d32\u0d41\u0d02 \u0d35\u0d32\u0d4d\u0d32 \u0d2a\u0d4d\u0d30\u0d3e\u0d4e\u0d24\u0d4d\u0d25\u0d28\u0d2f\u0d41\u0d02 \u0d2f\u0d3e\u0d1a\u0d28\u0d2f\u0d41\u0d02 \u0d15\u0d34\u0d3f\u0d15\u0d4d\u0d15\u0d2f\u0d41\u0d02 \u0d13\u0d30\u0d4b\u0d30\u0d41\u0d24\u0d4d\u0d24\u0d7b \u0d24\u0d3e\u0d28\u0d4d\u0d24\u0d3e\u0d28\u0d4d\u0d31\u0d46 \u0d2e\u0d28\u0d03\u0d2a\u0d40\u0d21 \u0d05\u0d31\u0d3f\u0d1e\u0d4d\u0d1e\u0d41 \u0d08 \u0d06\u0d32\u0d2f\u0d24\u0d4d\u0d24\u0d3f\u0d19\u0d4d\u0d15\u0d32\u0d47\u0d15\u0d4d\u0d15\u0d41 \u0d15\u0d48 \u0d2e\u0d32\u0d4e\u0d24\u0d4d\u0d24\u0d41\u0d15\u0d2f\u0d41\u0d02 \u0d1a\u0d46\u0d2f\u0d4d\u0d24\u0d3e\u0d7d "
        },
        {
            "chapter": 8,
            "verse": 39,
            "name": "1 Kings 8:39",
            "text": "\u0d28\u0d40 \u0d28\u0d3f\u0d28\u0d4d\u0d31\u0d46 \u0d35\u0d3e\u0d38\u0d38\u0d4d\u0d25\u0d32\u0d2e\u0d3e\u0d2f \u0d38\u0d4d\u0d35\u0d4e\u0d17\u0d4d\u0d17\u0d24\u0d4d\u0d24\u0d3f\u0d7d \u0d15\u0d47\u0d1f\u0d4d\u0d1f\u0d41 \u0d15\u0d4d\u0d37\u0d2e\u0d3f\u0d15\u0d4d\u0d15\u0d2f\u0d41\u0d02 "
        },
        {
            "chapter": 8,
            "verse": 40,
            "name": "1 Kings 8:40",
            "text": "\u0d1e\u0d19\u0d4d\u0d19\u0d33\u0d41\u0d1f\u0d46 \u0d2a\u0d3f\u0d24\u0d3e\u0d15\u0d4d\u0d15\u0d28\u0d4d\u0d2e\u0d3e\u0d4e\u0d15\u0d4d\u0d15\u0d41 \u0d28\u0d40 \u0d15\u0d4a\u0d1f\u0d41\u0d24\u0d4d\u0d24 \u0d26\u0d47\u0d36\u0d24\u0d4d\u0d24\u0d41 \u0d05\u0d35\u0d7c \u0d1c\u0d40\u0d35\u0d3f\u0d1a\u0d4d\u0d1a\u0d3f\u0d30\u0d3f\u0d15\u0d4d\u0d15\u0d41\u0d02 \u0d15\u0d3e\u0d32\u0d24\u0d4d\u0d24\u0d4a\u0d15\u0d4d\u0d15\u0d46\u0d2f\u0d41\u0d02 \u0d28\u0d3f\u0d28\u0d4d\u0d28\u0d46 \u0d2d\u0d2f\u0d2a\u0d4d\u0d2a\u0d46\u0d1f\u0d47\u0d23\u0d4d\u0d1f\u0d24\u0d3f\u0d28\u0d4d\u0d28\u0d41 \u0d28\u0d40 \u0d13\u0d30\u0d4b\u0d30\u0d41\u0d24\u0d4d\u0d24\u0d28\u0d4d\u0d31\u0d46 \u0d39\u0d43\u0d26\u0d2f\u0d24\u0d4d\u0d24\u0d46 \u0d05\u0d31\u0d3f\u0d2f\u0d41\u0d28\u0d4d\u0d28\u0d24\u0d41\u0d2a\u0d4b\u0d32\u0d46 \u0d13\u0d30\u0d3e\u0d30\u0d41\u0d24\u0d4d\u0d24\u0d28\u0d4d\u0d28\u0d41 \u0d05\u0d35\u0d28\u0d35\u0d28\u0d4d\u0d31\u0d46 \u0d28\u0d1f\u0d2a\u0d4d\u0d2a\u0d41\u0d2a\u0d4b\u0d32\u0d46\u0d2f\u0d4a\u0d15\u0d4d\u0d15\u0d46\u0d2f\u0d41\u0d02 \u0d1a\u0d46\u0d2f\u0d4d\u0d24\u0d30\u0d41\u0d33\u0d47\u0d23\u0d2e\u0d47; \u0d28\u0d40 \u0d2e\u0d3e\u0d24\u0d4d\u0d30\u0d2e\u0d32\u0d4d\u0d32\u0d4b \u0d38\u0d15\u0d32\u0d2e\u0d28\u0d41\u0d37\u0d4d\u0d2f\u0d2a\u0d41\u0d24\u0d4d\u0d30\u0d28\u0d4d\u0d2e\u0d3e\u0d30\u0d41\u0d1f\u0d46\u0d2f\u0d41\u0d02 \u0d39\u0d43\u0d26\u0d2f\u0d24\u0d4d\u0d24\u0d46 \u0d05\u0d31\u0d3f\u0d2f\u0d41\u0d28\u0d4d\u0d28\u0d24\u0d41. "
        },
        {
            "chapter": 8,
            "verse": 41,
            "name": "1 Kings 8:41",
            "text": "\u0d05\u0d24\u0d4d\u0d30\u0d2f\u0d41\u0d2e\u0d32\u0d4d\u0d32, \u0d28\u0d3f\u0d28\u0d4d\u0d31\u0d46 \u0d1c\u0d28\u0d2e\u0d3e\u0d2f \u0d2f\u0d3f\u0d38\u0d4d\u0d30\u0d3e\u0d2f\u0d47\u0d32\u0d3f\u0d32\u0d41\u0d33\u0d4d\u0d33\u0d35\u0d28\u0d32\u0d4d\u0d32\u0d3e\u0d24\u0d4d\u0d24 \u0d12\u0d30\u0d41 \u0d05\u0d28\u0d4d\u0d2f\u0d1c\u0d3e\u0d24\u0d3f\u0d15\u0d4d\u0d15\u0d3e\u0d30\u0d7b \u0d26\u0d42\u0d30\u0d26\u0d47\u0d36\u0d24\u0d4d\u0d24\u0d41\u0d28\u0d3f\u0d28\u0d4d\u0d28\u0d41 \u0d28\u0d3f\u0d28\u0d4d\u0d31\u0d46 \u0d28\u0d3e\u0d2e\u0d02 \u0d39\u0d47\u0d24\u0d41\u0d35\u0d3e\u0d2f\u0d3f \u0d35\u0d30\u0d3f\u0d15\u0d2f\u0d41\u0d02 - "
        },
        {
            "chapter": 8,
            "verse": 42,
            "name": "1 Kings 8:42",
            "text": "\u0d05\u0d35\u0d7c \u0d28\u0d3f\u0d28\u0d4d\u0d31\u0d46 \u0d2e\u0d39\u0d24\u0d4d\u0d35\u0d2e\u0d41\u0d33\u0d4d\u0d33 \u0d28\u0d3e\u0d2e\u0d24\u0d4d\u0d24\u0d46\u0d2f\u0d41\u0d02 \u0d2c\u0d32\u0d2e\u0d41\u0d33\u0d4d\u0d33 \u0d2d\u0d41\u0d1c\u0d24\u0d4d\u0d24\u0d46\u0d2f\u0d41\u0d02 \u0d28\u0d40\u0d1f\u0d4d\u0d1f\u0d3f\u0d2f\u0d3f\u0d30\u0d3f\u0d15\u0d4d\u0d15\u0d41\u0d28\u0d4d\u0d28 \u0d15\u0d2f\u0d4d\u0d2f\u0d46\u0d2f\u0d41\u0d02 \u0d15\u0d41\u0d31\u0d3f\u0d1a\u0d4d\u0d1a\u0d41 \u0d15\u0d47\u0d7e\u0d15\u0d4d\u0d15\u0d41\u0d2e\u0d32\u0d4d\u0d32\u0d4b - \u0d08 \u0d06\u0d32\u0d2f\u0d24\u0d4d\u0d24\u0d3f\u0d19\u0d4d\u0d15\u0d32\u0d47\u0d15\u0d4d\u0d15\u0d41 \u0d28\u0d4b\u0d15\u0d4d\u0d15\u0d3f \u0d2a\u0d4d\u0d30\u0d3e\u0d4e\u0d24\u0d4d\u0d25\u0d3f\u0d15\u0d4d\u0d15\u0d2f\u0d41\u0d02 \u0d1a\u0d46\u0d2f\u0d4d\u0d24\u0d3e\u0d7d "
        },
        {
            "chapter": 8,
            "verse": 43,
            "name": "1 Kings 8:43",
            "text": "\u0d28\u0d40 \u0d28\u0d3f\u0d28\u0d4d\u0d31\u0d46 \u0d35\u0d3e\u0d38\u0d38\u0d4d\u0d25\u0d32\u0d2e\u0d3e\u0d2f \u0d38\u0d4d\u0d35\u0d4e\u0d17\u0d4d\u0d17\u0d24\u0d4d\u0d24\u0d3f\u0d7d \u0d15\u0d47\u0d1f\u0d4d\u0d1f\u0d41, \u0d2d\u0d42\u0d2e\u0d3f\u0d2f\u0d3f\u0d32\u0d46 \u0d38\u0d15\u0d32\u0d1c\u0d3e\u0d24\u0d3f\u0d15\u0d33\u0d41\u0d02 \u0d28\u0d3f\u0d28\u0d4d\u0d31\u0d46 \u0d1c\u0d28\u0d2e\u0d3e\u0d2f \u0d2f\u0d3f\u0d38\u0d4d\u0d30\u0d3e\u0d2f\u0d47\u0d7d \u0d0e\u0d28\u0d4d\u0d28\u0d2a\u0d4b\u0d32\u0d46 \u0d28\u0d3f\u0d28\u0d4d\u0d28\u0d46 \u0d2d\u0d2f\u0d2a\u0d4d\u0d2a\u0d46\u0d1f\u0d41\u0d35\u0d3e\u0d28\u0d41\u0d02 \u0d1e\u0d3e\u0d7b \u0d2a\u0d23\u0d3f\u0d24\u0d3f\u0d30\u0d3f\u0d15\u0d4d\u0d15\u0d41\u0d28\u0d4d\u0d28 \u0d08 \u0d06\u0d32\u0d2f\u0d24\u0d4d\u0d24\u0d3f\u0d28\u0d4d\u0d28\u0d41 \u0d28\u0d3f\u0d28\u0d4d\u0d31\u0d46 \u0d28\u0d3e\u0d2e\u0d02 \u0d35\u0d3f\u0d33\u0d3f\u0d15\u0d4d\u0d15\u0d2a\u0d4d\u0d2a\u0d46\u0d1f\u0d4d\u0d1f\u0d3f\u0d30\u0d3f\u0d15\u0d4d\u0d15\u0d41\u0d28\u0d4d\u0d28\u0d41 \u0d0e\u0d28\u0d4d\u0d28\u0d41 \u0d17\u0d4d\u0d30\u0d39\u0d3f\u0d2a\u0d4d\u0d2a\u0d3e\u0d28\u0d41\u0d02 \u0d28\u0d3f\u0d28\u0d4d\u0d31\u0d46 \u0d28\u0d3e\u0d2e\u0d24\u0d4d\u0d24\u0d46 \u0d05\u0d31\u0d3f\u0d35\u0d3e\u0d28\u0d41\u0d02 \u0d24\u0d15\u0d4d\u0d15\u0d35\u0d23\u0d4d\u0d23\u0d02 \u0d05\u0d28\u0d4d\u0d2f\u0d1c\u0d3e\u0d24\u0d3f\u0d15\u0d4d\u0d15\u0d3e\u0d30\u0d7b \u0d28\u0d3f\u0d28\u0d4d\u0d28\u0d4b\u0d1f\u0d41 \u0d2a\u0d4d\u0d30\u0d3e\u0d4e\u0d24\u0d4d\u0d25\u0d3f\u0d15\u0d4d\u0d15\u0d41\u0d28\u0d4d\u0d28\u0d24\u0d4a\u0d15\u0d4d\u0d15\u0d46\u0d2f\u0d41\u0d02 \u0d28\u0d40 \u0d1a\u0d46\u0d2f\u0d4d\u0d24\u0d41\u0d15\u0d4a\u0d1f\u0d41\u0d15\u0d4d\u0d15\u0d47\u0d23\u0d2e\u0d47. "
        },
        {
            "chapter": 8,
            "verse": 44,
            "name": "1 Kings 8:44",
            "text": "\u0d28\u0d40 \u0d28\u0d3f\u0d28\u0d4d\u0d31\u0d46 \u0d1c\u0d28\u0d24\u0d4d\u0d24\u0d46 \u0d05\u0d2f\u0d15\u0d4d\u0d15\u0d41\u0d28\u0d4d\u0d28 \u0d35\u0d34\u0d3f\u0d2f\u0d3f\u0d7d \u0d05\u0d35\u0d7c \u0d24\u0d19\u0d4d\u0d19\u0d33\u0d41\u0d1f\u0d46 \u0d36\u0d24\u0d4d\u0d30\u0d41\u0d35\u0d3f\u0d28\u0d4b\u0d1f\u0d41 \u0d2f\u0d41\u0d26\u0d4d\u0d27\u0d02 \u0d1a\u0d46\u0d2f\u0d4d\u200c\u0d35\u0d3e\u0d7b \u0d2a\u0d41\u0d31\u0d2a\u0d4d\u0d2a\u0d46\u0d1f\u0d41\u0d2e\u0d4d\u0d2a\u0d4b\u0d7e \u0d28\u0d40 \u0d24\u0d3f\u0d30\u0d1e\u0d4d\u0d1e\u0d46\u0d1f\u0d41\u0d24\u0d4d\u0d24 \u0d28\u0d17\u0d30\u0d24\u0d4d\u0d24\u0d3f\u0d32\u0d47\u0d15\u0d4d\u0d15\u0d41\u0d02 \u0d28\u0d3f\u0d28\u0d4d\u0d31\u0d46 \u0d28\u0d3e\u0d2e\u0d24\u0d4d\u0d24\u0d3f\u0d28\u0d4d\u0d28\u0d41 \u0d1e\u0d3e\u0d7b \u0d2a\u0d23\u0d3f\u0d24\u0d3f\u0d30\u0d3f\u0d15\u0d4d\u0d15\u0d41\u0d28\u0d4d\u0d28 \u0d08 \u0d06\u0d32\u0d2f\u0d24\u0d4d\u0d24\u0d3f\u0d32\u0d47\u0d15\u0d4d\u0d15\u0d41\u0d02 \u0d24\u0d3f\u0d30\u0d3f\u0d1e\u0d4d\u0d1e\u0d41 \u0d2f\u0d39\u0d4b\u0d35\u0d2f\u0d4b\u0d1f\u0d41 \u0d2a\u0d4d\u0d30\u0d3e\u0d4e\u0d24\u0d4d\u0d25\u0d3f\u0d1a\u0d4d\u0d1a\u0d3e\u0d7d "
        },
        {
            "chapter": 8,
            "verse": 45,
            "name": "1 Kings 8:45",
            "text": "\u0d28\u0d40 \u0d38\u0d4d\u0d35\u0d4e\u0d17\u0d4d\u0d17\u0d24\u0d4d\u0d24\u0d3f\u0d7d \u0d05\u0d35\u0d30\u0d41\u0d1f\u0d46 \u0d2a\u0d4d\u0d30\u0d3e\u0d4e\u0d24\u0d4d\u0d25\u0d28\u0d2f\u0d41\u0d02 \u0d2f\u0d3e\u0d1a\u0d28\u0d2f\u0d41\u0d02 \u0d15\u0d47\u0d1f\u0d4d\u0d1f\u0d41 \u0d05\u0d35\u0d4e\u0d15\u0d4d\u0d15\u0d41 \u0d28\u0d4d\u0d2f\u0d3e\u0d2f\u0d02 \u0d2a\u0d3e\u0d32\u0d3f\u0d1a\u0d4d\u0d1a\u0d41\u0d15\u0d4a\u0d1f\u0d41\u0d15\u0d4d\u0d15\u0d47\u0d23\u0d2e\u0d47. "
        },
        {
            "chapter": 8,
            "verse": 46,
            "name": "1 Kings 8:46",
            "text": "\u0d05\u0d35\u0d7c \u0d28\u0d3f\u0d28\u0d4d\u0d28\u0d4b\u0d1f\u0d41 \u0d2a\u0d3e\u0d2a\u0d02 \u0d1a\u0d46\u0d2f\u0d4d\u0d15\u0d2f\u0d41\u0d02 -\u0d2a\u0d3e\u0d2a\u0d02 \u0d1a\u0d46\u0d2f\u0d4d\u0d2f\u0d3e\u0d24\u0d4d\u0d24 \u0d2e\u0d28\u0d41\u0d37\u0d4d\u0d2f\u0d7b \u0d07\u0d32\u0d4d\u0d32\u0d32\u0d4d\u0d32\u0d4b- \u0d28\u0d40 \u0d05\u0d35\u0d30\u0d4b\u0d1f\u0d41 \u0d15\u0d4b\u0d2a\u0d3f\u0d1a\u0d4d\u0d1a\u0d41 \u0d05\u0d35\u0d30\u0d46 \u0d36\u0d24\u0d4d\u0d30\u0d41\u0d35\u0d3f\u0d28\u0d4d\u0d28\u0d41 \u0d0f\u0d32\u0d4d\u0d2a\u0d3f\u0d15\u0d4d\u0d15\u0d2f\u0d41\u0d02 \u0d05\u0d35\u0d7c \u0d05\u0d35\u0d30\u0d46 \u0d26\u0d42\u0d30\u0d24\u0d4d\u0d24\u0d4b \u0d38\u0d2e\u0d40\u0d2a\u0d24\u0d4d\u0d24\u0d4b \u0d09\u0d33\u0d4d\u0d33 \u0d36\u0d24\u0d4d\u0d30\u0d41\u0d35\u0d3f\u0d28\u0d4d\u0d31\u0d46 \u0d26\u0d47\u0d36\u0d24\u0d4d\u0d24\u0d47\u0d15\u0d4d\u0d15\u0d41 \u0d2c\u0d26\u0d4d\u0d27\u0d30\u0d3e\u0d15\u0d4d\u0d15\u0d3f \u0d15\u0d4a\u0d23\u0d4d\u0d1f\u0d41\u0d2a\u0d4b\u0d15\u0d2f\u0d41\u0d02 \u0d1a\u0d46\u0d2f\u0d4d\u0d24\u0d3e\u0d7d "
        },
        {
            "chapter": 8,
            "verse": 47,
            "name": "1 Kings 8:47",
            "text": "\u0d05\u0d35\u0d30\u0d46 \u0d2a\u0d3f\u0d1f\u0d3f\u0d1a\u0d4d\u0d1a\u0d41 \u0d15\u0d4a\u0d23\u0d4d\u0d1f\u0d41\u0d2a\u0d4b\u0d2f\u0d3f\u0d30\u0d3f\u0d15\u0d4d\u0d15\u0d41\u0d28\u0d4d\u0d28 \u0d26\u0d47\u0d36\u0d24\u0d4d\u0d24\u0d41\u0d35\u0d46\u0d1a\u0d4d\u0d1a\u0d41 \u0d05\u0d35\u0d7c \u0d09\u0d23\u0d4e\u0d28\u0d4d\u0d28\u0d41 \u0d2e\u0d28\u0d02\u0d24\u0d3f\u0d30\u0d3f\u0d1e\u0d4d\u0d1e\u0d41, \u0d05\u0d35\u0d30\u0d46 \u0d2c\u0d26\u0d4d\u0d27\u0d30\u0d3e\u0d2f\u0d3f \u0d15\u0d4a\u0d23\u0d4d\u0d1f\u0d41\u0d2a\u0d4b\u0d2f \u0d26\u0d47\u0d36\u0d24\u0d4d\u0d24\u0d41\u0d35\u0d46\u0d1a\u0d4d\u0d1a\u0d41: \u0d1e\u0d19\u0d4d\u0d19\u0d7e \u0d2a\u0d3e\u0d2a\u0d02\u0d1a\u0d46\u0d2f\u0d4d\u0d24\u0d41 \u0d05\u0d15\u0d43\u0d24\u0d4d\u0d2f\u0d35\u0d41\u0d02 \u0d26\u0d41\u0d37\u0d4d\u0d1f\u0d24\u0d2f\u0d41\u0d02 \u0d2a\u0d4d\u0d30\u0d35\u0d4e\u0d24\u0d4d\u0d24\u0d3f\u0d1a\u0d4d\u0d1a\u0d3f\u0d30\u0d3f\u0d15\u0d4d\u0d15\u0d41\u0d28\u0d4d\u0d28\u0d41 \u0d0e\u0d28\u0d4d\u0d28\u0d41 \u0d2a\u0d31\u0d1e\u0d4d\u0d1e\u0d41 "
        },
        {
            "chapter": 8,
            "verse": 48,
            "name": "1 Kings 8:48",
            "text": "\u0d28\u0d3f\u0d28\u0d4d\u0d28\u0d4b\u0d1f\u0d41 \u0d2f\u0d3e\u0d1a\u0d3f\u0d15\u0d4d\u0d15\u0d2f\u0d41\u0d02 \u0d05\u0d35\u0d30\u0d46 \u0d2a\u0d3f\u0d1f\u0d3f\u0d1a\u0d4d\u0d1a\u0d41 \u0d15\u0d4a\u0d23\u0d4d\u0d1f\u0d41\u0d2a\u0d4b\u0d2f \u0d36\u0d24\u0d4d\u0d30\u0d41\u0d15\u0d4d\u0d15\u0d33\u0d41\u0d1f\u0d46 \u0d26\u0d47\u0d36\u0d24\u0d4d\u0d24\u0d41\u0d35\u0d46\u0d1a\u0d4d\u0d1a\u0d41 \u0d05\u0d35\u0d7c \u0d2a\u0d42\u0d4e\u0d23\u0d4d\u0d23\u0d39\u0d43\u0d26\u0d2f\u0d24\u0d4d\u0d24\u0d4b\u0d1f\u0d41\u0d02 \u0d2a\u0d42\u0d4e\u0d23\u0d4d\u0d23\u0d2e\u0d28\u0d38\u0d4d\u0d38\u0d4b\u0d1f\u0d41\u0d02\u0d15\u0d42\u0d1f\u0d46 \u0d28\u0d3f\u0d19\u0d4d\u0d15\u0d32\u0d47\u0d15\u0d4d\u0d15\u0d41 \u0d24\u0d3f\u0d30\u0d3f\u0d1e\u0d4d\u0d1e\u0d41, \u0d28\u0d40 \u0d05\u0d35\u0d30\u0d41\u0d1f\u0d46 \u0d2a\u0d3f\u0d24\u0d3e\u0d15\u0d4d\u0d15\u0d28\u0d4d\u0d2e\u0d3e\u0d4e\u0d15\u0d4d\u0d15\u0d41 \u0d15\u0d4a\u0d1f\u0d41\u0d24\u0d4d\u0d24 \u0d26\u0d47\u0d36\u0d24\u0d4d\u0d24\u0d47\u0d15\u0d4d\u0d15\u0d41, \u0d28\u0d40 \u0d24\u0d3f\u0d30\u0d1e\u0d4d\u0d1e\u0d46\u0d1f\u0d41\u0d24\u0d4d\u0d24 \u0d28\u0d17\u0d30\u0d24\u0d4d\u0d24\u0d3f\u0d19\u0d4d\u0d15\u0d32\u0d47\u0d15\u0d4d\u0d15\u0d41\u0d02 \u0d1e\u0d3e\u0d7b \u0d28\u0d3f\u0d28\u0d4d\u0d31\u0d46 \u0d28\u0d3e\u0d2e\u0d24\u0d4d\u0d24\u0d3f\u0d28\u0d4d\u0d28\u0d41 \u0d2a\u0d23\u0d3f\u0d24\u0d3f\u0d30\u0d3f\u0d15\u0d4d\u0d15\u0d41\u0d28\u0d4d\u0d28 \u0d08 \u0d06\u0d32\u0d2f\u0d24\u0d4d\u0d24\u0d3f\u0d19\u0d4d\u0d15\u0d32\u0d47\u0d15\u0d4d\u0d15\u0d41\u0d02 \u0d28\u0d4b\u0d15\u0d4d\u0d15\u0d3f \u0d28\u0d3f\u0d28\u0d4d\u0d28\u0d4b\u0d1f\u0d41 \u0d2a\u0d4d\u0d30\u0d3e\u0d4e\u0d24\u0d4d\u0d25\u0d3f\u0d15\u0d4d\u0d15\u0d2f\u0d41\u0d02 \u0d1a\u0d46\u0d2f\u0d4d\u0d24\u0d3e\u0d7d "
        },
        {
            "chapter": 8,
            "verse": 49,
            "name": "1 Kings 8:49",
            "text": "\u0d28\u0d40 \u0d28\u0d3f\u0d28\u0d4d\u0d31\u0d46 \u0d35\u0d3e\u0d38\u0d38\u0d4d\u0d25\u0d32\u0d2e\u0d3e\u0d2f \u0d38\u0d4d\u0d35\u0d4e\u0d17\u0d4d\u0d17\u0d24\u0d4d\u0d24\u0d3f\u0d7d \u0d05\u0d35\u0d30\u0d41\u0d1f\u0d46 \u0d2a\u0d4d\u0d30\u0d3e\u0d4e\u0d24\u0d4d\u0d25\u0d28\u0d2f\u0d41\u0d02 \u0d2f\u0d3e\u0d1a\u0d28\u0d2f\u0d41\u0d02 \u0d15\u0d47\u0d1f\u0d4d\u0d1f\u0d41 \u0d05\u0d35\u0d4e\u0d15\u0d4d\u0d15\u0d41 \u0d28\u0d4d\u0d2f\u0d3e\u0d2f\u0d02 \u0d2a\u0d3e\u0d32\u0d3f\u0d1a\u0d4d\u0d1a\u0d41\u0d15\u0d4a\u0d1f\u0d41\u0d24\u0d4d\u0d24\u0d41, "
        },
        {
            "chapter": 8,
            "verse": 50,
            "name": "1 Kings 8:50",
            "text": "\u0d28\u0d3f\u0d28\u0d4d\u0d28\u0d4b\u0d1f\u0d41 \u0d2a\u0d3e\u0d2a\u0d02 \u0d1a\u0d46\u0d2f\u0d4d\u0d24 \u0d28\u0d3f\u0d28\u0d4d\u0d31\u0d46 \u0d1c\u0d28\u0d24\u0d4d\u0d24\u0d4b\u0d1f\u0d41, \u0d05\u0d35\u0d7c \u0d28\u0d3f\u0d28\u0d4d\u0d28\u0d4b\u0d1f\u0d41 \u0d1a\u0d46\u0d2f\u0d4d\u0d24 \u0d26\u0d4d\u0d30\u0d4b\u0d39\u0d19\u0d4d\u0d19\u0d33\u0d4a\u0d15\u0d4d\u0d15\u0d46\u0d2f\u0d41\u0d02 \u0d15\u0d4d\u0d37\u0d2e\u0d3f\u0d15\u0d4d\u0d15\u0d2f\u0d41\u0d02 \u0d05\u0d35\u0d30\u0d46 \u0d2c\u0d26\u0d4d\u0d27\u0d28\u0d4d\u0d2e\u0d3e\u0d30\u0d3e\u0d2f\u0d3f \u0d15\u0d4a\u0d23\u0d4d\u0d1f\u0d41\u0d2a\u0d4b\u0d2f\u0d35\u0d4e\u0d15\u0d4d\u0d15\u0d41 \u0d05\u0d35\u0d30\u0d4b\u0d1f\u0d41 \u0d15\u0d30\u0d41\u0d23\u0d24\u0d4b\u0d28\u0d4d\u0d28\u0d24\u0d4d\u0d24\u0d15\u0d4d\u0d15\u0d35\u0d23\u0d4d\u0d23\u0d02 \u0d05\u0d35\u0d4e\u0d15\u0d4d\u0d15\u0d41 \u0d05\u0d35\u0d30\u0d4b\u0d1f\u0d41 \u0d15\u0d30\u0d41\u0d23 \u0d32\u0d2d\u0d3f\u0d15\u0d4d\u0d15\u0d41\u0d2e\u0d3e\u0d31\u0d3e\u0d15\u0d4d\u0d15\u0d41\u0d15\u0d2f\u0d41\u0d02 \u0d1a\u0d46\u0d2f\u0d4d\u0d2f\u0d47\u0d23\u0d2e\u0d47. "
        },
        {
            "chapter": 8,
            "verse": 51,
            "name": "1 Kings 8:51",
            "text": "\u0d05\u0d35\u0d7c \u0d2e\u0d3f\u0d38\u0d4d\u0d30\u0d2f\u0d40\u0d02 \u0d0e\u0d28\u0d4d\u0d28 \u0d07\u0d30\u0d41\u0d2e\u0d4d\u0d2a\u0d41\u0d32\u0d2f\u0d41\u0d1f\u0d46 \u0d28\u0d1f\u0d41\u0d35\u0d3f\u0d7d\u0d28\u0d3f\u0d28\u0d4d\u0d28\u0d41 \u0d28\u0d40 \u0d15\u0d4a\u0d23\u0d4d\u0d1f\u0d41\u0d35\u0d28\u0d4d\u0d28 \u0d28\u0d3f\u0d28\u0d4d\u0d31\u0d46 \u0d1c\u0d28\u0d35\u0d41\u0d02 \u0d28\u0d3f\u0d28\u0d4d\u0d31\u0d46 \u0d05\u0d35\u0d15\u0d3e\u0d36\u0d35\u0d41\u0d02 \u0d06\u0d15\u0d41\u0d28\u0d4d\u0d28\u0d41\u0d35\u0d32\u0d4d\u0d32\u0d4b. "
        },
        {
            "chapter": 8,
            "verse": 52,
            "name": "1 Kings 8:52",
            "text": "\u0d05\u0d35\u0d7c \u0d28\u0d3f\u0d28\u0d4d\u0d28\u0d46 \u0d35\u0d3f\u0d33\u0d3f\u0d1a\u0d4d\u0d1a\u0d2a\u0d47\u0d15\u0d4d\u0d37\u0d3f\u0d15\u0d4d\u0d15\u0d41\u0d2e\u0d4d\u0d2a\u0d4b\u0d7e \u0d12\u0d15\u0d4d\u0d15\u0d46\u0d2f\u0d41\u0d02 \u0d28\u0d40 \u0d15\u0d47\u0d7e\u0d15\u0d4d\u0d15\u0d47\u0d23\u0d4d\u0d1f\u0d24\u0d3f\u0d28\u0d4d\u0d28\u0d41 \u0d05\u0d1f\u0d3f\u0d2f\u0d28\u0d4d\u0d31\u0d46 \u0d2f\u0d3e\u0d1a\u0d28\u0d2f\u0d41\u0d02 \u0d28\u0d3f\u0d28\u0d4d\u0d31\u0d46 \u0d1c\u0d28\u0d2e\u0d3e\u0d2f \u0d2f\u0d3f\u0d38\u0d4d\u0d30\u0d3e\u0d2f\u0d47\u0d32\u0d3f\u0d28\u0d4d\u0d31\u0d46 \u0d2f\u0d3e\u0d1a\u0d28\u0d2f\u0d41\u0d02 \u0d24\u0d43\u0d15\u0d4d\u0d15\u0d7a \u0d2a\u0d3e\u0d4e\u0d24\u0d4d\u0d24\u0d30\u0d41\u0d33\u0d47\u0d23\u0d2e\u0d47. "
        },
        {
            "chapter": 8,
            "verse": 53,
            "name": "1 Kings 8:53",
            "text": "\u0d15\u0d4e\u0d24\u0d4d\u0d24\u0d3e\u0d35\u0d3e\u0d2f \u0d2f\u0d39\u0d4b\u0d35\u0d47, \u0d28\u0d40 \u0d1e\u0d19\u0d4d\u0d19\u0d33\u0d41\u0d1f\u0d46 \u0d2a\u0d3f\u0d24\u0d3e\u0d15\u0d4d\u0d15\u0d28\u0d4d\u0d2e\u0d3e\u0d30\u0d46 \u0d2e\u0d3f\u0d38\u0d4d\u0d30\u0d2f\u0d40\u0d2e\u0d3f\u0d7d \u0d28\u0d3f\u0d28\u0d4d\u0d28\u0d41 \u0d15\u0d4a\u0d23\u0d4d\u0d1f\u0d41\u0d35\u0d28\u0d4d\u0d28\u0d2a\u0d4d\u0d2a\u0d4b\u0d7e \u0d28\u0d3f\u0d28\u0d4d\u0d31\u0d46 \u0d26\u0d3e\u0d38\u0d28\u0d3e\u0d2f \u0d2e\u0d4b\u0d36\u0d46\u0d2e\u0d41\u0d16\u0d3e\u0d28\u0d4d\u0d24\u0d30\u0d02 \u0d05\u0d30\u0d41\u0d33\u0d3f\u0d1a\u0d4d\u0d1a\u0d46\u0d2f\u0d4d\u0d24\u0d24\u0d41\u0d2a\u0d4b\u0d32\u0d46 \u0d2d\u0d42\u0d2e\u0d3f\u0d2f\u0d3f\u0d32\u0d46 \u0d38\u0d15\u0d32\u0d1c\u0d3e\u0d24\u0d3f\u0d15\u0d33\u0d3f\u0d7d\u0d28\u0d3f\u0d28\u0d4d\u0d28\u0d41\u0d02 \u0d28\u0d40 \u0d05\u0d35\u0d30\u0d46 \u0d28\u0d3f\u0d28\u0d15\u0d4d\u0d15\u0d41 \u0d05\u0d35\u0d15\u0d3e\u0d36\u0d2e\u0d3e\u0d2f\u0d3f \u0d35\u0d47\u0d31\u0d41\u0d24\u0d3f\u0d30\u0d3f\u0d1a\u0d4d\u0d1a\u0d41\u0d35\u0d32\u0d4d\u0d32\u0d4b.   "
        },
        {
            "chapter": 8,
            "verse": 54,
            "name": "1 Kings 8:54",
            "text": "\u0d36\u0d32\u0d4b\u0d2e\u0d4b\u0d7b \u0d2f\u0d39\u0d4b\u0d35\u0d2f\u0d4b\u0d1f\u0d41 \u0d08 \u0d2a\u0d4d\u0d30\u0d3e\u0d4e\u0d24\u0d4d\u0d25\u0d28\u0d2f\u0d41\u0d02 \u0d2f\u0d3e\u0d1a\u0d28\u0d2f\u0d41\u0d02 \u0d0e\u0d32\u0d4d\u0d32\u0d3e\u0d02 \u0d15\u0d34\u0d3f\u0d1a\u0d4d\u0d1a\u0d41\u0d24\u0d40\u0d4e\u0d28\u0d4d\u0d28\u0d36\u0d47\u0d37\u0d02 \u0d05\u0d35\u0d7b \u0d2f\u0d39\u0d4b\u0d35\u0d2f\u0d41\u0d1f\u0d46 \u0d2f\u0d3e\u0d17\u0d2a\u0d40\u0d20\u0d24\u0d4d\u0d24\u0d3f\u0d7d \u0d2e\u0d41\u0d2e\u0d4d\u0d2a\u0d3f\u0d7d \u0d2e\u0d41\u0d34\u0d19\u0d4d\u0d15\u0d3e\u0d7d \u0d15\u0d41\u0d24\u0d4d\u0d24\u0d3f\u0d2f\u0d3f\u0d30\u0d41\u0d28\u0d4d\u0d28\u0d24\u0d41\u0d02 \u0d15\u0d48 \u0d06\u0d15\u0d3e\u0d36\u0d24\u0d4d\u0d24\u0d47\u0d15\u0d4d\u0d15\u0d41 \u0d2e\u0d32\u0d4e\u0d24\u0d4d\u0d24\u0d3f\u0d2f\u0d3f\u0d30\u0d41\u0d28\u0d4d\u0d28\u0d24\u0d41\u0d02 \u0d35\u0d3f\u0d1f\u0d4d\u0d1f\u0d41 \u0d0e\u0d34\u0d41\u0d28\u0d4d\u0d28\u0d47\u0d31\u0d4d\u0d31\u0d41. "
        },
        {
            "chapter": 8,
            "verse": 55,
            "name": "1 Kings 8:55",
            "text": "\u0d05\u0d35\u0d7b \u0d28\u0d3f\u0d28\u0d4d\u0d28\u0d41\u0d15\u0d4a\u0d23\u0d4d\u0d1f\u0d41 \u0d2f\u0d3f\u0d38\u0d4d\u0d30\u0d3e\u0d2f\u0d47\u0d7d\u0d38\u0d2d\u0d2f\u0d46 \u0d12\u0d15\u0d4d\u0d15\u0d46\u0d2f\u0d41\u0d02 \u0d09\u0d1a\u0d4d\u0d1a\u0d24\u0d4d\u0d24\u0d3f\u0d7d \u0d06\u0d36\u0d40\u0d4e\u0d35\u0d4d\u0d35\u0d26\u0d3f\u0d1a\u0d4d\u0d1a\u0d41 \u0d2a\u0d31\u0d1e\u0d4d\u0d1e\u0d24\u0d41 \u0d0e\u0d28\u0d4d\u0d24\u0d46\u0d28\u0d4d\u0d28\u0d3e\u0d7d: "
        },
        {
            "chapter": 8,
            "verse": 56,
            "name": "1 Kings 8:56",
            "text": "\u0d24\u0d3e\u0d7b \u0d35\u0d3e\u0d17\u0d4d\u0d26\u0d3e\u0d28\u0d02 \u0d1a\u0d46\u0d2f\u0d4d\u0d24\u0d24\u0d41\u0d2a\u0d4b\u0d32\u0d46 \u0d12\u0d15\u0d4d\u0d15\u0d46\u0d2f\u0d41\u0d02 \u0d24\u0d28\u0d4d\u0d31\u0d46 \u0d1c\u0d28\u0d2e\u0d3e\u0d2f \u0d2f\u0d3f\u0d38\u0d4d\u0d30\u0d3e\u0d2f\u0d47\u0d32\u0d3f\u0d28\u0d4d\u0d28\u0d41 \u0d38\u0d4d\u0d35\u0d38\u0d4d\u0d25\u0d24 \u0d28\u0d32\u0d4d\u0d15\u0d3f\u0d2f\u0d3f\u0d30\u0d3f\u0d15\u0d4d\u0d15\u0d41\u0d28\u0d4d\u0d28 \u0d2f\u0d39\u0d4b\u0d35 \u0d35\u0d3e\u0d34\u0d4d\u0d24\u0d4d\u0d24\u0d2a\u0d4d\u0d2a\u0d46\u0d1f\u0d4d\u0d1f\u0d35\u0d7b; \u0d05\u0d35\u0d7b \u0d24\u0d28\u0d4d\u0d31\u0d46 \u0d26\u0d3e\u0d38\u0d28\u0d3e\u0d2f \u0d2e\u0d4b\u0d36\u0d46\u0d2e\u0d41\u0d16\u0d3e\u0d28\u0d4d\u0d24\u0d30\u0d02 \u0d05\u0d30\u0d41\u0d33\u0d3f\u0d1a\u0d4d\u0d1a\u0d46\u0d2f\u0d4d\u0d24 \u0d05\u0d35\u0d28\u0d4d\u0d31\u0d46 \u0d28\u0d32\u0d4d\u0d32 \u0d35\u0d3e\u0d17\u0d4d\u0d26\u0d3e\u0d28\u0d19\u0d4d\u0d19\u0d33\u0d46\u0d32\u0d4d\u0d32\u0d3e\u0d31\u0d4d\u0d31\u0d3f\u0d32\u0d41\u0d02 \u0d35\u0d46\u0d1a\u0d4d\u0d1a\u0d41 \u0d12\u0d28\u0d4d\u0d28\u0d46\u0d19\u0d4d\u0d15\u0d3f\u0d32\u0d41\u0d02 \u0d28\u0d3f\u0d37\u0d4d\u0d2b\u0d32\u0d2e\u0d3e\u0d2f\u0d3f\u0d1f\u0d4d\u0d1f\u0d3f\u0d32\u0d4d\u0d32\u0d32\u0d4d\u0d32\u0d4b. "
        },
        {
            "chapter": 8,
            "verse": 57,
            "name": "1 Kings 8:57",
            "text": "\u0d28\u0d2e\u0d4d\u0d2e\u0d41\u0d1f\u0d46 \u0d26\u0d48\u0d35\u0d2e\u0d3e\u0d2f \u0d2f\u0d39\u0d4b\u0d35 \u0d28\u0d2e\u0d4d\u0d2e\u0d41\u0d1f\u0d46 \u0d2a\u0d3f\u0d24\u0d3e\u0d15\u0d4d\u0d15\u0d28\u0d4d\u0d2e\u0d3e\u0d30\u0d4b\u0d1f\u0d41 \u0d07\u0d30\u0d41\u0d28\u0d4d\u0d28\u0d24\u0d41\u0d2a\u0d4b\u0d32\u0d46 \u0d28\u0d2e\u0d4d\u0d2e\u0d4b\u0d1f\u0d41\u0d15\u0d42\u0d1f\u0d46\u0d2f\u0d41\u0d02 \u0d07\u0d30\u0d3f\u0d15\u0d4d\u0d15\u0d41\u0d2e\u0d3e\u0d31\u0d3e\u0d15\u0d1f\u0d4d\u0d1f\u0d46 \u0d05\u0d35\u0d7b \u0d28\u0d2e\u0d4d\u0d2e\u0d46 \u0d15\u0d48\u0d35\u0d3f\u0d1f\u0d41\u0d15\u0d2f\u0d4b \u0d09\u0d2a\u0d47\u0d15\u0d4d\u0d37\u0d3f\u0d15\u0d4d\u0d15\u0d2f\u0d4b \u0d1a\u0d46\u0d2f\u0d4d\u0d2f\u0d30\u0d41\u0d24\u0d46. "
        },
        {
            "chapter": 8,
            "verse": 58,
            "name": "1 Kings 8:58",
            "text": "\u0d28\u0d3e\u0d02 \u0d05\u0d35\u0d28\u0d4d\u0d31\u0d46 \u0d0e\u0d32\u0d4d\u0d32\u0d3e\u0d35\u0d34\u0d3f\u0d15\u0d33\u0d3f\u0d32\u0d41\u0d02 \u0d28\u0d1f\u0d15\u0d4d\u0d15\u0d47\u0d23\u0d4d\u0d1f\u0d24\u0d3f\u0d28\u0d4d\u0d28\u0d41\u0d02 \u0d05\u0d35\u0d7b \u0d28\u0d2e\u0d4d\u0d2e\u0d41\u0d1f\u0d46 \u0d2a\u0d3f\u0d24\u0d3e\u0d15\u0d4d\u0d15\u0d28\u0d4d\u0d2e\u0d3e\u0d30\u0d4b\u0d1f\u0d41 \u0d15\u0d32\u0d4d\u0d2a\u0d3f\u0d1a\u0d4d\u0d1a \u0d05\u0d35\u0d28\u0d4d\u0d31\u0d46 \u0d15\u0d32\u0d4d\u0d2a\u0d28\u0d15\u0d33\u0d41\u0d02 \u0d1a\u0d1f\u0d4d\u0d1f\u0d19\u0d4d\u0d19\u0d33\u0d41\u0d02 \u0d35\u0d3f\u0d27\u0d3f\u0d15\u0d33\u0d41\u0d02 \u0d2a\u0d4d\u0d30\u0d2e\u0d3e\u0d23\u0d3f\u0d1a\u0d4d\u0d1a\u0d41 \u0d28\u0d1f\u0d15\u0d4d\u0d15\u0d47\u0d23\u0d4d\u0d1f\u0d24\u0d3f\u0d28\u0d4d\u0d28\u0d41\u0d02 \u0d28\u0d2e\u0d4d\u0d2e\u0d41\u0d1f\u0d46 \u0d39\u0d43\u0d26\u0d2f\u0d24\u0d4d\u0d24\u0d46 \u0d24\u0d19\u0d4d\u0d15\u0d32\u0d47\u0d15\u0d4d\u0d15\u0d41 \u0d1a\u0d3e\u0d2f\u0d41\u0d2e\u0d3e\u0d31\u0d3e\u0d15\u0d4d\u0d15\u0d1f\u0d4d\u0d1f\u0d46. "
        },
        {
            "chapter": 8,
            "verse": 59,
            "name": "1 Kings 8:59",
            "text": "\u0d2f\u0d39\u0d4b\u0d35 \u0d24\u0d28\u0d4d\u0d28\u0d46 \u0d26\u0d48\u0d35\u0d02; \u0d2e\u0d31\u0d4d\u0d31\u0d4a\u0d30\u0d41\u0d24\u0d4d\u0d24\u0d28\u0d41\u0d2e\u0d3f\u0d32\u0d4d\u0d32 \u0d0e\u0d28\u0d4d\u0d28\u0d41 \u0d2d\u0d42\u0d2e\u0d3f\u0d2f\u0d3f\u0d32\u0d46 \u0d38\u0d15\u0d32 \u0d1c\u0d3e\u0d24\u0d3f\u0d15\u0d33\u0d41\u0d02 \u0d05\u0d31\u0d3f\u0d2f\u0d47\u0d23\u0d4d\u0d1f\u0d24\u0d3f\u0d28\u0d4d\u0d28\u0d41 "
        },
        {
            "chapter": 8,
            "verse": 60,
            "name": "1 Kings 8:60",
            "text": "\u0d05\u0d35\u0d7b \u0d24\u0d28\u0d4d\u0d31\u0d46 \u0d26\u0d3e\u0d38\u0d28\u0d4d\u0d28\u0d41\u0d02 \u0d24\u0d28\u0d4d\u0d31\u0d46 \u0d1c\u0d28\u0d2e\u0d3e\u0d2f \u0d2f\u0d3f\u0d38\u0d4d\u0d30\u0d3e\u0d2f\u0d47\u0d32\u0d3f\u0d28\u0d4d\u0d28\u0d41\u0d02 \u0d05\u0d28\u0d4d\u0d28\u0d28\u0d4d\u0d28\u0d41 \u0d06\u0d35\u0d36\u0d4d\u0d2f\u0d2e\u0d41\u0d33\u0d4d\u0d33\u0d24\u0d41\u0d2a\u0d4b\u0d32\u0d46 \u0d28\u0d4d\u0d2f\u0d3e\u0d2f\u0d02 \u0d2a\u0d3e\u0d32\u0d3f\u0d1a\u0d4d\u0d1a\u0d41\u0d15\u0d4a\u0d1f\u0d41\u0d2a\u0d4d\u0d2a\u0d3e\u0d7b \u0d24\u0d15\u0d4d\u0d15\u0d35\u0d23\u0d4d\u0d23\u0d02 \u0d1e\u0d3e\u0d7b \u0d2f\u0d39\u0d4b\u0d35\u0d2f\u0d41\u0d1f\u0d46 \u0d2e\u0d41\u0d2e\u0d4d\u0d2a\u0d3e\u0d15\u0d46 \u0d06\u0d2a\u0d47\u0d15\u0d4d\u0d37\u0d3f\u0d1a\u0d4d\u0d1a\u0d3f\u0d30\u0d3f\u0d15\u0d4d\u0d15\u0d41\u0d28\u0d4d\u0d28 \u0d0e\u0d28\u0d4d\u0d31\u0d46 \u0d08 \u0d35\u0d1a\u0d28\u0d19\u0d4d\u0d19\u0d7e \u0d30\u0d3e\u0d35\u0d41\u0d02 \u0d2a\u0d15\u0d32\u0d41\u0d02 \u0d28\u0d2e\u0d4d\u0d2e\u0d41\u0d1f\u0d46 \u0d26\u0d48\u0d35\u0d2e\u0d3e\u0d2f \u0d2f\u0d39\u0d4b\u0d35\u0d2f\u0d41\u0d1f\u0d46 \u0d38\u0d28\u0d4d\u0d28\u0d3f\u0d27\u0d3e\u0d28\u0d24\u0d4d\u0d24\u0d3f\u0d7d \u0d07\u0d30\u0d3f\u0d15\u0d4d\u0d15\u0d41\u0d2e\u0d3e\u0d31\u0d3e\u0d15\u0d1f\u0d4d\u0d1f\u0d46. "
        },
        {
            "chapter": 8,
            "verse": 61,
            "name": "1 Kings 8:61",
            "text": "\u0d06\u0d15\u0d2f\u0d3e\u0d7d \u0d07\u0d28\u0d4d\u0d28\u0d41\u0d33\u0d4d\u0d33\u0d24\u0d41\u0d2a\u0d4b\u0d32\u0d46 \u0d28\u0d3f\u0d19\u0d4d\u0d19\u0d7e \u0d05\u0d35\u0d28\u0d4d\u0d31\u0d46 \u0d1a\u0d1f\u0d4d\u0d1f\u0d19\u0d4d\u0d19\u0d7e \u0d05\u0d28\u0d41\u0d38\u0d30\u0d3f\u0d1a\u0d4d\u0d1a\u0d41\u0d28\u0d1f\u0d2a\u0d4d\u0d2a\u0d3e\u0d28\u0d41\u0d02 \u0d05\u0d35\u0d28\u0d4d\u0d31\u0d46 \u0d15\u0d32\u0d4d\u0d2a\u0d28\u0d15\u0d7e \u0d2a\u0d4d\u0d30\u0d2e\u0d3e\u0d23\u0d3f\u0d2a\u0d4d\u0d2a\u0d3e\u0d28\u0d41\u0d02 \u0d28\u0d3f\u0d19\u0d4d\u0d19\u0d33\u0d41\u0d1f\u0d46 \u0d39\u0d43\u0d26\u0d2f\u0d02 \u0d28\u0d2e\u0d4d\u0d2e\u0d41\u0d1f\u0d46 \u0d26\u0d48\u0d35\u0d2e\u0d3e\u0d2f \u0d2f\u0d39\u0d4b\u0d35\u0d2f\u0d3f\u0d19\u0d4d\u0d15\u0d7d \u0d0f\u0d15\u0d3e\u0d17\u0d4d\u0d30\u0d2e\u0d3e\u0d2f\u0d3f\u0d30\u0d3f\u0d15\u0d4d\u0d15\u0d1f\u0d4d\u0d1f\u0d46. "
        },
        {
            "chapter": 8,
            "verse": 62,
            "name": "1 Kings 8:62",
            "text": "\u0d2a\u0d3f\u0d28\u0d4d\u0d28\u0d46 \u0d30\u0d3e\u0d1c\u0d3e\u0d35\u0d41\u0d02 \u0d0e\u0d32\u0d4d\u0d32\u0d3e\u0d2f\u0d3f\u0d38\u0d4d\u0d30\u0d3e\u0d2f\u0d47\u0d32\u0d41\u0d02 \u0d2f\u0d39\u0d4b\u0d35\u0d2f\u0d41\u0d1f\u0d46 \u0d38\u0d28\u0d4d\u0d28\u0d3f\u0d27\u0d3f\u0d2f\u0d3f\u0d7d \u0d2f\u0d3e\u0d17\u0d02 \u0d15\u0d34\u0d3f\u0d1a\u0d4d\u0d1a\u0d41. "
        },
        {
            "chapter": 8,
            "verse": 63,
            "name": "1 Kings 8:63",
            "text": "\u0d36\u0d32\u0d4b\u0d2e\u0d4b\u0d7b \u0d2f\u0d39\u0d4b\u0d35\u0d46\u0d15\u0d4d\u0d15\u0d41 \u0d07\u0d30\u0d41\u0d2a\u0d24\u0d4d\u0d24\u0d40\u0d30\u0d3e\u0d2f\u0d3f\u0d30\u0d02 \u0d15\u0d3e\u0d33\u0d2f\u0d46\u0d2f\u0d41\u0d02 \u0d32\u0d15\u0d4d\u0d37\u0d24\u0d4d\u0d24\u0d3f\u0d30\u0d41\u0d2a\u0d24\u0d3f\u0d28\u0d3e\u0d2f\u0d3f\u0d30\u0d02 \u0d06\u0d1f\u0d3f\u0d28\u0d46\u0d2f\u0d41\u0d02 \u0d38\u0d2e\u0d3e\u0d27\u0d3e\u0d28\u0d2f\u0d3e\u0d17\u0d2e\u0d3e\u0d2f\u0d3f\u0d1f\u0d4d\u0d1f\u0d41 \u0d05\u0d4e\u0d2a\u0d4d\u0d2a\u0d3f\u0d1a\u0d4d\u0d1a\u0d41. \u0d07\u0d19\u0d4d\u0d19\u0d28\u0d46 \u0d30\u0d3e\u0d1c\u0d3e\u0d35\u0d41\u0d02 \u0d2f\u0d3f\u0d38\u0d4d\u0d30\u0d3e\u0d2f\u0d47\u0d7d\u0d2e\u0d15\u0d4d\u0d15\u0d33\u0d4a\u0d15\u0d4d\u0d15\u0d46\u0d2f\u0d41\u0d02 \u0d2f\u0d39\u0d4b\u0d35\u0d2f\u0d41\u0d1f\u0d46 \u0d06\u0d32\u0d2f\u0d24\u0d4d\u0d24\u0d46 \u0d2a\u0d4d\u0d30\u0d24\u0d3f\u0d37\u0d4d\u0d20\u0d3f\u0d1a\u0d4d\u0d1a\u0d41. "
        },
        {
            "chapter": 8,
            "verse": 64,
            "name": "1 Kings 8:64",
            "text": "\u0d2f\u0d39\u0d4b\u0d35\u0d2f\u0d41\u0d1f\u0d46 \u0d38\u0d28\u0d4d\u0d28\u0d3f\u0d27\u0d3f\u0d2f\u0d3f\u0d7d \u0d09\u0d23\u0d4d\u0d1f\u0d3e\u0d2f\u0d3f\u0d30\u0d41\u0d28\u0d4d\u0d28 \u0d24\u0d3e\u0d2e\u0d4d\u0d30 \u0d2f\u0d3e\u0d17\u0d2a\u0d40\u0d20\u0d02 \u0d39\u0d4b\u0d2e\u0d2f\u0d3e\u0d17\u0d02, \u0d2d\u0d4b\u0d1c\u0d28\u0d2f\u0d3e\u0d17\u0d02, \u0d38\u0d2e\u0d3e\u0d27\u0d3e\u0d28\u0d2f\u0d3e\u0d17\u0d19\u0d4d\u0d19\u0d33\u0d41\u0d1f\u0d46 \u0d2e\u0d47\u0d26\u0d38\u0d4d\u0d38\u0d4d \u0d0e\u0d28\u0d4d\u0d28\u0d3f\u0d35 \u0d15\u0d4a\u0d33\u0d4d\u0d33\u0d41\u0d28\u0d4d\u0d28\u0d24\u0d3f\u0d28\u0d4d\u0d28\u0d41 \u0d2a\u0d4b\u0d30\u0d3e\u0d24\u0d3f\u0d30\u0d41\u0d28\u0d4d\u0d28\u0d24\u0d41\u0d15\u0d4a\u0d23\u0d4d\u0d1f\u0d41 \u0d30\u0d3e\u0d1c\u0d3e\u0d35\u0d41 \u0d05\u0d28\u0d4d\u0d28\u0d41 \u0d2f\u0d39\u0d4b\u0d35\u0d2f\u0d41\u0d1f\u0d46 \u0d06\u0d32\u0d2f\u0d24\u0d4d\u0d24\u0d3f\u0d28\u0d4d\u0d31\u0d46 \u0d2e\u0d41\u0d2e\u0d4d\u0d2a\u0d3f\u0d32\u0d41\u0d33\u0d4d\u0d33 \u0d2a\u0d4d\u0d30\u0d3e\u0d15\u0d3e\u0d30\u0d24\u0d4d\u0d24\u0d3f\u0d28\u0d4d\u0d31\u0d46 \u0d2e\u0d26\u0d4d\u0d27\u0d4d\u0d2f\u0d2d\u0d3e\u0d17\u0d02 \u0d36\u0d41\u0d26\u0d4d\u0d27\u0d40\u0d15\u0d30\u0d3f\u0d1a\u0d4d\u0d1a\u0d41 \u0d05\u0d35\u0d3f\u0d1f\u0d46 \u0d39\u0d4b\u0d2e\u0d2f\u0d3e\u0d17\u0d35\u0d41\u0d02 \u0d2d\u0d4b\u0d1c\u0d28\u0d2f\u0d3e\u0d17\u0d35\u0d41\u0d02 \u0d38\u0d2e\u0d3e\u0d27\u0d3e\u0d28\u0d2f\u0d3e\u0d17\u0d19\u0d4d\u0d19\u0d33\u0d41\u0d1f\u0d46 \u0d2e\u0d47\u0d26\u0d38\u0d4d\u0d38\u0d41\u0d02 \u0d05\u0d4e\u0d2a\u0d4d\u0d2a\u0d3f\u0d1a\u0d4d\u0d1a\u0d41. "
        },
        {
            "chapter": 8,
            "verse": 65,
            "name": "1 Kings 8:65",
            "text": "\u0d36\u0d32\u0d4b\u0d2e\u0d4b\u0d28\u0d41\u0d02 \u0d05\u0d35\u0d28\u0d4b\u0d1f\u0d41\u0d15\u0d42\u0d1f\u0d46 \u0d39\u0d2e\u0d3e\u0d24\u0d4d\u0d24\u0d3f\u0d28\u0d4d\u0d31\u0d46 \u0d05\u0d24\u0d3f\u0d7c\u0d2e\u0d41\u0d24\u0d7d \u0d2e\u0d3f\u0d38\u0d4d\u0d30\u0d2f\u0d40\u0d02\u0d24\u0d4b\u0d1f\u0d41\u0d35\u0d30\u0d46\u0d2f\u0d41\u0d33\u0d4d\u0d33 \u0d0e\u0d32\u0d4d\u0d32\u0d3e \u0d2f\u0d3f\u0d38\u0d4d\u0d30\u0d3e\u0d2f\u0d47\u0d32\u0d41\u0d02 \u0d35\u0d32\u0d3f\u0d2f\u0d4a\u0d30\u0d41 \u0d38\u0d2d\u0d2f\u0d3e\u0d2f\u0d3f \u0d06 \u0d38\u0d2e\u0d2f\u0d24\u0d4d\u0d24\u0d41 \u0d28\u0d2e\u0d4d\u0d2e\u0d41\u0d1f\u0d46 \u0d26\u0d48\u0d35\u0d2e\u0d3e\u0d2f \u0d2f\u0d39\u0d4b\u0d35\u0d2f\u0d41\u0d1f\u0d46 \u0d38\u0d28\u0d4d\u0d28\u0d3f\u0d27\u0d3f\u0d2f\u0d3f\u0d7d \u0d0f\u0d34\u0d41 \u0d26\u0d3f\u0d35\u0d38\u0d35\u0d41\u0d02 \u0d2a\u0d3f\u0d28\u0d4d\u0d28\u0d46\u0d2f\u0d41\u0d02 \u0d0f\u0d34\u0d41 \u0d26\u0d3f\u0d35\u0d38\u0d35\u0d41\u0d02 \u0d07\u0d19\u0d4d\u0d19\u0d28\u0d46 \u0d2a\u0d24\u0d3f\u0d28\u0d4d\u0d28\u0d3e\u0d32\u0d41\u0d02 \u0d26\u0d3f\u0d35\u0d38\u0d02 \u0d09\u0d24\u0d4d\u0d38\u0d35\u0d02 \u0d06\u0d1a\u0d30\u0d3f\u0d1a\u0d4d\u0d1a\u0d41. "
        },
        {
            "chapter": 8,
            "verse": 66,
            "name": "1 Kings 8:66",
            "text": "\u0d0e\u0d1f\u0d4d\u0d1f\u0d3e\u0d02\u0d26\u0d3f\u0d35\u0d38\u0d02 \u0d05\u0d35\u0d7b \u0d1c\u0d28\u0d24\u0d4d\u0d24\u0d46 \u0d35\u0d3f\u0d1f\u0d4d\u0d1f\u0d2f\u0d1a\u0d4d\u0d1a\u0d41; \u0d05\u0d35\u0d7c \u0d30\u0d3e\u0d1c\u0d3e\u0d35\u0d3f\u0d28\u0d46 \u0d05\u0d2d\u0d3f\u0d28\u0d28\u0d4d\u0d26\u0d3f\u0d1a\u0d4d\u0d1a\u0d41, \u0d2f\u0d39\u0d4b\u0d35 \u0d24\u0d28\u0d4d\u0d31\u0d46 \u0d26\u0d3e\u0d38\u0d28\u0d3e\u0d2f \u0d26\u0d3e\u0d35\u0d40\u0d26\u0d3f\u0d28\u0d4d\u0d28\u0d41\u0d02 \u0d24\u0d28\u0d4d\u0d31\u0d46 \u0d1c\u0d28\u0d2e\u0d3e\u0d2f \u0d2f\u0d3f\u0d38\u0d4d\u0d30\u0d3e\u0d2f\u0d47\u0d32\u0d3f\u0d28\u0d4d\u0d28\u0d41\u0d02 \u0d1a\u0d46\u0d2f\u0d4d\u0d24 \u0d0e\u0d32\u0d4d\u0d32\u0d3e\u0d28\u0d28\u0d4d\u0d2e\u0d2f\u0d46\u0d2f\u0d41\u0d02 \u0d15\u0d41\u0d31\u0d3f\u0d1a\u0d4d\u0d1a\u0d41 \u0d38\u0d28\u0d4d\u0d24\u0d4b\u0d37\u0d35\u0d41\u0d02 \u0d06\u0d28\u0d28\u0d4d\u0d26\u0d35\u0d41\u0d2e\u0d41\u0d33\u0d4d\u0d33\u0d35\u0d30\u0d3e\u0d2f\u0d3f \u0d24\u0d19\u0d4d\u0d19\u0d33\u0d41\u0d1f\u0d46 \u0d15\u0d42\u0d1f\u0d3e\u0d30\u0d19\u0d4d\u0d19\u0d33\u0d3f\u0d32\u0d47\u0d15\u0d4d\u0d15\u0d41 \u0d2a\u0d4b\u0d2f\u0d3f.   "
        }
    ]
}