{
    "translation": "Pyha Raamattu (1992)",
    "abbreviation": "pyharaamattu1992",
    "lang": "fi",
    "language": "Finnish",
    "direction": "LTR",
    "encoding": "UTF-8",
    "book_nr": 24,
    "book_name": "Jeremiah",
    "chapter": 27,
    "name": "Jeremiah 27",
    "verses": [
        {
            "chapter": 27,
            "verse": 1,
            "name": "Jeremiah 27:1",
            "text": "Juudan kuninkaan Jojakimin, Josian pojan, hallitusajan alussa tuli Jeremialle t\u00e4m\u00e4 Herran sana:"
        },
        {
            "chapter": 27,
            "verse": 2,
            "name": "Jeremiah 27:2",
            "text": "\"Herra sanoi minulle n\u00e4in: Tee itsellesi ikeit\u00e4 ja hihnoja ja aseta ies niskaasi."
        },
        {
            "chapter": 27,
            "verse": 3,
            "name": "Jeremiah 27:3",
            "text": "L\u00e4het\u00e4 niit\u00e4 sitten Edomin, Moabin, ammonilaisten, Tyroksen ja Sidonin kuninkaille niiden l\u00e4hettil\u00e4iden mukana, jotka ovat tulleet Jerusalemiin Juudan kuninkaan Sidkian luo."
        },
        {
            "chapter": 27,
            "verse": 4,
            "name": "Jeremiah 27:4",
            "text": "K\u00e4ske heid\u00e4n sanoa herroilleen n\u00e4m\u00e4 minun sanani.  \"N\u00e4in sanoo Herra Sebaot, Israelin Jumala:"
        },
        {
            "chapter": 27,
            "verse": 5,
            "name": "Jeremiah 27:5",
            "text": "Suurella voimallani ja v\u00e4kev\u00e4ll\u00e4 k\u00e4dell\u00e4ni min\u00e4 olen luonut sek\u00e4 maan ett\u00e4 ihmiset ja el\u00e4imet, jotka maan p\u00e4\u00e4ll\u00e4 ovat. Minulla on valta antaa ne kenelle hyv\u00e4ksi n\u00e4en."
        },
        {
            "chapter": 27,
            "verse": 6,
            "name": "Jeremiah 27:6",
            "text": "Nyt min\u00e4 annan teid\u00e4n maanne palvelijalleni Nebukadnessarille, Babylonian kuninkaalle. Viel\u00e4p\u00e4 villiel\u00e4imet min\u00e4 panen h\u00e4nt\u00e4 palvelemaan."
        },
        {
            "chapter": 27,
            "verse": 7,
            "name": "Jeremiah 27:7",
            "text": "Kaikki kansat palvelevat h\u00e4nt\u00e4, h\u00e4nen poikaansa ja pojanpoikaansa, kunnes h\u00e4nenkin maalleen tulee aika joutua muiden kansojen ja mahtavien kuninkaiden palvelijaksi."
        },
        {
            "chapter": 27,
            "verse": 8,
            "name": "Jeremiah 27:8",
            "text": "\"Mutta jos jokin kansa tai valtakunta ei suostu palvelemaan Babylonian kuningasta Nebukadnessaria eik\u00e4 ottamaan niskaansa h\u00e4nen iest\u00e4\u00e4n, min\u00e4 rankaisen sit\u00e4 miekalla, n\u00e4l\u00e4ll\u00e4 ja rutolla, sanoo Herra. Min\u00e4 l\u00e4het\u00e4n Babylonian kuninkaan sit\u00e4 kansaa vastaan ja teen siit\u00e4 lopun."
        },
        {
            "chapter": 27,
            "verse": 9,
            "name": "Jeremiah 27:9",
            "text": "\u00c4lk\u00e4\u00e4 kuunnelko profeettojanne, \u00e4lk\u00e4\u00e4 tiet\u00e4ji\u00e4, unenn\u00e4kij\u00f6it\u00e4, ennustajia \u00e4lk\u00e4\u00e4k\u00e4 noitianne, jotka sanovat: 'Ette te joudu palvelemaan Babylonian kuningasta.'"
        },
        {
            "chapter": 27,
            "verse": 10,
            "name": "Jeremiah 27:10",
            "text": "He puhuvat per\u00e4tt\u00f6mi\u00e4! Jos uskotte heit\u00e4, joudutte kauas maastanne -- min\u00e4 karkotan teid\u00e4t, ja te tuhoudutte."
        },
        {
            "chapter": 27,
            "verse": 11,
            "name": "Jeremiah 27:11",
            "text": "Mutta sen kansan, joka taivuttaa niskansa Babylonian kuninkaan ikeen alle ja palvelee h\u00e4nt\u00e4, min\u00e4 annan j\u00e4\u00e4d\u00e4 omille asuinsijoilleen. Siell\u00e4 se saa asua ja viljell\u00e4 maataan, sanoo Herra."
        },
        {
            "chapter": 27,
            "verse": 12,
            "name": "Jeremiah 27:12",
            "text": "\"Juudan kuninkaalle Sidkialle min\u00e4 puhuin aivan samat sanat: Taivuttakaa niskanne Babylonian kuninkaan ikeen alle, palvelkaa h\u00e4nt\u00e4 ja h\u00e4nen kansaansa, niin saatte el\u00e4\u00e4."
        },
        {
            "chapter": 27,
            "verse": 13,
            "name": "Jeremiah 27:13",
            "text": "Miksi sin\u00e4 ja kansasi kuolisitte miekkaan, n\u00e4lk\u00e4\u00e4n ja ruttoon? T\u00e4llaisella lopulla Herra uhkaa jokaista kansaa, joka ei suostu palvelemaan Babylonian kuningasta."
        },
        {
            "chapter": 27,
            "verse": 14,
            "name": "Jeremiah 27:14",
            "text": "\u00c4lk\u00e4\u00e4 kuunnelko niit\u00e4 profeettoja, jotka sanovat: 'Ette te joudu palvelemaan Babylonian kuningasta.' He puhuvat per\u00e4tt\u00f6mi\u00e4!"
        },
        {
            "chapter": 27,
            "verse": 15,
            "name": "Jeremiah 27:15",
            "text": "Herra sanoo: 'Min\u00e4 en ole heit\u00e4 l\u00e4hett\u00e4nyt. He valehtelevat, kun sanovat puhuvansa minun nimiss\u00e4ni. Jos uskotte heit\u00e4, min\u00e4 karkotan teid\u00e4t, ja te tuhoudutte -- te itse ja nuo profeetat, jotka teille puhuvat.'"
        },
        {
            "chapter": 27,
            "verse": 16,
            "name": "Jeremiah 27:16",
            "text": "\"Papeille ja koko t\u00e4lle kansalle min\u00e4 puhuin n\u00e4in: Herra sanoo: \u00c4lk\u00e4\u00e4 kuunnelko profeettoja, jotka julistavat teille: 'Aivan kohta tuodaan Herran temppelin astiat takaisin Babyloniasta.' He puhuvat per\u00e4tt\u00f6mi\u00e4!"
        },
        {
            "chapter": 27,
            "verse": 17,
            "name": "Jeremiah 27:17",
            "text": "\u00c4lk\u00e4\u00e4 kuunnelko heit\u00e4, vaan palvelkaa Babylonian kuningasta, niin saatte el\u00e4\u00e4.  \"Miksi t\u00e4m\u00e4n kaupungin pit\u00e4isi muuttua raunioiksi?"
        },
        {
            "chapter": 27,
            "verse": 18,
            "name": "Jeremiah 27:18",
            "text": "Jos he todella olisivat profeettoja, jotka ovat saaneet sanan Herralta, he rukoilisivat Herraa Sebaotia, ettei h\u00e4n sallisi niidenkin kallisarvoisten esineiden joutua Babyloniaan, jotka viel\u00e4 ovat j\u00e4ljell\u00e4 Herran temppeliss\u00e4, Juudan kuninkaan palatsissa ja muualla Jerusalemissa."
        },
        {
            "chapter": 27,
            "verse": 19,
            "name": "Jeremiah 27:19",
            "text": "Ovathan t\u00e4h\u00e4n kaupunkiin j\u00e4\u00e4neet viel\u00e4 temppelin pylv\u00e4\u00e4t, sen vesiallas, ty\u00f6nt\u00f6p\u00f6yd\u00e4t ja monet muut esineet."
        },
        {
            "chapter": 27,
            "verse": 20,
            "name": "Jeremiah 27:20",
            "text": "Niit\u00e4 Babylonian kuningas Nebukadnessar ei ottanut mukaansa viedess\u00e4\u00e4n Juudan kuninkaan Jekonjan, Jojakimin pojan, sek\u00e4 Juudan ja Jerusalemin ylimykset vankeina Babyloniaan."
        },
        {
            "chapter": 27,
            "verse": 21,
            "name": "Jeremiah 27:21",
            "text": "\"N\u00e4in sanoo Herra Sebaot, Israelin Jumala, niist\u00e4 kallisarvoisista esineist\u00e4, jotka viel\u00e4 ovat j\u00e4ljell\u00e4 Herran temppeliss\u00e4, Juudan kuninkaan palatsissa ja muualla Jerusalemissa:"
        },
        {
            "chapter": 27,
            "verse": 22,
            "name": "Jeremiah 27:22",
            "text": "'Nekin vied\u00e4\u00e4n Babyloniaan! Sinne ne j\u00e4\u00e4v\u00e4t, kunnes min\u00e4, Herra, j\u00e4lleen puutun asiaan ja tuon ne takaisin t\u00e4h\u00e4n paikkaan.'\""
        }
    ]
}