{
    "translation": "Masoretic Text parallel to the Samaritan Pentateuch",
    "abbreviation": "spmt",
    "lang": "he",
    "language": "Hebrew",
    "direction": "RTL",
    "encoding": "UTF-8",
    "book_nr": 11,
    "book_name": "1 Kings",
    "chapter": 20,
    "name": "1 Kings 20",
    "verses": [
        {
            "chapter": 20,
            "verse": 1,
            "name": "1 Kings 20:1",
            "text": ""
        },
        {
            "chapter": 20,
            "verse": 2,
            "name": "1 Kings 20:2",
            "text": ""
        },
        {
            "chapter": 20,
            "verse": 3,
            "name": "1 Kings 20:3",
            "text": ""
        },
        {
            "chapter": 20,
            "verse": 4,
            "name": "1 Kings 20:4",
            "text": ""
        },
        {
            "chapter": 20,
            "verse": 5,
            "name": "1 Kings 20:5",
            "text": ""
        },
        {
            "chapter": 20,
            "verse": 6,
            "name": "1 Kings 20:6",
            "text": ""
        },
        {
            "chapter": 20,
            "verse": 7,
            "name": "1 Kings 20:7",
            "text": ""
        },
        {
            "chapter": 20,
            "verse": 8,
            "name": "1 Kings 20:8",
            "text": ""
        },
        {
            "chapter": 20,
            "verse": 9,
            "name": "1 Kings 20:9",
            "text": ""
        },
        {
            "chapter": 20,
            "verse": 10,
            "name": "1 Kings 20:10",
            "text": ""
        },
        {
            "chapter": 20,
            "verse": 11,
            "name": "1 Kings 20:11",
            "text": ""
        },
        {
            "chapter": 20,
            "verse": 12,
            "name": "1 Kings 20:12",
            "text": ""
        },
        {
            "chapter": 20,
            "verse": 13,
            "name": "1 Kings 20:13",
            "text": ""
        },
        {
            "chapter": 20,
            "verse": 14,
            "name": "1 Kings 20:14",
            "text": ""
        },
        {
            "chapter": 20,
            "verse": 15,
            "name": "1 Kings 20:15",
            "text": ""
        },
        {
            "chapter": 20,
            "verse": 16,
            "name": "1 Kings 20:16",
            "text": ""
        },
        {
            "chapter": 20,
            "verse": 17,
            "name": "1 Kings 20:17",
            "text": ""
        },
        {
            "chapter": 20,
            "verse": 18,
            "name": "1 Kings 20:18",
            "text": ""
        },
        {
            "chapter": 20,
            "verse": 19,
            "name": "1 Kings 20:19",
            "text": ""
        },
        {
            "chapter": 20,
            "verse": 20,
            "name": "1 Kings 20:20",
            "text": ""
        },
        {
            "chapter": 20,
            "verse": 21,
            "name": "1 Kings 20:21",
            "text": ""
        },
        {
            "chapter": 20,
            "verse": 22,
            "name": "1 Kings 20:22",
            "text": ""
        },
        {
            "chapter": 20,
            "verse": 23,
            "name": "1 Kings 20:23",
            "text": ""
        },
        {
            "chapter": 20,
            "verse": 24,
            "name": "1 Kings 20:24",
            "text": ""
        },
        {
            "chapter": 20,
            "verse": 25,
            "name": "1 Kings 20:25",
            "text": ""
        },
        {
            "chapter": 20,
            "verse": 26,
            "name": "1 Kings 20:26",
            "text": ""
        },
        {
            "chapter": 20,
            "verse": 27,
            "name": "1 Kings 20:27",
            "text": ""
        },
        {
            "chapter": 20,
            "verse": 28,
            "name": "1 Kings 20:28",
            "text": ""
        },
        {
            "chapter": 20,
            "verse": 29,
            "name": "1 Kings 20:29",
            "text": ""
        },
        {
            "chapter": 20,
            "verse": 30,
            "name": "1 Kings 20:30",
            "text": ""
        },
        {
            "chapter": 20,
            "verse": 31,
            "name": "1 Kings 20:31",
            "text": ""
        },
        {
            "chapter": 20,
            "verse": 32,
            "name": "1 Kings 20:32",
            "text": ""
        },
        {
            "chapter": 20,
            "verse": 33,
            "name": "1 Kings 20:33",
            "text": ""
        },
        {
            "chapter": 20,
            "verse": 34,
            "name": "1 Kings 20:34",
            "text": ""
        },
        {
            "chapter": 20,
            "verse": 35,
            "name": "1 Kings 20:35",
            "text": ""
        },
        {
            "chapter": 20,
            "verse": 36,
            "name": "1 Kings 20:36",
            "text": ""
        },
        {
            "chapter": 20,
            "verse": 37,
            "name": "1 Kings 20:37",
            "text": ""
        },
        {
            "chapter": 20,
            "verse": 38,
            "name": "1 Kings 20:38",
            "text": ""
        },
        {
            "chapter": 20,
            "verse": 39,
            "name": "1 Kings 20:39",
            "text": ""
        },
        {
            "chapter": 20,
            "verse": 40,
            "name": "1 Kings 20:40",
            "text": ""
        },
        {
            "chapter": 20,
            "verse": 41,
            "name": "1 Kings 20:41",
            "text": ""
        },
        {
            "chapter": 20,
            "verse": 42,
            "name": "1 Kings 20:42",
            "text": ""
        },
        {
            "chapter": 20,
            "verse": 43,
            "name": "1 Kings 20:43",
            "text": ""
        }
    ]
}