{
  "translation": "Finnish Bible (1776)",
  "abbreviation": "finnish1776",
  "lang": "fi",
  "language": "Finnish",
  "direction": "LTR",
  "encoding": "",
  "nr": 62,
  "name": "1 John",
  "chapters": [
    {
      "chapter": 1,
      "name": "1 John 1",
      "verses": [
        {
          "chapter": 1,
          "verse": 1,
          "name": "1 John 1:1",
          "text": "Joka alusta oli, jonka me kuulimme, jonka me silmill\u00e4mme n\u00e4imme, jota me katselleet olemme, ja meid\u00e4n k\u00e4temme pidelleet ovat el\u00e4m\u00e4n sanasta,"
        },
        {
          "chapter": 1,
          "verse": 2,
          "name": "1 John 1:2",
          "text": "(Ja el\u00e4m\u00e4 on ilmestynyt, ja me olemme n\u00e4hneet, ja todistamme ja ilmoitamme teille sen el\u00e4m\u00e4n, joka ijankaikkinen on, joka oli Is\u00e4n tyk\u00f6n\u00e4, ja on meille ilmestynyt.)"
        },
        {
          "chapter": 1,
          "verse": 3,
          "name": "1 John 1:3",
          "text": "Mit\u00e4 me n\u00e4hneet ja kuulleet olemme, sen me teille ilmoitamme, ett\u00e4 teill\u00e4kin meid\u00e4n kanssamme osallisuus olis ja meid\u00e4n osallisuutemme on Is\u00e4n ja h\u00e4nen Poikansa Jesuksen Kristuksen kanssa."
        },
        {
          "chapter": 1,
          "verse": 4,
          "name": "1 John 1:4",
          "text": "Ja n\u00e4it\u00e4 me teille kirjoitamme, ett\u00e4 teid\u00e4n ilonne t\u00e4ydellinen olis."
        },
        {
          "chapter": 1,
          "verse": 5,
          "name": "1 John 1:5",
          "text": "Ja t\u00e4m\u00e4 on se ilmoitus, jonka me h\u00e4nelt\u00e4 kuulleet olemme, ja teille ilmoitamme, ett\u00e4 Jumala on valkeus, ja ei h\u00e4ness\u00e4 ole yht\u00e4\u00e4n pimeytt\u00e4."
        },
        {
          "chapter": 1,
          "verse": 6,
          "name": "1 John 1:6",
          "text": "Jos me sanomme, ett\u00e4 meill\u00e4 on osallisuus h\u00e4nen kanssansa, ja vaellamme pimeydess\u00e4, niin me valehtelemme ja emme tee totuutta."
        },
        {
          "chapter": 1,
          "verse": 7,
          "name": "1 John 1:7",
          "text": "Mutta jos me valkeudessa vaellamme, niinkuin h\u00e4nkin valkeudessa on, niin meill\u00e4 on osallisuus kesken\u00e4mme, ja Jesuksen Kristuksen, h\u00e4nen Poikansa veri puhdistaa meit\u00e4 kaikesta synnist\u00e4."
        },
        {
          "chapter": 1,
          "verse": 8,
          "name": "1 John 1:8",
          "text": "Jos me sanomme, ettei meill\u00e4 ole synti\u00e4, niin me pet\u00e4mme itsemme, ja ei ole totuus meiss\u00e4."
        },
        {
          "chapter": 1,
          "verse": 9,
          "name": "1 John 1:9",
          "text": "Jos me tunnustamme meid\u00e4n syntimme, niin h\u00e4n on uskollinen ja hurskas, joka meille synnit anteeksi antaa ja puhdistaa meit\u00e4 kaikesta v\u00e4\u00e4ryydest\u00e4,"
        },
        {
          "chapter": 1,
          "verse": 10,
          "name": "1 John 1:10",
          "text": "Jos me sanomme: emmep\u00e4 me synti\u00e4 tehneet ole, niin me teemme h\u00e4net valehteliaksi ja ei h\u00e4nen sanansa ole meiss\u00e4."
        }
      ]
    },
    {
      "chapter": 2,
      "name": "1 John 2",
      "verses": [
        {
          "chapter": 2,
          "verse": 1,
          "name": "1 John 2:1",
          "text": "Minun lapsukaiseni! n\u00e4it\u00e4 min\u00e4 teille kirjoitan, ettette synti\u00e4 tekisi. Ja jos joku synti\u00e4 tekee, niin meill\u00e4 on edesvastaaja Is\u00e4n tyk\u00f6n\u00e4, Jesus Kristus, joka vanhurskas on,"
        },
        {
          "chapter": 2,
          "verse": 2,
          "name": "1 John 2:2",
          "text": "Ja h\u00e4n on sovinto meid\u00e4n synteimme edest\u00e4, ei ainoastaan meid\u00e4n, vaan my\u00f6s kaiken maailman edest\u00e4."
        },
        {
          "chapter": 2,
          "verse": 3,
          "name": "1 John 2:3",
          "text": "Ja siit\u00e4 me ymm\u00e4rr\u00e4mme, ett\u00e4 me h\u00e4nen tunnemme, jos me h\u00e4nen k\u00e4skyns\u00e4 pid\u00e4mme."
        },
        {
          "chapter": 2,
          "verse": 4,
          "name": "1 John 2:4",
          "text": "Joka sanoo: min\u00e4 tunnen h\u00e4nen, ja ei pid\u00e4 h\u00e4nen k\u00e4skyj\u00e4ns\u00e4, h\u00e4n on valehtelia, ja ei h\u00e4ness\u00e4 ole totuus."
        },
        {
          "chapter": 2,
          "verse": 5,
          "name": "1 John 2:5",
          "text": "Mutta joka h\u00e4nen sanansa pit\u00e4\u00e4, totisesti on Jumalan rakkaus h\u00e4ness\u00e4 t\u00e4ydellinen. Siit\u00e4 me tied\u00e4mme, ett\u00e4 me h\u00e4ness\u00e4 olemme."
        },
        {
          "chapter": 2,
          "verse": 6,
          "name": "1 John 2:6",
          "text": "Joka sanoo itsens\u00e4 h\u00e4ness\u00e4 pysyv\u00e4n, h\u00e4nen pit\u00e4\u00e4 niin vaeltaman kuin h\u00e4nkin vaelsi."
        },
        {
          "chapter": 2,
          "verse": 7,
          "name": "1 John 2:7",
          "text": "Rakkaat veljet, en min\u00e4 uutta k\u00e4sky\u00e4 teille kirjoita, vaan vanhan k\u00e4skyn, joka teill\u00e4 alusta oli. Vanha k\u00e4sky on se sana, jonka te alusta kuulitte."
        },
        {
          "chapter": 2,
          "verse": 8,
          "name": "1 John 2:8",
          "text": "Min\u00e4 kirjoitan teille taas uuden k\u00e4skyn, se mik\u00e4 h\u00e4ness\u00e4 totinen on, ja teiss\u00e4 my\u00f6s; sill\u00e4 pimeys on mennyt pois ja totinen valkeus nyt paistaa."
        },
        {
          "chapter": 2,
          "verse": 9,
          "name": "1 John 2:9",
          "text": "Joka sanoo valkeudessa olevansa ja vihaa velje\u00e4ns\u00e4, h\u00e4n on viel\u00e4 pimeydess\u00e4."
        },
        {
          "chapter": 2,
          "verse": 10,
          "name": "1 John 2:10",
          "text": "Joka velje\u00e4ns\u00e4 rakastaa, se pysyy valkeudessa ja ei h\u00e4ness\u00e4 ole pahennusta."
        },
        {
          "chapter": 2,
          "verse": 11,
          "name": "1 John 2:11",
          "text": "Mutta joka velje\u00e4ns\u00e4 vihaa, h\u00e4n on pimeydess\u00e4 ja vaeltaa pimeydess\u00e4, eik\u00e4 tied\u00e4, kuhunka h\u00e4n menee; sill\u00e4 pimeydet ovat h\u00e4nen silm\u00e4ns\u00e4 soaisseet."
        },
        {
          "chapter": 2,
          "verse": 12,
          "name": "1 John 2:12",
          "text": "Rakkaat poikaseni, min\u00e4 kirjoitan teille, ett\u00e4 teille synnit anteeksi annetaan h\u00e4nen nimens\u00e4 t\u00e4hden."
        },
        {
          "chapter": 2,
          "verse": 13,
          "name": "1 John 2:13",
          "text": "Min\u00e4 kirjoitan teille, is\u00e4t; sill\u00e4 te tunsitte h\u00e4nen, joka alusta on. Min\u00e4 kirjoitan teille nuorukaiset, sill\u00e4 te voititte pahan. Min\u00e4 kirjoitan teille, lapsukaiseni; sill\u00e4 te tunsitte Is\u00e4n."
        },
        {
          "chapter": 2,
          "verse": 14,
          "name": "1 John 2:14",
          "text": "Min\u00e4 kirjoitin teille, is\u00e4t; sill\u00e4 te tunsitte sen, joka alusta on. Min\u00e4 kirjoitin teille, nuorukaiset; sill\u00e4 te olette v\u00e4kev\u00e4t, ja Jumalan sana pysyy teiss\u00e4, ja te olette pahan voittaneet."
        },
        {
          "chapter": 2,
          "verse": 15,
          "name": "1 John 2:15",
          "text": "\u00c4lk\u00e4\u00e4t maailmaa rakastako eli mit\u00e4\u00e4n mit\u00e4 maailmassa on. Jos joku maailmaa rakastaa, ei h\u00e4ness\u00e4 ole Is\u00e4n rakkaus."
        },
        {
          "chapter": 2,
          "verse": 16,
          "name": "1 John 2:16",
          "text": "Sill\u00e4 kaikki, mit\u00e4 maailmassa on, lihan himo, silm\u00e4in pyynt\u00f6 ja el\u00e4m\u00e4n koreus, ei se ole Is\u00e4st\u00e4, vaan se on maailmasta."
        },
        {
          "chapter": 2,
          "verse": 17,
          "name": "1 John 2:17",
          "text": "Ja maailma katoo ja h\u00e4nen himonsa; mutta joka tekee Jumalan tahdon, se pysyy ijankaikkisesti."
        },
        {
          "chapter": 2,
          "verse": 18,
          "name": "1 John 2:18",
          "text": "Lapsukaiset, nyt on viimeinen aika, ja niinkuin te olette kuulleet, ett\u00e4 antikristus tulee, niin nyt my\u00f6s monta antikristusta rupee olemaan; sill\u00e4 me tunnemme, ett\u00e4 viimeinen aika on."
        },
        {
          "chapter": 2,
          "verse": 19,
          "name": "1 John 2:19",
          "text": "He ovat meist\u00e4 l\u00e4hteneet, mutta ei he olleet meist\u00e4; sill\u00e4 jos he meist\u00e4 olleet olisivat, niin he tosin olisivat meid\u00e4n kanssamme pysyneet: mutta ett\u00e4 ne julki tulisivat, ettei he kaikki ole meist\u00e4."
        },
        {
          "chapter": 2,
          "verse": 20,
          "name": "1 John 2:20",
          "text": "Ja teill\u00e4 on voide h\u00e4nelt\u00e4, joka pyh\u00e4 on, ja te tied\u00e4tte kaikki."
        },
        {
          "chapter": 2,
          "verse": 21,
          "name": "1 John 2:21",
          "text": "En min\u00e4 teille kirjoittanut niinkuin totuuden tiet\u00e4m\u00e4tt\u00f6mille, vaan niinkuin sen tiet\u00e4ville, ja ettei yksik\u00e4\u00e4n valhe ole totuudesta."
        },
        {
          "chapter": 2,
          "verse": 22,
          "name": "1 John 2:22",
          "text": "Kuka on valehtelia, vaan se joka kielt\u00e4\u00e4 Jesuksen olevan Kristuksen? Se on antikristus, joka kielt\u00e4\u00e4 Is\u00e4n ja Pojan."
        },
        {
          "chapter": 2,
          "verse": 23,
          "name": "1 John 2:23",
          "text": "Jokainen joka kielt\u00e4\u00e4 Pojan, ei h\u00e4nell\u00e4 Is\u00e4\u00e4k\u00e4\u00e4n ole."
        },
        {
          "chapter": 2,
          "verse": 24,
          "name": "1 John 2:24",
          "text": "Mit\u00e4 te siis alusta kuulitte, se teiss\u00e4 pysyk\u00e4\u00e4n: jos se teiss\u00e4 pysyy, mink\u00e4 te alusta kuulitte, niin te my\u00f6s Pojassa ja Is\u00e4ss\u00e4 pysytte."
        },
        {
          "chapter": 2,
          "verse": 25,
          "name": "1 John 2:25",
          "text": "Ja t\u00e4m\u00e4 on se lupaus, jonka h\u00e4n meille luvannut on, sen ijankaikkisen el\u00e4m\u00e4n."
        },
        {
          "chapter": 2,
          "verse": 26,
          "name": "1 John 2:26",
          "text": "N\u00e4m\u00e4t min\u00e4 teille niist\u00e4 kirjoitin, jotka teit\u00e4 viettelev\u00e4t."
        },
        {
          "chapter": 2,
          "verse": 27,
          "name": "1 John 2:27",
          "text": "Ja se voide, jonka te h\u00e4nelt\u00e4 saaneet olette, pysyy teiss\u00e4, ja ette tarvitse, ett\u00e4 joku teit\u00e4 opettaa; vaan niinkuin se voide teit\u00e4 kaikista opettaa, niin on se tosi ja ei valhe, ja niinkuin se teit\u00e4 opetti, niin my\u00f6s te h\u00e4ness\u00e4 pysyk\u00e4\u00e4t,"
        },
        {
          "chapter": 2,
          "verse": 28,
          "name": "1 John 2:28",
          "text": "Ja nyt, lapsukaiseni, pysyk\u00e4\u00e4t h\u00e4ness\u00e4: ett\u00e4 kuin h\u00e4n ilmestyy, meill\u00e4 olis turva, ettemme h\u00e4nen edess\u00e4ns\u00e4 h\u00e4pi\u00e4\u00e4n tulisi h\u00e4nen tulemisessansa."
        },
        {
          "chapter": 2,
          "verse": 29,
          "name": "1 John 2:29",
          "text": "Jos te tied\u00e4tte, ett\u00e4 h\u00e4n vanhurskas on, niin tiet\u00e4k\u00e4\u00e4t my\u00f6s, ett\u00e4 jokainen, joka vanhurskautta tekee, se on syntynyt h\u00e4nest\u00e4."
        }
      ]
    },
    {
      "chapter": 3,
      "name": "1 John 3",
      "verses": [
        {
          "chapter": 3,
          "verse": 1,
          "name": "1 John 3:1",
          "text": "Katsokaat, mink\u00e4kaltaisen rakkauden Is\u00e4 on meille osoittanut, ett\u00e4 me Jumalan lapsiksi nimitet\u00e4\u00e4n. Sent\u00e4hden ei maailma teit\u00e4 tunne; sill\u00e4 ei h\u00e4n h\u00e4nt\u00e4k\u00e4\u00e4n tunne."
        },
        {
          "chapter": 3,
          "verse": 2,
          "name": "1 John 3:2",
          "text": "Minun rakkaani! nyt me olemme Jumalan lapset, ja ei ole se viel\u00e4 ilmestynyt, miksi me tulemme; mutta me tied\u00e4mme, kuin se ilmestyy, niin me h\u00e4nen kaltaisiksensa tulemme; sill\u00e4 me saamme h\u00e4nen n\u00e4hd\u00e4 niinkuin h\u00e4n on."
        },
        {
          "chapter": 3,
          "verse": 3,
          "name": "1 John 3:3",
          "text": "Ja jokainen, jolla t\u00e4m\u00e4 toivo on h\u00e4nen tyk\u00f6ns\u00e4, puhdistaa itsens\u00e4, niinkuin h\u00e4nkin puhdas on."
        },
        {
          "chapter": 3,
          "verse": 4,
          "name": "1 John 3:4",
          "text": "Jokainen, joka synti\u00e4 tekee, se my\u00f6s tekee v\u00e4\u00e4ryytt\u00e4, ja synti on v\u00e4\u00e4ryys."
        },
        {
          "chapter": 3,
          "verse": 5,
          "name": "1 John 3:5",
          "text": "Ja te tied\u00e4tte h\u00e4nen ilmestyneen, ett\u00e4 h\u00e4n meid\u00e4n syntimme ottais pois; ja ei h\u00e4ness\u00e4 ole synti\u00e4."
        },
        {
          "chapter": 3,
          "verse": 6,
          "name": "1 John 3:6",
          "text": "Jokainen, joka h\u00e4ness\u00e4 pysyy, ei h\u00e4n synti\u00e4 tee; mutta jokainen, joka synti\u00e4 tekee, ei se ole h\u00e4nt\u00e4 n\u00e4hnyt eik\u00e4 h\u00e4nt\u00e4 tuntenut."
        },
        {
          "chapter": 3,
          "verse": 7,
          "name": "1 John 3:7",
          "text": "Lapsukaiset, \u00e4lk\u00e4\u00e4t antako kenenk\u00e4\u00e4n teit\u00e4nne vietell\u00e4. Joka vanhurskautta tekee, se on vanhurskas, niinkuin h\u00e4nkin vanhurskas on."
        },
        {
          "chapter": 3,
          "verse": 8,
          "name": "1 John 3:8",
          "text": "Joka synti\u00e4 tekee, h\u00e4n on perkeleest\u00e4; sill\u00e4 perkele tekee synti\u00e4 alusta. Sit\u00e4 varten Jumalan Poika ilmestyi, ett\u00e4 h\u00e4n perkeleen ty\u00f6t s\u00e4rkis."
        },
        {
          "chapter": 3,
          "verse": 9,
          "name": "1 John 3:9",
          "text": "Jokainen, joka Jumalasta syntynyt on, ei se synti\u00e4 tee; sill\u00e4 h\u00e4nen siemenens\u00e4 pysyy h\u00e4ness\u00e4, ja ei h\u00e4n taida synti\u00e4 tehd\u00e4, sill\u00e4 h\u00e4n on Jumalasta syntynyt."
        },
        {
          "chapter": 3,
          "verse": 10,
          "name": "1 John 3:10",
          "text": "Siit\u00e4 ilmaantuvat Jumalan lapset ja perkeleen lapset. Jokainen, joka ei tee vanhurskautta, ei se ole Jumalasta, ja joka ei rakasta velje\u00e4ns\u00e4."
        },
        {
          "chapter": 3,
          "verse": 11,
          "name": "1 John 3:11",
          "text": "Sill\u00e4 t\u00e4m\u00e4 on ilmoitus, jonka te alusta kuulitte, ett\u00e4 me toinen toistamme rakastaisimme."
        },
        {
          "chapter": 3,
          "verse": 12,
          "name": "1 John 3:12",
          "text": "Ei niinkuin Kain, joka pahasta oli, ja tappoi veljens\u00e4; ja mink\u00e4t\u00e4hden h\u00e4n tappoi h\u00e4nen? Sill\u00e4 h\u00e4nen ty\u00f6ns\u00e4 olivat pahat, ja h\u00e4nen veljens\u00e4 vanhurskaat."
        },
        {
          "chapter": 3,
          "verse": 13,
          "name": "1 John 3:13",
          "text": "\u00c4lk\u00e4\u00e4t ihmetelk\u00f6, minun veljeni, jos teit\u00e4 maailma vihaa."
        },
        {
          "chapter": 3,
          "verse": 14,
          "name": "1 John 3:14",
          "text": "Me tied\u00e4mme, ett\u00e4 me olemme kuolemasta el\u00e4m\u00e4\u00e4n siirretyt, sill\u00e4 me rakastamme velji\u00e4. Joka ei velje\u00e4ns\u00e4 rakasta, se pysyy kuolemassa."
        },
        {
          "chapter": 3,
          "verse": 15,
          "name": "1 John 3:15",
          "text": "Jokainen, joka velje\u00e4ns\u00e4 vihaa, h\u00e4n on murhaaja; ja te tied\u00e4tte, ettei yhdess\u00e4k\u00e4\u00e4n murhaajassa ole ijankaikkinen el\u00e4m\u00e4 pysyv\u00e4."
        },
        {
          "chapter": 3,
          "verse": 16,
          "name": "1 John 3:16",
          "text": "Siit\u00e4 me tunsimme rakkauden, ett\u00e4 h\u00e4n on henkens\u00e4 meid\u00e4n edest\u00e4mme pannut; niin pit\u00e4\u00e4 meid\u00e4n veljeimme edest\u00e4 henkemme paneman."
        },
        {
          "chapter": 3,
          "verse": 17,
          "name": "1 John 3:17",
          "text": "Mutta jos jollakin olis t\u00e4m\u00e4n maailman hyvyytt\u00e4, ja n\u00e4kis veljens\u00e4 tarvitseman, ja sulkee syd\u00e4mens\u00e4 h\u00e4nelt\u00e4, kuinkas Jumalan rakkaus pysyy h\u00e4ness\u00e4?"
        },
        {
          "chapter": 3,
          "verse": 18,
          "name": "1 John 3:18",
          "text": "Lapsukaiseni, \u00e4lk\u00e4\u00e4mme rakastako sanalla eli kielell\u00e4, vaan ty\u00f6ll\u00e4 ja totuudella."
        },
        {
          "chapter": 3,
          "verse": 19,
          "name": "1 John 3:19",
          "text": "Siit\u00e4 me tied\u00e4mme, ett\u00e4 me totuudesta olemme ja taidamme h\u00e4nen edess\u00e4ns\u00e4 meid\u00e4n syd\u00e4memme hillit\u00e4,"
        },
        {
          "chapter": 3,
          "verse": 20,
          "name": "1 John 3:20",
          "text": "Ett\u00e4 jos meid\u00e4n syd\u00e4memme tuomitsee meit\u00e4, niin on Jumala suurempi kuin meid\u00e4n syd\u00e4memme ja tiet\u00e4\u00e4 kaikki."
        },
        {
          "chapter": 3,
          "verse": 21,
          "name": "1 John 3:21",
          "text": "Te rakkahimmat! jos ei meid\u00e4n syd\u00e4memme tuomitse meit\u00e4, niin meill\u00e4 on turva Jumalaan."
        },
        {
          "chapter": 3,
          "verse": 22,
          "name": "1 John 3:22",
          "text": "Ja mit\u00e4 me anomme, niin me saamme h\u00e4nelt\u00e4, ett\u00e4 me h\u00e4nen k\u00e4skyns\u00e4 pid\u00e4mme ja teemme, mit\u00e4 h\u00e4nelle kelpaa."
        },
        {
          "chapter": 3,
          "verse": 23,
          "name": "1 John 3:23",
          "text": "Ja t\u00e4m\u00e4 on h\u00e4nen k\u00e4skyns\u00e4, ett\u00e4 me h\u00e4nen Poikansa Jesuksen Kristuksen nimen p\u00e4\u00e4lle uskoisimme, ja rakastaisimme toinen toistamme, niinkuin h\u00e4n k\u00e4skyn meille antoi."
        },
        {
          "chapter": 3,
          "verse": 24,
          "name": "1 John 3:24",
          "text": "Ja joka h\u00e4nen k\u00e4skyns\u00e4 pit\u00e4\u00e4, se pysyy h\u00e4ness\u00e4 ja h\u00e4n siin\u00e4, ja siit\u00e4 me tied\u00e4mme, ett\u00e4 h\u00e4n meiss\u00e4 pysyy, siit\u00e4 Hengest\u00e4, jonka h\u00e4n meille antoi."
        }
      ]
    },
    {
      "chapter": 4,
      "name": "1 John 4",
      "verses": [
        {
          "chapter": 4,
          "verse": 1,
          "name": "1 John 4:1",
          "text": "Te rakkaimmat! \u00e4lk\u00e4\u00e4t jokaista henke\u00e4 uskoko, vaan koetelkaat henget, josko he Jumalasta ovat; sill\u00e4 monta v\u00e4\u00e4r\u00e4\u00e4 prophetaa ovat tulleet maailmaan."
        },
        {
          "chapter": 4,
          "verse": 2,
          "name": "1 John 4:2",
          "text": "Sill\u00e4 te tuntekaat Jumalan Henki, ett\u00e4 jokainen henki, joka tunnustaa Jesuksen Kristuksen lihaan tulleen, se on Jumalasta,"
        },
        {
          "chapter": 4,
          "verse": 3,
          "name": "1 John 4:3",
          "text": "Ja jokainen henki, joka ei tunnusta Jesusta Kristusta lihaan tulleeksi, ei se ole Jumalasta: ja se on antikristuksen henki, josta te kuulitte, ett\u00e4 h\u00e4n on tuleva, ja on jo parhaallansa maailmassa."
        },
        {
          "chapter": 4,
          "verse": 4,
          "name": "1 John 4:4",
          "text": "Lapsukaiseni, te olette Jumalasta ja olette heid\u00e4t voittaneet; sill\u00e4 se, joka teiss\u00e4 on, h\u00e4n on suurempi kuin se, joka maailmassa on."
        },
        {
          "chapter": 4,
          "verse": 5,
          "name": "1 John 4:5",
          "text": "He ovat maailmasta, sent\u00e4hden he puhuvat maailmasta ja maailma kuulee heit\u00e4."
        },
        {
          "chapter": 4,
          "verse": 6,
          "name": "1 John 4:6",
          "text": "Me olemme Jumalasta: ja joka Jumalan tuntee, h\u00e4n kuulee meit\u00e4; joka ei Jumalasta ole, ei h\u00e4n kuule meit\u00e4. Siit\u00e4 me tunnemme totuuden hengen ja eksytyksen hengen."
        },
        {
          "chapter": 4,
          "verse": 7,
          "name": "1 John 4:7",
          "text": "Te rakkahimmat, rakastakaamme toinen toistamme, sill\u00e4 rakkaus on Jumalasta: ja jokainen, joka rakastaa, se on Jumalasta syntynyt ja tuntee Jumalan."
        },
        {
          "chapter": 4,
          "verse": 8,
          "name": "1 John 4:8",
          "text": "Joka ei rakasta, ei h\u00e4n tunne Jumalaa; sill\u00e4 Jumala on rakkaus."
        },
        {
          "chapter": 4,
          "verse": 9,
          "name": "1 John 4:9",
          "text": "Sen kautta ilmestyi Jumalan rakkaus meid\u00e4n kohtaamme, ett\u00e4 Jumala l\u00e4hetti ainoan Poikansa maailmaan, ett\u00e4 me h\u00e4nen kauttansa el\u00e4isimme."
        },
        {
          "chapter": 4,
          "verse": 10,
          "name": "1 John 4:10",
          "text": "Siin\u00e4 on rakkaus, ei ett\u00e4 me rakastimme Jumalaa, vaan ett\u00e4 h\u00e4n rakasti meit\u00e4 ja l\u00e4hetti Poikansa sovinnoksi meid\u00e4n synteimme edest\u00e4."
        },
        {
          "chapter": 4,
          "verse": 11,
          "name": "1 John 4:11",
          "text": "Te rakkahimmat, jos Jumala meit\u00e4 niin rakasti, niin meid\u00e4n pit\u00e4\u00e4 my\u00f6s toinen toistamme rakastaman."
        },
        {
          "chapter": 4,
          "verse": 12,
          "name": "1 John 4:12",
          "text": "Ei ole yksik\u00e4\u00e4n Jumalaa koskaan n\u00e4hnyt. Jos me rakastamme toinen toistamme, niin Jumala pysyy meiss\u00e4, ja h\u00e4nen rakkautensa on t\u00e4ydellinen meiss\u00e4."
        },
        {
          "chapter": 4,
          "verse": 13,
          "name": "1 John 4:13",
          "text": "Siit\u00e4 me tunnemme, ett\u00e4 me pysymme h\u00e4ness\u00e4 ja h\u00e4n meiss\u00e4, ja ett\u00e4 h\u00e4n antoi meille Hengest\u00e4ns\u00e4."
        },
        {
          "chapter": 4,
          "verse": 14,
          "name": "1 John 4:14",
          "text": "Ja me n\u00e4imme ja todistamme, ett\u00e4 Is\u00e4 on l\u00e4hett\u00e4nyt Poikansa maailman Vapahtajaksi."
        },
        {
          "chapter": 4,
          "verse": 15,
          "name": "1 John 4:15",
          "text": "Jokainen, joka tunnustaa Jesuksen Jumalan Pojaksi, h\u00e4ness\u00e4 pysyy Jumala ja h\u00e4n Jumalassa."
        },
        {
          "chapter": 4,
          "verse": 16,
          "name": "1 John 4:16",
          "text": "Ja me tunsimme ja uskoimme sen rakkauden, jolla Jumala meit\u00e4 rakastaa. Jumala on rakkaus, ja joka rakkaudessa pysyy, h\u00e4n pysyy Jumalassa ja Jumala h\u00e4ness\u00e4."
        },
        {
          "chapter": 4,
          "verse": 17,
          "name": "1 John 4:17",
          "text": "Siin\u00e4 t\u00e4ytet\u00e4\u00e4n rakkaus meiss\u00e4, ett\u00e4 meill\u00e4 olis turva tuomiop\u00e4iv\u00e4n\u00e4; sill\u00e4 niinkuin h\u00e4n on, niin olemme me my\u00f6s t\u00e4ss\u00e4 maailmassa."
        },
        {
          "chapter": 4,
          "verse": 18,
          "name": "1 John 4:18",
          "text": "Ei pelko ole rakkaudessa, vaan t\u00e4ydellinen rakkaus ajaa pois pelvon, sill\u00e4 pelvolla on vaiva; mutta joka pelk\u00e4\u00e4, ei h\u00e4n ole t\u00e4ydellinen rakkaudessa."
        },
        {
          "chapter": 4,
          "verse": 19,
          "name": "1 John 4:19",
          "text": "Me rakastamme h\u00e4nt\u00e4; sill\u00e4 h\u00e4n rakasti meit\u00e4 ensin."
        },
        {
          "chapter": 4,
          "verse": 20,
          "name": "1 John 4:20",
          "text": "Jos joku sanoo: min\u00e4 rakastan Jumalaa, ja vihaa velje\u00e4ns\u00e4, se on valehtelia; sill\u00e4 joka ei rakasta velje\u00e4ns\u00e4, jonka h\u00e4n n\u00e4kee, kuinka h\u00e4n taitaa Jumalaa rakastaa, jota ei h\u00e4n n\u00e4e?"
        },
        {
          "chapter": 4,
          "verse": 21,
          "name": "1 John 4:21",
          "text": "Ja t\u00e4m\u00e4 k\u00e4sky on meill\u00e4 h\u00e4nelt\u00e4: joka Jumalaa rakastaa, h\u00e4nen pit\u00e4\u00e4 my\u00f6s velje\u00e4ns\u00e4 rakastaman."
        }
      ]
    },
    {
      "chapter": 5,
      "name": "1 John 5",
      "verses": [
        {
          "chapter": 5,
          "verse": 1,
          "name": "1 John 5:1",
          "text": "Jokainen, joka uskoo, ett\u00e4 Jesus on Kristus, h\u00e4n on Jumalasta syntynyt, ja jokainen, joka rakastaa sit\u00e4, joka synnytti, h\u00e4n rakastaa my\u00f6s sit\u00e4, joka h\u00e4nest\u00e4 syntynyt on."
        },
        {
          "chapter": 5,
          "verse": 2,
          "name": "1 John 5:2",
          "text": "Siit\u00e4 me tunnemme, ett\u00e4 me rakastamme Jumalan lapsia, koska me Jumalaa rakastamme ja h\u00e4nen k\u00e4skyns\u00e4 pid\u00e4mme."
        },
        {
          "chapter": 5,
          "verse": 3,
          "name": "1 John 5:3",
          "text": "Sill\u00e4 t\u00e4m\u00e4 on rakkaus Jumalan tyk\u00f6, ett\u00e4 me h\u00e4nen k\u00e4skyns\u00e4 pid\u00e4mme, ja h\u00e4nen k\u00e4skyns\u00e4 ei ole raskaat."
        },
        {
          "chapter": 5,
          "verse": 4,
          "name": "1 John 5:4",
          "text": "Sill\u00e4 kaikki, mit\u00e4 Jumalasta syntynyt on, se voittaa maailman, ja meid\u00e4n uskomme on se voitto, joka maailman voitti."
        },
        {
          "chapter": 5,
          "verse": 5,
          "name": "1 John 5:5",
          "text": "Kuka siis on, joka voittaa maailman, mutta se joka uskoo, ett\u00e4 Jesus on Jumalan Poika?"
        },
        {
          "chapter": 5,
          "verse": 6,
          "name": "1 John 5:6",
          "text": "T\u00e4m\u00e4 on se, joka vedell\u00e4 ja verell\u00e4 tulee, Jesus Kristus, ei ainoastansa vedell\u00e4, vaan vedell\u00e4 ja verell\u00e4. Ja Henki todistaa, ett\u00e4 Henki on totuus."
        },
        {
          "chapter": 5,
          "verse": 7,
          "name": "1 John 5:7",
          "text": "Sill\u00e4 kolme ovat, jotka todistavat taivaassa: Is\u00e4, Sana ja Pyh\u00e4 Henki, ja ne kolme yksi ovat:"
        },
        {
          "chapter": 5,
          "verse": 8,
          "name": "1 John 5:8",
          "text": "Ja kolme ovat, jotka todistavat maan p\u00e4\u00e4ll\u00e4: Henki ja vesi ja veri, ja ne kolme yhdess\u00e4 ovat."
        },
        {
          "chapter": 5,
          "verse": 9,
          "name": "1 John 5:9",
          "text": "Jos me ihmisten todistuksen otamme, niin on Jumalan todistus suurempi; sill\u00e4 t\u00e4m\u00e4 on Jumalan todistus, jonka h\u00e4n Pojastansa todisti."
        },
        {
          "chapter": 5,
          "verse": 10,
          "name": "1 John 5:10",
          "text": "Joka uskoo Jumalan Pojan p\u00e4\u00e4lle, h\u00e4nell\u00e4 on todistus itsess\u00e4ns\u00e4: joka ei usko Jumalaa, h\u00e4n tekee h\u00e4nen valehteliaksi; sill\u00e4 ei h\u00e4n uskonut sit\u00e4 todistusta, jonka Jumala on Pojastansa todistanut."
        },
        {
          "chapter": 5,
          "verse": 11,
          "name": "1 John 5:11",
          "text": "Ja t\u00e4m\u00e4 on se todistus, ett\u00e4 Jumala on meille ijankaikkisen el\u00e4m\u00e4n antanut, ja se el\u00e4m\u00e4 on h\u00e4nen Pojassansa."
        },
        {
          "chapter": 5,
          "verse": 12,
          "name": "1 John 5:12",
          "text": "Jolla Jumalan Poika on, h\u00e4nell\u00e4 on el\u00e4m\u00e4; jolla ei Jumalan Poika ole, ei h\u00e4nell\u00e4 ole el\u00e4m\u00e4\u00e4."
        },
        {
          "chapter": 5,
          "verse": 13,
          "name": "1 John 5:13",
          "text": "N\u00e4it\u00e4 min\u00e4 teille kirjoitin, jotka Jumalan Pojan nimen p\u00e4\u00e4lle uskotte: ett\u00e4 te tiet\u00e4isitte teill\u00e4nne ijankaikkisen el\u00e4m\u00e4n olevan, ja ett\u00e4 te uskoisitte Jumalan Pojan nimen p\u00e4\u00e4lle."
        },
        {
          "chapter": 5,
          "verse": 14,
          "name": "1 John 5:14",
          "text": "Ja t\u00e4m\u00e4 on se turva, joka meill\u00e4 on h\u00e4neen, ett\u00e4 jos me jotakin anomme h\u00e4nen tahtonsa j\u00e4lkeen, niin h\u00e4n meit\u00e4 kuulee."
        },
        {
          "chapter": 5,
          "verse": 15,
          "name": "1 John 5:15",
          "text": "Ja jos me tied\u00e4mme, ett\u00e4 h\u00e4n meit\u00e4 kuulee, mit\u00e4 ik\u00e4n\u00e4 me anomme, niin me tied\u00e4mme, ett\u00e4 meill\u00e4 ovat ne anomiset, joita me h\u00e4nelt\u00e4 anoimme."
        },
        {
          "chapter": 5,
          "verse": 16,
          "name": "1 John 5:16",
          "text": "Jos joku n\u00e4kee veljens\u00e4 tekev\u00e4n jonkun synnin, ei kuolemaan, h\u00e4n rukoilkaan, niin h\u00e4n on antava niille el\u00e4m\u00e4n, jotka synti\u00e4 tekev\u00e4t, ei kuolemaan. Jos synti on kuolemaan: senkaltaisista en min\u00e4 sano, ett\u00e4 joku rukoilis."
        },
        {
          "chapter": 5,
          "verse": 17,
          "name": "1 John 5:17",
          "text": "Kaikki v\u00e4\u00e4ryys on synti; on my\u00f6s muutama synti ei kuolemaan."
        },
        {
          "chapter": 5,
          "verse": 18,
          "name": "1 John 5:18",
          "text": "Me tied\u00e4mme, ett\u00e4 jokainen, joka Jumalasta syntynyt on, ei h\u00e4n synti\u00e4 tee; vaan joka Jumalasta syntynyt on, se varjelee itsens\u00e4, ja paha ei rupee h\u00e4neen."
        },
        {
          "chapter": 5,
          "verse": 19,
          "name": "1 John 5:19",
          "text": "Me tied\u00e4mme, ett\u00e4 me olemme Jumalasta ja koko maailma on pahuudessa."
        },
        {
          "chapter": 5,
          "verse": 20,
          "name": "1 John 5:20",
          "text": "Mutta me tied\u00e4mme, ett\u00e4 Jumalan Poika tuli ja on meille mielen antanut, ett\u00e4 me sen totisen tunnemme, ja olemme siin\u00e4 totisessa, h\u00e4nen Pojassansa Jesuksessa Kristuksessa: T\u00e4m\u00e4 on totinen Jumala ja ijankaikkinen el\u00e4m\u00e4."
        },
        {
          "chapter": 5,
          "verse": 21,
          "name": "1 John 5:21",
          "text": "Lapsukaiset, kavahtakaat ep\u00e4jumalia, amen!"
        }
      ]
    }
  ]
}
