{
    "translation": "Belarusian Bible",
    "abbreviation": "bela",
    "lang": "be",
    "language": "Belarusian",
    "direction": "LTR",
    "encoding": "UTF-8",
    "book_nr": 26,
    "book_name": "Ezekiel",
    "chapter": 27,
    "name": "Ezekiel 27",
    "verses": [
        {
            "chapter": 27,
            "verse": 1,
            "name": "Ezekiel 27:1",
            "text": " \u0406 \u0431\u044b\u043b\u043e \u043c\u043d\u0435 \u0441\u043b\u043e\u0432\u0430 \u0413\u0430\u0441\u043f\u043e\u0434\u043d\u044f\u0435:"
        },
        {
            "chapter": 27,
            "verse": 2,
            "name": "Ezekiel 27:2",
            "text": "\u0456 \u0442\u044b, \u0441\u044b\u043d\u0435 \u0447\u0430\u043b\u0430\u0432\u0435\u0447\u044b, \u043f\u0430\u0434\u044b\u043c\u0456 \u043f\u043b\u0430\u0447 \u043f\u0430 \u0422\u044b\u0440\u044b"
        },
        {
            "chapter": 27,
            "verse": 3,
            "name": "Ezekiel 27:3",
            "text": "\u0456 \u043a\u0430\u0436\u044b \u0422\u044b\u0440\u0443, \u044f\u043a\u0456 \u043f\u0430\u0441\u044f\u043b\u0456\u045e\u0441\u044f \u043d\u0430 \u0432\u044b\u0441\u0442\u0443\u043f\u0430\u0445 \u0443 \u043c\u043e\u0440\u044b \u0456 \u0433\u0430\u043d\u0434\u043b\u044e\u0435 \u0437 \u043d\u0430\u0440\u043e\u0434\u0430\u043c\u0456 \u043d\u0430 \u043c\u043d\u043e\u0433\u0456\u0445 \u0432\u044b\u0441\u043f\u0430\u0445: \u0442\u0430\u043a \u043a\u0430\u0436\u0430 \u0413\u0430\u0441\u043f\u043e\u0434\u0437\u044c \u0411\u043e\u0433: \u0422\u044b\u0440\u0443! \u0442\u044b \u043a\u0430\u0436\u0430\u0448: \"\u044f \u0434\u0430\u0441\u043a\u0430\u043d\u0430\u043b\u0430\u0441\u044c\u0446\u044c \u043f\u0440\u044b\u0433\u0430\u0436\u043e\u0441\u044c\u0446\u0456!\""
        },
        {
            "chapter": 27,
            "verse": 4,
            "name": "Ezekiel 27:4",
            "text": "\u041c\u0435\u0436\u044b \u0442\u0432\u0430\u0435 \u2014 \u0443 \u0441\u044d\u0440\u0446\u044b \u043c\u043e\u0440\u0430\u045e: \u0431\u0443\u0434\u0430\u045e\u043d\u0456\u043a\u0456 \u0442\u0432\u0430\u0435 \u045e\u0434\u0430\u0441\u043a\u0430\u043d\u0430\u043b\u0456\u043b\u0456 \u043f\u0440\u044b\u0433\u0430\u0436\u043e\u0441\u044c\u0446\u044c \u0442\u0432\u0430\u044e:"
        },
        {
            "chapter": 27,
            "verse": 5,
            "name": "Ezekiel 27:5",
            "text": "\u0437 \u0421\u044d\u043d\u0456\u0440\u0441\u043a\u0456\u0445 \u043a\u0456\u043f\u0430\u0440\u044b\u0441\u0430\u045e \u0437\u043b\u0430\u0434\u0437\u0456\u043b\u0456 \u045e\u0441\u0435 \u043f\u0430\u043c\u043e\u0441\u0442\u044b \u0442\u0432\u0430\u0435: \u0431\u0440\u0430\u043b\u0456 \u0437\u044c \u041b\u0456\u0432\u0430\u043d\u0430 \u043a\u0435\u0434\u0440, \u043a\u0430\u0431 \u0437\u0440\u0430\u0431\u0456\u0446\u044c \u043d\u0430 \u0442\u0430\u0431\u0435 \u043c\u0430\u0447\u0442\u044b;"
        },
        {
            "chapter": 27,
            "verse": 6,
            "name": "Ezekiel 27:6",
            "text": "\u0437 \u0434\u0443\u0431\u043e\u045e \u0412\u0430\u0441\u0430\u043d\u0441\u043a\u0456\u0445 \u0440\u0430\u0431\u0456\u043b\u0456 \u0432\u0451\u0441\u043b\u044b \u0442\u0432\u0430\u0435; \u0443\u0441\u043b\u043e\u043d\u044b \u0442\u0432\u0430\u0435 \u0440\u0430\u0431\u0456\u043b\u0456 \u0437 \u0431\u0443\u043a\u0430\u0432\u0430\u0433\u0430 \u0434\u0440\u044d\u0432\u0430, \u0437 \u0430\u043f\u0440\u0430\u0432\u0430\u044e \u0437 \u0441\u043b\u0430\u043d\u043e\u0432\u0430\u0439 \u043a\u0430\u0441\u044c\u0446\u0456 \u0437 \u0430\u0441\u0442\u0440\u0430\u0432\u043e\u045e \u041a\u0456\u0442\u044b\u043c\u0441\u043a\u0456\u0445;"
        },
        {
            "chapter": 27,
            "verse": 7,
            "name": "Ezekiel 27:7",
            "text": "\u0443\u0437\u043e\u0440\u044b\u0441\u0442\u044b\u044f \u043f\u0430\u043b\u043e\u0442\u043d\u044b \u0437\u044c \u0415\u0433\u0456\u043f\u0442\u0430 \u045e\u0436\u044b\u0432\u0430\u043b\u0456\u0441\u044f \u043d\u0430 \u0432\u0435\u0442\u0440\u0430\u0437\u0456 \u0442\u0432\u0430\u0435 \u0456 \u0441\u043b\u0443\u0436\u044b\u043b\u0456 \u0441\u044c\u0446\u044f\u0433\u0430\u043c; \u0431\u043b\u0430\u043a\u0456\u0442\u043d\u0430\u0433\u0430 \u0456 \u043f\u0443\u0440\u043f\u0443\u0440\u043e\u0432\u0430\u0433\u0430 \u043a\u043e\u043b\u0435\u0440\u0443 \u0442\u043a\u0430\u043d\u0456\u043d\u044b \u0437 \u0430\u0441\u0442\u0440\u0430\u0432\u043e\u045e \u042d\u043b\u0456\u0441\u044b \u0431\u044b\u043b\u0456 \u043f\u0430\u043a\u0440\u044b\u0432\u0430\u043b\u0430\u043c \u0442\u0432\u0430\u0456\u043c."
        },
        {
            "chapter": 27,
            "verse": 8,
            "name": "Ezekiel 27:8",
            "text": "\u0416\u044b\u0445\u0430\u0440\u044b \u0421\u0456\u0434\u043e\u043d\u0430 \u0456 \u0410\u0440\u0432\u0430\u0434\u0430 \u0431\u044b\u043b\u0456 \u045e \u0446\u044f\u0431\u0435 \u0437\u0430 \u0432\u0435\u0441\u044c\u043b\u044f\u0440\u043e\u045e; \u0441\u0432\u0430\u0435 \u0437\u043d\u0430\u045e\u0446\u044b \u0431\u044b\u043b\u0456 \u045e \u0446\u044f\u0431\u0435, \u0422\u044b\u0440\u0443; \u044f\u043d\u044b \u0431\u044b\u043b\u0456 \u045e \u0446\u044f\u0431\u0435 \u0437\u0430 \u0441\u0442\u044b\u0440\u043d\u0430\u0432\u044b\u0445."
        },
        {
            "chapter": 27,
            "verse": 9,
            "name": "Ezekiel 27:9",
            "text": "\u0421\u0442\u0430\u0440\u044d\u0439\u0448\u044b\u043d\u044b \u0437 \u0413\u0435\u0432\u0430\u043b\u0430 \u0456 \u0437\u043d\u0430\u045e\u0446\u044b \u044f\u0433\u043e\u043d\u044b\u044f \u0431\u044b\u043b\u0456 \u045e \u0446\u044f\u0431\u0435, \u043a\u0430\u0431 \u0437\u0430\u043a\u0440\u044b\u0432\u0430\u0446\u044c \u043f\u0440\u0430\u0431\u043e\u0456\u043d\u044b \u0442\u0432\u0430\u0435. \u0423\u0441\u044f\u043a\u0456\u044f \u043c\u0430\u0440\u0441\u043a\u0456\u044f \u043a\u0430\u0440\u0430\u0431\u043b\u0456 \u0456 \u043a\u0430\u0440\u0430\u0431\u0435\u043b\u044c\u043d\u0456\u043a\u0456 \u0456\u0445 \u0431\u044b\u043b\u0456 \u045e \u0446\u044f\u0431\u0435, \u043a\u0430\u0431 \u043b\u0430\u0434\u0437\u0456\u0446\u044c \u0433\u0430\u043d\u0434\u0430\u043b\u044c \u0442\u0432\u043e\u0439."
        },
        {
            "chapter": 27,
            "verse": 10,
            "name": "Ezekiel 27:10",
            "text": "\u041f\u0435\u0440\u0441 \u0456 \u041b\u0456\u0434\u0437\u044f\u043d\u0456\u043d \u0456 \u041b\u0456\u0432\u0456\u0435\u0446 \u0431\u044b\u043b\u0456 \u045e \u0442\u0432\u0430\u0456\u043c \u0432\u043e\u0439\u0441\u043a\u0443 \u0456 \u0431\u044b\u043b\u0456 \u045e \u0446\u044f\u0431\u0435 \u0440\u0430\u0442\u043d\u0456\u043a\u0430\u043c\u0456, \u0432\u0435\u0448\u0430\u043b\u0456 \u043d\u0430 \u0442\u0430\u0431\u0435 \u0448\u0447\u044b\u0442 \u0456 \u0448\u043b\u0435\u043c; \u044f\u043d\u044b \u043d\u0430\u0434\u0430\u0432\u0430\u043b\u0456 \u0442\u0430\u0431\u0435 \u0432\u0435\u043b\u0456\u0447\u044b."
        },
        {
            "chapter": 27,
            "verse": 11,
            "name": "Ezekiel 27:11",
            "text": "\u0421\u044b\u043d\u044b \u0410\u0440\u0432\u0430\u0434\u0430 \u0437 \u0442\u0432\u0430\u0456\u043c \u0443\u043b\u0430\u0441\u043d\u044b\u043c \u0432\u043e\u0439\u0441\u043a\u0430\u043c \u0432\u0430\u043a\u043e\u043b \u043d\u0430 \u0441\u044c\u0446\u0435\u043d\u0430\u0445 \u0442\u0432\u0430\u0456\u0445, \u0456 \u0413\u0430\u043c\u0430\u0434\u044b\u043c\u044b \u0431\u044b\u043b\u0456 \u043d\u0430 \u0432\u0435\u0436\u0430\u0445 \u0442\u0432\u0430\u0456\u0445; \u043d\u0430\u0432\u043e\u043a\u0430\u043b \u043d\u0430 \u0441\u044c\u0446\u0435\u043d\u0430\u0445 \u0442\u0432\u0430\u0456\u0445 \u044f\u043d\u044b \u0432\u0435\u0448\u0430\u043b\u0456 \u043a\u0430\u043b\u0447\u0430\u043d\u044b \u0441\u0432\u0430\u0435; \u044f\u043d\u044b \u0434\u0430\u0432\u044f\u0440\u0448\u044b\u043b\u0456 \u0442\u0432\u0430\u044e \u043a\u0440\u0430\u0441\u0443."
        },
        {
            "chapter": 27,
            "verse": 12,
            "name": "Ezekiel 27:12",
            "text": "\u0422\u0430\u0440\u0441\u0456\u0441, \u0442\u0432\u043e\u0439 \u0433\u0430\u043d\u0434\u043b\u0451\u0432\u0435\u0446, \u043f\u0430\u0432\u043e\u0434\u043b\u0435 \u043c\u043d\u043e\u0441\u0442\u0432\u0430 \u0440\u043e\u0437\u043d\u0430\u0433\u0430 \u0431\u0430\u0433\u0430\u0446\u044c\u0446\u044f, \u043f\u043b\u0430\u0446\u0456\u045e \u0437\u0430 \u0442\u0432\u0430\u0435 \u0442\u0430\u0432\u0430\u0440\u044b \u0441\u0440\u044d\u0431\u0440\u0430\u043c, \u0436\u0430\u043b\u0435\u0437\u0430\u043c, \u0441\u044c\u0432\u0456\u043d\u0446\u043e\u043c \u0456 \u0432\u043e\u043b\u0430\u0432\u0430\u043c."
        },
        {
            "chapter": 27,
            "verse": 13,
            "name": "Ezekiel 27:13",
            "text": "\u042f\u0432\u0430\u043d, \u0422\u0443\u0432\u0430\u043b \u0456 \u041c\u044d\u0448\u044d\u0445 \u0433\u0430\u043d\u0434\u043b\u044f\u0432\u0430\u043b\u0456 \u0437 \u0442\u0430\u0431\u043e\u044e, \u0432\u044b\u043c\u0435\u043d\u044c\u0432\u0430\u043b\u0456 \u0442\u0432\u0430\u0435 \u0442\u0430\u0432\u0430\u0440\u044b \u043d\u0430 \u0447\u0430\u043b\u0430\u0432\u0435\u0447\u044b\u044f \u0434\u0443\u0448\u044b \u0456 \u043c\u0435\u0434\u043d\u044b \u043f\u043e\u0441\u0443\u0434."
        },
        {
            "chapter": 27,
            "verse": 14,
            "name": "Ezekiel 27:14",
            "text": "\u0417 \u0434\u043e\u043c\u0430 \u0422\u0430\u0433\u0430\u0440\u043c\u0430 \u0437\u0430 \u0442\u0432\u0430\u0435 \u0442\u0430\u0432\u0430\u0440\u044b \u0434\u0430\u0441\u0442\u0430\u045e\u043b\u044f\u043b\u0456 \u0442\u0430\u0431\u0435 \u043a\u043e\u043d\u0435\u0439 \u0456 \u0441\u0442\u0440\u0430\u044f\u0432\u044b\u0445 \u043a\u043e\u043d\u0435\u0439 \u0456 \u043c\u0443\u043b\u0430\u045e."
        },
        {
            "chapter": 27,
            "verse": 15,
            "name": "Ezekiel 27:15",
            "text": "\u0421\u044b\u043d\u044b \u0414\u044d\u0434\u0430\u043d\u0430 \u0433\u0430\u043d\u0434\u043b\u044f\u0432\u0430\u043b\u0456 \u0437 \u0442\u0430\u0431\u043e\u044e; \u043c\u043d\u043e\u0433\u0456\u044f \u0430\u0441\u0442\u0440\u0430\u0432\u044b \u0440\u0430\u0431\u0456\u043b\u0456 \u0437 \u0442\u0430\u0431\u043e\u044e \u043c\u0435\u043d\u044b, \u043d\u0430 \u043f\u043b\u0430\u0442\u0443 \u0442\u0430\u0431\u0435 \u0434\u0430\u0441\u0442\u0430\u045e\u043b\u044f\u043b\u0456 \u0441\u043b\u043e\u043d\u0430\u0432\u0443\u044e \u043a\u043e\u0441\u044c\u0446\u044c \u0456 \u0447\u043e\u0440\u043d\u0430\u0435 \u0434\u0440\u044d\u0432\u0430."
        },
        {
            "chapter": 27,
            "verse": 16,
            "name": "Ezekiel 27:16",
            "text": "\u0417 \u043f\u0440\u044b\u0447\u044b\u043d\u044b \u0442\u0432\u0430\u0451\u0439 \u0432\u044f\u043b\u0456\u043a\u0430\u0439 \u0433\u0430\u043d\u0434\u043b\u0451\u0432\u0430\u0439 \u0432\u044b\u0442\u0432\u043e\u0440\u0447\u0430\u0441\u044c\u0446\u0456 \u0433\u0430\u043d\u0434\u043b\u044f\u0432\u0430\u043b\u0456 \u0437 \u0442\u0430\u0431\u043e\u044e \u0410\u0440\u0430\u043c\u044d\u044f\u043d\u0435; \u0437\u0430 \u0442\u0432\u0430\u0435 \u0442\u0430\u0432\u0430\u0440\u044b \u044f\u043d\u044b \u043f\u043b\u0430\u0446\u0456\u043b\u0456 \u043a\u0430\u0440\u0431\u0443\u043d\u043a\u0443\u043b\u0430\u043c\u0456, \u0442\u043a\u0430\u043d\u0456\u043d\u0430\u0439 \u043f\u0443\u0440\u043f\u0443\u0440\u043e\u0432\u0430\u0439, \u0443\u0437\u043e\u0440\u044b\u0441\u0442\u0430\u0439 \u0456 \u0432\u0456\u0441\u043e\u043d\u0430\u043c\u0456, \u0456 \u043a\u0430\u0440\u0430\u043b\u0430\u043c\u0456 \u0456 \u0440\u0443\u0431\u0456\u043d\u0430\u043c\u0456."
        },
        {
            "chapter": 27,
            "verse": 17,
            "name": "Ezekiel 27:17",
            "text": "\u042e\u0434\u044d\u044f \u0456 \u0437\u044f\u043c\u043b\u044f \u0406\u0437\u0440\u0430\u0456\u043b\u0435\u0432\u0430\u044f \u0433\u0430\u043d\u0434\u043b\u044f\u0432\u0430\u043b\u0456 \u0437 \u0442\u0430\u0431\u043e\u044e; \u0437\u0430 \u0442\u0430\u0432\u0430\u0440 \u0442\u0432\u043e\u0439 \u043f\u043b\u0430\u0446\u0456\u043b\u0456 \u043f\u0448\u0430\u043d\u0456\u0446\u0430\u044e \u041c\u0456\u043d\u0456\u043d\u0456\u0446\u043a\u0430\u044e \u0456 \u043f\u0440\u044b\u0441\u043c\u0430\u043a\u0430\u043c\u0456 \u0456 \u043c\u0451\u0434\u0430\u043c, \u0456 \u0434\u0440\u0430\u045e\u043d\u0456\u043d\u043d\u044b\u043c \u0430\u043b\u0435\u0435\u043c \u0456 \u0431\u0430\u043b\u044c\u0437\u0430\u043c\u0430\u043c."
        },
        {
            "chapter": 27,
            "verse": 18,
            "name": "Ezekiel 27:18",
            "text": "\u0414\u0430\u043c\u0430\u0441\u043a, \u0437 \u043f\u0440\u044b\u0447\u044b\u043d\u044b \u0442\u0432\u0430\u0451\u0439 \u0432\u044f\u043b\u0456\u043a\u0430\u0439 \u0433\u0430\u043d\u0434\u043b\u0451\u0432\u0430\u0439 \u0432\u044b\u0442\u0432\u043e\u0440\u0447\u0430\u0441\u044c\u0446\u0456, \u0443 \u043d\u0430\u0434\u043c\u0435\u0440 \u0443\u0441\u044f\u043a\u0430\u0433\u0430 \u0431\u0430\u0433\u0430\u0446\u044c\u0446\u044f, \u0433\u0430\u043d\u0434\u043b\u044f\u0432\u0430\u045e \u0437 \u0442\u0430\u0431\u043e\u044e \u0432\u0456\u043d\u043e\u043c \u0425\u044d\u043b\u0431\u043e\u043d\u0441\u043a\u0456\u043c \u0456 \u0431\u0435\u043b\u0430\u044e \u0432\u043e\u045e\u043d\u0430\u044e."
        },
        {
            "chapter": 27,
            "verse": 19,
            "name": "Ezekiel 27:19",
            "text": "\u0414\u0430\u043d \u0456 \u042f\u0432\u0430\u043d \u0437 \u0423\u0437\u0430\u043b\u0430 \u043f\u043b\u0430\u0446\u0456\u043b\u0456 \u0442\u0430\u0431\u0435 \u0437\u0430 \u0442\u0430\u0432\u0430\u0440\u044b \u0442\u0432\u0430\u0435 \u0432\u044b\u0440\u0430\u0431\u043b\u0435\u043d\u044b\u043c \u0436\u0430\u043b\u0435\u0437\u0430\u043c; \u043a\u0430\u0441\u0456\u044f \u0456 \u043f\u0430\u0445\u0443\u0447\u0430\u044f \u0442\u0440\u044b\u0441\u044c\u0446\u0456\u043d\u0430 \u0456\u0448\u043b\u0456 \u0442\u0430\u0431\u0435 \u043d\u0430 \u0430\u0431\u043c\u0435\u043d."
        },
        {
            "chapter": 27,
            "verse": 20,
            "name": "Ezekiel 27:20",
            "text": "\u0414\u044d\u0434\u0430\u043d \u0433\u0430\u043d\u0434\u043b\u044f\u0432\u0430\u045e \u0437 \u0442\u0430\u0431\u043e\u044e \u043a\u0430\u0448\u0442\u043e\u045e\u043d\u044b\u043c\u0456 \u0433\u0443\u043d\u044c\u043a\u0430\u043c\u0456 \u0434\u043b\u044f \u0432\u0435\u0440\u0445\u0430\u0432\u043e\u0439 \u044f\u0437\u0434\u044b."
        },
        {
            "chapter": 27,
            "verse": 21,
            "name": "Ezekiel 27:21",
            "text": "\u0410\u0440\u0430\u0432\u0456\u044f \u0456 \u045e\u0441\u0435 \u043a\u043d\u044f\u0437\u0456 \u041a\u0456\u0434\u0430\u0440\u0441\u043a\u0456\u044f \u0440\u0430\u0431\u0456\u043b\u0456 \u043c\u0435\u043d\u0443 \u0437 \u0442\u0430\u0431\u043e\u044e: \u044f\u0433\u043d\u044f\u0442 \u0456 \u0431\u0430\u0440\u0430\u043d\u043e\u045e \u0456 \u043a\u0430\u0437\u043b\u043e\u045e \u0432\u044b\u043c\u0435\u043d\u044c\u0432\u0430\u043b\u0456 \u0442\u0430\u0431\u0435."
        },
        {
            "chapter": 27,
            "verse": 22,
            "name": "Ezekiel 27:22",
            "text": "\u041a\u0443\u043f\u0446\u044b \u0437 \u0421\u0430\u0432\u044b \u0456 \u0420\u0430\u0442\u043c\u044b \u0433\u0430\u043d\u0434\u043b\u044f\u0432\u0430\u043b\u0456 \u0437 \u0442\u0430\u0431\u043e\u044e \u045e\u0441\u044f\u043a\u0456\u043c\u0456 \u043d\u0430\u0439\u043b\u0435\u043f\u0448\u044b\u043c\u0456 \u043f\u0430\u0445\u043e\u0448\u0447\u0430\u043c\u0456 \u0456 \u045e\u0441\u044f\u043a\u0456\u043c\u0456 \u0434\u0430\u0440\u0430\u0433\u0456\u043c\u0456 \u043a\u0430\u043c\u044f\u043d\u044f\u043c\u0456, \u0456 \u0437\u043e\u043b\u0430\u0442\u0430\u043c \u043f\u043b\u0430\u0446\u0456\u043b\u0456 \u0437\u0430 \u0442\u0430\u0432\u0430\u0440\u044b \u0442\u0432\u0430\u0435."
        },
        {
            "chapter": 27,
            "verse": 23,
            "name": "Ezekiel 27:23",
            "text": "\u0425\u0430\u0440\u0430\u043d \u0456 \u0425\u0430\u043d\u044d \u0456 \u042d\u0434\u044d\u043d, \u043a\u0443\u043f\u0446\u044b \u0421\u0430\u0432\u044d\u0439\u0441\u043a\u0456\u044f, \u0410\u0441\u0443\u0440 \u0456 \u0425\u0456\u043b\u043c\u0430\u0434 \u0433\u0430\u043d\u0434\u043b\u044f\u0432\u0430\u043b\u0456 \u0437 \u0442\u0430\u0431\u043e\u044e."
        },
        {
            "chapter": 27,
            "verse": 24,
            "name": "Ezekiel 27:24",
            "text": "\u042f\u043d\u044b \u0433\u0430\u043d\u0434\u043b\u044f\u0432\u0430\u043b\u0456 \u0437 \u0442\u0430\u0431\u043e\u044e \u043a\u0430\u0448\u0442\u043e\u045e\u043d\u0430\u044e \u0432\u043e\u043f\u0440\u0430\u0442\u043a\u0430\u044e, \u0448\u0430\u045e\u043a\u043e\u0432\u044b\u043c \u0456 \u045e\u0437\u043e\u0440\u044b\u0441\u0442\u044b\u043c \u043f\u0430\u043b\u0430\u0442\u043d\u043e\u043c, \u044f\u043a\u043e\u0435 \u044f\u043d\u044b \u043f\u0440\u044b\u0432\u043e\u0437\u0456\u043b\u0456 \u043d\u0430 \u0442\u0432\u0430\u0435 \u0440\u044b\u043d\u043a\u0456 \u045e \u0434\u0430\u0440\u0430\u0433\u0456\u0445 \u0441\u043a\u0440\u044b\u043d\u044f\u0445, \u0437\u0440\u043e\u0431\u043b\u0435\u043d\u044b\u0445 \u0437 \u043a\u0435\u0434-\u0440\u0430 \u0456 \u0434\u043e\u0431\u0440\u0430 \u045e\u043f\u0430\u043a\u0430\u0432\u0430\u043d\u044b\u0445."
        },
        {
            "chapter": 27,
            "verse": 25,
            "name": "Ezekiel 27:25",
            "text": "\u0422\u0430\u0440\u0441\u0456\u0441\u043a\u0456\u044f \u043a\u0430\u0440\u0430\u0431\u043b\u0456 \u0431\u044b\u043b\u0456 \u0442\u0432\u0430\u0456\u043c\u0456 \u043a\u0430\u0440\u0430\u0432\u0430\u043d\u0430\u043c\u0456 \u045e \u0442\u0432\u0430\u0456\u043c \u0433\u0430\u043d\u0434\u043b\u0456, \u0456 \u0442\u044b \u0437\u0440\u0430\u0431\u0456\u045e\u0441\u044f \u0431\u0430\u0433\u0430\u0442\u044b\u043c \u0456 \u0434\u0430\u0432\u043e\u043b\u0456 \u0441\u043b\u0430\u0432\u0443\u0442\u044b\u043c \u0441\u044f\u0440\u043e\u0434 \u043c\u043e\u0440\u0430\u045e."
        },
        {
            "chapter": 27,
            "verse": 26,
            "name": "Ezekiel 27:26",
            "text": "\u0412\u0435\u0441\u044c\u043b\u044f\u0440\u044b \u0442\u0432\u0430\u0435 \u0437\u0430\u0432\u044f\u043b\u0456 \u0446\u044f\u0431\u0435 \u045e \u0432\u044f\u043b\u0456\u043a\u0456\u044f \u0432\u043e\u0434\u044b; \u0443\u0441\u0445\u043e\u0434\u043d\u0456 \u0432\u0435\u0446\u0435\u0440 \u0440\u0430\u0437\u044c\u0431\u0456\u045e \u0446\u044f\u0431\u0435 \u0441\u044f\u0440\u043e\u0434 \u043c\u043e\u0440\u0430\u045e."
        },
        {
            "chapter": 27,
            "verse": 27,
            "name": "Ezekiel 27:27",
            "text": "\u0422\u0432\u0430\u0451 \u0431\u0430\u0433\u0430\u0446\u044c\u0446\u0435 \u0456 \u0442\u0432\u0430\u0435 \u0442\u0430\u0432\u0430\u0440\u044b, \u0443\u0441\u0435 \u0442\u0432\u0430\u0435 \u0441\u043a\u043b\u0430\u0434\u044b, \u043a\u0430\u0440\u0430\u0431\u0435\u043b\u044c\u043d\u0456\u043a\u0456 \u0442\u0432\u0430\u0435 \u0456 \u0442\u0432\u0430\u0435 \u0441\u0442\u044b\u0440\u043d\u0456\u043a\u0456, \u0448\u0442\u043e \u0437\u0430\u043a\u043b\u0430\u0434\u0432\u0430\u043b\u0456 \u0442\u0432\u0430\u0435 \u043f\u0440\u0430\u0431\u043e\u0456\u043d\u044b \u0456 \u043a\u0456\u0440\u0430\u0432\u0430\u043b\u0456 \u0442\u0432\u0430\u0456\u043c \u0433\u0430\u043d\u0434\u043b\u0435\u043c, \u0456 \u045e\u0441\u0435 \u0440\u0430\u0442\u043d\u0456\u043a\u0456 \u0442\u0432\u0430\u0435, \u044f\u043a\u0456\u044f \u045e \u0446\u044f\u0431\u0435 \u0431\u044b\u043b\u0456, \u0456 \u045e\u0441\u0451 \u043c\u043d\u043e\u0441\u0442\u0432\u0430 \u043d\u0430\u0440\u043e\u0434\u0443 \u045e \u0442\u0430\u0431\u0435 \u045e \u0434\u0437\u0435\u043d\u044c \u0442\u0432\u0430\u0439\u0433\u043e \u043f\u0430\u0434\u0437\u0435\u043d\u044c\u043d\u044f \u045e\u043f\u0430\u0434\u0437\u0435 \u045e \u0441\u044d\u0440\u0446\u0430 \u043c\u043e\u0440\u0430\u045e."
        },
        {
            "chapter": 27,
            "verse": 28,
            "name": "Ezekiel 27:28",
            "text": "\u0410\u0434 \u043b\u044f\u043c\u0430\u043d\u0442\u0443 \u0441\u0442\u044b\u0440\u043d\u0456\u043a\u0430\u045e \u0442\u0432\u0430\u0456\u0445 \u0437\u0430\u0434\u0440\u044b\u0436\u0430\u0446\u044c \u0432\u0430\u043a\u043e\u043b\u0456\u0446\u044b."
        },
        {
            "chapter": 27,
            "verse": 29,
            "name": "Ezekiel 27:29",
            "text": "\u0406 \u0437 \u043a\u0430\u0440\u0430\u0431\u043b\u0451\u045e \u0441\u0432\u0430\u0456\u0445 \u0441\u044b\u0434\u0443\u0446\u044c \u0443\u0441\u0435 \u0432\u0435\u0441\u044c\u043b\u044f\u0440\u044b, \u043a\u0430\u0440\u0430\u0431\u0435\u043b\u044c\u043d\u0456\u043a\u0456, \u0443\u0441\u0435 \u0441\u0442\u044b\u0440\u043d\u0456\u043a\u0456 \u043c\u043e\u0440\u0430 \u0441\u0442\u0430\u043d\u0443\u0446\u044c \u043d\u0430 \u0437\u044f\u043c\u043b\u044e;"
        },
        {
            "chapter": 27,
            "verse": 30,
            "name": "Ezekiel 27:30",
            "text": "\u0406 \u0437\u0430\u0433\u0430\u043b\u043e\u0441\u044f\u0446\u044c \u043f\u0430 \u0442\u0430\u0431\u0435 \u043c\u043e\u0446\u043d\u044b\u043c \u0433\u043e\u043b\u0430\u0441\u0430\u043c \u0456 \u0433\u043e\u0440\u043a\u0430 \u0437\u0430\u0441\u0442\u043e\u0433\u043d\u0443\u0446\u044c, \u043f\u0430\u0441\u044b\u043f\u0430\u045e\u0448\u044b \u043f\u043e\u043f\u0435\u043b\u0430\u043c \u0441\u0432\u0430\u0435 \u0433\u0430\u043b\u043e\u0432\u044b, \u0456 \u043a\u0430\u0447\u0430\u044e\u0447\u044b\u0441\u044f \u045e \u043f\u044b\u043b\u0435;"
        },
        {
            "chapter": 27,
            "verse": 31,
            "name": "Ezekiel 27:31",
            "text": "\u0456 \u0430\u0441\u0442\u0440\u044b\u0433\u0443\u0446\u044c \u043f\u0430 \u0442\u0430\u0431\u0435 \u0432\u0430\u043b\u0430\u0441\u044b \u043d\u0430\u0433\u043e\u043b\u0430 \u0456 \u0430\u043f\u044f\u0440\u0430\u0436\u0443\u0446\u0446\u0430 \u0432\u044f\u0440\u044d\u0442\u0430\u043c\u0456 \u0456 \u0437\u0430\u043f\u043b\u0430\u0447\u0443\u0446\u044c \u043f\u0430 \u0442\u0430\u0431\u0435 \u0430\u0434 \u0434\u0443\u0448\u044d\u045e\u043d\u0430\u0439 \u0441\u043a\u0440\u0443\u0445\u0456 \u0433\u043e\u0440\u043a\u0456\u043c \u043f\u043b\u0430\u0447\u0430\u043c;"
        },
        {
            "chapter": 27,
            "verse": 32,
            "name": "Ezekiel 27:32",
            "text": "\u0456 \u045e \u0436\u0430\u043b\u044c\u0431\u0435 \u0441\u0432\u0430\u0451\u0439 \u0443\u0437\u044c\u043d\u044f\u0441\u0443\u0446\u044c \u0441\u044c\u043b\u0451\u0437\u043d\u0443\u044e \u043f\u0435\u0441\u044c\u043d\u044e \u043f\u0430 \u0442\u0430\u0431\u0435, \u0456 \u0442\u0430\u043a \u0437\u0430\u0433\u0430\u043b\u043e\u0441\u044f\u0446\u044c \u043f\u0430 \u0442\u0430\u0431\u0435: \"\u0445\u0442\u043e \u044f\u043a \u0422\u044b\u0440, \u0442\u0430\u043a \u0440\u0430\u0437\u0431\u0443\u0440\u0430\u043d\u044b \u0441\u044f\u0440\u043e\u0434 \u043c\u043e\u0440\u0430!"
        },
        {
            "chapter": 27,
            "verse": 33,
            "name": "Ezekiel 27:33",
            "text": "\u041a\u0430\u043b\u0456 \u043f\u0440\u044b\u0445\u043e\u0434\u0437\u0456\u043b\u0456 \u0437 \u043c\u043e\u0440\u0430 \u0442\u0432\u0430\u0435 \u0442\u0430\u0432\u0430\u0440\u044b, \u0442\u044b \u043a\u0430\u0440\u043c\u0456\u045e \u043c\u043d\u043e\u0433\u0456\u044f \u043d\u0430\u0440\u043e\u0434\u044b; \u043c\u043d\u043e\u0441\u0442\u0432\u0430\u043c \u0431\u0430\u0433\u0430\u0446\u044c\u0446\u044f \u0442\u0432\u0430\u0439\u0433\u043e \u0456 \u0442\u0432\u0430\u0456\u043c \u0433\u0430\u043d\u0434\u043b\u0435\u043c \u0443\u0437\u0431\u0430\u0433\u0430\u0447\u0430\u045e \u0446\u0430\u0440\u043e\u045e \u0437\u044f\u043c\u043b\u0456."
        },
        {
            "chapter": 27,
            "verse": 34,
            "name": "Ezekiel 27:34",
            "text": "\u0410 \u043a\u0430\u043b\u0456 \u0442\u044b \u0440\u0430\u0437\u044c\u0431\u0456\u0442\u044b \u043c\u043e\u0440\u0430\u043c\u0456 \u045e \u0431\u0435\u0437\u0434\u0430\u043d\u0456 \u0432\u043e\u0434\u0430\u045e, \u0442\u0432\u0430\u0435 \u0442\u0430\u0432\u0430\u0440\u044b \u0456 \u045e\u0441\u0451, \u0448\u0442\u043e \u045e \u0442\u0430\u0431\u0435 \u0442\u043b\u0443\u043c\u0456\u043b\u0430\u0441\u044f, \u0443\u043f\u0430\u043b\u0430."
        },
        {
            "chapter": 27,
            "verse": 35,
            "name": "Ezekiel 27:35",
            "text": "\u0423\u0441\u0435 \u043d\u0430\u0441\u0435\u043b\u044c\u043d\u0456\u043a\u0456 \u0430\u0441\u0442\u0440\u0430\u0432\u043e\u045e \u0436\u0430\u0445\u043d\u0443\u043b\u0456\u0441\u044f \u043f\u0430 \u0442\u0430\u0431\u0435 \u0456 \u0446\u0430\u0440\u044b \u0456\u0445\u043d\u0456\u044f \u0437\u0434\u0440\u044b\u0433\u0430\u043d\u0443\u043b\u0456\u0441\u044f, \u0437\u044c\u043c\u044f\u043d\u0456\u043b\u0456\u0441\u044f \u045e \u0442\u0432\u0430\u0440\u044b."
        },
        {
            "chapter": 27,
            "verse": 36,
            "name": "Ezekiel 27:36",
            "text": "\u0413\u0430\u043d\u0434\u043b\u044f\u0440\u044b \u0456\u043d\u0448\u044b\u0445 \u043d\u0430\u0440\u043e\u0434\u0430\u045e \u0441\u044c\u0432\u0456\u0441\u043d\u0443\u043b\u0456 \u043f\u0430 \u0442\u0430\u0431\u0435; \u0442\u044b \u0437\u0440\u0430\u0431\u0456\u045e\u0441\u044f \u0436\u0430\u0445\u0430\u043c, \u2014 \u0456 \u043d\u044f \u0431\u0443\u0434\u0437\u0435 \u0446\u044f\u0431\u0435 \u0432\u0430\u0432\u0435\u043a\u0456\". "
        }
    ]
}