{
    "translation": "Pyha Raamattu (1992)",
    "abbreviation": "pyharaamattu1992",
    "lang": "fi",
    "language": "Finnish",
    "direction": "LTR",
    "encoding": "UTF-8",
    "book_nr": 66,
    "book_name": "Revelation",
    "chapter": 15,
    "name": "Revelation 15",
    "verses": [
        {
            "chapter": 15,
            "verse": 1,
            "name": "Revelation 15:1",
            "text": "Min\u00e4 n\u00e4in taas taivaalla suuren ja ihmeellisen tunnusmerkin: seitsem\u00e4n enkeli\u00e4, seitsem\u00e4n vitsauksen toimeenpanijat. N\u00e4m\u00e4 vitsaukset ovat viimeiset, niihin tyhjentyy Jumalan viha."
        },
        {
            "chapter": 15,
            "verse": 2,
            "name": "Revelation 15:2",
            "text": "Min\u00e4 n\u00e4in kuin kristallisen meren, joka v\u00e4lkehti tulta. Tuon kristallimeren rannalla seisoivat pedosta voiton saaneet, ne, jotka eiv\u00e4t olleet kumartaneet sen kuvaa eiv\u00e4tk\u00e4 ottaneet merkki\u00e4, jossa on sen nimen luku. Heill\u00e4 oli k\u00e4siss\u00e4\u00e4n Jumalan harput,"
        },
        {
            "chapter": 15,
            "verse": 3,
            "name": "Revelation 15:3",
            "text": "ja he lauloivat Mooseksen, Jumalan palvelijan, ja Karitsan laulua: -- Suuret ja ihmeelliset ovat sinun tekosi, Herra Jumala, Kaikkivaltias! Oikeat ja todet ovat sinun tiesi, sin\u00e4 kansojen kuningas!"
        },
        {
            "chapter": 15,
            "verse": 4,
            "name": "Revelation 15:4",
            "text": "Kuka ei sinua pelk\u00e4isi, Herra, kuka ei ylist\u00e4isi nime\u00e4si? Sin\u00e4 yksin olet pyh\u00e4. Kaikki kansat tulevat eteesi ja kumartavat sinua, sill\u00e4 sinun oikeat tuomiosi ovat tulleet julki."
        },
        {
            "chapter": 15,
            "verse": 5,
            "name": "Revelation 15:5",
            "text": "T\u00e4m\u00e4n j\u00e4lkeen min\u00e4 n\u00e4in, kuinka taivaan temppeli, todistuksen teltta, avattiin"
        },
        {
            "chapter": 15,
            "verse": 6,
            "name": "Revelation 15:6",
            "text": "ja temppelist\u00e4 tuli ulos seitsem\u00e4n enkeli\u00e4, seitsem\u00e4n vitsauksen toimeenpanijat. Heid\u00e4n pukunsa oli puhtaan valkoista pellavaa, ja rinnan ymp\u00e4rill\u00e4 heill\u00e4 oli kultainen vy\u00f6."
        },
        {
            "chapter": 15,
            "verse": 7,
            "name": "Revelation 15:7",
            "text": "Yksi nelj\u00e4st\u00e4 olennosta antoi n\u00e4ille seitsem\u00e4lle enkelille seitsem\u00e4n kultaista maljaa, jotka olivat t\u00e4ynn\u00e4 Jumalan vihaa, h\u00e4nen, joka el\u00e4\u00e4 aina ja ikuisesti."
        },
        {
            "chapter": 15,
            "verse": 8,
            "name": "Revelation 15:8",
            "text": "Jumalan kirkkaus ja voima t\u00e4ytti temppelin savulla, niin ettei kukaan voinut menn\u00e4 sis\u00e4lle temppeliin, ennen kuin nuo seitsem\u00e4n enkeli\u00e4 olivat panneet seitsem\u00e4n vitsausta t\u00e4yt\u00e4nt\u00f6\u00f6n."
        }
    ]
}