{
    "translation": "Kitab Awal-Jaman maka Kitab Injil",
    "abbreviation": "sml_bl_2008",
    "lang": "sml",
    "language": "Sama",
    "direction": "LTR",
    "encoding": "UTF-8",
    "book_nr": 19,
    "book_name": "Psalms",
    "chapter": 116,
    "name": "Psalms 116",
    "verses": [
        {
            "chapter": 116,
            "verse": 1,
            "name": "Psalms 116:1",
            "text": ""
        },
        {
            "chapter": 116,
            "verse": 2,
            "name": "Psalms 116:2",
            "text": ""
        },
        {
            "chapter": 116,
            "verse": 3,
            "name": "Psalms 116:3",
            "text": ""
        },
        {
            "chapter": 116,
            "verse": 4,
            "name": "Psalms 116:4",
            "text": ""
        },
        {
            "chapter": 116,
            "verse": 5,
            "name": "Psalms 116:5",
            "text": ""
        },
        {
            "chapter": 116,
            "verse": 6,
            "name": "Psalms 116:6",
            "text": ""
        },
        {
            "chapter": 116,
            "verse": 7,
            "name": "Psalms 116:7",
            "text": ""
        },
        {
            "chapter": 116,
            "verse": 8,
            "name": "Psalms 116:8",
            "text": ""
        },
        {
            "chapter": 116,
            "verse": 9,
            "name": "Psalms 116:9",
            "text": ""
        },
        {
            "chapter": 116,
            "verse": 10,
            "name": "Psalms 116:10",
            "text": ""
        },
        {
            "chapter": 116,
            "verse": 11,
            "name": "Psalms 116:11",
            "text": ""
        },
        {
            "chapter": 116,
            "verse": 12,
            "name": "Psalms 116:12",
            "text": ""
        },
        {
            "chapter": 116,
            "verse": 13,
            "name": "Psalms 116:13",
            "text": ""
        },
        {
            "chapter": 116,
            "verse": 14,
            "name": "Psalms 116:14",
            "text": ""
        },
        {
            "chapter": 116,
            "verse": 15,
            "name": "Psalms 116:15",
            "text": ""
        },
        {
            "chapter": 116,
            "verse": 16,
            "name": "Psalms 116:16",
            "text": ""
        },
        {
            "chapter": 116,
            "verse": 17,
            "name": "Psalms 116:17",
            "text": ""
        },
        {
            "chapter": 116,
            "verse": 18,
            "name": "Psalms 116:18",
            "text": ""
        },
        {
            "chapter": 116,
            "verse": 19,
            "name": "Psalms 116:19",
            "text": ""
        }
    ]
}