{
    "translation": "Urdu Geo Version Latin Script (UGV)",
    "abbreviation": "urdugeoroman",
    "lang": "ur",
    "language": "Urdu",
    "direction": "RTL",
    "encoding": "UTF-8",
    "book_nr": 18,
    "book_name": "Job",
    "chapter": 27,
    "name": "Job 27",
    "verses": [
        {
            "chapter": 27,
            "verse": 1,
            "name": "Job 27:1",
            "text": " phir ayy\u016bb ne apn\u012b b\u0101t j\u0101r\u012b rakh\u012b,"
        },
        {
            "chapter": 27,
            "verse": 2,
            "name": "Job 27:2",
            "text": "\u201call\u0101h k\u012b hay\u0101t k\u012b qasam jis ne mer\u0101 ins\u0101f karne se ink\u0101r kiy\u0101, q\u0101dir-e-mutlaq k\u012b qasam jis ne mer\u012b zindag\u012b tal\u1e33h kar d\u012b hai,"
        },
        {
            "chapter": 27,
            "verse": 3,
            "name": "Job 27:3",
            "text": "mere j\u012bte j\u012b, h\u0101\u1e45 jab tak all\u0101h k\u0101 dam mer\u012b n\u0101k me\u1e45 hai"
        },
        {
            "chapter": 27,
            "verse": 4,
            "name": "Job 27:4",
            "text": "mere ho\u1e45\u1e6d jh\u016b\u1e6d nah\u012b\u1e45 bole\u1e45ge, mer\u012b zab\u0101n dhok\u0101 bay\u0101n nah\u012b\u1e45 kareg\u012b."
        },
        {
            "chapter": 27,
            "verse": 5,
            "name": "Job 27:5",
            "text": "mai\u1e45 kabh\u012b tasl\u012bm nah\u012b\u1e45 kar\u016b\u1e45ga ki tumh\u0101r\u012b b\u0101t durust hai. mai\u1e45 be'ilz\u0101m h\u016b\u1e45 aur marte dam tak is ke ula\u1e6d nah\u012b\u1e45 kah\u016b\u1e45g\u0101."
        },
        {
            "chapter": 27,
            "verse": 6,
            "name": "Job 27:6",
            "text": "mai\u1e45 isr\u0101r kart\u0101 h\u016b\u1e45 ki r\u0101stb\u0101z h\u016b\u1e45 aur is se kabh\u012b b\u0101z nah\u012b\u1e45 \u0101\u016b\u1e45g\u0101. mer\u0101 dil mere kis\u012b bh\u012b din ke b\u0101re me\u1e45 mujhe mal\u0101mat nah\u012b\u1e45 kart\u0101."
        },
        {
            "chapter": 27,
            "verse": 7,
            "name": "Job 27:7",
            "text": "all\u0101h kare ki mere dushman ke s\u0101th wuh\u012b sul\u016bk kiy\u0101 j\u0101e jo bed\u012bno\u1e45 ke s\u0101th kiy\u0101 j\u0101eg\u0101, ki mere mu\u1e33h\u0101lif k\u0101 wuh anj\u0101m ho jo badk\u0101ro\u1e45 ko pesh \u0101eg\u0101."
        },
        {
            "chapter": 27,
            "verse": 8,
            "name": "Job 27:8",
            "text": "ky\u016b\u1e45ki us waqt shar\u012br k\u012b ky\u0101 umm\u012bd raheg\u012b jab use is zindag\u012b se munqate kiy\u0101 j\u0101eg\u0101, jab all\u0101h us k\u012b j\u0101n us se talab kareg\u0101?"
        },
        {
            "chapter": 27,
            "verse": 9,
            "name": "Job 27:9",
            "text": "ky\u0101 all\u0101h us k\u012b ch\u012b\u1e33he\u1e45 suneg\u0101 jab wuh mus\u012bbat me\u1e45 pha\u1e45s kar madad ke lie puk\u0101reg\u0101?"
        },
        {
            "chapter": 27,
            "verse": 10,
            "name": "Job 27:10",
            "text": "y\u0101 ky\u0101 wuh q\u0101dir-e-mutlaq se lutfandoz hog\u0101 aur har waqt all\u0101h ko puk\u0101reg\u0101?"
        },
        {
            "chapter": 27,
            "verse": 11,
            "name": "Job 27:11",
            "text": "ab mai\u1e45 tumhe\u1e45 all\u0101h k\u012b qudrat ke b\u0101re me\u1e45 t\u0101l\u012bm d\u016b\u1e45g\u0101, q\u0101dir-e-mutlaq k\u0101 ir\u0101d\u0101 tum se nah\u012b\u1e45 chhup\u0101\u016b\u1e45g\u0101."
        },
        {
            "chapter": 27,
            "verse": 12,
            "name": "Job 27:12",
            "text": "dekho, tum sab ne is k\u0101 mush\u0101had\u0101 kiy\u0101 hai. to phir is qism k\u012b b\u0101til b\u0101te\u1e45 ky\u016b\u1e45 karte ho?"
        },
        {
            "chapter": 27,
            "verse": 13,
            "name": "Job 27:13",
            "text": " bed\u012bn all\u0101h se ky\u0101 ajr p\u0101eg\u0101, z\u0101lim ko q\u0101dir-e-mutlaq se m\u012br\u0101s me\u1e45 ky\u0101 mileg\u0101?"
        },
        {
            "chapter": 27,
            "verse": 14,
            "name": "Job 27:14",
            "text": "go us ke bachche muta'addid ho\u1e45, lekin \u0101\u1e33hirk\u0101r wuh talw\u0101r k\u012b zad me\u1e45 \u0101e\u1e45ge. us k\u012b aul\u0101d bh\u016bk\u012b raheg\u012b."
        },
        {
            "chapter": 27,
            "verse": 15,
            "name": "Job 27:15",
            "text": "jo bach j\u0101e\u1e45 unhe\u1e45 mohlak b\u012bm\u0101r\u012b se qabr me\u1e45 pahu\u1e45ch\u0101y\u0101 j\u0101eg\u0101, aur un k\u012b bew\u0101e\u1e45 m\u0101tam nah\u012b\u1e45 kar p\u0101e\u1e45g\u012b."
        },
        {
            "chapter": 27,
            "verse": 16,
            "name": "Job 27:16",
            "text": "beshak wuh \u1e33h\u0101k k\u012b tarah ch\u0101\u1e45d\u012b k\u0101 \u1e0dher lag\u0101e aur mi\u1e6d\u1e6d\u012b k\u012b tarah naf\u012bs kap\u1e5bo\u1e45 k\u0101 tod\u0101 ika\u1e6d\u1e6dh\u0101 kare,"
        },
        {
            "chapter": 27,
            "verse": 17,
            "name": "Job 27:17",
            "text": "lekin jo kap\u1e5be wuh jam\u0101 kare unhe\u1e45 r\u0101stb\u0101z pahan leg\u0101, aur jo ch\u0101\u1e45d\u012b wuh ika\u1e6d\u1e6dh\u012b kare use bequs\u016br taqs\u012bm kareg\u0101."
        },
        {
            "chapter": 27,
            "verse": 18,
            "name": "Job 27:18",
            "text": "jo ghar bed\u012bn ban\u0101 le wuh gho\u1e45sle k\u012b m\u0101nind hai, us \u0101riz\u012b jho\u1e45p\u1e5b\u012b k\u012b m\u0101nind jo chauk\u012bd\u0101r apne lie ban\u0101 let\u0101 hai."
        },
        {
            "chapter": 27,
            "verse": 19,
            "name": "Job 27:19",
            "text": "wuh am\u012br h\u0101lat me\u1e45 so j\u0101t\u0101 hai, lekin \u0101\u1e33hir\u012b daf\u0101. jab apn\u012b \u0101\u1e45khe\u1e45 khol let\u0101 to tam\u0101m daulat j\u0101t\u012b rah\u012b hai."
        },
        {
            "chapter": 27,
            "verse": 20,
            "name": "Job 27:20",
            "text": "us par hauln\u0101k w\u0101qi\u0101t k\u0101 sail\u0101b \u1e6d\u016b\u1e6d pa\u1e5bt\u0101, use r\u0101t ke waqt \u0101\u1e45dh\u012b chh\u012bn let\u012b hai."
        },
        {
            "chapter": 27,
            "verse": 21,
            "name": "Job 27:21",
            "text": "mashriq\u012b l\u016b use u\u1e5b\u0101 le j\u0101t\u012b, use u\u1e6dh\u0101 kar us ke maq\u0101m se d\u016br phai\u1e45k det\u012b hai."
        },
        {
            "chapter": 27,
            "verse": 22,
            "name": "Job 27:22",
            "text": "berahm\u012b se wuh us par y\u016b\u1e45 jhapa\u1e6d\u1e6d\u0101 m\u0101rt\u012b raht\u012b hai ki use b\u0101r b\u0101r bh\u0101gn\u0101 pa\u1e5bt\u0101 hai."
        },
        {
            "chapter": 27,
            "verse": 23,
            "name": "Job 27:23",
            "text": "wuh t\u0101liy\u0101\u1e45 baj\u0101 kar apn\u012b hiq\u0101rat k\u0101 izh\u0101r kart\u012b, apn\u012b jagah se \u0101w\u0101ze kast\u012b hai.  "
        }
    ]
}