{
    "translation": "NCV Traditional",
    "abbreviation": "cnt",
    "lang": "zh",
    "language": "",
    "direction": "LTR",
    "encoding": "UTF-8",
    "book_nr": 2,
    "book_name": "Exodus",
    "chapter": 4,
    "name": "Exodus 4",
    "verses": [
        {
            "chapter": 4,
            "verse": 1,
            "name": "Exodus 4:1",
            "text": "\u6469\u897f\u56de\u7b54\uff1a\u201c\u770b\u54ea\uff0c\u4ed6\u5011\u5fc5\u4e0d\u4fe1\u6211\uff0c\u4e5f\u4e0d\u807d\u6211\u7684\u8a71\uff1b\u56e0\u70ba\u4ed6\u5011\u5fc5\u8aaa\uff1a\u2018\u8036\u548c\u83ef\u4e26\u6c92\u6709\u5411\u4f60\u986f\u73fe\u3002\u2019\u201d"
        },
        {
            "chapter": 4,
            "verse": 2,
            "name": "Exodus 4:2",
            "text": "\u8036\u548c\u83ef\u554f\u6469\u897f\uff1a\u201c\u90a3\u5728\u4f60\u624b\u88e1\u7684\u662f\u751a\u9ebc\uff1f\u201d\u4ed6\u8aaa\uff1a\u201c\u662f\u624b\u6756\u3002\u201d"
        },
        {
            "chapter": 4,
            "verse": 3,
            "name": "Exodus 4:3",
            "text": "\u8036\u548c\u83ef\u8aaa\uff1a\u201c\u628a\u5b83\u4e1f\u5728\u5730\u4e0a\u3002\u201d\u6469\u897f\u628a\u5b83\u4e00\u4e1f\u5728\u5730\u4e0a\uff0c\u5b83\u5c31\u8b8a\u4e86\u86c7\uff1b\u6469\u897f\u5c31\u9003\u8dd1\uff0c\u96e2\u958b\u4e86\u7260\u3002"
        },
        {
            "chapter": 4,
            "verse": 4,
            "name": "Exodus 4:4",
            "text": "\u8036\u548c\u83ef\u5c0d\u6469\u897f\u8aaa\uff1a\u201c\u4f38\u51fa\u4f60\u7684\u624b\u4f86\uff0c\u6349\u4f4f\u86c7\u7684\u5c3e\u5df4\u3002\u201d\u6469\u897f\u5c31\u4f38\u51fa\u624b\u4f86\uff0c\u7dca\u63e1\u8457\u7260\uff0c\u7260\u5728\u6469\u897f\u7684\u638c\u4e2d\u53c8\u8b8a\u56de\u4e86\u624b\u6756\u3002"
        },
        {
            "chapter": 4,
            "verse": 5,
            "name": "Exodus 4:5",
            "text": "\u201c\u9019\u6a23\u5c31\u4f7f\u4ed6\u5011\u76f8\u4fe1\u8036\u548c\u83ef\u4ed6\u5011\u7956\u5b97\u7684\u3000\u795e\uff0c\u5c31\u662f\u4e9e\u4f2f\u62c9\u7f55\u7684\u3000\u795e\u3001\u4ee5\u6492\u7684\u3000\u795e\u3001\u96c5\u5404\u7684\u3000\u795e\u66fe\u5411\u4f60\u986f\u73fe\u4e86\u3002\u201d"
        },
        {
            "chapter": 4,
            "verse": 6,
            "name": "Exodus 4:6",
            "text": "\u8036\u548c\u83ef\u53c8\u518d\u5c0d\u6469\u897f\u8aaa\uff1a\u201c\u73fe\u5728\u628a\u4f60\u7684\u624b\u653e\u9032\u61f7\u88e1\u3002\u201d\u6469\u897f\u5c31\u628a\u624b\u653e\u9032\u61f7\u88e1\uff1b\u7b49\u4ed6\u628a\u624b\u62bd\u51fa\u4f86\u7684\u6642\u5019\uff0c\u624b\u5c31\u9577\u6eff\u4e86\u75f2\u98a8\uff0c\u50cf\u96ea\u90a3\u6a23\u767d\u3002"
        },
        {
            "chapter": 4,
            "verse": 7,
            "name": "Exodus 4:7",
            "text": "\u8036\u548c\u83ef\u8aaa\uff1a\u201c\u628a\u4f60\u7684\u624b\u518d\u653e\u9032\u61f7\u88e1\u3002\u201d\u6469\u897f\u5c31\u628a\u624b\u518d\u653e\u9032\u61f7\u88e1\uff1b\u7b49\u4ed6\u628a\u624b\u5f9e\u61f7\u88e1\u62bd\u51fa\u4f86\u7684\u6642\u5019\uff0c\u624b\u5c31\u6062\u5fa9\u904e\u4f86\uff0c\u50cf\u8eab\u4e0a\u5225\u8655\u7684\u8089\u4e00\u6a23\u3002"
        },
        {
            "chapter": 4,
            "verse": 8,
            "name": "Exodus 4:8",
            "text": "\u8036\u548c\u83ef\u53c8\u8aaa\uff1a\u201c\u5982\u679c\u4ed6\u5011\u4e0d\u4fe1\u4f60\uff0c\u4e5f\u4e0d\u807d\u5f9e\u982d\u4e00\u500b\u795e\u8e5f\u7684\u8a71\uff0c\u4ed6\u5011\u5fc5\u4fe1\u96a8\u5f8c\u4f86\u7684\u795e\u8e5f\u3002"
        },
        {
            "chapter": 4,
            "verse": 9,
            "name": "Exodus 4:9",
            "text": "\u5982\u679c\u9023\u9019\u5169\u500b\u795e\u8e5f\u4ed6\u5011\u4e5f\u4e0d\u4fe1\uff0c\u4e5f\u4e0d\u807d\u4f60\u7684\u8a71\uff0c\u4f60\u5c31\u5f9e\u6cb3\u88e1\u53d6\u4e9b\u6c34\uff0c\u5012\u5728\u65f1\u5730\u4e0a\uff1b\u4f60\u5f9e\u6cb3\u88e1\u53d6\u4f86\u7684\u6c34\u5c31\u5fc5\u5728\u65f1\u5730\u4e0a\u8b8a\u6210\u8840\u3002\u201d"
        },
        {
            "chapter": 4,
            "verse": 10,
            "name": "Exodus 4:10",
            "text": "\u6469\u897f\u5c0d\u8036\u548c\u83ef\u8aaa\uff1a\u201c\u4e3b\u554a\uff0c\u6211\u4e0d\u662f\u500b\u6703\u8aaa\u8a71\u7684\u4eba\uff1b\u4ee5\u524d\u4e0d\u662f\uff0c\u81ea\u5f9e\u4f60\u5c0d\u50d5\u4eba\u8aaa\u8a71\u4ee5\u5f8c\u4e5f\u4e0d\u662f\uff1b\u56e0\u70ba\u6211\u672c\u662f\u62d9\u53e3\u7b28\u820c\u7684\u3002\u201d"
        },
        {
            "chapter": 4,
            "verse": 11,
            "name": "Exodus 4:11",
            "text": "\u8036\u548c\u83ef\u5c0d\u4ed6\u8aaa\uff1a\u201c\u8ab0\u9020\u4eba\u7684\u53e3\u5462\uff1f\u8ab0\u4f7f\u4eba\u53e3\u555e\u3001\u8033\u807e\u3001\u773c\u660e\u3001\u773c\u778e\u5462\uff1f\u4e0d\u662f\u6211\u8036\u548c\u83ef\u55ce\uff1f"
        },
        {
            "chapter": 4,
            "verse": 12,
            "name": "Exodus 4:12",
            "text": "\u73fe\u5728\u53bb\u5427\uff0c\u6211\u5fc5\u8cdc\u4f60\u53e3\u624d\uff0c\u6307\u6559\u4f60\u7576\u8aaa\u7684\u3002\u201d"
        },
        {
            "chapter": 4,
            "verse": 13,
            "name": "Exodus 4:13",
            "text": "\u6469\u897f\u8aaa\uff1a\u201c\u4e3b\u554a\uff0c\u8acb\u4f60\u5dee\u6d3e\u4f60\u9858\u610f\u5dee\u6d3e\u7684\u4eba\u3002\u201d"
        },
        {
            "chapter": 4,
            "verse": 14,
            "name": "Exodus 4:14",
            "text": "\u8036\u548c\u83ef\u5411\u6469\u897f\u767c\u6012\uff0c\u8aaa\uff1a\u201c\u4e0d\u662f\u6709\u4f60\u7684\u54e5\u54e5\u5229\u672a\u4eba\u4e9e\u502b\u55ce\uff1f\u6211\u77e5\u9053\u4ed6\u662f\u6709\u53e3\u624d\u7684\uff1b\u4ed6\u73fe\u5728\u51fa\u4f86\u8981\u8fce\u63a5\u4f60\u3002\u4ed6\u770b\u898b\u4e86\u4f60\uff0c\u5fc3\u88e1\u5c31\u5feb\u6a02\u3002"
        },
        {
            "chapter": 4,
            "verse": 15,
            "name": "Exodus 4:15",
            "text": "\u4f60\u8981\u5c0d\u4ed6\u8aaa\u8a71\uff0c\u628a\u4f60\u8981\u8aaa\u7684\u8a71\u653e\u5728\u4ed6\u7684\u53e3\u88e1\uff1b\u6211\u5fc5\u8207\u4f60\u7684\u53e3\u540c\u5728\uff0c\u4e5f\u8207\u4ed6\u7684\u53e3\u540c\u5728\uff1b\u6211\u5fc5\u6307\u6559\u4f60\u5011\u7576\u884c\u7684\u4e8b\u3002"
        },
        {
            "chapter": 4,
            "verse": 16,
            "name": "Exodus 4:16",
            "text": "\u4ed6\u8981\u66ff\u4f60\u5411\u4eba\u6c11\u8aaa\u8a71\uff0c\u4ed6\u8981\u4f5c\u4f60\u7684\u53e3\uff0c\u4f60\u8981\u4f5c\u4ed6\u7684\u3000\u795e\u3002"
        },
        {
            "chapter": 4,
            "verse": 17,
            "name": "Exodus 4:17",
            "text": "\u9019\u624b\u6756\u4f60\u8981\u62ff\u5728\u624b\u88e1\uff0c\u7528\u4f86\u884c\u795e\u8e5f\u3002\u201d"
        },
        {
            "chapter": 4,
            "verse": 18,
            "name": "Exodus 4:18",
            "text": "\u65bc\u662f\uff0c\u6469\u897f\u8d77\u7a0b\u56de\u5230\u4ed6\u5cb3\u7236\u8449\u5fd2\u7f85\u90a3\u88e1\uff0c\u5c0d\u4ed6\u8aaa\uff1a\u201c\u8acb\u4f60\u5bb9\u6211\u96e2\u958b\u9019\u88e1\uff0c\u56de\u5230\u6211\u5728\u57c3\u53ca\u7684\u540c\u80de\u90a3\u88e1\uff0c\u770b\u770b\u4ed6\u5011\u662f\u5426\u9084\u5728\u3002\u201d\u8449\u5fd2\u7f85\u5c0d\u6469\u897f\u8aaa\uff1a\u201c\u4f60\u53ef\u4ee5\u5e73\u5e73\u5b89\u5b89\u5730\u53bb\u5427\u3002\u201d"
        },
        {
            "chapter": 4,
            "verse": 19,
            "name": "Exodus 4:19",
            "text": "\u8036\u548c\u83ef\u5728\u7c73\u7538\u5c0d\u6469\u897f\u8aaa\uff1a\u201c\u4f60\u8981\u8d77\u7a0b\uff0c\u56de\u5230\u57c3\u53ca\u53bb\uff0c\u56e0\u70ba\u90a3\u4e9b\u5c0b\u7d22\u4f60\u547d\u7684\u4eba\u90fd\u6b7b\u4e86\u3002\u201d"
        },
        {
            "chapter": 4,
            "verse": 20,
            "name": "Exodus 4:20",
            "text": "\u6469\u897f\u5c31\u5e36\u8457\u4ed6\u7684\u59bb\u5b50\u548c\u5b69\u5b50\uff0c\u8b93\u4ed6\u5011\u9a0e\u5728\u9a62\u4e0a\uff0c\u5411\u8457\u57c3\u53ca\u5730\u56de\u53bb\u4e86\uff1b\u6469\u897f\u624b\u88e1\u62ff\u8457\u3000\u795e\u7684\u6756\u3002"
        },
        {
            "chapter": 4,
            "verse": 21,
            "name": "Exodus 4:21",
            "text": "\u8036\u548c\u83ef\u5c0d\u6469\u897f\u8aaa\uff1a\u201c\u4f60\u8d77\u7a0b\u56de\u5230\u57c3\u53ca\u53bb\u7684\u6642\u5019\uff0c\u8981\u7559\u610f\u6211\u4ea4\u5728\u4f60\u624b\u88e1\u7684\u4e00\u5207\u5947\u4e8b\uff0c\u628a\u5b83\u5011\u884c\u5728\u6cd5\u8001\u9762\u524d\uff1b\u6211\u537b\u8981\u4f7f\u4ed6\u7684\u5fc3\u525b\u786c\uff0c\u4ed6\u5c31\u4e0d\u8b93\u4eba\u6c11\u96e2\u958b\u3002"
        },
        {
            "chapter": 4,
            "verse": 22,
            "name": "Exodus 4:22",
            "text": "\u4f60\u8981\u5c0d\u6cd5\u8001\u8aaa\uff1a\u2018\u8036\u548c\u83ef\u9019\u6a23\u8aaa\uff1a\u4ee5\u8272\u5217\u662f\u6211\u7684\u9577\u5b50\u3002"
        },
        {
            "chapter": 4,
            "verse": 23,
            "name": "Exodus 4:23",
            "text": "\u6211\u66fe\u5c0d\u4f60\u8aaa\uff0c\u8981\u8b93\u6211\u7684\u5152\u5b50\u96e2\u958b\u9019\u88e1\uff0c\u597d\u53eb\u4ed6\u4e8b\u5949\u6211\u3002\u4f60\u9084\u662f\u62d2\u7d55\u8b93\u4ed6\u96e2\u958b\uff0c\u770b\u54ea\uff01\u6211\u5fc5\u6bba\u4f60\u7684\u9577\u5b50\u3002\u2019\u201d"
        },
        {
            "chapter": 4,
            "verse": 24,
            "name": "Exodus 4:24",
            "text": "\u5728\u8def\u4e0a\u4f4f\u5bbf\u7684\u5730\u65b9\uff0c\u8036\u548c\u83ef\u9047\u898b\u4e86\u6469\u897f\uff0c\u5c31\u60f3\u8981\u6bba\u4ed6\u3002"
        },
        {
            "chapter": 4,
            "verse": 25,
            "name": "Exodus 4:25",
            "text": "\u897f\u5761\u62c9\u5c31\u62ff\u4e86\u4e00\u628a\u77f3\u5200\uff0c\u628a\u5979\u5152\u5b50\u7684\u5305\u76ae\u5272\u4e0b\u4f86\uff0c\u628a\u5b83\u4e1f\u5230\u6469\u897f\u7684\u8173\u4e0a\uff0c\u8aaa\uff1a\u201c\u4f60\u771f\u662f\u6211\u7684\u8840\u90ce\u4e86\uff01\u201d"
        },
        {
            "chapter": 4,
            "verse": 26,
            "name": "Exodus 4:26",
            "text": "\u9019\u6a23\uff0c\u8036\u548c\u83ef\u624d\u653e\u4e86\u4ed6\u3002\u90a3\u6642\u897f\u5761\u62c9\u8aaa\uff1a\u201c\u4f60\u662f\u8840\u90ce\uff0c\u662f\u56e0\u70ba\u5272\u79ae\u7684\u7de3\u6545\u3002\u201d"
        },
        {
            "chapter": 4,
            "verse": 27,
            "name": "Exodus 4:27",
            "text": "\u8036\u548c\u83ef\u5c0d\u4e9e\u502b\u8aaa\uff1a\u201c\u4f60\u5230\u66e0\u91ce\u53bb\u8fce\u63a5\u6469\u897f\u3002\u201d\u4ed6\u5c31\u53bb\u4e86\uff1b\u4ed6\u5728\u3000\u795e\u7684\u5c71\u9047\u898b\u4e86\u6469\u897f\uff0c\u5c31\u548c\u4ed6\u89aa\u5634\u3002"
        },
        {
            "chapter": 4,
            "verse": 28,
            "name": "Exodus 4:28",
            "text": "\u6469\u897f\u628a\u8036\u548c\u83ef\u6d3e\u4ed6\u6240\u8aaa\u7684\u4e00\u5207\u8a71\uff0c\u548c\u5429\u5490\u4ed6\u6240\u884c\u7684\u4e00\u5207\u795e\u8e5f\u90fd\u544a\u8a34\u4e86\u4e9e\u502b\u3002"
        },
        {
            "chapter": 4,
            "verse": 29,
            "name": "Exodus 4:29",
            "text": "\u6469\u897f\u548c\u4e9e\u502b\u5c31\u53bb\u53ec\u96c6\u4ee5\u8272\u5217\u4eba\u7684\u9577\u8001\u3002"
        },
        {
            "chapter": 4,
            "verse": 30,
            "name": "Exodus 4:30",
            "text": "\u4e9e\u502b\u628a\u8036\u548c\u83ef\u5c0d\u6469\u897f\u6240\u8aaa\u7684\u4e00\u5207\u8a71\u90fd\u8aaa\u4e86\u4e00\u904d\uff0c\u4e26\u4e14\u5728\u4eba\u6c11\u7684\u773c\u524d\u884c\u4e86\u9019\u4e9b\u795e\u8e5f\u3002"
        },
        {
            "chapter": 4,
            "verse": 31,
            "name": "Exodus 4:31",
            "text": "\u4eba\u6c11\u5c31\u76f8\u4fe1\u4e86\uff1b\u4ed6\u5011\u807d\u898b\u8036\u548c\u83ef\u7737\u9867\u4ee5\u8272\u5217\u4eba\uff0c\u4e5f\u9452\u5bdf\u4e86\u4ed6\u5011\u7684\u75db\u82e6\uff0c\u5c31\u4fef\u4f0f\u656c\u62dc\u3002"
        }
    ]
}