{
    "translation": "De 1911 Biblia Sagrada Traduzida em Portuguez Por Jo\u00e3o Ferreeira D'Almeida",
    "abbreviation": "poralmeida1911",
    "lang": "pt",
    "language": "Portuguese",
    "direction": "LTR",
    "encoding": "UTF-8",
    "book_nr": 10,
    "book_name": "2 Samuel",
    "chapter": 22,
    "name": "2 Samuel 22",
    "verses": [
        {
            "chapter": 22,
            "verse": 1,
            "name": "2 Samuel 22:1",
            "text": "E fallou David ao Senhor as palavras d'este cantico, no dia em que o Senhor o livrou das m\u00e3os de todos os seus inimigos e das m\u00e3os de Saul."
        },
        {
            "chapter": 22,
            "verse": 2,
            "name": "2 Samuel 22:2",
            "text": "Disse pois: O Senhor \u00e9 o meu rochedo, e o meu logar forte, e o meu libertador."
        },
        {
            "chapter": 22,
            "verse": 3,
            "name": "2 Samuel 22:3",
            "text": "Deus \u00e9 o meu rochedo, n'elle confiarei: o meu escudo, e a for\u00e7a da minha salva\u00e7\u00e3o, o meu alto retiro, e o meu refugio. O meu Salvador, de violencia me salvaste."
        },
        {
            "chapter": 22,
            "verse": 4,
            "name": "2 Samuel 22:4",
            "text": "O Senhor, digno de louvor, invoquei, e de meus inimigos fiquei livre."
        },
        {
            "chapter": 22,
            "verse": 5,
            "name": "2 Samuel 22:5",
            "text": "Porque me cercaram as ondas de morte: as torrentes de Belial me assombraram."
        },
        {
            "chapter": 22,
            "verse": 6,
            "name": "2 Samuel 22:6",
            "text": "Cordas do inferno me cingiram; encontraram-me la\u00e7os de morte."
        },
        {
            "chapter": 22,
            "verse": 7,
            "name": "2 Samuel 22:7",
            "text": "Estando em angustia, invoquei ao Senhor, e a meu Deus clamei: do seu templo ouviu elle a minha voz, e o meu clamor chegou aos seus ouvidos."
        },
        {
            "chapter": 22,
            "verse": 8,
            "name": "2 Samuel 22:8",
            "text": "Ent\u00e3o se abalou e tremeu a terra, os fundamentos dos c\u00e9us se moveram e abalaram, porque elle se irou."
        },
        {
            "chapter": 22,
            "verse": 9,
            "name": "2 Samuel 22:9",
            "text": "Subiu o fumo de seus narizes, e da sua bocca um fogo devorador: carv\u00f5es se incenderam d'elle."
        },
        {
            "chapter": 22,
            "verse": 10,
            "name": "2 Samuel 22:10",
            "text": "E abaixou os c\u00e9us, e desceu: e uma escurid\u00e3o havia debaixo de seus p\u00e9s."
        },
        {
            "chapter": 22,
            "verse": 11,
            "name": "2 Samuel 22:11",
            "text": "E subiu sobre um cherubim, e voou: e foi visto sobre as azas do vento."
        },
        {
            "chapter": 22,
            "verse": 12,
            "name": "2 Samuel 22:12",
            "text": "E por tendas poz as trevas ao redor de si: ajuntamento d'aguas, nuvens dos c\u00e9us."
        },
        {
            "chapter": 22,
            "verse": 13,
            "name": "2 Samuel 22:13",
            "text": "Pelo resplendor da sua presen\u00e7a brasas de fogo se accendem."
        },
        {
            "chapter": 22,
            "verse": 14,
            "name": "2 Samuel 22:14",
            "text": "Trovejou desde os c\u00e9us o Senhor: e o Altissimo fez soar a sua voz."
        },
        {
            "chapter": 22,
            "verse": 15,
            "name": "2 Samuel 22:15",
            "text": "E disparou frechas, e os dissipou: raios e os perturbou."
        },
        {
            "chapter": 22,
            "verse": 16,
            "name": "2 Samuel 22:16",
            "text": "E appareceram as profundezas do mar, os fundamentos do mundo se descobriram: pela reprehens\u00e3o do Senhor, pelo sopro do vento dos seus narizes."
        },
        {
            "chapter": 22,
            "verse": 17,
            "name": "2 Samuel 22:17",
            "text": "Desde o alto enviou, e me tomou: tirou-me das muitas aguas."
        },
        {
            "chapter": 22,
            "verse": 18,
            "name": "2 Samuel 22:18",
            "text": "Livrou-me do meu possante inimigo, e d'aquelles que me tinham odio, porque eram mais fortes do que eu."
        },
        {
            "chapter": 22,
            "verse": 19,
            "name": "2 Samuel 22:19",
            "text": "Encontraram-me no dia da minha calamidade: por\u00e9m o Senhor se fez o meu esteio."
        },
        {
            "chapter": 22,
            "verse": 20,
            "name": "2 Samuel 22:20",
            "text": "E tirou-me \u00e1 largura, e arrebatou-me d'ali; porque tinha prazer em mim."
        },
        {
            "chapter": 22,
            "verse": 21,
            "name": "2 Samuel 22:21",
            "text": "Recompensou-me o Senhor conforme \u00e1 minha justi\u00e7a: conforme \u00e1 pureza de minhas m\u00e3os me retribuiu."
        },
        {
            "chapter": 22,
            "verse": 22,
            "name": "2 Samuel 22:22",
            "text": "Porque guardei os caminhos do Senhor: e n\u00e3o me apartei impiamente do meu Deus."
        },
        {
            "chapter": 22,
            "verse": 23,
            "name": "2 Samuel 22:23",
            "text": "Porque todos os seus juizos estavam diante de mim: e de seus estatutos me n\u00e3o desviei."
        },
        {
            "chapter": 22,
            "verse": 24,
            "name": "2 Samuel 22:24",
            "text": "Por\u00e9m fui sincero perante elle: e guardei-me da minha iniquidade."
        },
        {
            "chapter": 22,
            "verse": 25,
            "name": "2 Samuel 22:25",
            "text": "E me retribuiu o Senhor conforme \u00e1 minha justi\u00e7a, conforme \u00e1 minha pureza diante dos seus olhos."
        },
        {
            "chapter": 22,
            "verse": 26,
            "name": "2 Samuel 22:26",
            "text": "Com o benigno te mostras benigno: com o var\u00e3o sincero te mostras sincero."
        },
        {
            "chapter": 22,
            "verse": 27,
            "name": "2 Samuel 22:27",
            "text": "Com o puro te mostras puro: mas com o perverso te mostras avesso."
        },
        {
            "chapter": 22,
            "verse": 28,
            "name": "2 Samuel 22:28",
            "text": "E o povo afflicto livras: mas teus olhos s\u00e3o contra os altivos, e tu os abater\u00e1s."
        },
        {
            "chapter": 22,
            "verse": 29,
            "name": "2 Samuel 22:29",
            "text": "Porque tu, Senhor, \u00e9s a minha candeia: e o Senhor esclarece as minhas trevas."
        },
        {
            "chapter": 22,
            "verse": 30,
            "name": "2 Samuel 22:30",
            "text": "Porque comtigo passo pelo meio d'um esquadr\u00e3o: pelo meu Deus salto um muro."
        },
        {
            "chapter": 22,
            "verse": 31,
            "name": "2 Samuel 22:31",
            "text": "O caminho de Deus \u00e9 perfeito, e a palavra do Senhor refinada; e \u00e9 o escudo de todos os que n'elle confiam."
        },
        {
            "chapter": 22,
            "verse": 32,
            "name": "2 Samuel 22:32",
            "text": "Porque, quem \u00e9 Deus, sen\u00e3o o Senhor? e quem \u00e9 rochedo, sen\u00e3o o nosso Deus?"
        },
        {
            "chapter": 22,
            "verse": 33,
            "name": "2 Samuel 22:33",
            "text": "Deus \u00e9 a minha fortaleza e a minha for\u00e7a, e elle perfeitamente desembara\u00e7a o meu caminho."
        },
        {
            "chapter": 22,
            "verse": 34,
            "name": "2 Samuel 22:34",
            "text": "Faz elle os meus p\u00e9s como os das cervas, e me p\u00f5e sobre as minhas alturas."
        },
        {
            "chapter": 22,
            "verse": 35,
            "name": "2 Samuel 22:35",
            "text": "Instrue as minhas m\u00e3os para a peleja, de maneira que um arco de cobre se quebra pelos meus bra\u00e7os."
        },
        {
            "chapter": 22,
            "verse": 36,
            "name": "2 Samuel 22:36",
            "text": "Tambem me d\u00e9ste o escudo da tua salva\u00e7\u00e3o, e pela tua brandura me vieste a engrandecer."
        },
        {
            "chapter": 22,
            "verse": 37,
            "name": "2 Samuel 22:37",
            "text": "Alargaste os meus passos debaixo de mim, e n\u00e3o vacillaram os meus artelhos."
        },
        {
            "chapter": 22,
            "verse": 38,
            "name": "2 Samuel 22:38",
            "text": "Persegui os meus inimigos, e os derrotei, e nunca me tornei at\u00e9 que os consumisse."
        },
        {
            "chapter": 22,
            "verse": 39,
            "name": "2 Samuel 22:39",
            "text": "E os consumi, e os atravessei, de modo que nunca mais se levantaram, mas cairam debaixo dos meus p\u00e9s."
        },
        {
            "chapter": 22,
            "verse": 40,
            "name": "2 Samuel 22:40",
            "text": "Porque me cingiste de for\u00e7a para a peleja, fizeste abater-se debaixo de mim os que se levantaram contra mim."
        },
        {
            "chapter": 22,
            "verse": 41,
            "name": "2 Samuel 22:41",
            "text": "E deste-me o pesco\u00e7o de meus inimigos, d'aquelles que me tinham odio, e os destrui."
        },
        {
            "chapter": 22,
            "verse": 42,
            "name": "2 Samuel 22:42",
            "text": "Olharam, por\u00e9m n\u00e3o houve libertador: sim, para o Senhor, por\u00e9m n\u00e3o lhes respondeu."
        },
        {
            "chapter": 22,
            "verse": 43,
            "name": "2 Samuel 22:43",
            "text": "Ent\u00e3o os mo\u00ed como o p\u00f3 da terra; como a lama das ruas os trilhei e dissipei."
        },
        {
            "chapter": 22,
            "verse": 44,
            "name": "2 Samuel 22:44",
            "text": "Tambem me livraste das contendas do meu povo; guardaste-me para cabe\u00e7a das na\u00e7\u00f5es; o povo que n\u00e3o conhecia me servir\u00e1."
        },
        {
            "chapter": 22,
            "verse": 45,
            "name": "2 Samuel 22:45",
            "text": "Os filhos de estranhos se me sujeitaram; ouvindo a minha voz, me obedeceram."
        },
        {
            "chapter": 22,
            "verse": 46,
            "name": "2 Samuel 22:46",
            "text": "Os filhos de estranhos descairam; e, cingindo-se, sairam dos seus encerramentos."
        },
        {
            "chapter": 22,
            "verse": 47,
            "name": "2 Samuel 22:47",
            "text": "Vive o Senhor, e bemdito seja o meu rochedo; e exaltado seja Deus, a rocha da minha salva\u00e7\u00e3o:"
        },
        {
            "chapter": 22,
            "verse": 48,
            "name": "2 Samuel 22:48",
            "text": "O Deus que me d\u00e1 inteira vingan\u00e7a, e sujeita os povos debaixo de mim."
        },
        {
            "chapter": 22,
            "verse": 49,
            "name": "2 Samuel 22:49",
            "text": "E o que me tira d'entre os meus inimigos: e tu me exaltas sobre os que contra mim se levantam; do homem violento me livras."
        },
        {
            "chapter": 22,
            "verse": 50,
            "name": "2 Samuel 22:50",
            "text": "Por isso, \u00f3 Senhor, te louvarei entre as gentes, e entoarei louvores ao teu nome."
        },
        {
            "chapter": 22,
            "verse": 51,
            "name": "2 Samuel 22:51",
            "text": "Elle \u00e9 a torre das salva\u00e7\u00f5es do seu rei, e usa de benignidade com o seu ungido, com David, e com a sua semente para sempre. "
        }
    ]
}