{
    "translation": "La Bible Augustin Crampon 1923",
    "abbreviation": "frecrampon",
    "lang": "fr",
    "language": "French",
    "direction": "LTR",
    "encoding": "UTF-8",
    "book_nr": 13,
    "book_name": "1 Chronicles",
    "chapter": 12,
    "name": "1 Chronicles 12",
    "verses": [
        {
            "chapter": 12,
            "verse": 1,
            "name": "1 Chronicles 12:1",
            "text": "Voici ceux qui vinrent vers David \u00e0 Siceleg, lorsqu'il devait encore se tenir \u00e9loign\u00e9 de la face de Sa\u00fcl, fils de Cis; ils \u00e9taient parmi les vaillants qui te secoururent pendant la guerre."
        },
        {
            "chapter": 12,
            "verse": 2,
            "name": "1 Chronicles 12:2",
            "text": "C'\u00e9taient des archers, exerc\u00e9s \u00e0 lancer des pierres de la main droite et de la main gauche, et \u00e0 tirer des fl\u00e8ches avec leur arc; ils \u00e9taient d'entre les fr\u00e8res de Sa\u00fcl, de Benjamin."
        },
        {
            "chapter": 12,
            "verse": 3,
            "name": "1 Chronicles 12:3",
            "text": "A leur t\u00eate Ahi\u00e9ser, puis Joas, tous deux fils de Samaa, de Gabaa; JazieI et Phallet, fils d'Azmoth; Baracha; J\u00e9hu, d'Anatoth;"
        },
        {
            "chapter": 12,
            "verse": 4,
            "name": "1 Chronicles 12:4",
            "text": "Sama\u00efas, de Gabaon, vaillant parmi les Trente et chef des Trente; J\u00e9r\u00e9mie; J\u00e9h\u00e9ziel; Johanan; J\u00e9zabad, de G\u00e9d\u00e9ra; Eluza\u00ef; J\u00e9rimuth; Baalia;"
        },
        {
            "chapter": 12,
            "verse": 5,
            "name": "1 Chronicles 12:5",
            "text": "Samaria; Saphatia, de Haruph;"
        },
        {
            "chapter": 12,
            "verse": 6,
            "name": "1 Chronicles 12:6",
            "text": "Elcana, J\u00e9sia, Azar\u00e9el, Jo\u00e9ser et Jesbaam, fils de Cor\u00e9;"
        },
        {
            "chapter": 12,
            "verse": 7,
            "name": "1 Chronicles 12:7",
            "text": "Jo\u00e9la et Zabadia, fils de J\u00e9roham, de G\u00e9dor.\\"
        },
        {
            "chapter": 12,
            "verse": 8,
            "name": "1 Chronicles 12:8",
            "text": "Parmi les Gadites, des hommes vaillants pass\u00e8rent aupr\u00e8s de David, dans les lieux forts, au d\u00e9sert: guerriers exerc\u00e9s au combat, sachant manier le bouclier et la lance, ayant un aspect de lions, aussi agiles que des gazelles sur les montagnes."
        },
        {
            "chapter": 12,
            "verse": 9,
            "name": "1 Chronicles 12:9",
            "text": "Ezer \u00e9tait le chef; Obdias, le second; Eliab, le troisi\u00e8me;"
        },
        {
            "chapter": 12,
            "verse": 10,
            "name": "1 Chronicles 12:10",
            "text": "Masmana, le quatri\u00e8me; J\u00e9r\u00e9mie, le cinqui\u00e8me;"
        },
        {
            "chapter": 12,
            "verse": 11,
            "name": "1 Chronicles 12:11",
            "text": "Ethi, le sixi\u00e8me; Eliel, le septi\u00e8me;"
        },
        {
            "chapter": 12,
            "verse": 12,
            "name": "1 Chronicles 12:12",
            "text": "Johanan, le huiti\u00e8me; Elz\u00e9bad, le neuvi\u00e8me;"
        },
        {
            "chapter": 12,
            "verse": 13,
            "name": "1 Chronicles 12:13",
            "text": "J\u00e9r\u00e9mie, le dixi\u00e8me; Machbana\u00ef, le onzi\u00e8me."
        },
        {
            "chapter": 12,
            "verse": 14,
            "name": "1 Chronicles 12:14",
            "text": "C'\u00e9taient des fils de Gad, chefs de l'arm\u00e9e; un seul, le plus petit, pouvait l'emporter sur cent, et le plus grand sur mille."
        },
        {
            "chapter": 12,
            "verse": 15,
            "name": "1 Chronicles 12:15",
            "text": "Ce sont eux qui pass\u00e8rent le Jourdain au premier mois, alors qu'il d\u00e9borde sur toutes ses rives, et qui mirent en fuite tous les habitants des vall\u00e9es, \u00e0 l'orient et \u00e0 l'occident.\\"
        },
        {
            "chapter": 12,
            "verse": 16,
            "name": "1 Chronicles 12:16",
            "text": "Des fils de Benjamin et de Juda vinrent vers David, dans les lieux forts."
        },
        {
            "chapter": 12,
            "verse": 17,
            "name": "1 Chronicles 12:17",
            "text": "David sortit au-devant d'eux, prit la parole, et leur dit: \"Si vous \u00eates venus \u00e0 moi avec des sentiments pacifiques, pour me secourir, mon coeur se portera vers vous, en vue de nous unir; mais si c'est pour me livrer perfidement \u00e0 mes ennemis, lorsque aucune violence ne s'attache \u00e0 mes mains, que le Dieu de nos p\u00e8res le voie et qu'il fasse justice!\""
        },
        {
            "chapter": 12,
            "verse": 18,
            "name": "1 Chronicles 12:18",
            "text": "L'Esprit rev\u00eatit Amasa\u00ef, chef des Trente, et il dit: \"A toi, David, et avec toi, fils d'Isa\u00ef! Paix, paix \u00e0 toi, et paix \u00e0 celui qui te secourt, car ton Dieu t'a secouru!\" Et David les accueillit et les pla\u00e7a parmi les chefs de la bande.\\"
        },
        {
            "chapter": 12,
            "verse": 19,
            "name": "1 Chronicles 12:19",
            "text": "Des hommes de Manass\u00e9 se joignirent \u00e0 David, lorsqu'il alla avec les Philistins faire la guerre \u00e0 Sa\u00fcl Mais ils ne secoururent pas les Philistins; car les princes des Philistins renvoy\u00e8rent \u00e0 dessein David en disant: \"Au p\u00e9ril de nos t\u00eates, il joindrait son ma\u00eetre Sa\u00fcl.\""
        },
        {
            "chapter": 12,
            "verse": 20,
            "name": "1 Chronicles 12:20",
            "text": "Comme il revenait \u00e0 Siceleg, des hommes de Manass\u00e9 se joignirent \u00e0 lui: Ednas, Jozabad, J\u00e9dihel, Micha\u00ebl, Jozabad, Eliu et Salathi, chefs des milliers de Manass\u00e9."
        },
        {
            "chapter": 12,
            "verse": 21,
            "name": "1 Chronicles 12:21",
            "text": "Ils secoururent David contre les bandes, car ils \u00e9taient tous des vaillants, et ils furent chefs dans l'arm\u00e9e."
        },
        {
            "chapter": 12,
            "verse": 22,
            "name": "1 Chronicles 12:22",
            "text": "Et de jour en jour des hommes arrivaient aupr\u00e8s de David pour le secourir, jusqu'\u00e0 ce qu'il e\u00fbt une grande arm\u00e9e, comme une arm\u00e9e de Dieu.\\"
        },
        {
            "chapter": 12,
            "verse": 23,
            "name": "1 Chronicles 12:23",
            "text": "Voici le nombre des chefs des hommes arm\u00e9s pour la guerre qui vinrent aupr\u00e8s de David \u00e0 H\u00e9bron, pour lui transf\u00e9rer la royaut\u00e9 de Sa\u00fcl, selon l'ordre de Yahweh."
        },
        {
            "chapter": 12,
            "verse": 24,
            "name": "1 Chronicles 12:24",
            "text": "Fils de Juda, portant le bouclier et la lance, six mille huit cents, arm\u00e9s pour la guerre."
        },
        {
            "chapter": 12,
            "verse": 25,
            "name": "1 Chronicles 12:25",
            "text": "- Des fils de Sim\u00e9on, hommes vaillants \u00e0 la guerre, sept mille cent."
        },
        {
            "chapter": 12,
            "verse": 26,
            "name": "1 Chronicles 12:26",
            "text": "- Des fils de L\u00e9vi, quatre mille six cents;"
        },
        {
            "chapter": 12,
            "verse": 27,
            "name": "1 Chronicles 12:27",
            "text": "et Jo\u00efada, chef de la famille d'Aaron, et avec lui trois mille sept cents;"
        },
        {
            "chapter": 12,
            "verse": 28,
            "name": "1 Chronicles 12:28",
            "text": "et Sadoc, jeune homme vaillant, et la maison de son p\u00e8re, vingt-deux chefs."
        },
        {
            "chapter": 12,
            "verse": 29,
            "name": "1 Chronicles 12:29",
            "text": "- Des fils de Benjamin, fr\u00e8res de Sa\u00fcl, trois mille; car jusqu'alors la plus grande partie d'entre eux gardaient fid\u00e9lit\u00e9 \u00e0 la maison de Sa\u00fcl."
        },
        {
            "chapter": 12,
            "verse": 30,
            "name": "1 Chronicles 12:30",
            "text": "- Des fils d'\u00c9phra\u00efm, vingt mille huit cents, hommes vaillants et renomm\u00e9s dans les maisons de leurs p\u00e8res."
        },
        {
            "chapter": 12,
            "verse": 31,
            "name": "1 Chronicles 12:31",
            "text": "- De la demi-tribu de Manass\u00e9, dix-huit mille, qui furent nominativement d\u00e9sign\u00e9s pour aller \u00e9tablir David roi."
        },
        {
            "chapter": 12,
            "verse": 32,
            "name": "1 Chronicles 12:32",
            "text": "- Des fils d'Issachar, ayant l'intelligence des temps pour savoir ce que devait faire Isra\u00ebl, deux cents chefs, et tous leurs fr\u00e8res sous leurs ordres. \u2013"
        },
        {
            "chapter": 12,
            "verse": 33,
            "name": "1 Chronicles 12:33",
            "text": "De Zabulon, cinquante mille, en \u00e9tat d'aller \u00e0 l'arm\u00e9e, pr\u00eats \u00e0 la guerre et en parfait \u00e9quipement de guerre, pour se ranger en bataille d'un coeur r\u00e9solu. \u2013"
        },
        {
            "chapter": 12,
            "verse": 34,
            "name": "1 Chronicles 12:34",
            "text": "De Nephthali, mille chefs, et avec eux trente-sept mille, portant le bouclier et la lance. \u2013"
        },
        {
            "chapter": 12,
            "verse": 35,
            "name": "1 Chronicles 12:35",
            "text": "Des Danites pr\u00eats \u00e0 la guerre, vingt-huit mille six cents. \u2013"
        },
        {
            "chapter": 12,
            "verse": 36,
            "name": "1 Chronicles 12:36",
            "text": "D'Aser, en \u00e9tat d'aller \u00e0 l'arm\u00e9e et pr\u00eats \u00e0 la guerre, quarante mille. \u2013"
        },
        {
            "chapter": 12,
            "verse": 37,
            "name": "1 Chronicles 12:37",
            "text": "Et de l'autre cot\u00e9 du Jourdain, des Rubenites, des Gadites et de la demi-tribu de Manass\u00e9, en parfait \u00e9quipement d'armes de guerre, cent vingt mille."
        },
        {
            "chapter": 12,
            "verse": 38,
            "name": "1 Chronicles 12:38",
            "text": "Tous ces hommes de guerre, sachant se ranger en bataille, vinrent d'un coeur sinc\u00e8re \u00e0 H\u00e9bron pour \u00e9tablir David roi sur tout Isra\u00ebl; et tout le reste d'Isra\u00ebl n'avait \u00e9galement qu'au coeur pour \u00e9tablir David roi."
        },
        {
            "chapter": 12,
            "verse": 39,
            "name": "1 Chronicles 12:39",
            "text": "Ils furent l\u00e0 trois jours avec David, mangeant et buvant, car leurs fr\u00e8res leur avaient pr\u00e9par\u00e9 des provisions."
        },
        {
            "chapter": 12,
            "verse": 40,
            "name": "1 Chronicles 12:40",
            "text": "Et m\u00eame ceux qui habitaient pr\u00e8s d'eux, jusqu'\u00e0 Issachar, \u00e0 Zabulon et \u00e0 Nephthali, apportaient des vivres sur des \u00e2nes, sur des chameaux, sur des mulets et sur des boeufs, des provisions de farine, des masses de figues s\u00e8ches et des raisins secs, du vin, de l'huile, des boeufs et des brebis en abondance; car il y avait joie en Isra\u00ebl. "
        }
    ]
}