{
    "translation": "GOD'S WORD to the Nations",
    "abbreviation": "godsword",
    "lang": "en",
    "language": "English",
    "direction": "LTR",
    "encoding": "UTF-8",
    "book_nr": 4,
    "book_name": "Numbers",
    "chapter": 19,
    "name": "Numbers 19",
    "verses": [
        {
            "chapter": 19,
            "verse": 1,
            "name": "Numbers 19:1",
            "text": "The LORD said to Moses and Aaron, "
        },
        {
            "chapter": 19,
            "verse": 2,
            "name": "Numbers 19:2",
            "text": "\"This is what the LORD's teachings have commanded: Tell the Israelites to bring you a red cow that is perfect, with no defects. Also, it must never have worn a yoke. "
        },
        {
            "chapter": 19,
            "verse": 3,
            "name": "Numbers 19:3",
            "text": "Give it to the priest Eleazar. It must be taken outside the camp and slaughtered in his presence. "
        },
        {
            "chapter": 19,
            "verse": 4,
            "name": "Numbers 19:4",
            "text": "The priest Eleazar will take some of the blood with his finger and sprinkle it seven times toward the front of the tent of meeting. "
        },
        {
            "chapter": 19,
            "verse": 5,
            "name": "Numbers 19:5",
            "text": "Then the entire cow (the skin, meat, blood, and excrement) will be burned while he watches. "
        },
        {
            "chapter": 19,
            "verse": 6,
            "name": "Numbers 19:6",
            "text": "The priest will take some cedar wood, a hyssop sprig, and some red yarn and throw them onto the burning cow. "
        },
        {
            "chapter": 19,
            "verse": 7,
            "name": "Numbers 19:7",
            "text": "The priest must then wash his clothes and his body. After that, he may go into the camp. But he will be unclean until evening. "
        },
        {
            "chapter": 19,
            "verse": 8,
            "name": "Numbers 19:8",
            "text": "The person who burned the calf must also wash his clothes and his body. He, too, will be unclean until evening. "
        },
        {
            "chapter": 19,
            "verse": 9,
            "name": "Numbers 19:9",
            "text": "\"A man who is clean will collect the ashes from the cow and put them in a clean place outside the camp. They will be kept by the community of Israel and used in the water that takes away uncleanness. The cow is an offering for sin. "
        },
        {
            "chapter": 19,
            "verse": 10,
            "name": "Numbers 19:10",
            "text": "The person who collected the ashes from the cow must also wash his clothes. He will be unclean until evening. This will be a permanent law for the Israelites and for the foreigners who live with them.   "
        },
        {
            "chapter": 19,
            "verse": 11,
            "name": "Numbers 19:11",
            "text": "\"Whoever touches the dead body of any human being will be unclean for seven days. "
        },
        {
            "chapter": 19,
            "verse": 12,
            "name": "Numbers 19:12",
            "text": "The unclean person must use this water on the third day and the seventh day to take away his sin. Then he will be clean. But if he doesn't use this water on the third day and the seventh day, he will not be clean. "
        },
        {
            "chapter": 19,
            "verse": 13,
            "name": "Numbers 19:13",
            "text": "Whoever touches the dead body of a human being and doesn't use this water to take away his sin makes the LORD's tent unclean. That person must be excluded from Israel, because the water that takes away uncleanness wasn't sprinkled on him. He is unclean; his uncleanness stays with him. "
        },
        {
            "chapter": 19,
            "verse": 14,
            "name": "Numbers 19:14",
            "text": "\"These are your instructions for when a person dies in a tent: Everyone who goes into the tent and everyone who is in the tent will be unclean for seven days. "
        },
        {
            "chapter": 19,
            "verse": 15,
            "name": "Numbers 19:15",
            "text": "Every container without a lid fastened on it is unclean. "
        },
        {
            "chapter": 19,
            "verse": 16,
            "name": "Numbers 19:16",
            "text": "\"Whoever is outdoors and touches someone who was killed or has died naturally or anyone who touches a human bone or a grave will be unclean for seven days. "
        },
        {
            "chapter": 19,
            "verse": 17,
            "name": "Numbers 19:17",
            "text": "\"This is what you must do for people who become unclean from touching a dead body. Put some of the ashes from the red cow that was burned as an offering for sin into a container. Then pour fresh water on them. "
        },
        {
            "chapter": 19,
            "verse": 18,
            "name": "Numbers 19:18",
            "text": "A person who is clean will take a sprig of hyssop, dip it in the water, and sprinkle the tent, all the furnishings, and all the people who were in the tent with the dead body. He must also sprinkle any person who has touched a human bone or a grave and any person who has touched someone who has been killed or who has died naturally. "
        },
        {
            "chapter": 19,
            "verse": 19,
            "name": "Numbers 19:19",
            "text": "A person who is clean will sprinkle these types of unclean people on the third day and the seventh day. On the seventh day the clean person will finish taking away their sins. Then they must wash their clothes and bodies, and in the evening they will be clean. "
        },
        {
            "chapter": 19,
            "verse": 20,
            "name": "Numbers 19:20",
            "text": "But if the person who becomes unclean doesn't have his sin taken away, that person must be excluded from the assembly. He has made the holy place of the LORD unclean. The water to take away uncleanness wasn't sprinkled on him. He is unclean. "
        },
        {
            "chapter": 19,
            "verse": 21,
            "name": "Numbers 19:21",
            "text": "This will be a permanent law for them. \"Whoever sprinkles the water to take away uncleanness must wash his clothes. And whoever touches this water will be unclean until evening. "
        },
        {
            "chapter": 19,
            "verse": 22,
            "name": "Numbers 19:22",
            "text": "Anything that an unclean person touches becomes unclean, and the person who touches it will be unclean until evening.\"  "
        }
    ]
}