{
    "translation": "Catholic Public Domain Version",
    "abbreviation": "cpdv",
    "lang": "en",
    "language": "English",
    "direction": "LTR",
    "encoding": "UTF-8",
    "book_nr": 44,
    "book_name": "Acts",
    "chapter": 23,
    "name": "Acts 23",
    "verses": [
        {
            "chapter": 23,
            "verse": 1,
            "name": "Acts 23:1",
            "text": "Then Paul, gazing intently at the council, said, \u201cNoble brothers, I have spoken with all good conscience before God, even to this present day.\u201d"
        },
        {
            "chapter": 23,
            "verse": 2,
            "name": "Acts 23:2",
            "text": "And the high priest, Ananias, instructed those who were standing nearby to strike him on the mouth."
        },
        {
            "chapter": 23,
            "verse": 3,
            "name": "Acts 23:3",
            "text": "Then Paul said to him: \u201cGod shall strike you, you whitewashed wall! For would you sit and judge me according to the law, when, contrary to the law, you order me to be struck?\u201d"
        },
        {
            "chapter": 23,
            "verse": 4,
            "name": "Acts 23:4",
            "text": "And those who were standing nearby said, \u201cAre you speaking evil about the high priest of God?\u201d"
        },
        {
            "chapter": 23,
            "verse": 5,
            "name": "Acts 23:5",
            "text": "And Paul said: \u201cI did not know, brothers, that he is the high priest. For it is written: \u2018You shall not speak evil of the leader of your people.\u2019 \u201d"
        },
        {
            "chapter": 23,
            "verse": 6,
            "name": "Acts 23:6",
            "text": "Now Paul, knowing that one group were Sadducees and the other were Pharisees, exclaimed in the council: \u201cNoble brothers, I am a Pharisee, the son of Pharisees! It is over the hope and resurrection of the dead that I am being judged.\u201d"
        },
        {
            "chapter": 23,
            "verse": 7,
            "name": "Acts 23:7",
            "text": "And when he had said this, a dissension occurred between the Pharisees and the Sadducees. And the multitude was divided."
        },
        {
            "chapter": 23,
            "verse": 8,
            "name": "Acts 23:8",
            "text": "For the Sadducees claim that there is no resurrection, and neither angels, nor spirits. But the Pharisees confess both of these."
        },
        {
            "chapter": 23,
            "verse": 9,
            "name": "Acts 23:9",
            "text": "Then there occurred a great clamor. And some of the Pharisees, rising up, were fighting, saying: \u201cWe find nothing evil in this man. What if a spirit has spoken to him, or an angel?\u201d"
        },
        {
            "chapter": 23,
            "verse": 10,
            "name": "Acts 23:10",
            "text": "And since a great dissension had been made, the tribune, fearing that Paul might be torn apart by them, ordered the soldiers to descend and to seize him from their midst, and to bring him into the fortress."
        },
        {
            "chapter": 23,
            "verse": 11,
            "name": "Acts 23:11",
            "text": "Then, on the following night, the Lord stood near him and said: \u201cBe constant. For just as you have testified about me in Jerusalem, so also it is necessary for you to testify at Rome.\u201d"
        },
        {
            "chapter": 23,
            "verse": 12,
            "name": "Acts 23:12",
            "text": "And when daylight arrived, some of the Jews gathered together and bound themselves with an oath, saying that they would neither eat nor drink until they had killed Paul."
        },
        {
            "chapter": 23,
            "verse": 13,
            "name": "Acts 23:13",
            "text": "Now there were more than forty men who had taken this oath together."
        },
        {
            "chapter": 23,
            "verse": 14,
            "name": "Acts 23:14",
            "text": "And they approached the leaders of the priests, and the elders, and they said: \u201cWe have sworn ourselves by an oath, so that we will taste nothing, until we have killed Paul."
        },
        {
            "chapter": 23,
            "verse": 15,
            "name": "Acts 23:15",
            "text": "Therefore, with the council, you should now give notice to the tribune, so that he may bring him to you, as if you intended to determine something else about him. But before he approaches, we have made preparations to put him to death.\u201d"
        },
        {
            "chapter": 23,
            "verse": 16,
            "name": "Acts 23:16",
            "text": "But when Paul\u2019s sister\u2019s son had heard of this, about their treachery, he went and entered into the fortress, and he reported it to Paul."
        },
        {
            "chapter": 23,
            "verse": 17,
            "name": "Acts 23:17",
            "text": "And Paul, calling to him one of the centurions, said: \u201cLead this young man to the tribune. For he has something to tell him.\u201d"
        },
        {
            "chapter": 23,
            "verse": 18,
            "name": "Acts 23:18",
            "text": "And indeed, he took him and led him to the tribune, and he said, \u201cPaul, the prisoner, asked me to lead this young man to you, since he has something to say to you.\u201d"
        },
        {
            "chapter": 23,
            "verse": 19,
            "name": "Acts 23:19",
            "text": "Then the tribune, taking him by the hand, withdrew with him by themselves, and he asked him: \u201cWhat is it that you have to tell me?\u201d"
        },
        {
            "chapter": 23,
            "verse": 20,
            "name": "Acts 23:20",
            "text": "Then he said: \u201cThe Jews have met to ask you to bring Paul tomorrow to the council, as if they intended to question him about something else."
        },
        {
            "chapter": 23,
            "verse": 21,
            "name": "Acts 23:21",
            "text": "But truly, you should not believe them, for they would ambush him with more than forty men from among them, who have bound themselves by an oath neither to eat, nor to drink, until they have put him to death. And they are now prepared, hoping for an affirmation from you.\u201d"
        },
        {
            "chapter": 23,
            "verse": 22,
            "name": "Acts 23:22",
            "text": "And then the tribune dismissed the young man, instructing him not to tell anyone that he had made known these things to him."
        },
        {
            "chapter": 23,
            "verse": 23,
            "name": "Acts 23:23",
            "text": "Then, having called two centurions, he said to them: \u201cPrepare two hundred soldiers, so that they may go as far as Caesarea, and seventy horsemen, and two hundred spearmen, for the third hour of the night."
        },
        {
            "chapter": 23,
            "verse": 24,
            "name": "Acts 23:24",
            "text": "And prepare beasts of burden to carry Paul, so that they may lead him safely to Felix, the governor.\u201d"
        },
        {
            "chapter": 23,
            "verse": 25,
            "name": "Acts 23:25",
            "text": "For he was afraid, lest perhaps the Jews might seize him and kill him, and that afterwards he would be falsely accused, as if he had accepted a bribe. And so he wrote a letter containing the following:"
        },
        {
            "chapter": 23,
            "verse": 26,
            "name": "Acts 23:26",
            "text": "\u201cClaudius Lysias, to the most excellent governor, Felix: greetings."
        },
        {
            "chapter": 23,
            "verse": 27,
            "name": "Acts 23:27",
            "text": "This man, having been apprehended by the Jews and being about to be put to death by them, I rescued, overwhelming them with soldiers, since I realized that he is a Roman."
        },
        {
            "chapter": 23,
            "verse": 28,
            "name": "Acts 23:28",
            "text": "And wanting to know the reason that they objected to him, I brought him into their council."
        },
        {
            "chapter": 23,
            "verse": 29,
            "name": "Acts 23:29",
            "text": "And I discovered him to be accused about questions of their law. Yet truly, nothing deserving of death or imprisonment was within the accusation."
        },
        {
            "chapter": 23,
            "verse": 30,
            "name": "Acts 23:30",
            "text": "And when I had been given news of ambushes, which they had prepared against him, I sent him to you, notifying his accusers also, so that they may plead their accusations before you. Farewell.\u201d"
        },
        {
            "chapter": 23,
            "verse": 31,
            "name": "Acts 23:31",
            "text": "Therefore the soldiers, taking Paul according to their orders, brought him by night to Antipatris."
        },
        {
            "chapter": 23,
            "verse": 32,
            "name": "Acts 23:32",
            "text": "And the next day, sending the horsemen to go with him, they returned to the fortress."
        },
        {
            "chapter": 23,
            "verse": 33,
            "name": "Acts 23:33",
            "text": "And when they had arrived at Caesarea and had delivered the letter to the governor, they also presented Paul before him."
        },
        {
            "chapter": 23,
            "verse": 34,
            "name": "Acts 23:34",
            "text": "And when he had read it and had asked which province he was from, realizing that he was from Cilicia, he said:"
        },
        {
            "chapter": 23,
            "verse": 35,
            "name": "Acts 23:35",
            "text": "\u201cI will hear you, when your accusers have arrived.\u201d And he ordered him to be kept in the praetorium of Herod. "
        }
    ]
}