{
    "translation": "Swedish (1917)",
    "abbreviation": "swedish",
    "lang": "sv",
    "language": "Swedish",
    "direction": "LTR",
    "encoding": "UTF-8",
    "book_nr": 13,
    "book_name": "1 Chronicles",
    "chapter": 8,
    "name": "1 Chronicles 8",
    "verses": [
        {
            "chapter": 8,
            "verse": 1,
            "name": "1 Chronicles 8:1",
            "text": "Benjamins stam med Sauls sl\u00e4kt.Och Benjamin f\u00f6dde Bela, sin f\u00f6rstf\u00f6dde, Asbel, den andre, och Ahara, den tredje,"
        },
        {
            "chapter": 8,
            "verse": 2,
            "name": "1 Chronicles 8:2",
            "text": "Noha, den fj\u00e4rde, och Rafa, den femte."
        },
        {
            "chapter": 8,
            "verse": 3,
            "name": "1 Chronicles 8:3",
            "text": "Bela hade f\u00f6ljande s\u00f6ner: Addar, Gera, Abihud,"
        },
        {
            "chapter": 8,
            "verse": 4,
            "name": "1 Chronicles 8:4",
            "text": "Abisua, Naaman, Ahoa,"
        },
        {
            "chapter": 8,
            "verse": 5,
            "name": "1 Chronicles 8:5",
            "text": "Gera, Sefufan och Huram."
        },
        {
            "chapter": 8,
            "verse": 6,
            "name": "1 Chronicles 8:6",
            "text": "Och dessa voro Ehuds s\u00f6ner, och de voro familjehuvudm\u00e4n f\u00f6r dem som bodde i Geba, och som blevo bortf\u00f6rda till Manahat,"
        },
        {
            "chapter": 8,
            "verse": 7,
            "name": "1 Chronicles 8:7",
            "text": "dit Gera j\u00e4mte Naaman och Ahia f\u00f6rde bort dem: han f\u00f6dde Ussa och Ahihud."
        },
        {
            "chapter": 8,
            "verse": 8,
            "name": "1 Chronicles 8:8",
            "text": "Och Saharaim f\u00f6dde barn i Moabs land, sedan han hade skilt sig fr\u00e5n sina hustrur, Husim och Baara;"
        },
        {
            "chapter": 8,
            "verse": 9,
            "name": "1 Chronicles 8:9",
            "text": "med sin hustru Hodes f\u00f6dde han d\u00e4r Jobab, Sibja, Mesa, Malkam,"
        },
        {
            "chapter": 8,
            "verse": 10,
            "name": "1 Chronicles 8:10",
            "text": "Jeus, Sakeja och Mirma.  Dessa voro hans s\u00f6ner, huvudm\u00e4n f\u00f6r familjer."
        },
        {
            "chapter": 8,
            "verse": 11,
            "name": "1 Chronicles 8:11",
            "text": "Med Husim hade han f\u00f6tt Abitub och Elpaal."
        },
        {
            "chapter": 8,
            "verse": 12,
            "name": "1 Chronicles 8:12",
            "text": "Och Elpaals s\u00f6ner voro Eber, Miseam och Semed.  Han var den som byggde Ono och Lod med underlydande orter."
        },
        {
            "chapter": 8,
            "verse": 13,
            "name": "1 Chronicles 8:13",
            "text": "Beria och Sema -- vilka voro familjehuvudm\u00e4n f\u00f6r Ajalons inv\u00e5nare och f\u00f6rjagade Gats inv\u00e5nare --"
        },
        {
            "chapter": 8,
            "verse": 14,
            "name": "1 Chronicles 8:14",
            "text": "s\u00e5 ock Ajo, Sasak och Jeremot."
        },
        {
            "chapter": 8,
            "verse": 15,
            "name": "1 Chronicles 8:15",
            "text": "Och Sebadja, Arad, Eder,"
        },
        {
            "chapter": 8,
            "verse": 16,
            "name": "1 Chronicles 8:16",
            "text": "Mikael, Jispa och Joha voro Berias s\u00f6ner."
        },
        {
            "chapter": 8,
            "verse": 17,
            "name": "1 Chronicles 8:17",
            "text": "Och Sebadja, Mesullam, Hiski, Heber,"
        },
        {
            "chapter": 8,
            "verse": 18,
            "name": "1 Chronicles 8:18",
            "text": "Jismerai, Jislia och Jobab voro Elpaals s\u00f6ner."
        },
        {
            "chapter": 8,
            "verse": 19,
            "name": "1 Chronicles 8:19",
            "text": "Och Jakim, Sikri, Sabdi,"
        },
        {
            "chapter": 8,
            "verse": 20,
            "name": "1 Chronicles 8:20",
            "text": "Elienai, Silletai, Eliel,"
        },
        {
            "chapter": 8,
            "verse": 21,
            "name": "1 Chronicles 8:21",
            "text": "Adaja, Beraja och Simrat voro Simeis s\u00f6ner."
        },
        {
            "chapter": 8,
            "verse": 22,
            "name": "1 Chronicles 8:22",
            "text": "Och Jispan, Eber, Eliel,"
        },
        {
            "chapter": 8,
            "verse": 23,
            "name": "1 Chronicles 8:23",
            "text": "Abdon, Sikri, Hanan,"
        },
        {
            "chapter": 8,
            "verse": 24,
            "name": "1 Chronicles 8:24",
            "text": "Hananja, Elam, Antotja,"
        },
        {
            "chapter": 8,
            "verse": 25,
            "name": "1 Chronicles 8:25",
            "text": "Jifdeja och Peniel voro Sasaks s\u00f6ner."
        },
        {
            "chapter": 8,
            "verse": 26,
            "name": "1 Chronicles 8:26",
            "text": "Och Samserai, Seharja, Atalja,"
        },
        {
            "chapter": 8,
            "verse": 27,
            "name": "1 Chronicles 8:27",
            "text": "Jaaresja, Elia och Sikri voro Jerohams s\u00f6ner."
        },
        {
            "chapter": 8,
            "verse": 28,
            "name": "1 Chronicles 8:28",
            "text": "Dessa vore huvudman f\u00f6r familjer, huvudm\u00e4n efter sin \u00e4ttf\u00f6ljd; de bodde i Jerusalem."
        },
        {
            "chapter": 8,
            "verse": 29,
            "name": "1 Chronicles 8:29",
            "text": "I Gibeon bodde Gibeons fader, vilkens hustru hette Maaka."
        },
        {
            "chapter": 8,
            "verse": 30,
            "name": "1 Chronicles 8:30",
            "text": "Och hans f\u00f6rstf\u00f6dde son var Abdon; vidare Sur, Kis, Baal, Nadab,"
        },
        {
            "chapter": 8,
            "verse": 31,
            "name": "1 Chronicles 8:31",
            "text": "Gedor, Ajo och Seker."
        },
        {
            "chapter": 8,
            "verse": 32,
            "name": "1 Chronicles 8:32",
            "text": "Men Miklot f\u00f6dde Simea.  Ocks\u00e5 dessa bodde j\u00e4mte sina br\u00f6der i Jerusalem, gent emot sina br\u00f6der."
        },
        {
            "chapter": 8,
            "verse": 33,
            "name": "1 Chronicles 8:33",
            "text": "Och Ner f\u00f6dde Kis, Kis f\u00f6dde Saul, och Saul f\u00f6dde Jonatan, Malki-Sua, Abinadab och Esbaal."
        },
        {
            "chapter": 8,
            "verse": 34,
            "name": "1 Chronicles 8:34",
            "text": "Jonatans son var Merib-Baal, och Merib-Baal f\u00f6dde Mika."
        },
        {
            "chapter": 8,
            "verse": 35,
            "name": "1 Chronicles 8:35",
            "text": "Mikas s\u00f6ner voro Piton, Melek, Taarea och Ahas."
        },
        {
            "chapter": 8,
            "verse": 36,
            "name": "1 Chronicles 8:36",
            "text": "Ahas f\u00f6dde Joadda, Joadda f\u00f6dde Alemet, Asmavet och Simri, och Simri f\u00f6dde Mosa."
        },
        {
            "chapter": 8,
            "verse": 37,
            "name": "1 Chronicles 8:37",
            "text": "Mosa f\u00f6dde Binea.  Hans son var Rafa; hans son var Eleasa; hans son var Asel."
        },
        {
            "chapter": 8,
            "verse": 38,
            "name": "1 Chronicles 8:38",
            "text": "Och Asel hade sex s\u00f6ner, och dessa hette Asrikam, Bokeru, Ismael, Searja, Obadja och Hanan.  Alla dessa voro Asels s\u00f6ner."
        },
        {
            "chapter": 8,
            "verse": 39,
            "name": "1 Chronicles 8:39",
            "text": "Och hans broder Eseks s\u00f6ner voro Ulam, hans f\u00f6rstf\u00f6dde, Jeus, den andre, och Elifelet, den tredje."
        },
        {
            "chapter": 8,
            "verse": 40,
            "name": "1 Chronicles 8:40",
            "text": "Och Ulams s\u00f6ner voro tappra stridsm\u00e4n, som voro skickliga i att sp\u00e4nna b\u00e5ge; och de hade m\u00e5nga s\u00f6ner och sons\u00f6ner: ett hundra femtio. Alla dessa voro av Benjamins barn"
        }
    ]
}