{
    "translation": "Louis Segond (1910)",
    "abbreviation": "ls1910",
    "lang": "fr",
    "language": "French",
    "direction": "LTR",
    "encoding": "UTF-8",
    "book_nr": 4,
    "book_name": "Numbers",
    "chapter": 14,
    "name": "Numbers 14",
    "verses": [
        {
            "chapter": 14,
            "verse": 1,
            "name": "Numbers 14:1",
            "text": "Toute l'assembl\u00e9e \u00e9leva la voix et poussa des cris, et le peuple pleura pendant la nuit."
        },
        {
            "chapter": 14,
            "verse": 2,
            "name": "Numbers 14:2",
            "text": "Tous les enfants d'Isra\u00ebl murmur\u00e8rent contre Mo\u00efse et Aaron, et toute l'assembl\u00e9e leur dit: Que ne sommes-nous morts dans le pays d'\u00c9gypte, ou que ne sommes-nous morts dans ce d\u00e9sert!"
        },
        {
            "chapter": 14,
            "verse": 3,
            "name": "Numbers 14:3",
            "text": "Pourquoi l'\u00c9ternel nous fait-il aller dans ce pays, o\u00f9 nous tomberons par l'\u00e9p\u00e9e, o\u00f9 nos femmes et nos petits enfants deviendront une proie? Ne vaut-il pas mieux pour nous retourner en \u00c9gypte?"
        },
        {
            "chapter": 14,
            "verse": 4,
            "name": "Numbers 14:4",
            "text": "Et ils se dirent l'un \u00e0 l'autre: Nommons un chef, et retournons en \u00c9gypte."
        },
        {
            "chapter": 14,
            "verse": 5,
            "name": "Numbers 14:5",
            "text": "Mo\u00efse et Aaron tomb\u00e8rent sur leur visage, en pr\u00e9sence de toute l'assembl\u00e9e r\u00e9unie des enfants d'Isra\u00ebl."
        },
        {
            "chapter": 14,
            "verse": 6,
            "name": "Numbers 14:6",
            "text": "Et, parmi ceux qui avaient explor\u00e9 le pays, Josu\u00e9, fils de Nun, et Caleb, fils de Jephunn\u00e9, d\u00e9chir\u00e8rent leurs v\u00eatements,"
        },
        {
            "chapter": 14,
            "verse": 7,
            "name": "Numbers 14:7",
            "text": "et parl\u00e8rent ainsi \u00e0 toute l'assembl\u00e9e des enfants d'Isra\u00ebl: Le pays que nous avons parcouru, pour l'explorer, est un pays tr\u00e8s bon, excellent."
        },
        {
            "chapter": 14,
            "verse": 8,
            "name": "Numbers 14:8",
            "text": "Si l'\u00c9ternel nous est favorable, il nous m\u00e8nera dans ce pays, et nous le donnera: c'est un pays o\u00f9 coulent le lait et le miel."
        },
        {
            "chapter": 14,
            "verse": 9,
            "name": "Numbers 14:9",
            "text": "Seulement, ne soyez point rebelles contre l'\u00c9ternel, et ne craignez point les gens de ce pays, car ils nous serviront de p\u00e2ture, ils n'ont plus d'ombrage pour les couvrir, l'\u00c9ternel est avec nous, ne les craignez point!"
        },
        {
            "chapter": 14,
            "verse": 10,
            "name": "Numbers 14:10",
            "text": "Toute l'assembl\u00e9e parlait de les lapider, lorsque la gloire de l'\u00c9ternel apparut sur la tente d'assignation, devant tous les enfants d'Isra\u00ebl."
        },
        {
            "chapter": 14,
            "verse": 11,
            "name": "Numbers 14:11",
            "text": "Et l'\u00c9ternel dit \u00e0 Mo\u00efse: Jusqu'\u00e0 quand ce peuple me m\u00e9prisera-t-il? Jusqu'\u00e0 quand ne croira-t-il pas en moi, malgr\u00e9 tous les prodiges que j'ai faits au milieu de lui?"
        },
        {
            "chapter": 14,
            "verse": 12,
            "name": "Numbers 14:12",
            "text": "Je le frapperai par la peste, et je le d\u00e9truirai; mais je ferai de toi une nation plus grande et plus puissante que lui."
        },
        {
            "chapter": 14,
            "verse": 13,
            "name": "Numbers 14:13",
            "text": "Mo\u00efse dit \u00e0 l'\u00c9ternel: Les \u00c9gyptiens l'apprendront, eux du milieu desquels tu as fait monter ce peuple par ta puissance,"
        },
        {
            "chapter": 14,
            "verse": 14,
            "name": "Numbers 14:14",
            "text": "et ils le diront aux habitants de ce pays. Ils savaient que toi, l'\u00c9ternel, tu es au milieu de ce peuple; que tu apparais visiblement, toi, l'\u00c9ternel; que ta nu\u00e9e se tient sur lui; que tu marches devant lui le jour dans une colonne de nu\u00e9e, et la nuit dans une colonne de feu."
        },
        {
            "chapter": 14,
            "verse": 15,
            "name": "Numbers 14:15",
            "text": "Si tu fais mourir ce peuple comme un seul homme, les nations qui ont entendu parler de toi diront:"
        },
        {
            "chapter": 14,
            "verse": 16,
            "name": "Numbers 14:16",
            "text": "L'\u00c9ternel n'avait pas le pouvoir de mener ce peuple dans le pays qu'il avait jur\u00e9 de lui donner: c'est pour cela qu'il l'a \u00e9gorg\u00e9 dans le d\u00e9sert."
        },
        {
            "chapter": 14,
            "verse": 17,
            "name": "Numbers 14:17",
            "text": "Maintenant, que la puissance du Seigneur se montre dans sa grandeur, comme tu l'as d\u00e9clar\u00e9 en disant:"
        },
        {
            "chapter": 14,
            "verse": 18,
            "name": "Numbers 14:18",
            "text": "L'\u00c9ternel est lent \u00e0 la col\u00e8re et riche en bont\u00e9, il pardonne l'iniquit\u00e9 et la r\u00e9bellion; mais il ne tient point le coupable pour innocent, et il punit l'iniquit\u00e9 des p\u00e8res sur les enfants jusqu'\u00e0 la troisi\u00e8me et la quatri\u00e8me g\u00e9n\u00e9ration."
        },
        {
            "chapter": 14,
            "verse": 19,
            "name": "Numbers 14:19",
            "text": "Pardonne l'iniquit\u00e9 de ce peuple, selon la grandeur de ta mis\u00e9ricorde, comme tu as pardonn\u00e9 \u00e0 ce peuple depuis l'\u00c9gypte jusqu'ici."
        },
        {
            "chapter": 14,
            "verse": 20,
            "name": "Numbers 14:20",
            "text": "Et l'\u00c9ternel dit: Je pardonne, comme tu l'as demand\u00e9."
        },
        {
            "chapter": 14,
            "verse": 21,
            "name": "Numbers 14:21",
            "text": "Mais, je suis vivant! et la gloire de l'\u00c9ternel remplira toute la terre."
        },
        {
            "chapter": 14,
            "verse": 22,
            "name": "Numbers 14:22",
            "text": "Tous ceux qui ont vu ma gloire, et les prodiges que j'ai faits en \u00c9gypte et dans le d\u00e9sert, qui m'ont tent\u00e9 d\u00e9j\u00e0 dix fois, et qui n'ont point \u00e9cout\u00e9 ma voix,"
        },
        {
            "chapter": 14,
            "verse": 23,
            "name": "Numbers 14:23",
            "text": "tous ceux-l\u00e0 ne verront point le pays que j'ai jur\u00e9 \u00e0 leurs p\u00e8res de leur donner, tous ceux qui m'ont m\u00e9pris\u00e9 ne le verront point."
        },
        {
            "chapter": 14,
            "verse": 24,
            "name": "Numbers 14:24",
            "text": "Et parce que mon serviteur Caleb a \u00e9t\u00e9 anim\u00e9 d'un autre esprit, et qu'il a pleinement suivi ma voie, je le ferai entrer dans le pays o\u00f9 il est all\u00e9, et ses descendants le poss\u00e9deront."
        },
        {
            "chapter": 14,
            "verse": 25,
            "name": "Numbers 14:25",
            "text": "Les Amal\u00e9cites et les Canan\u00e9ens habitent la vall\u00e9e: demain, tournez-vous, et partez pour le d\u00e9sert, dans la direction de la mer Rouge."
        },
        {
            "chapter": 14,
            "verse": 26,
            "name": "Numbers 14:26",
            "text": "L'\u00c9ternel parla \u00e0 Mo\u00efse et \u00e0 Aaron, et dit:"
        },
        {
            "chapter": 14,
            "verse": 27,
            "name": "Numbers 14:27",
            "text": "Jusqu'\u00e0 quand laisserai-je cette m\u00e9chante assembl\u00e9e murmurer contre moi? J'ai entendu les murmures des enfants d'Isra\u00ebl qui murmuraient contre moi."
        },
        {
            "chapter": 14,
            "verse": 28,
            "name": "Numbers 14:28",
            "text": "Dis-leur: Je suis vivant! dit l'\u00c9ternel, je vous ferai ainsi que vous avez parl\u00e9 \u00e0 mes oreilles."
        },
        {
            "chapter": 14,
            "verse": 29,
            "name": "Numbers 14:29",
            "text": "Vos cadavres tomberont dans ce d\u00e9sert. Vous tous, dont on a fait le d\u00e9nombrement, en vous comptant depuis l'\u00e2ge de vingt ans et au-dessus, et qui avez murmur\u00e9 contre moi,"
        },
        {
            "chapter": 14,
            "verse": 30,
            "name": "Numbers 14:30",
            "text": "vous n'entrerez point dans le pays que j'avais jur\u00e9 de vous faire habiter, except\u00e9 Caleb, fils de Jephunn\u00e9, et Josu\u00e9, fils de Nun."
        },
        {
            "chapter": 14,
            "verse": 31,
            "name": "Numbers 14:31",
            "text": "Et vos petits enfants, dont vous avez dit: Ils deviendront une proie! je les y ferai entrer, et ils conna\u00eetront le pays que vous avez d\u00e9daign\u00e9."
        },
        {
            "chapter": 14,
            "verse": 32,
            "name": "Numbers 14:32",
            "text": "Vos cadavres, \u00e0 vous, tomberont dans le d\u00e9sert;"
        },
        {
            "chapter": 14,
            "verse": 33,
            "name": "Numbers 14:33",
            "text": "et vos enfants pa\u00eetront quarante ann\u00e9es dans le d\u00e9sert, et porteront la peine de vos infid\u00e9lit\u00e9s, jusqu'\u00e0 ce que vos cadavres soient tous tomb\u00e9s dans le d\u00e9sert."
        },
        {
            "chapter": 14,
            "verse": 34,
            "name": "Numbers 14:34",
            "text": "De m\u00eame que vous avez mis quarante jours \u00e0 explorer le pays, vous porterez la peine de vos iniquit\u00e9s quarante ann\u00e9es, une ann\u00e9e pour chaque jour; et vous saurez ce que c'est que d'\u00eatre priv\u00e9 de ma pr\u00e9sence."
        },
        {
            "chapter": 14,
            "verse": 35,
            "name": "Numbers 14:35",
            "text": "Moi, l'\u00c9ternel, j'ai parl\u00e9! et c'est ainsi que je traiterai cette m\u00e9chante assembl\u00e9e qui s'est r\u00e9unie contre moi; ils seront consum\u00e9s dans ce d\u00e9sert, ils y mourront."
        },
        {
            "chapter": 14,
            "verse": 36,
            "name": "Numbers 14:36",
            "text": "Les hommes que Mo\u00efse avait envoy\u00e9s pour explorer le pays, et qui, \u00e0 leur retour, avaient fait murmurer contre lui toute l'assembl\u00e9e, en d\u00e9criant le pays;"
        },
        {
            "chapter": 14,
            "verse": 37,
            "name": "Numbers 14:37",
            "text": "ces hommes, qui avaient d\u00e9cri\u00e9 le pays, moururent frapp\u00e9s d'une plaie devant l'\u00c9ternel."
        },
        {
            "chapter": 14,
            "verse": 38,
            "name": "Numbers 14:38",
            "text": "Josu\u00e9, fils de Nun, et Caleb, fils de Jephunn\u00e9, rest\u00e8rent seuls vivants parmi ces hommes qui \u00e9taient all\u00e9s pour explorer le pays."
        },
        {
            "chapter": 14,
            "verse": 39,
            "name": "Numbers 14:39",
            "text": "Mo\u00efse rapporta ces choses \u00e0 tous les enfants d'Isra\u00ebl, et le peuple fut dans une grande d\u00e9solation."
        },
        {
            "chapter": 14,
            "verse": 40,
            "name": "Numbers 14:40",
            "text": "Ils se lev\u00e8rent de bon matin, et mont\u00e8rent au sommet de la montagne, en disant: Nous voici! nous monterons au lieu dont a parl\u00e9 l'\u00c9ternel, car nous avons p\u00e9ch\u00e9."
        },
        {
            "chapter": 14,
            "verse": 41,
            "name": "Numbers 14:41",
            "text": "Mo\u00efse dit: Pourquoi transgressez-vous l'ordre de l'\u00c9ternel? Cela ne r\u00e9ussira point."
        },
        {
            "chapter": 14,
            "verse": 42,
            "name": "Numbers 14:42",
            "text": "Ne montez pas! car l'\u00c9ternel n'est pas au milieu de vous. Ne vous faites pas battre par vos ennemis."
        },
        {
            "chapter": 14,
            "verse": 43,
            "name": "Numbers 14:43",
            "text": "Car les Amal\u00e9cites et les Canan\u00e9ens sont l\u00e0 devant vous, et vous tomberiez par l'\u00e9p\u00e9e. Parce que vous vous \u00eates d\u00e9tourn\u00e9s de l'\u00c9ternel, l'\u00c9ternel ne sera point avec vous."
        },
        {
            "chapter": 14,
            "verse": 44,
            "name": "Numbers 14:44",
            "text": "Ils s'obstin\u00e8rent \u00e0 monter au sommet de la montagne; mais l'arche de l'alliance et Mo\u00efse ne sortirent point du milieu du camp."
        },
        {
            "chapter": 14,
            "verse": 45,
            "name": "Numbers 14:45",
            "text": "Alors descendirent les Amal\u00e9cites et les Canan\u00e9ens qui habitaient cette montagne; ils les battirent, et les taill\u00e8rent en pi\u00e8ces jusqu'\u00e0 Horma. "
        }
    ]
}