{
    "translation": "B\u00edblia Livre - Textus Receptus",
    "abbreviation": "porblivretr",
    "lang": "pt",
    "language": "Portuguese",
    "direction": "LTR",
    "encoding": "UTF-8",
    "book_nr": 23,
    "book_name": "Isaiah",
    "chapter": 46,
    "name": "Isaiah 46",
    "verses": [
        {
            "chapter": 46,
            "verse": 1,
            "name": "Isaiah 46:1",
            "text": "Bel se abaixa, Nebo se curva; seus \u00eddolos s\u00e3o postos sobre os animais e sobre o gado; as cargas de vossos fardos s\u00e3o exaustivas para os animais j\u00e1 cansados. "
        },
        {
            "chapter": 46,
            "verse": 2,
            "name": "Isaiah 46:2",
            "text": "Juntamente se encurvam e se abaixam; n\u00e3o podem salvar a carga, mas eles mesmos  v\u00e3o ao cativeiro. "
        },
        {
            "chapter": 46,
            "verse": 3,
            "name": "Isaiah 46:3",
            "text": "Ouvi-me, \u00f3 casa de Jac\u00f3, e todo o restante da casa de Israel; v\u00f3s a quem eu carreguei desde o ventre, a quem levei desde o \u00fatero. "
        },
        {
            "chapter": 46,
            "verse": 4,
            "name": "Isaiah 46:4",
            "text": "E at\u00e9 vossa velhice eu serei o mesmo, e ainda at\u00e9 \u00e0 idade dos cabelos grisalhos eu vos carregarei; eu vos fiz, e eu vos levarei; eu vos carregarei e vos livrarei. "
        },
        {
            "chapter": 46,
            "verse": 5,
            "name": "Isaiah 46:5",
            "text": "A quem me considerareis semelhante, e com quem me igualareis, e me comparareis, para que sejamos semelhantes? "
        },
        {
            "chapter": 46,
            "verse": 6,
            "name": "Isaiah 46:6",
            "text": "Eles gastam o ouro da bolsa, e pesam a prata com balan\u00e7as; pagam ao ourives, e daquilo ele faz um deus, e se prostram e adoram. "
        },
        {
            "chapter": 46,
            "verse": 7,
            "name": "Isaiah 46:7",
            "text": "Sobre os ombros o temam, o carregam, e o p\u00f5em em seu lugar; ali ele fica, de seu lugar n\u00e3o se move; e se chamarem por ele, resposta nenhuma ele d\u00e1, nem o livra de sua afli\u00e7\u00e3o. "
        },
        {
            "chapter": 46,
            "verse": 8,
            "name": "Isaiah 46:8",
            "text": "Lembrai-vos disto, e sede corajosos;  fazei mem\u00f3ria disso no cora\u00e7\u00e3o, \u00f3 transgressores! "
        },
        {
            "chapter": 46,
            "verse": 9,
            "name": "Isaiah 46:9",
            "text": "Lembrai-vos das coisas passadas desde a antiguidade; porque eu sou Deus, e nenhum outro deus h\u00e1, e ningu\u00e9m h\u00e1 semelhante a mim, "
        },
        {
            "chapter": 46,
            "verse": 10,
            "name": "Isaiah 46:10",
            "text": "Que declaro o fim desde o princ\u00edpio, e desde a antiguidade as coisas que ainda n\u00e3o aconteceram; que digo: Minha inten\u00e7\u00e3o ser\u00e1 firme, e farei toda a minha vontade. "
        },
        {
            "chapter": 46,
            "verse": 11,
            "name": "Isaiah 46:11",
            "text": "Que chamo a ave de rapina desde o oriente, ao homem da minha inten\u00e7\u00e3o desde as terras distantes; porque assim disse; e assim o cumprirei; eu o formei, tamb\u00e9m o farei. "
        },
        {
            "chapter": 46,
            "verse": 12,
            "name": "Isaiah 46:12",
            "text": "Ouvi-me, \u00f3 duros de cora\u00e7\u00e3o; v\u00f3s que estais longe da justi\u00e7a: "
        },
        {
            "chapter": 46,
            "verse": 13,
            "name": "Isaiah 46:13",
            "text": "Eu trago para perto minha justi\u00e7a, ela n\u00e3o ficar\u00e1 longe; e minha salva\u00e7\u00e3o n\u00e3o tardar\u00e1; mas porei salva\u00e7\u00e3o em Si\u00e3o, a Israel minha gl\u00f3ria. "
        }
    ]
}