{
    "translation": "Svenska Folkbibeln (1998)",
    "abbreviation": "swefolk1998",
    "lang": "sv",
    "language": "Swedish",
    "direction": "LTR",
    "encoding": "UTF-8",
    "book_nr": 26,
    "book_name": "Ezekiel",
    "chapter": 9,
    "name": "Ezekiel 9",
    "verses": [
        {
            "chapter": 9,
            "verse": 1,
            "name": "Ezekiel 9:1",
            "text": "Jag h\u00f6rde honom ropa med h\u00f6g r\u00f6st: \"Kom hit, ni som skall straffa staden, var och en med sitt f\u00f6rst\u00f6relsevapen i handen.\""
        },
        {
            "chapter": 9,
            "verse": 2,
            "name": "Ezekiel 9:2",
            "text": "D\u00e5 kom sex m\u00e4n fr\u00e5n \u00f6vre porten, den som vetter mot norr, och var och en hade sin stridshammare i handen. Bland dem fanns en man som var kl\u00e4dd i linnekl\u00e4der och hade ett skrivdon vid sin h\u00f6ft. De kom och st\u00e4llde sig vid sidan av kopparaltaret."
        },
        {
            "chapter": 9,
            "verse": 3,
            "name": "Ezekiel 9:3",
            "text": "H\u00e4rligheten fr\u00e5n Israels Gud hade lyft sig fr\u00e5n keruben som den vilade p\u00e5 och flyttat sig till tempelhusets tr\u00f6skel och ropade nu till mannen som var kl\u00e4dd i linnekl\u00e4derna och som hade skrivdonet vid sin h\u00f6ft."
        },
        {
            "chapter": 9,
            "verse": 4,
            "name": "Ezekiel 9:4",
            "text": "Herren sade till honom: \"G\u00e5 mitt igenom Jerusalems stad och s\u00e4tt ett tecken p\u00e5 pannan p\u00e5 de m\u00e4n som suckar och j\u00e4mrar sig \u00f6ver alla de vidrigheter som bedrivs d\u00e4rinne.\" "
        },
        {
            "chapter": 9,
            "verse": 5,
            "name": "Ezekiel 9:5",
            "text": "Till de andra h\u00f6rde jag honom s\u00e4ga: \"F\u00f6lj honom in i staden och sl\u00e5 folket. Visa ingen skonsamhet och ha inget f\u00f6rbarmande!"
        },
        {
            "chapter": 9,
            "verse": 6,
            "name": "Ezekiel 9:6",
            "text": "D\u00f6da \u00e5ldringar, unga m\u00e4n, unga kvinnor, sp\u00e4da barn och vuxna kvinnor. Ni skall d\u00f6da f\u00f6r att f\u00f6rg\u00f6ra, men inte r\u00f6ra n\u00e5gon som har tecknet p\u00e5 sig. B\u00f6rja vid min helgedom.\" D\u00e5 b\u00f6rjade de med de \u00e4ldste som stod framf\u00f6r tempelhuset."
        },
        {
            "chapter": 9,
            "verse": 7,
            "name": "Ezekiel 9:7",
            "text": "Han sade till dem: \"Orena tempelbyggnaden och fyll f\u00f6rg\u00e5rdarna med slagna. Drag ut!\" Och de drog ut och slog folket i staden."
        },
        {
            "chapter": 9,
            "verse": 8,
            "name": "Ezekiel 9:8",
            "text": "N\u00e4r de slog folket blev jag ensam kvar och jag f\u00f6ll d\u00e5 ner p\u00e5 mitt ansikte och ropade: \"O, Herre, Herre, vill du f\u00f6rg\u00f6ra allt som \u00e4r kvar av Israel, n\u00e4r du utgjuter din vrede \u00f6ver Jerusalem?\""
        },
        {
            "chapter": 9,
            "verse": 9,
            "name": "Ezekiel 9:9",
            "text": "Han sade till mig: \"Den missg\u00e4rning som folket i Israel och Juda har beg\u00e5tt \u00e4r mycket, mycket stor. Landet \u00e4r fullt av blodskulder och staden \u00e4r full av lag\u00f6vertr\u00e4delse. Ty de s\u00e4ger: Herren har \u00f6vergett landet, Herren ser det inte."
        },
        {
            "chapter": 9,
            "verse": 10,
            "name": "Ezekiel 9:10",
            "text": "D\u00e4rf\u00f6r skall inte heller jag visa n\u00e5got medlidande eller f\u00f6rbarmande, utan jag skall l\u00e5ta deras g\u00e4rningar komma \u00f6ver deras egna huvuden.\" "
        },
        {
            "chapter": 9,
            "verse": 11,
            "name": "Ezekiel 9:11",
            "text": "Mannen som var kl\u00e4dd i linnekl\u00e4derna och hade skrivdonet vid sin h\u00f6ft kom nu tillbaka och meddelade: \"Jag har gjort som du befallde mig.\""
        }
    ]
}