{
    "translation": "Bible in Worldwide English",
    "abbreviation": "bwe",
    "lang": "en",
    "language": "English",
    "direction": "LTR",
    "encoding": "",
    "book_nr": 47,
    "book_name": "2 Corinthians",
    "chapter": 4,
    "name": "2 Corinthians 4",
    "verses": [
        {
            "chapter": 4,
            "verse": 1,
            "name": "2 Corinthians 4:1",
            "text": "God in his kindness gave us this work. So we do not give up."
        },
        {
            "chapter": 4,
            "verse": 2,
            "name": "2 Corinthians 4:2",
            "text": "We never do wrong things nor do things in secret. We do not fool people nor change God\u2019s message. No, we tell people the truth openly. We let every person judge us for himself. We know that God sees all we do."
        },
        {
            "chapter": 4,
            "verse": 3,
            "name": "2 Corinthians 4:3",
            "text": "If the good news which we tell is not clear to some people, it is because they are lost.  They do not believe."
        },
        {
            "chapter": 4,
            "verse": 4,
            "name": "2 Corinthians 4:4",
            "text": "The god of this world has covered their minds so they cannot see. They cannot see with their minds the light of the good news of Christ. They cannot see how bright and wonderful Christ is. He is just like God himself."
        },
        {
            "chapter": 4,
            "verse": 5,
            "name": "2 Corinthians 4:5",
            "text": "We do not talk about ourselves, but about Christ Jesus our Lord. And we are your slaves for Jesus\u2019 sake."
        },
        {
            "chapter": 4,
            "verse": 6,
            "name": "2 Corinthians 4:6",
            "text": "God said, \u2018Let light shine in the darkness.\u2019 And he has let light shine in our hearts too. He gave us light that shows how bright and wonderful God is. We see this light when we look at the face of Christ."
        },
        {
            "chapter": 4,
            "verse": 7,
            "name": "2 Corinthians 4:7",
            "text": "This is something of great value within us, but we are like pots made of earth and clay.  This power is greater than any other power. But it comes from God, not from us."
        },
        {
            "chapter": 4,
            "verse": 8,
            "name": "2 Corinthians 4:8",
            "text": "We have much trouble, but we do not give up. We are in hard places, but help always comes."
        },
        {
            "chapter": 4,
            "verse": 9,
            "name": "2 Corinthians 4:9",
            "text": "People trouble us, but God is always with us. We are beaten, but we are not killed."
        },
        {
            "chapter": 4,
            "verse": 10,
            "name": "2 Corinthians 4:10",
            "text": "We always feel as if our body is dying, just as Jesus died. Then the life of Jesus also can be seen in our body."
        },
        {
            "chapter": 4,
            "verse": 11,
            "name": "2 Corinthians 4:11",
            "text": "While we live we are always ready to die for Jesus. And so the life of Jesus is also seen in our bodies which will die."
        },
        {
            "chapter": 4,
            "verse": 12,
            "name": "2 Corinthians 4:12",
            "text": "So then, while death is at work in us, life is at work at the same time."
        },
        {
            "chapter": 4,
            "verse": 13,
            "name": "2 Corinthians 4:13",
            "text": "We believe the same way as the one who wrote, \u2018I believed, and so I talked.\u2019 We also believe, and so we talk to you."
        },
        {
            "chapter": 4,
            "verse": 14,
            "name": "2 Corinthians 4:14",
            "text": "We know this. God raised up the Lord Jesus, and he will raise us up also with Jesus. He will bring us all to stand together before God."
        },
        {
            "chapter": 4,
            "verse": 15,
            "name": "2 Corinthians 4:15",
            "text": "All this is happening for you so that the blessings of God will reach more people. Then more people will thank God. And this will make God\u2019s name greater. gets weak, but our heart gets new strength day after day."
        },
        {
            "chapter": 4,
            "verse": 16,
            "name": "2 Corinthians 4:16",
            "text": "The load of trouble we carry now is a little heavy. But this trouble is getting something great and wonderful ready for us which will last for ever."
        },
        {
            "chapter": 4,
            "verse": 17,
            "name": "2 Corinthians 4:17",
            "text": "We are not looking at things that can be seen, but at things that cannot be seen. The things which can be seen last only a little while. But the things which cannot be seen last for ever."
        },
        {
            "chapter": 4,
            "verse": 18,
            "name": "2 Corinthians 4:18",
            "text": ""
        }
    ]
}