{
    "translation": "NCV Traditional",
    "abbreviation": "cnt",
    "lang": "zh",
    "language": "",
    "direction": "LTR",
    "encoding": "UTF-8",
    "book_nr": 44,
    "book_name": "Acts",
    "chapter": 11,
    "name": "Acts 11",
    "verses": [
        {
            "chapter": 11,
            "verse": 1,
            "name": "Acts 11:1",
            "text": "\u4f7f\u5f92\u548c\u5728\u7336\u592a\u7684\u5f1f\u5144\u5011\uff0c\u807d\u8aaa\u5916\u65cf\u4eba\u4e5f\u63a5\u53d7\u4e86\u3000\u795e\u7684\u9053\u3002"
        },
        {
            "chapter": 11,
            "verse": 2,
            "name": "Acts 11:2",
            "text": "\u5f7c\u5f97\u4e0a\u5230\u8036\u8def\u6492\u51b7\u7684\u6642\u5019\uff0c\u90a3\u4e9b\u5b88\u5272\u79ae\u7684\u4eba\u8207\u4ed6\u722d\u8ad6\uff0c"
        },
        {
            "chapter": 11,
            "verse": 3,
            "name": "Acts 11:3",
            "text": "\u8aaa\uff1a\u201c\u4f60\u7adf\u7136\u5230\u672a\u53d7\u5272\u79ae\u7684\u4eba\u90a3\u88e1\uff0c\u8ddf\u4ed6\u5011\u4e00\u8d77\u5403\u98ef\uff01\u201d"
        },
        {
            "chapter": 11,
            "verse": 4,
            "name": "Acts 11:4",
            "text": "\u5f7c\u5f97\u5c31\u6309\u8457\u6b21\u5e8f\u5411\u4ed6\u5011\u8b1b\u89e3\uff0c\u8aaa\uff1a"
        },
        {
            "chapter": 11,
            "verse": 5,
            "name": "Acts 11:5",
            "text": "\u201c\u6211\u5728\u7d04\u5e15\u57ce\u79b1\u544a\u7684\u6642\u5019\uff0c\u9b42\u904a\u8c61\u5916\uff0c\u898b\u5230\u7570\u8c61\uff1a\u6709\u4e00\u4ef6\u6771\u897f\uff0c\u597d\u50cf\u4e00\u584a\u5927\u5e03\uff0c\u7d81\u8457\u56db\u89d2\uff0c\u5f9e\u5929\u4e0a\u964d\u4e0b\u4f86\uff0c\u4e00\u76f4\u4f86\u5230\u6211\u9762\u524d\u3002"
        },
        {
            "chapter": 11,
            "verse": 6,
            "name": "Acts 11:6",
            "text": "\u6211\u5b9a\u775b\u89c0\u5bdf\uff0c\u770b\u898b\u88e1\u9762\u6709\u5730\u4e0a\u7684\u56db\u8db3\u7272\u755c\u3001\u8d70\u7378\uff0c\u9084\u6709\u6606\u87f2\u548c\u5929\u7a7a\u7684\u98db\u9ce5\u3002"
        },
        {
            "chapter": 11,
            "verse": 7,
            "name": "Acts 11:7",
            "text": "\u6211\u4e5f\u807d\u898b\u6709\u8072\u97f3\u5c0d\u6211\u8aaa\uff1a\u2018\u5f7c\u5f97\uff0c\u8d77\u4f86\uff0c\u5bb0\u4e86\u5403\uff01\u2019"
        },
        {
            "chapter": 11,
            "verse": 8,
            "name": "Acts 11:8",
            "text": "\u6211\u8aaa\uff1a\u2018\u4e3b\u554a\uff0c\u5343\u842c\u4e0d\u53ef\uff0c\u56e0\u70ba\u4fd7\u7269\u6216\u4e0d\u6f54\u7684\u6771\u897f\uff0c\u5f9e\u4f86\u6c92\u6709\u9032\u904e\u6211\u7684\u53e3\u3002\u2019"
        },
        {
            "chapter": 11,
            "verse": 9,
            "name": "Acts 11:9",
            "text": "\u7b2c\u4e8c\u6b21\u53c8\u6709\u8072\u97f3\u5f9e\u5929\u4e0a\u56de\u7b54\uff1a\u2018\u3000\u795e\u6240\u6f54\u6de8\u7684\uff0c\u4f60\u4e0d\u53ef\u7576\u4f5c\u4fd7\u7269\u3002\u2019"
        },
        {
            "chapter": 11,
            "verse": 10,
            "name": "Acts 11:10",
            "text": "\u9019\u6a23\u4e00\u9023\u4e09\u6b21\u4e4b\u5f8c\uff0c\u6240\u6709\u7684\u6771\u897f\u90fd\u62c9\u56de\u5929\u4e0a\u53bb\u4e86\u3002"
        },
        {
            "chapter": 11,
            "verse": 11,
            "name": "Acts 11:11",
            "text": "\u5c31\u5728\u90a3\u500b\u6642\u5019\uff0c\u6709\u4e09\u500b\u5f9e\u8a72\u6492\u5229\u4e9e\u6d3e\u5230\u6211\u9019\u88e1\u4f86\u7684\u4eba\uff0c\u7ad9\u5728\u6211\u4f4f\u7684\u623f\u5b50\u9580\u524d\u3002"
        },
        {
            "chapter": 11,
            "verse": 12,
            "name": "Acts 11:12",
            "text": "\u8056\u9748\u5429\u5490\u6211\u8ddf\u4ed6\u5011\u4e00\u8d77\u53bb\uff0c\u4e00\u9ede\u4e5f\u4e0d\u8981\u7591\u60d1\u3002\u9019\u516d\u4f4d\u5f1f\u5144\u4e5f\u8ddf\u6211\u4e00\u8d77\u53bb\uff0c\u6211\u5011\u5c31\u9032\u4e86\u90a3\u4eba\u7684\u5bb6\u3002"
        },
        {
            "chapter": 11,
            "verse": 13,
            "name": "Acts 11:13",
            "text": "\u4ed6\u544a\u8a34\u6211\u5011\uff0c\u4ed6\u600e\u6a23\u770b\u898b\u5929\u4f7f\u7ad9\u5728\u4ed6\u5bb6\u88e1\u8aaa\uff1a\u2018\u6d3e\u4eba\u5230\u7d04\u5e15\u53bb\uff0c\u8acb\u90a3\u500b\u540d\u53eb\u5f7c\u5f97\u7684\u897f\u9580\u4f86\uff0c"
        },
        {
            "chapter": 11,
            "verse": 14,
            "name": "Acts 11:14",
            "text": "\u4ed6\u6709\u8a71\u8981\u544a\u8a34\u4f60\uff0c\u4f7f\u4f60\u548c\u4f60\u5168\u5bb6\u90fd\u53ef\u4ee5\u5f97\u6551\u3002\u2019"
        },
        {
            "chapter": 11,
            "verse": 15,
            "name": "Acts 11:15",
            "text": "\u6211\u4e00\u958b\u59cb\u8b1b\u8a71\uff0c\u8056\u9748\u5c31\u964d\u5728\u4ed6\u5011\u8eab\u4e0a\uff0c\u6b63\u50cf\u7576\u521d\u964d\u5728\u6211\u5011\u8eab\u4e0a\u4e00\u6a23\u3002"
        },
        {
            "chapter": 11,
            "verse": 16,
            "name": "Acts 11:16",
            "text": "\u6211\u5c31\u60f3\u8d77\u4e3b\u6240\u8aaa\u7684\u8a71\uff1a\u2018\u7d04\u7ff0\u7528\u6c34\u65bd\u6d17\uff0c\u4f46\u4f60\u5011\u8981\u53d7\u8056\u9748\u7684\u6d17\u3002\u2019"
        },
        {
            "chapter": 11,
            "verse": 17,
            "name": "Acts 11:17",
            "text": "\u3000\u795e\u65e2\u7136\u628a\u540c\u6a23\u7684\u6069\u8cdc\u7d66\u4ed6\u5011\uff0c\u50cf\u7d66\u6211\u5011\u9019\u4e9b\u4fe1\u4e86\u4e3b\u8036\u7a4c\u57fa\u7763\u7684\u4eba\u4e00\u6a23\uff0c\u6211\u662f\u8ab0\uff0c\u6211\u80fd\u5920\u963b\u6b62\u3000\u795e\u55ce\uff1f\u201d"
        },
        {
            "chapter": 11,
            "verse": 18,
            "name": "Acts 11:18",
            "text": "\u773e\u4eba\u807d\u898b\u9019\u4e9b\u8a71\uff0c\u5c31\u9ed8\u7136\u7121\u8072\uff0c\u628a\u69ae\u8000\u6b78\u7d66\u3000\u795e\uff0c\u8aaa\uff1a\u201c\u9019\u6a23\u770b\u4f86\uff0c\u3000\u795e\u4e5f\u628a\u6094\u6539\u7684\u5fc3\u8cdc\u7d66\u5916\u65cf\u4eba\uff0c\u4f7f\u4ed6\u5011\u5f97\u751f\u547d\u3002\u201d"
        },
        {
            "chapter": 11,
            "verse": 19,
            "name": "Acts 11:19",
            "text": "\u90a3\u4e9b\u56e0\u53f8\u63d0\u53cd\u4e8b\u4ef6\u906d\u53d7\u82e6\u96e3\u800c\u56db\u6563\u7684\u9580\u5f92\uff0c\u4e00\u76f4\u8d70\u5230\u8153\u5c3c\u57fa\u3001\u585e\u6d66\u8def\u65af\u3001\u5b89\u63d0\u963f\uff1b\u4ed6\u5011\u4e0d\u5c0d\u5225\u4eba\u50b3\u8b1b\uff0c\u53ea\u5c0d\u7336\u592a\u4eba\u50b3\u8b1b\u3002"
        },
        {
            "chapter": 11,
            "verse": 20,
            "name": "Acts 11:20",
            "text": "\u4f46\u5176\u4e2d\u6709\u4e9b\u585e\u6d66\u8def\u65af\u4eba\u548c\u53e4\u5229\u5948\u4eba\uff0c\u4f86\u5230\u5b89\u63d0\u963f\uff0c\u4e5f\u5c0d\u5e0c\u81d8\u4eba\u50b3\u8b1b\u4e3b\u8036\u7a4c\u3002"
        },
        {
            "chapter": 11,
            "verse": 21,
            "name": "Acts 11:21",
            "text": "\u4e3b\u7684\u624b\u8207\u4ed6\u5011\u540c\u5728\uff0c\u4fe1\u800c\u6b78\u4e3b\u7684\u4eba\u5c31\u591a\u8d77\u4f86\u3002"
        },
        {
            "chapter": 11,
            "verse": 22,
            "name": "Acts 11:22",
            "text": "\u9019\u4e8b\u50b3\u5230\u8036\u8def\u6492\u51b7\u6559\u6703\u7684\u8033\u4e2d\uff0c\u4ed6\u5011\u5c31\u6d3e\u5df4\u62ff\u5df4\u5230\u5b89\u63d0\u963f\u53bb\u3002"
        },
        {
            "chapter": 11,
            "verse": 23,
            "name": "Acts 11:23",
            "text": "\u4ed6\u5230\u4e86\u90a3\u88e1\uff0c\u770b\u898b\u3000\u795e\u6240\u65bd\u7684\u6069\uff0c\u5c31\u5f88\u6b61\u559c\uff0c\u52f8\u52c9\u773e\u4eba\u5805\u5fc3\u9760\u4e3b\u3002"
        },
        {
            "chapter": 11,
            "verse": 24,
            "name": "Acts 11:24",
            "text": "\u5df4\u62ff\u5df4\u662f\u500b\u597d\u4eba\uff0c\u6eff\u6709\u8056\u9748\u548c\u4fe1\u5fc3\uff0c\u65bc\u662f\u8a31\u591a\u4eba\u6b78\u4e86\u4e3b\u3002"
        },
        {
            "chapter": 11,
            "verse": 25,
            "name": "Acts 11:25",
            "text": "\u5f8c\u4f86\u4ed6\u5230\u5927\u6578\u53bb\u627e\u6383\u7f85\uff0c"
        },
        {
            "chapter": 11,
            "verse": 26,
            "name": "Acts 11:26",
            "text": "\u627e\u5230\u4e86\uff0c\u5c31\u5e36\u4ed6\u4f86\u5b89\u63d0\u963f\u3002\u8db3\u8db3\u6709\u4e00\u5e74\uff0c\u4ed6\u5011\u4e00\u540c\u5728\u6559\u6703\u805a\u96c6\uff0c\u6559\u5c0e\u4e86\u8a31\u591a\u4eba\u3002\u9580\u5f92\u7a31\u70ba\u57fa\u7763\u5f92\uff0c\u662f\u5f9e\u5b89\u63d0\u963f\u958b\u59cb\u7684\u3002"
        },
        {
            "chapter": 11,
            "verse": 27,
            "name": "Acts 11:27",
            "text": "\u90a3\u6642\uff0c\u6709\u5e7e\u4f4d\u5148\u77e5\u5f9e\u8036\u8def\u6492\u51b7\u4e0b\u5230\u5b89\u63d0\u963f\u3002"
        },
        {
            "chapter": 11,
            "verse": 28,
            "name": "Acts 11:28",
            "text": "\u5176\u4e2d\u6709\u4e00\u500b\u540d\u53eb\u4e9e\u8fe6\u5e03\u7684\u7ad9\u8d77\u4f86\uff0c\u85c9\u8457\u8056\u9748\u6307\u51fa\u5929\u4e0b\u5c07\u8981\u6709\u5927\u9951\u8352\uff1b\u9019\u4e8b\u5728\u9769\u8001\u4e1f\u6642\u671f\u679c\u7136\u767c\u751f\u4e86\u3002"
        },
        {
            "chapter": 11,
            "verse": 29,
            "name": "Acts 11:29",
            "text": "\u65bc\u662f\u9580\u5f92\u6c7a\u5b9a\u6309\u8457\u5404\u4eba\u7684\u529b\u91cf\u6350\u6b3e\uff0c\u597d\u9001\u7d66\u4f4f\u5728\u7336\u592a\u7684\u5f1f\u5144\u3002"
        },
        {
            "chapter": 11,
            "verse": 30,
            "name": "Acts 11:30",
            "text": "\u4ed6\u5011\u5c31\u9019\u6a23\u884c\u4e86\uff0c\u7531\u5df4\u62ff\u5df4\u548c\u6383\u7f85\u7d93\u624b\u9001\u5230\u9577\u8001\u5011\u90a3\u88e1\u3002"
        }
    ]
}