{
    "translation": "Northern Azeri Translation",
    "abbreviation": "northernazeri",
    "lang": "az",
    "language": "Azeri Northern ",
    "direction": "LTR",
    "encoding": "UTF-8",
    "book_nr": 58,
    "book_name": "Hebrews",
    "chapter": 13,
    "name": "Hebrews 13",
    "verses": [
        {
            "chapter": 13,
            "verse": 1,
            "name": "Hebrews 13:1",
            "text": "    Aran\u0131zda daimi qarda\u015fl\u0131q sevgisi olsun."
        },
        {
            "chapter": 13,
            "verse": 2,
            "name": "Hebrews 13:2",
            "text": "Qonaqp\u0259rv\u0259r olma\u011f\u0131 da unutmay\u0131n, \u00e7\u00fcnki bel\u0259 davranan b\u0259zil\u0259ri bilm\u0259d\u0259n m\u0259l\u0259kl\u0259r\u0259 qonaqp\u0259rv\u0259rlik g\u00f6st\u0259rmi\u015fl\u0259r."
        },
        {
            "chapter": 13,
            "verse": 3,
            "name": "Hebrews 13:3",
            "text": "\u00d6z\u00fcn\u00fcz\u00fc h\u0259bsd\u0259 olanlar\u0131n yerin\u0259 qoyaraq onlar\u0131 yada sal\u0131n. \u018fzab-\u0259ziyy\u0259t i\u00e7ind\u0259 olanlar\u0131 da el\u0259 xat\u0131rlay\u0131n ki, sanki \u00f6z\u00fcn\u00fcz onlarla birg\u0259 \u0259zab-\u0259ziyy\u0259t \u00e7\u0259kirsiniz."
        },
        {
            "chapter": 13,
            "verse": 4,
            "name": "Hebrews 13:4",
            "text": "Qoy h\u0259r k\u0259s nikaha h\u00f6rm\u0259tl\u0259 yana\u015fs\u0131n. Qoy \u0259r-arvad yata\u011f\u0131 murdarlanmas\u0131n. \u00c7\u00fcnki Allah \u0259xlaqs\u0131zlar\u0131 v\u0259 zinakarlar\u0131 m\u00fchakim\u0259 ed\u0259c\u0259k."
        },
        {
            "chapter": 13,
            "verse": 5,
            "name": "Hebrews 13:5",
            "text": "H\u0259yat\u0131n\u0131z pulp\u0259r\u0259stlikd\u0259n azad olsun, n\u0259yiniz varsa, ona qane olun. \u00c7\u00fcnki Allah \u00d6z\u00fc demi\u015fdir: \u00abS\u0259ni he\u00e7 vaxt atmaram, s\u0259ni he\u00e7 vaxt t\u0259rk etm\u0259r\u0259m\u00bb."
        },
        {
            "chapter": 13,
            "verse": 6,
            "name": "Hebrews 13:6",
            "text": "Buna g\u00f6r\u0259 biz arxay\u0131nl\u0131qla deyirik:  \u00abR\u0259bb m\u0259n\u0259 yard\u0131m ed\u0259ndir, he\u00e7 qorxmaram. \u0130nsan m\u0259n\u0259 n\u0259 ed\u0259 bil\u0259r?\u00bb   "
        },
        {
            "chapter": 13,
            "verse": 7,
            "name": "Hebrews 13:7",
            "text": "Allah\u0131n k\u0259lam\u0131n\u0131 siz\u0259 dan\u0131\u015fan r\u0259hb\u0259rl\u0259rinizi yada sal\u0131n. Onlar\u0131n h\u0259yat t\u0259rzinin n\u0259tic\u0259sin\u0259 bax\u0131b imanlar\u0131n\u0131 n\u00fcmun\u0259 olaraq g\u00f6t\u00fcr\u00fcn."
        },
        {
            "chapter": 13,
            "verse": 8,
            "name": "Hebrews 13:8",
            "text": "\u0130sa M\u0259sih d\u00fcn\u0259n, bu g\u00fcn v\u0259 \u0259b\u0259di olaraq eynidir."
        },
        {
            "chapter": 13,
            "verse": 9,
            "name": "Hebrews 13:9",
            "text": "M\u00fcxt\u0259lif v\u0259 yad t\u0259liml\u0259rl\u0259 yoldan azmay\u0131n, \u00e7\u00fcnki \u00fcr\u0259k yem\u0259kl\u0259rl\u0259 deyil, Allah\u0131n l\u00fctf\u00fc il\u0259 q\u00fcvv\u0259tl\u0259ns\u0259, yax\u015f\u0131d\u0131r. Bu c\u00fcr yem\u0259k qaydalar\u0131na riay\u0259t ed\u0259nl\u0259r bir xeyir g\u00f6rm\u0259dil\u0259r."
        },
        {
            "chapter": 13,
            "verse": 10,
            "name": "Hebrews 13:10",
            "text": "Bizim bir qurbangah\u0131m\u0131z var ki, ibad\u0259t \u00e7ad\u0131r\u0131nda xidm\u0259t ed\u0259nl\u0259rin ondan yem\u0259y\u0259 icaz\u0259si yoxdur."
        },
        {
            "chapter": 13,
            "verse": 11,
            "name": "Hebrews 13:11",
            "text": "\u00c7\u00fcnki ba\u015f kahin g\u00fcnah qurban\u0131 olan heyvanlar\u0131n qan\u0131n\u0131 M\u00fcq\u0259dd\u0259s yer\u0259 g\u0259tirir, c\u0259s\u0259dl\u0259ri is\u0259 d\u00fc\u015f\u0259rg\u0259nin k\u0259nar\u0131nda yand\u0131r\u0131l\u0131r."
        },
        {
            "chapter": 13,
            "verse": 12,
            "name": "Hebrews 13:12",
            "text": "Bunun kimi \u0130sa da \u00d6z qan\u0131 il\u0259 xalq\u0131 t\u0259qdis etm\u0259k \u00fc\u00e7\u00fcn \u015f\u0259h\u0259r darvazas\u0131n\u0131n k\u0259nar\u0131nda \u0259zab \u00e7\u0259kdi."
        },
        {
            "chapter": 13,
            "verse": 13,
            "name": "Hebrews 13:13",
            "text": "Buna g\u00f6r\u0259 Onun g\u00f6rd\u00fcy\u00fc t\u0259hqiri da\u015f\u0131yaraq d\u00fc\u015f\u0259rg\u0259nin k\u0259nar\u0131na \u00e7\u0131x\u0131b Onun yan\u0131na ged\u0259k."
        },
        {
            "chapter": 13,
            "verse": 14,
            "name": "Hebrews 13:14",
            "text": "\u00c7\u00fcnki burada daimi \u015f\u0259h\u0259rimiz yoxdur, amma biz g\u0259l\u0259c\u0259k \u015f\u0259h\u0259ri axtar\u0131r\u0131q."
        },
        {
            "chapter": 13,
            "verse": 15,
            "name": "Hebrews 13:15",
            "text": "Onda \u0130sa vasit\u0259sil\u0259 h\u0259mi\u015f\u0259 Allaha h\u0259md qurban\u0131n\u0131, y\u0259ni Onun ad\u0131n\u0131 iqrar ed\u0259nl\u0259rin dilinin b\u0259hr\u0259si olan s\u00f6zl\u0259ri t\u0259qdim ed\u0259k."
        },
        {
            "chapter": 13,
            "verse": 16,
            "name": "Hebrews 13:16",
            "text": "Xeyirxahl\u0131q etm\u0259yi v\u0259 var\u0131n\u0131z\u0131 ba\u015fqalar\u0131 il\u0259 b\u00f6l\u00fc\u015fm\u0259yi unutmay\u0131n, \u00e7\u00fcnki Allah bu c\u00fcr qurbanlardan raz\u0131 qal\u0131r.  "
        },
        {
            "chapter": 13,
            "verse": 17,
            "name": "Hebrews 13:17",
            "text": "\u00d6z r\u0259hb\u0259rl\u0259riniz\u0259 ita\u0259tli olun v\u0259 onlara tabe olun. Ax\u0131 onlar h\u0259r vaxt h\u0259yat\u0131n\u0131z \u00fc\u00e7\u00fcn qay\u011f\u0131 \u00e7\u0259kir, \u00e7\u00fcnki hesabat ver\u0259c\u0259kl\u0259r. Qoy onlar bunu sevincl\u0259 etsinl\u0259r, ah-zarla etm\u0259sinl\u0259r, \u00e7\u00fcnki bu siz\u0259 fayda verm\u0259z.  "
        },
        {
            "chapter": 13,
            "verse": 18,
            "name": "Hebrews 13:18",
            "text": "Bizim \u00fc\u00e7\u00fcn dua edin. Biz \u0259minik ki, vicdan\u0131m\u0131z t\u0259mizdir v\u0259 h\u0259r c\u0259h\u0259tc\u0259 yax\u015f\u0131 h\u0259yat t\u0259rzi s\u00fcrm\u0259y\u0259 can at\u0131r\u0131q."
        },
        {
            "chapter": 13,
            "verse": 19,
            "name": "Hebrews 13:19",
            "text": "Yan\u0131n\u0131za tez qay\u0131tma\u011f\u0131m \u00fc\u00e7\u00fcn dua etm\u0259nizi x\u00fcsusil\u0259 xahi\u015f edir\u0259m.  "
        },
        {
            "chapter": 13,
            "verse": 20,
            "name": "Hebrews 13:20",
            "text": "S\u00fclh qayna\u011f\u0131 olan Allah \u2013 qoyunlar\u0131n b\u00f6y\u00fck \u00c7oban\u0131 olan R\u0259bbimiz \u0130san\u0131 \u0259b\u0259di \u018fhdin qan\u0131 il\u0259 \u00f6l\u00fcl\u0259r aras\u0131ndan dirild\u0259n Allah"
        },
        {
            "chapter": 13,
            "verse": 21,
            "name": "Hebrews 13:21",
            "text": "sizi h\u0259r c\u00fcr yax\u015f\u0131 \u015feyl\u0259 t\u0259min etsin ki, \u0130sa M\u0259sih vasit\u0259sil\u0259 \u00d6z\u00fcn\u0259 xo\u015f olan\u0131 bizd\u0259 icra etsin v\u0259 siz Onun irad\u0259sini h\u0259yata ke\u00e7ir\u0259siniz. \u0130sa M\u0259sih\u0259 \u0259b\u0259di izz\u0259t olsun! Amin.  "
        },
        {
            "chapter": 13,
            "verse": 22,
            "name": "Hebrews 13:22",
            "text": "Qarda\u015flar, sizd\u0259n xahi\u015f edir\u0259m, bu \u00f6y\u00fcd-n\u0259sih\u0259t s\u00f6z\u00fcn\u00fc d\u00f6z\u00fcml\u0259 q\u0259bul edin, \u00e7\u00fcnki siz\u0259 q\u0131saca yazd\u0131m."
        },
        {
            "chapter": 13,
            "verse": 23,
            "name": "Hebrews 13:23",
            "text": "X\u0259b\u0259riniz olsun ki, qarda\u015f\u0131m\u0131z Timotey azadl\u0131\u011fa burax\u0131lm\u0131\u015fd\u0131r. \u018fg\u0259r tezlikl\u0259 yan\u0131ma g\u0259l\u0259rs\u0259, onunla birlikd\u0259 sizi g\u00f6r\u0259c\u0259y\u0259m.  "
        },
        {
            "chapter": 13,
            "verse": 24,
            "name": "Hebrews 13:24",
            "text": "B\u00fct\u00fcn r\u0259hb\u0259rl\u0259rinizi v\u0259 m\u00fcq\u0259dd\u0259sl\u0259rin ham\u0131s\u0131n\u0131 salamlay\u0131n. \u0130taliyadan olanlar siz\u0259 salam g\u00f6nd\u0259rirl\u0259r.  "
        },
        {
            "chapter": 13,
            "verse": 25,
            "name": "Hebrews 13:25",
            "text": "Ham\u0131n\u0131za l\u00fctf olsun!     "
        }
    ]
}