{
    "translation": "Vulgata Clementina",
    "abbreviation": "vulgate",
    "lang": "la",
    "language": "Latin",
    "direction": "LTR",
    "encoding": "",
    "book_nr": 11,
    "book_name": "1 Kings",
    "chapter": 20,
    "name": "1 Kings 20",
    "verses": [
        {
            "chapter": 20,
            "verse": 1,
            "name": "1 Kings 20:1",
            "text": "porro Benadad rex Syriae congregavit omnem exercitum suum et triginta et duos reges secum et equos et currus et ascendens pugnabat contra Samariam et obsidebat eam"
        },
        {
            "chapter": 20,
            "verse": 2,
            "name": "1 Kings 20:2",
            "text": "mittensque nuntios ad Ahab regem Israhel in civitatem"
        },
        {
            "chapter": 20,
            "verse": 3,
            "name": "1 Kings 20:3",
            "text": "ait haec dicit Benadad argentum tuum et aurum tuum meum est et uxores tuae et filii tui optimi mei sunt"
        },
        {
            "chapter": 20,
            "verse": 4,
            "name": "1 Kings 20:4",
            "text": "responditque rex Israhel iuxta verbum tuum domine mi rex tuus sum ego et omnia mea"
        },
        {
            "chapter": 20,
            "verse": 5,
            "name": "1 Kings 20:5",
            "text": "revertentesque nuntii dixerunt haec dicit Benadad qui misit nos ad te argentum tuum et aurum tuum et uxores tuas et filios tuos dabis mihi"
        },
        {
            "chapter": 20,
            "verse": 6,
            "name": "1 Kings 20:6",
            "text": "cras igitur hac eadem hora mittam servos meos ad te et scrutabuntur domum tuam et domum servorum tuorum et omne quod eis placuerit ponent in manibus suis et auferent"
        },
        {
            "chapter": 20,
            "verse": 7,
            "name": "1 Kings 20:7",
            "text": "vocavit autem rex Israhel omnes seniores terrae et ait animadvertite et videte quoniam insidietur nobis misit enim ad me pro uxoribus meis et filiis et pro argento et auro et non abnui"
        },
        {
            "chapter": 20,
            "verse": 8,
            "name": "1 Kings 20:8",
            "text": "dixeruntque omnes maiores natu et universus populus ad eum non audias neque adquiescas illi"
        },
        {
            "chapter": 20,
            "verse": 9,
            "name": "1 Kings 20:9",
            "text": "respondit itaque nuntiis Benadad dicite domino meo regi omnia propter quae misisti ad me servum tuum initio faciam hanc autem rem facere non possum"
        },
        {
            "chapter": 20,
            "verse": 10,
            "name": "1 Kings 20:10",
            "text": "reversique nuntii rettulerunt ei qui remisit et ait haec faciant mihi dii et haec addant si suffecerit pulvis Samariae pugillis omnis populi qui sequitur me"
        },
        {
            "chapter": 20,
            "verse": 11,
            "name": "1 Kings 20:11",
            "text": "et respondens rex Israhel ait dicite ei ne glorietur accinctus aeque ut discinctus"
        },
        {
            "chapter": 20,
            "verse": 12,
            "name": "1 Kings 20:12",
            "text": "factum est autem cum audisset verbum istud bibebat ipse et reges in umbraculis et ait servis suis circumdate civitatem et circumdederunt eam"
        },
        {
            "chapter": 20,
            "verse": 13,
            "name": "1 Kings 20:13",
            "text": "et ecce propheta unus accedens ad Ahab regem Israhel ait haec dicit Dominus certe vidisti omnem multitudinem hanc nimiam ecce ego tradam eam in manu tua hodie ut scias quia ego sum Dominus"
        },
        {
            "chapter": 20,
            "verse": 14,
            "name": "1 Kings 20:14",
            "text": "et ait Ahab per quem dixitque ei haec dicit Dominus per pedisequos principum provinciarum et ait quis incipiet proeliari et ille dixit tu"
        },
        {
            "chapter": 20,
            "verse": 15,
            "name": "1 Kings 20:15",
            "text": "recensuit ergo pueros principum provinciarum et repperit numerum ducentorum triginta duum et post eos recensuit populum omnes filios Israhel septem milia"
        },
        {
            "chapter": 20,
            "verse": 16,
            "name": "1 Kings 20:16",
            "text": "et egressi sunt meridie Benadad autem bibebat temulentus in umbraculo suo et reges triginta duo cum eo qui ad auxilium eius venerant"
        },
        {
            "chapter": 20,
            "verse": 17,
            "name": "1 Kings 20:17",
            "text": "egressi sunt autem pueri principum provinciarum in prima fronte misit itaque Benadad qui nuntiaverunt ei dicentes viri egressi sunt de Samaria"
        },
        {
            "chapter": 20,
            "verse": 18,
            "name": "1 Kings 20:18",
            "text": "at ille sive ait pro pace veniunt adprehendite eos vivos sive ut proelientur vivos eos capite"
        },
        {
            "chapter": 20,
            "verse": 19,
            "name": "1 Kings 20:19",
            "text": "egressi sunt ergo pueri principum provinciarum ac reliquus exercitus sequebatur"
        },
        {
            "chapter": 20,
            "verse": 20,
            "name": "1 Kings 20:20",
            "text": "et percussit unusquisque virum qui contra se venerat fugeruntque Syri et persecutus est eos Israhel fugit quoque Benadad rex Syriae in equo cum equitibus"
        },
        {
            "chapter": 20,
            "verse": 21,
            "name": "1 Kings 20:21",
            "text": "necnon et egressus rex Israhel percussit equos et currus et percussit Syriam plaga magna"
        },
        {
            "chapter": 20,
            "verse": 22,
            "name": "1 Kings 20:22",
            "text": "accedens autem propheta ad regem Israhel dixit ei vade et confortare et scito et vide quid facias sequenti enim anno rex Syriae ascendet contra te"
        },
        {
            "chapter": 20,
            "verse": 23,
            "name": "1 Kings 20:23",
            "text": "servi vero regis Syriae dixerunt ei dii montium sunt dii eorum ideo superaverunt nos sed melius est ut pugnemus contra eos in campestribus et obtinebimus eos"
        },
        {
            "chapter": 20,
            "verse": 24,
            "name": "1 Kings 20:24",
            "text": "tu ergo verbum hoc fac amove reges singulos ab exercitu suo et pone principes pro eis"
        },
        {
            "chapter": 20,
            "verse": 25,
            "name": "1 Kings 20:25",
            "text": "et instaura numerum militum qui ceciderunt de tuis et equos secundum equos pristinos et currus secundum currus quos ante habuisti et pugnabimus contra eos in campestribus et videbis quod obtinebimus eos credidit consilio eorum et fecit ita"
        },
        {
            "chapter": 20,
            "verse": 26,
            "name": "1 Kings 20:26",
            "text": "igitur postquam annus transierat recensuit Benadad Syros et ascendit in Afec ut pugnaret contra Israhel"
        },
        {
            "chapter": 20,
            "verse": 27,
            "name": "1 Kings 20:27",
            "text": "porro filii Israhel recensiti sunt et acceptis cibariis profecti ex adverso castraque metati contra eos quasi duo parvi greges caprarum Syri autem repleverunt terram"
        },
        {
            "chapter": 20,
            "verse": 28,
            "name": "1 Kings 20:28",
            "text": "et accedens unus vir Dei dixit ad regem Israhel haec dicit Dominus quia dixerunt Syri deus montium est Dominus et non est deus vallium dabo omnem multitudinem grandem hanc in manu tua et scietis quia ego Dominus"
        },
        {
            "chapter": 20,
            "verse": 29,
            "name": "1 Kings 20:29",
            "text": "dirigebant septem diebus ex adverso hii atque illi acies septima autem die commissum est bellum percusseruntque filii Israhel de Syris centum milia peditum in die una"
        },
        {
            "chapter": 20,
            "verse": 30,
            "name": "1 Kings 20:30",
            "text": "fugerunt autem qui remanserant in Afec in civitatem et cecidit murus super viginti septem milia hominum qui remanserant porro Benadad fugiens ingressus est civitatem in cubiculum quod erat intra cubiculum"
        },
        {
            "chapter": 20,
            "verse": 31,
            "name": "1 Kings 20:31",
            "text": "dixeruntque ei servi sui ecce audivimus quod reges domus Israhel clementes sint ponamus itaque saccos in lumbis nostris et funiculos in capitibus nostris et egrediamur ad regem Israhel forsitan salvabit animas nostras"
        },
        {
            "chapter": 20,
            "verse": 32,
            "name": "1 Kings 20:32",
            "text": "accinxerunt saccis lumbos suos et posuerunt funes in capitibus veneruntque ad regem Israhel et dixerunt servus tuus Benadad dicit vivat oro te anima mea et ille ait si adhuc vivit frater meus est"
        },
        {
            "chapter": 20,
            "verse": 33,
            "name": "1 Kings 20:33",
            "text": "quod acceperunt viri pro omine et festinantes rapuerunt verbum ex ore eius atque dixerunt frater tuus Benadad et dixit eis ite et adducite eum egressus est ergo ad eum Benadad et levavit eum in currum suum"
        },
        {
            "chapter": 20,
            "verse": 34,
            "name": "1 Kings 20:34",
            "text": "qui dixit ei civitates quas tulit pater meus a patre tuo reddam et plateas fac tibi in Damasco sicut fecit pater meus in Samaria et ego foederatus recedam a te pepigit ergo foedus et dimisit eum"
        },
        {
            "chapter": 20,
            "verse": 35,
            "name": "1 Kings 20:35",
            "text": "tunc vir quidam de filiis prophetarum dixit ad socium suum in sermone Domini percute me at ille noluit percutere"
        },
        {
            "chapter": 20,
            "verse": 36,
            "name": "1 Kings 20:36",
            "text": "cui ait quia noluisti audire vocem Domini ecce recedes a me et percutiet te leo cumque paululum recessisset ab eo invenit eum leo atque percussit"
        },
        {
            "chapter": 20,
            "verse": 37,
            "name": "1 Kings 20:37",
            "text": "sed et alterum conveniens virum dixit ad eum percute me qui percussit eum et vulneravit"
        },
        {
            "chapter": 20,
            "verse": 38,
            "name": "1 Kings 20:38",
            "text": "abiit ergo propheta et occurrit regi in via et mutavit aspersione pulveris os et oculos suos"
        },
        {
            "chapter": 20,
            "verse": 39,
            "name": "1 Kings 20:39",
            "text": "cumque rex transiret clamavit ad regem et ait servus tuus egressus est ad proeliandum comminus cumque fugisset vir unus adduxit eum quidam ad me et ait custodi virum istum qui si lapsus fuerit erit anima tua pro anima eius aut talentum argenti adpendes"
        },
        {
            "chapter": 20,
            "verse": 40,
            "name": "1 Kings 20:40",
            "text": "dum autem ego turbatus huc illucque me verterem subito non conparuit et ait rex Israhel ad eum hoc est iudicium tuum quod ipse decrevisti"
        },
        {
            "chapter": 20,
            "verse": 41,
            "name": "1 Kings 20:41",
            "text": "at ille statim abstersit pulverem de facie sua et cognovit eum rex Israhel quod esset de prophetis"
        },
        {
            "chapter": 20,
            "verse": 42,
            "name": "1 Kings 20:42",
            "text": "qui ait ad eum haec dicit Dominus quia dimisisti virum dignum morte de manu tua erit anima tua pro anima eius et populus tuus pro populo eius"
        },
        {
            "chapter": 20,
            "verse": 43,
            "name": "1 Kings 20:43",
            "text": "reversus est igitur rex Israhel in domum suam audire contemnens et furibundus venit Samariam"
        }
    ]
}