{
    "translation": "French Bible Bovet Bonnet (1900)",
    "abbreviation": "frebbb",
    "lang": "fr",
    "language": "French",
    "direction": "LTR",
    "encoding": "UTF-8",
    "book_nr": 19,
    "book_name": "Psalms",
    "chapter": 112,
    "name": "Psalms 112",
    "verses": [
        {
            "chapter": 112,
            "verse": 1,
            "name": "Psalms 112:1",
            "text": "Louez l'Eternel\u00a0!Aleph. Heureux l'homme qui craint l'Eternel,Beth. Qui trouve un grand plaisir \u00e0 ses commandements\u00a0!"
        },
        {
            "chapter": 112,
            "verse": 2,
            "name": "Psalms 112:2",
            "text": "Guimel. Sa race sera puissante sur la terre,Daleth. La g\u00e9n\u00e9ration des hommes droits sera b\u00e9nie."
        },
        {
            "chapter": 112,
            "verse": 3,
            "name": "Psalms 112:3",
            "text": "H\u00e9. Bien-\u00eatre et richesse sont dans sa maison,Vav. Et sa justice demeure \u00e0 toujours."
        },
        {
            "chapter": 112,
            "verse": 4,
            "name": "Psalms 112:4",
            "text": "Za\u00efn. La lumi\u00e8re se l\u00e8ve dans les t\u00e9n\u00e8bres Pour ceux qui sont droits.Heth. [Il est] mis\u00e9ricordieux, compatissant et juste."
        },
        {
            "chapter": 112,
            "verse": 5,
            "name": "Psalms 112:5",
            "text": "Teth. Heureux l'homme qui a compassion et qui pr\u00eate\u00a0!Iod. Il gagnera sa cause en jugement,"
        },
        {
            "chapter": 112,
            "verse": 6,
            "name": "Psalms 112:6",
            "text": "Kaph. Car il ne sera jamais \u00e9branl\u00e9.Lamed. La m\u00e9moire du juste demeure \u00e0 toujours."
        },
        {
            "chapter": 112,
            "verse": 7,
            "name": "Psalms 112:7",
            "text": "Mem. Il n'aura frayeur d'aucun mauvais bruit\u00a0;Nun. Ferme, son c\u0153ur se confie en l'Eternel."
        },
        {
            "chapter": 112,
            "verse": 8,
            "name": "Psalms 112:8",
            "text": "Samech. Son c\u0153ur, bien assur\u00e9, n'a point de crainte,A\u00efn. Jusqu'\u00e0 ce qu'il voie en ses ennemis [ce qu'il attend]."
        },
        {
            "chapter": 112,
            "verse": 9,
            "name": "Psalms 112:9",
            "text": "P\u00e9. Il a r\u00e9pandu, il a donn\u00e9 aux pauvres\u00a0;Tsad\u00e9. Sa justice demeure \u00e0 toujours,Koph. Sa corne s'\u00e9l\u00e8vera en gloire."
        },
        {
            "chapter": 112,
            "verse": 10,
            "name": "Psalms 112:10",
            "text": "Resch. Le m\u00e9chant le verra et en aura du d\u00e9pit :Schin. Il grince des dents et se consume\u00a0;Thav. Le d\u00e9sir des m\u00e9chants p\u00e9rira. "
        }
    ]
}