{
    "translation": "English Standard Version",
    "abbreviation": "esv2001",
    "lang": "en",
    "language": "English",
    "direction": "LTR",
    "encoding": "UTF-8",
    "book_nr": 14,
    "book_name": "2 Chronicles",
    "chapter": 11,
    "name": "2 Chronicles 11",
    "verses": [
        {
            "chapter": 11,
            "verse": 1,
            "name": "2 Chronicles 11:1",
            "text": "When Rehoboam came to Jerusalem, he assembled the house of Judah and Benjamin, 180,000 chosen warriors, to fight against Israel, to restore the kingdom to Rehoboam."
        },
        {
            "chapter": 11,
            "verse": 2,
            "name": "2 Chronicles 11:2",
            "text": "But the word of the Lord came to Shemaiah the man of God:"
        },
        {
            "chapter": 11,
            "verse": 3,
            "name": "2 Chronicles 11:3",
            "text": "Say to Rehoboam the son of Solomon, king of Judah, and to all Israel in Judah and Benjamin,"
        },
        {
            "chapter": 11,
            "verse": 4,
            "name": "2 Chronicles 11:4",
            "text": "Thus says the Lord, You shall not go up or fight against your relatives. Return every man to his home, for this thing is from me. So they listened to the word of the Lord and returned and did not go against Jeroboam.  "
        },
        {
            "chapter": 11,
            "verse": 5,
            "name": "2 Chronicles 11:5",
            "text": "Rehoboam lived in Jerusalem, and he built cities for defense in Judah."
        },
        {
            "chapter": 11,
            "verse": 6,
            "name": "2 Chronicles 11:6",
            "text": "He built Bethlehem, Etam, Tekoa,"
        },
        {
            "chapter": 11,
            "verse": 7,
            "name": "2 Chronicles 11:7",
            "text": "Beth-zur, Soco, Adullam,"
        },
        {
            "chapter": 11,
            "verse": 8,
            "name": "2 Chronicles 11:8",
            "text": "Gath, Mareshah, Ziph,"
        },
        {
            "chapter": 11,
            "verse": 9,
            "name": "2 Chronicles 11:9",
            "text": "Adoraim, Lachish, Azekah,"
        },
        {
            "chapter": 11,
            "verse": 10,
            "name": "2 Chronicles 11:10",
            "text": "Zorah, Aijalon, and Hebron, fortified cities that are in Judah and in Benjamin."
        },
        {
            "chapter": 11,
            "verse": 11,
            "name": "2 Chronicles 11:11",
            "text": "He made the fortresses strong, and put commanders in them, and stores of food, oil, and wine."
        },
        {
            "chapter": 11,
            "verse": 12,
            "name": "2 Chronicles 11:12",
            "text": "And he put shields and spears in all the cities and made them very strong. So he held Judah and Benjamin.  "
        },
        {
            "chapter": 11,
            "verse": 13,
            "name": "2 Chronicles 11:13",
            "text": "And the priests and the Levites who were in all Israel presented themselves to him from all places where they lived."
        },
        {
            "chapter": 11,
            "verse": 14,
            "name": "2 Chronicles 11:14",
            "text": "For the Levites left their common lands and their holdings and came to Judah and Jerusalem, because Jeroboam and his sons cast them out from serving as priests of the Lord,"
        },
        {
            "chapter": 11,
            "verse": 15,
            "name": "2 Chronicles 11:15",
            "text": "and he appointed his own priests for the high places and for the goat idols and for the calves that he had made."
        },
        {
            "chapter": 11,
            "verse": 16,
            "name": "2 Chronicles 11:16",
            "text": "And those who had set their hearts to seek the Lord God of Israel came after them from all the tribes of Israel to Jerusalem to sacrifice to the Lord, the God of their fathers."
        },
        {
            "chapter": 11,
            "verse": 17,
            "name": "2 Chronicles 11:17",
            "text": "They strengthened the kingdom of Judah, and for three years they made Rehoboam the son of Solomon secure, for they walked for three years in the way of David and Solomon.  "
        },
        {
            "chapter": 11,
            "verse": 18,
            "name": "2 Chronicles 11:18",
            "text": "Rehoboam took as wife Mahalath the daughter of Jerimoth the son of David, and of Abihail the daughter of Eliab the son of Jesse,"
        },
        {
            "chapter": 11,
            "verse": 19,
            "name": "2 Chronicles 11:19",
            "text": "and she bore him sons, Jeush, Shemariah, and Zaham."
        },
        {
            "chapter": 11,
            "verse": 20,
            "name": "2 Chronicles 11:20",
            "text": "After her he took Maacah the daughter of Absalom, who bore him Abijah, Attai, Ziza, and Shelomith."
        },
        {
            "chapter": 11,
            "verse": 21,
            "name": "2 Chronicles 11:21",
            "text": "Rehoboam loved Maacah the daughter of Absalom above all his wives and concubines (he took eighteen wives and sixty concubines, and fathered twenty-eight sons and sixty daughters)."
        },
        {
            "chapter": 11,
            "verse": 22,
            "name": "2 Chronicles 11:22",
            "text": "And Rehoboam appointed Abijah the son of Maacah as chief prince among his brothers, for he intended to make him king."
        },
        {
            "chapter": 11,
            "verse": 23,
            "name": "2 Chronicles 11:23",
            "text": "And he dealt wisely and distributed some of his sons through all the districts of Judah and Benjamin, in all the fortified cities, and he gave them abundant provisions and procured wives for them. "
        }
    ]
}