{
    "translation": "Giovanni Diodati Bible (1649)",
    "abbreviation": "giovanni",
    "lang": "it",
    "language": "Italian",
    "direction": "LTR",
    "encoding": "",
    "book_nr": 26,
    "book_name": "Ezekiel",
    "chapter": 3,
    "name": "Ezekiel 3",
    "verses": [
        {
            "chapter": 3,
            "verse": 1,
            "name": "Ezekiel 3:1",
            "text": "Poi colui mi disse: Figliuol d\u2019uomo, mangia ci\u00f2 che tu troverai; mangia questo rotolo; poi va\u2019, e parla alla casa d\u2019Israele.\r"
        },
        {
            "chapter": 3,
            "verse": 2,
            "name": "Ezekiel 3:2",
            "text": "Ed io apersi la mia bocca, ed egli mi fece mangiar quel rotolo.\r"
        },
        {
            "chapter": 3,
            "verse": 3,
            "name": "Ezekiel 3:3",
            "text": "E mi disse: Figliuol d\u2019uomo, pasci il tuo ventre, ed empi le tue interiora di questo rotolo che io ti do. Ed io lo mangiai, ed esso mi fu dolce in bocca, come miele.\r"
        },
        {
            "chapter": 3,
            "verse": 4,
            "name": "Ezekiel 3:4",
            "text": "Poi egli mi disse: Figliuol d\u2019uomo, vattene alla casa d\u2019Israele, e parla loro con le mie parole.\r"
        },
        {
            "chapter": 3,
            "verse": 5,
            "name": "Ezekiel 3:5",
            "text": "Conciossiach\u00e8 tu non sii mandato ad un popolo di favella sconosciuta, n\u00e8 di lingua non intelligibile; anzi alla casa d\u2019Israele.\r"
        },
        {
            "chapter": 3,
            "verse": 6,
            "name": "Ezekiel 3:6",
            "text": "Non a molti popoli di favella sconosciuta, n\u00e8 di lingua non intelligibile, le cui parole tu non intenda. Se io ti avessi mandato a tali popoli, non ti ascolterebbero essi?\r"
        },
        {
            "chapter": 3,
            "verse": 7,
            "name": "Ezekiel 3:7",
            "text": "Ma la casa d\u2019Israele non vorr\u00e0 ascoltarti; perciocch\u00e8 non pur me voglion ascoltare; perch\u00e8 tutta la casa d\u2019Israele \u00e8 di dura fronte, e di cuore ostinato.\r"
        },
        {
            "chapter": 3,
            "verse": 8,
            "name": "Ezekiel 3:8",
            "text": "Ecco, io induro la tua faccia contro alla lor faccia, e la tua fronte contro alla lor fronte.\r"
        },
        {
            "chapter": 3,
            "verse": 9,
            "name": "Ezekiel 3:9",
            "text": "Io rendo la tua fronte simile ad un diamante, pi\u00f9 dura che una selce; non temerli, e non avere spavento di loro; perciocch\u00e8 sono una casa ribelle.\r"
        },
        {
            "chapter": 3,
            "verse": 10,
            "name": "Ezekiel 3:10",
            "text": "Poi mi disse. Figliuol d\u2019uomo, ricevi nel cuor tuo tutte le mie parole, che io ti dir\u00f2, e ascoltale con le tue orecchie.\r"
        },
        {
            "chapter": 3,
            "verse": 11,
            "name": "Ezekiel 3:11",
            "text": "E vattene a\u2019 figliuoli del tuo popolo, che sono in cattivit\u00e0, e parla loro, e di\u2019 loro: Cos\u00ec ha detto il Signore Iddio; che che sia, o che ascoltino, o che se ne rimangano.\r"
        },
        {
            "chapter": 3,
            "verse": 12,
            "name": "Ezekiel 3:12",
            "text": "E lo Spirito mi lev\u00f2 ad alto, ed io udii dietro a me una voce, con un grande scrollamento, che diceva: Benedetta sia la gloria del Signore dal suo luogo.\r"
        },
        {
            "chapter": 3,
            "verse": 13,
            "name": "Ezekiel 3:13",
            "text": "Io udii eziandio il suono dell\u2019ali degli animali, che battevano l\u2019una all\u2019altra; e il suono delle ruote allato a quelle, e il romor di un grande scrollamento.\r"
        },
        {
            "chapter": 3,
            "verse": 14,
            "name": "Ezekiel 3:14",
            "text": "Lo Spirito adunque mi lev\u00f2, e mi prese; ed io andai, essendo tutto in amaritudine, per lo sdegno del mio spirito; e la mano del Signore fu forte sopra me.\r"
        },
        {
            "chapter": 3,
            "verse": 15,
            "name": "Ezekiel 3:15",
            "text": "E venni a quelli ch\u2019erano in cattivit\u00e0 in Tel-abib, che dimoravano presso al fiume Chebar; e mi posi a sedere dove essi sedevano; e dimorai quivi sette giorni, nel mezzo di loro, tutto attonito, e desolato.\r"
        },
        {
            "chapter": 3,
            "verse": 16,
            "name": "Ezekiel 3:16",
            "text": "ED in capo di sette giorni, la parola del Signore mi fu indirizzata, dicendo:\r"
        },
        {
            "chapter": 3,
            "verse": 17,
            "name": "Ezekiel 3:17",
            "text": "Figliuol d\u2019uomo, io ti ho costituito guardia alla casa d\u2019Israele; ascolta dunque la mia parola, che esce della mia bocca, ed ammoniscili da parte mia.\r"
        },
        {
            "chapter": 3,
            "verse": 18,
            "name": "Ezekiel 3:18",
            "text": "Quando io avr\u00f2 detto all\u2019empio: Per certo tu morrai; se tu non l\u2019ammonisci, e non gli parli, per avvertirlo che si ritragga dalla sua via malvagia, per far ch\u2019egli viva; esso empio morr\u00e0 per la sua iniquit\u00e0; ma io ridomander\u00f2 il suo sangue dalla tua mano.\r"
        },
        {
            "chapter": 3,
            "verse": 19,
            "name": "Ezekiel 3:19",
            "text": "Ma quando tu avrai ammonito l\u2019empio, s\u2019egli non si converte dalla sua empiet\u00e0, e dalla via sua malvagia, egli morr\u00e0 per la sua iniquit\u00e0, ma tu avrai scampata l\u2019anima tua.\r"
        },
        {
            "chapter": 3,
            "verse": 20,
            "name": "Ezekiel 3:20",
            "text": "Parimente, se avviene che il giusto si storni dalla sua giustizia, e commetta iniquit\u00e0; e che io gli ponga innanzi alcun intoppo; e ch\u2019egli muoia, egli morr\u00e0 nel suo peccato; perciocch\u00e8 tu non l\u2019avrai ammonito; e le sue opere giuste, ch\u2019egli avr\u00e0 fatte, non saran pi\u00f9 ricordate; ma io ridomander\u00f2 il suo sangue dalla tua mano.\r"
        },
        {
            "chapter": 3,
            "verse": 21,
            "name": "Ezekiel 3:21",
            "text": "Ma quando tu avrai ammonito il giusto, ch\u2019egli non pecchi, se egli non pecca, per certo egli viver\u00e0; perciocch\u00e8 sar\u00e0 stato ammonito; e tu avrai scampata l\u2019anima tua.\r"
        },
        {
            "chapter": 3,
            "verse": 22,
            "name": "Ezekiel 3:22",
            "text": "Poi la mano del Signore fu quivi sopra me; ed egli mi disse: Levati, esci alla campagna, e quivi io parler\u00f2 teco.\r"
        },
        {
            "chapter": 3,
            "verse": 23,
            "name": "Ezekiel 3:23",
            "text": "Ed io mi levai, ed uscii alla campagna; ed ecco, quivi era ferma la gloria del Signore, simile alla gloria che io avea veduta in sul fiume Chebar; ed io caddi sopra la mia faccia.\r"
        },
        {
            "chapter": 3,
            "verse": 24,
            "name": "Ezekiel 3:24",
            "text": "E lo Spirito entr\u00f2 in me, e mi rizz\u00f2 in pi\u00e8, e parl\u00f2 meco, e mi disse: Entra in casa tua, e rinchiuditi dentro.\r"
        },
        {
            "chapter": 3,
            "verse": 25,
            "name": "Ezekiel 3:25",
            "text": "E quant\u2019\u00e8 a te, figliuol d\u2019uomo, ecco, ti son messe delle funi addosso, e tu sarai legato con esse, e non uscirai fra loro.\r"
        },
        {
            "chapter": 3,
            "verse": 26,
            "name": "Ezekiel 3:26",
            "text": "Ed io far\u00f2 che la tua lingua star\u00e0 attaccata al tuo palato, e sarai mutolo, e non sarai loro uomo riprenditore; perciocch\u00e8 sono una casa ribelle.\r"
        },
        {
            "chapter": 3,
            "verse": 27,
            "name": "Ezekiel 3:27",
            "text": "Ma quando io ti parler\u00f2, ti aprir\u00f2 la bocca; e tu dirai loro: Cos\u00ec ha detto il Signore Iddio; chi ascolta ascolti; chi se ne rimane se ne rimanga; perciocch\u00e8 sono una casa ribelle.\r"
        }
    ]
}