{
    "translation": "Restored Name King James Version",
    "abbreviation": "rnkjv",
    "lang": "en",
    "language": "English",
    "direction": "LTR",
    "encoding": "UTF-8",
    "book_nr": 66,
    "book_name": "Revelation of John",
    "chapter": 15,
    "name": "Revelation of John 15",
    "verses": [
        {
            "chapter": 15,
            "verse": 1,
            "name": "Revelation of John 15:1",
            "text": "And I saw another sign in heaven, great and marvellous, seven angels having the seven last plagues; for in them is filled up the wrath of \u05d9\u05d4\u05d5\u05d4. "
        },
        {
            "chapter": 15,
            "verse": 2,
            "name": "Revelation of John 15:2",
            "text": "And I saw as it were a sea of glass mingled with fire: and them that had gotten the victory over the beast, and over his image, and over his mark, and over the number of his name, stand on the sea of glass, having the harps of Elohim. "
        },
        {
            "chapter": 15,
            "verse": 3,
            "name": "Revelation of John 15:3",
            "text": "And they sing the song of Moses the servant of \u05d9\u05d4\u05d5\u05d4, and the song of the Lamb, saying, Great and marvellous are thy works, \u05d9\u05d4\u05d5\u05d4 El Shaddai; just and true are thy ways, thou King of saints. "
        },
        {
            "chapter": 15,
            "verse": 4,
            "name": "Revelation of John 15:4",
            "text": "Who shall not fear thee, O Master, and glorify thy name? for thou only art holy: for all nations shall come and worship before thee; for thy judgments are made manifest. "
        },
        {
            "chapter": 15,
            "verse": 5,
            "name": "Revelation of John 15:5",
            "text": "And after that I looked, and, behold, the temple of the tabernacle of the testimony in heaven was opened: "
        },
        {
            "chapter": 15,
            "verse": 6,
            "name": "Revelation of John 15:6",
            "text": "And the seven angels came out of the temple, having the seven plagues, clothed in pure and white linen, and having their breasts girded with golden girdles. "
        },
        {
            "chapter": 15,
            "verse": 7,
            "name": "Revelation of John 15:7",
            "text": "And one of the four beasts gave unto the seven angels seven golden vials full of the wrath of \u05d9\u05d4\u05d5\u05d4, who liveth for ever and ever. "
        },
        {
            "chapter": 15,
            "verse": 8,
            "name": "Revelation of John 15:8",
            "text": "And the temple was filled with smoke from the glory of \u05d9\u05d4\u05d5\u05d4, and from his power; and no man was able to enter into the temple, till the seven plagues of the seven angels were fulfilled.  "
        }
    ]
}