{
    "translation": "Czech \u010cesk\u00fd studijn\u00ed p\u0159eklad",
    "abbreviation": "czecsp",
    "lang": "cs",
    "language": "Czech",
    "direction": "LTR",
    "encoding": "UTF-8",
    "book_nr": 23,
    "book_name": "Isaiah",
    "chapter": 49,
    "name": "Isaiah 49",
    "verses": [
        {
            "chapter": 49,
            "verse": 1,
            "name": "Isaiah 49:1",
            "text": "Poslechn\u011bte mne, ostrovy, d\u00e1vejte pozor, dalek\u00e9 n\u00e1rody! Hospodin mne povolal \u2308ji\u017e v\u00a0l\u016fn\u011b,\u2309 od nitra m\u00e9 matky p\u0159ipom\u00ednal m\u00e9 jm\u00e9no."
        },
        {
            "chapter": 49,
            "verse": 2,
            "name": "Isaiah 49:2",
            "text": "U\u010dinil m\u00e1 \u00fasta jako ostr\u00fd me\u010d, ukryl mne ve st\u00ednu sv\u00e9 ruky, u\u010dinil mne zaost\u0159en\u00fdm \u0161\u00edpem, skryl mne ve sv\u00e9m toulci"
        },
        {
            "chapter": 49,
            "verse": 3,
            "name": "Isaiah 49:3",
            "text": "a\u00a0\u0159ekl mi: Ty jsi m\u016fj otrok, Izraeli, na n\u011bm\u017e zjev\u00edm svou sl\u00e1vu."
        },
        {
            "chapter": 49,
            "verse": 4,
            "name": "Isaiah 49:4",
            "text": "J\u00e1 jsem v\u0161ak \u0159ekl: Zbyte\u010dn\u011b jsem se nam\u00e1hal, pro marnost a\u00a0nicotnost jsem vypl\u00fdtval svou s\u00edlu, av\u0161ak m\u00e9 pr\u00e1vo je u\u00a0Hospodina a\u00a0m\u00e1 odm\u011bna u\u00a0m\u00e9ho Boha. "
        },
        {
            "chapter": 49,
            "verse": 5,
            "name": "Isaiah 49:5",
            "text": "A nyn\u00ed \u0159ekl Hospodin, kter\u00fd m\u011b od l\u016fna matky utv\u00e1\u0159\u00ed za sv\u00e9ho otroka, abych k\u00a0n\u011bmu navr\u00e1til J\u00e1koba \u2308a\u00a0aby pro n\u011bj byl shrom\u00e1\u017ed\u011bn\u2309 Izrael. Stal jsem se v\u00e1\u017een\u00fdm v\u00a0Hospodinov\u00fdch o\u010d\u00edch, m\u016fj B\u016fh se stal mou silou,"
        },
        {
            "chapter": 49,
            "verse": 6,
            "name": "Isaiah 49:6",
            "text": "a\u00a0\u0159ekl: Nesta\u010d\u00ed, abys byl m\u00fdm otrokem k\u00a0pozdvi\u017een\u00ed kmen\u016f J\u00e1kobov\u00fdch a\u00a0k\u00a0navr\u00e1cen\u00ed zachovan\u00fdch z\u00a0Izraele, n\u00fdbr\u017e d\u00e1m t\u011b za sv\u011btlo n\u00e1rod\u016fm, abys byl mou z\u00e1chranou a\u017e na konec zem\u011b. "
        },
        {
            "chapter": 49,
            "verse": 7,
            "name": "Isaiah 49:7",
            "text": "Toto prav\u00ed Hospodin, vykupitel Izraele, jeho Svat\u00fd, tomu opovr\u017een\u00e9mu, tomu, kter\u00e9ho si n\u00e1rod o\u0161kliv\u00ed, otroku vl\u00e1dc\u016f: Kr\u00e1lov\u00e9 t\u011b uvid\u00ed a\u00a0povstanou, i\u00a0kn\u00ed\u017eata, a\u00a0budou se klan\u011bt kv\u016fli Hospodinu, kter\u00fd je v\u011brn\u00fd, Svat\u00e9mu Izraele, kter\u00fd t\u011b vyvolil."
        },
        {
            "chapter": 49,
            "verse": 8,
            "name": "Isaiah 49:8",
            "text": "Toto prav\u00ed Hospodin: Odpov\u00edm ti v\u00a0\u010dase p\u0159\u00edzn\u011b a\u00a0pom\u016f\u017eu ti ve dni z\u00e1chrany, budu t\u011b opatrovat a\u00a0d\u00e1m t\u011b za smlouvu lidu, abys pozdvihl zemi a\u00a0znovu p\u0159id\u011blil opu\u0161t\u011bn\u00e1 d\u011bdictv\u00ed,"
        },
        {
            "chapter": 49,
            "verse": 9,
            "name": "Isaiah 49:9",
            "text": "abys \u0159ekl v\u011bz\u0148\u016fm: Vyjd\u011bte, a\u00a0t\u011bm, kte\u0159\u00ed jsou v\u00a0temnot\u011b: Uka\u017ete se. Budou se p\u00e1st pod\u00e9l cest a\u00a0na v\u0161ech hol\u00fdch n\u00e1vr\u0161\u00edch bude jejich pastva."
        },
        {
            "chapter": 49,
            "verse": 10,
            "name": "Isaiah 49:10",
            "text": "Nebudou hladov\u011bt ani \u017e\u00edznit, nebude je ub\u00edjet \u017ehav\u00fd v\u00edtr ani slunce, proto\u017ee je povede ten, kdo s\u00a0nimi m\u00e1 soucit, a\u00a0pomalu je povede ke z\u0159\u00eddl\u016fm vod."
        },
        {
            "chapter": 49,
            "verse": 11,
            "name": "Isaiah 49:11",
            "text": "V\u0161echny sv\u00e9 hory prom\u011bn\u00edm v\u00a0cestu a\u00a0m\u00e9 silnice budou vyv\u00fd\u0161eny."
        },
        {
            "chapter": 49,
            "verse": 12,
            "name": "Isaiah 49:12",
            "text": "Hle, tito p\u0159ijdou zdaleka, hle, tito od severu a\u00a0od z\u00e1padu, a\u00a0tito ze zem\u011b Sin\u00edm."
        },
        {
            "chapter": 49,
            "verse": 13,
            "name": "Isaiah 49:13",
            "text": "\u2308V\u00fdskejte, nebesa,\u2309 j\u00e1sej, zem\u011b, hory, propukn\u011bte v\u00a0radostn\u00fd k\u0159ik, proto\u017ee Hospodin pot\u011b\u0161il sv\u016fj lid a\u00a0nad sv\u00fdmi zkrou\u0161en\u00fdmi se slituje. "
        },
        {
            "chapter": 49,
            "verse": 14,
            "name": "Isaiah 49:14",
            "text": "Ale Sij\u00f3n \u0159\u00edkal: Hospodin m\u011b opustil, Panovn\u00edk na mne zapomn\u011bl."
        },
        {
            "chapter": 49,
            "verse": 15,
            "name": "Isaiah 49:15",
            "text": "Co\u017epak m\u016f\u017ee \u017eena zapomenout na sv\u00e9 miminko a\u00a0nesmilovat se nad synem sv\u00e9ho l\u016fna? I\u00a0kdy\u017e ony mohou zapomenout, j\u00e1 v\u0161ak na tebe nezapomenu."
        },
        {
            "chapter": 49,
            "verse": 16,
            "name": "Isaiah 49:16",
            "text": "Hle, vyryl jsem si t\u011b do dlan\u00ed: tv\u00e9 hradby jsou ustavi\u010dn\u011b p\u0159ede mnou."
        },
        {
            "chapter": 49,
            "verse": 17,
            "name": "Isaiah 49:17",
            "text": "Tvoji synov\u00e9 u\u017e posp\u00edchaj\u00ed zp\u011bt, ti, kdo t\u011b bo\u0159ili a\u00a0pusto\u0161ili, od tebe odejdou."
        },
        {
            "chapter": 49,
            "verse": 18,
            "name": "Isaiah 49:18",
            "text": "\u2308Rozhl\u00e9dni se kolem a\u00a0viz: Ti v\u0161ichni se shrom\u00e1\u017edili a\u00a0p\u0159i\u0161li k\u00a0tob\u011b.\u2309 \u2308Jako\u017ee jsem \u017eiv,\u2309 je Hospodin\u016fv v\u00fdrok, v\u0161echny si je obl\u00e9kne\u0161 jako ozdobu a\u00a0p\u0159iv\u00e1\u017ee\u0161 si je jako nev\u011bsta."
        },
        {
            "chapter": 49,
            "verse": 19,
            "name": "Isaiah 49:19",
            "text": "Nebo\u0165 tv\u00e9 trosky, zpusto\u0161en\u00e1 m\u00edsta a\u00a0tv\u00e1 pobo\u0159en\u00e1 zem\u011b te\u010f budou t\u011bsn\u00e9 pro mno\u017estv\u00ed obyvatel. A\u00a0ti, kte\u0159\u00ed t\u011b po\u017e\u00edrali, se vzd\u00e1l\u00ed."
        },
        {
            "chapter": 49,
            "verse": 20,
            "name": "Isaiah 49:20",
            "text": "Synov\u00e9 tv\u00e9 bezd\u011btnosti ti je\u0161t\u011b budou \u0159\u00edkat: To m\u00edsto je mi t\u011bsn\u00e9, p\u0159idej mi, abych se us\u00eddlil."
        },
        {
            "chapter": 49,
            "verse": 21,
            "name": "Isaiah 49:21",
            "text": "V\u00a0srdci si \u0159ekne\u0161: Kdo mi tyto d\u011bti porodil? V\u017edy\u0165 jsem byla bezd\u011btn\u00e1 a\u00a0neplodn\u00e1, vyst\u011bhovan\u00e1 a\u00a0zapuzen\u00e1. A\u00a0kdo je vychoval? Hle, j\u00e1 jsem z\u016fstala samotn\u00e1. Odkud jsou tito?"
        },
        {
            "chapter": 49,
            "verse": 22,
            "name": "Isaiah 49:22",
            "text": "Toto prav\u00ed Panovn\u00edk Hospodin: Hle, pozdvihnu ruku k\u00a0n\u00e1rod\u016fm a\u00a0pozvednu korouhev k\u00a0lidem. A\u00a0v\u00a0n\u00e1ru\u010di p\u0159inesou tv\u00e9 syny a\u00a0tv\u00e9 dcery budou neseny na ramenou."
        },
        {
            "chapter": 49,
            "verse": 23,
            "name": "Isaiah 49:23",
            "text": "Kr\u00e1lov\u00e9 budou tv\u00fdmi vychovateli a\u00a0jejich kn\u011b\u017eny tv\u00fdmi kojn\u00fdmi; budou se ti klan\u011bt tv\u00e1\u0159\u00ed k\u00a0zemi a\u00a0prach tv\u00fdch nohou budou l\u00edzat. I\u00a0pozn\u00e1\u0161, \u017ee j\u00e1 jsem Hospodin, tak\u017ee nebudou zahanbeni ti, kdo na mne o\u010dek\u00e1vaj\u00ed. "
        },
        {
            "chapter": 49,
            "verse": 24,
            "name": "Isaiah 49:24",
            "text": "Co\u017epak lze vz\u00edt hrdinovi lup, \u010di \u2308n\u00e1siln\u00edkovi vychv\u00e1tit zajatce?\u2309"
        },
        {
            "chapter": 49,
            "verse": 25,
            "name": "Isaiah 49:25",
            "text": "Av\u0161ak toto prav\u00ed Hospodin: I\u00a0zajatec bude vzat hrdinovi a\u00a0lup bude vychv\u00e1cen n\u00e1siln\u00edkovi. Tv\u00e9mu odp\u016frci budu j\u00e1 odporovat a\u00a0tv\u00e9 syny j\u00e1 zachr\u00e1n\u00edm."
        },
        {
            "chapter": 49,
            "verse": 26,
            "name": "Isaiah 49:26",
            "text": "Tv\u00e9 utiskovatele nakrm\u00edm jejich vlastn\u00edm masem a\u00a0opij\u00ed se vlastn\u00ed krv\u00ed jako sladk\u00fdm v\u00ednem, a\u00a0pozn\u00e1 ve\u0161ker\u00e9 t\u011blo, \u2308\u017ee j\u00e1 jsem Hospodin, tv\u016fj zachr\u00e1nce a\u00a0vykupitel, Mocn\u00fd J\u00e1kob\u016fv.\u2309  "
        }
    ]
}