{
    "translation": "Basic English Bible",
    "abbreviation": "basicenglish",
    "lang": "en",
    "language": "English",
    "direction": "LTR",
    "encoding": "",
    "book_nr": 32,
    "book_name": "Jonah",
    "chapter": 1,
    "name": "Jonah 1",
    "verses": [
        {
            "chapter": 1,
            "verse": 1,
            "name": "Jonah 1:1",
            "text": "And the word of the Lord came to Jonah, the son of Amittai, saying,"
        },
        {
            "chapter": 1,
            "verse": 2,
            "name": "Jonah 1:2",
            "text": "Up! go to Nineveh, that great town, and let your voice come to it; for their evil-doing has come up before me."
        },
        {
            "chapter": 1,
            "verse": 3,
            "name": "Jonah 1:3",
            "text": "And Jonah got up to go in flight to Tarshish, away from the Lord; and he went down to Joppa, and saw there a ship going to Tarshish: so he gave them the price of the journey and went down into it to go with them to Tarshish, away from the Lord."
        },
        {
            "chapter": 1,
            "verse": 4,
            "name": "Jonah 1:4",
            "text": "And the Lord sent out a great wind on to the sea and there was a violent storm in the sea, so that the ship seemed in danger of being broken."
        },
        {
            "chapter": 1,
            "verse": 5,
            "name": "Jonah 1:5",
            "text": "Then the sailors were full of fear, every man crying to his god; and the goods in the ship were dropped out into the sea to make the weight less. But Jonah had gone down into the inmost part of the ship where he was stretched out in a deep sleep."
        },
        {
            "chapter": 1,
            "verse": 6,
            "name": "Jonah 1:6",
            "text": "And the ship's captain came to him and said to him, What are you doing sleeping? Up! say a prayer to your God, if by chance God will give a thought to us, so that we may not come to destruction."
        },
        {
            "chapter": 1,
            "verse": 7,
            "name": "Jonah 1:7",
            "text": "And they said to one another, Come, let us put this to the decision of chance and see on whose account this evil has come on us. So they did so, and Jonah was seen to be the man."
        },
        {
            "chapter": 1,
            "verse": 8,
            "name": "Jonah 1:8",
            "text": "Then they said to him, Now make clear to us what is your work, and where you come from? what is your country, and who are your people?"
        },
        {
            "chapter": 1,
            "verse": 9,
            "name": "Jonah 1:9",
            "text": "And he said to them, I am a Hebrew, a worshipper of the Lord, the God of heaven, who made the sea and the dry land."
        },
        {
            "chapter": 1,
            "verse": 10,
            "name": "Jonah 1:10",
            "text": "And the men were in great fear, and they said to him, What is this you have done? For the men had knowledge of his flight from the Lord because he had not kept it from them."
        },
        {
            "chapter": 1,
            "verse": 11,
            "name": "Jonah 1:11",
            "text": "And they said to him, What are we to do to you so that the sea may become calm for us? For the sea was getting rougher and rougher."
        },
        {
            "chapter": 1,
            "verse": 12,
            "name": "Jonah 1:12",
            "text": "And he said to them, Take me up and put me into the sea, and the sea will become calm for you: for I am certain that because of me this great storm has come on you."
        },
        {
            "chapter": 1,
            "verse": 13,
            "name": "Jonah 1:13",
            "text": "And the men were working hard to get back to the land, but they were not able to do so: for the sea got rougher and rougher against them."
        },
        {
            "chapter": 1,
            "verse": 14,
            "name": "Jonah 1:14",
            "text": "So, crying to the Lord, they said, Give ear to our prayer, O Lord, give ear, and do not let destruction overtake us because of this man's life; do not put on us the sin of taking life without cause: for you, O Lord, have done what seemed good to you."
        },
        {
            "chapter": 1,
            "verse": 15,
            "name": "Jonah 1:15",
            "text": "So they took Jonah up and put him into the sea: and the sea was no longer angry."
        },
        {
            "chapter": 1,
            "verse": 16,
            "name": "Jonah 1:16",
            "text": "Then great was the men's fear of the Lord; and they made an offering to the Lord and took oaths to him."
        },
        {
            "chapter": 1,
            "verse": 17,
            "name": "Jonah 1:17",
            "text": "And the Lord made ready a great fish to take Jonah into its mouth; and Jonah was inside the fish for three days and three nights."
        }
    ]
}