{
    "translation": "Open English Bible (Commonwealth Spelling)",
    "abbreviation": "oebcth",
    "lang": "en",
    "language": "English",
    "direction": "LTR",
    "encoding": "UTF-8",
    "book_nr": 37,
    "book_name": "Haggai",
    "chapter": 2,
    "name": "Haggai 2",
    "verses": [
        {
            "chapter": 2,
            "verse": 1,
            "name": "Haggai 2:1",
            "text": ""
        },
        {
            "chapter": 2,
            "verse": 2,
            "name": "Haggai 2:2",
            "text": ""
        },
        {
            "chapter": 2,
            "verse": 3,
            "name": "Haggai 2:3",
            "text": ""
        },
        {
            "chapter": 2,
            "verse": 4,
            "name": "Haggai 2:4",
            "text": ""
        },
        {
            "chapter": 2,
            "verse": 5,
            "name": "Haggai 2:5",
            "text": ""
        },
        {
            "chapter": 2,
            "verse": 6,
            "name": "Haggai 2:6",
            "text": ""
        },
        {
            "chapter": 2,
            "verse": 7,
            "name": "Haggai 2:7",
            "text": ""
        },
        {
            "chapter": 2,
            "verse": 8,
            "name": "Haggai 2:8",
            "text": ""
        },
        {
            "chapter": 2,
            "verse": 9,
            "name": "Haggai 2:9",
            "text": ""
        },
        {
            "chapter": 2,
            "verse": 10,
            "name": "Haggai 2:10",
            "text": ""
        },
        {
            "chapter": 2,
            "verse": 11,
            "name": "Haggai 2:11",
            "text": ""
        },
        {
            "chapter": 2,
            "verse": 12,
            "name": "Haggai 2:12",
            "text": ""
        },
        {
            "chapter": 2,
            "verse": 13,
            "name": "Haggai 2:13",
            "text": ""
        },
        {
            "chapter": 2,
            "verse": 14,
            "name": "Haggai 2:14",
            "text": ""
        },
        {
            "chapter": 2,
            "verse": 15,
            "name": "Haggai 2:15",
            "text": ""
        },
        {
            "chapter": 2,
            "verse": 16,
            "name": "Haggai 2:16",
            "text": ""
        },
        {
            "chapter": 2,
            "verse": 17,
            "name": "Haggai 2:17",
            "text": ""
        },
        {
            "chapter": 2,
            "verse": 18,
            "name": "Haggai 2:18",
            "text": ""
        },
        {
            "chapter": 2,
            "verse": 19,
            "name": "Haggai 2:19",
            "text": ""
        },
        {
            "chapter": 2,
            "verse": 20,
            "name": "Haggai 2:20",
            "text": ""
        },
        {
            "chapter": 2,
            "verse": 21,
            "name": "Haggai 2:21",
            "text": ""
        },
        {
            "chapter": 2,
            "verse": 22,
            "name": "Haggai 2:22",
            "text": ""
        },
        {
            "chapter": 2,
            "verse": 23,
            "name": "Haggai 2:23",
            "text": ""
        }
    ]
}