{
  "40": "22574e6c4c4cd2dd6bd3207a48fba45a90c47389",
  "41": "fb4f849278ace526a023fc2fa2a3eb3be909bb5f",
  "42": "0377a0e90e903c5e06732324ec649f03ce5390a9",
  "43": "57c37864a6a85d3b5fb64d8a94d1c02ae25d0dac",
  "44": "bb842240773e77e7639ac4772f1c0fd3296a217e",
  "45": "ca4f7caa7173dd983a29785240b68ec630edf5e6",
  "46": "dce242a54069a30e2cbb959212df4d617b14678c",
  "47": "fbae799e9e1901c14e5b9c89409c2bff42d74e17",
  "48": "50d507ba6769f11546f722e0da398048ce577df6",
  "49": "2cbdf3bc97e5cf7975fab4f2bc7105a05859beb9",
  "50": "eb4818fdc20fd34c2543050a7469b758948a5738",
  "51": "6db82b7945ed233ba0f3810c1963346777ef4604",
  "52": "a41ab8f289c35de9a4de21285ed2bb76a5d7f78f",
  "53": "1237c1314f84db4409fd731253d701f35c0739d0",
  "54": "dd724099bd8f1ea61a8a23e89828d3db30c4f3c0",
  "55": "f6e71032d3c59220838881402d4feb25b3350fe4",
  "56": "ef4d6ef35c818782c29c2c21322085737c01b1b6",
  "57": "0644249c354dbec0a48e4b55bb6804f7fa28f4a8",
  "58": "6b9782f682610c1c9788a44e7fe17f66b86a543d",
  "59": "a987177b017e5282adf87e16f09592049049942a",
  "60": "4889ab92fa4d7e8b9a673aabba9d16582ad6b866",
  "61": "b8ebd8e1999a6fb780edcfd6ac18baca577b4bd3",
  "62": "95e538124a2139d3ae6193b2909524dfbb580f83",
  "63": "de3ab9bf08c0177641694b41cf80a252c198e925",
  "64": "8fe3f7e0ab1d11db3f4b5586eb031a40cd80b01e",
  "65": "a311daf171582977e6c268f2910b1acab2e4939b",
  "66": "3e50b28d47e64e69dbb18aff3ad1ce775a7771ed"
}
