{
    "translation": "Restored Name King James Version",
    "abbreviation": "rnkjv",
    "lang": "en",
    "language": "English",
    "direction": "LTR",
    "encoding": "UTF-8",
    "book_nr": 23,
    "book_name": "Isaiah",
    "chapter": 44,
    "name": "Isaiah 44",
    "verses": [
        {
            "chapter": 44,
            "verse": 1,
            "name": "Isaiah 44:1",
            "text": "Yet now hear, O Jacob my servant; and Israel, whom I have chosen: "
        },
        {
            "chapter": 44,
            "verse": 2,
            "name": "Isaiah 44:2",
            "text": "Thus saith \u05d9\u05d4\u05d5\u05d4 that made thee, and formed thee from the womb, which will help thee; Fear not, O Jacob, my servant; and thou, Jesurun, whom I have chosen. "
        },
        {
            "chapter": 44,
            "verse": 3,
            "name": "Isaiah 44:3",
            "text": "For I will pour water upon him that is thirsty, and floods upon the dry ground: I will pour my spirit upon thy seed, and my blessing upon thine offspring: "
        },
        {
            "chapter": 44,
            "verse": 4,
            "name": "Isaiah 44:4",
            "text": "And they shall spring up as among the grass, as willows by the water courses. "
        },
        {
            "chapter": 44,
            "verse": 5,
            "name": "Isaiah 44:5",
            "text": "One shall say, I am \u05d9\u05d4\u05d5\u05d4's; and another shall call himself by the name of Jacob; and another shall subscribe with his hand unto \u05d9\u05d4\u05d5\u05d4, and surname himself by the name of Israel. "
        },
        {
            "chapter": 44,
            "verse": 6,
            "name": "Isaiah 44:6",
            "text": "Thus saith \u05d9\u05d4\u05d5\u05d4 the King of Israel, and his redeemer \u05d9\u05d4\u05d5\u05d4 of hosts; I am the first, and I am the last; and beside me there is no Elohim. "
        },
        {
            "chapter": 44,
            "verse": 7,
            "name": "Isaiah 44:7",
            "text": "And who, as I, shall call, and shall declare it, and set it in order for me, since I appointed the ancient people? and the things that are coming, and shall come, let them shew unto them. "
        },
        {
            "chapter": 44,
            "verse": 8,
            "name": "Isaiah 44:8",
            "text": "Fear ye not, neither be afraid: have not I told thee from that time, and have declared it? ye are even my witnesses. Is there an Eloah beside me? yea, there is no rock; I know not any. "
        },
        {
            "chapter": 44,
            "verse": 9,
            "name": "Isaiah 44:9",
            "text": "They that make a graven image are all of them vanity; and their delectable things shall not profit; and they are their own witnesses; they see not, nor know; that they may be ashamed. "
        },
        {
            "chapter": 44,
            "verse": 10,
            "name": "Isaiah 44:10",
            "text": "Who hath formed an el, or molten a graven image that is profitable for nothing? "
        },
        {
            "chapter": 44,
            "verse": 11,
            "name": "Isaiah 44:11",
            "text": "Behold, all his fellows shall be ashamed: and the workmen, they are of men: let them all be gathered together, let them stand up; yet they shall fear, and they shall be ashamed together. "
        },
        {
            "chapter": 44,
            "verse": 12,
            "name": "Isaiah 44:12",
            "text": "The smith with the tongs both worketh in the coals, and fashioneth it with hammers, and worketh it with the strength of his arms: yea, he is hungry, and his strength faileth: he drinketh no water, and is faint. "
        },
        {
            "chapter": 44,
            "verse": 13,
            "name": "Isaiah 44:13",
            "text": "The carpenter stretcheth out his rule; he marketh it out with a line; he fitteth it with planes, and he marketh it out with the compass, and maketh it after the figure of a man, according to the beauty of a man; that it may remain in the house. "
        },
        {
            "chapter": 44,
            "verse": 14,
            "name": "Isaiah 44:14",
            "text": "He heweth him down cedars, and taketh the cypress and the oak, which he strengtheneth for himself among the trees of the forest: he planteth an ash, and the rain doth nourish it. "
        },
        {
            "chapter": 44,
            "verse": 15,
            "name": "Isaiah 44:15",
            "text": "Then shall it be for a man to burn: for he will take thereof, and warm himself; yea, he kindleth it, and baketh bread; yea, he maketh an el, and worshippeth it; he maketh it a graven image, and falleth down thereto. "
        },
        {
            "chapter": 44,
            "verse": 16,
            "name": "Isaiah 44:16",
            "text": "He burneth part thereof in the fire; with part thereof he eateth flesh; he roasteth roast, and is satisfied: yea, he warmeth himself, and saith, Aha, I am warm, I have seen the fire: "
        },
        {
            "chapter": 44,
            "verse": 17,
            "name": "Isaiah 44:17",
            "text": "And the residue thereof he maketh an el, even his graven image: he falleth down unto it, and worshippeth it, and prayeth unto it, and saith, Deliver me; for thou art my el. "
        },
        {
            "chapter": 44,
            "verse": 18,
            "name": "Isaiah 44:18",
            "text": "They have not known nor understood: for he hath shut their eyes, that they cannot see; and their hearts, that they cannot understand. "
        },
        {
            "chapter": 44,
            "verse": 19,
            "name": "Isaiah 44:19",
            "text": "And none considereth in his heart, neither is there knowledge nor understanding to say, I have burned part of it in the fire; yea, also I have baked bread upon the coals thereof; I have roasted flesh, and eaten it: and shall I make the residue thereof an abomination? shall I fall down to the stock of a tree? "
        },
        {
            "chapter": 44,
            "verse": 20,
            "name": "Isaiah 44:20",
            "text": "He feedeth on ashes: a deceived heart hath turned him aside, that he cannot deliver his soul, nor say, Is there not a lie in my right hand? "
        },
        {
            "chapter": 44,
            "verse": 21,
            "name": "Isaiah 44:21",
            "text": "Remember these, O Jacob and Israel; for thou art my servant: I have formed thee; thou art my servant: O Israel, thou shalt not be forgotten of me. "
        },
        {
            "chapter": 44,
            "verse": 22,
            "name": "Isaiah 44:22",
            "text": "I have blotted out, as a thick cloud, thy transgressions, and, as a cloud, thy sins: return unto me; for I have redeemed thee. "
        },
        {
            "chapter": 44,
            "verse": 23,
            "name": "Isaiah 44:23",
            "text": "Sing, O ye heavens; for \u05d9\u05d4\u05d5\u05d4 hath done it: shout, ye lower parts of the earth: break forth into singing, ye mountains, O forest, and every tree therein: for \u05d9\u05d4\u05d5\u05d4 hath redeemed Jacob, and glorified himself in Israel. "
        },
        {
            "chapter": 44,
            "verse": 24,
            "name": "Isaiah 44:24",
            "text": "Thus saith \u05d9\u05d4\u05d5\u05d4, thy redeemer, and he that formed thee from the womb, I am \u05d9\u05d4\u05d5\u05d4 that maketh all things; that stretcheth forth the heavens alone; that spreadeth abroad the earth by myself; "
        },
        {
            "chapter": 44,
            "verse": 25,
            "name": "Isaiah 44:25",
            "text": "That frustrateth the tokens of the liars, and maketh diviners mad; that turneth wise men backward, and maketh their knowledge foolish; "
        },
        {
            "chapter": 44,
            "verse": 26,
            "name": "Isaiah 44:26",
            "text": "That confirmeth the word of his servant, and performeth the counsel of his messengers; that saith to Jerusalem, Thou shalt be inhabited; and to the cities of Judah, Ye shall be built, and I will raise up the decayed places thereof: "
        },
        {
            "chapter": 44,
            "verse": 27,
            "name": "Isaiah 44:27",
            "text": "That saith to the deep, Be dry, and I will dry up thy rivers: "
        },
        {
            "chapter": 44,
            "verse": 28,
            "name": "Isaiah 44:28",
            "text": "That saith of Cyrus, He is my shepherd, and shall perform all my pleasure: even saying to Jerusalem, Thou shalt be built; and to the temple, Thy foundation shall be laid.  "
        }
    ]
}