{
    "translation": "La Bible Augustin Crampon 1923",
    "abbreviation": "frecrampon",
    "lang": "fr",
    "language": "French",
    "direction": "LTR",
    "encoding": "UTF-8",
    "book_nr": 24,
    "book_name": "Jeremiah",
    "chapter": 44,
    "name": "Jeremiah 44",
    "verses": [
        {
            "chapter": 44,
            "verse": 1,
            "name": "Jeremiah 44:1",
            "text": "La parole qui fut adress\u00e9e \u00e0 J\u00e9r\u00e9mie pour tous les Juifs demeurant dans le pays d'Egypte, demeurant \u00e0 Migdol, \u00e0 Taphn\u00e8s; \u00e0 Noph et au pays de Phatur\u00e8s, en ces termes:"
        },
        {
            "chapter": 44,
            "verse": 2,
            "name": "Jeremiah 44:2",
            "text": "Ainsi parle J\u00e9hovah des ann\u00e9es, Dieu d'Isra\u00ebl: Vous avez vu tout le mal que j'ai fait venir sur J\u00e9rusalem et sur toutes les villes de Juda: les voil\u00e0 aujourd'hui d\u00e9vast\u00e9es et sans habitants,"
        },
        {
            "chapter": 44,
            "verse": 3,
            "name": "Jeremiah 44:3",
            "text": "\u00e0 cause de la malice avec laquelle ils ont agi pour m'irriter en allant offrir de l'encens et des hommages \u00e0 d'autres dieux inconnus \u00e0 eux, \u00e0 vous et \u00e0 vos p\u00e8res."
        },
        {
            "chapter": 44,
            "verse": 4,
            "name": "Jeremiah 44:4",
            "text": "Je vous ai envoy\u00e9 tous mes serviteurs, les proph\u00e8tes, les envoyant d\u00e8s le matin, pour vous dire: Ne faites donc pas cette abomina-tion que je hais."
        },
        {
            "chapter": 44,
            "verse": 5,
            "name": "Jeremiah 44:5",
            "text": "Mais ils n'ont pas \u00e9cout\u00e9, ils n'ont pas pr\u00eat\u00e9 l'oreille pour se d\u00e9tourner de leur m\u00e9chancet\u00e9 et n'of- frir plus d'encens \u00e0 d'autres dieux."
        },
        {
            "chapter": 44,
            "verse": 6,
            "name": "Jeremiah 44:6",
            "text": "Aussi mon indignation et ma col\u00e8re se sont r\u00e9pandues sur eux et ont consum\u00e9 les villes de Juda et les rues de J\u00e9rusa-lem, qui sont devenues un lieu d\u00e9vast\u00e9 et d\u00e9sert, comme cela se voit aujourd'hui."
        },
        {
            "chapter": 44,
            "verse": 7,
            "name": "Jeremiah 44:7",
            "text": "Maintenant J\u00e9hovah, Dieu des arm\u00e9es, Dieu d'Isra\u00ebl, parle ainsi: Pourquoi vous faites-vous ce grand mal \u00e0 vous-m\u00eames, de vous faire exterminer du milieu de Juda vos hommes et vos fem-mes, vos enfants et vos nourrissons, sans vous laisser aucun reste,"
        },
        {
            "chapter": 44,
            "verse": 8,
            "name": "Jeremiah 44:8",
            "text": "de m'ir-riter par l'\u0153uvre de vos mains, en offrant de l'encens \u00e0 d'autres dieux dans le pays d'Egypte, o\u00f9 vous \u00eates entr\u00e9s pour y habiter, afin de vous faire exterminer, et afin de devenir un objet de mal\u00e9diction et d'opprobre parmi tous les peuples de la terre?"
        },
        {
            "chapter": 44,
            "verse": 9,
            "name": "Jeremiah 44:9",
            "text": "Avez-vous, oubli\u00e9 les crimes de vos p\u00e8res, les crimes des rois de Ju-da, les crimes des femmes de Juda, vos propres crimes et les crimes que vos femmes ont commis au pays de Juda et dans les rues de J\u00e9rusalem?"
        },
        {
            "chapter": 44,
            "verse": 10,
            "name": "Jeremiah 44:10",
            "text": "Ils n'ont pas \u00e9t\u00e9 contrits jusqu'\u00e0 ce jour, ils pas eu de crainte, ils n'ont pas march\u00e9 dans ma loi ni dans les commandements que j'avais mis devant vous et devant vos p\u00e8res."
        },
        {
            "chapter": 44,
            "verse": 11,
            "name": "Jeremiah 44:11",
            "text": "C'est pourquoi J\u00e9hovah des arm\u00e9es, Dieu d'Isra\u00ebl, parle ainsi: Je vais tourner ma face contre vous pour votre malheur et pour exterminer tout Juda."
        },
        {
            "chapter": 44,
            "verse": 12,
            "name": "Jeremiah 44:12",
            "text": "Je prendrai les restes de Juda, qui ont voulu venir au pays d'Egypte pour y habiter, et ils seront tous consum\u00e9s; ils tomberont dans le pays d'Egyp-te; ils seront consum\u00e9s par l'\u00e9p\u00e9e et par la famine, petits et grands; ils p\u00e9riront par l'\u00e9p\u00e9e et par la famine, et ils seront un objet d'ex\u00e9cration, de stup\u00e9faction, de mal\u00e9diction et d'opprobre."
        },
        {
            "chapter": 44,
            "verse": 13,
            "name": "Jeremiah 44:13",
            "text": "Je visiterai ceux qui demeurent dans le pays d'Egyp-te, comme j'ai visit\u00e9 J\u00e9rusalem, par l'\u00e9p\u00e9e, la famine et la peste."
        },
        {
            "chapter": 44,
            "verse": 14,
            "name": "Jeremiah 44:14",
            "text": "Nul ne r\u00e9chappera ni ne survivra parmi les restes de Juda qui sont venus en Egypte pour y habiter et pour retourner au pays de Juda, o\u00f9 ils aspirent \u00e0 demeurer de nouveau. Car ils n'y retourneront pas, sauf quelques r\u00e9-chapp\u00e9s.\\"
        },
        {
            "chapter": 44,
            "verse": 15,
            "name": "Jeremiah 44:15",
            "text": "Alors tous les hommes qui savaient que leurs femmes offraient de l'encens \u00e0 d'autres dieux, toutes les femmes rassem-bl\u00e9es l\u00e0 en grand nombre et tous ceux qui demeuraient dans le pays d'Egypte, \u00e0 Pathur\u00e8s, r\u00e9pondirent ainsi \u00e0 J\u00e9r\u00e9mie:"
        },
        {
            "chapter": 44,
            "verse": 16,
            "name": "Jeremiah 44:16",
            "text": "Quant \u00e0 la parole que tu nous as dite au nom de J\u00e9hovah, nous ne voulons pas t'\u00e9couter."
        },
        {
            "chapter": 44,
            "verse": 17,
            "name": "Jeremiah 44:17",
            "text": "Mais nous accomplirons certai-nement tout ce qui est sorti de notre bou-che, en offrant de l'encens \u00e0 la Reine du ciel, en lui versant des libations, comme nous avons fait, nous et nos p\u00e8res, nos rois et nos chefs, dans les villes de Juda et dans les rues de J\u00e9rusalem. Nous avions alors du pain \u00e0 sati\u00e9t\u00e9, nous \u00e9tions heureux et nous ne voyions pas le malheur."
        },
        {
            "chapter": 44,
            "verse": 18,
            "name": "Jeremiah 44:18",
            "text": "Mais depuis que nous avons cess\u00e9 d'offrir de l'encens \u00e0 la Reine du ciel et de lui verser des libations, nous avons manqu\u00e9 de tout et nous avons \u00e9t\u00e9 consum\u00e9s par l'\u00e9p\u00e9e et par la fami-ne."
        },
        {
            "chapter": 44,
            "verse": 19,
            "name": "Jeremiah 44:19",
            "text": "Et quand nous offrions de l'en-cens \u00e0 la Reine du ciel et que nous lui versions des libations, est-ce en dehors de nos maris que nous lui avons fait des g\u00e2teaux pour la repr\u00e9senter et que nous lui avons vers\u00e9 des liba-tions?\\"
        },
        {
            "chapter": 44,
            "verse": 20,
            "name": "Jeremiah 44:20",
            "text": "Alors J\u00e9r\u00e9mie parla \u00e0 tout le peuple contre les hommes, contre les femmes et contre ceux qui lui avaient ainsi r\u00e9pon-du, et il leur dit:"
        },
        {
            "chapter": 44,
            "verse": 21,
            "name": "Jeremiah 44:21",
            "text": "\"N'est-ce pas l'en-cens que vous avez br\u00fbl\u00e9 dans les villes de Juda et dans les rues de J\u00e9rusalem, vous et vos p\u00e8res, vos rois et vos chefs, et le peuple du pays, que J\u00e9hovah s'est rappel\u00e9 et qui lui est mont\u00e9 au c\u0153ur?"
        },
        {
            "chapter": 44,
            "verse": 22,
            "name": "Jeremiah 44:22",
            "text": "J\u00e9hovah n'a pu le supporter plus long-temps, \u00e0 cause de la m\u00e9chancet\u00e9 de vos actions et des abominations que vous avez commises; et votre pays est devenu un lieu d\u00e9sert, d\u00e9vast\u00e9 et maudit, o\u00f9 personne n'habite, comme on le voit au-jourd'hui."
        },
        {
            "chapter": 44,
            "verse": 23,
            "name": "Jeremiah 44:23",
            "text": "C'est parce que vous avez offert de l'encens et p\u00e9ch\u00e9 contre J\u00e9ho-vah, parce que vous n'avez pas suivi sa loi, ses ordonnances et ses pr\u00e9ceptes, c'est pour cela que ces malheurs vous sont arriv\u00e9s, comme cela se voit aujour-d'hui.\""
        },
        {
            "chapter": 44,
            "verse": 24,
            "name": "Jeremiah 44:24",
            "text": "Puis J\u00e9r\u00e9mie dit \u00e0 tout le peuple et \u00e0 toutes les femmes: \"Ecoutez la parole de J\u00e9hovah, vous tous hommes de Juda qui \u00eates dans le pays d'Egypte."
        },
        {
            "chapter": 44,
            "verse": 25,
            "name": "Jeremiah 44:25",
            "text": "Ainsi parle J\u00e9hovah des arm\u00e9es, Dieu d'Isra\u00ebl: Vous et vos femmes vous avez d\u00e9clar\u00e9 de vos bouches et ex\u00e9cut\u00e9 de vos mains, en disant: Oui, nous accomplirons les v\u0153ux que nous avons faits, d'offrir de l'encens \u00e0 la Reine du ciel et de lui ver-ser des libations. Eh bien, acquittez vos v\u0153ux, ne manquez pas d'accomplir vos v\u0153ux!"
        },
        {
            "chapter": 44,
            "verse": 26,
            "name": "Jeremiah 44:26",
            "text": "Ecoutez donc la parole de J\u00e9hovah, vous tous hommes de Juda qui de-meurez dans le pays d'Egypte. Je l'ai jur\u00e9 par mon grand nom, dit J\u00e9hovah: mon nom ne sera plus invoqu\u00e9 nulle part dans tout le pays d'Egypte par la bou-che d'un homme de Juda disant: Le Sei-gneur J\u00e9hovah est vivant!"
        },
        {
            "chapter": 44,
            "verse": 27,
            "name": "Jeremiah 44:27",
            "text": "Voici que je veille sur eux pour leur mal, et non pour leur bien, et tous les hommes de Juda qui sont dans le pays d'Egypte se-ront consum\u00e9s par l'\u00e9p\u00e9e et par la fa-mine, jusqu'\u00e0 extermination;"
        },
        {
            "chapter": 44,
            "verse": 28,
            "name": "Jeremiah 44:28",
            "text": "et ceux qui \u00e9chapperont au glaive, en petit nom-bre, retourneront du pays d'Egypte au pays de Juda, et tous les restes de Juda qui sont venus en Egypte pour y habi-ter sauront de qui la parole sera r\u00e9ali-s\u00e9e, la mienne ou la leur."
        },
        {
            "chapter": 44,
            "verse": 29,
            "name": "Jeremiah 44:29",
            "text": "Et ceci sera pour vous, dit J\u00e9hovah, le signe que je vous visiterai en ce lieu, afin que vous sachiez que mes paroles s'accompliront certainement pour votre malheur:"
        },
        {
            "chapter": 44,
            "verse": 30,
            "name": "Jeremiah 44:30",
            "text": "ainsi parle J\u00e9hovah: Je vais livrer le Pharaon Hophra, roi d'Egypte, aux mains de ses ennemis et aux mains de ceux qui en veulent \u00e0 sa vie, comme j'ai livr\u00e9 S\u00e9d\u00e9cias, roi de Juda, \u00e0 Nabuchodonosor, roi de Babylone, son ennemi, qui en voulait \u00e0 sa vie.\" "
        }
    ]
}