{
    "translation": "The Orthodox Jewish Brit Chadasha",
    "abbreviation": "orthjbc",
    "lang": "en",
    "language": "English",
    "direction": "LTR",
    "encoding": "",
    "book_nr": 40,
    "book_name": "Matthew",
    "chapter": 25,
    "name": "Matthew 25",
    "verses": [
        {
            "chapter": 25,
            "verse": 1,
            "name": "Matthew 25:1",
            "text": "Then the Malchut HaShomayim will be compared to eser almot (ten virgins), who, having taken their menorahs, went out to meet the Chosson (Bridegroom)."
        },
        {
            "chapter": 25,
            "verse": 2,
            "name": "Matthew 25:2",
            "text": "Now five of them were foolish and five were wise."
        },
        {
            "chapter": 25,
            "verse": 3,
            "name": "Matthew 25:3",
            "text": "When the foolish took their menorahs, they neglected to take shemen (oil)."
        },
        {
            "chapter": 25,
            "verse": 4,
            "name": "Matthew 25:4",
            "text": "But the wise took shemen in containers with their menorahs."
        },
        {
            "chapter": 25,
            "verse": 5,
            "name": "Matthew 25:5",
            "text": "Now the Chosson, being delayed, here's what happened:  all the almot became drowsy and were sleeping."
        },
        {
            "chapter": 25,
            "verse": 6,
            "name": "Matthew 25:6",
            "text": "And at chatsot halailah (midnight) there was a shout, `Hinei! The Chosson (Bridegroom)! Go out to meet him!`"
        },
        {
            "chapter": 25,
            "verse": 7,
            "name": "Matthew 25:7",
            "text": "Then all the eser almot awakened and they trimmed their menorahs."
        },
        {
            "chapter": 25,
            "verse": 8,
            "name": "Matthew 25:8",
            "text": " But the foolish said to the wise, `Give us from your shemen (oil), for our menorahs are going out.`"
        },
        {
            "chapter": 25,
            "verse": 9,
            "name": "Matthew 25:9",
            "text": "But the wise answered, saying, `Perhaps there might not be enough for us and for you.  Instead, you go to the ones selling and buy for yourselves.`"
        },
        {
            "chapter": 25,
            "verse": 10,
            "name": "Matthew 25:10",
            "text": "And as they were going away to buy, the Bias of the Chosson (Bridegroom) occurred!  The ones prepared entered with him into the Chassuna (Wedding) feast and the door was shut."
        },
        {
            "chapter": 25,
            "verse": 11,
            "name": "Matthew 25:11",
            "text": "And later, here comes also the other almot, saying, `Adoneinu, Adoneinu, open the door for us.`"
        },
        {
            "chapter": 25,
            "verse": 12,
            "name": "Matthew 25:12",
            "text": "But he, in reply, said, `Omein, I say to you, I do not know you.`"
        },
        {
            "chapter": 25,
            "verse": 13,
            "name": "Matthew 25:13",
            "text": "Be shomer, be on the alert, therefore, for you do not know the Yom or the Sha'ah (hour, time). \n USING ONE'S TALENTS FOR REBBE,MELECH HAMOSHIACH: A MASHAL TEACHING THAT WE ARE ACCOUNTABLE FOR EVERY KISHROINOS (TALENT)"
        },
        {
            "chapter": 25,
            "verse": 14,
            "name": "Matthew 25:14",
            "text": "For it is as a man going on a journey, who called to his own avadim (slaves) and handed over to them his possessions."
        },
        {
            "chapter": 25,
            "verse": 15,
            "name": "Matthew 25:15",
            "text": "And to this one, he gave five talents, and to this one, two, and to this one, one, each according to his own ability. Then the man went on his journey.  Immediately"
        },
        {
            "chapter": 25,
            "verse": 16,
            "name": "Matthew 25:16",
            "text": "after the man had gone, the one having received the five talents, went to work with them, and gained five others."
        },
        {
            "chapter": 25,
            "verse": 17,
            "name": "Matthew 25:17",
            "text": "Likewise, the one having received the two talents--this one gained two others."
        },
        {
            "chapter": 25,
            "verse": 18,
            "name": "Matthew 25:18",
            "text": "But the one, having received one, went out and dug a hole in the ground and buried the gelt (money) of his Adon in a hiding place."
        },
        {
            "chapter": 25,
            "verse": 19,
            "name": "Matthew 25:19",
            "text": "And after much time, here comes the Adon of those servants.  And he conducts a settling of accounts with them."
        },
        {
            "chapter": 25,
            "verse": 20,
            "name": "Matthew 25:20",
            "text": "Then the one who had received five talents came forward, bringing five more talents, saying, `Adoni, five talents you gave me.  Hinei! Five more talents I gained.`"
        },
        {
            "chapter": 25,
            "verse": 21,
            "name": "Matthew 25:21",
            "text": "And his Adon said to him, `Shkoyach (well done), eved tov v'ne'eman! (good and faithful servant)! A few things you were faithful over, over many things I will ordain you.  Enter into the simcha of your Adon."
        },
        {
            "chapter": 25,
            "verse": 22,
            "name": "Matthew 25:22",
            "text": "And having come forward, the one having received two talents, said, `You bestowed upon me two talents. Hinei! Two more talents I gained.`"
        },
        {
            "chapter": 25,
            "verse": 23,
            "name": "Matthew 25:23",
            "text": "His Adon said to him, `Shkoyach (well done), eved tov v'ne'eman!  A few things you were faithful over, over many things I will ordain you. Enter into the simcha of your Adon.`"
        },
        {
            "chapter": 25,
            "verse": 24,
            "name": "Matthew 25:24",
            "text": "And also the one who had received one talent stepped forward.   He said, `Adoni, I knew that you are a hard man, reaping where you did not sow and gathering from that which you did not scatter seed."
        },
        {
            "chapter": 25,
            "verse": 25,
            "name": "Matthew 25:25",
            "text": "And having been afraid and having gone away, I hid your talent by burying it in the ground.  Here, see, you have that which belongs to you.`"
        },
        {
            "chapter": 25,
            "verse": 26,
            "name": "Matthew 25:26",
            "text": "And, in reply, his Adon said to him, `You farbissener (mean) eved rah v'atzel (wicked and lazy slave), so you knew that I reap where I did not sow and I gather from which I did not scatter seed?"
        },
        {
            "chapter": 25,
            "verse": 27,
            "name": "Matthew 25:27",
            "text": "Then why was it not necessary for you to deposit my gelt with the bankers, and having returned, I would have received back that which was mine with interest?"
        },
        {
            "chapter": 25,
            "verse": 28,
            "name": "Matthew 25:28",
            "text": "Take, therefore, from him the talent and give it to the one having the ten talents."
        },
        {
            "chapter": 25,
            "verse": 29,
            "name": "Matthew 25:29",
            "text": "For to everyone having, it will be given and he will have abundance, but from the one not having, even what he has will be taken from him."
        },
        {
            "chapter": 25,
            "verse": 30,
            "name": "Matthew 25:30",
            "text": "And as for the useless slave, throw him into the outer choshech. There will be weeping and grinding of teeth. \n REBBE, MELECH HAMOSHIACH AND THE YOM HADIN OF THE NATIONS"
        },
        {
            "chapter": 25,
            "verse": 31,
            "name": "Matthew 25:31",
            "text": "And when the Rebbe, Melech HaMoshiach (Ben HaAdam) comes, in his kavod and all his malachim  with him, then he will sit upon his Kissei Kavod (Glorious Throne)."
        },
        {
            "chapter": 25,
            "verse": 32,
            "name": "Matthew 25:32",
            "text": "And there will be assembled all the Goyim, and He will separate them from each other as the Ro'eh (the Shepherd) separates the Kevasim (Sheep) from the Izzim (Goats)."
        },
        {
            "chapter": 25,
            "verse": 33,
            "name": "Matthew 25:33",
            "text": "And Rebbe, Melech HaMoshiach will put the Kevasim on the right of him, but the Izzim on his left."
        },
        {
            "chapter": 25,
            "verse": 34,
            "name": "Matthew 25:34",
            "text": "Then HaMelech HaMoshiach will say to the ones on his right, `Come! Baruchei Avi (Blessed of my Father), receive the bechorah (inheritance), the Malchut prepared for you from before Hivvased HaOlam (the establishing of the world)."
        },
        {
            "chapter": 25,
            "verse": 35,
            "name": "Matthew 25:35",
            "text": "For I hungered and you gave me something to eat.  I thirsted and you gave drink to me. I was a sojourner, and you extended hachnosat orchim (hospitality) to me."
        },
        {
            "chapter": 25,
            "verse": 36,
            "name": "Matthew 25:36",
            "text": "I was naked and you gave me malbish arumim (clothing the naked).  I was ill and with bikkur cholim (visiting the sick) you ministered to me. I was in the beit hasohar (prison) and you came to me.`"
        },
        {
            "chapter": 25,
            "verse": 37,
            "name": "Matthew 25:37",
            "text": "Then the tzaddikim will answer Rebbe, Melech HaMoshiach, `Adoneinu, when did we see you hungering and we fed you, or thirsting and we gave you drink?"
        },
        {
            "chapter": 25,
            "verse": 38,
            "name": "Matthew 25:38",
            "text": "And when did we see you a sojourner and we extended hachnosat orchim (hospitality) to you, or naked and we clothed you?"
        },
        {
            "chapter": 25,
            "verse": 39,
            "name": "Matthew 25:39",
            "text": "And when did we see you ill or in the beit hasohar and we came to you?`"
        },
        {
            "chapter": 25,
            "verse": 40,
            "name": "Matthew 25:40",
            "text": "And, in reply, Rebbe HaMelech HaMoshiach will say to them, `Omein, I say to you, in as much as you did it to one of the least of these achim of mine, you did it to me.`"
        },
        {
            "chapter": 25,
            "verse": 41,
            "name": "Matthew 25:41",
            "text": "Then Rebbe, Melech HaMoshiach will say also to the ones on his left, `Depart from me, the ones having been cursed, into the Aish Olam having been prepared for Hasatan and his malachim."
        },
        {
            "chapter": 25,
            "verse": 42,
            "name": "Matthew 25:42",
            "text": "For I hungered and you did not give me something to eat, I thirsted and you did not give drink to me."
        },
        {
            "chapter": 25,
            "verse": 43,
            "name": "Matthew 25:43",
            "text": "I was a sojourner and you did not extend hachnosat orchim to me, I was naked and you did not clothe me, ill and in the beit hasohar and you did not visit me."
        },
        {
            "chapter": 25,
            "verse": 44,
            "name": "Matthew 25:44",
            "text": "Then also they will answer, saying, `Adoneinu, when did we see you hungering or thirsting or a sojourner or naked or sick or in the beit hasohar and we did not minister to you?"
        },
        {
            "chapter": 25,
            "verse": 45,
            "name": "Matthew 25:45",
            "text": "Then Rebbe, Melech HaMoshiach will answer them, saying, `Omein, I say to you, in  as much as you did not do it for one of these least ones, neither for me did you do it."
        },
        {
            "chapter": 25,
            "verse": 46,
            "name": "Matthew 25:46",
            "text": " And these will go away into Onesh Olam (Eternal Punishment*), but the tzaddikim into Chayyei Olam (Eternal Life).`"
        }
    ]
}