{
    "translation": "Pyh\u00e4 Raamattu (STLK 2017)",
    "abbreviation": "finstlk2017",
    "lang": "fi",
    "language": "Finnish",
    "direction": "LTR",
    "encoding": "UTF-8",
    "book_nr": 37,
    "book_name": "Haggai",
    "chapter": 1,
    "name": "Haggai 1",
    "verses": [
        {
            "chapter": 1,
            "verse": 1,
            "name": "Haggai 1:1",
            "text": "Kuningas Daarejaveksen toisena vuotena, kuudennessa kuussa, kuukauden ensimm\u00e4isen\u00e4 p\u00e4iv\u00e4n\u00e4, tuli t\u00e4m\u00e4 Herran sana profeetta Haggain kautta Juudan k\u00e4skynhaltijalle Serubbaabelille, Sealtielin pojalle, ja ylimm\u00e4iselle papille Joosualle, Joosadakin pojalle: "
        },
        {
            "chapter": 1,
            "verse": 2,
            "name": "Haggai 1:2",
            "text": "\"N\u00e4in sanoo Herra Sebaot: T\u00e4m\u00e4 kansa sanoo: Aika ei ole tullut rakentaa Herran huonetta.\" "
        },
        {
            "chapter": 1,
            "verse": 3,
            "name": "Haggai 1:3",
            "text": " Mutta profeetta Haggain kautta tuli t\u00e4m\u00e4 Herran sana:"
        },
        {
            "chapter": 1,
            "verse": 4,
            "name": "Haggai 1:4",
            "text": "\"Onko teid\u00e4n aika asua paneloiduissa huoneissanne, kun t\u00e4m\u00e4 huone on autiona? "
        },
        {
            "chapter": 1,
            "verse": 5,
            "name": "Haggai 1:5",
            "text": "Mutta nyt Herra Sebaot sanoo n\u00e4in: Ottakaa vaari teist\u00e4nne. "
        },
        {
            "chapter": 1,
            "verse": 6,
            "name": "Haggai 1:6",
            "text": "Kylv\u00e4tte paljon, mutta saatte v\u00e4h\u00e4n. Sy\u00f6tte, mutta ette tule kyll\u00e4isiksi. Juotte, mutta jano ei sammu. Pukeudutte, mutta ei tule l\u00e4mmin. Ty\u00f6mies panee palkkansa reik\u00e4iseen kukkaroon.  "
        },
        {
            "chapter": 1,
            "verse": 7,
            "name": "Haggai 1:7",
            "text": " N\u00e4in sanoo Herra Sebaot: Ottakaa vaari teist\u00e4nne. "
        },
        {
            "chapter": 1,
            "verse": 8,
            "name": "Haggai 1:8",
            "text": "Nouskaa vuorelle, tuokaa puita ja rakentakaa temppeli, niin miellyn siihen ja n\u00e4yt\u00e4n kunniani, sanoo Herra. "
        },
        {
            "chapter": 1,
            "verse": 9,
            "name": "Haggai 1:9",
            "text": "Odotatte saavanne paljon, mutta se j\u00e4\u00e4 v\u00e4hiin. Tuotte kotiin, mutta min\u00e4 puhallan sen pois. Mink\u00e4 t\u00e4hden? \u2013 T\u00e4m\u00e4 on Herran Sebaotin sana. \u2013 Huoneeni t\u00e4hden, koska se on autiona ja te juoksette kukin oman huoneenne hyv\u00e4ksi. "
        },
        {
            "chapter": 1,
            "verse": 10,
            "name": "Haggai 1:10",
            "text": "Sen t\u00e4hden taivas pid\u00e4tt\u00e4\u00e4 teilt\u00e4 kasteen ja maa pid\u00e4tt\u00e4\u00e4 satonsa. "
        },
        {
            "chapter": 1,
            "verse": 11,
            "name": "Haggai 1:11",
            "text": "Olen kutsunut kuivuuden maahan ja vuorille, viljalle, viinille ja \u00f6ljylle, ja maan tuotteille, ihmisille, el\u00e4imille ja kaikille k\u00e4den t\u00f6ille.\"  "
        },
        {
            "chapter": 1,
            "verse": 12,
            "name": "Haggai 1:12",
            "text": "   Serubbaabel, Sealtielin poika, ja ylimm\u00e4inen pappi Joosua, Joosadakin poika, ja kansan koko j\u00e4\u00e4nn\u00f6s kuuli Herran, Jumalansa \u00e4\u00e4nt\u00e4 ja profeetta Haggain sanoja, jota varten Herra, heid\u00e4n Jumalansa, oli h\u00e4net l\u00e4hett\u00e4nyt, ja kansa pelk\u00e4si Herraa.  "
        },
        {
            "chapter": 1,
            "verse": 13,
            "name": "Haggai 1:13",
            "text": " Haggai, Herran sanansaattaja, tuodessaan Herran sanan sanoi kansalle n\u00e4in: \"Min\u00e4 olen kanssanne\" \u2013 t\u00e4m\u00e4 on Herran sana.  "
        },
        {
            "chapter": 1,
            "verse": 14,
            "name": "Haggai 1:14",
            "text": " Herra her\u00e4tti Juudan k\u00e4skynhaltijan Serubbaabelin, Sealtielin pojan, hengen ja ylimm\u00e4isen papin Joosuan, Joosadakin pojan, hengen ja kansan koko j\u00e4\u00e4nn\u00f6ksen hengen, ja he tulivat ja ryhtyiv\u00e4t rakentamaan Herran Sebaotin, heid\u00e4n Jumalansa, temppeli\u00e4 "
        },
        {
            "chapter": 1,
            "verse": 15,
            "name": "Haggai 1:15",
            "text": "kahdentenakymmenenten\u00e4 nelj\u00e4nten\u00e4 p\u00e4iv\u00e4n\u00e4 kuudennessa kuussa, kuningas Daarejaveksen toisena vuotena.  "
        }
    ]
}