{
    "translation": "Thai from kjv",
    "abbreviation": "thai",
    "lang": "th",
    "language": "Thai",
    "direction": "LTR",
    "encoding": "UTF-8",
    "book_nr": 7,
    "book_name": "Judges",
    "chapter": 16,
    "name": "Judges 16",
    "verses": [
        {
            "chapter": 16,
            "verse": 1,
            "name": "Judges 16:1",
            "text": "\u0e41\u0e0b\u0e21\u0e2a\u0e31\u0e19\u0e44\u0e1b\u0e17\u0e35\u0e48\u0e40\u0e21\u0e37\u0e2d\u0e07\u0e01\u0e32\u0e0b\u0e32\u0e1e\u0e1a\u0e2b\u0e0d\u0e34\u0e07\u0e41\u0e1e\u0e28\u0e22\u0e32\u0e04\u0e19\u0e2b\u0e19\u0e36\u0e48\u0e07\u0e01\u0e47\u0e40\u0e02\u0e49\u0e32\u0e44\u0e1b\u0e19\u0e2d\u0e19\u0e14\u0e49\u0e27\u0e22"
        },
        {
            "chapter": 16,
            "verse": 2,
            "name": "Judges 16:2",
            "text": "\u0e21\u0e35\u0e04\u0e19\u0e44\u0e1b\u0e1a\u0e2d\u0e01\u0e0a\u0e32\u0e27\u0e01\u0e32\u0e0b\u0e32\u0e27\u0e48\u0e32 \u201c\u0e41\u0e0b\u0e21\u0e2a\u0e31\u0e19\u0e21\u0e32\u0e17\u0e35\u0e48\u0e19\u0e35\u0e48\u0e41\u0e25\u0e49\u0e27\u201d \u0e40\u0e02\u0e32\u0e01\u0e47\u0e25\u0e49\u0e2d\u0e21\u0e17\u0e35\u0e48\u0e19\u0e31\u0e49\u0e19\u0e44\u0e27\u0e49\u0e41\u0e25\u0e30\u0e04\u0e2d\u0e22\u0e0b\u0e38\u0e48\u0e21\u0e17\u0e35\u0e48\u0e1b\u0e23\u0e30\u0e15\u0e39\u0e40\u0e21\u0e37\u0e2d\u0e07\u0e15\u0e25\u0e2d\u0e14\u0e04\u0e37\u0e19 \u0e40\u0e02\u0e32\u0e0b\u0e38\u0e48\u0e21\u0e40\u0e07\u0e35\u0e22\u0e1a\u0e2d\u0e22\u0e39\u0e48\u0e04\u0e37\u0e19\u0e22\u0e31\u0e07\u0e23\u0e38\u0e48\u0e07\u0e01\u0e25\u0e48\u0e32\u0e27\u0e27\u0e48\u0e32 \u201c\u0e43\u0e2b\u0e49\u0e40\u0e23\u0e32\u0e23\u0e2d\u0e2d\u0e22\u0e39\u0e48\u0e08\u0e19\u0e23\u0e38\u0e48\u0e07\u0e40\u0e0a\u0e49\u0e32\u0e41\u0e25\u0e49\u0e27\u0e40\u0e23\u0e32\u0e08\u0e30\u0e06\u0e48\u0e32\u0e40\u0e02\u0e32\u0e40\u0e2a\u0e35\u0e22\u201d"
        },
        {
            "chapter": 16,
            "verse": 3,
            "name": "Judges 16:3",
            "text": "\u0e41\u0e15\u0e48\u0e41\u0e0b\u0e21\u0e2a\u0e31\u0e19\u0e19\u0e2d\u0e19\u0e2d\u0e22\u0e39\u0e48\u0e08\u0e19\u0e16\u0e36\u0e07\u0e40\u0e17\u0e35\u0e48\u0e22\u0e07\u0e04\u0e37\u0e19 \u0e1e\u0e2d\u0e16\u0e36\u0e07\u0e40\u0e17\u0e35\u0e48\u0e22\u0e07\u0e04\u0e37\u0e19\u0e17\u0e48\u0e32\u0e19\u0e01\u0e47\u0e25\u0e38\u0e01\u0e02\u0e36\u0e49\u0e19 \u0e22\u0e01\u0e1b\u0e23\u0e30\u0e15\u0e39\u0e40\u0e21\u0e37\u0e2d\u0e07\u0e23\u0e27\u0e21\u0e17\u0e31\u0e49\u0e07\u0e40\u0e2a\u0e32\u0e2a\u0e2d\u0e07\u0e15\u0e49\u0e19 \u0e1e\u0e23\u0e49\u0e2d\u0e21\u0e17\u0e31\u0e49\u0e07\u0e14\u0e32\u0e25\u0e1b\u0e23\u0e30\u0e15\u0e39\u0e43\u0e2a\u0e48\u0e1a\u0e48\u0e32\u0e41\u0e1a\u0e01\u0e44\u0e1b\u0e16\u0e36\u0e07\u0e22\u0e2d\u0e14\u0e20\u0e39\u0e40\u0e02\u0e32\u0e0b\u0e36\u0e48\u0e07\u0e2d\u0e22\u0e39\u0e48\u0e15\u0e23\u0e07\u0e2b\u0e19\u0e49\u0e32\u0e40\u0e21\u0e37\u0e2d\u0e07\u0e40\u0e2e\u0e42\u0e1a\u0e23\u0e19"
        },
        {
            "chapter": 16,
            "verse": 4,
            "name": "Judges 16:4",
            "text": "\u0e2d\u0e22\u0e39\u0e48\u0e21\u0e32\u0e20\u0e32\u0e22\u0e2b\u0e25\u0e31\u0e07 \u0e41\u0e0b\u0e21\u0e2a\u0e31\u0e19\u0e44\u0e1b\u0e23\u0e31\u0e01\u0e1c\u0e39\u0e49\u0e2b\u0e0d\u0e34\u0e07\u0e04\u0e19\u0e2b\u0e19\u0e36\u0e48\u0e07\u0e17\u0e35\u0e48\u0e2b\u0e38\u0e1a\u0e40\u0e02\u0e32\u0e40\u0e21\u0e37\u0e2d\u0e07\u0e42\u0e2a\u0e40\u0e23\u0e01 \u0e0a\u0e37\u0e48\u0e2d\u0e40\u0e14\u0e25\u0e34\u0e25\u0e32\u0e2b\u0e4c"
        },
        {
            "chapter": 16,
            "verse": 5,
            "name": "Judges 16:5",
            "text": "\u0e40\u0e08\u0e49\u0e32\u0e19\u0e32\u0e22\u0e1f\u0e35\u0e25\u0e34\u0e2a\u0e40\u0e15\u0e35\u0e22\u0e01\u0e47\u0e02\u0e36\u0e49\u0e19\u0e44\u0e1b\u0e2b\u0e32\u0e19\u0e32\u0e07\u0e1e\u0e39\u0e14\u0e01\u0e31\u0e1a\u0e19\u0e32\u0e07\u0e27\u0e48\u0e32 \u201c\u0e08\u0e07\u0e25\u0e27\u0e07\u0e40\u0e02\u0e32\u0e40\u0e1e\u0e37\u0e48\u0e2d\u0e14\u0e39\u0e27\u0e48\u0e32\u0e01\u0e33\u0e25\u0e31\u0e07\u0e21\u0e2b\u0e32\u0e28\u0e32\u0e25\u0e02\u0e2d\u0e07\u0e40\u0e02\u0e32\u0e2d\u0e22\u0e39\u0e48\u0e17\u0e35\u0e48\u0e44\u0e2b\u0e19 \u0e17\u0e33\u0e2d\u0e22\u0e48\u0e32\u0e07\u0e44\u0e23\u0e40\u0e23\u0e32\u0e08\u0e36\u0e07\u0e08\u0e30\u0e21\u0e35\u0e01\u0e33\u0e25\u0e31\u0e07\u0e40\u0e2b\u0e19\u0e37\u0e2d\u0e40\u0e02\u0e32 \u0e40\u0e1e\u0e37\u0e48\u0e2d\u0e40\u0e23\u0e32\u0e08\u0e30\u0e44\u0e14\u0e49\u0e21\u0e31\u0e14\u0e40\u0e02\u0e32\u0e43\u0e2b\u0e49\u0e2b\u0e21\u0e14\u0e24\u0e17\u0e18\u0e34\u0e4c \u0e40\u0e23\u0e32\u0e17\u0e38\u0e01\u0e04\u0e19\u0e08\u0e30\u0e43\u0e2b\u0e49\u0e40\u0e07\u0e34\u0e19\u0e40\u0e08\u0e49\u0e32\u0e04\u0e19\u0e25\u0e30\u0e1e\u0e31\u0e19\u0e2b\u0e19\u0e36\u0e48\u0e07\u0e23\u0e49\u0e2d\u0e22\u0e41\u0e1c\u0e48\u0e19\u201d"
        },
        {
            "chapter": 16,
            "verse": 6,
            "name": "Judges 16:6",
            "text": "\u0e40\u0e14\u0e25\u0e34\u0e25\u0e32\u0e2b\u0e4c\u0e08\u0e36\u0e07\u0e1e\u0e39\u0e14\u0e01\u0e31\u0e1a\u0e41\u0e0b\u0e21\u0e2a\u0e31\u0e19\u0e27\u0e48\u0e32 \u201c\u0e02\u0e2d\u0e1a\u0e2d\u0e01\u0e09\u0e31\u0e19\u0e2b\u0e19\u0e48\u0e2d\u0e22\u0e40\u0e16\u0e2d\u0e30\u0e27\u0e48\u0e32 \u0e01\u0e33\u0e25\u0e31\u0e07\u0e21\u0e2b\u0e32\u0e28\u0e32\u0e25\u0e02\u0e2d\u0e07\u0e17\u0e48\u0e32\u0e19\u0e2d\u0e22\u0e39\u0e48\u0e17\u0e35\u0e48\u0e44\u0e2b\u0e19 \u0e08\u0e30\u0e21\u0e31\u0e14\u0e17\u0e48\u0e32\u0e19\u0e44\u0e27\u0e49\u0e2d\u0e22\u0e48\u0e32\u0e07\u0e44\u0e23\u0e17\u0e48\u0e32\u0e19\u0e08\u0e36\u0e07\u0e08\u0e30\u0e2b\u0e21\u0e14\u0e24\u0e17\u0e18\u0e34\u0e4c\u201d"
        },
        {
            "chapter": 16,
            "verse": 7,
            "name": "Judges 16:7",
            "text": "\u0e41\u0e0b\u0e21\u0e2a\u0e31\u0e19\u0e08\u0e36\u0e07\u0e1a\u0e2d\u0e01\u0e19\u0e32\u0e07\u0e27\u0e48\u0e32 \u201c\u0e16\u0e49\u0e32\u0e40\u0e02\u0e32\u0e21\u0e31\u0e14\u0e02\u0e49\u0e32\u0e14\u0e49\u0e27\u0e22\u0e2a\u0e32\u0e22\u0e18\u0e19\u0e39\u0e2a\u0e14\u0e17\u0e35\u0e48\u0e22\u0e31\u0e07\u0e44\u0e21\u0e48\u0e41\u0e2b\u0e49\u0e07\u0e40\u0e08\u0e47\u0e14\u0e40\u0e2a\u0e49\u0e19 \u0e02\u0e49\u0e32\u0e08\u0e30\u0e2d\u0e48\u0e2d\u0e19\u0e40\u0e1e\u0e25\u0e35\u0e22 \u0e40\u0e2b\u0e21\u0e37\u0e2d\u0e19\u0e01\u0e31\u0e1a\u0e0a\u0e32\u0e22\u0e2d\u0e37\u0e48\u0e19\u0e46\u201d"
        },
        {
            "chapter": 16,
            "verse": 8,
            "name": "Judges 16:8",
            "text": "\u0e41\u0e25\u0e49\u0e27\u0e40\u0e08\u0e49\u0e32\u0e19\u0e32\u0e22\u0e1f\u0e35\u0e25\u0e34\u0e2a\u0e40\u0e15\u0e35\u0e22\u0e01\u0e47\u0e40\u0e2d\u0e32\u0e2a\u0e32\u0e22\u0e18\u0e19\u0e39\u0e2a\u0e14\u0e17\u0e35\u0e48\u0e22\u0e31\u0e07\u0e44\u0e21\u0e48\u0e41\u0e2b\u0e49\u0e07\u0e40\u0e08\u0e47\u0e14\u0e40\u0e2a\u0e49\u0e19\u0e21\u0e32\u0e43\u0e2b\u0e49\u0e19\u0e32\u0e07 \u0e19\u0e32\u0e07\u0e01\u0e47\u0e40\u0e2d\u0e32\u0e21\u0e32\u0e21\u0e31\u0e14\u0e17\u0e48\u0e32\u0e19\u0e44\u0e27\u0e49"
        },
        {
            "chapter": 16,
            "verse": 9,
            "name": "Judges 16:9",
            "text": "\u0e19\u0e32\u0e07\u0e08\u0e31\u0e14\u0e04\u0e19\u0e43\u0e2b\u0e49\u0e0b\u0e38\u0e48\u0e21\u0e2d\u0e22\u0e39\u0e48\u0e17\u0e35\u0e48\u0e2b\u0e49\u0e2d\u0e07\u0e0a\u0e31\u0e49\u0e19\u0e43\u0e19\u0e01\u0e31\u0e1a\u0e19\u0e32\u0e07 \u0e19\u0e32\u0e07\u0e01\u0e47\u0e1a\u0e2d\u0e01\u0e17\u0e48\u0e32\u0e19\u0e27\u0e48\u0e32 \u201c\u0e41\u0e0b\u0e21\u0e2a\u0e31\u0e19\u0e08\u0e4b\u0e32 \u0e04\u0e19\u0e1f\u0e35\u0e25\u0e34\u0e2a\u0e40\u0e15\u0e35\u0e22\u0e21\u0e32\u0e08\u0e31\u0e1a\u0e17\u0e48\u0e32\u0e19\u0e41\u0e25\u0e49\u0e27\u201d \u0e41\u0e0b\u0e21\u0e2a\u0e31\u0e19\u0e01\u0e47\u0e14\u0e36\u0e07\u0e2a\u0e32\u0e22\u0e18\u0e19\u0e39\u0e17\u0e35\u0e48\u0e21\u0e31\u0e14\u0e19\u0e31\u0e49\u0e19\u0e02\u0e32\u0e14\u0e40\u0e2b\u0e21\u0e37\u0e2d\u0e19\u0e40\u0e0a\u0e37\u0e2d\u0e01\u0e1b\u0e48\u0e32\u0e19\u0e02\u0e32\u0e14\u0e40\u0e21\u0e37\u0e48\u0e2d\u0e44\u0e14\u0e49\u0e01\u0e25\u0e34\u0e48\u0e19\u0e44\u0e1f \u0e40\u0e23\u0e37\u0e48\u0e2d\u0e07\u0e01\u0e33\u0e25\u0e31\u0e07\u0e02\u0e2d\u0e07\u0e17\u0e48\u0e32\u0e19\u0e08\u0e36\u0e07\u0e22\u0e31\u0e07\u0e44\u0e21\u0e48\u0e41\u0e08\u0e49\u0e07"
        },
        {
            "chapter": 16,
            "verse": 10,
            "name": "Judges 16:10",
            "text": "\u0e40\u0e14\u0e25\u0e34\u0e25\u0e32\u0e2b\u0e4c\u0e1e\u0e39\u0e14\u0e01\u0e31\u0e1a\u0e41\u0e0b\u0e21\u0e2a\u0e31\u0e19\u0e27\u0e48\u0e32 \u201c\u0e14\u0e39\u0e40\u0e16\u0e34\u0e14 \u0e17\u0e48\u0e32\u0e19\u0e2b\u0e25\u0e2d\u0e01\u0e09\u0e31\u0e19 \u0e41\u0e25\u0e30\u0e17\u0e48\u0e32\u0e19\u0e21\u0e38\u0e2a\u0e32\u0e15\u0e48\u0e2d\u0e09\u0e31\u0e19 \u0e1a\u0e31\u0e14\u0e19\u0e35\u0e49\u0e02\u0e2d\u0e1a\u0e2d\u0e01\u0e09\u0e31\u0e19\u0e2b\u0e19\u0e48\u0e2d\u0e22\u0e40\u0e16\u0e2d\u0e30\u0e27\u0e48\u0e32 \u0e08\u0e30\u0e21\u0e31\u0e14\u0e17\u0e48\u0e32\u0e19\u0e2d\u0e22\u0e48\u0e32\u0e07\u0e44\u0e23\u0e08\u0e36\u0e07\u0e08\u0e30\u0e2d\u0e22\u0e39\u0e48\u201d"
        },
        {
            "chapter": 16,
            "verse": 11,
            "name": "Judges 16:11",
            "text": "\u0e17\u0e48\u0e32\u0e19\u0e01\u0e47\u0e15\u0e2d\u0e1a\u0e19\u0e32\u0e07\u0e27\u0e48\u0e32 \u201c\u0e16\u0e49\u0e32\u0e40\u0e2d\u0e32\u0e40\u0e0a\u0e37\u0e2d\u0e01\u0e43\u0e2b\u0e21\u0e48\u0e17\u0e35\u0e48\u0e22\u0e31\u0e07\u0e44\u0e21\u0e48\u0e40\u0e04\u0e22\u0e43\u0e0a\u0e49\u0e21\u0e32\u0e21\u0e31\u0e14\u0e02\u0e49\u0e32 \u0e02\u0e49\u0e32\u0e01\u0e47\u0e08\u0e30\u0e2d\u0e48\u0e2d\u0e19\u0e01\u0e33\u0e25\u0e31\u0e07\u0e40\u0e2b\u0e21\u0e37\u0e2d\u0e19\u0e0a\u0e32\u0e22\u0e2d\u0e37\u0e48\u0e19\u201d"
        },
        {
            "chapter": 16,
            "verse": 12,
            "name": "Judges 16:12",
            "text": "\u0e40\u0e14\u0e25\u0e34\u0e25\u0e32\u0e2b\u0e4c\u0e08\u0e36\u0e07\u0e40\u0e2d\u0e32\u0e40\u0e0a\u0e37\u0e2d\u0e01\u0e43\u0e2b\u0e21\u0e48\u0e21\u0e31\u0e14\u0e17\u0e48\u0e32\u0e19\u0e44\u0e27\u0e49\u0e41\u0e25\u0e49\u0e27\u0e1a\u0e2d\u0e01\u0e17\u0e48\u0e32\u0e19\u0e27\u0e48\u0e32 \u201c\u0e41\u0e0b\u0e21\u0e2a\u0e31\u0e19\u0e08\u0e4b\u0e32 \u0e04\u0e19\u0e1f\u0e35\u0e25\u0e34\u0e2a\u0e40\u0e15\u0e35\u0e22\u0e21\u0e32\u0e08\u0e31\u0e1a\u0e17\u0e48\u0e32\u0e19\u0e41\u0e25\u0e49\u0e27\u201d \u0e41\u0e25\u0e30\u0e04\u0e19\u0e0b\u0e38\u0e48\u0e21\u0e04\u0e2d\u0e22\u0e2d\u0e22\u0e39\u0e48\u0e43\u0e19\u0e2b\u0e49\u0e2d\u0e07\u0e0a\u0e31\u0e49\u0e19\u0e43\u0e19 \u0e41\u0e15\u0e48\u0e17\u0e48\u0e32\u0e19\u0e01\u0e47\u0e14\u0e36\u0e07\u0e40\u0e0a\u0e37\u0e2d\u0e01\u0e2d\u0e2d\u0e01\u0e08\u0e32\u0e01\u0e41\u0e02\u0e19\u0e40\u0e2b\u0e21\u0e37\u0e2d\u0e19\u0e14\u0e36\u0e07\u0e40\u0e2a\u0e49\u0e19\u0e14\u0e49\u0e32\u0e22"
        },
        {
            "chapter": 16,
            "verse": 13,
            "name": "Judges 16:13",
            "text": "\u0e40\u0e14\u0e25\u0e34\u0e25\u0e32\u0e2b\u0e4c\u0e1e\u0e39\u0e14\u0e01\u0e31\u0e1a\u0e41\u0e0b\u0e21\u0e2a\u0e31\u0e19\u0e27\u0e48\u0e32 \u201c\u0e17\u0e48\u0e32\u0e19\u0e2b\u0e25\u0e2d\u0e01\u0e09\u0e31\u0e19\u0e40\u0e23\u0e37\u0e48\u0e2d\u0e22\u0e21\u0e32\u0e08\u0e19\u0e16\u0e36\u0e07\u0e40\u0e14\u0e35\u0e4b\u0e22\u0e27\u0e19\u0e35\u0e49 \u0e17\u0e48\u0e32\u0e19\u0e21\u0e38\u0e2a\u0e32\u0e15\u0e48\u0e2d\u0e09\u0e31\u0e19 \u0e1a\u0e2d\u0e01\u0e09\u0e31\u0e19\u0e40\u0e16\u0e2d\u0e30\u0e27\u0e48\u0e32 \u0e08\u0e30\u0e21\u0e31\u0e14\u0e17\u0e48\u0e32\u0e19\u0e2d\u0e22\u0e48\u0e32\u0e07\u0e44\u0e23\u0e08\u0e36\u0e07\u0e08\u0e30\u0e2d\u0e22\u0e39\u0e48\u201d \u0e17\u0e48\u0e32\u0e19\u0e08\u0e36\u0e07\u0e1a\u0e2d\u0e01\u0e19\u0e32\u0e07\u0e27\u0e48\u0e32 \u201c\u0e16\u0e49\u0e32\u0e40\u0e08\u0e49\u0e32\u0e40\u0e2d\u0e32\u0e1c\u0e21\u0e17\u0e31\u0e49\u0e07\u0e40\u0e08\u0e47\u0e14\u0e41\u0e2b\u0e22\u0e21\u0e02\u0e2d\u0e07\u0e02\u0e49\u0e32\u0e17\u0e2d\u0e40\u0e02\u0e49\u0e32\u0e01\u0e31\u0e1a\u0e14\u0e49\u0e32\u0e22\u0e40\u0e2a\u0e49\u0e19\u0e22\u0e37\u0e19 \u0e01\u0e23\u0e30\u0e17\u0e01\u0e14\u0e49\u0e27\u0e22\u0e1f\u0e37\u0e21\u0e43\u0e2b\u0e49\u0e41\u0e19\u0e48\u0e19\u201d"
        },
        {
            "chapter": 16,
            "verse": 14,
            "name": "Judges 16:14",
            "text": "\u0e40\u0e14\u0e25\u0e34\u0e25\u0e32\u0e2b\u0e4c\u0e08\u0e36\u0e07\u0e40\u0e2d\u0e32\u0e1c\u0e21\u0e17\u0e31\u0e49\u0e07\u0e40\u0e08\u0e47\u0e14\u0e41\u0e2b\u0e22\u0e21\u0e17\u0e2d\u0e40\u0e02\u0e49\u0e32\u0e01\u0e31\u0e1a\u0e14\u0e49\u0e32\u0e22\u0e40\u0e2a\u0e49\u0e19\u0e22\u0e37\u0e19\u0e01\u0e23\u0e30\u0e17\u0e01\u0e14\u0e49\u0e27\u0e22\u0e1f\u0e37\u0e21\u0e43\u0e2b\u0e49\u0e41\u0e19\u0e48\u0e19 \u0e41\u0e25\u0e49\u0e27\u0e19\u0e32\u0e07\u0e1a\u0e2d\u0e01\u0e17\u0e48\u0e32\u0e19\u0e27\u0e48\u0e32 \u201c\u0e41\u0e0b\u0e21\u0e2a\u0e31\u0e19\u0e08\u0e4b\u0e32 \u0e04\u0e19\u0e1f\u0e35\u0e25\u0e34\u0e2a\u0e40\u0e15\u0e35\u0e22\u0e21\u0e32\u0e08\u0e31\u0e1a\u0e17\u0e48\u0e32\u0e19\u0e41\u0e25\u0e49\u0e27\u201d \u0e17\u0e48\u0e32\u0e19\u0e01\u0e47\u0e15\u0e37\u0e48\u0e19\u0e02\u0e36\u0e49\u0e19\u0e14\u0e36\u0e07\u0e1f\u0e37\u0e21 \u0e2b\u0e39\u0e01\u0e41\u0e25\u0e30\u0e14\u0e49\u0e32\u0e22\u0e40\u0e2a\u0e49\u0e19\u0e22\u0e37\u0e19\u0e44\u0e1b\u0e2b\u0e21\u0e14"
        },
        {
            "chapter": 16,
            "verse": 15,
            "name": "Judges 16:15",
            "text": "\u0e19\u0e32\u0e07\u0e08\u0e36\u0e07\u0e1e\u0e39\u0e14\u0e01\u0e31\u0e1a\u0e41\u0e0b\u0e21\u0e2a\u0e31\u0e19\u0e27\u0e48\u0e32 \u201c\u0e17\u0e48\u0e32\u0e19\u0e1e\u0e39\u0e14\u0e44\u0e14\u0e49\u0e2d\u0e22\u0e48\u0e32\u0e07\u0e44\u0e23\u0e27\u0e48\u0e32 \u2018\u0e02\u0e49\u0e32\u0e23\u0e31\u0e01\u0e40\u0e08\u0e49\u0e32\u2019 \u0e40\u0e21\u0e37\u0e48\u0e2d\u0e08\u0e34\u0e15\u0e43\u0e08\u0e02\u0e2d\u0e07\u0e17\u0e48\u0e32\u0e19\u0e44\u0e21\u0e48\u0e44\u0e14\u0e49\u0e2d\u0e22\u0e39\u0e48\u0e01\u0e31\u0e1a\u0e09\u0e31\u0e19\u0e40\u0e25\u0e22 \u0e17\u0e48\u0e32\u0e19\u0e2b\u0e25\u0e2d\u0e01\u0e09\u0e31\u0e19\u0e2a\u0e32\u0e21\u0e04\u0e23\u0e31\u0e49\u0e07\u0e41\u0e25\u0e49\u0e27 \u0e41\u0e25\u0e30\u0e17\u0e48\u0e32\u0e19\u0e21\u0e34\u0e44\u0e14\u0e49\u0e1a\u0e2d\u0e01\u0e09\u0e31\u0e19\u0e08\u0e23\u0e34\u0e07\u0e46\u0e27\u0e48\u0e32\u0e01\u0e33\u0e25\u0e31\u0e07\u0e21\u0e2b\u0e32\u0e28\u0e32\u0e25\u0e02\u0e2d\u0e07\u0e17\u0e48\u0e32\u0e19\u0e2d\u0e22\u0e39\u0e48\u0e17\u0e35\u0e48\u0e44\u0e2b\u0e19\u201d"
        },
        {
            "chapter": 16,
            "verse": 16,
            "name": "Judges 16:16",
            "text": "\u0e2d\u0e22\u0e39\u0e48\u0e21\u0e32\u0e40\u0e21\u0e37\u0e48\u0e2d\u0e19\u0e32\u0e07\u0e1e\u0e39\u0e14\u0e04\u0e32\u0e14\u0e04\u0e31\u0e49\u0e19\u0e17\u0e48\u0e32\u0e19\u0e27\u0e31\u0e19\u0e41\u0e25\u0e49\u0e27\u0e27\u0e31\u0e19\u0e40\u0e25\u0e48\u0e32 \u0e41\u0e25\u0e30\u0e0a\u0e31\u0e01\u0e0a\u0e27\u0e19\u0e17\u0e48\u0e32\u0e19\u0e2d\u0e22\u0e39\u0e48\u0e17\u0e38\u0e01\u0e27\u0e31\u0e19 \u0e08\u0e34\u0e15\u0e43\u0e08\u0e02\u0e2d\u0e07\u0e41\u0e0b\u0e21\u0e2a\u0e31\u0e19\u0e01\u0e47\u0e40\u0e1a\u0e37\u0e48\u0e2d\u0e41\u0e17\u0e1a\u0e08\u0e30\u0e15\u0e32\u0e22"
        },
        {
            "chapter": 16,
            "verse": 17,
            "name": "Judges 16:17",
            "text": "\u0e08\u0e36\u0e07\u0e1a\u0e2d\u0e01\u0e04\u0e27\u0e32\u0e21\u0e08\u0e23\u0e34\u0e07\u0e43\u0e19\u0e43\u0e08\u0e02\u0e2d\u0e07\u0e17\u0e48\u0e32\u0e19\u0e41\u0e01\u0e48\u0e19\u0e32\u0e07\u0e08\u0e19\u0e2a\u0e34\u0e49\u0e19\u0e27\u0e48\u0e32 \u201c\u0e21\u0e35\u0e14\u0e42\u0e01\u0e19\u0e22\u0e31\u0e07\u0e44\u0e21\u0e48\u0e40\u0e04\u0e22\u0e16\u0e39\u0e01\u0e28\u0e35\u0e23\u0e29\u0e30\u0e02\u0e2d\u0e07\u0e02\u0e49\u0e32 \u0e40\u0e1e\u0e23\u0e32\u0e30\u0e02\u0e49\u0e32\u0e40\u0e1b\u0e47\u0e19\u0e1e\u0e27\u0e01\u0e19\u0e32\u0e28\u0e35\u0e23\u0e4c\u0e41\u0e14\u0e48\u0e1e\u0e23\u0e30\u0e40\u0e08\u0e49\u0e32\u0e15\u0e31\u0e49\u0e07\u0e41\u0e15\u0e48\u0e2d\u0e22\u0e39\u0e48\u0e43\u0e19\u0e04\u0e23\u0e23\u0e20\u0e4c\u0e02\u0e2d\u0e07\u0e21\u0e32\u0e23\u0e14\u0e32 \u0e16\u0e49\u0e32\u0e42\u0e01\u0e19\u0e1c\u0e21\u0e02\u0e49\u0e32\u0e40\u0e2a\u0e35\u0e22 \u0e01\u0e33\u0e25\u0e31\u0e07\u0e01\u0e47\u0e08\u0e30\u0e2b\u0e21\u0e14\u0e44\u0e1b\u0e08\u0e32\u0e01\u0e02\u0e49\u0e32 \u0e02\u0e49\u0e32\u0e01\u0e47\u0e08\u0e30\u0e2d\u0e48\u0e2d\u0e19\u0e40\u0e1e\u0e25\u0e35\u0e22\u0e40\u0e2b\u0e21\u0e37\u0e2d\u0e19\u0e0a\u0e32\u0e22\u0e2d\u0e37\u0e48\u0e19\u201d"
        },
        {
            "chapter": 16,
            "verse": 18,
            "name": "Judges 16:18",
            "text": "\u0e40\u0e21\u0e37\u0e48\u0e2d\u0e40\u0e14\u0e25\u0e34\u0e25\u0e32\u0e2b\u0e4c\u0e40\u0e2b\u0e47\u0e19\u0e27\u0e48\u0e32\u0e17\u0e48\u0e32\u0e19\u0e1a\u0e2d\u0e01\u0e04\u0e27\u0e32\u0e21\u0e08\u0e23\u0e34\u0e07\u0e43\u0e19\u0e43\u0e08\u0e41\u0e01\u0e48\u0e19\u0e32\u0e07\u0e08\u0e19\u0e2a\u0e34\u0e49\u0e19\u0e41\u0e25\u0e49\u0e27 \u0e19\u0e32\u0e07\u0e08\u0e36\u0e07\u0e43\u0e0a\u0e49\u0e04\u0e19\u0e44\u0e1b\u0e40\u0e23\u0e35\u0e22\u0e01\u0e40\u0e08\u0e49\u0e32\u0e19\u0e32\u0e22\u0e1f\u0e35\u0e25\u0e34\u0e2a\u0e40\u0e15\u0e35\u0e22\u0e27\u0e48\u0e32 \u201c\u0e02\u0e2d\u0e08\u0e07\u0e02\u0e36\u0e49\u0e19\u0e21\u0e32\u0e2d\u0e35\u0e01\u0e04\u0e23\u0e31\u0e49\u0e07\u0e40\u0e14\u0e35\u0e22\u0e27 \u0e40\u0e1e\u0e23\u0e32\u0e30\u0e40\u0e02\u0e32\u0e1a\u0e2d\u0e01\u0e04\u0e27\u0e32\u0e21\u0e08\u0e23\u0e34\u0e07\u0e43\u0e19\u0e43\u0e08\u0e41\u0e01\u0e48\u0e09\u0e31\u0e19\u0e08\u0e19\u0e2a\u0e34\u0e49\u0e19\u0e41\u0e25\u0e49\u0e27\u201d \u0e41\u0e25\u0e49\u0e27\u0e40\u0e08\u0e49\u0e32\u0e19\u0e32\u0e22\u0e1f\u0e35\u0e25\u0e34\u0e2a\u0e40\u0e15\u0e35\u0e22\u0e01\u0e47\u0e02\u0e36\u0e49\u0e19\u0e21\u0e32\u0e2b\u0e32\u0e19\u0e32\u0e07\u0e16\u0e37\u0e2d\u0e40\u0e07\u0e34\u0e19\u0e21\u0e32\u0e14\u0e49\u0e27\u0e22"
        },
        {
            "chapter": 16,
            "verse": 19,
            "name": "Judges 16:19",
            "text": "\u0e19\u0e32\u0e07\u0e01\u0e47\u0e43\u0e2b\u0e49\u0e41\u0e0b\u0e21\u0e2a\u0e31\u0e19\u0e19\u0e2d\u0e19\u0e2d\u0e22\u0e39\u0e48\u0e1a\u0e19\u0e15\u0e31\u0e01\u0e02\u0e2d\u0e07\u0e19\u0e32\u0e07 \u0e41\u0e25\u0e49\u0e27\u0e19\u0e32\u0e07\u0e01\u0e47\u0e40\u0e23\u0e35\u0e22\u0e01\u0e0a\u0e32\u0e22\u0e04\u0e19\u0e2b\u0e19\u0e36\u0e48\u0e07\u0e43\u0e2b\u0e49\u0e21\u0e32\u0e42\u0e01\u0e19\u0e1c\u0e21\u0e40\u0e08\u0e47\u0e14\u0e41\u0e2b\u0e22\u0e21\u0e2d\u0e2d\u0e01\u0e08\u0e32\u0e01\u0e28\u0e35\u0e23\u0e29\u0e30\u0e02\u0e2d\u0e07\u0e17\u0e48\u0e32\u0e19 \u0e19\u0e32\u0e07\u0e01\u0e47\u0e15\u0e31\u0e49\u0e07\u0e15\u0e49\u0e19\u0e23\u0e1a\u0e01\u0e27\u0e19\u0e41\u0e0b\u0e21\u0e2a\u0e31\u0e19 \u0e01\u0e33\u0e25\u0e31\u0e07\u0e02\u0e2d\u0e07\u0e41\u0e0b\u0e21\u0e2a\u0e31\u0e19\u0e01\u0e47\u0e2b\u0e21\u0e14\u0e44\u0e1b"
        },
        {
            "chapter": 16,
            "verse": 20,
            "name": "Judges 16:20",
            "text": "\u0e19\u0e32\u0e07\u0e08\u0e36\u0e07\u0e1a\u0e2d\u0e01\u0e27\u0e48\u0e32 \u201c\u0e41\u0e0b\u0e21\u0e2a\u0e31\u0e19\u0e08\u0e4b\u0e32 \u0e04\u0e19\u0e1f\u0e35\u0e25\u0e34\u0e2a\u0e40\u0e15\u0e35\u0e22\u0e21\u0e32\u0e08\u0e31\u0e1a\u0e17\u0e48\u0e32\u0e19\u0e41\u0e25\u0e49\u0e27\u201d \u0e17\u0e48\u0e32\u0e19\u0e01\u0e47\u0e15\u0e37\u0e48\u0e19\u0e02\u0e36\u0e49\u0e19\u0e08\u0e32\u0e01\u0e2b\u0e25\u0e31\u0e1a\u0e1a\u0e2d\u0e01\u0e27\u0e48\u0e32 \u201c\u0e02\u0e49\u0e32\u0e08\u0e30\u0e2d\u0e2d\u0e01\u0e44\u0e1b\u0e2d\u0e22\u0e48\u0e32\u0e07\u0e04\u0e23\u0e31\u0e49\u0e07\u0e01\u0e48\u0e2d\u0e19\u0e46 \u0e41\u0e25\u0e30\u0e2a\u0e25\u0e31\u0e14\u0e15\u0e31\u0e27\u0e43\u0e2b\u0e49\u0e2b\u0e25\u0e38\u0e14\u0e44\u0e1b\u201d \u0e17\u0e48\u0e32\u0e19\u0e2b\u0e32\u0e17\u0e23\u0e32\u0e1a\u0e44\u0e21\u0e48\u0e27\u0e48\u0e32\u0e1e\u0e23\u0e30\u0e40\u0e22\u0e42\u0e2e\u0e27\u0e32\u0e2b\u0e4c\u0e44\u0e14\u0e49\u0e17\u0e23\u0e07\u0e25\u0e30\u0e17\u0e48\u0e32\u0e19\u0e44\u0e1b\u0e40\u0e2a\u0e35\u0e22\u0e41\u0e25\u0e49\u0e27"
        },
        {
            "chapter": 16,
            "verse": 21,
            "name": "Judges 16:21",
            "text": "\u0e04\u0e19\u0e1f\u0e35\u0e25\u0e34\u0e2a\u0e40\u0e15\u0e35\u0e22\u0e01\u0e47\u0e21\u0e32\u0e08\u0e31\u0e1a\u0e17\u0e48\u0e32\u0e19\u0e17\u0e30\u0e25\u0e27\u0e07\u0e15\u0e32\u0e02\u0e2d\u0e07\u0e17\u0e48\u0e32\u0e19\u0e40\u0e2a\u0e35\u0e22 \u0e19\u0e33\u0e17\u0e48\u0e32\u0e19\u0e25\u0e07\u0e21\u0e32\u0e17\u0e35\u0e48\u0e01\u0e32\u0e0b\u0e32 \u0e40\u0e2d\u0e32\u0e15\u0e23\u0e27\u0e19\u0e17\u0e2d\u0e07\u0e40\u0e2b\u0e25\u0e37\u0e2d\u0e07\u0e25\u0e48\u0e32\u0e21\u0e44\u0e27\u0e49 \u0e41\u0e25\u0e30\u0e43\u0e2b\u0e49\u0e17\u0e48\u0e32\u0e19\u0e42\u0e21\u0e48\u0e41\u0e1b\u0e49\u0e07\u0e2d\u0e22\u0e39\u0e48\u0e17\u0e35\u0e48\u0e43\u0e19\u0e40\u0e23\u0e37\u0e2d\u0e19\u0e08\u0e33"
        },
        {
            "chapter": 16,
            "verse": 22,
            "name": "Judges 16:22",
            "text": "\u0e15\u0e31\u0e49\u0e07\u0e41\u0e15\u0e48\u0e42\u0e01\u0e19\u0e1c\u0e21\u0e41\u0e25\u0e49\u0e27 \u0e1c\u0e21\u0e17\u0e35\u0e48\u0e28\u0e35\u0e23\u0e29\u0e30\u0e02\u0e2d\u0e07\u0e17\u0e48\u0e32\u0e19\u0e01\u0e47\u0e04\u0e48\u0e2d\u0e22\u0e46\u0e07\u0e2d\u0e01\u0e02\u0e36\u0e49\u0e19\u0e21\u0e32"
        },
        {
            "chapter": 16,
            "verse": 23,
            "name": "Judges 16:23",
            "text": "\u0e1d\u0e48\u0e32\u0e22\u0e40\u0e08\u0e49\u0e32\u0e19\u0e32\u0e22\u0e1f\u0e35\u0e25\u0e34\u0e2a\u0e40\u0e15\u0e35\u0e22\u0e1b\u0e23\u0e30\u0e0a\u0e38\u0e21\u0e01\u0e31\u0e19\u0e40\u0e1e\u0e37\u0e48\u0e2d\u0e16\u0e27\u0e32\u0e22\u0e40\u0e04\u0e23\u0e37\u0e48\u0e2d\u0e07\u0e2a\u0e31\u0e15\u0e27\u0e1a\u0e39\u0e0a\u0e32\u0e22\u0e34\u0e48\u0e07\u0e43\u0e2b\u0e0d\u0e48\u0e41\u0e01\u0e48\u0e1e\u0e23\u0e30\u0e14\u0e32\u0e42\u0e01\u0e19\u0e1e\u0e23\u0e30\u0e02\u0e2d\u0e07\u0e40\u0e02\u0e32\u0e17\u0e31\u0e49\u0e07\u0e2b\u0e25\u0e32\u0e22\u0e41\u0e25\u0e30\u0e0a\u0e37\u0e48\u0e19\u0e0a\u0e21\u0e22\u0e34\u0e19\u0e14\u0e35 \u0e40\u0e1e\u0e23\u0e32\u0e30\u0e40\u0e02\u0e32\u0e01\u0e25\u0e48\u0e32\u0e27\u0e27\u0e48\u0e32 \u201c\u0e1e\u0e23\u0e30\u0e02\u0e2d\u0e07\u0e40\u0e23\u0e32\u0e44\u0e14\u0e49\u0e21\u0e2d\u0e1a\u0e41\u0e0b\u0e21\u0e2a\u0e31\u0e19\u0e28\u0e31\u0e15\u0e23\u0e39\u0e02\u0e2d\u0e07\u0e40\u0e23\u0e32\u0e44\u0e27\u0e49\u0e43\u0e19\u0e21\u0e37\u0e2d\u0e40\u0e23\u0e32\u0e41\u0e25\u0e49\u0e27\u201d"
        },
        {
            "chapter": 16,
            "verse": 24,
            "name": "Judges 16:24",
            "text": "\u0e40\u0e21\u0e37\u0e48\u0e2d\u0e1b\u0e23\u0e30\u0e0a\u0e32\u0e0a\u0e19\u0e40\u0e2b\u0e47\u0e19\u0e41\u0e0b\u0e21\u0e2a\u0e31\u0e19\u0e01\u0e47\u0e2a\u0e23\u0e23\u0e40\u0e2a\u0e23\u0e34\u0e0d\u0e1e\u0e23\u0e30\u0e02\u0e2d\u0e07\u0e15\u0e19\u0e27\u0e48\u0e32 \u201c\u0e1e\u0e23\u0e30\u0e02\u0e2d\u0e07\u0e40\u0e23\u0e32\u0e44\u0e14\u0e49\u0e21\u0e2d\u0e1a\u0e28\u0e31\u0e15\u0e23\u0e39\u0e1c\u0e39\u0e49\u0e17\u0e33\u0e25\u0e32\u0e22\u0e41\u0e1c\u0e48\u0e19\u0e14\u0e34\u0e19\u0e02\u0e2d\u0e07\u0e40\u0e23\u0e32\u0e44\u0e27\u0e49\u0e43\u0e19\u0e21\u0e37\u0e2d\u0e02\u0e2d\u0e07\u0e40\u0e23\u0e32 \u0e41\u0e25\u0e30\u0e40\u0e02\u0e32\u0e06\u0e48\u0e32\u0e1e\u0e27\u0e01\u0e40\u0e23\u0e32\u0e40\u0e2a\u0e35\u0e22\u0e40\u0e1b\u0e47\u0e19\u0e2d\u0e31\u0e19\u0e21\u0e32\u0e01\u201d"
        },
        {
            "chapter": 16,
            "verse": 25,
            "name": "Judges 16:25",
            "text": "\u0e15\u0e48\u0e2d\u0e21\u0e32\u0e40\u0e21\u0e37\u0e48\u0e2d\u0e08\u0e34\u0e15\u0e43\u0e08\u0e02\u0e2d\u0e07\u0e40\u0e02\u0e32\u0e23\u0e48\u0e32\u0e40\u0e23\u0e34\u0e07\u0e40\u0e15\u0e47\u0e21\u0e17\u0e35\u0e48\u0e41\u0e25\u0e49\u0e27 \u0e40\u0e02\u0e32\u0e08\u0e36\u0e07\u0e1e\u0e39\u0e14\u0e27\u0e48\u0e32 \u201c\u0e08\u0e07\u0e40\u0e23\u0e35\u0e22\u0e01\u0e41\u0e0b\u0e21\u0e2a\u0e31\u0e19\u0e21\u0e32\u0e40\u0e25\u0e48\u0e19\u0e15\u0e25\u0e01\u0e43\u0e2b\u0e49\u0e40\u0e23\u0e32\u0e14\u0e39\u201d \u0e40\u0e02\u0e32\u0e08\u0e36\u0e07\u0e44\u0e1b\u0e40\u0e23\u0e35\u0e22\u0e01\u0e41\u0e0b\u0e21\u0e2a\u0e31\u0e19\u0e2d\u0e2d\u0e01\u0e21\u0e32\u0e08\u0e32\u0e01\u0e40\u0e23\u0e37\u0e2d\u0e19\u0e08\u0e33 \u0e41\u0e0b\u0e21\u0e2a\u0e31\u0e19\u0e01\u0e47\u0e21\u0e32\u0e40\u0e25\u0e48\u0e19\u0e15\u0e25\u0e01\u0e15\u0e48\u0e2d\u0e2b\u0e19\u0e49\u0e32\u0e40\u0e02\u0e32 \u0e40\u0e02\u0e32\u0e1e\u0e32\u0e17\u0e48\u0e32\u0e19\u0e21\u0e32\u0e22\u0e37\u0e19\u0e2d\u0e22\u0e39\u0e48\u0e23\u0e30\u0e2b\u0e27\u0e48\u0e32\u0e07\u0e40\u0e2a\u0e32"
        },
        {
            "chapter": 16,
            "verse": 26,
            "name": "Judges 16:26",
            "text": "\u0e41\u0e0b\u0e21\u0e2a\u0e31\u0e19\u0e08\u0e36\u0e07\u0e1a\u0e2d\u0e01\u0e40\u0e14\u0e47\u0e01\u0e17\u0e35\u0e48\u0e08\u0e39\u0e07\u0e21\u0e37\u0e2d\u0e15\u0e19\u0e21\u0e32\u0e27\u0e48\u0e32 \u201c\u0e02\u0e2d\u0e1e\u0e32\u0e02\u0e49\u0e32\u0e43\u0e2b\u0e49\u0e44\u0e1b\u0e04\u0e25\u0e33\u0e40\u0e2a\u0e32\u0e17\u0e35\u0e48\u0e23\u0e2d\u0e07\u0e23\u0e31\u0e1a\u0e15\u0e36\u0e01\u0e19\u0e35\u0e49\u0e2d\u0e22\u0e39\u0e48 \u0e02\u0e49\u0e32\u0e08\u0e30\u0e44\u0e14\u0e49\u0e1e\u0e34\u0e07\u0e40\u0e2a\u0e32\u0e19\u0e31\u0e49\u0e19\u201d"
        },
        {
            "chapter": 16,
            "verse": 27,
            "name": "Judges 16:27",
            "text": "\u0e21\u0e35\u0e1c\u0e39\u0e49\u0e0a\u0e32\u0e22\u0e41\u0e25\u0e30\u0e1c\u0e39\u0e49\u0e2b\u0e0d\u0e34\u0e07\u0e2d\u0e22\u0e39\u0e48\u0e40\u0e15\u0e47\u0e21\u0e15\u0e36\u0e01\u0e19\u0e31\u0e49\u0e19 \u0e40\u0e08\u0e49\u0e32\u0e19\u0e32\u0e22\u0e1f\u0e35\u0e25\u0e34\u0e2a\u0e40\u0e15\u0e35\u0e22\u0e01\u0e47\u0e2d\u0e22\u0e39\u0e48\u0e17\u0e35\u0e48\u0e19\u0e31\u0e48\u0e19\u0e17\u0e31\u0e49\u0e07\u0e2b\u0e21\u0e14 \u0e19\u0e2d\u0e01\u0e08\u0e32\u0e01\u0e19\u0e31\u0e49\u0e19\u0e22\u0e31\u0e07\u0e21\u0e35\u0e0a\u0e32\u0e22\u0e2b\u0e0d\u0e34\u0e07\u0e1b\u0e23\u0e30\u0e21\u0e32\u0e13\u0e2a\u0e32\u0e21\u0e1e\u0e31\u0e19\u0e04\u0e19\u0e1a\u0e19\u0e2b\u0e25\u0e31\u0e07\u0e04\u0e32\u0e15\u0e36\u0e01 \u0e14\u0e39\u0e41\u0e0b\u0e21\u0e2a\u0e31\u0e19\u0e40\u0e25\u0e48\u0e19\u0e15\u0e25\u0e01"
        },
        {
            "chapter": 16,
            "verse": 28,
            "name": "Judges 16:28",
            "text": "\u0e1d\u0e48\u0e32\u0e22\u0e41\u0e0b\u0e21\u0e2a\u0e31\u0e19\u0e01\u0e47\u0e23\u0e49\u0e2d\u0e07\u0e17\u0e39\u0e25\u0e15\u0e48\u0e2d\u0e1e\u0e23\u0e30\u0e40\u0e22\u0e42\u0e2e\u0e27\u0e32\u0e2b\u0e4c\u0e27\u0e48\u0e32 \u201c\u0e42\u0e2d \u0e02\u0e49\u0e32\u0e41\u0e15\u0e48\u0e2d\u0e07\u0e04\u0e4c\u0e1e\u0e23\u0e30\u0e1c\u0e39\u0e49\u0e40\u0e1b\u0e47\u0e19\u0e40\u0e08\u0e49\u0e32\u0e1e\u0e23\u0e30\u0e40\u0e08\u0e49\u0e32 \u0e02\u0e2d\u0e17\u0e23\u0e07\u0e23\u0e30\u0e25\u0e36\u0e01\u0e16\u0e36\u0e07\u0e02\u0e49\u0e32\u0e1e\u0e23\u0e30\u0e2d\u0e07\u0e04\u0e4c \u0e02\u0e2d\u0e1b\u0e23\u0e30\u0e17\u0e32\u0e19\u0e01\u0e33\u0e25\u0e31\u0e07\u0e41\u0e01\u0e48\u0e02\u0e49\u0e32\u0e1e\u0e23\u0e30\u0e2d\u0e07\u0e04\u0e4c\u0e04\u0e23\u0e31\u0e49\u0e07\u0e19\u0e35\u0e49\u0e2d\u0e35\u0e01\u0e04\u0e23\u0e31\u0e49\u0e07\u0e40\u0e14\u0e35\u0e22\u0e27 \u0e42\u0e2d \u0e02\u0e49\u0e32\u0e41\u0e15\u0e48\u0e1e\u0e23\u0e30\u0e40\u0e08\u0e49\u0e32 \u0e40\u0e1e\u0e37\u0e48\u0e2d\u0e43\u0e19\u0e40\u0e27\u0e25\u0e32\u0e19\u0e35\u0e49\u0e02\u0e49\u0e32\u0e1e\u0e23\u0e30\u0e2d\u0e07\u0e04\u0e4c\u0e08\u0e30\u0e44\u0e14\u0e49\u0e41\u0e01\u0e49\u0e41\u0e04\u0e49\u0e19\u0e04\u0e19\u0e1f\u0e35\u0e25\u0e34\u0e2a\u0e40\u0e15\u0e35\u0e22\u0e40\u0e1e\u0e37\u0e48\u0e2d\u0e15\u0e32\u0e17\u0e31\u0e49\u0e07\u0e2a\u0e2d\u0e07\u0e02\u0e49\u0e32\u0e07\u0e02\u0e2d\u0e07\u0e02\u0e49\u0e32\u0e1e\u0e23\u0e30\u0e2d\u0e07\u0e04\u0e4c\u201d"
        },
        {
            "chapter": 16,
            "verse": 29,
            "name": "Judges 16:29",
            "text": "\u0e41\u0e0b\u0e21\u0e2a\u0e31\u0e19\u0e01\u0e47\u0e01\u0e2d\u0e14\u0e40\u0e2a\u0e32\u0e01\u0e25\u0e32\u0e07\u0e2a\u0e2d\u0e07\u0e15\u0e49\u0e19\u0e17\u0e35\u0e48\u0e23\u0e2d\u0e07\u0e23\u0e31\u0e1a\u0e15\u0e36\u0e01\u0e19\u0e31\u0e49\u0e19\u0e44\u0e27\u0e49\u0e41\u0e25\u0e30\u0e1e\u0e31\u0e01\u0e1e\u0e34\u0e07\u0e17\u0e35\u0e48\u0e40\u0e2a\u0e32\u0e19\u0e31\u0e49\u0e19 \u0e21\u0e37\u0e2d\u0e02\u0e27\u0e32\u0e22\u0e31\u0e19\u0e40\u0e2a\u0e32\u0e15\u0e49\u0e19\u0e2b\u0e19\u0e36\u0e48\u0e07 \u0e21\u0e37\u0e2d\u0e0b\u0e49\u0e32\u0e22\u0e22\u0e31\u0e19\u0e40\u0e2a\u0e32\u0e2d\u0e35\u0e01\u0e15\u0e49\u0e19\u0e2b\u0e19\u0e36\u0e48\u0e07"
        },
        {
            "chapter": 16,
            "verse": 30,
            "name": "Judges 16:30",
            "text": "\u0e41\u0e0b\u0e21\u0e2a\u0e31\u0e19\u0e01\u0e25\u0e48\u0e32\u0e27\u0e27\u0e48\u0e32 \u201c\u0e02\u0e2d\u0e43\u0e2b\u0e49\u0e02\u0e49\u0e32\u0e15\u0e32\u0e22\u0e01\u0e31\u0e1a\u0e04\u0e19\u0e1f\u0e35\u0e25\u0e34\u0e2a\u0e40\u0e15\u0e35\u0e22\u0e40\u0e16\u0e34\u0e14\u201d \u0e41\u0e25\u0e49\u0e27\u0e01\u0e47\u0e42\u0e19\u0e49\u0e21\u0e15\u0e31\u0e27\u0e25\u0e07\u0e14\u0e49\u0e27\u0e22\u0e01\u0e33\u0e25\u0e31\u0e07\u0e17\u0e31\u0e49\u0e07\u0e2a\u0e34\u0e49\u0e19\u0e02\u0e2d\u0e07\u0e15\u0e19 \u0e15\u0e36\u0e01\u0e19\u0e31\u0e49\u0e19\u0e01\u0e47\u0e1e\u0e31\u0e07\u0e17\u0e31\u0e1a\u0e40\u0e08\u0e49\u0e32\u0e19\u0e32\u0e22\u0e41\u0e25\u0e30\u0e1b\u0e23\u0e30\u0e0a\u0e32\u0e0a\u0e19\u0e17\u0e38\u0e01\u0e04\u0e19\u0e17\u0e35\u0e48\u0e2d\u0e22\u0e39\u0e48\u0e43\u0e19\u0e19\u0e31\u0e49\u0e19 \u0e14\u0e31\u0e07\u0e19\u0e31\u0e49\u0e19\u0e04\u0e19\u0e17\u0e35\u0e48\u0e17\u0e48\u0e32\u0e19\u0e06\u0e48\u0e32\u0e15\u0e32\u0e22\u0e40\u0e21\u0e37\u0e48\u0e2d\u0e17\u0e48\u0e32\u0e19\u0e15\u0e32\u0e22\u0e19\u0e35\u0e49\u0e01\u0e47\u0e21\u0e32\u0e01\u0e01\u0e27\u0e48\u0e32\u0e04\u0e19\u0e17\u0e35\u0e48\u0e17\u0e48\u0e32\u0e19\u0e06\u0e48\u0e32\u0e15\u0e32\u0e22\u0e40\u0e21\u0e37\u0e48\u0e2d\u0e17\u0e48\u0e32\u0e19\u0e22\u0e31\u0e07\u0e21\u0e35\u0e0a\u0e35\u0e27\u0e34\u0e15\u0e2d\u0e22\u0e39\u0e48"
        },
        {
            "chapter": 16,
            "verse": 31,
            "name": "Judges 16:31",
            "text": "\u0e41\u0e25\u0e49\u0e27\u0e1e\u0e35\u0e48\u0e19\u0e49\u0e2d\u0e07\u0e41\u0e25\u0e30\u0e1a\u0e23\u0e23\u0e14\u0e32\u0e04\u0e23\u0e2d\u0e1a\u0e04\u0e23\u0e31\u0e27\u0e1a\u0e34\u0e14\u0e32\u0e02\u0e2d\u0e07\u0e17\u0e48\u0e32\u0e19\u0e01\u0e47\u0e25\u0e07\u0e21\u0e32\u0e23\u0e31\u0e1a\u0e28\u0e1e\u0e02\u0e2d\u0e07\u0e17\u0e48\u0e32\u0e19\u0e41\u0e25\u0e30\u0e02\u0e36\u0e49\u0e19\u0e44\u0e1b\u0e1d\u0e31\u0e07\u0e44\u0e27\u0e49\u0e23\u0e30\u0e2b\u0e27\u0e48\u0e32\u0e07\u0e42\u0e28\u0e23\u0e32\u0e2b\u0e4c\u0e01\u0e31\u0e1a\u0e40\u0e2d\u0e0a\u0e17\u0e32\u0e42\u0e2d\u0e25 \u0e43\u0e19\u0e17\u0e35\u0e48\u0e1d\u0e31\u0e07\u0e28\u0e1e\u0e02\u0e2d\u0e07\u0e21\u0e32\u0e42\u0e19\u0e2d\u0e32\u0e2b\u0e4c\u0e1a\u0e34\u0e14\u0e32\u0e02\u0e2d\u0e07\u0e17\u0e48\u0e32\u0e19 \u0e17\u0e48\u0e32\u0e19\u0e44\u0e14\u0e49\u0e27\u0e34\u0e19\u0e34\u0e08\u0e09\u0e31\u0e22\u0e2d\u0e34\u0e2a\u0e23\u0e32\u0e40\u0e2d\u0e25\u0e2d\u0e22\u0e39\u0e48\u0e22\u0e35\u0e48\u0e2a\u0e34\u0e1a\u0e1b\u0e35  "
        }
    ]
}