{
    "translation": "New English Translation text only with footnote markers",
    "abbreviation": "nettext",
    "lang": "en",
    "language": "English",
    "direction": "LTR",
    "encoding": "UTF-8",
    "book_nr": 19,
    "book_name": "Psalms",
    "chapter": 34,
    "name": "Psalms 34",
    "verses": [
        {
            "chapter": 34,
            "verse": 1,
            "name": "Psalms 34:1",
            "text": "Written by David, when he pretended to be insane before Abimelech, causing the king to send him away. I will praise the LORD at all times; my mouth will continually praise him. "
        },
        {
            "chapter": 34,
            "verse": 2,
            "name": "Psalms 34:2",
            "text": "I will boast in the LORD; let the oppressed hear and rejoice! "
        },
        {
            "chapter": 34,
            "verse": 3,
            "name": "Psalms 34:3",
            "text": "Magnify the LORD with me! Let's praise his name together! "
        },
        {
            "chapter": 34,
            "verse": 4,
            "name": "Psalms 34:4",
            "text": "I sought the LORD's help and he answered me; he delivered me from all my fears. "
        },
        {
            "chapter": 34,
            "verse": 5,
            "name": "Psalms 34:5",
            "text": "Those who look to him for help are happy; their faces are not ashamed. "
        },
        {
            "chapter": 34,
            "verse": 6,
            "name": "Psalms 34:6",
            "text": "This oppressed man cried out and the LORD heard; he saved him from all his troubles. "
        },
        {
            "chapter": 34,
            "verse": 7,
            "name": "Psalms 34:7",
            "text": "The LORD's angel camps around the LORD's loyal followers and delivers them. "
        },
        {
            "chapter": 34,
            "verse": 8,
            "name": "Psalms 34:8",
            "text": "Taste and see that the LORD is good! How blessed is the one who takes shelter in him! "
        },
        {
            "chapter": 34,
            "verse": 9,
            "name": "Psalms 34:9",
            "text": "Remain loyal to the LORD, you chosen people of his, for his loyal followers lack nothing! "
        },
        {
            "chapter": 34,
            "verse": 10,
            "name": "Psalms 34:10",
            "text": "Even young lions sometimes lack food and are hungry, but those who seek the LORD lack no good thing. "
        },
        {
            "chapter": 34,
            "verse": 11,
            "name": "Psalms 34:11",
            "text": "Come children! Listen to me! I will teach you what it means to fear the LORD. "
        },
        {
            "chapter": 34,
            "verse": 12,
            "name": "Psalms 34:12",
            "text": "Do you want to really live? Would you love to live a long, happy life? "
        },
        {
            "chapter": 34,
            "verse": 13,
            "name": "Psalms 34:13",
            "text": "Then make sure you don't speak evil words or use deceptive speech! "
        },
        {
            "chapter": 34,
            "verse": 14,
            "name": "Psalms 34:14",
            "text": "Turn away from evil and do what is right! Strive for peace and promote it! "
        },
        {
            "chapter": 34,
            "verse": 15,
            "name": "Psalms 34:15",
            "text": "The LORD pays attention to the godly and hears their cry for help. "
        },
        {
            "chapter": 34,
            "verse": 16,
            "name": "Psalms 34:16",
            "text": "But the LORD opposes evildoers and wipes out all memory of them from the earth. "
        },
        {
            "chapter": 34,
            "verse": 17,
            "name": "Psalms 34:17",
            "text": "The godly cry out and the LORD hears; he saves them from all their troubles. "
        },
        {
            "chapter": 34,
            "verse": 18,
            "name": "Psalms 34:18",
            "text": "The LORD is near the brokenhearted; he delivers those who are discouraged. "
        },
        {
            "chapter": 34,
            "verse": 19,
            "name": "Psalms 34:19",
            "text": "The godly face many dangers, but the LORD saves them from each one of them. "
        },
        {
            "chapter": 34,
            "verse": 20,
            "name": "Psalms 34:20",
            "text": "He protects all his bones; not one of them is broken. "
        },
        {
            "chapter": 34,
            "verse": 21,
            "name": "Psalms 34:21",
            "text": "Evil people self-destruct; those who hate the godly are punished. "
        },
        {
            "chapter": 34,
            "verse": 22,
            "name": "Psalms 34:22",
            "text": "The LORD rescues his servants; all who take shelter in him escape punishment.  </div>"
        }
    ]
}