{
    "translation": "Maori",
    "abbreviation": "maori",
    "lang": "mi",
    "language": "Maori",
    "direction": "LTR",
    "encoding": "",
    "book_nr": 4,
    "book_name": "Numbers",
    "chapter": 34,
    "name": "Numbers 34",
    "verses": [
        {
            "chapter": 34,
            "verse": 1,
            "name": "Numbers 34:1",
            "text": "I korero ano a Ihowa ki a Mohi, i mea,"
        },
        {
            "chapter": 34,
            "verse": 2,
            "name": "Numbers 34:2",
            "text": "Whakahaua nga tama a Iharaira, mea atu ki a ratou, E tae koutou ki te whenua o Kanaana; ko te whenua tenei e riro i a koutou hei kainga tupu, ara te whenua o Kanaana, me ona rohe:"
        },
        {
            "chapter": 34,
            "verse": 3,
            "name": "Numbers 34:3",
            "text": "Na kei te koraha o Hini te taha ki a koutou whaka te tonga, haere tonu i te rohe o Eroma; a hei rohe ki a koutou ki te tonga te pito rawa o te moana Tote, whaka te rawhiti:"
        },
        {
            "chapter": 34,
            "verse": 4,
            "name": "Numbers 34:4",
            "text": "Na ka piko to koutou rohe i te tonga ki te pikitanga o Akarapimi, a whiti tonu ki Hini: na, ka rere i te tonga, a Kareheparenga, haere, a Hataraarara, whiti tonu atu ki Atamono:"
        },
        {
            "chapter": 34,
            "verse": 5,
            "name": "Numbers 34:5",
            "text": "Na ka piko te rohe i Atamono, a te awa o Ihipa, a marere atu ki te moana."
        },
        {
            "chapter": 34,
            "verse": 6,
            "name": "Numbers 34:6",
            "text": "Na, ko te rohe ki te hauauru, ko te moana nui me tona rohe; ko to koutou rohe ki te hauauru tenei."
        },
        {
            "chapter": 34,
            "verse": 7,
            "name": "Numbers 34:7",
            "text": "A ko tenei to koutou rohe ki te raki: me whakatakoto e koutou i te moana nui ki Maunga Horo:"
        },
        {
            "chapter": 34,
            "verse": 8,
            "name": "Numbers 34:8",
            "text": "Me whakatakoto ano hoki i Maunga Horo ki te haerenga atu ki Hamata; a kei Terara nga putanga atu o te rohe:"
        },
        {
            "chapter": 34,
            "verse": 9,
            "name": "Numbers 34:9",
            "text": "A ka tae te rohe ki Tipirono, a kei Hataraenana ona putanga atu; ko te rohe tenei ki a koutou whaka te raki."
        },
        {
            "chapter": 34,
            "verse": 10,
            "name": "Numbers 34:10",
            "text": "Me whakatakoto ano to koutou rohe ki te rawhiti i Hataraenana ki Hepama:"
        },
        {
            "chapter": 34,
            "verse": 11,
            "name": "Numbers 34:11",
            "text": "A ka haere te rohe ki raro i Hepama ki Ripira, ki te taha ki te rawhiti o Aina; a ka haere tonu te rohe ki raro, a ka tae ki te taha o te moana o Kinereta whaka te rawhiti:"
        },
        {
            "chapter": 34,
            "verse": 12,
            "name": "Numbers 34:12",
            "text": "A ka haere te rohe ki Horano, a kei te moana tote ona putanga: ko te whenua tenei mo koutou, me ona rohe a tawhio noa."
        },
        {
            "chapter": 34,
            "verse": 13,
            "name": "Numbers 34:13",
            "text": "Na ka whakahau a Mohi i nga tama a Iharaira, ka mea, Ko te whenua tenei e rotarotatia hei kainga pumau mo koutou, ko ta Ihowa i whakahau ai kia hoatu ki nga iwi e iwa, ki tetahi taanga hoki o tetahi iwi:"
        },
        {
            "chapter": 34,
            "verse": 14,
            "name": "Numbers 34:14",
            "text": "Kua whiwhi hoki te iwi o nga tama a Reupena, nga whare o o ratou matua, me te iwi o nga tama a Kara, nga whare o o ratou matua; kua whiwhi ano tetahi taanga o te iwi o Manahi ki to ratou wahi:"
        },
        {
            "chapter": 34,
            "verse": 15,
            "name": "Numbers 34:15",
            "text": "Kua whiwhi nga iwi e rua me tetahi taanga o tetahi iwi ki to ratou wahi i tenei taha o Horano, e anga ana ki Heriko whaka te rawhiti, ki te putanga mai o te ra."
        },
        {
            "chapter": 34,
            "verse": 16,
            "name": "Numbers 34:16",
            "text": "I korero ano a Ihowa ki a Mohi, i mea,"
        },
        {
            "chapter": 34,
            "verse": 17,
            "name": "Numbers 34:17",
            "text": "Ko nga ingoa enei o nga kaituwha i te whenua mo koutou: ko Ereatara tohunga raua ko Hohua tama a Nunu."
        },
        {
            "chapter": 34,
            "verse": 18,
            "name": "Numbers 34:18",
            "text": "Me tango ano tetahi rangatira o tenei iwi, o tenei iwi, hei tuwha mo te whenua."
        },
        {
            "chapter": 34,
            "verse": 19,
            "name": "Numbers 34:19",
            "text": "A ko nga ingoa o aua tangata: ko Karepe tama a Iepune o te iwi o Hura."
        },
        {
            "chapter": 34,
            "verse": 20,
            "name": "Numbers 34:20",
            "text": "A, ko to te iwi o nga tama a Himiona, ko Hemuere tama a Amihuru."
        },
        {
            "chapter": 34,
            "verse": 21,
            "name": "Numbers 34:21",
            "text": "Ko to te iwi o Pineamine, ko Erirara tama a Kihirono."
        },
        {
            "chapter": 34,
            "verse": 22,
            "name": "Numbers 34:22",
            "text": "Ko te rangatira hoki o te iwi o nga tama a Rana, ko Puki tama a Iokiri."
        },
        {
            "chapter": 34,
            "verse": 23,
            "name": "Numbers 34:23",
            "text": "Ko te rangatira o nga tama a Hohepa, ara o te iwi o nga tama a Manahi, ko Haniere tama a Epora."
        },
        {
            "chapter": 34,
            "verse": 24,
            "name": "Numbers 34:24",
            "text": "Ko te rangatira o te iwi o nga tama a Eparaima, ko Kemuere tama a Hipitana."
        },
        {
            "chapter": 34,
            "verse": 25,
            "name": "Numbers 34:25",
            "text": "Ko te rangatira o te iwi o nga tama a Hepurona, ko Eritapana tama a Paranaka."
        },
        {
            "chapter": 34,
            "verse": 26,
            "name": "Numbers 34:26",
            "text": "Ko te rangatira o te iwi o nga tama a Ihakara, ko Paratiere tama a Atana."
        },
        {
            "chapter": 34,
            "verse": 27,
            "name": "Numbers 34:27",
            "text": "Ko te rangatira o te iwi o nga tama a Ahera, ko Ahihuru tama a Heromi."
        },
        {
            "chapter": 34,
            "verse": 28,
            "name": "Numbers 34:28",
            "text": "Ko te rangatira o te iwi o nga tama a Napatari, ko Perahere tama a Amihuru."
        },
        {
            "chapter": 34,
            "verse": 29,
            "name": "Numbers 34:29",
            "text": "Ko enei a Ihowa i whakahau ai hei tuwha i te kainga mo nga tama a Iharaira i te whenua o Kanaana."
        }
    ]
}