{
    "translation": "Esperanto",
    "abbreviation": "esperanto",
    "lang": "eo",
    "language": "Esperanto",
    "direction": "LTR",
    "encoding": "UTF-8",
    "book_nr": 23,
    "book_name": "Isaiah",
    "chapter": 49,
    "name": "Isaiah 49",
    "verses": [
        {
            "chapter": 49,
            "verse": 1,
            "name": "Isaiah 49:1",
            "text": "A\u016dskultu min, ho insuloj, kaj atentu, ho malproksimaj gentoj: la Eternulo min alvokis el la ventro, el la interno de mia patrino Li vokis mian nomon."
        },
        {
            "chapter": 49,
            "verse": 2,
            "name": "Isaiah 49:2",
            "text": "Kaj Li faris mian bu\u015don simila al akra glavo, kovris min per la ombro de Sia mano, kaj faris min polurita sago, ka\u015dis min en Sia sagujo."
        },
        {
            "chapter": 49,
            "verse": 3,
            "name": "Isaiah 49:3",
            "text": "Kaj Li diris al mi: Vi estas Mia servanto, ho Izrael, per kiu Mi glori\u011dos."
        },
        {
            "chapter": 49,
            "verse": 4,
            "name": "Isaiah 49:4",
            "text": "Mi opiniis, ke vane mi penis, ke sencele kaj vane mi konsumis mian forton; sed vere mia rajto estas \u0109e la Eternulo, kaj mia rekompenco \u0109e mia Dio."
        },
        {
            "chapter": 49,
            "verse": 5,
            "name": "Isaiah 49:5",
            "text": "Kaj nun diris la Eternulo, kiu el la patrina ventro kreis min Lia servanto, por ke mi revenigu al Li Jakobon kaj por ke Izrael kolekti\u011du \u0109e Li (\u0109ar mi estas honorata anta\u016d la okuloj de la Eternulo, kaj mia Dio estas mia forto) \u2014"
        },
        {
            "chapter": 49,
            "verse": 6,
            "name": "Isaiah 49:6",
            "text": "Li diris: Ne sufi\u0109as, ke vi estas Mia servanto, por restarigi la tribojn de Jakob kaj revenigi la konservitojn de Izrael; sed Mi faros vin lumo por la nacioj, por ke Mia savo etendi\u011du \u011dis la fino de la tero."
        },
        {
            "chapter": 49,
            "verse": 7,
            "name": "Isaiah 49:7",
            "text": "Tiele diras la Eternulo, la Liberiganto de Izrael, lia Sanktulo, al la malestimata animo, al la abomenato de la popoloj, al la sklavo de la regantoj: Re\u011doj ekvidos kaj levi\u011dos; princoj, kaj ili adorklini\u011dos; pro la Eternulo, kiu estas fidinda, pro la Sanktulo de Izrael, kiu vin elektis."
        },
        {
            "chapter": 49,
            "verse": 8,
            "name": "Isaiah 49:8",
            "text": "Tiele diras la Eternulo: En la tempo de favoro Mi a\u016dskultos vin, kaj en la tago de savo Mi helpos vin, kaj Mi konservos vin kaj faros vin interligo por la popoloj, por restarigi la teron, por ekposedi dezertigitajn poseda\u0135ojn,"
        },
        {
            "chapter": 49,
            "verse": 9,
            "name": "Isaiah 49:9",
            "text": "por diri al la malliberigitoj: Eliru! al la trovi\u011dantoj en mallumo: Montri\u011du! \u0108e la vojoj ili pa\u015dti\u011dos, kaj sur \u0109iuj nudaj montetoj estos ilia pa\u015dtejo."
        },
        {
            "chapter": 49,
            "verse": 10,
            "name": "Isaiah 49:10",
            "text": "Ili ne malsatos nek soifos, ne frapos ilin siroko nek la suno; \u0109ar ilia Kompatanto ilin kondukos, kaj al fontoj de akvo Li ilin gvidos."
        },
        {
            "chapter": 49,
            "verse": 11,
            "name": "Isaiah 49:11",
            "text": "Kaj Mi faros \u0109iujn Miajn montojn vojo, kaj Miaj vojetoj estos ebene altigitaj."
        },
        {
            "chapter": 49,
            "verse": 12,
            "name": "Isaiah 49:12",
            "text": "Jen tiuj venos de malproksime, kaj aliaj de nordo kaj de okcidento, kaj aliaj el la lando Sinim."
        },
        {
            "chapter": 49,
            "verse": 13,
            "name": "Isaiah 49:13",
            "text": "\u011cojkriu, ho \u0109ielo, kaj \u011doju, ho tero, sonigu kanton, ho montoj; \u0109ar la Eternulo konsolis Sian popolon kaj kompatis Siajn mizerulojn. "
        },
        {
            "chapter": 49,
            "verse": 14,
            "name": "Isaiah 49:14",
            "text": "Sed Cion diris: La Eternulo min forlasis, kaj mia Sinjoro min forgesis."
        },
        {
            "chapter": 49,
            "verse": 15,
            "name": "Isaiah 49:15",
            "text": "\u0108u povas virino forgesi sian infaneton kaj ne kompati la idon de sia ventro? e\u0109 se ili forgesos, Mi vin ne forgesos."
        },
        {
            "chapter": 49,
            "verse": 16,
            "name": "Isaiah 49:16",
            "text": "Jen sur Miaj manoj Mi vin gravuris; viaj muroj estas \u0109iam anta\u016d Mi."
        },
        {
            "chapter": 49,
            "verse": 17,
            "name": "Isaiah 49:17",
            "text": "Rapidos viaj konstruantoj; viaj detruantoj kaj viaj ekstermantoj eliros for de vi."
        },
        {
            "chapter": 49,
            "verse": 18,
            "name": "Isaiah 49:18",
            "text": "Levu \u0109irka\u016den viajn okulojn, kaj rigardu: \u0109iuj kolekti\u011dis, venas al vi. Kiel Mi vivas, diras la Eternulo, vi \u0109iujn metos sur vin kiel ornamon, kaj vi \u0109irka\u016dligos vin per ili kiel fian\u0109ino."
        },
        {
            "chapter": 49,
            "verse": 19,
            "name": "Isaiah 49:19",
            "text": "\u0108ar viaj dezertigitaj kaj senhomigitaj lokoj kaj via ruinigita lando estas tro malvastaj por la lo\u011dantoj, kaj viaj ekstermantoj estos malproksimigitaj."
        },
        {
            "chapter": 49,
            "verse": 20,
            "name": "Isaiah 49:20",
            "text": "Viaj malaperintaj infanoj ankora\u016d diros en viajn orelojn: Tro malvasta estas por mi la loko; cedu al mi, ke mi povu lo\u011di."
        },
        {
            "chapter": 49,
            "verse": 21,
            "name": "Isaiah 49:21",
            "text": "Tiam vi diros en via koro: Kiu naskis al mi \u0109i tiujn? mi estis ja seninfana kaj soleca, elpelita kaj forpu\u015dita; kiu do edukis ilin? mi restis ja sola; kie do estis \u0109i tiuj? "
        },
        {
            "chapter": 49,
            "verse": 22,
            "name": "Isaiah 49:22",
            "text": "Tiele diras la Sinjoro, la Eternulo: Jen Mi levos Mian manon al la nacioj, kaj anta\u016d la gentoj Mi elmetos Mian standardon; kaj ili venigos viajn filojn en la baskoj, kaj viajn filinojn ili portos sur la \u015dultroj."
        },
        {
            "chapter": 49,
            "verse": 23,
            "name": "Isaiah 49:23",
            "text": "Kaj re\u011doj estos viaj vartistoj, kaj iliaj princinoj estos viaj nutristinoj; viza\u011daltere ili klini\u011dos anta\u016d vi, kaj la polvon de viaj piedoj ili lekos; kaj tiam vi ekscios, ke Mi estas la Eternulo, ke Miaj fidantoj ne hontos."
        },
        {
            "chapter": 49,
            "verse": 24,
            "name": "Isaiah 49:24",
            "text": "\u0108u de fortulo oni povas forpreni la akirita\u0135on? a\u016d \u0109u oni povas liberigi la kaptitojn de venkinto?"
        },
        {
            "chapter": 49,
            "verse": 25,
            "name": "Isaiah 49:25",
            "text": "Sed tiele diras la Eternulo: E\u0109 la kaptitoj estos forprenitaj for de la fortulo, kaj la akirita\u0135o de la potenculo formalaperos; kaj kontra\u016d viaj kverelantoj Mi kverelos, kaj viajn filojn Mi savos."
        },
        {
            "chapter": 49,
            "verse": 26,
            "name": "Isaiah 49:26",
            "text": "Kaj al viaj premantoj Mi man\u011digos ilian propran karnon, kaj kiel de mosto ili ebrii\u011dos de sia propra sango; kaj ekscios \u0109iu karno, ke Mi, la Eternulo, estas via Savanto kaj via Liberiganto, la Potenculo de Jakob. "
        }
    ]
}