{
    "translation": "Samaritan Pentateuch",
    "abbreviation": "sp",
    "lang": "he",
    "language": "Hebrew",
    "direction": "RTL",
    "encoding": "UTF-8",
    "book_nr": 6,
    "book_name": "Joshua",
    "chapter": 24,
    "name": "Joshua 24",
    "verses": [
        {
            "chapter": 24,
            "verse": 1,
            "name": "Joshua 24:1",
            "text": ""
        },
        {
            "chapter": 24,
            "verse": 2,
            "name": "Joshua 24:2",
            "text": ""
        },
        {
            "chapter": 24,
            "verse": 3,
            "name": "Joshua 24:3",
            "text": ""
        },
        {
            "chapter": 24,
            "verse": 4,
            "name": "Joshua 24:4",
            "text": ""
        },
        {
            "chapter": 24,
            "verse": 5,
            "name": "Joshua 24:5",
            "text": ""
        },
        {
            "chapter": 24,
            "verse": 6,
            "name": "Joshua 24:6",
            "text": ""
        },
        {
            "chapter": 24,
            "verse": 7,
            "name": "Joshua 24:7",
            "text": ""
        },
        {
            "chapter": 24,
            "verse": 8,
            "name": "Joshua 24:8",
            "text": ""
        },
        {
            "chapter": 24,
            "verse": 9,
            "name": "Joshua 24:9",
            "text": ""
        },
        {
            "chapter": 24,
            "verse": 10,
            "name": "Joshua 24:10",
            "text": ""
        },
        {
            "chapter": 24,
            "verse": 11,
            "name": "Joshua 24:11",
            "text": ""
        },
        {
            "chapter": 24,
            "verse": 12,
            "name": "Joshua 24:12",
            "text": ""
        },
        {
            "chapter": 24,
            "verse": 13,
            "name": "Joshua 24:13",
            "text": ""
        },
        {
            "chapter": 24,
            "verse": 14,
            "name": "Joshua 24:14",
            "text": ""
        },
        {
            "chapter": 24,
            "verse": 15,
            "name": "Joshua 24:15",
            "text": ""
        },
        {
            "chapter": 24,
            "verse": 16,
            "name": "Joshua 24:16",
            "text": ""
        },
        {
            "chapter": 24,
            "verse": 17,
            "name": "Joshua 24:17",
            "text": ""
        },
        {
            "chapter": 24,
            "verse": 18,
            "name": "Joshua 24:18",
            "text": ""
        },
        {
            "chapter": 24,
            "verse": 19,
            "name": "Joshua 24:19",
            "text": ""
        },
        {
            "chapter": 24,
            "verse": 20,
            "name": "Joshua 24:20",
            "text": ""
        },
        {
            "chapter": 24,
            "verse": 21,
            "name": "Joshua 24:21",
            "text": ""
        },
        {
            "chapter": 24,
            "verse": 22,
            "name": "Joshua 24:22",
            "text": ""
        },
        {
            "chapter": 24,
            "verse": 23,
            "name": "Joshua 24:23",
            "text": ""
        },
        {
            "chapter": 24,
            "verse": 24,
            "name": "Joshua 24:24",
            "text": ""
        },
        {
            "chapter": 24,
            "verse": 25,
            "name": "Joshua 24:25",
            "text": ""
        },
        {
            "chapter": 24,
            "verse": 26,
            "name": "Joshua 24:26",
            "text": ""
        },
        {
            "chapter": 24,
            "verse": 27,
            "name": "Joshua 24:27",
            "text": ""
        },
        {
            "chapter": 24,
            "verse": 28,
            "name": "Joshua 24:28",
            "text": ""
        },
        {
            "chapter": 24,
            "verse": 29,
            "name": "Joshua 24:29",
            "text": ""
        },
        {
            "chapter": 24,
            "verse": 30,
            "name": "Joshua 24:30",
            "text": ""
        },
        {
            "chapter": 24,
            "verse": 31,
            "name": "Joshua 24:31",
            "text": ""
        },
        {
            "chapter": 24,
            "verse": 32,
            "name": "Joshua 24:32",
            "text": ""
        },
        {
            "chapter": 24,
            "verse": 33,
            "name": "Joshua 24:33",
            "text": ""
        }
    ]
}