{
    "translation": "Samaritan Pentateuch",
    "abbreviation": "sp",
    "lang": "he",
    "language": "Hebrew",
    "direction": "RTL",
    "encoding": "UTF-8",
    "book_nr": 6,
    "book_name": "Joshua",
    "chapter": 6,
    "name": "Joshua 6",
    "verses": [
        {
            "chapter": 6,
            "verse": 1,
            "name": "Joshua 6:1",
            "text": ""
        },
        {
            "chapter": 6,
            "verse": 2,
            "name": "Joshua 6:2",
            "text": ""
        },
        {
            "chapter": 6,
            "verse": 3,
            "name": "Joshua 6:3",
            "text": ""
        },
        {
            "chapter": 6,
            "verse": 4,
            "name": "Joshua 6:4",
            "text": ""
        },
        {
            "chapter": 6,
            "verse": 5,
            "name": "Joshua 6:5",
            "text": ""
        },
        {
            "chapter": 6,
            "verse": 6,
            "name": "Joshua 6:6",
            "text": ""
        },
        {
            "chapter": 6,
            "verse": 7,
            "name": "Joshua 6:7",
            "text": ""
        },
        {
            "chapter": 6,
            "verse": 8,
            "name": "Joshua 6:8",
            "text": ""
        },
        {
            "chapter": 6,
            "verse": 9,
            "name": "Joshua 6:9",
            "text": ""
        },
        {
            "chapter": 6,
            "verse": 10,
            "name": "Joshua 6:10",
            "text": ""
        },
        {
            "chapter": 6,
            "verse": 11,
            "name": "Joshua 6:11",
            "text": ""
        },
        {
            "chapter": 6,
            "verse": 12,
            "name": "Joshua 6:12",
            "text": ""
        },
        {
            "chapter": 6,
            "verse": 13,
            "name": "Joshua 6:13",
            "text": ""
        },
        {
            "chapter": 6,
            "verse": 14,
            "name": "Joshua 6:14",
            "text": ""
        },
        {
            "chapter": 6,
            "verse": 15,
            "name": "Joshua 6:15",
            "text": ""
        },
        {
            "chapter": 6,
            "verse": 16,
            "name": "Joshua 6:16",
            "text": ""
        },
        {
            "chapter": 6,
            "verse": 17,
            "name": "Joshua 6:17",
            "text": ""
        },
        {
            "chapter": 6,
            "verse": 18,
            "name": "Joshua 6:18",
            "text": ""
        },
        {
            "chapter": 6,
            "verse": 19,
            "name": "Joshua 6:19",
            "text": ""
        },
        {
            "chapter": 6,
            "verse": 20,
            "name": "Joshua 6:20",
            "text": ""
        },
        {
            "chapter": 6,
            "verse": 21,
            "name": "Joshua 6:21",
            "text": ""
        },
        {
            "chapter": 6,
            "verse": 22,
            "name": "Joshua 6:22",
            "text": ""
        },
        {
            "chapter": 6,
            "verse": 23,
            "name": "Joshua 6:23",
            "text": ""
        },
        {
            "chapter": 6,
            "verse": 24,
            "name": "Joshua 6:24",
            "text": ""
        },
        {
            "chapter": 6,
            "verse": 25,
            "name": "Joshua 6:25",
            "text": ""
        },
        {
            "chapter": 6,
            "verse": 26,
            "name": "Joshua 6:26",
            "text": ""
        },
        {
            "chapter": 6,
            "verse": 27,
            "name": "Joshua 6:27",
            "text": ""
        }
    ]
}