{
    "translation": "John Wycliffe Bible (c.1395)",
    "abbreviation": "wycliffe",
    "lang": "enm",
    "language": "",
    "direction": "LTR",
    "encoding": "UTF-8",
    "book_nr": 74,
    "book_name": "Baruch",
    "chapter": 1,
    "name": "Baruch 1",
    "verses": [
        {
            "chapter": 1,
            "verse": 1,
            "name": "Baruch 1:1",
            "text": "And these ben the wordis of the book, which Baruk, the sone of Nerie, sone of Maasie, sone of Sedechie, sone of Sedei, sone of Helchie, wroot in Babilonye; "
        },
        {
            "chapter": 1,
            "verse": 2,
            "name": "Baruch 1:2",
            "text": "in the fyuethe yeer, in the seuenthe dai of the monethe, in the tyme wherynne Caldeis token Jerusalem, and brenten it with fier. "
        },
        {
            "chapter": 1,
            "verse": 3,
            "name": "Baruch 1:3",
            "text": "And Baruk redde the wordis of this book to the eeris of Jeconye, sone of Joachym, kyng of Juda, and to the eeris of al the puple comynge to the book; "
        },
        {
            "chapter": 1,
            "verse": 4,
            "name": "Baruch 1:4",
            "text": "and to the eeris of the myyti sones of kyngis, and to the eeris of prestis, and to the eeris of the puple, fro the mooste `til to the leeste of hem, of alle dwellynge in Babiloyne, and at the flood Sudi. "
        },
        {
            "chapter": 1,
            "verse": 5,
            "name": "Baruch 1:5",
            "text": "Whiche herden, and wepten, and fastiden, and preieden in the siyt of the Lord. "
        },
        {
            "chapter": 1,
            "verse": 6,
            "name": "Baruch 1:6",
            "text": "And thei gaderiden monei, bi that that ech mannus hond myyte; "
        },
        {
            "chapter": 1,
            "verse": 7,
            "name": "Baruch 1:7",
            "text": "and senten in to Jerusalem to Joachym, the prest, sone of Helchie, sone of Salen, and to the preestis, and to al the puple that weren foundun with hym in Jerusalem; "
        },
        {
            "chapter": 1,
            "verse": 8,
            "name": "Baruch 1:8",
            "text": "whanne he took the vessels of the temple of the Lord, that weren takun awei fro the temple, to ayen clepe in to the lond of Juda, in the tenthe dai of the monethe Siban; the siluerne vessels, which Sedechie, the kyng of Juda, the sone of Josie, "
        },
        {
            "chapter": 1,
            "verse": 9,
            "name": "Baruch 1:9",
            "text": "made, aftir that Nabugodonosor, kyng of Babiloyne, hadde take Jeconye, and princes, and alle myyti men, and the puple of the lond fro Jerusalem, and ledde hem boundun in to Babiloyne. "
        },
        {
            "chapter": 1,
            "verse": 10,
            "name": "Baruch 1:10",
            "text": "And thei seiden, Lo! we han sent to you richessis, of whiche bie ye brent sacrifices, and encense, and make ye sacrifice, and offre ye for synne at the auter of youre Lord God. "
        },
        {
            "chapter": 1,
            "verse": 11,
            "name": "Baruch 1:11",
            "text": "And preye ye for the lijf of Nabugodonosor, king of Babiloyne, and for the lijf of Balthasar, his sone, that the daies of hem ben on erthe as the daies of heuene; "
        },
        {
            "chapter": 1,
            "verse": 12,
            "name": "Baruch 1:12",
            "text": "that the Lord yyue vertu to vs, and liytne oure iyen, that we lyue vndur the schadewe of Nabugodonosor, kyng of Babiloyne, and vndur the schadewe of Balthasar, his sone; and that we serue hem bi many daies, and fynde grace in the siyt of hem. "
        },
        {
            "chapter": 1,
            "verse": 13,
            "name": "Baruch 1:13",
            "text": "And preye ye for `vs silf to our Lord God, for we han synned to oure Lord God, and his strong veniaunce is not turned awei fro vs, `til in to this dai. "
        },
        {
            "chapter": 1,
            "verse": 14,
            "name": "Baruch 1:14",
            "text": "And rede ye this book, which we senten to you, to be rehersid in the temple of the Lord, in a solempne dai, and in a couenable dai. "
        },
        {
            "chapter": 1,
            "verse": 15,
            "name": "Baruch 1:15",
            "text": "And ye schulen seie, Riytfulnesse is to oure Lord God, but schenschipe of oure face is to vs, as this dai is, to al Juda, and to dwelleris in Jerusalem, "
        },
        {
            "chapter": 1,
            "verse": 16,
            "name": "Baruch 1:16",
            "text": "to oure kyngis, and to oure princes, to oure preestis, and to oure profetis, and to oure fadris. "
        },
        {
            "chapter": 1,
            "verse": 17,
            "name": "Baruch 1:17",
            "text": "We synneden bifor oure Lord God, and bileuyden not, and tristiden not in hym. "
        },
        {
            "chapter": 1,
            "verse": 18,
            "name": "Baruch 1:18",
            "text": "And we weren not redi to be suget to hym, and we obeiden not to the vois of oure Lord God, that we yeden in hise comaundementis, whiche he yaf to vs; "
        },
        {
            "chapter": 1,
            "verse": 19,
            "name": "Baruch 1:19",
            "text": "fro the dai in which he ledde oure fadris out of the lond of Egipt, til in to this dai, we weren vnbileueful to oure Lord God; and we weren scaterid, and yeden awei, that we herden not the vois of hym. "
        },
        {
            "chapter": 1,
            "verse": 20,
            "name": "Baruch 1:20",
            "text": "And many yuels and cursyngis, whiche the Lord ordeynede to his seruaunt Moises, cleuyden to vs; which Lord ledde oure fadris out of the lond of Egipt, to yyue to vs a lond flowynge mylk and hony, as in this dai. "
        },
        {
            "chapter": 1,
            "verse": 21,
            "name": "Baruch 1:21",
            "text": "And we herden not the vois of oure Lord God, bi alle the wordis of prophetis, whiche he sente to vs, and to oure iugis; "
        },
        {
            "chapter": 1,
            "verse": 22,
            "name": "Baruch 1:22",
            "text": "and we yeden awei, ech man in to the wit of his yuel herte, to worche to alien goddis, and we diden yuels bifore the iyen of oure Lord God.  "
        }
    ]
}