{
    "translation": "NCV Simplified",
    "abbreviation": "cns",
    "lang": "zh",
    "language": "",
    "direction": "LTR",
    "encoding": "UTF-8",
    "book_nr": 18,
    "book_name": "Job",
    "chapter": 9,
    "name": "Job 9",
    "verses": [
        {
            "chapter": 9,
            "verse": 1,
            "name": "Job 9:1",
            "text": "\t\u7ea6\u4f2f\u56de\u7b54\u8bf4\uff1a"
        },
        {
            "chapter": 9,
            "verse": 2,
            "name": "Job 9:2",
            "text": "\u201c\u6211\u5b9e\u5728\u77e5\u9053\u662f\u8fd9\u6837\uff0c\u4f46\u662f\uff0c\u4eba\u5728\u3000\u795e\u9762\u524d\u600e\u80fd\u7b97\u4e3a\u516c\u4e49\u5462\uff1f"
        },
        {
            "chapter": 9,
            "verse": 3,
            "name": "Job 9:3",
            "text": "\u4eba\u82e5\u613f\u610f\u4e0e\u4ed6\u8fa9\u8bba\uff0c\u8fde\u5343\u5206\u4e4b\u4e00\u4e5f\u7b54\u4e0d\u51fa\u6765\u3002"
        },
        {
            "chapter": 9,
            "verse": 4,
            "name": "Job 9:4",
            "text": "\u4ed6\u5fc3\u91cc\u6709\u667a\u6167\uff0c\u800c\u4e14\u6709\u6781\u5927\u7684\u80fd\u529b\uff0c\u6709\u8c01\u5bf9\u4ed6\u521a\u786c\u800c\u5e73\u5b89\u65e0\u4e8b\u5462\uff1f"
        },
        {
            "chapter": 9,
            "verse": 5,
            "name": "Job 9:5",
            "text": "\u4ed6\u5728\u6012\u4e2d\u79fb\u5c71\u7ffb\u5188\uff1b\u5c71\u5188\u5374\u4e0d\u77e5\u9053\uff1b"
        },
        {
            "chapter": 9,
            "verse": 6,
            "name": "Job 9:6",
            "text": "\u4ed6\u4f7f\u5927\u5730\u9707\u52a8\u79bb\u5f00\u672c\u5904\uff0c\u5927\u5730\u7684\u67f1\u5b50\u5c31\u6447\u64bc\uff1b"
        },
        {
            "chapter": 9,
            "verse": 7,
            "name": "Job 9:7",
            "text": "\u4ed6\u5429\u5490\u592a\u9633\uff0c\u592a\u9633\u5c31\u4e0d\u4e0a\u5347\uff0c\u53c8\u5c01\u95ed\u4f17\u661f\uff1b"
        },
        {
            "chapter": 9,
            "verse": 8,
            "name": "Job 9:8",
            "text": "\u4ed6\u72ec\u81ea\u94fa\u5f00\u82cd\u5929\uff0c\u6b65\u884c\u5728\u6d77\u6d6a\u4e4b\u4e0a\uff1b"
        },
        {
            "chapter": 9,
            "verse": 9,
            "name": "Job 9:9",
            "text": "\u4ed6\u9020\u5317\u6597\u4e0e\u53c2\u661f\uff0c\u6634\u661f\u548c\u5357\u65b9\u7684\u661f\u5ea7\uff1b"
        },
        {
            "chapter": 9,
            "verse": 10,
            "name": "Job 9:10",
            "text": "\u4ed6\u6240\u884c\u7684\u5927\u4e8b\u65e0\u6cd5\u6d4b\u5ea6\uff0c\u6240\u884c\u7684\u5947\u4e8b\u4e0d\u53ef\u80dc\u6570\u3002"
        },
        {
            "chapter": 9,
            "verse": 11,
            "name": "Job 9:11",
            "text": "\u4ed6\u884c\u8fc7\u6211\u8eab\u8fb9\uff0c\u6211\u5374\u770b\u4e0d\u89c1\uff1b\u4ed6\u63a0\u8fc7\u53bb\uff0c\u6211\u7adf\u4e0d\u89c9\u5bdf\u3002"
        },
        {
            "chapter": 9,
            "verse": 12,
            "name": "Job 9:12",
            "text": "\u4ed6\u593a\u53d6\uff0c\u8c01\u80fd\u62e6\u963b\u4ed6\uff1f\u8c01\u6562\u95ee\u4ed6\uff1a\u2018\u4f60\u5e72\u4ec0\u4e48\uff1f\u2019"
        },
        {
            "chapter": 9,
            "verse": 13,
            "name": "Job 9:13",
            "text": "\u3000\u795e\u5fc5\u4e0d\u6291\u5236\u4ed6\u7684\u6012\u6c14\uff0c\u6d77\u602a\u62c9\u54c8\u4f2f\u7684\u52a9\u624b\u90fd\u4fef\u4f0f\u5728\u4ed6\u4ee5\u4e0b\u3002"
        },
        {
            "chapter": 9,
            "verse": 14,
            "name": "Job 9:14",
            "text": "\u4f55\u51b5\u6211\u5462\uff1f\u6211\u600e\u6562\u56de\u7b54\u4ed6\uff0c\u63aa\u8f9e\u4e0e\u4ed6\u8fa9\u8bba\u5462\uff1f"
        },
        {
            "chapter": 9,
            "verse": 15,
            "name": "Job 9:15",
            "text": "\u5373\u4f7f\u6211\u6709\u7406\uff0c\u4e5f\u4e0d\u6562\u56de\u7b54\uff0c\u53ea\u5411\u90a3\u5ba1\u5224\u6211\u7684\u6c42\u601c\u60af\uff1b"
        },
        {
            "chapter": 9,
            "verse": 16,
            "name": "Job 9:16",
            "text": "\u5373\u4f7f\u6211\u547c\u6c42\uff0c\u4ed6\u4e5f\u56de\u7b54\u6211\uff0c\u6211\u8fd8\u662f\u4e0d\u4fe1\u4ed6\u4f1a\u5782\u542c\u6211\u7684\u58f0\u97f3\u3002"
        },
        {
            "chapter": 9,
            "verse": 17,
            "name": "Job 9:17",
            "text": "\u4ed6\u7528\u66b4\u98ce\u4f24\u5bb3\u6211\uff0c\u65e0\u7f18\u65e0\u6545\u52a0\u6dfb\u6211\u7684\u521b\u4f24\u3002"
        },
        {
            "chapter": 9,
            "verse": 18,
            "name": "Job 9:18",
            "text": "\u4ed6\u4e0d\u8ba9\u6211\u5598\u4e00\u53e3\u6c14\uff0c\u5374\u4f7f\u6211\u9971\u5c1d\u82e6\u695a\u3002"
        },
        {
            "chapter": 9,
            "verse": 19,
            "name": "Job 9:19",
            "text": "\u82e5\u8bba\u529b\u91cf\uff0c\u4ed6\u591a\u4e48\u5f3a\u5927\uff0c\u82e5\u8bba\u8bc9\u8bbc\uff0c\u4ed6\u8bf4\uff1a\u2018\u8c01\u80fd\u628a\u6211\u4f20\u6765\uff1f\u2019"
        },
        {
            "chapter": 9,
            "verse": 20,
            "name": "Job 9:20",
            "text": "\u5373\u4f7f\u6211\u6709\u7406\uff0c\u6211\u7684\u53e3\u8fd8\u662f\u5b9a\u6211\u6709\u7f6a\uff1b\u5373\u4f7f\u6211\u5b8c\u5168\uff0c\u6211\u7684\u53e3\u8fd8\u662f\u5224\u6211\u4e56\u8c2c\u3002"
        },
        {
            "chapter": 9,
            "verse": 21,
            "name": "Job 9:21",
            "text": "\u6211\u867d\u7136\u5b8c\u5168\uff0c\u5374\u4e0d\u987e\u6211\u81ea\u5df1\uff0c\u5012\u538c\u6076\u6211\u7684\u751f\u547d\u3002"
        },
        {
            "chapter": 9,
            "verse": 22,
            "name": "Job 9:22",
            "text": "\u6240\u4ee5\u6211\u8bf4\uff0c\u5584\u6076\u90fd\u662f\u4e00\u6837\uff0c\u5b8c\u5168\u4eba\u548c\u6076\u4eba\uff0c\u4ed6\u90fd\u706d\u5c3d\u3002"
        },
        {
            "chapter": 9,
            "verse": 23,
            "name": "Job 9:23",
            "text": "\u707e\u7978\u5ffd\u7136\u628a\u4eba\u6740\u5bb3\u7684\u65f6\u5019\uff0c\u4ed6\u5c31\u5fc5\u5632\u7b11\u65e0\u8f9c\u4eba\u7684\u906d\u9047\u3002"
        },
        {
            "chapter": 9,
            "verse": 24,
            "name": "Job 9:24",
            "text": "\u5168\u4e16\u754c\u4ea4\u5728\u6076\u4eba\u7684\u624b\u4e2d\uff0c\u4ed6\u8499\u853d\u4e16\u4e0a\u5ba1\u5224\u5b98\u7684\u8138\uff0c\u5982\u679c\u4e0d\u662f\u4ed6\uff0c\u90a3\u4e48\u662f\u8c01\u5462\uff1f"
        },
        {
            "chapter": 9,
            "verse": 25,
            "name": "Job 9:25",
            "text": "\u6211\u7684\u65e5\u5b50\u8fc7\u5f97\u6bd4\u4fe1\u5dee\u8fd8\u5feb\uff0c\u98de\u5feb\u901d\u53bb\uff0c\u4e0d\u89c1\u798f\u4e50\u3002"
        },
        {
            "chapter": 9,
            "verse": 26,
            "name": "Job 9:26",
            "text": "\u6211\u7684\u65e5\u5b50\u6d88\u901d\u6709\u5982\u5feb\u8239\uff0c\u597d\u50cf\u4fef\u51b2\u731b\u6251\u98df\u7269\u7684\u9e70\u3002"
        },
        {
            "chapter": 9,
            "verse": 27,
            "name": "Job 9:27",
            "text": "\u6211\u82e5\u8bf4\uff1a\u2018\u6211\u8981\u5fd8\u8bb0\u6211\u7684\u82e6\u60c5\uff0c\u8981\u9664\u53bb\u6101\u5bb9\uff0c\u9762\u9732\u559c\u4e50\u3002\u2019"
        },
        {
            "chapter": 9,
            "verse": 28,
            "name": "Job 9:28",
            "text": "\u6211\u5c31\u60e7\u6015\u6211\u7684\u4e00\u5207\u75db\u82e6\uff0c\u56e0\u4e3a\u6211\u77e5\u9053\u4f60\u5fc5\u4e0d\u4ee5\u6211\u4e3a\u65e0\u8f9c\u3002"
        },
        {
            "chapter": 9,
            "verse": 29,
            "name": "Job 9:29",
            "text": "\u6211\u65e2\u7136\u88ab\u5b9a\u4e3a\u6709\u7f6a\uff0c\u53c8\u4f55\u5fc5\u5f92\u7136\u52b3\u82e6\u5462\uff1f"
        },
        {
            "chapter": 9,
            "verse": 30,
            "name": "Job 9:30",
            "text": "\u6211\u82e5\u7528\u96ea\u6c34\u6d17\u51c0\u6211\u7684\u8eab\uff0c\u53c8\u7528\u78b1\u6c34\u6d01\u51c0\u6211\u7684\u624b\uff0c"
        },
        {
            "chapter": 9,
            "verse": 31,
            "name": "Job 9:31",
            "text": "\u4f60\u8fd8\u662f\u628a\u6211\u6254\u5165\u5751\u4e2d\uff0c\u8fde\u6211\u7684\u8863\u670d\u4e5f\u618e\u6076\u6211\u3002"
        },
        {
            "chapter": 9,
            "verse": 32,
            "name": "Job 9:32",
            "text": "\u4ed6\u4e0d\u50cf\u6211\u662f\u4e2a\u4eba\uff0c\u4f7f\u6211\u53ef\u4ee5\u7b54\u4ed6\uff0c\u8ba9\u6211\u4eec\u4e00\u8d77\u5bf9\u7c3f\u516c\u5802\u3002"
        },
        {
            "chapter": 9,
            "verse": 33,
            "name": "Job 9:33",
            "text": "\u6211\u4fe9\u4e4b\u95f4\u5e76\u6ca1\u6709\u4ef2\u88c1\u8005\uff0c\u80fd\u591f\u6309\u624b\u5728\u6211\u4eec\u53cc\u65b9\u8eab\u4e0a\u3002"
        },
        {
            "chapter": 9,
            "verse": 34,
            "name": "Job 9:34",
            "text": "\u613f\u4ed6\u4f7f\u4ed6\u7684\u5211\u6756\u79bb\u5f00\u6211\uff0c\u613f\u4ed6\u53ef\u754f\u7684\u5a01\u4e25\u4e0d\u60ca\u5413\u6211\uff0c"
        },
        {
            "chapter": 9,
            "verse": 35,
            "name": "Job 9:35",
            "text": "\u6211\u5c31\u8bf4\u8bdd\uff0c\u4e5f\u4e0d\u6015\u4ed6\uff0c\u56e0\u4e3a\u6211\u672c\u8eab\u5e76\u4e0d\u662f\u8fd9\u79cd\u4eba\u3002\u201d"
        }
    ]
}