{
    "translation": "Apostolic Bible Polyglot Greek Text",
    "abbreviation": "abpgrk",
    "lang": "grc",
    "language": "Greek",
    "direction": "LTR",
    "encoding": "UTF-8",
    "book_nr": 14,
    "book_name": "2 Chronicles",
    "chapter": 20,
    "name": "2 Chronicles 20",
    "verses": [
        {
            "chapter": 20,
            "verse": 1,
            "name": "2 Chronicles 20:1",
            "text": "  \u03ba\u03b1\u03b9 \u03bc\u03b5\u03c4\u03ac \u03c4\u03b1\u03cd\u03c4\u03b1 \u03ae\u03bb\u03b8\u03bf\u03bd \u03bf\u03b9 \u03c5\u03b9\u03bf\u03af \u039c\u03c9\u03ac\u03b2 \u03ba\u03b1\u03b9 \u03c5\u03b9\u03bf\u03af \u0391\u03bc\u03bc\u03ce\u03bd \u03ba\u03b1\u03b9 \u03bc\u03b5\u03c4\u0384 \u03b1\u03c5\u03c4\u03ce\u03bd \u03b5\u03ba \u03c4\u03c9\u03bd \u0391\u03bc\u03bc\u03b1\u03bd\u03b9\u03c4\u03ce\u03bd \u03b5\u03c0\u03af \u0399\u03c9\u03c3\u03b1\u03c6\u03ac\u03c4 \u03b5\u03b9\u03c2 \u03c0\u03cc\u03bb\u03b5\u03bc\u03bf\u03bd"
        },
        {
            "chapter": 20,
            "verse": 2,
            "name": "2 Chronicles 20:2",
            "text": "\u03ba\u03b1\u03b9 \u03ae\u03bb\u03b8\u03bf\u03bd \u03ba\u03b1\u03b9 \u03b1\u03c0\u03ae\u03b3\u03b3\u03b5\u03b9\u03bb\u03b1\u03bd \u03c4\u03c9 \u0399\u03c9\u03c3\u03b1\u03c6\u03ac\u03c4 \u03bb\u03ad\u03b3\u03bf\u03bd\u03c4\u03b5\u03c2 \u03ae\u03ba\u03b5\u03b9 \u03b5\u03c0\u03af \u03c3\u03b5 \u03c0\u03bb\u03ae\u03b8\u03bf\u03c2 \u03c0\u03bf\u03bb\u03cd \u03b5\u03ba \u03c4\u03bf\u03c5 \u03c0\u03ad\u03c1\u03b1\u03bd \u03c4\u03b7\u03c2 \u03b8\u03b1\u03bb\u03ac\u03c3\u03c3\u03b7\u03c2 \u03b1\u03c0\u03cc \u03a3\u03c5\u03c1\u03af\u03b1\u03c2 \u03ba\u03b1\u03b9 \u03b9\u03b4\u03bf\u03cd \u03b5\u03b9\u03c3\u03af\u03bd \u03b5\u03bd \u0391\u03c3\u03b1\u03c3\u03b1\u03bd\u03b8\u03b1\u03bc\u03ac\u03c1 \u03b1\u03cd\u03c4\u03b7 \u03b5\u03c3\u03c4\u03b9\u03bd \u0395\u03bd\u03b3\u03b1\u03b4\u03af"
        },
        {
            "chapter": 20,
            "verse": 3,
            "name": "2 Chronicles 20:3",
            "text": "\u03ba\u03b1\u03b9 \u03b5\u03c6\u03bf\u03b2\u03b7\u03b8\u03ae \u0399\u03c9\u03c3\u03b1\u03c6\u03ac\u03c4 \u03ba\u03b1\u03b9 \u03ad\u03b4\u03c9\u03ba\u03b5\u03bd \u03c4\u03bf \u03c0\u03c1\u03cc\u03c3\u03c9\u03c0\u03bf\u03bd \u03b1\u03c5\u03c4\u03bf\u03cd \u03b5\u03ba\u03b6\u03b7\u03c4\u03ae\u03c3\u03b1\u03b9 \u03c4\u03bf\u03bd \u03ba\u03cd\u03c1\u03b9\u03bf\u03bd \u03ba\u03b1\u03b9 \u03b5\u03ba\u03ae\u03c1\u03c5\u03be\u03b5 \u03bd\u03b7\u03c3\u03c4\u03b5\u03af\u03b1\u03bd \u03b5\u03bd \u03c0\u03b1\u03bd\u03c4\u03af \u0399\u03bf\u03cd\u03b4\u03b1"
        },
        {
            "chapter": 20,
            "verse": 4,
            "name": "2 Chronicles 20:4",
            "text": "\u03ba\u03b1\u03b9 \u03c3\u03c5\u03bd\u03ae\u03c7\u03b8\u03b7 \u0399\u03bf\u03cd\u03b4\u03b1\u03c2 \u03b5\u03ba\u03b6\u03b7\u03c4\u03ae\u03c3\u03b1\u03b9 \u03c4\u03bf\u03bd \u03ba\u03cd\u03c1\u03b9\u03bf\u03bd \u03ba\u03b1\u03b9 \u03ae\u03bb\u03b8\u03bf\u03bd \u03b5\u03ba \u03c0\u03b1\u03c3\u03ce\u03bd \u03c4\u03c9\u03bd \u03c0\u03cc\u03bb\u03b5\u03c9\u03bd \u0399\u03bf\u03cd\u03b4\u03b1 \u03b6\u03b7\u03c4\u03ae\u03c3\u03b1\u03b9 \u03c4\u03bf\u03bd \u03ba\u03cd\u03c1\u03b9\u03bf\u03bd"
        },
        {
            "chapter": 20,
            "verse": 5,
            "name": "2 Chronicles 20:5",
            "text": "\u03ba\u03b1\u03b9 \u03b1\u03bd\u03ad\u03c3\u03c4\u03b7 \u0399\u03c9\u03c3\u03b1\u03c6\u03ac\u03c4 \u03b5\u03bd \u03c4\u03b7 \u03b5\u03ba\u03ba\u03bb\u03b7\u03c3\u03af\u03b1 \u0399\u03bf\u03cd\u03b4\u03b1 \u03b5\u03bd \u0399\u03b5\u03c1\u03bf\u03c5\u03c3\u03b1\u03bb\u03ae\u03bc \u03b5\u03bd \u03bf\u03af\u03ba\u03c9 \u03ba\u03c5\u03c1\u03af\u03bf\u03c5 \u03ba\u03b1\u03c4\u03ac \u03c0\u03c1\u03cc\u03c3\u03c9\u03c0\u03bf\u03bd \u03c4\u03b7\u03c2 \u03b1\u03c5\u03bb\u03ae\u03c2 \u03c4\u03b7\u03c2 \u03ba\u03b1\u03b9\u03bd\u03ae\u03c2"
        },
        {
            "chapter": 20,
            "verse": 6,
            "name": "2 Chronicles 20:6",
            "text": "\u03ba\u03b1\u03b9 \u03b5\u03af\u03c0\u03b5 \u03ba\u03cd\u03c1\u03b9\u03b5 \u03bf \u03b8\u03b5\u03cc\u03c2 \u03c4\u03c9\u03bd \u03c0\u03b1\u03c4\u03ad\u03c1\u03c9\u03bd \u03b7\u03bc\u03ce\u03bd \u03bf\u03c5\u03c7\u03af \u03c3\u03c5 \u03b5\u03b9 \u03b8\u03b5\u03cc\u03c2 \u03b5\u03bd \u03bf\u03c5\u03c1\u03b1\u03bd\u03ce \u03ba\u03b1\u03b9 \u03c3\u03c5 \u03ba\u03c5\u03c1\u03b9\u03b5\u03cd\u03b5\u03b9\u03c2 \u03c0\u03b1\u03c3\u03ce\u03bd \u03c4\u03c9\u03bd \u03b2\u03b1\u03c3\u03b9\u03bb\u03b5\u03b9\u03ce\u03bd \u03c4\u03c9\u03bd \u03b5\u03b8\u03bd\u03ce\u03bd \u03ba\u03b1\u03b9 \u03b5\u03bd \u03c4\u03b7 \u03c7\u03b5\u03b9\u03c1\u03af \u03c3\u03bf\u03c5 \u03b9\u03c3\u03c7\u03cd\u03c2 \u03ba\u03b1\u03b9 \u03b4\u03c5\u03bd\u03b1\u03c3\u03c4\u03b5\u03af\u03b1 \u03ba\u03b1\u03b9 \u03bf\u03c5\u03ba \u03ad\u03c3\u03c4\u03b9 \u03c0\u03b1\u03c1\u03ac \u03c3\u03bf\u03b9 \u03c4\u03bf\u03c5 \u03b1\u03bd\u03c4\u03b9\u03c3\u03c4\u03ae\u03bd\u03b1\u03b9"
        },
        {
            "chapter": 20,
            "verse": 7,
            "name": "2 Chronicles 20:7",
            "text": "\u03bf\u03c5\u03c7\u03af \u03c3\u03c5 \u03b5\u03b9 \u03bf \u03b8\u03b5\u03cc\u03c2 \u03b7\u03bc\u03ce\u03bd \u03bf \u03b5\u03be\u03bf\u03bb\u03bf\u03b8\u03c1\u03b5\u03cd\u03c3\u03b1\u03c2 \u03c4\u03bf\u03c5\u03c2 \u03ba\u03b1\u03c4\u03bf\u03b9\u03ba\u03bf\u03cd\u03bd\u03c4\u03b1\u03c2 \u03c4\u03b7\u03bd \u03b3\u03b7\u03bd \u03c4\u03b1\u03cd\u03c4\u03b7\u03bd \u03b1\u03c0\u03cc \u03c0\u03c1\u03bf\u03c3\u03ce\u03c0\u03bf\u03c5 \u03c4\u03bf\u03c5 \u03bb\u03b1\u03bf\u03cd \u03c3\u03bf\u03c5 \u0399\u03c3\u03c1\u03b1\u03ae\u03bb \u03ba\u03b1\u03b9 \u03ad\u03b4\u03c9\u03ba\u03b1\u03c2 \u03b1\u03c5\u03c4\u03ae\u03bd \u03c3\u03c0\u03ad\u03c1\u03bc\u03b1\u03c4\u03b9 \u0391\u03b2\u03c1\u03b1\u03ac\u03bc \u03c4\u03c9 \u03c6\u03af\u03bb\u03c9 \u03c3\u03bf\u03c5 \u03b5\u03b9\u03c2 \u03c4\u03bf\u03bd \u03b1\u03b9\u03ce\u03bd\u03b1"
        },
        {
            "chapter": 20,
            "verse": 8,
            "name": "2 Chronicles 20:8",
            "text": "\u03ba\u03b1\u03b9 \u03ba\u03b1\u03c4\u03ce\u03ba\u03b7\u03c3\u03b1\u03bd \u03b5\u03bd \u03b1\u03c5\u03c4\u03ae \u03ba\u03b1\u03b9 \u03c9\u03ba\u03bf\u03b4\u03cc\u03bc\u03b7\u03c3\u03ac\u03bd \u03c3\u03bf\u03b9 \u03b5\u03bd \u03b1\u03c5\u03c4\u03ae \u03b1\u03b3\u03af\u03b1\u03c3\u03bc\u03b1 \u03c4\u03c9 \u03bf\u03bd\u03cc\u03bc\u03b1\u03c4\u03af \u03c3\u03bf\u03c5 \u03bb\u03ad\u03b3\u03bf\u03bd\u03c4\u03b5\u03c2"
        },
        {
            "chapter": 20,
            "verse": 9,
            "name": "2 Chronicles 20:9",
            "text": "\u03b5\u03ac\u03bd \u03b5\u03c0\u03ad\u03bb\u03b8\u03b7 \u03b5\u03c6\u0384 \u03b7\u03bc\u03ac\u03c2 \u03ba\u03b1\u03ba\u03ac \u03c1\u03bf\u03bc\u03c6\u03b1\u03af\u03b1 \u03ba\u03c1\u03af\u03c3\u03b9\u03c2 \u03b8\u03ac\u03bd\u03b1\u03c4\u03bf\u03c2 \u03bb\u03b9\u03bc\u03cc\u03c2 \u03c3\u03c4\u03b7\u03c3\u03cc\u03bc\u03b5\u03b8\u03b1 \u03b5\u03bd\u03b1\u03bd\u03c4\u03af\u03bf\u03bd \u03c4\u03bf\u03c5 \u03bf\u03af\u03ba\u03bf\u03c5 \u03c4\u03bf\u03cd\u03c4\u03bf\u03c5 \u03ba\u03b1\u03b9 \u03b5\u03bd\u03b1\u03bd\u03c4\u03af\u03bf\u03bd \u03c3\u03bf\u03c5 \u03cc\u03c4\u03b9 \u03c4\u03bf \u03cc\u03bd\u03bf\u03bc\u03ac \u03c3\u03bf\u03c5 \u03b5\u03c0\u03b9\u03ba\u03ad\u03ba\u03bb\u03b7\u03c4\u03b1\u03b9 \u03b5\u03bd \u03c4\u03c9 \u03bf\u03af\u03ba\u03c9 \u03c4\u03bf\u03cd\u03c4\u03c9 \u03ba\u03b1\u03b9 \u03b2\u03bf\u03b7\u03c3\u03cc\u03bc\u03b5\u03b8\u03b1 \u03c0\u03c1\u03bf\u03c2 \u03c3\u03b5 \u03b1\u03c0\u03cc \u03c4\u03b7\u03c2 \u03b8\u03bb\u03af\u03c8\u03b5\u03c9\u03c2 \u03b7\u03bc\u03ce\u03bd \u03ba\u03b1\u03b9 \u03b1\u03ba\u03bf\u03cd\u03c3\u03b7 \u03ba\u03b1\u03b9 \u03c3\u03ce\u03c3\u03b5\u03b9\u03c2 "
        },
        {
            "chapter": 20,
            "verse": 10,
            "name": "2 Chronicles 20:10",
            "text": "  \u03ba\u03b1\u03b9 \u03bd\u03c5\u03bd \u03b9\u03b4\u03bf\u03cd \u03bf\u03b9 \u03c5\u03b9\u03bf\u03af \u0391\u03bc\u03bc\u03ce\u03bd \u03ba\u03b1\u03b9 \u039c\u03c9\u03ac\u03b2 \u03ba\u03b1\u03b9 \u03cc\u03c1\u03bf\u03c2 \u03a3\u03b7\u03b5\u03af\u03c1 \u03b5\u03b9\u03c2 \u03bf\u03c5\u03c2 \u03bf\u03c5\u03ba \u03ad\u03b4\u03c9\u03ba\u03b1\u03c2 \u03c4\u03c9 \u0399\u03c3\u03c1\u03b1\u03ae\u03bb \u03b4\u03b9\u03b5\u03bb\u03b8\u03b5\u03af\u03bd \u03b4\u03b9\u0384 \u03b1\u03c5\u03c4\u03ce\u03bd \u03b5\u03be\u03b5\u03bb\u03b8\u03cc\u03bd\u03c4\u03c9\u03bd \u03b1\u03c5\u03c4\u03ce\u03bd \u03b5\u03ba \u03b3\u03b7\u03c2 \u0391\u03b9\u03b3\u03cd\u03c0\u03c4\u03bf\u03c5 \u03cc\u03c4\u03b9 \u03b5\u03be\u03ad\u03ba\u03bb\u03b9\u03bd\u03b1\u03bd \u03b1\u03c0\u0384 \u03b1\u03c5\u03c4\u03ce\u03bd \u03ba\u03b1\u03b9 \u03bf\u03c5\u03ba \u03b5\u03be\u03c9\u03bb\u03cc\u03b8\u03c1\u03b5\u03c5\u03c3\u03b1\u03bd \u03b1\u03c5\u03c4\u03bf\u03cd\u03c2"
        },
        {
            "chapter": 20,
            "verse": 11,
            "name": "2 Chronicles 20:11",
            "text": "\u03ba\u03b1\u03b9 \u03b9\u03b4\u03bf\u03cd \u03b1\u03c5\u03c4\u03bf\u03af \u03b5\u03c0\u03b9\u03c7\u03b5\u03b9\u03c1\u03bf\u03cd\u03c3\u03b9\u03bd \u03b5\u03c6\u0384 \u03b7\u03bc\u03ac\u03c2 \u03c4\u03bf\u03c5 \u03b5\u03bb\u03b8\u03b5\u03af\u03bd \u03ba\u03b1\u03b9 \u03b5\u03ba\u03b2\u03b1\u03bb\u03b5\u03af\u03bd \u03b7\u03bc\u03ac\u03c2 \u03b1\u03c0\u03cc \u03c4\u03b7\u03c2 \u03ba\u03bb\u03b7\u03c1\u03bf\u03bd\u03bf\u03bc\u03af\u03b1\u03c2 \u03b7\u03bc\u03ce\u03bd \u03b7\u03c2 \u03b4\u03ad\u03b4\u03c9\u03ba\u03b1\u03c2 \u03b7\u03bc\u03af\u03bd"
        },
        {
            "chapter": 20,
            "verse": 12,
            "name": "2 Chronicles 20:12",
            "text": "\u03ba\u03cd\u03c1\u03b9\u03b5 \u03bf \u03b8\u03b5\u03cc\u03c2 \u03b7\u03bc\u03ce\u03bd \u03bf\u03c5 \u03ba\u03c1\u03b9\u03bd\u03b5\u03af\u03c2 \u03b5\u03bd \u03b1\u03c5\u03c4\u03bf\u03af\u03c2 \u03cc\u03c4\u03b9 \u03bf\u03c5\u03ba \u03ad\u03c3\u03c4\u03b9\u03bd \u03b7\u03bc\u03af\u03bd \u03b9\u03c3\u03c7\u03cd\u03c2 \u03c4\u03bf\u03c5 \u03b1\u03bd\u03c4\u03b9\u03c3\u03c4\u03ae\u03bd\u03b1\u03b9 \u03c0\u03c1\u03bf\u03c2 \u03c4\u03bf \u03c0\u03bb\u03ae\u03b8\u03bf\u03c2 \u03c4\u03bf \u03c0\u03bf\u03bb\u03cd \u03c4\u03bf\u03cd\u03c4\u03bf \u03c4\u03bf \u03b5\u03bb\u03b8\u03cc\u03bd \u03b5\u03c6\u0384 \u03b7\u03bc\u03ac\u03c2 \u03ba\u03b1\u03b9 \u03bf\u03c5\u03ba \u03bf\u03af\u03b4\u03b1\u03bc\u03b5\u03bd \u03c4\u03b9 \u03c0\u03bf\u03b9\u03ae\u03c3\u03c9\u03bc\u03b5\u03bd \u03bf\u03c4\u03b9 \u03b5\u03c0\u03af \u03c3\u03bf\u03b9 \u03bf\u03b9 \u03bf\u03c6\u03b8\u03b1\u03bb\u03bc\u03bf\u03af \u03b7\u03bc\u03ce\u03bd"
        },
        {
            "chapter": 20,
            "verse": 13,
            "name": "2 Chronicles 20:13",
            "text": "\u03ba\u03b1\u03b9 \u03c0\u03b1\u03c2 \u0399\u03bf\u03cd\u03b4\u03b1\u03c2 \u03b5\u03b9\u03c3\u03c4\u03ae\u03ba\u03b5\u03b9 \u03ad\u03bd\u03b1\u03bd\u03c4\u03b9 \u03ba\u03c5\u03c1\u03af\u03bf\u03c5 \u03ba\u03b1\u03b9 \u03c4\u03b1 \u03c0\u03b1\u03b9\u03b4\u03af\u03b1 \u03b1\u03c5\u03c4\u03ce\u03bd \u03ba\u03b1\u03b9 \u03b1\u03b9 \u03b3\u03c5\u03bd\u03b1\u03af\u03ba\u03b5\u03c2 \u03b1\u03c5\u03c4\u03ce\u03bd \u03ba\u03b1\u03b9 \u03bf\u03b9 \u03c5\u03b9\u03bf\u03af \u03b1\u03c5\u03c4\u03ce\u03bd"
        },
        {
            "chapter": 20,
            "verse": 14,
            "name": "2 Chronicles 20:14",
            "text": "\u03ba\u03b1\u03b9 \u0399\u03b5\u03b6\u03b9\u03ae\u03bb \u03bf \u03c4\u03bf\u03c5 \u0396\u03b1\u03c7\u03b1\u03c1\u03af\u03bf\u03c5 \u03c5\u03b9\u03bf\u03cd \u0392\u03b1\u03bd\u03b1\u03ca\u03bf\u03c5 \u03c5\u03b9\u03bf\u03cd \u0399\u03b5\u03ca\u03b7\u03bb \u03c5\u03b9\u03bf\u03cd \u039c\u03b1\u03b8\u03b8\u03b1\u03bd\u03af\u03bf\u03c5 \u03bf \u039b\u03b5\u03c5\u03b9\u03c4\u03ae\u03c2 \u03b1\u03c0\u03cc \u03c4\u03c9\u03bd \u03c5\u03b9\u03ce\u03bd \u0391\u03c3\u03ac\u03c6 \u03b5\u03b3\u03ad\u03bd\u03b5\u03c4\u03bf \u03b5\u03c0\u0384 \u03b1\u03c5\u03c4\u03cc\u03bd \u03c0\u03bd\u03b5\u03cd\u03bc\u03b1 \u03ba\u03c5\u03c1\u03af\u03bf\u03c5 \u03b5\u03bd \u03c4\u03b7 \u03b5\u03ba\u03ba\u03bb\u03b7\u03c3\u03af\u03b1"
        },
        {
            "chapter": 20,
            "verse": 15,
            "name": "2 Chronicles 20:15",
            "text": "\u03ba\u03b1\u03b9 \u03b5\u03af\u03c0\u03b5\u03bd \u03b1\u03ba\u03bf\u03cd\u03c3\u03b1\u03c4\u03b5 \u03c0\u03b1\u03c2 \u0399\u03bf\u03cd\u03b4\u03b1 \u03ba\u03b1\u03b9 \u03bf\u03b9 \u03ba\u03b1\u03c4\u03bf\u03b9\u03ba\u03bf\u03cd\u03bd\u03c4\u03b5\u03c2 \u03b5\u03bd \u0399\u03b5\u03c1\u03bf\u03c5\u03c3\u03b1\u03bb\u03ae\u03bc \u03ba\u03b1\u03b9 \u03bf \u03b2\u03b1\u03c3\u03b9\u03bb\u03b5\u03cd\u03c2 \u0399\u03c9\u03c3\u03b1\u03c6\u03ac\u03c4 \u03c4\u03ac\u03b4\u03b5 \u03bb\u03ad\u03b3\u03b5\u03b9 \u03ba\u03cd\u03c1\u03b9\u03bf\u03c2 \u03c5\u03bc\u03af\u03bd \u03bc\u03b7 \u03c6\u03bf\u03b2\u03b7\u03b8\u03ae\u03c4\u03b5 \u03bc\u03b7\u03b4\u03ad \u03c0\u03c4\u03bf\u03b7\u03b8\u03ae\u03c4\u03b5 \u03b1\u03c0\u03cc \u03c0\u03c1\u03bf\u03c3\u03ce\u03c0\u03bf\u03c5 \u03c4\u03bf\u03c5 \u03cc\u03c7\u03bb\u03bf\u03c5 \u03c4\u03bf\u03c5 \u03c0\u03bf\u03bb\u03bb\u03bf\u03cd \u03c4\u03bf\u03cd\u03c4\u03bf\u03c5 \u03cc\u03c4\u03b9 \u03bf\u03c5\u03c7 \u03c5\u03bc\u03af\u03bd \u03b5\u03c3\u03c4\u03b9\u03bd \u03b7 \u03c0\u03b1\u03c1\u03ac\u03c4\u03b1\u03be\u03b9\u03c2 \u03b1\u03bb\u03bb\u0384 \u03b7 \u03c4\u03c9 \u03b8\u03b5\u03ce"
        },
        {
            "chapter": 20,
            "verse": 16,
            "name": "2 Chronicles 20:16",
            "text": "\u03b1\u03cd\u03c1\u03b9\u03bf\u03bd \u03ba\u03b1\u03c4\u03ac\u03b2\u03b7\u03c4\u03b5 \u03b5\u03c0\u0384 \u03b1\u03c5\u03c4\u03bf\u03cd\u03c2 \u03b9\u03b4\u03bf\u03cd \u03b1\u03bd\u03b1\u03b2\u03b1\u03af\u03bd\u03bf\u03c5\u03c3\u03b9 \u03ba\u03b1\u03c4\u03ac \u03c4\u03b7\u03bd \u03b1\u03bd\u03ac\u03b2\u03b1\u03c3\u03b9\u03bd \u0391\u03c3\u03af\u03c2 \u03ba\u03b1\u03b9 \u03b5\u03c5\u03c1\u03ae\u03c3\u03b5\u03c4\u03b5 \u03b1\u03c5\u03c4\u03bf\u03cd\u03c2 \u03b5\u03c0\u0384 \u03ac\u03ba\u03c1\u03bf\u03c5 \u03c0\u03bf\u03c4\u03b1\u03bc\u03bf\u03cd \u03c4\u03b7\u03c2 \u03b5\u03c1\u03ae\u03bc\u03bf\u03c5 \u0399\u03b5\u03c1\u03b9\u03ae\u03bb"
        },
        {
            "chapter": 20,
            "verse": 17,
            "name": "2 Chronicles 20:17",
            "text": "\u03bf\u03c5\u03c7 \u03c5\u03bc\u03af\u03bd \u03b5\u03c3\u03c4\u03b9 \u03c0\u03bf\u03bb\u03b5\u03bc\u03ae\u03c3\u03b1\u03b9 \u03b5\u03bd \u03c4\u03b1\u03cd\u03c4\u03b7 \u03c3\u03c4\u03ae\u03c4\u03b5 \u03ba\u03b1\u03b9 \u03c3\u03cd\u03bd\u03b5\u03c4\u03b5 \u03ba\u03b1\u03b9 \u03af\u03b4\u03b5\u03c4\u03b5 \u03c4\u03b7\u03bd \u03c3\u03c9\u03c4\u03b7\u03c1\u03af\u03b1\u03bd \u03ba\u03c5\u03c1\u03af\u03bf\u03c5 \u03bc\u03b5\u03b8\u0384 \u03c5\u03bc\u03ce\u03bd \u0399\u03bf\u03cd\u03b4\u03b1 \u03ba\u03b1\u03b9 \u0399\u03b5\u03c1\u03bf\u03c5\u03c3\u03b1\u03bb\u03ae\u03bc \u03bc\u03b7 \u03c6\u03bf\u03b2\u03b7\u03b8\u03ae\u03c4\u03b5 \u03bc\u03b7\u03b4\u03ad \u03c0\u03c4\u03bf\u03b7\u03b8\u03ae\u03c4\u03b5 \u03b1\u03cd\u03c1\u03b9\u03bf\u03bd \u03b5\u03be\u03b5\u03bb\u03b8\u03b5\u03af\u03bd \u03b5\u03b9\u03c2 \u03b1\u03c0\u03ac\u03bd\u03c4\u03b7\u03c3\u03b9\u03bd \u03b1\u03c5\u03c4\u03bf\u03af\u03c2 \u03ba\u03b1\u03b9 \u03ba\u03cd\u03c1\u03b9\u03bf\u03c2 \u03bc\u03b5\u03b8\u0384 \u03c5\u03bc\u03ce\u03bd"
        },
        {
            "chapter": 20,
            "verse": 18,
            "name": "2 Chronicles 20:18",
            "text": "\u03ba\u03b1\u03b9 \u03ba\u03cd\u03c8\u03b1\u03c2 \u0399\u03c9\u03c3\u03b1\u03c6\u03ac\u03c4 \u03b5\u03c0\u03af \u03c0\u03c1\u03cc\u03c3\u03c9\u03c0\u03bf\u03bd \u03b1\u03c5\u03c4\u03bf\u03cd \u03b5\u03c0\u03af \u03c4\u03b7\u03bd \u03b3\u03b7\u03bd \u03ba\u03b1\u03b9 \u03c0\u03b1\u03c2 \u0399\u03bf\u03cd\u03b4\u03b1 \u03ba\u03b1\u03b9 \u03bf\u03b9 \u03ba\u03b1\u03c4\u03bf\u03b9\u03ba\u03bf\u03cd\u03bd\u03c4\u03b5\u03c2 \u0399\u03b5\u03c1\u03bf\u03c5\u03c3\u03b1\u03bb\u03ae\u03bc \u03ad\u03c0\u03b5\u03c3\u03bf\u03bd \u03ad\u03bd\u03b1\u03bd\u03c4\u03b9 \u03ba\u03c5\u03c1\u03af\u03bf\u03c5 \u03c4\u03bf\u03c5 \u03c0\u03c1\u03bf\u03c3\u03ba\u03c5\u03bd\u03ae\u03c3\u03b1\u03b9 \u03ba\u03c5\u03c1\u03af\u03c9"
        },
        {
            "chapter": 20,
            "verse": 19,
            "name": "2 Chronicles 20:19",
            "text": "\u03ba\u03b1\u03b9 \u03b1\u03bd\u03ad\u03c3\u03c4\u03b7\u03c3\u03b1\u03bd \u03bf\u03b9 \u039b\u03b5\u03c5\u03af\u03c4\u03b1\u03b9 \u03b1\u03c0\u03cc \u03c4\u03c9\u03bd \u03c5\u03b9\u03ce\u03bd \u039a\u03b1\u03ac\u03b8 \u03ba\u03b1\u03b9 \u03b1\u03c0\u03cc \u03c4\u03c9\u03bd \u03c5\u03b9\u03ce\u03bd \u03c4\u03c9\u03bd \u039a\u03bf\u03c1\u03b7\u03bd\u03ce\u03bd \u03c4\u03bf\u03c5 \u03b1\u03b9\u03bd\u03b5\u03af\u03bd \u03ba\u03c5\u03c1\u03af\u03c9 \u03c4\u03c9 \u03b8\u03b5\u03ce \u0399\u03c3\u03c1\u03b1\u03ae\u03bb \u03b5\u03bd \u03c6\u03c9\u03bd\u03ae \u03bc\u03b5\u03b3\u03ac\u03bb\u03b7 \u03b5\u03b9\u03c2 \u03cd\u03c8\u03bf\u03c2"
        },
        {
            "chapter": 20,
            "verse": 20,
            "name": "2 Chronicles 20:20",
            "text": "\u03ba\u03b1\u03b9 \u03ce\u03c1\u03b8\u03c1\u03b9\u03c3\u03b1\u03bd \u03c4\u03bf\u03c0\u03c1\u03c9\u03ca \u03ba\u03b1\u03b9 \u03b5\u03be\u03ae\u03bb\u03b8\u03bf\u03bd \u03b5\u03b9\u03c2 \u03c4\u03b7\u03bd \u03ad\u03c1\u03b7\u03bc\u03bf\u03bd \u03b8\u03b5\u03ba\u03c9\u03ad \u03b5\u03bd \u03b4\u03b5 \u03c4\u03c9 \u03b5\u03be\u03b5\u03bb\u03b8\u03b5\u03af\u03bd \u03b1\u03c5\u03c4\u03bf\u03cd\u03c2 \u03ad\u03c3\u03c4\u03b7 \u0399\u03c9\u03c3\u03b1\u03c6\u03ac\u03c4 \u03ba\u03b1\u03b9 \u03b5\u03b2\u03cc\u03b7\u03c3\u03b5 \u03ba\u03b1\u03b9 \u03b5\u03af\u03c0\u03b5\u03bd \u03b1\u03ba\u03bf\u03cd\u03c3\u03b1\u03c4\u03ad \u03bc\u03bf\u03c5 \u0399\u03bf\u03cd\u03b4\u03b1 \u03ba\u03b1\u03b9 \u03bf\u03b9 \u03ba\u03b1\u03c4\u03bf\u03b9\u03ba\u03bf\u03cd\u03bd\u03c4\u03b5\u03c2 \u03b5\u03bd \u0399\u03b5\u03c1\u03bf\u03c5\u03c3\u03b1\u03bb\u03ae\u03bc \u03b5\u03bc\u03c0\u03b9\u03c3\u03c4\u03b5\u03cd\u03c3\u03b1\u03c4\u03b5 \u03ba\u03c5\u03c1\u03af\u03c9 \u03c4\u03c9 \u03b8\u03b5\u03ce \u03c5\u03bc\u03ce\u03bd \u03ba\u03b1\u03b9 \u03b5\u03bc\u03c0\u03b9\u03c3\u03c4\u03b5\u03c5\u03b8\u03ae\u03c3\u03b5\u03c3\u03b8\u03b5 \u03b5\u03bc\u03c0\u03b9\u03c3\u03c4\u03b5\u03cd\u03c3\u03b1\u03c4\u03b5 \u03b5\u03bd \u03c0\u03c1\u03bf\u03c6\u03ae\u03c4\u03b1\u03b9\u03c2 \u03b1\u03c5\u03c4\u03bf\u03cd \u03ba\u03b1\u03b9 \u03b5\u03c5\u03bf\u03b4\u03c9\u03b8\u03ae\u03c3\u03b5\u03c3\u03b8\u03b5"
        },
        {
            "chapter": 20,
            "verse": 21,
            "name": "2 Chronicles 20:21",
            "text": "\u03ba\u03b1\u03b9 \u03c3\u03c5\u03bc\u03b2\u03bf\u03c5\u03bb\u03b5\u03c5\u03c3\u03ac\u03bc\u03b5\u03bd\u03bf\u03c2 \u03bc\u03b5\u03c4\u03ac \u03c4\u03bf\u03c5 \u03bb\u03b1\u03bf\u03cd \u03ba\u03b1\u03b9 \u03ad\u03c3\u03c4\u03b7\u03c3\u03b5 \u03c8\u03b1\u03bb\u03c4\u03c9\u03b4\u03bf\u03cd\u03c2 \u03ba\u03b1\u03b9 \u03b1\u03b9\u03bd\u03bf\u03cd\u03bd\u03c4\u03b1\u03c2 \u03c4\u03bf\u03bd \u03ba\u03cd\u03c1\u03b9\u03bf\u03bd \u03c4\u03bf\u03c5 \u03b5\u03be\u03bf\u03bc\u03bf\u03bb\u03bf\u03b3\u03b5\u03af\u03c3\u03b8\u03b1\u03b9 \u03ba\u03b1\u03b9 \u03b1\u03b9\u03bd\u03b5\u03af\u03bd \u03c4\u03c9 \u03b1\u03b3\u03af\u03c9 \u03b5\u03bd \u03c4\u03c9 \u03b5\u03be\u03b5\u03bb\u03b8\u03b5\u03af\u03bd \u03ad\u03bc\u03c0\u03c1\u03bf\u03c3\u03b8\u03b5\u03bd \u03c4\u03b7\u03c2 \u03b4\u03c5\u03bd\u03ac\u03bc\u03b5\u03c9\u03c2 \u03ba\u03b1\u03b9 \u03ad\u03bb\u03b5\u03b3\u03bf\u03bd \u03b5\u03be\u03bf\u03bc\u03bf\u03bb\u03bf\u03b3\u03b5\u03af\u03c3\u03b8\u03b5 \u03c4\u03c9 \u03ba\u03c5\u03c1\u03af\u03c9 \u03cc\u03c4\u03b9 \u03b5\u03b9\u03c2 \u03c4\u03bf\u03bd \u03b1\u03b9\u03ce\u03bd\u03b1 \u03c4\u03bf \u03ad\u03bb\u03b5\u03bf\u03c2 \u03b1\u03c5\u03c4\u03bf\u03cd"
        },
        {
            "chapter": 20,
            "verse": 22,
            "name": "2 Chronicles 20:22",
            "text": "\u03ba\u03b1\u03b9 \u03b5\u03bd \u03c4\u03c9 \u03ac\u03c1\u03be\u03b1\u03c3\u03b8\u03b1\u03b9 \u03b1\u03c5\u03c4\u03bf\u03cd\u03c2 \u03c4\u03b7\u03c2 \u03b1\u03b9\u03bd\u03ad\u03c3\u03b5\u03c9\u03c2 \u03ba\u03b1\u03b9 \u03c4\u03b7\u03c2 \u03b5\u03be\u03bf\u03bc\u03bf\u03bb\u03bf\u03b3\u03ae\u03c3\u03b5\u03c9\u03c2 \u03ad\u03b4\u03c9\u03ba\u03b5 \u03ba\u03cd\u03c1\u03b9\u03bf\u03c2 \u03ad\u03bd\u03b5\u03b4\u03c1\u03bf\u03bd \u03c4\u03bf\u03c5 \u03c0\u03bf\u03bb\u03b5\u03bc\u03b5\u03af\u03bd \u03c4\u03bf\u03c5\u03c2 \u03c5\u03b9\u03bf\u03cd\u03c2 \u0391\u03bc\u03bc\u03ce\u03bd \u03b5\u03c0\u03af \u039c\u03c9\u03ac\u03b2 \u03ba\u03b1\u03b9 \u03cc\u03c1\u03bf\u03c2 \u03a3\u03b7\u03b5\u03af\u03c1 \u03c4\u03bf\u03c5\u03c2 \u03b5\u03be\u03b5\u03bb\u03b8\u03cc\u03bd\u03c4\u03b1\u03c2 \u03b5\u03c0\u03af \u0399\u03bf\u03cd\u03b4\u03b1\u03bd \u03ba\u03b1\u03b9 \u03b5\u03c4\u03c1\u03bf\u03c0\u03ce\u03b8\u03b7\u03c3\u03b1\u03bd "
        },
        {
            "chapter": 20,
            "verse": 23,
            "name": "2 Chronicles 20:23",
            "text": "  \u03ba\u03b1\u03b9 \u03b1\u03bd\u03ad\u03c3\u03c4\u03b7\u03c3\u03b1\u03bd \u03bf\u03b9 \u03c5\u03b9\u03bf\u03af \u0391\u03bc\u03bc\u03ce\u03bd \u03ba\u03b1\u03b9 \u039c\u03c9\u03ac\u03b2 \u03b5\u03c0\u03af \u03c4\u03bf\u03c5\u03c2 \u03ba\u03b1\u03c4\u03bf\u03b9\u03ba\u03bf\u03cd\u03bd\u03c4\u03b1\u03c2 \u03cc\u03c1\u03bf\u03c2 \u03a3\u03b7\u03b5\u03af\u03c1 \u03b5\u03be\u03bf\u03bb\u03bf\u03b8\u03c1\u03b5\u03cd\u03c3\u03b1\u03b9 \u03ba\u03b1\u03b9 \u03b5\u03ba\u03c4\u03c1\u03af\u03c8\u03b1\u03b9 \u03b1\u03c5\u03c4\u03bf\u03cd\u03c2 \u03ba\u03b1\u03b9 \u03c9\u03c2 \u03c3\u03c5\u03bd\u03b5\u03c4\u03ad\u03bb\u03b5\u03c3\u03b1\u03bd \u03c4\u03bf\u03c5\u03c2 \u03ba\u03b1\u03c4\u03bf\u03b9\u03ba\u03bf\u03cd\u03bd\u03c4\u03b1\u03c2 \u03a3\u03b7\u03b5\u03af\u03c1 \u03b1\u03bd\u03ad\u03c3\u03c4\u03b7\u03c3\u03b1\u03bd \u03b5\u03c0\u0384 \u03b1\u03bb\u03bb\u03ae\u03bb\u03bf\u03c5\u03c2 \u03ba\u03b1\u03b9 \u03b5\u03bb\u03ac\u03b2\u03b5\u03c4\u03bf \u03b1\u03bd\u03ae\u03c1 \u03c4\u03bf\u03c5 \u03c0\u03bb\u03b7\u03c3\u03af\u03bf\u03bd \u03b1\u03c5\u03c4\u03bf\u03cd \u03b5\u03b9\u03c2 \u03b4\u03b9\u03b1\u03c6\u03b8\u03bf\u03c1\u03ac\u03bd"
        },
        {
            "chapter": 20,
            "verse": 24,
            "name": "2 Chronicles 20:24",
            "text": "\u03ba\u03b1\u03b9 \u0399\u03bf\u03cd\u03b4\u03b1\u03c2 \u03ae\u03bb\u03b8\u03b5\u03bd \u03b5\u03c0\u03af \u03c4\u03b7\u03bd \u03c3\u03ba\u03bf\u03c0\u03b9\u03ac\u03bd \u03b5\u03b9\u03c2 \u03c4\u03b7\u03c2 \u03b5\u03c1\u03ae\u03bc\u03bf\u03c5 \u03ba\u03b1\u03b9 \u03b5\u03c0\u03ad\u03b2\u03bb\u03b5\u03c8\u03b5 \u03ba\u03b1\u03b9 \u03b5\u03af\u03b4\u03b5 \u03c4\u03bf \u03c0\u03bb\u03ae\u03b8\u03bf\u03c2 \u03ba\u03b1\u03b9 \u03b9\u03b4\u03bf\u03cd \u03c0\u03ac\u03bd\u03c4\u03b5\u03c2 \u03bd\u03b5\u03ba\u03c1\u03bf\u03af \u03c0\u03b5\u03c0\u03c4\u03c9\u03ba\u03cc\u03c4\u03b5\u03c2 \u03b5\u03c0\u03af \u03c4\u03b7\u03c2 \u03b3\u03b7\u03c2 \u03bf\u03c5\u03ba \u03b7\u03bd \u03b1\u03bd\u03b1\u03c3\u03c9\u03b6\u03cc\u03bc\u03b5\u03bd\u03bf\u03c2"
        },
        {
            "chapter": 20,
            "verse": 25,
            "name": "2 Chronicles 20:25",
            "text": "\u03ba\u03b1\u03b9 \u03ae\u03bb\u03b8\u03b5\u03bd \u0399\u03c9\u03c3\u03b1\u03c6\u03ac\u03c4 \u03ba\u03b1\u03b9 \u03bf \u03bb\u03b1\u03cc\u03c2 \u03b1\u03c5\u03c4\u03bf\u03cd \u03c3\u03ba\u03c5\u03bb\u03b5\u03cd\u03c3\u03b1\u03b9 \u03c4\u03b1 \u03c3\u03ba\u03cd\u03bb\u03b1 \u03b1\u03c5\u03c4\u03ce\u03bd \u03ba\u03b1\u03b9 \u03b5\u03cd\u03c1\u03bf\u03bd \u03ba\u03c4\u03ae\u03bd\u03b7 \u03c0\u03bf\u03bb\u03bb\u03ac \u03ba\u03b1\u03b9 \u03b1\u03c0\u03bf\u03c3\u03ba\u03b5\u03c5\u03ae\u03bd \u03ba\u03b1\u03b9 \u03c3\u03ba\u03cd\u03bb\u03b1 \u03ba\u03b1\u03b9 \u03c3\u03ba\u03b5\u03cd\u03b7 \u03b5\u03c0\u03b9\u03b8\u03c5\u03bc\u03b7\u03c4\u03ac \u03ba\u03b1\u03b9 \u03b5\u03c3\u03ba\u03cd\u03bb\u03b5\u03c5\u03c3\u03b1\u03bd \u03b5\u03b1\u03c5\u03c4\u03bf\u03af\u03c2 \u03ba\u03b1\u03b9 \u03b5\u03b3\u03ad\u03bd\u03bf\u03bd\u03c4\u03bf \u03b7\u03bc\u03ad\u03c1\u03b1\u03b9 \u03c4\u03c1\u03b5\u03b9\u03c2 \u03c0\u03c1\u03bf\u03bd\u03bf\u03bc\u03b5\u03c5\u03cc\u03bd\u03c4\u03c9\u03bd \u03c4\u03b1 \u03c3\u03ba\u03cd\u03bb\u03b1 \u03b4\u03b9\u03cc\u03c4\u03b9 \u03c0\u03bf\u03bb\u03bb\u03ac \u03b7\u03bd"
        },
        {
            "chapter": 20,
            "verse": 26,
            "name": "2 Chronicles 20:26",
            "text": "\u03ba\u03b1\u03b9 \u03c4\u03b7 \u03b7\u03bc\u03ad\u03c1\u03b1 \u03c4\u03b7 \u03c4\u03b5\u03c4\u03ac\u03c1\u03c4\u03b7 \u03b5\u03c0\u03b9\u03c3\u03c5\u03bd\u03ae\u03c7\u03b8\u03b7\u03c3\u03b1\u03bd \u03b5\u03b9\u03c2 \u03c4\u03b7\u03bd \u03ba\u03bf\u03b9\u03bb\u03ac\u03b4\u03b1 \u03c4\u03b7\u03c2 \u03b5\u03c5\u03bb\u03bf\u03b3\u03af\u03b1\u03c2 \u03b5\u03ba\u03b5\u03af \u03b3\u03b1\u03c1 \u03b7\u03cd\u03bb\u03bf\u03b3\u03b7\u03c3\u03b1\u03bd \u03c4\u03bf\u03bd \u03ba\u03cd\u03c1\u03b9\u03bf\u03bd \u03b4\u03b9\u03ac \u03c4\u03bf\u03cd\u03c4\u03bf \u03b5\u03ba\u03ac\u03bb\u03b5\u03c3\u03b1\u03bd \u03c4\u03bf \u03cc\u03bd\u03bf\u03bc\u03b1 \u03c4\u03bf\u03c5 \u03c4\u03cc\u03c0\u03bf\u03c5 \u03b5\u03ba\u03b5\u03af\u03bd\u03bf\u03c5 \u039a\u03bf\u03b9\u03bb\u03ac\u03c2 \u03b5\u03c5\u03bb\u03bf\u03b3\u03af\u03b1\u03c2 \u03ad\u03c9\u03c2 \u03c4\u03b7\u03c2 \u03b7\u03bc\u03ad\u03c1\u03b1\u03c2 \u03c4\u03b1\u03cd\u03c4\u03b7\u03c2"
        },
        {
            "chapter": 20,
            "verse": 27,
            "name": "2 Chronicles 20:27",
            "text": "\u03ba\u03b1\u03b9 \u03b5\u03c0\u03ad\u03c3\u03c4\u03c1\u03b5\u03c8\u03b5 \u03c0\u03b1\u03c2 \u03b1\u03bd\u03ae\u03c1 \u0399\u03bf\u03cd\u03b4\u03b1 \u03b5\u03b9\u03c2 \u0399\u03b5\u03c1\u03bf\u03c5\u03c3\u03b1\u03bb\u03ae\u03bc \u03ba\u03b1\u03b9 \u0399\u03c9\u03c3\u03b1\u03c6\u03ac\u03c4 \u03bf \u03b7\u03b3\u03bf\u03cd\u03bc\u03b5\u03bd\u03bf\u03c2 \u03b1\u03c5\u03c4\u03ce\u03bd \u03c5\u03c0\u03ad\u03c3\u03c4\u03c1\u03b5\u03c8\u03b5\u03bd \u03b5\u03b9\u03c2 \u0399\u03b5\u03c1\u03bf\u03c5\u03c3\u03b1\u03bb\u03ae\u03bc \u03b5\u03bd \u03b5\u03c5\u03c6\u03c1\u03bf\u03c3\u03cd\u03bd\u03b7 \u03bc\u03b5\u03b3\u03ac\u03bb\u03b7 \u03cc\u03c4\u03b9 \u03b5\u03cd\u03c6\u03c1\u03b1\u03bd\u03b5\u03bd \u03b1\u03c5\u03c4\u03bf\u03cd\u03c2 \u03ba\u03cd\u03c1\u03b9\u03bf\u03c2 \u03b1\u03c0\u03cc \u03c4\u03c9\u03bd \u03b5\u03c7\u03b8\u03c1\u03ce\u03bd \u03b1\u03c5\u03c4\u03ce\u03bd"
        },
        {
            "chapter": 20,
            "verse": 28,
            "name": "2 Chronicles 20:28",
            "text": "\u03ba\u03b1\u03b9 \u03b5\u03b9\u03c3\u03ae\u03bb\u03b8\u03bf\u03bd \u03b5\u03b9\u03c2 \u0399\u03b5\u03c1\u03bf\u03c5\u03c3\u03b1\u03bb\u03ae\u03bc \u03b5\u03bd \u03bd\u03ac\u03b2\u03bb\u03b1\u03b9\u03c2 \u03ba\u03b1\u03b9 \u03ba\u03b9\u03bd\u03cd\u03c1\u03b1\u03b9\u03c2 \u03ba\u03b1\u03b9 \u03b5\u03bd \u03c3\u03ac\u03bb\u03c0\u03b9\u03b3\u03be\u03b9\u03bd \u03b5\u03b9\u03c2 \u03bf\u03af\u03ba\u03bf\u03bd \u03ba\u03c5\u03c1\u03af\u03bf\u03c5"
        },
        {
            "chapter": 20,
            "verse": 29,
            "name": "2 Chronicles 20:29",
            "text": "\u03ba\u03b1\u03b9 \u03b5\u03b3\u03ad\u03bd\u03b5\u03c4\u03bf \u03ad\u03ba\u03c3\u03c4\u03b1\u03c3\u03b9\u03c2 \u03ba\u03c5\u03c1\u03af\u03bf\u03c5 \u03b5\u03c0\u03af \u03c0\u03ac\u03c3\u03b1\u03c2 \u03c4\u03b1\u03c2 \u03b2\u03b1\u03c3\u03b9\u03bb\u03b5\u03af\u03b1\u03c2 \u03c4\u03b7\u03c2 \u03b3\u03b7\u03c2 \u03b5\u03bd \u03c4\u03c9 \u03b1\u03ba\u03bf\u03cd\u03c3\u03b1\u03b9 \u03b1\u03c5\u03c4\u03bf\u03cd\u03c2 \u03cc\u03c4\u03b9 \u03ba\u03cd\u03c1\u03b9\u03bf\u03c2 \u03b5\u03c0\u03bf\u03bb\u03ad\u03bc\u03b7\u03c3\u03b5 \u03bc\u03b5\u03c4\u03ac \u03c4\u03c9\u03bd \u03c5\u03c0\u03b5\u03bd\u03b1\u03bd\u03c4\u03af\u03c9\u03bd \u0399\u03c3\u03c1\u03b1\u03ae\u03bb"
        },
        {
            "chapter": 20,
            "verse": 30,
            "name": "2 Chronicles 20:30",
            "text": "\u03ba\u03b1\u03b9 \u03b5\u03b9\u03c1\u03ae\u03bd\u03b5\u03c5\u03c3\u03b5\u03bd \u03b7 \u03b2\u03b1\u03c3\u03b9\u03bb\u03b5\u03af\u03b1 \u0399\u03c9\u03c3\u03b1\u03c6\u03ac\u03c4 \u03ba\u03b1\u03b9 \u03ba\u03b1\u03c4\u03ad\u03c0\u03b1\u03c5\u03c3\u03b5\u03bd \u03b1\u03c5\u03c4\u03ce \u03bf \u03b8\u03b5\u03cc\u03c2 \u03b1\u03c5\u03c4\u03bf\u03cd \u03ba\u03c5\u03ba\u03bb\u03cc\u03b8\u03b5\u03bd"
        },
        {
            "chapter": 20,
            "verse": 31,
            "name": "2 Chronicles 20:31",
            "text": "\u03ba\u03b1\u03b9 \u03b5\u03b2\u03b1\u03c3\u03af\u03bb\u03b5\u03c5\u03c3\u03b5\u03bd \u0399\u03c9\u03c3\u03b1\u03c6\u03ac\u03c4 \u03b5\u03c0\u03af \u03c4\u03bf\u03bd \u0399\u03bf\u03cd\u03b4\u03b1 \u03c9\u03bd \u03c4\u03c1\u03b9\u03b1\u03ba\u03bf\u03bd\u03c4\u03b1\u03c0\u03ad\u03bd\u03c4\u03b5 \u03b5\u03c4\u03ce\u03bd \u03b5\u03bd \u03c4\u03c9 \u03b2\u03b1\u03c3\u03b9\u03bb\u03b5\u03cd\u03b5\u03b9\u03bd \u03b1\u03c5\u03c4\u03cc\u03bd \u03ba\u03b1\u03b9 \u03b5\u03af\u03ba\u03bf\u03c3\u03b9 \u03ba\u03b1\u03b9 \u03c0\u03ad\u03bd\u03c4\u03b5 \u03ad\u03c4\u03b7 \u03b5\u03b2\u03b1\u03c3\u03af\u03bb\u03b5\u03c5\u03c3\u03b5\u03bd \u03b5\u03bd \u0399\u03b5\u03c1\u03bf\u03c5\u03c3\u03b1\u03bb\u03ae\u03bc \u03ba\u03b1\u03b9 \u03cc\u03bd\u03bf\u03bc\u03b1 \u03c4\u03b7 \u03bc\u03b7\u03c4\u03c1\u03af \u03b1\u03c5\u03c4\u03bf\u03cd \u0391\u03b6\u03bf\u03c5\u03b2\u03ac \u03b8\u03c5\u03b3\u03ac\u03c4\u03b7\u03c1 \u03a3\u03b5\u03bb\u03b5\u03ca"
        },
        {
            "chapter": 20,
            "verse": 32,
            "name": "2 Chronicles 20:32",
            "text": "\u03ba\u03b1\u03b9 \u03b5\u03c0\u03bf\u03c1\u03b5\u03cd\u03b8\u03b7 \u03b5\u03bd \u03c4\u03b1\u03b9\u03c2 \u03bf\u03b4\u03bf\u03af\u03c2 \u0391\u03c3\u03ac \u03c4\u03bf\u03c5 \u03c0\u03b1\u03c4\u03c1\u03cc\u03c2 \u03b1\u03c5\u03c4\u03bf\u03cd \u03ba\u03b1\u03b9 \u03bf\u03c5\u03ba \u03b5\u03be\u03ad\u03ba\u03bb\u03b9\u03bd\u03b5 \u03b1\u03c0\u0384 \u03b1\u03c5\u03c4\u03ce\u03bd \u03c4\u03bf\u03c5 \u03c0\u03bf\u03b9\u03ae\u03c3\u03b1\u03b9 \u03c4\u03bf \u03b5\u03c5\u03b8\u03ad\u03c2 \u03b5\u03bd\u03ce\u03c0\u03b9\u03bf\u03bd \u03ba\u03c5\u03c1\u03af\u03bf\u03c5"
        },
        {
            "chapter": 20,
            "verse": 33,
            "name": "2 Chronicles 20:33",
            "text": "\u03c0\u03bb\u03b7\u03bd \u03c4\u03b1 \u03c5\u03c8\u03b7\u03bb\u03ac \u03bf\u03c5\u03ba \u03b5\u03be\u03ae\u03c1\u03b8\u03b7 \u03ba\u03b1\u03b9 \u03ad\u03c4\u03b9 \u03bf \u03bb\u03b1\u03cc\u03c2 \u03bf\u03c5 \u03ba\u03b1\u03c4\u03b5\u03c5\u03b8\u03c5\u03bd\u03b5 \u03c4\u03b7\u03bd \u03ba\u03b1\u03c1\u03b4\u03af\u03b1\u03bd \u03b1\u03c5\u03c4\u03ce\u03bd \u03c0\u03c1\u03bf\u03c2 \u03ba\u03cd\u03c1\u03b9\u03bf\u03bd \u03c4\u03bf\u03bd \u03b8\u03b5\u03cc\u03bd \u03c4\u03c9\u03bd \u03c0\u03b1\u03c4\u03ad\u03c1\u03c9\u03bd \u03b1\u03c5\u03c4\u03ce\u03bd"
        },
        {
            "chapter": 20,
            "verse": 34,
            "name": "2 Chronicles 20:34",
            "text": "\u03ba\u03b1\u03b9 \u03bf\u03b9 \u03bb\u03bf\u03b9\u03c0\u03bf\u03af \u03bb\u03cc\u03b3\u03bf\u03b9 \u0399\u03c9\u03c3\u03b1\u03c6\u03ac\u03c4 \u03bf\u03b9 \u03c0\u03c1\u03ce\u03c4\u03bf\u03b9 \u03ba\u03b1\u03b9 \u03bf\u03b9 \u03ad\u03c3\u03c7\u03b1\u03c4\u03bf\u03b9 \u03b9\u03b4\u03bf\u03cd \u03b3\u03b5\u03b3\u03c1\u03b1\u03bc\u03bc\u03ad\u03bd\u03bf\u03b9 \u03b5\u03bd \u03bb\u03cc\u03b3\u03bf\u03b9\u03c2 \u0399\u03b7\u03bf\u03cd \u03c4\u03bf\u03c5 \u0391\u03bd\u03b1\u03bd\u03b5\u03af \u03bf\u03c5\u03c2 \u03ba\u03b1\u03c4\u03ad\u03b3\u03c1\u03b1\u03c8\u03b5 \u03b5\u03c0\u03af \u03b2\u03b9\u03b2\u03bb\u03af\u03bf\u03c5 \u03b2\u03b1\u03c3\u03b9\u03bb\u03ad\u03c9\u03bd \u0399\u03c3\u03c1\u03b1\u03ae\u03bb"
        },
        {
            "chapter": 20,
            "verse": 35,
            "name": "2 Chronicles 20:35",
            "text": "\u03ba\u03b1\u03b9 \u03bc\u03b5\u03c4\u03ac \u03c4\u03b1\u03cd\u03c4\u03b1 \u03b5\u03ba\u03bf\u03b9\u03bd\u03ce\u03bd\u03b7\u03c3\u03b5\u03bd \u0399\u03c9\u03c3\u03b1\u03c6\u03ac\u03c4 \u03b2\u03b1\u03c3\u03b9\u03bb\u03b5\u03cd\u03c2 \u0399\u03bf\u03cd\u03b4\u03b1 \u03bc\u03b5\u03c4\u03ac \u039f\u03c7\u03bf\u03b6\u03af\u03bf\u03c5 \u03b2\u03b1\u03c3\u03b9\u03bb\u03ad\u03c9\u03c2 \u0399\u03c3\u03c1\u03b1\u03ae\u03bb \u03ba\u03b1\u03b9 \u03b1\u03c5\u03c4\u03cc\u03c2 \u03b7\u03bd\u03cc\u03bc\u03b7\u03c3\u03b5 \u03c4\u03bf\u03c5 \u03c0\u03bf\u03b9\u03ae\u03c3\u03b1\u03b9"
        },
        {
            "chapter": 20,
            "verse": 36,
            "name": "2 Chronicles 20:36",
            "text": "\u03ba\u03b1\u03b9 \u03b5\u03ba\u03bf\u03b9\u03bd\u03ce\u03bd\u03b7\u03c3\u03b5 \u03bc\u03b5\u03c4\u0384 \u03b1\u03c5\u03c4\u03bf\u03cd \u03c4\u03bf\u03c5 \u03c0\u03bf\u03b9\u03ae\u03c3\u03b1\u03b9 \u03c0\u03bb\u03bf\u03af\u03b1 \u03ba\u03b1\u03b9 \u03c0\u03bf\u03c1\u03b5\u03c5\u03b8\u03ae\u03bd\u03b1\u03b9 \u03b5\u03b9\u03c2 \u0398\u03b1\u03c1\u03c3\u03b5\u03af\u03c2 \u03ba\u03b1\u03b9 \u03b5\u03c0\u03bf\u03af\u03b7\u03c3\u03b5 \u03c0\u03bb\u03bf\u03af\u03b1 \u03b5\u03bd \u0393\u03b1\u03c3\u03b9\u03ce\u03bd \u0393\u03ac\u03b2\u03b5\u03c1"
        },
        {
            "chapter": 20,
            "verse": 37,
            "name": "2 Chronicles 20:37",
            "text": "\u03ba\u03b1\u03b9 \u03c0\u03c1\u03bf\u03b5\u03c6\u03ae\u03c4\u03b5\u03c5\u03c3\u03b5\u03bd \u0395\u03bb\u03b9\u03ad\u03b6\u03b5\u03c1 \u03bf \u03c4\u03bf\u03c5 \u0394\u03c9\u03b4\u03af\u03bf\u03c5 \u03b5\u03ba \u039c\u03b1\u03b9\u03c1\u03b9\u03c3\u03ac \u03b5\u03c0\u03af \u0399\u03c9\u03c3\u03b1\u03c6\u03ac\u03c4 \u03bb\u03ad\u03b3\u03c9\u03bd \u03c9\u03c2 \u03b5\u03ba\u03bf\u03b9\u03bd\u03ce\u03bd\u03b7\u03c3\u03b1\u03c2 \u03c4\u03c9 \u039f\u03c7\u03bf\u03b6\u03af\u03b1 \u03b4\u03b9\u03ad\u03ba\u03bf\u03c8\u03b5 \u03ba\u03cd\u03c1\u03b9\u03bf\u03c2 \u03c4\u03b1 \u03ad\u03c1\u03b3\u03b1 \u03c3\u03bf\u03c5 \u03ba\u03b1\u03b9 \u03c3\u03c5\u03bd\u03b5\u03c4\u03c1\u03af\u03b2\u03c3\u03b1\u03bd \u03c4\u03b1 \u03c0\u03bb\u03bf\u03af\u03b1 \u03c3\u03bf\u03c5 \u03ba\u03b1\u03b9 \u03bf\u03c5\u03ba \u03b7\u03b4\u03c5\u03bd\u03ae\u03b8\u03b7\u03c3\u03b1\u03bd \u03c4\u03bf\u03c5 \u03c0\u03bf\u03c1\u03b5\u03c5\u03b8\u03ae\u03bd\u03b1\u03b9 \u03b5\u03b9\u03c2 \u0398\u03b1\u03c1\u03c3\u03b5\u03af\u03c2  "
        }
    ]
}