{
    "translation": "Today's Persian Version (Mojdeh Baraye Asre Jadid)",
    "abbreviation": "fartpv",
    "lang": "fa",
    "language": "Persian",
    "direction": "RTL",
    "encoding": "UTF-8",
    "book_nr": 11,
    "book_name": "1 Kings",
    "chapter": 17,
    "name": "1 Kings 17",
    "verses": [
        {
            "chapter": 17,
            "verse": 1,
            "name": "1 Kings 17:1",
            "text": "   \u0627\u06cc\u0644\u06cc\u0627\u06cc \u062a\u0634\u0628\u06cc\u060c \u0627\u0632 \u0627\u0647\u0627\u0644\u06cc \u062c\u0644\u0639\u0627\u062f \u0628\u0647 \u0627\u062e\u0627\u0628 \u067e\u0627\u062f\u0634\u0627\u0647 \u06af\u0641\u062a: \u00ab\u0628\u0647 \u0646\u0627\u0645 \u062e\u062f\u0627\u0648\u0646\u062f \u062e\u062f\u0627\u06cc \u0632\u0646\u062f\u0647\u0654 \u0627\u0633\u0631\u0627\u0626\u06cc\u0644\u060c \u06a9\u0647 \u0645\u0646 \u062e\u062f\u0645\u062a\u06af\u0632\u0627\u0631 \u0627\u0648 \u0647\u0633\u062a\u0645\u060c \u0628\u0647 \u0634\u0645\u0627 \u0645\u06cc\u200c\u06af\u0648\u06cc\u0645 \u062f\u0631 \u0686\u0646\u062f \u0633\u0627\u0644 \u0622\u06cc\u0646\u062f\u0647\u060c \u0646\u0647 \u0634\u0628\u0646\u0645\u06cc\u200c \u062e\u0648\u0627\u0647\u062f \u0628\u0648\u062f \u0648 \u0646\u0647 \u0628\u0627\u0631\u0627\u0646 \u062e\u0648\u0627\u0647\u062f \u0628\u0627\u0631\u06cc\u062f\u060c \u0645\u06af\u0631 \u0645\u0646 \u0628\u06af\u0648\u06cc\u0645!\u00bb   "
        },
        {
            "chapter": 17,
            "verse": 2,
            "name": "1 Kings 17:2",
            "text": "\u06a9\u0644\u0627\u0645 \u062e\u062f\u0627\u0648\u0646\u062f \u0628\u0631 \u0648\u06cc \u0622\u0645\u062f \u0648 \u06af\u0641\u062a: "
        },
        {
            "chapter": 17,
            "verse": 3,
            "name": "1 Kings 17:3",
            "text": "\u00ab\u0627\u0632 \u0627\u06cc\u0646\u062c\u0627 \u0628\u0647 \u0633\u0648\u06cc \u0634\u0631\u0642 \u0628\u0631\u0648 \u0648 \u062f\u0631 \u0646\u0632\u062f\u06cc\u06a9\u06cc \u0648\u0627\u062f\u06cc \u06a9\u064e\u0631\u06cc\u062a \u06a9\u0647 \u062f\u0631 \u0634\u0631\u0642 \u200c\u0631\u0648\u062f \u0627\u0631\u062f\u0646 \u0627\u0633\u062a \u067e\u0646\u0647\u0627\u0646 \u0634\u0648. "
        },
        {
            "chapter": 17,
            "verse": 4,
            "name": "1 Kings 17:4",
            "text": "\u0627\u0632 \u0622\u0628 \u062c\u0648\u06cc \u0628\u0646\u0648\u0634 \u0648 \u0645\u0646 \u0628\u0647 \u0632\u0627\u063a\u0647\u0627 \u0641\u0631\u0645\u0627\u0646 \u062f\u0627\u062f\u0647\u200c\u0627\u0645 \u062a\u0627 \u0628\u0631\u0627\u06cc \u062a\u0648 \u062e\u0648\u0631\u0627\u06a9 \u0628\u06cc\u0627\u0648\u0631\u0646\u062f.\u00bb   "
        },
        {
            "chapter": 17,
            "verse": 5,
            "name": "1 Kings 17:5",
            "text": "\u067e\u0633 \u0627\u06cc\u0644\u06cc\u0627 \u0637\u0628\u0642 \u0641\u0631\u0645\u0627\u0646 \u062e\u062f\u0627\u0648\u0646\u062f \u0631\u0641\u062a \u0648 \u062f\u0631 \u0646\u0632\u062f\u06cc\u06a9\u06cc \u0648\u0627\u062f\u06cc \u06a9\u0631\u06cc\u062a\u060c \u062f\u0631 \u0634\u0631\u0642 \u0627\u0631\u062f\u0646 \u0628\u0647 \u0633\u0631 \u0628\u0631\u062f. "
        },
        {
            "chapter": 17,
            "verse": 6,
            "name": "1 Kings 17:6",
            "text": "\u0627\u0648 \u0627\u0632 \u062c\u0648\u06cc\u060c \u0622\u0628 \u0645\u06cc\u200c\u0646\u0648\u0634\u06cc\u062f \u0648 \u0632\u0627\u063a\u0647\u0627 \u0635\u0628\u062d \u0648 \u0634\u0627\u0645 \u0628\u0631\u0627\u06cc\u0634 \u0646\u0627\u0646 \u0648 \u06af\u0648\u0634\u062a \u0645\u06cc\u200c\u0622\u0648\u0631\u062f\u0646\u062f. "
        },
        {
            "chapter": 17,
            "verse": 7,
            "name": "1 Kings 17:7",
            "text": "\u0628\u0639\u062f \u0627\u0632 \u0645\u062f\u0651\u062a\u06cc \u0628\u0647 \u0639\u0644\u0651\u062a \u0646\u0628\u0648\u062f\u0646 \u0628\u0627\u0631\u0627\u0646 \u0646\u0647\u0631 \u062e\u0634\u06a9 \u0634\u062f.         "
        },
        {
            "chapter": 17,
            "verse": 8,
            "name": "1 Kings 17:8",
            "text": "\u0633\u067e\u0633 \u062e\u062f\u0627\u0648\u0646\u062f \u0628\u0647 \u0627\u06cc\u0644\u06cc\u0627 \u0641\u0631\u0645\u0648\u062f: "
        },
        {
            "chapter": 17,
            "verse": 9,
            "name": "1 Kings 17:9",
            "text": "\u00ab\u0627\u06a9\u0646\u0648\u0646 \u0628\u0647 \u0634\u0647\u0631 \u0635\u064e\u0631\u064e\u0641\u0647 \u06a9\u0647 \u062f\u0631 \u0646\u0632\u062f\u06cc\u06a9\u06cc \u0634\u0647\u0631 \u0635\u06cc\u062f\u0648\u0646 \u0627\u0633\u062a \u0628\u0631\u0648 \u0648 \u062f\u0631 \u0622\u0646\u062c\u0627 \u0628\u0645\u0627\u0646. \u0645\u0646 \u0628\u0647 \u0628\u06cc\u0648\u0647 \u0632\u0646\u06cc \u062f\u0631 \u0622\u0646\u062c\u0627 \u0641\u0631\u0645\u0627\u0646 \u062f\u0627\u062f\u0647\u200c\u0627\u0645 \u062a\u0627 \u0628\u0647 \u062a\u0648 \u062e\u0648\u0631\u0627\u06a9 \u062f\u0647\u062f.\u00bb "
        },
        {
            "chapter": 17,
            "verse": 10,
            "name": "1 Kings 17:10",
            "text": "\u067e\u0633 \u0627\u0648 \u0628\u0631\u062e\u0627\u0633\u062a \u0648 \u0628\u0647 \u0635\u0631\u0641\u0647 \u0631\u0641\u062a. \u0647\u0646\u06af\u0627\u0645\u06cc\u200c\u06a9\u0647 \u0628\u0647 \u062f\u0631\u0648\u0627\u0632\u0647\u0654 \u0634\u0647\u0631 \u0631\u0633\u06cc\u062f\u060c \u0628\u06cc\u0648\u0647 \u0632\u0646\u06cc \u0631\u0627 \u062f\u06cc\u062f \u06a9\u0647 \u0647\u06cc\u0632\u0645 \u062c\u0645\u0639 \u0645\u06cc\u200c\u06a9\u0631\u062f. \u0627\u0648 \u0628\u0647 \u0628\u06cc\u0648\u0647\u200c\u0632\u0646 \u06af\u0641\u062a: \u00ab\u062e\u0648\u0627\u0647\u0634 \u0645\u06cc\u200c\u06a9\u0646\u0645 \u06a9\u0645\u06cc \u200c\u0622\u0628 \u0628\u0647 \u0645\u0646 \u0628\u062f\u0647\u06cc\u062f.\u00bb "
        },
        {
            "chapter": 17,
            "verse": 11,
            "name": "1 Kings 17:11",
            "text": "\u0647\u0646\u06af\u0627\u0645\u06cc\u200c\u06a9\u0647 \u0632\u0646 \u0628\u0631\u0627\u06cc \u0622\u0648\u0631\u062f\u0646 \u0622\u0628 \u0645\u06cc\u200c\u0631\u0641\u062a \u0627\u0648 \u0631\u0627 \u0635\u062f\u0627 \u06a9\u0631\u062f \u0648 \u06af\u0641\u062a: \u00ab\u062e\u0648\u0627\u0647\u0634 \u0645\u06cc\u200c\u06a9\u0646\u0645 \u062a\u06a9\u0647 \u0646\u0627\u0646\u06cc \u0647\u0645 \u0628\u0631\u0627\u06cc \u0645\u0646 \u0628\u06cc\u0627\u0648\u0631.\u00bb   "
        },
        {
            "chapter": 17,
            "verse": 12,
            "name": "1 Kings 17:12",
            "text": "\u0627\u0648 \u067e\u0627\u0633\u062e \u062f\u0627\u062f: \u00ab\u0628\u0647 \u062e\u062f\u0627\u0648\u0646\u062f \u0632\u0646\u062f\u0647\u060c \u062e\u062f\u0627\u06cc \u062a\u0648 \u0633\u0648\u06af\u0646\u062f\u060c \u06a9\u0647 \u0645\u0646 \u0646\u0627\u0646\u06cc \u0646\u062f\u0627\u0631\u0645. \u0622\u0646\u0686\u0647 \u062f\u0627\u0631\u0645 \u06cc\u06a9 \u0645\u0634\u062a \u0622\u0631\u062f \u062f\u0631 \u06a9\u0627\u0633\u0647 \u0648 \u06a9\u0645\u06cc\u200c \u0631\u0648\u063a\u0646 \u0632\u06cc\u062a\u0648\u0646 \u062f\u0631 \u06a9\u0648\u0632\u0647 \u0627\u0633\u062a. \u0645\u0646 \u0628\u0647 \u0627\u06cc\u0646\u062c\u0627 \u0622\u0645\u062f\u0645 \u062a\u0627 \u06a9\u0645\u06cc \u0647\u06cc\u0632\u0645 \u062c\u0645\u0639 \u06a9\u0646\u0645 \u0648 \u0628\u0647 \u062e\u0627\u0646\u0647 \u0628\u0628\u0631\u0645 \u062a\u0627 \u0628\u0631\u0627\u06cc \u067e\u0633\u0631\u0645 \u0648 \u062e\u0648\u062f\u0645 \u0622\u0646 \u0631\u0627 \u0628\u067e\u0632\u0645 \u0648 \u0627\u06cc\u0646 \u0622\u062e\u0631\u06cc\u0646 \u062e\u0648\u0631\u0627\u06a9 \u0645\u0627 \u062e\u0648\u0627\u0647\u062f \u0628\u0648\u062f \u0648 \u0645\u0627 \u0627\u0632 \u06af\u0631\u0633\u0646\u06af\u06cc \u062e\u0648\u0627\u0647\u06cc\u0645 \u0645\u064f\u0631\u062f.\u00bb   "
        },
        {
            "chapter": 17,
            "verse": 13,
            "name": "1 Kings 17:13",
            "text": "\u0627\u06cc\u0644\u06cc\u0627 \u0628\u0647 \u0627\u0648 \u06af\u0641\u062a: \u00ab\u0646\u06af\u0631\u0627\u0646 \u0646\u0628\u0627\u0634. \u0628\u0647 \u062e\u0627\u0646\u0647 \u0628\u0631\u0648 \u0648 \u0622\u0646\u0686\u0647 \u0631\u0627 \u06a9\u0647 \u06af\u0641\u062a\u06cc \u0627\u0646\u062c\u0627\u0645 \u0628\u062f\u0647\u060c \u0627\u0645\u0651\u0627 \u0627\u0628\u062a\u062f\u0627 \u06cc\u06a9 \u0646\u0627\u0646 \u06a9\u0648\u0686\u06a9 \u0627\u0632 \u0622\u0646\u0686\u0647 \u062f\u0627\u0631\u06cc \u0628\u0631\u0627\u06cc \u0645\u0646 \u0628\u067e\u0632 \u0648 \u0628\u0631\u0627\u06cc \u0645\u0646 \u0628\u06cc\u0627\u0648\u0631 \u0648 \u067e\u0633 \u0627\u0632 \u0622\u0646 \u0628\u0631\u0627\u06cc \u062e\u0648\u062f\u062a \u0648 \u067e\u0633\u0631\u062a \u062e\u0648\u0631\u0627\u06a9\u06cc \u0622\u0645\u0627\u062f\u0647 \u06a9\u0646. "
        },
        {
            "chapter": 17,
            "verse": 14,
            "name": "1 Kings 17:14",
            "text": "\u0686\u0648\u0646 \u062e\u062f\u0627\u0648\u0646\u062f \u062e\u062f\u0627\u06cc \u0627\u0633\u0631\u0627\u0626\u06cc\u0644 \u0645\u06cc\u200c\u06af\u0648\u06cc\u062f: '\u062a\u0627 \u0632\u0645\u0627\u0646\u06cc \u06a9\u0647 \u062e\u062f\u0627\u0648\u0646\u062f \u0628\u0627\u0631\u0627\u0646 \u0628\u0641\u0631\u0633\u062a\u062f \u0646\u0647 \u06a9\u0627\u0633\u0647\u0654 \u062a\u0648 \u0627\u0632 \u0622\u0631\u062f \u062e\u0627\u0644\u06cc \u062e\u0648\u0627\u0647\u062f \u0634\u062f \u0648 \u0646\u0647 \u06a9\u0648\u0632\u0647\u0654 \u062a\u0648 \u0627\u0632 \u0631\u0648\u063a\u0646.'\u00bb   "
        },
        {
            "chapter": 17,
            "verse": 15,
            "name": "1 Kings 17:15",
            "text": "\u0628\u06cc\u0648\u0647\u200c\u0632\u0646 \u0631\u0641\u062a \u0648 \u0622\u0646\u0686\u0647 \u0631\u0627 \u0627\u06cc\u0644\u06cc\u0627 \u06af\u0641\u062a\u0647 \u0628\u0648\u062f\u060c \u0627\u0646\u062c\u0627\u0645 \u062f\u0627\u062f \u0648 \u0647\u0645\u0647\u0654 \u0622\u0646\u0647\u0627 \u0628\u0631\u0627\u06cc \u0686\u0646\u062f\u06cc\u0646 \u0631\u0648\u0632 \u063a\u0630\u0627\u06cc \u06a9\u0627\u0641\u06cc \u062f\u0627\u0634\u062a\u0646\u062f. "
        },
        {
            "chapter": 17,
            "verse": 16,
            "name": "1 Kings 17:16",
            "text": "\u0647\u0645\u0627\u0646\u200c\u06af\u0648\u0646\u0647 \u06a9\u0647 \u062e\u062f\u0627\u0648\u0646\u062f \u0628\u0647 \u0648\u0633\u06cc\u0644\u0647\u0654 \u0627\u06cc\u0644\u06cc\u0627 \u0648\u0639\u062f\u0647 \u062f\u0627\u062f\u0647 \u0628\u0648\u062f\u060c \u0646\u0647 \u06a9\u0627\u0633\u0647 \u0627\u0632 \u0622\u0631\u062f \u062e\u0627\u0644\u06cc \u0634\u062f \u0648 \u0646\u0647 \u06a9\u0648\u0632\u0647 \u0627\u0632 \u0631\u0648\u063a\u0646 \u062a\u0647\u06cc \u06af\u0634\u062a.         "
        },
        {
            "chapter": 17,
            "verse": 17,
            "name": "1 Kings 17:17",
            "text": "\u0686\u0646\u062f \u0631\u0648\u0632 \u0628\u0639\u062f \u067e\u0633\u0631 \u0628\u06cc\u0648\u0647\u200c\u0632\u0646 \u0628\u06cc\u0645\u0627\u0631 \u0634\u062f. \u062d\u0627\u0644 \u0627\u0648 \u0628\u062f\u062a\u0631 \u0648 \u0628\u062f\u062a\u0631 \u0634\u062f \u0648 \u0639\u0627\u0642\u0628\u062a \u0645\u0631\u062f. "
        },
        {
            "chapter": 17,
            "verse": 18,
            "name": "1 Kings 17:18",
            "text": "\u0628\u06cc\u0648\u0647\u200c\u0632\u0646 \u0628\u0647 \u0627\u06cc\u0644\u06cc\u0627 \u06af\u0641\u062a: \u00ab\u0627\u06cc \u0645\u0631\u062f \u062e\u062f\u0627\u060c \u0686\u0631\u0627 \u0628\u0627 \u0645\u0646 \u0686\u0646\u06cc\u0646 \u06a9\u0631\u062f\u06cc\u061f \u0622\u06cc\u0627 \u062a\u0648 \u0628\u0647 \u0627\u06cc\u0646\u062c\u0627 \u0622\u0645\u062f\u0647\u200c\u0627\u06cc \u06a9\u0647 \u06af\u0646\u0627\u0647\u0627\u0646 \u0645\u0631\u0627 \u0628\u0647 \u062e\u062f\u0627\u0648\u0646\u062f \u06cc\u0627\u062f\u200c\u0622\u0648\u0631\u06cc \u06a9\u0646\u06cc \u0648 \u0628\u0627\u0639\u062b \u0645\u0631\u06af \u067e\u0633\u0631\u0645 \u0634\u0648\u06cc\u061f\u00bb   "
        },
        {
            "chapter": 17,
            "verse": 19,
            "name": "1 Kings 17:19",
            "text": "\u0627\u06cc\u0644\u06cc\u0627 \u0628\u0647 \u0627\u0648 \u06af\u0641\u062a: \u00ab\u067e\u0633\u0631\u062a \u0631\u0627 \u0628\u0647 \u0645\u0646 \u0628\u062f\u0647.\u00bb \u0627\u06cc\u0644\u06cc\u0627 \u067e\u0633\u0631\u0634 \u0631\u0627 \u0627\u0632 \u0622\u063a\u0648\u0634 \u0627\u0648 \u06af\u0631\u0641\u062a \u0648 \u0627\u0648 \u0631\u0627 \u0628\u0647 \u0628\u0627\u0644\u0627 \u062e\u0627\u0646\u0647\u060c \u062f\u0631 \u0627\u062a\u0627\u0642\u06cc \u06a9\u0647 \u0632\u0646\u062f\u06af\u06cc \u0645\u06cc\u200c\u06a9\u0631\u062f \u0628\u0631\u062f \u0648 \u062f\u0631 \u0628\u0633\u062a\u0631 \u062e\u0648\u0627\u0628\u0627\u0646\u062f. "
        },
        {
            "chapter": 17,
            "verse": 20,
            "name": "1 Kings 17:20",
            "text": "\u0622\u0646\u06af\u0627\u0647 \u0627\u0648 \u0628\u0627 \u0635\u062f\u0627\u06cc \u0628\u0644\u0646\u062f \u062f\u0639\u0627 \u06a9\u0631\u062f: \u00ab\u0627\u06cc \u062e\u062f\u0627\u0648\u0646\u062f \u062e\u062f\u0627\u06cc \u0645\u0646! \u0686\u0631\u0627 \u0686\u0646\u06cc\u0646 \u0628\u0644\u0627\u06cc \u0648\u062d\u0634\u062a\u0646\u0627\u06a9\u06cc \u0628\u0631 \u0633\u0631 \u0627\u06cc\u0646 \u0628\u06cc\u0648\u0647\u200c\u0632\u0646 \u0622\u0648\u0631\u062f\u0647\u200c\u0627\u06cc\u061f \u0627\u0648 \u0645\u0631\u0627 \u062f\u0631 \u062e\u0627\u0646\u0647\u200c\u0627\u0634 \u067e\u0646\u0627\u0647 \u062f\u0627\u062f\u0647 \u0648 \u062d\u0627\u0644\u0627 \u062a\u0648 \u0628\u0627\u0639\u062b \u0645\u0631\u06af \u067e\u0633\u0631 \u0627\u0648 \u0634\u062f\u0647\u200c\u0627\u06cc.\u00bb "
        },
        {
            "chapter": 17,
            "verse": 21,
            "name": "1 Kings 17:21",
            "text": "\u0633\u067e\u0633 \u0627\u06cc\u0644\u06cc\u0627 \u0633\u0647 \u0628\u0627\u0631 \u0631\u0648\u06cc \u062c\u0633\u062f \u062f\u0631\u0627\u0632 \u06a9\u0634\u06cc\u062f \u0648 \u0686\u0646\u06cc\u0646 \u062f\u0639\u0627 \u06a9\u0631\u062f: \u00ab\u0627\u06cc \u062e\u062f\u0627\u0648\u0646\u062f \u062e\u062f\u0627\u06cc \u0645\u0646\u060c \u0627\u06cc\u0646 \u06a9\u0648\u062f\u06a9 \u0631\u0627 \u0632\u0646\u062f\u0647 \u06af\u0631\u062f\u0627\u0646.\u00bb "
        },
        {
            "chapter": 17,
            "verse": 22,
            "name": "1 Kings 17:22",
            "text": "\u062e\u062f\u0627\u0648\u0646\u062f \u062f\u0639\u0627\u06cc \u0627\u06cc\u0644\u06cc\u0627 \u0631\u0627 \u067e\u0627\u0633\u062e \u062f\u0627\u062f\u060c \u06a9\u0648\u062f\u06a9 \u062d\u06cc\u0627\u062a \u062f\u0648\u0628\u0627\u0631\u0647 \u06cc\u0627\u0641\u062a \u0648 \u0632\u0646\u062f\u0647 \u0634\u062f.   "
        },
        {
            "chapter": 17,
            "verse": 23,
            "name": "1 Kings 17:23",
            "text": "\u0627\u06cc\u0644\u06cc\u0627 \u06a9\u0648\u062f\u06a9 \u0631\u0627 \u0628\u0631\u062f\u0627\u0634\u062a \u0648 \u067e\u0627\u06cc\u06cc\u0646 \u0646\u0632\u062f \u0645\u0627\u062f\u0631\u0634 \u0628\u0631\u062f \u0648 \u06af\u0641\u062a: \u00ab\u0628\u0628\u06cc\u0646\u060c \u067e\u0633\u0631 \u062a\u0648 \u0632\u0646\u062f\u0647 \u0627\u0633\u062a.\u00bb   "
        },
        {
            "chapter": 17,
            "verse": 24,
            "name": "1 Kings 17:24",
            "text": "\u0632\u0646 \u0628\u0647 \u0627\u06cc\u0644\u06cc\u0627 \u06af\u0641\u062a: \u00ab\u062d\u0627\u0644\u0627 \u0645\u06cc\u200c\u062f\u0627\u0646\u0645 \u06a9\u0647 \u062a\u0648 \u0645\u0631\u062f \u062e\u062f\u0627 \u0647\u0633\u062a\u06cc \u0648 \u0647\u0631\u0686\u0647 \u0645\u06cc\u200c\u06af\u0648\u06cc\u06cc\u060c \u0627\u0632 \u062c\u0627\u0646\u0628 \u062e\u062f\u0627\u0648\u0646\u062f \u0627\u0633\u062a \u0648 \u062d\u0642\u06cc\u0642\u062a \u062f\u0627\u0631\u062f.\u00bb   "
        }
    ]
}