{
    "translation": "Khmer Christian Bible",
    "abbreviation": "khmernt",
    "lang": "km",
    "language": "Khmer",
    "direction": "LTR",
    "encoding": "UTF-8",
    "book_nr": 49,
    "book_name": "Ephesians",
    "chapter": 1,
    "name": "Ephesians 1",
    "verses": [
        {
            "chapter": 1,
            "verse": 1,
            "name": "Ephesians 1:1",
            "text": "\u1781\u17d2\u1789\u17bb\u17c6\u200b\u1794\u17c9\u17bc\u179b\u200b \u1787\u17b6\u200b\u179f\u17b6\u179c\u1780\u200b\u179a\u1794\u179f\u17cb\u200b\u1796\u17d2\u179a\u17c7\u1799\u17c1\u179f\u17ca\u17bc\u200b\u1782\u17d2\u179a\u17b7\u179f\u17d2\u178a\u200b\u178f\u17b6\u1798\u200b\u1794\u17c6\u178e\u1784\u200b\u179a\u1794\u179f\u17cb\u200b\u1796\u17d2\u179a\u17c7\u1787\u17b6\u1798\u17d2\u1785\u17b6\u179f\u17cb\u200b \u1787\u17bc\u1793\u200b\u1785\u17c6\u1796\u17c4\u17c7\u200b\u1796\u17bd\u1780\u200b\u1794\u179a\u17b7\u179f\u17bb\u1791\u17d2\u1792\u200b \u1793\u17b7\u1784\u200b\u1796\u17bd\u1780\u17a2\u17d2\u1793\u1780\u200b\u179f\u17d2\u1798\u17c4\u17c7\u178f\u17d2\u179a\u1784\u17cb\u200b\u1791\u17b6\u17c6\u1784\u17a1\u17b6\u1799\u200b\u1793\u17c5\u200b\u1780\u17d2\u1793\u17bb\u1784\u200b\u1796\u17d2\u179a\u17c7\u1782\u17d2\u179a\u17b7\u179f\u17d2\u178a\u200b\u1799\u17c1\u179f\u17ca\u17bc\u200b\u178a\u17c2\u179b\u200b\u1793\u17c5\u200b\u1780\u17d2\u179a\u17bb\u1784\u200b\u17a2\u17c1\u1797\u17c1\u179f\u17bc\u179a\u200b"
        },
        {
            "chapter": 1,
            "verse": 2,
            "name": "Ephesians 1:2",
            "text": "\u179f\u17bc\u1798\u200b\u17b2\u17d2\u1799\u200b\u1796\u17d2\u179a\u17c7\u1787\u17b6\u1798\u17d2\u1785\u17b6\u179f\u17cb\u200b\u1787\u17b6\u200b\u1796\u17d2\u179a\u17c7\u179c\u179a\u1794\u17b7\u178f\u17b6\u200b\u179a\u1794\u179f\u17cb\u200b\u1799\u17be\u1784\u200b \u1793\u17b7\u1784\u200b\u1796\u17d2\u179a\u17c7\u17a2\u1798\u17d2\u1785\u17b6\u179f\u17cb\u200b\u1799\u17c1\u179f\u17ca\u17bc\u200b\u1782\u17d2\u179a\u17b7\u179f\u17d2\u178a\u200b\u1794\u17d2\u179a\u1791\u17b6\u1793\u200b\u1796\u17d2\u179a\u17c7\u1782\u17bb\u178e\u200b \u1793\u17b7\u1784\u200b\u179f\u17c1\u1785\u1780\u17d2\u178a\u17b8\u200b\u179f\u17bb\u1781\u179f\u17b6\u1793\u17d2\u178f\u200b\u178a\u179b\u17cb\u200b\u17a2\u17d2\u1793\u1780\u200b\u179a\u17b6\u179b\u17cb\u1782\u17d2\u1793\u17b6\u17d4\u200b"
        },
        {
            "chapter": 1,
            "verse": 3,
            "name": "Ephesians 1:3",
            "text": "\u1782\u17bd\u179a\u200b\u179f\u179a\u179f\u17be\u179a\u200b\u1796\u17d2\u179a\u17c7\u1787\u17b6\u1798\u17d2\u1785\u17b6\u179f\u17cb\u200b \u1787\u17b6\u200b\u1796\u17d2\u179a\u17c7\u179c\u179a\u1794\u17b7\u178f\u17b6\u200b\u179a\u1794\u179f\u17cb\u200b\u1796\u17d2\u179a\u17c7\u1799\u17c1\u179f\u17ca\u17bc\u200b\u1782\u17d2\u179a\u17b7\u179f\u17d2\u178a\u200b \u1787\u17b6\u200b\u1796\u17d2\u179a\u17c7\u17a2\u1798\u17d2\u1785\u17b6\u179f\u17cb\u200b\u179a\u1794\u179f\u17cb\u200b\u1799\u17be\u1784\u200b \u1787\u17b6\u200b\u1796\u17d2\u179a\u17c7\u200b\u178a\u17c2\u179b\u200b\u1794\u17b6\u1793\u200b\u1794\u17d2\u179a\u1791\u17b6\u1793\u200b\u1796\u17d2\u179a\u17c7\u1796\u179a\u200b\u178a\u179b\u17cb\u200b\u1799\u17be\u1784\u1793\u17c5\u200b\u1780\u17d2\u1793\u17bb\u1784\u200b\u1796\u17d2\u179a\u17c7\u1782\u17d2\u179a\u17b7\u179f\u17d2\u178a\u200b\u17b2\u17d2\u1799\u200b\u1798\u17b6\u1793\u200b\u1796\u17d2\u179a\u17c7\u1796\u179a\u200b\u1781\u17b6\u1784\u200b\u179c\u17b7\u1789\u17d2\u1789\u17b6\u178e\u200b\u1782\u17d2\u179a\u1794\u17cb\u200b\u1794\u17c2\u1794\u200b\u1799\u17c9\u17b6\u1784\u200b\u1796\u17b8\u200b\u179f\u17d2\u1790\u17b6\u1793\u179f\u17bd\u1782\u17cc\u200b"
        },
        {
            "chapter": 1,
            "verse": 4,
            "name": "Ephesians 1:4",
            "text": "\u178f\u17b6\u1798\u200b\u178a\u17c2\u179b\u200b\u1796\u17d2\u179a\u17c7\u17a2\u1784\u17d2\u1782\u200b\u1794\u17b6\u1793\u200b\u1787\u17d2\u179a\u17be\u179f\u179a\u17be\u179f\u200b\u1799\u17be\u1784\u200b\u1793\u17c5\u200b\u1780\u17d2\u1793\u17bb\u1784\u200b\u1796\u17d2\u179a\u17c7\u1782\u17d2\u179a\u17b7\u179f\u17d2\u178f\u200b \u178f\u17b6\u17c6\u1784\u200b\u1796\u17b8\u200b\u1798\u17bb\u1793\u200b\u178a\u17be\u1798\u200b\u1780\u17c6\u178e\u17be\u178f\u200b\u1796\u17b7\u1797\u1796\u200b\u179b\u17c4\u1780\u200b\u1798\u1780\u200b \u178a\u17be\u1798\u17d2\u1794\u17b8\u200b\u17b2\u17d2\u1799\u200b\u1799\u17be\u1784\u200b\u1794\u17b6\u1793\u200b\u1794\u179a\u17b7\u179f\u17bb\u1791\u17d2\u1792\u200b \u17a0\u17be\u1799\u200b\u17a5\u178f\u200b\u1794\u1793\u17d2\u1791\u17c4\u179f\u200b\u1794\u17b6\u1793\u200b\u1793\u17c5\u200b\u1785\u17c6\u1796\u17c4\u17c7\u200b\u1796\u17d2\u179a\u17c7\u17a2\u1784\u17d2\u1782\u200d\u200b\u178a\u17c4\u1799\u200b\u179f\u17c1\u1785\u1780\u17d2\u178a\u17b8\u200b\u179f\u17d2\u179a\u17a1\u17b6\u1789\u17cb\u200b"
        },
        {
            "chapter": 1,
            "verse": 5,
            "name": "Ephesians 1:5",
            "text": "\u1796\u17d2\u179a\u17c7\u17a2\u1784\u17d2\u1782\u200b\u1794\u17b6\u1793\u200b\u178f\u1798\u17d2\u179a\u17bc\u179c\u200b\u1799\u17be\u1784\u200b\u1791\u17bb\u1780\u200b\u1787\u17b6\u200b\u179f\u17d2\u179a\u17c1\u1785\u200b\u17b2\u17d2\u1799\u200b\u1792\u17d2\u179c\u17be\u200b\u1787\u17b6\u200b\u1780\u17bc\u1793\u200b\u179f\u1798\u17d2\u179a\u17b6\u1794\u17cb\u200b\u1796\u17d2\u179a\u17c7\u17a2\u1784\u17d2\u1782\u200b\u178f\u17b6\u1798\u179a\u1799\u17c8\u200b\u1796\u17d2\u179a\u17c7\u1799\u17c1\u179f\u17ca\u17bc\u200b\u1782\u17d2\u179a\u17b7\u179f\u17d2\u178a\u200b\u179f\u17d2\u179a\u1794\u200b\u178f\u17b6\u1798\u200b\u1794\u17c6\u178e\u1784\u200b\u178a\u17c2\u179b\u200b\u1796\u17d2\u179a\u17c7\u17a2\u1784\u17d2\u1782\u200b\u179f\u1796\u17d2\u179c\u200b\u1796\u17d2\u179a\u17c7\u17a0\u17ab\u1791\u17d0\u1799\u200b"
        },
        {
            "chapter": 1,
            "verse": 6,
            "name": "Ephesians 1:6",
            "text": "\u179f\u1798\u17d2\u179a\u17b6\u1794\u17cb\u200b\u1780\u17b6\u179a\u200b\u179f\u179a\u179f\u17be\u179a\u200b\u179f\u17b7\u179a\u17b8\u200b\u179a\u17bb\u1784\u179a\u17bf\u1784\u200b\u1793\u17c3\u200b\u1796\u17d2\u179a\u17c7\u1782\u17bb\u178e\u200b\u179a\u1794\u179f\u17cb\u200b\u1796\u17d2\u179a\u17c7\u17a2\u1784\u17d2\u1782\u200b \u178a\u17c2\u179b\u200b\u1796\u17d2\u179a\u17c7\u17a2\u1784\u17d2\u1782\u200b\u1794\u17b6\u1793\u200b\u179f\u1796\u17d2\u179c\u200b\u1796\u17d2\u179a\u17c7\u17a0\u17ab\u1791\u17d0\u1799\u200b\u1785\u17c6\u1796\u17c4\u17c7\u200b\u1799\u17be\u1784\u200b\u1793\u17c5\u200b\u1780\u17d2\u1793\u17bb\u1784\u200b\u1796\u17d2\u179a\u17c7\u200b\u1798\u17bd\u1799\u200b\u17a2\u1784\u17d2\u1782\u200b\u178a\u17cf\u200b\u1787\u17b6\u200b\u1791\u17b8\u200b\u179f\u17d2\u179a\u17a1\u17b6\u1789\u17cb\u200b"
        },
        {
            "chapter": 1,
            "verse": 7,
            "name": "Ephesians 1:7",
            "text": "\u17a0\u17be\u1799\u200b\u1793\u17c5\u200b\u1780\u17d2\u1793\u17bb\u1784\u200b\u1796\u17d2\u179a\u17c7\u17a2\u1784\u17d2\u1782\u200b \u1799\u17be\u1784\u200b\u1798\u17b6\u1793\u200b\u1780\u17b6\u179a\u200b\u1794\u17d2\u179a\u17c4\u179f\u179b\u17c4\u17c7\u200b\u178f\u17b6\u1798\u179a\u1799\u17c8\u200b\u1788\u17b6\u1798\u200b\u179a\u1794\u179f\u17cb\u200b\u1796\u17d2\u179a\u17c7\u17a2\u1784\u17d2\u1782\u200b \u1782\u17ba\u200b\u1780\u17b6\u179a\u200b\u179b\u17be\u1780\u200b\u179b\u17c2\u1784\u200b\u1791\u17c4\u179f\u200b\u1780\u17c6\u17a0\u17bb\u179f\u200b\u1791\u17b6\u17c6\u1784\u17a1\u17b6\u1799\u200b\u179f\u17d2\u179a\u1794\u200b\u178f\u17b6\u1798\u200b\u1796\u17d2\u179a\u17c7\u1782\u17bb\u178e\u200b\u178a\u17cf\u200b\u1794\u179a\u17b7\u1794\u17bc\u179a\u200b\u179a\u1794\u179f\u17cb\u200b\u1796\u17d2\u179a\u17c7\u17a2\u1784\u17d2\u1782\u200b"
        },
        {
            "chapter": 1,
            "verse": 8,
            "name": "Ephesians 1:8",
            "text": "\u178a\u17c2\u179b\u200b\u1796\u17d2\u179a\u17c7\u17a2\u1784\u17d2\u1782\u200b\u1792\u17d2\u179c\u17be\u200b\u17b2\u17d2\u1799\u200b\u1785\u1798\u17d2\u179a\u17be\u1793\u200b\u17a1\u17be\u1784\u200b\u1793\u17c5\u200b\u1780\u17d2\u1793\u17bb\u1784\u200b\u1799\u17be\u1784\u200b \u1791\u17b6\u17c6\u1784\u200b\u1781\u17b6\u1784\u200b\u1794\u17d2\u179a\u17b6\u1787\u17d2\u1789\u17b6 \u1793\u17b7\u1784\u200b\u1780\u17b6\u179a\u200b\u1799\u179b\u17cb\u200b\u178a\u17b9\u1784\u200b\u1782\u17d2\u179a\u1794\u17cb\u200b\u1794\u17c2\u1794\u200b\u1799\u17c9\u17b6\u1784\u200b"
        },
        {
            "chapter": 1,
            "verse": 9,
            "name": "Ephesians 1:9",
            "text": "\u1791\u17b6\u17c6\u1784\u200b\u1794\u1784\u17d2\u17a0\u17b6\u1789\u200b\u17b2\u17d2\u1799\u200b\u1799\u17be\u1784\u200b\u179f\u17d2\u1782\u17b6\u179b\u17cb\u200b\u179f\u17c1\u1785\u1780\u17d2\u178a\u17b8\u200b\u17a2\u17b6\u1790\u17cc\u1780\u17c6\u1794\u17b6\u17c6\u1784\u200b\u1793\u17c3\u200b\u1794\u17c6\u178e\u1784\u200b\u179a\u1794\u179f\u17cb\u200b\u1796\u17d2\u179a\u17c7\u17a2\u1784\u17d2\u1782\u200b \u179f\u17d2\u179a\u1794\u200b\u178f\u17b6\u1798\u200b\u1780\u17b6\u179a\u200b\u179f\u1796\u17d2\u179c\u200b\u1796\u17d2\u179a\u17c7\u17a0\u17ab\u1791\u17d0\u1799\u200b\u179a\u1794\u179f\u17cb\u200b\u1796\u17d2\u179a\u17c7\u17a2\u1784\u17d2\u1782\u200b\u178a\u17c2\u179b\u200b\u1794\u17b6\u1793\u200b\u1782\u17d2\u179a\u17c4\u1784\u200b\u1791\u17bb\u1780\u200b\u1793\u17c5\u200b\u1780\u17d2\u1793\u17bb\u1784\u200b\u1796\u17d2\u179a\u17c7\u200b\u1798\u17bd\u1799\u200b\u17a2\u1784\u17d2\u1782\u200b\u1793\u17c4\u17c7\u200b"
        },
        {
            "chapter": 1,
            "verse": 10,
            "name": "Ephesians 1:10",
            "text": "\u17a0\u17be\u1799\u200b\u17b2\u17d2\u1799\u200b\u1782\u1798\u17d2\u179a\u17c4\u1784\u200b\u1793\u17c4\u17c7\u200b\u1794\u17b6\u1793\u200b\u179f\u1798\u17d2\u179a\u17c1\u1785\u200b\u1793\u17c5\u200b\u1796\u17c1\u179b\u200b\u1780\u17c6\u178e\u178f\u17cb\u200b\u1798\u1780\u200b\u178a\u179b\u17cb\u200b \u178a\u17be\u1798\u17d2\u1794\u17b8\u200b\u1794\u17d2\u179a\u1798\u17bc\u179b\u200b\u17a2\u17d2\u179c\u17b8\u17d7\u200b\u1791\u17b6\u17c6\u1784\u200b\u17a2\u179f\u17cb\u200b\u17b2\u17d2\u1799\u200b\u179a\u17bd\u1798\u200b\u1782\u17d2\u1793\u17b6\u200b\u178f\u17c2\u200b\u1798\u17bd\u1799\u200b\u1793\u17c5\u200b\u1780\u17d2\u1793\u17bb\u1784\u200b\u1796\u17d2\u179a\u17c7\u1782\u17d2\u179a\u17b7\u179f\u17d2\u178a\u200b \u1782\u17ba\u200b\u1791\u17b6\u17c6\u1784\u200b\u17a2\u17d2\u179c\u17b8\u17d7\u200b\u1793\u17c5\u200b\u179f\u17d2\u1790\u17b6\u1793\u179f\u17bd\u1782\u17cc\u200b \u1793\u17b7\u1784\u200b\u1793\u17c5\u200b\u1795\u17c2\u1793\u178a\u17b8\u200b"
        },
        {
            "chapter": 1,
            "verse": 11,
            "name": "Ephesians 1:11",
            "text": "\u17a0\u17be\u1799\u200b\u1793\u17c5\u200b\u1780\u17d2\u1793\u17bb\u1784\u200b\u1796\u17d2\u179a\u17c7\u17a2\u1784\u17d2\u1782\u200b\u178a\u17c2\u179a\u200b \u1799\u17be\u1784\u200b\u1794\u17b6\u1793\u200b\u178f\u17d2\u179a\u179b\u1794\u17cb\u200b\u1787\u17b6\u200b\u17a2\u17d2\u1793\u1780\u200b\u179f\u17d2\u1793\u1784\u200b\u1798\u179a\u178f\u1780\u200b \u178a\u17c2\u179b\u200b\u1794\u17b6\u1793\u200b\u1780\u17c6\u178e\u178f\u17cb\u200b\u1791\u17bb\u1780\u200b\u1787\u17b6\u200b\u1798\u17bb\u1793\u200b\u179f\u17d2\u179a\u1794\u200b\u178f\u17b6\u1798\u200b\u1782\u1798\u17d2\u179a\u17c4\u1784\u200b\u1780\u17b6\u179a\u200b\u179a\u1794\u179f\u17cb\u200b\u1796\u17d2\u179a\u17c7\u17a2\u1784\u17d2\u1782\u200b \u178a\u17c2\u179b\u200b\u1792\u17d2\u179c\u17be\u200b\u1780\u17b6\u179a\u200b\u1791\u17b6\u17c6\u1784\u200b\u17a2\u179f\u17cb\u200b\u179f\u17d2\u179a\u1794\u200b\u178f\u17b6\u1798\u200b\u1780\u17b6\u179a\u200b\u179f\u1798\u17d2\u179a\u17c1\u1785\u200b\u1796\u17d2\u179a\u17c7\u17a0\u17ab\u1791\u17d0\u1799\u200b\u179a\u1794\u179f\u17cb\u200b\u1796\u17d2\u179a\u17c7\u17a2\u1784\u17d2\u1782\u200b"
        },
        {
            "chapter": 1,
            "verse": 12,
            "name": "Ephesians 1:12",
            "text": "\u178a\u17be\u1798\u17d2\u1794\u17b8\u200b\u17b2\u17d2\u1799\u200b\u1799\u17be\u1784\u200b\u178a\u17c2\u179b\u200b\u1787\u17b6\u200b\u17a2\u17d2\u1793\u1780\u200b\u1798\u17b6\u1793\u200b\u179f\u1784\u17d2\u1783\u17b9\u1798\u200b\u1793\u17c5\u200b\u1780\u17d2\u1793\u17bb\u1784\u200b\u1796\u17d2\u179a\u17c7\u1782\u17d2\u179a\u17b7\u179f\u17d2\u178a\u200b\u1798\u17bb\u1793\u200b\u1782\u17c1\u200b\u1794\u17b6\u1793\u200b\u179f\u179a\u179f\u17be\u179a\u200b\u179f\u17b7\u179a\u17b8\u200b\u179a\u17bb\u1784\u179a\u17bf\u1784\u200b\u179a\u1794\u179f\u17cb\u200b\u1796\u17d2\u179a\u17c7\u17a2\u1784\u17d2\u1782\u17d4\u200b"
        },
        {
            "chapter": 1,
            "verse": 13,
            "name": "Ephesians 1:13",
            "text": "\u1793\u17c5\u200b\u1780\u17d2\u1793\u17bb\u1784\u200b\u1796\u17d2\u179a\u17c7\u17a2\u1784\u17d2\u1782\u200b \u17a2\u17d2\u1793\u1780\u200b\u179a\u17b6\u179b\u17cb\u1782\u17d2\u1793\u17b6\u200b\u1780\u17cf\u200b\u1794\u17b6\u1793\u200b\u17ae\u200b\u1796\u17d2\u179a\u17c7\u1794\u1793\u17d2\u1791\u17bc\u179b\u200b\u1793\u17c3\u200b\u179f\u17c1\u1785\u1780\u17d2\u178a\u17b8\u200b\u1796\u17b7\u178f\u200b\u178a\u17c2\u179a\u200b \u1782\u17ba\u200b\u1787\u17b6\u200b\u178a\u17c6\u178e\u17b9\u1784\u200b\u179b\u17d2\u17a2\u200b\u17a2\u17c6\u1796\u17b8\u200b\u179f\u17c1\u1785\u1780\u17d2\u178a\u17b8\u200b\u179f\u1784\u17d2\u1782\u17d2\u179a\u17c4\u17c7\u200b\u179f\u1798\u17d2\u179a\u17b6\u1794\u17cb\u200b\u17a2\u17d2\u1793\u1780\u200b\u179a\u17b6\u179b\u17cb\u1782\u17d2\u1793\u17b6\u200b \u17a0\u17be\u1799\u200b\u1793\u17c5\u200b\u1780\u17d2\u1793\u17bb\u1784\u200b\u1796\u17d2\u179a\u17c7\u17a2\u1784\u17d2\u1782\u200b \u1796\u17c1\u179b\u200b\u17a2\u17d2\u1793\u1780\u200b\u179a\u17b6\u179b\u17cb\u1782\u17d2\u1793\u17b6\u200b\u1787\u17bf\u200b \u1793\u17c4\u17c7\u200b\u17a2\u17d2\u1793\u1780\u200b\u179a\u17b6\u179b\u17cb\u1782\u17d2\u1793\u17b6\u200b\u1780\u17cf\u200b\u1791\u1791\u17bd\u179b\u200b\u1794\u17b6\u1793\u200b\u1780\u17b6\u179a\u200b\u1794\u17c4\u17c7\u178f\u17d2\u179a\u17b6\u200b \u178a\u17c2\u179b\u200b\u1787\u17b6\u200b\u1796\u17d2\u179a\u17c7\u179c\u17b7\u1789\u17d2\u1789\u17b6\u178e\u200b\u1794\u179a\u17b7\u179f\u17bb\u1791\u17d2\u1792\u200b\u178f\u17b6\u1798\u200b\u179f\u17c1\u1785\u1780\u17d2\u178a\u17b8\u200b\u179f\u1793\u17d2\u1799\u17b6\u200b\u178a\u17c2\u179a\u200b"
        },
        {
            "chapter": 1,
            "verse": 14,
            "name": "Ephesians 1:14",
            "text": "\u1782\u17ba\u200b\u1796\u17d2\u179a\u17c7\u179c\u17b7\u1789\u17d2\u1789\u17b6\u178e\u200b\u1793\u17c1\u17c7\u200b\u17a0\u17be\u1799\u200b\u1787\u17b6\u200b\u179a\u1794\u179f\u17cb\u200b\u1794\u1789\u17d2\u1785\u17b6\u17c6\u200b\u1785\u17b7\u178f\u17d2\u178a\u200b\u179f\u1798\u17d2\u179a\u17b6\u1794\u17cb\u200b\u1798\u179a\u178f\u1780\u200b\u179a\u1794\u179f\u17cb\u1799\u17be\u1784\u200b \u179a\u17a0\u17bc\u178f\u200b\u1791\u17b6\u179b\u17cb\u200b\u178f\u17c2\u200b\u1796\u17d2\u179a\u17c7\u17a2\u1784\u17d2\u1782\u200b\u1794\u17d2\u179a\u17c4\u179f\u179b\u17c4\u17c7\u200b\u17a2\u17d2\u1793\u1780\u200b\u178a\u17c2\u179b\u200b\u1787\u17b6\u200b\u1780\u1798\u17d2\u1798\u179f\u17b7\u1791\u17d2\u1792\u17b7\u200b\u179a\u1794\u179f\u17cb\u1796\u17d2\u179a\u17c7\u17a2\u1784\u17d2\u1782\u200b \u178a\u17be\u1798\u17d2\u1794\u17b8\u200b\u1787\u17b6\u200b\u1780\u17b6\u179a\u200b\u179f\u179a\u179f\u17be\u179a\u200b\u178a\u179b\u17cb\u200b\u179f\u17b7\u179a\u17b8\u200b\u179a\u17bb\u1784\u179a\u17bf\u1784\u200b\u179a\u1794\u179f\u17cb\u200b\u1796\u17d2\u179a\u17c7\u17a2\u1784\u17d2\u1782\u17d4\u200b"
        },
        {
            "chapter": 1,
            "verse": 15,
            "name": "Ephesians 1:15",
            "text": "\u17a0\u17c1\u178f\u17bb\u200b\u1793\u17c1\u17c7\u200b\u17a0\u17be\u1799\u200b \u1793\u17c5\u200b\u1796\u17c1\u179b\u200b\u1781\u17d2\u1789\u17bb\u17c6\u200b\u1794\u17b6\u1793\u200b\u17ae\u200b\u17a2\u17c6\u1796\u17b8\u200b\u1787\u17c6\u1793\u17bf\u200b\u179a\u1794\u179f\u17cb\u200b\u17a2\u17d2\u1793\u1780\u200b\u179a\u17b6\u179b\u17cb\u1782\u17d2\u1793\u17b6\u200b\u179b\u17be\u200b\u1796\u17d2\u179a\u17c7\u17a2\u1798\u17d2\u1785\u17b6\u179f\u17cb\u200b\u1799\u17c1\u179f\u17ca\u17bc\u200b \u1793\u17b7\u1784\u200b\u17a2\u17c6\u1796\u17b8\u200b\u179f\u17c1\u1785\u1780\u17d2\u178a\u17b8\u200b\u179f\u17d2\u179a\u17a1\u17b6\u1789\u17cb\u200b\u1785\u17c6\u1796\u17c4\u17c7\u200b\u1796\u17bd\u1780\u200b\u1794\u179a\u17b7\u179f\u17bb\u1791\u17d2\u1792\u200b\u1791\u17b6\u17c6\u1784\u200b\u17a2\u179f\u17cb\u200b"
        },
        {
            "chapter": 1,
            "verse": 16,
            "name": "Ephesians 1:16",
            "text": "\u1781\u17d2\u1789\u17bb\u17c6\u200b\u1798\u17b7\u1793\u200b\u1794\u17b6\u1793\u200b\u1788\u1794\u17cb\u200b\u17a2\u179a\u1796\u17d2\u179a\u17c7\u1782\u17bb\u178e\u200b \u178a\u17c4\u1799\u200b\u1796\u17d2\u179a\u17c4\u17c7\u200b\u17a2\u17d2\u1793\u1780\u200b\u179a\u17b6\u179b\u17cb\u1782\u17d2\u1793\u17b6\u200b\u17a1\u17be\u1799\u200b \u1791\u17b6\u17c6\u1784\u200b\u1793\u17b9\u1780\u1785\u17b6\u17c6\u200b\u1796\u17b8\u200b\u17a2\u17d2\u1793\u1780\u200b\u179a\u17b6\u179b\u17cb\u1782\u17d2\u1793\u17b6\u200b\u1793\u17c5\u200b\u1780\u17d2\u1793\u17bb\u1784\u200b\u179f\u17c1\u1785\u1780\u17d2\u178a\u17b8\u200b\u17a2\u1792\u17b7\u179f\u17d2\u178b\u17b6\u1793\u200b\u179a\u1794\u179f\u17cb\u200b\u1781\u17d2\u1789\u17bb\u17c6\u200b"
        },
        {
            "chapter": 1,
            "verse": 17,
            "name": "Ephesians 1:17",
            "text": "\u178a\u17be\u1798\u17d2\u1794\u17b8\u200b\u179f\u17bc\u1798\u200b\u17b2\u17d2\u1799\u200b\u1796\u17d2\u179a\u17c7\u200b\u179a\u1794\u179f\u17cb\u200b\u1796\u17d2\u179a\u17c7\u1799\u17c1\u179f\u17ca\u17bc\u200b\u1782\u17d2\u179a\u17b7\u179f\u17d2\u178a\u200b \u1787\u17b6\u200b\u1796\u17d2\u179a\u17c7\u17a2\u1798\u17d2\u1785\u17b6\u179f\u17cb\u200b\u179a\u1794\u179f\u17cb\u200b\u1799\u17be\u1784\u200b \u1782\u17ba\u200b\u1796\u17d2\u179a\u17c7\u179c\u179a\u1794\u17b7\u178f\u17b6\u200b\u1793\u17c3\u200b\u179f\u17b7\u179a\u17b8\u200b\u179a\u17bb\u1784\u179a\u17bf\u1784\u200b\u1794\u17d2\u179a\u1791\u17b6\u1793\u200b\u178a\u179b\u17cb\u200b\u17a2\u17d2\u1793\u1780\u200b\u179a\u17b6\u179b\u17cb\u1782\u17d2\u1793\u17b6\u200b\u1793\u17bc\u179c\u200b\u1796\u17d2\u179a\u17c7\u179c\u17b7\u1789\u17d2\u1789\u17b6\u178e\u200b\u1793\u17c3\u200b\u1794\u17d2\u179a\u17b6\u1787\u17d2\u1789\u17b6\u200b \u1793\u17b7\u1784\u200b\u1780\u17b6\u179a\u200b\u1794\u17be\u1780\u200b\u179f\u17c6\u178a\u17c2\u1784\u200b\u17b2\u17d2\u1799\u200b\u179f\u17d2\u1782\u17b6\u179b\u17cb\u200b\u1796\u17d2\u179a\u17c7\u17a2\u1784\u17d2\u1782\u200b"
        },
        {
            "chapter": 1,
            "verse": 18,
            "name": "Ephesians 1:18",
            "text": "\u17a0\u17be\u1799\u200b\u17b2\u17d2\u1799\u200b\u1797\u17d2\u1793\u17c2\u1780\u200b\u1785\u17b7\u178f\u17d2\u178f\u200b\u179a\u1794\u179f\u17cb\u200b\u17a2\u17d2\u1793\u1780\u200b\u179a\u17b6\u179b\u17cb\u1782\u17d2\u1793\u17b6\u200b\u1794\u17b6\u1793\u200b\u1797\u17d2\u179b\u17ba\u200b\u17a1\u17be\u1784\u200b \u178a\u17be\u1798\u17d2\u1794\u17b8\u200b\u17b2\u17d2\u1799\u200b\u17a2\u17d2\u1793\u1780\u200b\u179a\u17b6\u179b\u17cb\u1782\u17d2\u1793\u17b6\u200b\u178a\u17b9\u1784\u200b\u1790\u17b6\u200b \u179f\u17c1\u1785\u1780\u17d2\u178a\u17b8\u200b\u179f\u1784\u17d2\u1783\u17b9\u1798\u200b\u1793\u17c3\u200b\u1780\u17b6\u179a\u200b\u178f\u17d2\u179a\u17b6\u179f\u17cb\u200b\u17a0\u17c5\u200b\u179a\u1794\u179f\u17cb\u200b\u1796\u17d2\u179a\u17c7\u17a2\u1784\u17d2\u1782\u200b\u1787\u17b6\u200b\u1799\u17c9\u17b6\u1784\u200b\u178e\u17b6\u200b \u1798\u179a\u178f\u1780\u200b\u179a\u1794\u179f\u17cb\u200b\u1796\u17d2\u179a\u17c7\u17a2\u1784\u17d2\u1782\u200b\u1793\u17c5\u200b\u1780\u17d2\u1793\u17bb\u1784\u200b\u1796\u17bd\u1780\u200b\u1794\u179a\u17b7\u179f\u17bb\u1791\u17d2\u1792\u200b\u1798\u17b6\u1793\u200b\u179f\u17b7\u179a\u17b8\u200b\u179a\u17bb\u1784\u179a\u17bf\u1784\u200b\u178a\u17cf\u200b\u1794\u179a\u17b7\u1794\u17bc\u179a\u200b\u1787\u17b6\u200b\u1799\u17c9\u17b6\u1784\u200b\u178e\u17b6\u200b"
        },
        {
            "chapter": 1,
            "verse": 19,
            "name": "Ephesians 1:19",
            "text": "\u17a0\u17be\u1799\u200b\u17a2\u17c6\u178e\u17b6\u1785\u200b\u179a\u1794\u179f\u17cb\u200b\u1796\u17d2\u179a\u17c7\u17a2\u1784\u17d2\u1782\u200b\u1798\u17b6\u1793\u200b\u1797\u17b6\u1796\u200b\u17a2\u179f\u17d2\u1785\u17b6\u179a\u17d2\u1799\u200b\u179b\u17be\u179f\u179b\u1794\u17cb\u200b\u1787\u17b6\u200b\u1799\u17c9\u17b6\u1784\u200b\u178e\u17b6\u200b\u179f\u1798\u17d2\u179a\u17b6\u1794\u17cb\u200b\u1799\u17be\u1784\u200b\u1787\u17b6\u200b\u17a2\u17d2\u1793\u1780\u200b\u1787\u17bf\u200b\u178a\u17c2\u179b\u200b\u179f\u17d2\u179a\u1794\u200b\u178f\u17b6\u1798\u200b\u17a2\u17b6\u1793\u17bb\u1797\u17b6\u1796\u200b\u1793\u17c3\u200b\u1796\u17d2\u179a\u17c7\u1785\u17c1\u179f\u17d2\u178a\u17b6\u200b\u178a\u17cf\u200b\u1781\u17d2\u179b\u17b6\u17c6\u1784\u200b\u1796\u17bc\u1780\u17c2\u200b\u179a\u1794\u179f\u17cb\u200b\u1796\u17d2\u179a\u17c7\u17a2\u1784\u17d2\u1782\u200b"
        },
        {
            "chapter": 1,
            "verse": 20,
            "name": "Ephesians 1:20",
            "text": "\u17a2\u17c6\u178e\u17b6\u1785\u200b\u1793\u17c1\u17c7\u200b\u1796\u17d2\u179a\u17c7\u1787\u17b6\u1798\u17d2\u1785\u17b6\u179f\u17cb\u200b\u1794\u17b6\u1793\u200b\u1792\u17d2\u179c\u17be\u200b\u1780\u17b6\u179a\u200b\u1793\u17c5\u200b\u1780\u17d2\u1793\u17bb\u1784\u200b\u1796\u17d2\u179a\u17c7\u1782\u17d2\u179a\u17b7\u179f\u17d2\u178a\u200b \u178a\u17c4\u1799\u200b\u1794\u17b6\u1793\u200b\u1794\u17d2\u179a\u17c4\u179f\u200b\u1796\u17d2\u179a\u17c7\u1782\u17d2\u179a\u17b7\u179f\u17d2\u178a\u200b\u17b2\u17d2\u1799\u200b\u179a\u179f\u17cb\u200b\u1796\u17b8\u200b\u1780\u17b6\u179a\u200b\u179f\u17c4\u1799\u200b\u1791\u17b7\u179c\u1784\u17d2\u1782\u178f\u200b\u17a1\u17be\u1784\u200b\u179c\u17b7\u1789\u200b \u1796\u17d2\u179a\u1798\u1791\u17b6\u17c6\u1784\u200b\u17b2\u17d2\u1799\u200b\u1782\u1784\u17cb\u200b\u1793\u17c5\u200b\u1781\u17b6\u1784\u200b\u179f\u17d2\u178a\u17b6\u17c6\u200b\u1796\u17d2\u179a\u17c7\u17a2\u1784\u17d2\u1782\u200b\u1793\u17c5\u200b\u17af\u200b\u179f\u17d2\u1790\u17b6\u1793\u179f\u17bd\u1782\u17cc\u200b"
        },
        {
            "chapter": 1,
            "verse": 21,
            "name": "Ephesians 1:21",
            "text": "\u1781\u17d2\u1796\u179f\u17cb\u200b\u179b\u17be\u200b\u17a2\u179f\u17cb\u200b\u1791\u17b6\u17c6\u1784\u200b\u1780\u17b6\u179a\u200b\u1782\u17d2\u179a\u1794\u17cb\u1782\u17d2\u179a\u1784\u200b \u179f\u17b7\u1791\u17d2\u1792\u17b7\u200b\u17a2\u17c6\u178e\u17b6\u1785\u200b \u17a2\u17c6\u178e\u17b6\u1785\u200b \u17a2\u17c6\u178e\u17b6\u1785\u200b\u1782\u17d2\u179a\u1794\u17cb\u1782\u17d2\u179a\u1784\u200b \u1793\u17b7\u1784\u200b\u17a2\u179f\u17cb\u200b\u1791\u17b6\u17c6\u1784\u200b\u1788\u17d2\u1798\u17c4\u17c7\u200b\u178a\u17c2\u179b\u200b\u17a0\u17c5\u200b \u1798\u17b7\u1793\u200b\u178f\u17d2\u179a\u17b9\u1798\u200b\u178f\u17c2\u200b\u1793\u17c5\u200b\u1787\u17c6\u1793\u17b6\u1793\u17cb\u200b\u1793\u17c1\u17c7\u200b\u1794\u17c9\u17bb\u178e\u17d2\u178e\u17c4\u17c7\u200b\u1791\u17c1\u200b \u1782\u17ba\u200b\u1793\u17c5\u200b\u1787\u17c6\u1793\u17b6\u1793\u17cb\u200b\u178a\u17c2\u179b\u200b\u1793\u17b9\u1784\u200b\u1798\u1780\u200b\u178a\u179b\u17cb\u200b\u1791\u17c0\u178f\u200b\u1795\u1784\u200b"
        },
        {
            "chapter": 1,
            "verse": 22,
            "name": "Ephesians 1:22",
            "text": "\u17a0\u17be\u1799\u200b\u1796\u17d2\u179a\u17c7\u1787\u17b6\u1798\u17d2\u1785\u17b6\u179f\u17cb\u200b\u1794\u17b6\u1793\u200b\u178a\u17b6\u1780\u17cb\u200b\u17a2\u17d2\u179c\u17b8\u17d7\u200b\u1791\u17b6\u17c6\u1784\u200b\u17a2\u179f\u17cb\u200b\u17b2\u17d2\u1799\u200b\u1793\u17c5\u200b\u1780\u17d2\u179a\u17c4\u1798\u200b\u1794\u17b6\u1791\u17b6\u200b\u179a\u1794\u179f\u17cb\u200b\u1796\u17d2\u179a\u17c7\u1782\u17d2\u179a\u17b7\u179f\u17d2\u178a\u200b \u1796\u17d2\u179a\u1798\u1791\u17b6\u17c6\u1784\u200b\u1794\u17b6\u1793\u200b\u178f\u17c2\u1784\u200b\u178f\u17b6\u17c6\u1784\u200b\u1796\u17d2\u179a\u17c7\u17a2\u1784\u17d2\u1782\u200b\u1787\u17b6\u200b\u1796\u17d2\u179a\u17c7\u179f\u17b7\u179a\u200b\u179b\u17be\u200b\u17a2\u17d2\u179c\u17b8\u17d7\u200b\u1791\u17b6\u17c6\u1784\u200b\u17a2\u179f\u17cb\u200b\u179f\u1798\u17d2\u179a\u17b6\u1794\u17cb\u200b\u1780\u17d2\u179a\u17bb\u1798\u1787\u17c6\u1793\u17bb\u17c6\u200b"
        },
        {
            "chapter": 1,
            "verse": 23,
            "name": "Ephesians 1:23",
            "text": "\u178a\u17c2\u179b\u200b\u1787\u17b6\u200b\u179a\u17bc\u1794\u1780\u17b6\u1799\u200b\u179a\u1794\u179f\u17cb\u200b\u1796\u17d2\u179a\u17c7\u17a2\u1784\u17d2\u1782\u200b \u1793\u17b7\u1784\u200b\u1787\u17b6\u200b\u179f\u17c1\u1785\u1780\u17d2\u178a\u17b8\u200b\u1796\u17c4\u179a\u1796\u17c1\u1789\u200b\u179a\u1794\u179f\u17cb\u200b\u1796\u17d2\u179a\u17c7\u17a2\u1784\u17d2\u1782\u200b\u178a\u17c2\u179b\u200b\u1794\u17c6\u1796\u17c1\u1789\u200b\u1791\u17b6\u17c6\u1784\u200b\u17a2\u179f\u17cb\u200b\u1780\u17d2\u1793\u17bb\u1784\u200b\u1782\u17d2\u179a\u1794\u17cb\u200b\u1780\u17b6\u179a\u200b\u1791\u17b6\u17c6\u1784\u200b\u17a2\u179f\u17cb\u17d4\u200b  "
        }
    ]
}