{
    "translation": "Raamattu Kansalle (2012)",
    "abbreviation": "finrk",
    "lang": "fi",
    "language": "Finnish",
    "direction": "LTR",
    "encoding": "UTF-8",
    "book_nr": 18,
    "book_name": "Job",
    "chapter": 10,
    "name": "Job 10",
    "verses": [
        {
            "chapter": 10,
            "verse": 1,
            "name": "Job 10:1",
            "text": "\u201dSieluni on kyll\u00e4stynyt el\u00e4m\u00e4\u00e4n. Min\u00e4 p\u00e4\u00e4st\u00e4n valitukseni valloilleen ja puhun sieluni murheessa."
        },
        {
            "chapter": 10,
            "verse": 2,
            "name": "Job 10:2",
            "text": "Min\u00e4 sanon Jumalalle: \u00c4l\u00e4 tuomitse minua syylliseksi! Ilmoita minulle, miksi k\u00e4yt oikeutta minua vastaan."
        },
        {
            "chapter": 10,
            "verse": 3,
            "name": "Job 10:3",
            "text": "Onko mielest\u00e4si oikein, ett\u00e4 teet v\u00e4\u00e4ryytt\u00e4, ett\u00e4 hylk\u00e4\u00e4t sen, jonka k\u00e4tesi ovat tehneet, mutta ilmestyt avuksi jumalattomien hankkeisiin?"
        },
        {
            "chapter": 10,
            "verse": 4,
            "name": "Job 10:4",
            "text": "Onko sinulla ihmisen silm\u00e4t, n\u00e4etk\u00f6 niin kuin ihminen n\u00e4kee? "
        },
        {
            "chapter": 10,
            "verse": 5,
            "name": "Job 10:5",
            "text": "Ovatko sinun p\u00e4iv\u00e4si kuin ihmisen p\u00e4iv\u00e4t, ovatko vuotesi kuin miehen vuodet,"
        },
        {
            "chapter": 10,
            "verse": 6,
            "name": "Job 10:6",
            "text": "kun etsit v\u00e4\u00e4ryytt\u00e4 minusta ja tutkit minun syntej\u00e4ni?"
        },
        {
            "chapter": 10,
            "verse": 7,
            "name": "Job 10:7",
            "text": "Sinun tiedossasi on, etten ole syyllinen ja ettei ole ket\u00e4\u00e4n, joka pelastaa sinun k\u00e4sist\u00e4si.\u201d "
        },
        {
            "chapter": 10,
            "verse": 8,
            "name": "Job 10:8",
            "text": "  \u201dSinun k\u00e4tesi ovat minut muovanneet ja valmistaneet. Nyt sin\u00e4 kuitenkin tuhoat minut. "
        },
        {
            "chapter": 10,
            "verse": 9,
            "name": "Job 10:9",
            "text": "Muista, ett\u00e4 olet muovannut minua kuin savea, ja nyt sin\u00e4 muutat minut tomuksi j\u00e4lleen. "
        },
        {
            "chapter": 10,
            "verse": 10,
            "name": "Job 10:10",
            "text": "Etk\u00f6 sin\u00e4 valuttanut minua kuin maitoa ja juoksuttanut kuin juustoa?"
        },
        {
            "chapter": 10,
            "verse": 11,
            "name": "Job 10:11",
            "text": "Sin\u00e4 puit minut nahkaan ja lihaan, kudoit minut kokoon luista ja j\u00e4nteist\u00e4."
        },
        {
            "chapter": 10,
            "verse": 12,
            "name": "Job 10:12",
            "text": "El\u00e4m\u00e4n ja armon sin\u00e4 minulle soit. Sinun huolenpitosi on varjellut henkeni. "
        },
        {
            "chapter": 10,
            "verse": 13,
            "name": "Job 10:13",
            "text": "Mutta sin\u00e4 k\u00e4tkit syd\u00e4meesi t\u00e4m\u00e4n, min\u00e4 tied\u00e4n, ett\u00e4 t\u00e4m\u00e4 oli sinun mieless\u00e4si:"
        },
        {
            "chapter": 10,
            "verse": 14,
            "name": "Job 10:14",
            "text": "jos synti\u00e4 tein, sin\u00e4 vartioit minua, syyllisyydest\u00e4ni et minua puhdistanut."
        },
        {
            "chapter": 10,
            "verse": 15,
            "name": "Job 10:15",
            "text": "Jos olisin syyllinen, niin voi minua! Ja vaikka olisin oikeassa, en silti voisi p\u00e4\u00e4t\u00e4ni nostaa, h\u00e4pe\u00e4st\u00e4 kyll\u00e4isen\u00e4 ja kurjuuttani katsellen."
        },
        {
            "chapter": 10,
            "verse": 16,
            "name": "Job 10:16",
            "text": "Jos p\u00e4\u00e4ni nousee, sin\u00e4 mets\u00e4st\u00e4t minua kuin leijona ja n\u00e4yt\u00e4t ihmetekojasi minua vastaan. "
        },
        {
            "chapter": 10,
            "verse": 17,
            "name": "Job 10:17",
            "text": "Sin\u00e4 hankit yh\u00e4 uusia todistajia minua vastaan. Vihasi minua kohtaan kasvaa, ja sin\u00e4 l\u00e4het\u00e4t yh\u00e4 uusia joukkoja minun kimppuuni.\u201d "
        },
        {
            "chapter": 10,
            "verse": 18,
            "name": "Job 10:18",
            "text": "  \u201dMiksi toit minut ulos \u00e4itini kohdusta? Olisinpa menehtynyt, ennen kuin yksik\u00e4\u00e4n silm\u00e4 minua n\u00e4ki! "
        },
        {
            "chapter": 10,
            "verse": 19,
            "name": "Job 10:19",
            "text": "Olisin niin kuin minua ei olisi ollutkaan, minut olisi kannettu kohdusta hautaan."
        },
        {
            "chapter": 10,
            "verse": 20,
            "name": "Job 10:20",
            "text": "Eik\u00f6 el\u00e4m\u00e4ni p\u00e4ivi\u00e4 ole v\u00e4h\u00e4n ja nekin lopuillaan? J\u00e4tt\u00e4k\u00f6\u00f6n h\u00e4n minut rauhaan, ett\u00e4 saisin edes hiukan iloita "
        },
        {
            "chapter": 10,
            "verse": 21,
            "name": "Job 10:21",
            "text": "ennen kuin l\u00e4hden, ikin\u00e4 palaamatta, pimeyden ja kuoleman varjon maahan,"
        },
        {
            "chapter": 10,
            "verse": 22,
            "name": "Job 10:22",
            "text": "pimeyden maahan, synkk\u00e4\u00e4n maahan, kuoleman varjon maahan, jossa vallitsee sekasorto ja jossa valkeuskin on pimeytt\u00e4.\u201d  "
        }
    ]
}