{
    "translation": "World English Bible: British Edition",
    "abbreviation": "webbe",
    "lang": "en",
    "language": "English",
    "direction": "LTR",
    "encoding": "UTF-8",
    "book_nr": 14,
    "book_name": "2 Chronicles",
    "chapter": 27,
    "name": "2 Chronicles 27",
    "verses": [
        {
            "chapter": 27,
            "verse": 1,
            "name": "2 Chronicles 27:1",
            "text": "Jotham was twenty-five years old when he began to reign; and he reigned sixteen years in Jerusalem: and his mother\u2019s name was Jerushah the daughter of Zadok."
        },
        {
            "chapter": 27,
            "verse": 2,
            "name": "2 Chronicles 27:2",
            "text": "He did that which was right in the eyes of the LORD, according to all that his father Uzziah had done: however he didn\u2019t enter into the LORD\u2019s temple. The people still did corruptly."
        },
        {
            "chapter": 27,
            "verse": 3,
            "name": "2 Chronicles 27:3",
            "text": "He built the upper gate of the LORD\u2019s house, and on the wall of Ophel he built much."
        },
        {
            "chapter": 27,
            "verse": 4,
            "name": "2 Chronicles 27:4",
            "text": "Moreover he built cities in the hill country of Judah, and in the forests he built castles and towers."
        },
        {
            "chapter": 27,
            "verse": 5,
            "name": "2 Chronicles 27:5",
            "text": "He fought also with the king of the children of Ammon, and prevailed against them. The children of Ammon gave him the same year one hundred talents of silver, and ten thousand measures of wheat, and ten thousand of barley. The children of Ammon gave that much to him in the second year also, and in the third."
        },
        {
            "chapter": 27,
            "verse": 6,
            "name": "2 Chronicles 27:6",
            "text": "So Jotham became mighty, because he ordered his ways before the LORD his God."
        },
        {
            "chapter": 27,
            "verse": 7,
            "name": "2 Chronicles 27:7",
            "text": "Now the rest of the acts of Jotham, and all his wars, and his ways, behold, they are written in the book of the kings of Israel and Judah."
        },
        {
            "chapter": 27,
            "verse": 8,
            "name": "2 Chronicles 27:8",
            "text": "He was five and twenty years old when he began to reign, and reigned sixteen years in Jerusalem."
        },
        {
            "chapter": 27,
            "verse": 9,
            "name": "2 Chronicles 27:9",
            "text": "Jotham slept with his fathers, and they buried him in the city of David: and Ahaz his son reigned in his place.   "
        }
    ]
}