{
    "translation": "Raamattu Kansalle (2012)",
    "abbreviation": "finrk",
    "lang": "fi",
    "language": "Finnish",
    "direction": "LTR",
    "encoding": "UTF-8",
    "book_nr": 20,
    "book_name": "Proverbs",
    "chapter": 25,
    "name": "Proverbs 25",
    "verses": [
        {
            "chapter": 25,
            "verse": 1,
            "name": "Proverbs 25:1",
            "text": "N\u00e4m\u00e4kin ovat Salomon sananlaskuja, Hiskian, Juudan kuninkaan, miesten kokoamia.  "
        },
        {
            "chapter": 25,
            "verse": 2,
            "name": "Proverbs 25:2",
            "text": " Jumalan kunnia on salata asia, kuninkaiden kunnia on tutkia asia."
        },
        {
            "chapter": 25,
            "verse": 3,
            "name": "Proverbs 25:3",
            "text": "Taivaan korkeus, maan syvyys ja kuninkaiden syd\u00e4met ovat tutkimattomia. "
        },
        {
            "chapter": 25,
            "verse": 4,
            "name": "Proverbs 25:4",
            "text": " Kun hopeasta poistetaan kuona, syntyy hopeasep\u00e4lt\u00e4 astia."
        },
        {
            "chapter": 25,
            "verse": 5,
            "name": "Proverbs 25:5",
            "text": "Kun jumalaton poistetaan kuninkaan luota, valtaistuin vahvistuu vanhurskaudessa.  "
        },
        {
            "chapter": 25,
            "verse": 6,
            "name": "Proverbs 25:6",
            "text": " \u00c4l\u00e4 ylv\u00e4stele kuninkaan edess\u00e4 \u00e4l\u00e4k\u00e4 asetu mahtavien paikoille."
        },
        {
            "chapter": 25,
            "verse": 7,
            "name": "Proverbs 25:7",
            "text": "Parempi on, jos sinulle sanotaan: \u201dTule t\u00e4nne yl\u00f6s\u201d, kuin ett\u00e4 sinut alennetaan ylh\u00e4isen edess\u00e4, jonka silm\u00e4si ovat n\u00e4hneet. "
        },
        {
            "chapter": 25,
            "verse": 8,
            "name": "Proverbs 25:8",
            "text": "\u00c4l\u00e4 l\u00e4hde k\u00e4rkk\u00e4\u00e4sti k\u00e4r\u00e4j\u00f6im\u00e4\u00e4n! Lopulta et tied\u00e4 mit\u00e4 tehd\u00e4, kun vastapuolesi saattaa sinut h\u00e4pe\u00e4\u00e4n. "
        },
        {
            "chapter": 25,
            "verse": 9,
            "name": "Proverbs 25:9",
            "text": " Riitele oma riitasi vastapuolesi kanssa, mutta \u00e4l\u00e4 ilmaise toisen salaisuutta. "
        },
        {
            "chapter": 25,
            "verse": 10,
            "name": "Proverbs 25:10",
            "text": "Muutoin kuka siit\u00e4 kuuleekin, h\u00e4p\u00e4isee sinua, eiv\u00e4tk\u00e4 pahat puheet sinusta lakkaa. "
        },
        {
            "chapter": 25,
            "verse": 11,
            "name": "Proverbs 25:11",
            "text": " Kultaomenia hopeamaljoissa ovat oikeaan aikaan lausutut sanat. "
        },
        {
            "chapter": 25,
            "verse": 12,
            "name": "Proverbs 25:12",
            "text": "Kuin kultainen korvarengas ja hienosta kullasta tehty koru on viisas neuvoja kuulevalle korvalle."
        },
        {
            "chapter": 25,
            "verse": 13,
            "name": "Proverbs 25:13",
            "text": "Kuin lumen viileys korjuuaikana on luotettava l\u00e4hetti l\u00e4hett\u00e4jilleen: h\u00e4n virvoittaa is\u00e4ntiens\u00e4 sielun.  "
        },
        {
            "chapter": 25,
            "verse": 14,
            "name": "Proverbs 25:14",
            "text": " Kuin pilvet ja tuuli, ilman sadetta, on mies, joka kerskuu valheellisilla lahjoilla. "
        },
        {
            "chapter": 25,
            "verse": 15,
            "name": "Proverbs 25:15",
            "text": "K\u00e4rsiv\u00e4llisyydell\u00e4 taivutetaan mahtimies, ja lempe\u00e4 kieli murskaa luun. "
        },
        {
            "chapter": 25,
            "verse": 16,
            "name": "Proverbs 25:16",
            "text": "Jos hunajaa l\u00f6yd\u00e4t, sy\u00f6 kohtuullisesti, ettet kyll\u00e4\u00e4ntyisi siihen ja oksentaisi sit\u00e4. "
        },
        {
            "chapter": 25,
            "verse": 17,
            "name": "Proverbs 25:17",
            "text": "Astu harvoin jalallasi l\u00e4himm\u00e4isesi kotiin, ettei h\u00e4n sinuun kyll\u00e4sty ja ala vihata sinua. "
        },
        {
            "chapter": 25,
            "verse": 18,
            "name": "Proverbs 25:18",
            "text": " Kuin sotanuija, miekka ja ter\u00e4v\u00e4 nuoli on mies, joka todistaa v\u00e4\u00e4rin l\u00e4himm\u00e4ist\u00e4\u00e4n vastaan."
        },
        {
            "chapter": 25,
            "verse": 19,
            "name": "Proverbs 25:19",
            "text": "Kuin mureneva hammas ja horjuva jalka on uskottoman antama turva ahdingon p\u00e4iv\u00e4n\u00e4.  "
        },
        {
            "chapter": 25,
            "verse": 20,
            "name": "Proverbs 25:20",
            "text": " Joka laulaa lauluja murheelliselle syd\u00e4melle, on kuin se, joka riisuu vaatteet pakkasp\u00e4iv\u00e4n\u00e4 tai kaataa etikkaa lipe\u00e4n sekaan. "
        },
        {
            "chapter": 25,
            "verse": 21,
            "name": "Proverbs 25:21",
            "text": " Jos vihamiehell\u00e4si on n\u00e4lk\u00e4, anna h\u00e4nelle leip\u00e4\u00e4 sy\u00f6t\u00e4v\u00e4ksi, jos h\u00e4nell\u00e4 on jano, anna h\u00e4nelle vett\u00e4 juotavaksi. "
        },
        {
            "chapter": 25,
            "verse": 22,
            "name": "Proverbs 25:22",
            "text": "N\u00e4in sin\u00e4 kokoat tulisia hiili\u00e4 h\u00e4nen p\u00e4\u00e4ns\u00e4 p\u00e4\u00e4lle, ja Herra palkitsee sen sinulle. "
        },
        {
            "chapter": 25,
            "verse": 23,
            "name": "Proverbs 25:23",
            "text": " Pohjoistuuli saa aikaan sateen ja salassa kuiskiva kieli vihaiset kasvot."
        },
        {
            "chapter": 25,
            "verse": 24,
            "name": "Proverbs 25:24",
            "text": "Parempi on asua katon kulmalla kuin riitaisan vaimon huonetoverina. "
        },
        {
            "chapter": 25,
            "verse": 25,
            "name": "Proverbs 25:25",
            "text": "Kuin raikas vesi n\u00e4\u00e4ntyv\u00e4lle on hyv\u00e4 sanoma kaukaisesta maasta."
        },
        {
            "chapter": 25,
            "verse": 26,
            "name": "Proverbs 25:26",
            "text": "Sotkettu l\u00e4hde ja turmeltu kaivo on vanhurskas, joka horjuu jumalattoman edess\u00e4."
        },
        {
            "chapter": 25,
            "verse": 27,
            "name": "Proverbs 25:27",
            "text": "Liika hunajan sy\u00f6nti ei ole hyv\u00e4ksi, eik\u00e4 kunnian tavoittelu kunniakasta."
        },
        {
            "chapter": 25,
            "verse": 28,
            "name": "Proverbs 25:28",
            "text": "Kuin kaupunki, jonka muurit ovat hajalla, on mies, joka ei mielt\u00e4\u00e4n hillitse.  "
        }
    ]
}