{
    "translation": "Polish Biblia Gdanska (1881)",
    "abbreviation": "polgdanska",
    "lang": "pl",
    "language": "Polish",
    "direction": "LTR",
    "encoding": "UTF-8",
    "book_nr": 7,
    "book_name": "Judges",
    "chapter": 12,
    "name": "Judges 12",
    "verses": [
        {
            "chapter": 12,
            "verse": 1,
            "name": "Judges 12:1",
            "text": "I zebrali si\u0119 m\u0119\u017cowie Efraimscy, a przyszed\u0142szy ku p\u00f3\u0142nocy, rzekli do Jeftego: Przecz\u017ce\u015b szed\u0142 walczy\u0107 przeciwko synom Ammonowym, a nie wezwa\u0142e\u015b nas, aby\u015bmy szli z tob\u0105? przeto\u017c dom tw\u00f3j i ciebie spalimy ogniem."
        },
        {
            "chapter": 12,
            "verse": 2,
            "name": "Judges 12:2",
            "text": "I rzek\u0142 Jefte do nich: Mia\u0142em nie ma\u0142y sp\u00f3r ja i lud m\u00f3j z syny Ammonowymi, i wzywa\u0142em was, a nie wybawili\u015bcie mi\u0119 z r\u0105k ich."
        },
        {
            "chapter": 12,
            "verse": 3,
            "name": "Judges 12:3",
            "text": "A widz\u0105c, \u017ce\u015bcie mi\u0119 wybawi\u0107 nie chcieli, odwa\u017cy\u0142em zdrowie swoje, i ci\u0105gn\u0105\u0142em przeciw synom Ammonowym, a poda\u0142 je Pan w r\u0119ce moje, i przecz\u017ce\u015bcie przyszli do mnie dnia tego, aby\u015bcie walczyli przeciwko mnie?"
        },
        {
            "chapter": 12,
            "verse": 4,
            "name": "Judges 12:4",
            "text": "A tak zebrawszy Jefte wszystkie m\u0119\u017ce z Galaad, walczy\u0142 z Efraimem; i porazili m\u0119\u017cowie z Galaad Efraima, przeto i\u017c m\u00f3wili: Wy Galaadczycy, kt\u00f3rzy si\u0119 bawicie mi\u0119dzy Efraimitami i mi\u0119dzy Manasesytami, zbiegowie\u015bcie od Efraimit\u00f3w."
        },
        {
            "chapter": 12,
            "verse": 5,
            "name": "Judges 12:5",
            "text": "I odj\u0119li Galaadczycy brody Jorda\u0144skie Efraimowi; a gdy m\u00f3wili uciekaj\u0105cy z Efraimczyk\u00f3w: Niech przejd\u0119, tedy pytali m\u0119\u017cowie Galaadscy: A Efratejczykie\u015b ty: A je\u017ali rzek\u0142: Nie."
        },
        {
            "chapter": 12,
            "verse": 6,
            "name": "Judges 12:6",
            "text": "Tedy mu m\u00f3wili: Wym\u00f3w\u017ce teraz Szybolet; je\u017ali rzek\u0142: Sybolet, a inaczej nie m\u00f3g\u0142 wym\u00f3wi\u0107, tedy pojmawszy go, zabijali go u brodu Jorda\u0144skiego. I poleg\u0142o na on czas z Efraima czterdzie\u015bci i dwa tysi\u0105ce."
        },
        {
            "chapter": 12,
            "verse": 7,
            "name": "Judges 12:7",
            "text": "A tak s\u0105dzi\u0142 Jefte Galaadczyk Izraela przez sze\u015b\u0107 lat; potem umar\u0142 Jefte Galaadczyk, a pogrzebion jest w jednem z miast Galaadskich."
        },
        {
            "chapter": 12,
            "verse": 8,
            "name": "Judges 12:8",
            "text": "Potem s\u0105dzi\u0142 po nim Izraela Abesan z Betlehem."
        },
        {
            "chapter": 12,
            "verse": 9,
            "name": "Judges 12:9",
            "text": "A mia\u0142 trzydzie\u015bci syn\u00f3w, i trzydzie\u015bci c\u00f3rek, kt\u00f3re powydawa\u0142 od siebie, trzydzie\u015bci \u017con przywi\u00f3d\u0142 synom swoim zin\u0105d, i s\u0105dzi\u0142 Izraela przez siedem lat."
        },
        {
            "chapter": 12,
            "verse": 10,
            "name": "Judges 12:10",
            "text": "Umar\u0142 potem Abesan, i pogrzebion jest w Betlehem."
        },
        {
            "chapter": 12,
            "verse": 11,
            "name": "Judges 12:11",
            "text": "A po nim s\u0105dzi\u0142 Izraela Elon Zabulo\u0144czyk, i s\u0105dzi\u0142 Izraela przez dziesi\u0119\u0107 lat."
        },
        {
            "chapter": 12,
            "verse": 12,
            "name": "Judges 12:12",
            "text": "Potem umar\u0142 Elon Zabulo\u0144czyk, i pogrzebiony jest w Ajalon w ziemi Zabulon."
        },
        {
            "chapter": 12,
            "verse": 13,
            "name": "Judges 12:13",
            "text": "A po nim s\u0105dzi\u0142 Izraela Abdon, syn Hellel\u00f3w, Farato\u0144czyk."
        },
        {
            "chapter": 12,
            "verse": 14,
            "name": "Judges 12:14",
            "text": "A ten mia\u0142 czterdzie\u015bci syn\u00f3w, i trzydzie\u015bci wnuk\u00f3w, kt\u00f3rzy je\u017adzili na siedemdziesi\u0119ciu o\u015bl\u0119tach; i s\u0105dzi\u0142 Izraela przez osiem lat."
        },
        {
            "chapter": 12,
            "verse": 15,
            "name": "Judges 12:15",
            "text": "Umar\u0142 potem Abdon, syn Hellel\u00f3w, Farato\u0144czyk, i pogrzebiony jest w Faratonie w ziemi Efraimskiej, na g\u00f3rze Amalekit\u00f3w."
        }
    ]
}