{
    "translation": "Green's Literal Translation",
    "abbreviation": "litv",
    "lang": "en",
    "language": "English",
    "direction": "LTR",
    "encoding": "",
    "book_nr": 24,
    "book_name": "Jeremiah",
    "chapter": 11,
    "name": "Jeremiah 11",
    "verses": [
        {
            "chapter": 11,
            "verse": 1,
            "name": "Jeremiah 11:1",
            "text": "The word that came to Jeremiah from Jehovah, saying, "
        },
        {
            "chapter": 11,
            "verse": 2,
            "name": "Jeremiah 11:2",
            "text": "Hear the words of this covenant, and speak to the men of Judah, and to the inhabitants of Jerusalem, "
        },
        {
            "chapter": 11,
            "verse": 3,
            "name": "Jeremiah 11:3",
            "text": "and say to them, So says Jehovah, the God of Israel, Cursed is the man who does not obey the words of this covenant, "
        },
        {
            "chapter": 11,
            "verse": 4,
            "name": "Jeremiah 11:4",
            "text": "which I commanded your fathers in the day I brought them out of the land of Egypt, from the iron furnace, saying, Obey My voice and do them according to all that I command you, so that you shall be My people, and I will be your God; "
        },
        {
            "chapter": 11,
            "verse": 5,
            "name": "Jeremiah 11:5",
            "text": "in order to establish the oath which I swore to your fathers, to give them a land flowing with milk and honey, as it is this day. Then I answered and said, Amen, O Jehovah. "
        },
        {
            "chapter": 11,
            "verse": 6,
            "name": "Jeremiah 11:6",
            "text": "And Jehovah said to me, Declare all these words in the cities of Judah, and in the streets of Jerusalem, saying, Hear the words of this covenant and do them. "
        },
        {
            "chapter": 11,
            "verse": 7,
            "name": "Jeremiah 11:7",
            "text": "For I solemnly warned your fathers in the day I brought them up out of the land of Egypt, to this day rising early and warning, saying, Obey My voice. "
        },
        {
            "chapter": 11,
            "verse": 8,
            "name": "Jeremiah 11:8",
            "text": "Yet they did not obey nor bow down their ear, but each one walked in the stubbornness of their evil heart. And I will bring on them all the words of this covenant which I commanded them to do, but they did not do. "
        },
        {
            "chapter": 11,
            "verse": 9,
            "name": "Jeremiah 11:9",
            "text": "And Jehovah said to me, A plot is found among the men of Judah, and among the inhabitants of Jerusalem. "
        },
        {
            "chapter": 11,
            "verse": 10,
            "name": "Jeremiah 11:10",
            "text": "They have turned back to the iniquities of their forefathers, who refused to hear My words. And they went after other gods to serve them. The house of Israel and the house of Judah have broken My covenant which I cut with their fathers.   "
        },
        {
            "chapter": 11,
            "verse": 11,
            "name": "Jeremiah 11:11",
            "text": "So Jehovah says this: Behold, I will bring evil on them from which they shall not be able to escape. And though they cry to Me, I will not listen to them. "
        },
        {
            "chapter": 11,
            "verse": 12,
            "name": "Jeremiah 11:12",
            "text": "Then the cities of Judah and the inhabitants of Jerusalem shall go and cry to the gods to whom they burned incense. But they not at all are able to save them in the time of their trouble. "
        },
        {
            "chapter": 11,
            "verse": 13,
            "name": "Jeremiah 11:13",
            "text": "For according to the number of your cities were your gods, O Judah; yea, according to the number of the streets of Jerusalem you have set up altars to that shameful thing, altars to burn incense to Baal. "
        },
        {
            "chapter": 11,
            "verse": 14,
            "name": "Jeremiah 11:14",
            "text": "And you, do not pray for this people; and do not lift up a cry or prayer for them. For I will not hear in the time they cry to Me for their trouble. "
        },
        {
            "chapter": 11,
            "verse": 15,
            "name": "Jeremiah 11:15",
            "text": "What is to My beloved in My house, since she has committed her many evils? And has the holy flesh caused your evil to pass from you? How then do you exult? "
        },
        {
            "chapter": 11,
            "verse": 16,
            "name": "Jeremiah 11:16",
            "text": "Jehovah called your name, a green olive tree, fair, with fine fruit. With the sound of a great storm, He has set fire to it, and its branches are worthless. "
        },
        {
            "chapter": 11,
            "verse": 17,
            "name": "Jeremiah 11:17",
            "text": "And Jehovah of hosts, who planted you, has spoken evil against you, because of the evil of the house of Israel and of the house of Judah which they have done to themselves, to provoke Me to anger by burning incense to Baal.   "
        },
        {
            "chapter": 11,
            "verse": 18,
            "name": "Jeremiah 11:18",
            "text": "And Jehovah made me know. And I knew. Then You showed me their doings. "
        },
        {
            "chapter": 11,
            "verse": 19,
            "name": "Jeremiah 11:19",
            "text": "And I was like a docile lamb being brought to the slaughter; and I did not know that they had plotted schemes against me, saying , Let us destroy the tree with its fruit; and let us cut him off from the land of the living so that his name may be remembered no more. "
        },
        {
            "chapter": 11,
            "verse": 20,
            "name": "Jeremiah 11:20",
            "text": "But, O Jehovah of Hosts who judges with righteousness, who tries the reins and the heart, let me see Your vengeance on them. For to You I have laid open my cause. "
        },
        {
            "chapter": 11,
            "verse": 21,
            "name": "Jeremiah 11:21",
            "text": "For this reason, so says Jehovah concerning the men of Anathoth who seek your life, saying, Do not prophesy in the name of Jehovah, that you do not die by our hand. "
        },
        {
            "chapter": 11,
            "verse": 22,
            "name": "Jeremiah 11:22",
            "text": "So Jehovah of Hosts says this: Behold, I will punish them. The young men shall die by the sword; their sons and their daughters shall die by famine. "
        },
        {
            "chapter": 11,
            "verse": 23,
            "name": "Jeremiah 11:23",
            "text": "And there shall be no survivor of them, for I will bring evil on the men of Anathoth, even the year of their punishment.  "
        }
    ]
}