{
    "translation": "Masoretic Text parallel to the Samaritan Pentateuch",
    "abbreviation": "spmt",
    "lang": "he",
    "language": "Hebrew",
    "direction": "RTL",
    "encoding": "UTF-8",
    "book_nr": 6,
    "book_name": "Joshua",
    "chapter": 18,
    "name": "Joshua 18",
    "verses": [
        {
            "chapter": 18,
            "verse": 1,
            "name": "Joshua 18:1",
            "text": ""
        },
        {
            "chapter": 18,
            "verse": 2,
            "name": "Joshua 18:2",
            "text": ""
        },
        {
            "chapter": 18,
            "verse": 3,
            "name": "Joshua 18:3",
            "text": ""
        },
        {
            "chapter": 18,
            "verse": 4,
            "name": "Joshua 18:4",
            "text": ""
        },
        {
            "chapter": 18,
            "verse": 5,
            "name": "Joshua 18:5",
            "text": ""
        },
        {
            "chapter": 18,
            "verse": 6,
            "name": "Joshua 18:6",
            "text": ""
        },
        {
            "chapter": 18,
            "verse": 7,
            "name": "Joshua 18:7",
            "text": ""
        },
        {
            "chapter": 18,
            "verse": 8,
            "name": "Joshua 18:8",
            "text": ""
        },
        {
            "chapter": 18,
            "verse": 9,
            "name": "Joshua 18:9",
            "text": ""
        },
        {
            "chapter": 18,
            "verse": 10,
            "name": "Joshua 18:10",
            "text": ""
        },
        {
            "chapter": 18,
            "verse": 11,
            "name": "Joshua 18:11",
            "text": ""
        },
        {
            "chapter": 18,
            "verse": 12,
            "name": "Joshua 18:12",
            "text": ""
        },
        {
            "chapter": 18,
            "verse": 13,
            "name": "Joshua 18:13",
            "text": ""
        },
        {
            "chapter": 18,
            "verse": 14,
            "name": "Joshua 18:14",
            "text": ""
        },
        {
            "chapter": 18,
            "verse": 15,
            "name": "Joshua 18:15",
            "text": ""
        },
        {
            "chapter": 18,
            "verse": 16,
            "name": "Joshua 18:16",
            "text": ""
        },
        {
            "chapter": 18,
            "verse": 17,
            "name": "Joshua 18:17",
            "text": ""
        },
        {
            "chapter": 18,
            "verse": 18,
            "name": "Joshua 18:18",
            "text": ""
        },
        {
            "chapter": 18,
            "verse": 19,
            "name": "Joshua 18:19",
            "text": ""
        },
        {
            "chapter": 18,
            "verse": 20,
            "name": "Joshua 18:20",
            "text": ""
        },
        {
            "chapter": 18,
            "verse": 21,
            "name": "Joshua 18:21",
            "text": ""
        },
        {
            "chapter": 18,
            "verse": 22,
            "name": "Joshua 18:22",
            "text": ""
        },
        {
            "chapter": 18,
            "verse": 23,
            "name": "Joshua 18:23",
            "text": ""
        },
        {
            "chapter": 18,
            "verse": 24,
            "name": "Joshua 18:24",
            "text": ""
        },
        {
            "chapter": 18,
            "verse": 25,
            "name": "Joshua 18:25",
            "text": ""
        },
        {
            "chapter": 18,
            "verse": 26,
            "name": "Joshua 18:26",
            "text": ""
        },
        {
            "chapter": 18,
            "verse": 27,
            "name": "Joshua 18:27",
            "text": ""
        },
        {
            "chapter": 18,
            "verse": 28,
            "name": "Joshua 18:28",
            "text": ""
        }
    ]
}