{
    "translation": "Almeida Atualizada",
    "abbreviation": "almeida",
    "lang": "pt",
    "language": "Portuguese",
    "direction": "LTR",
    "encoding": "UTF-8",
    "book_nr": 58,
    "book_name": "Hebrews",
    "chapter": 4,
    "name": "Hebrews 4",
    "verses": [
        {
            "chapter": 4,
            "verse": 1,
            "name": "Hebrews 4:1",
            "text": "Temamos, portanto, que, sendo-nos deixada a promessa de entrar no seu descanso, suceda parecer que algum de v\u00f3s tenha falhado."
        },
        {
            "chapter": 4,
            "verse": 2,
            "name": "Hebrews 4:2",
            "text": "Porque tamb\u00e9m a n\u00f3s foi pregado o evangelho, assim como a eles; mas a palavra pregada nada lhes aproveitou, visto n\u00e3o ter sido acompanhada pela f\u00e9 naqueles que a ouviram."
        },
        {
            "chapter": 4,
            "verse": 3,
            "name": "Hebrews 4:3",
            "text": "Porque n\u00f3s, os que temos crido, \u00e9 que entramos no descanso, tal como disse: Assim jurei na minha ira: N\u00e3o entrar\u00e3o no meu descanso; embora as suas obras estivessem acabadas desde a funda\u00e7\u00e3o do mundo;"
        },
        {
            "chapter": 4,
            "verse": 4,
            "name": "Hebrews 4:4",
            "text": "pois em certo lugar disse ele assim do s\u00e9timo dia: E descansou Deus, no s\u00e9timo dia, de todas as suas obras;"
        },
        {
            "chapter": 4,
            "verse": 5,
            "name": "Hebrews 4:5",
            "text": "e outra vez, neste lugar: N\u00e3o entrar\u00e3o no meu descanso."
        },
        {
            "chapter": 4,
            "verse": 6,
            "name": "Hebrews 4:6",
            "text": "Visto, pois, restar que alguns entrem nele, e que aqueles a quem anteriormente foram pregadas as boas novas n\u00e3o entraram por causa da desobedi\u00eancia,"
        },
        {
            "chapter": 4,
            "verse": 7,
            "name": "Hebrews 4:7",
            "text": "determina outra vez um certo dia, Hoje, dizendo por Davi, depois de tanto tempo, como antes fora dito: Hoje, se ouvirdes a sua voz, n\u00e3o endure\u00e7ais os vossos cora\u00e7\u00f5es."
        },
        {
            "chapter": 4,
            "verse": 8,
            "name": "Hebrews 4:8",
            "text": "Porque, se Jesus lhes houvesse dado descanso, n\u00e3o teria falado, posteriormente, a respeito de outro dia."
        },
        {
            "chapter": 4,
            "verse": 9,
            "name": "Hebrews 4:9",
            "text": "Portanto resta ainda um repouso sab\u00e1tico para o povo de Deus."
        },
        {
            "chapter": 4,
            "verse": 10,
            "name": "Hebrews 4:10",
            "text": "Pois aquele que entrou no descanso de Deus, esse tamb\u00e9m descansou de suas obras, assim como Deus das suas."
        },
        {
            "chapter": 4,
            "verse": 11,
            "name": "Hebrews 4:11",
            "text": "Ora, \u00e0 vista disso, procuremos diligentemente entrar naquele descanso, para que ningu\u00e9m caia no mesmo exemplo de desobedi\u00eancia."
        },
        {
            "chapter": 4,
            "verse": 12,
            "name": "Hebrews 4:12",
            "text": "Porque a palavra de Deus \u00e9 viva e eficaz, e mais cortante do que qualquer espada de dois gumes, e penetra at\u00e9 a divis\u00e3o de alma e esp\u00edrito, e de juntas e medulas, e \u00e9 apta para discernir os pensamentos e inten\u00e7\u00f5es do cora\u00e7\u00e3o."
        },
        {
            "chapter": 4,
            "verse": 13,
            "name": "Hebrews 4:13",
            "text": "E n\u00e3o h\u00e1 criatura alguma encoberta diante dele; antes todas as coisas est\u00e3o nuas e patentes aos olhos daquele a quem havemos de prestar contas."
        },
        {
            "chapter": 4,
            "verse": 14,
            "name": "Hebrews 4:14",
            "text": "Tendo, portanto, um grande sumo sacerdote, Jesus, Filho de Deus, que penetrou os c\u00e9us, retenhamos firmemente a nossa confiss\u00e3o."
        },
        {
            "chapter": 4,
            "verse": 15,
            "name": "Hebrews 4:15",
            "text": "Porque n\u00e3o temos um sumo sacerdote que n\u00e3o possa compadecer-se das nossas fraquezas; por\u00e9m um que, como n\u00f3s, em tudo foi tentado, mas sem pecado."
        },
        {
            "chapter": 4,
            "verse": 16,
            "name": "Hebrews 4:16",
            "text": "Cheguemo-nos, pois, confiadamente ao trono da gra\u00e7a, para que recebamos miseric\u00f3rdia e achemos gra\u00e7a, a fim de sermos socorridos no momento oportuno. "
        }
    ]
}