{
    "translation": "Esperanto",
    "abbreviation": "esperanto",
    "lang": "eo",
    "language": "Esperanto",
    "direction": "LTR",
    "encoding": "UTF-8",
    "book_nr": 66,
    "book_name": "Revelation",
    "chapter": 22,
    "name": "Revelation 22",
    "verses": [
        {
            "chapter": 22,
            "verse": 1,
            "name": "Revelation 22:1",
            "text": "Kaj li montris al mi riveron de akvo de vivo, helan kiel kristalo, elirantan el la trono de Dio kaj de la \u015cafido,"
        },
        {
            "chapter": 22,
            "verse": 2,
            "name": "Revelation 22:2",
            "text": "meze de \u011dia strato. Kaj \u0109e \u0109iu flanko de la rivero estis arbo de vivo, portanta dek du fruktojn, liveranta sian frukton \u0109iumonate; kaj la folioj de la arbo estis por la resanigo de la nacioj."
        },
        {
            "chapter": 22,
            "verse": 3,
            "name": "Revelation 22:3",
            "text": "Kaj ne plu ekzistos malbeno; kaj en \u011di estos la trono de Dio kaj de la \u015cafido; kaj Liaj servistoj Lin adoros;"
        },
        {
            "chapter": 22,
            "verse": 4,
            "name": "Revelation 22:4",
            "text": "kaj ili vidos Lian viza\u011don; kaj Lia nomo estos sur ilia frunto."
        },
        {
            "chapter": 22,
            "verse": 5,
            "name": "Revelation 22:5",
            "text": "Kaj nokto ne plu ekzistos; kaj ili ne bezonas lumon de lampo, nek lumon de suno; \u0109ar Dio, la Sinjoro, lumos al ili; kaj ili re\u011dos por \u0109iam kaj eterne. "
        },
        {
            "chapter": 22,
            "verse": 6,
            "name": "Revelation 22:6",
            "text": "Kaj li diris al mi: Tiuj vortoj estas fidelaj kaj veraj; kaj la Sinjoro, la Dio de la spiritoj de la profetoj, sendis Sian an\u011delon, por montri al Siaj servistoj tion, kio devas okazi balda\u016d."
        },
        {
            "chapter": 22,
            "verse": 7,
            "name": "Revelation 22:7",
            "text": "Kaj jen mi rapide venos. Feli\u0109a estas tiu, kiu observas la vortojn de la profeta\u0135o de \u0109i tiu libro. "
        },
        {
            "chapter": 22,
            "verse": 8,
            "name": "Revelation 22:8",
            "text": "Kaj mi, Johano, estis la a\u016ddanto kaj la vidanto de \u0109i tio. Kaj kiam mi a\u016ddis kaj vidis, mi falis, por adorklini\u011di anta\u016d la piedoj de la an\u011delo, kiu montris tion al mi."
        },
        {
            "chapter": 22,
            "verse": 9,
            "name": "Revelation 22:9",
            "text": "Kaj li diris al mi: Gardu vin, ke vi tion ne faru; mi estas kunservisto kun vi kaj kun viaj fratoj, la profetoj, kaj kun la observantoj de la vortoj de \u0109i tiu libro; adorklini\u011du al Dio. "
        },
        {
            "chapter": 22,
            "verse": 10,
            "name": "Revelation 22:10",
            "text": "Kaj li diris al mi: Ne sigelu la vortojn de la profeta\u0135o de \u0109i tiu libro; \u0109ar la tempo estas proksima."
        },
        {
            "chapter": 22,
            "verse": 11,
            "name": "Revelation 22:11",
            "text": "La maljustulo ankora\u016d estu maljusta; kaj la malpurulo ankora\u016d estu malpura; kaj la justulo ankora\u016d faru juston; kaj la sanktulo ankora\u016d sankti\u011du."
        },
        {
            "chapter": 22,
            "verse": 12,
            "name": "Revelation 22:12",
            "text": "Jen mi rapide venos; kaj mia rekompenco estas kun mi, por repagi al \u0109iu la\u016d lia faro."
        },
        {
            "chapter": 22,
            "verse": 13,
            "name": "Revelation 22:13",
            "text": "Mi estas la Alfa kaj la Omega, la unua kaj la lasta, la komenco kaj la fino."
        },
        {
            "chapter": 22,
            "verse": 14,
            "name": "Revelation 22:14",
            "text": "Feli\u0109aj estas tiuj, kiuj lavas siajn robojn, por ke ili havu rajton sur la arbo de vivo, kaj ke ili eniru tra la pordegoj en la urbon."
        },
        {
            "chapter": 22,
            "verse": 15,
            "name": "Revelation 22:15",
            "text": "Ekstere estas la hundoj kaj la sor\u0109istoj kaj la mal\u0109astuloj kaj la mortigistoj kaj la idolanoj, kaj \u0109iu, kiu amas kaj faras mensogon. "
        },
        {
            "chapter": 22,
            "verse": 16,
            "name": "Revelation 22:16",
            "text": "Mi, Jesuo, sendis mian an\u011delon, por atesti al vi \u0109i tion por la eklezioj. Mi estas la markoto kaj ido de David, la hela, la matena stelo. "
        },
        {
            "chapter": 22,
            "verse": 17,
            "name": "Revelation 22:17",
            "text": "Kaj la Spirito kaj la fian\u0109ino diras: Venu. Kaj la a\u016ddanto diru: Venu. Kaj la soifanto venu; kiu volas, tiu prenu donace la akvon de vivo. "
        },
        {
            "chapter": 22,
            "verse": 18,
            "name": "Revelation 22:18",
            "text": "Mi atestas al \u0109iu, kiu a\u016ddas la vortojn de la profeta\u0135o de \u0109i tiu libro: Se iu aldonos al ili, Dio aldonos al li la plagojn, skribitajn en \u0109i tiu libro;"
        },
        {
            "chapter": 22,
            "verse": 19,
            "name": "Revelation 22:19",
            "text": "kaj se iu forprenos el la vortoj de la libro de \u0109i tiu profeta\u0135o, skribitaj en \u0109i tiu libro, Dio forprenos lian lota\u0135on el la arbo de vivo kaj el la sankta urbo. "
        },
        {
            "chapter": 22,
            "verse": 20,
            "name": "Revelation 22:20",
            "text": "La atestanto de tio diras: Vere, mi rapide venos. Amen; venu, Sinjoro Jesuo. "
        },
        {
            "chapter": 22,
            "verse": 21,
            "name": "Revelation 22:21",
            "text": "La graco de la Sinjoro Jesuo estu kun \u0109iuj sanktuloj. Amen. "
        }
    ]
}