{
    "translation": "Kitaabka Quduuska Ah",
    "abbreviation": "somkqa",
    "lang": "so",
    "language": "Somali",
    "direction": "LTR",
    "encoding": "UTF-8",
    "book_nr": 21,
    "book_name": "Ecclesiastes",
    "chapter": 5,
    "name": "Ecclesiastes 5",
    "verses": [
        {
            "chapter": 5,
            "verse": 1,
            "name": "Ecclesiastes 5:1",
            "text": "    Markaad guriga Ilaah tegaysid is-ilaali, waayo, inaad u dhowaatid si aad wax u maqashid way ka roon tahay inaad bixisid allabariga nacasyada oo kale, maxaa yeelay, iyagu ma oga inay wax shar ah samaynayaan. "
        },
        {
            "chapter": 5,
            "verse": 2,
            "name": "Ecclesiastes 5:2",
            "text": "Afkaaga ha ku degdegin, oo inaad Ilaah hortiisa wax kaga hadashid ha u dhaqsan, waayo, Ilaah samaduu joogaa, adna dhulkaad joogtaa, haddaba hadalkaagu ha yaraado. "
        },
        {
            "chapter": 5,
            "verse": 3,
            "name": "Ecclesiastes 5:3",
            "text": "Waayo, riyo waxay ka dhalataa hawl badan, oo nacaska codkiisana waxaa lagu gartaa hadalkiisa badan. "
        },
        {
            "chapter": 5,
            "verse": 4,
            "name": "Ecclesiastes 5:4",
            "text": "Markaad Ilaah nidar u nidartid waa inaadan inaad bixisid dib uga dhicin, waayo, isagu nacasyada kuma farxo ee wixii aad u nidartay bixi. "
        },
        {
            "chapter": 5,
            "verse": 5,
            "name": "Ecclesiastes 5:5",
            "text": "Inaad nidar gasho oo aadan bixin waxaa ka wanaagsan inaadan waxba nidrin. "
        },
        {
            "chapter": 5,
            "verse": 6,
            "name": "Ecclesiastes 5:6",
            "text": "Afkaaga ha u oggolaan inuu jidhkaaga dembaajiyo, oo malaa\u2019igta horteedana ha ka odhan, Qalad bay ahaayeen. Bal maxaad Ilaah codkaaga ugu cadhaysiisaa si uu shuqulka gacmahaaga u baabbi\u2019iyo? "
        },
        {
            "chapter": 5,
            "verse": 7,
            "name": "Ecclesiastes 5:7",
            "text": "Waayo, riyooyin iyo erayo fara badanba waxaa ku jira wax badan oo aan waxtar lahayn, laakiinse adigu Ilaah ka cabso.      "
        },
        {
            "chapter": 5,
            "verse": 8,
            "name": "Ecclesiastes 5:8",
            "text": "Haddaad gobol ku aragtid masaakiin la dulmayo, iyo garsoorid iyo caddaalad si xoog leh loo qalloocinayo, waxaas ha la yaabin, waayo, kan sare mid ka sii sarreeya ayaa eegaya, oo weliba waxaa jira kuwa ka sii sarreeya iyaga. "
        },
        {
            "chapter": 5,
            "verse": 9,
            "name": "Ecclesiastes 5:9",
            "text": "Dhulka faa\u2019iidadiisu kulli way ka dhexaysaa, waayo, boqorka qudhiisaba waxaa looga adeegaa beerta.   "
        },
        {
            "chapter": 5,
            "verse": 10,
            "name": "Ecclesiastes 5:10",
            "text": "Kii lacag jecelu lacag kama dhergi doono, oo kii maal badan jeceluna faa\u2019iido kama dhergi doono, taasuna waa wax aan waxba tarayn. "
        },
        {
            "chapter": 5,
            "verse": 11,
            "name": "Ecclesiastes 5:11",
            "text": "Markii maalku bato kuwa cunaana way sii bataan. Maalku bal muxuu kan leh u taraa inuu indhihiisa ku fiiriyo mooyaane? "
        },
        {
            "chapter": 5,
            "verse": 12,
            "name": "Ecclesiastes 5:12",
            "text": "Ninkii hawshooda hurdadiisu waa u macaan tahay, hadduu wax yar cuno iyo hadduu wax badan cunoba, laakiinse taajirka maalkiisa badanu hurdaduu u diidaa.   "
        },
        {
            "chapter": 5,
            "verse": 13,
            "name": "Ecclesiastes 5:13",
            "text": "Waxaa jira wax shar ah oo aad u xun oo aan qorraxda hoosteeda ku arkay, waana maal badan oo uu kan lahu sii haysto oo uu waxyeello uun isu keeno. "
        },
        {
            "chapter": 5,
            "verse": 14,
            "name": "Ecclesiastes 5:14",
            "text": "Oo maalkaasu wax xun buu ku baabba\u2019aa, oo kii lahaana wiil buu dhalay, laakiinse gacantiisa waxba kuma jiraan. "
        },
        {
            "chapter": 5,
            "verse": 15,
            "name": "Ecclesiastes 5:15",
            "text": "Siduu uurka hooyadiis uga soo baxay ayuu isagoo qaawan ku tegi doonaa, siduu hore ku yimid oo kale. Oo hawshiisa aawadeedna wax uu gacanta ku qaadan karo ma qaadan doono. "
        },
        {
            "chapter": 5,
            "verse": 16,
            "name": "Ecclesiastes 5:16",
            "text": "Oo weliba taasuna waa wax aad u xun inuu si kastaba ku tago siduu hore ku yimid oo kale; haddaba kan dabayl ku hawshooda bal maxaa faa\u2019iido ah oo uu helayaa? "
        },
        {
            "chapter": 5,
            "verse": 17,
            "name": "Ecclesiastes 5:17",
            "text": "Oo weliba cimrigiisa oo dhan wuxuu ku cunaa gudcur, oo intaasna wuxuu ku jiraa murug, iyo cudur, iyo cadho.   "
        },
        {
            "chapter": 5,
            "verse": 18,
            "name": "Ecclesiastes 5:18",
            "text": "Bal eeg, waxaan gartay inay wanaagsan tahay oo habboon tahay in qof wax cuno oo wax cabbo, iyo inuu hawshiisa uu qorraxda hoosteeda ku hawshoodo oo dhan ku istareexo cimrigii Ilaah siiyey oo dhan, waayo, taasu waa qaybtiisa. "
        },
        {
            "chapter": 5,
            "verse": 19,
            "name": "Ecclesiastes 5:19",
            "text": "Oo weliba nin kasta oo Ilaah maal iyo hanti siiyey, oo haddana siiyey karti uu wax kaga cuno, oo uu kaga qayb qaato, iyo inuu hawshiisa ku reyreeyoba, taasu waa hibo Ilaah. "
        },
        {
            "chapter": 5,
            "verse": 20,
            "name": "Ecclesiastes 5:20",
            "text": "Waayo, isagu aad uma xusuusan doono wakhtigii uu noolaa, maxaa yeelay, Ilaah baa farxad qalbigiisa geliya.   "
        }
    ]
}