{
    "translation": "Greek Modern",
    "abbreviation": "moderngreek",
    "lang": "el",
    "language": "Greek Modern",
    "direction": "LTR",
    "encoding": "UTF-8",
    "book_nr": 2,
    "book_name": "Exodus",
    "chapter": 34,
    "name": "Exodus 34",
    "verses": [
        {
            "chapter": 34,
            "verse": 1,
            "name": "Exodus 34:1",
            "text": "\u039a\u03b1\u03b9 \u03b5\u03af\u03c0\u03b5 \u039a\u03cd\u03c1\u03b9\u03bf\u03c2 \u03c0\u03c1\u03bf\u03c2 \u03c4\u03bf\u03bd \u039c\u03c9\u03cb\u03c3\u03ae\u03bd, \u039a\u03cc\u03c8\u03bf\u03bd \u03b5\u03b9\u03c2 \u03c3\u03b5\u03b1\u03c5\u03c4\u03cc\u03bd \u03b4\u03cd\u03bf \u03c0\u03bb\u03ac\u03ba\u03b1\u03c2 \u03bb\u03b9\u03b8\u03af\u03bd\u03b1\u03c2 \u03ba\u03b1\u03b8\u03ce\u03c2 \u03c4\u03b1\u03c2 \u03c0\u03c1\u03ce\u03c4\u03b1\u03c2\u00b7 \u03ba\u03b1\u03b9 \u03b8\u03ad\u03bb\u03c9 \u03b3\u03c1\u03ac\u03c8\u03b5\u03b9 \u03b5\u03c0\u03af \u03c4\u03c9\u03bd \u03c0\u03bb\u03b1\u03ba\u03ce\u03bd \u03c4\u03bf\u03c5\u03c2 \u03bb\u03cc\u03b3\u03bf\u03c5\u03c2, \u03bf\u03af\u03c4\u03b9\u03bd\u03b5\u03c2 \u03ae\u03c3\u03b1\u03bd \u03b5\u03c0\u03af \u03c4\u03c9\u03bd \u03c0\u03c1\u03ce\u03c4\u03c9\u03bd \u03c0\u03bb\u03b1\u03ba\u03ce\u03bd, \u03c4\u03b1\u03c2 \u03bf\u03c0\u03bf\u03af\u03b1\u03c2 \u03c3\u03c5\u03bd\u03ad\u03c4\u03c1\u03b9\u03c8\u03b1\u03c2\u00b7 "
        },
        {
            "chapter": 34,
            "verse": 2,
            "name": "Exodus 34:2",
            "text": "\u03ba\u03b1\u03b9 \u03b3\u03af\u03bd\u03bf\u03c5 \u03ad\u03c4\u03bf\u03b9\u03bc\u03bf\u03c2 \u03c4\u03bf \u03c0\u03c1\u03c9\u0390, \u03ba\u03b1\u03b9 \u03b1\u03bd\u03ac\u03b2\u03b7\u03b8\u03b9 \u03c4\u03bf \u03c0\u03c1\u03c9\u0390 \u03b5\u03c0\u03af \u03c4\u03bf \u03cc\u03c1\u03bf\u03c2 \u03a3\u03b9\u03bd\u03ac, \u03ba\u03b1\u03b9 \u03c0\u03b1\u03c1\u03ac\u03c3\u03c4\u03b7\u03b8\u03b9 \u03b5\u03ba\u03b5\u03af \u03b5\u03bd\u03ce\u03c0\u03b9\u03cc\u03bd \u03bc\u03bf\u03c5 \u03b5\u03c0\u03af \u03c4\u03b7\u03c2 \u03ba\u03bf\u03c1\u03c5\u03c6\u03ae\u03c2 \u03c4\u03bf\u03c5 \u03cc\u03c1\u03bf\u03c5\u03c2\u00b7 "
        },
        {
            "chapter": 34,
            "verse": 3,
            "name": "Exodus 34:3",
            "text": "\u03ba\u03b1\u03b9 \u03bf\u03c5\u03b4\u03b5\u03af\u03c2 \u03b8\u03ad\u03bb\u03b5\u03b9 \u03b1\u03bd\u03b1\u03b2\u03ae \u03bc\u03b5\u03c4\u03ac \u03c3\u03bf\u03c5 \u03bf\u03c5\u03b4\u03ad \u03b8\u03ad\u03bb\u03b5\u03b9 \u03c6\u03b1\u03bd\u03ae \u03c4\u03b9\u03c2 \u03ba\u03b1\u03b8' \u03cc\u03bb\u03bf\u03bd \u03c4\u03bf \u03cc\u03c1\u03bf\u03c2\u00b7 \u03ba\u03b1\u03b9 \u03c4\u03b1 \u03c0\u03bf\u03af\u03bc\u03bd\u03b9\u03b1 \u03ba\u03b1\u03b9 \u03b1\u03b9 \u03b1\u03b3\u03ad\u03bb\u03b1\u03b9 \u03b4\u03b5\u03bd \u03b8\u03ad\u03bb\u03bf\u03c5\u03c3\u03b9 \u03b2\u03bf\u03c3\u03ba\u03b7\u03b8\u03ae \u03ad\u03bc\u03c0\u03c1\u03bf\u03c3\u03b8\u03b5\u03bd \u03c4\u03bf\u03c5 \u03cc\u03c1\u03bf\u03c5\u03c2 \u03b5\u03ba\u03b5\u03af\u03bd\u03bf\u03c5. "
        },
        {
            "chapter": 34,
            "verse": 4,
            "name": "Exodus 34:4",
            "text": "\u039a\u03b1\u03b9 \u03ad\u03ba\u03bf\u03c8\u03b5 \u03b4\u03cd\u03bf \u03c0\u03bb\u03ac\u03ba\u03b1\u03c2 \u03bb\u03b9\u03b8\u03af\u03bd\u03b1\u03c2 \u03ba\u03b1\u03b8\u03ce\u03c2 \u03c4\u03b1\u03c2 \u03c0\u03c1\u03ce\u03c4\u03b1\u03c2\u00b7 \u03ba\u03b1\u03b9 \u03c3\u03b7\u03ba\u03c9\u03b8\u03b5\u03af\u03c2 \u03bf \u039c\u03c9\u03cb\u03c3\u03ae\u03c2 \u03b5\u03bd\u03c9\u03c1\u03af\u03c2 \u03c4\u03bf \u03c0\u03c1\u03c9\u0390, \u03b1\u03bd\u03ad\u03b2\u03b7 \u03b5\u03c0\u03af \u03c4\u03bf \u03cc\u03c1\u03bf\u03c2 \u03a3\u03b9\u03bd\u03ac, \u03ba\u03b1\u03b8\u03ce\u03c2 \u03c0\u03c1\u03bf\u03c3\u03ad\u03c4\u03b1\u03be\u03b5\u03bd \u03b5\u03b9\u03c2 \u03b1\u03c5\u03c4\u03cc\u03bd \u03bf \u039a\u03cd\u03c1\u03b9\u03bf\u03c2, \u03ba\u03b1\u03b9 \u03ad\u03bb\u03b1\u03b2\u03b5\u03bd \u03b5\u03b9\u03c2 \u03c4\u03b1\u03c2 \u03c7\u03b5\u03af\u03c1\u03b1\u03c2 \u03b1\u03c5\u03c4\u03bf\u03cd \u03c4\u03b1\u03c2 \u03b4\u03cd\u03bf \u03c0\u03bb\u03ac\u03ba\u03b1\u03c2 \u03c4\u03b1\u03c2 \u03bb\u03b9\u03b8\u03af\u03bd\u03b1\u03c2. "
        },
        {
            "chapter": 34,
            "verse": 5,
            "name": "Exodus 34:5",
            "text": "\u039a\u03b1\u03b9 \u03ba\u03b1\u03c4\u03ad\u03b2\u03b7 \u03bf \u039a\u03cd\u03c1\u03b9\u03bf\u03c2 \u03b5\u03bd \u03bd\u03b5\u03c6\u03ad\u03bb\u03b7 \u03ba\u03b1\u03b9 \u03b5\u03c3\u03c4\u03ac\u03b8\u03b7 \u03bc\u03b5\u03c4' \u03b1\u03c5\u03c4\u03bf\u03cd \u03b5\u03ba\u03b5\u03af \u03ba\u03b1\u03b9 \u03b5\u03ba\u03ae\u03c1\u03c5\u03be\u03b5 \u03c4\u03bf \u03cc\u03bd\u03bf\u03bc\u03b1 \u03c4\u03bf\u03c5 \u039a\u03c5\u03c1\u03af\u03bf\u03c5. "
        },
        {
            "chapter": 34,
            "verse": 6,
            "name": "Exodus 34:6",
            "text": "\u039a\u03b1\u03b9 \u03c0\u03b1\u03c1\u03ae\u03bb\u03b8\u03b5 \u039a\u03cd\u03c1\u03b9\u03bf\u03c2 \u03ad\u03bc\u03c0\u03c1\u03bf\u03c3\u03b8\u03b5\u03bd \u03b1\u03c5\u03c4\u03bf\u03cd \u03ba\u03b1\u03b9 \u03b5\u03ba\u03ae\u03c1\u03c5\u03be\u03b5, \u039a\u03cd\u03c1\u03b9\u03bf\u03c2, \u039a\u03cd\u03c1\u03b9\u03bf\u03c2 \u03bf \u0398\u03b5\u03cc\u03c2, \u03bf\u03b9\u03ba\u03c4\u03af\u03c1\u03bc\u03c9\u03bd \u03ba\u03b1\u03b9 \u03b5\u03bb\u03b5\u03ae\u03bc\u03c9\u03bd, \u03bc\u03b1\u03ba\u03c1\u03cc\u03b8\u03c5\u03bc\u03bf\u03c2 \u03ba\u03b1\u03b9 \u03c0\u03bf\u03bb\u03c5\u03ad\u03bb\u03b5\u03bf\u03c2, \u03ba\u03b1\u03b9 \u03b1\u03bb\u03b7\u03b8\u03b9\u03bd\u03cc\u03c2, "
        },
        {
            "chapter": 34,
            "verse": 7,
            "name": "Exodus 34:7",
            "text": "\u03c6\u03c5\u03bb\u03ac\u03c4\u03c4\u03c9\u03bd \u03ad\u03bb\u03b5\u03bf\u03c2 \u03b5\u03b9\u03c2 \u03c7\u03b9\u03bb\u03b9\u03ac\u03b4\u03b1\u03c2, \u03c3\u03c5\u03b3\u03c7\u03c9\u03c1\u03ce\u03bd \u03b1\u03bd\u03bf\u03bc\u03af\u03b1\u03bd \u03ba\u03b1\u03b9 \u03c0\u03b1\u03c1\u03ac\u03b2\u03b1\u03c3\u03b9\u03bd \u03ba\u03b1\u03b9 \u03b1\u03bc\u03b1\u03c1\u03c4\u03af\u03b1\u03bd \u03ba\u03b1\u03b9 \u03bf\u03c5\u03b4\u03cc\u03bb\u03c9\u03c2 \u03b1\u03b8\u03c9\u03cc\u03bd\u03c9\u03bd \u03c4\u03bf\u03bd \u03ad\u03bd\u03bf\u03c7\u03bf\u03bd\u00b7 \u03b1\u03bd\u03c4\u03b1\u03c0\u03bf\u03b4\u03af\u03b4\u03c9\u03bd \u03c4\u03b7\u03bd \u03b1\u03bd\u03bf\u03bc\u03af\u03b1\u03bd \u03c4\u03c9\u03bd \u03c0\u03b1\u03c4\u03ad\u03c1\u03c9\u03bd \u03b5\u03c0\u03af \u03c4\u03b1 \u03c4\u03ad\u03ba\u03bd\u03b1 \u03ba\u03b1\u03b9 \u03b5\u03c0\u03af \u03c4\u03b1 \u03c4\u03ad\u03ba\u03bd\u03b1 \u03c4\u03c9\u03bd \u03c4\u03ad\u03ba\u03bd\u03c9\u03bd, \u03ad\u03c9\u03c2 \u03c4\u03c1\u03af\u03c4\u03b7\u03c2 \u03ba\u03b1\u03b9 \u03c4\u03b5\u03c4\u03ac\u03c1\u03c4\u03b7\u03c2 \u03b3\u03b5\u03bd\u03b5\u03ac\u03c2. "
        },
        {
            "chapter": 34,
            "verse": 8,
            "name": "Exodus 34:8",
            "text": "\u039a\u03b1\u03b9 \u03ad\u03c3\u03c0\u03b5\u03c5\u03c3\u03b5\u03bd \u03bf \u039c\u03c9\u03cb\u03c3\u03ae\u03c2 \u03ba\u03b1\u03b9 \u03ba\u03cd\u03c8\u03b1\u03c2 \u03b5\u03b9\u03c2 \u03c4\u03b7\u03bd \u03b3\u03b7\u03bd, \u03c0\u03c1\u03bf\u03c3\u03b5\u03ba\u03cd\u03bd\u03b7\u03c3\u03b5\u00b7 "
        },
        {
            "chapter": 34,
            "verse": 9,
            "name": "Exodus 34:9",
            "text": "\u03ba\u03b1\u03b9 \u03b5\u03af\u03c0\u03b5\u03bd, \u0395\u03ac\u03bd \u03c4\u03ce\u03c1\u03b1 \u03b5\u03cd\u03c1\u03b7\u03ba\u03b1 \u03c7\u03ac\u03c1\u03b9\u03bd \u03b5\u03bd\u03ce\u03c0\u03b9\u03cc\u03bd \u03c3\u03bf\u03c5, \u039a\u03cd\u03c1\u03b9\u03b5, \u03b1\u03c2 \u03ad\u03bb\u03b8\u03b7, \u03b4\u03ad\u03bf\u03bc\u03b1\u03b9, \u03bf \u039a\u03cd\u03c1\u03b9\u03cc\u03c2 \u03bc\u03bf\u03c5 \u03b5\u03bd \u03c4\u03c9 \u03bc\u03ad\u03c3\u03c9 \u03b7\u03bc\u03ce\u03bd\u00b7 \u03b4\u03b9\u03cc\u03c4\u03b9 \u03bf \u03bb\u03b1\u03cc\u03c2 \u03bf\u03cd\u03c4\u03bf\u03c2 \u03b5\u03af\u03bd\u03b1\u03b9 \u03c3\u03ba\u03bb\u03b7\u03c1\u03bf\u03c4\u03c1\u03ac\u03c7\u03b7\u03bb\u03bf\u03c2\u00b7 \u03ba\u03b1\u03b9 \u03c3\u03c5\u03b3\u03c7\u03ce\u03c1\u03b7\u03c3\u03bf\u03bd \u03c4\u03b7\u03bd \u03b1\u03bd\u03bf\u03bc\u03af\u03b1\u03bd \u03b7\u03bc\u03ce\u03bd \u03ba\u03b1\u03b9 \u03c4\u03b7\u03bd \u03b1\u03bc\u03b1\u03c1\u03c4\u03af\u03b1\u03bd \u03b7\u03bc\u03ce\u03bd \u03ba\u03b1\u03b9 \u03bb\u03ac\u03b2\u03b5 \u03b7\u03bc\u03ac\u03c2 \u03b5\u03b9\u03c2 \u03ba\u03bb\u03b7\u03c1\u03bf\u03bd\u03bf\u03bc\u03af\u03b1\u03bd \u03c3\u03bf\u03c5. "
        },
        {
            "chapter": 34,
            "verse": 10,
            "name": "Exodus 34:10",
            "text": "\u039a\u03b1\u03b9 \u03b5\u03af\u03c0\u03b5\u03bd, \u0399\u03b4\u03bf\u03cd, \u03b5\u03b3\u03ce \u03ba\u03ac\u03bc\u03bd\u03c9 \u03b4\u03b9\u03b1\u03b8\u03ae\u03ba\u03b7\u03bd\u00b7 \u03ad\u03bc\u03c0\u03c1\u03bf\u03c3\u03b8\u03b5\u03bd \u03c0\u03b1\u03bd\u03c4\u03cc\u03c2 \u03c4\u03bf\u03c5 \u03bb\u03b1\u03bf\u03cd \u03c3\u03bf\u03c5 \u03b8\u03ad\u03bb\u03c9 \u03ba\u03ac\u03bc\u03b5\u03b9 \u03b8\u03b1\u03c5\u03bc\u03ac\u03c3\u03b9\u03b1, \u03bf\u03c0\u03bf\u03af\u03b1 \u03b4\u03b5\u03bd \u03ad\u03b3\u03b5\u03b9\u03bd\u03b1\u03bd \u03ba\u03b1\u03b8' \u03cc\u03bb\u03b7\u03bd \u03c4\u03b7\u03bd \u03b3\u03b7\u03bd \u03ba\u03b1\u03b9 \u03b5\u03b9\u03c2 \u03bf\u03c5\u03b4\u03ad\u03bd \u03ad\u03b8\u03bd\u03bf\u03c2\u00b7 \u03ba\u03b1\u03b9 \u03c0\u03b1\u03c2 \u03bf \u03bb\u03b1\u03cc\u03c2, \u03b5\u03bd \u03bc\u03ad\u03c3\u03c9 \u03c4\u03bf\u03c5 \u03bf\u03c0\u03bf\u03af\u03bf\u03c5 \u03b5\u03af\u03c3\u03b1\u03b9, \u03b8\u03ad\u03bb\u03b5\u03b9 \u03b9\u03b4\u03b5\u03af \u03c4\u03bf \u03ad\u03c1\u03b3\u03bf\u03bd \u03c4\u03bf\u03c5 \u039a\u03c5\u03c1\u03af\u03bf\u03c5\u00b7 \u03b4\u03b9\u03cc\u03c4\u03b9 \u03c6\u03bf\u03b2\u03b5\u03c1\u03cc\u03bd \u03b5\u03af\u03bd\u03b1\u03b9 \u03b5\u03ba\u03b5\u03af\u03bd\u03bf, \u03c4\u03bf \u03bf\u03c0\u03bf\u03af\u03bf\u03bd \u03b5\u03b3\u03ce \u03b8\u03ad\u03bb\u03c9 \u03ba\u03ac\u03bc\u03b5\u03b9 \u03bc\u03b5\u03c4\u03ac \u03c3\u03bf\u03c5. "
        },
        {
            "chapter": 34,
            "verse": 11,
            "name": "Exodus 34:11",
            "text": "\u03a6\u03cd\u03bb\u03b1\u03be\u03bf\u03bd \u03b5\u03ba\u03b5\u03af\u03bd\u03bf, \u03c4\u03bf \u03bf\u03c0\u03bf\u03af\u03bf\u03bd \u03b5\u03b3\u03ce \u03c3\u03b5 \u03c0\u03c1\u03bf\u03c3\u03c4\u03ac\u03b6\u03c9 \u03c3\u03ae\u03bc\u03b5\u03c1\u03bf\u03bd\u00b7 \u03b9\u03b4\u03bf\u03cd, \u03b5\u03b3\u03ce \u03b5\u03ba\u03b2\u03ac\u03bb\u03bb\u03c9 \u03b1\u03c0' \u03ad\u03bc\u03c0\u03c1\u03bf\u03c3\u03b8\u03ad\u03bd \u03c3\u03bf\u03c5 \u03c4\u03bf\u03bd \u0391\u03bc\u03bf\u03c1\u03c1\u03b1\u03af\u03bf\u03bd \u03ba\u03b1\u03b9 \u03c4\u03bf\u03bd \u03a7\u03b1\u03bd\u03b1\u03bd\u03b1\u03af\u03bf\u03bd \u03ba\u03b1\u03b9 \u03c4\u03bf\u03bd \u03a7\u03b5\u03c4\u03c4\u03b1\u03af\u03bf\u03bd \u03ba\u03b1\u03b9 \u03c4\u03bf\u03bd \u03a6\u03b5\u03c1\u03b5\u03b6\u03b1\u03af\u03bf\u03bd \u03ba\u03b1\u03b9 \u03c4\u03bf\u03bd \u0395\u03c5\u03b1\u03af\u03bf\u03bd \u03ba\u03b1\u03b9 \u03c4\u03bf\u03bd \u0399\u03b5\u03b2\u03bf\u03c5\u03c3\u03b1\u03af\u03bf\u03bd. "
        },
        {
            "chapter": 34,
            "verse": 12,
            "name": "Exodus 34:12",
            "text": "\u03a0\u03c1\u03bf\u03c3\u03ad\u03c7\u03b5 \u03b5\u03b9\u03c2 \u03c3\u03b5\u03b1\u03c5\u03c4\u03cc\u03bd, \u03bc\u03b7 \u03ba\u03ac\u03bc\u03b7\u03c2 \u03c3\u03c5\u03bd\u03b8\u03ae\u03ba\u03b7\u03bd \u03bc\u03b5\u03c4\u03ac \u03c4\u03c9\u03bd \u03ba\u03b1\u03c4\u03bf\u03af\u03ba\u03c9\u03bd \u03c4\u03b7\u03c2 \u03b3\u03b7\u03c2 \u03b5\u03b9\u03c2 \u03c4\u03b7\u03bd \u03bf\u03c0\u03bf\u03af\u03b1\u03bd \u03c5\u03c0\u03ac\u03b3\u03b5\u03b9\u03c2, \u03bc\u03ae\u03c0\u03bf\u03c4\u03b5 \u03b3\u03b5\u03af\u03bd\u03b7 \u03c0\u03b1\u03b3\u03af\u03c2 \u03b5\u03bd \u03c4\u03c9 \u03bc\u03ad\u03c3\u03c9 \u03c3\u03bf\u03c5\u00b7 "
        },
        {
            "chapter": 34,
            "verse": 13,
            "name": "Exodus 34:13",
            "text": "\u03b1\u03bb\u03bb\u03ac \u03c4\u03bf\u03c5\u03c2 \u03b2\u03c9\u03bc\u03bf\u03cd\u03c2 \u03b1\u03c5\u03c4\u03ce\u03bd \u03b8\u03ad\u03bb\u03b5\u03b9\u03c2 \u03ba\u03b1\u03c4\u03b1\u03c3\u03c4\u03c1\u03ad\u03c8\u03b5\u03b9 \u03ba\u03b1\u03b9 \u03c4\u03b1 \u03b5\u03af\u03b4\u03c9\u03bb\u03b1 \u03b1\u03c5\u03c4\u03ce\u03bd \u03b8\u03ad\u03bb\u03b5\u03b9\u03c2 \u03c3\u03c5\u03bd\u03c4\u03c1\u03af\u03c8\u03b5\u03b9 \u03ba\u03b1\u03b9 \u03c4\u03b1 \u03ac\u03bb\u03c3\u03b7 \u03b1\u03c5\u03c4\u03ce\u03bd \u03b8\u03ad\u03bb\u03b5\u03b9\u03c2 \u03ba\u03b1\u03c4\u03b1\u03ba\u03cc\u03c8\u03b5\u03b9. "
        },
        {
            "chapter": 34,
            "verse": 14,
            "name": "Exodus 34:14",
            "text": "\u0394\u03b9\u03cc\u03c4\u03b9 \u03b4\u03b5\u03bd \u03b8\u03ad\u03bb\u03b5\u03b9\u03c2 \u03c0\u03c1\u03bf\u03c3\u03ba\u03c5\u03bd\u03ae\u03c3\u03b5\u03b9 \u03ac\u03bb\u03bb\u03bf\u03bd \u03b8\u03b5\u03cc\u03bd\u00b7 \u03b5\u03c0\u03b5\u03b9\u03b4\u03ae \u03bf \u039a\u03cd\u03c1\u03b9\u03bf\u03c2, \u03c4\u03bf\u03c5 \u03bf\u03c0\u03bf\u03af\u03bf\u03c5 \u03c4\u03bf \u03cc\u03bd\u03bf\u03bc\u03b1 \u03b5\u03af\u03bd\u03b1\u03b9 \u0396\u03b7\u03bb\u03cc\u03c4\u03c5\u03c0\u03bf\u03c2, \u03b5\u03af\u03bd\u03b1\u03b9 \u0398\u03b5\u03cc\u03c2 \u03b6\u03b7\u03bb\u03cc\u03c4\u03c5\u03c0\u03bf\u03c2\u00b7 "
        },
        {
            "chapter": 34,
            "verse": 15,
            "name": "Exodus 34:15",
            "text": "\u03bc\u03ae\u03c0\u03bf\u03c4\u03b5 \u03ba\u03ac\u03bc\u03b7\u03c2 \u03c3\u03c5\u03bd\u03b8\u03ae\u03ba\u03b7\u03bd \u03bc\u03b5\u03c4\u03ac \u03c4\u03c9\u03bd \u03ba\u03b1\u03c4\u03bf\u03af\u03ba\u03c9\u03bd \u03c4\u03b7\u03c2 \u03b3\u03b7\u03c2, \u03ba\u03b1\u03b9 \u03cc\u03c4\u03b1\u03bd \u03c0\u03bf\u03c1\u03bd\u03b5\u03cd\u03c3\u03c9\u03c3\u03b9 \u03ba\u03b1\u03c4\u03cc\u03c0\u03b9\u03bd \u03c4\u03c9\u03bd \u03b8\u03b5\u03ce\u03bd \u03b1\u03c5\u03c4\u03ce\u03bd \u03ba\u03b1\u03b9 \u03b8\u03c5\u03c3\u03b9\u03ac\u03c3\u03c9\u03c3\u03b9 \u03c0\u03c1\u03bf\u03c2 \u03c4\u03bf\u03c5\u03c2 \u03b8\u03b5\u03bf\u03cd\u03c2 \u03b1\u03c5\u03c4\u03ce\u03bd, \u03c3\u03b5 \u03c0\u03c1\u03bf\u03c3\u03ba\u03b1\u03bb\u03ad\u03c3\u03b7 \u03c4\u03b9\u03c2 \u03ba\u03b1\u03b9 \u03c6\u03ac\u03b3\u03b7\u03c2 \u03b1\u03c0\u03cc \u03c4\u03b7\u03c2 \u03b8\u03c5\u03c3\u03af\u03b1\u03c2 \u03b1\u03c5\u03c4\u03bf\u03cd\u00b7 "
        },
        {
            "chapter": 34,
            "verse": 16,
            "name": "Exodus 34:16",
            "text": "\u03ba\u03b1\u03b9 \u03bc\u03ae\u03c0\u03bf\u03c4\u03b5 \u03bb\u03ac\u03b2\u03b7\u03c2 \u03b5\u03ba \u03c4\u03c9\u03bd \u03b8\u03c5\u03b3\u03b1\u03c4\u03ad\u03c1\u03c9\u03bd \u03b1\u03c5\u03c4\u03bf\u03cd \u03b5\u03b9\u03c2 \u03c4\u03bf\u03c5\u03c2 \u03c5\u03b9\u03bf\u03cd\u03c2 \u03c3\u03bf\u03c5, \u03ba\u03b1\u03b9 \u03cc\u03c4\u03b1\u03bd \u03b1\u03b9 \u03b8\u03c5\u03b3\u03b1\u03c4\u03ad\u03c1\u03b5\u03c2 \u03b1\u03c5\u03c4\u03bf\u03cd \u03c0\u03bf\u03c1\u03bd\u03b5\u03cd\u03c3\u03c9\u03c3\u03b9 \u03ba\u03b1\u03c4\u03cc\u03c0\u03b9\u03bd \u03c4\u03c9\u03bd \u03b8\u03b5\u03ce\u03bd \u03b1\u03c5\u03c4\u03ce\u03bd, \u03ba\u03ac\u03bc\u03c9\u03c3\u03b9 \u03c4\u03bf\u03c5\u03c2 \u03c5\u03b9\u03bf\u03cd\u03c2 \u03c3\u03bf\u03c5 \u03bd\u03b1 \u03c0\u03bf\u03c1\u03bd\u03b5\u03cd\u03c3\u03c9\u03c3\u03b9 \u03ba\u03b1\u03c4\u03cc\u03c0\u03b9\u03bd \u03c4\u03c9\u03bd \u03b8\u03b5\u03ce\u03bd \u03b1\u03c5\u03c4\u03ce\u03bd. "
        },
        {
            "chapter": 34,
            "verse": 17,
            "name": "Exodus 34:17",
            "text": "\u0398\u03b5\u03bf\u03cd\u03c2 \u03c7\u03c9\u03bd\u03b5\u03c5\u03c4\u03bf\u03cd\u03c2 \u03b4\u03b5\u03bd \u03b8\u03ad\u03bb\u03b5\u03b9\u03c2 \u03ba\u03ac\u03bc\u03b5\u03b9 \u03b5\u03b9\u03c2 \u03c3\u03b5\u03b1\u03c5\u03c4\u03cc\u03bd. "
        },
        {
            "chapter": 34,
            "verse": 18,
            "name": "Exodus 34:18",
            "text": "\u03a4\u03b7\u03bd \u03b5\u03bf\u03c1\u03c4\u03ae\u03bd \u03c4\u03c9\u03bd \u03b1\u03b6\u03cd\u03bc\u03c9\u03bd \u03b8\u03ad\u03bb\u03b5\u03b9\u03c2 \u03c6\u03c5\u03bb\u03ac\u03c4\u03c4\u03b5\u03b9. \u0395\u03c0\u03c4\u03ac \u03b7\u03bc\u03ad\u03c1\u03b1\u03c2 \u03b8\u03ad\u03bb\u03b5\u03b9\u03c2 \u03c4\u03c1\u03ce\u03b3\u03b5\u03b9 \u03ac\u03b6\u03c5\u03bc\u03b1, \u03ba\u03b1\u03b8\u03ce\u03c2 \u03c0\u03c1\u03bf\u03c3\u03ad\u03c4\u03b1\u03be\u03b1 \u03b5\u03b9\u03c2 \u03c3\u03b5, \u03ba\u03b1\u03c4\u03ac \u03c4\u03bf\u03bd \u03ba\u03b1\u03b9\u03c1\u03cc\u03bd \u03c4\u03bf\u03c5 \u03bc\u03b7\u03bd\u03cc\u03c2 \u0391\u03b2\u03af\u03b2\u00b7 \u03b4\u03b9\u03cc\u03c4\u03b9 \u03ba\u03b1\u03c4\u03ac \u03c4\u03bf\u03bd \u03bc\u03ae\u03bd\u03b1 \u0391\u03b2\u03af\u03b2 \u03b5\u03be\u03ae\u03bb\u03b8\u03b5\u03c2 \u03b5\u03be \u0391\u03b9\u03b3\u03cd\u03c0\u03c4\u03bf\u03c5. "
        },
        {
            "chapter": 34,
            "verse": 19,
            "name": "Exodus 34:19",
            "text": "\u03a0\u03b1\u03bd \u03c4\u03bf \u03b4\u03b9\u03b1\u03bd\u03bf\u03af\u03b3\u03bf\u03bd \u03bc\u03ae\u03c4\u03c1\u03b1\u03bd \u03b5\u03af\u03bd\u03b1\u03b9 \u03b9\u03b4\u03b9\u03ba\u03cc\u03bd \u03bc\u03bf\u03c5\u00b7 \u03ba\u03b1\u03b9 \u03c0\u03b1\u03bd \u03c0\u03c1\u03c9\u03c4\u03cc\u03c4\u03bf\u03ba\u03bf\u03bd \u03b1\u03c1\u03c3\u03b5\u03bd\u03b9\u03ba\u03cc\u03bd \u03bc\u03b5\u03c4\u03b1\u03be\u03cd \u03c4\u03c9\u03bd \u03ba\u03c4\u03b7\u03bd\u03ce\u03bd \u03c3\u03bf\u03c5, \u03b5\u03af\u03c4\u03b5 \u03b2\u03bf\u03c5\u03c2 \u03b5\u03af\u03c4\u03b5 \u03c0\u03c1\u03cc\u03b2\u03b1\u03c4\u03bf\u03bd. "
        },
        {
            "chapter": 34,
            "verse": 20,
            "name": "Exodus 34:20",
            "text": "\u03a4\u03bf \u03b4\u03b5 \u03c0\u03c1\u03c9\u03c4\u03cc\u03c4\u03bf\u03ba\u03bf\u03bd \u03c4\u03b7\u03c2 \u03cc\u03bd\u03bf\u03c5 \u03b8\u03ad\u03bb\u03b5\u03b9\u03c2 \u03b5\u03be\u03b1\u03b3\u03bf\u03c1\u03ac\u03b6\u03b5\u03b9 \u03bc\u03b5 \u03b1\u03c1\u03bd\u03af\u03bf\u03bd\u00b7 \u03ba\u03b1\u03b9 \u03b5\u03ac\u03bd \u03b4\u03b5\u03bd \u03b5\u03be\u03b1\u03b3\u03bf\u03c1\u03ac\u03c3\u03b7\u03c2 \u03b1\u03c5\u03c4\u03cc, \u03c4\u03cc\u03c4\u03b5 \u03b8\u03ad\u03bb\u03b5\u03b9\u03c2 \u03bb\u03b1\u03b9\u03bc\u03bf\u03c4\u03bf\u03bc\u03ae\u03c3\u03b5\u03b9 \u03b1\u03c5\u03c4\u03cc. \u03a0\u03ac\u03bd\u03c4\u03b1\u03c2 \u03c4\u03bf\u03c5\u03c2 \u03c0\u03c1\u03c9\u03c4\u03bf\u03c4\u03cc\u03ba\u03bf\u03c5\u03c2 \u03c4\u03c9\u03bd \u03c5\u03b9\u03ce\u03bd \u03c3\u03bf\u03c5 \u03b8\u03ad\u03bb\u03b5\u03b9\u03c2 \u03b5\u03be\u03b1\u03b3\u03bf\u03c1\u03ac\u03b6\u03b5\u03b9. \u039a\u03b1\u03b9 \u03bf\u03c5\u03b4\u03b5\u03af\u03c2 \u03b8\u03ad\u03bb\u03b5\u03b9 \u03c6\u03b1\u03bd\u03ae \u03b5\u03bd\u03ce\u03c0\u03b9\u03cc\u03bd \u03bc\u03bf\u03c5 \u03ba\u03b5\u03bd\u03cc\u03c2. "
        },
        {
            "chapter": 34,
            "verse": 21,
            "name": "Exodus 34:21",
            "text": "\u0395\u03be \u03b7\u03bc\u03ad\u03c1\u03b1\u03c2 \u03b8\u03ad\u03bb\u03b5\u03b9\u03c2 \u03b5\u03c1\u03b3\u03ac\u03b6\u03b5\u03c3\u03b8\u03b1\u03b9 \u03c4\u03b7\u03bd \u03b4\u03b5 \u03b5\u03b2\u03b4\u03cc\u03bc\u03b7\u03bd \u03b7\u03bc\u03ad\u03c1\u03b1\u03bd \u03b8\u03ad\u03bb\u03b5\u03b9\u03c2 \u03b1\u03bd\u03b1\u03c0\u03b1\u03cd\u03b5\u03c3\u03b8\u03b1\u03b9 \u03ba\u03b1\u03c4\u03ac \u03c4\u03bf\u03bd \u03c3\u03c0\u03bf\u03c1\u03b7\u03c4\u03cc\u03bd \u03ba\u03b1\u03b9 \u03ba\u03b1\u03c4\u03ac \u03c4\u03bf\u03bd \u03b8\u03b5\u03c1\u03b9\u03c3\u03bc\u03cc\u03bd \u03b8\u03ad\u03bb\u03b5\u03b9\u03c2 \u03b1\u03bd\u03b1\u03c0\u03b1\u03cd\u03b5\u03c3\u03b8\u03b1\u03b9. "
        },
        {
            "chapter": 34,
            "verse": 22,
            "name": "Exodus 34:22",
            "text": "\u039a\u03b1\u03b9 \u03b8\u03ad\u03bb\u03b5\u03b9\u03c2 \u03c6\u03c5\u03bb\u03ac\u03c4\u03c4\u03b5\u03b9 \u03c4\u03b7\u03bd \u03b5\u03bf\u03c1\u03c4\u03ae\u03bd \u03c4\u03c9\u03bd \u03b5\u03b2\u03b4\u03bf\u03bc\u03ac\u03b4\u03c9\u03bd, \u03c4\u03c9\u03bd \u03b1\u03c0\u03b1\u03c1\u03c7\u03ce\u03bd \u03c4\u03bf\u03c5 \u03b8\u03b5\u03c1\u03b9\u03c3\u03bc\u03bf\u03cd \u03c4\u03bf\u03c5 \u03c3\u03af\u03c4\u03bf\u03c5, \u03ba\u03b1\u03b9 \u03c4\u03b7\u03bd \u03b5\u03bf\u03c1\u03c4\u03ae\u03bd \u03c4\u03b7\u03c2 \u03c3\u03c5\u03b3\u03ba\u03bf\u03bc\u03b9\u03b4\u03ae\u03c2 \u03b5\u03b9\u03c2 \u03c4\u03b7\u03bd \u03b5\u03c0\u03b9\u03c3\u03c4\u03c1\u03bf\u03c6\u03ae\u03bd \u03c4\u03bf\u03c5 \u03b5\u03bd\u03b9\u03b1\u03c5\u03c4\u03bf\u03cd. "
        },
        {
            "chapter": 34,
            "verse": 23,
            "name": "Exodus 34:23",
            "text": "\u03a4\u03c1\u03af\u03c2 \u03c4\u03bf\u03c5 \u03b5\u03bd\u03b9\u03b1\u03c5\u03c4\u03bf\u03cd \u03b8\u03ad\u03bb\u03b5\u03b9 \u03b5\u03bc\u03c6\u03b1\u03bd\u03af\u03b6\u03b5\u03c3\u03b8\u03b1\u03b9 \u03c0\u03b1\u03bd \u03b1\u03c1\u03c3\u03b5\u03bd\u03b9\u03ba\u03cc\u03bd \u03c3\u03bf\u03c5 \u03b5\u03bd\u03ce\u03c0\u03b9\u03bf\u03bd \u039a\u03c5\u03c1\u03af\u03bf\u03c5, \u039a\u03c5\u03c1\u03af\u03bf\u03c5 \u03c4\u03bf\u03c5 \u0398\u03b5\u03bf\u03cd \u03c4\u03bf\u03c5 \u0399\u03c3\u03c1\u03b1\u03ae\u03bb. "
        },
        {
            "chapter": 34,
            "verse": 24,
            "name": "Exodus 34:24",
            "text": "\u0394\u03b9\u03cc\u03c4\u03b9 \u03b1\u03c6\u03bf\u03cd \u03b5\u03ba\u03b4\u03b9\u03ce\u03be\u03c9 \u03c4\u03b1 \u03ad\u03b8\u03bd\u03b7 \u03b1\u03c0' \u03ad\u03bc\u03c0\u03c1\u03bf\u03c3\u03b8\u03ad\u03bd \u03c3\u03bf\u03c5 \u03ba\u03b1\u03b9 \u03c0\u03bb\u03b1\u03c4\u03cd\u03bd\u03c9 \u03c4\u03b1 \u03cc\u03c1\u03b9\u03ac \u03c3\u03bf\u03c5, \u03b4\u03b5\u03bd \u03b8\u03ad\u03bb\u03b5\u03b9 \u03b5\u03c0\u03b9\u03b8\u03c5\u03bc\u03ae\u03c3\u03b5\u03b9 \u03bf\u03c5\u03b4\u03b5\u03af\u03c2 \u03c4\u03b7\u03bd \u03b3\u03b7\u03bd \u03c3\u03bf\u03c5, \u03cc\u03c4\u03b1\u03bd \u03b1\u03bd\u03b1\u03b2\u03b1\u03af\u03bd\u03b7\u03c2 \u03b4\u03b9\u03ac \u03bd\u03b1 \u03b5\u03bc\u03c6\u03b1\u03bd\u03b9\u03c3\u03b8\u03ae\u03c2 \u03ad\u03bc\u03c0\u03c1\u03bf\u03c3\u03b8\u03b5\u03bd \u039a\u03c5\u03c1\u03af\u03bf\u03c5 \u03c4\u03bf\u03c5 \u0398\u03b5\u03bf\u03cd \u03c3\u03bf\u03c5 \u03c4\u03c1\u03af\u03c2 \u03c4\u03bf\u03c5 \u03b5\u03bd\u03b9\u03b1\u03c5\u03c4\u03bf\u03cd. "
        },
        {
            "chapter": 34,
            "verse": 25,
            "name": "Exodus 34:25",
            "text": "\u0394\u03b5\u03bd \u03b8\u03ad\u03bb\u03b5\u03b9\u03c2 \u03c0\u03c1\u03bf\u03c3\u03c6\u03ad\u03c1\u03b5\u03b9 \u03c4\u03bf \u03b1\u03af\u03bc\u03b1 \u03c4\u03b7\u03c2 \u03b8\u03c5\u03c3\u03af\u03b1\u03c2 \u03bc\u03bf\u03c5 \u03bc\u03b5 \u03ad\u03bd\u03b6\u03c5\u03bc\u03b1\u00b7 \u03ba\u03b1\u03b9 \u03b7 \u03b8\u03c5\u03c3\u03af\u03b1 \u03c4\u03b7\u03c2 \u03b5\u03bf\u03c1\u03c4\u03ae\u03c2 \u03c4\u03bf\u03c5 \u03c0\u03ac\u03c3\u03c7\u03b1 \u03b4\u03b5\u03bd \u03b8\u03ad\u03bb\u03b5\u03b9 \u03bc\u03b5\u03af\u03bd\u03b5\u03b9 \u03ad\u03c9\u03c2 \u03c4\u03bf \u03c0\u03c1\u03c9\u0390. "
        },
        {
            "chapter": 34,
            "verse": 26,
            "name": "Exodus 34:26",
            "text": "\u03a4\u03b1 \u03c0\u03c1\u03c9\u03c4\u03bf\u03b3\u03b5\u03bd\u03bd\u03ae\u03bc\u03b1\u03c4\u03b1 \u03c4\u03b7\u03c2 \u03b3\u03b7\u03c2 \u03c3\u03bf\u03c5 \u03b8\u03ad\u03bb\u03b5\u03b9\u03c2 \u03c6\u03ad\u03c1\u03b5\u03b9 \u03b5\u03b9\u03c2 \u03c4\u03bf\u03bd \u03bf\u03af\u03ba\u03bf\u03bd \u039a\u03c5\u03c1\u03af\u03bf\u03c5 \u03c4\u03bf\u03c5 \u0398\u03b5\u03bf\u03cd \u03c3\u03bf\u03c5. \u0394\u03b5\u03bd \u03b8\u03ad\u03bb\u03b5\u03b9\u03c2 \u03c8\u03ae\u03c3\u03b5\u03b9 \u03b5\u03c1\u03af\u03c6\u03b9\u03bf\u03bd \u03b5\u03bd \u03c4\u03c9 \u03b3\u03ac\u03bb\u03b1\u03ba\u03c4\u03b9 \u03c4\u03b7\u03c2 \u03bc\u03b7\u03c4\u03c1\u03cc\u03c2 \u03b1\u03c5\u03c4\u03bf\u03cd. "
        },
        {
            "chapter": 34,
            "verse": 27,
            "name": "Exodus 34:27",
            "text": "\u039a\u03b1\u03b9 \u03b5\u03af\u03c0\u03b5 \u039a\u03cd\u03c1\u03b9\u03bf\u03c2 \u03c0\u03c1\u03bf\u03c2 \u03c4\u03bf\u03bd \u039c\u03c9\u03cb\u03c3\u03ae\u03bd, \u0393\u03c1\u03ac\u03c8\u03bf\u03bd \u03b5\u03b9\u03c2 \u03c3\u03b5\u03b1\u03c5\u03c4\u03cc\u03bd \u03c4\u03bf\u03c5\u03c2 \u03bb\u03cc\u03b3\u03bf\u03c5\u03c2 \u03c4\u03bf\u03cd\u03c4\u03bf\u03c5\u03c2\u00b7 \u03b4\u03b9\u03cc\u03c4\u03b9 \u03ba\u03b1\u03c4\u03ac \u03c4\u03bf\u03c5\u03c2 \u03bb\u03cc\u03b3\u03bf\u03c5\u03c2 \u03c4\u03bf\u03cd\u03c4\u03bf\u03c5\u03c2 \u03ad\u03ba\u03b1\u03bc\u03b1 \u03b4\u03b9\u03b1\u03b8\u03ae\u03ba\u03b7\u03bd \u03c0\u03c1\u03bf\u03c2 \u03c3\u03b5 \u03ba\u03b1\u03b9 \u03c0\u03c1\u03bf\u03c2 \u03c4\u03bf\u03bd \u0399\u03c3\u03c1\u03b1\u03ae\u03bb, "
        },
        {
            "chapter": 34,
            "verse": 28,
            "name": "Exodus 34:28",
            "text": "\u039a\u03b1\u03b9 \u03ae\u03c4\u03bf \u03b5\u03ba\u03b5\u03af \u03bc\u03b5\u03c4\u03ac \u03c4\u03bf\u03c5 \u039a\u03c5\u03c1\u03af\u03bf\u03c5 \u03c4\u03b5\u03c3\u03c3\u03b1\u03c1\u03ac\u03ba\u03bf\u03bd\u03c4\u03b1 \u03b7\u03bc\u03ad\u03c1\u03b1\u03c2 \u03ba\u03b1\u03b9 \u03c4\u03b5\u03c3\u03c3\u03b1\u03c1\u03ac\u03ba\u03bf\u03bd\u03c4\u03b1 \u03bd\u03cd\u03ba\u03c4\u03b1\u03c2\u00b7 \u03ac\u03c1\u03c4\u03bf\u03bd \u03b4\u03b5\u03bd \u03ad\u03c6\u03b1\u03b3\u03b5 \u03ba\u03b1\u03b9 \u03cd\u03b4\u03c9\u03c1 \u03b4\u03b5\u03bd \u03ad\u03c0\u03b9\u03b5. \u039a\u03b1\u03b9 \u03ad\u03b3\u03c1\u03b1\u03c8\u03b5\u03bd \u03b5\u03c0\u03af \u03c4\u03c9\u03bd \u03c0\u03bb\u03b1\u03ba\u03ce\u03bd \u03c4\u03bf\u03c5\u03c2 \u03bb\u03cc\u03b3\u03bf\u03c5\u03c2 \u03c4\u03b7\u03c2 \u03b4\u03b9\u03b1\u03b8\u03ae\u03ba\u03b7\u03c2, \u03c4\u03b1\u03c2 \u03b4\u03ad\u03ba\u03b1 \u03b5\u03bd\u03c4\u03bf\u03bb\u03ac\u03c2. "
        },
        {
            "chapter": 34,
            "verse": 29,
            "name": "Exodus 34:29",
            "text": "\u039a\u03b1\u03b9 \u03cc\u03c4\u03b5 \u03ba\u03b1\u03c4\u03ad\u03b2\u03b1\u03b9\u03bd\u03b5\u03bd \u03bf \u039c\u03c9\u03cb\u03c3\u03ae\u03c2 \u03b1\u03c0\u03cc \u03c4\u03bf\u03c5 \u03cc\u03c1\u03bf\u03c5\u03c2 \u03a3\u03b9\u03bd\u03ac, \u03ba\u03b1\u03b9 \u03b1\u03b9 \u03b4\u03cd\u03bf \u03c0\u03bb\u03ac\u03ba\u03b5\u03c2 \u03c4\u03bf\u03c5 \u03bc\u03b1\u03c1\u03c4\u03c5\u03c1\u03af\u03bf\u03c5 \u03ae\u03c3\u03b1\u03bd \u03b5\u03b9\u03c2 \u03c4\u03b7\u03bd \u03c7\u03b5\u03af\u03c1\u03b1 \u03c4\u03bf\u03c5 \u039c\u03c9\u03cb\u03c3\u03ad\u03c9\u03c2, \u03cc\u03c4\u03b5 \u03ba\u03b1\u03c4\u03ad\u03b2\u03b1\u03b9\u03bd\u03b5\u03bd \u03b1\u03c0\u03cc \u03c4\u03bf\u03c5 \u03cc\u03c1\u03bf\u03c5\u03c2, \u03bf \u039c\u03c9\u03cb\u03c3\u03ae\u03c2 \u03b4\u03b5\u03bd \u03ae\u03be\u03b5\u03c5\u03c1\u03b5\u03bd \u03cc\u03c4\u03b9 \u03c4\u03bf \u03b4\u03ad\u03c1\u03bc\u03b1 \u03c4\u03bf\u03c5 \u03c0\u03c1\u03bf\u03c3\u03ce\u03c0\u03bf\u03c5 \u03b1\u03c5\u03c4\u03bf\u03cd \u03ad\u03b3\u03b5\u03b9\u03bd\u03b5 \u03bb\u03b1\u03bc\u03c0\u03c1\u03cc\u03bd \u03b5\u03bd\u03ce \u03b5\u03bb\u03ac\u03bb\u03b5\u03b9 \u03bc\u03b5\u03c4' \u03b1\u03c5\u03c4\u03bf\u03cd. "
        },
        {
            "chapter": 34,
            "verse": 30,
            "name": "Exodus 34:30",
            "text": "\u039a\u03b1\u03b9 \u03b5\u03af\u03b4\u03b5\u03bd \u03bf \u0391\u03b1\u03c1\u03ce\u03bd \u03ba\u03b1\u03b9 \u03c0\u03ac\u03bd\u03c4\u03b5\u03c2 \u03bf\u03b9 \u03c5\u03b9\u03bf\u03af \u0399\u03c3\u03c1\u03b1\u03ae\u03bb \u03c4\u03bf\u03bd \u039c\u03c9\u03cb\u03c3\u03ae\u03bd, \u03ba\u03b1\u03b9 \u03b9\u03b4\u03bf\u03cd, \u03c4\u03bf \u03b4\u03ad\u03c1\u03bc\u03b1 \u03c4\u03bf\u03c5 \u03c0\u03c1\u03bf\u03c3\u03ce\u03c0\u03bf\u03c5 \u03b1\u03c5\u03c4\u03bf\u03cd \u03ad\u03bb\u03b1\u03bc\u03c0\u03b5\u00b7 \u03ba\u03b1\u03b9 \u03b5\u03c6\u03bf\u03b2\u03ae\u03b8\u03b7\u03c3\u03b1\u03bd \u03bd\u03b1 \u03c0\u03bb\u03b7\u03c3\u03b9\u03ac\u03c3\u03c9\u03c3\u03b9\u03bd \u03b5\u03b9\u03c2 \u03b1\u03c5\u03c4\u03cc\u03bd. "
        },
        {
            "chapter": 34,
            "verse": 31,
            "name": "Exodus 34:31",
            "text": "\u039a\u03b1\u03b9 \u03b5\u03ba\u03ac\u03bb\u03b5\u03c3\u03b5\u03bd \u03b1\u03c5\u03c4\u03bf\u03cd\u03c2 \u03bf \u039c\u03c9\u03cb\u03c3\u03ae\u03c2\u00b7 \u03ba\u03b1\u03b9 \u03b5\u03c0\u03b5\u03c3\u03c4\u03c1\u03ac\u03c6\u03b7\u03c3\u03b1\u03bd \u03c0\u03c1\u03bf\u03c2 \u03b1\u03c5\u03c4\u03cc\u03bd \u03bf \u0391\u03b1\u03c1\u03ce\u03bd \u03ba\u03b1\u03b9 \u03c0\u03ac\u03bd\u03c4\u03b5\u03c2 \u03bf\u03b9 \u03ac\u03c1\u03c7\u03bf\u03bd\u03c4\u03b5\u03c2 \u03c4\u03b7\u03c2 \u03c3\u03c5\u03bd\u03b1\u03b3\u03c9\u03b3\u03ae\u03c2, \u03ba\u03b1\u03b9 \u03b5\u03bb\u03ac\u03bb\u03b7\u03c3\u03b5 \u03c0\u03c1\u03bf\u03c2 \u03b1\u03c5\u03c4\u03bf\u03cd\u03c2 \u03bf \u039c\u03c9\u03cb\u03c3\u03ae\u03c2. "
        },
        {
            "chapter": 34,
            "verse": 32,
            "name": "Exodus 34:32",
            "text": "\u039a\u03b1\u03b9 \u03bc\u03b5\u03c4\u03ac \u03c4\u03b1\u03cd\u03c4\u03b1 \u03c0\u03ac\u03bd\u03c4\u03b5\u03c2 \u03bf\u03b9 \u03c5\u03b9\u03bf\u03af \u0399\u03c3\u03c1\u03b1\u03ae\u03bb \u03c0\u03c1\u03bf\u03c3\u03ae\u03bb\u03b8\u03bf\u03bd\u00b7 \u03ba\u03b1\u03b9 \u03c0\u03c1\u03bf\u03c3\u03ad\u03c4\u03b1\u03be\u03b5\u03bd \u03b5\u03b9\u03c2 \u03b1\u03c5\u03c4\u03bf\u03cd\u03c2 \u03c0\u03ac\u03bd\u03c4\u03b1 \u03cc\u03c3\u03b1 \u03b5\u03bb\u03ac\u03bb\u03b7\u03c3\u03b5\u03bd \u03bf \u039a\u03cd\u03c1\u03b9\u03bf\u03c2 \u03c0\u03c1\u03bf\u03c2 \u03b1\u03c5\u03c4\u03cc\u03bd \u03b5\u03c0\u03af \u03c4\u03bf\u03c5 \u03cc\u03c1\u03bf\u03c5\u03c2 \u03a3\u03b9\u03bd\u03ac. "
        },
        {
            "chapter": 34,
            "verse": 33,
            "name": "Exodus 34:33",
            "text": "\u039a\u03b1\u03b9 \u03b5\u03c4\u03b5\u03bb\u03b5\u03af\u03c9\u03c3\u03b5\u03bd \u03bf \u039c\u03c9\u03cb\u03c3\u03ae\u03c2 \u03bb\u03b1\u03bb\u03ce\u03bd \u03c0\u03c1\u03bf\u03c2 \u03b1\u03c5\u03c4\u03bf\u03cd\u03c2\u00b7 \u03b5\u03af\u03c7\u03b5 \u03b4\u03b5 \u03ba\u03ac\u03bb\u03c5\u03bc\u03bc\u03b1 \u03b5\u03c0\u03af \u03c4\u03bf \u03c0\u03c1\u03cc\u03c3\u03c9\u03c0\u03bf\u03bd \u03b1\u03c5\u03c4\u03bf\u03cd. "
        },
        {
            "chapter": 34,
            "verse": 34,
            "name": "Exodus 34:34",
            "text": "\u039a\u03b1\u03b9 \u03cc\u03c4\u03b5 \u03b5\u03b9\u03c3\u03ae\u03c1\u03c7\u03b5\u03c4\u03bf \u03bf \u039c\u03c9\u03cb\u03c3\u03ae\u03c2 \u03b5\u03bd\u03ce\u03c0\u03b9\u03bf\u03bd \u03c4\u03bf\u03c5 \u039a\u03c5\u03c1\u03af\u03bf\u03c5 \u03b4\u03b9\u03ac \u03bd\u03b1 \u03bb\u03b1\u03bb\u03ae\u03c3\u03b7 \u03bc\u03b5\u03c4' \u03b1\u03c5\u03c4\u03bf\u03cd, \u03b5\u03c3\u03ae\u03ba\u03bf\u03bd\u03b5 \u03c4\u03bf \u03ba\u03ac\u03bb\u03c5\u03bc\u03bc\u03b1, \u03b5\u03c9\u03c3\u03bf\u03cd \u03b5\u03be\u03ad\u03bb\u03b8\u03b7. \u039a\u03b1\u03b9 \u03b5\u03be\u03ae\u03c1\u03c7\u03b5\u03c4\u03bf \u03ba\u03b1\u03b9 \u03b5\u03bb\u03ac\u03bb\u03b5\u03b9 \u03c0\u03c1\u03bf\u03c2 \u03c4\u03bf\u03c5\u03c2 \u03c5\u03b9\u03bf\u03cd\u03c2 \u0399\u03c3\u03c1\u03b1\u03ae\u03bb \u03cc,\u03c4\u03b9 \u03ae\u03c4\u03bf \u03c0\u03c1\u03bf\u03c3\u03c4\u03b5\u03c4\u03b1\u03b3\u03bc\u03ad\u03bd\u03bf\u03c2. "
        },
        {
            "chapter": 34,
            "verse": 35,
            "name": "Exodus 34:35",
            "text": "\u039a\u03b1\u03b9 \u03b5\u03af\u03b4\u03bf\u03bd \u03bf\u03b9 \u03c5\u03b9\u03bf\u03af \u0399\u03c3\u03c1\u03b1\u03ae\u03bb \u03c4\u03bf \u03c0\u03c1\u03cc\u03c3\u03c9\u03c0\u03bf\u03bd \u03c4\u03bf\u03c5 \u039c\u03c9\u03cb\u03c3\u03ad\u03c9\u03c2, \u03cc\u03c4\u03b9 \u03c4\u03bf \u03b4\u03ad\u03c1\u03bc\u03b1 \u03c4\u03bf\u03c5 \u03c0\u03c1\u03bf\u03c3\u03ce\u03c0\u03bf\u03c5 \u03c4\u03bf\u03c5 \u039c\u03c9\u03cb\u03c3\u03ad\u03c9\u03c2 \u03ad\u03bb\u03b1\u03bc\u03c0\u03b5\u00b7 \u03ba\u03b1\u03b9 \u03ad\u03b2\u03b1\u03bb\u03bb\u03b5 \u03c0\u03ac\u03bb\u03b9\u03bd \u03bf \u039c\u03c9\u03cb\u03c3\u03ae\u03c2 \u03c4\u03bf \u03ba\u03ac\u03bb\u03c5\u03bc\u03bc\u03b1 \u03b5\u03c0\u03af \u03c4\u03bf \u03c0\u03c1\u03cc\u03c3\u03c9\u03c0\u03bf\u03bd \u03b1\u03c5\u03c4\u03bf\u03cd, \u03b5\u03c9\u03c3\u03bf\u03cd \u03b5\u03b9\u03c3\u03ad\u03bb\u03b8\u03b7 \u03b4\u03b9\u03ac \u03bd\u03b1 \u03bb\u03b1\u03bb\u03ae\u03c3\u03b7 \u03bc\u03b5\u03c4' \u03b1\u03c5\u03c4\u03bf\u03cd. "
        }
    ]
}