{
    "translation": "Today's Persian Version (Mojdeh Baraye Asre Jadid)",
    "abbreviation": "fartpv",
    "lang": "fa",
    "language": "Persian",
    "direction": "RTL",
    "encoding": "UTF-8",
    "book_nr": 28,
    "book_name": "Hosea",
    "chapter": 5,
    "name": "Hosea 5",
    "verses": [
        {
            "chapter": 5,
            "verse": 1,
            "name": "Hosea 5:1",
            "text": "   \u00ab\u0627\u06cc \u06a9\u0627\u0647\u0646\u0627\u0646 \u0628\u0634\u0646\u0648\u06cc\u062f! \u0627\u06cc \u0642\u0648\u0645 \u0627\u0633\u0631\u0627\u0626\u06cc\u0644 \u062a\u0648\u062c\u0651\u0647 \u06a9\u0646\u06cc\u062f! \u0627\u06cc \u062e\u0627\u0646\u062f\u0627\u0646 \u067e\u0627\u062f\u0634\u0627\u0647 \u06af\u0648\u0634 \u0628\u062f\u0647\u06cc\u062f! \u0634\u0645\u0627 \u0645\u062d\u06a9\u0648\u0645 \u0647\u0633\u062a\u06cc\u062f\u060c \u0632\u06cc\u0631\u0627 \u062f\u0631 \u0645\u0635\u0641\u0647 \u0647\u0645\u0686\u0648\u0646 \u062f\u0627\u0645\u06cc \u06af\u0634\u062a\u06cc\u062f \u0648 \u062f\u0631 \u06a9\u0648\u0647 \u062a\u0627\u0628\u0648\u0631 \u0645\u0627\u0646\u0646\u062f \u062f\u0627\u0645 \u0634\u062f\u06cc\u062f. "
        },
        {
            "chapter": 5,
            "verse": 2,
            "name": "Hosea 5:2",
            "text": "\u0627\u06cc \u0645\u0631\u062f\u0645 \u0633\u0631\u06a9\u0634\u060c \u0634\u0645\u0627 \u0631\u0627 \u0628\u0647\u200c\u062e\u0627\u0637\u0631 \u06a9\u0634\u062a\u0627\u0631 \u0628\u06cc\u200c\u062d\u062f\u060c \u0645\u062c\u0627\u0632\u0627\u062a \u0645\u06cc\u200c\u06a9\u0646\u0645. "
        },
        {
            "chapter": 5,
            "verse": 3,
            "name": "Hosea 5:3",
            "text": "\u0645\u0646 \u0627\u0633\u0631\u0627\u0626\u06cc\u0644 \u0631\u0627 \u0645\u06cc\u200c\u0634\u0646\u0627\u0633\u0645 \u0648 \u06a9\u0627\u0631\u0647\u0627\u06cc \u0648\u06cc \u0647\u0645 \u0627\u0632 \u0645\u0646 \u0645\u062e\u0641\u06cc \u0646\u06cc\u0633\u062a. \u0627\u0633\u0631\u0627\u0626\u06cc\u0644 \u0632\u0646\u0627 \u06a9\u0631\u062f\u0647 \u0648 \u0622\u0644\u0648\u062f\u0647 \u0634\u062f\u0647 \u0627\u0633\u062a.\u00bb         "
        },
        {
            "chapter": 5,
            "verse": 4,
            "name": "Hosea 5:4",
            "text": "\u06a9\u0627\u0631\u0647\u0627\u06cc\u0634\u0627\u0646 \u0645\u0627\u0646\u0639 \u0628\u0627\u0632\u06af\u0634\u062a \u0622\u0646\u0647\u0627 \u0628\u0647 \u0633\u0648\u06cc \u062e\u062f\u0627\u06cc\u0634\u0627\u0646 \u0627\u0633\u062a\u060c \u0632\u06cc\u0631\u0627 \u0631\u0648\u062d \u0632\u0646\u0627\u06a9\u0627\u0631\u06cc \u062f\u0631 \u0622\u0646\u0647\u0627 \u0631\u062e\u0646\u0647 \u06a9\u0631\u062f\u0647 \u0627\u0633\u062a \u0648 \u0646\u0645\u06cc\u200c\u062a\u0648\u0627\u0646\u0646\u062f \u062e\u062f\u0627\u0648\u0646\u062f \u0631\u0627 \u0628\u0634\u0646\u0627\u0633\u0646\u062f. "
        },
        {
            "chapter": 5,
            "verse": 5,
            "name": "Hosea 5:5",
            "text": "\u063a\u0631\u0648\u0631 \u0642\u0648\u0645 \u0627\u0633\u0631\u0627\u0626\u06cc\u0644 \u0639\u0644\u06cc\u0647 \u0622\u0646\u0647\u0627 \u0634\u0647\u0627\u062f\u062a \u0645\u06cc\u200c\u062f\u0647\u062f. \u0645\u0631\u062f\u0645 \u0627\u0641\u0631\u0627\u06cc\u0645 \u062f\u0631 \u0632\u06cc\u0631 \u0628\u0627\u0631 \u06af\u0646\u0627\u0647 \u0645\u06cc\u200c\u0644\u063a\u0632\u0646\u062f \u0648 \u06cc\u0647\u0648\u062f\u0627 \u0647\u0645 \u0628\u0627 \u0622\u0646\u0647\u0627 \u06cc\u06a9\u200c\u200c\u062c\u0627 \u0628\u0647 \u0632\u0645\u06cc\u0646 \u0645\u06cc\u200c\u062e\u0648\u0631\u062f. "
        },
        {
            "chapter": 5,
            "verse": 6,
            "name": "Hosea 5:6",
            "text": "\u0622\u0646\u0647\u0627 \u0628\u0627 \u0631\u0645\u0647 \u0648 \u06af\u0644\u0651\u0647\u0654 \u062e\u0648\u062f \u0628\u0647 \u062c\u0633\u062a\u062c\u0648\u06cc \u062e\u062f\u0627\u0648\u0646\u062f \u0645\u06cc\u200c\u0631\u0648\u0646\u062f\u060c \u0627\u0645\u0651\u0627 \u0627\u0648 \u0631\u0627 \u0646\u0645\u06cc\u200c\u06cc\u0627\u0628\u0646\u062f\u060c \u0632\u06cc\u0631\u0627 \u0627\u0648 \u062e\u0648\u062f \u0631\u0627 \u0627\u0632 \u0622\u0646\u0647\u0627 \u062f\u0648\u0631 \u0633\u0627\u062e\u062a\u0647 \u0627\u0633\u062a. "
        },
        {
            "chapter": 5,
            "verse": 7,
            "name": "Hosea 5:7",
            "text": "\u0622\u0646\u0647\u0627 \u0628\u0647 \u062e\u062f\u0627\u0648\u0646\u062f \u062e\u06cc\u0627\u0646\u062a \u06a9\u0631\u062f\u0647\u200c\u0627\u0646\u062f \u0648 \u0641\u0631\u0632\u0646\u062f\u0627\u0646 \u063a\u06cc\u0631 \u0645\u0634\u0631\u0648\u0639 \u0628\u0647 \u0648\u062c\u0648\u062f \u0622\u0648\u0631\u062f\u0647\u200c\u0627\u0646\u062f. \u067e\u0633 \u0627\u06a9\u0646\u0648\u0646 \u0622\u0646\u0647\u0627 \u0648 \u0633\u0631\u0632\u0645\u06cc\u0646 \u0627\u06cc\u0634\u0627\u0646 \u0628\u0632\u0648\u062f\u06cc \u0627\u0632 \u0628\u06cc\u0646 \u062e\u0648\u0627\u0647\u0646\u062f \u0631\u0641\u062a.         "
        },
        {
            "chapter": 5,
            "verse": 8,
            "name": "Hosea 5:8",
            "text": "\u0634\u06cc\u067e\u0648\u0631 \u062c\u0646\u06af \u0631\u0627 \u062f\u0631 \u062c\u0628\u0639\u0647 \u0648 \u0632\u0646\u06af \u062e\u0637\u0631 \u0631\u0627 \u062f\u0631 \u0631\u0627\u0645\u0647 \u0628\u0647 \u0635\u062f\u0627 \u062f\u0631 \u0622\u0648\u0631\u06cc\u062f \u0648 \u062f\u0631 \u0628\u06cc\u062a \u0622\u0648\u0646 \u0641\u0631\u06cc\u0627\u062f \u0628\u0632\u0646\u06cc\u062f. \u0627\u06cc \u0645\u0631\u062f\u0645 \u0628\u0646\u06cc\u0627\u0645\u06cc\u0646\u060c \u0627\u0632 \u062a\u0631\u0633 \u0628\u0644\u0631\u0632\u06cc\u062f! "
        },
        {
            "chapter": 5,
            "verse": 9,
            "name": "Hosea 5:9",
            "text": "\u0627\u06cc \u0627\u0641\u0631\u0627\u06cc\u0645 \u0631\u0648\u0632 \u0645\u062c\u0627\u0632\u0627\u062a \u062a\u0648 \u0646\u0632\u062f\u06cc\u06a9 \u0627\u0633\u062a \u0648 \u0628\u0632\u0648\u062f\u06cc \u0648\u06cc\u0631\u0627\u0646 \u0645\u06cc\u200c\u0634\u0648\u06cc. \u0628\u0647 \u0628\u0646\u06cc\u200c\u0627\u0633\u0631\u0627\u0626\u06cc\u0644 \u0627\u0639\u0644\u0627\u0645 \u0645\u06cc\u200c\u06a9\u0646\u0645 \u06a9\u0647 \u0627\u06cc\u0646 \u0648\u0627\u0642\u0639\u0647 \u062d\u062a\u0645\u06cc \u0627\u0633\u062a.   "
        },
        {
            "chapter": 5,
            "verse": 10,
            "name": "Hosea 5:10",
            "text": "\u062e\u062f\u0627\u0648\u0646\u062f \u0645\u06cc\u200c\u0641\u0631\u0645\u0627\u06cc\u062f: \u00ab\u0631\u0647\u0628\u0631\u0627\u0646 \u06cc\u0647\u0648\u062f\u0627 \u0632\u0645\u06cc\u0646\u0647\u0627 \u0631\u0627 \u063a\u0627\u0631\u062a \u0645\u06cc\u200c\u06a9\u0646\u0646\u062f\u060c \u0628\u0646\u0627\u0628\u0631\u0627\u06cc\u0646 \u0645\u0646 \u062e\u0634\u0645 \u062e\u0648\u062f \u0631\u0627 \u0645\u0627\u0646\u0646\u062f \u0633\u06cc\u0644\u0627\u0628 \u0628\u0631 \u0622\u0646\u0647\u0627 \u0641\u0631\u0648 \u062e\u0648\u0627\u0647\u0645 \u0631\u06cc\u062e\u062a. "
        },
        {
            "chapter": 5,
            "verse": 11,
            "name": "Hosea 5:11",
            "text": "\u0627\u0633\u0631\u0627\u0626\u06cc\u0644 \u0645\u0648\u0631\u062f \u0642\u0647\u0631 \u0645\u0646 \u0642\u0631\u0627\u0631 \u06af\u0631\u0641\u062a\u0647 \u0627\u0633\u062a \u0648 \u062f\u0631 \u0631\u0648\u0632 \u0645\u062d\u0627\u06a9\u0645\u0647 \u062f\u0631\u0647\u0645 \u06a9\u0648\u0628\u06cc\u062f\u0647 \u0645\u06cc\u200c\u0634\u0648\u062f\u060c \u0632\u06cc\u0631\u0627 \u067e\u06cc\u0631\u0648 \u0686\u06cc\u0632\u0647\u0627\u06cc \u0628\u0627\u0637\u0644 \u06af\u0631\u062f\u06cc\u062f\u0647 \u0627\u0633\u062a. "
        },
        {
            "chapter": 5,
            "verse": 12,
            "name": "Hosea 5:12",
            "text": "\u0628\u0646\u0627\u0628\u0631\u0627\u06cc\u0646\u060c \u0645\u0646 \u0628\u0631\u0627\u06cc \u0627\u0633\u0631\u0627\u0626\u06cc\u0644 \u0645\u0627\u0646\u0646\u062f \u0628\u06cc\u062f \u06a9\u0647 \u067e\u0634\u0645 \u0631\u0627 \u0627\u0632 \u0628\u06cc\u0646 \u0645\u06cc\u200c\u0628\u0631\u062f \u062e\u0648\u0627\u0647\u0645 \u0628\u0648\u062f \u0648 \u0631\u06cc\u0634\u0647\u0654 \u06cc\u0647\u0648\u062f\u0627 \u0631\u0627 \u0646\u0627\u0628\u0648\u062f \u0645\u06cc\u200c\u06a9\u0646\u0645.   "
        },
        {
            "chapter": 5,
            "verse": 13,
            "name": "Hosea 5:13",
            "text": "\u00ab\u0648\u0642\u062a\u06cc \u0627\u0633\u0631\u0627\u0626\u06cc\u0644 \u062f\u06cc\u062f \u06a9\u0647 \u062a\u0627 \u0686\u0647 \u062d\u062f \u0628\u06cc\u0645\u0627\u0631 \u0627\u0633\u062a \u0648 \u06cc\u0647\u0648\u062f\u0627 \u06a9\u0647 \u062c\u0631\u0627\u062d\u062a \u0627\u0648 \u062a\u0627 \u0686\u0647 \u062d\u062f \u0627\u0633\u062a\u060c \u0627\u0641\u0631\u0627\u06cc\u0645 \u0628\u0647 \u06a9\u0634\u0648\u0631 \u0622\u0634\u0648\u0631 \u0631\u0648\u06cc \u200c\u0622\u0648\u0631\u062f \u0648 \u0628\u0647 \u067e\u0627\u062f\u0634\u0627\u0647 \u0628\u0632\u0631\u06af \u0622\u0646 \u067e\u0646\u0627\u0647 \u0628\u0631\u062f. \u0627\u0645\u0651\u0627 \u0627\u0645\u067e\u0631\u0627\u062a\u0648\u0631 \u0622\u0634\u0648\u0631 \u0642\u0627\u062f\u0631 \u0646\u06cc\u0633\u062a \u06a9\u0647 \u0627\u0648 \u0631\u0627 \u0634\u0641\u0627 \u0628\u062f\u0647\u062f \u0648 \u06cc\u0627 \u0632\u062e\u0645\u0634 \u0631\u0627 \u0645\u062f\u0627\u0648\u0627 \u0646\u0645\u0627\u06cc\u062f. "
        },
        {
            "chapter": 5,
            "verse": 14,
            "name": "Hosea 5:14",
            "text": "\u0645\u0627\u0646\u0646\u062f \u0634\u06cc\u0631\u06cc \u06a9\u0647 \u0634\u06a9\u0627\u0631 \u062e\u0648\u062f \u0631\u0627 \u0645\u06cc\u200c\u062f\u0631\u062f\u060c \u0645\u0646 \u0627\u0641\u0631\u0627\u06cc\u0645 \u0648 \u06cc\u0647\u0648\u062f\u0627 \u0631\u0627 \u0645\u06cc\u200c\u062f\u0631\u0645 \u0648 \u0628\u0627 \u062e\u0648\u062f \u0645\u06cc\u200c\u0628\u0631\u0645 \u0648 \u0647\u06cc\u0686\u200c\u06a9\u0633\u06cc \u0646\u0645\u06cc\u200c\u062a\u0648\u0627\u0646\u062f \u0622\u0646\u0647\u0627 \u0631\u0627 \u0627\u0632 \u0686\u0646\u06af \u0645\u0646 \u0628\u0631\u0647\u0627\u0646\u062f.   "
        },
        {
            "chapter": 5,
            "verse": 15,
            "name": "Hosea 5:15",
            "text": "\u00ab\u0633\u067e\u0633 \u0622\u0646\u0647\u0627 \u0631\u0627 \u062a\u0631\u06a9 \u062e\u0648\u0627\u0647\u0645 \u06a9\u0631\u062f \u0648 \u0628\u0647 \u062e\u0627\u0646\u0647\u0654 \u062e\u0648\u062f \u0628\u0631\u0645\u06cc\u200c\u06af\u0631\u062f\u0645 \u062a\u0627 \u0622\u0646\u0647\u0627 \u0628\u0647 \u06af\u0646\u0627\u0647\u0627\u0646 \u062e\u0648\u062f \u0622\u06af\u0627\u0647 \u06af\u0631\u062f\u0646\u062f \u0648 \u0637\u0627\u0644\u0628 \u0631\u0648\u06cc \u0645\u0646 \u0634\u0648\u0646\u062f \u0648 \u0627\u0632 \u0645\u0646 \u062f\u0631\u062e\u0648\u0627\u0633\u062a \u06a9\u0645\u06a9 \u0646\u0645\u0627\u06cc\u0646\u062f.\u00bb   "
        }
    ]
}