{
    "translation": "World English Bible: Messianic Edition",
    "abbreviation": "webme",
    "lang": "en",
    "language": "English",
    "direction": "LTR",
    "encoding": "UTF-8",
    "book_nr": 44,
    "book_name": "Acts",
    "chapter": 26,
    "name": "Acts 26",
    "verses": [
        {
            "chapter": 26,
            "verse": 1,
            "name": "Acts 26:1",
            "text": "Agrippa said to Paul, \u201cYou may speak for yourself.\u201d   Then Paul stretched out his hand, and made his defense."
        },
        {
            "chapter": 26,
            "verse": 2,
            "name": "Acts 26:2",
            "text": "\u201cI think myself happy, King Agrippa, that I am to make my defense before you this day concerning all the things that I am accused by the Judeans,"
        },
        {
            "chapter": 26,
            "verse": 3,
            "name": "Acts 26:3",
            "text": "especially because you are expert in all customs and questions which are among Jews. Therefore I beg you to hear me patiently.  "
        },
        {
            "chapter": 26,
            "verse": 4,
            "name": "Acts 26:4",
            "text": "  \u201cIndeed, all Jews know my way of life from my youth up, which was from the beginning among my own nation and at Jerusalem;"
        },
        {
            "chapter": 26,
            "verse": 5,
            "name": "Acts 26:5",
            "text": "having known me from the first, if they are willing to testify, that after the strictest sect of our religion I lived a Pharisee."
        },
        {
            "chapter": 26,
            "verse": 6,
            "name": "Acts 26:6",
            "text": "Now I stand here to be judged for the hope of the promise made by God to our fathers,"
        },
        {
            "chapter": 26,
            "verse": 7,
            "name": "Acts 26:7",
            "text": "which our twelve tribes, earnestly serving night and day, hope to attain. Concerning this hope I am accused by the Judeans, King Agrippa!"
        },
        {
            "chapter": 26,
            "verse": 8,
            "name": "Acts 26:8",
            "text": "Why is it judged incredible with you, if God does raise the dead?  "
        },
        {
            "chapter": 26,
            "verse": 9,
            "name": "Acts 26:9",
            "text": "  \u201cI myself most certainly thought that I ought to do many things contrary to the name of Yeshua of Nazareth."
        },
        {
            "chapter": 26,
            "verse": 10,
            "name": "Acts 26:10",
            "text": "This I also did in Jerusalem. I both shut up many of the holy ones in prisons, having received authority from the chief priests, and when they were put to death I gave my vote against them."
        },
        {
            "chapter": 26,
            "verse": 11,
            "name": "Acts 26:11",
            "text": "Punishing them often in all the synagogues, I tried to make them blaspheme. Being exceedingly enraged against them, I persecuted them even to foreign cities.  "
        },
        {
            "chapter": 26,
            "verse": 12,
            "name": "Acts 26:12",
            "text": "  \u201cWhereupon as I traveled to Damascus with the authority and commission from the chief priests,"
        },
        {
            "chapter": 26,
            "verse": 13,
            "name": "Acts 26:13",
            "text": "at noon, O king, I saw on the way a light from the sky, brighter than the sun, shining around me and those who traveled with me."
        },
        {
            "chapter": 26,
            "verse": 14,
            "name": "Acts 26:14",
            "text": "When we had all fallen to the earth, I heard a voice saying to me in the Hebrew language, \u2018Saul, Saul, why are you persecuting me? It is hard for you to kick against the goads.\u2019  "
        },
        {
            "chapter": 26,
            "verse": 15,
            "name": "Acts 26:15",
            "text": "  \u201cI said, \u2018Who are you, Lord?\u2019   \u201cHe said, \u2018I am Yeshua, whom you are persecuting. "
        },
        {
            "chapter": 26,
            "verse": 16,
            "name": "Acts 26:16",
            "text": "But arise, and stand on your feet, for I have appeared to you for this purpose: to appoint you a servant and a witness both of the things which you have seen, and of the things which I will reveal to you; "
        },
        {
            "chapter": 26,
            "verse": 17,
            "name": "Acts 26:17",
            "text": "delivering you from the people, and from the Gentiles, to whom I send you, "
        },
        {
            "chapter": 26,
            "verse": 18,
            "name": "Acts 26:18",
            "text": "to open their eyes, that they may turn from darkness to light and from the power of Satan to God, that they may receive remission of sins and an inheritance among those who are sanctified by faith in me.\u2019  "
        },
        {
            "chapter": 26,
            "verse": 19,
            "name": "Acts 26:19",
            "text": "  \u201cTherefore, King Agrippa, I was not disobedient to the heavenly vision,"
        },
        {
            "chapter": 26,
            "verse": 20,
            "name": "Acts 26:20",
            "text": "but declared first to them of Damascus, at Jerusalem, and throughout all the country of Judea, and also to the Gentiles, that they should repent and turn to God, doing works worthy of repentance."
        },
        {
            "chapter": 26,
            "verse": 21,
            "name": "Acts 26:21",
            "text": "For this reason Jews seized me in the temple, and tried to kill me."
        },
        {
            "chapter": 26,
            "verse": 22,
            "name": "Acts 26:22",
            "text": "Having therefore obtained the help that is from God, I stand to this day testifying both to small and great, saying nothing but what the Prophets and Moses said would happen,"
        },
        {
            "chapter": 26,
            "verse": 23,
            "name": "Acts 26:23",
            "text": "how the Messiah must suffer, and how, by the resurrection of the dead, he would be first to proclaim light both to these people and to the Gentiles.\u201d  "
        },
        {
            "chapter": 26,
            "verse": 24,
            "name": "Acts 26:24",
            "text": "  As he thus made his defense, Festus said with a loud voice, \u201cPaul, you are crazy! Your great learning is driving you insane!\u201d  "
        },
        {
            "chapter": 26,
            "verse": 25,
            "name": "Acts 26:25",
            "text": "  But he said, \u201cI am not crazy, most excellent Festus, but boldly declare words of truth and reasonableness."
        },
        {
            "chapter": 26,
            "verse": 26,
            "name": "Acts 26:26",
            "text": "For the king knows of these things, to whom also I speak freely. For I am persuaded that none of these things is hidden from him, for this has not been done in a corner."
        },
        {
            "chapter": 26,
            "verse": 27,
            "name": "Acts 26:27",
            "text": "King Agrippa, do you believe the prophets? I know that you believe.\u201d  "
        },
        {
            "chapter": 26,
            "verse": 28,
            "name": "Acts 26:28",
            "text": "  Agrippa said to Paul, \u201cWith a little persuasion are you trying to make me a Messianic?\u201d  "
        },
        {
            "chapter": 26,
            "verse": 29,
            "name": "Acts 26:29",
            "text": "  Paul said, \u201cI pray to God, that whether with little or with much, not only you, but also all that hear me this day, might become such as I am, except for these bonds.\u201d  "
        },
        {
            "chapter": 26,
            "verse": 30,
            "name": "Acts 26:30",
            "text": "  The king rose up with the governor, and Bernice, and those who sat with them."
        },
        {
            "chapter": 26,
            "verse": 31,
            "name": "Acts 26:31",
            "text": "When they had withdrawn, they spoke one to another, saying, \u201cThis man does nothing worthy of death or of bonds.\u201d"
        },
        {
            "chapter": 26,
            "verse": 32,
            "name": "Acts 26:32",
            "text": "Agrippa said to Festus, \u201cThis man might have been set free if he had not appealed to Caesar.\u201d   "
        }
    ]
}