{
    "translation": "Khmer Christian Bible",
    "abbreviation": "khmernt",
    "lang": "km",
    "language": "Khmer",
    "direction": "LTR",
    "encoding": "UTF-8",
    "book_nr": 66,
    "book_name": "Revelation of John",
    "chapter": 11,
    "name": "Revelation of John 11",
    "verses": [
        {
            "chapter": 11,
            "verse": 1,
            "name": "Revelation of John 11:1",
            "text": "\u1794\u1793\u17d2\u1791\u17b6\u1794\u17cb\u200b\u1798\u1780\u200b \u1781\u17d2\u1789\u17bb\u17c6\u200b\u1794\u17b6\u1793\u200b\u1791\u1791\u17bd\u179b\u200b\u178a\u17c6\u1794\u1784\u200b\u1798\u17bd\u1799\u200b\u178a\u17c2\u179b\u200b\u178a\u17bc\u1785\u200b\u1787\u17b6\u200b\u1788\u17be\u200b\u1785\u17d2\u179a\u178f\u17cb\u200b \u1780\u17cf\u200b\u1798\u17b6\u1793\u200b\u1782\u17c1\u200b\u1793\u17b7\u1799\u17b6\u1799\u200b\u1798\u1780\u200b\u1781\u17d2\u1789\u17bb\u17c6\u200b\u1790\u17b6\u17d6\u200b \u00ab\u1785\u17bc\u179a\u200b\u1780\u17d2\u179a\u17c4\u1780\u200b\u17a1\u17be\u1784\u200b \u17a0\u17be\u1799\u200b\u179c\u17b6\u179f\u17cb\u200b\u1796\u17d2\u179a\u17c7\u179c\u17b7\u17a0\u17b6\u179a\u200b\u179a\u1794\u179f\u17cb\u200b\u1796\u17d2\u179a\u17c7\u1787\u17b6\u1798\u17d2\u1785\u17b6\u179f\u17cb\u200b \u1793\u17b7\u1784\u200b\u1780\u1793\u17d2\u179b\u17c2\u1784\u200b\u1790\u17d2\u179c\u17b6\u1799\u200b\u178f\u1784\u17d2\u179c\u17b6\u1799\u200b \u1796\u17d2\u179a\u1798\u1791\u17b6\u17c6\u1784\u200b\u179a\u17b6\u1794\u17cb\u200b\u1796\u17bd\u1780\u17a2\u17d2\u1793\u1780\u200b\u178a\u17c2\u179b\u200b\u1790\u17d2\u179c\u17b6\u1799\u1794\u1784\u17d2\u1782\u17c6\u200b\u1793\u17c5\u200b\u1791\u17b8\u200b\u1793\u17c4\u17c7\u200b"
        },
        {
            "chapter": 11,
            "verse": 2,
            "name": "Revelation of John 11:2",
            "text": "\u1794\u17c9\u17bb\u1793\u17d2\u178a\u17c2\u200b \u1785\u17bc\u179a\u200b\u1791\u17bb\u1780\u200b\u1791\u17b8\u179b\u17b6\u1793\u200b\u1781\u17b6\u1784\u200b\u1780\u17d2\u179a\u17c5\u200b\u1796\u17d2\u179a\u17c7\u179c\u17b7\u17a0\u17b6\u179a\u200b\u178a\u17c4\u1799\u200b\u17a1\u17c2\u1780\u200b \u1780\u17bb\u17c6\u200b\u179c\u17b6\u179f\u17cb\u200b\u1791\u17b8\u1793\u17c4\u17c7\u200b\u17a1\u17be\u1799\u200b \u178a\u17d2\u1794\u17b7\u178f\u200b\u1791\u17b8\u1793\u17c4\u17c7\u200b\u178f\u17d2\u179a\u17bc\u179c\u200b\u1794\u17b6\u1793\u200b\u1794\u17d2\u179a\u1782\u179b\u17cb\u200b\u17b2\u17d2\u1799\u200b\u179f\u17b6\u179f\u1793\u17cd\u200b\u178a\u1791\u17c3\u200b \u17a0\u17be\u1799\u200b\u1796\u17bd\u1780\u1782\u17c1\u200b\u1793\u17b9\u1784\u200b\u1787\u17b6\u1793\u17cb\u200b\u1788\u17d2\u179b\u17b8\u200b\u1791\u17b8\u200b\u1780\u17d2\u179a\u17bb\u1784\u200b\u1794\u179a\u17b7\u179f\u17bb\u1791\u17d2\u1792\u200b\u17a2\u179f\u17cb\u200b\u179a\u1799\u17c8\u200b\u1796\u17c1\u179b\u200b\u179f\u17c2\u179f\u17b7\u1794\u1796\u17b8\u179a\u200b\u1781\u17c2\u17d4\u200b"
        },
        {
            "chapter": 11,
            "verse": 3,
            "name": "Revelation of John 11:3",
            "text": "\u1799\u17be\u1784\u200b\u1793\u17b9\u1784\u200b\u17b2\u17d2\u1799\u200b\u17a2\u17c6\u178e\u17b6\u1785\u200b\u178a\u179b\u17cb\u200b\u179f\u17b6\u1780\u17d2\u179f\u17b8\u200b\u1796\u17b8\u179a\u200b\u1793\u17b6\u1780\u17cb\u200b\u179a\u1794\u179f\u17cb\u200b\u1799\u17be\u1784\u200b \u17a0\u17be\u1799\u200b\u1796\u17bd\u1780\u1782\u17c1\u200b\u1793\u17b9\u1784\u200b\u1790\u17d2\u179b\u17c2\u1784\u200b\u1796\u17d2\u179a\u17c7\u1794\u1793\u17d2\u1791\u17bc\u179b\u200b\u17a2\u179f\u17cb\u200b\u179a\u1799\u17c8\u200b\u1796\u17c1\u179b\u200b\u1798\u17bd\u1799\u1796\u17b6\u1793\u17cb\u200b\u1796\u17b8\u179a\u179a\u1799\u200b\u17a0\u17bb\u1780\u179f\u17b7\u1794\u200b\u1790\u17d2\u1784\u17c3\u200b \u1791\u17b6\u17c6\u1784\u200b\u179f\u17d2\u179b\u17c0\u1780\u200b\u179f\u17c6\u1796\u178f\u17cb\u200b\u1792\u17d2\u1798\u17c3\u00bb\u17d4\u200b"
        },
        {
            "chapter": 11,
            "verse": 4,
            "name": "Revelation of John 11:4",
            "text": "\u17a2\u17d2\u1793\u1780\u200b\u1791\u17b6\u17c6\u1784\u200b\u1793\u17c1\u17c7\u1787\u17b6\u200b\u178a\u17be\u1798\u200b\u17a2\u17bc\u179b\u17b8\u179c\u200b\u1791\u17b6\u17c6\u1784\u200b\u1796\u17b8\u179a\u200b \u1793\u17b7\u1784\u200b\u1787\u17b6\u200b\u1787\u17be\u1784\u200b\u1785\u1784\u17d2\u1780\u17c0\u1784\u200b\u1791\u17b6\u17c6\u1784\u200b\u1796\u17b8\u179a\u200b\u178a\u17c2\u179b\u200b\u1788\u179a\u200b\u1793\u17c5\u200b\u1796\u17b8\u200b\u1798\u17bb\u1781\u200b\u1796\u17d2\u179a\u17c7\u17a2\u1798\u17d2\u1785\u17b6\u179f\u17cb\u200b\u1793\u17c3\u200b\u1795\u17c2\u1793\u178a\u17b8\u17d4\u200b"
        },
        {
            "chapter": 11,
            "verse": 5,
            "name": "Revelation of John 11:5",
            "text": "\u1794\u17be\u200b\u1798\u17b6\u1793\u200b\u17a2\u17d2\u1793\u1780\u178e\u17b6\u200b\u1798\u17d2\u1793\u17b6\u1780\u17cb\u200b\u1785\u1784\u17cb\u200b\u1792\u17d2\u179c\u17be\u200b\u1791\u17bb\u1780\u17d2\u1781\u200b\u1796\u17bd\u1780\u1782\u17c1\u200b \u1793\u17c4\u17c7\u200b\u1793\u17b9\u1784\u200b\u1798\u17b6\u1793\u200b\u1797\u17d2\u179b\u17be\u1784\u200b\u1785\u17c1\u1789\u200b\u1796\u17b8\u200b\u1798\u17b6\u178f\u17cb\u200b\u1796\u17bd\u1780\u1782\u17c1\u200b\u1798\u1780\u200b \u17a0\u17be\u1799\u200b\u1786\u17c1\u17c7\u200b\u1794\u17c6\u1795\u17d2\u179b\u17b6\u1789\u200b\u1781\u17d2\u1798\u17b6\u17c6\u1784\u200b\u179f\u178f\u17d2\u179a\u17bc\u179c\u200b\u179a\u1794\u179f\u17cb\u200b\u1796\u17bd\u1780\u1782\u17c1\u17d4\u200b \u178a\u17bc\u1785\u17d2\u1793\u17c1\u17c7\u200b \u1794\u17be\u200b\u1798\u17b6\u1793\u200b\u17a2\u17d2\u1793\u1780\u178e\u17b6\u200b\u1798\u17d2\u1793\u17b6\u1780\u17cb\u200b\u1785\u1784\u17cb\u200b\u1792\u17d2\u179c\u17be\u200b\u1791\u17bb\u1780\u17d2\u1781\u200b\u1796\u17bd\u1780\u1782\u17c1\u200b \u17a2\u17d2\u1793\u1780\u200b\u1793\u17c4\u17c7\u200b\u178f\u17d2\u179a\u17bc\u179c\u200b\u178f\u17c2\u200b\u179f\u17d2\u179b\u17b6\u1794\u17cb\u200b\u1794\u17c2\u1794\u200b\u1793\u17c1\u17c7\u200b\u17af\u1784\u17d4\u200b"
        },
        {
            "chapter": 11,
            "verse": 6,
            "name": "Revelation of John 11:6",
            "text": "\u17a2\u17d2\u1793\u1780\u200b\u1791\u17b6\u17c6\u1784\u200b\u1793\u17c1\u17c7\u200b\u1798\u17b6\u1793\u200b\u17a2\u17c6\u178e\u17b6\u1785\u200b\u1793\u17b9\u1784\u200b\u1794\u17b7\u1791\u200b\u1798\u17c1\u1783\u200b\u1798\u17b7\u1793\u200b\u17b2\u17d2\u1799\u200b\u1798\u17b6\u1793\u200b\u1797\u17d2\u179b\u17c0\u1784\u200b\u1792\u17d2\u179b\u17b6\u1780\u17cb\u200b\u1780\u17d2\u1793\u17bb\u1784\u200b\u17a2\u17c6\u17a1\u17bb\u1784\u200b\u1796\u17c1\u179b\u200b\u178a\u17c2\u179b\u200b\u1796\u17bd\u1780\u1782\u17c1\u200b\u1790\u17d2\u179b\u17c2\u1784\u200b\u1796\u17d2\u179a\u17c7\u1794\u1793\u17d2\u1791\u17bc\u179b\u200b \u17a0\u17be\u1799\u200b\u1780\u17cf\u200b\u1798\u17b6\u1793\u200b\u17a2\u17c6\u178e\u17b6\u1785\u200b\u179b\u17be\u200b\u1791\u17b9\u1780\u200b\u178a\u17be\u1798\u17d2\u1794\u17b8\u200b\u1792\u17d2\u179c\u17be\u200b\u17b2\u17d2\u1799\u200b\u1791\u17b9\u1780\u200b\u178f\u17d2\u179a\u179b\u1794\u17cb\u200b\u1791\u17c5\u200b\u1787\u17b6\u200b\u1788\u17b6\u1798\u200b \u1796\u17d2\u179a\u1798\u1791\u17b6\u17c6\u1784\u200b\u179c\u17b6\u1799\u200b\u1794\u17d2\u179a\u17a0\u17b6\u179a\u200b\u1795\u17c2\u1793\u178a\u17b8\u200b\u178a\u17c4\u1799\u200b\u1782\u17d2\u179a\u17c4\u17c7\u1780\u17b6\u1785\u200b\u1782\u17d2\u179a\u1794\u17cb\u200b\u1799\u17c9\u17b6\u1784\u200b\u1787\u17b6\u200b\u1789\u17b9\u1780\u1789\u17b6\u1794\u17cb\u200b\u178f\u17b6\u1798\u200b\u178f\u17c2\u200b\u1796\u17bd\u1780\u1782\u17c1\u200b\u1785\u1784\u17cb\u17d4\u200b"
        },
        {
            "chapter": 11,
            "verse": 7,
            "name": "Revelation of John 11:7",
            "text": "\u1780\u17b6\u179b\u200b\u17a2\u17d2\u1793\u1780\u200b\u1791\u17b6\u17c6\u1784\u200b\u1793\u17c1\u17c7\u200b\u1792\u17d2\u179c\u17be\u200b\u1794\u1793\u17d2\u1791\u17b6\u179b\u17cb\u200b\u179a\u1794\u179f\u17cb\u200b\u1781\u17d2\u179b\u17bd\u1793\u200b\u1785\u1794\u17cb\u200b\u17a0\u17be\u1799\u200b \u1798\u17b6\u1793\u200b\u179f\u178f\u17d2\u179c\u200b\u179f\u17b6\u17a0\u17b6\u179c\u200b\u17a1\u17be\u1784\u200b\u1796\u17b8\u200b\u1791\u17b8\u200b\u1787\u1798\u17d2\u179a\u17c5\u200b\u1798\u1780\u200b\u1785\u17d2\u1794\u17b6\u17c6\u1784\u200b\u1787\u17b6\u200b\u1798\u17bd\u1799\u200b\u1796\u17bd\u1780\u1782\u17c1\u200b \u1780\u17cf\u200b\u1788\u17d2\u1793\u17c7\u200b\u1796\u17bd\u1780\u1782\u17c1\u200b \u17a0\u17be\u1799\u200b\u179f\u1798\u17d2\u179b\u17b6\u1794\u17cb\u200b\u1796\u17bd\u1780\u1782\u17c1\u200b\u1795\u1784\u200b"
        },
        {
            "chapter": 11,
            "verse": 8,
            "name": "Revelation of John 11:8",
            "text": "\u17a0\u17be\u1799\u200b\u179f\u17b6\u1780\u179f\u1796\u200b\u179a\u1794\u179f\u17cb\u200b\u1796\u17bd\u1780\u1782\u17c1\u200b\u1793\u17c5\u200b\u178f\u17b6\u1798\u200b\u1795\u17d2\u179b\u17bc\u179c\u200b\u1780\u17d2\u1793\u17bb\u1784\u200b\u1791\u17b8\u200b\u1780\u17d2\u179a\u17bb\u1784\u200b\u178a\u17cf\u200b\u1792\u17c6\u200b\u1793\u17c4\u17c7\u200b \u178a\u17c2\u179b\u200b\u1781\u17b6\u1784\u200b\u179c\u17b7\u1789\u17d2\u1789\u17b6\u178e\u200b\u17a0\u17c5\u200b\u1790\u17b6\u200b \u1780\u17d2\u179a\u17bb\u1784\u200b\u179f\u17bc\u178a\u17bb\u1798\u200b \u1793\u17b7\u1784\u200b\u179f\u17d2\u179a\u17bb\u1780\u200b\u17a2\u17c1\u179f\u17ca\u17b8\u1796\u17d2\u1791\u200b \u1787\u17b6\u200b\u1780\u1793\u17d2\u179b\u17c2\u1784\u200b\u178a\u17c2\u179b\u200b\u1794\u17b6\u1793\u200b\u1786\u17d2\u1780\u17b6\u1784\u200b\u1796\u17d2\u179a\u17c7\u17a2\u1798\u17d2\u1785\u17b6\u179f\u17cb\u200b\u179a\u1794\u179f\u17cb\u200b\u1796\u17bd\u1780\u1782\u17c1\u17d4\u200b"
        },
        {
            "chapter": 11,
            "verse": 9,
            "name": "Revelation of John 11:9",
            "text": "\u1798\u17b6\u1793\u200b\u1798\u1793\u17bb\u179f\u17d2\u179f\u200b\u1798\u1780\u200b\u1796\u17b8\u200b\u1794\u178e\u17d2\u178a\u17b6\u200b\u1787\u1793\u1787\u17b6\u178f\u17b7\u200b \u1794\u178e\u17d2\u178a\u17b6\u200b\u1780\u17bb\u179b\u179f\u1798\u17d2\u1796\u17d0\u1793\u17d2\u1792\u200b \u1794\u178e\u17d2\u178a\u17b6\u200b\u1797\u17b6\u179f\u17b6\u200b \u1793\u17b7\u1784\u200b\u1794\u178e\u17d2\u178a\u17b6\u200b\u1794\u17d2\u179a\u1791\u17c1\u179f\u200b\u1791\u17b6\u17c6\u1784\u17a1\u17b6\u1799\u200b\u1793\u17b9\u1784\u200b\u1798\u17be\u179b\u200b\u179f\u17b6\u1780\u179f\u1796\u200b\u179a\u1794\u179f\u17cb\u200b\u1796\u17bd\u1780\u1782\u17c1\u200b\u17a2\u179f\u17cb\u200b\u179a\u1799\u17c8\u200b\u1796\u17c1\u179b\u200b\u1794\u17b8\u200b\u1790\u17d2\u1784\u17c3\u200b\u1780\u1793\u17d2\u179b\u17c7\u200b \u17a0\u17be\u1799\u200b\u1798\u17b7\u1793\u200b\u17a2\u1793\u17bb\u1789\u17d2\u1789\u17b6\u178f\u200b\u17b2\u17d2\u1799\u200b\u1799\u1780\u200b\u179f\u17b6\u1780\u179f\u1796\u200b\u179a\u1794\u179f\u17cb\u200b\u1796\u17bd\u1780\u1782\u17c1\u200b\u1791\u17c5\u200b\u1794\u1789\u17d2\u1785\u17bb\u17c7\u200b\u1780\u17d2\u1793\u17bb\u1784\u200b\u1795\u17d2\u1793\u17bc\u179a\u200b\u17a1\u17be\u1799\u17d4\u200b"
        },
        {
            "chapter": 11,
            "verse": 10,
            "name": "Revelation of John 11:10",
            "text": "\u17a2\u179f\u17cb\u200b\u17a2\u17d2\u1793\u1780\u200b\u178a\u17c2\u179b\u200b\u179a\u179f\u17cb\u200b\u1793\u17c5\u200b\u179b\u17be\u200b\u1795\u17c2\u1793\u178a\u17b8\u200b\u1780\u17cf\u200b\u178f\u17d2\u179a\u17c1\u1780\u17a2\u179a\u200b \u17a0\u17be\u1799\u200b\u1793\u17b6\u17c6\u200b\u1782\u17d2\u1793\u17b6\u200b\u17a2\u1794\u17a2\u179a\u179f\u17b6\u1791\u179a\u200b\u178a\u17c4\u1799\u179f\u17b6\u179a\u200b\u1796\u17bd\u1780\u1782\u17c1\u200b\u179f\u17d2\u179b\u17b6\u1794\u17cb\u200b \u179a\u17bd\u1785\u200b\u1795\u17d2\u1789\u17be\u200b\u17a2\u17c6\u178e\u17c4\u1799\u200b\u17b2\u17d2\u1799\u200b\u1782\u17d2\u1793\u17b6\u200b\u1791\u17c5\u200b\u179c\u17b7\u1789\u200b\u1791\u17c5\u200b\u1798\u1780\u200b \u1796\u17b8\u200b\u1796\u17d2\u179a\u17c4\u17c7\u200b\u17a2\u17d2\u1793\u1780\u200b\u1793\u17b6\u17c6\u200b\u1796\u17d2\u179a\u17c7\u1794\u1793\u17d2\u1791\u17bc\u179b\u200b\u1791\u17b6\u17c6\u1784\u200b\u1796\u17b8\u179a\u200b\u1793\u17b6\u1780\u17cb\u200b\u1793\u17c1\u17c7\u200b\u1794\u17b6\u1793\u200b\u1792\u17d2\u179c\u17be\u200b\u17b2\u17d2\u1799\u200b\u17a2\u179f\u17cb\u200b\u17a2\u17d2\u1793\u1780\u200b\u178a\u17c2\u179b\u200b\u179a\u179f\u17cb\u200b\u1793\u17c5\u200b\u179b\u17be\u200b\u1795\u17c2\u1793\u178a\u17b8\u200b\u1788\u17ba\u1785\u17b6\u1794\u17cb\u17d4\u200b"
        },
        {
            "chapter": 11,
            "verse": 11,
            "name": "Revelation of John 11:11",
            "text": "\u1794\u17c9\u17bb\u1793\u17d2\u178a\u17c2\u200b\u1794\u17b8\u200b\u1790\u17d2\u1784\u17c3\u200b\u1780\u1793\u17d2\u179b\u17c7\u200b\u1780\u17d2\u179a\u17c4\u1799\u200b\u1798\u1780\u200b \u1798\u17b6\u1793\u200b\u178a\u1784\u17d2\u17a0\u17be\u1798\u200b\u1787\u17b8\u179c\u17b7\u178f\u200b\u1785\u17c1\u1789\u200b\u1796\u17b8\u200b\u1796\u17d2\u179a\u17c7\u1787\u17b6\u1798\u17d2\u1785\u17b6\u179f\u17cb\u200b\u1785\u17bc\u179b\u200b\u1798\u1780\u200b\u1780\u17d2\u1793\u17bb\u1784\u200b\u179f\u17b6\u1780\u179f\u1796\u200b\u17a2\u17d2\u1793\u1780\u200b\u1791\u17b6\u17c6\u1784\u200b\u1796\u17b8\u179a\u200b \u17a0\u17be\u1799\u200b\u1796\u17bd\u1780\u1782\u17c1\u200b\u1780\u17cf\u200b\u1780\u17d2\u179a\u17c4\u1780\u200b\u1788\u179a\u200b\u17a1\u17be\u1784\u200b \u179a\u17b8\u17af\u200b\u17a2\u179f\u17cb\u200b\u17a2\u17d2\u1793\u1780\u200b\u178a\u17c2\u179b\u200b\u1783\u17be\u1789\u200b\u1796\u17bd\u1780\u1782\u17c1\u200b\u1780\u17cf\u200b\u1798\u17b6\u1793\u200b\u179f\u17c1\u1785\u1780\u17d2\u178a\u17b8\u200b\u1797\u17d0\u1799\u1781\u17d2\u179b\u17b6\u1785\u200b\u1787\u17b6\u200b\u1781\u17d2\u179b\u17b6\u17c6\u1784\u17d4\u200b"
        },
        {
            "chapter": 11,
            "verse": 12,
            "name": "Revelation of John 11:12",
            "text": "\u1793\u17c4\u17c7\u200b\u17a2\u17d2\u1793\u1780\u200b\u1791\u17b6\u17c6\u1784\u200b\u1796\u17b8\u179a\u200b\u1794\u17b6\u1793\u200b\u17ae\u200b\u179f\u17c6\u17a1\u17c1\u1784\u200b\u1798\u17bd\u1799\u200b\u1799\u17c9\u17b6\u1784\u200b\u1781\u17d2\u179b\u17b6\u17c6\u1784\u200b\u1796\u17b8\u200b\u179b\u17be\u200b\u1798\u17c1\u1783\u200b\u1798\u1780\u200b\u1780\u17b6\u1793\u17cb\u200b\u1796\u17bd\u1780\u1782\u17c1\u200b\u1790\u17b6\u200b \u1785\u17bc\u179a\u200b\u17a1\u17be\u1784\u200b\u1798\u1780\u200b\u1793\u17c1\u17c7\u17d4\u200b \u1793\u17c4\u17c7\u200b\u1796\u17bd\u1780\u1782\u17c1\u200b\u1780\u17cf\u200b\u17a1\u17be\u1784\u200b\u1791\u17c5\u200b\u179b\u17be\u200b\u1798\u17c1\u1783\u200b \u1780\u17d2\u1793\u17bb\u1784\u200b\u1796\u1796\u1780\u200b \u17a0\u17be\u1799\u200b\u179f\u178f\u17d2\u179a\u17bc\u179c\u200b\u179a\u1794\u179f\u17cb\u200b\u1796\u17bd\u1780\u1782\u17c1\u200b\u1780\u17cf\u200b\u1783\u17be\u1789\u200b\u178a\u17c2\u179a\u17d4\u200b"
        },
        {
            "chapter": 11,
            "verse": 13,
            "name": "Revelation of John 11:13",
            "text": "\u1793\u17c5\u200b\u179c\u17c1\u179b\u17b6\u200b\u1793\u17c4\u17c7\u200b \u1798\u17b6\u1793\u200b\u179a\u1789\u17d2\u1787\u17bd\u1799\u200b\u1795\u17c2\u1793\u178a\u17b8\u200b\u1799\u17c9\u17b6\u1784\u200b\u1781\u17d2\u179b\u17b6\u17c6\u1784\u200b\u1780\u17be\u178f\u200b\u17a1\u17be\u1784\u200b \u17a0\u17be\u1799\u200b\u1798\u17bd\u1799\u200b\u1797\u17b6\u1782\u200b\u178a\u1794\u17cb\u200b\u1793\u17c3\u200b\u1780\u17d2\u179a\u17bb\u1784\u200b\u1793\u17c4\u17c7\u200b\u1794\u17b6\u1793\u200b\u178a\u17bd\u179b\u200b\u179a\u179b\u17c6\u200b \u1798\u1793\u17bb\u179f\u17d2\u179f\u200b\u1794\u17d2\u179a\u17b6\u17c6\u1796\u17b8\u179a\u200b\u1796\u17b6\u1793\u17cb\u200b\u1793\u17b6\u1780\u17cb\u200b\u1794\u17b6\u1793\u200b\u179f\u17d2\u179b\u17b6\u1794\u17cb\u200b\u178a\u17c4\u1799\u179f\u17b6\u179a\u200b\u1780\u17b6\u179a\u200b\u179a\u1789\u17d2\u1787\u17bd\u1799\u200b\u1795\u17c2\u1793\u178a\u17b8\u200b\u1793\u17c4\u17c7\u200b \u179a\u17b8\u17af\u200b\u17a2\u17d2\u1793\u1780\u200b\u178a\u17c2\u179b\u200b\u179f\u179b\u17cb\u200b\u1796\u17b8\u200b\u179f\u17d2\u179b\u17b6\u1794\u17cb\u200b\u1794\u17b6\u1793\u200b\u1797\u17d0\u1799\u1781\u17d2\u179b\u17b6\u1785\u200b \u17a0\u17be\u1799\u200b\u1790\u17d2\u179c\u17b6\u1799\u200b\u179f\u17b7\u179a\u17b8\u200b\u179a\u17bb\u1784\u179a\u17bf\u1784\u200b\u178a\u179b\u17cb\u200b\u1796\u17d2\u179a\u17c7\u1787\u17b6\u1798\u17d2\u1785\u17b6\u179f\u17cb\u200b\u1793\u17c3\u200b\u179f\u17d2\u1790\u17b6\u1793\u179f\u17bd\u1782\u17cc\u17d4\u200b"
        },
        {
            "chapter": 11,
            "verse": 14,
            "name": "Revelation of John 11:14",
            "text": "\u179f\u17c1\u1785\u1780\u17d2\u178a\u17b8\u200b\u179c\u17c1\u1791\u1793\u17b6\u200b\u1791\u17b8\u1796\u17b8\u179a\u200b\u1794\u17b6\u1793\u200b\u1780\u1793\u17d2\u179b\u1784\u200b\u1795\u17bb\u178f\u200b\u1791\u17c5\u200b\u17a0\u17be\u1799\u200b \u1798\u17be\u179b\u17cd\u200b \u179f\u17c1\u1785\u1780\u17d2\u178a\u17b8\u200b\u179c\u17c1\u1791\u1793\u17b6\u200b\u1791\u17b8\u1794\u17b8\u200b\u1793\u17b9\u1784\u200b\u1798\u1780\u200b\u1799\u17c9\u17b6\u1784\u200b\u1786\u17b6\u1794\u17cb\u17d4\u200b"
        },
        {
            "chapter": 11,
            "verse": 15,
            "name": "Revelation of John 11:15",
            "text": "\u1794\u1793\u17d2\u1791\u17b6\u1794\u17cb\u200b\u1798\u1780\u200b\u1791\u17c1\u179c\u178f\u17b6\u200b\u1791\u17b8\u1794\u17d2\u179a\u17b6\u17c6\u1796\u17b8\u179a\u200b\u1795\u17d2\u179b\u17bb\u17c6\u200b\u178f\u17d2\u179a\u17c2\u200b\u17a1\u17be\u1784\u200b \u1793\u17c4\u17c7\u200b\u1798\u17b6\u1793\u200b\u179f\u17c6\u17a1\u17c1\u1784\u200b\u1799\u17c9\u17b6\u1784\u200b\u1781\u17d2\u179b\u17b6\u17c6\u1784\u200b\u1793\u17c5\u200b\u179f\u17d2\u1790\u17b6\u1793\u179f\u17bd\u1782\u17cc\u200b\u1794\u1793\u17d2\u179b\u17ba\u200b\u17a1\u17be\u1784\u200b\u1790\u17b6\u17d6\u200b \u00ab\u1793\u1782\u179a\u200b\u179a\u1794\u179f\u17cb\u200b\u179b\u17c4\u1780\u17b7\u1799\u200b\u1793\u17c1\u17c7\u200b\u1794\u17b6\u1793\u200b\u178f\u17d2\u179a\u179b\u1794\u17cb\u200b\u1787\u17b6\u200b\u1793\u1782\u179a\u200b\u179a\u1794\u179f\u17cb\u200b\u1796\u17d2\u179a\u17c7\u17a2\u1798\u17d2\u1785\u17b6\u179f\u17cb\u200b\u1793\u17c3\u200b\u1799\u17be\u1784\u200b \u1793\u17b7\u1784\u200b\u179a\u1794\u179f\u17cb\u200b\u1796\u17d2\u179a\u17c7\u1782\u17d2\u179a\u17b7\u179f\u17d2\u178a\u200b\u179a\u1794\u179f\u17cb\u200b\u1796\u17d2\u179a\u17c7\u17a2\u1784\u17d2\u1782\u200b \u17a0\u17be\u1799\u200b\u1796\u17d2\u179a\u17c7\u17a2\u1784\u17d2\u1782\u200b\u1793\u17b9\u1784\u200b\u179f\u17c4\u1799\u179a\u17b6\u1787\u17d2\u1799\u200b\u179a\u17a0\u17bc\u178f\u200b\u17a2\u179f\u17cb\u1780\u179b\u17d2\u1794\u200b\u1787\u17b6\u1793\u17b7\u1785\u17d2\u1785\u00bb\u17d4\u200b"
        },
        {
            "chapter": 11,
            "verse": 16,
            "name": "Revelation of John 11:16",
            "text": "\u1796\u17c1\u179b\u200b\u1793\u17c4\u17c7\u200b\u1796\u17bd\u1780\u200b\u1785\u17b6\u179f\u17cb\u1791\u17bb\u17c6\u200b\u1791\u17b6\u17c6\u1784\u200b\u1798\u17d2\u1797\u17c3\u200b\u1794\u17bd\u1793\u200b\u1793\u17b6\u1780\u17cb\u200b\u178a\u17c2\u179b\u200b\u17a2\u1784\u17d2\u1782\u17bb\u1799\u200b\u179b\u17be\u200b\u1794\u179b\u17d2\u179b\u17d0\u1784\u17d2\u1780\u200b\u179a\u1794\u179f\u17cb\u200b\u1781\u17d2\u179b\u17bd\u1793\u200b\u1793\u17c5\u200b\u1796\u17b8\u200b\u1798\u17bb\u1781\u200b\u1796\u17d2\u179a\u17c7\u1787\u17b6\u1798\u17d2\u1785\u17b6\u179f\u17cb\u200b\u1780\u17cf\u200b\u1780\u17d2\u179a\u17b6\u1794\u200b\u1795\u17d2\u1780\u17b6\u1794\u17cb\u200b\u1798\u17bb\u1781\u200b \u17a0\u17be\u1799\u200b\u1790\u17d2\u179c\u17b6\u1799\u1794\u1784\u17d2\u1782\u17c6\u200b\u1796\u17d2\u179a\u17c7\u1787\u17b6\u1798\u17d2\u1785\u17b6\u179f\u17cb\u200b"
        },
        {
            "chapter": 11,
            "verse": 17,
            "name": "Revelation of John 11:17",
            "text": "\u1791\u17b6\u17c6\u1784\u200b\u1793\u17b7\u1799\u17b6\u1799\u200b\u1790\u17b6\u17d6\u200b \u00ab\u17b1\u200b\u1796\u17d2\u179a\u17c7\u17a2\u1798\u17d2\u1785\u17b6\u179f\u17cb\u200b \u1787\u17b6\u200b\u1796\u17d2\u179a\u17c7\u200b\u178a\u17cf\u200b\u1798\u17b6\u1793\u200b\u1796\u17d2\u179a\u17c7\u1785\u17c1\u179f\u17d2\u178a\u17b6\u200b\u179b\u17be\u200b\u17a2\u17d2\u179c\u17b8\u17d7\u200b\u1791\u17b6\u17c6\u1784\u200b\u17a2\u179f\u17cb\u200b \u1787\u17b6\u200b\u1796\u17d2\u179a\u17c7\u200b\u178a\u17c2\u179b\u200b\u1782\u1784\u17cb\u200b\u1793\u17c5\u200b\u179f\u1796\u17d2\u179c\u200b\u1790\u17d2\u1784\u17c3\u200b \u1793\u17b7\u1784\u200b\u1782\u1784\u17cb\u200b\u1793\u17c5\u200b\u178f\u17b6\u17c6\u1784\u200b\u1796\u17b8\u200b\u178a\u17be\u1798\u200b\u17a2\u17be\u1799!\u200b \u1799\u17be\u1784\u200b\u1781\u17d2\u1789\u17bb\u17c6\u200b\u179f\u17bc\u1798\u200b\u17a2\u179a\u1796\u17d2\u179a\u17c7\u1782\u17bb\u178e\u200b\u1796\u17d2\u179a\u17c7\u17a2\u1784\u17d2\u1782\u200b \u1796\u17d2\u179a\u17c4\u17c7\u200b\u1796\u17d2\u179a\u17c7\u17a2\u1784\u17d2\u1782\u200b\u1794\u17b6\u1793\u200b\u1799\u1780\u200b\u17a2\u17c6\u178e\u17b6\u1785\u200b\u178a\u17cf\u200b\u1792\u17c6\u200b\u17a7\u178f\u17d2\u178a\u1798\u200b\u179a\u1794\u179f\u17cb\u200b\u1796\u17d2\u179a\u17c7\u17a2\u1784\u17d2\u1782\u200b \u17a0\u17be\u1799\u200b\u1794\u17b6\u1793\u200b\u179f\u17c4\u1799\u179a\u17b6\u1787\u17d2\u1799\u200b"
        },
        {
            "chapter": 11,
            "verse": 18,
            "name": "Revelation of John 11:18",
            "text": "\u1794\u17d2\u179a\u1791\u17c1\u179f\u200b\u1791\u17b6\u17c6\u1784\u17a1\u17b6\u1799\u200b\u1798\u17b6\u1793\u200b\u1780\u17c6\u17a0\u17b9\u1784\u200b \u1794\u17c9\u17bb\u1793\u17d2\u178a\u17c2\u200b\u179f\u17c1\u1785\u1780\u17d2\u178a\u17b8\u200b\u1780\u17d2\u179a\u17c4\u1792\u200b\u179a\u1794\u179f\u17cb\u200b\u1796\u17d2\u179a\u17c7\u17a2\u1784\u17d2\u1782\u200b\u1794\u17b6\u1793\u200b\u1798\u1780\u200b\u178a\u179b\u17cb\u200b \u1787\u17b6\u200b\u1796\u17c1\u179b\u200b\u1780\u17c6\u178e\u178f\u17cb\u200b\u178a\u17c2\u179b\u200b\u178f\u17d2\u179a\u17bc\u179c\u200b\u1787\u17c6\u1793\u17bb\u17c6\u200b\u1787\u1798\u17d2\u179a\u17c7\u200b\u1798\u1793\u17bb\u179f\u17d2\u179f\u200b\u179f\u17d2\u179b\u17b6\u1794\u17cb\u200b \u17a0\u17be\u1799\u200b\u1794\u17d2\u179a\u1791\u17b6\u1793\u200b\u179a\u1784\u17d2\u179c\u17b6\u1793\u17cb\u200b\u178a\u179b\u17cb\u200b\u1796\u17bd\u1780\u200b\u1794\u17b6\u179c\u1794\u1798\u17d2\u179a\u17be\u200b\u179a\u1794\u179f\u17cb\u200b\u1796\u17d2\u179a\u17c7\u17a2\u1784\u17d2\u1782\u200b \u178a\u179b\u17cb\u200b\u1796\u17bd\u1780\u17a2\u17d2\u1793\u1780\u200b\u1793\u17b6\u17c6\u200b\u1796\u17d2\u179a\u17c7\u1794\u1793\u17d2\u1791\u17bc\u179b\u200b \u178a\u179b\u17cb\u200b\u1796\u17bd\u1780\u200b\u1794\u179a\u17b7\u179f\u17bb\u1791\u17d2\u1792\u200b \u1793\u17b7\u1784\u200b\u178a\u179b\u17cb\u200b\u1796\u17bd\u1780\u17a2\u17d2\u1793\u1780\u200b\u178a\u17c2\u179b\u200b\u1780\u17c4\u178f\u200b\u1781\u17d2\u179b\u17b6\u1785\u200b\u1796\u17d2\u179a\u17c7\u1793\u17b6\u1798\u200b\u1796\u17d2\u179a\u17c7\u17a2\u1784\u17d2\u1782\u200b \u1791\u17b6\u17c6\u1784\u200b\u178f\u17bc\u1785\u200b \u1791\u17b6\u17c6\u1784\u200b\u1792\u17c6\u200b \u1796\u17d2\u179a\u1798\u1791\u17b6\u17c6\u1784\u200b\u1794\u17c6\u1795\u17d2\u179b\u17b6\u1789\u200b\u1796\u17bd\u1780\u17a2\u17d2\u1793\u1780\u200b\u178a\u17c2\u179b\u200b\u1794\u17c6\u1795\u17d2\u179b\u17b6\u1789\u200b\u1795\u17c2\u1793\u178a\u17b8\u200b\u1795\u1784\u00bb\u17d4\u200b"
        },
        {
            "chapter": 11,
            "verse": 19,
            "name": "Revelation of John 11:19",
            "text": "\u1796\u17c1\u179b\u200b\u1793\u17c4\u17c7\u200b\u1796\u17d2\u179a\u17c7\u179c\u17b7\u17a0\u17b6\u179a\u200b\u179a\u1794\u179f\u17cb\u200b\u1796\u17d2\u179a\u17c7\u1787\u17b6\u1798\u17d2\u1785\u17b6\u179f\u17cb\u200b\u1793\u17c5\u200b\u179f\u17d2\u1790\u17b6\u1793\u179f\u17bd\u1782\u17cc\u200b\u1794\u17be\u1780\u200b\u1785\u17c6\u17a0\u200b \u17a0\u17be\u1799\u200b\u1780\u17cf\u200b\u1783\u17be\u1789\u200b\u17a0\u17b7\u1794\u200b\u1793\u17c3\u200b\u1780\u17b7\u1785\u17d2\u1785\u200b\u1796\u17d2\u179a\u1798\u1796\u17d2\u179a\u17c0\u1784\u200b\u179a\u1794\u179f\u17cb\u200b\u1796\u17d2\u179a\u17c7\u17a2\u1784\u17d2\u1782\u200b\u1793\u17c5\u200b\u1780\u17d2\u1793\u17bb\u1784\u200b\u1796\u17d2\u179a\u17c7\u179c\u17b7\u17a0\u17b6\u179a\u200b \u179a\u17bd\u1785\u200b\u1798\u17b6\u1793\u200b\u1795\u17d2\u179b\u17c1\u1780\u200b\u1794\u1793\u17d2\u1791\u17c4\u179a\u200b \u1798\u17b6\u1793\u200b\u179f\u17c6\u17a1\u17c1\u1784\u200b \u1798\u17b6\u1793\u200b\u1795\u17d2\u1782\u179a\u179b\u17b6\u1793\u17cb\u200b \u1798\u17b6\u1793\u200b\u1780\u17b6\u179a\u200b\u179a\u1789\u17d2\u1787\u17bd\u1799\u200b\u1795\u17c2\u1793\u178a\u17b8\u200b \u1793\u17b7\u1784\u200b\u1798\u17b6\u1793\u200b\u1796\u17d2\u179a\u17b9\u179b\u200b\u1792\u17d2\u179b\u17b6\u1780\u17cb\u200b\u1799\u17c9\u17b6\u1784\u200b\u1781\u17d2\u179b\u17b6\u17c6\u1784\u17d4\u200b  "
        }
    ]
}