{
    "translation": "Sveto pismo Kralja Jakoba (1769)",
    "abbreviation": "slokjv",
    "lang": "sl",
    "language": "Slovene",
    "direction": "LTR",
    "encoding": "UTF-8",
    "book_nr": 3,
    "book_name": "Leviticus",
    "chapter": 21,
    "name": "Leviticus 21",
    "verses": [
        {
            "chapter": 21,
            "verse": 1,
            "name": "Leviticus 21:1",
            "text": ""
        },
        {
            "chapter": 21,
            "verse": 2,
            "name": "Leviticus 21:2",
            "text": ""
        },
        {
            "chapter": 21,
            "verse": 3,
            "name": "Leviticus 21:3",
            "text": ""
        },
        {
            "chapter": 21,
            "verse": 4,
            "name": "Leviticus 21:4",
            "text": ""
        },
        {
            "chapter": 21,
            "verse": 5,
            "name": "Leviticus 21:5",
            "text": ""
        },
        {
            "chapter": 21,
            "verse": 6,
            "name": "Leviticus 21:6",
            "text": ""
        },
        {
            "chapter": 21,
            "verse": 7,
            "name": "Leviticus 21:7",
            "text": ""
        },
        {
            "chapter": 21,
            "verse": 8,
            "name": "Leviticus 21:8",
            "text": ""
        },
        {
            "chapter": 21,
            "verse": 9,
            "name": "Leviticus 21:9",
            "text": ""
        },
        {
            "chapter": 21,
            "verse": 10,
            "name": "Leviticus 21:10",
            "text": ""
        },
        {
            "chapter": 21,
            "verse": 11,
            "name": "Leviticus 21:11",
            "text": ""
        },
        {
            "chapter": 21,
            "verse": 12,
            "name": "Leviticus 21:12",
            "text": ""
        },
        {
            "chapter": 21,
            "verse": 13,
            "name": "Leviticus 21:13",
            "text": ""
        },
        {
            "chapter": 21,
            "verse": 14,
            "name": "Leviticus 21:14",
            "text": ""
        },
        {
            "chapter": 21,
            "verse": 15,
            "name": "Leviticus 21:15",
            "text": ""
        },
        {
            "chapter": 21,
            "verse": 16,
            "name": "Leviticus 21:16",
            "text": ""
        },
        {
            "chapter": 21,
            "verse": 17,
            "name": "Leviticus 21:17",
            "text": ""
        },
        {
            "chapter": 21,
            "verse": 18,
            "name": "Leviticus 21:18",
            "text": ""
        },
        {
            "chapter": 21,
            "verse": 19,
            "name": "Leviticus 21:19",
            "text": ""
        },
        {
            "chapter": 21,
            "verse": 20,
            "name": "Leviticus 21:20",
            "text": ""
        },
        {
            "chapter": 21,
            "verse": 21,
            "name": "Leviticus 21:21",
            "text": ""
        },
        {
            "chapter": 21,
            "verse": 22,
            "name": "Leviticus 21:22",
            "text": ""
        },
        {
            "chapter": 21,
            "verse": 23,
            "name": "Leviticus 21:23",
            "text": ""
        },
        {
            "chapter": 21,
            "verse": 24,
            "name": "Leviticus 21:24",
            "text": ""
        }
    ]
}