{
    "translation": "Young's Literal Translation",
    "abbreviation": "ylt",
    "lang": "en",
    "language": "English",
    "direction": "LTR",
    "encoding": "",
    "book_nr": 24,
    "book_name": "Jeremiah",
    "chapter": 38,
    "name": "Jeremiah 38",
    "verses": [
        {
            "chapter": 38,
            "verse": 1,
            "name": "Jeremiah 38:1",
            "text": "And Shephatiah son of Mattan, and Gedaliah son of Pashhur, and Jucal son of Shelemiah, and Pashhur son of Malchiah, hear the words that Jeremiah is speaking unto all the people, saying,"
        },
        {
            "chapter": 38,
            "verse": 2,
            "name": "Jeremiah 38:2",
            "text": "`Thus said Jehovah: He who is remaining in this city dieth, by sword, by famine, and by pestilence, and he who is going forth unto the Chaldeans liveth, and his soul hath been to him for a prey, and he liveth."
        },
        {
            "chapter": 38,
            "verse": 3,
            "name": "Jeremiah 38:3",
            "text": "Thus said Jehovah: This city is certainly given into the hand of the force of the king of Babylon, and he hath captured it.'"
        },
        {
            "chapter": 38,
            "verse": 4,
            "name": "Jeremiah 38:4",
            "text": "And the heads say unto the king, `Let, we pray thee, this man be put to death, because that he is making feeble the hands of the men of war, who are left in this city, and the hands of all the people, by speaking unto them according to these words, for this man is not seeking for the peace of this people, but for its evil.'"
        },
        {
            "chapter": 38,
            "verse": 5,
            "name": "Jeremiah 38:5",
            "text": "And the king Zedekiah saith, `Lo, he <FI>is<Fi> in your hand: for the king is not able for you <FI>in<Fi> anything.'"
        },
        {
            "chapter": 38,
            "verse": 6,
            "name": "Jeremiah 38:6",
            "text": "And they take Jeremiah, and cast him into the pit of Malchiah son of the king, that <FI>is<Fi> in the court of the prison, and they send down Jeremiah with cords; and in the pit there is no water, but mire, and Jeremiah sinketh in the mire."
        },
        {
            "chapter": 38,
            "verse": 7,
            "name": "Jeremiah 38:7",
            "text": "And Ebed-Melech the Cushite, a eunuch who <FI>is<Fi> in the king's house, heareth that they have put Jeremiah into the pit; and the king is sitting at the gate of Benjamin,"
        },
        {
            "chapter": 38,
            "verse": 8,
            "name": "Jeremiah 38:8",
            "text": "and Ebed-Melech goeth forth from the king's house, and speaketh unto the king, saying,"
        },
        {
            "chapter": 38,
            "verse": 9,
            "name": "Jeremiah 38:9",
            "text": "`My lord, O king, these men have done evil <FI>in<Fi> all that they have done to Jeremiah the prophet, whom they have cast into the pit, and he dieth in his place because of the famine, for there is no more bread in the city.'"
        },
        {
            "chapter": 38,
            "verse": 10,
            "name": "Jeremiah 38:10",
            "text": "And the king commandeth Ebed-Melech the Cushite, saying, `Take with thee from this thirty men, and thou hast brought up Jeremiah the prophet from the pit, before he dieth.'"
        },
        {
            "chapter": 38,
            "verse": 11,
            "name": "Jeremiah 38:11",
            "text": "And Ebed-Melech taketh the men with him, and entereth the house of the king, unto the place of the treasury, and taketh thence worn-out clouts, and worn-out rags, and sendeth them unto Jeremiah unto the pit by cords."
        },
        {
            "chapter": 38,
            "verse": 12,
            "name": "Jeremiah 38:12",
            "text": "And Ebed-Melech the Cushite saith unto Jeremiah, `Put, I pray thee, the worn-out clouts and rags under thine arm-holes, at the place of the cords,' and Jeremiah doth so,"
        },
        {
            "chapter": 38,
            "verse": 13,
            "name": "Jeremiah 38:13",
            "text": "and they draw out Jeremiah with cords, and bring him up out of the pit, and Jeremiah dwelleth in the court of the prison."
        },
        {
            "chapter": 38,
            "verse": 14,
            "name": "Jeremiah 38:14",
            "text": "And the king Zedekiah sendeth, and taketh Jeremiah the prophet unto him, unto the third entrance that <FI>is<Fi> in the house of Jehovah, and the king saith unto Jeremiah, `I am asking thee a thing, do not hide from me anything.'"
        },
        {
            "chapter": 38,
            "verse": 15,
            "name": "Jeremiah 38:15",
            "text": "And Jeremiah saith unto Zedekiah, `When I declare to thee, dost thou not surely put me to death? and when I counsel thee, thou dost not hearken unto me.'"
        },
        {
            "chapter": 38,
            "verse": 16,
            "name": "Jeremiah 38:16",
            "text": "And the king Zedekiah sweareth unto Jeremiah in secret, saying, `Jehovah liveth, He who made for us this soul, I do not put thee to death, nor give thee unto the hand of these men who are seeking thy soul.'"
        },
        {
            "chapter": 38,
            "verse": 17,
            "name": "Jeremiah 38:17",
            "text": "And Jeremiah saith unto Zedekiah, `Thus said Jehovah, God of Hosts, God of Israel: If thou dost certainly go forth unto the heads of the king of Babylon, then hath thy soul lived, and this city is not burned with fire, yea, thou hast lived, thou and thy house."
        },
        {
            "chapter": 38,
            "verse": 18,
            "name": "Jeremiah 38:18",
            "text": "And if thou dost not go forth unto the heads of the king of Babylon, then hath this city been given into the hand of the Chaldeans, and they have burnt it with fire, and thou dost not escape from their hand.'"
        },
        {
            "chapter": 38,
            "verse": 19,
            "name": "Jeremiah 38:19",
            "text": "And the king Zedekiah saith unto Jeremiah, `I am fearing the Jews who have fallen unto the Chaldeans, lest they give me into their hand, and they have insulted me.'"
        },
        {
            "chapter": 38,
            "verse": 20,
            "name": "Jeremiah 38:20",
            "text": "And Jeremiah saith, `They do not give thee up; hearken, I pray thee, to the voice of Jehovah, to that which I am speaking unto thee, and it is well for thee, and thy soul doth live."
        },
        {
            "chapter": 38,
            "verse": 21,
            "name": "Jeremiah 38:21",
            "text": "`And if thou art refusing to go forth, this <FI>is<Fi> the thing that Jehovah hath shewn me:"
        },
        {
            "chapter": 38,
            "verse": 22,
            "name": "Jeremiah 38:22",
            "text": "That, lo, all the women who have been left in the house of the king of Judah are brought forth unto the heads of the king of Babylon, and lo, they are saying: Persuaded thee, and prevailed against thee, Have thine allies, Sunk into mire have thy feet, They have been turned backward."
        },
        {
            "chapter": 38,
            "verse": 23,
            "name": "Jeremiah 38:23",
            "text": "`And all thy wives, and thy sons, are brought forth unto the Chaldeans, and thou dost not escape from their hand, for by the hand of the king of Babylon thou art caught, and this city is burnt with fire.'"
        },
        {
            "chapter": 38,
            "verse": 24,
            "name": "Jeremiah 38:24",
            "text": "And Zedekiah saith unto Jeremiah, `Let no man know of these words, and thou dost not die;"
        },
        {
            "chapter": 38,
            "verse": 25,
            "name": "Jeremiah 38:25",
            "text": "and when the heads hear that I have spoken with thee, and they have come in unto thee, and have said unto thee, Declare to us, we pray thee, what thou didst speak unto the king, do not hide <FI>it<Fi> from us, and we do not put thee to death, and what the king spake unto thee,"
        },
        {
            "chapter": 38,
            "verse": 26,
            "name": "Jeremiah 38:26",
            "text": "then thou hast said unto them, I am causing my supplication to fall before the king, not to cause me to return to the house of Jonathan, to die there.'"
        },
        {
            "chapter": 38,
            "verse": 27,
            "name": "Jeremiah 38:27",
            "text": "And all the heads come in unto Jeremiah, and ask him, and he declareth to them according to all these words that the king commanded, and they keep silent from him, for the matter was not heard;"
        },
        {
            "chapter": 38,
            "verse": 28,
            "name": "Jeremiah 38:28",
            "text": "and Jeremiah dwelleth in the court of the prison till the day that Jerusalem hath been captured, and he was <FI>there<Fi> when Jerusalem was captured."
        }
    ]
}