{
    "translation": "Young's Literal Translation",
    "abbreviation": "ylt",
    "lang": "en",
    "language": "English",
    "direction": "LTR",
    "encoding": "",
    "book_nr": 24,
    "book_name": "Jeremiah",
    "chapter": 44,
    "name": "Jeremiah 44",
    "verses": [
        {
            "chapter": 44,
            "verse": 1,
            "name": "Jeremiah 44:1",
            "text": "The word that hath been unto Jeremiah concerning all the Jews who are dwelling in the land of Egypt--who are dwelling in Migdol, and in Tahpanhes, and in Noph, and in the land of Pathros--saying,"
        },
        {
            "chapter": 44,
            "verse": 2,
            "name": "Jeremiah 44:2",
            "text": "`Thus said Jehovah of Hosts, God of Israel: Ye--ye have seen all the evil that I have brought in on Jerusalem, and on all the cities of Judah, and lo, they <FI>are<Fi> a waste this day, and there is none dwelling in them,"
        },
        {
            "chapter": 44,
            "verse": 3,
            "name": "Jeremiah 44:3",
            "text": "because of their wickedness that they have done, by provoking Me to anger, by going to make perfume, by serving other gods, that they knew not, they, ye, and your fathers."
        },
        {
            "chapter": 44,
            "verse": 4,
            "name": "Jeremiah 44:4",
            "text": "`And I send unto you all my servants, the prophets, rising early and sending, saying: I pray you, do not this abomination that I have hated--"
        },
        {
            "chapter": 44,
            "verse": 5,
            "name": "Jeremiah 44:5",
            "text": "and they have not hearkened nor inclined their ear, to turn back from their wickedness, not to make perfume to other gods,"
        },
        {
            "chapter": 44,
            "verse": 6,
            "name": "Jeremiah 44:6",
            "text": "and poured out is My fury, and Mine anger, and it burneth in cities of Judah, and in streets of Jerusalem, and they are for a waste, for a desolation, as <FI>at<Fi> this day."
        },
        {
            "chapter": 44,
            "verse": 7,
            "name": "Jeremiah 44:7",
            "text": "`And, now, thus said Jehovah of Hosts, God of Israel: Why are ye doing great evil unto your own souls, to cut off to you man and woman, infant and suckling, from the midst of Judah, so as not to leave to you a remnant:"
        },
        {
            "chapter": 44,
            "verse": 8,
            "name": "Jeremiah 44:8",
            "text": "by provoking Me to anger by the works of your hands, by making perfume to other gods in the land of Egypt, whither ye are going in to sojourn, so as to cut yourselves off, and so as to your being for a reviling and for a reproach among all nations of the earth?"
        },
        {
            "chapter": 44,
            "verse": 9,
            "name": "Jeremiah 44:9",
            "text": "`Have ye forgotten the wickedness of your fathers, and the wickedness of the kings of Judah, and the wickedness of their wives, and your own wickedness, and the wickedness of your wives, that they have done in the land of Judah, and in streets of Jerusalem?"
        },
        {
            "chapter": 44,
            "verse": 10,
            "name": "Jeremiah 44:10",
            "text": "They have not been humbled unto this day, nor have they been afraid, nor have they walked in My law, and in My statutes, that I have set before you and before your fathers."
        },
        {
            "chapter": 44,
            "verse": 11,
            "name": "Jeremiah 44:11",
            "text": "`Therefore, thus said Jehovah of Hosts, God of Israel: Lo, I am setting my face against you for evil, even to cut off all Judah,"
        },
        {
            "chapter": 44,
            "verse": 12,
            "name": "Jeremiah 44:12",
            "text": "and I have taken the remnant of Judah, who have set their faces to enter the land of Egypt to sojourn there, and they have all been consumed in the land of Egypt; they fall by sword, by famine they are consumed, from the least even unto the greatest, by sword and by famine they die, and they have been for an execration, for an astonishment, and for a reviling, and for a reproach."
        },
        {
            "chapter": 44,
            "verse": 13,
            "name": "Jeremiah 44:13",
            "text": "`And I have seen after those dwelling in the land of Egypt, as I saw after Jerusalem, with sword, with famine, and with pestilence,"
        },
        {
            "chapter": 44,
            "verse": 14,
            "name": "Jeremiah 44:14",
            "text": "and there is not an escaped and remaining one of the remnant of Judah, who are entering into the land of Egypt to sojourn there, even to turn back to the land of Judah, whither they are lifting up their soul to return to dwell, for they do not turn back, except those escaping.'"
        },
        {
            "chapter": 44,
            "verse": 15,
            "name": "Jeremiah 44:15",
            "text": "And they answer Jeremiah--all the men who are knowing that their wives are making perfume to other gods, and all the women who are remaining, a great assembly, even all the people who are dwelling in the land of Egypt, in Pathros--saying:"
        },
        {
            "chapter": 44,
            "verse": 16,
            "name": "Jeremiah 44:16",
            "text": "`The word that thou hast spoken unto us in the name of Jehovah--we are not hearkening unto thee;"
        },
        {
            "chapter": 44,
            "verse": 17,
            "name": "Jeremiah 44:17",
            "text": "for we certainly do everything that hath gone out of our mouth, to make perfume to the queen of the heavens, and to pour out to her libations, as we have done, we, and our fathers, our kings, and our heads, in cities of Judah, and in streets of Jerusalem, and--we are satisfied with bread, and we are well, and evil we have not seen."
        },
        {
            "chapter": 44,
            "verse": 18,
            "name": "Jeremiah 44:18",
            "text": "`And from the time we have ceased to make perfume to the queen of the heavens, and to pour out to her libations, we have lacked all, and by sword and by famine we have been consumed,"
        },
        {
            "chapter": 44,
            "verse": 19,
            "name": "Jeremiah 44:19",
            "text": "and when we are making perfume to the queen of the heavens, and pouring out to her libations--without our husbands have we made for her cakes to idolize her, and to pour out to her libations?'"
        },
        {
            "chapter": 44,
            "verse": 20,
            "name": "Jeremiah 44:20",
            "text": "And Jeremiah saith unto all the people, concerning the men and concerning the women, and concerning all the people who are answering him, saying:"
        },
        {
            "chapter": 44,
            "verse": 21,
            "name": "Jeremiah 44:21",
            "text": "`The perfume that ye made in the cities of Judah, and in the streets of Jerusalem, ye, and your fathers, your kings, and your heads, and the people of the land, hath not Jehovah remembered it? yea, it cometh up on His heart."
        },
        {
            "chapter": 44,
            "verse": 22,
            "name": "Jeremiah 44:22",
            "text": "And Jehovah is not able any more to accept <FI>you<Fi> , because of the evil of your doings, because of the abominations that ye have done, and your land is for a waste, and for an astonishment, and for a reviling, without inhabitant, as <FI>at<Fi> this day."
        },
        {
            "chapter": 44,
            "verse": 23,
            "name": "Jeremiah 44:23",
            "text": "`Because that ye have made perfume, and because ye have sinned against Jehovah, and have not hearkened to the voice of Jehovah, and in His law, and in His statutes, and in His testimonies ye have not walked, therefore hath this evil met you as <FI>at<Fi> this day.'"
        },
        {
            "chapter": 44,
            "verse": 24,
            "name": "Jeremiah 44:24",
            "text": "And Jeremiah saith unto all the people, and unto all the women, `Hear ye a word of Jehovah, all Judah who <FI>are<Fi> in the land of Egypt,"
        },
        {
            "chapter": 44,
            "verse": 25,
            "name": "Jeremiah 44:25",
            "text": "Thus spake Jehovah of Hosts, God of Israel, saying: Ye and your wives both speak with your mouth, and with your hands have fulfilled, saying: We certainly execute our vows that we have vowed, to make perfume to the queen of the heavens, and to pour out to her libations, ye do certainly establish your vows, and certainly execute your vows."
        },
        {
            "chapter": 44,
            "verse": 26,
            "name": "Jeremiah 44:26",
            "text": "`Therefore, hear ye a word of Jehovah, all Judah who are dwelling in the land of Egypt: Lo, I--I have sworn by My great name, said Jehovah, My name is no more proclaimed by the mouth of any man of Judah, saying, Live doth the Lord Jehovah--in all the land of Egypt."
        },
        {
            "chapter": 44,
            "verse": 27,
            "name": "Jeremiah 44:27",
            "text": "Lo, I am watching over them for evil, and not for good, and consumed have been all the men of Judah who <FI>are<Fi> in the land of Egypt, by sword and by famine, till their consumption."
        },
        {
            "chapter": 44,
            "verse": 28,
            "name": "Jeremiah 44:28",
            "text": "`And the escaped of the sword turn back out of the land of Egypt to the land of Judah, few in number, and known have all the remnant of Judah who are coming into the land of Egypt to sojourn there, whose word is established, Mine or theirs."
        },
        {
            "chapter": 44,
            "verse": 29,
            "name": "Jeremiah 44:29",
            "text": "`And this <FI>is<Fi> to you the sign--an affirmation of Jehovah--that I am seeing after you in this place, so that ye know that My words are certainly established against you for evil;"
        },
        {
            "chapter": 44,
            "verse": 30,
            "name": "Jeremiah 44:30",
            "text": "Thus said Jehovah, Lo, I am giving Pharaoh-Hophra king of Egypt into the hand of his enemies, and into the hand of those seeking his life, as I have given Zedekiah king of Judah into the hand of Nebuchadrezzar king of Babylon, his enemy, and who is seeking his life.'"
        }
    ]
}