{
    "translation": "Maori",
    "abbreviation": "maori",
    "lang": "mi",
    "language": "Maori",
    "direction": "LTR",
    "encoding": "",
    "book_nr": 12,
    "book_name": "2 Kings",
    "chapter": 20,
    "name": "2 Kings 20",
    "verses": [
        {
            "chapter": 20,
            "verse": 1,
            "name": "2 Kings 20:1",
            "text": "I aua ra ka mate a Hetekai, whano marere, Na ka tae mai a Ihaia poropiti tama a Amoho ki a ia, ka mea ki a ia, Ko te kupu tenei a Ihowa, Whakahaua iho tou whare; no te mea ka mate koe, kahore e ora."
        },
        {
            "chapter": 20,
            "verse": 2,
            "name": "2 Kings 20:2",
            "text": "Katahi ka tahuri tona mata ki te pakitara, ka inoi ki a Ihowa, ka mea,"
        },
        {
            "chapter": 20,
            "verse": 3,
            "name": "2 Kings 20:3",
            "text": "Tena ra, e Ihowa, kia mahara ki oku haereerenga i tou aroaro i runga i te pono, i te ngakau tapatahi, ki taku meatanga i te pai ki tau titiro. Na tangi ana a Hetekia, nui atu te tangi."
        },
        {
            "chapter": 20,
            "verse": 4,
            "name": "2 Kings 20:4",
            "text": "Na kahore ano a Ihaia kia puta noa ki waenganui o te pa, kua puta mai te kupu a Ihowa ki a ia, kua mea,"
        },
        {
            "chapter": 20,
            "verse": 5,
            "name": "2 Kings 20:5",
            "text": "Hoki atu, mea atu ki te rangatira o taku iwi, ki a Hetekia, Ko te kupu tenei a Ihowa, a te Atua o Rawiri, o tou tupuna, Kua whakarangona tau inoi e ahau, a kua kite ahau i ou roimata: nana, me whakaora koe e ahau: hei te toru o nga ra ka haere ko e ki runga, ki te whare o Ihowa."
        },
        {
            "chapter": 20,
            "verse": 6,
            "name": "2 Kings 20:6",
            "text": "Ka tapiritia ano e ahau ou ra ki nga tau kotahi tekau ma rima: a ka whakaorangia koe me tenei pa e ahau i te ringa o te kingi o Ahiria; a ka tiakina e ahau tenei pa, he whakaaro ki ahau ano, ki taku tangata hoki, ki a Rawiri."
        },
        {
            "chapter": 20,
            "verse": 7,
            "name": "2 Kings 20:7",
            "text": "I ki ano hoki a Ihaia, Tikina he papa piki. Na tikina ana e ratou, whakapakia ana ki te whewhe, na kua ora ia."
        },
        {
            "chapter": 20,
            "verse": 8,
            "name": "2 Kings 20:8",
            "text": "Na ka mea a Hetekia ki a Ihaia, He aha te tohu moku ka whakaorangia ahau e Ihowa? moku ka haere i te toru o nga ra ki te whare o Ihowa?"
        },
        {
            "chapter": 20,
            "verse": 9,
            "name": "2 Kings 20:9",
            "text": "Ano ra ko Ihaia, Ko te tohu tenei a Ihowa ki a koe, ka oti i a Ihowa tana kupu i korero ai ia: kia tekau ranei nga nekehanga e neke atu ai te atarangi; kia tekau ranei nga whakahokinga e hoki ai?"
        },
        {
            "chapter": 20,
            "verse": 10,
            "name": "2 Kings 20:10",
            "text": "Ano ra ko Hetekia, He mea noa iho kia tekau nga nekehanga e neke atu ai te atarangi; erangi kia tekau nga nekehanga e hoki ai te atarangi ki muri."
        },
        {
            "chapter": 20,
            "verse": 11,
            "name": "2 Kings 20:11",
            "text": "Katahi a Ihaia poropiti ka karanga ki a Ihowa, a whakahokia ana e ia te atarangi, tekau nga nekehanga, o nga nekehanga i heke iho ai i te whakaatu haora a Ahata."
        },
        {
            "chapter": 20,
            "verse": 12,
            "name": "2 Kings 20:12",
            "text": "I taua wa ka tukua e Peroraka Pararana, tama a Pararana kingi o Papurona he pukapuka me tetahi hakari ki a Hetekia: no te mea i rongo ia i te mate a Hetekia."
        },
        {
            "chapter": 20,
            "verse": 13,
            "name": "2 Kings 20:13",
            "text": "A i whakarongo a Hetekia ki a ratou, whakakitea ana e ia ki a ratou te whare katoa o ana mea papai, te hiriwa, te koura, nga kinaki kakara, te hinu utu nui, me te whare o ana mea mo te whawhai me nga mea katoa i rokohanga ki roto ki ona taonga: kahore tetahi mea o tona whare, o tona kingitanga katoa, i kore te whakakitea e Hetekia ki a ratou."
        },
        {
            "chapter": 20,
            "verse": 14,
            "name": "2 Kings 20:14",
            "text": "Katahi ka haere mai a Ihaia poropiti ki a Kingi Hetekia, ka mea ki mai hoki ratou ki a koe i hea? Ano ra ko Hetekia, i haere mai ratou i te whenua hoi, i Papurona."
        },
        {
            "chapter": 20,
            "verse": 15,
            "name": "2 Kings 20:15",
            "text": "Ano ra ko tera, He aha nga mea i kitea e ratou ki tou whare? Ka whakahokia e Hetekia, Kua kitea e ratou nga mea katoa i toku whare: kahore tetahi mea o oku taonga i kore te whakakitea e ahau ki a ratou."
        },
        {
            "chapter": 20,
            "verse": 16,
            "name": "2 Kings 20:16",
            "text": "Na ka mea a Ihaia ki a Hetekia, Whakarongo ki te kupu a Ihowa."
        },
        {
            "chapter": 20,
            "verse": 17,
            "name": "2 Kings 20:17",
            "text": "Nana, kei te haere mai nga ra e kawea ai nga mea katoa o tou whare, me nga mea kua rongoatia nei e ou matua taea noatia tenei ra, ki Papurona: e kore tetahi mea e mahue, e ai ta Ihowa."
        },
        {
            "chapter": 20,
            "verse": 18,
            "name": "2 Kings 20:18",
            "text": "A ka tangohia e ratou etahi o au tama e puta mai i roto i a koe, e whanau mau; a hei unaka ratou i roto i te whare o te kingi o Papurona."
        },
        {
            "chapter": 20,
            "verse": 19,
            "name": "2 Kings 20:19",
            "text": "Ano ra ko Hetekia ki a Ihaia, He pai te kupu a Ihowa i korerotia mai na e koe. I mea ano hoki ia, Ehara oti i te pai ki te mau te rongo me te pono i oku ra?"
        },
        {
            "chapter": 20,
            "verse": 20,
            "name": "2 Kings 20:20",
            "text": "Na, ko era atu meatanga a Hetekia me ana mahi toa katoa, me tana hanganga i te puna, i te awakeri, a whakaputaina ana e ia he wai ki te pa, kihai ianei ena i tuhituhia ki te pukapuka o nga meatanga o nga ra o nga kingi o Hura?"
        },
        {
            "chapter": 20,
            "verse": 21,
            "name": "2 Kings 20:21",
            "text": "Na ka moe a Hetekia ki ona matua, a ko tana tama, ko Manahi, te kingi i muri i a ia."
        }
    ]
}