{
    "translation": "Sveto pismo Kralja Jakoba (1769)",
    "abbreviation": "slokjv",
    "lang": "sl",
    "language": "Slovene",
    "direction": "LTR",
    "encoding": "UTF-8",
    "book_nr": 19,
    "book_name": "Psalms",
    "chapter": 68,
    "name": "Psalms 68",
    "verses": [
        {
            "chapter": 68,
            "verse": 1,
            "name": "Psalms 68:1",
            "text": " * Naj vstane Bog, naj bodo njegovi sovra\u017eniki razkropljeni: naj tudi tisti, ki ga sovra\u017eijo, be\u017eijo pred njim. "
        },
        {
            "chapter": 68,
            "verse": 2,
            "name": "Psalms 68:2",
            "text": "Kakor je pregnan dim, tako jih pre\u017eeni: kakor se vosek stopi pred ognjem, tako naj zlobni umrejo pred prisotnostjo Boga. "
        },
        {
            "chapter": 68,
            "verse": 3,
            "name": "Psalms 68:3",
            "text": "* Toda pravi\u010dni naj bodo veseli; naj se veselijo pred Bogom: da, naj se silno veselijo. "
        },
        {
            "chapter": 68,
            "verse": 4,
            "name": "Psalms 68:4",
            "text": "* Pojte Bogu, pojte hvalnice njegovemu imenu: povzdigujte njega, ki jaha po nebesih s svojim imenom Jah  in se veselite pred njim. "
        },
        {
            "chapter": 68,
            "verse": 5,
            "name": "Psalms 68:5",
            "text": "O\u010de osirotelim in sodnik vdovam je Bog v svojem svetem prebivali\u0161\u010du. "
        },
        {
            "chapter": 68,
            "verse": 6,
            "name": "Psalms 68:6",
            "text": "Bog osamljene postavlja v dru\u017eine: osvobaja tiste, ki so zvezani z verigami: toda uporni prebivajo v suhi de\u017eeli. "
        },
        {
            "chapter": 68,
            "verse": 7,
            "name": "Psalms 68:7",
            "text": " Oh Bog, ko si \u0161el naprej pred svojim ljudstvom, ko si korakal skozi divjino; sela: "
        },
        {
            "chapter": 68,
            "verse": 8,
            "name": "Psalms 68:8",
            "text": "se je zemlja tresla, tudi nebesni obok je kapljal ob prisotnosti Boga: cel\u00f3 sam Sinaj je bil premaknjen ob prisotnosti Boga, Izraelovega Boga. "
        },
        {
            "chapter": 68,
            "verse": 9,
            "name": "Psalms 68:9",
            "text": "Ti, oh Bog, si poslal obilen de\u017e, s \u010dimer si potrdil svojo dedi\u0161\u010dino, ko je bila ope\u0161ana. "
        },
        {
            "chapter": 68,
            "verse": 10,
            "name": "Psalms 68:10",
            "text": "Tvoj shod je prebival tam: ti, oh Bog, si od svoje dobrote pripravil za uboge. "
        },
        {
            "chapter": 68,
            "verse": 11,
            "name": "Psalms 68:11",
            "text": "* Gospod je dal besedo: velika je bila dru\u017eba teh, ki so jo razgla\u0161ali. "
        },
        {
            "chapter": 68,
            "verse": 12,
            "name": "Psalms 68:12",
            "text": "* Kralji vojsk so naglo zbe\u017eali: tista pa, ki je ostala doma, je razdelila plen. "
        },
        {
            "chapter": 68,
            "verse": 13,
            "name": "Psalms 68:13",
            "text": "* \u010ceprav si le\u017eala med lonci, bo\u0161 vendar kakor krili golobice, [ki sta] pokriti s srebrom in njena peresa z rumenim zlatom. "
        },
        {
            "chapter": 68,
            "verse": 14,
            "name": "Psalms 68:14",
            "text": "Ko je Vsemogo\u010dni v njej razkropil kralje, je bilo belo kakor sneg na Calm\u00f3nu. "
        },
        {
            "chapter": 68,
            "verse": 15,
            "name": "Psalms 68:15",
            "text": " Bo\u017eji hrib je kakor Ba\u0161\u00e1nski hrib; visok hrib kakor Ba\u0161\u00e1nski hrib. "
        },
        {
            "chapter": 68,
            "verse": 16,
            "name": "Psalms 68:16",
            "text": "Zakaj poskakujete, vi visoki hribi? To je hrib, na katerem \u017eeli prebivati Bog; da, Gospod bo na njem prebival na veke. "
        },
        {
            "chapter": 68,
            "verse": 17,
            "name": "Psalms 68:17",
            "text": "* Bo\u017ejih bojnih vozov je dvajset tiso\u010d, cel\u00f3 tiso\u010d angelov: Gospod je med njimi kakor na Sinaju, na svetem kraju. "
        },
        {
            "chapter": 68,
            "verse": 18,
            "name": "Psalms 68:18",
            "text": "* Ti si se dvignil na visoko, vodil si ujeto ujetni\u0161tvo: prejel si darila za ljudi; da, tudi za uporne, da bi med njimi lahko prebival Gospod Bog. "
        },
        {
            "chapter": 68,
            "verse": 19,
            "name": "Psalms 68:19",
            "text": "Blagoslovljen bodi Gospod, ki nas dnevno zalaga s koristmi, cel\u00f3 Bog re\u0161itve na\u0161e du\u0161e."
        },
        {
            "chapter": 68,
            "verse": 20,
            "name": "Psalms 68:20",
            "text": " Sela.  Kdor je na\u0161 Bog, je Bog re\u0161itve du\u0161e; in Bogu, Gospodu, pripadajo izhodi pred smrtjo. "
        },
        {
            "chapter": 68,
            "verse": 21,
            "name": "Psalms 68:21",
            "text": "Toda Bog bo ranil glavo njegovih sovra\u017enikov in kosmato tem\u00e9 tistega, ki nenehno hodi v svojih prestopkih. "
        },
        {
            "chapter": 68,
            "verse": 22,
            "name": "Psalms 68:22",
            "text": " Gospod je rekel: \"Ponovno bom privedel iz Ba\u0161\u00e1na, ponovno bom svoje ljudstvo privedel iz morskih globin: "
        },
        {
            "chapter": 68,
            "verse": 23,
            "name": "Psalms 68:23",
            "text": "da bo tvoje stopalo lahko pomo\u010deno v krvi tvojih sovra\u017enikov in jezik tvojih psov v istem. "
        },
        {
            "chapter": 68,
            "verse": 24,
            "name": "Psalms 68:24",
            "text": "Videli so tvoje ravnanje, oh Bog; cel\u00f3 ravnanje mojega Boga, mojega Kralja, v sveti\u0161\u010du. "
        },
        {
            "chapter": 68,
            "verse": 25,
            "name": "Psalms 68:25",
            "text": "Pevci so \u0161li spredaj, igralci na glasbila so sledili zadaj; med njimi so bile gospodi\u010dne, ki so igrale s tamburini. "
        },
        {
            "chapter": 68,
            "verse": 26,
            "name": "Psalms 68:26",
            "text": "Blagoslavljate Boga na shodih, cel\u00f3 Gospoda, iz Izraelovega studenca. "
        },
        {
            "chapter": 68,
            "verse": 27,
            "name": "Psalms 68:27",
            "text": "Tam je majhen Benjamin z njihovim vladarjem, Judovi princi in njihov zbor, Z\u00e1bulonovi princi in Neft\u00e1lijevi princi. "
        },
        {
            "chapter": 68,
            "verse": 28,
            "name": "Psalms 68:28",
            "text": "Tvoj Bog je zapovedal tvojo mo\u010d: oja\u010daj, oh Bog, to, kar si izvr\u0161il za nas. "
        },
        {
            "chapter": 68,
            "verse": 29,
            "name": "Psalms 68:29",
            "text": "Zaradi tvojega templja pri Jeruzalemu ti bodo kralji prina\u0161ali darila. "
        },
        {
            "chapter": 68,
            "verse": 30,
            "name": "Psalms 68:30",
            "text": "O\u0161tej dru\u017ebo suli\u010darjev, mno\u017eico bikov s teleti ljudstva, dokler vsakdo sebe ne podvr\u017ee s ko\u0161\u010dki srebra: razkropi ljudstvo, ki se razveseljuje v vojni. "
        },
        {
            "chapter": 68,
            "verse": 31,
            "name": "Psalms 68:31",
            "text": "Princi bodo pri\u0161li iz Egipta; Etiopija bo svoje roke kmalu iztegnila k Bogu. "
        },
        {
            "chapter": 68,
            "verse": 32,
            "name": "Psalms 68:32",
            "text": " Pojte Bogu, ve, zemeljska kraljestva: oh pojte hvalnice Gospodu; sela: "
        },
        {
            "chapter": 68,
            "verse": 33,
            "name": "Psalms 68:33",
            "text": "njemu, ki jaha po nebes nebesih, ki so bila od davnine; glej, poslal je svoj glas in to mogo\u010den glas. "
        },
        {
            "chapter": 68,
            "verse": 34,
            "name": "Psalms 68:34",
            "text": "Mo\u010d pripi\u0161ite Bogu: njegova vzvi\u0161enost je nad Izraelom in njegova mo\u010d je v oblakih. "
        },
        {
            "chapter": 68,
            "verse": 35,
            "name": "Psalms 68:35",
            "text": "Oh Bog, ti si stra\u0161en iz svojih svetih prostorov: Izraelov Bog je ta, ki daje svojemu ljudstvu mo\u010d in oblast. Blagoslovljen bodi Bog. "
        }
    ]
}