{
    "translation": "Sveto pismo Kralja Jakoba (1769)",
    "abbreviation": "slokjv",
    "lang": "sl",
    "language": "Slovene",
    "direction": "LTR",
    "encoding": "UTF-8",
    "book_nr": 19,
    "book_name": "Psalms",
    "chapter": 81,
    "name": "Psalms 81",
    "verses": [
        {
            "chapter": 81,
            "verse": 1,
            "name": "Psalms 81:1",
            "text": " Glasno pojte Bogu, na\u0161i m\u00f4\u010di: naredite radosten glas Jakobovemu Bogu. "
        },
        {
            "chapter": 81,
            "verse": 2,
            "name": "Psalms 81:2",
            "text": "Vzemite psalm in prinesite s\u00e8m tamburin, prijetno harfo s plunko. "
        },
        {
            "chapter": 81,
            "verse": 3,
            "name": "Psalms 81:3",
            "text": "Trobite na trobento ob mlaju, ob dolo\u010denem \u010dasu na na\u0161 slovesen prazni\u010den dan. "
        },
        {
            "chapter": 81,
            "verse": 4,
            "name": "Psalms 81:4",
            "text": "Kajti to je bilo pravilo za Izraela in postava Jakobovega Boga. "
        },
        {
            "chapter": 81,
            "verse": 5,
            "name": "Psalms 81:5",
            "text": "To je on odredil v Jo\u017eefu za pri\u010devanje, ko je \u0161el ven skozi egiptovsko de\u017eelo: kjer sem sli\u0161al jezik, ki ga nisem razumel. "
        },
        {
            "chapter": 81,
            "verse": 6,
            "name": "Psalms 81:6",
            "text": "Njegovo ramo sem odstranil od bremena: njegove roke so bile osvobojene pred lonci. "
        },
        {
            "chapter": 81,
            "verse": 7,
            "name": "Psalms 81:7",
            "text": "Ti si klical v stiski, jaz pa sem te osvobodil; jaz sem ti odgovoril na skrivnem kraju groma: se ti potrdil pri vodah Mer\u00edbe."
        },
        {
            "chapter": 81,
            "verse": 8,
            "name": "Psalms 81:8",
            "text": " Sela.  Poslu\u0161aj, oh moje ljudstvo, jaz pa ti bom pri\u010deval: oh Izrael, \u010de bi mi hotel prisluhniti; "
        },
        {
            "chapter": 81,
            "verse": 9,
            "name": "Psalms 81:9",
            "text": "v tebi ne bo tujega boga; niti ne bo\u0161 obo\u017eeval nobenega tujega boga. "
        },
        {
            "chapter": 81,
            "verse": 10,
            "name": "Psalms 81:10",
            "text": "Jaz sem Gospod, tvoj Bog, ki te je privedel iz egiptovske de\u017eele: \u0161iroko odpri svoja usta in napolnil jih bom. "
        },
        {
            "chapter": 81,
            "verse": 11,
            "name": "Psalms 81:11",
            "text": "Toda moje ljudstvo no\u010de prisluhniti mojemu glasu; in Izrael no\u010de od mene. "
        },
        {
            "chapter": 81,
            "verse": 12,
            "name": "Psalms 81:12",
            "text": " Tako sem jih izro\u010dil njihovim lastnim sr\u010dnim \u017eeljam: in \u017eiveli so po svojih lastnih nasvetih. "
        },
        {
            "chapter": 81,
            "verse": 13,
            "name": "Psalms 81:13",
            "text": "Oh, da bi mi moje ljudstvo prisluhnilo in bi Izrael hodil po mojih poteh! "
        },
        {
            "chapter": 81,
            "verse": 14,
            "name": "Psalms 81:14",
            "text": "Kmalu bi podjarmil njihove sovra\u017enike in svojo roko obrnil zoper njihove nasprotnike. "
        },
        {
            "chapter": 81,
            "verse": 15,
            "name": "Psalms 81:15",
            "text": "Gospodovi sovra\u017eniki bi se morali podvre\u010di pod njega: pa bi se njihov \u010das ohranil na veke. "
        },
        {
            "chapter": 81,
            "verse": 16,
            "name": "Psalms 81:16",
            "text": "On bi jih hranil tudi z najodli\u010dnej\u0161o p\u0161enico: in z medom iz skale bi te nasitil. "
        }
    ]
}