{
    "translation": "King James Version: Pure Cambridge Edition",
    "abbreviation": "kjvpce",
    "lang": "en",
    "language": "English",
    "direction": "LTR",
    "encoding": "UTF-8",
    "book_nr": 13,
    "book_name": "1 Chronicles",
    "chapter": 13,
    "name": "1 Chronicles 13",
    "verses": [
        {
            "chapter": 13,
            "verse": 1,
            "name": "1 Chronicles 13:1",
            "text": "And David consulted with the captains of thousands and hundreds, and with every leader."
        },
        {
            "chapter": 13,
            "verse": 2,
            "name": "1 Chronicles 13:2",
            "text": "And David said unto all the congregation of Israel, If it seem good unto you, and that it be of the Lord our God, let us send abroad unto our brethren every where, that are left in all the land of Israel, and with them also to the priests and Levites which are in their cities and suburbs, that they may gather themselves unto us:"
        },
        {
            "chapter": 13,
            "verse": 3,
            "name": "1 Chronicles 13:3",
            "text": "And let us bring again the ark of our God to us: for we inquired not at it in the days of Saul."
        },
        {
            "chapter": 13,
            "verse": 4,
            "name": "1 Chronicles 13:4",
            "text": "And all the congregation said that they would do so: for the thing was right in the eyes of all the people."
        },
        {
            "chapter": 13,
            "verse": 5,
            "name": "1 Chronicles 13:5",
            "text": "So David gathered all Israel together, from Shihor of Egypt even unto the entering of Hemath, to bring the ark of God from Kirjathjearim."
        },
        {
            "chapter": 13,
            "verse": 6,
            "name": "1 Chronicles 13:6",
            "text": "And David went up, and all Israel, to Baalah, that is, to Kirjathjearim, which belonged to Judah, to bring up thence the ark of God the Lord, that dwelleth between the cherubims, whose name is called on it."
        },
        {
            "chapter": 13,
            "verse": 7,
            "name": "1 Chronicles 13:7",
            "text": "And they carried the ark of God in a new cart out of the house of Abinadab: and Uzza and Ahio drave the cart."
        },
        {
            "chapter": 13,
            "verse": 8,
            "name": "1 Chronicles 13:8",
            "text": "And David and all Israel played before God with all their might, and with singing, and with harps, and with psalteries, and with timbrels, and with cymbals, and with trumpets."
        },
        {
            "chapter": 13,
            "verse": 9,
            "name": "1 Chronicles 13:9",
            "text": "And when they came unto the threshingfloor of Chidon, Uzza put forth his hand to hold the ark; for the oxen stumbled."
        },
        {
            "chapter": 13,
            "verse": 10,
            "name": "1 Chronicles 13:10",
            "text": "And the anger of the Lord was kindled against Uzza, and he smote him, because he put his hand to the ark: and there he died before God."
        },
        {
            "chapter": 13,
            "verse": 11,
            "name": "1 Chronicles 13:11",
            "text": "And David was displeased, because the Lord had made a breach upon Uzza: wherefore that place is called Perezuzza to this day."
        },
        {
            "chapter": 13,
            "verse": 12,
            "name": "1 Chronicles 13:12",
            "text": "And David was afraid of God that day, saying, How shall I bring the ark of God home to me?"
        },
        {
            "chapter": 13,
            "verse": 13,
            "name": "1 Chronicles 13:13",
            "text": "So David brought not the ark home to himself to the city of David, but carried it aside into the house of Obededom the Gittite."
        },
        {
            "chapter": 13,
            "verse": 14,
            "name": "1 Chronicles 13:14",
            "text": "And the ark of God remained with the family of Obededom in his house three months. And the Lord blessed the house of Obededom, and all that he had.  "
        }
    ]
}