{
    "translation": "Oja\u010dano Sveto pismo (Ps + Gal)",
    "abbreviation": "sloojacano",
    "lang": "sl",
    "language": "Slovene",
    "direction": "LTR",
    "encoding": "UTF-8",
    "book_nr": 17,
    "book_name": "Esther",
    "chapter": 4,
    "name": "Esther 4",
    "verses": [
        {
            "chapter": 4,
            "verse": 1,
            "name": "Esther 4:1",
            "text": ""
        },
        {
            "chapter": 4,
            "verse": 2,
            "name": "Esther 4:2",
            "text": ""
        },
        {
            "chapter": 4,
            "verse": 3,
            "name": "Esther 4:3",
            "text": ""
        },
        {
            "chapter": 4,
            "verse": 4,
            "name": "Esther 4:4",
            "text": ""
        },
        {
            "chapter": 4,
            "verse": 5,
            "name": "Esther 4:5",
            "text": ""
        },
        {
            "chapter": 4,
            "verse": 6,
            "name": "Esther 4:6",
            "text": ""
        },
        {
            "chapter": 4,
            "verse": 7,
            "name": "Esther 4:7",
            "text": ""
        },
        {
            "chapter": 4,
            "verse": 8,
            "name": "Esther 4:8",
            "text": ""
        },
        {
            "chapter": 4,
            "verse": 9,
            "name": "Esther 4:9",
            "text": ""
        },
        {
            "chapter": 4,
            "verse": 10,
            "name": "Esther 4:10",
            "text": ""
        },
        {
            "chapter": 4,
            "verse": 11,
            "name": "Esther 4:11",
            "text": ""
        },
        {
            "chapter": 4,
            "verse": 12,
            "name": "Esther 4:12",
            "text": ""
        },
        {
            "chapter": 4,
            "verse": 13,
            "name": "Esther 4:13",
            "text": ""
        },
        {
            "chapter": 4,
            "verse": 14,
            "name": "Esther 4:14",
            "text": ""
        },
        {
            "chapter": 4,
            "verse": 15,
            "name": "Esther 4:15",
            "text": ""
        },
        {
            "chapter": 4,
            "verse": 16,
            "name": "Esther 4:16",
            "text": ""
        },
        {
            "chapter": 4,
            "verse": 17,
            "name": "Esther 4:17",
            "text": ""
        }
    ]
}