{
    "translation": "B\u00edblia Livre",
    "abbreviation": "porblivre",
    "lang": "pt",
    "language": "Portuguese",
    "direction": "LTR",
    "encoding": "UTF-8",
    "book_nr": 52,
    "book_name": "1 Thessalonians",
    "chapter": 3,
    "name": "1 Thessalonians 3",
    "verses": [
        {
            "chapter": 3,
            "verse": 1,
            "name": "1 Thessalonians 3:1",
            "text": "Por isso, como n\u00e3o pod\u00edamos mais suportar, decidimos ficar sozinhos em Atenas, "
        },
        {
            "chapter": 3,
            "verse": 2,
            "name": "1 Thessalonians 3:2",
            "text": "e enviamos Tim\u00f3teo, nosso irm\u00e3o e cooperador de Deus  no Evangelho de Cristo, para vos fortalecer e vos encorajar quanto a vossa f\u00e9; "
        },
        {
            "chapter": 3,
            "verse": 3,
            "name": "1 Thessalonians 3:3",
            "text": "a fim de que ningu\u00e9m se abale por essas afli\u00e7\u00f5es; pois v\u00f3s mesmos sabeis que para isso fomos destinados.  "
        },
        {
            "chapter": 3,
            "verse": 4,
            "name": "1 Thessalonians 3:4",
            "text": "Pois quando ainda est\u00e1vamos convosco v\u00f3s diz\u00edamos com anteced\u00eancia que ser\u00edamos afligidos, como aconteceu, e v\u00f3s sabeis. "
        },
        {
            "chapter": 3,
            "verse": 5,
            "name": "1 Thessalonians 3:5",
            "text": "Por isso, como n\u00e3o podia mais suportar, eu o enviei para saber de vossa f\u00e9. Eu temia que o tentador houvesse vos tentado, e o nosso trabalho houvesse sido in\u00fatil. "
        },
        {
            "chapter": 3,
            "verse": 6,
            "name": "1 Thessalonians 3:6",
            "text": "Mas agora, depois que Tim\u00f3teo voltou a n\u00f3s da vossa presen\u00e7a, e nos trouxe boas not\u00edcias da vossa f\u00e9 e amor, e de como sempre tendes boa lembran\u00e7a de n\u00f3s, e desejais muito nos ver, como tamb\u00e9m n\u00f3s a v\u00f3s; "
        },
        {
            "chapter": 3,
            "verse": 7,
            "name": "1 Thessalonians 3:7",
            "text": "por isso, irm\u00e3os, ficamos consolados acerca de v\u00f3s em toda a nossa necessidade e afli\u00e7\u00e3o, pela vossa f\u00e9. "
        },
        {
            "chapter": 3,
            "verse": 8,
            "name": "1 Thessalonians 3:8",
            "text": "Pois agora vivemos, se v\u00f3s estais firmes no Senhor. "
        },
        {
            "chapter": 3,
            "verse": 9,
            "name": "1 Thessalonians 3:9",
            "text": "Pois como agradecemos a Deus por v\u00f3s, por toda a alegria com que nos alegramos por vossa causa, diante do nosso Deus! "
        },
        {
            "chapter": 3,
            "verse": 10,
            "name": "1 Thessalonians 3:10",
            "text": "E de noite e de dia com extrema intensidade oramos para que possamos ver o vosso rosto, e supramos o que falta na vossa f\u00e9. "
        },
        {
            "chapter": 3,
            "verse": 11,
            "name": "1 Thessalonians 3:11",
            "text": "E que o mesmo Deus, nosso Pai, e o nosso Senhor Jesus, preparem o nosso caminho at\u00e9 v\u00f3s. "
        },
        {
            "chapter": 3,
            "verse": 12,
            "name": "1 Thessalonians 3:12",
            "text": "E o Senhor vos fa\u00e7a crescer e exceder em amor uns pelos outros, e por todos, \u00e0 semelhan\u00e7a de n\u00f3s por v\u00f3s; "
        },
        {
            "chapter": 3,
            "verse": 13,
            "name": "1 Thessalonians 3:13",
            "text": "a fim de que fortale\u00e7a os vossos cora\u00e7\u00f5es, irrepreens\u00edveis em santidade diante do nosso Deus e Pai, na vinda do nosso Senhor Jesus com todos os seus santos. "
        }
    ]
}