{
    "translation": "Webster's Bible",
    "abbreviation": "wb",
    "lang": "en",
    "language": "English",
    "direction": "LTR",
    "encoding": "",
    "book_nr": 26,
    "book_name": "Ezekiel",
    "chapter": 1,
    "name": "Ezekiel 1",
    "verses": [
        {
            "chapter": 1,
            "verse": 1,
            "name": "Ezekiel 1:1",
            "text": "Now it came to pass in the thirtieth year, in the fourth [month], in the fifth [day] of the month, as I [was] among the captives by the river of Kebar, [that] the heavens were opened, and I saw visions of God."
        },
        {
            "chapter": 1,
            "verse": 2,
            "name": "Ezekiel 1:2",
            "text": "In the fifth [day] of the month, which [was] the fifth year of king Jehoiachin's captivity,"
        },
        {
            "chapter": 1,
            "verse": 3,
            "name": "Ezekiel 1:3",
            "text": "The word of the LORD came expressly to Ezekiel the priest, the son of Buzi, in the land of the Chaldeans by the river Kebar; and the hand of the LORD was there upon him."
        },
        {
            "chapter": 1,
            "verse": 4,
            "name": "Ezekiel 1:4",
            "text": "And I looked, and behold, a whirlwind came out of the north, a great cloud, and a fire infolding itself, and a brightness [was] about it, and from the midst of it as the color of amber, from the midst of the fire."
        },
        {
            "chapter": 1,
            "verse": 5,
            "name": "Ezekiel 1:5",
            "text": "Also from the midst of it [came] the likeness of four living creatures. And this [was] their appearance; they had the likeness of a man."
        },
        {
            "chapter": 1,
            "verse": 6,
            "name": "Ezekiel 1:6",
            "text": "And every one had four faces, and every one had four wings."
        },
        {
            "chapter": 1,
            "verse": 7,
            "name": "Ezekiel 1:7",
            "text": "And their feet [were] straight feet; and the sole of their feet [was] like the sole of a calf's foot: and they sparkled like the color of burnished brass."
        },
        {
            "chapter": 1,
            "verse": 8,
            "name": "Ezekiel 1:8",
            "text": "And [they had] the hands of a man under their wings on their four sides; and they four had their faces and their wings."
        },
        {
            "chapter": 1,
            "verse": 9,
            "name": "Ezekiel 1:9",
            "text": "Their wings [were] joined one to another; they turned not when they went; they went every one straight forward."
        },
        {
            "chapter": 1,
            "verse": 10,
            "name": "Ezekiel 1:10",
            "text": "As for the likeness of their faces, they four had the face of a man and the face of a lion, on the right side: and they four had the face of an ox on the left side; they four also had the face of an eagle."
        },
        {
            "chapter": 1,
            "verse": 11,
            "name": "Ezekiel 1:11",
            "text": "Thus [were] their faces: and their wings [were] stretched upward; two [wings] of every one [were] joined one to another, and two covered their bodies."
        },
        {
            "chapter": 1,
            "verse": 12,
            "name": "Ezekiel 1:12",
            "text": "And they went every one straight forward: whither the spirit was to go, they went; [and] they turned not when they went."
        },
        {
            "chapter": 1,
            "verse": 13,
            "name": "Ezekiel 1:13",
            "text": "As for the likeness of the living creatures, their appearance [was] like burning coals of fire, [and] like the appearance of lamps: it went up and down among the living creatures; and the fire was bright, and out of the fire went forth lightning."
        },
        {
            "chapter": 1,
            "verse": 14,
            "name": "Ezekiel 1:14",
            "text": "And the living creatures ran and returned as the appearance of a flash of lightning."
        },
        {
            "chapter": 1,
            "verse": 15,
            "name": "Ezekiel 1:15",
            "text": "Now as I beheld the living creatures, behold one wheel upon the earth by the living creatures, with his four faces."
        },
        {
            "chapter": 1,
            "verse": 16,
            "name": "Ezekiel 1:16",
            "text": "The appearance of the wheels and their work [was] like the color of a beryl: and they four had one likeness: and their appearance and their work [was] as it were a wheel in the middle of a wheel."
        },
        {
            "chapter": 1,
            "verse": 17,
            "name": "Ezekiel 1:17",
            "text": "When they went, they went upon their four sides: [and] they returned not when they went."
        },
        {
            "chapter": 1,
            "verse": 18,
            "name": "Ezekiel 1:18",
            "text": "As for their rings, they were so high that they were dreadful; and their rings [were] full of eyes around them four."
        },
        {
            "chapter": 1,
            "verse": 19,
            "name": "Ezekiel 1:19",
            "text": "And when the living creatures went, the wheels went by them: and when the living creatures were lifted up from the earth, the wheels were lifted up."
        },
        {
            "chapter": 1,
            "verse": 20,
            "name": "Ezekiel 1:20",
            "text": "Whithersoever the spirit was to go, they went, thither [was their] spirit to go; and the wheels were lifted up over against them: for the spirit of the living creature [was] in the wheels."
        },
        {
            "chapter": 1,
            "verse": 21,
            "name": "Ezekiel 1:21",
            "text": "When those went, [these] went; and when those stood, [these] stood; and when those were lifted up from the earth, the wheels were lifted up over against them: for the spirit of the living creature [was] in the wheels."
        },
        {
            "chapter": 1,
            "verse": 22,
            "name": "Ezekiel 1:22",
            "text": "And the likeness of the firmament upon the heads of the living creature [was] as the color of the terrible crystal, stretched forth over their heads above."
        },
        {
            "chapter": 1,
            "verse": 23,
            "name": "Ezekiel 1:23",
            "text": "And under the firmament [were] their wings straight, the one towards the other: every one had two, which covered on this side, and every one had two, which covered on that side, their bodies."
        },
        {
            "chapter": 1,
            "verse": 24,
            "name": "Ezekiel 1:24",
            "text": "And when they went, I heard the noise of their wings, like the noise of great waters, as the voice of the Almighty, the voice of speech, as the noise of a host: when they stood, they let down their wings."
        },
        {
            "chapter": 1,
            "verse": 25,
            "name": "Ezekiel 1:25",
            "text": "And there was a voice from the firmament that [was] over their heads, when they stood, [and] had let down their wings."
        },
        {
            "chapter": 1,
            "verse": 26,
            "name": "Ezekiel 1:26",
            "text": "And above the firmament that [was] over their heads [was] the likeness of a throne, as the appearance of a sapphire stone: and upon the likeness of the throne [was] the likeness as the appearance of a man above upon it."
        },
        {
            "chapter": 1,
            "verse": 27,
            "name": "Ezekiel 1:27",
            "text": "And I saw as the color of amber, as the appearance of fire around within it, from the appearance of his loins even upward, and from the appearance of his loins even downward, I saw as it were the appearance of fire, and it had brightness on all sides."
        },
        {
            "chapter": 1,
            "verse": 28,
            "name": "Ezekiel 1:28",
            "text": "As the appearance of the bow that is in the cloud in the day of rain, so [was] the appearance of the brightness around. This [was] the appearance of the likeness of the glory of the LORD. And when I saw [it], I fell upon my face, and I heard a voice of one speaking."
        }
    ]
}