{
    "translation": "King James Version: Pure Cambridge Edition",
    "abbreviation": "kjvpce",
    "lang": "en",
    "language": "English",
    "direction": "LTR",
    "encoding": "UTF-8",
    "book_nr": 18,
    "book_name": "Job",
    "chapter": 14,
    "name": "Job 14",
    "verses": [
        {
            "chapter": 14,
            "verse": 1,
            "name": "Job 14:1",
            "text": "Man that is born of a woman is of few days, and full of trouble."
        },
        {
            "chapter": 14,
            "verse": 2,
            "name": "Job 14:2",
            "text": "He cometh forth like a flower, and is cut down: he fleeth also as a shadow, and continueth not."
        },
        {
            "chapter": 14,
            "verse": 3,
            "name": "Job 14:3",
            "text": "And dost thou open thine eyes upon such an one, and bringest me into judgment with thee?"
        },
        {
            "chapter": 14,
            "verse": 4,
            "name": "Job 14:4",
            "text": "Who can bring a clean thing out of an unclean? not one."
        },
        {
            "chapter": 14,
            "verse": 5,
            "name": "Job 14:5",
            "text": "Seeing his days are determined, the number of his months are with thee, thou hast appointed his bounds that he cannot pass;"
        },
        {
            "chapter": 14,
            "verse": 6,
            "name": "Job 14:6",
            "text": "Turn from him, that he may rest, till he shall accomplish, as an hireling, his day."
        },
        {
            "chapter": 14,
            "verse": 7,
            "name": "Job 14:7",
            "text": "For there is hope of a tree, if it be cut down, that it will sprout again, and that the tender branch thereof will not cease."
        },
        {
            "chapter": 14,
            "verse": 8,
            "name": "Job 14:8",
            "text": "Though the root thereof wax old in the earth, and the stock thereof die in the ground;"
        },
        {
            "chapter": 14,
            "verse": 9,
            "name": "Job 14:9",
            "text": "Yet through the scent of water it will bud, and bring forth boughs like a plant."
        },
        {
            "chapter": 14,
            "verse": 10,
            "name": "Job 14:10",
            "text": "But man dieth, and wasteth away: yea, man giveth up the ghost, and where is he?"
        },
        {
            "chapter": 14,
            "verse": 11,
            "name": "Job 14:11",
            "text": "As the waters fail from the sea, and the flood decayeth and drieth up:"
        },
        {
            "chapter": 14,
            "verse": 12,
            "name": "Job 14:12",
            "text": "So man lieth down, and riseth not: till the heavens be no more, they shall not awake, nor be raised out of their sleep."
        },
        {
            "chapter": 14,
            "verse": 13,
            "name": "Job 14:13",
            "text": "O that thou wouldest hide me in the grave, that thou wouldest keep me secret, until thy wrath be past, that thou wouldest appoint me a set time, and remember me!"
        },
        {
            "chapter": 14,
            "verse": 14,
            "name": "Job 14:14",
            "text": "If a man die, shall he live again? all the days of my appointed time will I wait, till my change come."
        },
        {
            "chapter": 14,
            "verse": 15,
            "name": "Job 14:15",
            "text": "Thou shalt call, and I will answer thee: thou wilt have a desire to the work of thine hands."
        },
        {
            "chapter": 14,
            "verse": 16,
            "name": "Job 14:16",
            "text": "For now thou numberest my steps: dost thou not watch over my sin?"
        },
        {
            "chapter": 14,
            "verse": 17,
            "name": "Job 14:17",
            "text": "My transgression is sealed up in a bag, and thou sewest up mine iniquity."
        },
        {
            "chapter": 14,
            "verse": 18,
            "name": "Job 14:18",
            "text": "And surely the mountain falling cometh to nought, and the rock is removed out of his place."
        },
        {
            "chapter": 14,
            "verse": 19,
            "name": "Job 14:19",
            "text": "The waters wear the stones: thou washest away the things which grow out of the dust of the earth; and thou destroyest the hope of man."
        },
        {
            "chapter": 14,
            "verse": 20,
            "name": "Job 14:20",
            "text": "Thou prevailest for ever against him, and he passeth: thou changest his countenance, and sendest him away."
        },
        {
            "chapter": 14,
            "verse": 21,
            "name": "Job 14:21",
            "text": "His sons come to honour, and he knoweth it not; and they are brought low, but he perceiveth it not of them."
        },
        {
            "chapter": 14,
            "verse": 22,
            "name": "Job 14:22",
            "text": "But his flesh upon him shall have pain, and his soul within him shall mourn.  "
        }
    ]
}