{
    "translation": "\u041a\u0438\u0435\u043b\u0456 \u043a\u0456\u0442\u0430\u043f",
    "abbreviation": "kaz",
    "lang": "kk",
    "language": "Kazakh",
    "direction": "RTL",
    "encoding": "UTF-8",
    "book_nr": 52,
    "book_name": "1 Thessalonians",
    "chapter": 4,
    "name": "1 Thessalonians 4",
    "verses": [
        {
            "chapter": 4,
            "verse": 1,
            "name": "1 Thessalonians 4:1",
            "text": "\u0422\u0430\u0493\u044b \u0434\u0430, \u049b\u044b\u043c\u0431\u0430\u0442\u0442\u044b \u0431\u0430\u0443\u044b\u0440\u043b\u0430\u0441\u0442\u0430\u0440, \u049a\u04b1\u0434\u0430\u0439\u0493\u0430 \u04b1\u043d\u0430\u0443 \u04af\u0448\u0456\u043d \u049b\u0430\u043b\u0430\u0439 \u04e9\u043c\u0456\u0440 \u0441\u04af\u0440\u0443 \u043a\u0435\u0440\u0435\u043a \u0435\u043a\u0435\u043d\u0456\u043d \u0431\u0456\u0437\u0434\u0435\u043d \u04af\u0439\u0440\u0435\u043d\u0434\u0456\u04a3\u0434\u0435\u0440, \u0441\u043e\u043b\u0430\u0439 \u04e9\u043c\u0456\u0440 \u0441\u04af\u0440\u0456\u043f \u043a\u0435\u043b\u0435 \u0436\u0430\u0442\u044b\u0440\u0441\u044b\u04a3\u0434\u0430\u0440 \u0434\u0430. \u041e\u0441\u044b \u0436\u043e\u043b\u043c\u0435\u043d \u0430\u043b\u0493\u0430 \u0431\u0430\u0441\u0430 \u0431\u0435\u0440\u0456\u04a3\u0434\u0435\u0440 \u0434\u0435\u043f \u0418\u0435\u043c\u0456\u0437 \u0418\u0441\u0430\u043d\u044b\u04a3 \u0430\u0442\u044b\u043d\u0430\u043d \u0435\u0441\u043a\u0435\u0440\u0442\u0456\u043f, \u04e9\u0442\u0456\u043d\u0435\u043c\u0456\u0437."
        },
        {
            "chapter": 4,
            "verse": 2,
            "name": "1 Thessalonians 4:2",
            "text": "\u0421\u0435\u043d\u0434\u0435\u0440\u0433\u0435 \u0418\u0435\u043c\u0456\u0437 \u0418\u0441\u0430\u043d\u044b\u04a3 \u0435\u0440\u043a\u0456\u043c\u0435\u043d \u049b\u0430\u043d\u0434\u0430\u0439 \u043d\u04b1\u0441\u049b\u0430\u0443\u043b\u0430\u0440 \u0431\u0435\u0440\u0433\u0435\u043d\u0456\u043c\u0456\u0437\u0434\u0456 \u0431\u0456\u043b\u0435\u0441\u0456\u04a3\u0434\u0435\u0440."
        },
        {
            "chapter": 4,
            "verse": 3,
            "name": "1 Thessalonians 4:3",
            "text": "\u049a\u04b1\u0434\u0430\u0439 \u0441\u0435\u043d\u0434\u0435\u0440\u0434\u0456\u04a3 \u04e8\u0437\u0456\u043d\u0435 \u0431\u0430\u0493\u044b\u0448\u0442\u0430\u043b\u044b\u043f \u049b\u0430\u0441\u0438\u0435\u0442\u0442\u0456 \u04e9\u043c\u0456\u0440 \u0441\u04af\u0440\u0433\u0435\u043d\u0434\u0435\u0440\u0456\u04a3\u0434\u0456 \u049b\u0430\u043b\u0430\u0439\u0434\u044b. \u0411\u04b1\u043b \u0430\u0437\u0493\u044b\u043d\u0434\u044b\u049b\u0442\u0430\u043d \u0430\u0443\u043b\u0430\u049b \u0436\u04af\u0440\u0443\u043b\u0435\u0440\u0456\u04a3\u0434\u0456 \u0434\u0435 \u0431\u0456\u043b\u0434\u0456\u0440\u0435\u0434\u0456:"
        },
        {
            "chapter": 4,
            "verse": 4,
            "name": "1 Thessalonians 4:4",
            "text": "\u04d9\u0440\u043a\u0456\u043c \u04e9\u0437 \u0434\u0435\u043d\u0435\u0441\u0456\u043d \u049b\u0430\u0441\u0438\u0435\u0442\u0442\u0456\u043b\u0456\u043a\u043f\u0435\u043d \u04d9\u0440\u0456 \u049b\u04b1\u0440\u043c\u0435\u0442\u043f\u0435\u043d \u043a\u04af\u0442\u0435 \u0431\u0456\u043b\u0441\u0456\u043d!"
        },
        {
            "chapter": 4,
            "verse": 5,
            "name": "1 Thessalonians 4:5",
            "text": "\u049a\u04b1\u0434\u0430\u0439\u0434\u044b \u0442\u0430\u043d\u044b\u043c\u0430\u0439\u0442\u044b\u043d \u04b1\u043b\u0442\u0442\u0430\u0440\u0493\u0430 \u04b1\u049b\u0441\u0430\u043f \u043a\u04af\u043d\u04d9\u043b\u0456 \u049b\u04b1\u043c\u0430\u0440\u043b\u044b\u049b\u0442\u0430\u0440\u0493\u0430 \u0441\u0430\u043b\u044b\u043d\u0431\u0430\u04a3\u0434\u0430\u0440,"
        },
        {
            "chapter": 4,
            "verse": 6,
            "name": "1 Thessalonians 4:6",
            "text": "\u0435\u0448\u049b\u0430\u0439\u0441\u044b\u04a3 \u0434\u0430 \u0437\u0430\u04a3\u0434\u044b \u0430\u0442\u0442\u0430\u043f, \u043f\u0430\u0439\u0434\u0430\u043a\u04af\u043d\u0435\u043c\u0434\u0456\u043a\u043f\u0435\u043d \u0431\u0430\u0443\u044b\u0440\u043b\u0430\u0441\u0442\u0430\u0440\u044b\u04a3\u0434\u044b \u0430\u043b\u0434\u0430\u043f \u043a\u0435\u0442\u043f\u0435\u04a3\u0434\u0435\u0440! \u0421\u0435\u043d\u0434\u0435\u0440\u0433\u0435 \u0431\u04b1\u0440\u044b\u043d\u044b\u0440\u0430\u049b \u0435\u0441\u043a\u0435\u0440\u0442\u043a\u0435\u043d\u0456\u043c\u0456\u0437\u0434\u0435\u0439, \u0418\u0435\u043c\u0456\u0437 \u043c\u04b1\u043d\u0434\u0430\u0439 \u043a\u04af\u043d\u04d9\u043b\u0430\u0440\u0434\u044b\u04a3 \u0431\u04d9\u0440\u0456\u043d\u0456\u04a3 \u0436\u0430\u0437\u0430\u0441\u044b\u043d \u0431\u0435\u0440\u0435\u0434\u0456!"
        },
        {
            "chapter": 4,
            "verse": 7,
            "name": "1 Thessalonians 4:7",
            "text": "\u049a\u04b1\u0434\u0430\u0439 \u0431\u0456\u0437\u0434\u0456 \u0430\u0437\u0493\u044b\u043d \u0435\u043c\u0435\u0441, \u041e\u0493\u0430\u043d \u0431\u0430\u0493\u044b\u0448\u0442\u0430\u043b\u0493\u0430\u043d \u049b\u0430\u0441\u0438\u0435\u0442\u0442\u0456 \u04e9\u043c\u0456\u0440 \u0441\u04af\u0440\u0443\u0433\u0435 \u0448\u0430\u049b\u044b\u0440\u0434\u044b."
        },
        {
            "chapter": 4,
            "verse": 8,
            "name": "1 Thessalonians 4:8",
            "text": "\u0411\u04b1\u0493\u0430\u043d \u0431\u0430\u0493\u044b\u043d\u0431\u0430\u0439\u0442\u044b\u043d \u043a\u0456\u0441\u0456 \u0430\u0434\u0430\u043c\u0493\u0430 \u0435\u043c\u0435\u0441, \u049a\u04b1\u0434\u0430\u0439\u0493\u0430 \u049b\u0430\u0440\u0441\u044b \u0442\u04b1\u0440\u0430\u0434\u044b. \u041e\u043b \u0441\u0435\u043d\u0434\u0435\u0440\u0433\u0435 \u04e8\u0437\u0456\u043d\u0456\u04a3 \u041a\u0438\u0435\u043b\u0456 \u0420\u0443\u0445\u044b\u043d \u0431\u0435\u0440\u0434\u0456 \u0493\u043e\u0439."
        },
        {
            "chapter": 4,
            "verse": 9,
            "name": "1 Thessalonians 4:9",
            "text": "\u0411\u0430\u0443\u044b\u0440\u043b\u0430\u0441\u0442\u0430\u0440\u0493\u0430 \u0434\u0435\u0433\u0435\u043d \u0441\u04af\u0439\u0456\u0441\u043f\u0435\u043d\u0448\u0456\u043b\u0456\u043a \u0442\u0443\u0440\u0430\u043b\u044b \u043c\u0435\u043d \u0436\u0430\u0437\u0431\u0430\u0439-\u0430\u049b \u049b\u043e\u044f\u0439\u044b\u043d, \u0431\u0456\u0440-\u0431\u0456\u0440\u0456\u04a3\u0434\u0456 \u0441\u04af\u044e\u0434\u0456 \u049a\u04b1\u0434\u0430\u0439\u0434\u044b\u04a3 \u04e8\u0437\u0456 \u04af\u0439\u0440\u0435\u0442\u0442\u0456 \u0493\u043e\u0439."
        },
        {
            "chapter": 4,
            "verse": 10,
            "name": "1 Thessalonians 4:10",
            "text": "\u041e\u043d\u044b \u0431\u04af\u043a\u0456\u043b \u041c\u0430\u043a\u0435\u0434\u043e\u043d\u0438\u044f\u0434\u0430\u0493\u044b \u0431\u0430\u0443\u044b\u0440\u043b\u0430\u0441\u0442\u0430\u0440\u044b\u04a3\u0430 \u0456\u0441 \u0436\u04af\u0437\u0456\u043d\u0434\u0435 \u043a\u04e9\u0440\u0441\u0435\u0442\u0456\u043f \u0436\u04af\u0440\u0441\u0456\u04a3\u0434\u0435\u0440. \u0411\u04b1\u0434\u0430\u043d \u0431\u044b\u043b\u0430\u0439 \u0434\u0430 \u043e\u0441\u044b \u0436\u04e9\u043d\u0456\u043d\u0434\u0435 \u0430\u043b\u0493\u0430 \u0431\u0430\u0441\u0430 \u0431\u0435\u0440\u0443\u043b\u0435\u0440\u0456\u04a3\u0434\u0456 \u0442\u0456\u043b\u0435\u0439\u043c\u0456\u0437."
        },
        {
            "chapter": 4,
            "verse": 11,
            "name": "1 Thessalonians 4:11",
            "text": "\u0411\u0456\u0440\u049b\u0430\u043b\u044b\u043f\u0442\u044b \u04e9\u043c\u0456\u0440 \u0441\u04af\u0440\u0443\u0434\u0456 \u049b\u04b1\u0440\u043c\u0435\u0442\u0442\u0456 \u0456\u0441 \u0434\u0435\u043f \u0431\u0456\u043b\u0456\u04a3\u0434\u0435\u0440. \u0411\u0456\u0437 \u0441\u0435\u043d\u0434\u0435\u0440\u0433\u0435 \u043d\u04b1\u0441\u049b\u0430\u0443 \u0431\u0435\u0440\u0433\u0435\u043d\u0434\u0435\u0439, \u043c\u0456\u043d\u0434\u0435\u0442\u0442\u0435\u0440\u0456\u04a3\u0434\u0456 \u0430\u0442\u049b\u0430\u0440\u044b\u043f, \u04e9\u0437 \u049b\u043e\u043b\u0434\u0430\u0440\u044b\u04a3\u043c\u0435\u043d \u0435\u04a3\u0431\u0435\u043a \u0435\u0442\u0456\u043f \u043a\u04af\u043d\u0434\u0435\u0440\u0456\u04a3\u0434\u0456 \u043a\u04e9\u0440\u0456\u04a3\u0434\u0435\u0440."
        },
        {
            "chapter": 4,
            "verse": 12,
            "name": "1 Thessalonians 4:12",
            "text": "\u0421\u04e9\u0439\u0442\u0456\u043f \u049b\u0430\u0443\u044b\u043c\u043d\u0430\u043d \u0442\u044b\u0441 \u0430\u0434\u0430\u043c\u0434\u0430\u0440\u0434\u044b\u04a3 \u0430\u043b\u0434\u044b\u043d\u0434\u0430 \u04d9\u0434\u0435\u043f\u0442\u0456 \u0436\u04af\u0440\u0456\u043f, \u0435\u0448 \u043d\u04d9\u0440\u0441\u0435\u0434\u0435\u043d \u043c\u04b1\u049b\u0442\u0430\u0436 \u0431\u043e\u043b\u043c\u0430\u04a3\u0434\u0430\u0440."
        },
        {
            "chapter": 4,
            "verse": 13,
            "name": "1 Thessalonians 4:13",
            "text": "\u049a\u044b\u043c\u0431\u0430\u0442\u0442\u044b \u0431\u0430\u0443\u044b\u0440\u043b\u0430\u0441\u0442\u0430\u0440, \u04af\u043c\u0456\u0442\u0456 \u04af\u0437\u0456\u043b\u0433\u0435\u043d \u0431\u0430\u0441\u049b\u0430\u043b\u0430\u0440 \u0441\u0438\u044f\u049b\u0442\u044b \u049b\u0430\u0439\u0493\u044b\u0440\u043c\u0430\u0443\u043b\u0430\u0440\u044b\u04a3 \u04af\u0448\u0456\u043d \u0441\u0435\u043d\u0434\u0435\u0440\u0434\u0456 \u0431\u04b1 \u0434\u04af\u043d\u0438\u0435\u0434\u0435\u043d \u049b\u0430\u0439\u0442\u049b\u0430\u043d \u0441\u0435\u043d\u0443\u0448\u0456\u043b\u0435\u0440\u0434\u0456\u04a3 \u0436\u0430\u0493\u0434\u0430\u0439\u044b \u0442\u0443\u0440\u0430\u043b\u044b \u0445\u0430\u0431\u0430\u0440\u0441\u044b\u0437 \u049b\u0430\u043b\u0434\u044b\u0440\u043c\u0430\u0439\u043c\u044b\u0437."
        },
        {
            "chapter": 4,
            "verse": 14,
            "name": "1 Thessalonians 4:14",
            "text": "\u0418\u0441\u0430\u043d\u044b\u04a3 \u04e9\u043b\u0456\u043f, \u049b\u0430\u0439\u0442\u0430 \u0442\u0456\u0440\u0456\u043b\u0433\u0435\u043d\u0434\u0456\u0433\u0456\u043d\u0435 \u043a\u04d9\u043c\u0456\u043b \u0441\u0435\u043d\u0435\u043c\u0456\u0437 \u0493\u043e\u0439. \u0421\u043e\u043d\u0434\u044b\u049b\u0442\u0430\u043d \u041e\u0493\u0430\u043d \u0441\u0435\u043d\u0456\u043f \u0431\u04b1 \u0434\u04af\u043d\u0438\u0435\u0434\u0435\u043d \u043a\u0435\u0442\u043a\u0435\u043d\u0434\u0435\u0440\u0434\u0456\u04a3 \u0418\u0441\u0430\u043c\u0435\u043d \u0431\u0456\u0440\u0433\u0435 \u0431\u043e\u043b\u0443\u043b\u0430\u0440\u044b \u04af\u0448\u0456\u043d \u049a\u04b1\u0434\u0430\u0439\u0434\u044b\u04a3 \u043e\u043b\u0430\u0440\u0434\u044b \u049b\u0430\u0439\u0442\u0430 \u0442\u0456\u0440\u0456\u043b\u0442\u0435\u0442\u0456\u043d\u0456\u043d\u0435 \u0434\u0435 \u0441\u0435\u043d\u0435\u0439\u0456\u043a."
        },
        {
            "chapter": 4,
            "verse": 15,
            "name": "1 Thessalonians 4:15",
            "text": "\u0421\u0435\u0431\u0435\u0431\u0456 \u0431\u04b1\u043d\u044b \u0418\u0435\u043c\u0456\u0437\u0434\u0456\u04a3 \u04e9\u0437 \u0441\u04e9\u0437\u0456\u043d\u0435 \u0441\u04af\u0439\u0435\u043d\u0456\u043f \u0430\u0439\u0442\u0430\u043c\u044b\u0437: \u0418\u0435\u043c\u0456\u0437 \u0418\u0441\u0430 \u043a\u04e9\u043a\u0442\u0435\u043d \u049b\u0430\u0439\u0442\u044b\u043f \u043a\u0435\u043b\u0433\u0435\u043d \u043a\u0435\u0437\u0434\u0435 \u04d9\u043b\u0456 \u0442\u0456\u0440\u0456 \u0436\u04af\u0440\u0435\u0442\u0456\u043d \u0431\u0456\u0437\u0434\u0456\u04a3 \u04e9\u043b\u0456\u043f \u049b\u0430\u043b\u0493\u0430\u043d \u0431\u0430\u0443\u044b\u0440\u043b\u0430\u0441\u0442\u0430\u0440\u044b\u043c\u044b\u0437\u0434\u0430\u043d \u0435\u0448\u049b\u0430\u043d\u0434\u0430\u0439 \u0430\u0440\u0442\u044b\u049b\u0448\u044b\u043b\u044b\u0493\u044b\u043c\u044b\u0437 \u0431\u043e\u043b\u043c\u0430\u0439\u0434\u044b."
        },
        {
            "chapter": 4,
            "verse": 16,
            "name": "1 Thessalonians 4:16",
            "text": "\u04e8\u0439\u0442\u043a\u0435\u043d\u0456 \u0418\u0435\u043c\u0456\u0437\u0434\u0456\u04a3 \u04e8\u0437\u0456 \u043a\u04e9\u043a\u0442\u0435\u043d \u0442\u04af\u0441\u0456\u043f, \u0431\u04b1\u0439\u0440\u044b\u049b \u0431\u0435\u0440\u0435\u0434\u0456, \u04d9\u0440\u0456 \u0431\u0430\u0441 \u043f\u0435\u0440\u0456\u0448\u0442\u0435 \u0448\u0430\u049b\u044b\u0440\u044b\u043f, \u049a\u04b1\u0434\u0430\u0439\u0434\u044b\u04a3 \u043a\u0435\u0440\u043d\u0435\u0439\u0456 \u049b\u0430\u0442\u0442\u044b \u0434\u0430\u0443\u044b\u0441\u0442\u0430\u0439\u0434\u044b. \u0421\u043e\u043d\u0434\u0430 \u0435\u04a3 \u0430\u043b\u0434\u044b\u043c\u0435\u043d \u041c\u04d9\u0441\u0456\u0445\u043a\u0435 \u0441\u0435\u043d\u0456\u043f \u0431\u04b1 \u0434\u04af\u043d\u0438\u0435\u0434\u0435\u043d \u043a\u0435\u0442\u043a\u0435\u043d\u0434\u0435\u0440 \u049b\u0430\u0439\u0442\u0430 \u0442\u0456\u0440\u0456\u043b\u0435\u0434\u0456."
        },
        {
            "chapter": 4,
            "verse": 17,
            "name": "1 Thessalonians 4:17",
            "text": "\u0422\u0456\u0440\u0456 \u0436\u04af\u0440\u0433\u0435\u043d \u0431\u0456\u0437 \u043c\u04b1\u043d\u0430\u043d \u0441\u043e\u04a3 \u0441\u043e\u043b\u0430\u0440\u043c\u0435\u043d \u0431\u0456\u0440\u0433\u0435 \u0418\u0435\u043c\u0456\u0437\u0431\u0435\u043d \u043a\u0435\u0437\u0434\u0435\u0441\u0443 \u04af\u0448\u0456\u043d \u0431\u04b1\u043b\u0442\u0442\u044b\u04a3 \u04af\u0441\u0442\u0456\u043c\u0435\u043d \u043a\u04e9\u043a\u043a\u0435 \u043a\u04e9\u0442\u0435\u0440\u0456\u043b\u0435\u043c\u0456\u0437. \u0421\u043e\u0434\u0430\u043d \u043c\u04d9\u04a3\u0433\u0456 \u0431\u0430\u049b\u0438 \u0418\u0435\u043c\u0456\u0437\u0431\u0435\u043d \u0431\u0456\u0440\u0433\u0435 \u0431\u043e\u043b\u0430\u043c\u044b\u0437."
        },
        {
            "chapter": 4,
            "verse": 18,
            "name": "1 Thessalonians 4:18",
            "text": "\u0411\u0456\u0440-\u0431\u0456\u0440\u0456\u04a3\u0434\u0456 \u043e\u0441\u044b \u0441\u04e9\u0437\u0431\u0435\u043d \u0436\u04b1\u0431\u0430\u0442\u044b\u04a3\u0434\u0430\u0440! "
        }
    ]
}