{
    "translation": "The Peschito Syriac New Testament: Translated into English by John Wesley Etheridge",
    "abbreviation": "etheridge",
    "lang": "en",
    "language": "English",
    "direction": "LTR",
    "encoding": "UTF-8",
    "book_nr": 40,
    "book_name": "Matthew",
    "chapter": 14,
    "name": "Matthew 14",
    "verses": [
        {
            "chapter": 14,
            "verse": 1,
            "name": "Matthew 14:1",
            "text": "In that time Herodes Tetrarka heard the rumour concerning Jeshu; "
        },
        {
            "chapter": 14,
            "verse": 2,
            "name": "Matthew 14:2",
            "text": "and he said to his servants, This is Juchanon the Baptizer: he hath risen from the house of the dead, therefore powerful works are wrought by him. "
        },
        {
            "chapter": 14,
            "verse": 3,
            "name": "Matthew 14:3",
            "text": "For he, Herodes, had seized Juchanon, and bound him, and cast him (into) the house of the chained, because of Herodia the wife of Philip his brother. "
        },
        {
            "chapter": 14,
            "verse": 4,
            "name": "Matthew 14:4",
            "text": "for Juchanon had said to him, It is not lawful that she should be to thee a wife. "
        },
        {
            "chapter": 14,
            "verse": 5,
            "name": "Matthew 14:5",
            "text": "And he would have killed him, but he feared the people, because as a prophet they held him. "
        },
        {
            "chapter": 14,
            "verse": 6,
            "name": "Matthew 14:6",
            "text": "But at the birth-day of Herodes, the daughter of Herodia danced before those who reclined, and she pleased Herodes; "
        },
        {
            "chapter": 14,
            "verse": 7,
            "name": "Matthew 14:7",
            "text": "wherefore with an oath he sware to her to give her whatever she should demand. "
        },
        {
            "chapter": 14,
            "verse": 8,
            "name": "Matthew 14:8",
            "text": "Then she, because instructed by her mother, said, Give me here in a dish the head of Juchanon the Baptizer. "
        },
        {
            "chapter": 14,
            "verse": 9,
            "name": "Matthew 14:9",
            "text": "And the king sickened, yet, on account of the oath and the guests, he commanded that it should be given to her. "
        },
        {
            "chapter": 14,
            "verse": 10,
            "name": "Matthew 14:10",
            "text": "And he sent cut off the head of Juchanon in the house of the chained. "
        },
        {
            "chapter": 14,
            "verse": 11,
            "name": "Matthew 14:11",
            "text": "And his head was brought in a dish, and given to the girl, and she carried it herself to her mother. "
        },
        {
            "chapter": 14,
            "verse": 12,
            "name": "Matthew 14:12",
            "text": "And his disciples came near, took up his corpse, buried (it), and came and showed Jeshu. "
        },
        {
            "chapter": 14,
            "verse": 13,
            "name": "Matthew 14:13",
            "text": "Then Jeshu, when he heard, removed from thence by ship to a desert place by himself; and when the multitude heard it, they came after him on dry land from the cities. "
        },
        {
            "chapter": 14,
            "verse": 14,
            "name": "Matthew 14:14",
            "text": "And Jeshu came forth, and saw great multitudes, and felt compassion for them, and healed their diseases. "
        },
        {
            "chapter": 14,
            "verse": 15,
            "name": "Matthew 14:15",
            "text": "BUT when it was eventide, his disciples approached him, and said to him, The place is desert, and the time passed over; send away these multitudes of men, that they may go to the villages, and buy for themselves food. "
        },
        {
            "chapter": 14,
            "verse": 16,
            "name": "Matthew 14:16",
            "text": "But he said to them, It is not needful that they should go; give you them to eat. "
        },
        {
            "chapter": 14,
            "verse": 17,
            "name": "Matthew 14:17",
            "text": "They said to him, We have nothing here but five cakes and two fishes. "
        },
        {
            "chapter": 14,
            "verse": 18,
            "name": "Matthew 14:18",
            "text": "Jeshu said to them, Bring them hither to me. "
        },
        {
            "chapter": 14,
            "verse": 19,
            "name": "Matthew 14:19",
            "text": "And he directed the multitudes to recline upon the ground; and he took the five loaves and two fishes, and looked up to heaven, and blessed, and brake, and gave to his disciples, and the disciples themselves placed (it) before the multitudes. "
        },
        {
            "chapter": 14,
            "verse": 20,
            "name": "Matthew 14:20",
            "text": "And all did eat, and were satisfied; and they took up, of the abundance of the fragments, twelve baskets when full. "
        },
        {
            "chapter": 14,
            "verse": 21,
            "name": "Matthew 14:21",
            "text": "Now those men who had eaten were five thousand, besides women and children. "
        },
        {
            "chapter": 14,
            "verse": 22,
            "name": "Matthew 14:22",
            "text": "And immediately he constrained his disciples to ascend into the bark, and proceed before him to the other shore, while he was dismissing the crowds. "
        },
        {
            "chapter": 14,
            "verse": 23,
            "name": "Matthew 14:23",
            "text": "And when he had sent the multitudes away, he went up to a mountain by himself, to pray. AND when it was dark, he alone was there. "
        },
        {
            "chapter": 14,
            "verse": 24,
            "name": "Matthew 14:24",
            "text": "But the vessel was distant from the land many stadia, being greatly beaten with the waves, for the wind was against them. "
        },
        {
            "chapter": 14,
            "verse": 25,
            "name": "Matthew 14:25",
            "text": "But in the fourth watch of the night, Jeshu came to them, walking upon the waters. "
        },
        {
            "chapter": 14,
            "verse": 26,
            "name": "Matthew 14:26",
            "text": "And the disciples beheld him walking on the waters, and they were troubled, saying, That it was a spectre; and from fear they cried out. "
        },
        {
            "chapter": 14,
            "verse": 27,
            "name": "Matthew 14:27",
            "text": "But Jeshu at once spoke to them, and said, Take courage, I am, fear not! "
        },
        {
            "chapter": 14,
            "verse": 28,
            "name": "Matthew 14:28",
            "text": "And Kipha answered, and said to him, My Lord, if it be thou, command me to come to thee upon the waters. "
        },
        {
            "chapter": 14,
            "verse": 29,
            "name": "Matthew 14:29",
            "text": "Jeshu said to him, Come. And Kipha descended from the ship, and walked on the waters to go to Jeshu. "
        },
        {
            "chapter": 14,
            "verse": 30,
            "name": "Matthew 14:30",
            "text": "But when he saw the furious wind, he feared, and began to sink; and he lifted up his voice, and said, My Lord, deliver me! "
        },
        {
            "chapter": 14,
            "verse": 31,
            "name": "Matthew 14:31",
            "text": "And immediately our Lord reached forth his hand, and seized him, and said to him, Little of faith, why art thou divided (in mind)? "
        },
        {
            "chapter": 14,
            "verse": 32,
            "name": "Matthew 14:32",
            "text": "And when they had ascended into the ship, the wind was tranquil. "
        },
        {
            "chapter": 14,
            "verse": 33,
            "name": "Matthew 14:33",
            "text": "And they who were in the ship, came and adored him, and said, Truly the Son thou art of Aloha. "
        },
        {
            "chapter": 14,
            "verse": 34,
            "name": "Matthew 14:34",
            "text": "And they rowed, and came to the land of Gen\u00e9sar; "
        },
        {
            "chapter": 14,
            "verse": 35,
            "name": "Matthew 14:35",
            "text": "and the men of that country recognized him, and sent to all the villages that were about them, and they brought to him all those who were grievously afflicted, "
        },
        {
            "chapter": 14,
            "verse": 36,
            "name": "Matthew 14:36",
            "text": "and besought from him that they might touch only the border of his mantle; and those who touched were healed. "
        }
    ]
}