{
    "translation": "Sathyavedapusthakam (Malayalam Bible) published in 1910",
    "abbreviation": "mal1910",
    "lang": "ml",
    "language": "Malayalam",
    "direction": "RTL",
    "encoding": "UTF-8",
    "book_nr": 4,
    "book_name": "Numbers",
    "chapter": 36,
    "name": "Numbers 36",
    "verses": [
        {
            "chapter": 36,
            "verse": 1,
            "name": "Numbers 36:1",
            "text": "\u0d2f\u0d4b\u0d38\u0d47\u0d2b\u0d3f\u0d28\u0d4d\u0d31\u0d46 \u0d2e\u0d15\u0d4d\u0d15\u0d33\u0d41\u0d1f\u0d46 \u0d15\u0d41\u0d1f\u0d41\u0d02\u0d2c\u0d19\u0d4d\u0d19\u0d33\u0d3f\u0d7d \u0d2e\u0d28\u0d36\u0d4d\u0d36\u0d46\u0d2f\u0d41\u0d1f\u0d46 \u0d2e\u0d15\u0d28\u0d3e\u0d2f \u0d2e\u0d3e\u0d16\u0d40\u0d30\u0d3f\u0d28\u0d4d\u0d31\u0d46 \u0d2e\u0d15\u0d28\u0d3e\u0d2f \u0d17\u0d3f\u0d32\u0d46\u0d2f\u0d3e\u0d26\u0d3f\u0d28\u0d4d\u0d31\u0d46 \u0d2e\u0d15\u0d4d\u0d15\u0d33\u0d41\u0d1f\u0d46 \u0d15\u0d41\u0d1f\u0d41\u0d02\u0d2c\u0d24\u0d4d\u0d24\u0d32\u0d35\u0d28\u0d4d\u0d2e\u0d3e\u0d7c \u0d05\u0d1f\u0d41\u0d24\u0d4d\u0d24\u0d41\u0d35\u0d28\u0d4d\u0d28\u0d41 \u0d2e\u0d4b\u0d36\u0d46\u0d2f\u0d41\u0d1f\u0d46\u0d2f\u0d41\u0d02 \u0d2f\u0d3f\u0d38\u0d4d\u0d30\u0d3e\u0d2f\u0d47\u0d7d\u0d2e\u0d15\u0d4d\u0d15\u0d33\u0d41\u0d1f\u0d46 \u0d17\u0d4b\u0d24\u0d4d\u0d30\u0d2a\u0d4d\u0d30\u0d27\u0d3e\u0d28\u0d3f\u0d15\u0d33\u0d3e\u0d2f \u0d2a\u0d4d\u0d30\u0d2d\u0d41\u0d15\u0d4d\u0d15\u0d28\u0d4d\u0d2e\u0d3e\u0d30\u0d41\u0d1f\u0d46\u0d2f\u0d41\u0d02 \u0d2e\u0d41\u0d2e\u0d4d\u0d2a\u0d3e\u0d15\u0d46 \u0d2a\u0d31\u0d1e\u0d4d\u0d1e\u0d24\u0d41: "
        },
        {
            "chapter": 36,
            "verse": 2,
            "name": "Numbers 36:2",
            "text": "\u0d2f\u0d3f\u0d38\u0d4d\u0d30\u0d3e\u0d2f\u0d47\u0d7d\u0d2e\u0d15\u0d4d\u0d15\u0d7e\u0d15\u0d4d\u0d15\u0d41 \u0d26\u0d47\u0d36\u0d02 \u0d1a\u0d40\u0d1f\u0d4d\u0d1f\u0d3f\u0d1f\u0d4d\u0d1f\u0d41 \u0d05\u0d35\u0d15\u0d3e\u0d36\u0d2e\u0d3e\u0d2f\u0d3f \u0d15\u0d4a\u0d1f\u0d41\u0d2a\u0d4d\u0d2a\u0d3e\u0d7b \u0d2f\u0d39\u0d4b\u0d35 \u0d2f\u0d1c\u0d2e\u0d3e\u0d28\u0d28\u0d4b\u0d1f\u0d41 \u0d15\u0d32\u0d4d\u0d2a\u0d3f\u0d1a\u0d4d\u0d1a\u0d41; \u0d1e\u0d19\u0d4d\u0d19\u0d33\u0d41\u0d1f\u0d46 \u0d38\u0d39\u0d4b\u0d26\u0d30\u0d28\u0d3e\u0d2f \u0d36\u0d46\u0d32\u0d4b\u0d2b\u0d39\u0d3e\u0d26\u0d3f\u0d28\u0d4d\u0d31\u0d46 \u0d05\u0d35\u0d15\u0d3e\u0d36\u0d02 \u0d05\u0d35\u0d28\u0d4d\u0d31\u0d46 \u0d2a\u0d41\u0d24\u0d4d\u0d30\u0d3f\u0d2e\u0d3e\u0d4e\u0d15\u0d4d\u0d15\u0d41 \u0d15\u0d4a\u0d1f\u0d41\u0d2a\u0d4d\u0d2a\u0d3e\u0d7b \u0d2f\u0d1c\u0d2e\u0d3e\u0d28\u0d28\u0d4d\u0d28\u0d41 \u0d2f\u0d39\u0d4b\u0d35\u0d2f\u0d41\u0d1f\u0d46 \u0d15\u0d32\u0d4d\u0d2a\u0d28 \u0d09\u0d23\u0d4d\u0d1f\u0d3e\u0d2f\u0d3f. "
        },
        {
            "chapter": 36,
            "verse": 3,
            "name": "Numbers 36:3",
            "text": "\u0d0e\u0d28\u0d4d\u0d28\u0d3e\u0d7d \u0d05\u0d35\u0d7c \u0d2f\u0d3f\u0d38\u0d4d\u0d30\u0d3e\u0d2f\u0d47\u0d7d\u0d2e\u0d15\u0d4d\u0d15\u0d33\u0d41\u0d1f\u0d46 \u0d2e\u0d31\u0d4d\u0d31\u0d41 \u0d17\u0d4b\u0d24\u0d4d\u0d30\u0d19\u0d4d\u0d19\u0d33\u0d3f\u0d32\u0d46 \u0d2a\u0d41\u0d30\u0d41\u0d37\u0d28\u0d4d\u0d2e\u0d3e\u0d30\u0d3f\u0d7d \u0d35\u0d32\u0d4d\u0d32\u0d35\u0d4e\u0d15\u0d4d\u0d15\u0d41\u0d02 \u0d2d\u0d3e\u0d4e\u0d2f\u0d4d\u0d2f\u0d2e\u0d3e\u0d30\u0d3e\u0d2f\u0d3e\u0d7d \u0d05\u0d35\u0d30\u0d41\u0d1f\u0d46 \u0d05\u0d35\u0d15\u0d3e\u0d36\u0d02 \u0d1e\u0d19\u0d4d\u0d19\u0d33\u0d41\u0d1f\u0d46 \u0d2a\u0d3f\u0d24\u0d3e\u0d15\u0d4d\u0d15\u0d28\u0d4d\u0d2e\u0d3e\u0d30\u0d41\u0d1f\u0d46 \u0d05\u0d35\u0d15\u0d3e\u0d36\u0d24\u0d4d\u0d24\u0d3f\u0d7d\u0d28\u0d3f\u0d28\u0d4d\u0d28\u0d41 \u0d35\u0d3f\u0d1f\u0d4d\u0d1f\u0d41\u0d2a\u0d4b\u0d15\u0d2f\u0d41\u0d02 \u0d05\u0d35\u0d7c \u0d1a\u0d47\u0d30\u0d41\u0d28\u0d4d\u0d28 \u0d17\u0d4b\u0d24\u0d4d\u0d30\u0d24\u0d4d\u0d24\u0d3f\u0d28\u0d4d\u0d31\u0d46 \u0d05\u0d35\u0d15\u0d3e\u0d36\u0d24\u0d4d\u0d24\u0d4b\u0d1f\u0d41 \u0d15\u0d42\u0d1f\u0d41\u0d15\u0d2f\u0d41\u0d02 \u0d1a\u0d46\u0d2f\u0d4d\u0d2f\u0d41\u0d02; \u0d07\u0d19\u0d4d\u0d19\u0d28\u0d46 \u0d05\u0d24\u0d41 \u0d1e\u0d19\u0d4d\u0d19\u0d33\u0d41\u0d1f\u0d46 \u0d05\u0d35\u0d15\u0d3e\u0d36\u0d24\u0d4d\u0d24\u0d3f\u0d28\u0d4d\u0d31\u0d46 \u0d13\u0d39\u0d30\u0d3f\u0d2f\u0d3f\u0d7d\u0d28\u0d3f\u0d28\u0d4d\u0d28\u0d41 \u0d2a\u0d4a\u0d2f\u0d4d\u0d2a\u0d4b\u0d15\u0d41\u0d02. "
        },
        {
            "chapter": 36,
            "verse": 4,
            "name": "Numbers 36:4",
            "text": "\u0d2f\u0d3f\u0d38\u0d4d\u0d30\u0d3e\u0d2f\u0d47\u0d7d\u0d2e\u0d15\u0d4d\u0d15\u0d33\u0d41\u0d1f\u0d46 \u0d2f\u0d4b\u0d2c\u0d47\u0d7d\u0d38\u0d02\u0d35\u0d24\u0d4d\u0d38\u0d30\u0d02 \u0d35\u0d30\u0d41\u0d2e\u0d4d\u0d2a\u0d4b\u0d7e \u0d05\u0d35\u0d30\u0d41\u0d1f\u0d46 \u0d05\u0d35\u0d15\u0d3e\u0d36\u0d02 \u0d05\u0d35\u0d7c \u0d1a\u0d47\u0d30\u0d41\u0d28\u0d4d\u0d28 \u0d17\u0d4b\u0d24\u0d4d\u0d30\u0d24\u0d4d\u0d24\u0d3f\u0d28\u0d4d\u0d31\u0d46 \u0d05\u0d35\u0d15\u0d3e\u0d36\u0d24\u0d4d\u0d24\u0d4b\u0d1f\u0d41\u0d15\u0d42\u0d1f\u0d41\u0d15\u0d2f\u0d41\u0d02 \u0d05\u0d19\u0d4d\u0d19\u0d28\u0d46 \u0d05\u0d35\u0d30\u0d41\u0d1f\u0d46 \u0d05\u0d35\u0d15\u0d3e\u0d36\u0d02 \u0d1e\u0d19\u0d4d\u0d19\u0d33\u0d41\u0d1f\u0d46 \u0d2a\u0d3f\u0d24\u0d43\u0d17\u0d4b\u0d24\u0d4d\u0d30\u0d24\u0d4d\u0d24\u0d3f\u0d28\u0d4d\u0d31\u0d46 \u0d05\u0d35\u0d15\u0d3e\u0d36\u0d24\u0d4d\u0d24\u0d3f\u0d7d\u0d28\u0d3f\u0d28\u0d4d\u0d28\u0d41 \u0d35\u0d3f\u0d1f\u0d4d\u0d1f\u0d41\u0d2a\u0d4b\u0d15\u0d2f\u0d41\u0d02 \u0d1a\u0d46\u0d2f\u0d4d\u0d2f\u0d41\u0d02. "
        },
        {
            "chapter": 36,
            "verse": 5,
            "name": "Numbers 36:5",
            "text": "\u0d05\u0d2a\u0d4d\u0d2a\u0d4b\u0d7e \u0d2e\u0d4b\u0d36\u0d46 \u0d2f\u0d39\u0d4b\u0d35\u0d2f\u0d41\u0d1f\u0d46 \u0d35\u0d1a\u0d28\u0d2a\u0d4d\u0d30\u0d15\u0d3e\u0d30\u0d02 \u0d2f\u0d3f\u0d38\u0d4d\u0d30\u0d3e\u0d2f\u0d47\u0d7d\u0d2e\u0d15\u0d4d\u0d15\u0d33\u0d4b\u0d1f\u0d41 \u0d15\u0d32\u0d4d\u0d2a\u0d3f\u0d1a\u0d4d\u0d1a\u0d24\u0d41: \u0d2f\u0d4b\u0d38\u0d47\u0d2b\u0d3f\u0d28\u0d4d\u0d31\u0d46 \u0d2a\u0d41\u0d24\u0d4d\u0d30\u0d28\u0d4d\u0d2e\u0d3e\u0d30\u0d41\u0d1f\u0d46 \u0d17\u0d4b\u0d24\u0d4d\u0d30\u0d02 \u0d2a\u0d31\u0d1e\u0d4d\u0d1e\u0d24\u0d41 \u0d36\u0d30\u0d3f \u0d24\u0d28\u0d4d\u0d28\u0d47. "
        },
        {
            "chapter": 36,
            "verse": 6,
            "name": "Numbers 36:6",
            "text": "\u0d2f\u0d39\u0d4b\u0d35 \u0d36\u0d46\u0d32\u0d4b\u0d2b\u0d39\u0d3e\u0d26\u0d3f\u0d28\u0d4d\u0d31\u0d46 \u0d2a\u0d41\u0d24\u0d4d\u0d30\u0d3f\u0d2e\u0d3e\u0d30\u0d46\u0d15\u0d4d\u0d15\u0d41\u0d31\u0d3f\u0d1a\u0d4d\u0d1a\u0d41 \u0d15\u0d32\u0d4d\u0d2a\u0d3f\u0d15\u0d4d\u0d15\u0d41\u0d28\u0d4d\u0d28 \u0d15\u0d3e\u0d4e\u0d2f\u0d4d\u0d2f\u0d02 \u0d0e\u0d28\u0d4d\u0d24\u0d46\u0d28\u0d4d\u0d28\u0d3e\u0d7d: \u0d05\u0d35\u0d7c \u0d24\u0d19\u0d4d\u0d19\u0d7e\u0d15\u0d4d\u0d15\u0d41 \u0d2c\u0d4b\u0d27\u0d3f\u0d1a\u0d4d\u0d1a\u0d35\u0d4e\u0d15\u0d4d\u0d15\u0d41 \u0d2d\u0d3e\u0d4e\u0d2f\u0d4d\u0d2f\u0d2e\u0d3e\u0d30\u0d3e\u0d2f\u0d3f\u0d30\u0d3f\u0d15\u0d4d\u0d15\u0d1f\u0d4d\u0d1f\u0d46; \u0d0e\u0d19\u0d4d\u0d15\u0d3f\u0d32\u0d41\u0d02 \u0d24\u0d19\u0d4d\u0d19\u0d33\u0d41\u0d1f\u0d46 \u0d2a\u0d3f\u0d24\u0d43\u0d17\u0d4b\u0d24\u0d4d\u0d30\u0d24\u0d4d\u0d24\u0d3f\u0d32\u0d46 \u0d15\u0d41\u0d1f\u0d41\u0d02\u0d2c\u0d24\u0d4d\u0d24\u0d3f\u0d32\u0d41\u0d33\u0d4d\u0d33\u0d35\u0d4e\u0d15\u0d4d\u0d15\u0d41 \u0d2e\u0d3e\u0d24\u0d4d\u0d30\u0d2e\u0d47 \u0d06\u0d15\u0d3e\u0d35\u0d41. "
        },
        {
            "chapter": 36,
            "verse": 7,
            "name": "Numbers 36:7",
            "text": "\u0d2f\u0d3f\u0d38\u0d4d\u0d30\u0d3e\u0d2f\u0d47\u0d7d\u0d2e\u0d15\u0d4d\u0d15\u0d33\u0d41\u0d1f\u0d46 \u0d05\u0d35\u0d15\u0d3e\u0d36\u0d02 \u0d12\u0d30\u0d41 \u0d17\u0d4b\u0d24\u0d4d\u0d30\u0d24\u0d4d\u0d24\u0d3f\u0d7d \u0d28\u0d3f\u0d28\u0d4d\u0d28\u0d41 \u0d2e\u0d31\u0d4d\u0d31\u0d4a\u0d30\u0d41 \u0d17\u0d4b\u0d24\u0d4d\u0d30\u0d24\u0d4d\u0d24\u0d3f\u0d32\u0d47\u0d15\u0d4d\u0d15\u0d41 \u0d2e\u0d3e\u0d31\u0d30\u0d41\u0d24\u0d41; \u0d2f\u0d3f\u0d38\u0d4d\u0d30\u0d3e\u0d2f\u0d47\u0d7d\u0d2e\u0d15\u0d4d\u0d15\u0d33\u0d3f\u0d7d \u0d13\u0d30\u0d4b\u0d30\u0d41\u0d24\u0d4d\u0d24\u0d7b \u0d24\u0d3e\u0d28\u0d4d\u0d24\u0d3e\u0d28\u0d4d\u0d31\u0d46 \u0d2a\u0d3f\u0d24\u0d43\u0d17\u0d4b\u0d24\u0d4d\u0d30\u0d24\u0d4d\u0d24\u0d3f\u0d28\u0d4d\u0d31\u0d46 \u0d05\u0d35\u0d15\u0d3e\u0d36\u0d24\u0d4d\u0d24\u0d4b\u0d1f\u0d41 \u0d1a\u0d47\u0d4e\u0d28\u0d4d\u0d28\u0d3f\u0d30\u0d3f\u0d15\u0d4d\u0d15\u0d47\u0d23\u0d02; "
        },
        {
            "chapter": 36,
            "verse": 8,
            "name": "Numbers 36:8",
            "text": "\u0d2f\u0d3f\u0d38\u0d4d\u0d30\u0d3e\u0d2f\u0d47\u0d7d\u0d2e\u0d15\u0d4d\u0d15\u0d7e \u0d13\u0d30\u0d4b\u0d30\u0d41\u0d24\u0d4d\u0d24\u0d7b \u0d24\u0d3e\u0d28\u0d4d\u0d24\u0d3e\u0d28\u0d4d\u0d31\u0d46 \u0d2a\u0d3f\u0d24\u0d3e\u0d15\u0d4d\u0d15\u0d28\u0d4d\u0d2e\u0d3e\u0d30\u0d41\u0d1f\u0d46 \u0d05\u0d35\u0d15\u0d3e\u0d36\u0d02 \u0d15\u0d48\u0d35\u0d36\u0d2e\u0d3e\u0d15\u0d4d\u0d15\u0d47\u0d23\u0d4d\u0d1f\u0d24\u0d3f\u0d28\u0d4d\u0d28\u0d41 \u0d2f\u0d3f\u0d38\u0d4d\u0d30\u0d3e\u0d2f\u0d47\u0d7d\u0d2e\u0d15\u0d4d\u0d15\u0d33\u0d41\u0d1f\u0d46 \u0d2f\u0d3e\u0d24\u0d4a\u0d30\u0d41 \u0d17\u0d4b\u0d24\u0d4d\u0d30\u0d24\u0d4d\u0d24\u0d3f\u0d32\u0d41\u0d02 \u0d05\u0d35\u0d15\u0d3e\u0d36\u0d02 \u0d32\u0d2d\u0d3f\u0d15\u0d4d\u0d15\u0d41\u0d28\u0d4d\u0d28 \u0d0f\u0d24\u0d41\u0d15\u0d28\u0d4d\u0d2f\u0d15\u0d2f\u0d41\u0d02 \u0d24\u0d28\u0d4d\u0d31\u0d46 \u0d2a\u0d3f\u0d24\u0d43\u0d17\u0d4b\u0d24\u0d4d\u0d30\u0d24\u0d4d\u0d24\u0d3f\u0d32\u0d46 \u0d12\u0d30\u0d41 \u0d15\u0d41\u0d1f\u0d41\u0d02\u0d2c\u0d24\u0d4d\u0d24\u0d3f\u0d7d \u0d12\u0d30\u0d41\u0d24\u0d4d\u0d24\u0d28\u0d4d\u0d28\u0d41 \u0d2d\u0d3e\u0d4e\u0d2f\u0d4d\u0d2f\u0d2f\u0d3e\u0d15\u0d47\u0d23\u0d02. "
        },
        {
            "chapter": 36,
            "verse": 9,
            "name": "Numbers 36:9",
            "text": "\u0d05\u0d19\u0d4d\u0d19\u0d28\u0d46 \u0d05\u0d35\u0d15\u0d3e\u0d36\u0d02 \u0d12\u0d30\u0d41 \u0d17\u0d4b\u0d24\u0d4d\u0d30\u0d24\u0d4d\u0d24\u0d3f\u0d7d\u0d28\u0d3f\u0d28\u0d4d\u0d28\u0d41 \u0d2e\u0d31\u0d4d\u0d31\u0d4a\u0d30\u0d41 \u0d17\u0d4b\u0d24\u0d4d\u0d30\u0d24\u0d4d\u0d24\u0d3f\u0d32\u0d47\u0d15\u0d4d\u0d15\u0d41 \u0d2e\u0d3e\u0d31\u0d3e\u0d24\u0d46 \u0d2f\u0d3f\u0d38\u0d4d\u0d30\u0d3e\u0d2f\u0d47\u0d7d\u0d2e\u0d15\u0d4d\u0d15\u0d33\u0d41\u0d1f\u0d46 \u0d17\u0d4b\u0d24\u0d4d\u0d30\u0d19\u0d4d\u0d19\u0d33\u0d3f\u0d7d \u0d13\u0d30\u0d4b\u0d30\u0d41\u0d24\u0d4d\u0d24\u0d7b \u0d24\u0d3e\u0d28\u0d4d\u0d24\u0d3e\u0d28\u0d4d\u0d31\u0d46 \u0d05\u0d35\u0d15\u0d3e\u0d36\u0d24\u0d4d\u0d24\u0d4b\u0d1f\u0d41 \u0d1a\u0d47\u0d4e\u0d28\u0d4d\u0d28\u0d3f\u0d30\u0d3f\u0d15\u0d4d\u0d15\u0d47\u0d23\u0d02. "
        },
        {
            "chapter": 36,
            "verse": 10,
            "name": "Numbers 36:10",
            "text": "\u0d2f\u0d39\u0d4b\u0d35 \u0d2e\u0d4b\u0d36\u0d46\u0d2f\u0d4b\u0d1f\u0d41 \u0d15\u0d32\u0d4d\u0d2a\u0d3f\u0d1a\u0d4d\u0d1a\u0d24\u0d41\u0d2a\u0d4b\u0d32\u0d46 \u0d36\u0d46\u0d32\u0d4b\u0d2b\u0d39\u0d3e\u0d26\u0d3f\u0d28\u0d4d\u0d31\u0d46 \u0d2a\u0d41\u0d24\u0d4d\u0d30\u0d3f\u0d2e\u0d3e\u0d7c \u0d1a\u0d46\u0d2f\u0d4d\u0d24\u0d41. "
        },
        {
            "chapter": 36,
            "verse": 11,
            "name": "Numbers 36:11",
            "text": "\u0d36\u0d46\u0d32\u0d4b\u0d2b\u0d39\u0d3e\u0d26\u0d3f\u0d28\u0d4d\u0d31\u0d46 \u0d2a\u0d41\u0d24\u0d4d\u0d30\u0d3f\u0d2e\u0d3e\u0d30\u0d3e\u0d2f \u0d2e\u0d39\u0d4d\u0d32\u0d3e, \u0d24\u0d3f\u0d7c\u0d38\u0d3e, \u0d39\u0d4a\u0d17\u0d4d\u0d32, \u0d2e\u0d3f\u0d7d\u0d15\u0d4d\u0d15\u0d3e, \u0d28\u0d4b\u0d35\u0d3e \u0d0e\u0d28\u0d4d\u0d28\u0d3f\u0d35\u0d7c \u0d24\u0d19\u0d4d\u0d19\u0d33\u0d41\u0d1f\u0d46 \u0d05\u0d2a\u0d4d\u0d2a\u0d28\u0d4d\u0d31\u0d46 \u0d38\u0d39\u0d4b\u0d26\u0d30\u0d28\u0d4d\u0d2e\u0d3e\u0d30\u0d41\u0d1f\u0d46 \u0d2a\u0d41\u0d24\u0d4d\u0d30\u0d28\u0d4d\u0d2e\u0d3e\u0d4e\u0d15\u0d4d\u0d15\u0d41 \u0d2d\u0d3e\u0d4e\u0d2f\u0d4d\u0d2f\u0d2e\u0d3e\u0d30\u0d3e\u0d2f\u0d3f. "
        },
        {
            "chapter": 36,
            "verse": 12,
            "name": "Numbers 36:12",
            "text": "\u0d2f\u0d4b\u0d38\u0d47\u0d2b\u0d3f\u0d28\u0d4d\u0d31\u0d46 \u0d2e\u0d15\u0d28\u0d3e\u0d2f \u0d2e\u0d28\u0d36\u0d4d\u0d36\u0d46\u0d2f\u0d41\u0d1f\u0d46 \u0d2a\u0d41\u0d24\u0d4d\u0d30\u0d28\u0d4d\u0d2e\u0d3e\u0d30\u0d41\u0d1f\u0d46 \u0d15\u0d41\u0d1f\u0d41\u0d02\u0d2c\u0d19\u0d4d\u0d19\u0d33\u0d3f\u0d7d \u0d05\u0d35\u0d7c \u0d2d\u0d3e\u0d4e\u0d2f\u0d4d\u0d2f\u0d2e\u0d3e\u0d30\u0d3e\u0d15\u0d2f\u0d41\u0d02 \u0d05\u0d35\u0d30\u0d41\u0d1f\u0d46 \u0d05\u0d35\u0d15\u0d3e\u0d36\u0d02 \u0d05\u0d35\u0d30\u0d41\u0d1f\u0d46 \u0d2a\u0d3f\u0d24\u0d43\u0d15\u0d41\u0d1f\u0d41\u0d02\u0d2c\u0d24\u0d4d\u0d24\u0d3f\u0d28\u0d4d\u0d31\u0d46 \u0d17\u0d4b\u0d24\u0d4d\u0d30\u0d24\u0d4d\u0d24\u0d3f\u0d7d\u0d24\u0d28\u0d4d\u0d28\u0d47 \u0d07\u0d30\u0d3f\u0d15\u0d4d\u0d15\u0d2f\u0d41\u0d02 \u0d1a\u0d46\u0d2f\u0d4d\u0d24\u0d41.   "
        },
        {
            "chapter": 36,
            "verse": 13,
            "name": "Numbers 36:13",
            "text": "\u0d2f\u0d46\u0d30\u0d40\u0d39\u0d4b\u0d35\u0d3f\u0d28\u0d4d\u0d28\u0d46\u0d24\u0d3f\u0d30\u0d46 \u0d2f\u0d4b\u0d4e\u0d26\u0d4d\u0d26\u0d3e\u0d28\u0d4d\u0d28\u0d30\u0d3f\u0d15\u0d46 \u0d2e\u0d4b\u0d35\u0d3e\u0d2c\u0d4d \u0d38\u0d2e\u0d2d\u0d42\u0d2e\u0d3f\u0d2f\u0d3f\u0d7d\u0d35\u0d46\u0d1a\u0d4d\u0d1a\u0d41 \u0d2f\u0d39\u0d4b\u0d35 \u0d2e\u0d4b\u0d36\u0d46\u0d2e\u0d41\u0d16\u0d3e\u0d28\u0d4d\u0d24\u0d30\u0d02 \u0d2f\u0d3f\u0d38\u0d4d\u0d30\u0d3e\u0d2f\u0d47\u0d7d\u0d2e\u0d15\u0d4d\u0d15\u0d33\u0d4b\u0d1f\u0d41 \u0d15\u0d32\u0d4d\u0d2a\u0d3f\u0d1a\u0d4d\u0d1a \u0d15\u0d32\u0d4d\u0d2a\u0d28\u0d15\u0d33\u0d41\u0d02 \u0d35\u0d3f\u0d27\u0d3f\u0d15\u0d33\u0d41\u0d02 \u0d07\u0d35 \u0d24\u0d28\u0d4d\u0d28\u0d47.    "
        }
    ]
}