{
    "translation": "New Heart English Bible",
    "abbreviation": "nheb",
    "lang": "en",
    "language": "English",
    "direction": "LTR",
    "encoding": "UTF-8",
    "book_nr": 19,
    "book_name": "Psalms",
    "chapter": 127,
    "name": "Psalms 127",
    "verses": [
        {
            "chapter": 127,
            "verse": 1,
            "name": "Psalms 127:1",
            "text": "  Unless the Lord builds the house, they labor in vain who build it. Unless the Lord watches over the city, the watchman guards it in vain. "
        },
        {
            "chapter": 127,
            "verse": 2,
            "name": "Psalms 127:2",
            "text": "It is vain for you to rise up early, to stay up late, eating the bread of toil; for he gives sleep to his loved ones. "
        },
        {
            "chapter": 127,
            "verse": 3,
            "name": "Psalms 127:3",
            "text": "Behold, children are a heritage of the Lord. The fruit of the womb is his reward. "
        },
        {
            "chapter": 127,
            "verse": 4,
            "name": "Psalms 127:4",
            "text": "As arrows in the hand of a mighty man, so are the children of youth. "
        },
        {
            "chapter": 127,
            "verse": 5,
            "name": "Psalms 127:5",
            "text": "Happy is the man who has his quiver full of them. They won't be disappointed when they speak with their enemies in the gate.  "
        }
    ]
}