{
    "translation": "New Heart English Bible",
    "abbreviation": "nheb",
    "lang": "en",
    "language": "English",
    "direction": "LTR",
    "encoding": "UTF-8",
    "book_nr": 19,
    "book_name": "Psalms",
    "chapter": 132,
    "name": "Psalms 132",
    "verses": [
        {
            "chapter": 132,
            "verse": 1,
            "name": "Psalms 132:1",
            "text": "  Lord, remember David and all his affliction, "
        },
        {
            "chapter": 132,
            "verse": 2,
            "name": "Psalms 132:2",
            "text": "how he swore to the Lord, and vowed to the Mighty One of Jacob: "
        },
        {
            "chapter": 132,
            "verse": 3,
            "name": "Psalms 132:3",
            "text": "\"Surely I will not come into the structure of my house, nor go up into my bed; "
        },
        {
            "chapter": 132,
            "verse": 4,
            "name": "Psalms 132:4",
            "text": "I will not give sleep to my eyes, or slumber to my eyelids; "
        },
        {
            "chapter": 132,
            "verse": 5,
            "name": "Psalms 132:5",
            "text": "until I find out a place for the Lord, a dwelling for the Mighty One of Jacob.\" "
        },
        {
            "chapter": 132,
            "verse": 6,
            "name": "Psalms 132:6",
            "text": "Behold, we heard of it in Ephrathah. We found it in the field of Jaar: "
        },
        {
            "chapter": 132,
            "verse": 7,
            "name": "Psalms 132:7",
            "text": "\"We will go into his dwelling place. We will worship at his footstool. "
        },
        {
            "chapter": 132,
            "verse": 8,
            "name": "Psalms 132:8",
            "text": "Arise, Lord, into your resting place; you, and the ark of your strength. "
        },
        {
            "chapter": 132,
            "verse": 9,
            "name": "Psalms 132:9",
            "text": "Let your priest be clothed with righteousness. Let your holy ones shout for joy!\" "
        },
        {
            "chapter": 132,
            "verse": 10,
            "name": "Psalms 132:10",
            "text": "For your servant David's sake, do not turn away the face of your anointed one. "
        },
        {
            "chapter": 132,
            "verse": 11,
            "name": "Psalms 132:11",
            "text": "The Lord has sworn to David in truth. He will not turn from it: \"I will set the fruit of your body on your throne. "
        },
        {
            "chapter": 132,
            "verse": 12,
            "name": "Psalms 132:12",
            "text": "If your children will keep my covenant, my testimony that I will teach them, their children also will sit on your throne forevermore.\" "
        },
        {
            "chapter": 132,
            "verse": 13,
            "name": "Psalms 132:13",
            "text": "For the Lord has chosen Zion. He has desired it for his habitation. "
        },
        {
            "chapter": 132,
            "verse": 14,
            "name": "Psalms 132:14",
            "text": "\"This is my resting place forever. Here I will live, for I have desired it. "
        },
        {
            "chapter": 132,
            "verse": 15,
            "name": "Psalms 132:15",
            "text": "I will abundantly bless her provision. I will satisfy her poor with bread. "
        },
        {
            "chapter": 132,
            "verse": 16,
            "name": "Psalms 132:16",
            "text": "Her priests I will also clothe with salvation. Her holy ones will shout aloud for joy. "
        },
        {
            "chapter": 132,
            "verse": 17,
            "name": "Psalms 132:17",
            "text": "There I will make the horn of David to bud. I have ordained a lamp for my anointed. "
        },
        {
            "chapter": 132,
            "verse": 18,
            "name": "Psalms 132:18",
            "text": "I will clothe his enemies with shame, but on himself, his crown will be resplendent.\"  "
        }
    ]
}