{
    "translation": "Hebrew Modern",
    "abbreviation": "modernhebrew",
    "lang": "he",
    "language": "Hebrew",
    "direction": "RTL",
    "encoding": "UTF-8",
    "book_nr": 27,
    "book_name": "Daniel",
    "chapter": 6,
    "name": "Daniel 6",
    "verses": [
        {
            "chapter": 6,
            "verse": 1,
            "name": "Daniel 6:1",
            "text": "\u05e9\u05e4\u05e8 \u05e7\u05d3\u05dd \u05d3\u05e8\u05d9\u05d5\u05e9 \u05d5\u05d4\u05e7\u05d9\u05dd \u05e2\u05dc \u05de\u05dc\u05db\u05d5\u05ea\u05d0 \u05dc\u05d0\u05d7\u05e9\u05d3\u05e8\u05e4\u05e0\u05d9\u05d0 \u05de\u05d0\u05d4 \u05d5\u05e2\u05e9\u05e8\u05d9\u05df \u05d3\u05d9 \u05dc\u05d4\u05d5\u05df \u05d1\u05db\u05dc \u05de\u05dc\u05db\u05d5\u05ea\u05d0\u05c3"
        },
        {
            "chapter": 6,
            "verse": 2,
            "name": "Daniel 6:2",
            "text": "\u05d5\u05e2\u05dc\u05d0 \u05de\u05e0\u05d4\u05d5\u05df \u05e1\u05e8\u05db\u05d9\u05df \u05ea\u05dc\u05ea\u05d0 \u05d3\u05d9 \u05d3\u05e0\u05d9\u05d0\u05dc \u05d7\u05d3 \u05de\u05e0\u05d4\u05d5\u05df \u05d3\u05d9 \u05dc\u05d4\u05d5\u05df \u05d0\u05d7\u05e9\u05d3\u05e8\u05e4\u05e0\u05d9\u05d0 \u05d0\u05dc\u05d9\u05df \u05d9\u05d4\u05d1\u05d9\u05df \u05dc\u05d4\u05d5\u05df \u05d8\u05e2\u05de\u05d0 \u05d5\u05de\u05dc\u05db\u05d0 \u05dc\u05d0 \u05dc\u05d4\u05d5\u05d0 \u05e0\u05d6\u05e7\u05c3"
        },
        {
            "chapter": 6,
            "verse": 3,
            "name": "Daniel 6:3",
            "text": "\u05d0\u05d3\u05d9\u05df \u05d3\u05e0\u05d9\u05d0\u05dc \u05d3\u05e0\u05d4 \u05d4\u05d5\u05d0 \u05de\u05ea\u05e0\u05e6\u05d7 \u05e2\u05dc \u05e1\u05e8\u05db\u05d9\u05d0 \u05d5\u05d0\u05d7\u05e9\u05d3\u05e8\u05e4\u05e0\u05d9\u05d0 \u05db\u05dc \u05e7\u05d1\u05dc \u05d3\u05d9 \u05e8\u05d5\u05d7 \u05d9\u05ea\u05d9\u05e8\u05d0 \u05d1\u05d4 \u05d5\u05de\u05dc\u05db\u05d0 \u05e2\u05e9\u05d9\u05ea \u05dc\u05d4\u05e7\u05de\u05d5\u05ea\u05d4 \u05e2\u05dc \u05db\u05dc \u05de\u05dc\u05db\u05d5\u05ea\u05d0\u05c3"
        },
        {
            "chapter": 6,
            "verse": 4,
            "name": "Daniel 6:4",
            "text": "\u05d0\u05d3\u05d9\u05df \u05e1\u05e8\u05db\u05d9\u05d0 \u05d5\u05d0\u05d7\u05e9\u05d3\u05e8\u05e4\u05e0\u05d9\u05d0 \u05d4\u05d5\u05d5 \u05d1\u05e2\u05d9\u05df \u05e2\u05dc\u05d4 \u05dc\u05d4\u05e9\u05db\u05d7\u05d4 \u05dc\u05d3\u05e0\u05d9\u05d0\u05dc \u05de\u05e6\u05d3 \u05de\u05dc\u05db\u05d5\u05ea\u05d0 \u05d5\u05db\u05dc \u05e2\u05dc\u05d4 \u05d5\u05e9\u05d7\u05d9\u05ea\u05d4 \u05dc\u05d0 \u05d9\u05db\u05dc\u05d9\u05df \u05dc\u05d4\u05e9\u05db\u05d7\u05d4 \u05db\u05dc \u05e7\u05d1\u05dc \u05d3\u05d9 \u05de\u05d4\u05d9\u05de\u05df \u05d4\u05d5\u05d0 \u05d5\u05db\u05dc \u05e9\u05dc\u05d5 \u05d5\u05e9\u05d7\u05d9\u05ea\u05d4 \u05dc\u05d0 \u05d4\u05e9\u05ea\u05db\u05d7\u05ea \u05e2\u05dc\u05d5\u05d4\u05d9\u05c3"
        },
        {
            "chapter": 6,
            "verse": 5,
            "name": "Daniel 6:5",
            "text": "\u05d0\u05d3\u05d9\u05df \u05d2\u05d1\u05e8\u05d9\u05d0 \u05d0\u05dc\u05da \u05d0\u05de\u05e8\u05d9\u05df \u05d3\u05d9 \u05dc\u05d0 \u05e0\u05d4\u05e9\u05db\u05d7 \u05dc\u05d3\u05e0\u05d9\u05d0\u05dc \u05d3\u05e0\u05d4 \u05db\u05dc \u05e2\u05dc\u05d0 \u05dc\u05d4\u05df \u05d4\u05e9\u05db\u05d7\u05e0\u05d4 \u05e2\u05dc\u05d5\u05d4\u05d9 \u05d1\u05d3\u05ea \u05d0\u05dc\u05d4\u05d4\u05c3"
        },
        {
            "chapter": 6,
            "verse": 6,
            "name": "Daniel 6:6",
            "text": "\u05d0\u05d3\u05d9\u05df \u05e1\u05e8\u05db\u05d9\u05d0 \u05d5\u05d0\u05d7\u05e9\u05d3\u05e8\u05e4\u05e0\u05d9\u05d0 \u05d0\u05dc\u05df \u05d4\u05e8\u05d2\u05e9\u05d5 \u05e2\u05dc \u05de\u05dc\u05db\u05d0 \u05d5\u05db\u05df \u05d0\u05de\u05e8\u05d9\u05df \u05dc\u05d4 \u05d3\u05e8\u05d9\u05d5\u05e9 \u05de\u05dc\u05db\u05d0 \u05dc\u05e2\u05dc\u05de\u05d9\u05df \u05d7\u05d9\u05d9\u05c3"
        },
        {
            "chapter": 6,
            "verse": 7,
            "name": "Daniel 6:7",
            "text": "\u05d0\u05ea\u05d9\u05e2\u05d8\u05d5 \u05db\u05dc \u05e1\u05e8\u05db\u05d9 \u05de\u05dc\u05db\u05d5\u05ea\u05d0 \u05e1\u05d2\u05e0\u05d9\u05d0 \u05d5\u05d0\u05d7\u05e9\u05d3\u05e8\u05e4\u05e0\u05d9\u05d0 \u05d4\u05d3\u05d1\u05e8\u05d9\u05d0 \u05d5\u05e4\u05d7\u05d5\u05ea\u05d0 \u05dc\u05e7\u05d9\u05de\u05d4 \u05e7\u05d9\u05dd \u05de\u05dc\u05db\u05d0 \u05d5\u05dc\u05ea\u05e7\u05e4\u05d4 \u05d0\u05e1\u05e8 \u05d3\u05d9 \u05db\u05dc \u05d3\u05d9 \u05d9\u05d1\u05e2\u05d4 \u05d1\u05e2\u05d5 \u05de\u05df \u05db\u05dc \u05d0\u05dc\u05d4 \u05d5\u05d0\u05e0\u05e9 \u05e2\u05d3 \u05d9\u05d5\u05de\u05d9\u05df \u05ea\u05dc\u05ea\u05d9\u05df \u05dc\u05d4\u05df \u05de\u05e0\u05da \u05de\u05dc\u05db\u05d0 \u05d9\u05ea\u05e8\u05de\u05d0 \u05dc\u05d2\u05d1 \u05d0\u05e8\u05d9\u05d5\u05ea\u05d0\u05c3"
        },
        {
            "chapter": 6,
            "verse": 8,
            "name": "Daniel 6:8",
            "text": "\u05db\u05e2\u05df \u05de\u05dc\u05db\u05d0 \u05ea\u05e7\u05d9\u05dd \u05d0\u05e1\u05e8\u05d0 \u05d5\u05ea\u05e8\u05e9\u05dd \u05db\u05ea\u05d1\u05d0 \u05d3\u05d9 \u05dc\u05d0 \u05dc\u05d4\u05e9\u05e0\u05d9\u05d4 \u05db\u05d3\u05ea \u05de\u05d3\u05d9 \u05d5\u05e4\u05e8\u05e1 \u05d3\u05d9 \u05dc\u05d0 \u05ea\u05e2\u05d3\u05d0\u05c3"
        },
        {
            "chapter": 6,
            "verse": 9,
            "name": "Daniel 6:9",
            "text": "\u05db\u05dc \u05e7\u05d1\u05dc \u05d3\u05e0\u05d4 \u05de\u05dc\u05db\u05d0 \u05d3\u05e8\u05d9\u05d5\u05e9 \u05e8\u05e9\u05dd \u05db\u05ea\u05d1\u05d0 \u05d5\u05d0\u05e1\u05e8\u05d0\u05c3"
        },
        {
            "chapter": 6,
            "verse": 10,
            "name": "Daniel 6:10",
            "text": "\u05d5\u05d3\u05e0\u05d9\u05d0\u05dc \u05db\u05d3\u05d9 \u05d9\u05d3\u05e2 \u05d3\u05d9 \u05e8\u05e9\u05d9\u05dd \u05db\u05ea\u05d1\u05d0 \u05e2\u05dc \u05dc\u05d1\u05d9\u05ea\u05d4 \u05d5\u05db\u05d5\u05d9\u05df \u05e4\u05ea\u05d9\u05d7\u05df \u05dc\u05d4 \u05d1\u05e2\u05dc\u05d9\u05ea\u05d4 \u05e0\u05d2\u05d3 \u05d9\u05e8\u05d5\u05e9\u05dc\u05dd \u05d5\u05d6\u05de\u05e0\u05d9\u05df \u05ea\u05dc\u05ea\u05d4 \u05d1\u05d9\u05d5\u05de\u05d0 \u05d4\u05d5\u05d0 \u05d1\u05e8\u05da \u05e2\u05dc \u05d1\u05e8\u05db\u05d5\u05d4\u05d9 \u05d5\u05de\u05e6\u05dc\u05d0 \u05d5\u05de\u05d5\u05d3\u05d0 \u05e7\u05d3\u05dd \u05d0\u05dc\u05d4\u05d4 \u05db\u05dc \u05e7\u05d1\u05dc \u05d3\u05d9 \u05d4\u05d5\u05d0 \u05e2\u05d1\u05d3 \u05de\u05df \u05e7\u05d3\u05de\u05ea \u05d3\u05e0\u05d4\u05c3"
        },
        {
            "chapter": 6,
            "verse": 11,
            "name": "Daniel 6:11",
            "text": "\u05d0\u05d3\u05d9\u05df \u05d2\u05d1\u05e8\u05d9\u05d0 \u05d0\u05dc\u05da \u05d4\u05e8\u05d2\u05e9\u05d5 \u05d5\u05d4\u05e9\u05db\u05d7\u05d5 \u05dc\u05d3\u05e0\u05d9\u05d0\u05dc \u05d1\u05e2\u05d0 \u05d5\u05de\u05ea\u05d7\u05e0\u05df \u05e7\u05d3\u05dd \u05d0\u05dc\u05d4\u05d4\u05c3"
        },
        {
            "chapter": 6,
            "verse": 12,
            "name": "Daniel 6:12",
            "text": "\u05d1\u05d0\u05d3\u05d9\u05df \u05e7\u05e8\u05d9\u05d1\u05d5 \u05d5\u05d0\u05de\u05e8\u05d9\u05df \u05e7\u05d3\u05dd \u05de\u05dc\u05db\u05d0 \u05e2\u05dc \u05d0\u05e1\u05e8 \u05de\u05dc\u05db\u05d0 \u05d4\u05dc\u05d0 \u05d0\u05e1\u05e8 \u05e8\u05e9\u05de\u05ea \u05d3\u05d9 \u05db\u05dc \u05d0\u05e0\u05e9 \u05d3\u05d9 \u05d9\u05d1\u05e2\u05d4 \u05de\u05df \u05db\u05dc \u05d0\u05dc\u05d4 \u05d5\u05d0\u05e0\u05e9 \u05e2\u05d3 \u05d9\u05d5\u05de\u05d9\u05df \u05ea\u05dc\u05ea\u05d9\u05df \u05dc\u05d4\u05df \u05de\u05e0\u05da \u05de\u05dc\u05db\u05d0 \u05d9\u05ea\u05e8\u05de\u05d0 \u05dc\u05d2\u05d5\u05d1 \u05d0\u05e8\u05d9\u05d5\u05ea\u05d0 \u05e2\u05e0\u05d4 \u05de\u05dc\u05db\u05d0 \u05d5\u05d0\u05de\u05e8 \u05d9\u05e6\u05d9\u05d1\u05d0 \u05de\u05dc\u05ea\u05d0 \u05db\u05d3\u05ea \u05de\u05d3\u05d9 \u05d5\u05e4\u05e8\u05e1 \u05d3\u05d9 \u05dc\u05d0 \u05ea\u05e2\u05d3\u05d0\u05c3"
        },
        {
            "chapter": 6,
            "verse": 13,
            "name": "Daniel 6:13",
            "text": "\u05d1\u05d0\u05d3\u05d9\u05df \u05e2\u05e0\u05d5 \u05d5\u05d0\u05de\u05e8\u05d9\u05df \u05e7\u05d3\u05dd \u05de\u05dc\u05db\u05d0 \u05d3\u05d9 \u05d3\u05e0\u05d9\u05d0\u05dc \u05d3\u05d9 \u05de\u05df \u05d1\u05e0\u05d9 \u05d2\u05dc\u05d5\u05ea\u05d0 \u05d3\u05d9 \u05d9\u05d4\u05d5\u05d3 \u05dc\u05d0 \u05e9\u05dd \u05e2\u05dc\u05d9\u05da \u05de\u05dc\u05db\u05d0 \u05d8\u05e2\u05dd \u05d5\u05e2\u05dc \u05d0\u05e1\u05e8\u05d0 \u05d3\u05d9 \u05e8\u05e9\u05de\u05ea \u05d5\u05d6\u05de\u05e0\u05d9\u05df \u05ea\u05dc\u05ea\u05d4 \u05d1\u05d9\u05d5\u05de\u05d0 \u05d1\u05e2\u05d0 \u05d1\u05e2\u05d5\u05ea\u05d4\u05c3"
        },
        {
            "chapter": 6,
            "verse": 14,
            "name": "Daniel 6:14",
            "text": "\u05d0\u05d3\u05d9\u05df \u05de\u05dc\u05db\u05d0 \u05db\u05d3\u05d9 \u05de\u05dc\u05ea\u05d0 \u05e9\u05de\u05e2 \u05e9\u05d2\u05d9\u05d0 \u05d1\u05d0\u05e9 \u05e2\u05dc\u05d5\u05d4\u05d9 \u05d5\u05e2\u05dc \u05d3\u05e0\u05d9\u05d0\u05dc \u05e9\u05dd \u05d1\u05dc \u05dc\u05e9\u05d9\u05d6\u05d1\u05d5\u05ea\u05d4 \u05d5\u05e2\u05d3 \u05de\u05e2\u05dc\u05d9 \u05e9\u05de\u05e9\u05d0 \u05d4\u05d5\u05d0 \u05de\u05e9\u05ea\u05d3\u05e8 \u05dc\u05d4\u05e6\u05dc\u05d5\u05ea\u05d4\u05c3"
        },
        {
            "chapter": 6,
            "verse": 15,
            "name": "Daniel 6:15",
            "text": "\u05d1\u05d0\u05d3\u05d9\u05df \u05d2\u05d1\u05e8\u05d9\u05d0 \u05d0\u05dc\u05da \u05d4\u05e8\u05d2\u05e9\u05d5 \u05e2\u05dc \u05de\u05dc\u05db\u05d0 \u05d5\u05d0\u05de\u05e8\u05d9\u05df \u05dc\u05de\u05dc\u05db\u05d0 \u05d3\u05e2 \u05de\u05dc\u05db\u05d0 \u05d3\u05d9 \u05d3\u05ea \u05dc\u05de\u05d3\u05d9 \u05d5\u05e4\u05e8\u05e1 \u05d3\u05d9 \u05db\u05dc \u05d0\u05e1\u05e8 \u05d5\u05e7\u05d9\u05dd \u05d3\u05d9 \u05de\u05dc\u05db\u05d0 \u05d9\u05d4\u05e7\u05d9\u05dd \u05dc\u05d0 \u05dc\u05d4\u05e9\u05e0\u05d9\u05d4\u05c3"
        },
        {
            "chapter": 6,
            "verse": 16,
            "name": "Daniel 6:16",
            "text": "\u05d1\u05d0\u05d3\u05d9\u05df \u05de\u05dc\u05db\u05d0 \u05d0\u05de\u05e8 \u05d5\u05d4\u05d9\u05ea\u05d9\u05d5 \u05dc\u05d3\u05e0\u05d9\u05d0\u05dc \u05d5\u05e8\u05de\u05d5 \u05dc\u05d2\u05d1\u05d0 \u05d3\u05d9 \u05d0\u05e8\u05d9\u05d5\u05ea\u05d0 \u05e2\u05e0\u05d4 \u05de\u05dc\u05db\u05d0 \u05d5\u05d0\u05de\u05e8 \u05dc\u05d3\u05e0\u05d9\u05d0\u05dc \u05d0\u05dc\u05d4\u05da \u05d3\u05d9 \u05d0\u05e0\u05ea\u05d4 \u05e4\u05dc\u05d7 \u05dc\u05d4 \u05d1\u05ea\u05d3\u05d9\u05e8\u05d0 \u05d4\u05d5\u05d0 \u05d9\u05e9\u05d9\u05d6\u05d1\u05e0\u05da\u05c3"
        },
        {
            "chapter": 6,
            "verse": 17,
            "name": "Daniel 6:17",
            "text": "\u05d5\u05d4\u05d9\u05ea\u05d9\u05ea \u05d0\u05d1\u05df \u05d7\u05d3\u05d4 \u05d5\u05e9\u05de\u05ea \u05e2\u05dc \u05e4\u05dd \u05d2\u05d1\u05d0 \u05d5\u05d7\u05ea\u05de\u05d4 \u05de\u05dc\u05db\u05d0 \u05d1\u05e2\u05d6\u05e7\u05ea\u05d4 \u05d5\u05d1\u05e2\u05d6\u05e7\u05ea \u05e8\u05d1\u05e8\u05d1\u05e0\u05d5\u05d4\u05d9 \u05d3\u05d9 \u05dc\u05d0 \u05ea\u05e9\u05e0\u05d0 \u05e6\u05d1\u05d5 \u05d1\u05d3\u05e0\u05d9\u05d0\u05dc\u05c3"
        },
        {
            "chapter": 6,
            "verse": 18,
            "name": "Daniel 6:18",
            "text": "\u05d0\u05d3\u05d9\u05df \u05d0\u05d6\u05dc \u05de\u05dc\u05db\u05d0 \u05dc\u05d4\u05d9\u05db\u05dc\u05d4 \u05d5\u05d1\u05ea \u05d8\u05d5\u05ea \u05d5\u05d3\u05d7\u05d5\u05df \u05dc\u05d0 \u05d4\u05e0\u05e2\u05dc \u05e7\u05d3\u05de\u05d5\u05d4\u05d9 \u05d5\u05e9\u05e0\u05ea\u05d4 \u05e0\u05d3\u05ea \u05e2\u05dc\u05d5\u05d4\u05d9\u05c3"
        },
        {
            "chapter": 6,
            "verse": 19,
            "name": "Daniel 6:19",
            "text": "\u05d1\u05d0\u05d3\u05d9\u05df \u05de\u05dc\u05db\u05d0 \u05d1\u05e9\u05e4\u05e8\u05e4\u05e8\u05d0 \u05d9\u05e7\u05d5\u05dd \u05d1\u05e0\u05d2\u05d4\u05d0 \u05d5\u05d1\u05d4\u05ea\u05d1\u05d4\u05dc\u05d4 \u05dc\u05d2\u05d1\u05d0 \u05d3\u05d9 \u05d0\u05e8\u05d9\u05d5\u05ea\u05d0 \u05d0\u05d6\u05dc\u05c3"
        },
        {
            "chapter": 6,
            "verse": 20,
            "name": "Daniel 6:20",
            "text": "\u05d5\u05db\u05de\u05e7\u05e8\u05d1\u05d4 \u05dc\u05d2\u05d1\u05d0 \u05dc\u05d3\u05e0\u05d9\u05d0\u05dc \u05d1\u05e7\u05dc \u05e2\u05e6\u05d9\u05d1 \u05d6\u05e2\u05e7 \u05e2\u05e0\u05d4 \u05de\u05dc\u05db\u05d0 \u05d5\u05d0\u05de\u05e8 \u05dc\u05d3\u05e0\u05d9\u05d0\u05dc \u05d3\u05e0\u05d9\u05d0\u05dc \u05e2\u05d1\u05d3 \u05d0\u05dc\u05d4\u05d0 \u05d7\u05d9\u05d0 \u05d0\u05dc\u05d4\u05da \u05d3\u05d9 \u05d0\u05e0\u05ea\u05d4 \u05e4\u05dc\u05d7 \u05dc\u05d4 \u05d1\u05ea\u05d3\u05d9\u05e8\u05d0 \u05d4\u05d9\u05db\u05dc \u05dc\u05e9\u05d9\u05d6\u05d1\u05d5\u05ea\u05da \u05de\u05df \u05d0\u05e8\u05d9\u05d5\u05ea\u05d0\u05c3"
        },
        {
            "chapter": 6,
            "verse": 21,
            "name": "Daniel 6:21",
            "text": "\u05d0\u05d3\u05d9\u05df \u05d3\u05e0\u05d9\u05d0\u05dc \u05e2\u05dd \u05de\u05dc\u05db\u05d0 \u05de\u05dc\u05dc \u05de\u05dc\u05db\u05d0 \u05dc\u05e2\u05dc\u05de\u05d9\u05df \u05d7\u05d9\u05d9\u05c3"
        },
        {
            "chapter": 6,
            "verse": 22,
            "name": "Daniel 6:22",
            "text": "\u05d0\u05dc\u05d4\u05d9 \u05e9\u05dc\u05d7 \u05de\u05dc\u05d0\u05db\u05d4 \u05d5\u05e1\u05d2\u05e8 \u05e4\u05dd \u05d0\u05e8\u05d9\u05d5\u05ea\u05d0 \u05d5\u05dc\u05d0 \u05d7\u05d1\u05dc\u05d5\u05e0\u05d9 \u05db\u05dc \u05e7\u05d1\u05dc \u05d3\u05d9 \u05e7\u05d3\u05de\u05d5\u05d4\u05d9 \u05d6\u05db\u05d5 \u05d4\u05e9\u05ea\u05db\u05d7\u05ea \u05dc\u05d9 \u05d5\u05d0\u05e3 \u05e7\u05d3\u05de\u05d9\u05da \u05de\u05dc\u05db\u05d0 \u05d7\u05d1\u05d5\u05dc\u05d4 \u05dc\u05d0 \u05e2\u05d1\u05d3\u05ea\u05c3"
        },
        {
            "chapter": 6,
            "verse": 23,
            "name": "Daniel 6:23",
            "text": "\u05d1\u05d0\u05d3\u05d9\u05df \u05de\u05dc\u05db\u05d0 \u05e9\u05d2\u05d9\u05d0 \u05d8\u05d0\u05d1 \u05e2\u05dc\u05d5\u05d4\u05d9 \u05d5\u05dc\u05d3\u05e0\u05d9\u05d0\u05dc \u05d0\u05de\u05e8 \u05dc\u05d4\u05e0\u05e1\u05e7\u05d4 \u05de\u05df \u05d2\u05d1\u05d0 \u05d5\u05d4\u05e1\u05e7 \u05d3\u05e0\u05d9\u05d0\u05dc \u05de\u05df \u05d2\u05d1\u05d0 \u05d5\u05db\u05dc \u05d7\u05d1\u05dc \u05dc\u05d0 \u05d4\u05e9\u05ea\u05db\u05d7 \u05d1\u05d4 \u05d3\u05d9 \u05d4\u05d9\u05de\u05df \u05d1\u05d0\u05dc\u05d4\u05d4\u05c3"
        },
        {
            "chapter": 6,
            "verse": 24,
            "name": "Daniel 6:24",
            "text": "\u05d5\u05d0\u05de\u05e8 \u05de\u05dc\u05db\u05d0 \u05d5\u05d4\u05d9\u05ea\u05d9\u05d5 \u05d2\u05d1\u05e8\u05d9\u05d0 \u05d0\u05dc\u05da \u05d3\u05d9 \u05d0\u05db\u05dc\u05d5 \u05e7\u05e8\u05e6\u05d5\u05d4\u05d9 \u05d3\u05d9 \u05d3\u05e0\u05d9\u05d0\u05dc \u05d5\u05dc\u05d2\u05d1 \u05d0\u05e8\u05d9\u05d5\u05ea\u05d0 \u05e8\u05de\u05d5 \u05d0\u05e0\u05d5\u05df \u05d1\u05e0\u05d9\u05d4\u05d5\u05df \u05d5\u05e0\u05e9\u05d9\u05d4\u05d5\u05df \u05d5\u05dc\u05d0 \u05de\u05d8\u05d5 \u05dc\u05d0\u05e8\u05e2\u05d9\u05ea \u05d2\u05d1\u05d0 \u05e2\u05d3 \u05d3\u05d9 \u05e9\u05dc\u05d8\u05d5 \u05d1\u05d4\u05d5\u05df \u05d0\u05e8\u05d9\u05d5\u05ea\u05d0 \u05d5\u05db\u05dc \u05d2\u05e8\u05de\u05d9\u05d4\u05d5\u05df \u05d4\u05d3\u05e7\u05d5\u05c3"
        },
        {
            "chapter": 6,
            "verse": 25,
            "name": "Daniel 6:25",
            "text": "\u05d1\u05d0\u05d3\u05d9\u05df \u05d3\u05e8\u05d9\u05d5\u05e9 \u05de\u05dc\u05db\u05d0 \u05db\u05ea\u05d1 \u05dc\u05db\u05dc \u05e2\u05de\u05de\u05d9\u05d0 \u05d0\u05de\u05d9\u05d0 \u05d5\u05dc\u05e9\u05e0\u05d9\u05d0 \u05d3\u05d9 \u05d3\u05d0\u05e8\u05d9\u05df \u05d1\u05db\u05dc \u05d0\u05e8\u05e2\u05d0 \u05e9\u05dc\u05de\u05db\u05d5\u05df \u05d9\u05e9\u05d2\u05d0\u05c3"
        },
        {
            "chapter": 6,
            "verse": 26,
            "name": "Daniel 6:26",
            "text": "\u05de\u05df \u05e7\u05d3\u05de\u05d9 \u05e9\u05d9\u05dd \u05d8\u05e2\u05dd \u05d3\u05d9 \u05d1\u05db\u05dc \u05e9\u05dc\u05d8\u05df \u05de\u05dc\u05db\u05d5\u05ea\u05d9 \u05dc\u05d4\u05d5\u05df \u05d6\u05d0\u05e2\u05d9\u05df \u05d5\u05d3\u05d7\u05dc\u05d9\u05df \u05de\u05df \u05e7\u05d3\u05dd \u05d0\u05dc\u05d4\u05d4 \u05d3\u05d9 \u05d3\u05e0\u05d9\u05d0\u05dc \u05d3\u05d9 \u05d4\u05d5\u05d0 \u05d0\u05dc\u05d4\u05d0 \u05d7\u05d9\u05d0 \u05d5\u05e7\u05d9\u05dd \u05dc\u05e2\u05dc\u05de\u05d9\u05df \u05d5\u05de\u05dc\u05db\u05d5\u05ea\u05d4 \u05d3\u05d9 \u05dc\u05d0 \u05ea\u05ea\u05d7\u05d1\u05dc \u05d5\u05e9\u05dc\u05d8\u05e0\u05d4 \u05e2\u05d3 \u05e1\u05d5\u05e4\u05d0\u05c3"
        },
        {
            "chapter": 6,
            "verse": 27,
            "name": "Daniel 6:27",
            "text": "\u05de\u05e9\u05d9\u05d6\u05d1 \u05d5\u05de\u05e6\u05dc \u05d5\u05e2\u05d1\u05d3 \u05d0\u05ea\u05d9\u05df \u05d5\u05ea\u05de\u05d4\u05d9\u05df \u05d1\u05e9\u05de\u05d9\u05d0 \u05d5\u05d1\u05d0\u05e8\u05e2\u05d0 \u05d3\u05d9 \u05e9\u05d9\u05d6\u05d9\u05d1 \u05dc\u05d3\u05e0\u05d9\u05d0\u05dc \u05de\u05df \u05d9\u05d3 \u05d0\u05e8\u05d9\u05d5\u05ea\u05d0\u05c3"
        },
        {
            "chapter": 6,
            "verse": 28,
            "name": "Daniel 6:28",
            "text": "\u05d5\u05d3\u05e0\u05d9\u05d0\u05dc \u05d3\u05e0\u05d4 \u05d4\u05e6\u05dc\u05d7 \u05d1\u05de\u05dc\u05db\u05d5\u05ea \u05d3\u05e8\u05d9\u05d5\u05e9 \u05d5\u05d1\u05de\u05dc\u05db\u05d5\u05ea \u05db\u05d5\u05e8\u05e9 \u05e4\u05e8\u05e1\u05d9\u05d0\u05c3"
        }
    ]
}