{
    "translation": "Samaritan Pentateuch with variant readings",
    "abbreviation": "spvar",
    "lang": "he",
    "language": "Hebrew",
    "direction": "RTL",
    "encoding": "UTF-8",
    "book_nr": 19,
    "book_name": "Psalms",
    "chapter": 10,
    "name": "Psalms 10",
    "verses": [
        {
            "chapter": 10,
            "verse": 1,
            "name": "Psalms 10:1",
            "text": ""
        },
        {
            "chapter": 10,
            "verse": 2,
            "name": "Psalms 10:2",
            "text": ""
        },
        {
            "chapter": 10,
            "verse": 3,
            "name": "Psalms 10:3",
            "text": ""
        },
        {
            "chapter": 10,
            "verse": 4,
            "name": "Psalms 10:4",
            "text": ""
        },
        {
            "chapter": 10,
            "verse": 5,
            "name": "Psalms 10:5",
            "text": ""
        },
        {
            "chapter": 10,
            "verse": 6,
            "name": "Psalms 10:6",
            "text": ""
        },
        {
            "chapter": 10,
            "verse": 7,
            "name": "Psalms 10:7",
            "text": ""
        },
        {
            "chapter": 10,
            "verse": 8,
            "name": "Psalms 10:8",
            "text": ""
        },
        {
            "chapter": 10,
            "verse": 9,
            "name": "Psalms 10:9",
            "text": ""
        },
        {
            "chapter": 10,
            "verse": 10,
            "name": "Psalms 10:10",
            "text": ""
        },
        {
            "chapter": 10,
            "verse": 11,
            "name": "Psalms 10:11",
            "text": ""
        },
        {
            "chapter": 10,
            "verse": 12,
            "name": "Psalms 10:12",
            "text": ""
        },
        {
            "chapter": 10,
            "verse": 13,
            "name": "Psalms 10:13",
            "text": ""
        },
        {
            "chapter": 10,
            "verse": 14,
            "name": "Psalms 10:14",
            "text": ""
        },
        {
            "chapter": 10,
            "verse": 15,
            "name": "Psalms 10:15",
            "text": ""
        },
        {
            "chapter": 10,
            "verse": 16,
            "name": "Psalms 10:16",
            "text": ""
        },
        {
            "chapter": 10,
            "verse": 17,
            "name": "Psalms 10:17",
            "text": ""
        },
        {
            "chapter": 10,
            "verse": 18,
            "name": "Psalms 10:18",
            "text": ""
        }
    ]
}