{
    "translation": "Samaritan Pentateuch with variant readings",
    "abbreviation": "spvar",
    "lang": "he",
    "language": "Hebrew",
    "direction": "RTL",
    "encoding": "UTF-8",
    "book_nr": 19,
    "book_name": "Psalms",
    "chapter": 108,
    "name": "Psalms 108",
    "verses": [
        {
            "chapter": 108,
            "verse": 1,
            "name": "Psalms 108:1",
            "text": ""
        },
        {
            "chapter": 108,
            "verse": 2,
            "name": "Psalms 108:2",
            "text": ""
        },
        {
            "chapter": 108,
            "verse": 3,
            "name": "Psalms 108:3",
            "text": ""
        },
        {
            "chapter": 108,
            "verse": 4,
            "name": "Psalms 108:4",
            "text": ""
        },
        {
            "chapter": 108,
            "verse": 5,
            "name": "Psalms 108:5",
            "text": ""
        },
        {
            "chapter": 108,
            "verse": 6,
            "name": "Psalms 108:6",
            "text": ""
        },
        {
            "chapter": 108,
            "verse": 7,
            "name": "Psalms 108:7",
            "text": ""
        },
        {
            "chapter": 108,
            "verse": 8,
            "name": "Psalms 108:8",
            "text": ""
        },
        {
            "chapter": 108,
            "verse": 9,
            "name": "Psalms 108:9",
            "text": ""
        },
        {
            "chapter": 108,
            "verse": 10,
            "name": "Psalms 108:10",
            "text": ""
        },
        {
            "chapter": 108,
            "verse": 11,
            "name": "Psalms 108:11",
            "text": ""
        },
        {
            "chapter": 108,
            "verse": 12,
            "name": "Psalms 108:12",
            "text": ""
        },
        {
            "chapter": 108,
            "verse": 13,
            "name": "Psalms 108:13",
            "text": ""
        },
        {
            "chapter": 108,
            "verse": 14,
            "name": "Psalms 108:14",
            "text": ""
        }
    ]
}