{
    "translation": "La Bible Augustin Crampon 1923",
    "abbreviation": "frecrampon",
    "lang": "fr",
    "language": "French",
    "direction": "LTR",
    "encoding": "UTF-8",
    "book_nr": 19,
    "book_name": "Psalms",
    "chapter": 32,
    "name": "Psalms 32",
    "verses": [
        {
            "chapter": 32,
            "verse": 1,
            "name": "Psalms 32:1",
            "text": "Justes, r\u00e9jouissez-vous en Yahweh ! Aux hommes droits sied la louange."
        },
        {
            "chapter": 32,
            "verse": 2,
            "name": "Psalms 32:2",
            "text": "C\u00e9l\u00e9brez Yahweh avec la harpe, chantez-le sur le luth \u00e0 dix cordes."
        },
        {
            "chapter": 32,
            "verse": 3,
            "name": "Psalms 32:3",
            "text": "Chantez \u00e0 sa gloire un cantique nouveau; unissez avec art vos instruments et vos voix."
        },
        {
            "chapter": 32,
            "verse": 4,
            "name": "Psalms 32:4",
            "text": "Car la parole de Yahweh est droite, et toutes ses oeuvres s'accomplissent dans la fid\u00e9lit\u00e9."
        },
        {
            "chapter": 32,
            "verse": 5,
            "name": "Psalms 32:5",
            "text": "il aime la justice et la droiture ; la terre est remplie de la bont\u00e9 de Yahweh."
        },
        {
            "chapter": 32,
            "verse": 6,
            "name": "Psalms 32:6",
            "text": "Par la parole de Yahweh les cieux ont \u00e9t\u00e9 faits, et toute leur arm\u00e9e par le souffle de sa bouche."
        },
        {
            "chapter": 32,
            "verse": 7,
            "name": "Psalms 32:7",
            "text": "Il rassemble comme en un monceau les eaux de la mer ; il met dans des r\u00e9servoirs les flots de l'ab\u00eeme."
        },
        {
            "chapter": 32,
            "verse": 8,
            "name": "Psalms 32:8",
            "text": "Que toute la terre craigne Yahweh ! Que tous les habitants de l'univers tremblent devant lui"
        },
        {
            "chapter": 32,
            "verse": 9,
            "name": "Psalms 32:9",
            "text": "Car il a dit, et tout a \u00e9t\u00e9 fait ; il a ordonn\u00e9, et tout a exist\u00e9."
        },
        {
            "chapter": 32,
            "verse": 10,
            "name": "Psalms 32:10",
            "text": "Yahweh renverse les desseins des nations; il r\u00e9duit \u00e0 n\u00e9ant les pens\u00e9es des peuples."
        },
        {
            "chapter": 32,
            "verse": 11,
            "name": "Psalms 32:11",
            "text": "Mais les desseins de Yahweh subsistent \u00e0 jamais, et les pens\u00e9es de son coeur dans toutes les g\u00e9n\u00e9rations."
        },
        {
            "chapter": 32,
            "verse": 12,
            "name": "Psalms 32:12",
            "text": "Heureuse la nation dont Yahweh est le Dieu, heureux le peuple qu'il a choisi pour son h\u00e9ritage !"
        },
        {
            "chapter": 32,
            "verse": 13,
            "name": "Psalms 32:13",
            "text": "Du haut des cieux Yahweh regarde, il voit tous les enfants des hommes ;"
        },
        {
            "chapter": 32,
            "verse": 14,
            "name": "Psalms 32:14",
            "text": "du lieu de sa demeure, il observe tous les habitants de la terre,"
        },
        {
            "chapter": 32,
            "verse": 15,
            "name": "Psalms 32:15",
            "text": "lui qui forme leur c\u0153ur \u00e0 tous, qui est attentif \u00e0 toutes leurs actions."
        },
        {
            "chapter": 32,
            "verse": 16,
            "name": "Psalms 32:16",
            "text": "Ce n'est pas le nombre des soldats qui donne au roi la victoire, ce n'est pas une grande force qui fait triompher le guerrier."
        },
        {
            "chapter": 32,
            "verse": 17,
            "name": "Psalms 32:17",
            "text": "Le cheval est impuissant \u00e0 procurer le salut, et toute sa vigueur n'assure pas la d\u00e9livrance."
        },
        {
            "chapter": 32,
            "verse": 18,
            "name": "Psalms 32:18",
            "text": "L'oeil de Yahweh est sur ceux qui le craignent, sur ceux qui esp\u00e8rent en sa bont\u00e9,"
        },
        {
            "chapter": 32,
            "verse": 19,
            "name": "Psalms 32:19",
            "text": "pour d\u00e9livrer leur \u00e2me de la mort, et les faire vivre au temps de la famine."
        },
        {
            "chapter": 32,
            "verse": 20,
            "name": "Psalms 32:20",
            "text": "Notre \u00e2me attend avec confiance Yahweh; il est notre secours et notre bouclier;"
        },
        {
            "chapter": 32,
            "verse": 21,
            "name": "Psalms 32:21",
            "text": "car en lui notre coeur met sa joie, car en son saint nom nous mettons notre confiance."
        },
        {
            "chapter": 32,
            "verse": 22,
            "name": "Psalms 32:22",
            "text": "Yahweh, que ta gr\u00e2ce soit sur nous, comme nous esp\u00e9rons en toi ! "
        }
    ]
}