{
    "translation": "World English Bible: Messianic Edition",
    "abbreviation": "webme",
    "lang": "en",
    "language": "English",
    "direction": "LTR",
    "encoding": "UTF-8",
    "book_nr": 13,
    "book_name": "1 Chronicles",
    "chapter": 1,
    "name": "1 Chronicles 1",
    "verses": [
        {
            "chapter": 1,
            "verse": 1,
            "name": "1 Chronicles 1:1",
            "text": "Adam, Seth, Enosh,"
        },
        {
            "chapter": 1,
            "verse": 2,
            "name": "1 Chronicles 1:2",
            "text": "Kenan, Mahalalel, Jared,"
        },
        {
            "chapter": 1,
            "verse": 3,
            "name": "1 Chronicles 1:3",
            "text": "Enoch, Methuselah, Lamech,"
        },
        {
            "chapter": 1,
            "verse": 4,
            "name": "1 Chronicles 1:4",
            "text": "Noah, Shem, Ham, and Japheth."
        },
        {
            "chapter": 1,
            "verse": 5,
            "name": "1 Chronicles 1:5",
            "text": "The sons of Japheth: Gomer, and Magog, and Madai, and Javan, and Tubal, and Meshech, and Tiras."
        },
        {
            "chapter": 1,
            "verse": 6,
            "name": "1 Chronicles 1:6",
            "text": "The sons of Gomer: Ashkenaz, and Diphath, and Togarmah."
        },
        {
            "chapter": 1,
            "verse": 7,
            "name": "1 Chronicles 1:7",
            "text": "The sons of Javan: Elishah, and Tarshish, Kittim, and Rodanim."
        },
        {
            "chapter": 1,
            "verse": 8,
            "name": "1 Chronicles 1:8",
            "text": "The sons of Ham: Cush, and Mizraim, Put, and Canaan."
        },
        {
            "chapter": 1,
            "verse": 9,
            "name": "1 Chronicles 1:9",
            "text": "The sons of Cush: Seba, and Havilah, and Sabta, and Raama, and Sabteca. The sons of Raamah: Sheba, and Dedan."
        },
        {
            "chapter": 1,
            "verse": 10,
            "name": "1 Chronicles 1:10",
            "text": "Cush became the father of Nimrod; he began to be a mighty one in the earth."
        },
        {
            "chapter": 1,
            "verse": 11,
            "name": "1 Chronicles 1:11",
            "text": "Mizraim became the father of Ludim, and Anamim, and Lehabim, and Naphtuhim,"
        },
        {
            "chapter": 1,
            "verse": 12,
            "name": "1 Chronicles 1:12",
            "text": "and Pathrusim, and Casluhim (where the Philistines came from), and Caphtorim."
        },
        {
            "chapter": 1,
            "verse": 13,
            "name": "1 Chronicles 1:13",
            "text": "Canaan became the father of Sidon his firstborn, and Heth,"
        },
        {
            "chapter": 1,
            "verse": 14,
            "name": "1 Chronicles 1:14",
            "text": "and the Jebusite, and the Amorite, and the Girgashite,"
        },
        {
            "chapter": 1,
            "verse": 15,
            "name": "1 Chronicles 1:15",
            "text": "and the Hivite, and the Arkite, and the Sinite,"
        },
        {
            "chapter": 1,
            "verse": 16,
            "name": "1 Chronicles 1:16",
            "text": "and the Arvadite, and the Zemarite, and the Hamathite."
        },
        {
            "chapter": 1,
            "verse": 17,
            "name": "1 Chronicles 1:17",
            "text": "The sons of Shem: Elam, and Asshur, and Arpachshad, and Lud, and Aram, and Uz, and Hul, and Gether, and Meshech."
        },
        {
            "chapter": 1,
            "verse": 18,
            "name": "1 Chronicles 1:18",
            "text": "Arpachshad became the father of Shelah, and Shelah became the father of Eber."
        },
        {
            "chapter": 1,
            "verse": 19,
            "name": "1 Chronicles 1:19",
            "text": "To Eber were born two sons: the name of the one was Peleg; for in his days the earth was divided; and his brother\u2019s name was Joktan."
        },
        {
            "chapter": 1,
            "verse": 20,
            "name": "1 Chronicles 1:20",
            "text": "Joktan became the father of Almodad, and Sheleph, and Hazarmaveth, and Jerah,"
        },
        {
            "chapter": 1,
            "verse": 21,
            "name": "1 Chronicles 1:21",
            "text": "and Hadoram, and Uzal, and Diklah,"
        },
        {
            "chapter": 1,
            "verse": 22,
            "name": "1 Chronicles 1:22",
            "text": "and Ebal, and Abimael, and Sheba,"
        },
        {
            "chapter": 1,
            "verse": 23,
            "name": "1 Chronicles 1:23",
            "text": "and Ophir, and Havilah, and Jobab. All these were the sons of Joktan."
        },
        {
            "chapter": 1,
            "verse": 24,
            "name": "1 Chronicles 1:24",
            "text": "Shem, Arpachshad, Shelah,"
        },
        {
            "chapter": 1,
            "verse": 25,
            "name": "1 Chronicles 1:25",
            "text": "Eber, Peleg, Reu,"
        },
        {
            "chapter": 1,
            "verse": 26,
            "name": "1 Chronicles 1:26",
            "text": "Serug, Nahor, Terah,"
        },
        {
            "chapter": 1,
            "verse": 27,
            "name": "1 Chronicles 1:27",
            "text": "Abram (the same is Abraham)."
        },
        {
            "chapter": 1,
            "verse": 28,
            "name": "1 Chronicles 1:28",
            "text": "The sons of Abraham: Isaac, and Ishmael."
        },
        {
            "chapter": 1,
            "verse": 29,
            "name": "1 Chronicles 1:29",
            "text": "These are their generations: the firstborn of Ishmael, Nebaioth; then Kedar, and Adbeel, and Mibsam,"
        },
        {
            "chapter": 1,
            "verse": 30,
            "name": "1 Chronicles 1:30",
            "text": "Mishma, and Dumah, Massa, Hadad, and Tema,"
        },
        {
            "chapter": 1,
            "verse": 31,
            "name": "1 Chronicles 1:31",
            "text": "Jetur, Naphish, and Kedemah. These are the sons of Ishmael."
        },
        {
            "chapter": 1,
            "verse": 32,
            "name": "1 Chronicles 1:32",
            "text": "The sons of Keturah, Abraham\u2019s concubine: she bore Zimran, and Jokshan, and Medan, and Midian, and Ishbak, and Shuah. The sons of Jokshan: Sheba, and Dedan."
        },
        {
            "chapter": 1,
            "verse": 33,
            "name": "1 Chronicles 1:33",
            "text": "The sons of Midian: Ephah, and Epher, and Hanoch, and Abida, and Eldaah. All these were the sons of Keturah."
        },
        {
            "chapter": 1,
            "verse": 34,
            "name": "1 Chronicles 1:34",
            "text": "Abraham became the father of Isaac. The sons of Isaac: Esau, and Israel."
        },
        {
            "chapter": 1,
            "verse": 35,
            "name": "1 Chronicles 1:35",
            "text": "The sons of Esau: Eliphaz, Reuel, and Jeush, and Jalam, and Korah."
        },
        {
            "chapter": 1,
            "verse": 36,
            "name": "1 Chronicles 1:36",
            "text": "The sons of Eliphaz: Teman, and Omar, Zephi, and Gatam, Kenaz, and Timna, and Amalek."
        },
        {
            "chapter": 1,
            "verse": 37,
            "name": "1 Chronicles 1:37",
            "text": "The sons of Reuel: Nahath, Zerah, Shammah, and Mizzah."
        },
        {
            "chapter": 1,
            "verse": 38,
            "name": "1 Chronicles 1:38",
            "text": "The sons of Seir: Lotan, and Shobal, and Zibeon, and Anah, and Dishon, and Ezer, and Dishan."
        },
        {
            "chapter": 1,
            "verse": 39,
            "name": "1 Chronicles 1:39",
            "text": "The sons of Lotan: Hori, and Homam; and Timna was Lotan\u2019s sister."
        },
        {
            "chapter": 1,
            "verse": 40,
            "name": "1 Chronicles 1:40",
            "text": "The sons of Shobal: Alian, and Manahath, and Ebal, Shephi, and Onam. The sons of Zibeon: Aiah, and Anah."
        },
        {
            "chapter": 1,
            "verse": 41,
            "name": "1 Chronicles 1:41",
            "text": "The sons of Anah: Dishon. The sons of Dishon: Hamran, and Eshban, and Ithran, and Cheran."
        },
        {
            "chapter": 1,
            "verse": 42,
            "name": "1 Chronicles 1:42",
            "text": "The sons of Ezer: Bilhan, and Zaavan, Jaakan. The sons of Dishan: Uz, and Aran."
        },
        {
            "chapter": 1,
            "verse": 43,
            "name": "1 Chronicles 1:43",
            "text": "Now these are the kings who reigned in the land of Edom, before there reigned any king over the children of Israel: Bela the son of Beor; and the name of his city was Dinhabah."
        },
        {
            "chapter": 1,
            "verse": 44,
            "name": "1 Chronicles 1:44",
            "text": "Bela died, and Jobab the son of Zerah of Bozrah reigned in his place."
        },
        {
            "chapter": 1,
            "verse": 45,
            "name": "1 Chronicles 1:45",
            "text": "Jobab died, and Husham of the land of the Temanites reigned in his place."
        },
        {
            "chapter": 1,
            "verse": 46,
            "name": "1 Chronicles 1:46",
            "text": "Husham died, and Hadad the son of Bedad, who struck Midian in the field of Moab, reigned in his place; and the name of his city was Avith."
        },
        {
            "chapter": 1,
            "verse": 47,
            "name": "1 Chronicles 1:47",
            "text": "Hadad died, and Samlah of Masrekah reigned in his place."
        },
        {
            "chapter": 1,
            "verse": 48,
            "name": "1 Chronicles 1:48",
            "text": "Samlah died, and Shaul of Rehoboth by the River reigned in his place."
        },
        {
            "chapter": 1,
            "verse": 49,
            "name": "1 Chronicles 1:49",
            "text": "Shaul died, and Baal Hanan the son of Achbor reigned in his place."
        },
        {
            "chapter": 1,
            "verse": 50,
            "name": "1 Chronicles 1:50",
            "text": "Baal Hanan died, and Hadad reigned in his place; and the name of his city was Pai: and his wife\u2019s name was Mehetabel, the daughter of Matred, the daughter of Mezahab."
        },
        {
            "chapter": 1,
            "verse": 51,
            "name": "1 Chronicles 1:51",
            "text": "Hadad died. The chiefs of Edom were: chief Timna, chief Aliah, chief Jetheth,"
        },
        {
            "chapter": 1,
            "verse": 52,
            "name": "1 Chronicles 1:52",
            "text": "chief Oholibamah, chief Elah, chief Pinon,"
        },
        {
            "chapter": 1,
            "verse": 53,
            "name": "1 Chronicles 1:53",
            "text": "chief Kenaz, chief Teman, chief Mibzar,"
        },
        {
            "chapter": 1,
            "verse": 54,
            "name": "1 Chronicles 1:54",
            "text": "chief Magdiel, chief Iram. These are the chiefs of Edom.   "
        }
    ]
}