{
    "translation": "Cherokee New Testament (1860)",
    "abbreviation": "che1860",
    "lang": "chr",
    "language": "Cherokee",
    "direction": "LTR",
    "encoding": "UTF-8",
    "book_nr": 46,
    "book_name": "1 Corinthians",
    "chapter": 6,
    "name": "1 Corinthians 6",
    "verses": [
        {
            "chapter": 6,
            "verse": 1,
            "name": "1 Corinthians 6:1",
            "text": "\u13a2\u13f3\u13c3 \u13a9\u13b6 \u13a2\u13e4\u13b2 \u13aa\u13b1\u13cd\u13d7 \u13f3\u13ad \u13c5\u13e9\u13d3\u13b4 \u13a4\u13f0\u13a2\u13b5\u13d3\u13cd\u13d9\u13d7, \u13f0\u13b5\u13c9\u13cd\u13aa \u13c2\u13da\u13f3\u13aa\u13db\u13be \u13a2\u13ef\u13be\u13db\u13c1\u13af \u13da\u13c3\u13b8 \u13f1\u13d5\u13e3\u13d3\u13f0\u13a2\u13b5\u13d3, \u13a5\u13dd\u13c3 \u13a4\u13be\u13d3\u13c5\u13d8 \u13da\u13c3\u13b8\u13a2?"
        },
        {
            "chapter": 6,
            "verse": 2,
            "name": "1 Corinthians 6:2",
            "text": "\u13dd\u13cd\u13aa \u13f1\u13e5\u13a6\u13d4\u13ad \u13a4\u13be\u13d3\u13c5\u13d8 \u13a1\u13b6\u13af \u13e7\u13c4\u13aa\u13d3\u13c1\u13d7 \u13a8\u13d2\u13a2? \u13a2\u13f3\u13c3 \u13a1\u13b6\u13af \u13d7\u13e7\u13aa\u13d3\u13c1\u13d7 \u13a8\u13ce\u13cd\u13d7, \u13dd\u13cd\u13aa \u13f0\u13b5 \u13a4\u13cd\u13d7 \u13a7\u13c2 \u13a8\u13d2 \u13d7\u13a8\u13e7\u13aa\u13d9\u13d7 \u13f1\u13a9?"
        },
        {
            "chapter": 6,
            "verse": 3,
            "name": "1 Corinthians 6:3",
            "text": "\u13dd\u13cd\u13aa \u13f1\u13e5\u13a6\u13d4\u13ad \u13d7\u13c2\u13a7\u13bf\u13e9\u13d7\u13d9\u13af \u13d7\u13a8\u13da\u13aa\u13d3\u13c1\u13d7 \u13a8\u13d2\u13a2? \u13a5\u13dd\u13cd\u13aa\u13c3 \u13f0\u13b5 \u13f1\u13d9\u13a8\u13da\u13aa\u13d3 \u13aa\u13b1\u13cd\u13d7 \u13aa\u13af\u13c9 \u13a8\u13d2 \u13a4\u13ac\u13e9\u13b5?"
        },
        {
            "chapter": 6,
            "verse": 4,
            "name": "1 Corinthians 6:4",
            "text": "\u13a2\u13f3\u13c3 \u13aa\u13b1\u13cd\u13d7 \u13f1\u13e5\u13ad \u13d7\u13ab\u13aa\u13d9\u13d7 \u13aa\u13af\u13c9 \u13a8\u13d2 \u13a4\u13ac\u13e9\u13b5, \u13be\u13cd\u13a9 \u13d5\u13e5\u13a7\u13b2\u13cd\u13a8\u13cd\u13d7 \u13e7\u13c4\u13aa\u13d9\u13d7\u13f1 \u13a1\u13cd\u13a6 \u13a2\u13f4\u13db \u13a8\u13e5\u13f0\u13b8\u13a2 \u13be\u13bf \u13a2\u13e3\u13d3\u13e1\u13ac\u13a2."
        },
        {
            "chapter": 6,
            "verse": 5,
            "name": "1 Corinthians 6:5",
            "text": "\u13a2\u13e3\u13d5\u13b0\u13af\u13cd\u13d7\u13cd\u13a9 \u13af\u13a0 \u13e5\u13c2\u13e5\u13ea\u13a0. \u13b0\u13e9\u13cd\u13aa \u13a5\u13dd \u13f0\u13ad \u13c2\u13e3\u13db\u13c5 \u13cc\u13c9\u13a4\u13c5 \u13a0\u13a6\u13d4\u13bf\u13a2 \u13f0\u13b5 \u13d7\u13ac\u13ed\u13aa\u13d3\u13c1\u13d7 \u13a0\u13c1\u13b5\u13c5\u13df \u13d3\u13be\u13d3\u13f0\u13a2\u13b5\u13d9\u13b2\u13a2?"
        },
        {
            "chapter": 6,
            "verse": 6,
            "name": "1 Corinthians 6:6",
            "text": "\u13a0\u13be\u13b5\u13c5\u13df\u13cd\u13a9\u13c2 \u13d3\u13be\u13d3\u13f0\u13a2\u13b5\u13d9\u13ad \u13a4\u13c5\u13d2, \u13a0\u13b4 \u13be\u13cd\u13a9 \u13da\u13c3\u13b8 \u13c4\u13c3\u13af\u13f3\u13d2\u13be."
        },
        {
            "chapter": 6,
            "verse": 7,
            "name": "1 Corinthians 6:7",
            "text": "\u13be\u13cd\u13a9 \u13e5\u13c4\u13cd\u13d7 \u13ac\u13c2\u13a8\u13d2\u13a2\u13f3 \u13a4\u13e3\u13d8\u13c2 \u13c2\u13e3\u13db\u13c1\u13b2\u13a2, \u13c5\u13d7\u13a6\u13b5\u13cd\u13d9\u13d7\u13ad \u13a2\u13e8\u13d2\u13c9 \u13d5\u13e3\u13d3\u13f0\u13a2\u13b5\u13d9\u13b2\u13a2. \u13a6\u13d9\u13c3 \u13a4\u13df \u13a3\u13cf\u13f3 \u13c2\u13e5\u13f0\u13b8\u13cd\u13ac\u13be \u13e5\u13a9 \u13a4\u13f2 \u13a2\u13f0\u13e8\u13c1\u13d7\u13f1? \u13a6\u13d9\u13c3 \u13a4\u13df \u13a3\u13cf\u13f3 \u13c2\u13e5\u13f0\u13b8\u13cd\u13ac\u13be \u13e5\u13a9 \u13e7\u13ac\u13e9\u13b6\u13d7 \u13a1\u13e5\u13a9\u13a1\u13d7\u13f1?"
        },
        {
            "chapter": 6,
            "verse": 8,
            "name": "1 Corinthians 6:8",
            "text": "\u13a4\u13e3\u13d8\u13c2\u13cd\u13a9\u13c2 \u13c2\u13e3\u13db\u13c1\u13ad, \u13a0\u13b4 \u13e7\u13ac\u13e9\u13b6\u13d7 \u13d5\u13e5\u13a9\u13a1\u13ad, \u13a0\u13b4 \u13be\u13cd\u13a9 \u13a2\u13e3\u13b5\u13c5\u13df."
        },
        {
            "chapter": 6,
            "verse": 9,
            "name": "1 Corinthians 6:9",
            "text": "\u13dd\u13cd\u13aa \u13f1\u13e5\u13a6\u13d4\u13ad \u13be\u13cd\u13a9 \u13c2\u13da\u13f3\u13aa\u13db\u13be \u13a2\u13ef\u13be\u13db\u13c1\u13af \u13a4\u13be\u13e4\u13b5 \u13a2\u13f3\u13b5\u13cd\u13d9\u13d7 \u13c2\u13a8\u13d2\u13be \u13a8\u13d2 \u13a4\u13c1\u13b3\u13c5\u13af \u13a4\u13e4\u13b5\u13aa\u13af? \u13de\u13cd\u13d7 \u13a2\u13e5\u13b5\u13d3\u13cd\u13d4\u13c5\u13a9; \u13be\u13cd\u13c9 \u13a4\u13d5\u13b5\u13db \u13d7\u13be\u13c2\u13cf\u13b2\u13cd\u13a9, \u13a0\u13b4 \u13a4\u13be\u13b3\u13c5\u13af \u13d7\u13f0\u13b8\u13af \u13d7\u13be\u13d3\u13d9\u13b5\u13cd\u13d3\u13c1\u13af, \u13a0\u13b4 \u13d7\u13be\u13d3\u13f2\u13c1\u13af, \u13a0\u13b4 \u13a0\u13c2\u13cd\u13a6\u13ef \u13d7\u13a8\u13e5\u13f0\u13a9, \u13a0\u13b4 \u13a0\u13c2\u13cd\u13a6\u13ef \u13a0\u13c2\u13cd\u13a6\u13ef\u13c9 \u13d7\u13c2\u13d0\u13e2\u13d7\u13cd\u13a9,"
        },
        {
            "chapter": 6,
            "verse": 10,
            "name": "1 Corinthians 6:10",
            "text": "\u13a0\u13b4 \u13a0\u13c2\u13c3\u13cd\u13a9\u13cd\u13a9, \u13a0\u13b4 \u13a4\u13c2\u13ac\u13a5\u13cd\u13a9, \u13a0\u13b4 \u13e7\u13c2\u13f4\u13cd\u13d5\u13cd\u13a9, \u13a0\u13b4 \u13a0\u13be\u13d3\u13d0\u13ae\u13af, \u13a0\u13b4 \u13a4\u13b6\u13d2\u13cd\u13d7 \u13a0\u13be\u13d3\u13a9\u13a1\u13af, \u13be\u13cd\u13a9 \u13a5\u13dd \u13a4\u13be\u13e4\u13b5 \u13f1\u13a8\u13ce\u13cd\u13d7 \u13a4\u13c1\u13b3\u13c5\u13af \u13a4\u13e4\u13b5\u13aa\u13af."
        },
        {
            "chapter": 6,
            "verse": 11,
            "name": "1 Corinthians 6:11",
            "text": "\u13a0\u13b4 \u13a2\u13a6\u13db \u13c2\u13af \u13be\u13cd\u13a9 \u13c2\u13e3\u13cd\u13db\u13a9; \u13a0\u13ce\u13c3 \u13a1\u13e6\u13d1\u13b4\u13a5\u13af, \u13a0\u13ce\u13c3 \u13a2\u13e3\u13d3\u13c5\u13d8 \u13a2\u13f0\u13e8\u13c1\u13b8\u13af, \u13a0\u13ce\u13c3 \u13a1\u13e7\u13d3\u13b4\u13db \u13a4\u13ac\u13eb\u13f3\u13af \u13e5\u13cc \u13da\u13d9\u13cd\u13db\u13a2, \u13a0\u13b4 \u13ac\u13d4\u13c5\u13af \u13a2\u13a6\u13c1\u13b3\u13c5\u13af \u13a4\u13d3\u13c5\u13d9."
        },
        {
            "chapter": 6,
            "verse": 12,
            "name": "1 Corinthians 6:12",
            "text": "\u13c2\u13a6\u13a5 \u13aa\u13b1\u13cd\u13d7 \u13a4\u13c1\u13b3\u13a9 \u13a5\u13c7\u13b5\u13ce\u13b8, \u13a0\u13ce\u13c3 \u13a5\u13dd \u13c2\u13a6\u13d7\u13f3 \u13ac\u13e9\u13d3\u13cd\u13d5\u13b8\u13d7 \u13f1\u13a9; \u13c2\u13a6\u13a5 \u13aa\u13b1\u13cd\u13d7 \u13a4\u13c1\u13b3\u13a9 \u13a5\u13c7\u13b5\u13ce\u13b8, \u13a0\u13ce\u13c3 \u13a5\u13dd \u13a0\u13a9\u13be\u13dd\u13a2 \u13f1\u13a8\u13ce\u13cd\u13d7 \u13aa\u13b1\u13cd\u13d7."
        },
        {
            "chapter": 6,
            "verse": 13,
            "name": "1 Corinthians 6:13",
            "text": "\u13a0\u13b5\u13cd\u13d3\u13f4\u13d7 \u13a4\u13cd\u13c9\u13b5\u13f1 \u13a4\u13ac\u13e9\u13b5 \u13aa\u13e2\u13c5\u13af, \u13a0\u13b4 \u13a4\u13cd\u13c9\u13b5\u13f1 \u13a0\u13b5\u13cd\u13d3\u13f4\u13d7 \u13a4\u13ac\u13e9\u13b5 \u13aa\u13e2\u13c5\u13af; \u13a0\u13ce\u13c3 \u13a4\u13c1\u13b3\u13c5\u13af \u13d9\u13db\u13db\u13d4\u13c2 \u13a2\u13e7\u13b3 \u13a4\u13cd\u13c9\u13b5\u13a9 \u13a0\u13b4 \u13a0\u13b5\u13cd\u13d3\u13f4\u13d7. \u13a0\u13f0\u13b8\u13c3 \u13a5\u13dd \u13a4\u13d5\u13b5\u13db \u13d7\u13c2\u13cf\u13d7 \u13a8\u13d2 \u13a4\u13ac\u13e9\u13b5 \u13aa\u13e2\u13c5\u13af \u13f1\u13a9, \u13a4\u13ac\u13eb\u13f3\u13af\u13cd\u13a9\u13c2 \u13a4\u13ac\u13e9\u13b5 \u13aa\u13e2\u13c5\u13af; \u13a0\u13b4 \u13a4\u13ac\u13eb\u13f3\u13af \u13a0\u13f0\u13b5 \u13a4\u13ac\u13e9\u13b5 \u13a0\u13b5\u13cd\u13aa\u13b8\u13d4\u13c5\u13af."
        },
        {
            "chapter": 6,
            "verse": 14,
            "name": "1 Corinthians 6:14",
            "text": "\u13a0\u13b4 \u13a4\u13c1\u13b3\u13c5\u13af \u13d5\u13a4\u13b4\u13d4\u13c5 \u13a4\u13ac\u13eb\u13f3\u13af, \u13a0\u13b4 \u13be\u13cd\u13c9 \u13a0\u13f4 \u13d9\u13d3\u13a6\u13b4\u13d4\u13c2 \u13d3\u13ac\u13d4\u13c2 \u13a4\u13e9\u13d2 \u13a4\u13b5\u13c2\u13a9\u13d7\u13f3 \u13a8\u13d2\u13a2."
        },
        {
            "chapter": 6,
            "verse": 15,
            "name": "1 Corinthians 6:15",
            "text": "\u13dd\u13cd\u13aa \u13f1\u13e5\u13a6\u13d4\u13ad \u13be\u13cd\u13a9 \u13c2\u13af \u13d7\u13e5\u13f0\u13b8 \u13a6\u13b6\u13c1\u13db \u13a4\u13da\u13d3\u13d5\u13eb\u13cd\u13db\u13a2? \u13e5\u13aa\u13c3 \u13a6\u13b6\u13c1\u13db \u13a4\u13da\u13d3\u13d5\u13eb\u13d2 \u13d9\u13d3\u13e5\u13ef\u13c5\u13af, \u13a4\u13c1\u13ab\u13e5\u13db\u13c3 \u13a0\u13a8\u13f4 \u13e7\u13be\u13da\u13d3\u13d5\u13eb\u13cd\u13d9\u13d7 \u13c5\u13d3\u13a6\u13e5\u13f4\u13c1\u13b5? \u13ac\u13e9\u13df\u13cd\u13d7!"
        },
        {
            "chapter": 6,
            "verse": 16,
            "name": "1 Corinthians 6:16",
            "text": "\u13dd\u13c9\u13cd\u13aa \u13f1\u13e5\u13a6\u13d4\u13ad \u13be\u13cd\u13a9 \u13a9\u13b6 \u13a4\u13c1\u13ab\u13e5\u13db \u13e5\u13da\u13be\u13da\u13d3\u13d9 \u13cc\u13c9\u13c9 \u13a0\u13c2\u13f0\u13b8 \u13a8\u13d2\u13a2? \u13af\u13a0\u13f0\u13c3 \u13c2\u13a6\u13ea\u13ad, \u13a0\u13c2\u13d4\u13b5 \u13cc\u13c9\u13c9 \u13c2\u13a6\u13b5\u13cd\u13d7\u13cd\u13a8\u13cd\u13d7 \u13a4\u13c2\u13c7\u13d3\u13b8\u13a2."
        },
        {
            "chapter": 6,
            "verse": 17,
            "name": "1 Corinthians 6:17",
            "text": "\u13a9\u13b6\u13cd\u13a9\u13c2 \u13a4\u13ac\u13eb\u13f3\u13af \u13e5\u13da\u13be\u13da\u13d3\u13d9\u13a2 \u13cc\u13c9\u13c9 \u13a0\u13d3\u13c5\u13d9 \u13be\u13be\u13b5\u13cd\u13d7\u13cd\u13aa\u13a2."
        },
        {
            "chapter": 6,
            "verse": 18,
            "name": "1 Corinthians 6:18",
            "text": "\u13a1\u13e3\u13b5\u13d7\u13cf \u13a4\u13d5\u13b5\u13db \u13d7\u13c2\u13cf\u13d7 \u13a8\u13d2\u13a2. \u13c2\u13a6\u13a5 \u13f4\u13eb \u13a0\u13cd\u13a6\u13c5\u13ac \u13aa\u13b1\u13cd\u13d7 \u13c2\u13ac\u13c1\u13b2\u13be \u13a8\u13d0 \u13a0\u13f0\u13b8\u13a2; \u13a9\u13b6\u13cd\u13a9\u13c2 \u13a4\u13d5\u13b5\u13db \u13e5\u13d3\u13c2\u13cf\u13b2\u13cd\u13aa \u13a4\u13e9\u13d2 \u13a0\u13f0\u13b8 \u13a0\u13cd\u13a6\u13c5\u13e4\u13b0\u13a2."
        },
        {
            "chapter": 6,
            "verse": 19,
            "name": "1 Corinthians 6:19",
            "text": "\u13dd\u13c9\u13cd\u13aa \u13f1\u13e5\u13a6\u13d4\u13ad \u13be\u13cd\u13a9 \u13d7\u13e5\u13f0\u13b8 \u13a6\u13c1\u13b8 \u13a8\u13d2 \u13a6\u13b8\u13c9\u13d7\u13f3 \u13a0\u13d3\u13c5\u13d9 \u13be\u13cd\u13a9 \u13e5\u13e5\u13ef\u13a0, \u13be\u13cd\u13a9 \u13a4\u13c1\u13b3\u13c5\u13af \u13a2\u13e5\u13c1\u13b8\u13af \u13a8\u13d2\u13a2, \u13a0\u13b4 \u13c2\u13af \u13a2\u13e8\u13d2 \u13a2\u13e3\u13d3\u13e4\u13b5 \u13c2\u13a8\u13d2\u13be \u13a8\u13d2\u13a2?"
        },
        {
            "chapter": 6,
            "verse": 20,
            "name": "1 Corinthians 6:20",
            "text": "\u13e7\u13ac\u13e9\u13b6\u13d7\u13f0\u13c3 \u13a1\u13e5\u13e9\u13af\u13cd\u13d4\u13c5\u13af; \u13be\u13cd\u13a9 \u13a2\u13f3\u13cd\u13d7 \u13a1\u13e5\u13b8\u13c9\u13d7\u13cd\u13a8\u13cd\u13d7 \u13a4\u13c1\u13b3\u13c5\u13af \u13a2\u13e5\u13f0\u13b8 \u13a2\u13e8\u13d7\u13cd\u13a8\u13cd\u13d7, \u13a0\u13b4 \u13d7\u13e3\u13d3\u13c5\u13d9 \u13d5\u13e8\u13d7\u13cd\u13a8\u13cd\u13d7, \u13be\u13cd\u13a9 \u13a4\u13c1\u13b3\u13c5\u13af \u13e7\u13e4\u13b5 \u13e5\u13a9."
        }
    ]
}