{
    "translation": "GOD'S WORD to the Nations",
    "abbreviation": "godsword",
    "lang": "en",
    "language": "English",
    "direction": "LTR",
    "encoding": "UTF-8",
    "book_nr": 5,
    "book_name": "Deuteronomy",
    "chapter": 27,
    "name": "Deuteronomy 27",
    "verses": [
        {
            "chapter": 27,
            "verse": 1,
            "name": "Deuteronomy 27:1",
            "text": "Moses and the leaders of Israel told the people, \"Obey every command I'm giving you today. "
        },
        {
            "chapter": 27,
            "verse": 2,
            "name": "Deuteronomy 27:2",
            "text": "\"The day you cross the Jordan River and enter the land that the LORD your God is giving you, set up some large stones and cover them with plaster. "
        },
        {
            "chapter": 27,
            "verse": 3,
            "name": "Deuteronomy 27:3",
            "text": "The LORD God of your ancestors is giving you a land flowing with milk and honey, as he promised you. After you're in that land, write all the words of these teachings on the stones. "
        },
        {
            "chapter": 27,
            "verse": 4,
            "name": "Deuteronomy 27:4",
            "text": "After you cross the Jordan River, set up these stones on Mount Ebal, and cover them with plaster, following the command I'm giving you today. "
        },
        {
            "chapter": 27,
            "verse": 5,
            "name": "Deuteronomy 27:5",
            "text": "Build an altar of stones there dedicated to the LORD your God. Don't use an iron chisel on the stones. "
        },
        {
            "chapter": 27,
            "verse": 6,
            "name": "Deuteronomy 27:6",
            "text": "You must use uncut stones to build the altar of the LORD your God. Sacrifice burnt offerings on it to the LORD your God. "
        },
        {
            "chapter": 27,
            "verse": 7,
            "name": "Deuteronomy 27:7",
            "text": "Sacrifice fellowship offerings, eat them there, and enjoy yourselves in the presence of the LORD your God. "
        },
        {
            "chapter": 27,
            "verse": 8,
            "name": "Deuteronomy 27:8",
            "text": "Write clearly and carefully all the words of these teachings on the stones you set up.\" "
        },
        {
            "chapter": 27,
            "verse": 9,
            "name": "Deuteronomy 27:9",
            "text": "Then Moses and the Levitical priests said to all Israel, \"Be quiet and listen, Israel. Today you have become the people of the LORD your God. "
        },
        {
            "chapter": 27,
            "verse": 10,
            "name": "Deuteronomy 27:10",
            "text": "Obey the LORD your God and follow his commands and laws which I'm giving you today.\"   "
        },
        {
            "chapter": 27,
            "verse": 11,
            "name": "Deuteronomy 27:11",
            "text": "That same day Moses gave the people this command: "
        },
        {
            "chapter": 27,
            "verse": 12,
            "name": "Deuteronomy 27:12",
            "text": "After you cross the Jordan River, these are the tribes that will stand on Mount Gerizim to bless the people: Simeon, Levi, Judah, Issachar, Joseph, and Benjamin. "
        },
        {
            "chapter": 27,
            "verse": 13,
            "name": "Deuteronomy 27:13",
            "text": "These are the tribes that will stand on Mount Ebal to announce the curses: Reuben, Gad, Asher, Zebulun, Dan, and Naphtali. "
        },
        {
            "chapter": 27,
            "verse": 14,
            "name": "Deuteronomy 27:14",
            "text": "The Levites will declare to all the people of Israel in a loud voice: "
        },
        {
            "chapter": 27,
            "verse": 15,
            "name": "Deuteronomy 27:15",
            "text": "\"Whoever has a carved or metal statue, anything disgusting to the LORD that was made by a craftsman, and sets it up in secret will be cursed.\" Then all the people will say amen. "
        },
        {
            "chapter": 27,
            "verse": 16,
            "name": "Deuteronomy 27:16",
            "text": "\"Whoever curses his father or mother will himself be cursed.\" Then all the people will say amen. "
        },
        {
            "chapter": 27,
            "verse": 17,
            "name": "Deuteronomy 27:17",
            "text": "\"Whoever moves his neighbor's boundary marker will be cursed.\" Then all the people will say amen. "
        },
        {
            "chapter": 27,
            "verse": 18,
            "name": "Deuteronomy 27:18",
            "text": "\"Whoever leads blind people in the wrong direction will be cursed.\" Then all the people will say amen. "
        },
        {
            "chapter": 27,
            "verse": 19,
            "name": "Deuteronomy 27:19",
            "text": "\"Whoever deprives foreigners, orphans, or widows of justice will be cursed.\" Then all the people will say amen. "
        },
        {
            "chapter": 27,
            "verse": 20,
            "name": "Deuteronomy 27:20",
            "text": "\"Whoever has sexual intercourse with his father's wife will be cursed. He has disgraced his father.\" Then all the people will say amen. "
        },
        {
            "chapter": 27,
            "verse": 21,
            "name": "Deuteronomy 27:21",
            "text": "\"Whoever has sexual intercourse with any animal will be cursed.\" Then all the people will say amen. "
        },
        {
            "chapter": 27,
            "verse": 22,
            "name": "Deuteronomy 27:22",
            "text": "\"Whoever has sexual intercourse with his sister, his father's daughter, or his mother's daughter will be cursed.\" Then all the people will say amen. "
        },
        {
            "chapter": 27,
            "verse": 23,
            "name": "Deuteronomy 27:23",
            "text": "\"Whoever has sexual intercourse with his mother-in-law will be cursed.\" Then all the people will say amen. "
        },
        {
            "chapter": 27,
            "verse": 24,
            "name": "Deuteronomy 27:24",
            "text": "\"Whoever kills another person secretly will be cursed.\" Then all the people will say amen. "
        },
        {
            "chapter": 27,
            "verse": 25,
            "name": "Deuteronomy 27:25",
            "text": "\"Whoever accepts money to kill an innocent person will be cursed.\" Then all the people will say amen. "
        },
        {
            "chapter": 27,
            "verse": 26,
            "name": "Deuteronomy 27:26",
            "text": "\"Whoever doesn't obey every word of these teachings will be cursed.\" Then all the people will say amen.  "
        }
    ]
}