{
    "translation": "A modern Irish New Testament (Luke preview)",
    "abbreviation": "iriodomhnuill",
    "lang": "ga",
    "language": "Irish",
    "direction": "LTR",
    "encoding": "UTF-8",
    "book_nr": 42,
    "book_name": "Luke",
    "chapter": 15,
    "name": "Luke 15",
    "verses": [
        {
            "chapter": 15,
            "verse": 1,
            "name": "Luke 15:1",
            "text": "Agus tangadar na Puiblioc\u00e1in uile agus na peacthaigh chuige d\u00e9isdeachd ris:"
        },
        {
            "chapter": 15,
            "verse": 2,
            "name": "Luke 15:2",
            "text": "Agus do rinneadar na PhairsInigh agus na SgrIobuidhe munmhar, ag r\u00e1dh, Gabhuidh an feporso peachtaigh chuige, agus ithidh se b\u00edadh na bhfochair."
        },
        {
            "chapter": 15,
            "verse": 3,
            "name": "Luke 15:3",
            "text": "Achd do labhair seison an chosamlachd sa riu, ag r\u00e1dh,"
        },
        {
            "chapter": 15,
            "verse": 4,
            "name": "Luke 15:4",
            "text": "C\u00eda agaibhsi duine, ag\u00e1 bhfuil c\u00e9ad c\u00e1ora, agus do l\u00e9igfeadh \u00e1on d\u00edobh a mugha, nach bhf\u00e1gann na na\u00f3i gca\u00f3iridh d\u00e9ug agus ceithre fichid ar an bhf\u00e1sach, agus nach dt\u00e9id a ndiAigh na c aorach \u00fad do ch\u00faaidh a mugha, n\u00f3 go bhfafann s\u00e9 \u00ed?"
        },
        {
            "chapter": 15,
            "verse": 5,
            "name": "Luke 15:5",
            "text": "Agus ar na fagh\u00e1il do, cuiridh s\u00e9 go luathgh\u00e1ireach, \u00ed ar a ghn\u00e1illibh,"
        },
        {
            "chapter": 15,
            "verse": 6,
            "name": "Luke 15:6",
            "text": "Agus ar dteachd d\u00e1 thigh dh\u00f3, goiridh se a ch\u00e1irde agus a chomharsain a geanna ch\u00e9ile, ag r\u00e1dh rIu, D\u00e9anuidh luathgh\u00e1ireleamsa; \u00f3ir fu\u00e1ir m\u00e9 mo ch\u00e1ora do chu\u00e1idh a m\u00fagha."
        },
        {
            "chapter": 15,
            "verse": 7,
            "name": "Luke 15:7",
            "text": "A derim ribh, gur ah mar sin bhias forbhf\u00e1ilte ar neamh ar son \u00e9in pheaochach do mni is m\u00f3 na ar son na\u00f3i bhfr\u00e9in d\u00e9g agus fichid, ar nach bhfuil riachdanasaithrighe."
        },
        {
            "chapter": 15,
            "verse": 8,
            "name": "Luke 15:8",
            "text": "N\u00f3 c\u00eda an bhean ag\u00e1 mb\u00edadh deich mboinn, agus do l\u00e9igfeadh si \u00e1\u00e1on bhonn diobh a mugha, nach lasadh solas, agus nach sguaib\u00e9ochadh an t\u00edgh, agus nach \u00edarrfadh go dithcheallach n\u00f3 go bh\u00e1ghadh si \u00e9?"
        },
        {
            "chapter": 15,
            "verse": 9,
            "name": "Luke 15:9",
            "text": "Agus ar na fHagh\u00e1il, goiridh s\u00ed a banch\u00e1irde agus a banchomharsain a gceann a ch\u00e9ile, ag radh, Deannidh g\u00e1ideachas l\u00e9amsa; \u00f3ir fu\u00e1ir m\u00e9 mo bhonn do leig me a m\u00fagha."
        },
        {
            "chapter": 15,
            "verse": 10,
            "name": "Luke 15:10",
            "text": "Mar an gc\u00e9adna, a deirim ribh, B\u00ed g\u00e1irdeachas ar ainglibh D\u00e9 tr\u00ed \u00e9in pheacthach amh\u00e1in do n\u00ed aithrighe."
        },
        {
            "chapter": 15,
            "verse": 11,
            "name": "Luke 15:11",
            "text": "Agus a dubhairt s\u00e9 f\u00f3s, Do bh\u00e1dar d\u00edas mac ag duine a\u00e1irghe:"
        },
        {
            "chapter": 15,
            "verse": 12,
            "name": "Luke 15:12",
            "text": "Agus a dubhairt an ti dob oige aca r\u00e9 na athair, Athair, tabhair dhamh an chuid roitheas misi dod mha\u00f3in. Aagus do roinn seision a mha\u00f3in eatorra."
        },
        {
            "chapter": 15,
            "verse": 13,
            "name": "Luke 15:13",
            "text": "Agus tar \u00e9is bheag\u00e1in aimsire ag cruinniughadh a choda uile don mhac dob \u00f3ige, do ch\u00faaidh s\u00e9 air coigcrigh adtalamh imch\u00edan, agus do dhiombail s\u00e9 ann sin a mha\u00f3in l\u00e9 na bheathaidh baoth-chaithfigh."
        },
        {
            "chapter": 15,
            "verse": 14,
            "name": "Luke 15:14",
            "text": "Agus tar \u00e9is a choda uile do chaitheamh dho, d\u00e9irih gorta romh\u00f3r ann sa tir sin; agus do thosaigh seision ar bheith a r\u00edachdanas."
        },
        {
            "chapter": 15,
            "verse": 15,
            "name": "Luke 15:15",
            "text": "Agus do imigh s\u00e9 roimhe agus do cheangal s\u00e9 e fein do chaithruighthe\u00f3ir don t\u00edr sin; noch do chuir f\u00e1na dh\u00faitche a mach \u00e9 do bh\u00faachuilleachd muc."
        },
        {
            "chapter": 15,
            "verse": 16,
            "name": "Luke 15:16",
            "text": "Agus b\u00e1 mhian leis a bhlog do L\u00edonadh do na f\u00e9ith\u00e9oguibh do na muca: agus n\u00ed thugadh \u00e9anduine dh\u00f3 \u00edad."
        },
        {
            "chapter": 15,
            "verse": 17,
            "name": "Luke 15:17",
            "text": "Agus an ta n do chuimhnigh s\u00e9 air f\u00e9in, a dubhairt s\u00e9, G\u00e1 mh\u00e9d luchd t\u00faarasdail matharsa ag\u00e1 bhf\u00fail iomarcaidh ar\u00e1in, agus misi ag dul a mugha le gorta!"
        },
        {
            "chapter": 15,
            "verse": 18,
            "name": "Luke 15:18",
            "text": "F\u00edr\u00e9ochaid m\u00e9 agus rachaidh m\u00e9dionnsuighe mathar, agus d\u00e9aruidh m\u00e9 ris, A athair, do pheacaigh m\u00e9 a naghaidh neimhe agus ad fh\u00edadhnuisisi,"
        },
        {
            "chapter": 15,
            "verse": 19,
            "name": "Luke 15:19",
            "text": "Agus n\u00ed f\u00edn m\u00e9 feasda do mhacsa do ghairm dhi\u00f3m: d\u00e9ana m\u00e9 mar \u00e1on dod luchd th\u00faarasduil."
        },
        {
            "chapter": 15,
            "verse": 20,
            "name": "Luke 15:20",
            "text": "Agus deirigh s\u00e9, agus do chu\u00e1idh s\u00e9 dionnsuighe a athaar. Agus ar mbeith f\u00f3s a gc\u00edan\u00faadh dh\u00f3 do chonnaire a athair \u00e9, agus do ghabh tru\u00e1ighe mh\u00f3r dh\u00f3 \u00e9, agus ag rith dh\u00f3, do chrom s\u00e9 f\u00e1 na bhr\u00e1ghuid, agus do ph\u00f3g s\u00e9 \u00e9."
        },
        {
            "chapter": 15,
            "verse": 21,
            "name": "Luke 15:21",
            "text": "Agus a dubhairt an mac ris, A athair, do pheacaigh m\u00e9a naghuidh neimhe, agus ad fhiadhnuisisi, agus n\u00ed fiu m\u00e9 feasda do mhacsa do ghairim dhiom."
        },
        {
            "chapter": 15,
            "verse": 22,
            "name": "Luke 15:22",
            "text": "Agus a dubhhairt an tathair r\u00e9 na shearbhoghantaibh, Tabhruidh an chuluidhein is fearr libh, agus cuireidh uime \u00ed; agus cuiridh fainne air a l\u00e1imh, agus br\u00f3ga air a chosaibh:"
        },
        {
            "chapter": 15,
            "verse": 23,
            "name": "Luke 15:23",
            "text": "Agus tuguidh libh agus marbhuidh, an l\u00e1ogh b\u00edadhta; agus caitheam biadh, agus b\u00edom go s\u00fagach:"
        },
        {
            "chapter": 15,
            "verse": 24,
            "name": "Luke 15:24",
            "text": "Oir fu\u00e1ir mo mhac ann so b\u00e1s, agus do aithbh\u00e9odhuigh s\u00e9: agus do ch\u00faaidh s\u00e9 a mugha, agus fri\u00edth \u00e9. Ar a naddhbhar, sindo thionnsgnadar bheith go sugach."
        },
        {
            "chapter": 15,
            "verse": 25,
            "name": "Luke 15:25",
            "text": "Achd do bh\u00ed an mac b\u00fadh seine aige air an machaire amuich: agus ar dteachd a ngar don tigh dho, do ch\u00faaluidh s\u00e9 an c\u00e9ol agus na damhsaidhe."
        },
        {
            "chapter": 15,
            "verse": 26,
            "name": "Luke 15:26",
            "text": "Agus ar ngairm a\u00f3in do na scarbhfhoghantuibh chuige dh\u00f3, dfi\u00e1fruidh s\u00e9 dhe cr\u00e9d iad na neithesi?"
        },
        {
            "chapter": 15,
            "verse": 27,
            "name": "Luke 15:27",
            "text": "Agus a dubhairt seision ris, Do dhearbhr\u00e1thairsi th\u00e1nic: agus do mharbh hathair anl\u00e1ogh b\u00edadhta, ar son go h\u02d8fuair s\u00e9 sl\u00e1n a ris \u00e9."
        },
        {
            "chapter": 15,
            "verse": 28,
            "name": "Luke 15:28",
            "text": "Agus do ghabh fearg eision, agus nior bh\u00e1ill leis dul a sdeach: uimesin th\u00e1inic a athair amach, agus do ghoir s\u00e9 chuige \u00e9."
        },
        {
            "chapter": 15,
            "verse": 29,
            "name": "Luke 15:29",
            "text": "Achd ar bhfreaga dhosan a dubhairt s\u00e9 ris a athair, Feach, a timsi ag d\u00e9anamh agus nior sh\u00e1ruigh m\u00e9 haithne a riamh: g\u00eddheadh n\u00ed thug t\u00fa fin an mheann\u00e1in dhamh ariamh, ionnus go mb\u00e9inn go s\u00fagach r\u00e9m ch\u00e1irdibh:"
        },
        {
            "chapter": 15,
            "verse": 30,
            "name": "Luke 15:30",
            "text": "Achd an tan th\u00e1inic an macsa agad, do shlug do mha\u00f3in a bhfochair mheirdreach, do mharbh t\u00fa an l\u00e1ogh \u02d8b\u00edadhta dho."
        },
        {
            "chapter": 15,
            "verse": 31,
            "name": "Luke 15:31",
            "text": "Achd a dubhairt seision ris, a mhic, at\u00e1 tusa do gn\u00e1th am fhochair, agus na huile neithe is leamsa, is leachdsa iad."
        },
        {
            "chapter": 15,
            "verse": 32,
            "name": "Luke 15:32",
            "text": "Achd do budh c\u00f3ir dh\u00fainn sugachas, agus forbh\u00e1ilteachas do dh\u00e9anamh; tr\u00e9 go raibh an dearbhathairsi agadsa tar \u00e9is bh\u00e1is, agus gur aithbh\u00e9odhuigh s\u00e9; agus go ndeach aidh s\u00e9 a mugha, agus gur fr\u00edth a ris e. "
        }
    ]
}