{
    "translation": "\u05de\u05e7\u05e8\u05d0 \u05e2\u05dc \u05e4\u05d9 \u05d4\u05de\u05e1\u05d5\u05e8\u05d4 (Miqra `al pi ha-Mesorah)",
    "abbreviation": "mapm",
    "lang": "he",
    "language": "Hebrew",
    "direction": "RTL",
    "encoding": "UTF-8",
    "book_nr": 26,
    "book_name": "Ezekiel",
    "chapter": 30,
    "name": "Ezekiel 30",
    "verses": [
        {
            "chapter": 30,
            "verse": 1,
            "name": "Ezekiel 30:1",
            "text": "\u05d5\u05b7\u05d9\u05b0\u05d4\u05b4\u05a5\u05d9 \u05d3\u05b0\u05d1\u05b7\u05e8\u05be\u05d9\u05b0\u05d4\u05b9\u05d5\u05b8\u0596\u05d4 \u05d0\u05b5\u05dc\u05b7\u05a5\u05d9 \u05dc\u05b5\u05d0\u05de\u05b9\u05bd\u05e8\u05c3"
        },
        {
            "chapter": 30,
            "verse": 2,
            "name": "Ezekiel 30:2",
            "text": "\u05d1\u05bc\u05b6\u05df\u05be\u05d0\u05b8\u05d3\u05b8\u0595\u05dd \u05d4\u05b4\u05e0\u05bc\u05b8\u05d1\u05b5\u05d0\u0599 \u05d5\u05b0\u05d0\u05b8\u05a3\u05de\u05b7\u05e8\u05b0\u05ea\u05bc\u05b8\u0594 \u05db\u05bc\u05b9\u05a5\u05d4 \u05d0\u05b8\u05de\u05b7\u0596\u05e8 \u05d0\u05b2\u05d3\u05b9\u05e0\u05b8\u05a3\u05d9 \u05d9\u05b1\u05d4\u05b9\u05d5\u05b4\u0591\u05d4 \u05d4\u05b5\u05d9\u05dc\u05b4\u0596\u05d9\u05dc\u05d5\u05bc \u05d4\u05b8\u05a5\u05d4\u05bc \u05dc\u05b7\u05d9\u05bc\u05bd\u05d5\u05b9\u05dd\u05c3"
        },
        {
            "chapter": 30,
            "verse": 3,
            "name": "Ezekiel 30:3",
            "text": "\u05db\u05bc\u05b4\u05bd\u05d9\u05be\u05e7\u05b8\u05e8\u05a3\u05d5\u05b9\u05d1 \u05d9\u0594\u05d5\u05b9\u05dd \u05d5\u05b0\u05e7\u05b8\u05e8\u05a5\u05d5\u05b9\u05d1 \u05d9\u0596\u05d5\u05b9\u05dd \u05dc\u05b7\u05bd\u05d9\u05d4\u05b9\u05d5\u05b8\u0591\u05d4 \u05d9\u05a3\u05d5\u05b9\u05dd \u05e2\u05b8\u05e0\u05b8\u0594\u05df \u05e2\u05b5\u05a5\u05ea \u05d2\u05bc\u05d5\u05b9\u05d9\u05b4\u0596\u05dd \u05d9\u05b4\u05d4\u05b0\u05d9\u05b6\u05bd\u05d4\u05c3"
        },
        {
            "chapter": 30,
            "verse": 4,
            "name": "Ezekiel 30:4",
            "text": "\u05d5\u05bc\u05d1\u05b8\u05d0\u05b8\u05a5\u05d4 \u05d7\u05b6\u0599\u05e8\u05b6\u05d1\u0599 \u05d1\u05bc\u05b0\u05de\u05b4\u05e6\u05b0\u05e8\u05b7\u0594\u05d9\u05b4\u05dd \u05d5\u05b0\u05d4\u05b8\u05d9\u05b0\u05ea\u05b8\u05a4\u05d4 \u05d7\u05b7\u05dc\u05b0\u05d7\u05b8\u05dc\u05b8\u05d4\u0599 \u05d1\u05bc\u05b0\u05db\u0594\u05d5\u05bc\u05e9\u05c1 \u05d1\u05bc\u05b4\u05e0\u05b0\u05e4\u05b9\u05a5\u05dc \u05d7\u05b8\u05dc\u05b8\u0596\u05dc \u05d1\u05bc\u05b0\u05de\u05b4\u05e6\u05b0\u05e8\u05b8\u0591\u05d9\u05b4\u05dd \u05d5\u05b0\u05dc\u05b8\u05e7\u05b0\u05d7\u05a3\u05d5\u05bc \u05d4\u05b2\u05de\u05d5\u05b9\u05e0\u05b8\u0594\u05d4\u05bc \u05d5\u05b0\u05e0\u05b6\u05d4\u05b6\u05e8\u05b0\u05e1\u0596\u05d5\u05bc \u05d9\u05b0\u05e1\u05b9\u05d3\u05d5\u05b9\u05ea\u05b6\u05bd\u05d9\u05d4\u05b8\u05c3"
        },
        {
            "chapter": 30,
            "verse": 5,
            "name": "Ezekiel 30:5",
            "text": "\u05db\u05bc\u05a3\u05d5\u05bc\u05e9\u05c1 \u05d5\u05bc\u05e4\u05a4\u05d5\u05bc\u05d8 \u05d5\u05b0\u05dc\u05d5\u05bc\u05d3\u0599 \u05d5\u05b0\u05db\u05c7\u05dc\u05be\u05d4\u05b8\u05e2\u05b6\u05a3\u05e8\u05b6\u05d1 \u05d5\u05b0\u05db\u0594\u05d5\u05bc\u05d1 \u05d5\u05bc\u05d1\u05b0\u05e0\u05b5\u0596\u05d9 \u05d0\u05b6\u05a3\u05e8\u05b6\u05e5 \u05d4\u05b7\u05d1\u05bc\u05b0\u05e8\u05b4\u0591\u05d9\u05ea \u05d0\u05b4\u05ea\u05bc\u05b8\u0596\u05dd \u05d1\u05bc\u05b7\u05d7\u05b6\u05a5\u05e8\u05b6\u05d1 \u05d9\u05b4\u05e4\u05bc\u05b9\u05bd\u05dc\u05d5\u05bc\u05c3"
        },
        {
            "chapter": 30,
            "verse": 6,
            "name": "Ezekiel 30:6",
            "text": "  \u05db\u05bc\u05b9\u059a\u05d4 \u05d0\u05b8\u05de\u05b7\u05a3\u05e8 \u05d9\u05b0\u05d4\u05b9\u05d5\u05b8\u0594\u05d4 \u05d5\u05b0\u05e0\u05b8\u05bd\u05e4\u05b0\u05dc\u05d5\u05bc\u0599 \u05e1\u05b9\u05de\u05b0\u05db\u05b5\u05a3\u05d9 \u05de\u05b4\u05e6\u05b0\u05e8\u05b7\u0594\u05d9\u05b4\u05dd \u05d5\u05b0\u05d9\u05b8\u05e8\u05b7\u0596\u05d3 \u05d2\u05bc\u05b0\u05d0\u05a3\u05d5\u05b9\u05df \u05e2\u05bb\u05d6\u05bc\u05b8\u0591\u05d4\u05bc \u05de\u05b4\u05de\u05bc\u05b4\u05d2\u05b0\u05d3\u05bc\u05b9\u05a3\u05dc \u05e1\u05b0\u05d5\u05b5\u05e0\u05b5\u0597\u05d4 \u05d1\u05bc\u05b7\u05d7\u05b6\u0599\u05e8\u05b6\u05d1\u0599 \u05d9\u05b4\u05e4\u05bc\u05b0\u05dc\u05d5\u05bc\u05be\u05d1\u05b8\u0594\u05d4\u05bc \u05e0\u05b0\u05d0\u05bb\u0596\u05dd \u05d0\u05b2\u05d3\u05b9\u05e0\u05b8\u05a5\u05d9 \u05d9\u05b1\u05d4\u05b9\u05d5\u05b4\u05bd\u05d4\u05c3"
        },
        {
            "chapter": 30,
            "verse": 7,
            "name": "Ezekiel 30:7",
            "text": "\u05d5\u05b0\u05e0\u05b8\u05e9\u05c1\u05b7\u0595\u05de\u05bc\u05d5\u05bc \u05d1\u05bc\u05b0\u05ea\u0596\u05d5\u05b9\u05da\u05b0 \u05d0\u05b2\u05e8\u05b8\u05e6\u05a3\u05d5\u05b9\u05ea \u05e0\u05b0\u05e9\u05c1\u05b7\u05de\u05bc\u0591\u05d5\u05b9\u05ea \u05d5\u05b0\u05e2\u05b8\u05e8\u05b8\u0595\u05d9\u05d5 \u05d1\u05bc\u05b0\u05ea\u05d5\u05b9\u05da\u05b0\u05be\u05e2\u05b8\u05e8\u05b4\u05a5\u05d9\u05dd \u05e0\u05b7\u05d7\u05b2\u05e8\u05b8\u05d1\u0596\u05d5\u05b9\u05ea \u05ea\u05bc\u05b4\u05bd\u05d4\u05b0\u05d9\u05b6\u05bd\u05d9\u05e0\u05b8\u05d4\u05c3"
        },
        {
            "chapter": 30,
            "verse": 8,
            "name": "Ezekiel 30:8",
            "text": "\u05d5\u05b0\u05d9\u05b8\u05d3\u05b0\u05e2\u0596\u05d5\u05bc \u05db\u05bc\u05b4\u05bd\u05d9\u05be\u05d0\u05b2\u05e0\u05b4\u05a3\u05d9 \u05d9\u05b0\u05d4\u05b9\u05d5\u05b8\u0591\u05d4 \u05d1\u05bc\u05b0\u05ea\u05b4\u05ea\u05bc\u05b4\u05d9\u05be\u05d0\u05b5\u05a3\u05e9\u05c1 \u05d1\u05bc\u05b0\u05de\u05b4\u05e6\u05b0\u05e8\u05b7\u0594\u05d9\u05b4\u05dd \u05d5\u05b0\u05e0\u05b4\u05e9\u05c1\u05b0\u05d1\u05bc\u05b0\u05e8\u0596\u05d5\u05bc \u05db\u05bc\u05c7\u05dc\u05be\u05e2\u05b9\u05bd\u05d6\u05b0\u05e8\u05b6\u05bd\u05d9\u05d4\u05b8\u05c3"
        },
        {
            "chapter": 30,
            "verse": 9,
            "name": "Ezekiel 30:9",
            "text": "\u05d1\u05bc\u05b7\u05d9\u05bc\u05a3\u05d5\u05b9\u05dd \u05d4\u05b7\u05d4\u0597\u05d5\u05bc\u05d0 \u05d9\u05b5\u05e6\u05b0\u05d0\u05a8\u05d5\u05bc \u05de\u05b7\u05dc\u05b0\u05d0\u05b8\u05db\u05b4\u05a4\u05d9\u05dd \u05de\u05b4\u05dc\u05bc\u05b0\u05e4\u05b8\u05e0\u05b7\u05d9\u0599 \u05d1\u05bc\u05b7\u05e6\u05bc\u05b4\u0594\u05d9\u05dd \u05dc\u05b0\u05d4\u05b7\u05d7\u05b2\u05e8\u05b4\u0596\u05d9\u05d3 \u05d0\u05b6\u05ea\u05be\u05db\u05bc\u05a3\u05d5\u05bc\u05e9\u05c1 \u05d1\u05bc\u05b6\u0591\u05d8\u05b7\u05d7 \u05d5\u05b0\u05d4\u05b8\u05d9\u05b0\u05ea\u05b8\u05a8\u05d4 \u05d7\u05b7\u05dc\u05b0\u05d7\u05b8\u05dc\u05b8\u05a4\u05d4 \u05d1\u05b8\u05d4\u05b6\u05dd\u0599 \u05d1\u05bc\u05b0\u05d9\u05a3\u05d5\u05b9\u05dd \u05de\u05b4\u05e6\u05b0\u05e8\u05b7\u0594\u05d9\u05b4\u05dd \u05db\u05bc\u05b4\u05a5\u05d9 \u05d4\u05b4\u05e0\u05bc\u05b5\u0596\u05d4 \u05d1\u05bc\u05b8\u05d0\u05b8\u05bd\u05d4\u05c3"
        },
        {
            "chapter": 30,
            "verse": 10,
            "name": "Ezekiel 30:10",
            "text": " \u3000\u3000\u3000\u05db\u05bc\u05b9\u05a5\u05d4 \u05d0\u05b8\u05de\u05b7\u0596\u05e8 \u05d0\u05b2\u05d3\u05b9\u05e0\u05b8\u05a3\u05d9 \u05d9\u05b1\u05d4\u05b9\u05d5\u05b4\u0591\u05d4 \u05d5\u05b0\u05d4\u05b4\u05e9\u05c1\u05b0\u05d1\u05bc\u05b7\u05ea\u05bc\u05b4\u05d9\u0599 \u05d0\u05b6\u05ea\u05be\u05d4\u05b2\u05de\u05a3\u05d5\u05b9\u05df \u05de\u05b4\u05e6\u05b0\u05e8\u05b7\u0594\u05d9\u05b4\u05dd \u05d1\u05bc\u05b0\u05d9\u05b7\u0596\u05d3 \u05e0\u05b0\u05d1\u05d5\u05bc\u05db\u05b7\u05d3\u05b0\u05e8\u05b6\u05d0\u05e6\u05bc\u05b7\u05a5\u05e8 \u05de\u05b6\u05dc\u05b6\u05da\u05b0\u05be\u05d1\u05bc\u05b8\u05d1\u05b6\u05bd\u05dc\u05c3"
        },
        {
            "chapter": 30,
            "verse": 11,
            "name": "Ezekiel 30:11",
            "text": "\u05d4\u05a0\u05d5\u05bc\u05d0 \u05d5\u05b0\u05e2\u05b7\u05de\u05bc\u05a4\u05d5\u05b9 \u05d0\u05b4\u05ea\u05bc\u05d5\u05b9\u0599 \u05e2\u05b8\u05e8\u05b4\u05d9\u05e6\u05b5\u05a3\u05d9 \u05d2\u05d5\u05b9\u05d9\u05b4\u0594\u05dd \u05de\u05d5\u05bc\u05d1\u05b8\u05d0\u05b4\u0596\u05d9\u05dd \u05dc\u05b0\u05e9\u05c1\u05b7\u05d7\u05b5\u05a3\u05ea \u05d4\u05b8\u05d0\u05b8\u0591\u05e8\u05b6\u05e5 \u05d5\u05b0\u05d4\u05b5\u05e8\u05b4\u05a4\u05d9\u05e7\u05d5\u05bc \u05d7\u05b7\u05e8\u05b0\u05d1\u05d5\u05b9\u05ea\u05b8\u05dd\u0599 \u05e2\u05b7\u05dc\u05be\u05de\u05b4\u05e6\u05b0\u05e8\u05b7\u0594\u05d9\u05b4\u05dd \u05d5\u05bc\u05de\u05b8\u05dc\u05b0\u05d0\u05a5\u05d5\u05bc \u05d0\u05b6\u05ea\u05be\u05d4\u05b8\u05d0\u05b8\u0596\u05e8\u05b6\u05e5 \u05d7\u05b8\u05dc\u05b8\u05bd\u05dc\u05c3"
        },
        {
            "chapter": 30,
            "verse": 12,
            "name": "Ezekiel 30:12",
            "text": "\u05d5\u05b0\u05e0\u05b8\u05ea\u05b7\u05ea\u05bc\u05b4\u05a4\u05d9 \u05d9\u05b0\u05d0\u05b9\u05e8\u05b4\u05d9\u05dd\u0599 \u05d7\u05c7\u05bd\u05e8\u05b8\u05d1\u05b8\u0594\u05d4 \u05d5\u05bc\u05de\u05b8\u05db\u05b7\u05e8\u05b0\u05ea\u05bc\u05b4\u05a5\u05d9 \u05d0\u05b6\u05ea\u05be\u05d4\u05b8\u05d0\u05b8\u0596\u05e8\u05b6\u05e5 \u05d1\u05bc\u05b0\u05d9\u05b7\u05d3\u05be\u05e8\u05b8\u05e2\u05b4\u0591\u05d9\u05dd \u05d5\u05b7\u05d4\u05b2\u05e9\u05c1\u05b4\u05de\u05bc\u05b9\u05ea\u05b4\u059e\u05d9 \u05d0\u05b6\u05a4\u05e8\u05b6\u05e5 \u05d5\u05bc\u05de\u05b0\u05dc\u05b9\u05d0\u05b8\u05d4\u05bc\u0599 \u05d1\u05bc\u05b0\u05d9\u05b7\u05d3\u05be\u05d6\u05b8\u05e8\u05b4\u0594\u05d9\u05dd \u05d0\u05b2\u05e0\u05b4\u05a5\u05d9 \u05d9\u05b0\u05d4\u05b9\u05d5\u05b8\u0596\u05d4 \u05d3\u05bc\u05b4\u05d1\u05bc\u05b7\u05bd\u05e8\u05b0\u05ea\u05bc\u05b4\u05d9\u05c3"
        },
        {
            "chapter": 30,
            "verse": 13,
            "name": "Ezekiel 30:13",
            "text": " \u3000\u3000\u3000\u05db\u05bc\u05b9\u05bd\u05d4\u05be\u05d0\u05b8\u05de\u05b7\u059e\u05e8 \u05d0\u05b2\u05d3\u05b9\u05e0\u05b8\u05a3\u05d9 \u05d9\u05b1\u05d4\u05b9\u05d5\u05b4\u0597\u05d4 \u05d5\u05b0\u05d4\u05b7\u05d0\u05b2\u05d1\u05b7\u05d3\u05b0\u05ea\u05bc\u05b4\u05a8\u05d9 \u05d2\u05b4\u05dc\u05bc\u05d5\u05bc\u05dc\u05b4\u059c\u05d9\u05dd \u05d5\u05b0\u05d4\u05b4\u05e9\u05c1\u05b0\u05d1\u05bc\u05b7\u05ea\u05bc\u05b4\u05a4\u05d9 \u05d0\u05b1\u05dc\u05b4\u05d9\u05dc\u05b4\u05d9\u05dd\u0599 \u05de\u05b4\u05e0\u05bc\u05b9\u0594\u05e3 \u05d5\u05b0\u05e0\u05b8\u05e9\u05c2\u05b4\u05a5\u05d9\u05d0 \u05de\u05b5\u05d0\u05b6\u05bd\u05e8\u05b6\u05e5\u05be\u05de\u05b4\u05e6\u05b0\u05e8\u05b7\u0596\u05d9\u05b4\u05dd \u05dc\u05b9\u05a3\u05d0 \u05d9\u05b4\u05bd\u05d4\u05b0\u05d9\u05b6\u05d4\u05be\u05e2\u0591\u05d5\u05b9\u05d3 \u05d5\u05b0\u05e0\u05b8\u05ea\u05b7\u05ea\u05bc\u05b4\u05a5\u05d9 \u05d9\u05b4\u05e8\u05b0\u05d0\u05b8\u0596\u05d4 \u05d1\u05bc\u05b0\u05d0\u05b6\u05a5\u05e8\u05b6\u05e5 \u05de\u05b4\u05e6\u05b0\u05e8\u05b8\u05bd\u05d9\u05b4\u05dd\u05c3"
        },
        {
            "chapter": 30,
            "verse": 14,
            "name": "Ezekiel 30:14",
            "text": "\u05d5\u05b7\u05bd\u05d4\u05b2\u05e9\u05c1\u05b4\u05de\u05bc\u05b9\u05ea\u05b4\u05d9\u0599 \u05d0\u05b6\u05ea\u05be\u05e4\u05bc\u05b7\u05ea\u05b0\u05e8\u0594\u05d5\u05b9\u05e1 \u05d5\u05b0\u05e0\u05b8\u05ea\u05b7\u05a5\u05ea\u05bc\u05b4\u05d9 \u05d0\u05b5\u0596\u05e9\u05c1 \u05d1\u05bc\u05b0\u05e6\u05b9\u0591\u05e2\u05b7\u05df \u05d5\u05b0\u05e2\u05b8\u05e9\u05c2\u05b4\u05a5\u05d9\u05ea\u05b4\u05d9 \u05e9\u05c1\u05b0\u05e4\u05b8\u05d8\u05b4\u0596\u05d9\u05dd \u05d1\u05bc\u05b0\u05e0\u05b9\u05bd\u05d0\u05c3"
        },
        {
            "chapter": 30,
            "verse": 15,
            "name": "Ezekiel 30:15",
            "text": "\u05d5\u05b0\u05e9\u05c1\u05b8\u05e4\u05b7\u05db\u05b0\u05ea\u05bc\u05b4\u05a3\u05d9 \u05d7\u05b2\u05de\u05b8\u05ea\u05b4\u0594\u05d9 \u05e2\u05b7\u05dc\u05be\u05e1\u05b4\u0596\u05d9\u05df \u05de\u05b8\u05e2\u05a3\u05d5\u05b9\u05d6 \u05de\u05b4\u05e6\u05b0\u05e8\u05b8\u0591\u05d9\u05b4\u05dd \u05d5\u05b0\u05d4\u05b4\u05db\u05b0\u05e8\u05b7\u05ea\u05bc\u05b4\u0596\u05d9 \u05d0\u05b6\u05ea\u05be\u05d4\u05b2\u05de\u05a5\u05d5\u05b9\u05df \u05e0\u05b9\u05bd\u05d0\u05c3"
        },
        {
            "chapter": 30,
            "verse": 16,
            "name": "Ezekiel 30:16",
            "text": "\u05d5\u05b0\u05e0\u05b8\u05ea\u05b7\u05a4\u05ea\u05bc\u05b4\u05d9 \u05d0\u05b5\u05e9\u05c1\u0599 \u05d1\u05bc\u05b0\u05de\u05b4\u05e6\u05b0\u05e8\u05b7\u0594\u05d9\u05b4\u05dd \u05d7\u05a4\u05d5\u05bc\u05dc \u05ea\u05d7\u05d9\u05dc \u05ea\u05bc\u05b8\u05d7\u05d5\u05bc\u05dc\u0599 \u05e1\u05b4\u0594\u05d9\u05df \u05d5\u05b0\u05e0\u05b9\u0596\u05d0 \u05ea\u05bc\u05b4\u05bd\u05d4\u05b0\u05d9\u05b6\u05a3\u05d4 \u05dc\u05b0\u05d4\u05b4\u05d1\u05bc\u05b8\u05e7\u05b5\u0591\u05e2\u05b7 \u05d5\u05b0\u05e0\u05b9\u0596\u05e3 \u05e6\u05b8\u05e8\u05b5\u05a5\u05d9 \u05d9\u05d5\u05b9\u05de\u05b8\u05bd\u05dd\u05c3"
        },
        {
            "chapter": 30,
            "verse": 17,
            "name": "Ezekiel 30:17",
            "text": "\u05d1\u05bc\u05b7\u05d7\u05a5\u05d5\u05bc\u05e8\u05b5\u05d9 \u05d0\u05b8\u059b\u05d5\u05b6\u05df \u05d5\u05bc\u05e4\u05b4\u05d9\u05be\u05d1\u05b6\u0596\u05e1\u05b6\u05ea \u05d1\u05bc\u05b7\u05d7\u05b6\u05a3\u05e8\u05b6\u05d1 \u05d9\u05b4\u05e4\u05bc\u05b9\u0591\u05dc\u05d5\u05bc \u05d5\u05b0\u05d4\u05b5\u0596\u05e0\u05bc\u05b8\u05d4 \u05d1\u05bc\u05b7\u05e9\u05c1\u05bc\u05b0\u05d1\u05b4\u05a5\u05d9 \u05ea\u05b5\u05dc\u05b7\u05bd\u05db\u05b0\u05e0\u05b8\u05d4\u05c3"
        },
        {
            "chapter": 30,
            "verse": 18,
            "name": "Ezekiel 30:18",
            "text": "\u05d5\u05bc\u05d1\u05b4\u05bd\u05ea\u05b0\u05d7\u05b7\u05e4\u05b0\u05e0\u05b0\u05d7\u05b5\u05e1\u0599 \u05d7\u05b8\u05e9\u05c2\u05b7\u05a3\u05da\u05b0 \u05d4\u05b7\u05d9\u05bc\u0594\u05d5\u05b9\u05dd \u05d1\u05bc\u05b0\u05e9\u05c1\u05b4\u05d1\u05b0\u05e8\u05b4\u05d9\u05be\u05e9\u05c1\u05b8\u05dd\u0599 \u05d0\u05b6\u05ea\u05be\u05de\u05b9\u05d8\u05a3\u05d5\u05b9\u05ea \u05de\u05b4\u05e6\u05b0\u05e8\u05b7\u0594\u05d9\u05b4\u05dd \u05d5\u05b0\u05e0\u05b4\u05e9\u05c1\u05b0\u05d1\u05bc\u05b7\u05ea\u05be\u05d1\u05bc\u05b8\u0596\u05d4\u05bc \u05d2\u05bc\u05b0\u05d0\u05a3\u05d5\u05b9\u05df \u05e2\u05bb\u05d6\u05bc\u05b8\u0591\u05d4\u05bc \u05d4\u05b4\u059a\u05d9\u05d0 \u05e2\u05b8\u05e0\u05b8\u05a3\u05df \u05d9\u05b0\u05db\u05b7\u05e1\u05bc\u05b6\u0594\u05e0\u05bc\u05b8\u05d4 \u05d5\u05bc\u05d1\u05b0\u05e0\u05d5\u05b9\u05ea\u05b6\u0596\u05d9\u05d4\u05b8 \u05d1\u05bc\u05b7\u05e9\u05c1\u05bc\u05b0\u05d1\u05b4\u05a5\u05d9 \u05ea\u05b5\u05dc\u05b7\u05bd\u05db\u05b0\u05e0\u05b8\u05d4\u05c3"
        },
        {
            "chapter": 30,
            "verse": 19,
            "name": "Ezekiel 30:19",
            "text": "\u05d5\u05b0\u05e2\u05b8\u05e9\u05c2\u05b4\u05a5\u05d9\u05ea\u05b4\u05d9 \u05e9\u05c1\u05b0\u05e4\u05b8\u05d8\u05b4\u0596\u05d9\u05dd \u05d1\u05bc\u05b0\u05de\u05b4\u05e6\u05b0\u05e8\u05b8\u0591\u05d9\u05b4\u05dd \u05d5\u05b0\u05d9\u05b8\u05d3\u05b0\u05e2\u0596\u05d5\u05bc \u05db\u05bc\u05b4\u05bd\u05d9\u05be\u05d0\u05b2\u05e0\u05b4\u05a5\u05d9 \u05d9\u05b0\u05d4\u05b9\u05d5\u05b8\u05bd\u05d4\u05c3"
        },
        {
            "chapter": 30,
            "verse": 20,
            "name": "Ezekiel 30:20",
            "text": "  \u05d5\u05b7\u05d9\u05b0\u05d4\u05b4\u0597\u05d9 \u05d1\u05bc\u05b0\u05d0\u05b7\u05d7\u05b7\u05a4\u05ea \u05e2\u05b6\u05e9\u05c2\u05b0\u05e8\u05b5\u05d4\u0599 \u05e9\u05c1\u05b8\u05e0\u05b8\u0594\u05d4 \u05d1\u05bc\u05b8\u05e8\u05b4\u05d0\u05e9\u05c1\u0596\u05d5\u05b9\u05df \u05d1\u05bc\u05b0\u05e9\u05c1\u05b4\u05d1\u05b0\u05e2\u05b8\u05a3\u05d4 \u05dc\u05b7\u05d7\u05b9\u0591\u05d3\u05b6\u05e9\u05c1 \u05d4\u05b8\u05d9\u05b8\u05a5\u05d4 \u05d3\u05b0\u05d1\u05b7\u05e8\u05be\u05d9\u05b0\u05d4\u05b9\u05d5\u05b8\u0596\u05d4 \u05d0\u05b5\u05dc\u05b7\u05a5\u05d9 \u05dc\u05b5\u05d0\u05de\u05b9\u05bd\u05e8\u05c3"
        },
        {
            "chapter": 30,
            "verse": 21,
            "name": "Ezekiel 30:21",
            "text": "\u05d1\u05bc\u05b6\u05df\u05be\u05d0\u05b8\u05d3\u05b8\u0595\u05dd \u05d0\u05b6\u05ea\u05be\u05d6\u05b0\u05e8\u059b\u05d5\u05b9\u05e2\u05b7 \u05e4\u05bc\u05b7\u05e8\u05b0\u05e2\u05b9\u05a5\u05d4 \u05de\u05b6\u05dc\u05b6\u05da\u05b0\u05be\u05de\u05b4\u05e6\u05b0\u05e8\u05b7\u0596\u05d9\u05b4\u05dd \u05e9\u05c1\u05b8\u05d1\u05b8\u0591\u05e8\u05b0\u05ea\u05bc\u05b4\u05d9 \u05d5\u05b0\u05d4\u05b4\u05e0\u05bc\u05b5\u05a3\u05d4 \u05dc\u05b9\u05bd\u05d0\u05be\u05d7\u05bb\u05a0\u05d1\u05bc\u05b0\u05e9\u05c1\u05b8\u05a0\u05d4 \u05dc\u05b8\u05ea\u05b5\u05a8\u05ea \u05e8\u05b0\u05e4\u05bb\u05d0\u059c\u05d5\u05b9\u05ea \u05dc\u05b8\u05e9\u05c2\u05a5\u05d5\u05bc\u05dd \u05d7\u05b4\u05ea\u05bc\u059b\u05d5\u05bc\u05dc \u05dc\u05b0\u05d7\u05c7\u05d1\u05b0\u05e9\u05c1\u05b8\u05a5\u05d4\u05bc \u05dc\u05b0\u05d7\u05c7\u05d6\u05b0\u05e7\u05b8\u0596\u05d4\u05bc \u05dc\u05b4\u05ea\u05b0\u05e4\u05bc\u05b9\u05a5\u05e9\u05c2 \u05d1\u05bc\u05b6\u05d7\u05b8\u05bd\u05e8\u05b6\u05d1\u05c3"
        },
        {
            "chapter": 30,
            "verse": 22,
            "name": "Ezekiel 30:22",
            "text": " \u3000\u3000\u3000\u05dc\u05b8\u05db\u05b5\u059e\u05df \u05db\u05bc\u05b9\u05d4\u05be\u05d0\u05b8\u05de\u05b7\u05a3\u05e8\u00a0\u05c0 \u05d0\u05b2\u05d3\u05b9\u05e0\u05b8\u05a3\u05d9 \u05d9\u05b1\u05d4\u05b9\u05d5\u05b4\u0597\u05d4 \u05d4\u05b4\u05e0\u05b0\u05e0\u05b4\u05d9\u0599 \u05d0\u05b6\u05dc\u05be\u05e4\u05bc\u05b7\u05e8\u05b0\u05e2\u05b9\u05a3\u05d4 \u05de\u05b6\u05dc\u05b6\u05da\u05b0\u05be\u05de\u05b4\u05e6\u05b0\u05e8\u05b7\u0594\u05d9\u05b4\u05dd \u05d5\u05b0\u05e9\u05c1\u05b8\u05bd\u05d1\u05b7\u05e8\u05b0\u05ea\u05bc\u05b4\u05d9\u0599 \u05d0\u05b6\u05ea\u05be\u05d6\u05b0\u05e8\u05b9\u05a3\u05e2\u05b9\u05ea\u05b8\u0594\u05d9\u05d5 \u05d0\u05b6\u05ea\u05be\u05d4\u05b7\u05d7\u05b2\u05d6\u05b8\u05e7\u05b8\u0596\u05d4 \u05d5\u05b0\u05d0\u05b6\u05ea\u05be\u05d4\u05b7\u05e0\u05bc\u05b4\u05e9\u05c1\u05b0\u05d1\u05bc\u05b8\u0591\u05e8\u05b6\u05ea \u05d5\u05b0\u05d4\u05b4\u05e4\u05bc\u05b7\u05dc\u05b0\u05ea\u05bc\u05b4\u05a5\u05d9 \u05d0\u05b6\u05ea\u05be\u05d4\u05b7\u05d7\u05b6\u0596\u05e8\u05b6\u05d1 \u05de\u05b4\u05d9\u05bc\u05b8\u05d3\u05bd\u05d5\u05b9\u05c3"
        },
        {
            "chapter": 30,
            "verse": 23,
            "name": "Ezekiel 30:23",
            "text": "\u05d5\u05b7\u05d4\u05b2\u05e4\u05b4\u05e6\u05d5\u05b9\u05ea\u05b4\u05a5\u05d9 \u05d0\u05b6\u05ea\u05be\u05de\u05b4\u05e6\u05b0\u05e8\u05b7\u0596\u05d9\u05b4\u05dd \u05d1\u05bc\u05b7\u05d2\u05bc\u05d5\u05b9\u05d9\u05b4\u0591\u05dd \u05d5\u05b0\u05d6\u05b5\u05e8\u05b4\u05d9\u05ea\u05b4\u0596\u05dd \u05d1\u05bc\u05b8\u05d0\u05b2\u05e8\u05b8\u05e6\u05bd\u05d5\u05b9\u05ea\u05c3"
        },
        {
            "chapter": 30,
            "verse": 24,
            "name": "Ezekiel 30:24",
            "text": "\u05d5\u05b0\u05d7\u05b4\u05d6\u05bc\u05b7\u05e7\u05b0\u05ea\u05bc\u05b4\u0597\u05d9 \u05d0\u05b6\u05ea\u05be\u05d6\u05b0\u05e8\u05b9\u05e2\u05d5\u05b9\u05ea\u0599 \u05de\u05b6\u05a3\u05dc\u05b6\u05da\u05b0 \u05d1\u05bc\u05b8\u05d1\u05b6\u0594\u05dc \u05d5\u05b0\u05e0\u05b8\u05ea\u05b7\u05ea\u05bc\u05b4\u05a5\u05d9 \u05d0\u05b6\u05ea\u05be\u05d7\u05b7\u05e8\u05b0\u05d1\u05bc\u05b4\u0596\u05d9 \u05d1\u05bc\u05b0\u05d9\u05b8\u05d3\u0591\u05d5\u05b9 \u05d5\u05b0\u05e9\u05c1\u05b8\u05bd\u05d1\u05b7\u05e8\u05b0\u05ea\u05bc\u05b4\u05d9\u0599 \u05d0\u05b6\u05ea\u05be\u05d6\u05b0\u05e8\u05b9\u05e2\u05a3\u05d5\u05b9\u05ea \u05e4\u05bc\u05b7\u05e8\u05b0\u05e2\u05b9\u0594\u05d4 \u05d5\u05b0\u05e0\u05b8\u05d0\u05b7\u059b\u05e7 \u05e0\u05b7\u05d0\u05b2\u05e7\u05a5\u05d5\u05b9\u05ea \u05d7\u05b8\u05dc\u05b8\u0596\u05dc \u05dc\u05b0\u05e4\u05b8\u05e0\u05b8\u05bd\u05d9\u05d5\u05c3"
        },
        {
            "chapter": 30,
            "verse": 25,
            "name": "Ezekiel 30:25",
            "text": "\u05d5\u05b0\u05d4\u05b7\u05d7\u05b2\u05d6\u05b7\u05e7\u05b0\u05ea\u05bc\u05b4\u0597\u05d9 \u05d0\u05b6\u05ea\u05be\u05d6\u05b0\u05e8\u05b9\u05e2\u05d5\u05b9\u05ea\u0599 \u05de\u05b6\u05a3\u05dc\u05b6\u05da\u05b0 \u05d1\u05bc\u05b8\u05d1\u05b6\u0594\u05dc \u05d5\u05bc\u05d6\u05b0\u05e8\u05b9\u05e2\u05a5\u05d5\u05b9\u05ea \u05e4\u05bc\u05b7\u05e8\u05b0\u05e2\u05b9\u0596\u05d4 \u05ea\u05bc\u05b4\u05e4\u05bc\u05b9\u0591\u05dc\u05b0\u05e0\u05b8\u05d4 \u05d5\u05b0\u05bd\u05d9\u05b8\u05d3\u05b0\u05e2\u059e\u05d5\u05bc \u05db\u05bc\u05b4\u05d9\u05be\u05d0\u05b2\u05e0\u05b4\u05a3\u05d9 \u05d9\u05b0\u05d4\u05b9\u05d5\u05b8\u0597\u05d4 \u05d1\u05bc\u05b0\u05ea\u05b4\u05ea\u05bc\u05b4\u05a4\u05d9 \u05d7\u05b7\u05e8\u05b0\u05d1\u05bc\u05b4\u05d9\u0599 \u05d1\u05bc\u05b0\u05d9\u05b7\u05a3\u05d3 \u05de\u05b6\u05bd\u05dc\u05b6\u05da\u05b0\u05be\u05d1\u05bc\u05b8\u05d1\u05b6\u0594\u05dc \u05d5\u05b0\u05e0\u05b8\u05d8\u05b8\u05a5\u05d4 \u05d0\u05d5\u05b9\u05ea\u05b8\u0596\u05d4\u05bc \u05d0\u05b6\u05dc\u05be\u05d0\u05b6\u05a5\u05e8\u05b6\u05e5 \u05de\u05b4\u05e6\u05b0\u05e8\u05b8\u05bd\u05d9\u05b4\u05dd\u05c3"
        },
        {
            "chapter": 30,
            "verse": 26,
            "name": "Ezekiel 30:26",
            "text": "\u05d5\u05b7\u05d4\u05b2\u05e4\u05b4\u05e6\u05d5\u05b9\u05ea\u05b4\u05a4\u05d9 \u05d0\u05b6\u05ea\u05be\u05de\u05b4\u05e6\u05b0\u05e8\u05b7\u0599\u05d9\u05b4\u05dd\u0599 \u05d1\u05bc\u05b7\u05d2\u05bc\u05d5\u05b9\u05d9\u05b4\u0594\u05dd \u05d5\u05b0\u05d6\u05b5\u05e8\u05b4\u05d9\u05ea\u05b4\u05a5\u05d9 \u05d0\u05d5\u05b9\u05ea\u05b8\u0596\u05dd \u05d1\u05bc\u05b8\u05d0\u05b2\u05e8\u05b8\u05e6\u0591\u05d5\u05b9\u05ea \u05d5\u05b0\u05d9\u05b8\u05d3\u05b0\u05e2\u0596\u05d5\u05bc \u05db\u05bc\u05b4\u05bd\u05d9\u05be\u05d0\u05b2\u05e0\u05b4\u05a5\u05d9 \u05d9\u05b0\u05d4\u05b9\u05d5\u05b8\u05bd\u05d4\u05c3  "
        }
    ]
}