{
    "translation": "Latvian Gl\u00fcck 8th edition",
    "abbreviation": "lvgluck8",
    "lang": "lv",
    "language": "Latvian",
    "direction": "LTR",
    "encoding": "UTF-8",
    "book_nr": 44,
    "book_name": "Acts",
    "chapter": 13,
    "name": "Acts 13",
    "verses": [
        {
            "chapter": 13,
            "verse": 1,
            "name": "Acts 13:1",
            "text": "Un pie t\u0101s draudzes, kas bija Antio\u0137ij\u0101, bija pravie\u0161i un m\u0101c\u012bt\u0101ji: Barnaba un S\u012bmeans, kas d\u0113v\u0113ts Ni\u0123ers, un Lucijus no \u0136irenes un Manna\u0113ns, kas ar Erodu, to lielkungu, bija uzaudzin\u0101ts, un Zauls. "
        },
        {
            "chapter": 13,
            "verse": 2,
            "name": "Acts 13:2",
            "text": "Un kad tie Tam Kungam kalpoja un gav\u0113ja, tad Sv\u0113tais Gars sac\u012bja: no\u0161\u0137iriet man Barnabu un Zaulu uz to darbu, pie ka es tos esmu aicin\u0101jis."
        },
        {
            "chapter": 13,
            "verse": 3,
            "name": "Acts 13:3",
            "text": "Tad tie gav\u0113ja un Dievu l\u016bdza un tiem rokas uzliku\u0161i tos atlaida. "
        },
        {
            "chapter": 13,
            "verse": 4,
            "name": "Acts 13:4",
            "text": "Tad nu \u0161ie no Sv\u0113t\u0101 Gara izs\u016bt\u012btie nog\u0101ja uz Zeleu\u0137iju, un no tejienes p\u0101rc\u0113l\u0101s uz Kipru. "
        },
        {
            "chapter": 13,
            "verse": 5,
            "name": "Acts 13:5",
            "text": "Un n\u0101ku\u0161i Zalamin\u0101 tie pasludin\u0101ja Dieva v\u0101rdu J\u016bdu bazn\u012bc\u0101s, un tiem ar\u012b J\u0101nis bija kl\u0101t par pal\u012bgu. "
        },
        {
            "chapter": 13,
            "verse": 6,
            "name": "Acts 13:6",
            "text": "Un to salu p\u0101rstaig\u0101ju\u0161i l\u012bdz P\u0101vu, tie atrada k\u0101du burvi, vilt\u012bgu pravieti, J\u016bdu cilv\u0113ku, kam v\u0101rds bija Barjezus. "
        },
        {
            "chapter": 13,
            "verse": 7,
            "name": "Acts 13:7",
            "text": "Tas bija pie t\u0101 zemes so\u0123a Zergijus P\u0101vila, kas bija gudrs v\u012brs. \u0160is, Barnabu un Zaulu ataicin\u0101jis, \u013coti v\u0113l\u0113j\u0101s Dieva v\u0101rdu dzird\u0113t. "
        },
        {
            "chapter": 13,
            "verse": 8,
            "name": "Acts 13:8",
            "text": "Bet tiem Elimas, tas burvis, (jo t\u0101 vi\u0146a v\u0101rds top tulkots), st\u0101v\u0113ja pret\u012b, mekl\u0113dams zemes so\u0123i nov\u0113rst no tic\u012bbas. "
        },
        {
            "chapter": 13,
            "verse": 9,
            "name": "Acts 13:9",
            "text": "Bet Zauls, (ar\u012b P\u0101vils saukts), Sv\u0113ta Gara pilns vi\u0146u uzskat\u012bja "
        },
        {
            "chapter": 13,
            "verse": 10,
            "name": "Acts 13:10",
            "text": "Un sac\u012bja: ak tu velna b\u0113rns, visas vilt\u012bbas un visas bl\u0113d\u012bbas pilns, tu visas taisn\u012bbas ienaidnieks, vai tu nest\u0101sies p\u0101rv\u0113rst T\u0101 Kunga taisnos ce\u013cus? "
        },
        {
            "chapter": 13,
            "verse": 11,
            "name": "Acts 13:11",
            "text": "Un nu redzi, T\u0101 Kunga roka ir pret tevi, un tu b\u016bsi akls un uz k\u0101du laiku sauli neredz\u0113si. Un t\u016bda\u013c kr\u0113sla un tumsa krita uz vi\u0146u, un vi\u0146\u0161 g\u0101ja apk\u0101rt, mekl\u0113dams vado\u0146us. "
        },
        {
            "chapter": 13,
            "verse": 12,
            "name": "Acts 13:12",
            "text": "Tad tas zemes so\u0123is redz\u0113dams, kas bija noticis, tic\u0113ja, izbr\u012bn\u012bdamies par T\u0101 Kunga m\u0101c\u012bbu."
        },
        {
            "chapter": 13,
            "verse": 13,
            "name": "Acts 13:13",
            "text": "Un P\u0101vils l\u012bdz ar tiem biedriem, no P\u0101vus c\u0113lu\u0161ies, n\u0101ca uz Pergu Pamvilij\u0101; bet J\u0101nis no tiem \u0161\u0137\u012br\u0101s un griez\u0101s atpaka\u013c uz Jeruz\u0101lemi. "
        },
        {
            "chapter": 13,
            "verse": 14,
            "name": "Acts 13:14",
            "text": "Un tie p\u0101rstaig\u0101dami, no Pergas n\u0101ca uz Antio\u0137iju Pizidij\u0101 un vien\u0101 sv\u0113tdien\u0101 ieg\u0101ju\u0161i bazn\u012bc\u0101 aps\u0113d\u0101s. "
        },
        {
            "chapter": 13,
            "verse": 15,
            "name": "Acts 13:15",
            "text": "Un p\u0113c bausl\u012bbas un pravie\u0161u las\u012b\u0161anas tie bazn\u012bcas virsnieki s\u016bt\u012bja pie tiem sac\u012bdami: v\u012bri, br\u0101\u013ci, ja jums k\u0101di pam\u0101c\u012b\u0161anas v\u0101rdi uz tiem \u013caud\u012bm, tad run\u0101jiet. "
        },
        {
            "chapter": 13,
            "verse": 16,
            "name": "Acts 13:16",
            "text": "Un P\u0101vils c\u0113lies un ar roku metis sac\u012bja: j\u016bs Izra\u0113la v\u012bri un j\u016bs dievbij\u012bgie, klaus\u0101ties: "
        },
        {
            "chapter": 13,
            "verse": 17,
            "name": "Acts 13:17",
            "text": "\u0160\u012bs Izra\u0113la tautas Dievs m\u016bsu t\u0113vus ir izredz\u0113jis un to tautu augsti c\u0113lis, kad tie piemita \u0112\u0123iptes zem\u0113, un no turienes ar paceltu roku vi\u0146\u0161 tos ir izvedis; "
        },
        {
            "chapter": 13,
            "verse": 18,
            "name": "Acts 13:18",
            "text": "Un tuksnes\u012b vi\u0146\u0161 tos uztur\u0113jis pie \u010detrdesmit gadiem, "
        },
        {
            "chapter": 13,
            "verse": 19,
            "name": "Acts 13:19",
            "text": "Un izdeld\u0113jis septi\u0146as tautas Kana\u0101na zem\u0113 un tiem izdal\u012bjis vi\u0146u zemi par mant\u012bbu. "
        },
        {
            "chapter": 13,
            "verse": 20,
            "name": "Acts 13:20",
            "text": "Un p\u0113c tam pie \u010detrsimt un piecdesmit gadiem vi\u0146\u0161 tiem deva so\u0123us l\u012bdz pravietim Samu\u0113lim. "
        },
        {
            "chapter": 13,
            "verse": 21,
            "name": "Acts 13:21",
            "text": "Un tad tie l\u016bdz\u0101s \u0137\u0113ni\u0146u; un Dievs tiem deva Zaulu, \u0136isa d\u0113lu, v\u012bru no Benjamina cilts, \u010detrdesmit gadus. "
        },
        {
            "chapter": 13,
            "verse": 22,
            "name": "Acts 13:22",
            "text": "Un to atmetis, vi\u0146\u0161 tiem iec\u0113la D\u0101vidu par \u0137\u0113ni\u0146u; tam vi\u0146\u0161 ar\u012b deva liec\u012bbu sac\u012bdams: es esmu atradis D\u0101vidu, Izajus d\u0113lu, v\u012bru p\u0113c manas sirds, kas dar\u012bs visu manu pr\u0101tu. "
        },
        {
            "chapter": 13,
            "verse": 23,
            "name": "Acts 13:23",
            "text": "No \u0161\u0101 dzimuma Dievs Izra\u0113lim p\u0113c t\u0101s apsol\u012b\u0161anas ir iec\u0113lis To Pest\u012bt\u0101ju J\u0113zu. "
        },
        {
            "chapter": 13,
            "verse": 24,
            "name": "Acts 13:24",
            "text": "Priek\u0161 vi\u0146a atn\u0101k\u0161anas J\u0101nis visiem Izra\u0113la \u013caud\u012bm bija pasludin\u0101jis to krist\u012bbu uz atgrie\u0161anos no gr\u0113kiem."
        },
        {
            "chapter": 13,
            "verse": 25,
            "name": "Acts 13:25",
            "text": "Un J\u0101nis savu ce\u013cu pabeidzis sac\u012bja: ko j\u016bs dom\u0101jat, kas es esmu? Es tas neesmu; bet redzi, viens n\u0101k p\u0113c manis, kam es neesmu cien\u012bgs kurpju siksnas atrais\u012bt. "
        },
        {
            "chapter": 13,
            "verse": 26,
            "name": "Acts 13:26",
            "text": "V\u012bri, br\u0101\u013ci, j\u016bs b\u0113rni no \u0100bra\u0101ma dzimuma, un cik j\u016bsu starp\u0101 ir dievbij\u012bgi, jums \u0161is pest\u012b\u0161anas v\u0101rds ir s\u016bt\u012bts. "
        },
        {
            "chapter": 13,
            "verse": 27,
            "name": "Acts 13:27",
            "text": "Jo tie, kas Jeruz\u0101lem\u0113 dz\u012bvo, un vi\u0146u virsnieki \u0161o neatz\u012bdami nedz tos pravie\u0161u v\u0101rdus, kas ik sv\u0113tdienas top las\u012bti, tos ir piepild\u012bju\u0161i, vi\u0146u ties\u0101dami. "
        },
        {
            "chapter": 13,
            "verse": 28,
            "name": "Acts 13:28",
            "text": "Un nek\u0101du n\u0101ves vainu neatrazdami, tie Pilatu ir l\u016bgu\u0161i, vi\u0146u nokaut. "
        },
        {
            "chapter": 13,
            "verse": 29,
            "name": "Acts 13:29",
            "text": "Un kad tie visu bija padar\u012bju\u0161i, kas rakst\u012bts par vi\u0146u, tad vi\u0146u ir no\u0146\u0113mu\u0161i no koka un ieliku\u0161i kap\u0101. "
        },
        {
            "chapter": 13,
            "verse": 30,
            "name": "Acts 13:30",
            "text": "Bet Dievs vi\u0146u ir uzmodin\u0101jis no miro\u0146iem. "
        },
        {
            "chapter": 13,
            "verse": 31,
            "name": "Acts 13:31",
            "text": "Un daudz dienas vi\u0146\u0161 ir par\u0101d\u012bjies tiem, kas l\u012bdz ar vi\u0146u bija n\u0101ku\u0161i uz Jeruz\u0101lemi un kas tagad ir vi\u0146a liecinieki pie tiem \u013caud\u012bm. "
        },
        {
            "chapter": 13,
            "verse": 32,
            "name": "Acts 13:32",
            "text": "Un m\u0113s ar\u012bdzan jums pasludin\u0101j\u0101m to eva\u0146\u0123\u0113liju par to apsol\u012b\u0161anu, kas tiem t\u0113viem notikusi, ka Dievs mums, vi\u0146u b\u0113rniem, to ir piepild\u012bjis, J\u0113zu uzmodin\u0101dams, "
        },
        {
            "chapter": 13,
            "verse": 33,
            "name": "Acts 13:33",
            "text": "K\u0101 ar\u012b otr\u0101 D\u0101vida dziesm\u0101 ir rakst\u012bts: tu esi mans D\u0113ls, \u0161odien es tevi esmu dzemdin\u0101jis. "
        },
        {
            "chapter": 13,
            "verse": 34,
            "name": "Acts 13:34",
            "text": "Bet ka vi\u0146\u0161 to no miro\u0146iem ir uzmodin\u0101jis, ka tam vairs nebija satr\u016bd\u0113t, vi\u0146\u0161 t\u0101 ir sac\u012bjis: Es jums do\u0161u to D\u0101vidam sol\u012bto past\u0101v\u012bgo \u017e\u0113last\u012bbu. "
        },
        {
            "chapter": 13,
            "verse": 35,
            "name": "Acts 13:35",
            "text": "T\u0101p\u0113c vi\u0146\u0161 ar\u012b cit\u0101 viet\u0101 saka: tu savam Sv\u0113tam nedosi redz\u0113t satr\u016bd\u0113\u0161anu. "
        },
        {
            "chapter": 13,
            "verse": 36,
            "name": "Acts 13:36",
            "text": "Jo D\u0101vids, sav\u0101 laik\u0101 Dieva pr\u0101tam kalpojis, ir aizmidzis un pie saviem t\u0113viem noguld\u012bts un satr\u016bd\u0113\u0161anu redz\u0113jis. "
        },
        {
            "chapter": 13,
            "verse": 37,
            "name": "Acts 13:37",
            "text": "Bet tas, ko Dievs ir uzmodin\u0101jis, tas satr\u016bd\u0113\u0161anu nav redz\u0113jis."
        },
        {
            "chapter": 13,
            "verse": 38,
            "name": "Acts 13:38",
            "text": "Tad nu lai jums ir zin\u0101ms, v\u012bri, br\u0101\u013ci, ka caur vi\u0146u jums gr\u0113ku piedo\u0161ana top pasludin\u0101ta; "
        },
        {
            "chapter": 13,
            "verse": 39,
            "name": "Acts 13:39",
            "text": "Un no visa t\u0101, no k\u0101 j\u016bs caur Mozus bausl\u012bbu nevar\u0113j\u0101t taisnoti tapt, ikviens, kas tic, caur \u0161o top taisnots."
        },
        {
            "chapter": 13,
            "verse": 40,
            "name": "Acts 13:40",
            "text": "T\u0101p\u0113c piel\u016bkojiet, ka p\u0101r jums nen\u0101k, kas ir sac\u012bts iek\u0161 tiem pravie\u0161iem: "
        },
        {
            "chapter": 13,
            "verse": 41,
            "name": "Acts 13:41",
            "text": "Raug\u0101t, j\u016bs pulgot\u0101ji, un br\u012bn\u0101ties un izn\u012bkstiet: jo es k\u0101du darbu padaru j\u016bsu dien\u0101s, t\u0101du darbu, ko j\u016bs netic\u0113siet, ja k\u0101ds jums to st\u0101sta."
        },
        {
            "chapter": 13,
            "verse": 42,
            "name": "Acts 13:42",
            "text": "Un kad tie J\u016bdi bija izg\u0101ju\u0161i no bazn\u012bcas, tad tie pag\u0101ni l\u016bdza, n\u0101ko\u0161\u0101 sv\u0113tdien\u0101 vi\u0146iem \u0161os v\u0101rdus run\u0101t."
        },
        {
            "chapter": 13,
            "verse": 43,
            "name": "Acts 13:43",
            "text": "Un kad t\u0101 draudze tapa atlaista, tad daudz J\u016bdi un dievbij\u012bgi J\u016bdu tic\u012bbas biedri P\u0101vilam un Barnabam g\u0101ja paka\u013c; \u0161ie tos pam\u0101c\u012bja un paskubin\u0101ja palikt Dieva \u017e\u0113last\u012bb\u0101. "
        },
        {
            "chapter": 13,
            "verse": 44,
            "name": "Acts 13:44",
            "text": "Un n\u0101ko\u0161\u0101 sv\u0113tdien\u0101 tik ne visa t\u0101 pils\u0113ta sapulc\u0113j\u0101s, Dieva v\u0101rdu dzird\u0113t. "
        },
        {
            "chapter": 13,
            "verse": 45,
            "name": "Acts 13:45",
            "text": "Bet tie J\u016bdi, to \u013cau\u017eu pulku redz\u0113dami, tapa naida pilni un run\u0101ja tam pret\u012b, ko P\u0101vils sac\u012bja, pret\u012b run\u0101dami un zaimodami. "
        },
        {
            "chapter": 13,
            "verse": 46,
            "name": "Acts 13:46",
            "text": "Bet P\u0101vils un Barnaba ar dro\u0161\u012bbu sac\u012bja: tas Dieva v\u0101rds papriek\u0161 uz jums bija j\u0101run\u0101, bet kad j\u016bs to atmetat un sev pa\u0161us necien\u012bgus turat mantot m\u016b\u017e\u012bgu dz\u012bvo\u0161anu, redzi, tad m\u0113s grie\u017eamies pie tiem pag\u0101niem. "
        },
        {
            "chapter": 13,
            "verse": 47,
            "name": "Acts 13:47",
            "text": "Jo t\u0101 Tas Kungs mums ir pav\u0113l\u0113jis: Es tevi esmu iec\u0113lis pag\u0101niem par gai\u0161umu, ka tu b\u016btu t\u0101 pest\u012b\u0161ana l\u012bdz pasaules galam. "
        },
        {
            "chapter": 13,
            "verse": 48,
            "name": "Acts 13:48",
            "text": "Kad nu tie pag\u0101ni to dzird\u0113ja, tad tie priec\u0101j\u0101s un slav\u0113ja T\u0101 Kunga v\u0101rdu, un tic\u0113ja, cik uz m\u016b\u017e\u012bgu dz\u012bvo\u0161anu bija izredz\u0113ti. "
        },
        {
            "chapter": 13,
            "verse": 49,
            "name": "Acts 13:49",
            "text": "Un T\u0101 Kunga v\u0101rds izpaud\u0101s pa visu to tiesu."
        },
        {
            "chapter": 13,
            "verse": 50,
            "name": "Acts 13:50",
            "text": "Bet tie J\u016bdi skubin\u0101ja dievbij\u012bgas sievas no augstas k\u0101rtas un t\u0101s pils\u0113tas virsniekus un c\u0113la vaj\u0101\u0161anu pret P\u0101vilu un Barnabu un tos izdzina no sav\u0101m robe\u017e\u0101m. "
        },
        {
            "chapter": 13,
            "verse": 51,
            "name": "Acts 13:51",
            "text": "Bet tie tos p\u012b\u0161\u013cus nokrat\u012bja no sav\u0101m k\u0101j\u0101m pret tiem un n\u0101ca uz Ikoniju. "
        },
        {
            "chapter": 13,
            "verse": 52,
            "name": "Acts 13:52",
            "text": "Un tie m\u0101cek\u013ci tapa piepild\u012bti ar prieku un ar Sv\u0113tu Garu.  "
        }
    ]
}