{
    "translation": "Latvian Gl\u00fcck 8th edition",
    "abbreviation": "lvgluck8",
    "lang": "lv",
    "language": "Latvian",
    "direction": "LTR",
    "encoding": "UTF-8",
    "book_nr": 44,
    "book_name": "Acts",
    "chapter": 21,
    "name": "Acts 21",
    "verses": [
        {
            "chapter": 21,
            "verse": 1,
            "name": "Acts 21:1",
            "text": "Un kad notik\u0101s, ka m\u0113s no tiem at\u0161\u0137\u012bru\u0161ies, tad m\u0113s brauc\u0101m tie\u0161\u0101m un n\u0101c\u0101m uz Kou un otr\u0101 dien\u0101 uz Rodu un no turienes uz Pataru."
        },
        {
            "chapter": 21,
            "verse": 2,
            "name": "Acts 21:2",
            "text": "Un laivu atradu\u0161i, kas uz Veni\u0137iju p\u0101rc\u0113l\u0101s, m\u0113s iek\u0101p\u0101m un aizc\u0113l\u0101mies. "
        },
        {
            "chapter": 21,
            "verse": 3,
            "name": "Acts 21:3",
            "text": "Un kad m\u0113s Kipru ieraudz\u012bj\u0101m un pa kreiso roku pamet\u0101m, tad c\u0113l\u0101mies uz S\u012briju, un T\u012br\u016b m\u0113s laid\u0101m pie malas, jo tur tai laivai prece bija j\u0101izkrauj. "
        },
        {
            "chapter": 21,
            "verse": 4,
            "name": "Acts 21:4",
            "text": "Un m\u0101cek\u013cus atradu\u0161i, m\u0113s tur palik\u0101m septi\u0146as dienas; tie P\u0101vilam caur to Garu sac\u012bja, lai tas neietu uz Jeruz\u0101lemi. "
        },
        {
            "chapter": 21,
            "verse": 5,
            "name": "Acts 21:5",
            "text": "Un notik\u0101s p\u0113c \u0161\u012bm dien\u0101m, tad m\u0113s izg\u0101j\u0101m un dev\u0101mies proj\u0101m, un tur visi ar siev\u0101m un b\u0113rniem m\u016bs izvad\u012bja no pils\u0113tas \u0101r\u0101; un m\u0113s pie j\u016brmalas ce\u013cos metu\u0161ies Dievu l\u016bdz\u0101m. "
        },
        {
            "chapter": 21,
            "verse": 6,
            "name": "Acts 21:6",
            "text": "Un kad sav\u0101 starp\u0101 bij\u0101m atvad\u012bju\u0161ies, iek\u0101p\u0101m laiv\u0101. Bet vi\u0146i griez\u0101s atpaka\u013c uz sav\u0101m m\u0101j\u0101m. "
        },
        {
            "chapter": 21,
            "verse": 7,
            "name": "Acts 21:7",
            "text": "Bet m\u0113s joproj\u0101m no T\u012brus p\u0101rc\u0113lu\u0161ies laid\u0101m pie Ptolemajidas mal\u0101; un tos br\u0101\u013cus apsveicin\u0101ju\u0161i, m\u0113s pie tiem palik\u0101m vienu dienu. "
        },
        {
            "chapter": 21,
            "verse": 8,
            "name": "Acts 21:8",
            "text": "Bet otr\u0101 dien\u0101 m\u0113s, kas ap P\u0101vilu bij\u0101m, izg\u0101ju\u0161i n\u0101c\u0101m uz Cezareju; un ieg\u0101ju\u0161i evan\u0123elista Filipa nam\u0101, (kas bija viens no tiem septi\u0146iem), m\u0113s pie t\u0101 palik\u0101m. "
        },
        {
            "chapter": 21,
            "verse": 9,
            "name": "Acts 21:9",
            "text": "Bet \u0161im bija \u010detras meitas, jumpravas, kas n\u0101ko\u0161as lietas sludin\u0101ja. "
        },
        {
            "chapter": 21,
            "verse": 10,
            "name": "Acts 21:10",
            "text": "Un kad m\u0113s k\u0101das dienas tur bij\u0101m paliku\u0161i, viens pravietis atn\u0101ca no J\u016bdu zemes, ar v\u0101rdu Agabs. "
        },
        {
            "chapter": 21,
            "verse": 11,
            "name": "Acts 21:11",
            "text": "Un tas n\u0101ca pie mums un \u0146\u0113ma P\u0101vila jostu un saist\u012bja pats sev rokas un k\u0101jas sac\u012bdams: T\u0101 Sv\u0113tais Gars saka: to v\u012bru, kam \u0161\u012b josta pieder, t\u0101pat tie J\u016bdi saist\u012bs Jeruz\u0101lem\u0113 un vi\u0146u nodos pag\u0101nu rok\u0101s. "
        },
        {
            "chapter": 21,
            "verse": 12,
            "name": "Acts 21:12",
            "text": "Un kad m\u0113s to dzird\u0113j\u0101m, tad ne vien m\u0113s l\u016bdz\u0101m, bet ar\u012b tie, kas tai viet\u0101 dz\u012bvoja, lai vi\u0146\u0161 neietu uz Jeruz\u0101lemi. "
        },
        {
            "chapter": 21,
            "verse": 13,
            "name": "Acts 21:13",
            "text": "Bet P\u0101vils atbild\u0113ja: ko j\u016bs dar\u0101t, ka raud\u0101t un lau\u017eat manu sirdi? Jo es esmu gatavs par T\u0101 Kunga J\u0113zus v\u0101rdu ne vien likties saist\u012bties Jeruz\u0101lem\u0113, bet ar\u012b mirt. "
        },
        {
            "chapter": 21,
            "verse": 14,
            "name": "Acts 21:14",
            "text": "Un kad vi\u0146\u0161 ne\u013c\u0101v\u0101s p\u0101rrun\u0101ties, tad m\u0113s palik\u0101m klusu, sac\u012bdami: T\u0101 Kunga pr\u0101ts lai notiek."
        },
        {
            "chapter": 21,
            "verse": 15,
            "name": "Acts 21:15",
            "text": "P\u0113c \u0161\u012bm dien\u0101m m\u0113s satais\u012bjamies un g\u0101j\u0101m uz Jeruz\u0101lemi."
        },
        {
            "chapter": 21,
            "verse": 16,
            "name": "Acts 21:16",
            "text": "Un tur ar\u012b k\u0101di m\u0101cek\u013ci no Cezarejas mums n\u0101ca l\u012bdz un m\u016bs veda pie viena veca m\u0101cek\u013ca, Mnazona no Kipras, lai pie t\u0101 m\u0101jotu."
        },
        {
            "chapter": 21,
            "verse": 17,
            "name": "Acts 21:17",
            "text": "Un kad n\u0101c\u0101m uz Jeruz\u0101lemi, tad tie br\u0101\u013ci m\u016bs ar m\u012b\u013cu pr\u0101tu uz\u0146\u0113ma."
        },
        {
            "chapter": 21,
            "verse": 18,
            "name": "Acts 21:18",
            "text": "Un otr\u0101 dien\u0101 P\u0101vils ar mums nog\u0101ja pie J\u0113kaba; un visi vecaji tur ar\u012bdzan san\u0101ca. "
        },
        {
            "chapter": 21,
            "verse": 19,
            "name": "Acts 21:19",
            "text": "Un vi\u0146\u0161 tos sveicin\u0101jis, pa k\u0101rt\u0101m st\u0101st\u012bja visu, ko Dievs pie pag\u0101niem caur vi\u0146a kalpo\u0161anu bija dar\u012bjis. "
        },
        {
            "chapter": 21,
            "verse": 20,
            "name": "Acts 21:20",
            "text": "Un to dzird\u0113ju\u0161i, tie To Kungu teica un uz vi\u0146u sac\u012bja: br\u0101li, tu redzi, cik t\u016bksto\u0161i J\u016bdu ir, kas paliku\u0161i tic\u012bgi, un visi gau\u017ei dzen\u0101s p\u0113c bausl\u012bbas. "
        },
        {
            "chapter": 21,
            "verse": 21,
            "name": "Acts 21:21",
            "text": "Un tie par tevi dab\u016bju\u0161i zin\u0101t, ka tu visus J\u016bdus, kas starp pag\u0101niem, m\u0101cot atst\u0101ties no Mozus, sac\u012bdams, ka tiem neb\u016bs savus b\u0113rnus apgraiz\u012bt, nedz p\u0113c t\u0101m iera\u0161\u0101m dz\u012bvot. "
        },
        {
            "chapter": 21,
            "verse": 22,
            "name": "Acts 21:22",
            "text": "T\u0101d\u0113\u013c ko tad nu? Tie\u0161\u0101m, gan \u013cau\u017eu pulks san\u0101ks; jo tie dzird\u0113s tevi esam atn\u0101ku\u0161u."
        },
        {
            "chapter": 21,
            "verse": 23,
            "name": "Acts 21:23",
            "text": "T\u0101p\u0113c dari to, ko m\u0113s tev sak\u0101m: mums ir \u010detri v\u012bri, tie Dievam ir sol\u012bju\u0161ies."
        },
        {
            "chapter": 21,
            "verse": 24,
            "name": "Acts 21:24",
            "text": "Tos \u0146em pie sevis un \u0161\u0137\u012bsties ar tiem, un izdod par tiem to maksu, ka tie galvu apc\u0113rp, un lai visi zin, ka tie nieki, ko tie par tevi dzird\u0113ju\u0161i, bet ka ar\u012b tu pats bausl\u012bbu tur\u0113dams staig\u0101. "
        },
        {
            "chapter": 21,
            "verse": 25,
            "name": "Acts 21:25",
            "text": "Bet par tiem pag\u0101niem, kas paliku\u0161i tic\u012bgi, m\u0113s esam rakst\u012bju\u0161i un spriedu\u0161i, ka tiem neb\u016bs neko no t\u0101d\u0101m liet\u0101m tur\u0113t, k\u0101 vien, ka tiem b\u016bs sarg\u0101ties no elkadievu upuriem un no asin\u012bm un no no\u017e\u0146augt\u0101 un no mauc\u012bbas. "
        },
        {
            "chapter": 21,
            "verse": 26,
            "name": "Acts 21:26",
            "text": "Tad P\u0101vils tos v\u012brus pie sevis \u0146\u0113mis otr\u0101 dien\u0101 ar tiem \u0161\u0137\u012bst\u012bj\u0101s un ieg\u0101ja Dieva nam\u0101, un dar\u012bja zin\u0101mu, ka \u0161\u0137\u012bst\u012b\u0161anas laiku tur palik\u0161ot, tiekams par ikvienu no tiem upura d\u0101vana b\u016b\u0161ot pienesta. "
        },
        {
            "chapter": 21,
            "verse": 27,
            "name": "Acts 21:27",
            "text": "Bet kad t\u0101s septi\u0146as dienas jau dr\u012bz bija beigtas, tad tie J\u016bdi no \u0100zijas, vi\u0146u ieraudz\u012bdami Dieva nam\u0101, paskubin\u0101ja visu to pulku un rokas pie vi\u0146a pielika, "
        },
        {
            "chapter": 21,
            "verse": 28,
            "name": "Acts 21:28",
            "text": "Saukdami: j\u016bs Izra\u0113la v\u012bri, n\u0101ciet pal\u012bg\u0101! \u0160is ir tas cilv\u0113ks, kas visus vis\u0101s mal\u0101s m\u0101ca pret tautu un pret bausl\u012bbu un pret \u0161o vietu, un turkl\u0101t vi\u0146\u0161 Grie\u0137us ir ievedis Dieva nam\u0101 un \u0161o sv\u0113to vietu apg\u0101n\u012bjis. "
        },
        {
            "chapter": 21,
            "verse": 29,
            "name": "Acts 21:29",
            "text": "(Jo tie priek\u0161 tam Trovimu no Evezus pie vi\u0146a bija redz\u0113ju\u0161i pils\u0113t\u0101 un dom\u0101ja, ka P\u0101vils to esot ievedis Dieva nam\u0101.) "
        },
        {
            "chapter": 21,
            "verse": 30,
            "name": "Acts 21:30",
            "text": "Un visa t\u0101 pils\u0113ta tapa trok\u0161\u0146a pilna, un tie \u013caudis satec\u0113ja kop\u0101; un tie gr\u0101ba un r\u0101va P\u0101vilu no Dieva nama \u0101r\u0101, un t\u016bda\u013c durvis tapa aizsl\u0113gtas. "
        },
        {
            "chapter": 21,
            "verse": 31,
            "name": "Acts 21:31",
            "text": "Un kad tie mekl\u0113ja vi\u0146u nokaut, tad t\u0101 zi\u0146a n\u0101ca pie t\u0101 karapulka virsnieka, ka visa Jeruz\u0101leme esot sajaukta. "
        },
        {
            "chapter": 21,
            "verse": 32,
            "name": "Acts 21:32",
            "text": "\u0160is t\u016bda\u013c karav\u012brus un kaptei\u0146us pa\u0146\u0113mis, pie tiem noskr\u0113ja, un kad tie to virsnieku un tos karav\u012brus redz\u0113ja, tad tie mit\u0113j\u0101s P\u0101vilu sist. "
        },
        {
            "chapter": 21,
            "verse": 33,
            "name": "Acts 21:33",
            "text": "Tad tas virsnieks pieg\u0101jis vi\u0146u sa\u0146\u0113ma un pav\u0113l\u0113ja, vi\u0146u ar div\u0101m \u0137\u0113d\u0113m saist\u012bt, un vaic\u0101ja, kas vi\u0146\u0161 esot un ko esot dar\u012bjis? "
        },
        {
            "chapter": 21,
            "verse": 34,
            "name": "Acts 21:34",
            "text": "Bet tai pulk\u0101 citi sauca \u0161\u0101, citi t\u0101. Kad tas nu t\u0101 trok\u0161\u0146a d\u0113\u013c to lietu skaidri nevar\u0113ja saprast, tad tas pav\u0113l\u0113ja, vi\u0146u vest l\u0113\u0123er\u012b. "
        },
        {
            "chapter": 21,
            "verse": 35,
            "name": "Acts 21:35",
            "text": "Un kad vi\u0146\u0161 pie t\u0101m trep\u0113m n\u0101ca, tad vi\u0146\u0161 no tiem karav\u012briem ne\u0161us bija j\u0101nes to \u013cau\u017eu uzm\u0101k\u0161an\u0101s d\u0113\u013c."
        },
        {
            "chapter": 21,
            "verse": 36,
            "name": "Acts 21:36",
            "text": "Jo tas \u013cau\u017eu pulks g\u0101ja paka\u013c saukdams: nost ar vi\u0146u! "
        },
        {
            "chapter": 21,
            "verse": 37,
            "name": "Acts 21:37",
            "text": "Un P\u0101vils, pirms l\u0113\u0123er\u012b tapa ievests, uz to virsnieku saka: vai man br\u012bv tev ko sac\u012bt? Un tas sac\u012bja: vai tu proti grie\u0137iski?"
        },
        {
            "chapter": 21,
            "verse": 38,
            "name": "Acts 21:38",
            "text": "Vai tu neesi tas \u0112\u0123iptiets, kas priek\u0161 \u0161\u012bm dien\u0101m dumpi c\u0113lis un tos \u010detrt\u016bksto\u0161us slepkavas uz tuksnesi izvedis? "
        },
        {
            "chapter": 21,
            "verse": 39,
            "name": "Acts 21:39",
            "text": "Bet P\u0101vils sac\u012bja: es esmu J\u016bdu cilv\u0113ks no Tarzus, zin\u0101mas \u0136ili\u0137ijas pils\u0113tas loceklis, es tevi l\u016bdzu, v\u0113li man uz tiem \u013caud\u012bm run\u0101t. "
        },
        {
            "chapter": 21,
            "verse": 40,
            "name": "Acts 21:40",
            "text": "Un kad tas bija atv\u0113l\u0113jis, tad P\u0101vils uz t\u0101m trep\u0113m st\u0101v\u0113dams meta tiem \u013caud\u012bm ar roku; un kad nu pavisam palika klusu, tad vi\u0146\u0161 Ebreju valod\u0101 tos uzrun\u0101ja un sac\u012bja:  "
        }
    ]
}