{
    "translation": "Latvian Gl\u00fcck 8th edition",
    "abbreviation": "lvgluck8",
    "lang": "lv",
    "language": "Latvian",
    "direction": "LTR",
    "encoding": "UTF-8",
    "book_nr": 44,
    "book_name": "Acts",
    "chapter": 7,
    "name": "Acts 7",
    "verses": [
        {
            "chapter": 7,
            "verse": 1,
            "name": "Acts 7:1",
            "text": "Un tas augstais priesteris sac\u012bja: vai tas t\u0101 ir?"
        },
        {
            "chapter": 7,
            "verse": 2,
            "name": "Acts 7:2",
            "text": "Bet vi\u0146\u0161 sac\u012bja: v\u012bri, br\u0101\u013ci un t\u0113vi, klaus\u0101ties! Tas god\u012bbas Dievs par\u0101d\u012bj\u0101s m\u016bsu t\u0113vam \u0100bra\u0101mam, kad vi\u0146\u0161 bija Mezopotamij\u0101, pirms \u0100ran\u0101 m\u0101joja, "
        },
        {
            "chapter": 7,
            "verse": 3,
            "name": "Acts 7:3",
            "text": "Un sac\u012bja uz vi\u0146u: izej no savas zemes un no saviem radiem un ej uz to zemi, ko es tev r\u0101d\u012b\u0161u. "
        },
        {
            "chapter": 7,
            "verse": 4,
            "name": "Acts 7:4",
            "text": "Tad vi\u0146\u0161 no Kaldeju zemes izg\u0101jis m\u0101joja \u0100ran\u0101; un p\u0113c, kad vi\u0146a t\u0113vs bija nomiris, Dievs vi\u0146u no turienes p\u0101rveda uz \u0161o zemi, kur j\u016bs tagad dz\u012bvojiet, "
        },
        {
            "chapter": 7,
            "verse": 5,
            "name": "Acts 7:5",
            "text": "Un vi\u0146am nedeva nek\u0101du iemantojamu tiesu iek\u0161 t\u0101s, ir ne p\u0113das platum\u0101; un tom\u0113r vi\u0146am to sol\u012bja par mantu dot un vi\u0146a dzimumam p\u0113c vi\u0146a, kad vi\u0146am b\u0113rnu v\u0113l nebija. "
        },
        {
            "chapter": 7,
            "verse": 6,
            "name": "Acts 7:6",
            "text": "Bet Dievs t\u0101 run\u0101ja: tavs dzimums b\u016bs piedz\u012bvot\u0101js sve\u0161\u0101 zem\u0113 un piespiests pie kalpo\u0161anas un gr\u016bti v\u0101rdzin\u0101ts \u010detrsimt gadus. "
        },
        {
            "chapter": 7,
            "verse": 7,
            "name": "Acts 7:7",
            "text": "Un to tautu, kam tie kalpos, es gribu sod\u012bt, Dievs sac\u012bja; un p\u0113c tam tie izies un man kalpos \u0161in\u012b viet\u0101. "
        },
        {
            "chapter": 7,
            "verse": 8,
            "name": "Acts 7:8",
            "text": "Un vi\u0146\u0161 tam deva to apgraiz\u012b\u0161anas der\u012bbu. Un t\u0101 vi\u0146\u0161 dzemdin\u0101ja to \u012azaku un to apgraiz\u012bja astot\u0101 dien\u0101, un \u012azaks to J\u0113kabu, un J\u0113kabs tos divpadsmit vect\u0113vus. "
        },
        {
            "chapter": 7,
            "verse": 9,
            "name": "Acts 7:9",
            "text": "Un tie vect\u0113vi apskauda un p\u0101rdeva J\u0101zepu uz \u0112\u0123iptes zemi; un Dievs bija ar vi\u0146u, "
        },
        {
            "chapter": 7,
            "verse": 10,
            "name": "Acts 7:10",
            "text": "Un to izgl\u0101ba no vis\u0101m vi\u0146a b\u0113d\u0101m un tam deva \u017e\u0113last\u012bbu un gudr\u012bbu Vara\u016bs, \u0112\u0123iptes \u0137\u0113ni\u0146a, priek\u0161\u0101, un tas vi\u0146u iec\u0113la par vald\u012bt\u0101ju p\u0101r \u0112\u0123iptes zemi un visu savu namu. "
        },
        {
            "chapter": 7,
            "verse": 11,
            "name": "Acts 7:11",
            "text": "Bet bads n\u0101ca un lielas b\u0113das p\u0101r visu \u0112\u0123iptes un Kana\u0101na zemi; un m\u016bsu t\u0113vi neatrada bar\u012bbas. "
        },
        {
            "chapter": 7,
            "verse": 12,
            "name": "Acts 7:12",
            "text": "Un J\u0113kabs dzird\u0113jis, lab\u012bbu esam \u0112\u0123iptes zem\u0113, izs\u016bt\u012bja m\u016bsu t\u0113vus pirmo reiz. "
        },
        {
            "chapter": 7,
            "verse": 13,
            "name": "Acts 7:13",
            "text": "Un otru reiz J\u0101zeps no saviem br\u0101\u013ciem tapa paz\u012bts, un J\u0101zepa radi Vara\u016bm k\u013cuva zin\u0101mi. "
        },
        {
            "chapter": 7,
            "verse": 14,
            "name": "Acts 7:14",
            "text": "Un J\u0101zeps s\u016bt\u012bja un ataicin\u0101ja savu t\u0113vu J\u0113kabu un visus savus radus, septi\u0146desmit un piecas dv\u0113seles. "
        },
        {
            "chapter": 7,
            "verse": 15,
            "name": "Acts 7:15",
            "text": "Un J\u0113kabs nog\u0101ja uz \u0112\u0123iptes zemi un nomira, vi\u0146\u0161 un m\u016bsu t\u0113vi, "
        },
        {
            "chapter": 7,
            "verse": 16,
            "name": "Acts 7:16",
            "text": "Un tapa p\u0101rvesti uz Zi\u0137emi un tai kap\u0101 ielikti, ko \u0100bra\u0101ms ar sudraba maksu bija pircis no Emora b\u0113rniem Zi\u0137em\u0113. "
        },
        {
            "chapter": 7,
            "verse": 17,
            "name": "Acts 7:17",
            "text": "Bet kad tas apsol\u012b\u0161anas laiks tuvu kl\u0101t n\u0101ca, ko Dievs \u0100bra\u0101mam bija zv\u0113r\u0113jis, tad tie \u013caudis auga un vairoj\u0101s \u0112\u0123iptes zem\u0113, "
        },
        {
            "chapter": 7,
            "verse": 18,
            "name": "Acts 7:18",
            "text": "Tiekams cits \u0137\u0113ni\u0146\u0161 c\u0113l\u0101s, kas J\u0101zepu nepazina."
        },
        {
            "chapter": 7,
            "verse": 19,
            "name": "Acts 7:19",
            "text": "\u0160is m\u016bsu tautai ar viltu uzm\u0101c\u0101s un m\u016bsu t\u0113viem \u013caunu dar\u012bja, t\u0101 ka vi\u0146iem savi mazie b\u0113rni\u0146i bija j\u0101izmet lauk\u0101, lai tie nepaliktu pie dz\u012bv\u012bbas. "
        },
        {
            "chapter": 7,
            "verse": 20,
            "name": "Acts 7:20",
            "text": "Tai laik\u0101 Mozus piedzima un bija Dievam pat\u012bkams un tapa audzin\u0101ts tr\u012bs m\u0113ne\u0161us sava t\u0113va nam\u0101. "
        },
        {
            "chapter": 7,
            "verse": 21,
            "name": "Acts 7:21",
            "text": "Un kad tas bija izlikts lauk\u0101, tad Vara\u016bs meita to uz\u0146\u0113ma un to uzaudzin\u0101ja sev pa\u0161ai par d\u0113lu. "
        },
        {
            "chapter": 7,
            "verse": 22,
            "name": "Acts 7:22",
            "text": "Un Mozus tapa m\u0101c\u012bts vis\u0101 \u0112\u0123iptie\u0161u gudr\u012bb\u0101 un bija sp\u0113c\u012bgs v\u0101rdos un darbos. "
        },
        {
            "chapter": 7,
            "verse": 23,
            "name": "Acts 7:23",
            "text": "Kad nu vi\u0146\u0161 bija \u010detrdesmit gadus vecs, tad tas sav\u0101 sird\u012b ap\u0146\u0113m\u0101s, apmekl\u0113t savus br\u0101\u013cus, Izra\u0113la b\u0113rnus. "
        },
        {
            "chapter": 7,
            "verse": 24,
            "name": "Acts 7:24",
            "text": "Un redz\u0113dams, ka viens netaisn\u012bbu cieta, vi\u0146\u0161 p\u0101rst\u0101v\u0113ja un atrieba to, kam p\u0101ri dar\u012bja, un nosita to \u0112\u0123iptieti."
        },
        {
            "chapter": 7,
            "verse": 25,
            "name": "Acts 7:25",
            "text": "Un vi\u0146\u0161 dom\u0101ja, ka vi\u0146a br\u0101\u013ci noman\u012b\u0161ot, ka Dievs caur vi\u0146a roku tiem dodot pest\u012b\u0161anu. Bet tie to nesaprata."
        },
        {
            "chapter": 7,
            "verse": 26,
            "name": "Acts 7:26",
            "text": "Un otr\u0101 dien\u0101 vi\u0146\u0161 tiem piest\u0101j\u0101s, kad tie b\u0101r\u0101s un tos skubin\u0101ja uz mieru sac\u012bdams: v\u012bri, j\u016bs esat br\u0101\u013ci, k\u0101p\u0113c j\u016bs viens otram p\u0101ri dar\u0101t? "
        },
        {
            "chapter": 7,
            "verse": 27,
            "name": "Acts 7:27",
            "text": "Bet tas, kas savam tuv\u0101kam p\u0101ri dar\u012bja, vi\u0146u atgr\u016bda sac\u012bdams: kas tevi c\u0113lis par virsnieku un tiesas kungu p\u0101r mums?"
        },
        {
            "chapter": 7,
            "verse": 28,
            "name": "Acts 7:28",
            "text": "Vai tu mani ar\u012bdzan gribi nokaut, k\u0101 tu vakar to \u0112\u0123iptieti esi nok\u0101vis?"
        },
        {
            "chapter": 7,
            "verse": 29,
            "name": "Acts 7:29",
            "text": "Un Mozus \u0161\u012b v\u0101rda d\u0113\u013c b\u0113ga un piemita Midijana zem\u0113, kur vi\u0146\u0161 divus d\u0113lus dzemdin\u0101ja. "
        },
        {
            "chapter": 7,
            "verse": 30,
            "name": "Acts 7:30",
            "text": "Un kad \u010detrdesmit gadi bija pag\u0101ju\u0161i, tad T\u0101 Kunga e\u0146\u0123elis Sina\u012b kalna tuksnes\u012b vi\u0146am par\u0101d\u012bj\u0101s dego\u0161\u0101 \u0113rk\u0161\u0137u kr\u016bm\u0101. "
        },
        {
            "chapter": 7,
            "verse": 31,
            "name": "Acts 7:31",
            "text": "Un Mozus to redz\u0113dams, br\u012bn\u012bj\u0101s par to par\u0101d\u012b\u0161anu, un kad tas pieg\u0101ja to apl\u016bkot, tad T\u0101 Kunga balss uz vi\u0146u notika:"
        },
        {
            "chapter": 7,
            "verse": 32,
            "name": "Acts 7:32",
            "text": "Es esmu tavu t\u0113vu Dievs, \u0100bra\u0101ma Dievs un \u012azaka Dievs un J\u0113kaba Dievs. Un Mozus s\u0101ka dreb\u0113t un nedr\u012bkst\u0113ja tur skat\u012bties. "
        },
        {
            "chapter": 7,
            "verse": 33,
            "name": "Acts 7:33",
            "text": "Bet Tas Kungs uz to sac\u012bja: noauni kurpes no sav\u0101m k\u0101j\u0101m, jo t\u0101 vieta, kur tu st\u0101vi, ir sv\u0113ta zeme."
        },
        {
            "chapter": 7,
            "verse": 34,
            "name": "Acts 7:34",
            "text": "Es redz\u0113dams esmu redz\u0113jis savu \u013cau\u017eu gr\u016btumu \u0112\u0123iptes zem\u0113, un dzird\u0113jis vi\u0146u nop\u016b\u0161anos un nolaidies tos izgl\u0101bt: un nu n\u0101c, es tevi s\u016bt\u012b\u0161u uz \u0112\u0123iptes zemi. "
        },
        {
            "chapter": 7,
            "verse": 35,
            "name": "Acts 7:35",
            "text": "\u0160o Mozu, ko tie bija aizliegu\u0161i sac\u012bdami: kas tevi c\u0113lis par virsnieku un tiesas kungu? \u0161o Dievs s\u016bt\u012bjis par virsnieku un Pest\u012bt\u0101ju caur t\u0101 e\u0146\u0123e\u013ca roku, kas tam bija par\u0101d\u012bjies \u0113rk\u0161\u0137u kr\u016bm\u0101. "
        },
        {
            "chapter": 7,
            "verse": 36,
            "name": "Acts 7:36",
            "text": "\u0160is vi\u0146us ir izvedis, dar\u012bdams br\u012bnumus un z\u012bmes \u0112\u0123iptes zem\u0113 un sarkan\u0101 j\u016br\u0101 un tuksnes\u012b \u010detrdesmit gadus. "
        },
        {
            "chapter": 7,
            "verse": 37,
            "name": "Acts 7:37",
            "text": "\u0160is ir tas Mozus, kas uz Izra\u0113la b\u0113rniem sac\u012bja: Tas Kungs, j\u016bsu Dievs, jums no j\u016bsu br\u0101\u013ciem cels vienu pravieti it k\u0101 mani; to jums b\u016bs klaus\u012bt. "
        },
        {
            "chapter": 7,
            "verse": 38,
            "name": "Acts 7:38",
            "text": "\u0160is pie t\u0101s draudzes tuksnes\u012b bija ar to e\u0146\u0123eli, kas uz vi\u0146u run\u0101ja Sina\u012b kaln\u0101, un bija ar m\u016bsu t\u0113viem; un sa\u0146\u0113ma dz\u012bvus v\u0101rdus, mums tos dot; "
        },
        {
            "chapter": 7,
            "verse": 39,
            "name": "Acts 7:39",
            "text": "Tam m\u016bsu t\u0113vi negrib\u0113ja paklaus\u012bt, bet vi\u0146u atmeta un sav\u0101s sirdis atgriez\u0101s uz \u0112\u0123iptes zemi, "
        },
        {
            "chapter": 7,
            "verse": 40,
            "name": "Acts 7:40",
            "text": "Sac\u012bdami uz \u0100ronu: taisi mums dievus, kas m\u016bsu priek\u0161\u0101 ies; jo m\u0113s nezin\u0101m, kas ir noticis \u0161im Mozum, kas m\u016bs izvedis no \u0112\u0123iptes zemes. "
        },
        {
            "chapter": 7,
            "verse": 41,
            "name": "Acts 7:41",
            "text": "Un tie tais\u012bja tan\u012bs dien\u0101s vienu te\u013cu un pienesa tam elkadievam upurus un priec\u0101j\u0101s par savu roku darbiem. "
        },
        {
            "chapter": 7,
            "verse": 42,
            "name": "Acts 7:42",
            "text": "Bet Dievs nov\u0113rs\u0101s un tos nodeva kalpot tam debess sp\u0113kam, itin k\u0101 ir rakst\u012bts pravie\u0161u gr\u0101mat\u0101: vai tu Izra\u0113la nams \u0161in\u012bs \u010detrdesmit gados tuksnes\u012b man esi atnesis kaujamus un citus upurus? "
        },
        {
            "chapter": 7,
            "verse": 43,
            "name": "Acts 7:43",
            "text": "Un j\u016bs esat pie\u0146\u0113mu\u0161i to Moloka dz\u012bvokli un sava Dieva, Remvana, zvaigzni, t\u0101s bildes, ko esat tais\u012bju\u0161i, t\u0101s piel\u016bgt; un es j\u016bs p\u0101rcel\u0161u vi\u0146pus B\u0101beles. "
        },
        {
            "chapter": 7,
            "verse": 44,
            "name": "Acts 7:44",
            "text": "T\u0101 liec\u012bbas telts bija pie m\u016bsu t\u0113viem tuksnes\u012b, itin k\u0101 tas, kas ar Mozu run\u0101jis, bija pav\u0113l\u0113jis, to tais\u012bt p\u0113c t\u0101s priek\u0161z\u012bmes, ko vi\u0146\u0161 bija redz\u0113jis; "
        },
        {
            "chapter": 7,
            "verse": 45,
            "name": "Acts 7:45",
            "text": "To dab\u016bju\u0161i, m\u016bsu t\u0113vi ar Jocu\u016b to ar\u012b ieveda tai zem\u0113, kas tiem pag\u0101niem bija, kurus Dievs ir izdzinis m\u016bsu t\u0113vu priek\u0161\u0101 l\u012bdz D\u0101vida dien\u0101m. "
        },
        {
            "chapter": 7,
            "verse": 46,
            "name": "Acts 7:46",
            "text": "\u0160is \u017e\u0113last\u012bbu atrada Dieva priek\u0161\u0101 un ilgoj\u0101s tam J\u0113kaba Dievam dz\u012bvokli atrast. "
        },
        {
            "chapter": 7,
            "verse": 47,
            "name": "Acts 7:47",
            "text": "Un Salamans vi\u0146am namu uztais\u012bja. "
        },
        {
            "chapter": 7,
            "verse": 48,
            "name": "Acts 7:48",
            "text": "Bet tas Visuaugst\u0101kais nedz\u012bvo namos, kas rok\u0101m tais\u012bti, itin k\u0101 tas pravietis saka: "
        },
        {
            "chapter": 7,
            "verse": 49,
            "name": "Acts 7:49",
            "text": "Debess ir mans goda kr\u0113sls un zeme manu k\u0101ju pamesls: k\u0101du namu j\u016bs man uztais\u012bsiet, t\u0101 saka Tas Kungs, jeb kura ir mana dusas vieta? "
        },
        {
            "chapter": 7,
            "verse": 50,
            "name": "Acts 7:50",
            "text": "Vai mana roka nav \u0161o visu tais\u012bjusi?"
        },
        {
            "chapter": 7,
            "verse": 51,
            "name": "Acts 7:51",
            "text": "J\u016bs st\u016brgalv\u012bgie un sird\u012bs un aus\u012bs neapgraiz\u012btie, j\u016bs alla\u017ei\u0146 tam Sv\u0113tam Garam pret\u012b st\u0101vat, it k\u0101 j\u016bsu t\u0113vi, t\u0101 ar\u012b j\u016bs! "
        },
        {
            "chapter": 7,
            "verse": 52,
            "name": "Acts 7:52",
            "text": "Kuru no tiem pravie\u0161iem j\u016bsu t\u0113vi nav vaj\u0101ju\u0161i? Vi\u0146i nok\u0101vu\u0161i tos, kas par t\u0101 Taisn\u0101 atn\u0101k\u0161anu papriek\u0161 sludin\u0101ja; \u0161im j\u016bs tagad esat paliku\u0161i par nodev\u0113jiem un slepkav\u0101m, "
        },
        {
            "chapter": 7,
            "verse": 53,
            "name": "Acts 7:53",
            "text": "J\u016bs, kas bausl\u012bbu caur e\u0146\u0123e\u013cu rok\u0101m esat dab\u016bju\u0161i un neesat sarg\u0101ju\u0161i. "
        },
        {
            "chapter": 7,
            "verse": 54,
            "name": "Acts 7:54",
            "text": "Kad tie to dzird\u0113ja, tad tas tiem ied\u016bra sird\u012b un tie sakoda zobus pret vi\u0146u. "
        },
        {
            "chapter": 7,
            "verse": 55,
            "name": "Acts 7:55",
            "text": "Bet vi\u0146\u0161, Sv\u0113ta Gara pilns b\u016bdams, skat\u012bj\u0101s uz debes\u012bm un redz\u0113ja Dieva god\u012bbu un J\u0113zu st\u0101vam pie Dieva lab\u0101s rokas,"
        },
        {
            "chapter": 7,
            "verse": 56,
            "name": "Acts 7:56",
            "text": "Un sac\u012bja: redzi, es debesis redzu atv\u0113rtas un To Cilv\u0113ka D\u0113lu st\u0101vam pie Dieva lab\u0101s rokas. "
        },
        {
            "chapter": 7,
            "verse": 57,
            "name": "Acts 7:57",
            "text": "Bet tie ar ska\u0146u balsi br\u0113kdami aiztur\u0113ja savas ausis un visi kop\u0101 vi\u0146am uzm\u0101c\u0101s virs\u016b, "
        },
        {
            "chapter": 7,
            "verse": 58,
            "name": "Acts 7:58",
            "text": "Un to izmeta no pils\u0113tas \u0101r\u0101 un nom\u0113t\u0101ja ar akme\u0146iem; un tie liecinieki savas dr\u0113bes nolika pie viena jaunek\u013ca k\u0101j\u0101m, kam v\u0101rds bija Zauls. "
        },
        {
            "chapter": 7,
            "verse": 59,
            "name": "Acts 7:59",
            "text": "Un tie ar akme\u0146iem nom\u0113t\u0101ja Stepi\u0146u, kas sauca un sac\u012bja: Kungs J\u0113zu, pie\u0146em manu garu! "
        },
        {
            "chapter": 7,
            "verse": 60,
            "name": "Acts 7:60",
            "text": "Un ce\u013cos mezdamies tas sauca ar ska\u0146u balsi: Kungs, nepiel\u012bdzini tiem \u0161o gr\u0113ku! Un to sac\u012bjis vi\u0146\u0161 aizmiga.  "
        }
    ]
}