{
    "translation": "\u8056\u7d93 (\u6587\u7406\u548c\u5408)",
    "abbreviation": "chiunl",
    "lang": "zh",
    "language": "Chinese",
    "direction": "LTR",
    "encoding": "UTF-8",
    "book_nr": 23,
    "book_name": "Isaiah",
    "chapter": 8,
    "name": "Isaiah 8",
    "verses": [
        {
            "chapter": 8,
            "verse": 1,
            "name": "Isaiah 8:1",
            "text": "\u8036\u548c\u83ef\u8aed\u6211\u66f0\u3001\u5176\u53d6\u5927\u7c21\u3001\u4ee5\u4eba\u901a\u7528\u4e4b\u6587\u3001\u66f8\u746a\u9ed1\u73e5\u6c99\u52d2\u54c8\u65bd\u7f77\u65af\u3001"
        },
        {
            "chapter": 8,
            "verse": 2,
            "name": "Isaiah 8:2",
            "text": "\u4f59\u53ec\u5fe0\u4fe1\u4e4b\u8b49\u3001\u796d\u53f8\u70cf\u5229\u4e9e\u3001\u8207\u8036\u6bd4\u5229\u5bb6\u5b50\u6492\u8fe6\u5229\u4e9e\u8a18\u4e4b\u3001"
        },
        {
            "chapter": 8,
            "verse": 3,
            "name": "Isaiah 8:3",
            "text": "\u65bc\u662f\u6211\u8207\u5148\u77e5\u5a66\u540c\u5ba4\u3001\u61f7\u59d9\u751f\u5b50\u3001\u8036\u548c\u83ef\u8aed\u6211\u66f0\u3001\u547d\u540d\u746a\u9ed1\u73e5\u6c99\u52d2\u54c8\u65bd\u7f77\u65af\u3001"
        },
        {
            "chapter": 8,
            "verse": 4,
            "name": "Isaiah 8:4",
            "text": "\u84cb\u6b64\u5b50\u672a\u8b58\u547c\u7236\u547c\u6bcd\u4e4b\u5148\u3001\u5927\u99ac\u8272\u4e4b\u8ca8\u8ca1\u3001\u6492\u746a\u5229\u4e9e\u6240\u63a0\u4e4b\u7269\u3001\u88ab\u865c\u65bc\u4e9e\u8ff0\u738b\u3001\u25cb"
        },
        {
            "chapter": 8,
            "verse": 5,
            "name": "Isaiah 8:5",
            "text": "\u8036\u548c\u83ef\u5fa9\u8aed\u6211\u66f0\u3001"
        },
        {
            "chapter": 8,
            "verse": 6,
            "name": "Isaiah 8:6",
            "text": "\u65af\u6c11\u53ad\u68c4\u897f\u7f85\u4e9e\u7de9\u6d41\u4e4b\u6c34\u3001\u800c\u6085\u5229\u6c5b\u8207\u5229\u746a\u5229\u4e4b\u5b50\u3001"
        },
        {
            "chapter": 8,
            "verse": 7,
            "name": "Isaiah 8:7",
            "text": "\u6545\u4e3b\u5fc5\u4f7f\u4e9e\u8ff0\u738b\u3001\u53ca\u5176\u5a01\u52e2\u3001\u5982\u5927\u6cb3\u4e4b\u6c34\u3001\u6d36\u6e67\u6f32\u6ea2\u3001\u51fa\u5ddd\u8e30\u5cb8\u3001"
        },
        {
            "chapter": 8,
            "verse": 8,
            "name": "Isaiah 8:8",
            "text": "\u6d41\u5165\u7336\u5927\u3001\u6c3e\u6feb\u53ca\u9805\u3001\u4ee5\u99ac\u5167\u5229\u6b5f\u3001\u5f7c\u5c55\u5176\u7ffc\u3001\u904d\u65bc\u723e\u5730\u3001\u25cb"
        },
        {
            "chapter": 8,
            "verse": 9,
            "name": "Isaiah 8:9",
            "text": "\u5217\u90a6\u6b5f\u3001\u4efb\u723e\u55a7\u8b41\u3001\u7d42\u6b78\u7cdc\u721b\u3001\u9060\u4eba\u6b5f\u3001\u723e\u5176\u50be\u807d\u3001\u4efb\u723e\u675f\u8170\u3001\u800c\u906d\u7cdc\u721b\u3001\u4efb\u723e\u675f\u8170\u3001\u800c\u906d\u7cdc\u721b\u3001"
        },
        {
            "chapter": 8,
            "verse": 10,
            "name": "Isaiah 8:10",
            "text": "\u4efb\u723e\u5171\u8b00\u3001\u7d42\u6b78\u7121\u6210\u3001\u4efb\u723e\u767c\u8a00\u3001\u7d42\u5fc5\u4e0d\u7acb\u3001\u56e0\u4e0a\u5e1d\u5055\u6211\u5115\u4e5f\u3001"
        },
        {
            "chapter": 8,
            "verse": 11,
            "name": "Isaiah 8:11",
            "text": "\u8036\u548c\u83ef\u6301\u6211\u3001\u793a\u6211\u52ff\u8e48\u65af\u6c11\u4e4b\u9014\u3001"
        },
        {
            "chapter": 8,
            "verse": 12,
            "name": "Isaiah 8:12",
            "text": "\u66f0\u3001\u65af\u6c11\u8b02\u7d50\u76df\u3001\u723e\u52ff\u8b02\u4e4b\u3001\u52ff\u754f\u5176\u6240\u754f\u3001\u52ff\u8996\u7232\u53ef\u61fc\u3001"
        },
        {
            "chapter": 8,
            "verse": 13,
            "name": "Isaiah 8:13",
            "text": "\u7576\u4ee5\u842c\u8ecd\u4e4b\u8036\u548c\u83ef\u7232\u8056\u3001\u7232\u723e\u6240\u754f\u6240\u61fc\u3001"
        },
        {
            "chapter": 8,
            "verse": 14,
            "name": "Isaiah 8:14",
            "text": "\u5f7c\u5c07\u7232\u8056\u6240\u3001\u60df\u65bc\u4ee5\u8272\u5217\u4e8c\u5bb6\u7232\u8e93\u77f3\u3001\u7232\u7919\u78d0\u3001\u65bc\u8036\u8def\u6492\u51b7\u5c45\u6c11\u7232\u7db2\u7f85\u3001\u7232\u6a5f\u6abb\u3001"
        },
        {
            "chapter": 8,
            "verse": 15,
            "name": "Isaiah 8:15",
            "text": "\u591a\u4eba\u56e0\u4e4b\u985a\u4ec6\u800c\u898b\u6298\u3001\u9677\u65bc\u6a5f\u6abb\u800c\u88ab\u7372\u3001\u25cb"
        },
        {
            "chapter": 8,
            "verse": 16,
            "name": "Isaiah 8:16",
            "text": "\u723e\u5176\u675f\u8b49\u8a5e\u3001\u7dd8\u6cd5\u5f8b\u3001\u6388\u6211\u9580\u4eba\u3001"
        },
        {
            "chapter": 8,
            "verse": 17,
            "name": "Isaiah 8:17",
            "text": "\u8036\u548c\u83ef\u63a9\u9762\u65bc\u96c5\u5404\u5bb6\u3001\u6211\u4ecd\u5faf\u800c\u671b\u4e4b\u3001"
        },
        {
            "chapter": 8,
            "verse": 18,
            "name": "Isaiah 8:18",
            "text": "\u6211\u8207\u8036\u548c\u83ef\u6240\u8cdc\u4e4b\u5b50\u3001\u7232\u5146\u7232\u5fb5\u65bc\u4ee5\u8272\u5217\u3001\u4e43\u7531\u65bc\u5c45\u932b\u5b89\u5c71\u3001\u842c\u8ecd\u4e4b\u8036\u548c\u83ef\u4e5f\u3001\u25cb"
        },
        {
            "chapter": 8,
            "verse": 19,
            "name": "Isaiah 8:19",
            "text": "\u6216\u8b02\u723e\u66f0\u3001\u5deb\u89a1\u8853\u58eb\u3001\u5176\u8072\u7dbf\u883b\u5fae\u7d30\u3001\u723e\u5176\u6c42\u4e4b\u3001\u592b\u6c11\u8c48\u4e0d\u7576\u6c42\u5176\u4e0a\u5e1d\u4e4e\u3001\u8a4e\u7232\u751f\u8005\u6c42\u6b7b\u8005\u54c9\u3001"
        },
        {
            "chapter": 8,
            "verse": 20,
            "name": "Isaiah 8:20",
            "text": "\u5b9c\u5faa\u6cd5\u5f8b\u8207\u8b49\u8a5e\u3001\u82e5\u4e0d\u4f9d\u6b64\u800c\u8a00\u3001\u5247\u4e0d\u898b\u6668\u5149\u3001"
        },
        {
            "chapter": 8,
            "verse": 21,
            "name": "Isaiah 8:21",
            "text": "\u5f7c\u5fc5\u8271\u82e6\u98e2\u9913\u3001\u7d93\u6b77\u65af\u571f\u3001\u98e2\u5247\u7169\u8e81\u3001\u546a\u5176\u541b\u738b\u3001\u8a5b\u5176\u4e0a\u5e1d\u3001"
        },
        {
            "chapter": 8,
            "verse": 22,
            "name": "Isaiah 8:22",
            "text": "\u4ef0\u89c0\u65bc\u4e0a\u3001\u4fef\u8996\u65bc\u5730\u3001\u7121\u975e\u60a3\u96e3\u660f\u9ed1\u3001\u53ca\u75db\u82e6\u4e4b\u5e7d\u6697\u3001\u5fc5\u88ab\u9a45\u5165\u6666\u51a5\u77e3\u3001"
        }
    ]
}