{
    "translation": "Open Scriptures Hebrew Bible",
    "abbreviation": "oshb",
    "lang": "he",
    "language": "Hebrew",
    "direction": "RTL",
    "encoding": "UTF-8",
    "book_nr": 24,
    "book_name": "Jeremiah",
    "chapter": 50,
    "name": "Jeremiah 50",
    "verses": [
        {
            "chapter": 50,
            "verse": 1,
            "name": "Jeremiah 50:1",
            "text": "\u05d4\u05b7\u05d3\u05bc\u05b8\u05d1\u05b8\u0597\u05e8 \u05d0\u05b2\u05e9\u05c1\u05b6\u05a8\u05e8 \u05d3\u05bc\u05b4\u05d1\u05bc\u05b6\u05a7\u05e8 \u05d9\u05b0\u05d4\u05d5\u05b8\u059b\u05d4 \u05d0\u05b6\u05dc\u05be\u05d1\u05bc\u05b8\u05d1\u05b6\u0596\u05dc \u05d0\u05b6\u05dc\u05be\u05d0\u05b6\u05a3\u05e8\u05b6\u05e5 \u05db\u05bc\u05b7\u05e9\u05c2\u05b0\u05d3\u05bc\u05b4\u0591\u05d9\u05dd \u05d1\u05bc\u05b0\u05d9\u05b7\u0596\u05d3 \u05d9\u05b4\u05e8\u05b0\u05de\u05b0\u05d9\u05b8\u05a5\u05d4\u05d5\u05bc \u05d4\u05b7\u05e0\u05bc\u05b8\u05d1\u05b4\u05bd\u05d9\u05d0\u05c3 "
        },
        {
            "chapter": 50,
            "verse": 2,
            "name": "Jeremiah 50:2",
            "text": "\u05d4\u05b7\u05d2\u05bc\u05b4\u05a8\u05d9\u05d3\u05d5\u05bc \u05d1\u05b7\u05d2\u05bc\u05d5\u05b9\u05d9\u05b4\u05a4\u05dd \u05d5\u05b0\u05d4\u05b7\u05e9\u05c1\u05b0\u05de\u05b4\u05a8\u05d9\u05e2\u05d5\u05bc\u0599 \u05d5\u05bc\u05bd\u05e9\u05c2\u05b0\u05d0\u05d5\u05bc\u05be\u05e0\u05b5\u0594\u05e1 \u05d4\u05b7\u05e9\u05c1\u05b0\u05de\u05b4\u0596\u05d9\u05e2\u05d5\u05bc \u05d0\u05b7\u05dc\u05be\u05ea\u05bc\u05b0\u05db\u05b7\u05d7\u05b5\u0591\u05d3\u05d5\u05bc \u05d0\u05b4\u05de\u05b0\u05e8\u05d5\u05bc\u05a9 \u05e0\u05b4\u05dc\u05b0\u05db\u05bc\u05b0\u05d3\u05b8\u05a8\u05d4 \u05d1\u05b8\u05d1\u05b6\u059c\u05dc \u05d4\u05b9\u05d1\u05b4\u05a5\u05d9\u05e9\u05c1 \u05d1\u05bc\u05b5\u05dc\u0599 \u05d7\u05b7\u05a3\u05ea \u05de\u05b0\u05e8\u05b9\u05d3\u05b8\u0594\u05da\u05b0 \u05d4\u05b9\u05d1\u05b4\u05a3\u05d9\u05e9\u05c1\u05d5\u05bc \u05e2\u05b2\u05e6\u05b7\u05d1\u05bc\u05b6\u0594\u05d9\u05d4\u05b8 \u05d7\u05b7\u0596\u05ea\u05bc\u05d5\u05bc \u05d2\u05bc\u05b4\u05dc\u05bc\u05d5\u05bc\u05dc\u05b6\u05bd\u05d9\u05d4\u05b8\u05c3 "
        },
        {
            "chapter": 50,
            "verse": 3,
            "name": "Jeremiah 50:3",
            "text": "\u05db\u05bc\u05b4\u05a3\u05d9 \u05e2\u05b8\u05dc\u05b8\u05d4\u05a9 \u05e2\u05b8\u05dc\u05b6\u05a8\u05d9\u05d4\u05b8 \u05d2\u05bc\u059c\u05d5\u05b9\u05d9 \u05de\u05b4\u05e6\u05bc\u05b8\u05e4\u0597\u05d5\u05b9\u05df \u05d4\u05bd\u05d5\u05bc\u05d0\u05be\u05d9\u05b8\u05e9\u05c1\u05b4\u05a4\u05d9\u05ea \u05d0\u05b6\u05ea\u05be\u05d0\u05b7\u05e8\u05b0\u05e6\u05b8\u05d4\u05bc\u0599 \u05dc\u05b0\u05e9\u05c1\u05b7\u05de\u05bc\u05b8\u0594\u05d4 \u05d5\u05b0\u05dc\u05b9\u05bd\u05d0\u05be\u05d9\u05b4\u05d4\u05b0\u05d9\u05b6\u05a5\u05d4 \u05d9\u05d5\u05b9\u05e9\u05c1\u05b5\u0596\u05d1 \u05d1\u05bc\u05b8\u0591\u05d4\u05bc \u05de\u05b5\u05d0\u05b8\u05d3\u05b8\u05a5\u05dd \u05d5\u05b0\u05e2\u05b7\u05d3\u05be\u05d1\u05bc\u05b0\u05d4\u05b5\u05de\u05b8\u0596\u05d4 \u05e0\u05b8\u05a5\u05d3\u05d5\u05bc \u05d4\u05b8\u05dc\u05b8\u05bd\u05db\u05d5\u05bc\u05c3 "
        },
        {
            "chapter": 50,
            "verse": 4,
            "name": "Jeremiah 50:4",
            "text": "\u05d1\u05bc\u05b7\u05d9\u05bc\u05b8\u05de\u05b4\u05a8\u05d9\u05dd \u05d4\u05b8\u05d4\u05b5\u059c\u05de\u05bc\u05b8\u05d4 \u05d5\u05bc\u05d1\u05b8\u05e2\u05b5\u05a4\u05ea \u05d4\u05b7\u05d4\u05b4\u05d9\u05d0\u0599 \u05e0\u05b0\u05d0\u05bb\u05dd\u05be\u05d9\u05b0\u05d4\u05d5\u05b8\u0594\u05d4 \u05d9\u05b8\u05d1\u05b9\u05a7\u05d0\u05d5\u05bc \u05d1\u05b0\u05e0\u05b5\u05bd\u05d9\u05be\u05d9\u05b4\u05e9\u05c2\u05b0\u05e8\u05b8\u05d0\u05b5\u059b\u05dc \u05d4\u05b5\u05a5\u05de\u05bc\u05b8\u05d4 \u05d5\u05bc\u05d1\u05b0\u05e0\u05b5\u05bd\u05d9\u05be\u05d9\u05b0\u05d4\u05d5\u05bc\u05d3\u05b8\u0596\u05d4 \u05d9\u05b7\u05d7\u05b0\u05d3\u05bc\u05b8\u0591\u05d5 \u05d4\u05b8\u05dc\u05a4\u05d5\u05b9\u05da\u05b0 \u05d5\u05bc\u05d1\u05b8\u05db\u05d5\u05b9\u0599 \u05d9\u05b5\u05dc\u05b5\u0594\u05db\u05d5\u05bc \u05d5\u05b0\u05d0\u05b6\u05ea\u05be\u05d9\u05b0\u05d4\u05d5\u05b8\u05a5\u05d4 \u05d0\u05b1\u05dc\u05b9\u05d4\u05b5\u05d9\u05d4\u05b6\u0596\u05dd \u05d9\u05b0\u05d1\u05b7\u05e7\u05bc\u05b5\u05bd\u05e9\u05c1\u05d5\u05bc\u05c3 "
        },
        {
            "chapter": 50,
            "verse": 5,
            "name": "Jeremiah 50:5",
            "text": "\u05e6\u05b4\u05d9\u05bc\u05a3\u05d5\u05b9\u05df \u05d9\u05b4\u05e9\u05c1\u05b0\u05d0\u05b8\u0594\u05dc\u05d5\u05bc \u05d3\u05bc\u05b6\u0596\u05e8\u05b6\u05da\u05b0 \u05d4\u05b5\u05a3\u05e0\u05bc\u05b8\u05d4 \u05e4\u05b0\u05e0\u05b5\u05d9\u05d4\u05b6\u0591\u05dd \u05d1\u05bc\u05b9\u059a\u05d0\u05d5\u05bc \u05d5\u05b0\u05e0\u05b4\u05dc\u05b0\u05d5\u05a3\u05d5\u05bc \u05d0\u05b6\u05dc\u05be\u05d9\u05b0\u05d4\u05d5\u05b8\u0594\u05d4 \u05d1\u05bc\u05b0\u05e8\u05b4\u05a5\u05d9\u05ea \u05e2\u05d5\u05b9\u05dc\u05b8\u0596\u05dd \u05dc\u05b9\u05a5\u05d0 \u05ea\u05b4\u05e9\u05c1\u05bc\u05b8\u05db\u05b5\u05bd\u05d7\u05b7\u05c3 \u05e1 "
        },
        {
            "chapter": 50,
            "verse": 6,
            "name": "Jeremiah 50:6",
            "text": "\u05e6\u05b9\u05a4\u05d0\u05df \u05d0\u05b9\u05bd\u05d1\u05b0\u05d3\u05d5\u05b9\u05ea\u0599 \u05d4\u05d9\u05d4 \u05e2\u05b7\u05de\u05bc\u05b4\u0594\u05d9 \u05e8\u05b9\u05e2\u05b5\u05d9\u05d4\u05b6\u05a3\u05dd \u05d4\u05b4\u05ea\u05b0\u05e2\u0594\u05d5\u05bc\u05dd \u05d4\u05b8\u05e8\u05b4\u0596\u05d9\u05dd \u05e9\u05d5\u05d1\u05d1\u05d9\u05dd \u05de\u05b5\u05d4\u05b7\u05a4\u05e8 \u05d0\u05b6\u05dc\u05be\u05d2\u05bc\u05b4\u05d1\u05b0\u05e2\u05b8\u05d4\u0599 \u05d4\u05b8\u05dc\u05b8\u0594\u05db\u05d5\u05bc \u05e9\u05c1\u05b8\u05db\u05b0\u05d7\u0596\u05d5\u05bc \u05e8\u05b4\u05d1\u05b0\u05e6\u05b8\u05bd\u05dd\u05c3 "
        },
        {
            "chapter": 50,
            "verse": 7,
            "name": "Jeremiah 50:7",
            "text": "\u05db\u05bc\u05b8\u05dc\u05be\u05de\u05d5\u05b9\u05e6\u05b0\u05d0\u05b5\u05d9\u05d4\u05b6\u05a3\u05dd \u05d0\u05b2\u05db\u05b8\u05dc\u0594\u05d5\u05bc\u05dd \u05d5\u05b0\u05e6\u05b8\u05e8\u05b5\u05d9\u05d4\u05b6\u05a5\u05dd \u05d0\u05b8\u05de\u05b0\u05e8\u0596\u05d5\u05bc \u05dc\u05b9\u05a3\u05d0 \u05e0\u05b6\u05d0\u05b0\u05e9\u05c1\u05b8\u0591\u05dd \u05ea\u05bc\u05b7\u0597\u05d7\u05b7\u05ea \u05d0\u05b2\u05e9\u05c1\u05b6\u05a8\u05e8 \u05d7\u05b8\u05d8\u05b0\u05d0\u05a4\u05d5\u05bc \u05dc\u05b7\u05bd\u05d9\u05d4\u05d5\u05b8\u05d4\u0599 \u05e0\u05b0\u05d5\u05b5\u05d4\u05be\u05e6\u05b6\u0594\u05d3\u05b6\u05e7 \u05d5\u05bc\u05de\u05b4\u05e7\u05b0\u05d5\u05b5\u05a5\u05d4 \u05d0\u05b2\u05d1\u05bd\u05d5\u05b9\u05ea\u05b5\u05d9\u05d4\u05b6\u0596\u05dd \u05d9\u05b0\u05d4\u05d5\u05b8\u05bd\u05d4\u05c3 \u05e1 "
        },
        {
            "chapter": 50,
            "verse": 8,
            "name": "Jeremiah 50:8",
            "text": "\u05e0\u05bb\u059a\u05d3\u05d5\u05bc \u05de\u05b4\u05ea\u05bc\u05a3\u05d5\u05b9\u05da\u05b0 \u05d1\u05bc\u05b8\u05d1\u05b6\u0594\u05dc \u05d5\u05bc\u05de\u05b5\u05d0\u05b6\u05a5\u05e8\u05b6\u05e5 \u05db\u05bc\u05b7\u05e9\u05c2\u05b0\u05d3\u05bc\u05b4\u0596\u05d9\u05dd \u05d9\u05e6\u05d0\u05d5 \u05d5\u05b4\u05d4\u05b0\u05d9\u0595\u05d5\u05bc \u05db\u05bc\u05b0\u05e2\u05b7\u05ea\u05bc\u05d5\u05bc\u05d3\u05b4\u0596\u05d9\u05dd \u05dc\u05b4\u05e4\u05b0\u05e0\u05b5\u05d9\u05be\u05e6\u05b9\u05bd\u05d0\u05df\u05c3 "
        },
        {
            "chapter": 50,
            "verse": 9,
            "name": "Jeremiah 50:9",
            "text": "\u05db\u05bc\u05b4\u05a3\u05d9 \u05d4\u05b4\u05e0\u05bc\u05b5\u05a3\u05d4 \u05d0\u05b8\u05e0\u05b9\u05db\u05b4\u05a1\u05d9 \u05de\u05b5\u05e2\u05b4\u05d9\u05e8\u05a9 \u05d5\u05bc\u05de\u05b7\u05e2\u05b2\u05dc\u05b6\u05a8\u05d4 \u05e2\u05b7\u05dc\u05be\u05d1\u05bc\u05b8\u05d1\u05b6\u059c\u05dc \u05e7\u05b0\u05d4\u05b7\u05dc\u05be\u05d2\u05bc\u05d5\u05b9\u05d9\u05b4\u05a4\u05dd \u05d2\u05bc\u05b0\u05d3\u05b9\u05dc\u05b4\u05d9\u05dd\u0599 \u05de\u05b5\u05d0\u05b6\u05a3\u05e8\u05b6\u05e5 \u05e6\u05b8\u05e4\u0594\u05d5\u05b9\u05df \u05d5\u05b0\u05e2\u05b8\u05a3\u05e8\u05b0\u05db\u05d5\u05bc \u05dc\u05b8\u0594\u05d4\u05bc \u05de\u05b4\u05e9\u05c1\u05bc\u05b8\u0596\u05dd \u05ea\u05bc\u05b4\u05dc\u05bc\u05b8\u05db\u05b5\u0591\u05d3 \u05d7\u05b4\u05e6\u05bc\u05b8\u05d9\u05d5\u0599 \u05db\u05bc\u05b0\u05d2\u05b4\u05d1\u05bc\u05a3\u05d5\u05b9\u05e8 \u05de\u05b7\u05e9\u05c1\u05b0\u05db\u05bc\u05b4\u0594\u05d9\u05dc \u05dc\u05b9\u05a5\u05d0 \u05d9\u05b8\u05e9\u05c1\u0596\u05d5\u05bc\u05d1 \u05e8\u05b5\u05d9\u05e7\u05b8\u05bd\u05dd\u05c3 "
        },
        {
            "chapter": 50,
            "verse": 10,
            "name": "Jeremiah 50:10",
            "text": "\u05d5\u05b0\u05d4\u05b8\u05d9\u05b0\u05ea\u05b8\u05a5\u05d4 \u05db\u05b7\u05e9\u05c2\u05b0\u05d3\u05bc\u05b4\u0596\u05d9\u05dd \u05dc\u05b0\u05e9\u05c1\u05b8\u05dc\u05b8\u0591\u05dc \u05db\u05bc\u05b8\u05dc\u05be\u05e9\u05c1\u05b9\u05dc\u05b0\u05dc\u05b6\u05a5\u05d9\u05d4\u05b8 \u05d9\u05b4\u05e9\u05c2\u05b0\u05d1\u05bc\u05b8\u0596\u05e2\u05d5\u05bc \u05e0\u05b0\u05d0\u05bb\u05dd\u05be\u05d9\u05b0\u05d4\u05d5\u05b8\u05bd\u05d4\u05c3 "
        },
        {
            "chapter": 50,
            "verse": 11,
            "name": "Jeremiah 50:11",
            "text": "\u05db\u05bc\u05b4\u05a4\u05d9 \u05ea\u05e9\u05de\u05d7\u05d9 \u05db\u05bc\u05b4\u05a3\u05d9 \u05ea\u05e2\u05dc\u05d6\u05d9  \u05e9\u05c1\u05b9\u05e1\u05b5\u0596\u05d9 \u05e0\u05b7\u05d7\u05b2\u05dc\u05b8\u05ea\u05b4\u0591\u05d9 \u05db\u05bc\u05b4\u05a4\u05d9 \u05ea\u05e4\u05d5\u05e9\u05d9 \u05db\u05bc\u05b0\u05e2\u05b6\u05d2\u05b0\u05dc\u05b8\u05a3\u05d4 \u05d3\u05b8\u05e9\u05c1\u05b8\u0594\u05d4 \u05d5\u05ea\u05e6\u05d4\u05dc\u05d9 \u05db\u05bc\u05b8\u05d0\u05b2\u05d1\u05bc\u05b4\u05e8\u05b4\u05bd\u05d9\u05dd\u05c3 "
        },
        {
            "chapter": 50,
            "verse": 12,
            "name": "Jeremiah 50:12",
            "text": "\u05d1\u05bc\u05a4\u05d5\u05b9\u05e9\u05c1\u05b8\u05d4 \u05d0\u05b4\u05de\u05bc\u05b0\u05db\u05b6\u05dd\u0599 \u05de\u05b0\u05d0\u05b9\u0594\u05d3 \u05d7\u05b8\u05e4\u05b0\u05e8\u05b8\u0596\u05d4 \u05d9\u05bd\u05d5\u05b9\u05dc\u05b7\u05d3\u05b0\u05ea\u05bc\u05b0\u05db\u05b6\u0591\u05dd \u05d4\u05b4\u05e0\u05bc\u05b5\u05d4\u0599 \u05d0\u05b7\u05d7\u05b2\u05e8\u05b4\u05a3\u05d9\u05ea \u05d2\u05bc\u05d5\u05b9\u05d9\u05b4\u0594\u05dd \u05de\u05b4\u05d3\u05b0\u05d1\u05bc\u05b8\u0596\u05e8 \u05e6\u05b4\u05d9\u05bc\u05b8\u05a5\u05d4 \u05d5\u05b7\u05e2\u05b2\u05e8\u05b8\u05d1\u05b8\u05bd\u05d4\u05c3 "
        },
        {
            "chapter": 50,
            "verse": 13,
            "name": "Jeremiah 50:13",
            "text": "\u05de\u05b4\u05e7\u05bc\u05b6\u05a4\u05e6\u05b6\u05e3 \u05d9\u05b0\u05d4\u05d5\u05b8\u05d4\u0599 \u05dc\u05b9\u05a3\u05d0 \u05ea\u05b5\u05e9\u05c1\u05b5\u0594\u05d1 \u05d5\u05b0\u05d4\u05b8\u05d9\u05b0\u05ea\u05b8\u05a5\u05d4 \u05e9\u05c1\u05b0\u05de\u05b8\u05de\u05b8\u0596\u05d4 \u05db\u05bc\u05bb\u05dc\u05bc\u05b8\u0591\u05d4\u05bc \u05db\u05bc\u05b9\u059a\u05dc \u05e2\u05b9\u05d1\u05b5\u05a3\u05e8 \u05e2\u05b7\u05dc\u05be\u05d1\u05bc\u05b8\u05d1\u05b6\u0594\u05dc \u05d9\u05b4\u05e9\u05c1\u05bc\u05b9\u05a5\u05dd \u05d5\u05b0\u05d9\u05b4\u05e9\u05c1\u05b0\u05e8\u05b9\u0596\u05e7 \u05e2\u05b7\u05dc\u05be\u05db\u05bc\u05b8\u05dc\u05be\u05de\u05b7\u05db\u05bc\u05d5\u05b9\u05ea\u05b6\u05bd\u05d9\u05d4\u05b8\u05c3 "
        },
        {
            "chapter": 50,
            "verse": 14,
            "name": "Jeremiah 50:14",
            "text": "\u05e2\u05b4\u05e8\u05b0\u05db\u05a8\u05d5\u05bc \u05e2\u05b7\u05dc\u05be\u05d1\u05bc\u05b8\u05d1\u05b6\u05a4\u05dc \u05c0 \u05e1\u05b8\u05d1\u05b4\u05d9\u05d1\u0599 \u05db\u05bc\u05b8\u05dc\u05be\u05d3\u05bc\u05b9\u05a3\u05e8\u05b0\u05db\u05b5\u05d9 \u05e7\u05b6\u0594\u05e9\u05c1\u05b6\u05ea \u05d9\u05b0\u05d3\u05a3\u05d5\u05bc \u05d0\u05b5\u05dc\u05b6\u0594\u05d9\u05d4\u05b8 \u05d0\u05b7\u05bd\u05dc\u05be\u05ea\u05bc\u05b7\u05d7\u05b0\u05de\u05b0\u05dc\u0596\u05d5\u05bc \u05d0\u05b6\u05dc\u05be\u05d7\u05b5\u0591\u05e5 \u05db\u05bc\u05b4\u05a5\u05d9 \u05dc\u05b7\u05bd\u05d9\u05d4\u05d5\u05b8\u0596\u05d4 \u05d7\u05b8\u05d8\u05b8\u05bd\u05d0\u05b8\u05d4\u05c3 "
        },
        {
            "chapter": 50,
            "verse": 15,
            "name": "Jeremiah 50:15",
            "text": "\u05d4\u05b8\u05e8\u05b4\u05a8\u05d9\u05e2\u05d5\u05bc \u05e2\u05b8\u05dc\u05b6\u05a4\u05d9\u05d4\u05b8 \u05e1\u05b8\u05d1\u05b4\u05d9\u05d1\u0599 \u05e0\u05b8\u05ea\u05b0\u05e0\u05b8\u05a3\u05d4 \u05d9\u05b8\u05d3\u05b8\u0594\u05d4\u05bc \u05e0\u05b8\u05bd\u05e4\u05b0\u05dc\u05d5\u05bc\u0599 \u05d0\u05e9\u05d5\u05d9\u05ea\u05d9\u05d4 \u05e0\u05b6\u05d4\u05b6\u05e8\u05b0\u05e1\u0596\u05d5\u05bc \u05d7\u05bd\u05d5\u05b9\u05de\u05d5\u05b9\u05ea\u05b6\u0591\u05d9\u05d4\u05b8 \u05db\u05bc\u05b4\u05d9\u05a9 \u05e0\u05b4\u05e7\u05b0\u05de\u05b7\u05a8\u05ea \u05d9\u05b0\u05d4\u05d5\u05b8\u05a5\u05d4 \u05d4\u05b4\u05d9\u05d0\u0599 \u05d4\u05b4\u05e0\u05bc\u05b8\u05a3\u05e7\u05b0\u05de\u05d5\u05bc \u05d1\u05b8\u0594\u05d4\u05bc \u05db\u05bc\u05b7\u05d0\u05b2\u05e9\u05c1\u05b6\u05a5\u05e8 \u05e2\u05b8\u05e9\u05c2\u05b0\u05ea\u05b8\u0596\u05d4 \u05e2\u05b2\u05e9\u05c2\u05d5\u05bc\u05be\u05dc\u05b8\u05bd\u05d4\u05bc\u05c3 "
        },
        {
            "chapter": 50,
            "verse": 16,
            "name": "Jeremiah 50:16",
            "text": "\u05db\u05bc\u05b4\u05e8\u05b0\u05ea\u05a4\u05d5\u05bc \u05d6\u05d5\u05b9\u05e8\u05b5\u05a8\u05e2\u05b7\u0599 \u05de\u05b4\u05d1\u05bc\u05b8\u05d1\u05b6\u0594\u05dc \u05d5\u05b0\u05ea\u05b9\u05e4\u05b5\u05a5\u05e9\u05c2 \u05de\u05b7\u05d2\u05bc\u05b8\u0596\u05dc \u05d1\u05bc\u05b0\u05e2\u05b5\u05a3\u05ea \u05e7\u05b8\u05e6\u05b4\u0591\u05d9\u05e8 \u05de\u05b4\u05e4\u05bc\u05b0\u05e0\u05b5\u05d9\u0599 \u05d7\u05b6\u05a3\u05e8\u05b6\u05d1 \u05d4\u05b7\u05d9\u05bc\u05d5\u05b9\u05e0\u05b8\u0594\u05d4 \u05d0\u05b4\u05a4\u05d9\u05e9\u05c1 \u05d0\u05b6\u05dc\u05be\u05e2\u05b7\u05de\u05bc\u05d5\u05b9\u0599 \u05d9\u05b4\u05e4\u05b0\u05e0\u0594\u05d5\u05bc \u05d5\u05b0\u05d0\u05b4\u05a5\u05d9\u05e9\u05c1 \u05dc\u05b0\u05d0\u05b7\u05e8\u05b0\u05e6\u0596\u05d5\u05b9 \u05d9\u05b8\u05e0\u05bb\u05bd\u05e1\u05d5\u05bc\u05c3 \u05e1 "
        },
        {
            "chapter": 50,
            "verse": 17,
            "name": "Jeremiah 50:17",
            "text": "\u05e9\u05c2\u05b6\u05a7\u05d4 \u05e4\u05b0\u05d6\u05d5\u05bc\u05e8\u05b8\u059b\u05d4 \u05d9\u05b4\u05e9\u05c2\u05b0\u05e8\u05b8\u05d0\u05b5\u0596\u05dc \u05d0\u05b2\u05e8\u05b8\u05d9\u05a3\u05d5\u05b9\u05ea \u05d4\u05b4\u05d3\u05bc\u05b4\u0591\u05d9\u05d7\u05d5\u05bc \u05d4\u05b8\u05e8\u05b4\u05d0\u05e9\u05c1\u05a4\u05d5\u05b9\u05df \u05d0\u05b2\u05db\u05b8\u05dc\u05d5\u05b9\u0599 \u05de\u05b6\u05a3\u05dc\u05b6\u05da\u05b0 \u05d0\u05b7\u05e9\u05c1\u05bc\u0594\u05d5\u05bc\u05e8 \u05d5\u05b0\u05d6\u05b6\u05a4\u05d4 \u05d4\u05b8\u05d0\u05b7\u05d7\u05b2\u05e8\u05d5\u05b9\u05df\u0599 \u05e2\u05b4\u05e6\u05bc\u05b0\u05de\u0594\u05d5\u05b9 \u05e0\u05b0\u05d1\u05d5\u05bc\u05db\u05b7\u05d3\u05b0\u05e8\u05b6\u05d0\u05e6\u05bc\u05b7\u0596\u05e8 \u05de\u05b6\u05a5\u05dc\u05b6\u05da\u05b0 \u05d1\u05bc\u05b8\u05d1\u05b6\u05bd\u05dc\u05c3 \u05e1 "
        },
        {
            "chapter": 50,
            "verse": 18,
            "name": "Jeremiah 50:18",
            "text": "\u05dc\u05b8\u05db\u05b5\u0597\u05df \u05db\u05bc\u05b9\u05bd\u05d4\u05be\u05d0\u05b8\u05de\u05b7\u059e\u05e8 \u05d9\u05b0\u05d4\u05d5\u05b8\u05a4\u05d4 \u05e6\u05b0\u05d1\u05b8\u05d0\u05d5\u05b9\u05ea\u0599 \u05d0\u05b1\u05dc\u05b9\u05d4\u05b5\u05a3\u05d9 \u05d9\u05b4\u05e9\u05c2\u05b0\u05e8\u05b8\u05d0\u05b5\u0594\u05dc \u05d4\u05b4\u05e0\u05b0\u05e0\u05b4\u05a5\u05d9 \u05e4\u05b9\u05e7\u05b5\u059b\u05d3 \u05d0\u05b6\u05dc\u05be\u05de\u05b6\u05a5\u05dc\u05b6\u05da\u05b0 \u05d1\u05bc\u05b8\u05d1\u05b6\u0596\u05dc \u05d5\u05b0\u05d0\u05b6\u05dc\u05be\u05d0\u05b7\u05e8\u05b0\u05e6\u0591\u05d5\u05b9 \u05db\u05bc\u05b7\u05d0\u05b2\u05e9\u05c1\u05b6\u05a5\u05e8 \u05e4\u05bc\u05b8\u05e7\u05b7\u0596\u05d3\u05b0\u05ea\u05bc\u05b4\u05d9 \u05d0\u05b6\u05dc\u05be\u05de\u05b6\u05a5\u05dc\u05b6\u05da\u05b0 \u05d0\u05b7\u05e9\u05c1\u05bc\u05bd\u05d5\u05bc\u05e8\u05c3 "
        },
        {
            "chapter": 50,
            "verse": 19,
            "name": "Jeremiah 50:19",
            "text": "\u05d5\u05b0\u05e9\u05c1\u05b9\u05d1\u05b7\u05d1\u05b0\u05ea\u05bc\u05b4\u05a4\u05d9 \u05d0\u05b6\u05ea\u05be\u05d9\u05b4\u05e9\u05c2\u05b0\u05e8\u05b8\u05d0\u05b5\u05dc\u0599 \u05d0\u05b6\u05dc\u05be\u05e0\u05b8\u05d5\u05b5\u0594\u05d4\u05d5\u05bc \u05d5\u05b0\u05e8\u05b8\u05e2\u05b8\u05a5\u05d4 \u05d4\u05b7\u05db\u05bc\u05b7\u05e8\u05b0\u05de\u05b6\u0596\u05dc \u05d5\u05b0\u05d4\u05b7\u05d1\u05bc\u05b8\u05e9\u05c1\u05b8\u0591\u05df \u05d5\u05bc\u05d1\u05b0\u05d4\u05b7\u05a5\u05e8 \u05d0\u05b6\u05e4\u05b0\u05e8\u05b7\u059b\u05d9\u05b4\u05dd \u05d5\u05b0\u05d4\u05b7\u05d2\u05bc\u05b4\u05dc\u05b0\u05e2\u05b8\u0596\u05d3 \u05ea\u05bc\u05b4\u05e9\u05c2\u05b0\u05d1\u05bc\u05b7\u05a5\u05e2 \u05e0\u05b7\u05e4\u05b0\u05e9\u05c1\u05bd\u05d5\u05b9\u05c3 "
        },
        {
            "chapter": 50,
            "verse": 20,
            "name": "Jeremiah 50:20",
            "text": "\u05d1\u05bc\u05b7\u05d9\u05bc\u05b8\u05de\u05b4\u05a3\u05d9\u05dd \u05d4\u05b8\u05d4\u05b5\u05dd\u05a9 \u05d5\u05bc\u05d1\u05b8\u05e2\u05b5\u05a8\u05ea \u05d4\u05b7\u05d4\u05b4\u059c\u05d9\u05d0 \u05e0\u05b0\u05d0\u05bb\u05dd\u05be\u05d9\u05b0\u05d4\u05d5\u05b8\u0597\u05d4 \u05d9\u05b0\u05d1\u05bb\u05e7\u05bc\u05b7\u059e\u05e9\u05c1 \u05d0\u05b6\u05ea\u05be\u05e2\u05b2\u05d5\u05ba\u05a4\u05df \u05d9\u05b4\u05e9\u05c2\u05b0\u05e8\u05b8\u05d0\u05b5\u05dc\u0599 \u05d5\u05b0\u05d0\u05b5\u05d9\u05e0\u05b6\u0594\u05e0\u05bc\u05d5\u05bc \u05d5\u05b0\u05d0\u05b6\u05ea\u05be\u05d7\u05b7\u05d8\u05bc\u05b9\u05a5\u05d0\u05ea \u05d9\u05b0\u05d4\u05d5\u05bc\u05d3\u05b8\u0596\u05d4 \u05d5\u05b0\u05dc\u05b9\u05a3\u05d0 \u05ea\u05b4\u05de\u05bc\u05b8\u05e6\u05b6\u0591\u05d0\u05d9\u05e0\u05b8\u05d4 \u05db\u05bc\u05b4\u05a5\u05d9 \u05d0\u05b6\u05e1\u05b0\u05dc\u05b7\u0596\u05d7 \u05dc\u05b7\u05d0\u05b2\u05e9\u05c1\u05b6\u05a5\u05e8 \u05d0\u05b7\u05e9\u05c1\u05b0\u05d0\u05b4\u05bd\u05d9\u05e8\u05c3 "
        },
        {
            "chapter": 50,
            "verse": 21,
            "name": "Jeremiah 50:21",
            "text": "\u05e2\u05b7\u05dc\u05be\u05d4\u05b8\u05d0\u05b8\u05a4\u05e8\u05b6\u05e5 \u05de\u05b0\u05e8\u05b8\u05ea\u05b7\u05a8\u05d9\u05b4\u05dd\u0599 \u05e2\u05b2\u05dc\u05b5\u05a3\u05d4 \u05e2\u05b8\u05dc\u05b6\u0594\u05d9\u05d4\u05b8 \u05d5\u05b0\u05d0\u05b6\u05dc\u05be\u05d9\u05d5\u05b9\u05e9\u05c1\u05b0\u05d1\u05b5\u0596\u05d9 \u05e4\u05bc\u05b0\u05e7\u0591\u05d5\u05b9\u05d3 \u05d7\u05b2\u05e8\u05b9\u05a8\u05d1 \u05d5\u05b0\u05d4\u05b7\u05d7\u05b2\u05e8\u05b5\u05a4\u05dd \u05d0\u05b7\u05bd\u05d7\u05b2\u05e8\u05b5\u05d9\u05d4\u05b6\u05dd\u0599 \u05e0\u05b0\u05d0\u05bb\u05dd\u05be\u05d9\u05b0\u05d4\u05d5\u05b8\u0594\u05d4 \u05d5\u05b7\u05e2\u05b2\u05e9\u05c2\u05b5\u0595\u05d4 \u05db\u05bc\u05b0\u05db\u05b9\u0596\u05dc \u05d0\u05b2\u05e9\u05c1\u05b6\u05a5\u05e8 \u05e6\u05b4\u05d5\u05bc\u05b4\u05d9\u05ea\u05b4\u05bd\u05d9\u05da\u05b8\u05c3 \u05e1 "
        },
        {
            "chapter": 50,
            "verse": 22,
            "name": "Jeremiah 50:22",
            "text": "\u05e7\u05a5\u05d5\u05b9\u05dc \u05de\u05b4\u05dc\u05b0\u05d7\u05b8\u05de\u05b8\u0596\u05d4 \u05d1\u05bc\u05b8\u05d0\u05b8\u0591\u05e8\u05b6\u05e5 \u05d5\u05b0\u05e9\u05c1\u05b6\u0596\u05d1\u05b6\u05e8 \u05d2\u05bc\u05b8\u05d3\u05bd\u05d5\u05b9\u05dc\u05c3 "
        },
        {
            "chapter": 50,
            "verse": 23,
            "name": "Jeremiah 50:23",
            "text": "\u05d0\u05b5\u05a4\u05d9\u05da\u05b0 \u05e0\u05b4\u05d2\u05b0\u05d3\u05bc\u05b7\u05e2\u0599 \u05d5\u05b7\u05d9\u05bc\u05b4\u05e9\u05c1\u05bc\u05b8\u05d1\u05b5\u0594\u05e8 \u05e4\u05bc\u05b7\u05d8\u05bc\u05b4\u0596\u05d9\u05e9\u05c1 \u05db\u05bc\u05b8\u05dc\u05be\u05d4\u05b8\u05d0\u05b8\u0591\u05e8\u05b6\u05e5 \u05d0\u05b5\u05a3\u05d9\u05da\u05b0 \u05d4\u05b8\u05d9\u05b0\u05ea\u05b8\u05a7\u05d4 \u05dc\u05b0\u05e9\u05c1\u05b7\u05de\u05bc\u05b8\u059b\u05d4 \u05d1\u05bc\u05b8\u05d1\u05b6\u0596\u05dc \u05d1\u05bc\u05b7\u05d2\u05bc\u05d5\u05b9\u05d9\u05b4\u05bd\u05dd\u05c3 "
        },
        {
            "chapter": 50,
            "verse": 24,
            "name": "Jeremiah 50:24",
            "text": "\u05d9\u05b8\u05e7\u05b9\u05a8\u05e9\u05c1\u05b0\u05ea\u05bc\u05b4\u05d9 \u05dc\u05b8\u05a4\u05da\u05b0 \u05d5\u05b0\u05d2\u05b7\u05dd\u05be\u05e0\u05b4\u05dc\u05b0\u05db\u05bc\u05b7\u05d3\u05b0\u05ea\u05bc\u05b0\u0599 \u05d1\u05bc\u05b8\u05d1\u05b6\u0594\u05dc \u05d5\u05b0\u05d0\u05b7\u0596\u05ea\u05bc\u05b0 \u05dc\u05b9\u05a3\u05d0 \u05d9\u05b8\u05d3\u05b8\u0591\u05e2\u05b7\u05ea\u05bc\u05b0 \u05e0\u05b4\u05de\u05b0\u05e6\u05b5\u05d0\u05ea\u0599 \u05d5\u05b0\u05d2\u05b7\u05dd\u05be\u05e0\u05b4\u05ea\u05b0\u05e4\u05bc\u05b7\u0594\u05e9\u05c2\u05b0\u05ea\u05bc\u05b0 \u05db\u05bc\u05b4\u05a5\u05d9 \u05d1\u05b7\u05bd\u05d9\u05d4\u05d5\u05b8\u0596\u05d4 \u05d4\u05b4\u05ea\u05b0\u05d2\u05bc\u05b8\u05e8\u05b4\u05bd\u05d9\u05ea\u05c3 "
        },
        {
            "chapter": 50,
            "verse": 25,
            "name": "Jeremiah 50:25",
            "text": "\u05e4\u05bc\u05b8\u05ea\u05b7\u05a4\u05d7 \u05d9\u05b0\u05d4\u05d5\u05b8\u05d4\u0599 \u05d0\u05b6\u05ea\u05be\u05d0\u05a3\u05d5\u05b9\u05e6\u05b8\u05e8\u0594\u05d5\u05b9 \u05d5\u05b7\u05d9\u05bc\u05d5\u05b9\u05e6\u05b5\u0596\u05d0 \u05d0\u05b6\u05ea\u05be\u05db\u05bc\u05b0\u05dc\u05b5\u05a3\u05d9 \u05d6\u05b7\u05e2\u05b0\u05de\u0591\u05d5\u05b9 \u05db\u05bc\u05b4\u05d9\u05be\u05de\u05b0\u05dc\u05b8\u05d0\u05db\u05b8\u05a3\u05d4 \u05d4\u05b4\u0597\u05d9\u05d0 \u05dc\u05b7\u05bd\u05d0\u05d3\u05b9\u05e0\u05b8\u05a7\u05d9 \u05d9\u05b0\u05d4\u05d5\u05b4\u059b\u05d4 \u05e6\u05b0\u05d1\u05b8\u05d0\u0596\u05d5\u05b9\u05ea \u05d1\u05bc\u05b0\u05d0\u05b6\u05a5\u05e8\u05b6\u05e5 \u05db\u05bc\u05b7\u05e9\u05c2\u05b0\u05d3\u05bc\u05b4\u05bd\u05d9\u05dd\u05c3 "
        },
        {
            "chapter": 50,
            "verse": 26,
            "name": "Jeremiah 50:26",
            "text": "\u05d1\u05bc\u05b9\u05bd\u05d0\u05d5\u05bc\u05be\u05dc\u05b8\u05a4\u05d4\u05bc \u05de\u05b4\u05e7\u05bc\u05b5\u05e5\u0599 \u05e4\u05bc\u05b4\u05ea\u05b0\u05d7\u05a3\u05d5\u05bc \u05de\u05b7\u05d0\u05b2\u05d1\u05bb\u05e1\u05b6\u0594\u05d9\u05d4\u05b8 \u05e1\u05b8\u05dc\u05bc\u05a5\u05d5\u05bc\u05d4\u05b8 \u05db\u05b0\u05de\u05d5\u05b9\u05be\u05e2\u05b2\u05e8\u05b5\u05de\u05b4\u0596\u05d9\u05dd \u05d5\u05b0\u05d4\u05b7\u05d7\u05b2\u05e8\u05b4\u05d9\u05de\u0591\u05d5\u05bc\u05d4\u05b8 \u05d0\u05b7\u05dc\u05be\u05ea\u05bc\u05b0\u05d4\u05b4\u05d9\u05be\u05dc\u05b8\u0596\u05d4\u05bc \u05e9\u05c1\u05b0\u05d0\u05b5\u05e8\u05b4\u05bd\u05d9\u05ea\u05c3 "
        },
        {
            "chapter": 50,
            "verse": 27,
            "name": "Jeremiah 50:27",
            "text": "\u05d7\u05b4\u05e8\u05b0\u05d1\u05d5\u05bc\u0599 \u05db\u05bc\u05b8\u05dc\u05be\u05e4\u05bc\u05b8\u05e8\u05b6\u0594\u05d9\u05d4\u05b8 \u05d9\u05b5\u05e8\u05b0\u05d3\u0596\u05d5\u05bc \u05dc\u05b7\u05d8\u05bc\u05b8\u0591\u05d1\u05b7\u05d7 \u05d4\u05a3\u05d5\u05b9\u05d9 \u05e2\u05b2\u05dc\u05b5\u05d9\u05d4\u05b6\u0594\u05dd \u05db\u05bc\u05b4\u05bd\u05d9\u05be\u05d1\u05b8\u05a5\u05d0 \u05d9\u05d5\u05b9\u05de\u05b8\u0596\u05dd \u05e2\u05b5\u05a5\u05ea \u05e4\u05bc\u05b0\u05e7\u05bb\u05d3\u05bc\u05b8\u05ea\u05b8\u05bd\u05dd\u05c3 \u05e1 "
        },
        {
            "chapter": 50,
            "verse": 28,
            "name": "Jeremiah 50:28",
            "text": "\u05e7\u05a5\u05d5\u05b9\u05dc \u05e0\u05b8\u05e1\u05b4\u059b\u05d9\u05dd \u05d5\u05bc\u05e4\u05b0\u05dc\u05b5\u05d8\u05b4\u0596\u05d9\u05dd \u05de\u05b5\u05d0\u05b6\u05a3\u05e8\u05b6\u05e5 \u05d1\u05bc\u05b8\u05d1\u05b6\u0591\u05dc \u05dc\u05b0\u05d4\u05b7\u05d2\u05bc\u05b4\u05a3\u05d9\u05d3 \u05d1\u05bc\u05b0\u05e6\u05b4\u05d9\u05bc\u0597\u05d5\u05b9\u05df \u05d0\u05b6\u05ea\u05be\u05e0\u05b4\u05e7\u05b0\u05de\u05b7\u05ea\u0599 \u05d9\u05b0\u05d4\u05d5\u05b8\u05a3\u05d4 \u05d0\u05b1\u05dc\u05b9\u05d4\u05b5\u0594\u05d9\u05e0\u05d5\u05bc \u05e0\u05b4\u05e7\u05b0\u05de\u05b7\u0596\u05ea \u05d4\u05b5\u05d9\u05db\u05b8\u05dc\u05bd\u05d5\u05b9\u05c3 "
        },
        {
            "chapter": 50,
            "verse": 29,
            "name": "Jeremiah 50:29",
            "text": "\u05d4\u05b7\u05e9\u05c1\u05b0\u05de\u05b4\u05a3\u05d9\u05e2\u05d5\u05bc \u05d0\u05b6\u05dc\u05be\u05d1\u05bc\u05b8\u05d1\u05b6\u05a3\u05dc \u05c0 \u05e8\u05b7\u05a0\u05d1\u05bc\u05b4\u05d9\u05dd \u05db\u05bc\u05b8\u05dc\u05be\u05d3\u05bc\u05b9\u05a8\u05e8\u05b0\u05db\u05b5\u05d9 \u05e7\u05b6\u059c\u05e9\u05c1\u05b6\u05ea \u05d7\u05b2\u05e0\u05a7\u05d5\u05bc \u05e2\u05b8\u05dc\u05b6\u05a3\u05d9\u05d4\u05b8 \u05e1\u05b8\u05d1\u05b4\u0597\u05d9\u05d1 \u05d0\u05b7\u05dc\u05be\u05d9\u05b0\u05d4\u05b4\u05d9\u05be  \u05e4\u05bc\u05b0\u05dc\u05b5\u05d8\u05b8\u0594\u05d4 \u05e9\u05c1\u05b7\u05dc\u05bc\u05b0\u05de\u05d5\u05bc\u05be\u05dc\u05b8\u05a3\u05d4\u05bc \u05db\u05bc\u05b0\u05e4\u05b8\u05e2\u05b3\u05dc\u05b8\u0594\u05d4\u05bc \u05db\u05bc\u05b0\u05db\u05b9\u059b\u05dc \u05d0\u05b2\u05e9\u05c1\u05b6\u05a5\u05e8 \u05e2\u05b8\u05e9\u05c2\u05b0\u05ea\u05b8\u0596\u05d4 \u05e2\u05b2\u05e9\u05c2\u05d5\u05bc\u05be\u05dc\u05b8\u0591\u05d4\u05bc \u05db\u05bc\u05b4\u05a7\u05d9 \u05d0\u05b6\u05dc\u05be\u05d9\u05b0\u05d4\u05d5\u05b8\u059b\u05d4 \u05d6\u05b8\u0596\u05d3\u05b8\u05d4 \u05d0\u05b6\u05dc\u05be\u05e7\u05b0\u05d3\u05a5\u05d5\u05b9\u05e9\u05c1 \u05d9\u05b4\u05e9\u05c2\u05b0\u05e8\u05b8\u05d0\u05b5\u05bd\u05dc\u05c3 "
        },
        {
            "chapter": 50,
            "verse": 30,
            "name": "Jeremiah 50:30",
            "text": "\u05dc\u05b8\u05db\u05b5\u059b\u05df \u05d9\u05b4\u05e4\u05bc\u05b0\u05dc\u05a5\u05d5\u05bc \u05d1\u05b7\u05d7\u05d5\u05bc\u05e8\u05b6\u0596\u05d9\u05d4\u05b8 \u05d1\u05bc\u05b4\u05e8\u05b0\u05d7\u05b9\u05d1\u05b9\u05ea\u05b6\u0591\u05d9\u05d4\u05b8 \u05d5\u05b0\u05db\u05b8\u05dc\u05be\u05d0\u05b7\u05e0\u05b0\u05e9\u05c1\u05b5\u05a8\u05d9 \u05de\u05b4\u05dc\u05b0\u05d7\u05b7\u05de\u05b0\u05ea\u05bc\u05b8\u05a5\u05d4\u05bc \u05d9\u05b4\u05d3\u05bc\u05b7\u059b\u05de\u05bc\u05d5\u05bc \u05d1\u05bc\u05b7\u05d9\u05bc\u05a5\u05d5\u05b9\u05dd \u05d4\u05b7\u05d4\u0596\u05d5\u05bc\u05d0 \u05e0\u05b0\u05d0\u05bb\u05dd\u05be\u05d9\u05b0\u05d4\u05d5\u05b8\u05bd\u05d4\u05c3 \u05e1 "
        },
        {
            "chapter": 50,
            "verse": 31,
            "name": "Jeremiah 50:31",
            "text": "\u05d4\u05b4\u05e0\u05b0\u05e0\u05b4\u05a4\u05d9 \u05d0\u05b5\u05dc\u05b6\u05a8\u05d9\u05da\u05b8\u0599 \u05d6\u05b8\u05d3\u0594\u05d5\u05b9\u05df \u05e0\u05b0\u05d0\u05bb\u05dd\u05be\u05d0\u05b2\u05d3\u05b9\u05e0\u05b8\u05a5\u05d9 \u05d9\u05b0\u05d4\u05d5\u05b4\u0596\u05d4 \u05e6\u05b0\u05d1\u05b8\u05d0\u0591\u05d5\u05b9\u05ea \u05db\u05bc\u05b4\u059b\u05d9 \u05d1\u05bc\u05b8\u05a5\u05d0 \u05d9\u05d5\u05b9\u05de\u05b0\u05da\u05b8\u0596 \u05e2\u05b5\u05a5\u05ea \u05e4\u05bc\u05b0\u05e7\u05b7\u05d3\u05b0\u05ea\u05bc\u05b4\u05bd\u05d9\u05da\u05b8\u05c3 "
        },
        {
            "chapter": 50,
            "verse": 32,
            "name": "Jeremiah 50:32",
            "text": "\u05d5\u05b0\u05db\u05b8\u05e9\u05c1\u05b7\u05a4\u05dc \u05d6\u05b8\u05d3\u05d5\u05b9\u05df\u0599 \u05d5\u05b0\u05e0\u05b8\u05e4\u05b7\u0594\u05dc \u05d5\u05b0\u05d0\u05b5\u05a5\u05d9\u05df \u05dc\u0596\u05d5\u05b9 \u05de\u05b5\u05e7\u05b4\u0591\u05d9\u05dd \u05d5\u05b0\u05d4\u05b4\u05e6\u05bc\u05b7\u05a4\u05ea\u05bc\u05b4\u05d9 \u05d0\u05b5\u05e9\u05c1\u0599 \u05d1\u05bc\u05b0\u05e2\u05b8\u05e8\u05b8\u0594\u05d9\u05d5 \u05d5\u05b0\u05d0\u05b8\u05db\u05b0\u05dc\u05b8\u0596\u05d4 \u05db\u05bc\u05b8\u05dc\u05be\u05e1\u05b0\u05d1\u05b4\u05d9\u05d1\u05b9\u05ea\u05b8\u05bd\u05d9\u05d5\u05c3 \u05e1 "
        },
        {
            "chapter": 50,
            "verse": 33,
            "name": "Jeremiah 50:33",
            "text": "\u05db\u05bc\u05b9\u05a4\u05d4 \u05d0\u05b8\u05de\u05b7\u05e8\u0599 \u05d9\u05b0\u05d4\u05d5\u05b8\u05a3\u05d4 \u05e6\u05b0\u05d1\u05b8\u05d0\u0594\u05d5\u05b9\u05ea \u05e2\u05b2\u05e9\u05c1\u05d5\u05bc\u05e7\u05b4\u059b\u05d9\u05dd \u05d1\u05bc\u05b0\u05e0\u05b5\u05d9\u05be\u05d9\u05b4\u05e9\u05c2\u05b0\u05e8\u05b8\u05d0\u05b5\u05a5\u05dc \u05d5\u05bc\u05d1\u05b0\u05e0\u05b5\u05d9\u05be\u05d9\u05b0\u05d4\u05d5\u05bc\u05d3\u05b8\u0596\u05d4 \u05d9\u05b7\u05d7\u05b0\u05d3\u05bc\u05b8\u0591\u05d5 \u05d5\u05b0\u05db\u05b8\u05dc\u05be\u05e9\u05c1\u05b9\u05bd\u05d1\u05b5\u05d9\u05d4\u05b6\u05dd\u0599 \u05d4\u05b6\u05d7\u05b1\u05d6\u05b4\u05a3\u05d9\u05e7\u05d5\u05bc \u05d1\u05b8\u0594\u05dd \u05de\u05b5\u05d0\u05b2\u05e0\u0596\u05d5\u05bc \u05e9\u05c1\u05b7\u05dc\u05bc\u05b0\u05d7\u05b8\u05bd\u05dd\u05c3 "
        },
        {
            "chapter": 50,
            "verse": 34,
            "name": "Jeremiah 50:34",
            "text": "\u05d2\u05bc\u05b9\u05d0\u05b2\u05dc\u05b8\u05a3\u05dd \u05c0 \u05d7\u05b8\u05d6\u05b8\u0597\u05e7 \u05d9\u05b0\u05d4\u05d5\u05b8\u05a4\u05d4 \u05e6\u05b0\u05d1\u05b8\u05d0\u05d5\u05b9\u05ea\u0599 \u05e9\u05c1\u05b0\u05de\u0594\u05d5\u05b9 \u05e8\u05b4\u05a5\u05d9\u05d1 \u05d9\u05b8\u05e8\u05b4\u0596\u05d9\u05d1 \u05d0\u05b6\u05ea\u05be\u05e8\u05b4\u05d9\u05d1\u05b8\u0591\u05dd \u05dc\u05b0\u05de\u05b7\u05a8\u05e2\u05b7\u05df\u0599 \u05d4\u05b4\u05e8\u05b0\u05d2\u05bc\u05b4\u05a3\u05d9\u05e2\u05b7 \u05d0\u05b6\u05ea\u05be\u05d4\u05b8\u05d0\u05b8\u0594\u05e8\u05b6\u05e5 \u05d5\u05b0\u05d4\u05b4\u05e8\u05b0\u05d2\u05bc\u05b4\u0596\u05d9\u05d6 \u05dc\u05b0\u05d9\u05b9\u05e9\u05c1\u05b0\u05d1\u05b5\u05a5\u05d9 \u05d1\u05b8\u05d1\u05b6\u05bd\u05dc\u05c3 "
        },
        {
            "chapter": 50,
            "verse": 35,
            "name": "Jeremiah 50:35",
            "text": "\u05d7\u05b6\u05a5\u05e8\u05b6\u05d1 \u05e2\u05b7\u05dc\u05be\u05db\u05bc\u05b7\u05e9\u05c2\u05b0\u05d3\u05bc\u05b4\u0596\u05d9\u05dd \u05e0\u05b0\u05d0\u05bb\u05dd\u05be\u05d9\u05b0\u05d4\u05d5\u05b8\u0591\u05d4 \u05d5\u05b0\u05d0\u05b6\u05dc\u05be\u05d9\u05b9\u05e9\u05c1\u05b0\u05d1\u05b5\u05a3\u05d9 \u05d1\u05b8\u05d1\u05b6\u0594\u05dc \u05d5\u05b0\u05d0\u05b6\u05dc\u05be\u05e9\u05c2\u05b8\u05e8\u05b6\u0596\u05d9\u05d4\u05b8 \u05d5\u05b0\u05d0\u05b6\u05dc\u05be\u05d7\u05b2\u05db\u05b8\u05de\u05b6\u05bd\u05d9\u05d4\u05b8\u05c3 "
        },
        {
            "chapter": 50,
            "verse": 36,
            "name": "Jeremiah 50:36",
            "text": "\u05d7\u05b6\u05a5\u05e8\u05b6\u05d1 \u05d0\u05b6\u05dc\u05be\u05d4\u05b7\u05d1\u05bc\u05b7\u05d3\u05bc\u05b4\u0596\u05d9\u05dd \u05d5\u05b0\u05e0\u05b9\u05d0\u05b8\u0591\u05dc\u05d5\u05bc \u05d7\u05b6\u05a5\u05e8\u05b6\u05d1 \u05d0\u05b6\u05dc\u05be\u05d2\u05bc\u05b4\u05d1\u05bc\u05d5\u05b9\u05e8\u05b6\u0596\u05d9\u05d4\u05b8 \u05d5\u05b8\u05d7\u05b8\u05bd\u05ea\u05bc\u05d5\u05bc\u05c3 "
        },
        {
            "chapter": 50,
            "verse": 37,
            "name": "Jeremiah 50:37",
            "text": "\u05d7\u05b6\u059c\u05e8\u05b6\u05d1 \u05d0\u05b6\u05dc\u05be\u05e1\u05d5\u05bc\u05e1\u05b8\u05a3\u05d9\u05d5 \u05d5\u05b0\u05d0\u05b6\u05dc\u05be\u05e8\u05b4\u05db\u05b0\u05d1\u05bc\u0597\u05d5\u05b9 \u05d5\u05b0\u05d0\u05b6\u05dc\u05be\u05db\u05bc\u05b8\u05dc\u05be\u05d4\u05b8\u05e2\u05b6\u059b\u05e8\u05b6\u05d1 \u05d0\u05b2\u05e9\u05c1\u05b6\u05a5\u05e8 \u05d1\u05bc\u05b0\u05ea\u05d5\u05b9\u05db\u05b8\u0596\u05d4\u05bc \u05d5\u05b0\u05d4\u05b8\u05d9\u05a3\u05d5\u05bc \u05dc\u05b0\u05e0\u05b8\u05e9\u05c1\u05b4\u0591\u05d9\u05dd \u05d7\u05b6\u05a5\u05e8\u05b6\u05d1 \u05d0\u05b6\u05dc\u05be\u05d0\u05d5\u05b9\u05e6\u05b0\u05e8\u05b9\u05ea\u05b6\u0596\u05d9\u05d4\u05b8 \u05d5\u05bc\u05d1\u05bb\u05d6\u05bc\u05b8\u05bd\u05d6\u05d5\u05bc\u05c3 "
        },
        {
            "chapter": 50,
            "verse": 38,
            "name": "Jeremiah 50:38",
            "text": "\u05d7\u05b9\u05a5\u05e8\u05b6\u05d1 \u05d0\u05b6\u05dc\u05be\u05de\u05b5\u05d9\u05de\u05b6\u0596\u05d9\u05d4\u05b8 \u05d5\u05b0\u05d9\u05b8\u05d1\u05b5\u0591\u05e9\u05c1\u05d5\u05bc \u05db\u05bc\u05b4\u05a3\u05d9 \u05d0\u05b6\u05a4\u05e8\u05b6\u05e5 \u05e4\u05bc\u05b0\u05e1\u05b4\u05dc\u05b4\u05d9\u05dd\u0599 \u05d4\u05b4\u0594\u05d9\u05d0 \u05d5\u05bc\u05d1\u05b8\u05d0\u05b5\u05d9\u05de\u05b4\u0596\u05d9\u05dd \u05d9\u05b4\u05ea\u05b0\u05d4\u05b9\u05dc\u05b8\u05bd\u05dc\u05d5\u05bc\u05c3 "
        },
        {
            "chapter": 50,
            "verse": 39,
            "name": "Jeremiah 50:39",
            "text": "\u05dc\u05b8\u05db\u05b5\u0597\u05df \u05d9\u05b5\u05e9\u05c1\u05b0\u05d1\u05a4\u05d5\u05bc \u05e6\u05b4\u05d9\u05bc\u05b4\u05d9\u05dd\u0599 \u05d0\u05b6\u05ea\u05be\u05d0\u05b4\u05d9\u05bc\u05b4\u0594\u05d9\u05dd \u05d5\u05b0\u05d9\u05b8\u05a5\u05e9\u05c1\u05b0\u05d1\u05d5\u05bc \u05d1\u05b8\u0596\u05d4\u05bc \u05d1\u05bc\u05b0\u05e0\u05a3\u05d5\u05b9\u05ea \u05d9\u05b7\u05bd\u05e2\u05b2\u05e0\u05b8\u0591\u05d4 \u05d5\u05b0\u05dc\u05b9\u05bd\u05d0\u05be\u05ea\u05b5\u05e9\u05c1\u05b5\u05a5\u05d1 \u05e2\u05d5\u05b9\u05d3\u0599 \u05dc\u05b8\u05e0\u05b6\u0594\u05e6\u05b7\u05d7 \u05d5\u05b0\u05dc\u05b9\u05a5\u05d0 \u05ea\u05b4\u05e9\u05c1\u05b0\u05db\u05bc\u0596\u05d5\u05b9\u05df \u05e2\u05b7\u05d3\u05be\u05d3\u05bc\u05a5\u05d5\u05b9\u05e8 \u05d5\u05b8\u05d3\u05bd\u05d5\u05b9\u05e8\u05c3 "
        },
        {
            "chapter": 50,
            "verse": 40,
            "name": "Jeremiah 50:40",
            "text": "\u05db\u05bc\u05b0\u05de\u05b7\u05d4\u05b0\u05e4\u05bc\u05b5\u05db\u05b7\u05a8\u05ea \u05d0\u05b1\u05dc\u05b9\u05d4\u05b4\u059c\u05d9\u05dd \u05d0\u05b6\u05ea\u05be\u05e1\u05b0\u05d3\u05b9\u05a7\u05dd \u05d5\u05b0\u05d0\u05b6\u05ea\u05be\u05e2\u05b2\u05de\u05b9\u05e8\u05b8\u059b\u05d4 \u05d5\u05b0\u05d0\u05b6\u05ea\u05be\u05e9\u05c1\u05b0\u05db\u05b5\u05e0\u05b6\u0596\u05d9\u05d4\u05b8 \u05e0\u05b0\u05d0\u05bb\u05dd\u05be\u05d9\u05b0\u05d4\u05d5\u05b8\u0591\u05d4 \u05dc\u05b9\u05bd\u05d0\u05be\u05d9\u05b5\u05e9\u05c1\u05b5\u05a5\u05d1 \u05e9\u05c1\u05b8\u05dd\u0599 \u05d0\u05b4\u0594\u05d9\u05e9\u05c1 \u05d5\u05b0\u05dc\u05b9\u05bd\u05d0\u05be\u05d9\u05b8\u05d2\u05a5\u05d5\u05bc\u05e8 \u05d1\u05bc\u05b8\u0596\u05d4\u05bc \u05d1\u05bc\u05b6\u05df\u05be\u05d0\u05b8\u05d3\u05b8\u05bd\u05dd\u05c3 "
        },
        {
            "chapter": 50,
            "verse": 41,
            "name": "Jeremiah 50:41",
            "text": "\u05d4\u05b4\u05e0\u05bc\u05b5\u059b\u05d4 \u05e2\u05b7\u05a5\u05dd \u05d1\u05bc\u05b8\u0596\u05d0 \u05de\u05b4\u05e6\u05bc\u05b8\u05e4\u0591\u05d5\u05b9\u05df \u05d5\u05b0\u05d2\u05a4\u05d5\u05b9\u05d9 \u05d2\u05bc\u05b8\u05d3\u05d5\u05b9\u05dc\u0599 \u05d5\u05bc\u05de\u05b0\u05dc\u05b8\u05db\u05b4\u05a3\u05d9\u05dd \u05e8\u05b7\u05d1\u05bc\u05b4\u0594\u05d9\u05dd \u05d9\u05b5\u05e2\u05b9\u0596\u05e8\u05d5\u05bc \u05de\u05b4\u05d9\u05bc\u05b7\u05e8\u05b0\u05db\u05bc\u05b0\u05ea\u05b5\u05d9\u05be\u05d0\u05b8\u05bd\u05e8\u05b6\u05e5\u05c3 "
        },
        {
            "chapter": 50,
            "verse": 42,
            "name": "Jeremiah 50:42",
            "text": "\u05e7\u05b6\u05a3\u05e9\u05c1\u05b6\u05ea \u05d5\u05b0\u05db\u05b4\u05d9\u05d3\u05b9\u059e\u05df \u05d9\u05b7\u05d7\u05b2\u05d6\u05b4\u0597\u05d9\u05e7\u05d5\u05bc \u05d0\u05b7\u05db\u05b0\u05d6\u05b8\u05e8\u05b4\u05a5\u05d9 \u05d4\u05b5\u05a8\u05de\u05bc\u05b8\u05d4\u0599 \u05d5\u05b0\u05dc\u05b9\u05a3\u05d0 \u05d9\u05b0\u05e8\u05b7\u05d7\u05b5\u0594\u05de\u05d5\u05bc \u05e7\u05d5\u05b9\u05dc\u05b8\u05dd\u0599 \u05db\u05bc\u05b7\u05d9\u05bc\u05b8\u05a3\u05dd \u05d9\u05b6\u05d4\u05b1\u05de\u05b6\u0594\u05d4 \u05d5\u05b0\u05e2\u05b7\u05dc\u05be\u05e1\u05d5\u05bc\u05e1\u05b4\u0596\u05d9\u05dd \u05d9\u05b4\u05e8\u05b0\u05db\u05bc\u05b8\u0591\u05d1\u05d5\u05bc \u05e2\u05b8\u05e8\u0597\u05d5\u05bc\u05da\u05b0 \u05db\u05bc\u05b0\u05d0\u05b4\u05d9\u05e9\u05c1\u0599 \u05dc\u05b7\u05de\u05bc\u05b4\u05dc\u05b0\u05d7\u05b8\u05de\u05b8\u0594\u05d4 \u05e2\u05b8\u05dc\u05b7\u0596\u05d9\u05b4\u05da\u05b0 \u05d1\u05bc\u05b7\u05ea\u05be\u05d1\u05bc\u05b8\u05d1\u05b6\u05bd\u05dc\u05c3 "
        },
        {
            "chapter": 50,
            "verse": 43,
            "name": "Jeremiah 50:43",
            "text": "\u05e9\u05c1\u05b8\u05de\u05b7\u05a7\u05e2 \u05de\u05b6\u05bd\u05dc\u05b6\u05da\u05b0\u05be\u05d1\u05bc\u05b8\u05d1\u05b6\u059b\u05dc \u05d0\u05b6\u05ea\u05be\u05e9\u05c1\u05b4\u05de\u05b0\u05e2\u05b8\u0596\u05dd \u05d5\u05b0\u05e8\u05b8\u05e4\u05a3\u05d5\u05bc \u05d9\u05b8\u05d3\u05b8\u0591\u05d9\u05d5 \u05e6\u05b8\u05e8\u05b8\u05d4\u0599 \u05d4\u05b6\u05d7\u05b1\u05d6\u05b4\u05d9\u05e7\u05b7\u0594\u05ea\u05b0\u05d4\u05d5\u05bc \u05d7\u05b4\u0596\u05d9\u05dc \u05db\u05bc\u05b7\u05d9\u05bc\u05d5\u05b9\u05dc\u05b5\u05d3\u05b8\u05bd\u05d4\u05c3 "
        },
        {
            "chapter": 50,
            "verse": 44,
            "name": "Jeremiah 50:44",
            "text": "\u05d4\u05b4\u05a0\u05e0\u05bc\u05b5\u05d4 \u05db\u05bc\u05b0\u05d0\u05b7\u05e8\u05b0\u05d9\u05b5\u059e\u05d4 \u05d9\u05b7\u05e2\u05b2\u05dc\u05b6\u05a8\u05d4 \u05de\u05b4\u05d2\u05bc\u05b0\u05d0\u05a3\u05d5\u05b9\u05df \u05d4\u05b7\u05d9\u05bc\u05b7\u05e8\u05b0\u05d3\u05bc\u05b5\u05df\u05ae \u05d0\u05b6\u05dc\u05be\u05e0\u05b0\u05d5\u05b5\u05a3\u05d4 \u05d0\u05b5\u05d9\u05ea\u05b8\u05df\u0592 \u05db\u05bc\u05b4\u05bd\u05d9\u05be\u05d0\u05b7\u05e8\u05b0\u05d2\u05bc\u05b4\u05a4\u05e2\u05b8\u05d4 \u05d0\u05e8\u05d5\u05e6\u05dd \u05de\u05b5\u05bd\u05e2\u05b8\u05dc\u05b6\u0594\u05d9\u05d4\u05b8 \u05d5\u05bc\u05de\u05b4\u05a5\u05d9 \u05d1\u05b8\u05d7\u0596\u05d5\u05bc\u05e8 \u05d0\u05b5\u05dc\u05b6\u05a3\u05d9\u05d4\u05b8 \u05d0\u05b6\u05e4\u05b0\u05e7\u05b9\u0591\u05d3 \u05db\u05bc\u05b4\u05a3\u05d9 \u05de\u05b4\u05a4\u05d9 \u05db\u05b8\u05de\u05a8\u05d5\u05b9\u05e0\u05b4\u05d9\u0599 \u05d5\u05bc\u05de\u05b4\u05a3\u05d9 \u05d9\u05d5\u05b9\u05e2\u05b4\u05d3\u05b6\u0594\u05e0\u05bc\u05b4\u05d9 \u05d5\u05bc\u05de\u05b4\u05bd\u05d9\u05be\u05d6\u05b6\u05a3\u05d4 \u05e8\u05b9\u05e2\u05b6\u0594\u05d4 \u05d0\u05b2\u05e9\u05c1\u05b6\u05a5\u05e8 \u05d9\u05b7\u05e2\u05b2\u05de\u05b9\u0596\u05d3 \u05dc\u05b0\u05e4\u05b8\u05e0\u05b8\u05bd\u05d9\u05c3 "
        },
        {
            "chapter": 50,
            "verse": 45,
            "name": "Jeremiah 50:45",
            "text": "\u05dc\u05b8\u05db\u05b5\u059e\u05df \u05e9\u05c1\u05b4\u05de\u05b0\u05e2\u05a3\u05d5\u05bc \u05e2\u05b2\u05e6\u05b7\u05ea\u05be\u05d9\u05b0\u05d4\u05d5\u05b8\u0597\u05d4 \u05d0\u05b2\u05e9\u05c1\u05b6\u05a4\u05e8 \u05d9\u05b8\u05e2\u05b7\u05e5\u0599 \u05d0\u05b6\u05dc\u05be\u05d1\u05bc\u05b8\u05d1\u05b6\u0594\u05dc \u05d5\u05bc\u05de\u05b7\u05a8\u05d7\u05b0\u05e9\u05c1\u05b0\u05d1\u05d5\u05b9\u05ea\u05b8\u0594\u05d9\u05d5 \u05d0\u05b2\u05e9\u05c1\u05b6\u05a5\u05e8 \u05d7\u05b8\u05e9\u05c1\u05b7\u0596\u05d1 \u05d0\u05b6\u05dc\u05be\u05d0\u05b6\u05a3\u05e8\u05b6\u05e5 \u05db\u05bc\u05b7\u05e9\u05c2\u05b0\u05d3\u05bc\u05b4\u0591\u05d9\u05dd \u05d0\u05b4\u05dd\u05be\u05dc\u05b9\u05a4\u05d0 \u05d9\u05b4\u05e1\u05b0\u05d7\u05b8\u05d1\u05d5\u05bc\u05dd\u0599 \u05e6\u05b0\u05e2\u05b4\u05d9\u05e8\u05b5\u05a3\u05d9 \u05d4\u05b7\u05e6\u05bc\u05b9\u0594\u05d0\u05df \u05d0\u05b4\u05dd\u05be\u05dc\u05b9\u05a5\u05d0 \u05d9\u05b7\u05e9\u05c1\u05bc\u05b4\u059b\u05d9\u05dd \u05e2\u05b2\u05dc\u05b5\u05d9\u05d4\u05b6\u0596\u05dd \u05e0\u05b8\u05d5\u05b6\u05bd\u05d4\u05c3 "
        },
        {
            "chapter": 50,
            "verse": 46,
            "name": "Jeremiah 50:46",
            "text": "\u05de\u05b4\u05e7\u05bc\u05d5\u05b9\u05dc\u0599 \u05e0\u05b4\u05ea\u05b0\u05e4\u05bc\u05b0\u05e9\u05c2\u05b8\u05a3\u05d4 \u05d1\u05b8\u05d1\u05b6\u0594\u05dc \u05e0\u05b4\u05e8\u05b0\u05e2\u05b2\u05e9\u05c1\u05b8\u0596\u05d4 \u05d4\u05b8\u05d0\u05b8\u0591\u05e8\u05b6\u05e5 \u05d5\u05bc\u05d6\u05b0\u05e2\u05b8\u05e7\u05b8\u0596\u05d4 \u05d1\u05bc\u05b7\u05d2\u05bc\u05d5\u05b9\u05d9\u05b4\u05a5\u05dd \u05e0\u05b4\u05e9\u05c1\u05b0\u05de\u05b8\u05bd\u05e2\u05c3 \u05e1  "
        }
    ]
}