{
    "translation": "Vulgata Sistina",
    "abbreviation": "vulgsistine",
    "lang": "la",
    "language": "Latin",
    "direction": "LTR",
    "encoding": "UTF-8",
    "book_nr": 19,
    "book_name": "Psalms",
    "chapter": 28,
    "name": "Psalms 28",
    "verses": [
        {
            "chapter": 28,
            "verse": 1,
            "name": "Psalms 28:1",
            "text": "Psalmus David, In consummatione tabernaculi. Afferte Domino filii Dei: afferte Domino filios arietum: "
        },
        {
            "chapter": 28,
            "verse": 2,
            "name": "Psalms 28:2",
            "text": "Afferte Domino gloriam et honorem, afferte Domino gloriam nomini eius: adorate Dominum in atrio sancto eius. "
        },
        {
            "chapter": 28,
            "verse": 3,
            "name": "Psalms 28:3",
            "text": "Vox Domini super aquas, Deus maiestatis intonuit: Dominus super aquas multas. "
        },
        {
            "chapter": 28,
            "verse": 4,
            "name": "Psalms 28:4",
            "text": "Vox Domini in virtute: vox Domini in magnificentia. "
        },
        {
            "chapter": 28,
            "verse": 5,
            "name": "Psalms 28:5",
            "text": "Vox Domini confringentis cedros: et confringet Dominus cedros Libani: "
        },
        {
            "chapter": 28,
            "verse": 6,
            "name": "Psalms 28:6",
            "text": "Et comminuet eas tamquam vitulum Libani: et dilectus quemadmodum filius unicornium. "
        },
        {
            "chapter": 28,
            "verse": 7,
            "name": "Psalms 28:7",
            "text": "Vox Domini intercidentis flammam ignis: "
        },
        {
            "chapter": 28,
            "verse": 8,
            "name": "Psalms 28:8",
            "text": "vox Domini concutientis desertum: et commovebit Dominus desertum Cades. "
        },
        {
            "chapter": 28,
            "verse": 9,
            "name": "Psalms 28:9",
            "text": "Vox Domini praeparantis cervos, et revelabit condensa: et in templo eius omnes dicent gloriam. "
        },
        {
            "chapter": 28,
            "verse": 10,
            "name": "Psalms 28:10",
            "text": "Dominus diluvium inhabitare facit: et sedebit Dominus rex in aeternum. "
        },
        {
            "chapter": 28,
            "verse": 11,
            "name": "Psalms 28:11",
            "text": "Dominus virtutem populo suo dabit: Dominus benedicet populo suo in pace.  "
        }
    ]
}