{
    "translation": "Vulgata Clementina",
    "abbreviation": "vulgate",
    "lang": "la",
    "language": "Latin",
    "direction": "LTR",
    "encoding": "",
    "book_nr": 18,
    "book_name": "Job",
    "chapter": 3,
    "name": "Job 3",
    "verses": [
        {
            "chapter": 3,
            "verse": 1,
            "name": "Job 3:1",
            "text": "post haec aperuit Iob os suum et maledixit diei suo"
        },
        {
            "chapter": 3,
            "verse": 2,
            "name": "Job 3:2",
            "text": "et locutus est"
        },
        {
            "chapter": 3,
            "verse": 3,
            "name": "Job 3:3",
            "text": "pereat dies in qua natus sum et nox in qua dictum est conceptus est homo"
        },
        {
            "chapter": 3,
            "verse": 4,
            "name": "Job 3:4",
            "text": "dies ille vertatur in tenebras non requirat eum Deus desuper et non inlustret lumine"
        },
        {
            "chapter": 3,
            "verse": 5,
            "name": "Job 3:5",
            "text": "obscurent eum tenebrae et umbra mortis occupet eum caligo et involvatur amaritudine"
        },
        {
            "chapter": 3,
            "verse": 6,
            "name": "Job 3:6",
            "text": "noctem illam tenebrosus turbo possideat non conputetur in diebus anni nec numeretur in mensibus"
        },
        {
            "chapter": 3,
            "verse": 7,
            "name": "Job 3:7",
            "text": "sit nox illa solitaria nec laude digna"
        },
        {
            "chapter": 3,
            "verse": 8,
            "name": "Job 3:8",
            "text": "maledicant ei qui maledicunt diei qui parati sunt suscitare Leviathan"
        },
        {
            "chapter": 3,
            "verse": 9,
            "name": "Job 3:9",
            "text": "obtenebrentur stellae caligine eius expectet lucem et non videat nec ortum surgentis aurorae"
        },
        {
            "chapter": 3,
            "verse": 10,
            "name": "Job 3:10",
            "text": "quia non conclusit ostia ventris qui portavit me nec abstulit mala ab oculis meis"
        },
        {
            "chapter": 3,
            "verse": 11,
            "name": "Job 3:11",
            "text": "quare non in vulva mortuus sum egressus ex utero non statim perii"
        },
        {
            "chapter": 3,
            "verse": 12,
            "name": "Job 3:12",
            "text": "quare exceptus genibus cur lactatus uberibus"
        },
        {
            "chapter": 3,
            "verse": 13,
            "name": "Job 3:13",
            "text": "nunc enim dormiens silerem et somno meo requiescerem"
        },
        {
            "chapter": 3,
            "verse": 14,
            "name": "Job 3:14",
            "text": "cum regibus et consulibus terrae qui aedificant sibi solitudines"
        },
        {
            "chapter": 3,
            "verse": 15,
            "name": "Job 3:15",
            "text": "aut cum principibus qui possident aurum et replent domos suas argento"
        },
        {
            "chapter": 3,
            "verse": 16,
            "name": "Job 3:16",
            "text": "aut sicut abortivum absconditum non subsisterem vel qui concepti non viderunt lucem"
        },
        {
            "chapter": 3,
            "verse": 17,
            "name": "Job 3:17",
            "text": "ibi impii cessaverunt a tumultu et ibi requieverunt fessi robore"
        },
        {
            "chapter": 3,
            "verse": 18,
            "name": "Job 3:18",
            "text": "et quondam vincti pariter sine molestia non audierunt vocem exactoris"
        },
        {
            "chapter": 3,
            "verse": 19,
            "name": "Job 3:19",
            "text": "parvus et magnus ibi sunt et servus liber a domino suo"
        },
        {
            "chapter": 3,
            "verse": 20,
            "name": "Job 3:20",
            "text": "quare data est misero lux et vita his qui in amaritudine animae sunt"
        },
        {
            "chapter": 3,
            "verse": 21,
            "name": "Job 3:21",
            "text": "qui expectant mortem et non venit quasi effodientes thesaurum"
        },
        {
            "chapter": 3,
            "verse": 22,
            "name": "Job 3:22",
            "text": "gaudentque vehementer cum invenerint sepulchrum"
        },
        {
            "chapter": 3,
            "verse": 23,
            "name": "Job 3:23",
            "text": "viro cuius abscondita est via et circumdedit eum Deus tenebris"
        },
        {
            "chapter": 3,
            "verse": 24,
            "name": "Job 3:24",
            "text": "antequam comedam suspiro et quasi inundantes aquae sic rugitus meus"
        },
        {
            "chapter": 3,
            "verse": 25,
            "name": "Job 3:25",
            "text": "quia timor quem timebam evenit mihi et quod verebar accidit"
        },
        {
            "chapter": 3,
            "verse": 26,
            "name": "Job 3:26",
            "text": "nonne dissimulavi nonne silui nonne quievi et venit super me indignatio"
        }
    ]
}