{
    "translation": "Klingon Language Version of the World English Bible",
    "abbreviation": "klv",
    "lang": "tlh",
    "language": "",
    "direction": "LTR",
    "encoding": "",
    "book_nr": 19,
    "book_name": "Psalms",
    "chapter": 13,
    "name": "Psalms 13",
    "verses": [
        {
            "chapter": 13,
            "verse": 1,
            "name": "Psalms 13:1",
            "text": "       chay'  tIq,  joH'a'? DichDaq  SoH forget  jIH  reH? chay'  tIq  DichDaq  SoH  So'  lIj  qab  vo'  jIH?"
        },
        {
            "chapter": 13,
            "verse": 2,
            "name": "Psalms 13:2",
            "text": "       chay'  tIq  DIchDaq  jIH  tlhap  qeS  Daq  wIj  qa', ghajtaH  QoSqu'  Daq  wIj  tIq  Hoch  jaj? chay'  tIq  DIchDaq  wIj  jagh triumph  Dung  jIH?"
        },
        {
            "chapter": 13,
            "verse": 3,
            "name": "Psalms 13:3",
            "text": "       yIlegh,  je  jang  jIH,  joH'a',  wIj  joH'a'. nob  wov  Daq  wIj  mInDu', lest  jIH  Qong  Daq  Hegh;"
        },
        {
            "chapter": 13,
            "verse": 4,
            "name": "Psalms 13:4",
            "text": "      Lest  wIj  jagh  jatlh, \u201c jIH  ghaj prevailed  Daq  ghaH;\u201d     Lest  wIj  jaghpu'  yItIv  ghorgh  jIH  pum."
        },
        {
            "chapter": 13,
            "verse": 5,
            "name": "Psalms 13:5",
            "text": "       'ach  jIH  voq  Daq  lIj  muSHa'taH  pung. wIj  tIq rejoices  Daq  lIj  toDtaHghach."
        },
        {
            "chapter": 13,
            "verse": 6,
            "name": "Psalms 13:6",
            "text": "       jIH  DichDaq  bom  Daq  joH'a',     because  ghaH  ghajtaH  taH  QaQ  Daq  jIH."
        }
    ]
}