{
    "translation": "Klingon Language Version of the World English Bible",
    "abbreviation": "klv",
    "lang": "tlh",
    "language": "",
    "direction": "LTR",
    "encoding": "",
    "book_nr": 19,
    "book_name": "Psalms",
    "chapter": 24,
    "name": "Psalms 24",
    "verses": [
        {
            "chapter": 24,
            "verse": 1,
            "name": "Psalms 24:1",
            "text": "      The  tera'  ghaH  joH'a',  tlhej its fullness;     the  qo',  je  chaH  'Iv  yIn therein."
        },
        {
            "chapter": 24,
            "verse": 2,
            "name": "Psalms 24:2",
            "text": "       vaD  ghaH  ghajtaH founded  'oH  Daq the seas, je established  'oH  Daq the floods."
        },
        {
            "chapter": 24,
            "verse": 3,
            "name": "Psalms 24:3",
            "text": "       'Iv may ascend  Daq  joH'a'  HuD? 'Iv may  Qam  Daq  Daj  le'  Daq?"
        },
        {
            "chapter": 24,
            "verse": 4,
            "name": "Psalms 24:4",
            "text": "       ghaH  'Iv  ghajtaH  Say  ghopmey  je a pure  tIq; 'Iv  ghajtaH  ghobe'  qengta'  Dung  Daj  qa'  Daq falsehood, je  ghajtaH  ghobe' sworn deceitfully."
        },
        {
            "chapter": 24,
            "verse": 5,
            "name": "Psalms 24:5",
            "text": "       ghaH  DIchDaq  Hev a blessing  vo'  joH'a', QaQtaHghach  vo' the  joH'a'  vo'  Daj  toDtaHghach."
        },
        {
            "chapter": 24,
            "verse": 6,
            "name": "Psalms 24:6",
            "text": "       vam  ghaH the generation  vo'  chaH  'Iv  nej  ghaH, 'Iv  nej  lIj  qab\u2014 'ach Jacob.     Selah."
        },
        {
            "chapter": 24,
            "verse": 7,
            "name": "Psalms 24:7",
            "text": "      Lift  Dung  lIj  nachDu',  SoH  lojmItmey! taH  qengta'  Dung,  SoH everlasting doors, je the  joH  vo'  batlh  DichDaq  ghoS  Daq."
        },
        {
            "chapter": 24,
            "verse": 8,
            "name": "Psalms 24:8",
            "text": "       'Iv  ghaH the  joH  vo'  batlh? joH'a'  HoS  je  HoS, joH'a'  HoS  Daq  may'."
        },
        {
            "chapter": 24,
            "verse": 9,
            "name": "Psalms 24:9",
            "text": "      Lift  Dung  lIj  nachDu',  SoH  lojmItmey; HIja', lift  chaH  Dung,  SoH everlasting doors, je the  joH  vo'  batlh  DichDaq  ghoS  Daq."
        },
        {
            "chapter": 24,
            "verse": 10,
            "name": "Psalms 24:10",
            "text": "      'Iv  ghaH  vam  joH  vo'  batlh?     joH'a'  vo' Armies  ghaH the  joH  vo'  batlh!    Selah."
        }
    ]
}