{
    "translation": "Klingon Language Version of the World English Bible",
    "abbreviation": "klv",
    "lang": "tlh",
    "language": "",
    "direction": "LTR",
    "encoding": "",
    "book_nr": 19,
    "book_name": "Psalms",
    "chapter": 74,
    "name": "Psalms 74",
    "verses": [
        {
            "chapter": 74,
            "verse": 1,
            "name": "Psalms 74:1",
            "text": "       joH'a',  qatlh  ghaj  SoH rejected  maH  reH? qatlh  ta'taH  lIj  QeH smolder  Daq the  Suy'  vo'  lIj  tI yotlh?"
        },
        {
            "chapter": 74,
            "verse": 2,
            "name": "Psalms 74:2",
            "text": "       qaw  lIj  tay' ghotpu',  nuq  SoH purchased  vo'  qan, nuq  SoH  ghaj  toDta'  Daq  taH the  tuq  vo'  lIj inheritance;     Mount Zion,  Daq  nuq  SoH  ghaj  yInta'."
        },
        {
            "chapter": 74,
            "verse": 3,
            "name": "Psalms 74:3",
            "text": "      Lift  Dung  lIj  qamDu'  Daq the perpetual ruins, Hoch the  mIghtaHghach  vetlh the  jagh  ghajtaH  ta'pu'  Daq the  Daq QaD."
        },
        {
            "chapter": 74,
            "verse": 4,
            "name": "Psalms 74:4",
            "text": "       lIj  jaghpu'  ghaj roared  Daq the midst  vo'  lIj  yej. chaH  ghaj  cher  Dung  chaj standards as signs."
        },
        {
            "chapter": 74,
            "verse": 5,
            "name": "Psalms 74:5",
            "text": "       chaH behaved  rur  loDpu' wielding axes,     cutting  vegh a thicket  vo'  Sormey."
        },
        {
            "chapter": 74,
            "verse": 6,
            "name": "Psalms 74:6",
            "text": "       DaH  chaH  ghor  Hoch its carved  vum  bIng  tlhej hatchet  je hammers."
        },
        {
            "chapter": 74,
            "verse": 7,
            "name": "Psalms 74:7",
            "text": "       chaH  ghaj  meQpu'  lIj  Daq QaD  Daq the  yav. chaH  ghaj profaned the dwelling  Daq  vo'  lIj  pong."
        },
        {
            "chapter": 74,
            "verse": 8,
            "name": "Psalms 74:8",
            "text": "       chaH  ja'ta'  Daq  chaj  tIq, \u201c maH  DichDaq crush  chaH completely.\u201d chaH  ghaj  meQpu'  Dung  Hoch the  Daqmey  Daq the  puH  nuqDaq  joH'a'  ghaHta' worshiped."
        },
        {
            "chapter": 74,
            "verse": 9,
            "name": "Psalms 74:9",
            "text": "       maH  legh  ghobe' miraculous signs. pa'  ghaH  ghobe' longer  vay'  leghwI'pu', ghobe'  ghaH  pa' among  maH anyone  'Iv  SovtaH  chay'  tIq."
        },
        {
            "chapter": 74,
            "verse": 10,
            "name": "Psalms 74:10",
            "text": "      chay'  tIq,  joH'a',  DIchDaq the  jagh reproach?     DIchDaq the  jagh blaspheme  lIj  pong  reH?"
        },
        {
            "chapter": 74,
            "verse": 11,
            "name": "Psalms 74:11",
            "text": "      qatlh  ta'  SoH draw  DoH  lIj  ghop,  'ach  lIj  nIH  ghop?     tlhap  'oH  pa'  vo'  lIj pocket  je consume  chaH!"
        },
        {
            "chapter": 74,
            "verse": 12,
            "name": "Psalms 74:12",
            "text": "     Yet  joH'a'  ghaH  wIj  joH  vo'  qan,    working  toDtaHghach  Daq the midst  vo' the  tera'."
        },
        {
            "chapter": 74,
            "verse": 13,
            "name": "Psalms 74:13",
            "text": "      SoH divided the  biQ'a'  Sum  lIj  HoS.     SoH broke the  nachDu'  vo' the  biQ'a' monsters  Daq the  bIQmey."
        },
        {
            "chapter": 74,
            "verse": 14,
            "name": "Psalms 74:14",
            "text": "      SoH broke the  nachDu'  vo' Leviathan  Daq pieces.     SoH  nobta'  ghaH as  Soj  Daq  ghotpu  je desert creatures."
        },
        {
            "chapter": 74,
            "verse": 15,
            "name": "Psalms 74:15",
            "text": "      SoH  poSmaHpu'  Dung spring  je stream.     SoH dried  Dung  HoS rivers."
        },
        {
            "chapter": 74,
            "verse": 16,
            "name": "Psalms 74:16",
            "text": "     The  jaj  ghaH yours, the  ram  ghaH  je yours.     SoH  ghaj prepared the  wov  je the  pemHov."
        },
        {
            "chapter": 74,
            "verse": 17,
            "name": "Psalms 74:17",
            "text": "      SoH  ghaj  cher  Hoch the  veHmey  vo' the  tera'.     SoH  ghaj  chenmoHta' summer  je winter."
        },
        {
            "chapter": 74,
            "verse": 18,
            "name": "Psalms 74:18",
            "text": "      qaw  vam,  vetlh the  jagh  ghajtaH mocked  SoH,  joH'a'.    Foolish  ghotpu  ghaj blasphemed  lIj  pong."
        },
        {
            "chapter": 74,
            "verse": 19,
            "name": "Psalms 74:19",
            "text": "      yImev  toD the  qa'  vo'  lIj dove  Daq wild  Ha'DIbaHmey.     yImev forget the  yIn  vo'  lIj  mIpHa'  reH."
        },
        {
            "chapter": 74,
            "verse": 20,
            "name": "Psalms 74:20",
            "text": "      quv  lIj  lay',     vaD haunts  vo' violence fill the dark  Daqmey  vo' the  tera'."
        },
        {
            "chapter": 74,
            "verse": 21,
            "name": "Psalms 74:21",
            "text": "      yImev  chaw' the  Suvta'  chegh  tuH.     chaw' the  mIpHa'  je needy  naD  lIj  pong."
        },
        {
            "chapter": 74,
            "verse": 22,
            "name": "Psalms 74:22",
            "text": "      Hu',  joH'a'!  tlhob  lIj  ghaj cause.     qaw  chay' the foolish  loD mocks  SoH  Hoch  jaj."
        },
        {
            "chapter": 74,
            "verse": 23,
            "name": "Psalms 74:23",
            "text": "      yImev forget the  ghogh  vo'  lIj  jaghpu'.    The tumult  vo'  chaH  'Iv  Hu'  Dung  Daq  SoH ascends continually."
        }
    ]
}