{
    "translation": "Smith and Van Dyke",
    "abbreviation": "arabicsv",
    "lang": "ar",
    "language": "Arabic",
    "direction": "RTL",
    "encoding": "UTF-8",
    "book_nr": 20,
    "book_name": "Proverbs",
    "chapter": 22,
    "name": "Proverbs 22",
    "verses": [
        {
            "chapter": 22,
            "verse": 1,
            "name": "Proverbs 22:1",
            "text": "\u0627\u064e\u0644\u0635\u0650\u0651\u064a\u062a\u064f \u0623\u064e\u0641\u0652\u0636\u064e\u0644\u064f \u0645\u0650\u0646\u064e \u0627\u0644\u0652\u063a\u0650\u0646\u064e\u0649 \u0627\u0644\u0652\u0639\u064e\u0638\u0650\u064a\u0645\u0650\u060c \u0648\u064e\u0627\u0644\u0646\u0650\u0651\u0639\u0652\u0645\u064e\u0629\u064f \u0627\u0644\u0635\u064e\u0651\u0627\u0644\u0650\u062d\u064e\u0629\u064f \u0623\u064e\u0641\u0652\u0636\u064e\u0644\u064f \u0645\u0650\u0646\u064e \u0627\u0644\u0652\u0641\u0650\u0636\u064e\u0651\u0629\u0650 \u0648\u064e\u0627\u0644\u0630\u064e\u0651\u0647\u064e\u0628\u0650."
        },
        {
            "chapter": 22,
            "verse": 2,
            "name": "Proverbs 22:2",
            "text": "\u0627\u064e\u0644\u0652\u063a\u064e\u0646\u0650\u064a\u064f\u0651 \u0648\u064e\u0627\u0644\u0652\u0641\u064e\u0642\u0650\u064a\u0631\u064f \u064a\u064e\u062a\u064e\u0644\u0627\u064e\u0642\u064e\u064a\u064e\u0627\u0646\u0650\u060c \u0635\u064e\u0627\u0646\u0650\u0639\u064f\u0647\u064f\u0645\u064e\u0627 \u0643\u0650\u0644\u064e\u064a\u0652\u0647\u0650\u0645\u064e\u0627 \u0627\u0644\u0631\u064e\u0651\u0628\u064f\u0651."
        },
        {
            "chapter": 22,
            "verse": 3,
            "name": "Proverbs 22:3",
            "text": "\u0627\u064e\u0644\u0630\u064e\u0651\u0643\u0650\u064a\u064f\u0651 \u064a\u064f\u0628\u0652\u0635\u0650\u0631\u064f \u0627\u0644\u0634\u064e\u0651\u0631\u064e\u0651 \u0641\u064e\u064a\u064e\u062a\u064e\u0648\u064e\u0627\u0631\u064e\u0649\u060c \u0648\u064e\u0627\u0644\u0652\u062d\u064e\u0645\u0652\u0642\u064e\u0649 \u064a\u064e\u0639\u0652\u0628\u064f\u0631\u064f\u0648\u0646\u064e \u0641\u064e\u064a\u064f\u0639\u064e\u0627\u0642\u064e\u0628\u064f\u0648\u0646\u064e."
        },
        {
            "chapter": 22,
            "verse": 4,
            "name": "Proverbs 22:4",
            "text": "\u062b\u064e\u0648\u064e\u0627\u0628\u064f \u0627\u0644\u062a\u064e\u0651\u0648\u064e\u0627\u0636\u064f\u0639\u0650 \u0648\u064e\u0645\u064e\u062e\u064e\u0627\u0641\u064e\u0629\u0650 \u0627\u0644\u0631\u064e\u0651\u0628\u0650\u0651 \u0647\u064f\u0648\u064e \u063a\u0650\u0646\u064b\u0649 \u0648\u064e\u0643\u064e\u0631\u064e\u0627\u0645\u064e\u0629\u064c \u0648\u064e\u062d\u064e\u064a\u064e\u0627\u0629\u064c."
        },
        {
            "chapter": 22,
            "verse": 5,
            "name": "Proverbs 22:5",
            "text": "\u0634\u064e\u0648\u0652\u0643\u064c \u0648\u064e\u0641\u064f\u062e\u064f\u0648\u062e\u064c \u0641\u0650\u064a \u0637\u064e\u0631\u0650\u064a\u0642\u0650 \u0627\u0644\u0652\u0645\u064f\u0644\u0652\u062a\u064e\u0648\u0650\u064a. \u0645\u064e\u0646\u0652 \u064a\u064e\u062d\u0652\u0641\u064e\u0638\u064f \u0646\u064e\u0641\u0652\u0633\u064e\u0647\u064f \u064a\u064e\u0628\u0652\u062a\u064e\u0639\u0650\u062f\u064f \u0639\u064e\u0646\u0652\u0647\u064e\u0627."
        },
        {
            "chapter": 22,
            "verse": 6,
            "name": "Proverbs 22:6",
            "text": "\u0631\u064e\u0628\u0650\u0651 \u0627\u0644\u0652\u0648\u064e\u0644\u064e\u062f\u064e \u0641\u0650\u064a \u0637\u064e\u0631\u0650\u064a\u0642\u0650\u0647\u0650\u060c \u0641\u064e\u0645\u064e\u062a\u064e\u0649 \u0634\u064e\u0627\u062e\u064e \u0623\u064e\u064a\u0652\u0636\u064b\u0627 \u0644\u0627\u064e \u064a\u064e\u062d\u0650\u064a\u062f\u064f \u0639\u064e\u0646\u0652\u0647\u064f."
        },
        {
            "chapter": 22,
            "verse": 7,
            "name": "Proverbs 22:7",
            "text": "\u0627\u064e\u0644\u0652\u063a\u064e\u0646\u0650\u064a\u064f\u0651 \u064a\u064e\u062a\u064e\u0633\u064e\u0644\u064e\u0651\u0637\u064f \u0639\u064e\u0644\u064e\u0649 \u0627\u0644\u0652\u0641\u064e\u0642\u0650\u064a\u0631\u0650\u060c \u0648\u064e\u0627\u0644\u0652\u0645\u064f\u0642\u0652\u062a\u064e\u0631\u0650\u0636\u064f \u0639\u064e\u0628\u0652\u062f\u064c \u0644\u0650\u0644\u0652\u0645\u064f\u0642\u0652\u0631\u0650\u0636\u0650."
        },
        {
            "chapter": 22,
            "verse": 8,
            "name": "Proverbs 22:8",
            "text": "\u0627\u0644\u0632\u064e\u0651\u0627\u0631\u0650\u0639\u064f \u0625\u0650\u062b\u0652\u0645\u064b\u0627 \u064a\u064e\u062d\u0652\u0635\u064f\u062f\u064f \u0628\u064e\u0644\u0650\u064a\u064e\u0651\u0629\u064b\u060c \u0648\u064e\u0639\u064e\u0635\u064e\u0627 \u0633\u064e\u062e\u064e\u0637\u0650\u0647\u0650 \u062a\u064e\u0641\u0652\u0646\u064e\u0649."
        },
        {
            "chapter": 22,
            "verse": 9,
            "name": "Proverbs 22:9",
            "text": "\u0627\u064e\u0644\u0635\u064e\u0651\u0627\u0644\u0650\u062d\u064f \u0627\u0644\u0652\u0639\u064e\u064a\u0652\u0646\u0650 \u0647\u064f\u0648\u064e \u064a\u064f\u0628\u064e\u0627\u0631\u064e\u0643\u064f\u060c \u0644\u0623\u064e\u0646\u064e\u0651\u0647\u064f \u064a\u064f\u0639\u0652\u0637\u0650\u064a \u0645\u0650\u0646\u0652 \u062e\u064f\u0628\u0652\u0632\u0650\u0647\u0650 \u0644\u0650\u0644\u0652\u0641\u064e\u0642\u0650\u064a\u0631\u0650.  "
        },
        {
            "chapter": 22,
            "verse": 10,
            "name": "Proverbs 22:10",
            "text": "\u0623\u064f\u0637\u0652\u0631\u064f\u062f\u0650 \u0627\u0644\u0652\u0645\u064f\u0633\u0652\u062a\u064e\u0647\u0652\u0632\u0650\u0626\u064e \u0641\u064e\u064a\u064e\u062e\u0652\u0631\u064f\u062c\u064e \u0627\u0644\u0652\u062e\u0650\u0635\u064e\u0627\u0645\u064f\u060c \u0648\u064e\u064a\u064e\u0628\u0652\u0637\u064f\u0644\u064e \u0627\u0644\u0646\u0650\u0651\u0632\u064e\u0627\u0639\u064f \u0648\u064e\u0627\u0644\u0652\u062e\u0650\u0632\u0652\u064a\u064f."
        },
        {
            "chapter": 22,
            "verse": 11,
            "name": "Proverbs 22:11",
            "text": "\u0645\u064e\u0646\u0652 \u0623\u064e\u062d\u064e\u0628\u064e\u0651 \u0637\u064e\u0647\u064e\u0627\u0631\u064e\u0629\u064e \u0627\u0644\u0652\u0642\u064e\u0644\u0652\u0628\u0650\u060c \u0641\u064e\u0644\u0650\u0646\u0650\u0639\u0652\u0645\u064e\u0629\u0650 \u0634\u064e\u0641\u064e\u062a\u064e\u064a\u0652\u0647\u0650 \u064a\u064e\u0643\u064f\u0648\u0646\u064f \u0627\u0644\u0652\u0645\u064e\u0644\u0650\u0643\u064f \u0635\u064e\u062f\u0650\u064a\u0642\u064e\u0647\u064f."
        },
        {
            "chapter": 22,
            "verse": 12,
            "name": "Proverbs 22:12",
            "text": "\u0639\u064e\u064a\u0652\u0646\u064e\u0627 \u0627\u0644\u0631\u064e\u0651\u0628\u0650\u0651 \u062a\u064e\u062d\u0652\u0641\u064e\u0638\u064e\u0627\u0646\u0650 \u0627\u0644\u0652\u0645\u064e\u0639\u0652\u0631\u0650\u0641\u064e\u0629\u064e\u060c \u0648\u064e\u0647\u064f\u0648\u064e \u064a\u064e\u0642\u0652\u0644\u0650\u0628\u064f \u0643\u064e\u0644\u0627\u064e\u0645\u064e \u0627\u0644\u0652\u063a\u064e\u0627\u062f\u0650\u0631\u0650\u064a\u0646\u064e."
        },
        {
            "chapter": 22,
            "verse": 13,
            "name": "Proverbs 22:13",
            "text": "\u0642\u064e\u0627\u0644\u064e \u0627\u0644\u0652\u0643\u064e\u0633\u0652\u0644\u0627\u064e\u0646\u064f: \u00ab\u0627\u0644\u0623\u064e\u0633\u064e\u062f\u064f \u0641\u0650\u064a \u0627\u0644\u0652\u062e\u064e\u0627\u0631\u0650\u062c\u0650\u060c \u0641\u064e\u0623\u064f\u0642\u0652\u062a\u064e\u0644\u064f \u0641\u0650\u064a \u0627\u0644\u0634\u064e\u0651\u0648\u064e\u0627\u0631\u0650\u0639\u0650!\u00bb."
        },
        {
            "chapter": 22,
            "verse": 14,
            "name": "Proverbs 22:14",
            "text": "\u0641\u064e\u0645\u064f \u0627\u0644\u0623\u064e\u062c\u0652\u0646\u064e\u0628\u0650\u064a\u064e\u0651\u0627\u062a\u0650 \u0647\u064f\u0648\u064e\u0651\u0629\u064c \u0639\u064e\u0645\u0650\u064a\u0642\u064e\u0629\u064c. \u0645\u064e\u0645\u0652\u0642\u064f\u0648\u062a\u064f \u0627\u0644\u0631\u064e\u0651\u0628\u0650\u0651 \u064a\u064e\u0633\u0652\u0642\u064f\u0637\u064f \u0641\u0650\u064a\u0647\u064e\u0627."
        },
        {
            "chapter": 22,
            "verse": 15,
            "name": "Proverbs 22:15",
            "text": "\u0627\u064e\u0644\u0652\u062c\u064e\u0647\u064e\u0627\u0644\u064e\u0629\u064f \u0645\u064f\u0631\u0652\u062a\u064e\u0628\u0650\u0637\u064e\u0629\u064c \u0628\u0650\u0642\u064e\u0644\u0652\u0628\u0650 \u0627\u0644\u0652\u0648\u064e\u0644\u064e\u062f\u0650. \u0639\u064e\u0635\u064e\u0627 \u0627\u0644\u062a\u064e\u0651\u0623\u0652\u062f\u0650\u064a\u0628\u0650 \u062a\u064f\u0628\u0652\u0639\u0650\u062f\u064f\u0647\u064e\u0627 \u0639\u064e\u0646\u0652\u0647\u064f."
        },
        {
            "chapter": 22,
            "verse": 16,
            "name": "Proverbs 22:16",
            "text": "\u0638\u064e\u0627\u0644\u0650\u0645\u064f \u0627\u0644\u0652\u0641\u064e\u0642\u0650\u064a\u0631\u0650 \u062a\u064e\u0643\u0652\u062b\u0650\u064a\u0631\u064b\u0627 \u0644\u0650\u0645\u064e\u0627 \u0644\u064e\u0647\u064f\u060c \u0648\u064e\u0645\u064f\u0639\u0652\u0637\u0650\u064a \u0627\u0644\u0652\u063a\u064e\u0646\u0650\u064a\u0650\u0651\u060c \u0625\u0650\u0646\u064e\u0651\u0645\u064e\u0627 \u0647\u064f\u0645\u064e\u0627 \u0644\u0650\u0644\u0652\u0639\u064e\u0648\u064e\u0632\u0650.  "
        },
        {
            "chapter": 22,
            "verse": 17,
            "name": "Proverbs 22:17",
            "text": "\u0623\u064e\u0645\u0650\u0644\u0652 \u0623\u064f\u0630\u0652\u0646\u064e\u0643\u064e \u0648\u064e\u0627\u0633\u0652\u0645\u064e\u0639\u0652 \u0643\u064e\u0644\u0627\u064e\u0645\u064e \u0627\u0644\u0652\u062d\u064f\u0643\u064e\u0645\u064e\u0627\u0621\u0650\u060c \u0648\u064e\u0648\u064e\u062c\u0650\u0651\u0647\u0652 \u0642\u064e\u0644\u0652\u0628\u064e\u0643\u064e \u0625\u0650\u0644\u064e\u0649 \u0645\u064e\u0639\u0652\u0631\u0650\u0641\u064e\u062a\u0650\u064a\u060c"
        },
        {
            "chapter": 22,
            "verse": 18,
            "name": "Proverbs 22:18",
            "text": "\u0644\u0623\u064e\u0646\u064e\u0651\u0647\u064f \u062d\u064e\u0633\u064e\u0646\u064c \u0625\u0650\u0646\u0652 \u062d\u064e\u0641\u0650\u0638\u0652\u062a\u064e\u0647\u064e\u0627 \u0641\u0650\u064a \u062c\u064e\u0648\u0652\u0641\u0650\u0643\u064e\u060c \u0625\u0650\u0646\u0652 \u062a\u064e\u062a\u064e\u062b\u064e\u0628\u064e\u0651\u062a\u0652 \u062c\u064e\u0645\u0650\u064a\u0639\u064b\u0627 \u0639\u064e\u0644\u064e\u0649 \u0634\u064e\u0641\u064e\u062a\u064e\u064a\u0652\u0643\u064e."
        },
        {
            "chapter": 22,
            "verse": 19,
            "name": "Proverbs 22:19",
            "text": "\u0644\u0650\u064a\u064e\u0643\u064f\u0648\u0646\u064e \u0627\u062a\u0650\u0651\u0643\u064e\u0627\u0644\u064f\u0643\u064e \u0639\u064e\u0644\u064e\u0649 \u0627\u0644\u0631\u064e\u0651\u0628\u0650\u0651\u060c \u0639\u064e\u0631\u064e\u0651\u0641\u0652\u062a\u064f\u0643\u064e \u0623\u064e\u0646\u0652\u062a\u064e \u0627\u0644\u0652\u064a\u064e\u0648\u0652\u0645\u064e."
        },
        {
            "chapter": 22,
            "verse": 20,
            "name": "Proverbs 22:20",
            "text": "\u0623\u064e\u0644\u064e\u0645\u0652 \u0623\u064e\u0643\u0652\u062a\u064f\u0628\u0652 \u0644\u064e\u0643\u064e \u0623\u064f\u0645\u064f\u0648\u0631\u064b\u0627 \u0634\u064e\u0631\u0650\u064a\u0641\u064e\u0629\u064b \u0645\u0650\u0646\u0652 \u062c\u0650\u0647\u064e\u0629\u0650 \u0645\u064f\u0624\u064e\u0627\u0645\u064e\u0631\u064e\u0629\u064d \u0648\u064e\u0645\u064e\u0639\u0652\u0631\u0650\u0641\u064e\u0629\u064d\u061f"
        },
        {
            "chapter": 22,
            "verse": 21,
            "name": "Proverbs 22:21",
            "text": "\u0644\u0623\u064f\u0639\u064e\u0644\u0650\u0651\u0645\u064e\u0643\u064e \u0642\u0650\u0633\u0652\u0637\u064e \u0643\u064e\u0644\u0627\u064e\u0645\u0650 \u0627\u0644\u0652\u062d\u064e\u0642\u0650\u0651\u060c \u0644\u0650\u062a\u064e\u0631\u064f\u062f\u064e\u0651 \u062c\u064e\u0648\u064e\u0627\u0628\u064e \u0627\u0644\u0652\u062d\u064e\u0642\u0650\u0651 \u0644\u0650\u0644\u064e\u0651\u0630\u0650\u064a\u0646\u064e \u0623\u064e\u0631\u0652\u0633\u064e\u0644\u064f\u0648\u0643\u064e.  "
        },
        {
            "chapter": 22,
            "verse": 22,
            "name": "Proverbs 22:22",
            "text": "\u0644\u0627\u064e \u062a\u064e\u0633\u0652\u0644\u064f\u0628\u0650 \u0627\u0644\u0652\u0641\u064e\u0642\u0650\u064a\u0631\u064e \u0644\u0650\u0643\u064e\u0648\u0652\u0646\u0650\u0647\u0650 \u0641\u064e\u0642\u0650\u064a\u0631\u064b\u0627\u060c \u0648\u064e\u0644\u0627\u064e \u062a\u064e\u0633\u0652\u062d\u064e\u0642\u0650 \u0627\u0644\u0652\u0645\u0650\u0633\u0652\u0643\u0650\u064a\u0646\u064e \u0641\u0650\u064a \u0627\u0644\u0652\u0628\u064e\u0627\u0628\u0650\u060c"
        },
        {
            "chapter": 22,
            "verse": 23,
            "name": "Proverbs 22:23",
            "text": "\u0644\u0623\u064e\u0646\u064e\u0651 \u0627\u0644\u0631\u064e\u0651\u0628\u064e\u0651 \u064a\u064f\u0642\u0650\u064a\u0645\u064f \u062f\u064e\u0639\u0652\u0648\u064e\u0627\u0647\u064f\u0645\u0652\u060c \u0648\u064e\u064a\u064e\u0633\u0652\u0644\u064f\u0628\u064f \u0633\u064e\u0627\u0644\u0650\u0628\u0650\u064a \u0623\u064e\u0646\u0652\u0641\u064f\u0633\u0650\u0647\u0650\u0645\u0652."
        },
        {
            "chapter": 22,
            "verse": 24,
            "name": "Proverbs 22:24",
            "text": "\u0644\u0627\u064e \u062a\u064e\u0633\u0652\u062a\u064e\u0635\u0652\u062d\u0650\u0628\u0652 \u063a\u064e\u0636\u064f\u0648\u0628\u064b\u0627\u060c \u0648\u064e\u0645\u064e\u0639\u064e \u0631\u064e\u062c\u064f\u0644 \u0633\u064e\u0627\u062e\u0650\u0637\u064d \u0644\u0627\u064e \u062a\u064e\u062c\u0650\u064a\u0621\u0652\u060c"
        },
        {
            "chapter": 22,
            "verse": 25,
            "name": "Proverbs 22:25",
            "text": "\u0644\u0650\u0626\u064e\u0644\u0627\u064e\u0651 \u062a\u064e\u0623\u0652\u0644\u064e\u0641\u064e \u0637\u064f\u0631\u064f\u0642\u064e\u0647\u064f\u060c \u0648\u064e\u062a\u064e\u0623\u0652\u062e\u064f\u0630\u064e \u0634\u064e\u0631\u064e\u0643\u064b\u0627 \u0625\u0650\u0644\u064e\u0649 \u0646\u064e\u0641\u0652\u0633\u0650\u0643\u064e."
        },
        {
            "chapter": 22,
            "verse": 26,
            "name": "Proverbs 22:26",
            "text": "\u0644\u0627\u064e \u062a\u064e\u0643\u064f\u0646\u0652 \u0645\u0650\u0646\u0652 \u0635\u064e\u0627\u0641\u0650\u0642\u0650\u064a \u0627\u0644\u0652\u0643\u064e\u0641\u0650\u0651\u060c \u0648\u064e\u0644\u0627\u064e \u0645\u0650\u0646\u0652 \u0636\u064e\u0627\u0645\u0650\u0646\u0650\u064a \u0627\u0644\u062f\u064f\u0651\u064a\u064f\u0648\u0646\u0650."
        },
        {
            "chapter": 22,
            "verse": 27,
            "name": "Proverbs 22:27",
            "text": "\u0625\u0650\u0646\u0652 \u0644\u064e\u0645\u0652 \u064a\u064e\u0643\u064f\u0646\u0652 \u0644\u064e\u0643\u064e \u0645\u064e\u0627 \u062a\u064e\u0641\u0650\u064a\u060c \u0641\u064e\u0644\u0650\u0645\u064e\u0627\u0630\u064e\u0627 \u064a\u064e\u0623\u0652\u062e\u064f\u0630\u064f \u0641\u0650\u0631\u064e\u0627\u0634\u064e\u0643\u064e \u0645\u0650\u0646\u0652 \u062a\u064e\u062d\u0652\u062a\u0650\u0643\u064e\u061f"
        },
        {
            "chapter": 22,
            "verse": 28,
            "name": "Proverbs 22:28",
            "text": "\u0644\u0627\u064e \u062a\u064e\u0646\u0652\u0642\u064f\u0644\u0650 \u0627\u0644\u062a\u064f\u0651\u062e\u0652\u0645\u064e \u0627\u0644\u0652\u0642\u064e\u062f\u0650\u064a\u0645\u064e \u0627\u0644\u064e\u0651\u0630\u0650\u064a \u0648\u064e\u0636\u064e\u0639\u064e\u0647\u064f \u0622\u0628\u064e\u0627\u0624\u064f\u0643\u064e."
        },
        {
            "chapter": 22,
            "verse": 29,
            "name": "Proverbs 22:29",
            "text": "\u0623\u064e\u0631\u064e\u0623\u064e\u064a\u0652\u062a\u064e \u0631\u064e\u062c\u064f\u0644\u0627\u064b \u0645\u064f\u062c\u0652\u062a\u064e\u0647\u0650\u062f\u064b\u0627 \u0641\u0650\u064a \u0639\u064e\u0645\u064e\u0644\u0650\u0647\u0650\u061f \u0623\u064e\u0645\u064e\u0627\u0645\u064e \u0627\u0644\u0652\u0645\u064f\u0644\u064f\u0648\u0643\u0650 \u064a\u064e\u0642\u0650\u0641\u064f. \u0644\u0627\u064e \u064a\u064e\u0642\u0650\u0641\u064f \u0623\u064e\u0645\u064e\u0627\u0645\u064e \u0627\u0644\u0631\u064e\u0651\u0639\u064e\u0627\u0639\u0650! "
        }
    ]
}