{
    "translation": "Petrus Canisius Translation",
    "abbreviation": "nlcanisius1939",
    "lang": "nl",
    "language": "Dutch",
    "direction": "LTR",
    "encoding": "UTF-8",
    "book_nr": 15,
    "book_name": "Ezra",
    "chapter": 1,
    "name": "Ezra 1",
    "verses": [
        {
            "chapter": 1,
            "verse": 1,
            "name": "Ezra 1:1",
            "text": "In het eerste jaar van Cyrus, koning van Perzi\u00eb, bewoog Jahweh de geest van Cyrus, den koning van Perzi\u00eb, om het woord in vervulling te doen gaan, dat Jahweh door de mond van Jeremias gesproken had. Daarom liet deze door heel zijn rijk mondeling en schriftelijk afkondigen: "
        },
        {
            "chapter": 1,
            "verse": 2,
            "name": "Ezra 1:2",
            "text": "Zo spreekt Cyrus, de koning van Perzi\u00eb! Jahweh, de God des hemels, heeft mij alle koninkrijken der aarde gegeven, en heeft mij bevolen, Hem een tempel te bouwen in Jerusalem van Juda. "
        },
        {
            "chapter": 1,
            "verse": 3,
            "name": "Ezra 1:3",
            "text": "Laat dus ieder van u, die tot zijn volk behoort, onder de schutse van zijn God naar Jerusalem in Juda trekken en het huis van Jahweh bouwen, Isra\u00ebls God; want Hij is de God, die in Jerusalem woont. "
        },
        {
            "chapter": 1,
            "verse": 4,
            "name": "Ezra 1:4",
            "text": "En al wie achterblijft, moet, waar hij ook toeft, de mensen, die uit zijn plaats vertrekken, een ondersteuning meegeven in zilver en goud, have en vee, behalve nog de offergaven voor het huis van God in Jerusalem. "
        },
        {
            "chapter": 1,
            "verse": 5,
            "name": "Ezra 1:5",
            "text": "Daarom maakten de familiehoofden van Juda en Benjamin, met de priesters, de levieten en allen, wier geest Jahweh daartoe had opgewekt, zich gereed, om op te trekken en het huis van Jahweh in Jerusalem te bouwen. "
        },
        {
            "chapter": 1,
            "verse": 6,
            "name": "Ezra 1:6",
            "text": "En allen, die in hun omgeving woonden, steunden hen zo goed mogelijk met zilver en goud, met have en vee, en gaven daarenboven nog allerlei kostbaarheden als offergift mee. "
        },
        {
            "chapter": 1,
            "verse": 7,
            "name": "Ezra 1:7",
            "text": "Bovendien liet koning Cyrus het vaatwerk van de tempel van Jahweh teruggeven, dat Nabukodonosor uit Jerusalem had weggevoerd en in de tempel van zijn god had geplaatst. "
        },
        {
            "chapter": 1,
            "verse": 8,
            "name": "Ezra 1:8",
            "text": "Cyrus, de koning van Perzi\u00eb, stelde het den schatmeester Mitredat ter hand, en deze droeg het aan Sjesjbassar, den vorst van Juda, over. "
        },
        {
            "chapter": 1,
            "verse": 9,
            "name": "Ezra 1:9",
            "text": "Ziehier het getal: dertig gouden en duizend zilveren kommen; negen en twintig offerpannen; "
        },
        {
            "chapter": 1,
            "verse": 10,
            "name": "Ezra 1:10",
            "text": "dertig gouden en tweeduizend vierhonderd en tien zilveren bekers; en duizend andere vaten. "
        },
        {
            "chapter": 1,
            "verse": 11,
            "name": "Ezra 1:11",
            "text": "Het hele getal gouden en zilveren vaten bedroeg vier en vijftighonderd. Dit alles nam Sjesjbassar mee, toen de ballingen wegtrokken van Babel naar Jerusalem.  "
        }
    ]
}