{
    "translation": "Luther (1545)",
    "abbreviation": "luther1545",
    "lang": "de",
    "language": "German",
    "direction": "LTR",
    "encoding": "UTF-8",
    "book_nr": 20,
    "book_name": "Spr\u00fcche",
    "chapter": 4,
    "name": "Spr\u00fcche 4",
    "verses": [
        {
            "chapter": 4,
            "verse": 1,
            "name": "Spr\u00fcche 4:1",
            "text": "H\u00f6ret, meine Kinder, die Zucht eures Vaters; merkt auf, da\u00df ihr lernet und klug werdet! "
        },
        {
            "chapter": 4,
            "verse": 2,
            "name": "Spr\u00fcche 4:2",
            "text": "Denn ich gebe euch eine gute Lehre; verlasset mein Gesetz nicht! "
        },
        {
            "chapter": 4,
            "verse": 3,
            "name": "Spr\u00fcche 4:3",
            "text": "Denn ich war meines Vaters Sohn, ein zarter und ein einiger vor meiner Mutter, "
        },
        {
            "chapter": 4,
            "verse": 4,
            "name": "Spr\u00fcche 4:4",
            "text": "und er lehrete mich und sprach: La\u00df dein Herz meine Worte aufnehmen; halte meine Gebote, so wirst du leben. "
        },
        {
            "chapter": 4,
            "verse": 5,
            "name": "Spr\u00fcche 4:5",
            "text": "Nimm an Weisheit, nimm an Verstand; vergi\u00df nicht und weiche nicht von der Rede meines Mundes! "
        },
        {
            "chapter": 4,
            "verse": 6,
            "name": "Spr\u00fcche 4:6",
            "text": "Verla\u00df sie nicht, so wird sie dich behalten; liebe sie, so wird sie dich beh\u00fcten. "
        },
        {
            "chapter": 4,
            "verse": 7,
            "name": "Spr\u00fcche 4:7",
            "text": "Denn der Weisheit Anfang ist, wenn man sie gerne h\u00f6ret und die Klugheit lieber hat denn alle G\u00fcter. "
        },
        {
            "chapter": 4,
            "verse": 8,
            "name": "Spr\u00fcche 4:8",
            "text": "Achte sie hoch, so wird sie dich erh\u00f6hen und wird dich zu Ehren machen, wo du sie herzest. "
        },
        {
            "chapter": 4,
            "verse": 9,
            "name": "Spr\u00fcche 4:9",
            "text": "Sie wird dein Haupt sch\u00f6n schm\u00fccken und wird dich zieren mit einer h\u00fcbschen Krone. "
        },
        {
            "chapter": 4,
            "verse": 10,
            "name": "Spr\u00fcche 4:10",
            "text": "So h\u00f6re, mein Kind, und nimm an meine Rede, so werden deiner Jahre viel werden. "
        },
        {
            "chapter": 4,
            "verse": 11,
            "name": "Spr\u00fcche 4:11",
            "text": "Ich will dich den Weg der Weisheit f\u00fchren, ich will dich auf rechter Bahn leiten, "
        },
        {
            "chapter": 4,
            "verse": 12,
            "name": "Spr\u00fcche 4:12",
            "text": "da\u00df, wenn du gehest, dein Gang dir nicht sauer werde, und wenn du l\u00e4ufst, da\u00df du dich nicht ansto\u00dfest. "
        },
        {
            "chapter": 4,
            "verse": 13,
            "name": "Spr\u00fcche 4:13",
            "text": "Fasse die Zucht, la\u00df nicht davon; bewahre sie, denn sie ist dein Leben. "
        },
        {
            "chapter": 4,
            "verse": 14,
            "name": "Spr\u00fcche 4:14",
            "text": "Komm nicht auf der Gottlosen Pfad und tritt nicht auf den Weg der B\u00f6sen. "
        },
        {
            "chapter": 4,
            "verse": 15,
            "name": "Spr\u00fcche 4:15",
            "text": "La\u00df ihn fahren und gehe nicht drinnen; weiche von ihm und gehe vor\u00fcber! "
        },
        {
            "chapter": 4,
            "verse": 16,
            "name": "Spr\u00fcche 4:16",
            "text": "Denn sie schlafen nicht, sie haben denn \u00fcbel getan; und sie ruhen nicht, sie haben denn Schaden getan. "
        },
        {
            "chapter": 4,
            "verse": 17,
            "name": "Spr\u00fcche 4:17",
            "text": "Denn sie n\u00e4hren sich von gottlosem Brot und trinken vom Wein des Frevels. "
        },
        {
            "chapter": 4,
            "verse": 18,
            "name": "Spr\u00fcche 4:18",
            "text": "Aber der Gerechten Pfad gl\u00e4nzet wie ein Licht, das da fortgeht, und leuchtet bis auf den vollen Tag. "
        },
        {
            "chapter": 4,
            "verse": 19,
            "name": "Spr\u00fcche 4:19",
            "text": "Der Gottlosen Weg aber ist wie Dunkel und wissen nicht, wo sie fallen werden. "
        },
        {
            "chapter": 4,
            "verse": 20,
            "name": "Spr\u00fcche 4:20",
            "text": "Mein Sohn, merke auf mein Wort und neige dein Ohr zu meiner Rede! "
        },
        {
            "chapter": 4,
            "verse": 21,
            "name": "Spr\u00fcche 4:21",
            "text": "La\u00df sie nicht von deinen Augen fahren; behalte sie in deinem Herzen! "
        },
        {
            "chapter": 4,
            "verse": 22,
            "name": "Spr\u00fcche 4:22",
            "text": "Denn sie sind das Leben denen, die sie finden, und gesund ihrem ganzen Leibe. "
        },
        {
            "chapter": 4,
            "verse": 23,
            "name": "Spr\u00fcche 4:23",
            "text": "Beh\u00fcte dein Herz mit allem Flei\u00df; denn daraus gehet das Leben. "
        },
        {
            "chapter": 4,
            "verse": 24,
            "name": "Spr\u00fcche 4:24",
            "text": "Tu von dir den verkehrten Mund und la\u00df das L\u00e4stermaul ferne von dir sein. "
        },
        {
            "chapter": 4,
            "verse": 25,
            "name": "Spr\u00fcche 4:25",
            "text": "La\u00df deine Augen stracks vor sich sehen und deine Augenlider richtig vor dir hinsehen. "
        },
        {
            "chapter": 4,
            "verse": 26,
            "name": "Spr\u00fcche 4:26",
            "text": "La\u00df deinen Fu\u00df gleich vor sich gehen, so gehest du gewi\u00df. "
        },
        {
            "chapter": 4,
            "verse": 27,
            "name": "Spr\u00fcche 4:27",
            "text": "Wanke weder zur Rechten noch zur Linken; wende deinen Fu\u00df vom B\u00f6sen!  "
        }
    ]
}