{
    "translation": "Bible in Pohnpeian language",
    "abbreviation": "pohnpeian",
    "lang": "pon",
    "language": "Pohnpeian",
    "direction": "LTR",
    "encoding": "UTF-8",
    "book_nr": 2,
    "book_name": "Exodus",
    "chapter": 35,
    "name": "Exodus 35",
    "verses": [
        {
            "chapter": 35,
            "verse": 1,
            "name": "Exodus 35:1",
            "text": "    Moses kapokonepene mehn Israel ko koaros oh patohwanohng irail, \u201cIet dahme KAUN-O ketin koasoanediong kumwail pwe kumwail en kapwaiada."
        },
        {
            "chapter": 35,
            "verse": 2,
            "name": "Exodus 35:2",
            "text": "Erein rahn weneu kumwail kak doadoahk, ahpw ni keisuhn rahno pahn wia rahn sarawi, rahn lapalap en kommoal me kasarawihong ie, KAUN-O. Mehmen me pahn doadoahk rahno pahn kamakamala."
        },
        {
            "chapter": 35,
            "verse": 3,
            "name": "Exodus 35:3",
            "text": "Kumwail sohte pahn pil saunda kisiniei nan imwamwail kan ni rahnen Sapad.\u201d   "
        },
        {
            "chapter": 35,
            "verse": 4,
            "name": "Exodus 35:4",
            "text": "     Moses patohwanohng mehn Israel ko koaros, \u201cIet dahme KAUN-O ketin koasoanehdi:"
        },
        {
            "chapter": 35,
            "verse": 5,
            "name": "Exodus 35:5",
            "text": "Kumwail en wia amwail kisakis ong KAUN-O. Koaros me nsenki en patohwanohng KAUN-O eh kisakis en kohl, silper de prons;"
        },
        {
            "chapter": 35,
            "verse": 6,
            "name": "Exodus 35:6",
            "text": "likou linen kaselel; wunen sihpw poh mei, ntahnmwel, oh weitahta; likou me wiawihkihda wunen kuht;"
        },
        {
            "chapter": 35,
            "verse": 7,
            "name": "Exodus 35:7",
            "text": "wunen sihpw wol me koaduh nan poh weitahta; kilin kou kaselel; tuhke akesia;"
        },
        {
            "chapter": 35,
            "verse": 8,
            "name": "Exodus 35:8",
            "text": "lehn lamp akan; soangen mehn doalo lehn kei oh warpwohmwahu;"
        },
        {
            "chapter": 35,
            "verse": 9,
            "name": "Exodus 35:9",
            "text": "karnelian oh kisin takai kesempwal teikan mehn kapwata ihpod en Samworo Lapalap oh kapwata perehpen mwaremware.   "
        },
        {
            "chapter": 35,
            "verse": 10,
            "name": "Exodus 35:10",
            "text": "     \u201cToundoadoahk saman koaros rehmwail en patohdo oh wiahda mehkoaros me KAUN-O ketin koasoanehdi:"
        },
        {
            "chapter": 35,
            "verse": 11,
            "name": "Exodus 35:11",
            "text": "Impwalo, pweine oh pwelengen masliki, metehn kateng kan, uhr kan, lohlo kan, lepin uhr kan oh poahsoane kan;"
        },
        {
            "chapter": 35,
            "verse": 12,
            "name": "Exodus 35:12",
            "text": "Kohpwahn Inowo, oh tuhkehn wisik kan, pweine, kahdeng kan me wia perehpe;"
        },
        {
            "chapter": 35,
            "verse": 13,
            "name": "Exodus 35:13",
            "text": "tehpelo iangahki tuhkehn wisik ko, oh dipwisou kan koaros, pilawa mehn meirong ong Koht;"
        },
        {
            "chapter": 35,
            "verse": 14,
            "name": "Exodus 35:14",
            "text": "dewen lampo iangahki dipwisawi kan, oh lamp akan iangahki leh kan;"
        },
        {
            "chapter": 35,
            "verse": 15,
            "name": "Exodus 35:15",
            "text": "pei sarawi en isik warpwohmwahu, iangahki tuhkehn wisik kan, oh lehn keio; warpwohmwahu; kahdeng en wenihmwen Impwalo;"
        },
        {
            "chapter": 35,
            "verse": 16,
            "name": "Exodus 35:16",
            "text": "pei sarawi en isik mehn meirong kan, iangahki pasapas en inihn pronso oh tuhkehn wisik kan oh dipwisawi kan; peisin en omwiomw oh kapio;"
        },
        {
            "chapter": 35,
            "verse": 17,
            "name": "Exodus 35:17",
            "text": "kahdeng en kehl iangahki lepin uhr kan oh poahsoane kan, kahdeng en wenihmwen kehlo;"
        },
        {
            "chapter": 35,
            "verse": 18,
            "name": "Exodus 35:18",
            "text": "kisin tuhkehn katenge Impwalo oh sahl akan, oh kehlo;"
        },
        {
            "chapter": 35,
            "verse": 19,
            "name": "Exodus 35:19",
            "text": "oh likou lingan akan me samworo kan pahn kin likawih ahnsoun ar papah nan Wasa Sarawio-likou sarawi kan en samworo Aaron oh nah pwutak kan.\u201d   "
        },
        {
            "chapter": 35,
            "verse": 20,
            "name": "Exodus 35:20",
            "text": "    Mehn Israel ko koaros ahpw mweselpeseng,"
        },
        {
            "chapter": 35,
            "verse": 21,
            "name": "Exodus 35:21",
            "text": "oh emenemen nin duwen me e nsenki ahpw patohwanohng KAUN-O eh meirong mehn wiahda Impwal me KAUN-O pahn kin ketiket loale. Re wahdo soahng koaros me anahnepe mie ong ni kaudok oh mehn wia likoun samworo kan."
        },
        {
            "chapter": 35,
            "verse": 22,
            "name": "Exodus 35:22",
            "text": "koaros me inengieng, ohl oh lih, ahpw wapene mehn kapwat kan, mehntiati kan, rihng kan, mwaramwar akan oh soangen kisintakai kesempwal kan me kohl wia oh kasarawihong KAUN-O."
        },
        {
            "chapter": 35,
            "verse": 23,
            "name": "Exodus 35:23",
            "text": "Koaros me mie arail likou linen kaselel; wunen sihpw me poh mei, ntahnmwel, oh weitahta; likou me wiawihda sang wunen kuht, wunen sihpw wol me koaduh nan poh weitahta; kilin kou kaselel, re wapene."
        },
        {
            "chapter": 35,
            "verse": 24,
            "name": "Exodus 35:24",
            "text": "Koaros me kak kihda silper de prons re pil meirongkihong KAUN-O, oh koaros me pil mie ar tuhke akesia me kak doadoahk, re pil wahdo."
        },
        {
            "chapter": 35,
            "verse": 25,
            "name": "Exodus 35:25",
            "text": "Lih saman koaros pil wapene dereht linen kaselel oh dereht me wiawihda sang ni wunen sihpw, me poh mei, weitahta, oh ntahnmwel."
        },
        {
            "chapter": 35,
            "verse": 26,
            "name": "Exodus 35:26",
            "text": "Re pil wiahda dereht sang ni wunen kuht."
        },
        {
            "chapter": 35,
            "verse": 27,
            "name": "Exodus 35:27",
            "text": "Kaun akan wapene karnelian oh kisintakai kesempwal teikan mehn kohieng ni likou ihpod oh ni perehpen mwaremware,"
        },
        {
            "chapter": 35,
            "verse": 28,
            "name": "Exodus 35:28",
            "text": "oh mehn wia lehn lamp akan, lehn kei oh warpwohmwahu."
        },
        {
            "chapter": 35,
            "verse": 29,
            "name": "Exodus 35:29",
            "text": "Mehn Israel koaros me men patohwando ar mehn meirong kan ong KAUN-O ong ni doadoahk me e ketin koasoanediong Moses en wia.   "
        },
        {
            "chapter": 35,
            "verse": 30,
            "name": "Exodus 35:30",
            "text": "     Moses eri patohwanohng mehn Israel ko, \u201cKAUN-O ketin piladahr Pesalel, nein Uri, nein Hur sang ni kadaudok en Suda."
        },
        {
            "chapter": 35,
            "verse": 31,
            "name": "Exodus 35:31",
            "text": "Koht ketin audehkidahr sapwellime manaman oh ketikihong koahiek oh saman oh dehdehki ni soangen doadoahk koaros en kalingan,"
        },
        {
            "chapter": 35,
            "verse": 32,
            "name": "Exodus 35:32",
            "text": "ong ni pilahnihada soangen mwahi kan oh ong wiepen soahng kan ni kohl, silper oh prons;"
        },
        {
            "chapter": 35,
            "verse": 33,
            "name": "Exodus 35:33",
            "text": "doadoahk en parada takai kesempwal akan; iangahki tuhke oh soangen doadoahk lingan teikan."
        },
        {
            "chapter": 35,
            "verse": 34,
            "name": "Exodus 35:34",
            "text": "KAUN-O ketikihong ih oh Oliap nein Aisamak, sang ni kadaudok en Dan, koahiek en padahkihong meteikan doadoahk saman pwukat."
        },
        {
            "chapter": 35,
            "verse": 35,
            "name": "Exodus 35:35",
            "text": "E ketikihong ira saman en doadoahk en parada dipwisou, pilahnihada oh dehkada likou linen kaselel; wunen sihpw poh mei, ntahnmwel, oh weitahta, soangen likou teikan. Irail kak wiahda soangen doadoahk koaros oh re inenen samanohng pilahnihada.   "
        }
    ]
}