{
    "translation": "Czech CEP",
    "abbreviation": "cep",
    "lang": "cs",
    "language": "Czech",
    "direction": "LTR",
    "encoding": "UTF-8",
    "book_nr": 1,
    "book_name": "Genesis",
    "chapter": 35,
    "name": "Genesis 35",
    "verses": [
        {
            "chapter": 35,
            "verse": 1,
            "name": "Genesis 35:1",
            "text": "I \u0159ekl B\u016fh J\u00e1kobovi: \"Vsta\u0148 a vystup do B\u00e9t-elu, usa\u010f se tam a ud\u011blej tam olt\u00e1\u0159 Bohu, kter\u00fd se ti uk\u00e1zal, kdy\u017e jsi prchal p\u0159ed sv\u00fdm bratrem Ezauem.\" "
        },
        {
            "chapter": 35,
            "verse": 2,
            "name": "Genesis 35:2",
            "text": "J\u00e1kob tedy \u0159ekl sv\u00e9mu domu i v\u0161em, kte\u0159\u00ed byli s n\u00edm: \"Zbavte se ciz\u00edch boh\u016f, kter\u00e9 m\u00e1te mezi sebou! O\u010dis\u0165te se, p\u0159evl\u00e9kn\u011bte si \u0161at, "
        },
        {
            "chapter": 35,
            "verse": 3,
            "name": "Genesis 35:3",
            "text": "budeme putovat do B\u00e9t-elu. Chci tam ud\u011blat olt\u00e1\u0159 Bohu, kter\u00fd mi odpov\u011bd\u011bl v den m\u00e9ho sou\u017een\u00ed a byl se mnou na cest\u011b, kterou jsem \u0161el.\" "
        },
        {
            "chapter": 35,
            "verse": 4,
            "name": "Genesis 35:4",
            "text": "Odevzdali tedy J\u00e1kobovi v\u0161echny ciz\u00ed b\u016f\u017eky, kter\u00e9 u sebe m\u011bli, i v\u0161echny n\u00e1u\u0161nice a J\u00e1kob je zakopal pod posv\u00e1tn\u00fdm stromem u \u0160ekemu. "
        },
        {
            "chapter": 35,
            "verse": 5,
            "name": "Genesis 35:5",
            "text": "Potom t\u00e1hli d\u00e1l. Na okoln\u00ed m\u011bsta padl d\u011bs Bo\u017e\u00ed; proto J\u00e1kobovy syny nepron\u00e1sledovali. "
        },
        {
            "chapter": 35,
            "verse": 6,
            "name": "Genesis 35:6",
            "text": "Tak p\u0159i\u0161el J\u00e1kob i v\u0161echen lid, kter\u00fd byl s n\u00edm, do L\u00fazu, to je do B\u00e9t-elu v zemi kenaansk\u00e9. "
        },
        {
            "chapter": 35,
            "verse": 7,
            "name": "Genesis 35:7",
            "text": "Tam vybudoval olt\u00e1\u0159 a vz\u00fdval na tom m\u00edst\u011b Boha B\u00e9t-elu, nebo\u0165 se mu tam zjevil s\u00e1m B\u016fh, kdy\u017e prchal p\u0159ed sv\u00fdm bratrem. "
        },
        {
            "chapter": 35,
            "verse": 8,
            "name": "Genesis 35:8",
            "text": "Zde zem\u0159ela Rebe\u010dina ch\u016fva Debora a byla pochov\u00e1na dole u B\u00e9t-elu pod posv\u00e1tn\u00fdm dubem, kter\u00fd pojmenoval Posv\u00e1tn\u00fd dub pl\u00e1\u010de. "
        },
        {
            "chapter": 35,
            "verse": 9,
            "name": "Genesis 35:9",
            "text": "I uk\u00e1zal se B\u016fh znovu J\u00e1kobovi, kdy\u017e p\u0159i\u0161el z Rovin aramsk\u00fdch, a po\u017eehnal mu "
        },
        {
            "chapter": 35,
            "verse": 10,
            "name": "Genesis 35:10",
            "text": "slovy: \"Tv\u00e9 jm\u00e9no bylo J\u00e1kob; u\u017e nebude\u0161 zv\u00e1n J\u00e1kob, tv\u00e9 jm\u00e9no bude Izrael.\" A dal mu jm\u00e9no Izrael. "
        },
        {
            "chapter": 35,
            "verse": 11,
            "name": "Genesis 35:11",
            "text": "D\u00e1le mu B\u016fh \u0159ekl: \"J\u00e1 jsem B\u016fh v\u0161emohouc\u00ed. Plo\u010f a mno\u017e se; vzejde z tebe n\u00e1rod a spole\u010denstv\u00ed pron\u00e1rod\u016f, i kr\u00e1lov\u00e9 vzejdou z tv\u00fdch beder. "
        },
        {
            "chapter": 35,
            "verse": 12,
            "name": "Genesis 35:12",
            "text": "Zemi, kterou jsem dal Abrahamovi a Iz\u00e1kovi, tu d\u00e1m tob\u011b; tv\u00e9mu potomstvu d\u00e1m tuto zemi.\" "
        },
        {
            "chapter": 35,
            "verse": 13,
            "name": "Genesis 35:13",
            "text": "Potom B\u016fh vystoupil od n\u011bho z toho m\u00edsta, kde s n\u00edm mluvil. "
        },
        {
            "chapter": 35,
            "verse": 14,
            "name": "Genesis 35:14",
            "text": "A J\u00e1kob na tom m\u00edst\u011b, kde s n\u00edm mluvil, postavil posv\u00e1tn\u00fd sloup, sloup kamenn\u00fd, a vykonal na n\u011bm \u00falitbu: polil jej svrchu olejem. "
        },
        {
            "chapter": 35,
            "verse": 15,
            "name": "Genesis 35:15",
            "text": "M\u00edstu, kde s n\u00edm mluvil B\u016fh, dal J\u00e1kob jm\u00e9no B\u00e9t-el. "
        },
        {
            "chapter": 35,
            "verse": 16,
            "name": "Genesis 35:16",
            "text": "Potom z B\u00e9t-elu odt\u00e1hli. A kdy\u017e u\u017e byli nedaleko Efraty, R\u00e1chel porodila; m\u011bla v\u0161ak t\u011b\u017ek\u00fd porod. "
        },
        {
            "chapter": 35,
            "verse": 17,
            "name": "Genesis 35:17",
            "text": "Kdy\u017e t\u011b\u017ece rodila, pravila j\u00ed porodn\u00ed b\u00e1ba: \"Neboj se, m\u00e1\u0161 zase syna!\" "
        },
        {
            "chapter": 35,
            "verse": 18,
            "name": "Genesis 35:18",
            "text": "Ve chv\u00edli, kdy um\u00edrala a \u017eivot z n\u00ed unikal, pojmenovala ho Ben-\u00f3ni (to je Syn m\u00e9ho zmaru), ale otec ho nazval Ben-jam\u00edn (to je Syn zdaru). "
        },
        {
            "chapter": 35,
            "verse": 19,
            "name": "Genesis 35:19",
            "text": "R\u00e1chel um\u0159ela a byla poh\u0159bena u cesty do Efraty, co\u017e je Betl\u00e9m. "
        },
        {
            "chapter": 35,
            "verse": 20,
            "name": "Genesis 35:20",
            "text": "J\u00e1kob nad jej\u00edm hrobem postavil pam\u011btn\u00ed sloup, a to je pam\u00e1tn\u00edk R\u00e1chelina hrobu a\u017e dodnes. "
        },
        {
            "chapter": 35,
            "verse": 21,
            "name": "Genesis 35:21",
            "text": "Potom t\u00e1hl Izrael d\u00e1l a postavil sv\u016fj stan opod\u00e1l Migdal-ederu. "
        },
        {
            "chapter": 35,
            "verse": 22,
            "name": "Genesis 35:22",
            "text": "Kdy\u017e Izrael p\u0159eb\u00fdval v on\u00e9 zemi, \u0161el R\u00faben a le\u017eel s \u017eeninou sv\u00e9ho otce Bilhou. Izrael se o tom doslechl... Syn\u016f J\u00e1kobov\u00fdch bylo dvan\u00e1ct. "
        },
        {
            "chapter": 35,
            "verse": 23,
            "name": "Genesis 35:23",
            "text": "Synov\u00e9 Lejini: R\u00faben, J\u00e1kob\u016fv prvorozen\u00fd, \u0160ime\u00f3n a L\u00e9vi, Juda, Isachar a Zabul\u00f3n. "
        },
        {
            "chapter": 35,
            "verse": 24,
            "name": "Genesis 35:24",
            "text": "Synov\u00e9 R\u00e1chelini: Josef a Benjam\u00edn. "
        },
        {
            "chapter": 35,
            "verse": 25,
            "name": "Genesis 35:25",
            "text": "Synov\u00e9 R\u00e1cheliny otrokyn\u011b Bilhy: Dan a Neftal\u00ed. "
        },
        {
            "chapter": 35,
            "verse": 26,
            "name": "Genesis 35:26",
            "text": "A synov\u00e9 Lejiny otrokyn\u011b Zilpy: G\u00e1d a A\u0161er. To jsou synov\u00e9 J\u00e1kobovi, kte\u0159\u00ed se mu narodili v Rovin\u00e1ch aramsk\u00fdch. "
        },
        {
            "chapter": 35,
            "verse": 27,
            "name": "Genesis 35:27",
            "text": "J\u00e1kob p\u0159i\u0161el k sv\u00e9mu otci Iz\u00e1kovi do Mamre, do Kirjat-arby, co\u017e je Chebr\u00f3n, kde Abraham a Iz\u00e1k pob\u00fdvali jako host\u00e9. "
        },
        {
            "chapter": 35,
            "verse": 28,
            "name": "Genesis 35:28",
            "text": "Iz\u00e1k se do\u017eil sto osmdes\u00e1ti let. "
        },
        {
            "chapter": 35,
            "verse": 29,
            "name": "Genesis 35:29",
            "text": "I zesnul Iz\u00e1k a zem\u0159el a byl p\u0159ipojen k sv\u00e9mu lidu, st\u00e1r a syt\u00fd dn\u016f. Jeho synov\u00e9 Ezau a J\u00e1kob ho pochovali.  "
        }
    ]
}