{
    "translation": "Czech CEP",
    "abbreviation": "cep",
    "lang": "cs",
    "language": "Czech",
    "direction": "LTR",
    "encoding": "UTF-8",
    "book_nr": 1,
    "book_name": "Genesis",
    "chapter": 44,
    "name": "Genesis 44",
    "verses": [
        {
            "chapter": 44,
            "verse": 1,
            "name": "Genesis 44:1",
            "text": "Josef pak p\u0159ik\u00e1zal spr\u00e1vci sv\u00e9ho domu: \"Napl\u0148 \u017eoky t\u011bch mu\u017e\u016f potravou, kolik jen budou moci un\u00e9st, a st\u0159\u00edbro ka\u017ed\u00e9ho z nich vlo\u017e navrch do jeho \u017eoku. "
        },
        {
            "chapter": 44,
            "verse": 2,
            "name": "Genesis 44:2",
            "text": "M\u016fj kalich, ten st\u0159\u00edbrn\u00fd, vlo\u017e navrch do \u017eoku nejmlad\u0161\u00edho spolu se st\u0159\u00edbrem za nakoupen\u00e9 obil\u00ed.\" I u\u010dinil, jak mu Josef ulo\u017eil. "
        },
        {
            "chapter": 44,
            "verse": 3,
            "name": "Genesis 44:3",
            "text": "R\u00e1no za sv\u00edt\u00e1n\u00ed byli ti mu\u017ei propu\u0161t\u011bni i se sv\u00fdmi osly. "
        },
        {
            "chapter": 44,
            "verse": 4,
            "name": "Genesis 44:4",
            "text": "Kdy\u017e vy\u0161li z m\u011bsta a nebyli je\u0161t\u011b daleko, \u0159ekl Josef spr\u00e1vci sv\u00e9ho domu: \"Pron\u00e1sleduj ty mu\u017ee. A\u017e je dostihne\u0161, \u0159ekni jim: \u00bbPro\u010d jste se za dobro odvd\u011b\u010dili zlem? "
        },
        {
            "chapter": 44,
            "verse": 5,
            "name": "Genesis 44:5",
            "text": "Co\u017e jste nevzali to, z \u010deho m\u016fj p\u00e1n pije a \u010deho pou\u017e\u00edv\u00e1 k v\u011b\u0161t\u011bn\u00ed? Zle jste se zachovali, \u017ee jste to ud\u011blali!\u00ab\" "
        },
        {
            "chapter": 44,
            "verse": 6,
            "name": "Genesis 44:6",
            "text": "Kdy\u017e je spr\u00e1vce dostihl, \u0159ekl jim ta slova. "
        },
        {
            "chapter": 44,
            "verse": 7,
            "name": "Genesis 44:7",
            "text": "Odv\u011btili mu: \"Pro\u010d mluv\u00ed m\u016fj p\u00e1n takov\u00e1 slova? Tvoji otroci jsou daleci toho, aby ud\u011blali n\u011bco takov\u00e9ho! "
        },
        {
            "chapter": 44,
            "verse": 8,
            "name": "Genesis 44:8",
            "text": "V\u017edy\u0165 st\u0159\u00edbro, kter\u00e9 jsme na\u0161li navrchu ve sv\u00fdch \u017eoc\u00edch, jsme ti p\u0159inesli ze zem\u011b kenaansk\u00e9 zp\u011bt. Jak bychom mohli ukr\u00e1st st\u0159\u00edbro nebo zlato z domu tv\u00e9ho p\u00e1na? "
        },
        {
            "chapter": 44,
            "verse": 9,
            "name": "Genesis 44:9",
            "text": "U koho z tv\u00fdch otrok\u016f se to najde, ten a\u0165 zem\u0159e a my se staneme otroky sv\u00e9ho p\u00e1na!\" "
        },
        {
            "chapter": 44,
            "verse": 10,
            "name": "Genesis 44:10",
            "text": "Spr\u00e1vce souhlasil: \"Dob\u0159e, a\u0165 je po va\u0161em. Ten, u koho se to najde, se stane m\u00fdm otrokem; vy budete bez viny.\" "
        },
        {
            "chapter": 44,
            "verse": 11,
            "name": "Genesis 44:11",
            "text": "Ka\u017ed\u00fd rychle slo\u017eil sv\u016fj \u017eok na zem a rozv\u00e1zal jej. "
        },
        {
            "chapter": 44,
            "verse": 12,
            "name": "Genesis 44:12",
            "text": "Nastala prohl\u00eddka; za\u010dala nejstar\u0161\u00edm a skon\u010dila u nejmlad\u0161\u00edho. Kalich se na\u0161el v \u017eoku Benjam\u00ednov\u011b. "
        },
        {
            "chapter": 44,
            "verse": 13,
            "name": "Genesis 44:13",
            "text": "Tu roztrhli sv\u016fj \u0161at, n\u00e1klad nalo\u017eili na osly a vr\u00e1tili se do m\u011bsta. "
        },
        {
            "chapter": 44,
            "verse": 14,
            "name": "Genesis 44:14",
            "text": "Tak p\u0159i\u0161el Juda se sv\u00fdmi bratry do Josefova domu. Josef tam je\u0161t\u011b byl; i padli p\u0159ed n\u00edm k zemi. "
        },
        {
            "chapter": 44,
            "verse": 15,
            "name": "Genesis 44:15",
            "text": "Josef se na n\u011b rozk\u0159ikl: \"Co jste to sp\u00e1chali za \u010din! Co\u017e nev\u00edte, \u017ee mu\u017e jako j\u00e1 v\u0161echno uhodne?\" "
        },
        {
            "chapter": 44,
            "verse": 16,
            "name": "Genesis 44:16",
            "text": "Juda odv\u011btil: \"Co m\u016f\u017eeme sv\u00e9mu p\u00e1nu \u0159\u00edci? Jak to omluv\u00edme? \u010c\u00edm se ospravedln\u00edme? S\u00e1m B\u016fh st\u00edh\u00e1 tv\u00e9 otroky za jejich provin\u011bn\u00ed. Te\u010f jsme otroky sv\u00e9ho p\u00e1na, my i ten, u n\u011bho\u017e se kalich na\u0161el.\" "
        },
        {
            "chapter": 44,
            "verse": 17,
            "name": "Genesis 44:17",
            "text": "Josef \u0159ekl: \"Takov\u00e9ho jedn\u00e1n\u00ed jsem dalek; m\u00fdm otrokem se stane jen ten, u n\u011bho\u017e se na\u0161el kalich, a vy odejd\u011bte v pokoji k sv\u00e9mu otci.\" "
        },
        {
            "chapter": 44,
            "verse": 18,
            "name": "Genesis 44:18",
            "text": "Juda k n\u011bmu p\u0159istoupil a \u0159ekl: \"Dovol, m\u016fj pane, aby tv\u016fj otrok sm\u011bl promluvit ke sv\u00e9mu p\u00e1nu. A\u0165 proti tv\u00e9mu otroku nevzplane tv\u016fj hn\u011bv. Ty jsi p\u0159ece jako s\u00e1m farao. "
        },
        {
            "chapter": 44,
            "verse": 19,
            "name": "Genesis 44:19",
            "text": "M\u016fj p\u00e1n se sv\u00fdch otrok\u016f vypt\u00e1val: \u00bbM\u00e1te je\u0161t\u011b otce nebo bratra?\u00ab "
        },
        {
            "chapter": 44,
            "verse": 20,
            "name": "Genesis 44:20",
            "text": "My jsme sv\u00e9mu p\u00e1nu odv\u011btili: \u00bbM\u00e1me je\u0161t\u011b star\u00e9ho otce a mal\u00e9ho hocha, kter\u00e9ho zplodil ve sv\u00e9m st\u00e1\u0159\u00ed. Jeho bratr je mrtev, z\u016fstal tedy po sv\u00e9 matce s\u00e1m; jeho otec jej miluje.\u00ab "
        },
        {
            "chapter": 44,
            "verse": 21,
            "name": "Genesis 44:21",
            "text": "Nato jsi sv\u00fdm otrok\u016fm \u0159ekl: \u00bbP\u0159ive\u010fte ho sem ke mn\u011b, chci ho vid\u011bt na vlastn\u00ed o\u010di.\u00ab "
        },
        {
            "chapter": 44,
            "verse": 22,
            "name": "Genesis 44:22",
            "text": "My jsme sv\u00e9mu p\u00e1nu odv\u011btili: \u00bbTen chlapec nem\u016f\u017ee sv\u00e9ho otce opustit. Opust\u00ed-li jej, otec zem\u0159e.\u00ab "
        },
        {
            "chapter": 44,
            "verse": 23,
            "name": "Genesis 44:23",
            "text": "Ale ty jsi sv\u00fdm otrok\u016fm \u0159ekl: \u00bbNep\u0159ijde-li sem s v\u00e1mi v\u00e1\u0161 nejmlad\u0161\u00ed bratr, nikdy nespat\u0159\u00edte mou tv\u00e1\u0159.\u00ab "
        },
        {
            "chapter": 44,
            "verse": 24,
            "name": "Genesis 44:24",
            "text": "Kdy\u017e jsme pak p\u0159i\u0161li k tv\u00e9mu otroku, m\u00e9mu otci, ozn\u00e1mili jsme mu slova m\u00e9ho p\u00e1na. "
        },
        {
            "chapter": 44,
            "verse": 25,
            "name": "Genesis 44:25",
            "text": "Pozd\u011bji n\u00e1\u0161 otec \u0159ekl: \u00bbNakupte n\u00e1m znovu trochu potravy!\u00ab "
        },
        {
            "chapter": 44,
            "verse": 26,
            "name": "Genesis 44:26",
            "text": "My jsme odv\u011btili: \u00bbNem\u016f\u017eeme tam sestoupit. Sestoup\u00edme tam jen tehdy, bude-li s n\u00e1mi n\u00e1\u0161 nejmlad\u0161\u00ed bratr. Tv\u00e1\u0159 toho mu\u017ee nespat\u0159\u00edme, nebude-li n\u00e1\u0161 nejmlad\u0161\u00ed bratr s n\u00e1mi.\u00ab "
        },
        {
            "chapter": 44,
            "verse": 27,
            "name": "Genesis 44:27",
            "text": "Tv\u016fj otrok, n\u00e1\u0161 otec, n\u00e1m \u0159ekl: \u00bbVy v\u00edte, \u017ee mi m\u00e1 \u017eena porodila dva syny. "
        },
        {
            "chapter": 44,
            "verse": 28,
            "name": "Genesis 44:28",
            "text": "Jeden mi ode\u0161el. Na\u0159\u00edkal jsem: Rozs\u00e1p\u00e1n je, rozs\u00e1p\u00e1n. U\u017e jsem ho nespat\u0159il. "
        },
        {
            "chapter": 44,
            "verse": 29,
            "name": "Genesis 44:29",
            "text": "Vezmete-li mi i tohoto a p\u0159ijde-li o \u017eivot, uval\u00edte na m\u00e9 \u0161ediny ne\u0161t\u011bst\u00ed a p\u0159ivedete m\u011b do podsv\u011bt\u00ed.\u00ab "
        },
        {
            "chapter": 44,
            "verse": 30,
            "name": "Genesis 44:30",
            "text": "Co te\u010f, a\u017e p\u0159ijdu k tv\u00e9mu otroku, sv\u00e9mu otci, a chlapec, na n\u011bm\u017e lp\u00ed celou svou du\u0161\u00ed, s n\u00e1mi nebude? "
        },
        {
            "chapter": 44,
            "verse": 31,
            "name": "Genesis 44:31",
            "text": "Jakmile spat\u0159\u00ed, \u017ee chlapec s n\u00e1mi nen\u00ed, um\u0159e. Tvoji otroci uval\u00ed \u017eal na \u0161ediny tv\u00e9ho otroka, na\u0161eho otce, a p\u0159ivedou ho do podsv\u011bt\u00ed. "
        },
        {
            "chapter": 44,
            "verse": 32,
            "name": "Genesis 44:32",
            "text": "Tv\u016fj otrok se za toho chlapce, aby ho otec pustil, zaru\u010dil takto: \u00bbNep\u0159ivedu-li ho k tob\u011b, proh\u0159e\u0161\u00edm se proti sv\u00e9mu otci na cel\u00fd \u017eivot.\u00ab "
        },
        {
            "chapter": 44,
            "verse": 33,
            "name": "Genesis 44:33",
            "text": "Proto dovol, aby tv\u016fj otrok z\u016fstal u sv\u00e9ho p\u00e1na v otroctv\u00ed nam\u00edsto tohoto chlapce, a chlapec a\u0165 sm\u00ed se sv\u00fdmi bratry odej\u00edt. "
        },
        {
            "chapter": 44,
            "verse": 34,
            "name": "Genesis 44:34",
            "text": "Jak bych mohl k sv\u00e9mu otci p\u0159ij\u00edt, kdyby chlapec nebyl se mnou? Co\u017e bych se mohl d\u00edvat na utrpen\u00ed, kter\u00e9 by m\u00e9ho otce postihlo?\"  "
        }
    ]
}