{
    "translation": "Ang Dating Biblia (1905)",
    "abbreviation": "tagalog",
    "lang": "tl",
    "language": "Tagalog",
    "direction": "LTR",
    "encoding": "UTF-8",
    "book_nr": 23,
    "book_name": "Isaiah",
    "chapter": 23,
    "name": "Isaiah 23",
    "verses": [
        {
            "chapter": 23,
            "verse": 1,
            "name": "Isaiah 23:1",
            "text": "Ang hula tungkol sa Tiro. Magsiangal kayo, kayong mga sasakyang dagat ng Tarsis; sapagka't nasira, na anopa't walang bahay, walang pasukan: mula sa lupain ng Chittim ay nahayag sa kanila."
        },
        {
            "chapter": 23,
            "verse": 2,
            "name": "Isaiah 23:2",
            "text": "Magsitahimik kayo, kayong mga nananahan sa baybayin; ikaw na pinasagana ng mga mangangalakal ng Sidon, na nagdaraan sa dagat."
        },
        {
            "chapter": 23,
            "verse": 3,
            "name": "Isaiah 23:3",
            "text": "At nasa baybayin ng malawak na tubig ang binhi ng Sihor, ang ani ng Nilo, naging kaniyang pakinabang; at siya'y naging pamilihan ng mga bansa."
        },
        {
            "chapter": 23,
            "verse": 4,
            "name": "Isaiah 23:4",
            "text": "Mahiya ka, O Sidon: sapagka't sinalita ng dagat, ng tanggulan ng dagat, na sinasabi, hindi ako nagdamdam, o nanganak man, o nagalaga man ako ng mga binata, o nagpalaki ng mga dalaga."
        },
        {
            "chapter": 23,
            "verse": 5,
            "name": "Isaiah 23:5",
            "text": "Pagka ang balita ay dumating sa Egipto, ay mamamanglaw silang mainam sa balita tungkol sa Tiro."
        },
        {
            "chapter": 23,
            "verse": 6,
            "name": "Isaiah 23:6",
            "text": "Mangagpatuloy kayo sa Tarsis: magsiangal kayo, kayong mga nananahan sa baybayin."
        },
        {
            "chapter": 23,
            "verse": 7,
            "name": "Isaiah 23:7",
            "text": "Ito baga ang inyong masayang bayan, na matanda na mula pa noong unang araw, na dinadala ng kaniyang mga paa sa malayo upang mangibang bayan?"
        },
        {
            "chapter": 23,
            "verse": 8,
            "name": "Isaiah 23:8",
            "text": "Sinong nagpanukala nito laban sa Tiro na siyang bayang nagpuputong, na ang mga manininda ay mga pangulo, na ang mga mangangalakal ay mararangal sa lupa."
        },
        {
            "chapter": 23,
            "verse": 9,
            "name": "Isaiah 23:9",
            "text": "Pinanukala ng Panginoon ng mga hukbo, upang hamakin ang kapalaluan ng buong kaluwalhatian, upang hiyain ang lahat na mararangal sa lupa?"
        },
        {
            "chapter": 23,
            "verse": 10,
            "name": "Isaiah 23:10",
            "text": "Magdaan ka sa iyong lupain na gaya ng Nilo, Oh anak na babae ng Tarsis; wala ka ng lakas."
        },
        {
            "chapter": 23,
            "verse": 11,
            "name": "Isaiah 23:11",
            "text": "Kaniyang iniunat ang kaniyang kamay sa dagat, kaniyang niyanig ang mga kaharian: ang Panginoon ay nagutos tungkol sa Canaan, upang gibain ang mga kuta niyaon."
        },
        {
            "chapter": 23,
            "verse": 12,
            "name": "Isaiah 23:12",
            "text": "At kaniyang sinabi, Ikaw ay hindi na magagalak pa, Oh ikaw na aping dalaga ng Sidon; bumangon ka, magdaan ka sa Chittim: doon ma'y hindi ka magkakaroon ng kapahingahan."
        },
        {
            "chapter": 23,
            "verse": 13,
            "name": "Isaiah 23:13",
            "text": "Tingnan mo ang lupain ng mga Caldeo; ang bayang ito ay wala na; inilaan ng taga Asiria para sa mga hayop sa ilang; kanilang itinayo ang kanilang mga moog; iginiba nila ang mga palacio niyaon: kaniyang pinapaging isang guho."
        },
        {
            "chapter": 23,
            "verse": 14,
            "name": "Isaiah 23:14",
            "text": "Magsiangal kayo, kayong mga sasakyang dagat ng Tarsis: sapagka't ang inyong tanggulan ay giba."
        },
        {
            "chapter": 23,
            "verse": 15,
            "name": "Isaiah 23:15",
            "text": "At mangyayari, sa araw na yaon na ang Tiro ay malilimutang pitong pung taon, ayon sa mga kaarawan ng isang hari: pagkatapos ng pitong pung taon ay mangyayari sa Tiro ang gaya sa awit ng patutot."
        },
        {
            "chapter": 23,
            "verse": 16,
            "name": "Isaiah 23:16",
            "text": "Ikaw ay humawak ng alpa, lumibot ka sa bayan, ikaw na patutot na nalimutan; magpainam ka ng tinig, umawit ka ng maraming awit, upang ikaw ay maalaala."
        },
        {
            "chapter": 23,
            "verse": 17,
            "name": "Isaiah 23:17",
            "text": "At mangyayari, sa katapusan ng pitong pung taon, na dadalawin ng Panginoon ang Tiro, at pagbabalikan niya ang kaniyang upa, at magiging patutot sa lahat ng kaharian ng sanglibutan sa ibabaw ng lupa."
        },
        {
            "chapter": 23,
            "verse": 18,
            "name": "Isaiah 23:18",
            "text": "At ang kaniyang kalakal at ang upa sa kaniya ay itatalaga sa Panginoon: hindi itatago o isisimpan man, sapagka't ang kaniyang kalakal ay magiging sa ganang kanila na nagsisitahan sa harap ng Panginoon, upang magsikaing may kabusugan, at manamit na mainam."
        }
    ]
}