{
    "translation": "Douay Rheims",
    "abbreviation": "douayrheims",
    "lang": "en",
    "language": "English",
    "direction": "LTR",
    "encoding": "",
    "book_nr": 2,
    "book_name": "Exodus",
    "chapter": 25,
    "name": "Exodus 25",
    "verses": [
        {
            "chapter": 25,
            "verse": 1,
            "name": "Exodus 25:1",
            "text": "And the Lord spoke to Moses, saying:"
        },
        {
            "chapter": 25,
            "verse": 2,
            "name": "Exodus 25:2",
            "text": "Speak to the children of Israel, that they bring firstfruits to me: of every man that offereth of his own accord, you shall take them."
        },
        {
            "chapter": 25,
            "verse": 3,
            "name": "Exodus 25:3",
            "text": "And these are the things you must take: Gold, and silver, and brass,"
        },
        {
            "chapter": 25,
            "verse": 4,
            "name": "Exodus 25:4",
            "text": "Violet and purple, and scarlet twice dyed, and fine linen, and goats' hair,"
        },
        {
            "chapter": 25,
            "verse": 5,
            "name": "Exodus 25:5",
            "text": "And rams' skins dyed red, and violet skins, and setim wood:"
        },
        {
            "chapter": 25,
            "verse": 6,
            "name": "Exodus 25:6",
            "text": "Oil to make lights: spices for ointment, and for sweetsmelling incense:"
        },
        {
            "chapter": 25,
            "verse": 7,
            "name": "Exodus 25:7",
            "text": "Onyx stones, and precious stones to adorn the ephod and the rational."
        },
        {
            "chapter": 25,
            "verse": 8,
            "name": "Exodus 25:8",
            "text": "And they shall make me a sanctuary, and I will dwell in the midst of them:"
        },
        {
            "chapter": 25,
            "verse": 9,
            "name": "Exodus 25:9",
            "text": "According to all the likeness of the tabernacle which I will shew thee, and of all the vessels for the service thereof: and thus you shall make it:"
        },
        {
            "chapter": 25,
            "verse": 10,
            "name": "Exodus 25:10",
            "text": "Frame an ark of setim wood, the length whereof shall be of two cubits and a half; the breadth, a cubit and a half; the height, likewise, a cubit and a half."
        },
        {
            "chapter": 25,
            "verse": 11,
            "name": "Exodus 25:11",
            "text": "And thou shalt overlay it with the purest gold, within and without; and over it thou shalt make a golden crown round about:"
        },
        {
            "chapter": 25,
            "verse": 12,
            "name": "Exodus 25:12",
            "text": "And four golden rings, which thou shalt put at the four corners of the ark: let two rings be on the one side, and two on the other."
        },
        {
            "chapter": 25,
            "verse": 13,
            "name": "Exodus 25:13",
            "text": "Thou shalt make bars also of setim wood, and shalt overlay them with gold."
        },
        {
            "chapter": 25,
            "verse": 14,
            "name": "Exodus 25:14",
            "text": "And thou shalt put them in through the rings that are in the sides of the ark, that it may be carried on them:"
        },
        {
            "chapter": 25,
            "verse": 15,
            "name": "Exodus 25:15",
            "text": "And they shall be always in the rings, neither shall they at any time be drawn out of them."
        },
        {
            "chapter": 25,
            "verse": 16,
            "name": "Exodus 25:16",
            "text": "And thou shalt put in the ark the testimony which I will give thee."
        },
        {
            "chapter": 25,
            "verse": 17,
            "name": "Exodus 25:17",
            "text": "Thou shalt make also a propitiatory of the purest gold: the length thereof shall be two cubits and a half, and the breadth a cubit and a half."
        },
        {
            "chapter": 25,
            "verse": 18,
            "name": "Exodus 25:18",
            "text": "Thou shalt make also two cherubims of beaten gold, on the two sides of the oracle."
        },
        {
            "chapter": 25,
            "verse": 19,
            "name": "Exodus 25:19",
            "text": "Let one cherub be on the one side, and the other on the other."
        },
        {
            "chapter": 25,
            "verse": 20,
            "name": "Exodus 25:20",
            "text": "Let them cover both sides of the propitiatory, spreading their wings, and covering the oracle, and let them look one towards the other, their faces being turned towards the propitiatory wherewith the ark is to be covered."
        },
        {
            "chapter": 25,
            "verse": 21,
            "name": "Exodus 25:21",
            "text": "In which thou shalt put the testimony that I will give thee."
        },
        {
            "chapter": 25,
            "verse": 22,
            "name": "Exodus 25:22",
            "text": "Thence will I give orders, and will speak to thee over the propitiatory, and from the midst of the two cherubims, which shall be upon the ark of the testimony, all things which I will command the children of Israel by thee."
        },
        {
            "chapter": 25,
            "verse": 23,
            "name": "Exodus 25:23",
            "text": "Thou shalt make a table also of setim wood, of two cubits in length, and a cubit in breadth, and a cubit and a half in height."
        },
        {
            "chapter": 25,
            "verse": 24,
            "name": "Exodus 25:24",
            "text": "And thou shalt overlay it with the purest gold: and thou shalt make to it a golden ledge round about."
        },
        {
            "chapter": 25,
            "verse": 25,
            "name": "Exodus 25:25",
            "text": "And to the ledge itself a polished crown, four inches high; and over the same another little golden crown."
        },
        {
            "chapter": 25,
            "verse": 26,
            "name": "Exodus 25:26",
            "text": "Thou shalt prepare also four golden rings, and shalt put them in the four corners of the same table, over each foot."
        },
        {
            "chapter": 25,
            "verse": 27,
            "name": "Exodus 25:27",
            "text": "Under the crown shall the golden rings be, that the bars may be put through them, and the table may be carried."
        },
        {
            "chapter": 25,
            "verse": 28,
            "name": "Exodus 25:28",
            "text": "The bars also themselves thou shalt make of setim wood, and shalt overlay them with gold, to bear up the table."
        },
        {
            "chapter": 25,
            "verse": 29,
            "name": "Exodus 25:29",
            "text": "Thou shalt prepare also dishes, and bowls, censers, and cups, wherein the libations are to be offered, of the purest gold."
        },
        {
            "chapter": 25,
            "verse": 30,
            "name": "Exodus 25:30",
            "text": "And thou shalt set upon the table loaves of proposition in my sight always."
        },
        {
            "chapter": 25,
            "verse": 31,
            "name": "Exodus 25:31",
            "text": "Thou shalt make also a candlestick of beaten work, of the finest gold, the shaft thereof, and the branches, the cups, and the bowls, and the lilies going forth from it."
        },
        {
            "chapter": 25,
            "verse": 32,
            "name": "Exodus 25:32",
            "text": "Six branches shall come out of the sides, three out of one side, and three out of the other."
        },
        {
            "chapter": 25,
            "verse": 33,
            "name": "Exodus 25:33",
            "text": "Three cups as it were nuts to every branch, and a bowl withal, and a lily: and three cups likewise of the fashion of nuts in the other branch, and a bowl withal, and a lily. Such shall be the work of the six branches, that are to come out from the shaft:"
        },
        {
            "chapter": 25,
            "verse": 34,
            "name": "Exodus 25:34",
            "text": "And in the candlestick itself shall be four cups in the manner of a nut, and at every one bowls and lilies."
        },
        {
            "chapter": 25,
            "verse": 35,
            "name": "Exodus 25:35",
            "text": "Bowls under two branches in three places, which together make six, coming forth out of one shaft."
        },
        {
            "chapter": 25,
            "verse": 36,
            "name": "Exodus 25:36",
            "text": "And both the bowls and the branches shall be of the same beaten work of the purest gold."
        },
        {
            "chapter": 25,
            "verse": 37,
            "name": "Exodus 25:37",
            "text": "Thou shalt make also seven lamps, and shalt set them upon the candlestick, to give light over against."
        },
        {
            "chapter": 25,
            "verse": 38,
            "name": "Exodus 25:38",
            "text": "The snuffers also, and where the snuffings shall be put out, shall be made of the purest gold."
        },
        {
            "chapter": 25,
            "verse": 39,
            "name": "Exodus 25:39",
            "text": "The whole weight of the candlestick, with all the furniture thereof, shall be a talent of the purest gold."
        },
        {
            "chapter": 25,
            "verse": 40,
            "name": "Exodus 25:40",
            "text": "Look, and make it according to the pattern that was shewn thee in the mount. "
        }
    ]
}