{
    "translation": "New English Translation text only with footnote markers",
    "abbreviation": "nettext",
    "lang": "en",
    "language": "English",
    "direction": "LTR",
    "encoding": "UTF-8",
    "book_nr": 26,
    "book_name": "Ezekiel",
    "chapter": 25,
    "name": "Ezekiel 25",
    "verses": [
        {
            "chapter": 25,
            "verse": 1,
            "name": "Ezekiel 25:1",
            "text": "The word of the LORD came to me:"
        },
        {
            "chapter": 25,
            "verse": 2,
            "name": "Ezekiel 25:2",
            "text": "\"Son of man, turn toward the Ammonites and prophesy against them."
        },
        {
            "chapter": 25,
            "verse": 3,
            "name": "Ezekiel 25:3",
            "text": "Say to the Ammonites, 'Hear the word of the sovereign LORD: This is what the sovereign LORD says: You said \"Aha!\" about my sanctuary when it was desecrated, about the land of Israel when it was made desolate, and about the house of Judah when they went into exile."
        },
        {
            "chapter": 25,
            "verse": 4,
            "name": "Ezekiel 25:4",
            "text": "So take note, I am about to make you slaves of the tribes of the east. They will make camps among you and pitch their tents among you. They will eat your fruit and drink your milk."
        },
        {
            "chapter": 25,
            "verse": 5,
            "name": "Ezekiel 25:5",
            "text": "I will make Rabbah a pasture for camels and Ammon a resting place for sheep. Then you will know that I am the LORD."
        },
        {
            "chapter": 25,
            "verse": 6,
            "name": "Ezekiel 25:6",
            "text": "For this is what the sovereign LORD says: Because you clapped your hands, stamped your feet, and rejoiced with intense scorn over the land of Israel,"
        },
        {
            "chapter": 25,
            "verse": 7,
            "name": "Ezekiel 25:7",
            "text": "take note, I have stretched out my hand against you, and I will hand you over as plunder to the nations. I will cut you off from the peoples and make you perish from the lands. I will destroy you; then you will know that I am the LORD.'\" "
        },
        {
            "chapter": 25,
            "verse": 8,
            "name": "Ezekiel 25:8",
            "text": "\"This is what the sovereign LORD says: 'Moab and Seir say, \"Look, the house of Judah is like all the other nations.\""
        },
        {
            "chapter": 25,
            "verse": 9,
            "name": "Ezekiel 25:9",
            "text": "So look, I am about to open up Moab's flank, eliminating the cities, including its frontier cities, the beauty of the land - Beth Jeshimoth, Baal Meon, and Kiriathaim."
        },
        {
            "chapter": 25,
            "verse": 10,
            "name": "Ezekiel 25:10",
            "text": "I will hand it over, along with the Ammonites, to the tribes of the east, so that the Ammonites will no longer be remembered among the nations."
        },
        {
            "chapter": 25,
            "verse": 11,
            "name": "Ezekiel 25:11",
            "text": "I will execute judgments against Moab. Then they will know that I am the LORD.'\""
        },
        {
            "chapter": 25,
            "verse": 12,
            "name": "Ezekiel 25:12",
            "text": "\"This is what the sovereign LORD says: 'Edom has taken vengeance against the house of Judah; they have made themselves fully culpable by taking vengeance on them."
        },
        {
            "chapter": 25,
            "verse": 13,
            "name": "Ezekiel 25:13",
            "text": "So this is what the sovereign LORD says: I will stretch out my hand against Edom, and I will kill the people and animals within her, and I will make her desolate; from Teman to Dedan they will die by the sword."
        },
        {
            "chapter": 25,
            "verse": 14,
            "name": "Ezekiel 25:14",
            "text": "I will exact my vengeance upon Edom by the hand of my people Israel. They will carry out in Edom my anger and rage; they will experience my vengeance, declares the sovereign LORD.'\""
        },
        {
            "chapter": 25,
            "verse": 15,
            "name": "Ezekiel 25:15",
            "text": "\"This is what the sovereign LORD says: 'The Philistines have exacted merciless revenge, showing intense scorn in their effort to destroy Judah with unrelenting hostility."
        },
        {
            "chapter": 25,
            "verse": 16,
            "name": "Ezekiel 25:16",
            "text": "So this is what the sovereign LORD says: Take note, I am about to stretch out my hand against the Philistines. I will kill the Cherethites and destroy those who remain on the seacoast."
        },
        {
            "chapter": 25,
            "verse": 17,
            "name": "Ezekiel 25:17",
            "text": "I will exact great vengeance upon them with angry rebukes. Then they will know that I am the LORD, when I exact my vengeance upon them.'\" </div>"
        }
    ]
}