{
    "translation": "Dead Sea Scrolls variants parallel to the Samaritan Pentateuch",
    "abbreviation": "spdss",
    "lang": "he",
    "language": "Hebrew",
    "direction": "RTL",
    "encoding": "UTF-8",
    "book_nr": 20,
    "book_name": "Proverbs",
    "chapter": 15,
    "name": "Proverbs 15",
    "verses": [
        {
            "chapter": 15,
            "verse": 1,
            "name": "Proverbs 15:1",
            "text": ""
        },
        {
            "chapter": 15,
            "verse": 2,
            "name": "Proverbs 15:2",
            "text": ""
        },
        {
            "chapter": 15,
            "verse": 3,
            "name": "Proverbs 15:3",
            "text": ""
        },
        {
            "chapter": 15,
            "verse": 4,
            "name": "Proverbs 15:4",
            "text": ""
        },
        {
            "chapter": 15,
            "verse": 5,
            "name": "Proverbs 15:5",
            "text": ""
        },
        {
            "chapter": 15,
            "verse": 6,
            "name": "Proverbs 15:6",
            "text": ""
        },
        {
            "chapter": 15,
            "verse": 7,
            "name": "Proverbs 15:7",
            "text": ""
        },
        {
            "chapter": 15,
            "verse": 8,
            "name": "Proverbs 15:8",
            "text": ""
        },
        {
            "chapter": 15,
            "verse": 9,
            "name": "Proverbs 15:9",
            "text": ""
        },
        {
            "chapter": 15,
            "verse": 10,
            "name": "Proverbs 15:10",
            "text": ""
        },
        {
            "chapter": 15,
            "verse": 11,
            "name": "Proverbs 15:11",
            "text": ""
        },
        {
            "chapter": 15,
            "verse": 12,
            "name": "Proverbs 15:12",
            "text": ""
        },
        {
            "chapter": 15,
            "verse": 13,
            "name": "Proverbs 15:13",
            "text": ""
        },
        {
            "chapter": 15,
            "verse": 14,
            "name": "Proverbs 15:14",
            "text": ""
        },
        {
            "chapter": 15,
            "verse": 15,
            "name": "Proverbs 15:15",
            "text": ""
        },
        {
            "chapter": 15,
            "verse": 16,
            "name": "Proverbs 15:16",
            "text": ""
        },
        {
            "chapter": 15,
            "verse": 17,
            "name": "Proverbs 15:17",
            "text": ""
        },
        {
            "chapter": 15,
            "verse": 18,
            "name": "Proverbs 15:18",
            "text": ""
        },
        {
            "chapter": 15,
            "verse": 19,
            "name": "Proverbs 15:19",
            "text": ""
        },
        {
            "chapter": 15,
            "verse": 20,
            "name": "Proverbs 15:20",
            "text": ""
        },
        {
            "chapter": 15,
            "verse": 21,
            "name": "Proverbs 15:21",
            "text": ""
        },
        {
            "chapter": 15,
            "verse": 22,
            "name": "Proverbs 15:22",
            "text": ""
        },
        {
            "chapter": 15,
            "verse": 23,
            "name": "Proverbs 15:23",
            "text": ""
        },
        {
            "chapter": 15,
            "verse": 24,
            "name": "Proverbs 15:24",
            "text": ""
        },
        {
            "chapter": 15,
            "verse": 25,
            "name": "Proverbs 15:25",
            "text": ""
        },
        {
            "chapter": 15,
            "verse": 26,
            "name": "Proverbs 15:26",
            "text": ""
        },
        {
            "chapter": 15,
            "verse": 27,
            "name": "Proverbs 15:27",
            "text": ""
        },
        {
            "chapter": 15,
            "verse": 28,
            "name": "Proverbs 15:28",
            "text": ""
        },
        {
            "chapter": 15,
            "verse": 29,
            "name": "Proverbs 15:29",
            "text": ""
        },
        {
            "chapter": 15,
            "verse": 30,
            "name": "Proverbs 15:30",
            "text": ""
        },
        {
            "chapter": 15,
            "verse": 31,
            "name": "Proverbs 15:31",
            "text": ""
        },
        {
            "chapter": 15,
            "verse": 32,
            "name": "Proverbs 15:32",
            "text": ""
        },
        {
            "chapter": 15,
            "verse": 33,
            "name": "Proverbs 15:33",
            "text": ""
        }
    ]
}