{
    "translation": "Japanese Denmo \u96fb\u7db2\u8056\u66f8",
    "abbreviation": "japdenmo",
    "lang": "ja",
    "language": "Japanese",
    "direction": "LTR",
    "encoding": "UTF-8",
    "book_nr": 51,
    "book_name": "Colossians",
    "chapter": 2,
    "name": "Colossians 2",
    "verses": [
        {
            "chapter": 2,
            "verse": 1,
            "name": "Colossians 2:1",
            "text": ""
        },
        {
            "chapter": 2,
            "verse": 2,
            "name": "Colossians 2:2",
            "text": ""
        },
        {
            "chapter": 2,
            "verse": 3,
            "name": "Colossians 2:3",
            "text": ""
        },
        {
            "chapter": 2,
            "verse": 4,
            "name": "Colossians 2:4",
            "text": ""
        },
        {
            "chapter": 2,
            "verse": 5,
            "name": "Colossians 2:5",
            "text": ""
        },
        {
            "chapter": 2,
            "verse": 6,
            "name": "Colossians 2:6",
            "text": ""
        },
        {
            "chapter": 2,
            "verse": 7,
            "name": "Colossians 2:7",
            "text": ""
        },
        {
            "chapter": 2,
            "verse": 8,
            "name": "Colossians 2:8",
            "text": ""
        },
        {
            "chapter": 2,
            "verse": 9,
            "name": "Colossians 2:9",
            "text": ""
        },
        {
            "chapter": 2,
            "verse": 10,
            "name": "Colossians 2:10",
            "text": ""
        },
        {
            "chapter": 2,
            "verse": 11,
            "name": "Colossians 2:11",
            "text": ""
        },
        {
            "chapter": 2,
            "verse": 12,
            "name": "Colossians 2:12",
            "text": ""
        },
        {
            "chapter": 2,
            "verse": 13,
            "name": "Colossians 2:13",
            "text": ""
        },
        {
            "chapter": 2,
            "verse": 14,
            "name": "Colossians 2:14",
            "text": ""
        },
        {
            "chapter": 2,
            "verse": 15,
            "name": "Colossians 2:15",
            "text": ""
        },
        {
            "chapter": 2,
            "verse": 16,
            "name": "Colossians 2:16",
            "text": ""
        },
        {
            "chapter": 2,
            "verse": 17,
            "name": "Colossians 2:17",
            "text": ""
        },
        {
            "chapter": 2,
            "verse": 18,
            "name": "Colossians 2:18",
            "text": ""
        },
        {
            "chapter": 2,
            "verse": 19,
            "name": "Colossians 2:19",
            "text": ""
        },
        {
            "chapter": 2,
            "verse": 20,
            "name": "Colossians 2:20",
            "text": ""
        },
        {
            "chapter": 2,
            "verse": 21,
            "name": "Colossians 2:21",
            "text": ""
        },
        {
            "chapter": 2,
            "verse": 22,
            "name": "Colossians 2:22",
            "text": ""
        },
        {
            "chapter": 2,
            "verse": 23,
            "name": "Colossians 2:23",
            "text": ""
        }
    ]
}