{
    "translation": "Bible in Pohnpeian language",
    "abbreviation": "pohnpeian",
    "lang": "pon",
    "language": "Pohnpeian",
    "direction": "LTR",
    "encoding": "UTF-8",
    "book_nr": 66,
    "book_name": "Revelation of John",
    "chapter": 12,
    "name": "Revelation of John 12",
    "verses": [
        {
            "chapter": 12,
            "verse": 1,
            "name": "Revelation of John 12:1",
            "text": "    Eri, kilel lapalap ehu ahpw pwarada nanleng: I kilangada lih emen me lingalingki likou lingan duwehte ketipin, oh aluweluwe kan sok pohn maram oh elin kapwat en usu eisek riau pohn tapwi."
        },
        {
            "chapter": 12,
            "verse": 2,
            "name": "Revelation of John 12:2",
            "text": "E nektehn neitik, oh medek oh lokolok en neitik kahredahr eh weriwer.  "
        },
        {
            "chapter": 12,
            "verse": 3,
            "name": "Revelation of John 12:3",
            "text": "  Pil ehu kilel pwarada nanleng: lapalahn drakon weitahta men, me moang isuh oh kod eisek, oh pohn moang isuhwo mawaramwar en nanmwarki isuh mie. "
        },
        {
            "chapter": 12,
            "verse": 4,
            "name": "Revelation of John 12:4",
            "text": "Pwadaik en drakono wokidihsangehr pahnlahng silikis ehun usu kan oh sipedidiongehr pohn sampah. E uh mwohn liho me nektehn pahn neitik, pwe en kadallehla nah serio ni eh pahn ipwidi. "
        },
        {
            "chapter": 12,
            "verse": 5,
            "name": "Revelation of John 12:5",
            "text": "Liho eri neitikihada seri wol men, me pahn kaunkihda wehi koaros sokon mete. Nah serio ahpw pehdsang oh wisiklahng rehn Koht oh ni mwoale. "
        },
        {
            "chapter": 12,
            "verse": 6,
            "name": "Revelation of John 12:6",
            "text": "A liho sopolahng nan sapwtehn, wasa Koht ketin kaunopadahng ie dewe, oh wasa me e pahn kin ale ie epwelpe erein rahn kid riepwiki weneisek.  "
        },
        {
            "chapter": 12,
            "verse": 7,
            "name": "Revelation of John 12:7",
            "text": "  Nindokon met, mahwen ahpw tepida nanleng. Maikel oh ienge tohnleng kan mahweniong drakono, oh drakono oh ienge kan mahweniong Maikel oh ienge ko. "
        },
        {
            "chapter": 12,
            "verse": 8,
            "name": "Revelation of John 12:8",
            "text": "Drakono eri lohdi; eri, sohla dehu ehu mweimweiong ih oh ienge ko nanleng."
        },
        {
            "chapter": 12,
            "verse": 9,
            "name": "Revelation of John 12:9",
            "text": "Drakon kalaimwuno eri pisikensang nanleng. Eri, iei ih serpent en mahso, me adaneki Tepil de Sehdan, me kin pitipitih sampah pwon, oh me pisikendiongehr sampah iangahki ienge tohnleng kan koaros.   "
        },
        {
            "chapter": 12,
            "verse": 10,
            "name": "Revelation of John 12:10",
            "text": "  I ahpw rongada ngihl laud ehu nanleng me mahsanih, \u201cIet ahnsoun komour sang rehn Koht samwodohr! Ahnsoun kasalehda sapwellime roson nin duwen nanmwarki men! Ahnsoun kasalehda manaman en sapwellime Mesaia! Pwe ih me kin karakaraune riatail kan mwohn silangin Koht ni rahn nipwong, pisikendihsangehr nanleng. "
        },
        {
            "chapter": 12,
            "verse": 11,
            "name": "Revelation of John 12:11",
            "text": "Riatail ko kalowedier sang ni ntahn Sihmpwulo, oh sang ni me mehlelo me re kadehdehier; iei me re sohte kesempwalki ar mour lelohng mehla."
        },
        {
            "chapter": 12,
            "verse": 12,
            "name": "Revelation of John 12:12",
            "text": "Eri, ihme kumwail nanleng kan, kumwail perenda, oh koaros me kin kousoan nanleng! Ahpw meid suwediong sampah oh madau! Pwe Tepilo leledohr rehmwa, oh e inenen lingeringer kowahlap pwehki eh ese me eh ahnsou mwotomwotalahr.\u201d  "
        },
        {
            "chapter": 12,
            "verse": 13,
            "name": "Revelation of John 12:13",
            "text": "  Ni drakono eh tehkada me e lekdekdiongehr sampah, e tapihada pwakih lih me naitikihada seri wolo."
        },
        {
            "chapter": 12,
            "verse": 14,
            "name": "Revelation of John 12:14",
            "text": "Ahpw iet lapalahn pehnpihr riau en ikel kohieng liho pwe en pihrkilahng nan dewe nan sapwtehno, wasa e pahn ale epwel mwahu ie erein sounpar siluh elep, dohlahsang mesen drakono. "
        },
        {
            "chapter": 12,
            "verse": 15,
            "name": "Revelation of John 12:15",
            "text": "Drakono ahpw kakusasang nan ewe pihl, kakusalahng mwurin liho, duwehte pillap pwoat, pwe liho en ahdala oh peila."
        },
        {
            "chapter": 12,
            "verse": 16,
            "name": "Revelation of John 12:16",
            "text": "Sampah ahpw sewesehda liho, pwe e sarapeseng oh nimala pillapo me kusweisang nan ewen drakono."
        },
        {
            "chapter": 12,
            "verse": 17,
            "name": "Revelation of John 12:17",
            "text": "Drakono eri lingeringerda pahn liho, e ahpw kohkohla pwe en mahweniong luhwen kadaudok en liho, koaros me kin kapwaiada kosonned en Koht kan, oh me loalopwoatohng padahk me Sises ketin kadehdehier. Drakono eri uhdi pohn oaroahro.    "
        }
    ]
}