{
    "translation": "Schlachter (1951)",
    "abbreviation": "schlachter",
    "lang": "de",
    "language": "German",
    "direction": "LTR",
    "encoding": "",
    "book_nr": 19,
    "book_name": "Psalmen",
    "chapter": 118,
    "name": "Psalmen 118",
    "verses": [
        {
            "chapter": 118,
            "verse": 1,
            "name": "Psalmen 118:1",
            "text": "Danket dem HERRN, denn er ist g\u00fctig, denn seine Gnade w\u00e4hrt ewig!"
        },
        {
            "chapter": 118,
            "verse": 2,
            "name": "Psalmen 118:2",
            "text": "Es sage doch Israel, da\u00df seine Gnade ewig w\u00e4hrt!"
        },
        {
            "chapter": 118,
            "verse": 3,
            "name": "Psalmen 118:3",
            "text": "Es sage doch das Haus Aaron, da\u00df seine Gnade ewig w\u00e4hrt!"
        },
        {
            "chapter": 118,
            "verse": 4,
            "name": "Psalmen 118:4",
            "text": "Es sagen doch, die den HERRN f\u00fcrchten, da\u00df seine Gnade ewig w\u00e4hrt!"
        },
        {
            "chapter": 118,
            "verse": 5,
            "name": "Psalmen 118:5",
            "text": "Ich rief zum HERRN in meiner Not, und der HERR antwortete mir durch Befreiung."
        },
        {
            "chapter": 118,
            "verse": 6,
            "name": "Psalmen 118:6",
            "text": "Der HERR steht mir bei, ich f\u00fcrchte nichts; was kann ein Mensch mir antun?"
        },
        {
            "chapter": 118,
            "verse": 7,
            "name": "Psalmen 118:7",
            "text": "Der HERR steht mir bei unter meinen Helfern, und ich werde meine Lust sehen an denen, die mich hassen."
        },
        {
            "chapter": 118,
            "verse": 8,
            "name": "Psalmen 118:8",
            "text": "Besser ist's, beim HERRN Schutz zu suchen, als sich auf Menschen zu verlassen;"
        },
        {
            "chapter": 118,
            "verse": 9,
            "name": "Psalmen 118:9",
            "text": "besser ist's, beim HERRN Schutz zu suchen, als sich auf F\u00fcrsten zu verlassen!"
        },
        {
            "chapter": 118,
            "verse": 10,
            "name": "Psalmen 118:10",
            "text": "Alle Nationen haben mich umringt; im Namen des HERRN zerhaue ich sie;"
        },
        {
            "chapter": 118,
            "verse": 11,
            "name": "Psalmen 118:11",
            "text": "sie haben mich umringt, ja, sie haben mich umringt, im Namen des HERRN zerhaue ich sie;"
        },
        {
            "chapter": 118,
            "verse": 12,
            "name": "Psalmen 118:12",
            "text": "sie haben mich umringt wie Bienen; sie sind erloschen wie ein Dornenfeuer; im Namen des HERRN zerhaue ich sie."
        },
        {
            "chapter": 118,
            "verse": 13,
            "name": "Psalmen 118:13",
            "text": "Du hast mich hart gesto\u00dfen, da\u00df ich fallen sollte; aber der HERR half mir."
        },
        {
            "chapter": 118,
            "verse": 14,
            "name": "Psalmen 118:14",
            "text": "Der HERR ist meine St\u00e4rke und mein Lied, und er ward mir zum Heil."
        },
        {
            "chapter": 118,
            "verse": 15,
            "name": "Psalmen 118:15",
            "text": "Stimmen des Jubels und des Heils ert\u00f6nen in den H\u00fctten der Gerechten: Die Rechte des HERRN hat den Sieg errungen!"
        },
        {
            "chapter": 118,
            "verse": 16,
            "name": "Psalmen 118:16",
            "text": "Die Rechte des HERRN ist erh\u00f6ht, die Rechte des HERRN errang den Sieg!"
        },
        {
            "chapter": 118,
            "verse": 17,
            "name": "Psalmen 118:17",
            "text": "Ich werde nicht sterben, sondern leben und des HERRN Taten erz\u00e4hlen."
        },
        {
            "chapter": 118,
            "verse": 18,
            "name": "Psalmen 118:18",
            "text": "Der HERR z\u00fcchtigt mich wohl; aber dem Tod gab er mich nicht."
        },
        {
            "chapter": 118,
            "verse": 19,
            "name": "Psalmen 118:19",
            "text": "Tut mir auf die Tore der Gerechtigkeit, da\u00df ich durch sie einziehe und den HERRN preise!"
        },
        {
            "chapter": 118,
            "verse": 20,
            "name": "Psalmen 118:20",
            "text": "Dies ist das Tor zum HERRN! Die Gerechten sollen dahinein gehen!"
        },
        {
            "chapter": 118,
            "verse": 21,
            "name": "Psalmen 118:21",
            "text": "Ich danke dir, da\u00df du mich erh\u00f6rt hast und wurdest mein Heil!"
        },
        {
            "chapter": 118,
            "verse": 22,
            "name": "Psalmen 118:22",
            "text": "Der Stein, den die Bauleute verworfen haben, ist zum Eckstein geworden;"
        },
        {
            "chapter": 118,
            "verse": 23,
            "name": "Psalmen 118:23",
            "text": "vom HERRN ist das geschehen; es ist ein Wunder in unsern Augen!"
        },
        {
            "chapter": 118,
            "verse": 24,
            "name": "Psalmen 118:24",
            "text": "Dies ist der Tag, den der HERR gemacht; wir wollen froh sein und uns freuen an ihm!"
        },
        {
            "chapter": 118,
            "verse": 25,
            "name": "Psalmen 118:25",
            "text": "Ach, HERR, hilf! Ach, HERR, la\u00df wohl gelingen!"
        },
        {
            "chapter": 118,
            "verse": 26,
            "name": "Psalmen 118:26",
            "text": "Gesegnet sei, der da kommt im Namen des HERRN! Wir segnen euch vom Hause des HERRN."
        },
        {
            "chapter": 118,
            "verse": 27,
            "name": "Psalmen 118:27",
            "text": "Der HERR ist Gott und hat uns erleuchtet. Bindet das Festopfer mit Stricken bis an die H\u00f6rner des Altars!"
        },
        {
            "chapter": 118,
            "verse": 28,
            "name": "Psalmen 118:28",
            "text": "Du bist mein Gott; ich will dich preisen! Mein Gott, ich will dich erheben!"
        },
        {
            "chapter": 118,
            "verse": 29,
            "name": "Psalmen 118:29",
            "text": "Danket dem HERRN, denn er ist g\u00fctig, denn seine Gnade w\u00e4hrt ewig!"
        }
    ]
}