{
    "translation": "Turkish",
    "abbreviation": "turkish",
    "lang": "tr",
    "language": "Turkish",
    "direction": "LTR",
    "encoding": "UTF-8",
    "book_nr": 10,
    "book_name": "2 Samuel",
    "chapter": 6,
    "name": "2 Samuel 6",
    "verses": [
        {
            "chapter": 6,
            "verse": 1,
            "name": "2 Samuel 6:1",
            "text": "   Davut \u0130srail\u2019deki b\u00fct\u00fcn se\u00e7me adamlar\u0131 toplad\u0131. Say\u0131lar\u0131 otuz bin ki\u015fiydi."
        },
        {
            "chapter": 6,
            "verse": 2,
            "name": "2 Samuel 6:2",
            "text": " B\u00f6ylece Davut\u2019la ordusu, sand\u0131\u011f\u0131n \u00fczerindeki Keruvlar aras\u0131nda taht kuran Her \u015eeye Egemen RAB\u2019bin ad\u0131yla an\u0131lan Tanr\u0131\u2019n\u0131n Sand\u0131\u011f\u0131\u2019n\u0131 getirmek i\u00e7in Baale-Yahuda\u2019ya gittiler."
        },
        {
            "chapter": 6,
            "verse": 3,
            "name": "2 Samuel 6:3",
            "text": " Tanr\u0131\u2019n\u0131n Sand\u0131\u011f\u0131\u2019n\u0131 Avinadav\u2019\u0131n tepedeki evinden al\u0131p yeni bir arabaya koydular. Tanr\u0131\u2019n\u0131n Sand\u0131\u011f\u0131\u2019n\u0131 ta\u015f\u0131yan yeni arabay\u0131 Avinadav\u2019\u0131n o\u011fullar\u0131 Uzza\u2019yla Ahyo s\u00fcr\u00fcyordu. Ahyo sand\u0131\u011f\u0131n \u00f6n\u00fcnden y\u00fcr\u00fcyordu."
        },
        {
            "chapter": 6,
            "verse": 4,
            "name": "2 Samuel 6:4",
            "text": " Tanr\u0131\u2019n\u0131n Sand\u0131\u011f\u0131\u2019n\u0131 Avinadav\u2019\u0131n tepedeki evinden al\u0131p yeni bir arabaya koydular. Tanr\u0131\u2019n\u0131n Sand\u0131\u011f\u0131\u2019n\u0131 ta\u015f\u0131yan yeni arabay\u0131 Avinadav\u2019\u0131n o\u011fullar\u0131 Uzza\u2019yla Ahyo s\u00fcr\u00fcyordu. Ahyo sand\u0131\u011f\u0131n \u00f6n\u00fcnden y\u00fcr\u00fcyordu."
        },
        {
            "chapter": 6,
            "verse": 5,
            "name": "2 Samuel 6:5",
            "text": "Bu arada Davut\u2019la b\u00fct\u00fcn \u0130srail halk\u0131 da RAB\u2019bin \u00f6n\u00fcnde lir, \u00e7enk, tef, \u00e7\u0131ng\u0131rak ve ziller e\u015fli\u011finde ezgiler okuyarak var g\u00fc\u00e7leriyle bu olay\u0131 kutluyorlard\u0131. "
        },
        {
            "chapter": 6,
            "verse": 6,
            "name": "2 Samuel 6:6",
            "text": "Nakon\u2019un harman yerine vard\u0131klar\u0131nda \u00f6k\u00fczler t\u00f6kezledi. Bu nedenle Uzza elini uzat\u0131p Tanr\u0131\u2019n\u0131n Sand\u0131\u011f\u0131\u2019n\u0131 tuttu."
        },
        {
            "chapter": 6,
            "verse": 7,
            "name": "2 Samuel 6:7",
            "text": "RAB Tanr\u0131 sayg\u0131s\u0131zca davranan Uzza\u2019ya \u00f6fkelenerek onu orada yere \u00e7ald\u0131. Uzza Tanr\u0131\u2019n\u0131n Sand\u0131\u011f\u0131\u2019n\u0131n yan\u0131nda \u00f6ld\u00fc. "
        },
        {
            "chapter": 6,
            "verse": 8,
            "name": "2 Samuel 6:8",
            "text": "Davut, RAB\u2019bin Uzza\u2019y\u0131 cezaland\u0131rmas\u0131na \u00f6fkelendi. O g\u00fcnden bu yana oraya Peres-Uzza denilir. "
        },
        {
            "chapter": 6,
            "verse": 9,
            "name": "2 Samuel 6:9",
            "text": "Davut o g\u00fcn RAB\u2019den korkarak, \u201cRAB\u2019bin Sand\u0131\u011f\u0131 nas\u0131l olur da bana gelir?\u201d diye d\u00fc\u015f\u00fcnd\u00fc."
        },
        {
            "chapter": 6,
            "verse": 10,
            "name": "2 Samuel 6:10",
            "text": "RAB\u2019bin Sand\u0131\u011f\u0131\u2019n\u0131 Davut Kenti\u2019ne g\u00f6t\u00fcrmek istemedi. Bunun yerine sand\u0131\u011f\u0131 Gatl\u0131 Ovet-Edom\u2019un evine g\u00f6t\u00fcrd\u00fc."
        },
        {
            "chapter": 6,
            "verse": 11,
            "name": "2 Samuel 6:11",
            "text": " RAB\u2019bin Sand\u0131\u011f\u0131 Gatl\u0131 Ovet-Edom\u2019un evinde \u00fc\u00e7 ay kald\u0131. RAB Ovet-Edom\u2019u ve b\u00fct\u00fcn ailesini kutsad\u0131. "
        },
        {
            "chapter": 6,
            "verse": 12,
            "name": "2 Samuel 6:12",
            "text": "\u201cTanr\u0131\u2019n\u0131n Sand\u0131\u011f\u0131\u2019ndan \u00f6t\u00fcr\u00fc RAB Ovet-Edom\u2019un ailesini ve ona ait her \u015feyi kutsad\u0131\u201d diye Kral Davut\u2019a bildirildi. B\u00f6ylece Davut gidip Tanr\u0131\u2019n\u0131n Sand\u0131\u011f\u0131\u2019n\u0131 Ovet-Edom\u2019un evinden Davut Kenti\u2019ne sevin\u00e7le getirdi."
        },
        {
            "chapter": 6,
            "verse": 13,
            "name": "2 Samuel 6:13",
            "text": "RAB\u2019bin Sand\u0131\u011f\u0131\u2019n\u0131 ta\u015f\u0131yanlar alt\u0131 ad\u0131m at\u0131nca, Davut bir bo\u011fayla besili bir dana kurban etti. "
        },
        {
            "chapter": 6,
            "verse": 14,
            "name": "2 Samuel 6:14",
            "text": "Keten efod ku\u015fanm\u0131\u015f Davut, RAB\u2019bin \u00f6n\u00fcnde var g\u00fcc\u00fcyle oynuyordu."
        },
        {
            "chapter": 6,
            "verse": 15,
            "name": "2 Samuel 6:15",
            "text": "Davut\u2019la b\u00fct\u00fcn \u0130srail halk\u0131, sevin\u00e7 naralar\u0131 ve boru sesi e\u015fli\u011finde RAB\u2019bin Sand\u0131\u011f\u0131\u2019n\u0131 getiriyorlard\u0131."
        },
        {
            "chapter": 6,
            "verse": 16,
            "name": "2 Samuel 6:16",
            "text": "RAB\u2019bin Sand\u0131\u011f\u0131 Davut Kenti\u2019ne var\u0131nca, Saul\u2019un k\u0131z\u0131 Mikal pencereden bakt\u0131. RAB\u2019bin \u00f6n\u00fcnde oynay\u0131p z\u0131playan Kral Davut\u2019u g\u00f6r\u00fcnce, onu k\u00fc\u00e7\u00fcmsedi. "
        },
        {
            "chapter": 6,
            "verse": 17,
            "name": "2 Samuel 6:17",
            "text": "RAB\u2019bin Sand\u0131\u011f\u0131\u2019n\u0131 getirip Davut\u2019un bu ama\u00e7la kurdu\u011fu \u00e7ad\u0131r\u0131n i\u00e7indeki yerine koydular. Davut RAB\u2019be yakmal\u0131k sunular ve esenlik sunular\u0131 sundu."
        },
        {
            "chapter": 6,
            "verse": 18,
            "name": "2 Samuel 6:18",
            "text": "Yakmal\u0131k sunular\u0131 ve esenlik sunular\u0131n\u0131 sunmay\u0131 bitirince, Her \u015eeye Egemen RAB\u2019bin ad\u0131yla halk\u0131 kutsad\u0131."
        },
        {
            "chapter": 6,
            "verse": 19,
            "name": "2 Samuel 6:19",
            "text": " Ard\u0131ndan kad\u0131n erkek herkese, b\u00fct\u00fcn \u0130srail toplulu\u011funa birer somun ekmekle birer hurma ve \u00fcz\u00fcm pestili da\u011f\u0131tt\u0131. Sonra herkes evine d\u00f6nd\u00fc. "
        },
        {
            "chapter": 6,
            "verse": 20,
            "name": "2 Samuel 6:20",
            "text": "Davut ailesini kutsamak i\u00e7in eve d\u00f6nd\u00fc\u011f\u00fcnde, Saul\u2019un k\u0131z\u0131 Mikal onu kar\u015f\u0131lamaya \u00e7\u0131kt\u0131. Davut\u2019a \u015f\u00f6yle dedi: \u201c\u0130srail Kral\u0131 bug\u00fcn ne g\u00fczel bir \u00fcn kazand\u0131rd\u0131 kendine! De\u011fersiz biri gibi, kullar\u0131n\u0131n cariyeleri \u00f6n\u00fcnde soyundun.\u201d "
        },
        {
            "chapter": 6,
            "verse": 21,
            "name": "2 Samuel 6:21",
            "text": "Davut, \u201cBaban ve b\u00fct\u00fcn soyu yerine beni se\u00e7en ve halk\u0131 \u0130srail\u2019e \u00f6nder atayan RAB\u2019bin \u00f6n\u00fcnde oynad\u0131m!\u201d diye kar\u015f\u0131l\u0131k verdi, \u201cEvet, RAB\u2019bin \u00f6n\u00fcnde oynayaca\u011f\u0131m."
        },
        {
            "chapter": 6,
            "verse": 22,
            "name": "2 Samuel 6:22",
            "text": "\u00dcstelik kendimi bundan daha da k\u00fc\u00e7\u00fck d\u00fc\u015f\u00fcrece\u011fim, hi\u00e7e sayaca\u011f\u0131m. Ama s\u00f6z\u00fcn\u00fc etti\u011fin o cariyeler beni onurland\u0131racaklar.\u201d "
        },
        {
            "chapter": 6,
            "verse": 23,
            "name": "2 Samuel 6:23",
            "text": "Saul\u2019un k\u0131z\u0131 Mikal\u2019\u0131n \u00f6lene dek \u00e7ocu\u011fu olmad\u0131.   "
        }
    ]
}