{
    "translation": "The Lexham English Bible",
    "abbreviation": "leb",
    "lang": "en",
    "language": "English",
    "direction": "LTR",
    "encoding": "UTF-8",
    "book_nr": 42,
    "book_name": "Luke",
    "chapter": 4,
    "name": "Luke 4",
    "verses": [
        {
            "chapter": 4,
            "verse": 1,
            "name": "Luke 4:1",
            "text": "  And Jesus, full of the Holy Spirit, returned from the Jordan and was led by the Spirit in the wilderness"
        },
        {
            "chapter": 4,
            "verse": 2,
            "name": "Luke 4:2",
            "text": "forty days, being tempted by the devil. And he ate nothing during those days, and when they were completed, he was hungry."
        },
        {
            "chapter": 4,
            "verse": 3,
            "name": "Luke 4:3",
            "text": "So the devil said to him, \u201cIf you are the Son of God, order this stone that it become bread!\u201d"
        },
        {
            "chapter": 4,
            "verse": 4,
            "name": "Luke 4:4",
            "text": "And Jesus replied to him, \u201cIt is written, \u2018Man will not live on bread alone.\u2019\u00a0\u201d "
        },
        {
            "chapter": 4,
            "verse": 5,
            "name": "Luke 4:5",
            "text": "And he led him up and showed him all the kingdoms of the world in a moment of time."
        },
        {
            "chapter": 4,
            "verse": 6,
            "name": "Luke 4:6",
            "text": "And the devil said to him, \u201cI will give you all this domain and their glory, because it has been handed over to me, and I can give it to whomever I want."
        },
        {
            "chapter": 4,
            "verse": 7,
            "name": "Luke 4:7",
            "text": "So if you will worship before me, all this will be yours.\u201d"
        },
        {
            "chapter": 4,
            "verse": 8,
            "name": "Luke 4:8",
            "text": "And Jesus answered and said to him, \u201cIt is written, \u2018You shall worship the Lord your God, and serve only him.\u2019\u00a0\u201d "
        },
        {
            "chapter": 4,
            "verse": 9,
            "name": "Luke 4:9",
            "text": "And he brought him to Jerusalem, and had him stand on the highest point of the temple and said to him, \u201cIf you are the Son of God, throw yourself down from here,"
        },
        {
            "chapter": 4,
            "verse": 10,
            "name": "Luke 4:10",
            "text": "for it is written,  \u2018He will command his angels concerning you, to protect you,\u2019  "
        },
        {
            "chapter": 4,
            "verse": 11,
            "name": "Luke 4:11",
            "text": "and  \u2018on their hands they will lift you up, lest you strike your foot against a stone.\u2019\u00a0\u201d  "
        },
        {
            "chapter": 4,
            "verse": 12,
            "name": "Luke 4:12",
            "text": "And Jesus answered and said to him, \u201cIt is said, \u2018You are not to put to the test the Lord your God.\u2019\u00a0\u201d"
        },
        {
            "chapter": 4,
            "verse": 13,
            "name": "Luke 4:13",
            "text": "And when the devil had completed every temptation, he departed from him until a favorable time.  "
        },
        {
            "chapter": 4,
            "verse": 14,
            "name": "Luke 4:14",
            "text": "  And Jesus returned in the power of the Spirit to Galilee, and news about him went out throughout all the surrounding region."
        },
        {
            "chapter": 4,
            "verse": 15,
            "name": "Luke 4:15",
            "text": "And he began to teach in their synagogues, and was praised by all.  "
        },
        {
            "chapter": 4,
            "verse": 16,
            "name": "Luke 4:16",
            "text": "  And he came to Nazareth, where \u231ehe had been brought up\u231f, and according to \u231ehis custom\u231f he entered into the synagogue on the day of the Sabbath and stood up to read."
        },
        {
            "chapter": 4,
            "verse": 17,
            "name": "Luke 4:17",
            "text": "And the scroll of the prophet Isaiah was given to him, and unrolling the scroll he found the place where it was written, "
        },
        {
            "chapter": 4,
            "verse": 18,
            "name": "Luke 4:18",
            "text": " \u201cThe Spirit of the Lord is upon me, because of which he has anointed me to proclaim good news to the poor. He has sent me to proclaim release to the captives, and recovery of sight to the blind, to send out in freedom those who are oppressed, "
        },
        {
            "chapter": 4,
            "verse": 19,
            "name": "Luke 4:19",
            "text": "to proclaim the favorable year of the Lord.\u201d  "
        },
        {
            "chapter": 4,
            "verse": 20,
            "name": "Luke 4:20",
            "text": "And he rolled up the scroll and gave it back to the attendant and sat down. And the eyes of everyone in the synagogue were looking intently at him."
        },
        {
            "chapter": 4,
            "verse": 21,
            "name": "Luke 4:21",
            "text": "And he began to say to them, \u201cToday this scripture has been fulfilled in your hearing.\u201d"
        },
        {
            "chapter": 4,
            "verse": 22,
            "name": "Luke 4:22",
            "text": "And they were all speaking well of him, and were astonished at the gracious words that were coming out of his mouth. And they were saying, \u201cIs this man not the son of Joseph?\u201d"
        },
        {
            "chapter": 4,
            "verse": 23,
            "name": "Luke 4:23",
            "text": "And he said to them, \u201cDoubtless you will tell me this parable: \u2018Physician, heal yourself!\u2019 Whatever we have heard that took place in Capernaum, do here in your hometown also!\u201d"
        },
        {
            "chapter": 4,
            "verse": 24,
            "name": "Luke 4:24",
            "text": "And he said, \u201cTruly I say to you that no prophet is acceptable in his own hometown."
        },
        {
            "chapter": 4,
            "verse": 25,
            "name": "Luke 4:25",
            "text": "But in truth I say to you, there were many widows in Israel in the days of Elijah, when the sky was shut for three years and six months while a great famine took place over all the land."
        },
        {
            "chapter": 4,
            "verse": 26,
            "name": "Luke 4:26",
            "text": "And Elijah was sent to none of them, but only to Zarephath in the region of Sidon, to a woman who was a widow."
        },
        {
            "chapter": 4,
            "verse": 27,
            "name": "Luke 4:27",
            "text": "And there were many lepers in Israel in the time of the prophet Elisha, and none of them was made clean except Naaman the Syrian.\u201d"
        },
        {
            "chapter": 4,
            "verse": 28,
            "name": "Luke 4:28",
            "text": "And all those in the synagogue were filled with anger when they heard these things."
        },
        {
            "chapter": 4,
            "verse": 29,
            "name": "Luke 4:29",
            "text": "And they stood up and forced him out of the town and brought him up to the edge of the hill on which their town was built, so that they could throw him down the cliff."
        },
        {
            "chapter": 4,
            "verse": 30,
            "name": "Luke 4:30",
            "text": "But he passed through their midst and went on his way.  "
        },
        {
            "chapter": 4,
            "verse": 31,
            "name": "Luke 4:31",
            "text": "  And he came down to Capernaum, a town of Galilee, and was teaching them on the Sabbath."
        },
        {
            "chapter": 4,
            "verse": 32,
            "name": "Luke 4:32",
            "text": "And they were astounded at his teaching, because \u231ehe spoke\u231f with authority. "
        },
        {
            "chapter": 4,
            "verse": 33,
            "name": "Luke 4:33",
            "text": "And in the synagogue there was a man who had the spirit of an unclean demon, and he cried out with a loud voice,"
        },
        {
            "chapter": 4,
            "verse": 34,
            "name": "Luke 4:34",
            "text": "\u201cHa! \u231eLeave us alone\u231f, Jesus the Nazarene! Have you come to destroy us? I know who you are\u2014the Holy One of God!\u201d"
        },
        {
            "chapter": 4,
            "verse": 35,
            "name": "Luke 4:35",
            "text": "And Jesus rebuked him, saying, \u201cBe silent and come out of him!\u201d And after throwing him down in their midst, the demon came out of him without hurting him at all."
        },
        {
            "chapter": 4,
            "verse": 36,
            "name": "Luke 4:36",
            "text": "And amazement came upon them all, and they began to talk with one another, saying, \u201cWhat word is this? For he commands the unclean spirits with authority and power, and they come out!\u201d"
        },
        {
            "chapter": 4,
            "verse": 37,
            "name": "Luke 4:37",
            "text": "And news about him went out into every place of the surrounding region. "
        },
        {
            "chapter": 4,
            "verse": 38,
            "name": "Luke 4:38",
            "text": "And after he set out from the synagogue, he went into Simon\u2019s house. And Simon\u2019s mother-in-law was afflicted with a high fever, and they asked him on behalf of her."
        },
        {
            "chapter": 4,
            "verse": 39,
            "name": "Luke 4:39",
            "text": "And he stood over her and rebuked the fever, and it left her. And immediately she got up and began to serve them. "
        },
        {
            "chapter": 4,
            "verse": 40,
            "name": "Luke 4:40",
            "text": "Now as the sun was setting, all who had those who were sick with various diseases brought them to him, and placing his hands on every one of them, he healed them."
        },
        {
            "chapter": 4,
            "verse": 41,
            "name": "Luke 4:41",
            "text": "And demons also were coming out of many, crying out and saying, \u201cYou are the Son of God!\u201d And he rebuked them and did not permit them to speak, because they knew that he was the Christ. "
        },
        {
            "chapter": 4,
            "verse": 42,
            "name": "Luke 4:42",
            "text": "And when it was day, he departed and went to an isolated place. And the crowds were seeking him, and came to him and were trying to prevent him from departing from them."
        },
        {
            "chapter": 4,
            "verse": 43,
            "name": "Luke 4:43",
            "text": "But he said to them, \u201cIt is necessary for me to proclaim the good news of the kingdom of God to the other towns also, because I was sent for this purpose."
        },
        {
            "chapter": 4,
            "verse": 44,
            "name": "Luke 4:44",
            "text": "And he was preaching in the synagogues of Judea.   "
        }
    ]
}