{
    "translation": "Latvian Gl\u00fcck 8th edition",
    "abbreviation": "lvgluck8",
    "lang": "lv",
    "language": "Latvian",
    "direction": "LTR",
    "encoding": "UTF-8",
    "book_nr": 49,
    "book_name": "Ephesians",
    "chapter": 2,
    "name": "Ephesians 2",
    "verses": [
        {
            "chapter": 2,
            "verse": 1,
            "name": "Ephesians 2:1",
            "text": "Un ar\u012b j\u016bs, kas bij\u0101t nomiru\u0161i iek\u0161 p\u0101rk\u0101p\u0161an\u0101m un gr\u0113kiem, "
        },
        {
            "chapter": 2,
            "verse": 2,
            "name": "Ephesians 2:2",
            "text": "Iek\u0161 kuriem j\u016bs citk\u0101rt staig\u0101ju\u0161i p\u0113c \u0161\u0101s pasaules ieraduma un p\u0113c t\u0101 virsnieka, kas valda gais\u0101, T\u0101 Gara, kas tagad sp\u0113c\u012bgi darboj\u0101s iek\u0161 netic\u012bbas b\u0113rniem; "
        },
        {
            "chapter": 2,
            "verse": 3,
            "name": "Ephesians 2:3",
            "text": "Starp tiem ar\u012b m\u0113s visi citk\u0101rt dz\u012bvoj\u0101m savas miesas k\u0101r\u012bb\u0101s, dar\u012bdami miesas un sirds pr\u0101tu, un no dabas bij\u0101m dusm\u012bbas b\u0113rni, it k\u0101 ar\u012b tie citi; "
        },
        {
            "chapter": 2,
            "verse": 4,
            "name": "Ephesians 2:4",
            "text": "Bet Dievs, bag\u0101ts b\u016bdams ap\u017e\u0113lo\u0161an\u0101, m\u016bs ir m\u012bl\u0113jis savas liel\u0101s m\u012blest\u012bbas p\u0113c, "
        },
        {
            "chapter": 2,
            "verse": 5,
            "name": "Ephesians 2:5",
            "text": "Un m\u016bs, kas bij\u0101m nomiru\u0161i gr\u0113kos, ar Kristu ir dar\u012bjis dz\u012bvus (caur \u017e\u0113last\u012bbu j\u016bs esat izgl\u0101bti), "
        },
        {
            "chapter": 2,
            "verse": 6,
            "name": "Ephesians 2:6",
            "text": "Un l\u012bdz uzmodin\u0101jis un l\u012bdz s\u0113din\u0101jis debes\u012bs iek\u0161 Kristus J\u0113zus, "
        },
        {
            "chapter": 2,
            "verse": 7,
            "name": "Ephesians 2:7",
            "text": "Ka tas n\u0101kamos laikos par\u0101d\u012btu savas \u017e\u0113last\u012bbas p\u0101rliekam lielo bag\u0101t\u012bbu caur to laipn\u012bbu p\u0101r mums iek\u0161 Kristus J\u0113zus. "
        },
        {
            "chapter": 2,
            "verse": 8,
            "name": "Ephesians 2:8",
            "text": "Jo no \u017e\u0113last\u012bbas j\u016bs esat pest\u012bti caur tic\u012bbu, un tas ne no jums: t\u0101 ir Dieva d\u0101vana; "
        },
        {
            "chapter": 2,
            "verse": 9,
            "name": "Ephesians 2:9",
            "text": "Ne no darbiem, lai neviens neliel\u0101s. "
        },
        {
            "chapter": 2,
            "verse": 10,
            "name": "Ephesians 2:10",
            "text": "Jo m\u0113s esam vi\u0146a darbs, rad\u012bti iek\u0161 Kristus J\u0113zus uz labiem darbiem, uz kuriem Dievs m\u016bs papriek\u0161 ir satais\u012bjis, ka mums iek\u0161 tiem b\u016bs staig\u0101t. "
        },
        {
            "chapter": 2,
            "verse": 11,
            "name": "Ephesians 2:11",
            "text": "T\u0101p\u0113c pieminiet, ka j\u016bs, kas citk\u0101rt bij\u0101t pag\u0101ni p\u0113c miesas un tap\u0101t par priek\u0161\u0101du saukti no tiem, kas top saukti t\u0101 apgraiz\u012b\u0161ana, kas pie miesas ar rok\u0101m dar\u012bta, "
        },
        {
            "chapter": 2,
            "verse": 12,
            "name": "Ephesians 2:12",
            "text": "Ka j\u016bs tan\u012b laik\u0101 bij\u0101t bez Kristus, \u0161\u0137irti no Izra\u0113la draudzes un sve\u0161inieki t\u0101m apsol\u012b\u0161anas der\u012bb\u0101m, bez cer\u012bbas un bez Dieva pasaul\u0113. "
        },
        {
            "chapter": 2,
            "verse": 13,
            "name": "Ephesians 2:13",
            "text": "Bet tagad iek\u0161 Kristus J\u0113zus j\u016bs, kas citk\u0101rt biju\u0161i t\u0101lu, esat tuvu n\u0101ku\u0161i caur Kristus asin\u012bm. "
        },
        {
            "chapter": 2,
            "verse": 14,
            "name": "Ephesians 2:14",
            "text": "Jo vi\u0146\u0161 ir m\u016bsu miers, kas no abiem ir dar\u012bjis vienu un to sienu, kas bija starp\u0101, ir no\u0101rd\u012bjis, "
        },
        {
            "chapter": 2,
            "verse": 15,
            "name": "Ephesians 2:15",
            "text": "To ienaid\u012bbu noceldams caur savu miesu, to bau\u0161\u013cu bausl\u012bbu, kas st\u0101v likumos, ka vi\u0146\u0161 tos divus iek\u0161 sevis pa\u0161a rad\u012btu par vienu jaunu cilv\u0113ku, mieru dar\u012bdams, "
        },
        {
            "chapter": 2,
            "verse": 16,
            "name": "Ephesians 2:16",
            "text": "Un ka vi\u0146\u0161 abus vien\u0101 mies\u0101 Dievam sal\u012bdzin\u0101tu caur to krustu, to ienaid\u012bbu pie t\u0101 nok\u0101vis. "
        },
        {
            "chapter": 2,
            "verse": 17,
            "name": "Ephesians 2:17",
            "text": "Un n\u0101kdams vi\u0146\u0161 mieru pasludin\u0101jis caur eva\u0146\u0123\u0113liju jums, kas bij\u0101t t\u0101lu, un tiem, kas ir tuvu. "
        },
        {
            "chapter": 2,
            "verse": 18,
            "name": "Ephesians 2:18",
            "text": "Jo caur vi\u0146u mums abiem ir pieie\u0161ana iek\u0161 viena Gara pie T\u0101 T\u0113va. "
        },
        {
            "chapter": 2,
            "verse": 19,
            "name": "Ephesians 2:19",
            "text": "Tad nu j\u016bs vairs neesat sve\u0161inieki un piedz\u012bvot\u0101ji, bet l\u012bdzpavalstnieki ar tiem sv\u0113tiem un Dieva saime, "
        },
        {
            "chapter": 2,
            "verse": 20,
            "name": "Ephesians 2:20",
            "text": "Uztais\u012bti uz apustu\u013cu un pravie\u0161u pamata, kur pats J\u0113zus Kristus ir tas st\u016bra akmens, "
        },
        {
            "chapter": 2,
            "verse": 21,
            "name": "Ephesians 2:21",
            "text": "Uz k\u0101 viss tas nams tais\u012bts aug par sv\u0113tu Dieva namu iek\u0161 T\u0101 Kunga; "
        },
        {
            "chapter": 2,
            "verse": 22,
            "name": "Ephesians 2:22",
            "text": "Uz k\u0101 ar\u012b j\u016bs topat l\u012bdz uztais\u012bti par Dieva m\u0101jas vietu iek\u0161 Gara.  "
        }
    ]
}