{
    "translation": "Old Public Domain Pohnpeian Bible",
    "abbreviation": "pohnold",
    "lang": "pon",
    "language": "Pohnpeian",
    "direction": "LTR",
    "encoding": "UTF-8",
    "book_nr": 18,
    "book_name": "Job",
    "chapter": 1,
    "name": "Job 1",
    "verses": [
        {
            "chapter": 1,
            "verse": 1,
            "name": "Job 1:1",
            "text": ""
        },
        {
            "chapter": 1,
            "verse": 2,
            "name": "Job 1:2",
            "text": ""
        },
        {
            "chapter": 1,
            "verse": 3,
            "name": "Job 1:3",
            "text": ""
        },
        {
            "chapter": 1,
            "verse": 4,
            "name": "Job 1:4",
            "text": ""
        },
        {
            "chapter": 1,
            "verse": 5,
            "name": "Job 1:5",
            "text": ""
        },
        {
            "chapter": 1,
            "verse": 6,
            "name": "Job 1:6",
            "text": ""
        },
        {
            "chapter": 1,
            "verse": 7,
            "name": "Job 1:7",
            "text": ""
        },
        {
            "chapter": 1,
            "verse": 8,
            "name": "Job 1:8",
            "text": ""
        },
        {
            "chapter": 1,
            "verse": 9,
            "name": "Job 1:9",
            "text": ""
        },
        {
            "chapter": 1,
            "verse": 10,
            "name": "Job 1:10",
            "text": ""
        },
        {
            "chapter": 1,
            "verse": 11,
            "name": "Job 1:11",
            "text": ""
        },
        {
            "chapter": 1,
            "verse": 12,
            "name": "Job 1:12",
            "text": ""
        },
        {
            "chapter": 1,
            "verse": 13,
            "name": "Job 1:13",
            "text": ""
        },
        {
            "chapter": 1,
            "verse": 14,
            "name": "Job 1:14",
            "text": ""
        },
        {
            "chapter": 1,
            "verse": 15,
            "name": "Job 1:15",
            "text": ""
        },
        {
            "chapter": 1,
            "verse": 16,
            "name": "Job 1:16",
            "text": ""
        },
        {
            "chapter": 1,
            "verse": 17,
            "name": "Job 1:17",
            "text": ""
        },
        {
            "chapter": 1,
            "verse": 18,
            "name": "Job 1:18",
            "text": ""
        },
        {
            "chapter": 1,
            "verse": 19,
            "name": "Job 1:19",
            "text": ""
        },
        {
            "chapter": 1,
            "verse": 20,
            "name": "Job 1:20",
            "text": ""
        },
        {
            "chapter": 1,
            "verse": 21,
            "name": "Job 1:21",
            "text": ""
        },
        {
            "chapter": 1,
            "verse": 22,
            "name": "Job 1:22",
            "text": ""
        }
    ]
}