{
    "translation": "Geneva Bible (1599)",
    "abbreviation": "geneva1599",
    "lang": "en",
    "language": "English",
    "direction": "LTR",
    "encoding": "UTF-8",
    "book_nr": 42,
    "book_name": "Luke",
    "chapter": 6,
    "name": "Luke 6",
    "verses": [
        {
            "chapter": 6,
            "verse": 1,
            "name": "Luke 6:1",
            "text": "And it came to passe on a second solemne Sabbath, that hee went through the corne fieldes, and his disciples plucked the eares of corne, and did eate, and rub them in their hands."
        },
        {
            "chapter": 6,
            "verse": 2,
            "name": "Luke 6:2",
            "text": "And certaine of the Pharises sayde vnto them, Why doe ye that which is not lawfull to doe on the Sabbath dayes?"
        },
        {
            "chapter": 6,
            "verse": 3,
            "name": "Luke 6:3",
            "text": "Then Iesus answered them, and said, Haue ye not read this, that Dauid did when he himselfe was an hungred, and they which were with him,"
        },
        {
            "chapter": 6,
            "verse": 4,
            "name": "Luke 6:4",
            "text": "Howe he went into the house of God, and tooke, and ate the shewbread, and gaue also to them which were with him, which was not lawful to eate, but for the Priests onely?"
        },
        {
            "chapter": 6,
            "verse": 5,
            "name": "Luke 6:5",
            "text": "And he sayd vnto them, The Sonne of man is Lord also of the Sabbath day."
        },
        {
            "chapter": 6,
            "verse": 6,
            "name": "Luke 6:6",
            "text": "It came to passe also on another Sabbath, that hee entred into the Synagogue, and taught, and there was a man, whose right hand was dryed vp."
        },
        {
            "chapter": 6,
            "verse": 7,
            "name": "Luke 6:7",
            "text": "And the Scribes and Pharises watched him, whether he would heale on the Sabbath day, that they might finde an accusation against him."
        },
        {
            "chapter": 6,
            "verse": 8,
            "name": "Luke 6:8",
            "text": "But he knew their thoughts, and sayd to the man which had the withered hand, Arise, and stand vp in the middes. And hee arose, and stoode vp."
        },
        {
            "chapter": 6,
            "verse": 9,
            "name": "Luke 6:9",
            "text": "Then sayd Iesus vnto them, I will aske you a question, Whether is it lawfull on the Sabbath dayes to doe good, or to doe euill? to saue life, or to destroy?"
        },
        {
            "chapter": 6,
            "verse": 10,
            "name": "Luke 6:10",
            "text": "And he behelde them all in compasse, and sayd vnto the man, Stretch forth thine hand. And he did so, and his hand was restored againe, as whole as the other."
        },
        {
            "chapter": 6,
            "verse": 11,
            "name": "Luke 6:11",
            "text": "Then they were filled full of madnes, and communed one with another, what they might doe to Iesus."
        },
        {
            "chapter": 6,
            "verse": 12,
            "name": "Luke 6:12",
            "text": "And it came to passe in those dayes, that he went into a mountaine to praye, and spent the night in prayer to God."
        },
        {
            "chapter": 6,
            "verse": 13,
            "name": "Luke 6:13",
            "text": "And when it was day, he called his disciples, and of them he chose twelue which also he called Apostles."
        },
        {
            "chapter": 6,
            "verse": 14,
            "name": "Luke 6:14",
            "text": "(Simon whome he named also Peter, and Andrew his brother, Iames and Iohn, Philippe and Bartlemewe:"
        },
        {
            "chapter": 6,
            "verse": 15,
            "name": "Luke 6:15",
            "text": "Matthewe and Thomas: Iames the sonne of Alpheus, and Simon called Zelous,"
        },
        {
            "chapter": 6,
            "verse": 16,
            "name": "Luke 6:16",
            "text": "Iudas Iames brother, and Iudas Iscariot, which also was the traitour.)"
        },
        {
            "chapter": 6,
            "verse": 17,
            "name": "Luke 6:17",
            "text": "Then he came downe with them, and stood in a plaine place, with the company of his disciples, and a great multitude of people out of all Iudea, and Hierusalem, and from the sea coast of Tyrus and Sidon, which came to heare him, and to be healed of their diseases:"
        },
        {
            "chapter": 6,
            "verse": 18,
            "name": "Luke 6:18",
            "text": "And they that were vexed with foule spirits, and they were healed."
        },
        {
            "chapter": 6,
            "verse": 19,
            "name": "Luke 6:19",
            "text": "And the whole multitude sought to touch him: for there went vertue out of him, and healed them all."
        },
        {
            "chapter": 6,
            "verse": 20,
            "name": "Luke 6:20",
            "text": "And hee lifted vp his eyes vpon his disciples, and sayd, Blessed be ye poore: for yours is the kingdome of God."
        },
        {
            "chapter": 6,
            "verse": 21,
            "name": "Luke 6:21",
            "text": "Blessed are ye that hunger nowe: for ye shalbe satisfied: blessed are ye that weepe now: for ye shall laugh."
        },
        {
            "chapter": 6,
            "verse": 22,
            "name": "Luke 6:22",
            "text": "Blessed are ye when men hate you, and when they separate you, and reuile you, and put out your name as euill, for the Sonne of mans sake."
        },
        {
            "chapter": 6,
            "verse": 23,
            "name": "Luke 6:23",
            "text": "Reioyce ye in that day, and be glad: for beholde, your reward is great in heauen: for after this maner their fathers did to the Prophets."
        },
        {
            "chapter": 6,
            "verse": 24,
            "name": "Luke 6:24",
            "text": "But wo be to you that are rich: for ye haue receiued your consolation."
        },
        {
            "chapter": 6,
            "verse": 25,
            "name": "Luke 6:25",
            "text": "Wo be to you that are full: for ye shall hunger. Wo be to you that now laugh: for ye shall wayle and weepe."
        },
        {
            "chapter": 6,
            "verse": 26,
            "name": "Luke 6:26",
            "text": "Wo be to you when all men speake well of you: for so did their fathers to the false prophets."
        },
        {
            "chapter": 6,
            "verse": 27,
            "name": "Luke 6:27",
            "text": "But I say vnto you which heare, Loue your enemies: doe well to them which hate you."
        },
        {
            "chapter": 6,
            "verse": 28,
            "name": "Luke 6:28",
            "text": "Blesse them that curse you, and pray for them which hurt you."
        },
        {
            "chapter": 6,
            "verse": 29,
            "name": "Luke 6:29",
            "text": "And vnto him that smiteth thee on ye one cheeke, offer also the other: and him that taketh away thy cloke, forbid not to take thy coate also."
        },
        {
            "chapter": 6,
            "verse": 30,
            "name": "Luke 6:30",
            "text": "Giue to euery man that asketh of thee: and of him that taketh away the things that be thine, aske them not againe."
        },
        {
            "chapter": 6,
            "verse": 31,
            "name": "Luke 6:31",
            "text": "And as ye would that men should doe to you, so doe ye to them likewise."
        },
        {
            "chapter": 6,
            "verse": 32,
            "name": "Luke 6:32",
            "text": "For if yee loue them which loue you, what thanke shall ye haue? for euen the sinners loue those that loue them."
        },
        {
            "chapter": 6,
            "verse": 33,
            "name": "Luke 6:33",
            "text": "And if ye do good for them which do good for you, what thanke shall ye haue? for euen the sinners doe the same."
        },
        {
            "chapter": 6,
            "verse": 34,
            "name": "Luke 6:34",
            "text": "And if ye lend to them of whom ye hope to receiue, what thanke shall yee haue? for euen the sinners lend to sinners, to receiue the like."
        },
        {
            "chapter": 6,
            "verse": 35,
            "name": "Luke 6:35",
            "text": "Wherefore loue ye your enemies, and doe good, and lend, looking for nothing againe, and your rewarde shalbe great, and ye shalbe the children of the most High: for he is kinde vnto the vnkinde, and to the euill."
        },
        {
            "chapter": 6,
            "verse": 36,
            "name": "Luke 6:36",
            "text": "Be ye therefore mercifull, as your Father also is mercifull."
        },
        {
            "chapter": 6,
            "verse": 37,
            "name": "Luke 6:37",
            "text": "Iudge not, and ye shall not be iudged: condemne not, and ye shall not bee condemned: forgiue, and ye shalbe forgiuen."
        },
        {
            "chapter": 6,
            "verse": 38,
            "name": "Luke 6:38",
            "text": "Giue, and it shalbe giuen vnto you: a good measure, pressed downe, shaken together and running ouer shall men giue into your bosome: for with what measure ye mete, with the same shall men mete to you againe."
        },
        {
            "chapter": 6,
            "verse": 39,
            "name": "Luke 6:39",
            "text": "And he spake a parable vnto them, Can the blinde leade the blinde? shall they not both fall into the ditche?"
        },
        {
            "chapter": 6,
            "verse": 40,
            "name": "Luke 6:40",
            "text": "The disciple is not aboue his master: but whosoeuer will be a perfect disciple, shall bee as his master."
        },
        {
            "chapter": 6,
            "verse": 41,
            "name": "Luke 6:41",
            "text": "And why seest thou a mote in thy brothers eye, and considerest not the beame that is in thine owne eye?"
        },
        {
            "chapter": 6,
            "verse": 42,
            "name": "Luke 6:42",
            "text": "Either howe canst thou say to thy brother, Brother, let me pull out the mote that is in thine eye, when thou seest not the beame that is in thine owne eye? Hypocrite, cast out the beame out of thine owne eye first, and then shalt thou see, perfectly to pull out the mote that is in thy brothers eye."
        },
        {
            "chapter": 6,
            "verse": 43,
            "name": "Luke 6:43",
            "text": "For it is not a good tree that bringeth foorth euill fruite: neither an euill tree, that bringeth foorth good fruite."
        },
        {
            "chapter": 6,
            "verse": 44,
            "name": "Luke 6:44",
            "text": "For euery tree is knowen by his owne fruite: for neither of thornes gather men figges, nor of bushes gather they grapes."
        },
        {
            "chapter": 6,
            "verse": 45,
            "name": "Luke 6:45",
            "text": "A good man out of the good treasure of his heart bringeth foorth good, and an euill man out of the euill treasure of his heart bringeth foorth euill: for of the aboundance of the heart his mouth speaketh."
        },
        {
            "chapter": 6,
            "verse": 46,
            "name": "Luke 6:46",
            "text": "But why call ye me Lord, Lord, and do not the things that I speake?"
        },
        {
            "chapter": 6,
            "verse": 47,
            "name": "Luke 6:47",
            "text": "Whosoeuer commeth to mee, and heareth my wordes, and doeth the same, I will shewe you to whome he is like:"
        },
        {
            "chapter": 6,
            "verse": 48,
            "name": "Luke 6:48",
            "text": "He is like a man which built an house, and digged deepe, and layde the fundation on a rocke: and when the waters arose, the flood beat vpon that house, and coulde not shake it: for it was grounded vpon a rocke."
        },
        {
            "chapter": 6,
            "verse": 49,
            "name": "Luke 6:49",
            "text": "But hee that heareth and doeth not, is like a man that built an house vpon the earth without foundation, against which the flood did beate, and it fell by and by: and the fall of that house was great.  "
        }
    ]
}