{
    "translation": "\u041a\u0438\u0435\u043b\u0456 \u043a\u0456\u0442\u0430\u043f",
    "abbreviation": "kaz",
    "lang": "kk",
    "language": "Kazakh",
    "direction": "RTL",
    "encoding": "UTF-8",
    "book_nr": 33,
    "book_name": "Micah",
    "chapter": 5,
    "name": "Micah 5",
    "verses": [
        {
            "chapter": 5,
            "verse": 1,
            "name": "Micah 5:1",
            "text": "\u00ab\u0416\u0430\u0441\u0430\u0493\u044b\u04a3\u0434\u044b \u0442\u04af\u0437\u0435, \u0443\u0430, \u0441\u043e\u0493\u044b\u0441\u049b\u0430 \u0434\u0430\u0439\u044b\u043d\u0434\u0430\u043b\u0493\u0430\u043d \u049b\u0430\u043b\u0430, \u04e9\u0439\u0442\u043a\u0435\u043d\u0456 \u0431\u0456\u0437\u0434\u0456 \u0436\u0430\u0443 \u049b\u043e\u0440\u0448\u0430\u043f \u0430\u043b\u0434\u044b. \u041e\u043b\u0430\u0440 \u0418\u0441\u0440\u0430\u0438\u043b\u0434\u0456\u04a3 \u0431\u0438\u043b\u0435\u0443\u0448\u0456\u0441\u0456\u043d\u0456\u04a3 \u0431\u0435\u0442\u0456\u043d \u0430\u0441\u0430\u0442\u0430\u044f\u049b\u043f\u0435\u043d \u0441\u043e\u049b\u049b\u044b\u043b\u0430\u0439\u0442\u044b\u043d \u0431\u043e\u043b\u0430\u0434\u044b."
        },
        {
            "chapter": 5,
            "verse": 2,
            "name": "Micah 5:2",
            "text": "\u0410\u043b \u0441\u0435\u043d, \u0415\u0444\u0440\u0430\u0442\u0430 \u0430\u0439\u043c\u0430\u0493\u044b\u043d\u0434\u0430\u0493\u044b \u0411\u0435\u0442\u043b\u0435\u0445\u0435\u043c, \u042f\u04bb\u0443\u0434\u0430\u043d\u044b\u04a3 \u04d9\u0443\u043b\u0435\u0442\u0442\u0435\u0440\u0456\u043d\u0456\u04a3 \u0430\u0440\u0430\u0441\u044b\u043d\u0434\u0430\u0493\u044b \u043c\u0430\u04a3\u044b\u0437\u0441\u044b\u0437\u044b \u0431\u043e\u043b\u0441\u0430\u04a3 \u0434\u0430, \u0441\u0435\u043d\u0435\u043d \u041c\u0435\u043d\u0456\u04a3 \u0445\u0430\u043b\u049b\u044b\u043c \u0418\u0441\u0440\u0430\u0438\u043b\u0433\u0435 \u0431\u0430\u0441\u0448\u044b\u043b\u044b\u049b \u0435\u0442\u0435\u0442\u0456\u043d \u041a\u04e9\u0441\u0435\u043c \u0448\u044b\u0493\u0430\u0434\u044b. \u041e\u043d\u044b\u04a3 \u0448\u044b\u049b\u049b\u0430\u043d \u0442\u0435\u0433\u0456 \u0435\u0436\u0435\u043b\u0433\u0456 \u0437\u0430\u043c\u0430\u043d\u043d\u0430\u043d, \u043c\u04d9\u04a3\u0433\u0456\u043b\u0456\u043a\u0442\u0435\u043d."
        },
        {
            "chapter": 5,
            "verse": 3,
            "name": "Micah 5:3",
            "text": "\u0421\u043e\u043d\u0434\u044b\u049b\u0442\u0430\u043d \u041e\u0493\u0430\u043d \u0436\u04af\u043a\u0442\u0456 \u04d9\u0439\u0435\u043b \u0442\u043e\u043b\u0493\u0430\u0442\u044b\u043f, \u0431\u043e\u0441\u0430\u043d\u0493\u0430\u043d\u0493\u0430 \u0434\u0435\u0439\u0456\u043d \u0416\u0430\u0440\u0430\u0442\u049b\u0430\u043d \u0418\u0435 \u0418\u0441\u0440\u0430\u0438\u043b \u0445\u0430\u043b\u049b\u044b\u043d (\u0436\u0430\u0443 \u049b\u043e\u043b\u044b\u043d\u0430) \u0442\u0430\u043f\u0441\u044b\u0440\u0430\u0434\u044b. \u0421\u043e\u043b \u043a\u0435\u0437\u0434\u0435 \u041e\u043d\u044b\u04a3 \u0430\u043c\u0430\u043d \u049b\u0430\u043b\u0493\u0430\u043d \u0430\u0493\u0430\u0439\u044b\u043d\u0434\u0430\u0440\u044b \u0436\u0435\u0440 \u0430\u0443\u0434\u0430\u0440\u044b\u043b\u0493\u0430\u043d \u0436\u0430\u049b\u0442\u0430\u0440\u044b\u043d\u0430\u043d \u049b\u0430\u0439\u0442\u0430 \u043e\u0440\u0430\u043b\u044b\u043f, \u0418\u0441\u0440\u0430\u0438\u043b\u0434\u0456\u04a3 \u04e9\u0437\u0433\u0435 \u0430\u0434\u0430\u043c\u0434\u0430\u0440\u044b\u043c\u0435\u043d \u0431\u0456\u0440\u0456\u0433\u0435\u0442\u0456\u043d \u0431\u043e\u043b\u0430\u0434\u044b."
        },
        {
            "chapter": 5,
            "verse": 4,
            "name": "Micah 5:4",
            "text": "\u0421\u043e\u043b \u041a\u04e9\u0441\u0435\u043c \u0442\u04b1\u0440\u044b\u043f, \u04e9\u0437 \u0445\u0430\u043b\u049b\u044b\u043d\u0430 \u0416\u0430\u0440\u0430\u0442\u049b\u0430\u043d \u0418\u0435\u043d\u0456\u04a3 \u0431\u0435\u0440\u0433\u0435\u043d \u049b\u0443\u0430\u0442\u044b\u043c\u0435\u043d, \u04d9\u0440\u0456 \u04e9\u0437 \u049a\u04b1\u0434\u0430\u0439\u044b \u0416\u0430\u0440\u0430\u0442\u049b\u0430\u043d \u0418\u0435\u043d\u0456\u04a3 \u0435\u0441\u0456\u043c\u0456\u043d\u0456\u04a3 \u0441\u0430\u043b\u0442\u0430\u043d\u0430\u0442\u044b\u043c\u0435\u043d \u0431\u0438\u043b\u0456\u043a \u0436\u04af\u0440\u0433\u0456\u0437\u0435\u0442\u0456\u043d \u0431\u043e\u043b\u0430\u0434\u044b. \u041e\u043d\u044b\u04a3 \u0434\u0430\u04a3\u049b\u044b \u0436\u0435\u0440\u0434\u0456\u04a3 \u0435\u04a3 \u0448\u0430\u043b\u0493\u0430\u0439 \u0442\u04af\u043a\u043f\u0456\u0440\u043b\u0435\u0440\u0456\u043d\u0435 \u0434\u0435\u0439\u0456\u043d \u0436\u0435\u0442\u043a\u0435\u043d\u0434\u0456\u043a\u0442\u0435\u043d, \u043e\u043b\u0430\u0440 \u049b\u0430\u0443\u0456\u043f\u0441\u0456\u0437\u0434\u0456\u043a\u0442\u0435 \u0442\u04b1\u0440\u0430\u0442\u044b\u043d \u0431\u043e\u043b\u0430\u0434\u044b."
        },
        {
            "chapter": 5,
            "verse": 5,
            "name": "Micah 5:5",
            "text": "\u041e\u043b \u0445\u0430\u043b\u049b\u044b \u04af\u0448\u0456\u043d \u0430\u043c\u0430\u043d\u0434\u044b\u049b \u043f\u0435\u043d \u0442\u044b\u043d\u044b\u0448\u0442\u044b\u049b\u0442\u044b\u04a3 \u049b\u0430\u0439\u043d\u0430\u0440 \u043a\u04e9\u0437\u0456 \u0431\u043e\u043b\u0430\u0434\u044b\u00bb.\u00ab\u0410\u0441\u0441\u0443\u0440 \u04d9\u0441\u043a\u0435\u0440\u0456 \u0431\u0456\u0437\u0434\u0456\u04a3 \u0435\u043b\u0456\u043c\u0456\u0437\u0433\u0435 \u0431\u0430\u0441\u044b\u043f \u043a\u0456\u0440\u0456\u043f, \u049b\u0430\u043c\u0430\u043b\u0434\u0430\u0440\u044b\u043c\u044b\u0437\u0434\u044b \u0436\u0430\u0439\u043f\u0430\u043f \u04e9\u0442\u0456\u043f \u0436\u0430\u0442\u0441\u0430, \u0431\u0456\u0437 \u043e\u043b\u0430\u0440\u0493\u0430 \u049b\u0430\u0440\u0441\u044b \u0436\u0435\u0442\u0456 \u0431\u0430\u0441\u049b\u0430\u0440\u0443\u0448\u044b\u043d\u044b \u0436\u04d9\u043d\u0435 \u0441\u0435\u0433\u0456\u0437 \u04d9\u043c\u0456\u0440\u0448\u0456\u043d\u0456 \u0448\u044b\u0493\u0430\u0440\u0430\u043c\u044b\u0437."
        },
        {
            "chapter": 5,
            "verse": 6,
            "name": "Micah 5:6",
            "text": "\u041e\u043b\u0430\u0440 \u0410\u0441\u0441\u0443\u0440 \u0435\u043b\u0456\u043d \u0441\u0435\u043c\u0441\u0435\u0440\u043c\u0435\u043d \u0431\u0430\u0441\u049b\u0430\u0440\u044b\u043f, \u041d\u044b\u043c\u0440\u043e\u0434 \u0435\u0436\u0435\u043b\u0434\u0435 \u043d\u0435\u0433\u0456\u0437\u0456\u043d \u049b\u0430\u043b\u0430\u0493\u0430\u043d \u0441\u043e\u043b \u0435\u043b\u0433\u0435 \u043e\u043d\u044b\u04a3 \u049b\u0430\u043b\u0430 \u049b\u0430\u049b\u043f\u0430\u043b\u0430\u0440\u044b\u043d\u044b\u04a3 \u0430\u043b\u0430\u04a3\u0434\u0430\u0440\u044b\u043d\u0434\u0430 \u0431\u0438\u043b\u0456\u043a \u0436\u04af\u0440\u0433\u0456\u0437\u0435\u0442\u0456\u043d \u0431\u043e\u043b\u0430\u0434\u044b. \u0410\u0441\u0441\u0443\u0440 \u04d9\u0441\u043a\u0435\u0440\u0456 \u0448\u0435\u043a\u0430\u0440\u0430\u043c\u044b\u0437\u0434\u0430\u043d \u04e9\u0442\u0456\u043f, \u0435\u043b\u0456\u043c\u0456\u0437\u0433\u0435 \u0431\u0430\u0441\u044b\u043f \u043a\u0456\u0440\u0456\u043f \u0436\u0430\u0442\u0441\u0430, \u04d9\u043c\u0456\u0440\u0448\u0456\u043b\u0435\u0440\u0456\u043c\u0456\u0437 \u0431\u0456\u0437\u0434\u0456 \u0436\u0430\u0443\u0434\u0430\u043d \u049b\u04b1\u0442\u049b\u0430\u0440\u0430\u0434\u044b."
        },
        {
            "chapter": 5,
            "verse": 7,
            "name": "Micah 5:7",
            "text": "\u0421\u043e\u043d\u0434\u0430 \u0416\u0430\u049b\u044b\u043f\u0442\u044b\u04a3 \u04af\u0440\u0456\u043c-\u0431\u04b1\u0442\u0430\u0493\u044b\u043d\u044b\u04a3 \u0442\u0456\u0440\u0456 \u049b\u0430\u043b\u0493\u0430\u043d\u0434\u0430\u0440\u044b \u043a\u04e9\u043f\u0442\u0435\u0433\u0435\u043d \u0445\u0430\u043b\u044b\u049b\u0442\u0430\u0440 \u0430\u0440\u0430\u0441\u044b\u043d\u0434\u0430 \u0416\u0430\u0440\u0430\u0442\u049b\u0430\u043d \u0418\u0435\u043d\u0456\u04a3 \u0436\u0435\u0440\u0433\u0435 \u0442\u04af\u0441\u0456\u0440\u0433\u0435\u043d \u0448\u044b\u0493\u044b\u043d\u0430 \u0436\u04d9\u043d\u0435 \u0448\u04e9\u043f\u043a\u0435 \u0436\u0430\u0443\u0434\u044b\u0440\u0493\u0430\u043d \u043d\u04e9\u0441\u0435\u0440\u0456\u043d\u0435 \u04b1\u049b\u0441\u0430\u0439\u0434\u044b. \u041e\u043b\u0430\u0440 \u0435\u0448\u043a\u0456\u043c\u0433\u0435 \u0431\u0430\u0493\u044b\u043d\u0431\u0430\u0439, \u0430\u0434\u0430\u043c \u0431\u0430\u043b\u0430\u0441\u044b\u043d\u0430\u043d \u0442\u04d9\u0443\u0435\u043b\u0441\u0456\u0437 \u0431\u043e\u043b\u0430\u0434\u044b."
        },
        {
            "chapter": 5,
            "verse": 8,
            "name": "Micah 5:8",
            "text": "\u0416\u0430\u049b\u044b\u043f\u0442\u044b\u04a3 \u04af\u0440\u0456\u043c-\u0431\u04b1\u0442\u0430\u0493\u044b\u043d\u044b\u04a3 \u0442\u0456\u0440\u0456 \u049b\u0430\u043b\u0493\u0430\u043d\u0434\u0430\u0440\u044b \u0445\u0430\u043b\u044b\u049b\u0442\u0430\u0440 \u0430\u0440\u0430\u0441\u044b\u043d\u0434\u0430 \u0442\u04b1\u0440\u044b\u043f, \u043e\u0440\u043c\u0430\u043d \u0430\u04a3\u0434\u0430\u0440\u044b\u043d\u044b\u04a3 \u0456\u0448\u0456\u043d\u0434\u0435\u0433\u0456 \u0430\u0440\u044b\u0441\u0442\u0430\u043d\u0434\u0430\u0439, \u049b\u043e\u0439\u043b\u0430\u0440\u0434\u044b\u04a3 \u0456\u0448\u0456\u043d\u0434\u0435\u0433\u0456 \u0436\u0430\u0441 \u0430\u0440\u044b\u0441\u0442\u0430\u043d\u0434\u0430\u0439 \u049b\u0443\u0430\u0442\u0442\u044b \u0431\u043e\u043b\u0430\u0434\u044b. \u041e\u043b\u0430\u0440 \u0442\u0430\u0440\u043f\u0430 \u0431\u0430\u0441 \u0441\u0430\u043b\u044b\u043f, \u0430\u0439\u044b\u0440\u0430 \u0436\u044b\u0440\u0442\u049b\u0430\u043d\u0434\u0430, \u0435\u0448\u043a\u0456\u043c \u0430\u0440\u0430\u0448\u0430 \u0431\u043e\u043b\u0430 \u0430\u043b\u043c\u0430\u0439\u0434\u044b."
        },
        {
            "chapter": 5,
            "verse": 9,
            "name": "Micah 5:9",
            "text": "\u0423\u0430, \u0418\u0441\u0440\u0430\u0438\u043b \u0445\u0430\u043b\u049b\u044b, \u0436\u0430\u0443\u043b\u0430\u0440\u044b\u04a3\u043d\u044b\u04a3 \u04af\u0441\u0442\u0456\u043d\u0435\u043d \u0436\u0435\u04a3\u0456\u0441\u043a\u0435 \u0436\u0435\u0442, \u0434\u04b1\u0448\u043f\u0430\u043d\u0434\u0430\u0440\u044b\u04a3\u043d\u044b\u04a3 \u0431\u0430\u0440\u043b\u044b\u0493\u044b \u043a\u04af\u0439\u0440\u0435\u0441\u0456\u043d\u00bb."
        },
        {
            "chapter": 5,
            "verse": 10,
            "name": "Micah 5:10",
            "text": "\u00ab\u0421\u043e\u043b \u043a\u04af\u043d\u0456 \u041c\u0435\u043d \u0430\u0440\u0430\u043b\u0430\u0440\u044b\u04a3\u0434\u0430\u0493\u044b \u0436\u044b\u043b\u049b\u044b\u043b\u0430\u0440\u044b\u04a3\u0434\u044b \u049b\u04b1\u0440\u0442\u044b\u043f, \u0441\u043e\u0493\u044b\u0441 \u043a\u04af\u0439\u043c\u0435\u043b\u0435\u0440\u0456\u04a3\u0434\u0456 \u049b\u0438\u0440\u0430\u0442\u0430\u043c\u044b\u043d, \u2014 \u0434\u0435\u043f \u0436\u0430\u0440\u0438\u044f\u043b\u0430\u0439\u0434\u044b \u0416\u0430\u0440\u0430\u0442\u049b\u0430\u043d \u0418\u0435. \u2014"
        },
        {
            "chapter": 5,
            "verse": 11,
            "name": "Micah 5:11",
            "text": "\u0415\u043b\u0456\u04a3\u0434\u0435\u0433\u0456 \u049b\u0430\u043b\u0430\u043b\u0430\u0440\u0434\u044b \u0442\u0430\u043b\u049b\u0430\u043d\u0434\u0430\u043f, \u049b\u043e\u0440\u0493\u0430\u043d\u0434\u0430\u0440\u044b\u04a3\u043d\u044b\u04a3 \u0431\u0430\u0440\u043b\u044b\u0493\u044b\u043d \u049b\u0438\u0440\u0430\u0442\u0430\u043c\u044b\u043d."
        },
        {
            "chapter": 5,
            "verse": 12,
            "name": "Micah 5:12",
            "text": "\u04e8\u0437\u0456\u04a3\u043d\u0456\u04a3 \u0441\u0438\u049b\u044b\u0440\u043b\u044b\u049b \u0456\u0441\u0442\u0435\u0440\u0456\u04a3\u0434\u0456 \u049b\u04b1\u0440\u0442\u0430\u043c\u044b\u043d, \u0431\u04b1\u0434\u0430\u043d \u0431\u044b\u043b\u0430\u0439 \u0431\u0430\u043b \u0430\u0448\u0430\u0442\u044b\u043d \u0441\u04d9\u0443\u0435\u0433\u0435\u0439\u043b\u0435\u0440\u0456\u04a3 \u0431\u043e\u043b\u043c\u0430\u0439\u0434\u044b."
        },
        {
            "chapter": 5,
            "verse": 13,
            "name": "Micah 5:13",
            "text": "\u041c\u0435\u043d \u0430\u0440\u0430\u043b\u0430\u0440\u044b\u04a3\u0434\u0430\u0493\u044b \u0430\u0493\u0430\u0448\u0442\u0430\u043d \u043e\u0439\u044b\u043b\u0493\u0430\u043d \u0442\u04d9\u04a3\u0456\u0440 \u043c\u04af\u0441\u0456\u043d\u0434\u0435\u0440\u0456 \u043c\u0435\u043d \u0442\u0430\u0441 \u0431\u0430\u0493\u0430\u043d\u0430\u043b\u0430\u0440\u0434\u044b \u049b\u0438\u0440\u0430\u0442\u044b\u043f \u0442\u0430\u0441\u0442\u0430\u0439\u043c\u044b\u043d. \u0411\u04b1\u0434\u0430\u043d \u0431\u044b\u043b\u0430\u0439 \u0441\u0435\u043d\u0434\u0435\u0440 \u04e9\u0437 \u049b\u043e\u043b\u0434\u0430\u0440\u044b\u04a3\u043c\u0435\u043d \u0436\u0430\u0441\u0430\u0493\u0430\u043d \u0442\u04d9\u04a3\u0456\u0440\u0441\u044b\u043c\u0430\u049b\u0442\u0430\u0440\u0493\u0430 \u0442\u0430\u0431\u044b\u043d\u0431\u0430\u0439\u0442\u044b\u043d \u0431\u043e\u043b\u0430\u0441\u044b\u04a3\u0434\u0430\u0440."
        },
        {
            "chapter": 5,
            "verse": 14,
            "name": "Micah 5:14",
            "text": "\u041c\u0435\u043d \u0430\u0440\u0430\u043b\u0430\u0440\u044b\u04a3\u043d\u0430\u043d \u0410\u0448\u0435\u0440\u0430\u043d\u044b\u04a3 \u0431\u0430\u0493\u0430\u043d\u0430\u043b\u0430\u0440\u044b\u043d \u0430\u043b\u044b\u043f \u0442\u0430\u0441\u0442\u0430\u043f, (\u0430\u0440\u0430\u043c\u0434\u0430\u043d\u0493\u0430\u043d) \u049b\u0430\u043b\u0430\u043b\u0430\u0440\u044b\u04a3\u0434\u044b \u049b\u0438\u0440\u0430\u0442\u0430\u043c\u044b\u043d."
        },
        {
            "chapter": 5,
            "verse": 15,
            "name": "Micah 5:15",
            "text": "\u04e8\u0437\u0456\u043c\u0435 \u043c\u043e\u0439\u044b\u043d\u0441\u04b1\u043d\u0431\u0430\u0493\u0430\u043d \u04b1\u043b\u0442\u0442\u0430\u0440\u0493\u0430 \u049b\u0430\u0440\u0441\u044b \u0430\u0448\u0443-\u044b\u0437\u0430\u0493\u0430 \u043a\u0435\u043d\u0435\u043b\u0456\u043f, \u043e\u043b\u0430\u0440\u0493\u0430 \u043b\u0430\u0439\u044b\u049b\u0442\u044b \u0436\u0430\u0437\u0430\u043b\u0430\u0440\u044b\u043d \u0442\u0430\u0440\u0442\u049b\u044b\u0437\u0430\u043c\u044b\u043d\u00bb. "
        }
    ]
}