{
    "translation": "World English Bible",
    "abbreviation": "web",
    "lang": "en",
    "language": "English",
    "direction": "LTR",
    "encoding": "UTF-8",
    "book_nr": 9,
    "book_name": "1 Samuel",
    "chapter": 8,
    "name": "1 Samuel 8",
    "verses": [
        {
            "chapter": 8,
            "verse": 1,
            "name": "1 Samuel 8:1",
            "text": "When Samuel was old, he made his sons judges over Israel."
        },
        {
            "chapter": 8,
            "verse": 2,
            "name": "1 Samuel 8:2",
            "text": "Now the name of his firstborn was Joel; and the name of his second, Abijah: they were judges in Beersheba."
        },
        {
            "chapter": 8,
            "verse": 3,
            "name": "1 Samuel 8:3",
            "text": "His sons didn\u2019t walk in his ways, but turned aside after lucre, and took bribes, and perverted justice."
        },
        {
            "chapter": 8,
            "verse": 4,
            "name": "1 Samuel 8:4",
            "text": "Then all the elders of Israel gathered themselves together, and came to Samuel to Ramah;"
        },
        {
            "chapter": 8,
            "verse": 5,
            "name": "1 Samuel 8:5",
            "text": "and they said to him, \u201cBehold, you are old, and your sons don\u2019t walk in your ways: now make us a king to judge us like all the nations.\u201d"
        },
        {
            "chapter": 8,
            "verse": 6,
            "name": "1 Samuel 8:6",
            "text": "But the thing displeased Samuel, when they said, \u201cGive us a king to judge us.\u201d   Samuel prayed to Yahweh."
        },
        {
            "chapter": 8,
            "verse": 7,
            "name": "1 Samuel 8:7",
            "text": "Yahweh said to Samuel, \u201cListen to the voice of the people in all that they tell you; for they have not rejected you, but they have rejected me, that I should not be king over them."
        },
        {
            "chapter": 8,
            "verse": 8,
            "name": "1 Samuel 8:8",
            "text": "According to all the works which they have done since the day that I brought them up out of Egypt even to this day, in that they have forsaken me, and served other gods, so do they also to you."
        },
        {
            "chapter": 8,
            "verse": 9,
            "name": "1 Samuel 8:9",
            "text": "Now therefore listen to their voice: however you shall protest solemnly to them, and shall show them the way of the king who shall reign over them.\u201d  "
        },
        {
            "chapter": 8,
            "verse": 10,
            "name": "1 Samuel 8:10",
            "text": "  Samuel told all Yahweh\u2019s words to the people who asked of him a king."
        },
        {
            "chapter": 8,
            "verse": 11,
            "name": "1 Samuel 8:11",
            "text": "He said, \u201cThis will be the way of the king who shall reign over you: he will take your sons, and appoint them to him, for his chariots, and to be his horsemen; and they shall run before his chariots;"
        },
        {
            "chapter": 8,
            "verse": 12,
            "name": "1 Samuel 8:12",
            "text": "and he will appoint them to him for captains of thousands, and captains of fifties; and he will assign some to plow his ground, and to reap his harvest, and to make his instruments of war, and the instruments of his chariots."
        },
        {
            "chapter": 8,
            "verse": 13,
            "name": "1 Samuel 8:13",
            "text": "He will take your daughters to be perfumers, and to be cooks, and to be bakers."
        },
        {
            "chapter": 8,
            "verse": 14,
            "name": "1 Samuel 8:14",
            "text": "He will take your fields, and your vineyards, and your olive groves, even their best, and give them to his servants."
        },
        {
            "chapter": 8,
            "verse": 15,
            "name": "1 Samuel 8:15",
            "text": "He will take the tenth of your seed, and of your vineyards, and give to his officers, and to his servants."
        },
        {
            "chapter": 8,
            "verse": 16,
            "name": "1 Samuel 8:16",
            "text": "He will take your male servants, and your female servants, and your best young men, and your donkeys, and put them to his work."
        },
        {
            "chapter": 8,
            "verse": 17,
            "name": "1 Samuel 8:17",
            "text": "He will take the tenth of your flocks: and you shall be his servants."
        },
        {
            "chapter": 8,
            "verse": 18,
            "name": "1 Samuel 8:18",
            "text": "You shall cry out in that day because of your king whom you shall have chosen you; and Yahweh will not answer you in that day.\u201d  "
        },
        {
            "chapter": 8,
            "verse": 19,
            "name": "1 Samuel 8:19",
            "text": "  But the people refused to listen to the voice of Samuel; and they said, \u201cNo; but we will have a king over us,"
        },
        {
            "chapter": 8,
            "verse": 20,
            "name": "1 Samuel 8:20",
            "text": "that we also may be like all the nations, and that our king may judge us, and go out before us, and fight our battles.\u201d  "
        },
        {
            "chapter": 8,
            "verse": 21,
            "name": "1 Samuel 8:21",
            "text": "  Samuel heard all the words of the people, and he rehearsed them in the ears of Yahweh."
        },
        {
            "chapter": 8,
            "verse": 22,
            "name": "1 Samuel 8:22",
            "text": "Yahweh said to Samuel, \u201cListen to their voice, and make them a king.\u201d   Samuel said to the men of Israel, \u201cEvery man go to his city.\u201d   "
        }
    ]
}