{
    "translation": "Smith and Van Dyke",
    "abbreviation": "arabicsv",
    "lang": "ar",
    "language": "Arabic",
    "direction": "RTL",
    "encoding": "UTF-8",
    "book_nr": 18,
    "book_name": "Job",
    "chapter": 13,
    "name": "Job 13",
    "verses": [
        {
            "chapter": 13,
            "verse": 1,
            "name": "Job 13:1",
            "text": "\u00ab\u0647\u0630\u064e\u0627 \u0643\u064f\u0644\u064f\u0651\u0647\u064f \u0631\u064e\u0623\u064e\u062a\u0652\u0647\u064f \u0639\u064e\u064a\u0652\u0646\u0650\u064a. \u0633\u064e\u0645\u0650\u0639\u064e\u062a\u0652\u0647\u064f \u0623\u064f\u0630\u064f\u0646\u0650\u064a \u0648\u064e\u0641\u064e\u0637\u0650\u0646\u064e\u062a\u0652 \u0628\u0650\u0647\u0650."
        },
        {
            "chapter": 13,
            "verse": 2,
            "name": "Job 13:2",
            "text": "\u0645\u064e\u0627 \u062a\u064e\u0639\u0652\u0631\u0650\u0641\u064f\u0648\u0646\u064e\u0647\u064f \u0639\u064e\u0631\u064e\u0641\u0652\u062a\u064f\u0647\u064f \u0623\u064e\u0646\u064e\u0627 \u0623\u064e\u064a\u0652\u0636\u064b\u0627. \u0644\u064e\u0633\u0652\u062a\u064f \u062f\u064f\u0648\u0646\u064e\u0643\u064f\u0645\u0652."
        },
        {
            "chapter": 13,
            "verse": 3,
            "name": "Job 13:3",
            "text": "\u0648\u064e\u0644\u0643\u0650\u0646\u0650\u0651\u064a \u0623\u064f\u0631\u0650\u064a\u062f\u064f \u0623\u064e\u0646\u0652 \u0623\u064f\u0643\u064e\u0644\u0650\u0651\u0645\u064e \u0627\u0644\u0652\u0642\u064e\u062f\u0650\u064a\u0631\u064e\u060c \u0648\u064e\u0623\u064e\u0646\u0652 \u0623\u064f\u062d\u064e\u0627\u0643\u064e\u0645\u064e \u0625\u0650\u0644\u064e\u0649 \u0627\u0644\u0644\u0647\u0650."
        },
        {
            "chapter": 13,
            "verse": 4,
            "name": "Job 13:4",
            "text": "\u0623\u064e\u0645\u064e\u0651\u0627 \u0623\u064e\u0646\u0652\u062a\u064f\u0645\u0652 \u0641\u064e\u0645\u064f\u0644\u064e\u0641\u0650\u0651\u0642\u064f\u0648 \u0643\u064e\u0630\u0650\u0628\u064d. \u0623\u064e\u0637\u0650\u0628\u064e\u0651\u0627\u0621\u064f \u0628\u064e\u0637\u064e\u0651\u0627\u0644\u064f\u0648\u0646\u064e \u0643\u064f\u0644\u064f\u0651\u0643\u064f\u0645\u0652."
        },
        {
            "chapter": 13,
            "verse": 5,
            "name": "Job 13:5",
            "text": "\u0644\u064e\u064a\u0652\u062a\u064e\u0643\u064f\u0645\u0652 \u062a\u064e\u0635\u0652\u0645\u064f\u062a\u064f\u0648\u0646\u064e \u0635\u064e\u0645\u0652\u062a\u064b\u0627. \u064a\u064e\u0643\u064f\u0648\u0646\u064f \u0630\u0644\u0650\u0643\u064e \u0644\u064e\u0643\u064f\u0645\u0652 \u062d\u0650\u0643\u0652\u0645\u064e\u0629\u064b."
        },
        {
            "chapter": 13,
            "verse": 6,
            "name": "Job 13:6",
            "text": "\u0627\u0650\u0633\u0652\u0645\u064e\u0639\u064f\u0648\u0627 \u0627\u0644\u0622\u0646\u064e \u062d\u064f\u062c\u064e\u0651\u062a\u0650\u064a\u060c \u0648\u064e\u0627\u0635\u0652\u063a\u064f\u0648\u0627 \u0625\u0650\u0644\u064e\u0649 \u062f\u064e\u0639\u064e\u0627\u0648\u0650\u064a \u0634\u064e\u0641\u064e\u062a\u064e\u064a\u064e\u0651."
        },
        {
            "chapter": 13,
            "verse": 7,
            "name": "Job 13:7",
            "text": "\u0623\u064e\u062a\u064e\u0642\u064f\u0648\u0644\u064f\u0648\u0646\u064e \u0644\u0623\u064e\u062c\u0652\u0644\u0650 \u0627\u0644\u0644\u0647\u0650 \u0638\u064f\u0644\u0652\u0645\u064b\u0627\u060c \u0648\u064e\u062a\u064e\u062a\u064e\u0643\u064e\u0644\u064e\u0651\u0645\u064f\u0648\u0646\u064e \u0628\u0650\u063a\u0650\u0634\u064d\u0651 \u0644\u0623\u064e\u062c\u0652\u0644\u0650\u0647\u0650\u061f"
        },
        {
            "chapter": 13,
            "verse": 8,
            "name": "Job 13:8",
            "text": "\u0623\u064e\u062a\u064f\u062d\u064e\u0627\u0628\u064f\u0648\u0646\u064e \u0648\u064e\u062c\u0652\u0647\u064e\u0647\u064f\u060c \u0623\u064e\u0645\u0652 \u0639\u064e\u0646\u0650 \u0627\u0644\u0644\u0647\u0650 \u062a\u064f\u062e\u064e\u0627\u0635\u0650\u0645\u064f\u0648\u0646\u064e\u061f"
        },
        {
            "chapter": 13,
            "verse": 9,
            "name": "Job 13:9",
            "text": "\u0623\u064e\u062e\u064e\u064a\u0652\u0631\u064c \u0644\u064e\u0643\u064f\u0645\u0652 \u0623\u064e\u0646\u0652 \u064a\u064e\u0641\u0652\u062d\u064e\u0635\u064e\u0643\u064f\u0645\u0652\u060c \u0623\u064e\u0645\u0652 \u062a\u064f\u062e\u064e\u0627\u062a\u0650\u0644\u064f\u0648\u0646\u064e\u0647\u064f \u0643\u064e\u0645\u064e\u0627 \u064a\u064f\u062e\u064e\u0627\u062a\u064e\u0644\u064f \u0627\u0644\u0625\u0650\u0646\u0652\u0633\u064e\u0627\u0646\u064f\u061f"
        },
        {
            "chapter": 13,
            "verse": 10,
            "name": "Job 13:10",
            "text": "\u062a\u064e\u0648\u0652\u0628\u0650\u064a\u062e\u064b\u0627 \u064a\u064f\u0648\u064e\u0628\u0650\u0651\u062e\u064f\u0643\u064f\u0645\u0652 \u0625\u0650\u0646\u0652 \u062d\u064e\u0627\u0628\u064e\u064a\u0652\u062a\u064f\u0645\u064f \u0627\u0644\u0652\u0648\u064f\u062c\u064f\u0648\u0647\u064e \u062e\u0650\u0641\u0652\u064a\u064e\u0629\u064b."
        },
        {
            "chapter": 13,
            "verse": 11,
            "name": "Job 13:11",
            "text": "\u0641\u064e\u0647\u064e\u0644\u0627\u064e\u0651 \u064a\u064f\u0631\u0652\u0647\u0650\u0628\u064f\u0643\u064f\u0645\u0652 \u062c\u064e\u0644\u0627\u064e\u0644\u064f\u0647\u064f\u060c \u0648\u064e\u064a\u064e\u0633\u0652\u0642\u064f\u0637\u064f \u0639\u064e\u0644\u064e\u064a\u0652\u0643\u064f\u0645\u0652 \u0631\u064f\u0639\u0652\u0628\u064f\u0647\u064f\u061f"
        },
        {
            "chapter": 13,
            "verse": 12,
            "name": "Job 13:12",
            "text": "\u062e\u064f\u0637\u064e\u0628\u064f\u0643\u064f\u0645\u0652 \u0623\u064e\u0645\u0652\u062b\u064e\u0627\u0644\u064f \u0631\u064e\u0645\u064e\u0627\u062f\u064d\u060c \u0648\u064e\u062d\u064f\u0635\u064f\u0648\u0646\u064f\u0643\u064f\u0645\u0652 \u062d\u064f\u0635\u064f\u0648\u0646\u064c \u0645\u0650\u0646\u0652 \u0637\u0650\u064a\u0646\u064d.  "
        },
        {
            "chapter": 13,
            "verse": 13,
            "name": "Job 13:13",
            "text": "\u00ab\u0627\u064f\u0633\u0652\u0643\u064f\u062a\u064f\u0648\u0627 \u0639\u064e\u0646\u0650\u0651\u064a \u0641\u064e\u0623\u064e\u062a\u064e\u0643\u064e\u0644\u064e\u0651\u0645\u064e \u0623\u064e\u0646\u064e\u0627\u060c \u0648\u064e\u0644\u0652\u064a\u064f\u0635\u0650\u0628\u0652\u0646\u0650\u064a \u0645\u064e\u0647\u0652\u0645\u064e\u0627 \u0623\u064e\u0635\u064e\u0627\u0628\u064e."
        },
        {
            "chapter": 13,
            "verse": 14,
            "name": "Job 13:14",
            "text": "\u0644\u0650\u0645\u064e\u0627\u0630\u064e\u0627 \u0622\u062e\u064f\u0630\u064f \u0644\u064e\u062d\u0652\u0645\u0650\u064a \u0628\u0650\u0623\u064e\u0633\u0652\u0646\u064e\u0627\u0646\u0650\u064a\u060c \u0648\u064e\u0623\u064e\u0636\u064e\u0639\u064f \u0646\u064e\u0641\u0652\u0633\u0650\u064a \u0641\u0650\u064a \u0643\u064e\u0641\u0650\u0651\u064a\u061f"
        },
        {
            "chapter": 13,
            "verse": 15,
            "name": "Job 13:15",
            "text": "\u0647\u064f\u0648\u064e\u0630\u064e\u0627 \u064a\u064e\u0642\u0652\u062a\u064f\u0644\u064f\u0646\u0650\u064a. \u0644\u0627\u064e \u0623\u064e\u0646\u0652\u062a\u064e\u0638\u0650\u0631\u064f \u0634\u064e\u064a\u0652\u0626\u064b\u0627. \u0641\u064e\u0642\u064e\u0637\u0652 \u0623\u064f\u0632\u064e\u0643\u0650\u0651\u064a \u0637\u064e\u0631\u0650\u064a\u0642\u0650\u064a \u0642\u064f\u062f\u064e\u0651\u0627\u0645\u064e\u0647\u064f."
        },
        {
            "chapter": 13,
            "verse": 16,
            "name": "Job 13:16",
            "text": "\u0641\u064e\u0647\u0630\u064e\u0627 \u064a\u064e\u0639\u064f\u0648\u062f\u064f \u0625\u0650\u0644\u064e\u0649 \u062e\u064e\u0644\u0627\u064e\u0635\u0650\u064a\u060c \u0623\u064e\u0646\u064e\u0651 \u0627\u0644\u0652\u0641\u064e\u0627\u062c\u0650\u0631\u064e \u0644\u0627\u064e \u064a\u064e\u0623\u0652\u062a\u0650\u064a \u0642\u064f\u062f\u064e\u0651\u0627\u0645\u064e\u0647\u064f."
        },
        {
            "chapter": 13,
            "verse": 17,
            "name": "Job 13:17",
            "text": "\u0633\u064e\u0645\u0652\u0639\u064b\u0627 \u0627\u0633\u0652\u0645\u064e\u0639\u064f\u0648\u0627 \u0623\u064e\u0642\u0652\u0648\u064e\u0627\u0644\u0650\u064a \u0648\u064e\u062a\u064e\u0635\u0652\u0631\u0650\u064a\u062d\u0650\u064a \u0628\u0650\u0645\u064e\u0633\u064e\u0627\u0645\u0650\u0639\u0650\u0643\u064f\u0645\u0652."
        },
        {
            "chapter": 13,
            "verse": 18,
            "name": "Job 13:18",
            "text": "\u0647\u0623\u064e\u0646\u064e\u0630\u064e\u0627 \u0642\u064e\u062f\u0652 \u0623\u064e\u062d\u0652\u0633\u064e\u0646\u0652\u062a\u064f \u0627\u0644\u062f\u064e\u0651\u0639\u0652\u0648\u064e\u0649. \u0623\u064e\u0639\u0652\u0644\u064e\u0645\u064f \u0623\u064e\u0646\u0650\u0651\u064a \u0623\u064e\u062a\u064e\u0628\u064e\u0631\u064e\u0651\u0631\u064f."
        },
        {
            "chapter": 13,
            "verse": 19,
            "name": "Job 13:19",
            "text": "\u0645\u064e\u0646\u0652 \u0647\u064f\u0648\u064e \u0627\u0644\u064e\u0651\u0630\u0650\u064a \u064a\u064f\u062e\u064e\u0627\u0635\u0650\u0645\u064f\u0646\u0650\u064a \u062d\u064e\u062a\u064e\u0651\u0649 \u0623\u064e\u0635\u0652\u0645\u064f\u062a\u064e \u0627\u0644\u0622\u0646\u064e \u0648\u064e\u0623\u064f\u0633\u0652\u0644\u0650\u0645\u064e \u0627\u0644\u0631\u064f\u0651\u0648\u062d\u064e\u061f  "
        },
        {
            "chapter": 13,
            "verse": 20,
            "name": "Job 13:20",
            "text": "\u0625\u0650\u0646\u064e\u0651\u0645\u064e\u0627 \u0623\u064e\u0645\u0652\u0631\u064e\u064a\u0652\u0646\u0650 \u0644\u0627\u064e \u062a\u064e\u0641\u0652\u0639\u064e\u0644\u0652 \u0628\u0650\u064a\u060c \u0641\u064e\u062d\u0650\u064a\u0646\u064e\u0626\u0650\u0630\u064d \u0644\u0627\u064e \u0623\u064e\u062e\u0652\u062a\u064e\u0641\u0650\u064a \u0645\u0650\u0646\u0652 \u062d\u064e\u0636\u0652\u0631\u064e\u062a\u0650\u0643\u064e."
        },
        {
            "chapter": 13,
            "verse": 21,
            "name": "Job 13:21",
            "text": "\u0623\u064e\u0628\u0652\u0639\u0650\u062f\u0652 \u064a\u064e\u062f\u064e\u064a\u0652\u0643\u064e \u0639\u064e\u0646\u0650\u0651\u064a\u060c \u0648\u064e\u0644\u0627\u064e \u062a\u064e\u062f\u064e\u0639\u0652 \u0647\u064e\u064a\u0652\u0628\u064e\u062a\u064e\u0643\u064e \u062a\u064f\u0631\u0652\u0639\u0650\u0628\u064f\u0646\u0650\u064a."
        },
        {
            "chapter": 13,
            "verse": 22,
            "name": "Job 13:22",
            "text": "\u062b\u064f\u0645\u064e\u0651 \u0627\u062f\u0652\u0639\u064f \u0641\u064e\u0623\u064e\u0646\u064e\u0627 \u0623\u064f\u062c\u0650\u064a\u0628\u064f\u060c \u0623\u064e\u0648\u0652 \u0623\u064e\u062a\u064e\u0643\u064e\u0644\u064e\u0651\u0645\u064f \u0641\u064e\u062a\u064f\u062c\u064e\u0627\u0648\u0650\u0628\u064f\u0646\u0650\u064a."
        },
        {
            "chapter": 13,
            "verse": 23,
            "name": "Job 13:23",
            "text": "\u0643\u064e\u0645\u0652 \u0644\u0650\u064a \u0645\u0650\u0646\u064e \u0627\u0644\u0622\u062b\u064e\u0627\u0645\u0650 \u0648\u064e\u0627\u0644\u0652\u062e\u064e\u0637\u064e\u0627\u064a\u064e\u0627\u061f \u0623\u064e\u0639\u0652\u0644\u0650\u0645\u0652\u0646\u0650\u064a \u0630\u064e\u0646\u0652\u0628\u0650\u064a \u0648\u064e\u062e\u064e\u0637\u0650\u064a\u064e\u0651\u062a\u0650\u064a."
        },
        {
            "chapter": 13,
            "verse": 24,
            "name": "Job 13:24",
            "text": "\u0644\u0650\u0645\u064e\u0627\u0630\u064e\u0627 \u062a\u064e\u062d\u0652\u062c\u064f\u0628\u064f \u0648\u064e\u062c\u0652\u0647\u064e\u0643\u064e\u060c \u0648\u064e\u062a\u064e\u062d\u0652\u0633\u0650\u0628\u064f\u0646\u0650\u064a \u0639\u064e\u062f\u064f\u0648\u064b\u0651\u0627 \u0644\u064e\u0643\u064e\u061f"
        },
        {
            "chapter": 13,
            "verse": 25,
            "name": "Job 13:25",
            "text": "\u0623\u064e\u062a\u064f\u0631\u0652\u0639\u0650\u0628\u064f \u0648\u064e\u0631\u064e\u0642\u064e\u0629\u064b \u0645\u064f\u0646\u0652\u062f\u064e\u0641\u064e\u0639\u064e\u0629\u064b\u060c \u0648\u064e\u062a\u064f\u0637\u064e\u0627\u0631\u0650\u062f\u064f \u0642\u064e\u0634\u064b\u0651\u0627 \u064a\u064e\u0627\u0628\u0650\u0633\u064b\u0627\u061f"
        },
        {
            "chapter": 13,
            "verse": 26,
            "name": "Job 13:26",
            "text": "\u0644\u0623\u064e\u0646\u064e\u0651\u0643\u064e \u0643\u064e\u062a\u064e\u0628\u0652\u062a\u064e \u0639\u064e\u0644\u064e\u064a\u064e\u0651 \u0623\u064f\u0645\u064f\u0648\u0631\u064b\u0627 \u0645\u064f\u0631\u064e\u0651\u0629\u064b\u060c \u0648\u064e\u0648\u064e\u0631\u064e\u0651\u062b\u0652\u062a\u064e\u0646\u0650\u064a \u0622\u062b\u064e\u0627\u0645\u064e \u0635\u0650\u0628\u064e\u0627\u064a\u064e\u060c"
        },
        {
            "chapter": 13,
            "verse": 27,
            "name": "Job 13:27",
            "text": "\u0641\u064e\u062c\u064e\u0639\u064e\u0644\u0652\u062a\u064e \u0631\u0650\u062c\u0652\u0644\u064e\u064a\u064e\u0651 \u0641\u0650\u064a \u0627\u0644\u0652\u0645\u0650\u0642\u0652\u0637\u064e\u0631\u064e\u0629\u0650\u060c \u0648\u064e\u0644\u0627\u064e\u062d\u064e\u0638\u0652\u062a\u064e \u062c\u064e\u0645\u0650\u064a\u0639\u064e \u0645\u064e\u0633\u064e\u0627\u0644\u0650\u0643\u0650\u064a\u060c \u0648\u064e\u0639\u064e\u0644\u064e\u0649 \u0623\u064f\u0635\u064f\u0648\u0644\u0650 \u0631\u0650\u062c\u0652\u0644\u064e\u064a\u064e\u0651 \u0646\u064e\u0628\u064e\u0634\u0652\u062a\u064e."
        },
        {
            "chapter": 13,
            "verse": 28,
            "name": "Job 13:28",
            "text": "\u0648\u064e\u0623\u064e\u0646\u064e\u0627 \u0643\u064e\u0645\u064f\u062a\u064e\u0633\u064e\u0648\u0650\u0651\u0633\u064d \u064a\u064e\u0628\u0652\u0644\u064e\u0649\u060c \u0643\u064e\u062b\u064e\u0648\u0652\u0628\u064d \u0623\u064e\u0643\u064e\u0644\u064e\u0647\u064f \u0627\u0644\u0652\u0639\u064f\u062b\u064f\u0651. "
        }
    ]
}