{
    "translation": "Smith and Van Dyke",
    "abbreviation": "arabicsv",
    "lang": "ar",
    "language": "Arabic",
    "direction": "RTL",
    "encoding": "UTF-8",
    "book_nr": 18,
    "book_name": "Job",
    "chapter": 17,
    "name": "Job 17",
    "verses": [
        {
            "chapter": 17,
            "verse": 1,
            "name": "Job 17:1",
            "text": "\u00ab\u0631\u064f\u0648\u062d\u0650\u064a \u062a\u064e\u0644\u0650\u0641\u064e\u062a\u0652. \u0623\u064e\u064a\u064e\u0651\u0627\u0645\u0650\u064a \u0627\u0646\u0652\u0637\u064e\u0641\u064e\u0623\u064e\u062a\u0652. \u0625\u0650\u0646\u064e\u0651\u0645\u064e\u0627 \u0627\u0644\u0652\u0642\u064f\u0628\u064f\u0648\u0631\u064f \u0644\u0650\u064a.  "
        },
        {
            "chapter": 17,
            "verse": 2,
            "name": "Job 17:2",
            "text": "\u00ab\u0644\u064e\u0648\u0652\u0644\u0627\u064e \u0627\u0644\u0652\u0645\u064f\u062e\u064e\u0627\u062a\u0650\u0644\u064f\u0648\u0646\u064e \u0639\u0650\u0646\u0652\u062f\u0650\u064a\u060c \u0648\u064e\u0639\u064e\u064a\u0652\u0646\u0650\u064a \u062a\u064e\u0628\u0650\u064a\u062a\u064f \u0639\u064e\u0644\u064e\u0649 \u0645\u064f\u0634\u064e\u0627\u062c\u064e\u0631\u064e\u0627\u062a\u0650\u0647\u0650\u0645\u0652."
        },
        {
            "chapter": 17,
            "verse": 3,
            "name": "Job 17:3",
            "text": "\u0643\u064f\u0646\u0652 \u0636\u064e\u0627\u0645\u0650\u0646\u0650\u064a \u0639\u0650\u0646\u0652\u062f\u064e \u0646\u064e\u0641\u0652\u0633\u0650\u0643\u064e. \u0645\u064e\u0646\u0652 \u0647\u064f\u0648\u064e \u0627\u0644\u064e\u0651\u0630\u0650\u064a \u064a\u064f\u0635\u064e\u0641\u0650\u0651\u0642\u064f \u064a\u064e\u062f\u0650\u064a\u061f"
        },
        {
            "chapter": 17,
            "verse": 4,
            "name": "Job 17:4",
            "text": "\u0644\u0623\u064e\u0646\u064e\u0651\u0643\u064e \u0645\u064e\u0646\u064e\u0639\u0652\u062a\u064e \u0642\u064e\u0644\u0652\u0628\u064e\u0647\u064f\u0645\u0652 \u0639\u064e\u0646\u0650 \u0627\u0644\u0652\u0641\u0650\u0637\u0652\u0646\u064e\u0629\u0650\u060c \u0644\u0623\u064e\u062c\u0652\u0644\u0650 \u0630\u0644\u0650\u0643\u064e \u0644\u0627\u064e \u062a\u064e\u0631\u0652\u0641\u064e\u0639\u064f\u0647\u064f\u0645\u064f."
        },
        {
            "chapter": 17,
            "verse": 5,
            "name": "Job 17:5",
            "text": "\u0627\u0644\u064e\u0651\u0630\u0650\u064a \u064a\u064f\u0633\u064e\u0644\u0650\u0651\u0645\u064f \u0627\u0644\u0623\u064e\u0635\u0652\u062d\u064e\u0627\u0628\u064e \u0644\u0650\u0644\u0633\u064e\u0651\u0644\u0652\u0628\u0650\u060c \u062a\u064e\u062a\u0652\u0644\u064e\u0641\u064f \u0639\u064f\u064a\u064f\u0648\u0646\u064f \u0628\u064e\u0646\u0650\u064a\u0647\u0650."
        },
        {
            "chapter": 17,
            "verse": 6,
            "name": "Job 17:6",
            "text": "\u0623\u064e\u0648\u0652\u0642\u064e\u0641\u064e\u0646\u0650\u064a \u0645\u064e\u062b\u064e\u0644\u0627\u064b \u0644\u0650\u0644\u0634\u064f\u0651\u0639\u064f\u0648\u0628\u0650\u060c \u0648\u064e\u0635\u0650\u0631\u0652\u062a\u064f \u0644\u0650\u0644\u0652\u0628\u064e\u0635\u0652\u0642\u0650 \u0641\u0650\u064a \u0627\u0644\u0652\u0648\u064e\u062c\u0652\u0647\u0650."
        },
        {
            "chapter": 17,
            "verse": 7,
            "name": "Job 17:7",
            "text": "\u0643\u064e\u0644\u064e\u0651\u062a\u0652 \u0639\u064e\u064a\u0652\u0646\u0650\u064a \u0645\u0650\u0646\u064e \u0627\u0644\u0652\u062d\u064f\u0632\u0652\u0646\u0650\u060c \u0648\u064e\u0623\u064e\u0639\u0652\u0636\u064e\u0627\u0626\u0650\u064a \u0643\u064f\u0644\u064f\u0651\u0647\u064e\u0627 \u0643\u064e\u0627\u0644\u0638\u0650\u0651\u0644\u0650\u0651."
        },
        {
            "chapter": 17,
            "verse": 8,
            "name": "Job 17:8",
            "text": "\u064a\u064e\u062a\u064e\u0639\u064e\u062c\u064e\u0651\u0628\u064f \u0627\u0644\u0652\u0645\u064f\u0633\u0652\u062a\u064e\u0642\u0650\u064a\u0645\u064f\u0648\u0646\u064e \u0645\u0650\u0646\u0652 \u0647\u0630\u064e\u0627\u060c \u0648\u064e\u0627\u0644\u0652\u0628\u064e\u0631\u0650\u0626\u064f \u064a\u064e\u0646\u0652\u062a\u064e\u0647\u0650\u0636\u064f \u0639\u064e\u0644\u064e\u0649 \u0627\u0644\u0652\u0641\u064e\u0627\u062c\u0650\u0631\u0650."
        },
        {
            "chapter": 17,
            "verse": 9,
            "name": "Job 17:9",
            "text": "\u0623\u064e\u0645\u064e\u0651\u0627 \u0627\u0644\u0635\u0650\u0651\u062f\u0650\u0651\u064a\u0642\u064f \u0641\u064e\u064a\u064e\u0633\u0652\u062a\u064e\u0645\u0652\u0633\u0650\u0643\u064f \u0628\u0650\u0637\u064e\u0631\u0650\u064a\u0642\u0650\u0647\u0650\u060c \u0648\u064e\u0627\u0644\u0637\u064e\u0651\u0627\u0647\u0650\u0631\u064f \u0627\u0644\u0652\u064a\u064e\u062f\u064e\u064a\u0652\u0646\u0650 \u064a\u064e\u0632\u0652\u062f\u064e\u0627\u062f\u064f \u0642\u064f\u0648\u064e\u0651\u0629\u064b.  "
        },
        {
            "chapter": 17,
            "verse": 10,
            "name": "Job 17:10",
            "text": "\u00ab\u0648\u064e\u0644\u0643\u0650\u0646\u0650 \u0627\u0631\u0652\u062c\u0650\u0639\u064f\u0648\u0627 \u0643\u064f\u0644\u064f\u0651\u0643\u064f\u0645\u0652 \u0648\u064e\u062a\u064e\u0639\u064e\u0627\u0644\u064e\u0648\u0652\u0627\u060c \u0641\u064e\u0644\u0627\u064e \u0623\u064e\u062c\u0650\u062f\u064f \u0641\u0650\u064a\u0643\u064f\u0645\u0652 \u062d\u064e\u0643\u0650\u064a\u0645\u064b\u0627."
        },
        {
            "chapter": 17,
            "verse": 11,
            "name": "Job 17:11",
            "text": "\u0623\u064e\u064a\u064e\u0651\u0627\u0645\u0650\u064a \u0642\u064e\u062f\u0652 \u0639\u064e\u0628\u064e\u0631\u064e\u062a\u0652. \u0645\u064e\u0642\u064e\u0627\u0635\u0650\u062f\u0650\u064a\u060c \u0625\u0650\u0631\u0652\u062b\u064f \u0642\u064e\u0644\u0652\u0628\u0650\u064a\u060c \u0642\u064e\u062f\u0650 \u0627\u0646\u0652\u062a\u064e\u0632\u064e\u0639\u064e\u062a\u0652."
        },
        {
            "chapter": 17,
            "verse": 12,
            "name": "Job 17:12",
            "text": "\u064a\u064e\u062c\u0652\u0639\u064e\u0644\u064f\u0648\u0646\u064e \u0627\u0644\u0644\u064e\u0651\u064a\u0652\u0644\u064e \u0646\u064e\u0647\u064e\u0627\u0631\u064b\u0627\u060c \u0646\u064f\u0648\u0631\u064b\u0627 \u0642\u064e\u0631\u0650\u064a\u0628\u064b\u0627 \u0644\u0650\u0644\u0638\u064f\u0651\u0644\u0652\u0645\u064e\u0629\u0650."
        },
        {
            "chapter": 17,
            "verse": 13,
            "name": "Job 17:13",
            "text": "\u0625\u0650\u0630\u064e\u0627 \u0631\u064e\u062c\u064e\u0648\u0652\u062a\u064f \u0627\u0644\u0652\u0647\u064e\u0627\u0648\u0650\u064a\u064e\u0629\u064e \u0628\u064e\u064a\u0652\u062a\u064b\u0627 \u0644\u0650\u064a\u060c \u0648\u064e\u0641\u0650\u064a \u0627\u0644\u0638\u064e\u0651\u0644\u0627\u064e\u0645\u0650 \u0645\u064e\u0647\u064e\u0651\u062f\u0652\u062a\u064f \u0641\u0650\u0631\u064e\u0627\u0634\u0650\u064a\u060c"
        },
        {
            "chapter": 17,
            "verse": 14,
            "name": "Job 17:14",
            "text": "\u0648\u064e\u0642\u064f\u0644\u0652\u062a\u064f \u0644\u0650\u0644\u0652\u0642\u064e\u0628\u0652\u0631\u0650: \u0623\u064e\u0646\u0652\u062a\u064e \u0623\u064e\u0628\u0650\u064a\u060c \u0648\u064e\u0644\u0650\u0644\u062f\u064f\u0651\u0648\u062f\u0650: \u0623\u064e\u0646\u0652\u062a\u064e \u0623\u064f\u0645\u0650\u0651\u064a \u0648\u064e\u0623\u064f\u062e\u0652\u062a\u0650\u064a\u060c"
        },
        {
            "chapter": 17,
            "verse": 15,
            "name": "Job 17:15",
            "text": "\u0641\u064e\u0623\u064e\u064a\u0652\u0646\u064e \u0625\u0650\u0630\u064b\u0627 \u0622\u0645\u064e\u0627\u0644\u0650\u064a\u061f \u0622\u0645\u064e\u0627\u0644\u0650\u064a\u060c \u0645\u064e\u0646\u0652 \u064a\u064f\u0639\u064e\u0627\u064a\u0650\u0646\u064f\u0647\u064e\u0627\u061f"
        },
        {
            "chapter": 17,
            "verse": 16,
            "name": "Job 17:16",
            "text": "\u062a\u064e\u0647\u0652\u0628\u0650\u0637\u064f \u0625\u0650\u0644\u064e\u0649 \u0645\u064e\u063a\u064e\u0627\u0644\u0650\u064a\u0642\u0650 \u0627\u0644\u0652\u0647\u064e\u0627\u0648\u0650\u064a\u064e\u0629\u0650 \u0625\u0650\u0630\u0652 \u062a\u064e\u0631\u0652\u062a\u064e\u0627\u062d\u064f \u0645\u064e\u0639\u064b\u0627 \u0641\u0650\u064a \u0627\u0644\u062a\u064f\u0651\u0631\u064e\u0627\u0628\u0650\u00bb. "
        }
    ]
}