{
    "translation": "Hungarian Karoli",
    "abbreviation": "karoli",
    "lang": "hu",
    "language": "Hungarian",
    "direction": "LTR",
    "encoding": "UTF-8",
    "book_nr": 19,
    "book_name": "Psalms",
    "chapter": 12,
    "name": "Psalms 12",
    "verses": [
        {
            "chapter": 12,
            "verse": 1,
            "name": "Psalms 12:1",
            "text": "Az \u00e9nekl\u0151mesternek a seminithre; D\u00e1vid zsolt\u00e1ra. "
        },
        {
            "chapter": 12,
            "verse": 2,
            "name": "Psalms 12:2",
            "text": "Seg\u00edts Uram, mert elfogyott a kegyes, mert elt\u00fcntek a h\u00edvek az emberek fiai k\u00f6z\u00fcl. "
        },
        {
            "chapter": 12,
            "verse": 3,
            "name": "Psalms 12:3",
            "text": "Hamiss\u00e1got sz\u00f3l egyik a m\u00e1siknak; hizelked\u0151 ajakkal kett\u0151s sz\u00edvb\u0151l sz\u00f3lnak. "
        },
        {
            "chapter": 12,
            "verse": 4,
            "name": "Psalms 12:4",
            "text": "V\u00e1gja ki az \u00dar mind a hizelked\u0151 ajkakat, a nyelvet, a mely nagyokat mond. "
        },
        {
            "chapter": 12,
            "verse": 5,
            "name": "Psalms 12:5",
            "text": "A kik ezt mondj\u00e1k: Nyelv\u00fcnkkel fel\u00fclkereked\u00fcnk, ajkaink vel\u00fcnk vannak; ki lehetne \u00dar felett\u00fcnk? "
        },
        {
            "chapter": 12,
            "verse": 6,
            "name": "Psalms 12:6",
            "text": "A szeg\u00e9nyek elnyom\u00e1sa miatt, a nyomorultak ny\u00f6g\u00e9se miatt legott felkelek, azt mondja az \u00dar; biztoss\u00e1gba helyezem azt, a ki arra v\u00e1gyik. "
        },
        {
            "chapter": 12,
            "verse": 7,
            "name": "Psalms 12:7",
            "text": "Az \u00dar besz\u00e9dei tiszta besz\u00e9dek, mint f\u00f6ldb\u0151l val\u00f3 koh\u00f3ban megolvasztott ez\u00fcst, h\u00e9tszer megtiszt\u00edtva. "
        },
        {
            "chapter": 12,
            "verse": 8,
            "name": "Psalms 12:8",
            "text": "Te Uram, tartsd meg \u0151ket; \u0151rizd meg \u0151ket e nemzets\u00e9gt\u0151l \u00f6r\u00f6kk\u00e9.  (Psalms 12:9) K\u00f6r\u00f6sk\u00f6r\u00fcl j\u00e1rnak a gonoszok, mihelyt az al\u00e1val\u00f3s\u00e1g felmagasztaltatik az emberek fiai k\u00f6zt.   "
        }
    ]
}