{
    "translation": "Belarusian Bible",
    "abbreviation": "bela",
    "lang": "be",
    "language": "Belarusian",
    "direction": "LTR",
    "encoding": "UTF-8",
    "book_nr": 58,
    "book_name": "Hebrews",
    "chapter": 9,
    "name": "Hebrews 9",
    "verses": [
        {
            "chapter": 9,
            "verse": 1,
            "name": "Hebrews 9:1",
            "text": " \u0406 \u043f\u0435\u0440\u0448\u044b \u0437\u0430\u043f\u0430\u0432\u0435\u0442 \u043c\u0435\u045e \u0443\u0441\u0442\u0430\u0432\u0443 \u043f\u0440\u0430 \u043d\u0430\u0431\u0430\u0436\u044d\u043d\u0441\u0442\u0432\u0430 \u0456 \u0441\u044c\u0432\u044f\u0446\u0456\u043b\u0456\u0448\u0447\u0430 \u0437\u044f\u043c\u043d\u043e\u0435,"
        },
        {
            "chapter": 9,
            "verse": 2,
            "name": "Hebrews 9:2",
            "text": "\u0431\u043e \u043f\u0430\u0441\u0442\u0430\u045e\u043b\u0435\u043d\u0430 \u0431\u044b\u043b\u0430 \u0441\u043a\u0456\u043d\u0456\u044f \u043f\u0435\u0440\u0448\u0430\u044f, \u0443 \u044f\u043a\u043e\u0439 \u0431\u044b\u043b\u0456 \u0441\u044c\u0432\u044f\u0446\u0456\u043b\u044c\u043d\u044f, \u0456 \u0441\u0442\u043e\u043b, \u0456 \u0445\u043b\u044f\u0431\u044b \u043f\u0430\u043a\u043b\u0430\u0434\u043d\u044b\u044f, \u0456 \u044f\u043a\u0430\u044f \u043d\u0430\u0437\u044b\u0432\u0430\u0435\u0446\u0446\u0430 \"\u0441\u044c\u0432\u044f\u0442\u043e\u0435\"."
        },
        {
            "chapter": 9,
            "verse": 3,
            "name": "Hebrews 9:3",
            "text": "\u0410 \u0437\u0430 \u0434\u0440\u0443\u0433\u043e\u044e \u0437\u0430\u0441\u043b\u043e\u043d\u0430\u044e \u0431\u044b\u043b\u0430 \u0441\u043a\u0456\u043d\u0456\u044f, \u043d\u0430\u0437\u044b\u0432\u0430\u043d\u0430\u044f \"\u0441\u044c\u0432\u044f\u0442\u043e\u0435 \u0441\u044c\u0432\u044f\u0442\u044b\u0445\","
        },
        {
            "chapter": 9,
            "verse": 4,
            "name": "Hebrews 9:4",
            "text": "\u0443 \u044f\u043a\u043e\u0439 \u043c\u0435\u043b\u0430\u0441\u044f \u0437\u0430\u043b\u0430\u0442\u0430\u044f \u043a\u0430\u0434\u0437\u0456\u043b\u044c\u043d\u0456\u0446\u0430 \u0456 \u0430\u0431\u043a\u043b\u0430\u0434\u0437\u0435\u043d\u044b \u0437 \u0443\u0441\u0456\u0445 \u0431\u0430\u043a\u043e\u045e \u0437\u043e\u043b\u0430\u0442\u0430\u043c \u043a\u0430\u045e\u0447\u044d\u0433 \u0437\u0430\u043f\u0430\u0432\u0435\u0442\u0443, \u0434\u0437\u0435 \u0431\u044b\u043b\u0456 \u0437\u0430\u043b\u0430\u0442\u044b \u043f\u043e\u0441\u0443\u0434 \u0437 \u043c\u0430\u043d\u043d\u0430\u044e, \u0436\u0430\u0437\u043b\u043e \u0410\u0430\u0440\u043e\u043d\u0430\u0432\u0430 \u0440\u0430\u0441\u044c\u0446\u044c\u0432\u0456\u043b\u0430\u0435 \u0456 \u0441\u043a\u0440\u044b\u0436\u0430\u043b\u0456 \u0437\u0430\u043f\u0430\u0432\u0435\u0442\u0443,"
        },
        {
            "chapter": 9,
            "verse": 5,
            "name": "Hebrews 9:5",
            "text": "\u0430 \u043d\u0430\u0434 \u0456\u043c \u0445\u044d\u0440\u0443\u0432\u0456\u043c\u044b \u0441\u043b\u0430\u0432\u044b, \u044f\u043a\u0456\u044f \u0430\u0441\u043b\u0430\u043d\u044f\u043b\u0456 \u0430\u0447\u044b\u0448\u0447\u0430\u043b\u044c\u043d\u044e; \u043f\u0440\u0430 \u0448\u0442\u043e \u043d\u044f \u0442\u0440\u044d\u0431\u0430 \u0446\u044f\u043f\u0435\u0440 \u0433\u0430\u0432\u0430\u0440\u044b\u0446\u044c \u043f\u0430\u0434\u0440\u0430\u0431\u044f\u0437\u043d\u0430."
        },
        {
            "chapter": 9,
            "verse": 6,
            "name": "Hebrews 9:6",
            "text": "\u041f\u0440\u044b \u0442\u0430\u043a\u0456\u043c \u0443\u043b\u0430\u0434\u043a\u0430\u0432\u0430\u043d\u044c\u043d\u0456, \u0443 \u043f\u0435\u0440\u0448\u0443\u044e \u0441\u043a\u0456\u043d\u0456\u044e \u0437\u0430\u045e\u0441\u0451\u0434\u044b \u045e\u0432\u0430\u0445\u043e\u0434\u0437\u044f\u0446\u044c \u0441\u044c\u0432\u044f\u0442\u0430\u0440\u044b \u0441\u043b\u0443\u0436\u044b\u0446\u044c \u041d\u0430\u0431\u0430\u0436\u044d\u043d\u0441\u0442\u0432\u0430;"
        },
        {
            "chapter": 9,
            "verse": 7,
            "name": "Hebrews 9:7",
            "text": "\u0430 \u045e \u0434\u0440\u0443\u0433\u0443\u044e \u2014 \u0430\u0434\u0437\u0456\u043d \u0440\u0430\u0437 \u043d\u0430 \u0433\u043e\u0434 \u0430\u0434\u0437\u0456\u043d \u0442\u043e\u043b\u044c\u043a\u0456 \u043f\u0435\u0440\u0448\u0430\u0441\u044c\u0432\u044f\u0442\u0430\u0440, \u043d\u0435 \u0431\u044f\u0437 \u043a\u0440\u044b\u0432\u0456, \u044f\u043a\u0443\u044e \u0430\u0445\u0432\u044f\u0440\u0443\u0435 \u0437\u0430 \u0441\u044f\u0431\u0435 \u0456 \u0437\u0430 \u0433\u0440\u0430\u0445\u0456 \u043d\u0435\u0430\u0431\u0430\u0437\u043d\u0430\u043d\u0430\u0441\u044c\u0446\u0456 \u043d\u0430\u0440\u043e\u0434\u0443."
        },
        {
            "chapter": 9,
            "verse": 8,
            "name": "Hebrews 9:8",
            "text": "\u0413\u044d\u0442\u044b\u043c \u0414\u0443\u0445 \u0421\u044c\u0432\u044f\u0442\u044b \u043f\u0430\u043a\u0430\u0437\u0432\u0430\u0435, \u0448\u0442\u043e \u044f\u0448\u0447\u044d \u043d\u0435 \u0430\u0434\u043a\u0440\u044b\u0442\u0430 \u0434\u0430\u0440\u043e\u0433\u0430 \u045e \u0441\u044c\u0432\u044f\u0446\u0456\u043b\u0456\u0448\u0447\u0430, \u043f\u0430\u043a\u0443\u043b\u044c \u0441\u0442\u0430\u0456\u0446\u044c \u0440\u0430\u043d\u0435\u0439\u0448\u0430\u044f \u0441\u043a\u0456\u043d\u0456\u044f."
        },
        {
            "chapter": 9,
            "verse": 9,
            "name": "Hebrews 9:9",
            "text": "\u042f\u043d\u0430 \u0451\u0441\u044c\u0446\u044c \u0432\u043e\u0431\u0440\u0430\u0437 \u0446\u044f\u043f\u0435\u0440\u0430\u0448\u043d\u044f\u0433\u0430 \u0447\u0430\u0441\u0443, \u043a\u0430\u043b\u0456 \u043f\u0440\u044b\u043d\u043e\u0441\u044f\u0446\u0446\u0430 \u0434\u0430\u0440\u044b \u0456 \u0430\u0445\u0432\u044f\u0440\u044b, \u044f\u043a\u0456\u044f \u043d\u044f \u043c\u043e\u0433\u0443\u0446\u044c \u0437\u0440\u0430\u0431\u0456\u0446\u044c \u0443 \u0441\u0443\u043c\u043b\u0435\u043d\u044c\u043d\u0456 \u0434\u0430\u0441\u043a\u0430\u043d\u0430\u043b\u044b\u043c \u0430\u0445\u0432\u044f\u0440\u0430\u0432\u0430\u043b\u044c\u043d\u0456\u043a\u0430,"
        },
        {
            "chapter": 9,
            "verse": 10,
            "name": "Hebrews 9:10",
            "text": "\u0456 \u044f\u043a\u0456\u044f \u0437 \u043f\u0440\u044b\u0441\u043c\u0430\u043a\u0430\u043c\u0456 \u0456 \u043f\u0456\u0442\u0432\u043e\u043c, \u0456 \u0440\u043e\u0437\u043d\u044b\u043c\u0456 \u0430\u0431\u043c\u044b\u0432\u0430\u043d\u044c\u043d\u044f\u043c\u0456 \u0456 \u0430\u0431\u0440\u0430\u0434\u0430\u043c\u0456, \u0448\u0442\u043e \u0434\u0430\u0442\u044b\u0447\u0430\u0446\u0446\u0430 \u043f\u043b\u043e\u0446\u0456, \u0443\u0441\u0442\u0430\u043d\u043e\u045e\u043b\u0435\u043d\u044b\u044f \u0431\u044b\u043b\u0456 \u0442\u043e\u043b\u044c\u043a\u0456 \u0434\u0430 \u0447\u0430\u0441\u0443 \u0432\u044b\u043f\u0440\u0430\u045e\u043b\u0435\u043d\u044c\u043d\u044f."
        },
        {
            "chapter": 9,
            "verse": 11,
            "name": "Hebrews 9:11",
            "text": "\u0410\u043b\u0435 \u0425\u0440\u044b\u0441\u0442\u043e\u0441, \u041f\u0435\u0440\u0448\u0430\u0441\u044c\u0432\u044f\u0442\u0430\u0440 \u0431\u0443\u0434\u0443\u0447\u044b\u0445 \u0434\u0430\u0431\u0440\u043e\u0442\u0430\u045e, \u043f\u0440\u044b\u0439\u0448\u043e\u045e\u0448\u044b \u0437 \u0431\u043e\u043b\u044c\u0448\u0430\u0439 \u0456 \u0434\u0430\u0441\u043a\u0430\u043d\u0430\u043b\u0435\u0439\u0448\u0430\u0439 \u0441\u043a\u0456\u043d\u0456\u044f\u0439, \u043d\u0435\u0440\u0443\u043a\u0430\u0442\u0432\u043e\u0440\u043d\u0430\u044e, \u0433\u044d\u0442\u0430 \u0437\u043d\u0430\u0447\u044b\u0446\u044c, \u043d\u0435 \u0442\u0430\u0433\u043e \u045e\u0441\u0442\u0430\u043b\u044f\u0432\u0430\u043d\u044c\u043d\u044f,"
        },
        {
            "chapter": 9,
            "verse": 12,
            "name": "Hebrews 9:12",
            "text": "\u0456 \u043d\u044f \u0437 \u043a\u0440\u044b\u0432\u0451\u044e \u043a\u0430\u0437\u043b\u043e\u045e \u0456 \u0446\u044f\u043b\u044f\u0442, \u0430 \u0441\u0430 \u0421\u0432\u0430\u0451\u044e \u041a\u0440\u044b\u0432\u0451\u044e; \u0430\u0434\u043d\u0430\u0433\u043e \u0440\u0430\u0437\u0443 \u045e\u0432\u0430\u0439\u0448\u043e\u045e \u0443 \u0441\u044c\u0432\u044f\u0446\u0456\u043b\u0456\u0448\u0447\u0430 \u0456 \u043d\u0430\u0431\u044b\u045e \u0432\u0435\u0447\u043d\u0430\u0435 \u0430\u0434\u043a\u0443\u043f\u043b\u0435\u043d\u044c\u043d\u0435."
        },
        {
            "chapter": 9,
            "verse": 13,
            "name": "Hebrews 9:13",
            "text": "\u0411\u043e, \u043a\u0430\u043b\u0456 \u043a\u0440\u043e\u045e \u0446\u044f\u043b\u044f\u0442 \u0456 \u043a\u0430\u0437\u043b\u043e\u045e \u0456 \u043f\u043e\u043f\u0435\u043b \u044f\u043b\u0430\u045e\u043a\u0456 \u043f\u0440\u0430\u0437 \u0430\u043a\u0440\u0430\u043f\u043b\u0435\u043d\u044c\u043d\u0435 \u0430\u0441\u044c\u0432\u044f\u0447\u0430\u0435 \u0430\u043f\u0430\u0433\u0430\u043d\u0435\u043d\u044b\u0445, \u043a\u0430\u0431 \u0447\u044b\u0441\u0442\u0430\u0435 \u0431\u044b\u043b\u043e \u0446\u0435\u043b\u0430,"
        },
        {
            "chapter": 9,
            "verse": 14,
            "name": "Hebrews 9:14",
            "text": "\u0434\u044b\u043a \u043d\u0430\u043a\u043e\u043b\u044c\u043a\u0456 \u0436 \u0431\u043e\u043b\u0435\u0439 \u041a\u0440\u043e\u045e \u0425\u0440\u044b\u0441\u0442\u0430, \u042f\u043a\u0456 \u0414\u0443\u0445\u0430\u043c \u0421\u044c\u0432\u044f\u0442\u044b\u043c \u043f\u0440\u044b\u043d\u0451\u0441 \u0421\u044f\u0431\u0435, \u0431\u0435\u0437\u0434\u0430\u043a\u043e\u0440\u043d\u0430\u0433\u0430, \u0411\u043e\u0433\u0443, \u0430\u0447\u044b\u0441\u044c\u0446\u0456\u0446\u044c \u0441\u0443\u043c\u043b\u0435\u043d\u044c\u043d\u0435 \u043d\u0430\u0448\u0430\u0435 \u0430\u0434 \u043c\u0451\u0440\u0442\u0432\u044b\u0445 \u0434\u0437\u0435\u044f\u045e, \u043d\u0430 \u0441\u043b\u0443\u0436\u044d\u043d\u044c\u043d\u0435 \u0411\u043e\u0433\u0443 \u0436\u044b\u0432\u043e\u043c\u0443 \u0456 \u0421\u0430\u043f\u0440\u0430\u045e\u0434\u043d\u0430\u043c\u0443!"
        },
        {
            "chapter": 9,
            "verse": 15,
            "name": "Hebrews 9:15",
            "text": "\u0406 \u0442\u0430\u043c\u0443 \u0401\u043d \u0451\u0441\u044c\u0446\u044c \u0417\u0430\u0441\u0442\u0443\u043f\u043d\u0456\u043a \u041d\u043e\u0432\u0430\u0433\u0430 \u0417\u0430\u043f\u0430\u0432\u0435\u0442\u0443, \u043a\u0430\u0431 \u0443 \u0432\u044b\u043d\u0456\u043a\u0443 \u0441\u044c\u043c\u0435\u0440\u0446\u0456 \u042f\u0433\u043e\u043d\u0430\u0439, \u044f\u043a\u0430\u044f \u0431\u044b\u043b\u0430 \u0434\u0437\u0435\u043b\u044f \u0430\u0434\u043a\u0443\u043f\u043b\u0435\u043d\u044c\u043d\u044f \u0430\u0434 \u0437\u043b\u0430\u0447\u044b\u043d\u0441\u0442\u0432\u0430\u045e, \u0437\u0440\u043e\u0431\u043b\u0435\u043d\u044b\u0445 \u0443 \u043f\u0435\u0440\u0448\u044b\u043c \u0437\u0430\u043f\u0430\u0432\u0435\u0446\u0435, \u043f\u0430\u043a\u043b\u0456\u043a\u0430\u043d\u044b\u044f \u0434\u0430 \u0432\u0435\u0447\u043d\u0430\u0439 \u0441\u043f\u0430\u0434\u0447\u044b\u043d\u044b \u0430\u0442\u0440\u044b\u043c\u0430\u043b\u0456 \u0430\u0431\u044f\u0446\u0430\u043d\u044c\u043d\u0435."
        },
        {
            "chapter": 9,
            "verse": 16,
            "name": "Hebrews 9:16",
            "text": "\u0411\u043e, \u0434\u0437\u0435 \u0437\u0430\u0432\u044f\u0448\u0447\u0430\u043d\u044c\u043d\u0435, \u0442\u0430\u043c \u0442\u0440\u044d\u0431\u0430, \u043a\u0430\u0431 \u043d\u0430\u0441\u0442\u0430\u043b\u0430 \u0441\u044c\u043c\u0435\u0440\u0446\u044c \u0437\u0430\u0432\u044f\u0448\u0447\u0430\u043b\u044c\u043d\u0456\u043a\u0430,"
        },
        {
            "chapter": 9,
            "verse": 17,
            "name": "Hebrews 9:17",
            "text": "\u0431\u043e \u0437\u0430\u0432\u044f\u0448\u0447\u0430\u043d\u044c\u043d\u0435 \u043c\u0430\u0435 \u0441\u0456\u043b\u0443 \u043f\u0430\u0441\u044c\u043b\u044f \u043f\u0430\u043c\u0435\u0440\u043b\u044b\u0445; \u044f\u043d\u043e \u043d\u044f \u043c\u0430\u0435 \u0441\u0456\u043b\u044b, \u043a\u0430\u043b\u0456 \u0437\u0430\u0432\u044f\u0448\u0447\u0430\u043b\u044c\u043d\u0456\u043a \u0436\u044b\u0432\u044b."
        },
        {
            "chapter": 9,
            "verse": 18,
            "name": "Hebrews 9:18",
            "text": "\u0422\u0430\u043c\u0443 \u0456 \u043f\u0435\u0440\u0448\u044b \u0437\u0430\u043f\u0430\u0432\u0435\u0442 \u0431\u044b\u045e \u0443\u0446\u044c\u0432\u0435\u0440\u0434\u0436\u0430\u043d\u044b \u043d\u0435 \u0431\u044f\u0437 \u043a\u0440\u044b\u0432\u0456,"
        },
        {
            "chapter": 9,
            "verse": 19,
            "name": "Hebrews 9:19",
            "text": "\u0431\u043e \u0456 \u041c\u0430\u0439\u0441\u0435\u0439, \u043f\u0440\u0430\u043c\u043e\u0432\u0456\u045e\u0448\u044b \u045e\u0441\u0435 \u0437\u0430\u043f\u0430\u0432\u0435\u0434\u0437\u0456 \u043f\u0430\u0432\u043e\u0434\u043b\u0435 \u0437\u0430\u043a\u043e\u043d\u0443 \u043f\u0435\u0440\u0430\u0434 \u0443\u0441\u0456\u043c \u043d\u0430\u0440\u043e\u0434\u0430\u043c, \u0443\u0437\u044f\u045e \u043a\u0440\u043e\u045e \u0446\u044f\u043b\u044f\u0442 \u0456 \u043a\u0430\u0437\u043b\u043e\u045e \u0437 \u0432\u0430\u0434\u043e\u044e \u0456 \u0432\u043e\u045e\u043d\u0430\u0439 \u0447\u044b\u0440\u0432\u0430\u043d\u0451\u043d\u0430\u044e \u0456 \u0456\u0441\u043e\u043f\u0430\u043c, \u0456 \u0430\u043a\u0440\u0430\u043f\u0456\u045e \u044f\u043a \u0441\u0430\u043c\u0443\u044e \u043a\u043d\u0456\u0433\u0443, \u0442\u0430\u043a \u0456 \u045e\u0432\u0435\u0441\u044c \u043d\u0430\u0440\u043e\u0434,"
        },
        {
            "chapter": 9,
            "verse": 20,
            "name": "Hebrews 9:20",
            "text": "\u043a\u0430\u0436\u0443\u0447\u044b: \"\u0433\u044d\u0442\u0430 \u043a\u0440\u043e\u045e \u0437\u0430\u043f\u0430\u0432\u0435\u0442\u0443, \u044f\u043a\u0456 \u0437\u0430\u043f\u0430\u0432\u044f\u0434\u0430\u045e \u0432\u0430\u043c \u0411\u043e\u0433\"."
        },
        {
            "chapter": 9,
            "verse": 21,
            "name": "Hebrews 9:21",
            "text": "\u0422\u0430\u043a\u0441\u0430\u043c\u0430 \u0430\u043a\u0440\u0430\u043f\u0456\u045e \u043a\u0440\u044b\u0432\u0451\u044e \u0456 \u0441\u043a\u0456\u043d\u0456\u044e \u0456 \u045e\u0432\u0435\u0441\u044c \u043f\u043e\u0441\u0443\u0434 \u0431\u043e\u0433\u0430\u0441\u043b\u0443\u0436\u0431\u043e\u0432\u044b."
        },
        {
            "chapter": 9,
            "verse": 22,
            "name": "Hebrews 9:22",
            "text": "\u0414\u044b \u0456 \u045e\u0441\u0451 \u0430\u043c\u0430\u043b\u044c \u043f\u0430\u0432\u043e\u0434\u043b\u0435 \u0437\u0430\u043a\u043e\u043d\u0443 \u0430\u0447\u044b\u0448\u0447\u0430\u0435\u0446\u0446\u0430 \u043a\u0440\u044b\u0432\u0451\u044e, \u0456 \u0431\u0435\u0437 \u043f\u0440\u0430\u043b\u0456\u0446\u044c\u0446\u044f \u043a\u0440\u044b\u0432\u0456 \u043d\u044f \u0431\u044b\u0432\u0430\u0435 \u0434\u0430\u0440\u0430\u0432\u0430\u043d\u044c\u043d\u044f."
        },
        {
            "chapter": 9,
            "verse": 23,
            "name": "Hebrews 9:23",
            "text": "\u0422\u0430\u043c\u0443 \u0456 \u0432\u043e\u0431\u0440\u0430\u0437\u044b \u043d\u044f\u0431\u0435\u0441\u043d\u0430\u0433\u0430 \u043f\u0430\u0432\u0456\u043d\u043d\u044b \u0431\u044b\u043b\u0456 \u0430\u0447\u044b\u0448\u0447\u0430\u0446\u0446\u0430 \u0433\u044d\u0442\u044b\u043c\u0456, \u0430 \u0441\u0430\u043c\u0430\u0435 \u043d\u044f\u0431\u0435\u0441\u043d\u0430\u0435 \u043b\u0435\u043f\u0448\u044b\u043c\u0456 \u0437\u0430 \u0433\u044d\u0442\u044b\u044f \u0430\u0445\u0432\u044f\u0440\u0430\u043c\u0456."
        },
        {
            "chapter": 9,
            "verse": 24,
            "name": "Hebrews 9:24",
            "text": "\u0411\u043e \u0425\u0440\u044b\u0441\u0442\u043e\u0441 \u045e\u0432\u0430\u0439\u0448\u043e\u045e \u043d\u0435 \u045e \u0440\u0443\u043a\u0430\u0442\u0432\u043e\u0440\u043d\u0430\u0435 \u0441\u044c\u0432\u044f\u0446\u0456\u043b\u0456\u0448\u0447\u0430, \u043f\u0430\u0432\u043e\u0434\u043b\u0435 \u0432\u043e\u0431\u0440\u0430\u0437\u0443 \u0441\u0430\u043f\u0440\u0430\u045e\u0434\u043d\u0430\u0433\u0430 \u045e\u0441\u0442\u0430\u043b\u044f\u0432\u0430\u043d\u0430\u0435, \u0430 \u045e \u0441\u0430\u043c\u043e\u0435 \u043d\u0435\u0431\u0430, \u043a\u0430\u0431 \u0441\u0442\u0430\u0446\u044c \u0441\u0451\u043d\u044c\u043d\u044f \u0437\u0430 \u043d\u0430\u0441 \u043f\u0435\u0440\u0430\u0434 \u0430\u0431\u043b\u0456\u0447\u0447\u0430\u043c \u0411\u043e\u0436\u044b\u043c,"
        },
        {
            "chapter": 9,
            "verse": 25,
            "name": "Hebrews 9:25",
            "text": "\u0456 \u043d\u0435 \u043d\u0430 \u0442\u043e\u0435, \u043a\u0430\u0431 \u0448\u043c\u0430\u0442\u043a\u0440\u043e\u0446\u044c \u0430\u0445\u0432\u044f\u0440\u043e\u045e\u0432\u0430\u0446\u044c \u0421\u0430\u0431\u043e\u044e, \u044f\u043a \u043f\u0435\u0440\u0448\u0430\u0441\u044c\u0432\u044f\u0442\u0430\u0440 \u0443\u0432\u0430\u0445\u043e\u0434\u0437\u0456\u0446\u044c \u0443 \u0441\u044c\u0432\u044f\u0446\u0456\u043b\u0456\u0448\u0447\u0430 \u0448\u0442\u043e\u0433\u043e\u0434 \u0437 \u0447\u0443\u0436\u043e\u044e \u043a\u0440\u044b\u0432\u0451\u044e;"
        },
        {
            "chapter": 9,
            "verse": 26,
            "name": "Hebrews 9:26",
            "text": "\u0456\u043d\u0430\u043a\u0448 \u043d\u0430\u043b\u0435\u0436\u0430\u043b\u0430 \u0431 \u042f\u043c\u0443 \u0448\u043c\u0430\u0442\u043a\u0440\u043e\u0446\u044c \u043f\u0430\u043a\u0443\u0442\u0430\u0432\u0430\u0446\u044c \u0430\u0434 \u043f\u0430\u0447\u0430\u0442\u043a\u0443 \u0441\u044c\u0432\u0435\u0442\u0443. \u0410 \u0401\u043d \u0430\u0434\u0437\u0456\u043d \u0440\u0430\u0437, \u043f\u0430\u0434 \u043a\u0430\u043d\u0435\u0446 \u0432\u044f\u043a\u043e\u045e, \u0437\u044c\u044f\u0432\u0456\u045e\u0441\u044f \u0434\u043b\u044f \u0437\u044c\u043d\u0456\u0448\u0447\u044d\u043d\u044c\u043d\u044f \u0433\u0440\u044d\u0445\u0443 \u0430\u0445\u0432\u044f\u0440\u0430\u044e \u0421\u0432\u0430\u0451\u044e."
        },
        {
            "chapter": 9,
            "verse": 27,
            "name": "Hebrews 9:27",
            "text": "\u0406 \u044f\u043a \u043b\u044e\u0434\u0437\u044f\u043c \u043d\u0430\u043b\u0435\u0436\u044b\u0446\u044c \u0430\u0434\u0437\u0456\u043d \u0440\u0430\u0437 \u043f\u0430\u043c\u0435\u0440\u0446\u0456, \u0430 \u043f\u043e\u0442\u044b\u043c \u0441\u0443\u0434,"
        },
        {
            "chapter": 9,
            "verse": 28,
            "name": "Hebrews 9:28",
            "text": "\u0442\u0430\u043a \u0456 \u0425\u0440\u044b\u0441\u0442\u043e\u0441: \u0430\u0434\u0437\u0456\u043d \u0440\u0430\u0437 \u043f\u0440\u044b\u043d\u0451\u0441\u0448\u044b \u0421\u044f\u0431\u0435 \u045e \u0430\u0445\u0432\u044f\u0440\u0443, \u043a\u0430\u0431 \u043f\u0430\u0431\u0440\u0430\u0446\u044c \u0433\u0440\u0430\u0445\u0456 \u043c\u043d\u043e\u0433\u0456\u0445, \u0434\u0440\u0443\u0433\u0456 \u0440\u0430\u0437 \u0437\u044c\u044f\u0432\u0456\u0446\u0446\u0430 \u043d\u044f \u0434\u0437\u0435\u043b\u044f \u0430\u0447\u044b\u0448\u0447\u044d\u043d\u044c\u043d\u044f \u0433\u0440\u044d\u0445\u0443, \u0430 \u0434\u0437\u0435\u043b\u044f \u0442\u044b\u0445, \u0448\u0442\u043e \u0447\u0430\u043a\u0430\u044e\u0446\u044c \u042f\u0433\u043e \u043d\u0430 \u0437\u0431\u0430\u0432\u0435\u043d\u044c\u043d\u0435. "
        }
    ]
}