{
    "translation": "Belarusian Bible",
    "abbreviation": "bela",
    "lang": "be",
    "language": "Belarusian",
    "direction": "LTR",
    "encoding": "UTF-8",
    "book_nr": 73,
    "book_name": "Sirach",
    "chapter": 38,
    "name": "Sirach 38",
    "verses": [
        {
            "chapter": 38,
            "verse": 1,
            "name": "Sirach 38:1",
            "text": ""
        },
        {
            "chapter": 38,
            "verse": 2,
            "name": "Sirach 38:2",
            "text": ""
        },
        {
            "chapter": 38,
            "verse": 3,
            "name": "Sirach 38:3",
            "text": ""
        },
        {
            "chapter": 38,
            "verse": 4,
            "name": "Sirach 38:4",
            "text": ""
        },
        {
            "chapter": 38,
            "verse": 5,
            "name": "Sirach 38:5",
            "text": ""
        },
        {
            "chapter": 38,
            "verse": 6,
            "name": "Sirach 38:6",
            "text": ""
        },
        {
            "chapter": 38,
            "verse": 7,
            "name": "Sirach 38:7",
            "text": ""
        },
        {
            "chapter": 38,
            "verse": 8,
            "name": "Sirach 38:8",
            "text": ""
        },
        {
            "chapter": 38,
            "verse": 9,
            "name": "Sirach 38:9",
            "text": ""
        },
        {
            "chapter": 38,
            "verse": 10,
            "name": "Sirach 38:10",
            "text": ""
        },
        {
            "chapter": 38,
            "verse": 11,
            "name": "Sirach 38:11",
            "text": ""
        },
        {
            "chapter": 38,
            "verse": 12,
            "name": "Sirach 38:12",
            "text": ""
        },
        {
            "chapter": 38,
            "verse": 13,
            "name": "Sirach 38:13",
            "text": ""
        },
        {
            "chapter": 38,
            "verse": 14,
            "name": "Sirach 38:14",
            "text": ""
        },
        {
            "chapter": 38,
            "verse": 15,
            "name": "Sirach 38:15",
            "text": ""
        },
        {
            "chapter": 38,
            "verse": 16,
            "name": "Sirach 38:16",
            "text": ""
        },
        {
            "chapter": 38,
            "verse": 17,
            "name": "Sirach 38:17",
            "text": ""
        },
        {
            "chapter": 38,
            "verse": 18,
            "name": "Sirach 38:18",
            "text": ""
        },
        {
            "chapter": 38,
            "verse": 19,
            "name": "Sirach 38:19",
            "text": ""
        },
        {
            "chapter": 38,
            "verse": 20,
            "name": "Sirach 38:20",
            "text": ""
        },
        {
            "chapter": 38,
            "verse": 21,
            "name": "Sirach 38:21",
            "text": ""
        },
        {
            "chapter": 38,
            "verse": 22,
            "name": "Sirach 38:22",
            "text": ""
        },
        {
            "chapter": 38,
            "verse": 23,
            "name": "Sirach 38:23",
            "text": ""
        },
        {
            "chapter": 38,
            "verse": 24,
            "name": "Sirach 38:24",
            "text": ""
        },
        {
            "chapter": 38,
            "verse": 25,
            "name": "Sirach 38:25",
            "text": ""
        },
        {
            "chapter": 38,
            "verse": 26,
            "name": "Sirach 38:26",
            "text": ""
        },
        {
            "chapter": 38,
            "verse": 27,
            "name": "Sirach 38:27",
            "text": ""
        },
        {
            "chapter": 38,
            "verse": 28,
            "name": "Sirach 38:28",
            "text": ""
        },
        {
            "chapter": 38,
            "verse": 29,
            "name": "Sirach 38:29",
            "text": ""
        },
        {
            "chapter": 38,
            "verse": 30,
            "name": "Sirach 38:30",
            "text": ""
        },
        {
            "chapter": 38,
            "verse": 31,
            "name": "Sirach 38:31",
            "text": ""
        },
        {
            "chapter": 38,
            "verse": 32,
            "name": "Sirach 38:32",
            "text": ""
        },
        {
            "chapter": 38,
            "verse": 33,
            "name": "Sirach 38:33",
            "text": ""
        },
        {
            "chapter": 38,
            "verse": 34,
            "name": "Sirach 38:34",
            "text": ""
        },
        {
            "chapter": 38,
            "verse": 35,
            "name": "Sirach 38:35",
            "text": ""
        },
        {
            "chapter": 38,
            "verse": 36,
            "name": "Sirach 38:36",
            "text": ""
        },
        {
            "chapter": 38,
            "verse": 37,
            "name": "Sirach 38:37",
            "text": ""
        },
        {
            "chapter": 38,
            "verse": 38,
            "name": "Sirach 38:38",
            "text": ""
        },
        {
            "chapter": 38,
            "verse": 39,
            "name": "Sirach 38:39",
            "text": ""
        }
    ]
}