{
    "translation": "Riveduta Bible (1927)",
    "abbreviation": "riveduta",
    "lang": "it",
    "language": "Italian",
    "direction": "LTR",
    "encoding": "",
    "book_nr": 38,
    "book_name": "Zechariah",
    "chapter": 13,
    "name": "Zechariah 13",
    "verses": [
        {
            "chapter": 13,
            "verse": 1,
            "name": "Zechariah 13:1",
            "text": "In quel giorno vi sar\u00e0 una fonte aperta per la casa di Davide e per gli abitanti di Gerusalemme, per il peccato e per l\u2019impurit\u00e0.\r"
        },
        {
            "chapter": 13,
            "verse": 2,
            "name": "Zechariah 13:2",
            "text": "E in quel giorno avverr\u00e0, dice l\u2019Eterno degli eserciti, che io sterminer\u00f2 dal paese i nomi degli idoli, e non se ne far\u00e0 pi\u00f9 menzione; e i profeti pure, e gli spiriti immondi far\u00f2 sparire dal paese.\r"
        },
        {
            "chapter": 13,
            "verse": 3,
            "name": "Zechariah 13:3",
            "text": "E avverr\u00e0, che se qualcuno far\u00e0 ancora il profeta, suo padre e sua madre che l\u2019hanno generato gli diranno: \"Tu non vivrai, perch\u00e9 dici delle menzogne nel nome dell\u2019Eterno\"; e suo padre e sua madre che l\u2019hanno generato lo trafiggeranno perch\u00e9 fa il profeta.\r"
        },
        {
            "chapter": 13,
            "verse": 4,
            "name": "Zechariah 13:4",
            "text": "E in quel giorno avverr\u00e0 che i profeti avranno vergogna, ognuno della visione che proferiva quando profetava; e non si metteranno pi\u00f9 il mantello di pelo per mentire.\r"
        },
        {
            "chapter": 13,
            "verse": 5,
            "name": "Zechariah 13:5",
            "text": "E ognuno d\u2019essi dir\u00e0: \"Io non son profeta; sono un coltivatore del suolo; qualcuno mi compr\u00f2 fin dalla mia giovinezza\".\r"
        },
        {
            "chapter": 13,
            "verse": 6,
            "name": "Zechariah 13:6",
            "text": "E gli si dir\u00e0: \"Che son quelle ferite che hai nelle mani?\" Ed egli risponder\u00e0: \"Son le ferite che ho ricevuto nella casa dei miei amici\".\r"
        },
        {
            "chapter": 13,
            "verse": 7,
            "name": "Zechariah 13:7",
            "text": "D\u00e8stati, o spada, contro il mio pastore, e contro l\u2019uomo che mi \u00e8 compagno! Dice l\u2019Eterno degli eserciti. Colpisci il pastore, e sian disperse le pecore! Ma io volger\u00f2 la mia mano sui piccoli.\r"
        },
        {
            "chapter": 13,
            "verse": 8,
            "name": "Zechariah 13:8",
            "text": "E in tutto il paese avverr\u00e0, dice l\u2019Eterno, che i due terzi vi saranno sterminati, periranno ma l\u2019altro terzo vi sar\u00e0 lasciato.\r"
        },
        {
            "chapter": 13,
            "verse": 9,
            "name": "Zechariah 13:9",
            "text": "E metter\u00f2 quel terzo nel fuoco e lo affiner\u00f2 come si affina l\u2019argento, lo prover\u00f2 come si prova l\u2019oro; essi invocheranno il mio nome e io li esaudir\u00f2; io dir\u00f2: \"E\u2019 il mio popolo! Ed esso dir\u00e0: \"L\u2019Eterno \u00e8 il mio Dio!\"\r"
        }
    ]
}