{
    "translation": "Vietnamese (1934)",
    "abbreviation": "vietnamese",
    "lang": "vi",
    "language": "Vietnamese",
    "direction": "LTR",
    "encoding": "UTF-8",
    "book_nr": 26,
    "book_name": "Ezekiel",
    "chapter": 30,
    "name": "Ezekiel 30",
    "verses": [
        {
            "chapter": 30,
            "verse": 1,
            "name": "Ezekiel 30:1",
            "text": "L\u1ea1i c\u00f3 l\u1eddi \u00d0\u1ee9c Gi\u00ea-h\u00f4-va ph\u00e1n c\u00f9ng ta r\u1eb1ng:"
        },
        {
            "chapter": 30,
            "verse": 2,
            "name": "Ezekiel 30:2",
            "text": "H\u1ee1i con ng\u01b0\u1eddi, h\u00e3y n\u00f3i ti\u00ean tri v\u00e0 r\u1eb1ng: Ch\u00faa Gi\u00ea-h\u00f4-va ph\u00e1n nh\u01b0 v\u1ea7y: H\u00e3y kh\u00f3c than! Ng\u00e0y kh\u1ed1n n\u1ea1n d\u01b0\u1eddng n\u00e0o!"
        },
        {
            "chapter": 30,
            "verse": 3,
            "name": "Ezekiel 30:3",
            "text": "Th\u1eadt v\u1eady, ng\u00e0y \u1ea5y g\u1ea7n r\u1ed3i, ph\u00e1n, l\u00e0 ng\u00e0y c\u1ee7a \u00d0\u1ee9c Gi\u00ea-h\u00f4-va; ng\u00e0y c\u00f3 m\u00e2y, k\u1ef3 c\u1ee7a c\u00e1c d\u00e2n t\u1ed9c."
        },
        {
            "chapter": 30,
            "verse": 4,
            "name": "Ezekiel 30:4",
            "text": "G\u01b0\u01a1m s\u1ebd \u0111\u00e1nh tr\u00ean \u00ca-d\u00edp-t\u00f4; s\u1ef1 bu\u1ed3n r\u1ea7u \u1edf trong \u00ca-thi-\u00f4-bi, khi nh\u1eefng k\u1ebb b\u1ecb gi\u1ebft s\u1ebd ng\u00e3 xu\u1ed1ng trong \u00ca-d\u00edp-t\u00f4; ch\u00fang n\u00f3 s\u1ebd c\u1ea5t l\u1ea5y \u0111o\u00e0n d\u00e2n n\u00f3, v\u00e0 nh\u1eefng n\u1ec1n n\u00f3 b\u1ecb \u0111\u1ed5."
        },
        {
            "chapter": 30,
            "verse": 5,
            "name": "Ezekiel 30:5",
            "text": "\u00ca-thi-\u00f4-bi, Ph\u00fat, L\u00fat, m\u1ecdi ng\u01b0\u1eddi l\u1ed9n gi\u1ed1ng, C\u00fap, v\u00e0 con c\u00e1i c\u1ee7a \u0111\u1ea5t \u0111\u1ed3ng minh, s\u1ebd c\u00f9ng ch\u00fang n\u00f3 ng\u00e3 xu\u1ed1ng b\u1edfi g\u01b0\u01a1m."
        },
        {
            "chapter": 30,
            "verse": 6,
            "name": "Ezekiel 30:6",
            "text": "\u00d0\u1ee9c Gi\u00ea-h\u00f4-va ph\u00e1n nh\u01b0 v\u1ea7y: Nh\u1eefng c\u00e1i n\u00e2ng \u0111\u1ee1 \u00ca-d\u00edp-t\u00f4 s\u1ebd ng\u00e3; s\u1ee9c m\u1ea1nh ki\u00eau ng\u1ea1o c\u1ee7a n\u00f3 s\u1ebd h\u1ea1 xu\u1ed1ng. Ch\u00fang n\u00f3 s\u1ebd ng\u00e3 trong n\u00f3 b\u1edfi g\u01b0\u01a1m, t\u1eeb th\u00e1p Sy -e-n\u00ea, Ch\u00faa Gi\u00ea-h\u00f4-va ph\u00e1n v\u1eady."
        },
        {
            "chapter": 30,
            "verse": 7,
            "name": "Ezekiel 30:7",
            "text": "Ch\u00fang n\u00f3 s\u1ebd hoang vu \u1edf gi\u1eefa c\u00e1c n\u01b0\u1edbc hoang vu, v\u00e0 c\u00e1c th\u00e0nh c\u1ee7a n\u00f3 s\u1ebd \u1edf gi\u1eefa c\u00e1c th\u00e0nh t\u00e0n ph\u00e1."
        },
        {
            "chapter": 30,
            "verse": 8,
            "name": "Ezekiel 30:8",
            "text": "Th\u1eadt, ch\u00fang n\u00f3 s\u1ebd bi\u1ebft ta l\u00e0 \u00d0\u1ee9c Gi\u00ea-h\u00f4-va, khi ta \u0111\u00e3 \u0111\u1eb7t l\u1eeda trong \u00ca-d\u00edp-t\u00f4, v\u00e0 khi m\u1ecdi k\u1ebb gi\u00fap n\u00f3 b\u1ecb tan n\u00e1t."
        },
        {
            "chapter": 30,
            "verse": 9,
            "name": "Ezekiel 30:9",
            "text": "Trong ng\u00e0y \u0111\u00f3, s\u1ebd c\u00f3 s\u1ee9 gi\u1ea3 t\u1eeb tr\u01b0\u1edbc m\u1eb7t ta \u0111i trong t\u00e0u \u0111\u1eb7ng l\u00e0m cho ng\u01b0\u1eddi \u00ca-thi-\u00f4-bi \u0111\u01b0\u01a1ng \u1edf y\u00ean ph\u1ea3i s\u1ee3 h\u00e3i. D\u00e2n s\u1ef1 n\u00f3 s\u1ebd bu\u1ed3n r\u1ea7u nh\u01b0 trong ng\u00e0y c\u1ee7a \u00ca-d\u00edp-t\u00f4; v\u00ec, n\u1ea7y n\u00f3 \u0111\u1ebfn g\u1ea7n r\u1ed3i!"
        },
        {
            "chapter": 30,
            "verse": 10,
            "name": "Ezekiel 30:10",
            "text": "Ch\u00faa Gi\u00ea-h\u00f4-va ph\u00e1n nh\u01b0 v\u1ea7y: Ta s\u1ebd c\u1eady tay N\u00ea-bu-c\u00e1t-n\u1ebft-sa, vua Ba-by-l\u00f4n, \u0111\u1ec3 di\u1ec7t \u0111o\u00e0n d\u00e2n c\u1ee7a \u00ca-d\u00edp-t\u00f4."
        },
        {
            "chapter": 30,
            "verse": 11,
            "name": "Ezekiel 30:11",
            "text": "Vua \u1ea5y c\u00f9ng d\u00e2n m\u00ecnh, l\u00e0 d\u00e2n \u0111\u00e1ng s\u1ee3 trong c\u00e1c d\u00e2n, s\u1ebd \u0111\u01b0\u1ee3c \u0111em \u0111\u1ebfn \u0111\u1eb7ng ph\u00e1 h\u1ea1i \u0111\u1ea5t. Ch\u00fang n\u00f3 s\u1ebd r\u00fat g\u01b0\u01a1m ngh\u1ecbch c\u00f9ng \u00ca-d\u00edp-t\u00f4, v\u00e0 l\u00e0m cho \u0111\u1ea5t \u0111\u1ea7y nh\u1eefng th\u00e2y b\u1ecb gi\u1ebft."
        },
        {
            "chapter": 30,
            "verse": 12,
            "name": "Ezekiel 30:12",
            "text": "Ta s\u1ebd l\u00e0m cho c\u00e1c s\u00f4ng kh\u00f4 \u0111i, v\u00e0 b\u00e1n \u0111\u1ea5t \u1ea5y trong tay nh\u1eefng k\u1ebb d\u1eef. Ta s\u1ebd c\u1eady tay d\u00e2n ngo\u1ea1i l\u00e0m hoang vu \u0111\u1ea5t \u1ea5y v\u1edbi m\u1ecdi s\u1ef1 trong n\u00f3. Ta l\u00e0 \u00d0\u1ee9c Gi\u00ea-h\u00f4-va ph\u00e1n nh\u01b0 v\u1eady."
        },
        {
            "chapter": 30,
            "verse": 13,
            "name": "Ezekiel 30:13",
            "text": "Ch\u00faa Gi\u00ea-h\u00f4-va l\u1ea1i ph\u00e1n r\u1eb1ng: Ta s\u1ebd h\u1ee7y di\u1ec7t c\u00e1c th\u1ea7n t\u01b0\u1ee3ng v\u00e0 d\u1ee9t c\u00e1c h\u00ecnh t\u01b0\u1ee3ng kh\u1ecfi th\u00e0nh N\u1ed1p. Trong \u0111\u1ea5t \u00ca-d\u00edp-t\u00f4 s\u1ebd kh\u00f4ng c\u00f3 vua n\u1eefa, v\u00e0 ta s\u1ebd r\u1ea3i s\u1ef1 kinh khi\u1ebfp trong \u0111\u1ea5t \u00ca-d\u00edp-t\u00f4."
        },
        {
            "chapter": 30,
            "verse": 14,
            "name": "Ezekiel 30:14",
            "text": "Ta s\u1ebd l\u00e0m cho Pha-tr\u1ed1t n\u00ean hoang vu; \u0111\u1eb7t l\u1eeda t\u1ea1i X\u00f4-an, v\u00e0 l\u00e0m ra s\u1ebd \u0111o\u00e1n ph\u1ea1t tr\u00ean N\u00f4."
        },
        {
            "chapter": 30,
            "verse": 15,
            "name": "Ezekiel 30:15",
            "text": "Ta s\u1ebd \u0111\u1ed5 c\u01a1n gi\u1eadn ta tr\u00ean Sin, l\u00e0 th\u00e0nh v\u1eefng b\u1ec1n c\u1ee7a \u00ca-d\u00edp-t\u00f4, v\u00e0 s\u1ebd di\u1ec7t d\u00e2n ch\u00fang c\u1ee7a N\u00f4."
        },
        {
            "chapter": 30,
            "verse": 16,
            "name": "Ezekiel 30:16",
            "text": "Ta s\u1ebd \u0111\u1eb7t l\u1eeda t\u1ea1i \u00ca-d\u00edp-t\u00f4, Sin s\u1ebd b\u1ecb \u0111au \u0111\u1edbn c\u1ea3 th\u1ec3; N\u00f4 s\u1ebd b\u1ecb ph\u00e1 tan, v\u00e0 \u0111\u01b0\u01a1ng gi\u1eefa ban ng\u00e0y N\u1ed1p s\u1ebd b\u1ecb gi\u1eb7c h\u1ea1i."
        },
        {
            "chapter": 30,
            "verse": 17,
            "name": "Ezekiel 30:17",
            "text": "Nh\u1eefng ng\u01b0\u1eddi trai tr\u1ebb c\u1ee7a A-ven v\u00e0 Phi-B\u00ea-s\u1ed1t s\u1ebd ng\u00e3 b\u1edfi g\u01b0\u01a1m, v\u00e0 d\u00e2n c\u00e1c th\u00e0nh \u1ea5y s\u1ebd \u0111i l\u00e0m phu t\u00f9."
        },
        {
            "chapter": 30,
            "verse": 18,
            "name": "Ezekiel 30:18",
            "text": "T\u1ea1i T\u00e1c-pha-n\u1ebft, ban ng\u00e0y s\u1ebd t\u1ed1i t\u0103m, khi ta s\u1ebd g\u00e3y c\u00e1c \u00e1ch c\u1ee7a \u00ca-d\u00edp-t\u00f4 \u1edf \u0111\u00f3, v\u00e0 s\u1ee9c m\u1ea1nh ki\u00eau ng\u1ea1o c\u1ee7a n\u00f3 s\u1ebd h\u1ebft. V\u1ec1 n\u00f3, s\u1ebd c\u00f3 \u0111\u00e1m m\u00e2y che l\u1ea5p \u0111\u1ea5t \u1ea5y, nh\u1eefng con g\u00e1i n\u00f3 s\u1ebd \u0111i l\u00e0m phu t\u00f9."
        },
        {
            "chapter": 30,
            "verse": 19,
            "name": "Ezekiel 30:19",
            "text": "Ta s\u1ebd l\u00e0m s\u1ef1 \u0111o\u00e1n ph\u1ea1t ta tr\u00ean \u00ca-d\u00edp-t\u00f4, v\u00e0 ch\u00fang n\u00f3 s\u1ebd bi\u1ebft ta l\u00e0 \u00d0\u1ee9c Gi\u00ea-h\u00f4-va."
        },
        {
            "chapter": 30,
            "verse": 20,
            "name": "Ezekiel 30:20",
            "text": "N\u0103m th\u1ee9 m\u01b0\u1eddi m\u1ed9t, ng\u00e0y m\u1ed3ng b\u1ea3y th\u00e1ng gi\u00eang, c\u00f3 l\u1eddi \u00d0\u1ee9c Gi\u00ea-h\u00f4-va ph\u00e1n c\u00f9ng ta r\u1eb1ng:"
        },
        {
            "chapter": 30,
            "verse": 21,
            "name": "Ezekiel 30:21",
            "text": "H\u1ee1i con ng\u01b0\u1eddi, ta \u0111\u00e3 b\u1ebb c\u00e1ch tay c\u1ee7a Pha-ra-\u00f4n, vua \u00ca-d\u00edp-t\u00f4. N\u1ea7y, kh\u00f4ng ai r\u1ecbt thu\u1ed1c \u0111\u1ec3 ch\u1eefa l\u00e0nh; kh\u00f4ng ai qu\u1ea5n ch\u1ed7 th\u01b0\u01a1ng \u0111\u1ec3 h\u00e0n mi\u1ec7ng v\u00e0 \u0111\u1ec3 l\u1ea5y s\u1ee9c l\u1ea1i, h\u1ea7u cho n\u00f3 c\u00f3 th\u1ec3 c\u1ea7m g\u01b0\u01a1m."
        },
        {
            "chapter": 30,
            "verse": 22,
            "name": "Ezekiel 30:22",
            "text": "V\u1eady n\u00ean, Ch\u00faa Gi\u00ea-h\u00f4-va ph\u00e1n nh\u01b0 v\u1ea7y: N\u1ea7y, ta ngh\u1ecbch c\u00f9ng Pha-ra-\u00f4n, vua \u00ca-d\u00edp-t\u00f4, v\u00e0 s\u1ebd b\u1ebb hai c\u00e1nh tay n\u00f3, c\u00e1nh \u0111\u01b0\u01a1ng m\u1ea1nh lu\u00f4n v\u1edbi c\u00e1nh \u0111\u00e3 g\u00e3y, v\u00e0 l\u00e0m cho g\u01b0\u01a1m r\u1ed1t xu\u1ed1ng kh\u1ecfi tay n\u00f3."
        },
        {
            "chapter": 30,
            "verse": 23,
            "name": "Ezekiel 30:23",
            "text": "Ta s\u1ebd l\u00e0m cho tan t\u00e1c d\u00e2n \u00ca-d\u00edp-t\u00f4 trong c\u00e1c d\u00e2n, v\u00e0 r\u1ea3i h\u1ebft th\u1ea3y ch\u00fang n\u00f3 ra trong c\u00e1c n\u01b0\u1edbc."
        },
        {
            "chapter": 30,
            "verse": 24,
            "name": "Ezekiel 30:24",
            "text": "Ta s\u1ebd l\u00e0m cho c\u00e1nh tay vua Ba-by-l\u00f4n th\u00eam m\u1ea1nh, \u0111\u1ec3 g\u01b0\u01a1m ta trong tay ng\u01b0\u1eddi; nh\u01b0ng ta s\u1ebd b\u1ebb g\u00e3y c\u00e1nh tay c\u1ee7a Pha-ra-\u00f4n, vua n\u1ea7y r\u00ean la tr\u01b0\u1edbc m\u1eb7t vua kia, nh\u01b0 m\u1ed9t ng\u01b0\u1eddi b\u1ecb th\u01b0\u01a1ng h\u1ea7u ch\u1ebft r\u00ean la v\u1eady."
        },
        {
            "chapter": 30,
            "verse": 25,
            "name": "Ezekiel 30:25",
            "text": "Ta s\u1ebd n\u00e2ng \u0111\u1ee1 hai c\u00e1nh tay c\u1ee7a vua Ba-by-l\u00f4n, v\u00e0 hai c\u00e1nh tay c\u1ee7a Pha-ra-\u00f4n s\u1ebd sa xu\u1ed1ng. Ch\u00fang n\u00f3 s\u1ebd bi\u1ebft ta l\u00e0 \u00d0\u1ee9c Gi\u00ea-h\u00f4-va, khi ta s\u1ebd trao g\u01b0\u01a1m ta trong tay vua Ba-by-l\u00f4n, v\u00e0 ng\u01b0\u1eddi s\u1ebd gi\u01a1 g\u01b0\u01a1m \u1ea5y ra ngh\u1ecbch c\u00f9ng \u0111\u1ea5t \u00ca-d\u00edp-t\u00f4."
        },
        {
            "chapter": 30,
            "verse": 26,
            "name": "Ezekiel 30:26",
            "text": "Ta s\u1ebd l\u00e0m tan t\u00e1c d\u00e2n \u00ca-d\u00edp-t\u00f4 trong c\u00e1c d\u00e2n, r\u1ea3i ch\u00fang n\u00f3 ra trong c\u00e1c n\u01b0\u1edbc; v\u00e0 ch\u00fang n\u00f3 s\u1ebd bi\u1ebft ta l\u00e0 \u00d0\u1ee9c Gi\u00ea-h\u00f4-va."
        }
    ]
}