{
    "translation": "Restored Name King James Version",
    "abbreviation": "rnkjv",
    "lang": "en",
    "language": "English",
    "direction": "LTR",
    "encoding": "UTF-8",
    "book_nr": 18,
    "book_name": "Job",
    "chapter": 6,
    "name": "Job 6",
    "verses": [
        {
            "chapter": 6,
            "verse": 1,
            "name": "Job 6:1",
            "text": "But Job answered and said, "
        },
        {
            "chapter": 6,
            "verse": 2,
            "name": "Job 6:2",
            "text": "Oh that my grief were throughly weighed, and my calamity laid in the balances together! "
        },
        {
            "chapter": 6,
            "verse": 3,
            "name": "Job 6:3",
            "text": "For now it would be heavier than the sand of the sea: therefore my words are swallowed up. "
        },
        {
            "chapter": 6,
            "verse": 4,
            "name": "Job 6:4",
            "text": "For the arrows of the Almighty are within me, the poison whereof drinketh up my spirit: the terrors of Eloah do set themselves in array against me. "
        },
        {
            "chapter": 6,
            "verse": 5,
            "name": "Job 6:5",
            "text": "Doth the wild ass bray when he hath grass? or loweth the ox over his fodder? "
        },
        {
            "chapter": 6,
            "verse": 6,
            "name": "Job 6:6",
            "text": "Can that which is unsavoury be eaten without salt? or is there any taste in the white of an egg? "
        },
        {
            "chapter": 6,
            "verse": 7,
            "name": "Job 6:7",
            "text": "The things that my soul refused to touch are as my sorrowful meat. "
        },
        {
            "chapter": 6,
            "verse": 8,
            "name": "Job 6:8",
            "text": "Oh that I might have my request; and that Eloah would grant me the thing that I long for! "
        },
        {
            "chapter": 6,
            "verse": 9,
            "name": "Job 6:9",
            "text": "Even that it would please Eloah to destroy me; that he would let loose his hand, and cut me off! "
        },
        {
            "chapter": 6,
            "verse": 10,
            "name": "Job 6:10",
            "text": "Then should I yet have comfort; yea, I would harden myself in sorrow: let him not spare; for I have not concealed the words of the Holy One. "
        },
        {
            "chapter": 6,
            "verse": 11,
            "name": "Job 6:11",
            "text": "What is my strength, that I should hope? and what is mine end, that I should prolong my life? "
        },
        {
            "chapter": 6,
            "verse": 12,
            "name": "Job 6:12",
            "text": "Is my strength the strength of stones? or is my flesh of brass? "
        },
        {
            "chapter": 6,
            "verse": 13,
            "name": "Job 6:13",
            "text": "Is not my help in me? and is wisdom driven quite from me? "
        },
        {
            "chapter": 6,
            "verse": 14,
            "name": "Job 6:14",
            "text": "To him that is afflicted pity should be shewed from his friend; but he forsaketh the fear of the Almighty. "
        },
        {
            "chapter": 6,
            "verse": 15,
            "name": "Job 6:15",
            "text": "My brethren have dealt deceitfully as a brook, and as the stream of brooks they pass away; "
        },
        {
            "chapter": 6,
            "verse": 16,
            "name": "Job 6:16",
            "text": "Which are blackish by reason of the ice, and wherein the snow is hid: "
        },
        {
            "chapter": 6,
            "verse": 17,
            "name": "Job 6:17",
            "text": "What time they wax warm, they vanish: when it is hot, they are consumed out of their place. "
        },
        {
            "chapter": 6,
            "verse": 18,
            "name": "Job 6:18",
            "text": "The paths of their way are turned aside; they go to nothing, and perish. "
        },
        {
            "chapter": 6,
            "verse": 19,
            "name": "Job 6:19",
            "text": "The troops of Tema looked, the companies of Sheba waited for them. "
        },
        {
            "chapter": 6,
            "verse": 20,
            "name": "Job 6:20",
            "text": "They were confounded because they had hoped; they came thither, and were ashamed. "
        },
        {
            "chapter": 6,
            "verse": 21,
            "name": "Job 6:21",
            "text": "For now ye are nothing; ye see my casting down, and are afraid. "
        },
        {
            "chapter": 6,
            "verse": 22,
            "name": "Job 6:22",
            "text": "Did I say, Bring unto me? or, Give a reward for me of your substance? "
        },
        {
            "chapter": 6,
            "verse": 23,
            "name": "Job 6:23",
            "text": "Or, Deliver me from the enemy's hand? or, Redeem me from the hand of the mighty? "
        },
        {
            "chapter": 6,
            "verse": 24,
            "name": "Job 6:24",
            "text": "Teach me, and I will hold my tongue: and cause me to understand wherein I have erred. "
        },
        {
            "chapter": 6,
            "verse": 25,
            "name": "Job 6:25",
            "text": "How forcible are right words! but what doth your arguing reprove? "
        },
        {
            "chapter": 6,
            "verse": 26,
            "name": "Job 6:26",
            "text": "Do ye imagine to reprove words, and the speeches of one that is desperate, which are as wind? "
        },
        {
            "chapter": 6,
            "verse": 27,
            "name": "Job 6:27",
            "text": "Yea, ye overwhelm the fatherless, and ye dig a pit for your friend. "
        },
        {
            "chapter": 6,
            "verse": 28,
            "name": "Job 6:28",
            "text": "Now therefore be content, look upon me; for it is evident unto you if I lie. "
        },
        {
            "chapter": 6,
            "verse": 29,
            "name": "Job 6:29",
            "text": "Return, I pray you, let it not be iniquity; yea, return again, my righteousness is in it. "
        },
        {
            "chapter": 6,
            "verse": 30,
            "name": "Job 6:30",
            "text": "Is there iniquity in my tongue? cannot my taste discern perverse things?  "
        }
    ]
}