{
    "translation": "Serbian Bible Dani\u010di\u0107-Karad\u017ei\u0107 Ijekavski",
    "abbreviation": "srkdijekav",
    "lang": "sr",
    "language": "Serbian",
    "direction": "LTR",
    "encoding": "UTF-8",
    "book_nr": 7,
    "book_name": "Judges",
    "chapter": 19,
    "name": "Judges 19",
    "verses": [
        {
            "chapter": 19,
            "verse": 1,
            "name": "Judges 19:1",
            "text": "\u0418 \u0443 \u0442\u043e \u0432\u0440\u0438\u0458\u0435\u043c\u0435, \u043a\u0430\u0434 \u043d\u0435 \u0431\u0458\u0435\u0448\u0435 \u0446\u0430\u0440\u0430 \u0443 \u0418\u0437\u0440\u0430\u0438\u0459\u0443, \u0431\u0458\u0435\u0448\u0435 \u0458\u0435\u0434\u0430\u043d \u041b\u0435\u0432\u0438\u0442 \u043a\u043e\u0458\u0438 \u0436\u0438\u0432\u0459\u0430\u0448\u0435 \u043a\u0430\u043e \u0434\u043e\u0448\u0459\u0430\u043a \u043a\u0440\u0430\u0458 \u0433\u043e\u0440\u0435 \u0408\u0435\u0444\u0440\u0435\u043c\u043e\u0432\u0435, \u0438 \u0443\u0437\u0435 \u0438\u043d\u043e\u0447\u0443 \u0438\u0437 \u0412\u0438\u0442\u043b\u0435\u0458\u0435\u043c\u0430 \u0408\u0443\u0434\u0438\u043d\u0430."
        },
        {
            "chapter": 19,
            "verse": 2,
            "name": "Judges 19:2",
            "text": "\u0410 \u0438\u043d\u043e\u0447\u0430 \u045a\u0435\u0433\u043e\u0432\u0430 \u0447\u0438\u045a\u0430\u0448\u0435 \u043f\u0440\u0435\u0459\u0443\u0431\u0443 \u043a\u043e\u0434 \u045a\u0435\u0433\u0430, \u043f\u0430 \u043e\u0442\u0438\u0434\u0435 \u043e\u0434 \u045a\u0435\u0433\u0430 \u043a\u0443\u045b\u0438 \u043e\u0446\u0430 \u0441\u0432\u043e\u0458\u0435\u0433\u0430 \u0443 \u0412\u0438\u0442\u043b\u0435\u0458\u0435\u043c \u0408\u0443\u0434\u0438\u043d, \u0438 \u043e\u0441\u0442\u0430 \u043e\u043d\u0434\u0458\u0435 \u0447\u0435\u0442\u0438\u0440\u0438 \u043c\u0458\u0435\u0441\u0435\u0446\u0430."
        },
        {
            "chapter": 19,
            "verse": 3,
            "name": "Judges 19:3",
            "text": "\u0410 \u043c\u0443\u0436 \u045a\u0435\u0437\u0438\u043d \u0443\u0441\u0442\u0430 \u0438 \u043e\u0442\u0438\u0434\u0435 \u0437\u0430 \u045a\u043e\u043c \u0434\u0430 \u0458\u043e\u0458 \u043b\u0438\u0458\u0435\u043f\u043e \u0433\u043e\u0432\u043e\u0440\u0438 \u0438 \u0434\u0430 \u0458\u0435 \u0434\u043e\u0432\u0435\u0434\u0435 \u043d\u0430\u0442\u0440\u0430\u0433, \u0438\u043c\u0430\u0458\u0443\u045b\u0438 \u0441\u0430 \u0441\u043e\u0431\u043e\u043c \u043c\u043e\u043c\u043a\u0430 \u0441\u0432\u043e\u0458\u0435\u0433\u0430, \u0438 \u0434\u0432\u0430 \u043c\u0430\u0433\u0430\u0440\u0446\u0430; \u0438 \u043e\u043d\u0430 \u0433\u0430 \u0443\u0432\u0435\u0434\u0435 \u0443 \u043a\u0443\u045b\u0443 \u043e\u0446\u0430 \u0441\u0432\u043e\u0458\u0435\u0433\u0430, \u0438 \u043a\u0430\u0434 \u0433\u0430 \u0432\u0438\u0434\u0458\u0435 \u043e\u0442\u0430\u0446 \u045a\u0435\u0437\u0438\u043d \u043e\u0431\u0440\u0430\u0434\u043e\u0432\u0430 \u0441\u0435 \u0434\u043e\u043b\u0430\u0441\u043a\u0443 \u045a\u0435\u0433\u043e\u0432\u0443."
        },
        {
            "chapter": 19,
            "verse": 4,
            "name": "Judges 19:4",
            "text": "\u0418 \u0443\u0441\u0442\u0430\u0432\u0438 \u0433\u0430 \u0442\u0430\u0441\u0442 \u045a\u0435\u0433\u043e\u0432, \u043e\u0442\u0430\u0446 \u043c\u043b\u0430\u0434\u0438\u0447\u0438\u043d, \u0438 \u043e\u0441\u0442\u0430 \u043a\u043e\u0434 \u045a\u0435\u0433\u0430 \u0442\u0440\u0438 \u0434\u0430\u043d\u0430, \u0438 \u043e\u043d\u0434\u0458\u0435 \u0458\u0435\u0452\u0430\u0445\u0443 \u0438 \u043f\u0438\u0458\u0430\u0445\u0443 \u0438 \u043d\u043e\u045b\u0438\u0432\u0430\u0445\u0443."
        },
        {
            "chapter": 19,
            "verse": 5,
            "name": "Judges 19:5",
            "text": "\u0410 \u0447\u0435\u0442\u0432\u0440\u0442\u0438 \u0434\u0430\u043d \u043a\u0430\u0434 \u0443\u0441\u0442\u0430\u0448\u0435 \u0440\u0430\u043d\u043e, \u0443\u0441\u0442\u0430 \u0438 \u043e\u043d \u0434\u0430 \u0438\u0434\u0435; \u0430\u043b\u0438 \u043e\u0442\u0430\u0446 \u043c\u043b\u0430\u0434\u0438\u0447\u0438\u043d \u0440\u0435\u0447\u0435 \u0437\u0435\u0442\u0443 \u0441\u0432\u043e\u0458\u0435\u043c\u0443: \u043f\u043e\u0442\u043a\u0440\u0438\u0458\u0435\u043f\u0438 \u0441\u0440\u0446\u0435 \u0441\u0432\u043e\u0458\u0435 \u0437\u0430\u043b\u043e\u0433\u0430\u0458\u0435\u043c \u0445\u0459\u0435\u0431\u0430, \u043f\u0430 \u043e\u043d\u0434\u0430 \u0438\u0434\u0438\u0442\u0435."
        },
        {
            "chapter": 19,
            "verse": 6,
            "name": "Judges 19:6",
            "text": "\u0418 \u0442\u0430\u043a\u043e \u0441\u0458\u0435\u0434\u043e\u0448\u0435 \u0438 \u0441\u0458\u0435\u0434\u043e\u0448\u0435 \u043e\u0431\u043e\u0458\u0438\u0446\u0430 \u0437\u0430\u0458\u0435\u0434\u043d\u043e \u0438 \u043d\u0430\u043f\u0438\u0448\u0435 \u0441\u0435; \u043f\u0430 \u0440\u0435\u0447\u0435 \u043e\u0442\u0430\u0446 \u043c\u043b\u0430\u0434\u0438\u0447\u0438\u043d \u043c\u0443\u0436\u0443: \u0445\u0430\u0458\u0434\u0435 \u043e\u0441\u0442\u0430\u043d\u0438 \u0458\u043e\u0448 \u043d\u043e\u045b\u0430\u0441, \u0438 \u0431\u0443\u0434\u0438 \u0432\u0435\u0441\u0435\u043e."
        },
        {
            "chapter": 19,
            "verse": 7,
            "name": "Judges 19:7",
            "text": "\u0410\u043b\u0438 \u0447\u043e\u0432\u0458\u0435\u043a \u0443\u0441\u0442\u0430 \u0434\u0430 \u0438\u0434\u0435; \u0430\u043b\u0438 \u0442\u0430\u0441\u0442 \u045a\u0435\u0433\u043e\u0432 \u043d\u0430\u0432\u0430\u043b\u0438 \u043d\u0430 \u045a, \u0442\u0435 \u043e\u043f\u0435\u0442 \u043d\u043e\u045b\u0438 \u043e\u043d\u0434\u0458\u0435."
        },
        {
            "chapter": 19,
            "verse": 8,
            "name": "Judges 19:8",
            "text": "\u041f\u043e\u0442\u043e\u043c \u0443\u0440\u0430\u043d\u0438 \u043f\u0435\u0442\u043e\u0433\u0430 \u0434\u0430\u043d\u0430 \u0434\u0430 \u0438\u0434\u0435; \u0438 \u0440\u0435\u0447\u0435 \u043c\u0443 \u043e\u0442\u0430\u0446 \u043c\u043b\u0430\u0434\u0438\u0447\u0438\u043d: \u043f\u043e\u0442\u043a\u0440\u0438\u0458\u0435\u043f\u0438 \u0441\u0440\u0446\u0435 \u0441\u0432\u043e\u0458\u0435. \u0418 \u0458\u0435\u0434\u0443\u045b\u0438 \u0437\u0430\u0458\u0435\u0434\u043d\u043e \u0437\u0430\u0431\u0430\u0432\u0438\u0448\u0435 \u0441\u0435 \u0434\u043e\u043a\u043b\u0435 \u0438 \u0434\u0430\u043d \u043d\u0430\u0436\u0435."
        },
        {
            "chapter": 19,
            "verse": 9,
            "name": "Judges 19:9",
            "text": "\u0422\u0430\u0434\u0430 \u0443\u0441\u0442\u0430 \u0447\u043e\u0432\u0458\u0435\u043a \u0434\u0430 \u0438\u0434\u0435, \u043e\u043d \u0438 \u0438\u043d\u043e\u0447\u0430 \u043c\u0443 \u0438 \u043c\u043e\u043c\u0430\u043a; \u0430 \u0442\u0430\u0441\u0442 \u045a\u0435\u0433\u043e\u0432, \u043e\u0442\u0430\u0446 \u043c\u043b\u0430\u0434\u0438\u0447\u0438\u043d, \u0440\u0435\u0447\u0435 \u043c\u0443: \u0435\u0442\u043e, \u0434\u0430\u043d \u0458\u0435 \u0432\u0435\u045b \u043d\u0430\u0433\u0430\u043e, \u0432\u0435\u0447\u0435 \u0458\u0435, \u043f\u0440\u0435\u043d\u043e\u045b\u0438\u0442\u0435 \u043e\u0432\u0434\u0458\u0435; \u0435\u0442\u043e \u0434\u043e\u0446\u043a\u0430\u043d \u0458\u0435, \u043f\u0440\u0435\u043d\u043e\u045b\u0438 \u043e\u0432\u0434\u0458\u0435, \u0438 \u0431\u0443\u0434\u0438 \u0432\u0435\u0441\u0435\u043e, \u043f\u0430 \u0441\u0458\u0443\u0442\u0440\u0430 \u0443\u0440\u0430\u043d\u0438\u0442\u0435 \u043d\u0430 \u043f\u0443\u0442, \u0438 \u0438\u0434\u0438 \u043a \u0441\u0432\u043e\u0458\u0435\u043c\u0443 \u0448\u0430\u0442\u043e\u0440\u0443."
        },
        {
            "chapter": 19,
            "verse": 10,
            "name": "Judges 19:10",
            "text": "\u0410\u043b\u0438 \u0447\u043e\u0432\u0458\u0435\u043a \u043d\u0435 \u0445\u0442\u0458\u0435 \u043d\u043e\u045b\u0438\u0442\u0438; \u043d\u0435\u0433\u043e \u0443\u0441\u0442\u0430 \u0438 \u043f\u043e\u0452\u0435; \u0438 \u0434\u043e\u0452\u0435 \u0434\u043e \u0408\u0435\u0432\u0443\u0441\u0430, \u0430 \u0442\u043e \u0458\u0435 \u0408\u0435\u0440\u0443\u0441\u0430\u043b\u0438\u043c, \u0438 \u0441 \u045a\u0438\u043c \u0434\u0432\u0430 \u043c\u0430\u0433\u0430\u0440\u0446\u0430 \u043d\u0430\u0442\u043e\u0432\u0430\u0440\u0435\u043d\u0430 \u0438 \u0438\u043d\u043e\u0447\u0430 \u045a\u0435\u0433\u043e\u0432\u0430."
        },
        {
            "chapter": 19,
            "verse": 11,
            "name": "Judges 19:11",
            "text": "\u0410 \u043a\u0430\u0434 \u0431\u0438\u0458\u0430\u0445\u0443 \u0431\u043b\u0438\u0437\u0443 \u0408\u0435\u0432\u0443\u0441\u0430, \u0434\u0430\u043d \u0431\u0438\u0458\u0430\u0448\u0435 \u043d\u0430\u0433\u0430\u043e \u0432\u0440\u043b\u043e, \u043f\u0430 \u0440\u0435\u0447\u0435 \u0441\u043b\u0443\u0433\u0430 \u0433\u043e\u0441\u043f\u043e\u0434\u0430\u0440\u0443 \u0441\u0432\u043e\u0458\u0435\u043c\u0443: \u0445\u0430\u0458\u0434\u0435 \u0431\u0440\u0436\u0435 \u0434\u0430 \u0441\u0435 \u0441\u0432\u0440\u0430\u0442\u0438\u043c\u043e \u0443 \u0442\u0430\u0458 \u0433\u0440\u0430\u0434 \u0408\u0435\u0432\u0443\u0441, \u0438 \u0442\u0443 \u0434\u0430 \u043d\u043e\u045b\u0438\u043c\u043e."
        },
        {
            "chapter": 19,
            "verse": 12,
            "name": "Judges 19:12",
            "text": "\u0410 \u0433\u043e\u0441\u043f\u043e\u0434\u0430\u0440 \u043c\u0443 \u0440\u0435\u0447\u0435: \u043d\u0435\u045b\u0435\u043c\u043e \u0441\u0432\u0440\u0442\u0430\u0442\u0438 \u0443 \u0442\u0443\u0452 \u0433\u0440\u0430\u0434, \u043a\u043e\u0458\u0438 \u043d\u0438\u0458\u0435 \u0441\u0438\u043d\u043e\u0432\u0430 \u0418\u0437\u0440\u0430\u0438\u0459\u0435\u0432\u0438\u0458\u0435\u0445, \u043d\u0435\u0433\u043e \u045b\u0435\u043c\u043e \u0438\u045b\u0438 \u0434\u043e \u0413\u0430\u0432\u0430\u0458\u0435."
        },
        {
            "chapter": 19,
            "verse": 13,
            "name": "Judges 19:13",
            "text": "\u0408\u043e\u0448 \u0440\u0435\u0447\u0435 \u043c\u043e\u043c\u043a\u0443 \u0441\u0432\u043e\u0458\u0435\u043c\u0443: \u0445\u0430\u0458\u0434\u0435 \u0431\u0440\u0436\u0435 \u0434\u0430 \u0441\u0442\u0438\u0433\u043d\u0435\u043c\u043e \u0443 \u043a\u043e\u0458\u0435 \u043e\u0434 \u0442\u0438\u0458\u0435\u0445 \u043c\u0458\u0435\u0441\u0442\u0430 \u0438 \u0434\u0430 \u043d\u043e\u045b\u0438\u043c\u043e \u0443 \u0413\u0430\u0432\u0430\u0458\u0438 \u0438\u043b\u0438 \u0443 \u0420\u0430\u043c\u0438."
        },
        {
            "chapter": 19,
            "verse": 14,
            "name": "Judges 19:14",
            "text": "\u0418 \u043c\u0438\u043d\u0443\u0448\u0435 \u043e\u043d\u0443\u0434\u0430 \u0438 \u043e\u0442\u0438\u0434\u043e\u0448\u0435; \u0438 \u0441\u0443\u043d\u0446\u0435 \u0438\u0445 \u0437\u0430\u0452\u0435 \u0431\u043b\u0438\u0437\u0443 \u0413\u0430\u0432\u0430\u0458\u0435 \u0412\u0435\u043d\u0438\u0458\u0430\u043c\u0438\u043d\u043e\u0432\u0435."
        },
        {
            "chapter": 19,
            "verse": 15,
            "name": "Judges 19:15",
            "text": "\u0418 \u043e\u043a\u0440\u0435\u0442\u043e\u0448\u0435 \u043e\u043d\u0430\u043c\u043e \u0434\u0430 \u043e\u0442\u0438\u0434\u0443 \u0438 \u043f\u0440\u0435\u043d\u043e\u045b\u0435 \u0443 \u0413\u0430\u0432\u0430\u0458\u0438, \u0438 \u043a\u0430\u0434 \u0443\u0452\u0435, \u0441\u0458\u0435\u0434\u0435 \u043d\u0430 \u0443\u043b\u0438\u0446\u0438 \u0433\u0440\u0430\u0434\u0441\u043a\u043e\u0458; \u0438 \u043d\u0435 \u0431\u0438 \u043d\u0438\u043a\u043e\u0433\u0430 \u0434\u0430 \u0438\u0445 \u043f\u0440\u0438\u043c\u0438 \u0443 \u043a\u0443\u045b\u0443 \u0434\u0430 \u043f\u0440\u0435\u043d\u043e\u045b\u0435."
        },
        {
            "chapter": 19,
            "verse": 16,
            "name": "Judges 19:16",
            "text": "\u0418 \u0433\u043b\u0435, \u0458\u0435\u0434\u0430\u043d \u0441\u0442\u0430\u0440\u0430\u0446 \u0432\u0440\u0430\u045b\u0430\u0448\u0435 \u0441\u0435 \u0441 \u043f\u043e\u0441\u043b\u0430 \u0441\u0432\u043e\u0458\u0435\u0433\u0430 \u0438\u0437 \u043f\u043e\u0459\u0430 \u0443\u0432\u0435\u0447\u0435, \u0430 \u0431\u0438\u0458\u0430\u0448\u0435 \u0438\u0437 \u0433\u043e\u0440\u0435 \u0408\u0435\u0444\u0440\u0435\u043c\u043e\u0432\u0435 \u0438 \u0436\u0438\u0432\u0459\u0430\u0448\u0435 \u043a\u0430\u043e \u0434\u043e\u0448\u0459\u0430\u043a \u0443 \u0413\u0430\u0432\u0430\u0458\u0438; \u0430 \u0459\u0443\u0434\u0438 \u043e\u043d\u043e\u0433\u0430 \u043c\u0458\u0435\u0441\u0442\u0430 \u0431\u0458\u0435\u0445\u0443 \u0441\u0438\u043d\u043e\u0432\u0438 \u0412\u0435\u043d\u0438\u0458\u0430\u043c\u0438\u043d\u043e\u0432\u0438."
        },
        {
            "chapter": 19,
            "verse": 17,
            "name": "Judges 19:17",
            "text": "\u0418 \u043e\u043d \u043f\u043e\u0434\u0438\u0433\u0430\u0432 \u043e\u0447\u0438 \u0441\u0432\u043e\u0458\u0435 \u0443\u0433\u043b\u0435\u0434\u0430 \u043e\u043d\u043e\u0433\u0430 \u0447\u043e\u0432\u0458\u0435\u043a\u0430 \u043f\u0443\u0442\u043d\u0438\u043a\u0430 \u043d\u0430 \u0443\u043b\u0438\u0446\u0438 \u0433\u0440\u0430\u0434\u0441\u043a\u043e\u0458; \u0438 \u0440\u0435\u0447\u0435 \u043c\u0443 \u0441\u0442\u0430\u0440\u0430\u0446: \u043a\u0443\u0434\u0430 \u0438\u0434\u0435\u0448? \u0438 \u043e\u0442\u043a\u0443\u0434\u0430 \u0438\u0434\u0435\u0448?"
        },
        {
            "chapter": 19,
            "verse": 18,
            "name": "Judges 19:18",
            "text": "\u0410 \u043e\u043d \u043c\u0443 \u043e\u0434\u0433\u043e\u0432\u043e\u0440\u0438: \u0438\u0434\u0435\u043c\u043e \u0434\u043e \u0412\u0438\u0442\u043b\u0435\u0458\u0435\u043c\u0430 \u0408\u0443\u0434\u0438\u043d\u0430 \u0434\u043e \u043d\u0430 \u043a\u0440\u0430\u0458 \u0433\u043e\u0440\u0435 \u0408\u0435\u0444\u0440\u0435\u043c\u043e\u0432\u0435; \u043e\u0434\u0430\u043d\u0434\u0435 \u0441\u0430\u043c, \u043f\u0430 \u0441\u0430\u043c \u0438\u0448\u0430\u043e \u0434\u043e \u0412\u0438\u0442\u043b\u0435\u0458\u0435\u043c\u0430 \u0408\u0443\u0434\u0438\u043d\u0430, \u0430 \u0441\u0430\u0434\u0430 \u0438\u0434\u0435\u043c \u043a \u0434\u043e\u043c\u0443 \u0413\u043e\u0441\u043f\u043e\u0434\u045a\u0435\u043c\u0443 \u0438 \u043d\u0435\u043c\u0430 \u043d\u0438\u043a\u043e\u0433\u0430 \u0434\u0430 \u043c\u0435 \u043f\u0440\u0438\u043c\u0438 \u0443 \u043a\u0443\u045b\u0443."
        },
        {
            "chapter": 19,
            "verse": 19,
            "name": "Judges 19:19",
            "text": "\u0410 \u0438\u043c\u0430\u043c\u043e \u0438 \u0441\u043b\u0430\u043c\u0435 \u0438 \u043f\u0438\u045b\u0435 \u0437\u0430 \u043c\u0430\u0433\u0430\u0440\u0446\u0435 \u0441\u0432\u043e\u0458\u0435, \u0438 \u0445\u0459\u0435\u0431\u0430 \u0438 \u0432\u0438\u043d\u0430 \u0437\u0430 \u0441\u0435 \u0438 \u0437\u0430 \u0441\u043b\u0443\u0448\u043a\u0438\u045a\u0443 \u0442\u0432\u043e\u0458\u0443 \u0438 \u0437\u0430 \u043c\u043e\u043c\u043a\u0430 \u043a\u043e\u0458\u0438 \u0458\u0435 \u0441\u0430 \u0441\u043b\u0443\u0433\u043e\u043c \u0442\u0432\u043e\u0458\u0438\u043c \u0438\u043c\u0430\u043c\u043e \u0441\u0432\u0435\u0433\u0430 \u0434\u043e\u0441\u0442\u0430."
        },
        {
            "chapter": 19,
            "verse": 20,
            "name": "Judges 19:20",
            "text": "\u0410 \u0441\u0442\u0430\u0440\u0430\u0446 \u043c\u0443 \u0440\u0435\u0447\u0435: \u0431\u0443\u0434\u0438 \u043c\u0438\u0440\u0430\u043d; \u0448\u0442\u043e \u0442\u0438 \u0433\u043e\u0434 \u043d\u0435\u0434\u043e\u0441\u0442\u0430\u0458\u0435, \u0458\u0430 \u045b\u0443 \u0441\u0435 \u0441\u0442\u0430\u0440\u0430\u0442\u0438 \u0437\u0430 \u0442\u043e; \u0441\u0430\u043c\u043e \u043d\u0435\u043c\u043e\u0458 \u043d\u043e\u045b\u0438\u0442\u0438 \u043d\u0430 \u0443\u043b\u0438\u0446\u0438."
        },
        {
            "chapter": 19,
            "verse": 21,
            "name": "Judges 19:21",
            "text": "\u0418 \u0443\u0432\u0435\u0434\u0435 \u0433\u0430 \u0443 \u0441\u0432\u043e\u0458\u0443 \u043a\u0443\u045b\u0443, \u0438 \u043f\u043e\u043b\u043e\u0436\u0438 \u043c\u0430\u0433\u0430\u0440\u0446\u0438\u043c\u0430; \u043f\u043e\u0442\u043e\u043c \u043e\u043f\u0440\u0430\u0448\u0435 \u043d\u043e\u0433\u0435, \u0438 \u0458\u0435\u0434\u043e\u0448\u0435 \u0438 \u043f\u0438\u0448\u0435."
        },
        {
            "chapter": 19,
            "verse": 22,
            "name": "Judges 19:22",
            "text": "\u0410 \u043a\u0430\u0434 \u0441\u0435 \u0440\u0430\u0437\u0432\u0435\u0441\u0435\u043b\u0438\u0448\u0435, \u0433\u043b\u0435, \u0459\u0443\u0434\u0438 \u043e\u043d\u043e\u0433\u0430 \u0433\u0440\u0430\u0434\u0430, \u0431\u0435\u0437\u0430\u043a\u043e\u043d\u0438\u0446\u0438, \u043e\u043f\u043a\u043e\u043b\u0438\u0448\u0435 \u043a\u0443\u045b\u0443, \u0438 \u0441\u0442\u0430\u0434\u043e\u0448\u0435 \u043b\u0443\u043f\u0430\u0442\u0438 \u0443 \u0432\u0440\u0430\u0442\u0430, \u0438 \u0440\u0435\u043a\u043e\u0448\u0435 \u0441\u0442\u0430\u0440\u0446\u0443, \u0433\u043e\u0441\u043f\u043e\u0434\u0430\u0440\u0443 \u043e\u0434 \u043a\u0443\u045b\u0435, \u0433\u043e\u0432\u043e\u0440\u0435\u045b\u0438: \u0438\u0437\u0432\u0435\u0434\u0438 \u0442\u043e\u0433\u0430 \u0447\u043e\u0432\u0458\u0435\u043a\u0430 \u0448\u0442\u043e \u0458\u0435 \u0443\u0448\u0430\u043e \u0443 \u0442\u0432\u043e\u0458\u0443 \u043a\u0443\u045b\u0443, \u0434\u0430 \u0433\u0430 \u043f\u043e\u0437\u043d\u0430\u043c\u043e."
        },
        {
            "chapter": 19,
            "verse": 23,
            "name": "Judges 19:23",
            "text": "\u0418 \u0438\u0437\u0430\u0448\u0430\u0432 \u043a \u045a\u0438\u043c\u0430 \u043e\u043d\u0430\u0458 \u0447\u043e\u0432\u0458\u0435\u043a, \u0433\u043e\u0441\u043f\u043e\u0434\u0430\u0440 \u043e\u0434 \u043a\u0443\u045b\u0435, \u0440\u0435\u0447\u0435 \u0438\u043c: \u043d\u0435, \u0431\u0440\u0430\u045b\u043e, \u043d\u0435 \u0447\u0438\u043d\u0438\u0442\u0435 \u0437\u043b\u0430; \u043a\u0430\u0434 \u0458\u0435 \u0447\u043e\u0432\u0458\u0435\u043a \u0443\u0448\u0430\u043e \u0443 \u043c\u043e\u0458\u0443 \u043a\u0443\u045b\u0443, \u043d\u0435 \u0447\u0438\u043d\u0438\u0442\u0435 \u0442\u043e\u0433\u0430 \u0431\u0435\u0437\u0443\u043c\u0459\u0430."
        },
        {
            "chapter": 19,
            "verse": 24,
            "name": "Judges 19:24",
            "text": "\u0415\u0432\u043e \u043a\u045b\u0438 \u043c\u043e\u0458\u0430 \u0434\u0458\u0435\u0432\u043e\u0458\u043a\u0430 \u0438 \u0438\u043d\u043e\u0447\u0430 \u045a\u0435\u0433\u043e\u0432\u0430, \u045a\u0438\u0445 \u045b\u0443 \u0432\u0430\u043c \u0438\u0437\u0432\u0435\u0441\u0442\u0438, \u043f\u0430 \u045a\u0438\u0445 \u043e\u0441\u0440\u0430\u043c\u043e\u0442\u0438\u0442\u0435 \u0438 \u0447\u0438\u043d\u0438\u0442\u0435 \u0441 \u045a\u0438\u043c\u0430 \u0448\u0442\u043e \u0432\u0430\u043c \u0458\u0435 \u0432\u043e\u0459\u0430, \u0441\u0430\u043c\u043e \u0447\u043e\u0432\u0458\u0435\u043a\u0443 \u043e\u0432\u043e\u043c\u0443 \u043d\u0435 \u0447\u0438\u043d\u0438\u0442\u0435 \u0442\u043e\u0433\u0430 \u0431\u0435\u0437\u0443\u043c\u0459\u0430."
        },
        {
            "chapter": 19,
            "verse": 25,
            "name": "Judges 19:25",
            "text": "\u0410\u043b\u0438 \u0433\u0430 \u043d\u0435 \u0445\u0442\u0458\u0435\u0448\u0435 \u043f\u043e\u0441\u043b\u0443\u0448\u0430\u0442\u0438 \u043e\u043d\u0438 \u0459\u0443\u0434\u0438; \u0442\u0430\u0434\u0430 \u043e\u043d\u0430\u0458 \u0447\u043e\u0432\u0458\u0435\u043a \u0443\u0437\u0435 \u0438\u043d\u043e\u0447\u0443 \u0441\u0432\u043e\u0458\u0443 \u0438 \u0438\u0437\u0432\u0435\u0434\u0435 \u0458\u0435 \u043d\u0430\u043f\u043e\u0459\u0435 \u043a \u045a\u0438\u043c\u0430, \u0438 \u043e\u043d\u0438 \u0458\u0435 \u043f\u043e\u0437\u043d\u0430\u0448\u0435, \u0438 \u0437\u043b\u043e\u0441\u0442\u0430\u0432\u0438\u0448\u0435 \u0458\u0435 \u0446\u0438\u0458\u0435\u043b\u0443 \u043d\u043e\u045b \u0434\u043e \u0437\u043e\u0440\u0435, \u0438 \u043f\u0443\u0441\u0442\u0438\u0448\u0435 \u0458\u0435 \u043a\u0430\u0434 \u0437\u043e\u0440\u0430 \u0437\u0430\u0431\u0438\u0458\u0435\u0459\u0435."
        },
        {
            "chapter": 19,
            "verse": 26,
            "name": "Judges 19:26",
            "text": "\u0418 \u0434\u043e\u0448\u0430\u0432\u0448\u0438 \u0436\u0435\u043d\u0430 \u0443 \u0437\u043e\u0440\u0443 \u043f\u0430\u0434\u0435 \u043a\u043e\u0434 \u0432\u0440\u0430\u0442\u0430 \u043e\u0434 \u043a\u0443\u045b\u0435 \u043e\u043d\u043e\u0433\u0430 \u0447\u043e\u0432\u0458\u0435\u043a\u0430 \u0433\u0434\u0458\u0435 \u0431\u0458\u0435\u0448\u0435 \u0433\u043e\u0441\u043f\u043e\u0434\u0430\u0440 \u045a\u0435\u0437\u0438\u043d, \u0438 \u043b\u0435\u0436\u0430 \u0434\u043e\u043a\u043b\u0435 \u0441\u0435 \u043d\u0435 \u0440\u0430\u0441\u0432\u0430\u043d\u0443."
        },
        {
            "chapter": 19,
            "verse": 27,
            "name": "Judges 19:27",
            "text": "\u0410 \u0433\u043e\u0441\u043f\u043e\u0434\u0430\u0440 \u045a\u0435\u0437\u0438\u043d \u0443\u0441\u0442\u0430 \u0443\u0458\u0443\u0442\u0440\u0443, \u0438 \u043a\u0430\u0434 \u043e\u0442\u0432\u043e\u0440\u0438 \u0432\u0440\u0430\u0442\u0430 \u0438 \u0438\u0437\u0430\u0452\u0435 \u0434\u0430 \u0438\u0434\u0435 \u0441\u0432\u043e\u0458\u0438\u043c \u043f\u0443\u0442\u0435\u043c, \u0430 \u0442\u043e \u0436\u0435\u043d\u0430 \u0438\u043d\u043e\u0447\u0430 \u045a\u0435\u0433\u043e\u0432\u0430 \u043b\u0435\u0436\u0430\u0448\u0435 \u043d\u0430 \u0432\u0440\u0430\u0442\u0438\u043c\u0430 \u043a\u0443\u045b\u043d\u0438\u0458\u0435\u043c, \u0438 \u0440\u0443\u043a\u0435 \u0458\u043e\u0458 \u043d\u0430 \u043f\u0440\u0430\u0433\u0443."
        },
        {
            "chapter": 19,
            "verse": 28,
            "name": "Judges 19:28",
            "text": "\u0418 \u0440\u0435\u0447\u0435 \u0458\u043e\u0458: \u0443\u0441\u0442\u0430\u043d\u0438 \u0434\u0430 \u0438\u0434\u0435\u043c\u043e. \u0410\u043b\u0438 \u043d\u0435 \u0431\u0438 \u043e\u0434\u0433\u043e\u0432\u043e\u0440\u0430; \u0442\u0430\u0434\u0430 \u0458\u0435 \u043c\u0435\u0442\u043d\u0443 \u043d\u0430 \u043c\u0430\u0433\u0430\u0440\u0446\u0430, \u0438 \u0443\u0441\u0442\u0430\u0432\u0448\u0438 \u0447\u043e\u0432\u0458\u0435\u043a \u043f\u043e\u0452\u0435 \u0443 \u043c\u0458\u0435\u0441\u0442\u043e \u0441\u0432\u043e\u0458\u0435,"
        },
        {
            "chapter": 19,
            "verse": 29,
            "name": "Judges 19:29",
            "text": "\u0418 \u0434\u043e\u0448\u0430\u0432 \u043a\u0443\u045b\u0438 \u0441\u0432\u043e\u0458\u043e\u0458 \u0443\u0437\u0435 \u043c\u0430\u0447, \u0438 \u0443\u0437\u0435 \u0438\u043d\u043e\u0447\u0443 \u0441\u0432\u043e\u0458\u0443 \u0438 \u0438\u0441\u0438\u0458\u0435\u0447\u0435 \u0458\u0435 \u0441 \u043a\u043e\u0441\u0442\u0438\u043c\u0430 \u043d\u0430 \u0434\u0432\u0430\u043d\u0430\u0435\u0441\u0442 \u043a\u043e\u043c\u0430\u0434\u0430 \u0438 \u0440\u0430\u0437\u0430\u0441\u043b\u0430 \u0443 \u0441\u0432\u0435 \u043a\u0440\u0430\u0458\u0435\u0432\u0435 \u0418\u0437\u0440\u0430\u0438\u0459\u0435\u0432\u0435."
        },
        {
            "chapter": 19,
            "verse": 30,
            "name": "Judges 19:30",
            "text": "\u0418 \u043a\u043e \u0433\u043e\u0434 \u0432\u0438\u0434\u0458\u0435 \u0433\u043e\u0432\u043e\u0440\u0430\u0448\u0435: \u043d\u0438\u0458\u0435 \u0441\u0435 \u0443\u0447\u0438\u043d\u0438\u043b\u043e \u043d\u0438\u0442\u0438 \u0441\u0435 \u0432\u0438\u0434\u0458\u0435\u043b\u043e \u0442\u0430\u043a\u043e \u0448\u0442\u043e \u043e\u0442\u043a\u0430\u0434 \u0438\u0437\u0438\u0434\u043e\u0448\u0435 \u0441\u0438\u043d\u043e\u0432\u0438 \u0418\u0437\u0440\u0430\u0438\u0459\u0435\u0432\u0438 \u0438\u0437 \u041c\u0438\u0441\u0438\u0440\u0430 \u0434\u043e \u0434\u0430\u043d\u0430\u0441. \u041f\u0440\u043e\u043c\u0438\u0441\u043b\u0438\u0442\u0435 \u043e \u0442\u043e\u043c \u0438 \u0432\u0438\u0458\u0435\u045b\u0430\u0458\u0442\u0435 \u0438 \u0433\u043e\u0432\u043e\u0440\u0438\u0442\u0435. "
        }
    ]
}