{
    "translation": "Kitaabka Quduuska Ah",
    "abbreviation": "somkqa",
    "lang": "so",
    "language": "Somali",
    "direction": "LTR",
    "encoding": "UTF-8",
    "book_nr": 22,
    "book_name": "Song of Solomon",
    "chapter": 8,
    "name": "Song of Solomon 8",
    "verses": [
        {
            "chapter": 8,
            "verse": 1,
            "name": "Song of Solomon 8:1",
            "text": "Haddaad ahaan lahayd walaalkay Oo naasihii hooyaday nuugay, Markaan dibadda kaa helaba waan ku dhunkan lahaa. Oo innaba layma quudhsadeen.  "
        },
        {
            "chapter": 8,
            "verse": 2,
            "name": "Song of Solomon 8:2",
            "text": "Waan ku soo kaxayn lahaa oo waxaan ku gelin lahaa guriga hooyaday, Wax baadna i bari lahayd. Oo waxaan ku cabsiin lahaa khamriga xawaashka leh Ee biyaha rummaankayga laga sameeyey.  "
        },
        {
            "chapter": 8,
            "verse": 3,
            "name": "Song of Solomon 8:3",
            "text": "Gacantiisa bidix madaxaygay ka hoosayn lahayd, Oo gacantiisa midigna way isku kay duubi lahayd.  "
        },
        {
            "chapter": 8,
            "verse": 4,
            "name": "Song of Solomon 8:4",
            "text": "Gabdhaha reer Yeruusaalemow, waxaan idinku dhaarinayaa Inaydaan jacayl kicin, ama aydaan toosin, Ilaa uu doono.  Saaxiibadaha Hadlayaa   "
        },
        {
            "chapter": 8,
            "verse": 5,
            "name": "Song of Solomon 8:5",
            "text": "Waa tuma tan cidlada ka soo baxaysa, Ee gacaliyeheeda ku tiirsanu?  Gacalisada Hadlaysaa  Waxaan kaa soo kiciyey geed tufaax ah hoostiis. Halkaasaa hooyadaa kugu foolatay, Oo halkaasay tii ku dhashay kugu foolatay.  "
        },
        {
            "chapter": 8,
            "verse": 6,
            "name": "Song of Solomon 8:6",
            "text": "Qalbigaaga korkiisa ii dhig sida shaabad oo kale, oo gacantaada korkeeda ii dhig sida shaabad oo kale, Waayo, jacaylku wuxuu u xoog badan yahay sida geeri oo kale, Oo masayrkuna wuxuu u nac weyn yahay sidii She\u2019ool oo kale. Belbelkiisu waa sida belbel dab ah, Oo waa ololka ugu wada kulul ee Rabbiga.  "
        },
        {
            "chapter": 8,
            "verse": 7,
            "name": "Song of Solomon 8:7",
            "text": "Biyo badanu jacayl ma demin karaan, Oo daadadkuna innaba ma qarqin karaan. Haddii nin damco inuu jacayl soo siisto maalka gurigiisa oo dhan, Haddana dhammaan waa la quudhsan lahaa.  Saaxiibadaha Hadlayaa   "
        },
        {
            "chapter": 8,
            "verse": 8,
            "name": "Song of Solomon 8:8",
            "text": "Annagu waxaannu leennahay walaal yar, Oo aan innaba naaso lahayn. Haddaba bal maxaannu walaashayo u samayn doonnaa Maalintii iyada guur loo soo doonto?  "
        },
        {
            "chapter": 8,
            "verse": 9,
            "name": "Song of Solomon 8:9",
            "text": "Hadday derbi tahay waxaannu korkeeda ka dhisi doonnaa munaarad lacag ah, Oo hadday albaab tahayna waxaannu iyada ku hareerayn doonnaa alwaaxyo kedar ah.  Gacalisada Hadlaysaa   "
        },
        {
            "chapter": 8,
            "verse": 10,
            "name": "Song of Solomon 8:10",
            "text": "Anigu waxaan ahay derbi, oo naasahayguna waa sida munaaradaha oo kale. Oo markaas waxaan hortiisa ku ahaa sidii mid nabad heshay.  "
        },
        {
            "chapter": 8,
            "verse": 11,
            "name": "Song of Solomon 8:11",
            "text": "Sulaymaan beercanab buu Bacal Hamoon ku lahaa; Oo beercanabkii wuxuu ka kireeyey kuwa dhawra, Oo midkood kastaaba wuxuu midhaheeda uga keeni jiray kun xabbadood oo lacag ah.  "
        },
        {
            "chapter": 8,
            "verse": 12,
            "name": "Song of Solomon 8:12",
            "text": "Beercanabkayga ah kan aan iska leeyahay, hortayduu ku yaal, Haddaba Sulaymaanow, adigu waxaad heli doontaa kun, Kuwa midhihiisa dhawraana laba boqol.  Gacaliyaha Hadlayaa   "
        },
        {
            "chapter": 8,
            "verse": 13,
            "name": "Song of Solomon 8:13",
            "text": "Taada beeraha dhexdooda degganay, Rafiiqyadaadu waxay dhegaystaan codkaaga, Haddaba, bal i maqashii.  Gacalisada Hadlaysaa   "
        },
        {
            "chapter": 8,
            "verse": 14,
            "name": "Song of Solomon 8:14",
            "text": "Gacaliyahaygow, dhaqso, Oo waxaad ahaataa sida cawl ama deer qayrab ah Oo buuraha dhirta udgoon kor jooga.    "
        }
    ]
}