{
    "translation": "Japanese Kougo-yaku \u53e3\u8a9e\u8a33\u300c\u8056\u66f8\u300d(1954/1955\u5e74\u7248)",
    "abbreviation": "japkougo",
    "lang": "ja",
    "language": "Japanese",
    "direction": "LTR",
    "encoding": "UTF-8",
    "book_nr": 6,
    "book_name": "Joshua",
    "chapter": 19,
    "name": "Joshua 19",
    "verses": [
        {
            "chapter": 19,
            "verse": 1,
            "name": "Joshua 19:1",
            "text": "\u6b21\u306b\u30b7\u30e1\u30aa\u30f3\u306e\u305f\u3081\u3001\u3059\u306a\u308f\u3061\u30b7\u30e1\u30aa\u30f3\u306e\u5b50\u5b6b\u306e\u90e8\u65cf\u306e\u305f\u3081\u306b\u3001\u305d\u306e\u5bb6\u65cf\u306b\u3057\u305f\u304c\u3063\u3066\u3001\u304f\u3058\u3092\u5f15\u3044\u305f\u3002\u305d\u306e\u55e3\u696d\u306f\u30e6\u30c0\u306e\u5b50\u5b6b\u306e\u55e3\u696d\u306e\u3046\u3061\u306b\u3042\u3063\u305f\u3002"
        },
        {
            "chapter": 19,
            "verse": 2,
            "name": "Joshua 19:2",
            "text": "\u305d\u306e\u55e3\u696d\u3068\u3057\u3066\u7372\u305f\u3082\u306e\u306f\u3001\u30d9\u30a8\u30eb\u30b7\u30d0\u3001\u3059\u306a\u308f\u3061\u30b7\u30d0\u3001\u30e2\u30e9\u30c0\u3001"
        },
        {
            "chapter": 19,
            "verse": 3,
            "name": "Joshua 19:3",
            "text": "\u30cf\u30b6\u30eb\u30fb\u30b7\u30e5\u30a2\u30eb\u3001\u30d0\u30e9\u3001\u30a8\u30bc\u30e0\u3001"
        },
        {
            "chapter": 19,
            "verse": 4,
            "name": "Joshua 19:4",
            "text": "\u30a8\u30eb\u30c8\u30e9\u30c7\u3001\u30d9\u30c8\u30eb\u3001\u30db\u30eb\u30de\u3001"
        },
        {
            "chapter": 19,
            "verse": 5,
            "name": "Joshua 19:5",
            "text": "\u30c1\u30af\u30e9\u30b0\u3001\u30d9\u30c6\u30fb\u30de\u30eb\u30ab\u30dc\u30c6\u3001\u30cf\u30b6\u30eb\u30b9\u30b5\u3001"
        },
        {
            "chapter": 19,
            "verse": 6,
            "name": "Joshua 19:6",
            "text": "\u30d9\u30c6\u30ec\u30d0\u30aa\u30c6\u3001\u30b7\u30e3\u30eb\u30d8\u30f3\u3002\u3059\u306a\u308f\u3061\u5341\u4e09\u306e\u753a\u3005\u3068\u3001\u305d\u308c\u306b\u5c5e\u3059\u308b\u6751\u3005\u3002"
        },
        {
            "chapter": 19,
            "verse": 7,
            "name": "Joshua 19:7",
            "text": "\u307e\u305f\u30a2\u30a4\u30f3\u3001\u30ea\u30f3\u30e2\u30f3\u3001\u30a8\u30c6\u30eb\u3001\u30a2\u30b7\u30e3\u30f3\u3002\u3059\u306a\u308f\u3061\u56db\u3064\u306e\u753a\u3005\u3068\u3001\u305d\u308c\u306b\u5c5e\u3059\u308b\u6751\u3005\u3002"
        },
        {
            "chapter": 19,
            "verse": 8,
            "name": "Joshua 19:8",
            "text": "\u304a\u3088\u3073\u3053\u308c\u3089\u306e\u753a\u306e\u5468\u56f2\u306b\u3042\u3063\u3066\u3001\u30d0\u30a2\u30e9\u30c6\u30fb\u30d9\u30a8\u30eb\u3001\u3059\u306a\u308f\u3061\u30cd\u30b2\u30d6\u306e\u30e9\u30de\u306b\u81f3\u308b\u307e\u3067\u306e\u3059\u3079\u3066\u306e\u6751\u3005\u3002\u3053\u308c\u304c\u30b7\u30e1\u30aa\u30f3\u306e\u5b50\u5b6b\u306e\u90e8\u65cf\u306e\u3001\u305d\u306e\u5bb6\u65cf\u306b\u3057\u305f\u304c\u3063\u3066\u7372\u305f\u55e3\u696d\u3067\u3042\u308b\u3002"
        },
        {
            "chapter": 19,
            "verse": 9,
            "name": "Joshua 19:9",
            "text": "\u30b7\u30e1\u30aa\u30f3\u306e\u5b50\u5b6b\u306e\u55e3\u696d\u306f\u3001\u30e6\u30c0\u306e\u5b50\u5b6b\u306e\u9818\u57df\u306e\u3046\u3061\u306b\u3042\u3063\u305f\u3002\u3053\u308c\u306f\u30e6\u30c0\u306e\u5b50\u5b6b\u306e\u5206\u304c\u5927\u304d\u304b\u3063\u305f\u306e\u3067\u3001\u30b7\u30e1\u30aa\u30f3\u306e\u5b50\u5b6b\u304c\u3001\u305d\u306e\u55e3\u696d\u3092\u5f7c\u3089\u306e\u55e3\u696d\u306e\u4e2d\u306b\u7372\u305f\u304b\u3089\u3067\u3042\u308b\u3002"
        },
        {
            "chapter": 19,
            "verse": 10,
            "name": "Joshua 19:10",
            "text": "\u7b2c\u4e09\u306b\u30bc\u30d6\u30eb\u30f3\u306e\u5b50\u5b6b\u306e\u305f\u3081\u306b\u3001\u305d\u306e\u5bb6\u65cf\u306b\u3057\u305f\u304c\u3063\u3066\u3001\u304f\u3058\u3092\u5f15\u3044\u305f\u3002\u305d\u306e\u55e3\u696d\u306e\u9818\u57df\u306f\u30b5\u30ea\u30c7\u306b\u53ca\u3073\u3001"
        },
        {
            "chapter": 19,
            "verse": 11,
            "name": "Joshua 19:11",
            "text": "\u305d\u306e\u5883\u306f\u897f\u306b\u4e0a\u3063\u3066\u3001\u30de\u30e9\u30e9\u306b\u81f3\u308a\u3001\u30c0\u30d0\u30bb\u30c6\u306b\u9054\u3057\u3001\u30e8\u30af\u30cd\u30a2\u30e0\u306e\u6771\u306b\u3042\u308b\u5ddd\u306b\u9054\u3057\u3001"
        },
        {
            "chapter": 19,
            "verse": 12,
            "name": "Joshua 19:12",
            "text": "\u30b5\u30ea\u30c7\u304b\u3089\u3001\u6771\u306e\u65b9\u3001\u65e5\u306e\u51fa\u306e\u65b9\u306b\u66f2\u308a\u3001\u30ad\u30b9\u30ed\u30c6\u30fb\u30bf\u30dc\u30eb\u306e\u5883\u306b\u81f3\u308a\u3001\u30c0\u30d9\u30e9\u30c6\u306b\u51fa\u3066\u3001\u30e4\u30d4\u30a2\u306b\u4e0a\u308a\u3001"
        },
        {
            "chapter": 19,
            "verse": 13,
            "name": "Joshua 19:13",
            "text": "\u305d\u3053\u304b\u3089\u6771\u306e\u65b9\u3001\u65e5\u306e\u51fa\u306e\u65b9\u306b\u9032\u3093\u3067\u3001\u30ac\u30c6\u30d8\u30da\u30eb\u3068\u30a4\u30c3\u30bf\u30fb\u30ab\u30b8\u30f3\u306b\u81f3\u308a\u3001\u30ea\u30f3\u30e2\u30f3\u306b\u9032\u3093\u3067\u3001\u30cd\u30a2\u306e\u65b9\u306b\u66f2\u308b\u3002"
        },
        {
            "chapter": 19,
            "verse": 14,
            "name": "Joshua 19:14",
            "text": "\u5317\u3067\u306f\u305d\u306e\u5883\u306f\u30cf\u30f3\u30ca\u30c8\u30f3\u306b\u56de\u308a\u3001\u30a4\u30d5\u30bf\u30a8\u30eb\u306e\u8c37\u306b\u81f3\u3063\u3066\u5c3d\u304d\u308b\u3002"
        },
        {
            "chapter": 19,
            "verse": 15,
            "name": "Joshua 19:15",
            "text": "\u305d\u3057\u3066\u30ab\u30c3\u30bf\u30c6\u3001\u30ca\u30cf\u30e9\u30eb\u3001\u30b7\u30e0\u30ed\u30f3\u3001\u30a4\u30c0\u30e9\u3001\u30d9\u30c4\u30ec\u30d8\u30e0\u306a\u3069\u5341\u4e8c\u306e\u753a\u3005\u3068\u3001\u305d\u308c\u306b\u5c5e\u3059\u308b\u6751\u3005\u304c\u3042\u3063\u305f\u3002"
        },
        {
            "chapter": 19,
            "verse": 16,
            "name": "Joshua 19:16",
            "text": "\u3053\u308c\u304c\u30bc\u30d6\u30eb\u30f3\u306e\u5b50\u5b6b\u306e\u3001\u305d\u306e\u5bb6\u65cf\u306b\u3057\u305f\u304c\u3063\u3066\u7372\u305f\u55e3\u696d\u3067\u3042\u3063\u3066\u3001\u305d\u306e\u753a\u3005\u3068\u3001\u305d\u308c\u306b\u5c5e\u3059\u308b\u6751\u3005\u3068\u3067\u3042\u308b\u3002"
        },
        {
            "chapter": 19,
            "verse": 17,
            "name": "Joshua 19:17",
            "text": "\u7b2c\u56db\u306b\u30a4\u30c3\u30b5\u30ab\u30eb\u3001\u3059\u306a\u308f\u3061\u30a4\u30c3\u30b5\u30ab\u30eb\u306e\u5b50\u5b6b\u306e\u305f\u3081\u306b\u3001\u305d\u306e\u5bb6\u65cf\u306b\u3057\u305f\u304c\u3063\u3066\u3001\u304f\u3058\u3092\u5f15\u3044\u305f\u3002"
        },
        {
            "chapter": 19,
            "verse": 18,
            "name": "Joshua 19:18",
            "text": "\u305d\u306e\u9818\u57df\u306b\u306f\u3001\u30a8\u30ba\u30ec\u30eb\u3001\u30b1\u30b9\u30ed\u30c6\u3001\u30b7\u30e5\u30cd\u30e0\u3001"
        },
        {
            "chapter": 19,
            "verse": 19,
            "name": "Joshua 19:19",
            "text": "\u30cf\u30d1\u30e9\u30a4\u30e0\u3001\u30b7\u30aa\u30f3\u3001\u30a2\u30ca\u30cf\u30e9\u30c6\u3001"
        },
        {
            "chapter": 19,
            "verse": 20,
            "name": "Joshua 19:20",
            "text": "\u30e9\u30d3\u30c6\u3001\u30ad\u30b7\u30e7\u30f3\u3001\u30a8\u30d9\u30c4\u3001"
        },
        {
            "chapter": 19,
            "verse": 21,
            "name": "Joshua 19:21",
            "text": "\u30ec\u30e1\u30c6\u3001\u30a8\u30f3\u30ac\u30f3\u30cb\u30e0\u3001\u30a8\u30f3\u30cf\u30c0\u3001\u30d9\u30c6\u30d1\u30c3\u30bc\u30ba\u304c\u3042\u308a\u3001"
        },
        {
            "chapter": 19,
            "verse": 22,
            "name": "Joshua 19:22",
            "text": "\u305d\u306e\u5883\u306f\u30bf\u30dc\u30eb\u3001\u30b7\u30e3\u30cf\u30c2\u30de\u3001\u30d9\u30c6\u30b7\u30e1\u30b7\u306b\u9054\u3057\u3001\u305d\u306e\u5883\u306f\u30e8\u30eb\u30c0\u30f3\u306b\u81f3\u3063\u3066\u5c3d\u304d\u308b\u3002\u5341\u516d\u306e\u753a\u3005\u3068\u3001\u305d\u308c\u306b\u5c5e\u3059\u308b\u6751\u3005\u304c\u3042\u3063\u305f\u3002"
        },
        {
            "chapter": 19,
            "verse": 23,
            "name": "Joshua 19:23",
            "text": "\u3053\u308c\u304c\u30a4\u30c3\u30b5\u30ab\u30eb\u306e\u5b50\u5b6b\u306e\u90e8\u65cf\u306e\u3001\u305d\u306e\u5bb6\u65cf\u306b\u3057\u305f\u304c\u3063\u3066\u7372\u305f\u55e3\u696d\u3067\u3042\u3063\u3066\u3001\u305d\u306e\u753a\u3005\u3068\u3001\u305d\u308c\u306b\u5c5e\u3059\u308b\u6751\u3005\u3068\u3067\u3042\u308b\u3002"
        },
        {
            "chapter": 19,
            "verse": 24,
            "name": "Joshua 19:24",
            "text": "\u7b2c\u4e94\u306b\u3001\u30a2\u30bb\u30eb\u306e\u5b50\u5b6b\u306e\u90e8\u65cf\u306e\u305f\u3081\u306b\u3001\u305d\u306e\u5bb6\u65cf\u306b\u3057\u305f\u304c\u3063\u3066\u3001\u304f\u3058\u3092\u5f15\u3044\u305f\u3002"
        },
        {
            "chapter": 19,
            "verse": 25,
            "name": "Joshua 19:25",
            "text": "\u305d\u306e\u9818\u57df\u306b\u306f\u3001\u30d8\u30eb\u30ab\u30c6\u3001\u30cf\u30ea\u3001\u30d9\u30c6\u30f3\u3001\u30a2\u30af\u30b5\u30d5\u3001"
        },
        {
            "chapter": 19,
            "verse": 26,
            "name": "Joshua 19:26",
            "text": "\u30a2\u30e9\u30f3\u30e1\u30ec\u30af\u3001\u30a2\u30de\u30c7\u3001\u30df\u30b7\u30e3\u30eb\u304c\u3042\u308a\u3001\u305d\u306e\u5883\u306f\u897f\u3067\u306f\u3001\u30ab\u30eb\u30e1\u30eb\u3068\u30b7\u30db\u30eb\u30fb\u30ea\u30d6\u30ca\u30c6\u306b\u9054\u3057\u3001"
        },
        {
            "chapter": 19,
            "verse": 27,
            "name": "Joshua 19:27",
            "text": "\u305d\u308c\u304b\u3089\u6771\u306b\u6298\u308c\u3066\u3001\u30d9\u30c6\u30c0\u30b4\u30f3\u306b\u81f3\u308a\u3001\u5317\u306e\u65b9\u30bc\u30d6\u30eb\u30f3\u3068\u3001\u30a4\u30d7\u30bf\u30a8\u30eb\u306e\u8c37\u306b\u9054\u3057\u3001\u30d9\u30c6\u30a8\u30e1\u30af\u304a\u3088\u3073\u30cd\u30a4\u30a8\u30eb\u306b\u81f3\u308a\u3001\u5317\u306f\u30ab\u30d6\u30eb\u306b\u3044\u3067\u3001"
        },
        {
            "chapter": 19,
            "verse": 28,
            "name": "Joshua 19:28",
            "text": "\u66f4\u306b\u30a8\u30d6\u30ed\u30f3\u3001\u30ec\u30db\u30d6\u3001\u30cf\u30f3\u30e2\u30f3\u3001\u30ab\u30ca\u3092\u7d4c\u3066\u3001\u5927\u30b7\u30c9\u30f3\u306b\u53ca\u3073\u3001"
        },
        {
            "chapter": 19,
            "verse": 29,
            "name": "Joshua 19:29",
            "text": "\u305d\u308c\u304b\u3089\u3001\u305d\u306e\u5883\u306f\u30e9\u30de\u306b\u66f2\u308a\u3001\u5805\u56fa\u306a\u753a\u30c4\u30ed\u306b\u81f3\u308b\u3002\u307e\u305f\u305d\u306e\u5883\u306f\u30db\u30b5\u306b\u66f2\u308a\u3001\u6d77\u306b\u81f3\u3063\u3066\u5c3d\u304d\u308b\u3002\u305d\u3057\u3066\u3001\u30de\u30cf\u30e9\u30d6\u3001\u30a2\u30af\u30b8\u30d6\u3001"
        },
        {
            "chapter": 19,
            "verse": 30,
            "name": "Joshua 19:30",
            "text": "\u30a6\u30f3\u30de\u3001\u30a2\u30da\u30af\u3001\u30ec\u30db\u30d6\u306a\u3069\u3001\u4e8c\u5341\u4e8c\u306e\u753a\u3005\u3068\u3001\u305d\u308c\u306b\u5c5e\u3059\u308b\u6751\u3005\u304c\u3042\u3063\u305f\u3002"
        },
        {
            "chapter": 19,
            "verse": 31,
            "name": "Joshua 19:31",
            "text": "\u3053\u308c\u304c\u30a2\u30bb\u30eb\u306e\u5b50\u5b6b\u306e\u90e8\u65cf\u306e\u3001\u305d\u306e\u5bb6\u65cf\u306b\u3057\u305f\u304c\u3063\u3066\u7372\u305f\u55e3\u696d\u3067\u3042\u3063\u3066\u3001\u305d\u306e\u753a\u3005\u3068\u3001\u305d\u308c\u306b\u5c5e\u3059\u308b\u6751\u3005\u3068\u3067\u3042\u308b\u3002"
        },
        {
            "chapter": 19,
            "verse": 32,
            "name": "Joshua 19:32",
            "text": "\u7b2c\u516d\u306b\u3001\u30ca\u30d5\u30bf\u30ea\u306e\u5b50\u5b6b\u306e\u305f\u3081\u306b\u3001\u305d\u306e\u5bb6\u65cf\u306b\u3057\u305f\u304c\u3063\u3066\u3001\u304f\u3058\u3092\u5f15\u3044\u305f\u3002"
        },
        {
            "chapter": 19,
            "verse": 33,
            "name": "Joshua 19:33",
            "text": "\u305d\u306e\u5883\u306f\u30d8\u30ec\u30d5\u304b\u3089\u3001\u3059\u306a\u308f\u3061\u30b6\u30a2\u30ca\u30cb\u30a4\u30e0\u306e\u304b\u3057\u306e\u6728\u304b\u3089\u8d77\u308a\u3001\u30a2\u30c0\u30df\u30fb\u30cd\u30b1\u30d6\u304a\u3088\u3073\u3001\u30e4\u30d6\u30cd\u30eb\u3092\u7d4c\u3066\u3001\u30e9\u30af\u30e0\u306b\u81f3\u308a\u3001\u30e8\u30eb\u30c0\u30f3\u306b\u81f3\u3063\u3066\u5c3d\u304d\u308b\u3002"
        },
        {
            "chapter": 19,
            "verse": 34,
            "name": "Joshua 19:34",
            "text": "\u305d\u3057\u3066\u305d\u306e\u5883\u306f\u897f\u306b\u5411\u304b\u3063\u3066\u3001\u30a2\u30ba\u30ce\u30c6\u30fb\u30bf\u30dc\u30eb\u306b\u81f3\u308a\u3001\u305d\u3053\u304b\u3089\u30db\u30c3\u30b3\u30af\u306b\u51fa\u308b\u3002\u5357\u306f\u30bc\u30d6\u30eb\u30f3\u306b\u63a5\u3057\u3001\u897f\u306f\u30a2\u30bb\u30eb\u306b\u63a5\u3057\u3001\u6771\u306f\u30e8\u30eb\u30c0\u30f3\u306e\u30e6\u30c0\u306b\u9054\u3059\u308b\u3002"
        },
        {
            "chapter": 19,
            "verse": 35,
            "name": "Joshua 19:35",
            "text": "\u305d\u306e\u5805\u56fa\u306a\u753a\u3005\u306f\u3001\u30c2\u30c7\u30e0\u3001\u30bc\u30eb\u3001\u30cf\u30f3\u30de\u30c6\u3001\u30e9\u30c3\u30ab\u30c6\u3001\u30ad\u30f3\u30cd\u30ec\u30c6\u3001"
        },
        {
            "chapter": 19,
            "verse": 36,
            "name": "Joshua 19:36",
            "text": "\u30a2\u30c0\u30de\u3001\u30e9\u30de\u3001\u30cf\u30be\u30eb\u3001"
        },
        {
            "chapter": 19,
            "verse": 37,
            "name": "Joshua 19:37",
            "text": "\u30b1\u30c7\u30b7\u3001\u30a8\u30c7\u30ec\u30a4\u3001\u30a8\u30f3\u30cf\u30be\u30eb\u3001"
        },
        {
            "chapter": 19,
            "verse": 38,
            "name": "Joshua 19:38",
            "text": "\u30a4\u30ed\u30f3\u3001\u30df\u30b0\u30c0\u30eb\u30a8\u30eb\u3001\u30db\u30ec\u30e0\u3001\u30d9\u30c6\u30a2\u30ca\u30c6\u3001\u30d9\u30c6\u30b7\u30e1\u30b7\u306a\u3069\u3067\u3001\u5341\u4e5d\u306e\u753a\u3005\u3068\u3001\u305d\u308c\u306b\u5c5e\u3059\u308b\u6751\u3005\u304c\u3042\u3063\u305f\u3002"
        },
        {
            "chapter": 19,
            "verse": 39,
            "name": "Joshua 19:39",
            "text": "\u3053\u308c\u304c\u30ca\u30d5\u30bf\u30ea\u306e\u5b50\u5b6b\u306e\u90e8\u65cf\u304c\u3001\u305d\u306e\u5bb6\u65cf\u306b\u3057\u305f\u304c\u3063\u3066\u7372\u305f\u55e3\u696d\u3067\u3042\u3063\u3066\u3001\u305d\u306e\u753a\u3005\u3068\u3001\u305d\u308c\u306b\u5c5e\u3059\u308b\u6751\u3005\u3068\u3067\u3042\u308b\u3002"
        },
        {
            "chapter": 19,
            "verse": 40,
            "name": "Joshua 19:40",
            "text": "\u7b2c\u4e03\u306b\u3001\u30c0\u30f3\u306e\u5b50\u5b6b\u306e\u90e8\u65cf\u306e\u305f\u3081\u306b\u3001\u305d\u306e\u5bb6\u65cf\u306b\u3057\u305f\u304c\u3063\u3066\u3001\u304f\u3058\u3092\u5f15\u3044\u305f\u3002"
        },
        {
            "chapter": 19,
            "verse": 41,
            "name": "Joshua 19:41",
            "text": "\u305d\u306e\u55e3\u696d\u306e\u9818\u57df\u306b\u306f\u3001\u30be\u30e9\u3001\u30a8\u30b7\u30bf\u30aa\u30eb\u3001\u30a4\u30eb\u30b7\u30e1\u30b7\u3001"
        },
        {
            "chapter": 19,
            "verse": 42,
            "name": "Joshua 19:42",
            "text": "\u30b7\u30e3\u30e9\u30d3\u30e0\u3001\u30a2\u30e4\u30ed\u30f3\u3001\u30a4\u30c6\u30e9\u3001"
        },
        {
            "chapter": 19,
            "verse": 43,
            "name": "Joshua 19:43",
            "text": "\u30a8\u30ed\u30f3\u3001\u30c6\u30e0\u30ca\u3001\u30a8\u30af\u30ed\u30f3\u3001"
        },
        {
            "chapter": 19,
            "verse": 44,
            "name": "Joshua 19:44",
            "text": "\u30a8\u30eb\u30c6\u30b1\u3001\u30ae\u30d9\u30c8\u30f3\u3001\u30d0\u30a2\u30e9\u30c6\u3001"
        },
        {
            "chapter": 19,
            "verse": 45,
            "name": "Joshua 19:45",
            "text": "\u30a8\u30db\u30c7\u3001\u30d9\u30cd\u30d9\u30e9\u30af\u3001\u30ac\u30c6\u30ea\u30f3\u30e2\u30f3\u3001"
        },
        {
            "chapter": 19,
            "verse": 46,
            "name": "Joshua 19:46",
            "text": "\u30e1\u30e4\u30eb\u30b3\u30f3\u3001\u30e9\u30c3\u30b3\u30f3\u3001\u304a\u3088\u3073\u30e8\u30c3\u30d1\u3068\u76f8\u5bfe\u3059\u308b\u5730\u57df\u304c\u3042\u3063\u305f\u3002"
        },
        {
            "chapter": 19,
            "verse": 47,
            "name": "Joshua 19:47",
            "text": "\u305f\u3060\u3057\u3001\u30c0\u30f3\u306e\u5b50\u5b6b\u306e\u9818\u57df\u306f\u3001\u5f7c\u3089\u306e\u305f\u3081\u306b\u5c0f\u3055\u304b\u3063\u305f\u306e\u3067\u3001\u30c0\u30f3\u306e\u5b50\u5b6b\u306f\u3001\u4e0a\u3063\u3066\u884c\u304d\u3001\u30ec\u30bb\u30e0\u3092\u653b\u3081\u3066\u305d\u308c\u3092\u53d6\u308a\u3001\u3064\u308b\u304e\u306b\u304b\u3051\u3066\u6483\u3061\u6ec5\u307c\u3057\u3001\u305d\u308c\u3092\u7372\u3066\u305d\u3053\u306b\u4f4f\u307f\u3001\u5148\u7956\u30c0\u30f3\u306e\u540d\u306b\u3057\u305f\u304c\u3063\u3066\u3001\u30ec\u30bb\u30e0\u3092\u30c0\u30f3\u3068\u540d\u3065\u3051\u305f\u3002"
        },
        {
            "chapter": 19,
            "verse": 48,
            "name": "Joshua 19:48",
            "text": "\u3053\u308c\u304c\u30c0\u30f3\u306e\u5b50\u5b6b\u306e\u90e8\u65cf\u306e\u3001\u305d\u306e\u5bb6\u65cf\u306b\u3057\u305f\u304c\u3063\u3066\u7372\u305f\u55e3\u696d\u3067\u3042\u3063\u3066\u3001\u305d\u306e\u753a\u3005\u3068\u3001\u305d\u308c\u306b\u5c5e\u3059\u308b\u6751\u3005\u3068\u3067\u3042\u308b\u3002"
        },
        {
            "chapter": 19,
            "verse": 49,
            "name": "Joshua 19:49",
            "text": "\u3053\u3046\u3057\u3066\u56fd\u306e\u5404\u5730\u57df\u3092\u55e3\u696d\u3068\u3057\u3066\u5206\u3051\u4e0e\u3048\u308b\u3053\u3068\u3092\u7d42\u3063\u305f\u3068\u304d\u3001\u30a4\u30b9\u30e9\u30a8\u30eb\u306e\u4eba\u3005\u306f\u3001\u81ea\u5206\u305f\u3061\u306e\u3046\u3061\u306b\u3001\u4e00\u3064\u306e\u55e3\u696d\u3092\u3001\u30cc\u30f3\u306e\u5b50\u30e8\u30b7\u30e5\u30a2\u306b\u4e0e\u3048\u305f\u3002"
        },
        {
            "chapter": 19,
            "verse": 50,
            "name": "Joshua 19:50",
            "text": "\u3059\u306a\u308f\u3061\u3001\u4e3b\u306e\u547d\u306b\u5f93\u3063\u3066\u3001\u5f7c\u304c\u6c42\u3081\u305f\u753a\u3092\u4e0e\u3048\u305f\u304c\u3001\u305d\u308c\u306f\u30a8\u30d5\u30e9\u30a4\u30e0\u306e\u5c71\u5730\u306b\u3042\u308b\u30c6\u30e0\u30ca\u30c6\u30fb\u30bb\u30e9\u3067\u3042\u3063\u3066\u3001\u5f7c\u306f\u305d\u306e\u753a\u3092\u5efa\u3066\u306a\u304a\u3057\u3066\u3001\u305d\u3053\u306b\u4f4f\u3093\u3060\u3002"
        },
        {
            "chapter": 19,
            "verse": 51,
            "name": "Joshua 19:51",
            "text": "\u3053\u308c\u3089\u306f\u3001\u796d\u53f8\u30a8\u30ec\u30a2\u30b6\u30eb\u3001\u30cc\u30f3\u306e\u5b50\u30e8\u30b7\u30e5\u30a2\u3001\u304a\u3088\u3073\u30a4\u30b9\u30e9\u30a8\u30eb\u306e\u5b50\u5b6b\u306e\u90e8\u65cf\u306e\u65cf\u9577\u305f\u3061\u304c\u3001\u30b7\u30ed\u306b\u304a\u3044\u3066\u4f1a\u898b\u306e\u5e55\u5c4b\u306e\u5165\u53e3\u3067\u3001\u4e3b\u306e\u524d\u306b\u3001\u304f\u3058\u3092\u5f15\u3044\u3066\u5206\u3051\u4e0e\u3048\u305f\u55e3\u696d\u3067\u3042\u308b\u3002\u3053\u3046\u3057\u3066\u5730\u3092\u5206\u3051\u308b\u3053\u3068\u3092\u7d42\u3063\u305f\u3002"
        }
    ]
}