{
    "translation": "Open English Bible (US Spelling)",
    "abbreviation": "oeb",
    "lang": "en",
    "language": "English",
    "direction": "LTR",
    "encoding": "UTF-8",
    "book_nr": 8,
    "book_name": "Ruth",
    "chapter": 4,
    "name": "Ruth 4",
    "verses": [
        {
            "chapter": 4,
            "verse": 1,
            "name": "Ruth 4:1",
            "text": ""
        },
        {
            "chapter": 4,
            "verse": 2,
            "name": "Ruth 4:2",
            "text": ""
        },
        {
            "chapter": 4,
            "verse": 3,
            "name": "Ruth 4:3",
            "text": ""
        },
        {
            "chapter": 4,
            "verse": 4,
            "name": "Ruth 4:4",
            "text": ""
        },
        {
            "chapter": 4,
            "verse": 5,
            "name": "Ruth 4:5",
            "text": ""
        },
        {
            "chapter": 4,
            "verse": 6,
            "name": "Ruth 4:6",
            "text": ""
        },
        {
            "chapter": 4,
            "verse": 7,
            "name": "Ruth 4:7",
            "text": ""
        },
        {
            "chapter": 4,
            "verse": 8,
            "name": "Ruth 4:8",
            "text": ""
        },
        {
            "chapter": 4,
            "verse": 9,
            "name": "Ruth 4:9",
            "text": ""
        },
        {
            "chapter": 4,
            "verse": 10,
            "name": "Ruth 4:10",
            "text": ""
        },
        {
            "chapter": 4,
            "verse": 11,
            "name": "Ruth 4:11",
            "text": ""
        },
        {
            "chapter": 4,
            "verse": 12,
            "name": "Ruth 4:12",
            "text": ""
        },
        {
            "chapter": 4,
            "verse": 13,
            "name": "Ruth 4:13",
            "text": ""
        },
        {
            "chapter": 4,
            "verse": 14,
            "name": "Ruth 4:14",
            "text": ""
        },
        {
            "chapter": 4,
            "verse": 15,
            "name": "Ruth 4:15",
            "text": ""
        },
        {
            "chapter": 4,
            "verse": 16,
            "name": "Ruth 4:16",
            "text": ""
        },
        {
            "chapter": 4,
            "verse": 17,
            "name": "Ruth 4:17",
            "text": ""
        },
        {
            "chapter": 4,
            "verse": 18,
            "name": "Ruth 4:18",
            "text": ""
        },
        {
            "chapter": 4,
            "verse": 19,
            "name": "Ruth 4:19",
            "text": ""
        },
        {
            "chapter": 4,
            "verse": 20,
            "name": "Ruth 4:20",
            "text": ""
        },
        {
            "chapter": 4,
            "verse": 21,
            "name": "Ruth 4:21",
            "text": ""
        },
        {
            "chapter": 4,
            "verse": 22,
            "name": "Ruth 4:22",
            "text": ""
        }
    ]
}