{
    "translation": "Urdu Geo Version (UGV)",
    "abbreviation": "urdugeo",
    "lang": "ur",
    "language": "Urdu",
    "direction": "RTL",
    "encoding": "UTF-8",
    "book_nr": 61,
    "book_name": "2 Peter",
    "chapter": 3,
    "name": "2 Peter 3",
    "verses": [
        {
            "chapter": 3,
            "verse": 1,
            "name": "2 Peter 3:1",
            "text": " \u0639\u0632\u06cc\u0632\u0648\u060c \u06cc\u06c1 \u0627\u0628 \u062f\u0648\u0633\u0631\u0627 \u062e\u0637 \u06c1\u06d2 \u062c\u0648 \u0645\u064e\u06cc\u06ba \u0646\u06d2 \u0622\u067e \u06a9\u0648 \u0644\u06a9\u06be \u062f\u06cc\u0627 \u06c1\u06d2\u06d4 \u062f\u0648\u0646\u0648\u06ba \u062e\u0637\u0648\u06ba \u0645\u06cc\u06ba \u0645\u064e\u06cc\u06ba \u0646\u06d2 \u06a9\u0626\u06cc \u0628\u0627\u062a\u0648\u06ba \u06a9\u06cc \u06cc\u0627\u062f \u062f\u0644\u0627 \u06a9\u0631 \u0622\u067e \u06a9\u06d2 \u0630\u06c1\u0646\u0648\u06ba \u0645\u06cc\u06ba \u067e\u0627\u06a9 \u0633\u0648\u0686 \u0627\u064f\u0628\u06be\u0627\u0631\u0646\u06d2 \u06a9\u06cc \u06a9\u0648\u0634\u0634 \u06a9\u06cc\u06d4"
        },
        {
            "chapter": 3,
            "verse": 2,
            "name": "2 Peter 3:2",
            "text": "\u0645\u064e\u06cc\u06ba \u0686\u0627\u06c1\u062a\u0627 \u06c1\u0648\u06ba \u06a9\u06c1 \u0622\u067e \u0648\u06c1 \u06a9\u0686\u06be \u06cc\u0627\u062f \u0631\u06a9\u06be\u06cc\u06ba \u062c\u0633 \u06a9\u06cc \u067e\u06cc\u0634 \u06af\u0648\u0626\u06cc \u0645\u064f\u0642\u062f\u0651\u0633 \u0646\u0628\u06cc\u0648\u06ba \u0646\u06d2 \u06a9\u06cc \u062a\u06be\u06cc \u0627\u0648\u0631 \u0633\u0627\u062a\u06be \u0633\u0627\u062a\u06be \u06c1\u0645\u0627\u0631\u06d2 \u062e\u062f\u0627\u0648\u0646\u062f \u0627\u0648\u0631 \u0646\u062c\u0627\u062a \u062f\u06c1\u0646\u062f\u06c1 \u06a9\u0627 \u0648\u06c1 \u062d\u06a9\u0645 \u0628\u06be\u06cc \u062c\u0648 \u0622\u067e \u06a9\u0648 \u0627\u067e\u0646\u06d2 \u0631\u0633\u0648\u0644\u0648\u06ba \u06a9\u06cc \u0645\u0639\u0631\u0641\u062a \u0645\u0644\u0627\u06d4"
        },
        {
            "chapter": 3,
            "verse": 3,
            "name": "2 Peter 3:3",
            "text": "\u0627\u0648\u0651\u0644 \u0622\u067e \u06a9\u0648 \u06cc\u06c1 \u0628\u0627\u062a \u0633\u0645\u062c\u06be\u0646\u06d2 \u06a9\u06cc \u0636\u0631\u0648\u0631\u062a \u06c1\u06d2 \u06a9\u06c1 \u0627\u0650\u0646 \u0622\u062e\u0631\u06cc \u062f\u0646\u0648\u06ba \u0645\u06cc\u06ba \u0627\u06cc\u0633\u06d2 \u0644\u0648\u06af \u0622\u0626\u06cc\u06ba \u06af\u06d2 \u062c\u0648 \u0645\u0630\u0627\u0642 \u0627\u064f\u0691\u0627 \u06a9\u0631 \u0627\u067e\u0646\u06cc \u0634\u06c1\u0648\u062a\u0648\u06ba \u06a9\u06d2 \u0642\u0628\u0636\u06d2 \u0645\u06cc\u06ba \u0631\u06c1\u06cc\u06ba \u06af\u06d2\u06d4"
        },
        {
            "chapter": 3,
            "verse": 4,
            "name": "2 Peter 3:4",
            "text": "\u0648\u06c1 \u067e\u0648\u0686\u06be\u06cc\u06ba \u06af\u06d2\u060c \u201d\u0639\u06cc\u0633\u06cc\u0670 \u0646\u06d2 \u0622\u0646\u06d2 \u06a9\u0627 \u0648\u0639\u062f\u06c1 \u062a\u0648 \u06a9\u06cc\u0627\u060c \u0644\u06cc\u06a9\u0646 \u0648\u06c1 \u06a9\u06c1\u0627\u06ba \u06c1\u06d2\u061f \u06c1\u0645\u0627\u0631\u06d2 \u0628\u0627\u067e \u062f\u0627\u062f\u0627 \u062a\u0648 \u0645\u0631 \u0686\u06a9\u06d2 \u06c1\u06cc\u06ba\u060c \u0627\u0648\u0631 \u062f\u0646\u06cc\u0627 \u06a9\u06cc \u062a\u062e\u0644\u06cc\u0642 \u0633\u06d2 \u0644\u06d2 \u06a9\u0631 \u0622\u062c \u062a\u06a9 \u0633\u0628 \u06a9\u0686\u06be \u0648\u06cc\u0633\u06d2 \u06a9\u0627 \u0648\u06cc\u0633\u0627 \u06c1\u06cc \u06c1\u06d2\u06d4\u201c"
        },
        {
            "chapter": 3,
            "verse": 5,
            "name": "2 Peter 3:5",
            "text": "\u0644\u06cc\u06a9\u0646 \u06cc\u06c1 \u0644\u0648\u06af \u0646\u0638\u0631\u0627\u0646\u062f\u0627\u0632 \u06a9\u0631\u062a\u06d2 \u06c1\u06cc\u06ba \u06a9\u06c1 \u0642\u062f\u06cc\u0645 \u0632\u0645\u0627\u0646\u06d2 \u0645\u06cc\u06ba \u0627\u0644\u0644\u06c1 \u06a9\u06d2 \u062d\u06a9\u0645 \u067e\u0631 \u0622\u0633\u0645\u0627\u0646\u0648\u06ba \u06a9\u06cc \u062a\u062e\u0644\u06cc\u0642 \u06c1\u0648\u0626\u06cc \u0627\u0648\u0631 \u0632\u0645\u06cc\u0646 \u067e\u0627\u0646\u06cc \u0645\u06cc\u06ba \u0633\u06d2 \u0627\u0648\u0631 \u067e\u0627\u0646\u06cc \u06a9\u06d2 \u0630\u0631\u06cc\u0639\u06d2 \u0648\u062c\u0648\u062f \u0645\u06cc\u06ba \u0622\u0626\u06cc\u06d4"
        },
        {
            "chapter": 3,
            "verse": 6,
            "name": "2 Peter 3:6",
            "text": "\u0627\u0650\u0633\u06cc \u067e\u0627\u0646\u06cc \u06a9\u06d2 \u0630\u0631\u06cc\u0639\u06d2 \u0642\u062f\u06cc\u0645 \u0632\u0645\u0627\u0646\u06d2 \u06a9\u06cc \u062f\u0646\u06cc\u0627 \u067e\u0631 \u0633\u06cc\u0644\u0627\u0628 \u0622\u06cc\u0627 \u0627\u0648\u0631 \u0633\u0628 \u06a9\u0686\u06be \u062a\u0628\u0627\u06c1 \u06c1\u0648\u0627\u06d4"
        },
        {
            "chapter": 3,
            "verse": 7,
            "name": "2 Peter 3:7",
            "text": "\u0627\u0648\u0631 \u0627\u0644\u0644\u06c1 \u06a9\u06d2 \u0627\u0650\u0633\u06cc \u062d\u06a9\u0645 \u0646\u06d2 \u0645\u0648\u062c\u0648\u062f\u06c1 \u0622\u0633\u0645\u0627\u0646 \u0627\u0648\u0631 \u0632\u0645\u06cc\u0646 \u06a9\u0648 \u0622\u06af \u06a9\u06d2 \u0644\u0626\u06d2 \u0645\u062d\u0641\u0648\u0638 \u06a9\u0631 \u0631\u06a9\u06be\u0627 \u06c1\u06d2\u060c \u0627\u064f\u0633 \u062f\u0646 \u06a9\u06d2 \u0644\u0626\u06d2 \u062c\u0628 \u0628\u06d2\u062f\u06cc\u0646 \u0644\u0648\u06af\u0648\u06ba \u06a9\u06cc \u0639\u062f\u0627\u0644\u062a \u06a9\u06cc \u062c\u0627\u0626\u06d2 \u06af\u06cc \u0627\u0648\u0631 \u0648\u06c1 \u06c1\u0644\u0627\u06a9 \u06c1\u0648 \u062c\u0627\u0626\u06cc\u06ba \u06af\u06d2\u06d4"
        },
        {
            "chapter": 3,
            "verse": 8,
            "name": "2 Peter 3:8",
            "text": "\u0644\u06cc\u06a9\u0646 \u0645\u06cc\u0631\u06d2 \u0639\u0632\u06cc\u0632\u0648\u060c \u0627\u06cc\u06a9 \u0628\u0627\u062a \u0622\u067e \u0633\u06d2 \u067e\u0648\u0634\u06cc\u062f\u06c1 \u0646\u06c1 \u0631\u06c1\u06d2\u06d4 \u062e\u062f\u0627\u0648\u0646\u062f \u06a9\u06d2 \u0646\u0632\u062f\u06cc\u06a9 \u0627\u06cc\u06a9 \u062f\u0646 \u06c1\u0632\u0627\u0631 \u0633\u0627\u0644 \u06a9\u06d2 \u0628\u0631\u0627\u0628\u0631 \u06c1\u06d2 \u0627\u0648\u0631 \u06c1\u0632\u0627\u0631 \u0633\u0627\u0644 \u0627\u06cc\u06a9 \u062f\u0646 \u06a9\u06d2 \u0628\u0631\u0627\u0628\u0631\u06d4"
        },
        {
            "chapter": 3,
            "verse": 9,
            "name": "2 Peter 3:9",
            "text": "\u062e\u062f\u0627\u0648\u0646\u062f \u0627\u067e\u0646\u0627 \u0648\u0639\u062f\u06c1 \u067e\u0648\u0631\u0627 \u06a9\u0631\u0646\u06d2 \u0645\u06cc\u06ba \u062f\u06cc\u0631 \u0646\u06c1\u06cc\u06ba \u06a9\u0631\u062a\u0627 \u062c\u0633 \u0637\u0631\u062d \u06a9\u0686\u06be \u0644\u0648\u06af \u0633\u0645\u062c\u06be\u062a\u06d2 \u06c1\u06cc\u06ba \u0628\u0644\u06a9\u06c1 \u0648\u06c1 \u062a\u0648 \u0622\u067e \u06a9\u06cc \u062e\u0627\u0637\u0631 \u0635\u0628\u0631 \u06a9\u0631 \u0631\u06c1\u0627 \u06c1\u06d2\u06d4 \u06a9\u06cc\u0648\u0646\u06a9\u06c1 \u0648\u06c1 \u0646\u06c1\u06cc\u06ba \u0686\u0627\u06c1\u062a\u0627 \u06a9\u06c1 \u06a9\u0648\u0626\u06cc \u06c1\u0644\u0627\u06a9 \u06c1\u0648 \u062c\u0627\u0626\u06d2 \u0628\u0644\u06a9\u06c1 \u06cc\u06c1 \u06a9\u06c1 \u0633\u0628 \u062a\u0648\u0628\u06c1 \u06a9\u06cc \u0646\u0648\u0628\u062a \u062a\u06a9 \u067e\u06c1\u0646\u0686\u06cc\u06ba\u06d4"
        },
        {
            "chapter": 3,
            "verse": 10,
            "name": "2 Peter 3:10",
            "text": "\u0644\u06cc\u06a9\u0646 \u062e\u062f\u0627\u0648\u0646\u062f \u06a9\u0627 \u062f\u0646 \u0686\u0648\u0631 \u06a9\u06cc \u0637\u0631\u062d \u0622\u0626\u06d2 \u06af\u0627\u06d4 \u0622\u0633\u0645\u0627\u0646 \u0628\u0691\u06d2 \u0634\u0648\u0631 \u06a9\u06d2 \u0633\u0627\u062a\u06be \u062e\u062a\u0645 \u06c1\u0648 \u062c\u0627\u0626\u06cc\u06ba \u06af\u06d2\u060c \u0627\u062c\u0631\u0627\u0645\u0650 \u0641\u0644\u06a9\u06cc \u0622\u06af \u0645\u06cc\u06ba \u067e\u06af\u06be\u0644 \u062c\u0627\u0626\u06cc\u06ba \u06af\u06d2 \u0627\u0648\u0631 \u0632\u0645\u06cc\u0646 \u0627\u064f\u0633 \u06a9\u06d2 \u06a9\u0627\u0645\u0648\u06ba \u0633\u0645\u06cc\u062a \u0638\u0627\u06c1\u0631 \u06c1\u0648 \u06a9\u0631 \u0639\u062f\u0627\u0644\u062a \u0645\u06cc\u06ba \u067e\u06cc\u0634 \u06a9\u06cc \u062c\u0627\u0626\u06d2 \u06af\u06cc\u06d4"
        },
        {
            "chapter": 3,
            "verse": 11,
            "name": "2 Peter 3:11",
            "text": "\u0627\u0628 \u0633\u0648\u0686\u06cc\u06ba\u060c \u0627\u06af\u0631 \u0633\u0628 \u06a9\u0686\u06be \u0627\u0650\u0633 \u0637\u0631\u062d \u062e\u062a\u0645 \u06c1\u0648 \u062c\u0627\u0626\u06d2 \u06af\u0627 \u062a\u0648 \u067e\u06be\u0631 \u0622\u067e \u06a9\u0633 \u0642\u0633\u0645 \u06a9\u06d2 \u0644\u0648\u06af \u06c1\u0648\u0646\u06d2 \u0686\u0627\u06c1\u0626\u06cc\u06ba\u061f \u0622\u067e \u06a9\u0648 \u0645\u064f\u0642\u062f\u0651\u0633 \u0627\u0648\u0631 \u062e\u062f\u0627 \u062a\u0631\u0633 \u0632\u0646\u062f\u06af\u06cc \u06af\u0632\u0627\u0631\u062a\u06d2 \u06c1\u0648\u0626\u06d2"
        },
        {
            "chapter": 3,
            "verse": 12,
            "name": "2 Peter 3:12",
            "text": "\u0627\u0644\u0644\u06c1 \u06a9\u06d2 \u062f\u0646 \u06a9\u06cc \u0631\u0627\u06c1 \u062f\u06cc\u06a9\u06be\u0646\u06cc \u0686\u0627\u06c1\u0626\u06d2\u06d4 \u06c1\u0627\u06ba\u060c \u0622\u067e \u06a9\u0648 \u06cc\u06c1 \u06a9\u0648\u0634\u0634 \u06a9\u0631\u0646\u06cc \u0686\u0627\u06c1\u0626\u06d2 \u06a9\u06c1 \u0648\u06c1 \u062f\u0646 \u062c\u0644\u062f\u06cc \u0622\u0626\u06d2 \u062c\u0628 \u0622\u0633\u0645\u0627\u0646 \u062c\u0644 \u062c\u0627\u0626\u06cc\u06ba \u06af\u06d2 \u0627\u0648\u0631 \u0627\u062c\u0631\u0627\u0645\u0650 \u0641\u0644\u06a9\u06cc \u0622\u06af \u0645\u06cc\u06ba \u067e\u06af\u06be\u0644 \u062c\u0627\u0626\u06cc\u06ba \u06af\u06d2\u06d4"
        },
        {
            "chapter": 3,
            "verse": 13,
            "name": "2 Peter 3:13",
            "text": "\u0644\u06cc\u06a9\u0646 \u06c1\u0645 \u0627\u064f\u0646 \u0646\u0626\u06d2 \u0622\u0633\u0645\u0627\u0646\u0648\u06ba \u0627\u0648\u0631 \u0646\u0626\u06cc \u0632\u0645\u06cc\u0646 \u06a9\u06d2 \u0627\u0646\u062a\u0638\u0627\u0631 \u0645\u06cc\u06ba \u06c1\u06cc\u06ba \u062c\u0646 \u06a9\u0627 \u0648\u0639\u062f\u06c1 \u0627\u0644\u0644\u06c1 \u0646\u06d2 \u06a9\u06cc\u0627 \u06c1\u06d2\u06d4 \u0627\u0648\u0631 \u0648\u06c1\u0627\u06ba \u0631\u0627\u0633\u062a\u06cc \u0633\u06a9\u0648\u0646\u062a \u06a9\u0631\u06d2 \u06af\u06cc\u06d4"
        },
        {
            "chapter": 3,
            "verse": 14,
            "name": "2 Peter 3:14",
            "text": "\u0686\u0646\u0627\u0646\u0686\u06c1 \u0639\u0632\u06cc\u0632\u0648\u060c \u0686\u0648\u0646\u06a9\u06c1 \u0622\u067e \u0627\u0650\u0633 \u0627\u0646\u062a\u0638\u0627\u0631 \u0645\u06cc\u06ba \u06c1\u06cc\u06ba \u0627\u0650\u0633 \u0644\u0626\u06d2 \u067e\u0648\u0631\u06cc \u0644\u06af\u0646 \u06a9\u06d2 \u0633\u0627\u062a\u06be \u06a9\u0648\u0634\u0627\u06ba \u0631\u06c1\u06cc\u06ba \u06a9\u06c1 \u0622\u067e \u0627\u0644\u0644\u06c1 \u06a9\u06d2 \u0646\u0632\u062f\u06cc\u06a9 \u0628\u06d2\u062f\u0627\u063a \u0627\u0648\u0631 \u0628\u06d2\u0627\u0644\u0632\u0627\u0645 \u0679\u06be\u06c1\u0631\u06cc\u06ba \u0627\u0648\u0631 \u0622\u067e \u06a9\u06cc \u0627\u064f\u0633 \u06a9\u06d2 \u0633\u0627\u062a\u06be \u0635\u0644\u062d \u06c1\u0648\u06d4"
        },
        {
            "chapter": 3,
            "verse": 15,
            "name": "2 Peter 3:15",
            "text": "\u06cc\u0627\u062f \u0631\u06a9\u06be\u06cc\u06ba \u06a9\u06c1 \u06c1\u0645\u0627\u0631\u06d2 \u062e\u062f\u0627\u0648\u0646\u062f \u06a9\u0627 \u0635\u0628\u0631 \u0644\u0648\u06af\u0648\u06ba \u06a9\u0648 \u0646\u062c\u0627\u062a \u067e\u0627\u0646\u06d2 \u06a9\u0627 \u0645\u0648\u0642\u0639 \u062f\u06cc\u062a\u0627 \u06c1\u06d2\u06d4 \u06c1\u0645\u0627\u0631\u06d2 \u0639\u0632\u06cc\u0632 \u0628\u06be\u0627\u0626\u06cc \u067e\u0648\u0644\u0633 \u0646\u06d2 \u0628\u06be\u06cc \u0627\u064f\u0633 \u062d\u06a9\u0645\u062a \u06a9\u06d2 \u0645\u0637\u0627\u0628\u0642 \u062c\u0648 \u0627\u0644\u0644\u06c1 \u0646\u06d2 \u0627\u064f\u0633\u06d2 \u0639\u0637\u0627 \u06a9\u06cc \u06c1\u06d2 \u0622\u067e \u06a9\u0648 \u06cc\u06c1\u06cc \u06a9\u0686\u06be \u0644\u06a9\u06be\u0627 \u06c1\u06d2\u06d4"
        },
        {
            "chapter": 3,
            "verse": 16,
            "name": "2 Peter 3:16",
            "text": "\u0648\u06c1 \u06cc\u06c1\u06cc \u06a9\u0686\u06be \u0627\u067e\u0646\u06d2 \u062a\u0645\u0627\u0645 \u062e\u0637\u0648\u06ba \u0645\u06cc\u06ba \u0644\u06a9\u06be\u062a\u0627 \u06c1\u06d2 \u062c\u0628 \u0648\u06c1 \u0627\u0650\u0633 \u0645\u0636\u0645\u0648\u0646 \u06a9\u0627 \u0630\u06a9\u0631 \u06a9\u0631\u062a\u0627 \u06c1\u06d2\u06d4 \u0627\u064f\u0633 \u06a9\u06d2 \u062e\u0637\u0648\u06ba \u0645\u06cc\u06ba \u06a9\u0686\u06be \u0627\u06cc\u0633\u06cc \u0628\u0627\u062a\u06cc\u06ba \u06c1\u06cc\u06ba \u062c\u0648 \u0633\u0645\u062c\u06be\u0646\u06d2 \u0645\u06cc\u06ba \u0645\u0634\u06a9\u0644 \u06c1\u06cc\u06ba \u0627\u0648\u0631 \u062c\u0646\u06c1\u06cc\u06ba \u062c\u0627\u06c1\u0644 \u0627\u0648\u0631 \u06a9\u0645\u0632\u0648\u0631 \u0644\u0648\u06af \u062a\u0648\u0691 \u0645\u0631\u0648\u0691 \u06a9\u0631 \u0628\u06cc\u0627\u0646 \u06a9\u0631\u062a\u06d2 \u06c1\u06cc\u06ba\u060c \u0628\u0627\u0644\u06a9\u0644 \u0627\u064f\u0633\u06cc \u0637\u0631\u062d \u062c\u0633 \u0637\u0631\u062d \u0648\u06c1 \u0628\u0627\u0642\u06cc \u0635\u062d\u06cc\u0641\u0648\u06ba \u06a9\u06d2 \u0633\u0627\u062a\u06be \u0628\u06be\u06cc \u06a9\u0631\u062a\u06d2 \u06c1\u06cc\u06ba\u06d4 \u0644\u06cc\u06a9\u0646 \u0627\u0650\u0633 \u0633\u06d2 \u0648\u06c1 \u0627\u067e\u0646\u06d2 \u0622\u067e \u06a9\u0648 \u06c1\u06cc \u06c1\u0644\u0627\u06a9 \u06a9\u0631 \u0631\u06c1\u06d2 \u06c1\u06cc\u06ba\u06d4"
        },
        {
            "chapter": 3,
            "verse": 17,
            "name": "2 Peter 3:17",
            "text": "\u0645\u06cc\u0631\u06d2 \u0639\u0632\u06cc\u0632\u0648\u060c \u0645\u064e\u06cc\u06ba \u0622\u067e \u06a9\u0648 \u0648\u0642\u062a \u0633\u06d2 \u067e\u06c1\u0644\u06d2 \u0627\u0650\u0646 \u0628\u0627\u062a\u0648\u06ba \u0633\u06d2 \u0622\u06af\u0627\u06c1 \u06a9\u0631 \u0631\u06c1\u0627 \u06c1\u0648\u06ba\u06d4 \u0627\u0650\u0633 \u0644\u0626\u06d2 \u062e\u0628\u0631\u062f\u0627\u0631 \u0631\u06c1\u06cc\u06ba \u062a\u0627\u06a9\u06c1 \u0628\u06d2\u0627\u0635\u0648\u0644 \u0644\u0648\u06af\u0648\u06ba \u06a9\u06cc \u063a\u0644\u0637 \u0633\u0648\u0686 \u0622\u067e \u06a9\u0648 \u0628\u06c1\u06a9\u0627 \u06a9\u0631 \u0622\u067e \u06a9\u0648 \u0645\u062d\u0641\u0648\u0638 \u0645\u0642\u0627\u0645 \u0633\u06d2 \u06c1\u0679\u0627 \u0646\u06c1 \u062f\u06d2\u06d4"
        },
        {
            "chapter": 3,
            "verse": 18,
            "name": "2 Peter 3:18",
            "text": "\u0627\u0650\u0633 \u06a9\u06d2 \u0628\u062c\u0627\u0626\u06d2 \u06c1\u0645\u0627\u0631\u06d2 \u062e\u062f\u0627\u0648\u0646\u062f \u0627\u0648\u0631 \u0646\u062c\u0627\u062a \u062f\u06c1\u0646\u062f\u06c1 \u0639\u06cc\u0633\u06cc\u0670 \u0645\u0633\u06cc\u062d \u06a9\u06d2 \u0641\u0636\u0644 \u0627\u0648\u0631 \u0639\u0644\u0645 \u0645\u06cc\u06ba \u062a\u0631\u0642\u06cc \u06a9\u0631\u062a\u06d2 \u0631\u06c1\u06cc\u06ba\u06d4 \u0627\u064f\u0633\u06d2 \u0627\u0628 \u0627\u0648\u0631 \u0627\u0628\u062f \u062a\u06a9 \u062c\u0644\u0627\u0644 \u062d\u0627\u0635\u0644 \u06c1\u0648\u062a\u0627 \u0631\u06c1\u06d2! \u0622\u0645\u06cc\u0646\u06d4   "
        }
    ]
}