{
    "translation": "The Living Oracles NT",
    "abbreviation": "lo",
    "lang": "en",
    "language": "English",
    "direction": "LTR",
    "encoding": "",
    "book_nr": 66,
    "book_name": "Revelation of John",
    "chapter": 15,
    "name": "Revelation of John 15",
    "verses": [
        {
            "chapter": 15,
            "verse": 1,
            "name": "Revelation of John 15:1",
            "text": "And I saw another great and wonderful sign in heaven; seven angels, who had the seven last plagues; because in them the wrath of God was to be completed."
        },
        {
            "chapter": 15,
            "verse": 2,
            "name": "Revelation of John 15:2",
            "text": "And I saw, as it were, a sea of glass mingled with fire; and those who overcame the beast, and its image, and its mark, and the number of its name; standing by the sea of glass, having the harps of God."
        },
        {
            "chapter": 15,
            "verse": 3,
            "name": "Revelation of John 15:3",
            "text": "And they sang the song of Moses, the servant of God, and the song of the Lamb; saying, Great and wonderful are thy works, O Lord God Almighty; righteous and true are thy ways, O King of Saints."
        },
        {
            "chapter": 15,
            "verse": 4,
            "name": "Revelation of John 15:4",
            "text": "Who should not fear thee, O Lord, and glorify thy name? for thou alone art perfect. Surely all nations shall come and worship before thee, because thy righteous judgments are made manifest."
        },
        {
            "chapter": 15,
            "verse": 5,
            "name": "Revelation of John 15:5",
            "text": "And after this I saw, and the temple of the tabernacle of the testimony was opened in heaven;"
        },
        {
            "chapter": 15,
            "verse": 6,
            "name": "Revelation of John 15:6",
            "text": "and the seven angels who had the seven plagues, came out of the temple, clothed with pure shining linen garments; and were girded round the breasts with golden girdles."
        },
        {
            "chapter": 15,
            "verse": 7,
            "name": "Revelation of John 15:7",
            "text": "And one of the four living creatures gave to the seven angels, seven golden vials, full of the wrath of God, who lives for ever and ever."
        },
        {
            "chapter": 15,
            "verse": 8,
            "name": "Revelation of John 15:8",
            "text": "And the temple was full of smoke from the glory of God, and from his power. And no one could enter into the temple till the seven plagues of the seven angels were finished."
        }
    ]
}