{
    "translation": "Vulgata Clementina, Hetzenauer editore",
    "abbreviation": "vulghetzenauer",
    "lang": "la",
    "language": "Latin",
    "direction": "LTR",
    "encoding": "UTF-8",
    "book_nr": 19,
    "book_name": "Psalms",
    "chapter": 113,
    "name": "Psalms 113",
    "verses": [
        {
            "chapter": 113,
            "verse": 1,
            "name": "Psalms 113:1",
            "text": "Alleluia. In exitu Israel de \u00c6gypto, domus Iacob de populo barbaro:"
        },
        {
            "chapter": 113,
            "verse": 2,
            "name": "Psalms 113:2",
            "text": "Facta est Iud\u00e6a sanctificatio eius, Israel potestas eius."
        },
        {
            "chapter": 113,
            "verse": 3,
            "name": "Psalms 113:3",
            "text": "Mare vidit, et fugit: Iordanis conversus est retrorsum."
        },
        {
            "chapter": 113,
            "verse": 4,
            "name": "Psalms 113:4",
            "text": "Montes exultaverunt ut arietes: et colles sicut agni ovium."
        },
        {
            "chapter": 113,
            "verse": 5,
            "name": "Psalms 113:5",
            "text": "Quid est tibi mare quod fugisti: et tu Iordanis, quia conversus es retrorsum?"
        },
        {
            "chapter": 113,
            "verse": 6,
            "name": "Psalms 113:6",
            "text": "Montes exultastis sicut arietes, et colles sicut agni ovium?"
        },
        {
            "chapter": 113,
            "verse": 7,
            "name": "Psalms 113:7",
            "text": "A facie Domini mota est terra, a facie Dei Iacob."
        },
        {
            "chapter": 113,
            "verse": 8,
            "name": "Psalms 113:8",
            "text": "Qui convertit petram in stagna aquarum, et rupem in fontes aquarum."
        },
        {
            "chapter": 113,
            "verse": 9,
            "name": "Psalms 113:9",
            "text": "NON NOBIS DOMINE, NON NOBIS: sed nomini tuo da gloriam."
        },
        {
            "chapter": 113,
            "verse": 10,
            "name": "Psalms 113:10",
            "text": "Super misericordia tua, et veritate tua: nequando dicant Gentes: Ubi est Deus eorum?"
        },
        {
            "chapter": 113,
            "verse": 11,
            "name": "Psalms 113:11",
            "text": "Deus autem noster in c\u00e6lo: omnia qu\u00e6cumque voluit, fecit."
        },
        {
            "chapter": 113,
            "verse": 12,
            "name": "Psalms 113:12",
            "text": "Simulacra gentium argentum, et aurum, opera manuum hominum."
        },
        {
            "chapter": 113,
            "verse": 13,
            "name": "Psalms 113:13",
            "text": "Os habent, et non loquentur: oculos habent, et non videbunt."
        },
        {
            "chapter": 113,
            "verse": 14,
            "name": "Psalms 113:14",
            "text": "Aures habent, et non audient: nares habent, et non odorabunt."
        },
        {
            "chapter": 113,
            "verse": 15,
            "name": "Psalms 113:15",
            "text": "Manus habent, et non palpabunt: pedes habent, et non ambulabunt: non clamabunt in gutture suo."
        },
        {
            "chapter": 113,
            "verse": 16,
            "name": "Psalms 113:16",
            "text": "Similes illis fiant qui faciunt ea: et omnes qui confidunt in eis."
        },
        {
            "chapter": 113,
            "verse": 17,
            "name": "Psalms 113:17",
            "text": "Domus Israel speravit in Domino: adiutor eorum et protector eorum est."
        },
        {
            "chapter": 113,
            "verse": 18,
            "name": "Psalms 113:18",
            "text": "Domus Aaron speravit in Domino: adiutor eorum et protector eorum est."
        },
        {
            "chapter": 113,
            "verse": 19,
            "name": "Psalms 113:19",
            "text": "Qui timent Dominum, speraverunt in Domino: adiutor eorum et protector eorum est."
        },
        {
            "chapter": 113,
            "verse": 20,
            "name": "Psalms 113:20",
            "text": "Dominus memor fuit nostri: et benedixit nobis: Benedixit domui Israel: benedixit domui Aaron."
        },
        {
            "chapter": 113,
            "verse": 21,
            "name": "Psalms 113:21",
            "text": "Benedixit omnibus, qui timent Dominum, pusillis cum maioribus."
        },
        {
            "chapter": 113,
            "verse": 22,
            "name": "Psalms 113:22",
            "text": "Adiiciat Dominus super vos: super vos, et super filios vestros."
        },
        {
            "chapter": 113,
            "verse": 23,
            "name": "Psalms 113:23",
            "text": "Benedicti vos a Domino, qui fecit c\u00e6lum, et terram."
        },
        {
            "chapter": 113,
            "verse": 24,
            "name": "Psalms 113:24",
            "text": "C\u00e6lum c\u00e6li Domino: terram autem dedit filiis hominum."
        },
        {
            "chapter": 113,
            "verse": 25,
            "name": "Psalms 113:25",
            "text": "Non mortui laudabunt te Domine: neque omnes, qui descendunt in infernum."
        },
        {
            "chapter": 113,
            "verse": 26,
            "name": "Psalms 113:26",
            "text": "Sed nos qui vivimus, benedicimus Domino, ex hoc nunc et usque in s\u00e6culum. "
        }
    ]
}