{
    "translation": "Vulgata Clementina, Hetzenauer editore",
    "abbreviation": "vulghetzenauer",
    "lang": "la",
    "language": "Latin",
    "direction": "LTR",
    "encoding": "UTF-8",
    "book_nr": 19,
    "book_name": "Psalms",
    "chapter": 128,
    "name": "Psalms 128",
    "verses": [
        {
            "chapter": 128,
            "verse": 1,
            "name": "Psalms 128:1",
            "text": "Canticum graduum. S\u00e6pe expugnaverunt me a iuventute mea, dicat nunc Israel."
        },
        {
            "chapter": 128,
            "verse": 2,
            "name": "Psalms 128:2",
            "text": "S\u00e6pe expugnaverunt me a iuventute mea: etenim non potuerunt mihi."
        },
        {
            "chapter": 128,
            "verse": 3,
            "name": "Psalms 128:3",
            "text": "Supra dorsum meum fabricaverunt peccatores: prolongaverunt iniquitatem suam."
        },
        {
            "chapter": 128,
            "verse": 4,
            "name": "Psalms 128:4",
            "text": "Dominus iustus concidit cervices peccatorum:"
        },
        {
            "chapter": 128,
            "verse": 5,
            "name": "Psalms 128:5",
            "text": "confundantur et convertantur retrorsum omnes, qui oderunt Sion."
        },
        {
            "chapter": 128,
            "verse": 6,
            "name": "Psalms 128:6",
            "text": "Fiant sicut f\u0153num tectorum: quod priusquam evellatur, exaruit:"
        },
        {
            "chapter": 128,
            "verse": 7,
            "name": "Psalms 128:7",
            "text": "De quo non implevit manum suam qui metit, et sinum suum qui manipulos colligit."
        },
        {
            "chapter": 128,
            "verse": 8,
            "name": "Psalms 128:8",
            "text": "Et non dixerunt qui pr\u00e6teribant: Benedictio Domini super vos: benediximus vobis in nomine Domini. "
        }
    ]
}