{
    "translation": "New English Translation text only with footnote markers",
    "abbreviation": "nettext",
    "lang": "en",
    "language": "English",
    "direction": "LTR",
    "encoding": "UTF-8",
    "book_nr": 24,
    "book_name": "Jeremiah",
    "chapter": 43,
    "name": "Jeremiah 43",
    "verses": [
        {
            "chapter": 43,
            "verse": 1,
            "name": "Jeremiah 43:1",
            "text": "Jeremiah finished telling all the people all these things the LORD their God had sent him to tell them."
        },
        {
            "chapter": 43,
            "verse": 2,
            "name": "Jeremiah 43:2",
            "text": "Then Azariah son of Hoshaiah, Johanan son of Kareah, and other arrogant men said to Jeremiah, \"You are telling a lie! The LORD our God did not send you to tell us, 'You must not go to Egypt and settle there.'"
        },
        {
            "chapter": 43,
            "verse": 3,
            "name": "Jeremiah 43:3",
            "text": "But Baruch son of Neriah is stirring you up against us. He wants to hand us over to the Babylonians so that they will kill us or carry us off into exile in Babylon.\""
        },
        {
            "chapter": 43,
            "verse": 4,
            "name": "Jeremiah 43:4",
            "text": "So Johanan son of Kareah, all the army officers, and all the rest of the people did not obey the LORD's command to stay in the land."
        },
        {
            "chapter": 43,
            "verse": 5,
            "name": "Jeremiah 43:5",
            "text": "Instead Johanan son of Kareah and all the army officers led off all the Judean remnant who had come back to live in the land of Judah from all the nations where they had been scattered."
        },
        {
            "chapter": 43,
            "verse": 6,
            "name": "Jeremiah 43:6",
            "text": "They also led off all the men, women, children, and royal princesses that Nebuzaradan, the captain of the royal guard, had left with Gedaliah, the son of Ahikam and grandson of Shaphan. This included the prophet Jeremiah and Baruch son of Neriah."
        },
        {
            "chapter": 43,
            "verse": 7,
            "name": "Jeremiah 43:7",
            "text": "They went on to Egypt because they refused to obey the LORD, and came to Tahpanhes. "
        },
        {
            "chapter": 43,
            "verse": 8,
            "name": "Jeremiah 43:8",
            "text": "At Tahpanhes the LORD spoke to Jeremiah."
        },
        {
            "chapter": 43,
            "verse": 9,
            "name": "Jeremiah 43:9",
            "text": "\"Take some large stones and bury them in the mortar of the clay pavement at the entrance of Pharaoh's residence here in Tahpanhes. Do it while the people of Judah present there are watching."
        },
        {
            "chapter": 43,
            "verse": 10,
            "name": "Jeremiah 43:10",
            "text": "Then tell them, 'The LORD God of Israel who rules over all says, \"I will bring my servant King Nebuchadnezzar of Babylon. I will set his throne over these stones which I have buried. He will pitch his royal tent over them."
        },
        {
            "chapter": 43,
            "verse": 11,
            "name": "Jeremiah 43:11",
            "text": "He will come and attack Egypt. Those who are destined to die of disease will die of disease. Those who are destined to be carried off into exile will be carried off into exile. Those who are destined to die in war will die in war."
        },
        {
            "chapter": 43,
            "verse": 12,
            "name": "Jeremiah 43:12",
            "text": "He will set fire to the temples of the gods of Egypt. He will burn their gods or carry them off as captives. He will pick Egypt clean like a shepherd picks the lice from his clothing. He will leave there unharmed."
        },
        {
            "chapter": 43,
            "verse": 13,
            "name": "Jeremiah 43:13",
            "text": "He will demolish the sacred pillars in the temple of the sun in Egypt and will burn down the temples of the gods of Egypt.\"'\" </div>"
        }
    ]
}