{
    "translation": "Vulgata Sistina",
    "abbreviation": "vulgsistine",
    "lang": "la",
    "language": "Latin",
    "direction": "LTR",
    "encoding": "UTF-8",
    "book_nr": 72,
    "book_name": "Wisdom",
    "chapter": 15,
    "name": "Wisdom 15",
    "verses": [
        {
            "chapter": 15,
            "verse": 1,
            "name": "Wisdom 15:1",
            "text": "Tu autem Deus noster, suavis et verus es, patiens, et in misericordia disponens omnia. "
        },
        {
            "chapter": 15,
            "verse": 2,
            "name": "Wisdom 15:2",
            "text": "Etenim si peccaverimus, tui sumus, scientes magnitudinem tuam: et si non peccaverimus, scimus quoniam apud te sumus computati. "
        },
        {
            "chapter": 15,
            "verse": 3,
            "name": "Wisdom 15:3",
            "text": "Nosse enim te, consummata iustitia est: et scire iustitiam, et virtutem tuam, radix est immortalitatis. "
        },
        {
            "chapter": 15,
            "verse": 4,
            "name": "Wisdom 15:4",
            "text": "Non enim in errorem induxit nos hominum malae artis excogitatio, nec umbra picturae labor sine fructu, effigies sculpta per varios colores, "
        },
        {
            "chapter": 15,
            "verse": 5,
            "name": "Wisdom 15:5",
            "text": "cuius aspectus insensato dat concupiscentiam, et diligit mortuae imaginis effigiem sine anima. "
        },
        {
            "chapter": 15,
            "verse": 6,
            "name": "Wisdom 15:6",
            "text": "Malorum amatores, digni sunt morte qui spem habent in talibus, et qui faciunt illos, et qui diligunt, et qui colunt. "
        },
        {
            "chapter": 15,
            "verse": 7,
            "name": "Wisdom 15:7",
            "text": "Sed et figulus mollem terram premens laboriose fingit ad usus nostros unumquodque vas, et de eodem luto fingit quae munda sunt in usum vasa, et similiter quae his sunt contraria: horum autem vasorum quis sit usus, iudex est figulus. "
        },
        {
            "chapter": 15,
            "verse": 8,
            "name": "Wisdom 15:8",
            "text": "Et cum labore vano deum fingit de eodem luto: ille qui paulo ante de terra factus fuerat, et post pusillum reducit se unde acceptus est, repetitus animae debitum quam habebat. "
        },
        {
            "chapter": 15,
            "verse": 9,
            "name": "Wisdom 15:9",
            "text": "Sed cura est illi, non quia laboraturus est, nec quoniam brevis illi vita est, sed concertatur aurificibus et argentariis: sed et aerarios imitatur, et gloriam praefert, quoniam res supervacuas fingit. "
        },
        {
            "chapter": 15,
            "verse": 10,
            "name": "Wisdom 15:10",
            "text": "Cinis est enim cor eius, et terra supervacua spes illius, et luto vilior vita eius: "
        },
        {
            "chapter": 15,
            "verse": 11,
            "name": "Wisdom 15:11",
            "text": "quoniam ignoravit qui se finxit, et qui inspiravit illi animam, quae operatur, et qui insufflavit ei spiritum vitalem. "
        },
        {
            "chapter": 15,
            "verse": 12,
            "name": "Wisdom 15:12",
            "text": "Sed et aestimaverunt lusum esse vitam nostram, et conversationem vitae compositam ad lucrum, et oportere undecumque etiam ex malo acquirere. "
        },
        {
            "chapter": 15,
            "verse": 13,
            "name": "Wisdom 15:13",
            "text": "Hic enim scit se super omnes delinquere, qui ex terrae materia fragilia vasa, et sculptilia fingit. "
        },
        {
            "chapter": 15,
            "verse": 14,
            "name": "Wisdom 15:14",
            "text": "Omnes enim insipientes, et infelices supra modum animae superbi, sunt inimici populi tui, et imperantes illi: "
        },
        {
            "chapter": 15,
            "verse": 15,
            "name": "Wisdom 15:15",
            "text": "quoniam omnia idola nationum deos aestimaverunt, quibus neque oculorum usus est ad videndum, neque nares ad percipiendum spiritum, neque aures ad audiendum, neque digiti manuum ad tractandum, sed et pedes eorum pigri ad ambulandum. "
        },
        {
            "chapter": 15,
            "verse": 16,
            "name": "Wisdom 15:16",
            "text": "Homo enim fecit illos: et qui spiritum mutuatus est, is finxit illos. Nemo enim sibi similem homo poterit Deum fingere. "
        },
        {
            "chapter": 15,
            "verse": 17,
            "name": "Wisdom 15:17",
            "text": "Cum enim sit mortalis, mortuum fingit manibus iniquis. Melior enim est ipse his, quos colit, quia ipse quidem vixit, cum esset mortalis, illi autem numquam. "
        },
        {
            "chapter": 15,
            "verse": 18,
            "name": "Wisdom 15:18",
            "text": "Sed et animalia miserrima colunt: insensata enim comparata his, illis sunt deteriora. "
        },
        {
            "chapter": 15,
            "verse": 19,
            "name": "Wisdom 15:19",
            "text": "Sed nec aspectu aliquis ex his animalibus bona potest conspicere. Effugerunt autem Dei laudem, et benedictionem eius.  "
        }
    ]
}