{
    "translation": "Cornilescu",
    "abbreviation": "cornilescu",
    "lang": "ro",
    "language": "Romanian",
    "direction": "LTR",
    "encoding": "UTF-8",
    "book_nr": 6,
    "book_name": "Joshua",
    "chapter": 11,
    "name": "Joshua 11",
    "verses": [
        {
            "chapter": 11,
            "verse": 1,
            "name": "Joshua 11:1",
            "text": " Iabin, \u00eemp\u0103ratul Ha\u0163orului, auzind de aceste lucruri, a trimis soli la Iobab, \u00eemp\u0103ratul Madonului, la \u00eemp\u0103ratul \u015eimronului, la \u00eemp\u0103ratul Ac\u015fafului,"
        },
        {
            "chapter": 11,
            "verse": 2,
            "name": "Joshua 11:2",
            "text": "la \u00eemp\u0103ra\u0163ii care erau la miaz\u0103noapte de munte, \u00een c\u00e2mpia de la miaz\u0103zi de Chineret, \u00een vale \u015fi pe \u00een\u0103l\u0163imile Dorului la apus,"
        },
        {
            "chapter": 11,
            "verse": 3,
            "name": "Joshua 11:3",
            "text": "canaani\u0163ilor de la r\u0103s\u0103rit \u015fi de la apus, amori\u0163ilor, heti\u0163ilor, ferezi\u0163ilor, iebusi\u0163ilor \u00een munte \u015fi hevi\u0163ilor la poalele Hermonului \u00een \u0163ara Mi\u0163pa."
        },
        {
            "chapter": 11,
            "verse": 4,
            "name": "Joshua 11:4",
            "text": "Au ie\u015fit ei \u015fi toate o\u015ftirile lor \u00eempreun\u0103 cu ei, alc\u0103tuind un popor f\u0103r\u0103 num\u0103r, ca nisipul care este pe marginea m\u0103rii, \u015fi av\u00e2nd cai \u015fi care \u00een foarte mare num\u0103r."
        },
        {
            "chapter": 11,
            "verse": 5,
            "name": "Joshua 11:5",
            "text": "To\u0163i \u00eemp\u0103ra\u0163ii ace\u015ftia au hot\u0103r\u00e2t un loc de \u00eent\u00e2lnire \u015fi au venit de au t\u0103b\u0103r\u00e2t \u00eempreun\u0103 la apele Merom, ca s\u0103 lupte \u00eempotriva lui Israel."
        },
        {
            "chapter": 11,
            "verse": 6,
            "name": "Joshua 11:6",
            "text": "Domnul a zis lui Iosua: \u201eNu te teme de ei, c\u0103ci m\u00e2ine, pe vremea aceasta, \u00eei voi da b\u0103tu\u0163i pe to\u0163i \u00eenaintea lui Israel. Cailor s\u0103 le tai vinele picioarelor, iar carele lor s\u0103 le arzi \u00een foc\u201d."
        },
        {
            "chapter": 11,
            "verse": 7,
            "name": "Joshua 11:7",
            "text": "Iosua cu to\u0163i oamenii lui de r\u0103zboi au venit pe nea\u015fteptate peste ei la apele Merom \u015fi s-au n\u0103pustit \u00een mijlocul lor."
        },
        {
            "chapter": 11,
            "verse": 8,
            "name": "Joshua 11:8",
            "text": "Domnul i-a dat \u00een m\u00e2inile lui Israel; ei i-au b\u0103tut \u015fi i-au urm\u0103rit p\u00e2n\u0103 la Sidonul cel mare, p\u00e2n\u0103 la Misrefot-Maim \u015fi p\u00e2n\u0103 \u00een valea Mi\u0163pa la r\u0103s\u0103rit; i-au b\u0103tut f\u0103r\u0103 s\u0103 lase s\u0103 scape vreunul."
        },
        {
            "chapter": 11,
            "verse": 9,
            "name": "Joshua 11:9",
            "text": "Iosua le-a f\u0103cut cum \u00eei spusese Domnul: cailor le-a t\u0103iat vinele picioarelor, iar carele lor le-a ars \u00een foc."
        },
        {
            "chapter": 11,
            "verse": 10,
            "name": "Joshua 11:10",
            "text": " La \u00eentoarcere \u015fi \u00een acela\u015fi timp, Iosua a luat Ha\u0163orul \u015fi a trecut prin sabie pe \u00eemp\u0103ratul lui. Ha\u0163orul era mai \u00eenainte capitala tuturor acestor \u00eemp\u0103r\u0103\u0163ii."
        },
        {
            "chapter": 11,
            "verse": 11,
            "name": "Joshua 11:11",
            "text": "Au trecut prin ascu\u0163i\u015ful sabiei \u015fi au nimicit cu des\u0103v\u00e2r\u015fire pe to\u0163i cei ce se g\u0103seau \u00een el: n-a r\u0103mas nimic din ce avea suflare de via\u0163\u0103 \u015fi au pus foc Ha\u0163orului."
        },
        {
            "chapter": 11,
            "verse": 12,
            "name": "Joshua 11:12",
            "text": "Iosua a luat, de asemenea, toate cet\u0103\u0163ile \u00eemp\u0103ra\u0163ilor acelora, \u015fi pe to\u0163i \u00eemp\u0103ra\u0163ii lor i-a trecut prin ascu\u0163i\u015ful sabiei \u015fi i-a nimicit cu des\u0103v\u00e2r\u015fire, cum poruncise Moise, robul Domnului."
        },
        {
            "chapter": 11,
            "verse": 13,
            "name": "Joshua 11:13",
            "text": "Dar Israel n-a ars niciuna din cet\u0103\u0163ile a\u015fezate pe dealuri, afar\u0103 numai de Ha\u0163or, care a fost ars de Iosua."
        },
        {
            "chapter": 11,
            "verse": 14,
            "name": "Joshua 11:14",
            "text": "Copiii lui Israel au p\u0103strat pentru ei toat\u0103 prada cet\u0103\u0163ilor acelora \u015fi vitele, dar au trecut prin ascu\u0163i\u015ful sabiei pe to\u0163i oamenii, p\u00e2n\u0103 i-au nimicit, f\u0103r\u0103 s\u0103 lase ceva din ce are suflare de via\u0163\u0103."
        },
        {
            "chapter": 11,
            "verse": 15,
            "name": "Joshua 11:15",
            "text": "Iosua a \u00eemplinit poruncile date de Domnul robului S\u0103u Moise \u015fi de Moise lui Iosua; n-a l\u0103sat nimic ne\u00eemplinit din tot ce poruncise lui Moise Domnul."
        },
        {
            "chapter": 11,
            "verse": 16,
            "name": "Joshua 11:16",
            "text": "Astfel, Iosua a luat toat\u0103 \u0163ara aceasta, muntele, toat\u0103 partea de miaz\u0103zi, toat\u0103 \u0163ara Gosen, valea, c\u00e2mpia, muntele lui Israel \u015fi v\u0103ile lui,"
        },
        {
            "chapter": 11,
            "verse": 17,
            "name": "Joshua 11:17",
            "text": "de la muntele cel ple\u015fuv care se \u00eenal\u0163\u0103 spre Seir p\u00e2n\u0103 la Baal-Gad, \u00een valea Libanului, la poalele muntelui Hermon. A luat pe to\u0163i \u00eemp\u0103ra\u0163ii lor, i-a b\u0103tut \u015fi i-a omor\u00e2t."
        },
        {
            "chapter": 11,
            "verse": 18,
            "name": "Joshua 11:18",
            "text": "R\u0103zboiul pe care l-a purtat Iosua \u00eempotriva tuturor acestor \u00eemp\u0103ra\u0163i a \u0163inut mult\u0103 vreme."
        },
        {
            "chapter": 11,
            "verse": 19,
            "name": "Joshua 11:19",
            "text": "N-a r\u0103mas nicio cetate care s\u0103 fi f\u0103cut pace cu copiii lui Israel, afar\u0103 de hevi\u0163i, care locuiau \u00een Gabaon; pe toate le-au luat prin lupt\u0103."
        },
        {
            "chapter": 11,
            "verse": 20,
            "name": "Joshua 11:20",
            "text": "C\u0103ci Domnul a \u00eeng\u0103duit ca popoarele acelea s\u0103-\u015fi \u00eempietreasc\u0103 inima \u015fi s\u0103 lupte \u00eempotriva lui Israel, pentru ca Israel s\u0103 le nimiceasc\u0103 cu des\u0103v\u00e2r\u015fire, f\u0103r\u0103 s\u0103 aib\u0103 mil\u0103 de ele, \u015fi s\u0103 le nimiceasc\u0103, dup\u0103 cum poruncise lui Moise Domnul."
        },
        {
            "chapter": 11,
            "verse": 21,
            "name": "Joshua 11:21",
            "text": "\u00cen acela\u015fi timp, Iosua a pornit \u015fi a nimicit pe anachimi, din muntele Hebronului, din Debir, din Anab, din tot muntele lui Iuda \u015fi din tot muntele lui Israel; Iosua i-a nimicit cu des\u0103v\u00e2r\u015fire, \u00eempreun\u0103 cu cet\u0103\u0163ile lor."
        },
        {
            "chapter": 11,
            "verse": 22,
            "name": "Joshua 11:22",
            "text": "N-au r\u0103mas deloc anachimi \u00een \u0163ara copiilor lui Israel; n-au r\u0103mas dec\u00e2t la Gaza, la Gat \u015fi la Asdod."
        },
        {
            "chapter": 11,
            "verse": 23,
            "name": "Joshua 11:23",
            "text": "Iosua a pus st\u0103p\u00e2nire deci pe toat\u0103 \u0163ara, potrivit cu tot ce spusese lui Moise Domnul. \u015ei Iosua a dat-o de mo\u015ftenire lui Israel, fiec\u0103ruia i-a dat partea lui, dup\u0103 semin\u0163iile lor. Apoi \u0163ara s-a odihnit de r\u0103zboi. "
        }
    ]
}