{
    "translation": "Louis Segond (1910)",
    "abbreviation": "ls1910",
    "lang": "fr",
    "language": "French",
    "direction": "LTR",
    "encoding": "UTF-8",
    "book_nr": 13,
    "book_name": "1 Chronicles",
    "chapter": 29,
    "name": "1 Chronicles 29",
    "verses": [
        {
            "chapter": 29,
            "verse": 1,
            "name": "1 Chronicles 29:1",
            "text": "Le roi David dit \u00e0 toute l'assembl\u00e9e: Mon fils Salomon, le seul que Dieu ait choisi, est jeune et d'un \u00e2ge faible, et l'ouvrage est consid\u00e9rable, car ce palais n'est pas pour un homme, mais il est pour l'\u00c9ternel Dieu."
        },
        {
            "chapter": 29,
            "verse": 2,
            "name": "1 Chronicles 29:2",
            "text": "J'ai mis toutes mes forces \u00e0 pr\u00e9parer pour la maison de mon Dieu de l'or pour ce qui doit \u00eatre d'or, de l'argent pour ce qui doit \u00eatre d'argent, de l'airain pour ce qui doit \u00eatre d'airain, du fer pour ce qui doit \u00eatre de fer, et du bois pour ce qui doit \u00eatre de bois, des pierres d'onyx et des pierres \u00e0 ench\u00e2sser, des pierres brillantes et de diverses couleurs, toutes sortes de pierres pr\u00e9cieuses, et du marbre blanc en quantit\u00e9."
        },
        {
            "chapter": 29,
            "verse": 3,
            "name": "1 Chronicles 29:3",
            "text": "De plus, dans mon attachement pour la maison de mon Dieu, je donne \u00e0 la maison de mon Dieu l'or et l'argent que je poss\u00e8de en propre, outre tout ce que j'ai pr\u00e9par\u00e9 pour la maison du sanctuaire:"
        },
        {
            "chapter": 29,
            "verse": 4,
            "name": "1 Chronicles 29:4",
            "text": "trois mille talents d'or, d'or d'Ophir, et sept mille talents d'argent \u00e9pur\u00e9, pour en rev\u00eatir les parois des b\u00e2timents,"
        },
        {
            "chapter": 29,
            "verse": 5,
            "name": "1 Chronicles 29:5",
            "text": "l'or pour ce qui doit \u00eatre d'or, et l'argent pour ce qui doit \u00eatre d'argent, et pour tous les travaux qu'ex\u00e9cuteront les ouvriers. Qui veut encore pr\u00e9senter volontairement aujourd'hui ses offrandes \u00e0 l'\u00c9ternel?"
        },
        {
            "chapter": 29,
            "verse": 6,
            "name": "1 Chronicles 29:6",
            "text": "Les chefs des maisons paternelles, les chefs des tribus d'Isra\u00ebl, les chefs de milliers et de centaines, et les intendants du roi firent volontairement des offrandes."
        },
        {
            "chapter": 29,
            "verse": 7,
            "name": "1 Chronicles 29:7",
            "text": "Ils donn\u00e8rent pour le service de la maison de Dieu cinq mille talents d'or, dix mille dariques, dix mille talents d'argent, dix-huit mille talents d'airain, et cent mille talents de fer."
        },
        {
            "chapter": 29,
            "verse": 8,
            "name": "1 Chronicles 29:8",
            "text": "Ceux qui poss\u00e9daient des pierres les livr\u00e8rent pour le tr\u00e9sor de la maison de l'\u00c9ternel entre les mains de Jehiel, le Guerschonite."
        },
        {
            "chapter": 29,
            "verse": 9,
            "name": "1 Chronicles 29:9",
            "text": "Le peuple se r\u00e9jouit de leurs offrandes volontaires, car c'\u00e9tait avec un c\u0153ur bien dispos\u00e9 qu'ils les faisaient \u00e0 l'\u00c9ternel; et le roi David en eut aussi une grande joie."
        },
        {
            "chapter": 29,
            "verse": 10,
            "name": "1 Chronicles 29:10",
            "text": "David b\u00e9nit l'\u00c9ternel en pr\u00e9sence de toute l'assembl\u00e9e. Il dit: B\u00e9ni sois-tu, d'\u00e9ternit\u00e9 en \u00e9ternit\u00e9, \u00c9ternel, Dieu de notre p\u00e8re Isra\u00ebl."
        },
        {
            "chapter": 29,
            "verse": 11,
            "name": "1 Chronicles 29:11",
            "text": "\u00c0 toi, \u00c9ternel, la grandeur, la force et la magnificence, l'\u00e9ternit\u00e9 et la gloire, car tout ce qui est au ciel et sur la terre t'appartient; \u00e0 toi, \u00c9ternel, le r\u00e8gne, car tu t'\u00e9l\u00e8ves souverainement au-dessus de tout!"
        },
        {
            "chapter": 29,
            "verse": 12,
            "name": "1 Chronicles 29:12",
            "text": "C'est de toi que viennent la richesse et la gloire, c'est toi qui domines sur tout, c'est dans ta main que sont la force et la puissance, et c'est ta main qui a le pouvoir d'agrandir et d'affermir toutes choses."
        },
        {
            "chapter": 29,
            "verse": 13,
            "name": "1 Chronicles 29:13",
            "text": "Maintenant, \u00f4 notre Dieu, nous te louons, et nous c\u00e9l\u00e9brons ton nom glorieux."
        },
        {
            "chapter": 29,
            "verse": 14,
            "name": "1 Chronicles 29:14",
            "text": "Car qui suis-je et qui est mon peuple, pour que nous puissions te faire volontairement ces offrandes? Tout vient de toi, et nous recevons de ta main ce que nous t'offrons."
        },
        {
            "chapter": 29,
            "verse": 15,
            "name": "1 Chronicles 29:15",
            "text": "Nous sommes devant toi des \u00e9trangers et des habitants, comme tous nos p\u00e8res; nos jours sur la terre sont comme l'ombre, et il n'y a point d'esp\u00e9rance."
        },
        {
            "chapter": 29,
            "verse": 16,
            "name": "1 Chronicles 29:16",
            "text": "\u00c9ternel, notre Dieu, c'est de ta main que viennent toutes ces richesses que nous avons pr\u00e9par\u00e9es pour te b\u00e2tir une maison, \u00e0 toi, \u00e0 ton saint nom, et c'est \u00e0 toi que tout appartient."
        },
        {
            "chapter": 29,
            "verse": 17,
            "name": "1 Chronicles 29:17",
            "text": "Je sais, \u00f4 mon Dieu, que tu sondes le c\u0153ur, et que tu aimes la droiture; aussi je t'ai fait toutes ces offrandes volontaires dans la droiture de mon c\u0153ur, et j'ai vu maintenant avec joie ton peuple qui se trouve ici t'offrir volontairement ses dons."
        },
        {
            "chapter": 29,
            "verse": 18,
            "name": "1 Chronicles 29:18",
            "text": "\u00c9ternel, Dieu d'Abraham, d'Isaac et d'Isra\u00ebl, nos p\u00e8res, maintiens \u00e0 toujours dans le c\u0153ur de ton peuple ces dispositions et ces pens\u00e9es, et affermis son c\u0153ur en toi."
        },
        {
            "chapter": 29,
            "verse": 19,
            "name": "1 Chronicles 29:19",
            "text": "Donne \u00e0 mon fils Salomon un c\u0153ur d\u00e9vou\u00e9 \u00e0 l'observation de tes commandements, de tes pr\u00e9ceptes et de tes lois, afin qu'il mette en pratique toutes ces choses, et qu'il b\u00e2tisse le palais pour lequel j'ai fait des pr\u00e9paratifs."
        },
        {
            "chapter": 29,
            "verse": 20,
            "name": "1 Chronicles 29:20",
            "text": "David dit \u00e0 toute l'assembl\u00e9e: B\u00e9nissez l'\u00c9ternel, votre Dieu! Et toute l'assembl\u00e9e b\u00e9nit l'\u00c9ternel, le Dieu de leurs p\u00e8res. Ils s'inclin\u00e8rent et se prostern\u00e8rent devant l'\u00c9ternel et devant le roi."
        },
        {
            "chapter": 29,
            "verse": 21,
            "name": "1 Chronicles 29:21",
            "text": "Le lendemain de ce jour, ils offrirent en sacrifice et en holocauste \u00e0 l'\u00c9ternel mille taureaux, mille b\u00e9liers et mille agneaux, avec les libations ordinaires, et d'autres sacrifices en grand nombre pour tout Isra\u00ebl."
        },
        {
            "chapter": 29,
            "verse": 22,
            "name": "1 Chronicles 29:22",
            "text": "Ils mang\u00e8rent et burent ce jour-l\u00e0 devant l'\u00c9ternel avec une grande joie, ils proclam\u00e8rent roi pour la seconde fois Salomon, fils de David, ils l'oignirent devant l'\u00c9ternel comme chef, et ils oignirent Tsadok comme sacrificateur."
        },
        {
            "chapter": 29,
            "verse": 23,
            "name": "1 Chronicles 29:23",
            "text": "Salomon s'assit sur le tr\u00f4ne de l'\u00c9ternel, comme roi \u00e0 la place de David, son p\u00e8re. Il prosp\u00e9ra, et tout Isra\u00ebl lui ob\u00e9it."
        },
        {
            "chapter": 29,
            "verse": 24,
            "name": "1 Chronicles 29:24",
            "text": "Tous les chefs et les h\u00e9ros, et m\u00eame tous les fils du roi David se soumirent au roi Salomon."
        },
        {
            "chapter": 29,
            "verse": 25,
            "name": "1 Chronicles 29:25",
            "text": "L'\u00c9ternel \u00e9leva au plus haut degr\u00e9 Salomon sous les yeux de tout Isra\u00ebl, et il rendit son r\u00e8gne plus \u00e9clatant que ne fut celui d'aucun roi d'Isra\u00ebl avant lui."
        },
        {
            "chapter": 29,
            "verse": 26,
            "name": "1 Chronicles 29:26",
            "text": "David, fils d'Isa\u00ef, r\u00e9gna sur tout Isra\u00ebl."
        },
        {
            "chapter": 29,
            "verse": 27,
            "name": "1 Chronicles 29:27",
            "text": "Le temps qu'il r\u00e9gna sur Isra\u00ebl fut de quarante ans: \u00e0 H\u00e9bron il r\u00e9gna sept ans, et \u00e0 J\u00e9rusalem il r\u00e9gna trente-trois ans."
        },
        {
            "chapter": 29,
            "verse": 28,
            "name": "1 Chronicles 29:28",
            "text": "Il mourut dans une heureuse vieillesse, rassasi\u00e9 de jours, de richesse et de gloire. Et Salomon, son fils, r\u00e9gna \u00e0 sa place."
        },
        {
            "chapter": 29,
            "verse": 29,
            "name": "1 Chronicles 29:29",
            "text": "Les actions du roi David, les premi\u00e8res et les derni\u00e8res, sont \u00e9crites dans le livre de Samuel le voyant, dans le livre de Nathan, le proph\u00e8te, et dans le livre de Gad, le proph\u00e8te,"
        },
        {
            "chapter": 29,
            "verse": 30,
            "name": "1 Chronicles 29:30",
            "text": "avec tout son r\u00e8gne et tous ses exploits, et ce qui s'est pass\u00e9 de son temps, soit en Isra\u00ebl, soit dans tous les royaumes des autres pays.  "
        }
    ]
}