{
    "translation": "Samaritan Pentateuch with variant readings",
    "abbreviation": "spvar",
    "lang": "he",
    "language": "Hebrew",
    "direction": "RTL",
    "encoding": "UTF-8",
    "book_nr": 16,
    "book_name": "Nehemiah",
    "chapter": 5,
    "name": "Nehemiah 5",
    "verses": [
        {
            "chapter": 5,
            "verse": 1,
            "name": "Nehemiah 5:1",
            "text": ""
        },
        {
            "chapter": 5,
            "verse": 2,
            "name": "Nehemiah 5:2",
            "text": ""
        },
        {
            "chapter": 5,
            "verse": 3,
            "name": "Nehemiah 5:3",
            "text": ""
        },
        {
            "chapter": 5,
            "verse": 4,
            "name": "Nehemiah 5:4",
            "text": ""
        },
        {
            "chapter": 5,
            "verse": 5,
            "name": "Nehemiah 5:5",
            "text": ""
        },
        {
            "chapter": 5,
            "verse": 6,
            "name": "Nehemiah 5:6",
            "text": ""
        },
        {
            "chapter": 5,
            "verse": 7,
            "name": "Nehemiah 5:7",
            "text": ""
        },
        {
            "chapter": 5,
            "verse": 8,
            "name": "Nehemiah 5:8",
            "text": ""
        },
        {
            "chapter": 5,
            "verse": 9,
            "name": "Nehemiah 5:9",
            "text": ""
        },
        {
            "chapter": 5,
            "verse": 10,
            "name": "Nehemiah 5:10",
            "text": ""
        },
        {
            "chapter": 5,
            "verse": 11,
            "name": "Nehemiah 5:11",
            "text": ""
        },
        {
            "chapter": 5,
            "verse": 12,
            "name": "Nehemiah 5:12",
            "text": ""
        },
        {
            "chapter": 5,
            "verse": 13,
            "name": "Nehemiah 5:13",
            "text": ""
        },
        {
            "chapter": 5,
            "verse": 14,
            "name": "Nehemiah 5:14",
            "text": ""
        },
        {
            "chapter": 5,
            "verse": 15,
            "name": "Nehemiah 5:15",
            "text": ""
        },
        {
            "chapter": 5,
            "verse": 16,
            "name": "Nehemiah 5:16",
            "text": ""
        },
        {
            "chapter": 5,
            "verse": 17,
            "name": "Nehemiah 5:17",
            "text": ""
        },
        {
            "chapter": 5,
            "verse": 18,
            "name": "Nehemiah 5:18",
            "text": ""
        },
        {
            "chapter": 5,
            "verse": 19,
            "name": "Nehemiah 5:19",
            "text": ""
        }
    ]
}