{
    "translation": "New Heart English Bible: Jehovah Edition",
    "abbreviation": "nhebje",
    "lang": "en",
    "language": "English",
    "direction": "LTR",
    "encoding": "UTF-8",
    "book_nr": 28,
    "book_name": "Hosea",
    "chapter": 2,
    "name": "Hosea 2",
    "verses": [
        {
            "chapter": 2,
            "verse": 1,
            "name": "Hosea 2:1",
            "text": "\"Say to your brothers, 'My people!' and to your sisters, 'My loved one!' "
        },
        {
            "chapter": 2,
            "verse": 2,
            "name": "Hosea 2:2",
            "text": "Contend with your mother! Contend, for she is not my wife, neither am I her husband; and let her put away her prostitution from her face, and her adulteries from between her breasts; "
        },
        {
            "chapter": 2,
            "verse": 3,
            "name": "Hosea 2:3",
            "text": "Lest I strip her naked, and make her bare as in the day that she was born, and make her like a wilderness, and set her like a dry land, and kill her with thirst. "
        },
        {
            "chapter": 2,
            "verse": 4,
            "name": "Hosea 2:4",
            "text": "Indeed, on her children I will have no mercy; for they are children of unfaithfulness; "
        },
        {
            "chapter": 2,
            "verse": 5,
            "name": "Hosea 2:5",
            "text": "For their mother has played the prostitute. She who conceived them has done shamefully; for she said, 'I will go after my lovers, who give me my bread and my water, my wool and my flax, my oil and my drink.' "
        },
        {
            "chapter": 2,
            "verse": 6,
            "name": "Hosea 2:6",
            "text": "Therefore, behold, I will hedge up your way with thorns, and I will build a wall against her, that she can't find her way. "
        },
        {
            "chapter": 2,
            "verse": 7,
            "name": "Hosea 2:7",
            "text": "She will follow after her lovers, but she won't overtake them; and she will seek them, but won't find them. Then she will say, 'I will go and return to my first husband; for then was it better with me than now.' "
        },
        {
            "chapter": 2,
            "verse": 8,
            "name": "Hosea 2:8",
            "text": "For she did not know that I gave her the grain, the new wine, and the oil, and multiplied to her silver and gold, which they used for Baal. "
        },
        {
            "chapter": 2,
            "verse": 9,
            "name": "Hosea 2:9",
            "text": "Therefore I will take back my grain in its time, and my new wine in its season, and will pluck away my wool and my flax which should have covered her nakedness. "
        },
        {
            "chapter": 2,
            "verse": 10,
            "name": "Hosea 2:10",
            "text": "Now I will uncover her lewdness in the sight of her lovers, and no one will deliver her out of my hand. "
        },
        {
            "chapter": 2,
            "verse": 11,
            "name": "Hosea 2:11",
            "text": "I will also cause all her celebrations to cease: her feasts, her new moons, her Sabbaths, and all her solemn assemblies. "
        },
        {
            "chapter": 2,
            "verse": 12,
            "name": "Hosea 2:12",
            "text": "I will lay waste her vines and her fig trees, about which she has said, 'These are my wages that my lovers have given me; and I will make them a forest,' and the animals of the field shall eat them. "
        },
        {
            "chapter": 2,
            "verse": 13,
            "name": "Hosea 2:13",
            "text": "I will visit on her the days of the Baals, to which she burned incense, when she decked herself with her earrings and her jewels, and went after her lovers, and forgot me,\" says Jehovah. "
        },
        {
            "chapter": 2,
            "verse": 14,
            "name": "Hosea 2:14",
            "text": "\"Therefore, behold, I will allure her, and bring her into the wilderness, and speak tenderly to her. "
        },
        {
            "chapter": 2,
            "verse": 15,
            "name": "Hosea 2:15",
            "text": "I will give her vineyards from there, and the valley of Achor for a door of hope; and she will respond there, as in the days of her youth, and as in the day when she came up out of the land of Egypt. "
        },
        {
            "chapter": 2,
            "verse": 16,
            "name": "Hosea 2:16",
            "text": "It will be in that day,\" says Jehovah, \"that you will call me 'my husband,' and no longer call me 'my master.' "
        },
        {
            "chapter": 2,
            "verse": 17,
            "name": "Hosea 2:17",
            "text": "For I will take away the names of the Baals out of her mouth, and they will no longer be mentioned by name. "
        },
        {
            "chapter": 2,
            "verse": 18,
            "name": "Hosea 2:18",
            "text": "In that day I will make a covenant for them with the animals of the field, and with the birds of the sky, and with the creeping things of the ground. I will break the bow, the sword, and the battle out of the land, and will make them lie down safely. "
        },
        {
            "chapter": 2,
            "verse": 19,
            "name": "Hosea 2:19",
            "text": "I will betroth you to me forever. Yes, I will betroth you to me in righteousness, in justice, in loving kindness, and in compassion. "
        },
        {
            "chapter": 2,
            "verse": 20,
            "name": "Hosea 2:20",
            "text": "I will even betroth you to me in faithfulness; and you shall know Jehovah. "
        },
        {
            "chapter": 2,
            "verse": 21,
            "name": "Hosea 2:21",
            "text": "It will happen in that day, I will respond,\" says Jehovah, \"I will respond to the heavens, and they will respond to the earth; "
        },
        {
            "chapter": 2,
            "verse": 22,
            "name": "Hosea 2:22",
            "text": "and the earth will respond to the grain, and the new wine, and the oil; and they will respond to Jezreel. "
        },
        {
            "chapter": 2,
            "verse": 23,
            "name": "Hosea 2:23",
            "text": "I will sow her to me in the earth; and I will have mercy on her who had not obtained mercy; and I will tell those who were not my people, 'You are my people;' and they will say, 'My God!'\"  "
        }
    ]
}