{
    "translation": "Russian Synodal Bible, Licht im Osten Edition",
    "abbreviation": "russynodallio",
    "lang": "ru",
    "language": "Russian",
    "direction": "LTR",
    "encoding": "UTF-8",
    "book_nr": 47,
    "book_name": "2 Corinthians",
    "chapter": 13,
    "name": "2 Corinthians 13",
    "verses": [
        {
            "chapter": 13,
            "verse": 1,
            "name": "2 Corinthians 13:1",
            "text": "    \u0412 \u0442\u0440\u0435\u0442\u0438\u0439 \u0443\u0436\u0435 \u0440\u0430\u0437 \u0438\u0434\u0443 \u043a \u0432\u0430\u043c. \u041f\u0440\u0438 \u0443\u0441\u0442\u0430\u0445 \u0434\u0432\u0443\u0445 \u0438\u043b\u0438 \u0442\u0440\u0435\u0445 \u0441\u0432\u0438\u0434\u0435\u0442\u0435\u043b\u0435\u0439 \u0431\u0443\u0434\u0435\u0442 \u0442\u0432\u0435\u0440\u0434\u043e \u0432\u0441\u044f\u043a\u043e\u0435 \u0441\u043b\u043e\u0432\u043e. "
        },
        {
            "chapter": 13,
            "verse": 2,
            "name": "2 Corinthians 13:2",
            "text": "\u042f \u043f\u0440\u0435\u0434\u0443\u043f\u0440\u0435\u0436\u0434\u0430\u043b \u0438 \u043f\u0440\u0435\u0434\u0443\u043f\u0440\u0435\u0436\u0434\u0430\u044e, \u043a\u0430\u043a \u0431\u044b \u043d\u0430\u0445\u043e\u0434\u044f\u0441\u044c \u0443 \u0432\u0430\u0441 \u0432\u043e \u0432\u0442\u043e\u0440\u043e\u0439 \u0440\u0430\u0437, \u0438 \u0442\u0435\u043f\u0435\u0440\u044c, \u043e\u0442\u0441\u0443\u0442\u0441\u0442\u0432\u0443\u044f, \u043f\u0438\u0448\u0443 \u043f\u0440\u0435\u0436\u0434\u0435 \u0441\u043e\u0433\u0440\u0435\u0448\u0438\u0432\u0448\u0438\u043c \u0438 \u0432\u0441\u0435\u043c \u043f\u0440\u043e\u0447\u0438\u043c, \u0447\u0442\u043e, \u043a\u043e\u0433\u0434\u0430 \u043e\u043f\u044f\u0442\u044c \u043f\u0440\u0438\u0434\u0443, \u043d\u0435 \u043f\u043e\u0449\u0430\u0436\u0443. "
        },
        {
            "chapter": 13,
            "verse": 3,
            "name": "2 Corinthians 13:3",
            "text": "\u0412\u044b \u0438\u0449\u0435\u0442\u0435 \u0434\u043e\u043a\u0430\u0437\u0430\u0442\u0435\u043b\u044c\u0441\u0442\u0432\u0430 \u0442\u043e\u0433\u043e, \u0447\u0442\u043e \u0425\u0440\u0438\u0441\u0442\u043e\u0441 \u0433\u043e\u0432\u043e\u0440\u0438\u0442 \u0432\u043e \u043c\u043d\u0435: \u041e\u043d \u043d\u0435 \u0431\u0435\u0441\u0441\u0438\u043b\u0435\u043d \u0434\u043b\u044f \u0432\u0430\u0441, \u043d\u043e \u0441\u0438\u043b\u0435\u043d \u0432 \u0432\u0430\u0441. "
        },
        {
            "chapter": 13,
            "verse": 4,
            "name": "2 Corinthians 13:4",
            "text": "\u0418\u0431\u043e \u0445\u043e\u0442\u044f \u041e\u043d \u0438 \u0440\u0430\u0441\u043f\u044f\u0442 \u0432 \u043d\u0435\u043c\u043e\u0449\u0438, \u043d\u043e \u0436\u0438\u0432 \u0441\u0438\u043b\u043e\u0439 \u0411\u043e\u0436\u0438\u0435\u0439; \u0438 \u043c\u044b \u0442\u0430\u043a\u0436\u0435, \u0445\u043e\u0442\u044f \u043d\u0435\u043c\u043e\u0449\u043d\u044b \u0432 \u041d\u0435\u043c, \u043d\u043e \u0431\u0443\u0434\u0435\u043c \u0436\u0438\u0432\u044b \u0441 \u041d\u0438\u043c \u0441\u0438\u043b\u043e\u0439 \u0411\u043e\u0436\u0438\u0435\u0439 \u0432 \u0432\u0430\u0441. "
        },
        {
            "chapter": 13,
            "verse": 5,
            "name": "2 Corinthians 13:5",
            "text": "\u0418\u0441\u043f\u044b\u0442\u044b\u0432\u0430\u0439\u0442\u0435 \u0441\u0430\u043c\u0438\u0445 \u0441\u0435\u0431\u044f, \u0432 \u0432\u0435\u0440\u0435 \u043b\u0438 \u0432\u044b; \u0441\u0430\u043c\u0438\u0445 \u0441\u0435\u0431\u044f \u0438\u0441\u0441\u043b\u0435\u0434\u0443\u0439\u0442\u0435. \u0418\u043b\u0438 \u0432\u044b \u043d\u0435 \u0437\u043d\u0430\u0435\u0442\u0435 \u0441\u0430\u043c\u0438\u0445 \u0441\u0435\u0431\u044f, \u0447\u0442\u043e \u0418\u0438\u0441\u0443\u0441 \u0425\u0440\u0438\u0441\u0442\u043e\u0441 \u0432 \u0432\u0430\u0441? \u0420\u0430\u0437\u0432\u0435 \u0442\u043e\u043b\u044c\u043a\u043e \u0432\u044b \u043d\u0435 \u0442\u043e, \u0447\u0435\u043c \u0434\u043e\u043b\u0436\u043d\u044b \u0431\u044b\u0442\u044c. "
        },
        {
            "chapter": 13,
            "verse": 6,
            "name": "2 Corinthians 13:6",
            "text": "\u041e \u043d\u0430\u0441 \u0436\u0435, \u043d\u0430\u0434\u0435\u044e\u0441\u044c, \u0443\u0437\u043d\u0430\u0435\u0442\u0435, \u0447\u0442\u043e \u043c\u044b \u0442\u043e, \u0447\u0435\u043c \u0431\u044b\u0442\u044c \u0434\u043e\u043b\u0436\u043d\u044b. "
        },
        {
            "chapter": 13,
            "verse": 7,
            "name": "2 Corinthians 13:7",
            "text": "\u041c\u043e\u043b\u0438\u043c \u0411\u043e\u0433\u0430, \u0447\u0442\u043e\u0431\u044b \u0432\u044b \u043d\u0435 \u0434\u0435\u043b\u0430\u043b\u0438 \u043d\u0438\u043a\u0430\u043a\u043e\u0433\u043e \u0437\u043b\u0430, \u2013 \u043d\u0435 \u0434\u043b\u044f \u0442\u043e\u0433\u043e, \u0447\u0442\u043e\u0431\u044b \u043d\u0430\u043c \u043f\u043e\u043a\u0430\u0437\u0430\u0442\u044c\u0441\u044f, \u0447\u0435\u043c \u0434\u043e\u043b\u0436\u043d\u044b \u0431\u044b\u0442\u044c; \u043d\u043e \u0447\u0442\u043e\u0431\u044b \u0432\u044b \u0434\u0435\u043b\u0430\u043b\u0438 \u0434\u043e\u0431\u0440\u043e, \u0445\u043e\u0442\u044f \u0431\u044b \u043c\u044b \u043a\u0430\u0437\u0430\u043b\u0438\u0441\u044c \u0438 \u043d\u0435 \u0442\u0435\u043c, \u0447\u0435\u043c \u0434\u043e\u043b\u0436\u043d\u044b \u0431\u044b\u0442\u044c. "
        },
        {
            "chapter": 13,
            "verse": 8,
            "name": "2 Corinthians 13:8",
            "text": "\u0418\u0431\u043e \u043c\u044b \u043d\u0435 \u0441\u0438\u043b\u044c\u043d\u044b \u043f\u0440\u043e\u0442\u0438\u0432 \u0438\u0441\u0442\u0438\u043d\u044b, \u043d\u043e \u0441\u0438\u043b\u044c\u043d\u044b \u0437\u0430 \u0438\u0441\u0442\u0438\u043d\u0443. "
        },
        {
            "chapter": 13,
            "verse": 9,
            "name": "2 Corinthians 13:9",
            "text": "\u041c\u044b \u0440\u0430\u0434\u0443\u0435\u043c\u0441\u044f, \u043a\u043e\u0433\u0434\u0430 \u043c\u044b \u043d\u0435\u043c\u043e\u0449\u043d\u044b, \u0430 \u0432\u044b \u0441\u0438\u043b\u044c\u043d\u044b; \u043e\u0431 \u044d\u0442\u043e\u043c-\u0442\u043e \u0438 \u043c\u043e\u043b\u0438\u043c\u0441\u044f \u2013 o \u0432\u0430\u0448\u0435\u043c \u0441\u043e\u0432\u0435\u0440\u0448\u0435\u043d\u0441\u0442\u0432\u0435. "
        },
        {
            "chapter": 13,
            "verse": 10,
            "name": "2 Corinthians 13:10",
            "text": "\u0414\u043b\u044f \u0442\u043e\u0433\u043e \u044f \u0438 \u043f\u0438\u0448\u0443 \u044d\u0442\u043e \u0432 \u043e\u0442\u0441\u0443\u0442\u0441\u0442\u0432\u0438\u0435, \u0447\u0442\u043e\u0431\u044b \u0432 \u043f\u0440\u0438\u0441\u0443\u0442\u0441\u0442\u0432\u0438\u0438 \u043d\u0435 \u0443\u043f\u043e\u0442\u0440\u0435\u0431\u0438\u0442\u044c \u0441\u0442\u0440\u043e\u0433\u043e\u0441\u0442\u044c \u043f\u043e \u0432\u043b\u0430\u0441\u0442\u0438, \u0434\u0430\u043d\u043d\u043e\u0439 \u043c\u043d\u0435 \u0413\u043e\u0441\u043f\u043e\u0434\u043e\u043c \u043a \u0441\u043e\u0437\u0438\u0434\u0430\u043d\u0438\u044e, \u0430 \u043d\u0435 \u043a \u0440\u0430\u0437\u0440\u0443\u0448\u0435\u043d\u0438\u044e. "
        },
        {
            "chapter": 13,
            "verse": 11,
            "name": "2 Corinthians 13:11",
            "text": "\u0412\u043f\u0440\u043e\u0447\u0435\u043c, \u0431\u0440\u0430\u0442\u044c\u044f, \u0440\u0430\u0434\u0443\u0439\u0442\u0435\u0441\u044c, \u0441\u0442\u0440\u0435\u043c\u0438\u0442\u0435\u0441\u044c \u043a \u0441\u043e\u0432\u0435\u0440\u0448\u0435\u043d\u0441\u0442\u0432\u0443, \u0443\u0442\u0435\u0448\u0430\u0439\u0442\u0435\u0441\u044c, \u0431\u0443\u0434\u044c\u0442\u0435 \u0435\u0434\u0438\u043d\u043e\u043c\u044b\u0441\u043b\u0435\u043d\u043d\u044b, \u043c\u0438\u0440\u043d\u044b \u2013 \u0438 \u0411\u043e\u0433 \u043b\u044e\u0431\u0432\u0438 \u0438 \u043c\u0438\u0440\u0430 \u0431\u0443\u0434\u0435\u0442 \u0441 \u0432\u0430\u043c\u0438. "
        },
        {
            "chapter": 13,
            "verse": 12,
            "name": "2 Corinthians 13:12",
            "text": "\u041f\u0440\u0438\u0432\u0435\u0442\u0441\u0442\u0432\u0443\u0439\u0442\u0435 \u0434\u0440\u0443\u0433 \u0434\u0440\u0443\u0433\u0430 \u043f\u043e\u0446\u0435\u043b\u0443\u0435\u043c \u0441\u0432\u044f\u0442\u044b\u043c. \u041f\u0440\u0438\u0432\u0435\u0442\u0441\u0442\u0432\u0443\u044e\u0442 \u0432\u0430\u0441 \u0432\u0441\u0435 \u0441\u0432\u044f\u0442\u044b\u0435. "
        },
        {
            "chapter": 13,
            "verse": 13,
            "name": "2 Corinthians 13:13",
            "text": "\u0411\u043b\u0430\u0433\u043e\u0434\u0430\u0442\u044c \u0413\u043e\u0441\u043f\u043e\u0434\u0430 \u043d\u0430\u0448\u0435\u0433\u043e \u0418\u0438\u0441\u0443\u0441\u0430 \u0425\u0440\u0438\u0441\u0442\u0430, \u0438 \u043b\u044e\u0431\u043e\u0432\u044c \u0411\u043e\u0433\u0430 \u041e\u0442\u0446\u0430, \u0438 \u043e\u0431\u0449\u0435\u043d\u0438\u0435 \u0421\u0432\u044f\u0442\u043e\u0433\u043e \u0414\u0443\u0445\u0430 \u0441\u043e \u0432\u0441\u0435\u043c\u0438 \u0432\u0430\u043c\u0438. \u0410\u043c\u0438\u043d\u044c.     "
        }
    ]
}