{
    "translation": "Pyha Raamattu (1933 1938)",
    "abbreviation": "pyharaamattu1933",
    "lang": "fi",
    "language": "Finnish",
    "direction": "LTR",
    "encoding": "",
    "book_nr": 19,
    "book_name": "Psalms",
    "chapter": 110,
    "name": "Psalms 110",
    "verses": [
        {
            "chapter": 110,
            "verse": 1,
            "name": "Psalms 110:1",
            "text": "Daavidin virsi. Herra sanoi minun herralleni: \"Istu minun oikealle puolelleni, kunnes min\u00e4 panen sinun vihollisesi sinun jalkojesi astinlaudaksi\"."
        },
        {
            "chapter": 110,
            "verse": 2,
            "name": "Psalms 110:2",
            "text": "Herra ojentaa sinun valtasi valtikan Siionista; hallitse vihollistesi keskell\u00e4."
        },
        {
            "chapter": 110,
            "verse": 3,
            "name": "Psalms 110:3",
            "text": "Altis on sinun kansasi sinun sotaanl\u00e4ht\u00f6si p\u00e4iv\u00e4n\u00e4: pyh\u00e4ss\u00e4 asussa sinun nuori v\u00e4kesi nousee eteesi, niinkuin kaste aamuruskon helmasta."
        },
        {
            "chapter": 110,
            "verse": 4,
            "name": "Psalms 110:4",
            "text": "Herra on vannonut eik\u00e4 sit\u00e4 kadu: \"Sin\u00e4 olet pappi iankaikkisesti, Melkisedekin j\u00e4rjestyksen mukaan\"."
        },
        {
            "chapter": 110,
            "verse": 5,
            "name": "Psalms 110:5",
            "text": "Herra on sinun oikealla puolellasi, h\u00e4n musertaa kuninkaat vihansa p\u00e4iv\u00e4n\u00e4."
        },
        {
            "chapter": 110,
            "verse": 6,
            "name": "Psalms 110:6",
            "text": "H\u00e4n tuomitsee pakanat: ruumiita viruu kaikkialla; h\u00e4n murskaa p\u00e4it\u00e4 laajalti maan p\u00e4\u00e4ll\u00e4."
        },
        {
            "chapter": 110,
            "verse": 7,
            "name": "Psalms 110:7",
            "text": "H\u00e4n juo purosta tien varrelta; sent\u00e4hden h\u00e4n kohottaa p\u00e4\u00e4ns\u00e4."
        }
    ]
}