{
    "translation": "Pyha Raamattu (1933 1938)",
    "abbreviation": "pyharaamattu1933",
    "lang": "fi",
    "language": "Finnish",
    "direction": "LTR",
    "encoding": "",
    "book_nr": 19,
    "book_name": "Psalms",
    "chapter": 42,
    "name": "Psalms 42",
    "verses": [
        {
            "chapter": 42,
            "verse": 1,
            "name": "Psalms 42:1",
            "text": "Veisuunjohtajalle; koorahilaisten mietevirsi. Niinkuin peura halajaa vesipuroille, niin minun sieluni halajaa sinua, Jumala."
        },
        {
            "chapter": 42,
            "verse": 2,
            "name": "Psalms 42:2",
            "text": " Minun sieluni janoo Jumalaa, el\u00e4v\u00e4\u00e4 Jumalaa. Milloin saan min\u00e4 tulla Jumalan kasvojen eteen?"
        },
        {
            "chapter": 42,
            "verse": 3,
            "name": "Psalms 42:3",
            "text": " Kyyneleeni ovat minun ruokani p\u00e4ivin ja \u00f6in, kun minulle joka p\u00e4iv\u00e4 sanotaan: \"Miss\u00e4 on sinun Jumalasi?\""
        },
        {
            "chapter": 42,
            "verse": 4,
            "name": "Psalms 42:4",
            "text": " N\u00e4it\u00e4 min\u00e4 muistelen ja vuodatan syd\u00e4meni: min\u00e4 kuljin v\u00e4entungoksessa, astuin sen kanssa Jumalan huoneeseen riemun ja kiitoksen raikuessa juhlivasta joukosta."
        },
        {
            "chapter": 42,
            "verse": 5,
            "name": "Psalms 42:5",
            "text": " Miksi murehdit, minun sieluni, ja olet minussa niin levoton? Odota Jumalaa. Sill\u00e4 viel\u00e4 min\u00e4 saan h\u00e4nt\u00e4 kiitt\u00e4\u00e4 h\u00e4nen kasvojensa avusta."
        },
        {
            "chapter": 42,
            "verse": 6,
            "name": "Psalms 42:6",
            "text": " Minun Jumalani, minun sieluni on murheellinen minussa, sent\u00e4hden min\u00e4 muistan sinua Jordanin maalla, Hermonin kukkuloilla ja Misarin vuorella."
        },
        {
            "chapter": 42,
            "verse": 7,
            "name": "Psalms 42:7",
            "text": " Sinun koskiesi pauhussa syvyys syvyydelle huutaa, kaikki sinun kuohusi ja aaltosi k\u00e4yv\u00e4t minun ylitseni."
        },
        {
            "chapter": 42,
            "verse": 8,
            "name": "Psalms 42:8",
            "text": " P\u00e4iv\u00e4ll\u00e4 Herra s\u00e4\u00e4t\u00e4\u00e4 armonsa, ja y\u00f6ll\u00e4 min\u00e4 h\u00e4nelle veisaan ja rukoilen el\u00e4m\u00e4ni Jumalaa."
        },
        {
            "chapter": 42,
            "verse": 9,
            "name": "Psalms 42:9",
            "text": " Min\u00e4 sanon Jumalalle, kalliolleni: \"Miksi olet minut unhottanut? Miksi minun t\u00e4ytyy k\u00e4yd\u00e4 murhepuvussa, vihollisen ahdistamana?\""
        },
        {
            "chapter": 42,
            "verse": 10,
            "name": "Psalms 42:10",
            "text": " Minun luitani j\u00e4yt\u00e4\u00e4, kun viholliseni minua h\u00e4p\u00e4isev\u00e4t, sanoen minulle kaiken p\u00e4iv\u00e4\u00e4: \"Miss\u00e4 on sinun Jumalasi?\""
        },
        {
            "chapter": 42,
            "verse": 11,
            "name": "Psalms 42:11",
            "text": " Miksi murehdit, minun sieluni, ja miksi olet minussa niin levoton? Odota Jumalaa. Sill\u00e4 viel\u00e4 min\u00e4 saan kiitt\u00e4\u00e4 h\u00e4nt\u00e4, minun kasvojeni apua, minun Jumalaani."
        }
    ]
}