{
    "translation": "\u8056\u7d93 (\u6587\u7406\u548c\u5408)",
    "abbreviation": "chiunl",
    "lang": "zh",
    "language": "Chinese",
    "direction": "LTR",
    "encoding": "UTF-8",
    "book_nr": 46,
    "book_name": "1 Corinthians",
    "chapter": 11,
    "name": "1 Corinthians 11",
    "verses": [
        {
            "chapter": 11,
            "verse": 1,
            "name": "1 Corinthians 11:1",
            "text": "\u723e\u7576\u6548\u6211\u3001\u5982\u6211\u6548\u57fa\u7763\u7109\u3001\u25cb"
        },
        {
            "chapter": 11,
            "verse": 2,
            "name": "1 Corinthians 11:2",
            "text": "\u6211\u8b7d\u723e\u3001\u4ee5\u723e\u51e1\u4e8b\u5ff5\u6211\u3001\u6301\u5b88\u6240\u50b3\u3001\u5982\u6211\u6240\u6388\u65bc\u723e\u8005\u3001"
        },
        {
            "chapter": 11,
            "verse": 3,
            "name": "1 Corinthians 11:3",
            "text": "\u6211\u6b32\u723e\u77e5\u3001\u7537\u4e4b\u9996\u3001\u57fa\u7763\u4e5f\u3001\u5973\u4e4b\u9996\u3001\u7537\u4e5f\u3001\u57fa\u7763\u4e4b\u9996\u3001\u4e0a\u5e1d\u4e5f\u3001"
        },
        {
            "chapter": 11,
            "verse": 4,
            "name": "1 Corinthians 11:4",
            "text": "\u7537\u7948\u79b1\u5ba3\u9053\u800c\u8499\u9996\u3001\u5247\u8fb1\u5176\u9996\u3001"
        },
        {
            "chapter": 11,
            "verse": 5,
            "name": "1 Corinthians 11:5",
            "text": "\u5973\u7948\u79b1\u5ba3\u9053\u800c\u4e0d\u8499\u9996\u3001\u4ea6\u8fb1\u5176\u9996\u3001\u8207\u8599\u9aee\u7121\u7570\u3001"
        },
        {
            "chapter": 11,
            "verse": 6,
            "name": "1 Corinthians 11:6",
            "text": "\u5973\u4e0d\u8499\u9996\u3001\u5247\u5b9c\u7fe6\u9aee\u3001\u82e5\u5973\u4ee5\u7fe6\u9aee\u8599\u9aee\u7232\u7f9e\u3001\u6bcb\u5be7\u8499\u9996\u3001"
        },
        {
            "chapter": 11,
            "verse": 7,
            "name": "1 Corinthians 11:7",
            "text": "\u7537\u56fa\u4e0d\u5b9c\u8499\u9996\u3001\u4ee5\u5176\u7232\u4e0a\u5e1d\u4e4b\u50cf\u8207\u69ae\u4e5f\u3001\u800c\u5973\u5247\u7232\u7537\u4e4b\u69ae\u3001"
        },
        {
            "chapter": 11,
            "verse": 8,
            "name": "1 Corinthians 11:8",
            "text": "\u84cb\u7537\u975e\u81ea\u4e4e\u5973\u3001\u5973\u4e43\u81ea\u4e4e\u7537\u3001"
        },
        {
            "chapter": 11,
            "verse": 9,
            "name": "1 Corinthians 11:9",
            "text": "\u7537\u975e\u7232\u5973\u800c\u9020\u3001\u5973\u4e43\u7232\u7537\u800c\u9020\u3001"
        },
        {
            "chapter": 11,
            "verse": 10,
            "name": "1 Corinthians 11:10",
            "text": "\u662f\u4ee5\u7232\u5929\u4f7f\u6545\u3001\u5973\u5b9c\u8499\u9996\u3001\u4ee5\u7232\u670d\u6b0a\u4e4b\u8868\u3001"
        },
        {
            "chapter": 11,
            "verse": 11,
            "name": "1 Corinthians 11:11",
            "text": "\u7136\u65bc\u4e3b\u3001\u5973\u975e\u5916\u4e4e\u7537\u3001\u7537\u975e\u5916\u4e4e\u5973\u3001"
        },
        {
            "chapter": 11,
            "verse": 12,
            "name": "1 Corinthians 11:12",
            "text": "\u84cb\u5973\u81ea\u4e4e\u7537\u3001\u7537\u4ea6\u7531\u65bc\u5973\u3001\u60df\u842c\u6709\u81ea\u4e4e\u4e0a\u5e1d\u4e5f\u3001"
        },
        {
            "chapter": 11,
            "verse": 13,
            "name": "1 Corinthians 11:13",
            "text": "\u723e\u81ea\u5ea6\u4e4b\u3001\u5973\u4e0d\u8499\u9996\u800c\u79b1\u4e0a\u5e1d\u3001\u5b9c\u4e4e\u3001"
        },
        {
            "chapter": 11,
            "verse": 14,
            "name": "1 Corinthians 11:14",
            "text": "\u4f9d\u723e\u672c\u6027\u3001\u8c48\u4e0d\u77e5\u7537\u4e4b\u9aee\u9577\u7232\u8fb1\u4e4e\u3001"
        },
        {
            "chapter": 11,
            "verse": 15,
            "name": "1 Corinthians 11:15",
            "text": "\u60df\u5973\u4e4b\u9aee\u9577\u5247\u7232\u69ae\u3001\u84cb\u8cdc\u5973\u4ee5\u9aee\u7232\u5e15\u4e5f\u3001"
        },
        {
            "chapter": 11,
            "verse": 16,
            "name": "1 Corinthians 11:16",
            "text": "\u5982\u6709\u6b32\u722d\u8faf\u8005\u3001\u6211\u5115\u7121\u6b64\u4f8b\u3001\u4e0a\u5e1d\u8af8\u6703\u4ea6\u7121\u4e4b\u3001\u25cb"
        },
        {
            "chapter": 11,
            "verse": 17,
            "name": "1 Corinthians 11:17",
            "text": "\u6211\u4ee5\u6b64\u8aed\u723e\u3001\u975e\u8b7d\u4e4b\u4e5f\u3001\u4ee5\u723e\u6703\u96c6\u3001\u975e\u81f4\u76ca\u800c\u81f4\u640d\u3001"
        },
        {
            "chapter": 11,
            "verse": 18,
            "name": "1 Corinthians 11:18",
            "text": "\u9996\u7109\u8005\u3001\u805e\u723e\u6703\u96c6\u6642\u3001\u4e92\u6709\u5340\u5206\u3001\u6211\u7567\u4fe1\u4e4b\u3001"
        },
        {
            "chapter": 11,
            "verse": 19,
            "name": "1 Corinthians 11:19",
            "text": "\u723e\u4e2d\u5fc5\u6709\u504f\u9ee8\u3001\u4f7f\u8af3\u7df4\u8005\u986f\u7109\u3001"
        },
        {
            "chapter": 11,
            "verse": 20,
            "name": "1 Corinthians 11:20",
            "text": "\u723e\u4e4b\u6703\u96c6\u3001\u975e\u98df\u4e3b\u9910\u3001"
        },
        {
            "chapter": 11,
            "verse": 21,
            "name": "1 Corinthians 11:21",
            "text": "\u84cb\u98df\u6642\u3001\u5404\u5148\u98df\u5df1\u9910\u3001\u98e2\u8005\u6709\u4e4b\u3001\u9189\u8005\u6709\u4e4b\u3001"
        },
        {
            "chapter": 11,
            "verse": 22,
            "name": "1 Corinthians 11:22",
            "text": "\u723e\u98f2\u98df\u8c48\u7121\u5bb6\u4e4e\u3001\u6291\u8f15\u8996\u4e0a\u5e1d\u6703\u3001\u4f7f\u7121\u8005\u6127\u6065\u4e4e\u3001\u7136\u5247\u6211\u5c07\u4f55\u8a00\u3001\u56e0\u6b64\u8b7d\u723e\u4e4e\u3001\u4e0d\u8b7d\u4e5f\u3001\u25cb"
        },
        {
            "chapter": 11,
            "verse": 23,
            "name": "1 Corinthians 11:23",
            "text": "\u84cb\u6211\u53d7\u65bc\u4e3b\u4ee5\u6388\u723e\u8005\u3001\u537d\u4e3b\u8036\u7a4c\u898b\u8ce3\u4e4b\u591c\u3001\u53d6\u9905\u795d\u800c\u64d8\u4e4b\u3001"
        },
        {
            "chapter": 11,
            "verse": 24,
            "name": "1 Corinthians 11:24",
            "text": "\u66f0\u3001\u65af\u4e43\u6211\u8eab\u3001\u7232\u723e\u8005\u4e5f\u3001\u884c\u6b64\u4ee5\u61b6\u6211\u3001"
        },
        {
            "chapter": 11,
            "verse": 25,
            "name": "1 Corinthians 11:25",
            "text": "\u9910\u5f8c\u3001\u53d6\u676f\u4ea6\u7136\u3001\u66f0\u3001\u6b64\u676f\u4e43\u65b0\u7d04\u3001\u5728\u65bc\u6211\u8840\u3001\u6bcf\u98f2\u6642\u3001\u884c\u6b64\u4ee5\u61b6\u6211\u3001"
        },
        {
            "chapter": 11,
            "verse": 26,
            "name": "1 Corinthians 11:26",
            "text": "\u84cb\u723e\u6bcf\u98df\u6b64\u9905\u3001\u98f2\u6b64\u676f\u3001\u4e43\u8868\u4e3b\u6b7b\u3001\u81f3\u5176\u81e8\u7109\u3001"
        },
        {
            "chapter": 11,
            "verse": 27,
            "name": "1 Corinthians 11:27",
            "text": "\u51e1\u4e0d\u5408\u5b9c\u800c\u98df\u4e3b\u9905\u3001\u98f2\u4e3b\u676f\u8005\u3001\u537d\u5e72\u4e3b\u8eab\u8207\u8840\u4e5f\u3001"
        },
        {
            "chapter": 11,
            "verse": 28,
            "name": "1 Corinthians 11:28",
            "text": "\u4eba\u7576\u81ea\u7701\u3001\u7136\u5f8c\u98df\u65af\u9905\u3001\u98f2\u65af\u676f\u3001"
        },
        {
            "chapter": 11,
            "verse": 29,
            "name": "1 Corinthians 11:29",
            "text": "\u4e0d\u8fa8\u4e3b\u8eab\u800c\u98f2\u98df\u8005\u3001\u5247\u4ee5\u98f2\u98df\u5e72\u97ab\u4e5f\u3001"
        },
        {
            "chapter": 11,
            "verse": 30,
            "name": "1 Corinthians 11:30",
            "text": "\u662f\u6545\u723e\u4e2d\u5f31\u8005\u75c5\u8005\u591a\u3001\u5be2\u8005\u4ea6\u4e0d\u5c11\u3001"
        },
        {
            "chapter": 11,
            "verse": 31,
            "name": "1 Corinthians 11:31",
            "text": "\u82e5\u6211\u5115\u81ea\u5be9\u3001\u5247\u4e0d\u53d7\u97ab\u3001"
        },
        {
            "chapter": 11,
            "verse": 32,
            "name": "1 Corinthians 11:32",
            "text": "\u5176\u53d7\u97ab\u4e5f\u3001\u4e43\u4e3b\u61f2\u6211\u3001\u514d\u8207\u4e16\u540c\u5b9a\u7f6a\u3001"
        },
        {
            "chapter": 11,
            "verse": 33,
            "name": "1 Corinthians 11:33",
            "text": "\u5144\u5f1f\u4e4e\u3001\u805a\u98df\u6642\u3001\u5b9c\u5f7c\u6b64\u76f8\u5f85\u3001"
        },
        {
            "chapter": 11,
            "verse": 34,
            "name": "1 Corinthians 11:34",
            "text": "\u82e5\u6709\u98e2\u8005\u3001\u98df\u65bc\u5bb6\u53ef\u4e5f\u3001\u514d\u723e\u4ee5\u6703\u96c6\u5e72\u97ab\u3001\u5176\u9918\u6211\u81f3\u6642\u6574\u98ed\u4e4b\u3001"
        }
    ]
}