{
    "translation": "Svenska Folkbibeln (1998)",
    "abbreviation": "swefolk1998",
    "lang": "sv",
    "language": "Swedish",
    "direction": "LTR",
    "encoding": "UTF-8",
    "book_nr": 45,
    "book_name": "Romans",
    "chapter": 13,
    "name": "Romans 13",
    "verses": [
        {
            "chapter": 13,
            "verse": 1,
            "name": "Romans 13:1",
            "text": "Varje m\u00e4nniska skall underordna sig den \u00f6verhet hon har \u00f6ver sig. Ty det finns ingen \u00f6verhet som inte \u00e4r av Gud, och den som finns \u00e4r insatt av honom."
        },
        {
            "chapter": 13,
            "verse": 2,
            "name": "Romans 13:2",
            "text": "Den som s\u00e4tter sig emot \u00f6verheten st\u00e5r d\u00e4rf\u00f6r emot vad Gud har best\u00e4mt, och de som g\u00f6r s\u00e5 drar domen \u00f6ver sig sj\u00e4lva."
        },
        {
            "chapter": 13,
            "verse": 3,
            "name": "Romans 13:3",
            "text": "Ty de styrande inger inte fruktan hos dem som g\u00f6r det goda utan hos dem som g\u00f6r det onda. Vill du slippa att leva i fruktan f\u00f6r \u00f6verheten, forts\u00e4tt d\u00e5 att g\u00f6ra det goda, s\u00e5 kommer du att f\u00e5 ber\u00f6m av den."
        },
        {
            "chapter": 13,
            "verse": 4,
            "name": "Romans 13:4",
            "text": "\u00d6verheten \u00e4r en Guds tj\u00e4nare till ditt b\u00e4sta. Men g\u00f6r du det onda skall du frukta, ty \u00f6verheten b\u00e4r inte sv\u00e4rdet f\u00f6rg\u00e4ves. Den \u00e4r en Guds tj\u00e4nare, en h\u00e4mnare som straffar den som g\u00f6r det onda."
        },
        {
            "chapter": 13,
            "verse": 5,
            "name": "Romans 13:5",
            "text": "D\u00e4rf\u00f6r m\u00e5ste man underordna sig den inte bara f\u00f6r straffets skull utan ocks\u00e5 f\u00f6r samvetets skull."
        },
        {
            "chapter": 13,
            "verse": 6,
            "name": "Romans 13:6",
            "text": "Det \u00e4r ocks\u00e5 d\u00e4rf\u00f6r ni betalar skatt. Ty de styrande \u00e4r Guds tj\u00e4nare, st\u00e4ndigt verksamma f\u00f6r just denna uppgift."
        },
        {
            "chapter": 13,
            "verse": 7,
            "name": "Romans 13:7",
            "text": "Fullg\u00f6r era skyldigheter mot alla: skatt \u00e5t den ni \u00e4r skyldiga skatt, tull \u00e5t den ni \u00e4r skyldiga tull, v\u00f6rdnad \u00e5t den som b\u00f6r f\u00e5 v\u00f6rdnad och heder \u00e5t den som b\u00f6r f\u00e5 heder. "
        },
        {
            "chapter": 13,
            "verse": 8,
            "name": "Romans 13:8",
            "text": "St\u00e5 inte i skuld till n\u00e5gon utom i k\u00e4rlek till varandra. Ty den som \u00e4lskar sin n\u00e4sta har uppfyllt lagen."
        },
        {
            "chapter": 13,
            "verse": 9,
            "name": "Romans 13:9",
            "text": "Dessa bud: Du skall inte beg\u00e5 \u00e4ktenskapsbrott, Du skall inte m\u00f6rda, Du skall inte stj\u00e4la, Du skall inte ha beg\u00e4r, och alla andra bud sammanfattas i detta ord: Du skall \u00e4lska din n\u00e4sta som dig sj\u00e4lv. "
        },
        {
            "chapter": 13,
            "verse": 10,
            "name": "Romans 13:10",
            "text": "K\u00e4rleken g\u00f6r inte n\u00e5got ont mot sin n\u00e4sta. Allts\u00e5 \u00e4r k\u00e4rleken lagens uppfyllelse."
        },
        {
            "chapter": 13,
            "verse": 11,
            "name": "Romans 13:11",
            "text": "Och det skall ni g\u00f6ra, v\u00e4l medvetna om tiden, att stunden redan \u00e4r inne f\u00f6r er att vakna upp ur s\u00f6mnen. Ty fr\u00e4lsningen \u00e4r oss nu n\u00e4rmare \u00e4n d\u00e5 vi kom till tro."
        },
        {
            "chapter": 13,
            "verse": 12,
            "name": "Romans 13:12",
            "text": "Natten g\u00e5r mot sitt slut och dagen \u00e4r n\u00e4ra. L\u00e5t oss l\u00e4gga bort m\u00f6rkrets g\u00e4rningar och kl\u00e4 oss i ljusets vapenrustning."
        },
        {
            "chapter": 13,
            "verse": 13,
            "name": "Romans 13:13",
            "text": "L\u00e5t oss leva v\u00e4rdigt, det h\u00f6r dagen till, inte i utsv\u00e4vningar och fylleri, inte i otukt och l\u00f6saktighet, inte i strid och avund."
        },
        {
            "chapter": 13,
            "verse": 14,
            "name": "Romans 13:14",
            "text": "Nej, ikl\u00e4d er Herren Jesus Kristus och ha inte en s\u00e5dan omsorg om kroppen att beg\u00e4ren v\u00e4cks till liv."
        }
    ]
}