{
    "translation": "Svenska Folkbibeln (1998)",
    "abbreviation": "swefolk1998",
    "lang": "sv",
    "language": "Swedish",
    "direction": "LTR",
    "encoding": "UTF-8",
    "book_nr": 45,
    "book_name": "Romans",
    "chapter": 8,
    "name": "Romans 8",
    "verses": [
        {
            "chapter": 8,
            "verse": 1,
            "name": "Romans 8:1",
            "text": "S\u00e5 finns nu ingen f\u00f6rd\u00f6melse f\u00f6r dem som \u00e4r i Kristus Jesus."
        },
        {
            "chapter": 8,
            "verse": 2,
            "name": "Romans 8:2",
            "text": "Ty livets Andes lag har i Kristus Jesus gjort mig fri fr\u00e5n syndens och d\u00f6dens lag."
        },
        {
            "chapter": 8,
            "verse": 3,
            "name": "Romans 8:3",
            "text": "Det som var om\u00f6jligt f\u00f6r lagen, svag som den var genom den syndiga naturen, det gjorde Gud genom att s\u00e4nda sin egen Son som syndoffer, han som till det yttre var lik en syndig m\u00e4nniska, och i hans kropp f\u00f6rd\u00f6mde Gud synden."
        },
        {
            "chapter": 8,
            "verse": 4,
            "name": "Romans 8:4",
            "text": "S\u00e5 skulle lagens krav uppfyllas i oss som inte lever efter k\u00f6ttet utan efter Anden. "
        },
        {
            "chapter": 8,
            "verse": 5,
            "name": "Romans 8:5",
            "text": "De som lever efter sin k\u00f6ttsliga natur t\u00e4nker p\u00e5 det som h\u00f6r till k\u00f6ttet, men de som lever efter Anden t\u00e4nker p\u00e5 det som h\u00f6r till Anden."
        },
        {
            "chapter": 8,
            "verse": 6,
            "name": "Romans 8:6",
            "text": "K\u00f6ttets sinne \u00e4r d\u00f6d, men Andens sinne \u00e4r liv och frid."
        },
        {
            "chapter": 8,
            "verse": 7,
            "name": "Romans 8:7",
            "text": "K\u00f6ttets sinne \u00e4r fiendskap mot Gud. Det underordnar sig inte Guds lag och kan det inte heller."
        },
        {
            "chapter": 8,
            "verse": 8,
            "name": "Romans 8:8",
            "text": "De som f\u00f6ljer sin syndiga natur kan inte behaga Gud."
        },
        {
            "chapter": 8,
            "verse": 9,
            "name": "Romans 8:9",
            "text": " Ni d\u00e4remot lever inte efter k\u00f6ttet utan efter Anden, eftersom Guds Ande bor i er. Den som inte har Kristi Ande tillh\u00f6r inte honom."
        },
        {
            "chapter": 8,
            "verse": 10,
            "name": "Romans 8:10",
            "text": "Men om Kristus bor i er, \u00e4r visserligen kroppen d\u00f6d f\u00f6r syndens skull men Anden \u00e4r liv f\u00f6r r\u00e4ttf\u00e4rdighetens skull."
        },
        {
            "chapter": 8,
            "verse": 11,
            "name": "Romans 8:11",
            "text": "Och om hans Ande som uppv\u00e4ckte Jesus fr\u00e5n de d\u00f6da bor i er, d\u00e5 skall han som uppv\u00e4ckte Kristus fr\u00e5n de d\u00f6da g\u00f6ra ocks\u00e5 era d\u00f6dliga kroppar levande genom sin Ande som bor i er. "
        },
        {
            "chapter": 8,
            "verse": 12,
            "name": "Romans 8:12",
            "text": "Vi har allts\u00e5 skyldigheter, br\u00f6der, men inte mot v\u00e5r onda natur, s\u00e5 att vi skall leva efter k\u00f6ttet."
        },
        {
            "chapter": 8,
            "verse": 13,
            "name": "Romans 8:13",
            "text": "Om ni lever efter k\u00f6ttet kommer ni att d\u00f6. Men om ni genom Anden d\u00f6dar kroppens g\u00e4rningar skall ni leva."
        },
        {
            "chapter": 8,
            "verse": 14,
            "name": "Romans 8:14",
            "text": "Ty alla som drivs av Guds Ande \u00e4r Guds s\u00f6ner."
        },
        {
            "chapter": 8,
            "verse": 15,
            "name": "Romans 8:15",
            "text": "Ni har inte f\u00e5tt slaveriets ande, s\u00e5 att ni p\u00e5 nytt skulle leva i fruktan. Nej, ni har f\u00e5tt barnaskapets Ande, i vilken vi ropar: \"Abba! Fader!\""
        },
        {
            "chapter": 8,
            "verse": 16,
            "name": "Romans 8:16",
            "text": "Anden sj\u00e4lv vittnar med v\u00e5r ande att vi \u00e4r Guds barn."
        },
        {
            "chapter": 8,
            "verse": 17,
            "name": "Romans 8:17",
            "text": "Men \u00e4r vi barn \u00e4r vi ocks\u00e5 arvingar, Guds arvingar och Kristi medarvingar, lika visst som vi lider med honom, f\u00f6r att ocks\u00e5 bli f\u00f6rh\u00e4rligade med honom."
        },
        {
            "chapter": 8,
            "verse": 18,
            "name": "Romans 8:18",
            "text": " Jag h\u00e4vdar att den h\u00e4r tidens lidanden v\u00e4ger l\u00e4tt i j\u00e4mf\u00f6relse med den h\u00e4rlighet som kommer att uppenbaras och bli v\u00e5r."
        },
        {
            "chapter": 8,
            "verse": 19,
            "name": "Romans 8:19",
            "text": "Ty skapelsen v\u00e4ntar ivrigt p\u00e5 att Guds barn skall uppenbaras."
        },
        {
            "chapter": 8,
            "verse": 20,
            "name": "Romans 8:20",
            "text": "Skapelsen har ju blivit lagd under f\u00f6rg\u00e4ngelsen, inte av egen vilja utan genom honom som lade den d\u00e4runder. \u00c4nd\u00e5 finns det hopp om"
        },
        {
            "chapter": 8,
            "verse": 21,
            "name": "Romans 8:21",
            "text": "att ocks\u00e5 skapelsen skall befrias fr\u00e5n sitt slaveri under f\u00f6rg\u00e4ngelsen och n\u00e5 fram till Guds barns h\u00e4rliga frihet."
        },
        {
            "chapter": 8,
            "verse": 22,
            "name": "Romans 8:22",
            "text": "Vi vet att hela skapelsen \u00e4nnu samf\u00e4llt suckar och v\u00e5ndas."
        },
        {
            "chapter": 8,
            "verse": 23,
            "name": "Romans 8:23",
            "text": "Och inte bara den, utan ocks\u00e5 vi som har f\u00e5tt Anden som f\u00f6rstlingsfrukt, ocks\u00e5 vi suckar inom oss och v\u00e4ntar p\u00e5 barnaskapet, v\u00e5r kropps f\u00f6rlossning."
        },
        {
            "chapter": 8,
            "verse": 24,
            "name": "Romans 8:24",
            "text": "Ty i hoppet \u00e4r vi fr\u00e4lsta, men ett hopp som man ser uppfyllt \u00e4r inte l\u00e4ngre n\u00e5got hopp. Vem hoppas p\u00e5 n\u00e5got som han redan ser?"
        },
        {
            "chapter": 8,
            "verse": 25,
            "name": "Romans 8:25",
            "text": "Men om vi hoppas p\u00e5 det vi inte ser, s\u00e5 v\u00e4ntar vi uth\u00e5lligt."
        },
        {
            "chapter": 8,
            "verse": 26,
            "name": "Romans 8:26",
            "text": "S\u00e5 hj\u00e4lper ocks\u00e5 Anden oss i v\u00e5r svaghet. Ty vi vet inte vad vi b\u00f6r be om, men Anden sj\u00e4lv ber f\u00f6r oss med suckar utan ord,"
        },
        {
            "chapter": 8,
            "verse": 27,
            "name": "Romans 8:27",
            "text": "och han som utforskar hj\u00e4rtan vet vad Anden menar, eftersom Anden ber f\u00f6r de heliga s\u00e5 som Gud vill. "
        },
        {
            "chapter": 8,
            "verse": 28,
            "name": "Romans 8:28",
            "text": "Vi vet att f\u00f6r dem som \u00e4lskar Gud samverkar allt till det b\u00e4sta, f\u00f6r dem som \u00e4r kallade efter hans beslut."
        },
        {
            "chapter": 8,
            "verse": 29,
            "name": "Romans 8:29",
            "text": "Ty dem som han i f\u00f6rv\u00e4g har k\u00e4nt som sina har han ocks\u00e5 f\u00f6rutbest\u00e4mt till att formas efter hans Sons bild, f\u00f6r att Sonen skulle vara den f\u00f6rstf\u00f6dde bland m\u00e5nga br\u00f6der."
        },
        {
            "chapter": 8,
            "verse": 30,
            "name": "Romans 8:30",
            "text": "Och dem som han har f\u00f6rutbest\u00e4mt har han ocks\u00e5 kallat. Och dem som han har kallat har han ocks\u00e5 f\u00f6rklarat r\u00e4ttf\u00e4rdiga. Och dem som han har f\u00f6rklarat r\u00e4ttf\u00e4rdiga har han ocks\u00e5 f\u00f6rh\u00e4rligat."
        },
        {
            "chapter": 8,
            "verse": 31,
            "name": "Romans 8:31",
            "text": " Vad skall vi nu s\u00e4ga om detta? \u00c4r Gud f\u00f6r oss, vem kan d\u00e5 vara emot oss?"
        },
        {
            "chapter": 8,
            "verse": 32,
            "name": "Romans 8:32",
            "text": "Han som inte skonade sin egen Son utan utl\u00e4mnade honom f\u00f6r oss alla, hur skulle han kunna annat \u00e4n ocks\u00e5 sk\u00e4nka oss allt med honom?"
        },
        {
            "chapter": 8,
            "verse": 33,
            "name": "Romans 8:33",
            "text": "Vem kan anklaga Guds utvalda? Gud \u00e4r den som frik\u00e4nner."
        },
        {
            "chapter": 8,
            "verse": 34,
            "name": "Romans 8:34",
            "text": "Vem \u00e4r den som f\u00f6rd\u00f6mer? Kristus Jesus \u00e4r den som har d\u00f6tt, ja, \u00e4n mer, den som har blivit uppv\u00e4ckt och som sitter p\u00e5 Guds h\u00f6gra sida och ber f\u00f6r oss."
        },
        {
            "chapter": 8,
            "verse": 35,
            "name": "Romans 8:35",
            "text": "Vem kan skilja oss fr\u00e5n Kristi k\u00e4rlek? N\u00f6d eller \u00e5ngest, f\u00f6rf\u00f6ljelse eller hunger, nakenhet, fara eller sv\u00e4rd?"
        },
        {
            "chapter": 8,
            "verse": 36,
            "name": "Romans 8:36",
            "text": "Det st\u00e5r ju skrivet:F\u00f6r din skull d\u00f6das vi hela dagen, vi r\u00e4knas som slaktf\u00e5r. "
        },
        {
            "chapter": 8,
            "verse": 37,
            "name": "Romans 8:37",
            "text": "Men i allt detta vinner vi en \u00f6verv\u00e4ldigande seger genom honom som har \u00e4lskat oss."
        },
        {
            "chapter": 8,
            "verse": 38,
            "name": "Romans 8:38",
            "text": "Ty jag \u00e4r viss om att varken d\u00f6d eller liv, varken \u00e4nglar eller furstar, varken n\u00e5got som nu \u00e4r eller n\u00e5got som skall komma, varken makter,"
        },
        {
            "chapter": 8,
            "verse": 39,
            "name": "Romans 8:39",
            "text": "h\u00f6jd eller djup eller n\u00e5got annat skapat skall kunna skilja oss fr\u00e5n Guds k\u00e4rlek i Kristus Jesus, v\u00e5r Herre."
        }
    ]
}