{
    "translation": "Czech CEP",
    "abbreviation": "cep",
    "lang": "cs",
    "language": "Czech",
    "direction": "LTR",
    "encoding": "UTF-8",
    "book_nr": 18,
    "book_name": "Job",
    "chapter": 17,
    "name": "Job 17",
    "verses": [
        {
            "chapter": 17,
            "verse": 1,
            "name": "Job 17:1",
            "text": "Na duchu jsem zlomen, m\u00e9 dny dohasly, jen hrob mi zb\u00fdv\u00e1. "
        },
        {
            "chapter": 17,
            "verse": 2,
            "name": "Job 17:2",
            "text": "Co posm\u011b\u0161k\u016f zakou\u0161\u00edm, st\u00e1le m\u011b napadaj\u00ed, oka nezamhou\u0159\u00edm. "
        },
        {
            "chapter": 17,
            "verse": 3,
            "name": "Job 17:3",
            "text": "Slo\u017e u sebe za m\u011b z\u00e1ruku, kdo jin\u00fd by se zaru\u010dil rukoud\u00e1n\u00edm? "
        },
        {
            "chapter": 17,
            "verse": 4,
            "name": "Job 17:4",
            "text": "Jejich srdce proz\u00edravosti jsi zbavil, a proto je nevyv\u00fd\u0161\u00ed\u0161. "
        },
        {
            "chapter": 17,
            "verse": 5,
            "name": "Job 17:5",
            "text": "P\u0159\u00e1tel\u016fm se pochlebuje, vlastn\u00edm syn\u016fm vypov\u00edd\u00e1 zrak. "
        },
        {
            "chapter": 17,
            "verse": 6,
            "name": "Job 17:6",
            "text": "U\u010dinil m\u011b po\u0159ekadlem lidu, t\u00edm, na n\u011bj\u017e se pliv\u00e1. "
        },
        {
            "chapter": 17,
            "verse": 7,
            "name": "Job 17:7",
            "text": "M\u016fj zrak pohasl ho\u0159em, v\u0161echny m\u00e9 \u00fady jsou u\u017e jen st\u00edn. "
        },
        {
            "chapter": 17,
            "verse": 8,
            "name": "Job 17:8",
            "text": "Poctiv\u00ed nad t\u00edm \u017easnou, nevinn\u00fd je pobou\u0159en rouha\u010dem. "
        },
        {
            "chapter": 17,
            "verse": 9,
            "name": "Job 17:9",
            "text": "Spravedliv\u00fd se v\u0161ak p\u0159idr\u017e\u00ed sv\u00e9 cesty, kdo m\u00e1 \u010dist\u00e9 ruce, bude je\u0161t\u011b odv\u00e1\u017en\u011bj\u0161\u00ed. "
        },
        {
            "chapter": 17,
            "verse": 10,
            "name": "Job 17:10",
            "text": "Vy v\u0161ichni, obra\u0165te se a pak p\u0159ij\u010fte, moudr\u00e9ho v\u0161ak mezi v\u00e1mi nenach\u00e1z\u00edm. "
        },
        {
            "chapter": 17,
            "verse": 11,
            "name": "Job 17:11",
            "text": "M\u00e9 dny pom\u00edjej\u00ed, moje z\u00e1m\u011bry se hat\u00ed, p\u0159\u00e1n\u00ed m\u00e9ho srdce ztroskotala. "
        },
        {
            "chapter": 17,
            "verse": 12,
            "name": "Job 17:12",
            "text": "Noc vyd\u00e1vaj\u00ed za den, mluv\u00ed o sv\u011btle, kde temnota je bl\u00edzko. "
        },
        {
            "chapter": 17,
            "verse": 13,
            "name": "Job 17:13",
            "text": "I kdybych m\u011bl nad\u011bji, podsv\u011bt\u00ed bude m\u00fdm domem, lo\u017ee si ustelu ve tm\u00e1ch. "
        },
        {
            "chapter": 17,
            "verse": 14,
            "name": "Job 17:14",
            "text": "J\u00e1m\u011b \u0159eknu: \u00bbTys m\u016fj otec\u00ab, \u010derv\u016fm: \u00bbMatko m\u00e1, m\u00e1 sestro.\u00ab "
        },
        {
            "chapter": 17,
            "verse": 15,
            "name": "Job 17:15",
            "text": "Kde m\u00e1m jakou nad\u011bji a spln\u011bn\u00ed m\u00e9 nad\u011bje kdo spat\u0159\u00ed? "
        },
        {
            "chapter": 17,
            "verse": 16,
            "name": "Job 17:16",
            "text": "Z\u00e1vory podsv\u011bt\u00ed zapadnou, a\u017e se spolu do prachu ulo\u017e\u00edme.\"  "
        }
    ]
}