{
    "translation": "Samaritan Pentateuch in English",
    "abbreviation": "spe",
    "lang": "en",
    "language": "English",
    "direction": "LTR",
    "encoding": "UTF-8",
    "book_nr": 13,
    "book_name": "1 Chronicles",
    "chapter": 17,
    "name": "1 Chronicles 17",
    "verses": [
        {
            "chapter": 17,
            "verse": 1,
            "name": "1 Chronicles 17:1",
            "text": ""
        },
        {
            "chapter": 17,
            "verse": 2,
            "name": "1 Chronicles 17:2",
            "text": ""
        },
        {
            "chapter": 17,
            "verse": 3,
            "name": "1 Chronicles 17:3",
            "text": ""
        },
        {
            "chapter": 17,
            "verse": 4,
            "name": "1 Chronicles 17:4",
            "text": ""
        },
        {
            "chapter": 17,
            "verse": 5,
            "name": "1 Chronicles 17:5",
            "text": ""
        },
        {
            "chapter": 17,
            "verse": 6,
            "name": "1 Chronicles 17:6",
            "text": ""
        },
        {
            "chapter": 17,
            "verse": 7,
            "name": "1 Chronicles 17:7",
            "text": ""
        },
        {
            "chapter": 17,
            "verse": 8,
            "name": "1 Chronicles 17:8",
            "text": ""
        },
        {
            "chapter": 17,
            "verse": 9,
            "name": "1 Chronicles 17:9",
            "text": ""
        },
        {
            "chapter": 17,
            "verse": 10,
            "name": "1 Chronicles 17:10",
            "text": ""
        },
        {
            "chapter": 17,
            "verse": 11,
            "name": "1 Chronicles 17:11",
            "text": ""
        },
        {
            "chapter": 17,
            "verse": 12,
            "name": "1 Chronicles 17:12",
            "text": ""
        },
        {
            "chapter": 17,
            "verse": 13,
            "name": "1 Chronicles 17:13",
            "text": ""
        },
        {
            "chapter": 17,
            "verse": 14,
            "name": "1 Chronicles 17:14",
            "text": ""
        },
        {
            "chapter": 17,
            "verse": 15,
            "name": "1 Chronicles 17:15",
            "text": ""
        },
        {
            "chapter": 17,
            "verse": 16,
            "name": "1 Chronicles 17:16",
            "text": ""
        },
        {
            "chapter": 17,
            "verse": 17,
            "name": "1 Chronicles 17:17",
            "text": ""
        },
        {
            "chapter": 17,
            "verse": 18,
            "name": "1 Chronicles 17:18",
            "text": ""
        },
        {
            "chapter": 17,
            "verse": 19,
            "name": "1 Chronicles 17:19",
            "text": ""
        },
        {
            "chapter": 17,
            "verse": 20,
            "name": "1 Chronicles 17:20",
            "text": ""
        },
        {
            "chapter": 17,
            "verse": 21,
            "name": "1 Chronicles 17:21",
            "text": ""
        },
        {
            "chapter": 17,
            "verse": 22,
            "name": "1 Chronicles 17:22",
            "text": ""
        },
        {
            "chapter": 17,
            "verse": 23,
            "name": "1 Chronicles 17:23",
            "text": ""
        },
        {
            "chapter": 17,
            "verse": 24,
            "name": "1 Chronicles 17:24",
            "text": ""
        },
        {
            "chapter": 17,
            "verse": 25,
            "name": "1 Chronicles 17:25",
            "text": ""
        },
        {
            "chapter": 17,
            "verse": 26,
            "name": "1 Chronicles 17:26",
            "text": ""
        },
        {
            "chapter": 17,
            "verse": 27,
            "name": "1 Chronicles 17:27",
            "text": ""
        }
    ]
}