{
    "translation": "Samaritan Pentateuch in English",
    "abbreviation": "spe",
    "lang": "en",
    "language": "English",
    "direction": "LTR",
    "encoding": "UTF-8",
    "book_nr": 13,
    "book_name": "1 Chronicles",
    "chapter": 29,
    "name": "1 Chronicles 29",
    "verses": [
        {
            "chapter": 29,
            "verse": 1,
            "name": "1 Chronicles 29:1",
            "text": ""
        },
        {
            "chapter": 29,
            "verse": 2,
            "name": "1 Chronicles 29:2",
            "text": ""
        },
        {
            "chapter": 29,
            "verse": 3,
            "name": "1 Chronicles 29:3",
            "text": ""
        },
        {
            "chapter": 29,
            "verse": 4,
            "name": "1 Chronicles 29:4",
            "text": ""
        },
        {
            "chapter": 29,
            "verse": 5,
            "name": "1 Chronicles 29:5",
            "text": ""
        },
        {
            "chapter": 29,
            "verse": 6,
            "name": "1 Chronicles 29:6",
            "text": ""
        },
        {
            "chapter": 29,
            "verse": 7,
            "name": "1 Chronicles 29:7",
            "text": ""
        },
        {
            "chapter": 29,
            "verse": 8,
            "name": "1 Chronicles 29:8",
            "text": ""
        },
        {
            "chapter": 29,
            "verse": 9,
            "name": "1 Chronicles 29:9",
            "text": ""
        },
        {
            "chapter": 29,
            "verse": 10,
            "name": "1 Chronicles 29:10",
            "text": ""
        },
        {
            "chapter": 29,
            "verse": 11,
            "name": "1 Chronicles 29:11",
            "text": ""
        },
        {
            "chapter": 29,
            "verse": 12,
            "name": "1 Chronicles 29:12",
            "text": ""
        },
        {
            "chapter": 29,
            "verse": 13,
            "name": "1 Chronicles 29:13",
            "text": ""
        },
        {
            "chapter": 29,
            "verse": 14,
            "name": "1 Chronicles 29:14",
            "text": ""
        },
        {
            "chapter": 29,
            "verse": 15,
            "name": "1 Chronicles 29:15",
            "text": ""
        },
        {
            "chapter": 29,
            "verse": 16,
            "name": "1 Chronicles 29:16",
            "text": ""
        },
        {
            "chapter": 29,
            "verse": 17,
            "name": "1 Chronicles 29:17",
            "text": ""
        },
        {
            "chapter": 29,
            "verse": 18,
            "name": "1 Chronicles 29:18",
            "text": ""
        },
        {
            "chapter": 29,
            "verse": 19,
            "name": "1 Chronicles 29:19",
            "text": ""
        },
        {
            "chapter": 29,
            "verse": 20,
            "name": "1 Chronicles 29:20",
            "text": ""
        },
        {
            "chapter": 29,
            "verse": 21,
            "name": "1 Chronicles 29:21",
            "text": ""
        },
        {
            "chapter": 29,
            "verse": 22,
            "name": "1 Chronicles 29:22",
            "text": ""
        },
        {
            "chapter": 29,
            "verse": 23,
            "name": "1 Chronicles 29:23",
            "text": ""
        },
        {
            "chapter": 29,
            "verse": 24,
            "name": "1 Chronicles 29:24",
            "text": ""
        },
        {
            "chapter": 29,
            "verse": 25,
            "name": "1 Chronicles 29:25",
            "text": ""
        },
        {
            "chapter": 29,
            "verse": 26,
            "name": "1 Chronicles 29:26",
            "text": ""
        },
        {
            "chapter": 29,
            "verse": 27,
            "name": "1 Chronicles 29:27",
            "text": ""
        },
        {
            "chapter": 29,
            "verse": 28,
            "name": "1 Chronicles 29:28",
            "text": ""
        },
        {
            "chapter": 29,
            "verse": 29,
            "name": "1 Chronicles 29:29",
            "text": ""
        },
        {
            "chapter": 29,
            "verse": 30,
            "name": "1 Chronicles 29:30",
            "text": ""
        }
    ]
}