{
    "translation": "Free version of New English Translation with limited notes",
    "abbreviation": "netfree",
    "lang": "en",
    "language": "English",
    "direction": "LTR",
    "encoding": "UTF-8",
    "book_nr": 19,
    "book_name": "Psalms",
    "chapter": 62,
    "name": "Psalms 62",
    "verses": [
        {
            "chapter": 62,
            "verse": 1,
            "name": "Psalms 62:1",
            "text": "For the music director, Jeduthun; a psalm of David.For God alone I patiently wait; he is the one who delivers me. "
        },
        {
            "chapter": 62,
            "verse": 2,
            "name": "Psalms 62:2",
            "text": "He alone is my protector and deliverer. He is my refuge; I will not be upended. "
        },
        {
            "chapter": 62,
            "verse": 3,
            "name": "Psalms 62:3",
            "text": "How long will you threaten a man? All of you are murderers, as dangerous as a leaning wall or an unstable fence. "
        },
        {
            "chapter": 62,
            "verse": 4,
            "name": "Psalms 62:4",
            "text": "They spend all their time planning how to bring him down. They love to use deceit; they pronounce blessings with their mouths, but inwardly they utter curses. (Selah) "
        },
        {
            "chapter": 62,
            "verse": 5,
            "name": "Psalms 62:5",
            "text": "Patiently wait for God alone, my soul! For he is the one who gives me confidence. "
        },
        {
            "chapter": 62,
            "verse": 6,
            "name": "Psalms 62:6",
            "text": "He alone is my protector and deliverer. He is my refuge; I will not be upended. "
        },
        {
            "chapter": 62,
            "verse": 7,
            "name": "Psalms 62:7",
            "text": "God delivers me and exalts me; God is my strong protector and my shelter. "
        },
        {
            "chapter": 62,
            "verse": 8,
            "name": "Psalms 62:8",
            "text": "Trust in him at all times, you people! Pour out your hearts before him! God is our shelter! (Selah) "
        },
        {
            "chapter": 62,
            "verse": 9,
            "name": "Psalms 62:9",
            "text": "Men are nothing but a mere breath; human beings are unreliable. When they are weighed in the scales, all of them together are lighter than air. "
        },
        {
            "chapter": 62,
            "verse": 10,
            "name": "Psalms 62:10",
            "text": "Do not trust in what you can gain by oppression! Do not put false confidence in what you can gain by robbery! If wealth increases, do not become attached to it! "
        },
        {
            "chapter": 62,
            "verse": 11,
            "name": "Psalms 62:11",
            "text": "God has declared one principle; two principles I have heard: God is strong, "
        },
        {
            "chapter": 62,
            "verse": 12,
            "name": "Psalms 62:12",
            "text": "and you, O Lord, demonstrate loyal love. For you repay men for what they do.  </div>"
        }
    ]
}