{
    "translation": "Sagradas Escrituras (1569)",
    "abbreviation": "sse",
    "lang": "es",
    "language": "Spanish",
    "direction": "LTR",
    "encoding": "",
    "book_nr": 19,
    "book_name": "Psalms",
    "chapter": 127,
    "name": "Psalms 127",
    "verses": [
        {
            "chapter": 127,
            "verse": 1,
            "name": "Psalms 127:1",
            "text": "Canci\u00f3n de las gradas: para Salom\u00f3n. Si el SE\u00d1OR no edificare la casa, en vano trabajan los que la edifican; si el SE\u00d1OR no guardare la ciudad, en vano vela la guardia."
        },
        {
            "chapter": 127,
            "verse": 2,
            "name": "Psalms 127:2",
            "text": "Por dem\u00e1s os <FI>es<Fi> el madrugar a levantaros, el veniros tarde a reposar, el comer pan de dolores; pues que a su amado dar\u00e1 <FI>Dios<Fi> el sue\u00f1o."
        },
        {
            "chapter": 127,
            "verse": 3,
            "name": "Psalms 127:3",
            "text": "He aqu\u00ed, heredad del SE\u00d1OR <FI>son<Fi> los hijos; cosa de estima el fruto del vientre."
        },
        {
            "chapter": 127,
            "verse": 4,
            "name": "Psalms 127:4",
            "text": "Como saetas en mano del valiente, as\u00ed <FI>son<Fi> los hijos mancebos."
        },
        {
            "chapter": 127,
            "verse": 5,
            "name": "Psalms 127:5",
            "text": "Dichoso el var\u00f3n que llen\u00f3 su aljaba de ellos; no ser\u00e1 avergonzado cuando hablare con los enemigos en la puerta."
        }
    ]
}