{
    "translation": "Sagradas Escrituras (1569)",
    "abbreviation": "sse",
    "lang": "es",
    "language": "Spanish",
    "direction": "LTR",
    "encoding": "",
    "book_nr": 19,
    "book_name": "Psalms",
    "chapter": 27,
    "name": "Psalms 27",
    "verses": [
        {
            "chapter": 27,
            "verse": 1,
            "name": "Psalms 27:1",
            "text": "De David. El SE\u00d1OR <FI>es<Fi> mi luz y mi salvaci\u00f3n, \u00bfde qui\u00e9n temer\u00e9? El SE\u00d1OR <FI>es<Fi> la fortaleza de mi vida, \u00bfde qui\u00e9n he de atemorizarme?"
        },
        {
            "chapter": 27,
            "verse": 2,
            "name": "Psalms 27:2",
            "text": "Cuando se allegaron contra m\u00ed los malignos, mis angustiadores y mis enemigos, para comer mis carnes, ellos tropezaron y cayeron."
        },
        {
            "chapter": 27,
            "verse": 3,
            "name": "Psalms 27:3",
            "text": "Aunque se asiente campamento contra m\u00ed, no temer\u00e1 mi coraz\u00f3n; aunque contra m\u00ed se levante guerra, yo en esto conf\u00edo."
        },
        {
            "chapter": 27,
            "verse": 4,
            "name": "Psalms 27:4",
            "text": "Una cosa he demandado al SE\u00d1OR, \u00e9sta buscar\u00e9; que est\u00e9 <FI>yo<Fi> en la Casa del SE\u00d1OR todos los d\u00edas de mi vida, para contemplar la hermosura del SE\u00d1OR, y para inquirir en su templo."
        },
        {
            "chapter": 27,
            "verse": 5,
            "name": "Psalms 27:5",
            "text": "Porque <FI>\u00e9l<Fi> me esconder\u00e1 en su tabern\u00e1culo en el d\u00eda del mal; me esconder\u00e1 en el escondrijo de su tienda; en roca me pondr\u00e1 alto."
        },
        {
            "chapter": 27,
            "verse": 6,
            "name": "Psalms 27:6",
            "text": "Y luego ensalzar\u00e1 mi cabeza sobre mis enemigos en derredor m\u00edo; y yo sacrificar\u00e9 en su tabern\u00e1culo sacrificios de j\u00fabilo; cantar\u00e9 y salmear\u00e9 al SE\u00d1OR."
        },
        {
            "chapter": 27,
            "verse": 7,
            "name": "Psalms 27:7",
            "text": "Oye, oh SE\u00d1OR, mi voz <FI>con que a ti<Fi> llamo; ten misericordia de m\u00ed, y resp\u00f3ndeme."
        },
        {
            "chapter": 27,
            "verse": 8,
            "name": "Psalms 27:8",
            "text": "Mi coraz\u00f3n <FI>me<Fi> ha dicho de ti: Buscad mi rostro. Tu rostro buscar\u00e9, oh SE\u00d1OR."
        },
        {
            "chapter": 27,
            "verse": 9,
            "name": "Psalms 27:9",
            "text": "No escondas tu rostro de m\u00ed, no apartes con ira a tu siervo; mi ayuda has sido; no me dejes y no me desampares, Dios de mi salud."
        },
        {
            "chapter": 27,
            "verse": 10,
            "name": "Psalms 27:10",
            "text": "Porque mi padre y mi madre me dejaron, y el SE\u00d1OR me recogi\u00f3."
        },
        {
            "chapter": 27,
            "verse": 11,
            "name": "Psalms 27:11",
            "text": "Ens\u00e9\u00f1ame, oh SE\u00d1OR, tu camino, y gu\u00edame por senda de rectitud, a causa de mis enemigos."
        },
        {
            "chapter": 27,
            "verse": 12,
            "name": "Psalms 27:12",
            "text": "No me entregues a la voluntad de mis enemigos; porque se han levantado contra m\u00ed testigos falsos, y quien habla calumnia."
        },
        {
            "chapter": 27,
            "verse": 13,
            "name": "Psalms 27:13",
            "text": "<FI> Hubiera yo desmayado<Fi> , si no creyese que tengo de ver la bondad del SE\u00d1OR en la tierra de los vivientes."
        },
        {
            "chapter": 27,
            "verse": 14,
            "name": "Psalms 27:14",
            "text": "Aguarda al SE\u00d1OR; esfu\u00e9rzate, y ali\u00e9ntese tu coraz\u00f3n; s\u00ed, espera al SE\u00d1OR."
        }
    ]
}