{
    "translation": "NT (1987 1994)",
    "abbreviation": "tnt",
    "lang": "grc",
    "language": "Greek",
    "direction": "LTR",
    "encoding": "UTF-8",
    "book_nr": 44,
    "book_name": "Acts",
    "chapter": 1,
    "name": "Acts 1",
    "verses": [
        {
            "chapter": 1,
            "verse": 1,
            "name": "Acts 1:1",
            "text": "  \u03a4\u1f78\u03bd \u03bc\u1f72\u03bd \u03c0\u03c1\u1ff6\u03c4\u03bf\u03bd \u03bb\u03cc\u03b3\u03bf\u03bd \u1f10\u03c0\u03bf\u03b9\u03b7\u03c3\u03ac\u03bc\u03b7\u03bd \u03c0\u03b5\u03c1\u1f76 \u03c0\u03ac\u03bd\u03c4\u03c9\u03bd \u1f66 \u0398\u03b5\u03cc\u03c6\u03b9\u03bb\u03b5, \u1f67\u03bd \u1f24\u03c1\u03be\u03b1\u03c4\u03bf \u1f38\u03b7\u03c3\u03bf\u1fe6\u03c2 \u03c0\u03bf\u03b9\u03b5\u1fd6\u03bd \u03c4\u03b5 \u03ba\u03b1\u1f76 \u03b4\u03b9\u03b4\u03ac\u03c3\u03ba\u03b5\u03b9\u03bd"
        },
        {
            "chapter": 1,
            "verse": 2,
            "name": "Acts 1:2",
            "text": "\u1f04\u03c7\u03c1\u03b9 \u1f27\u03c2 \u1f21\u03bc\u03ad\u03c1\u03b1\u03c2 \u1f10\u03bd\u03c4\u03b5\u03b9\u03bb\u03ac\u03bc\u03b5\u03bd\u03bf\u03c2 \u03c4\u03bf\u1fd6\u03c2 \u1f00\u03c0\u03bf\u03c3\u03c4\u03cc\u03bb\u03bf\u03b9\u03c2 \u03b4\u03b9\u1f70 \u03c0\u03bd\u03b5\u03cd\u03bc\u03b1\u03c4\u03bf\u03c2 \u1f01\u03b3\u03af\u03bf\u03c5, \u03bf\u1f53\u03c2 \u1f10\u03be\u03b5\u03bb\u03ad\u03be\u03b1\u03c4\u03bf, \u1f00\u03bd\u03b5\u03bb\u03ae\u03bc\u03c6\u03b8\u03b7."
        },
        {
            "chapter": 1,
            "verse": 3,
            "name": "Acts 1:3",
            "text": "\u03bf\u1f37\u03c2 \u03ba\u03b1\u1f76 \u03c0\u03b1\u03c1\u03ad\u03c3\u03c4\u03b7\u03c3\u03b5\u03bd \u1f11\u03b1\u03c5\u03c4\u1f78\u03bd \u03b6\u1ff6\u03bd\u03c4\u03b1 \u03bc\u03b5\u03c4\u1f70 \u03c4\u1f78 \u03c0\u03b1\u03b8\u03b5\u1fd6\u03bd \u03b1\u1f50\u03c4\u1f78\u03bd \u1f10\u03bd \u03c0\u03bf\u03bb\u03bb\u03bf\u1fd6\u03c2 \u03c4\u03b5\u03ba\u03bc\u03b7\u03c1\u03af\u03bf\u03b9\u03c2, \u03b4\u03b9\u1fbd \u1f21\u03bc\u03b5\u03c1\u1ff6\u03bd \u03c4\u03b5\u03c3\u03c3\u03b5\u03c1\u03ac\u03ba\u03bf\u03bd\u03c4\u03b1 \u1f40\u03c0\u03c4\u03b1\u03bd\u03cc\u03bc\u03b5\u03bd\u03bf\u03c2 \u03b1\u1f50\u03c4\u03bf\u1fd6\u03c2, \u03ba\u03b1\u1f76 \u03bb\u03ad\u03b3\u03c9\u03bd \u03c4\u1f70 \u03c0\u03b5\u03c1\u1f76 \u03c4\u1fc6\u03c2 \u03b2\u03b1\u03c3\u03b9\u03bb\u03b5\u03af\u03b1\u03c2 \u03c4\u03bf\u1fe6 \u03b8\u03b5\u03bf\u1fe6."
        },
        {
            "chapter": 1,
            "verse": 4,
            "name": "Acts 1:4",
            "text": "\u03ba\u03b1\u1f76 \u03c3\u03c5\u03bd\u03b1\u03bb\u03b9\u03b6\u03cc\u03bc\u03b5\u03bd\u03bf\u03c2 \u03c0\u03b1\u03c1\u03ae\u03b3\u03b3\u03b5\u03b9\u03bb\u03b5\u03bd \u03b1\u1f50\u03c4\u03bf\u1fd6\u03c2 \u1f00\u03c0\u1f78 \u1f39\u03b5\u03c1\u03bf\u03c3\u03bf\u03bb\u03cd\u03bc\u03c9\u03bd \u03bc\u1f74 \u03c7\u03c9\u03c1\u03af\u03b6\u03b5\u03c3\u03b8\u03b1\u03b9, \u1f00\u03bb\u03bb\u1f70 \u03c0\u03b5\u03c1\u03b9\u03bc\u03ad\u03bd\u03b5\u03b9\u03bd \u03c4\u1f74\u03bd \u1f10\u03c0\u03b1\u03b3\u03b3\u03b5\u03bb\u03af\u03b1\u03bd \u03c4\u03bf\u1fe6 \u03c0\u03b1\u03c4\u03c1\u03cc\u03c2, \u1f23\u03bd \u1f20\u03ba\u03bf\u03cd\u03c3\u03b1\u03c4\u03ad \u03bc\u03bf\u03c5\u00b7"
        },
        {
            "chapter": 1,
            "verse": 5,
            "name": "Acts 1:5",
            "text": "\u1f45\u03c4\u03b9 \u1f38\u03c9\u03ac\u03bd\u03b7\u03c2 \u03bc\u1f72\u03bd \u1f10\u03b2\u03ac\u03c0\u03c4\u03b9\u03c3\u03b5\u03bd \u1f55\u03b4\u03b1\u03c4\u03b9, \u1f51\u03bc\u03b5\u1fd6\u03c2 \u03b4\u1f72 \u1f10\u03bd \u03c0\u03bd\u03b5\u03cd\u03bc\u03b1\u03c4\u03b9 \u03b2\u03b1\u03c0\u03c4\u03b9\u03c3\u03b8\u03ae\u03c3\u03b5\u03c3\u03b8\u03b5 \u1f01\u03b3\u03af\u1ff3, \u03bf\u1f50 \u03bc\u03b5\u03c4\u1f70 \u03c0\u03bf\u03bb\u03bb\u1f70\u03c2 \u03c4\u03b1\u03cd\u03c4\u03b1\u03c2 \u1f21\u03bc\u03ad\u03c1\u03b1\u03c2."
        },
        {
            "chapter": 1,
            "verse": 6,
            "name": "Acts 1:6",
            "text": "\u03bf\u1f31 \u03bc\u1f72\u03bd \u03bf\u1f56\u03bd \u03c3\u03c5\u03bd\u03b5\u03bb\u03b8\u03cc\u03bd\u03c4\u03b5\u03c2 \u1f20\u03c1\u03ce\u03c4\u03c9\u03bd \u03b1\u1f50\u03c4\u1f78\u03bd \u03bb\u03ad\u03b3\u03bf\u03bd\u03c4\u03b5\u03c2, \u039a\u03cd\u03c1\u03b9\u03b5, \u03b5\u1f30 \u1f10\u03bd \u03c4\u1ff7 \u03c7\u03c1\u03cc\u03bd\u1ff3 \u03c4\u03bf\u03cd\u03c4\u1ff3 \u1f00\u03c0\u03bf\u03ba\u03b1\u03b8\u03b9\u03c3\u03c4\u03ac\u03bd\u03b5\u03b9\u03c2 \u03c4\u1f74\u03bd \u03b2\u03b1\u03c3\u03b9\u03bb\u03b5\u03af\u03b1\u03bd \u03c4\u1ff7 \u1f38\u03c3\u03c1\u03b1\u03ae\u03bb;"
        },
        {
            "chapter": 1,
            "verse": 7,
            "name": "Acts 1:7",
            "text": "\u03b5\u1f36\u03c0\u03b5\u03bd \u03c0\u03c1\u1f78\u03c2 \u03b1\u1f50\u03c4\u03bf\u03cd\u03c2, \u039f\u1f50\u03c7 \u1f51\u03bc\u1ff6\u03bd \u1f10\u03c3\u03c4\u03b9\u03bd \u03b3\u03bd\u1ff6\u03bd\u03b1\u03b9 \u03c7\u03c1\u03cc\u03bd\u03bf\u03c5\u03c2 \u1f22 \u03ba\u03b1\u03b9\u03c1\u03bf\u1f7a\u03c2 \u03bf\u1f53\u03c2 \u1f41 \u03c0\u03b1\u03c4\u1f74\u03c1 \u1f14\u03b8\u03b5\u03c4\u03bf \u1f10\u03bd \u03c4\u1fc7 \u1f30\u03b4\u03af\u1fb3 \u1f10\u03be\u03bf\u03c5\u03c3\u03af\u1fb3,"
        },
        {
            "chapter": 1,
            "verse": 8,
            "name": "Acts 1:8",
            "text": "\u1f00\u03bb\u03bb\u1f70 \u03bb\u03ae\u03bc\u03c8\u03b5\u03c3\u03b8\u03b5 \u03b4\u03cd\u03bd\u03b1\u03bc\u03b9\u03bd \u1f10\u03c0\u03b5\u03bb\u03b8\u03cc\u03bd\u03c4\u03bf\u03c2 \u03c4\u03bf\u1fe6 \u1f01\u03b3\u03af\u03bf\u03c5 \u03c0\u03bd\u03b5\u03cd\u03bc\u03b1\u03c4\u03bf\u03c2 \u1f10\u03c6\u1fbd \u1f51\u03bc\u1fb6\u03c2, \u03ba\u03b1\u1f76 \u1f14\u03c3\u03b5\u03c3\u03b8\u03ad \u03bc\u03bf\u03c5 \u03bc\u03ac\u03c1\u03c4\u03c5\u03c1\u03b5\u03c2 \u1f14\u03bd \u03c4\u03b5 \u1f39\u03b5\u03c1\u03bf\u03c5\u03c3\u03b1\u03bb\u1f74\u03bc \u03ba\u03b1\u1f76 [\u1f10\u03bd] \u03c0\u03ac\u03c3\u1fc3 \u03c4\u1fc7 \u1f38\u03bf\u03c5\u03b4\u03b1\u03af\u1fb3 \u03ba\u03b1\u1f76 \u03a3\u03b1\u03bc\u03b1\u03c1\u03b5\u03af\u1fb3 \u03ba\u03b1\u1f76 \u1f15\u03c9\u03c2 \u1f10\u03c3\u03c7\u03ac\u03c4\u03bf\u03c5 \u03c4\u1fc6\u03c2 \u03b3\u1fc6\u03c2."
        },
        {
            "chapter": 1,
            "verse": 9,
            "name": "Acts 1:9",
            "text": "\u03ba\u03b1\u1f76 \u03c4\u03b1\u1fe6\u03c4\u03b1 \u03b5\u1f30\u03c0\u1f7c\u03bd \u03b2\u03bb\u03b5\u03c0\u03cc\u03bd\u03c4\u03c9\u03bd \u03b1\u1f50\u03c4\u1ff6\u03bd \u1f10\u03c0\u03ae\u03c1\u03b8\u03b7, \u03ba\u03b1\u1f76 \u03bd\u03b5\u03c6\u03ad\u03bb\u03b7 \u1f51\u03c0\u03ad\u03bb\u03b1\u03b2\u03b5\u03bd \u03b1\u1f50\u03c4\u1f78\u03bd \u1f00\u03c0\u1f78 \u03c4\u1ff6\u03bd \u1f40\u03c6\u03b8\u03b1\u03bb\u03bc\u1ff6\u03bd \u03b1\u1f50\u03c4\u1ff6\u03bd."
        },
        {
            "chapter": 1,
            "verse": 10,
            "name": "Acts 1:10",
            "text": "\u03ba\u03b1\u1f76 \u1f61\u03c2 \u1f00\u03c4\u03b5\u03bd\u03af\u03b6\u03bf\u03bd\u03c4\u03b5\u03c2 \u1f26\u03c3\u03b1\u03bd \u03b5\u1f30\u03c2 \u03c4\u1f78\u03bd \u03bf\u1f50\u03c1\u03b1\u03bd\u1f78\u03bd \u03c0\u03bf\u03c1\u03b5\u03c5\u03bf\u03bc\u03ad\u03bd\u03bf\u03c5 \u03b1\u1f50\u03c4\u03bf\u1fe6, \u03ba\u03b1\u1f76 \u1f30\u03b4\u03bf\u1f7a \u1f04\u03bd\u03b4\u03c1\u03b5\u03c2 \u03b4\u03cd\u03bf \u03c0\u03b1\u03c1\u03b5\u03b9\u03c3\u03c4\u03ae\u03ba\u03b5\u03b9\u03c3\u03b1\u03bd \u03b1\u1f50\u03c4\u03bf\u1fd6\u03c2 \u1f10\u03bd \u1f10\u03c3\u03b8\u03ae\u03c3\u03b5\u03c3\u03b9 \u03bb\u03b5\u03c5\u03ba\u03b1\u1fd6\u03c2,"
        },
        {
            "chapter": 1,
            "verse": 11,
            "name": "Acts 1:11",
            "text": "\u03bf\u1f33 \u03ba\u03b1\u1f76 \u03b5\u1f36\u03c0\u03b1\u03bd, \u1f0c\u03bd\u03b4\u03c1\u03b5\u03c2 \u0393\u03b1\u03bb\u03b9\u03bb\u03b1\u1fd6\u03bf\u03b9, \u03c4\u03af \u1f11\u03c3\u03c4\u03ae\u03ba\u03b1\u03c4\u03b5 \u03b2\u03bb\u03ad\u03c0\u03bf\u03bd\u03c4\u03b5\u03c2 \u03b5\u1f30\u03c2 \u03c4\u1f78\u03bd \u03bf\u1f50\u03c1\u03b1\u03bd\u03cc\u03bd; \u03bf\u1f57\u03c4\u03bf\u03c2 \u1f41 \u1f38\u03b7\u03c3\u03bf\u1fe6\u03c2 \u1f41 \u1f00\u03bd\u03b1\u03bb\u03b7\u03bc\u03c6\u03b8\u03b5\u1f76\u03c2 \u1f00\u03c6\u1fbd \u1f51\u03bc\u1ff6\u03bd \u03b5\u1f30\u03c2 \u03c4\u1f78\u03bd \u03bf\u1f50\u03c1\u03b1\u03bd\u1f78\u03bd \u03bf\u1f55\u03c4\u03c9\u03c2 \u1f10\u03bb\u03b5\u03cd\u03c3\u03b5\u03c4\u03b1\u03b9 \u1f43\u03bd \u03c4\u03c1\u03cc\u03c0\u03bf\u03bd \u1f10\u03b8\u03b5\u03ac\u03c3\u03b1\u03c3\u03b8\u03b5 \u03b1\u1f50\u03c4\u1f78\u03bd \u03c0\u03bf\u03c1\u03b5\u03c5\u03cc\u03bc\u03b5\u03bd\u03bf\u03bd \u03b5\u1f30\u03c2 \u03c4\u1f78\u03bd \u03bf\u1f50\u03c1\u03b1\u03bd\u03cc\u03bd."
        },
        {
            "chapter": 1,
            "verse": 12,
            "name": "Acts 1:12",
            "text": "\u03c4\u03cc\u03c4\u03b5 \u1f51\u03c0\u03ad\u03c3\u03c4\u03c1\u03b5\u03c8\u03b1\u03bd \u03b5\u1f30\u03c2 \u1f39\u03b5\u03c1\u03bf\u03c5\u03c3\u03b1\u03bb\u1f74\u03bc \u1f00\u03c0\u1f78 \u1f44\u03c1\u03bf\u03c5\u03c2 \u03c4\u03bf\u1fe6 \u03ba\u03b1\u03bb\u03bf\u03c5\u03bc\u03ad\u03bd\u03bf\u03c5 \u1f18\u03bb\u03b1\u03b9\u1ff6\u03bd\u03bf\u03c2, \u1f45 \u1f10\u03c3\u03c4\u03b9\u03bd \u1f10\u03b3\u03b3\u1f7a\u03c2 \u1f39\u03b5\u03c1\u03bf\u03c5\u03c3\u03b1\u03bb\u03ae\u03bc, \u03c3\u03b1\u03b2\u03b2\u03ac\u03c4\u03bf\u03c5 \u1f14\u03c7\u03bf\u03bd \u1f41\u03b4\u03cc\u03bd."
        },
        {
            "chapter": 1,
            "verse": 13,
            "name": "Acts 1:13",
            "text": "\u03ba\u03b1\u1f76 \u1f45\u03c4\u03b5 \u03b5\u1f30\u03c3\u1fc6\u03bb\u03b8\u03bf\u03bd, \u03b5\u1f30\u03c2 \u03c4\u1f78 \u1f51\u03c0\u03b5\u03c1\u1ff7\u03bf\u03bd \u1f00\u03bd\u03ad\u03b2\u03b7\u03c3\u03b1\u03bd, \u03bf\u1f57 \u1f26\u03c3\u03b1\u03bd \u03ba\u03b1\u03c4\u03b1\u03bc\u03ad\u03bd\u03bf\u03bd\u03c4\u03b5\u03c2, \u1f45 \u03c4\u03b5 \u03a0\u03ad\u03c4\u03c1\u03bf\u03c2 \u03ba\u03b1\u1f76 \u1f38\u03c9\u03ac\u03bd\u03b7\u03c2 \u03ba\u03b1\u1f76 \u1f38\u03ac\u03ba\u03c9\u03b2\u03bf\u03c2 \u03ba\u03b1\u1f76 \u1f08\u03bd\u03b4\u03c1\u03ad\u03b1\u03c2, \u03a6\u03af\u03bb\u03b9\u03c0\u03c0\u03bf\u03c2 \u03ba\u03b1\u1f76 \u0398\u03c9\u03bc\u1fb6\u03c2, \u0392\u03b1\u03c1\u03b8\u03bf\u03bb\u03bf\u03bc\u03b1\u1fd6\u03bf\u03c2 \u03ba\u03b1\u1f76 \u039c\u03b1\u03b8\u03b8\u03b1\u1fd6\u03bf\u03c2, \u1f38\u03ac\u03ba\u03c9\u03b2\u03bf\u03c2 \u1f08\u03bb\u03c6\u03b1\u03af\u03bf\u03c5 \u03ba\u03b1\u1f76 \u03a3\u03af\u03bc\u03c9\u03bd \u1f41 \u0396\u03b7\u03bb\u03c9\u03c4\u03ae\u03c2, \u03ba\u03b1\u1f76 \u1f38\u03bf\u03cd\u03b4\u03b1\u03c2 \u1f38\u03b1\u03ba\u03ce\u03b2\u03bf\u03c5."
        },
        {
            "chapter": 1,
            "verse": 14,
            "name": "Acts 1:14",
            "text": "\u03bf\u1f57\u03c4\u03bf\u03b9 \u03c0\u03ac\u03bd\u03c4\u03b5\u03c2 \u1f26\u03c3\u03b1\u03bd \u03c0\u03c1\u03bf\u03c3\u03ba\u03b1\u03c1\u03c4\u03b5\u03c1\u03bf\u1fe6\u03bd\u03c4\u03b5\u03c2 \u1f41\u03bc\u03bf\u03b8\u03c5\u03bc\u03b1\u03b4\u1f78\u03bd \u03c4\u1fc7 \u03c0\u03c1\u03bf\u03c3\u03b5\u03c5\u03c7\u1fc7 \u03c3\u1f7a\u03bd \u03b3\u03c5\u03bd\u03b1\u03b9\u03be\u1f76\u03bd \u03ba\u03b1\u1f76 \u039c\u03b1\u03c1\u03b9\u1f70\u03bc \u03c4\u1fc7 \u03bc\u03b7\u03c4\u03c1\u1f76 \u03c4\u03bf\u1fe6 \u1f38\u03b7\u03c3\u03bf\u1fe6, \u03ba\u03b1\u1f76 [\u03c3\u1f7a\u03bd] \u03c4\u03bf\u1fd6\u03c2 \u1f00\u03b4\u03b5\u03bb\u03c6\u03bf\u1fd6\u03c2 \u03b1\u1f50\u03c4\u03bf\u1fe6. "
        },
        {
            "chapter": 1,
            "verse": 15,
            "name": "Acts 1:15",
            "text": " \u039a\u03b1\u1f76 \u1f10\u03bd \u03c4\u03b1\u1fd6\u03c2 \u1f21\u03bc\u03ad\u03c1\u03b1\u03b9\u03c2 \u03c4\u03b1\u03cd\u03c4\u03b1\u03b9\u03c2 \u1f00\u03bd\u03b1\u03c3\u03c4\u1f70\u03c2 \u03a0\u03ad\u03c4\u03c1\u03bf\u03c2 \u1f10\u03bd \u03bc\u03ad\u03c3\u1ff3 \u03c4\u1ff6\u03bd \u1f00\u03b4\u03b5\u03bb\u03c6\u1ff6\u03bd \u03b5\u1f36\u03c0\u03b5\u03bd\u00b7 (\u1f26\u03bd \u03c4\u03b5 \u1f44\u03c7\u03bb\u03bf\u03c2 \u1f40\u03bd\u03bf\u03bc\u03ac\u03c4\u03c9\u03bd \u1f10\u03c0\u1f76 \u03c4\u1f78 \u03b1\u1f50\u03c4\u1f78 \u1f61\u03c2 \u1f11\u03ba\u03b1\u03c4\u1f78\u03bd \u03b5\u1f34\u03ba\u03bf\u03c3\u03b9\u03bd\u00b7)"
        },
        {
            "chapter": 1,
            "verse": 16,
            "name": "Acts 1:16",
            "text": "\u1f0c\u03bd\u03b4\u03c1\u03b5\u03c2 \u1f00\u03b4\u03b5\u03bb\u03c6\u03bf\u03af, \u1f14\u03b4\u03b5\u03b9 \u03c0\u03bb\u03b7\u03c1\u03c9\u03b8\u1fc6\u03bd\u03b1\u03b9 \u03c4\u1f74\u03bd \u03b3\u03c1\u03b1\u03c6\u1f74\u03bd \u1f23\u03bd \u03c0\u03c1\u03bf\u03b5\u1fd6\u03c0\u03b5\u03bd \u03c4\u1f78 \u03c0\u03bd\u03b5\u1fe6\u03bc\u03b1 \u03c4\u1f78 \u1f05\u03b3\u03b9\u03bf\u03bd \u03b4\u03b9\u1f70 \u03c3\u03c4\u03cc\u03bc\u03b1\u03c4\u03bf\u03c2 \u0394\u03b1\u03c5\u03b5\u1f76\u03b4 \u03c0\u03b5\u03c1\u1f76 \u1f38\u03bf\u03cd\u03b4\u03b1 \u03c4\u03bf\u1fe6 \u03b3\u03b5\u03bd\u03bf\u03bc\u03ad\u03bd\u03bf\u03c5 \u1f41\u03b4\u03b7\u03b3\u03bf\u1fe6 \u03c4\u03bf\u1fd6\u03c2 \u03c3\u03c5\u03bb\u03bb\u03b1\u03b2\u03bf\u1fe6\u03c3\u03b9\u03bd \u1f38\u03b7\u03c3\u03bf\u1fe6\u03bd\u00b7"
        },
        {
            "chapter": 1,
            "verse": 17,
            "name": "Acts 1:17",
            "text": "\u1f45\u03c4\u03b9 \u03ba\u03b1\u03c4\u03b7\u03c1\u03b9\u03b8\u03bc\u03b7\u03bc\u03ad\u03bd\u03bf\u03c2 \u1f26\u03bd \u1f10\u03bd \u1f21\u03bc\u1fd6\u03bd, \u03ba\u03b1\u1f76 \u1f14\u03bb\u03b1\u03c7\u03b5\u03bd \u03c4\u1f78\u03bd \u03ba\u03bb\u1fc6\u03c1\u03bf\u03bd \u03c4\u1fc6\u03c2 \u03b4\u03b9\u03b1\u03ba\u03bf\u03bd\u03af\u03b1\u03c2 \u03c4\u03b1\u03cd\u03c4\u03b7\u03c2."
        },
        {
            "chapter": 1,
            "verse": 18,
            "name": "Acts 1:18",
            "text": "\u03bf\u1f57\u03c4\u03bf\u03c2 \u03bc\u1f72\u03bd \u03bf\u1f56\u03bd \u1f10\u03ba\u03c4\u03ae\u03c3\u03b1\u03c4\u03bf \u03c7\u03c9\u03c1\u03af\u03bf\u03bd \u1f10\u03ba \u03bc\u03b9\u03c3\u03b8\u03bf\u1fe6 \u03c4\u1fc6\u03c2 \u1f00\u03b4\u03b9\u03ba\u03af\u03b1\u03c2, \u03ba\u03b1\u1f76 \u03c0\u03c1\u03b7\u03bd\u1f74\u03c2 \u03b3\u03b5\u03bd\u03cc\u03bc\u03b5\u03bd\u03bf\u03c2 \u1f10\u03bb\u03ac\u03ba\u03b7\u03c3\u03b5\u03bd \u03bc\u03ad\u03c3\u03bf\u03c2, \u03ba\u03b1\u1f76 \u1f10\u03be\u03b5\u03c7\u03cd\u03b8\u03b7 \u03c0\u03ac\u03bd\u03c4\u03b1 \u03c4\u1f70 \u03c3\u03c0\u03bb\u03ac\u03b3\u03c7\u03bd\u03b1 \u03b1\u1f50\u03c4\u03bf\u1fe6,"
        },
        {
            "chapter": 1,
            "verse": 19,
            "name": "Acts 1:19",
            "text": "\u03ba\u03b1\u1f76 \u03b3\u03bd\u03c9\u03c3\u03c4\u1f78\u03bd \u1f10\u03b3\u03ad\u03bd\u03b5\u03c4\u03bf \u03c0\u1fb6\u03c3\u03b9\u03bd \u03c4\u03bf\u1fd6\u03c2 \u03ba\u03b1\u03c4\u03bf\u03b9\u03ba\u03bf\u1fe6\u03c3\u03b9\u03bd \u1f39\u03b5\u03c1\u03bf\u03c5\u03c3\u03b1\u03bb\u03ae\u03bc, \u1f65\u03c3\u03c4\u03b5 \u03ba\u03bb\u03b7\u03b8\u1fc6\u03bd\u03b1\u03b9 \u03c4\u1f78 \u03c7\u03c9\u03c1\u03af\u03bf\u03bd \u1f10\u03ba\u03b5\u1fd6\u03bd\u03bf \u03c4\u1fc7 [\u1f30\u03b4\u03af\u1fb3] \u03b4\u03b9\u03b1\u03bb\u03ad\u03ba\u03c4\u1ff3 \u03b1\u1f50\u03c4\u1ff6\u03bd \u1f08\u03c7\u03b5\u03bb\u03b4\u03b1\u03bc\u03ac\u03c7 \u03c4\u03bf\u1fe6\u03c4\u1fbd \u1f14\u03c3\u03c4\u03b9\u03bd \u03c7\u03c9\u03c1\u03af\u03bf\u03bd \u03b1\u1f35\u03bc\u03b1\u03c4\u03bf\u03c2."
        },
        {
            "chapter": 1,
            "verse": 20,
            "name": "Acts 1:20",
            "text": "\u03b3\u03ad\u03b3\u03c1\u03b1\u03c0\u03c4\u03b1\u03b9 \u03b3\u1f70\u03c1 \u1f10\u03bd \u03b2\u03af\u03b2\u03bb\u1ff3 \u03a8\u03b1\u03bb\u03bc\u1ff6\u03bd, \u0393\u03b5\u03bd\u03b7\u03b8\u03ae\u03c4\u03c9 \u1f21 \u1f14\u03c0\u03b1\u03c5\u03bb\u03b9\u03c2 \u03b1\u1f50\u03c4\u03bf\u1fe6 \u1f14\u03c1\u03b7\u03bc\u03bf\u03c2, \u03ba\u03b1\u1f76 \u03bc\u1f74 \u1f14\u03c3\u03c4\u03c9 \u1f41 \u03ba\u03b1\u03c4\u03bf\u03b9\u03ba\u1ff6\u03bd \u1f10\u03bd \u03b1\u1f50\u03c4\u1fc7, \u03ba\u03b1\u03af, \u03a4\u1f74\u03bd \u1f10\u03c0\u03b9\u03c3\u03ba\u03bf\u03c0\u1f74\u03bd \u03b1\u1f50\u03c4\u03bf\u1fe6 \u03bb\u03b1\u03b2\u03ad\u03c4\u03c9 \u1f15\u03c4\u03b5\u03c1\u03bf\u03c2."
        },
        {
            "chapter": 1,
            "verse": 21,
            "name": "Acts 1:21",
            "text": "\u03b4\u03b5\u1fd6 \u03bf\u1f56\u03bd \u03c4\u1ff6\u03bd \u03c3\u03c5\u03bd\u03b5\u03bb\u03b8\u03cc\u03bd\u03c4\u03c9\u03bd \u1f21\u03bc\u1fd6\u03bd \u1f00\u03bd\u03b4\u03c1\u1ff6\u03bd \u1f10\u03bd \u03c0\u03b1\u03bd\u03c4\u1f76 \u03c7\u03c1\u03cc\u03bd\u1ff3 \u1fa7 \u03b5\u1f30\u03c3\u1fc6\u03bb\u03b8\u03b5\u03bd \u03ba\u03b1\u1f76 \u1f10\u03be\u1fc6\u03bb\u03b8\u03b5\u03bd \u1f10\u03c6\u1fbd \u1f21\u03bc\u1fb6\u03c2 \u1f41 \u03ba\u03cd\u03c1\u03b9\u03bf\u03c2 \u1f38\u03b7\u03c3\u03bf\u1fe6\u03c2,"
        },
        {
            "chapter": 1,
            "verse": 22,
            "name": "Acts 1:22",
            "text": "\u1f00\u03c1\u03be\u03ac\u03bc\u03b5\u03bd\u03bf\u03c2 \u1f00\u03c0\u1f78 \u03c4\u03bf\u1fe6 \u03b2\u03b1\u03c0\u03c4\u03af\u03c3\u03bc\u03b1\u03c4\u03bf\u03c2 \u1f38\u03c9\u03ac\u03bd\u03bf\u03c5 \u1f15\u03c9\u03c2 \u03c4\u1fc6\u03c2 \u1f21\u03bc\u03ad\u03c1\u03b1\u03c2 \u1f27\u03c2 \u1f00\u03bd\u03b5\u03bb\u03ae\u03bc\u03c6\u03b8\u03b7 \u1f00\u03c6\u1fbd \u1f21\u03bc\u1ff6\u03bd, \u03bc\u03ac\u03c1\u03c4\u03c5\u03c1\u03b1 \u03c4\u1fc6\u03c2 \u1f00\u03bd\u03b1\u03c3\u03c4\u03ac\u03c3\u03b5\u03c9\u03c2 \u03b1\u1f50\u03c4\u03bf\u1fe6 \u03c3\u1f7a\u03bd \u1f21\u03bc\u1fd6\u03bd \u03b3\u03b5\u03bd\u03ad\u03c3\u03b8\u03b1\u03b9 \u1f15\u03bd\u03b1 \u03c4\u03bf\u03cd\u03c4\u03c9\u03bd."
        },
        {
            "chapter": 1,
            "verse": 23,
            "name": "Acts 1:23",
            "text": "\u039a\u03b1\u1f76 \u1f14\u03c3\u03c4\u03b7\u03c3\u03b1\u03bd \u03b4\u03cd\u03bf, \u1f38\u03c9\u03c3\u1f74\u03c6 \u03c4\u1f78\u03bd \u03ba\u03b1\u03bb\u03bf\u03cd\u03bc\u03b5\u03bd\u03bf\u03bd \u0392\u03b1\u03c1\u03c3\u03b1\u03b2\u03b2\u1fb6\u03bd, \u1f43\u03c2 \u1f10\u03c0\u03b5\u03ba\u03bb\u03ae\u03b8\u03b7 \u1f38\u03bf\u1fe6\u03c3\u03c4\u03bf\u03c2, \u03ba\u03b1\u1f76 \u039c\u03b1\u03b8\u03b8\u03af\u03b1\u03bd."
        },
        {
            "chapter": 1,
            "verse": 24,
            "name": "Acts 1:24",
            "text": "\u03ba\u03b1\u1f76 \u03c0\u03c1\u03bf\u03c3\u03b5\u03c5\u03be\u03ac\u03bc\u03b5\u03bd\u03bf\u03b9 \u03b5\u1f36\u03c0\u03b1\u03bd, \u03a3\u1f7a \u03ba\u03cd\u03c1\u03b9\u03b5 \u03ba\u03b1\u03c1\u03b4\u03b9\u03bf\u03b3\u03bd\u1ff6\u03c3\u03c4\u03b1 \u03c0\u03ac\u03bd\u03c4\u03c9\u03bd, \u1f00\u03bd\u03ac\u03b4\u03b5\u03b9\u03be\u03bf\u03bd \u1f43\u03bd \u1f10\u03be\u03b5\u03bb\u03ad\u03be\u03c9 \u1f10\u03ba \u03c4\u03bf\u03cd\u03c4\u03c9\u03bd \u03c4\u1ff6\u03bd \u03b4\u03cd\u03bf \u1f15\u03bd\u03b1"
        },
        {
            "chapter": 1,
            "verse": 25,
            "name": "Acts 1:25",
            "text": "\u03bb\u03b1\u03b2\u03b5\u1fd6\u03bd \u03c4\u1f78\u03bd \u03c4\u03cc\u03c0\u03bf\u03bd \u03c4\u1fc6\u03c2 \u03b4\u03b9\u03b1\u03ba\u03bf\u03bd\u03af\u03b1\u03c2 \u03c4\u03b1\u03cd\u03c4\u03b7\u03c2 \u03ba\u03b1\u1f76 \u1f00\u03c0\u03bf\u03c3\u03c4\u03bf\u03bb\u1fc6\u03c2, \u1f00\u03c6\u1fbd \u1f27\u03c2 \u03c0\u03b1\u03c1\u03ad\u03b2\u03b7 \u1f38\u03bf\u03cd\u03b4\u03b1\u03c2 \u03c0\u03bf\u03c1\u03b5\u03c5\u03b8\u1fc6\u03bd\u03b1\u03b9 \u03b5\u1f30\u03c2 \u03c4\u1f78\u03bd \u03c4\u03cc\u03c0\u03bf\u03bd \u03c4\u1f78\u03bd \u1f34\u03b4\u03b9\u03bf\u03bd."
        },
        {
            "chapter": 1,
            "verse": 26,
            "name": "Acts 1:26",
            "text": "\u039a\u03b1\u1f76 \u1f14\u03b4\u03c9\u03ba\u03b1\u03bd \u03ba\u03bb\u03ae\u03c1\u03bf\u03c5\u03c2 \u03b1\u1f50\u03c4\u03bf\u1fd6\u03c2, \u03ba\u03b1\u1f76 \u1f14\u03c0\u03b5\u03c3\u03b5\u03bd \u1f41 \u03ba\u03bb\u1fc6\u03c1\u03bf\u03c2 \u1f10\u03c0\u1f76 \u039c\u03b1\u03b8\u03b8\u03af\u03b1\u03bd, \u03ba\u03b1\u1f76 \u03c3\u03c5\u03b3\u03ba\u03b1\u03c4\u03b5\u03c8\u03b7\u03c6\u03af\u03c3\u03b8\u03b7 \u03bc\u03b5\u03c4\u1f70 \u03c4\u1ff6\u03bd \u1f15\u03bd\u03b4\u03b5\u03ba\u03b1 \u1f00\u03c0\u03bf\u03c3\u03c4\u03cc\u03bb\u03c9\u03bd.   "
        }
    ]
}