{
    "translation": "Turkish",
    "abbreviation": "turkish",
    "lang": "tr",
    "language": "Turkish",
    "direction": "LTR",
    "encoding": "UTF-8",
    "book_nr": 50,
    "book_name": "Philippians",
    "chapter": 1,
    "name": "Philippians 1",
    "verses": [
        {
            "chapter": 1,
            "verse": 1,
            "name": "Philippians 1:1",
            "text": " Mesih \u0130sa\u2019n\u0131n kullar\u0131 ben Pavlus ve Timoteos\u2019tan Filipi\u2019deki g\u00f6zetmenler ve g\u00f6revlilerle birlikte Mesih \u0130sa\u2019ya ait b\u00fct\u00fcn kutsallara selam!"
        },
        {
            "chapter": 1,
            "verse": 2,
            "name": "Philippians 1:2",
            "text": "Babam\u0131z Tanr\u0131\u2019dan ve Rab \u0130sa Mesih\u2019ten sizlere l\u00fctuf ve esenlik olsun. "
        },
        {
            "chapter": 1,
            "verse": 3,
            "name": "Philippians 1:3",
            "text": "  Sizi hat\u0131rlad\u0131k\u00e7a Tanr\u0131m\u2019a \u015f\u00fckrediyorum."
        },
        {
            "chapter": 1,
            "verse": 4,
            "name": "Philippians 1:4",
            "text": "\u0130lk g\u00fcnden \u015fimdiye dek M\u00fcjde\u2019nin yay\u0131lmas\u0131ndaki i\u015fbirli\u011finizden dolay\u0131 her duamda hepiniz i\u00e7in her zaman sevin\u00e7le dilekte bulunuyorum."
        },
        {
            "chapter": 1,
            "verse": 5,
            "name": "Philippians 1:5",
            "text": "\u0130lk g\u00fcnden \u015fimdiye dek M\u00fcjde\u2019nin yay\u0131lmas\u0131ndaki i\u015fbirli\u011finizden dolay\u0131 her duamda hepiniz i\u00e7in her zaman sevin\u00e7le dilekte bulunuyorum."
        },
        {
            "chapter": 1,
            "verse": 6,
            "name": "Philippians 1:6",
            "text": "Sizde iyi bir i\u015fe ba\u015flam\u0131\u015f olan Tanr\u0131\u2019n\u0131n bunu Mesih \u0130sa\u2019n\u0131n g\u00fcn\u00fcne dek tamamlayaca\u011f\u0131na g\u00fcvenim var."
        },
        {
            "chapter": 1,
            "verse": 7,
            "name": "Philippians 1:7",
            "text": "Hepiniz i\u00e7in b\u00f6yle d\u00fc\u015f\u00fcnmekte hakl\u0131y\u0131m. Her an y\u00fcre\u011fimdesiniz. \u0130ster zincire vurulmu\u015f, ister M\u00fcjde\u2019yi savunup do\u011frulamakta olay\u0131m, hepiniz benimle birlikte Tanr\u0131\u2019n\u0131n l\u00fctfuna ortaks\u0131n\u0131z."
        },
        {
            "chapter": 1,
            "verse": 8,
            "name": "Philippians 1:8",
            "text": "Hepinizi Mesih \u0130sa\u2019n\u0131n sevgisiyle nas\u0131l \u00f6zledi\u011fime Tanr\u0131 tan\u0131kt\u0131r."
        },
        {
            "chapter": 1,
            "verse": 9,
            "name": "Philippians 1:9",
            "text": "Duam \u015fu ki, sevginiz, bilgi ve her t\u00fcr sezgiyle durmadan arts\u0131n."
        },
        {
            "chapter": 1,
            "verse": 10,
            "name": "Philippians 1:10",
            "text": "\u00d6yle ki, \u00fcst\u00fcn de\u011ferleri ay\u0131rt edebilesiniz ve b\u00f6ylece Tanr\u0131\u2019n\u0131n y\u00fcceltilip \u00f6v\u00fclmesi i\u00e7in \u0130sa Mesih arac\u0131l\u0131\u011f\u0131yla gelen do\u011fruluk meyvesiyle dolarak Mesih\u2019in g\u00fcn\u00fcnde saf ve kusursuz olas\u0131n\u0131z.  "
        },
        {
            "chapter": 1,
            "verse": 11,
            "name": "Philippians 1:11",
            "text": "\u00d6yle ki, \u00fcst\u00fcn de\u011ferleri ay\u0131rt edebilesiniz ve b\u00f6ylece Tanr\u0131\u2019n\u0131n y\u00fcceltilip \u00f6v\u00fclmesi i\u00e7in \u0130sa Mesih arac\u0131l\u0131\u011f\u0131yla gelen do\u011fruluk meyvesiyle dolarak Mesih\u2019in g\u00fcn\u00fcnde saf ve kusursuz olas\u0131n\u0131z.  "
        },
        {
            "chapter": 1,
            "verse": 12,
            "name": "Philippians 1:12",
            "text": "  Karde\u015fler, \u015funu bilmenizi isterim: Ba\u015f\u0131ma gelenler daha \u00e7ok M\u00fcjde\u2019nin yay\u0131lmas\u0131na yaram\u0131\u015ft\u0131r."
        },
        {
            "chapter": 1,
            "verse": 13,
            "name": "Philippians 1:13",
            "text": " Sonu\u00e7 olarak b\u00fct\u00fcn saray muhaf\u0131zlar\u0131 dahil, herkes Mesih u\u011fruna zincire vuruldu\u011fumu \u00f6\u011frendi."
        },
        {
            "chapter": 1,
            "verse": 14,
            "name": "Philippians 1:14",
            "text": "Karde\u015flerin \u00e7o\u011fu da zincire vurulu\u015fumdan \u00f6t\u00fcr\u00fc Rab\u2019be g\u00fcvenerek Tanr\u0131\u2019n\u0131n s\u00f6z\u00fcn\u00fc korkusuzca s\u00f6ylemekte daha da cesur davran\u0131yorlar."
        },
        {
            "chapter": 1,
            "verse": 15,
            "name": "Philippians 1:15",
            "text": "Ger\u00e7i kimi Mesih\u2019i k\u0131skan\u00e7l\u0131k ve rekabetle, kimiyse iyi niyetle duyuruyor."
        },
        {
            "chapter": 1,
            "verse": 16,
            "name": "Philippians 1:16",
            "text": "Sonuncular, M\u00fcjde\u2019yi savunmaya atand\u0131\u011f\u0131m\u0131 bilerek bunu sevgiyle yap\u0131yorlar."
        },
        {
            "chapter": 1,
            "verse": 17,
            "name": "Philippians 1:17",
            "text": "\u00d6tekilerse Mesih\u2019i temiz y\u00fcrekle de\u011fil, bencil tutkularla duyuruyorlar. B\u00f6ylece tutuklulu\u011fumda bana s\u0131k\u0131nt\u0131 vereceklerini san\u0131yorlar."
        },
        {
            "chapter": 1,
            "verse": 18,
            "name": "Philippians 1:18",
            "text": "Ama ne \u00f6nemi var? \u0130ster art niyetle ister i\u00e7tenlikle olsun, her durumda Mesih duyurulmu\u015f oluyor. Buna seviniyorum, sevinece\u011fim de."
        },
        {
            "chapter": 1,
            "verse": 19,
            "name": "Philippians 1:19",
            "text": "\u00c7\u00fcnk\u00fc dualar\u0131n\u0131zla ve \u0130sa Mesih\u2019in Ruhu yard\u0131m\u0131yla bunun bana kurtulu\u015f getirece\u011fini biliyorum. "
        },
        {
            "chapter": 1,
            "verse": 20,
            "name": "Philippians 1:20",
            "text": "Hi\u00e7bir \u015fekilde utand\u0131r\u0131lmayaca\u011f\u0131m\u0131, ya\u015fasam da \u00f6lsem de Mesih\u2019in her zamanki gibi \u015fimdi de bedenimde y\u00fcceltilmesi i\u00e7in tam bir cesaret g\u00f6sterebilece\u011fimi bekliyor ve umut ediyorum."
        },
        {
            "chapter": 1,
            "verse": 21,
            "name": "Philippians 1:21",
            "text": "\u00c7\u00fcnk\u00fc benim i\u00e7in, ya\u015famak Mesih\u2019tir, \u00f6lmek kazan\u00e7t\u0131r."
        },
        {
            "chapter": 1,
            "verse": 22,
            "name": "Philippians 1:22",
            "text": "Hayatta kal\u0131rsam yararl\u0131 i\u015fler yapaca\u011f\u0131m. Ama hangisini se\u00e7ece\u011fimi bilemiyorum."
        },
        {
            "chapter": 1,
            "verse": 23,
            "name": "Philippians 1:23",
            "text": "\u0130ki se\u00e7enek aras\u0131nda kald\u0131m. D\u00fcnyadan ayr\u0131l\u0131p Mesih\u2019le birlikte olmay\u0131 arzuluyorum; bu \u00e7ok daha iyi."
        },
        {
            "chapter": 1,
            "verse": 24,
            "name": "Philippians 1:24",
            "text": "Ama hayatta kalmam sizin i\u00e7in daha gereklidir."
        },
        {
            "chapter": 1,
            "verse": 25,
            "name": "Philippians 1:25",
            "text": "Bundan emin olarak kalaca\u011f\u0131m\u0131 biliyorum. \u0130manda geli\u015fip sevinmeniz i\u00e7in hepinizle birlikte olmaya devam edece\u011fim."
        },
        {
            "chapter": 1,
            "verse": 26,
            "name": "Philippians 1:26",
            "text": "\u00d6yle ki, tekrar yan\u0131n\u0131za geldi\u011fimde, Mesih \u0130sa\u2019da benimle daha \u00e7ok \u00f6v\u00fcnebilesiniz. "
        },
        {
            "chapter": 1,
            "verse": 27,
            "name": "Philippians 1:27",
            "text": "Ancak ya\u015fay\u0131\u015f\u0131n\u0131z Mesih\u2019in M\u00fcjdesi\u2019ne lay\u0131k olsun. \u00d6yle ki, gelip sizi g\u00f6rsem de gelmesem de sizinle ilgili haberleri, tek bir ruhta dimdik durdu\u011funuzu, M\u00fcjde\u2019de a\u00e7\u0131klanan inan\u00e7 u\u011fruna tek can halinde birlikte m\u00fccadele etti\u011finizi, size kar\u015f\u0131 olanlardan hi\u00e7bir \u015fekilde y\u0131lmad\u0131\u011f\u0131n\u0131z\u0131 duyay\u0131m. B\u00f6yle davranman\u0131z onlara bir belirtidir \u2013 kendilerinin mahvolaca\u011f\u0131n\u0131, sizlerin ise kurtulaca\u011f\u0131n\u0131 g\u00f6steren bir belirti. Bu da Tanr\u0131\u2019n\u0131n i\u015fidir."
        },
        {
            "chapter": 1,
            "verse": 28,
            "name": "Philippians 1:28",
            "text": "Ancak ya\u015fay\u0131\u015f\u0131n\u0131z Mesih\u2019in M\u00fcjdesi\u2019ne lay\u0131k olsun. \u00d6yle ki, gelip sizi g\u00f6rsem de gelmesem de sizinle ilgili haberleri, tek bir ruhta dimdik durdu\u011funuzu, M\u00fcjde\u2019de a\u00e7\u0131klanan inan\u00e7 u\u011fruna tek can halinde birlikte m\u00fccadele etti\u011finizi, size kar\u015f\u0131 olanlardan hi\u00e7bir \u015fekilde y\u0131lmad\u0131\u011f\u0131n\u0131z\u0131 duyay\u0131m. B\u00f6yle davranman\u0131z onlara bir belirtidir \u2013 kendilerinin mahvolaca\u011f\u0131n\u0131, sizlerin ise kurtulaca\u011f\u0131n\u0131 g\u00f6steren bir belirti. Bu da Tanr\u0131\u2019n\u0131n i\u015fidir."
        },
        {
            "chapter": 1,
            "verse": 29,
            "name": "Philippians 1:29",
            "text": " \u00c7\u00fcnk\u00fc Mesih u\u011fruna size yaln\u0131z Mesih\u2019e iman etmek de\u011fil, daha \u00f6nce bende g\u00f6rd\u00fc\u011f\u00fcn\u00fcz ve h\u00e2l\u00e2 s\u00fcrd\u00fcrd\u00fc\u011f\u00fcm\u00fc duydu\u011funuz zorlu \u00e7aban\u0131n ayn\u0131s\u0131n\u0131 g\u00f6stererek Mesih u\u011fruna ac\u0131 \u00e7ekmek ayr\u0131cal\u0131\u011f\u0131 da verildi.   "
        },
        {
            "chapter": 1,
            "verse": 30,
            "name": "Philippians 1:30",
            "text": " \u00c7\u00fcnk\u00fc Mesih u\u011fruna size yaln\u0131z Mesih\u2019e iman etmek de\u011fil, daha \u00f6nce bende g\u00f6rd\u00fc\u011f\u00fcn\u00fcz ve h\u00e2l\u00e2 s\u00fcrd\u00fcrd\u00fc\u011f\u00fcm\u00fc duydu\u011funuz zorlu \u00e7aban\u0131n ayn\u0131s\u0131n\u0131 g\u00f6stererek Mesih u\u011fruna ac\u0131 \u00e7ekmek ayr\u0131cal\u0131\u011f\u0131 da verildi.   "
        }
    ]
}