{
    "translation": "Cherokee New Testament (1860)",
    "abbreviation": "che1860",
    "lang": "chr",
    "language": "Cherokee",
    "direction": "LTR",
    "encoding": "UTF-8",
    "book_nr": 40,
    "book_name": "Matthew",
    "chapter": 11,
    "name": "Matthew 11",
    "verses": [
        {
            "chapter": 11,
            "verse": 1,
            "name": "Matthew 11:1",
            "text": "\u13af\u13a0\u13c3 \u13c4\u13b5\u13cd\u13d4\u13c5\u13a9; \u13e5\u13cc \u13a4\u13cd\u13c6\u13db \u13d5\u13a7\u13c1\u13e4\u13b2 \u13d4\u13b3\u13da \u13a2\u13ef\u13c2\u13db \u13ac\u13e9\u13cd\u13d3\u13e9\u13d7\u13d9\u13af, \u13a4\u13c2\u13a9\u13d2\u13a9 \u13be\u13bf\u13c2, \u13da\u13d5\u13f2\u13c5\u13db\u13a9 \u13a0\u13b4 \u13a4\u13b5\u13e5\u13d9\u13be\u13d2\u13a9 \u13da\u13c2\u13da\u13bf\u13a5\u13a2."
        },
        {
            "chapter": 11,
            "verse": 2,
            "name": "Matthew 11:2",
            "text": "\u13bf\u13c9\u13c3 \u13e3\u13c2 \u13e3\u13e5\u13cd\u13da\u13b2 \u13e7\u13db\u13a6\u13c5 \u13c4\u13cd\u13db \u13da\u13b8\u13eb\u13cd\u13d3\u13c1\u13b2 \u13a6\u13b6\u13c1\u13db, \u13d9\u13e7\u13c5\u13ce \u13a0\u13c2\u13d4\u13b5 \u13ac\u13e9\u13cd\u13d3\u13e9\u13d7\u13d9\u13af,"
        },
        {
            "chapter": 11,
            "verse": 3,
            "name": "Matthew 11:3",
            "text": "\u13af\u13a0 \u13c5\u13d3\u13f3\u13ea\u13ce\u13b8\u13a9; \u13c2\u13af\u13cd\u13aa \u13be \u13a4\u13b7\u13af\u13cd\u13d7 \u13e5\u13a9, \u13e5\u13aa\u13a8 \u13c5\u13e9\u13d3\u13b4 \u13a3\u13e5\u13a6\u13d6\u13c3\u13ae\u13cd\u13d7?"
        },
        {
            "chapter": 11,
            "verse": 4,
            "name": "Matthew 11:4",
            "text": "\u13e5\u13cc\u13c3 \u13a4\u13c1\u13e8 \u13af\u13a0 \u13c2\u13da\u13ea\u13ce\u13b8\u13a9; \u13e5\u13cd\u13d5\u13be \u13e3\u13c2 \u13eb\u13a1\u13cd\u13d7\u13c3\u13b2\u13cf \u13c2\u13a6\u13a5 \u13a2\u13cd\u13d3\u13db\u13a9\u13cd\u13ac\u13a2 \u13a0\u13b4 \u13a2\u13cd\u13d7\u13aa\u13e9\u13d6\u13cd\u13ac\u13a2:"
        },
        {
            "chapter": 11,
            "verse": 5,
            "name": "Matthew 11:5",
            "text": "\u13d7\u13c2\u13a8\u13eb \u13a0\u13c2\u13aa\u13e9\u13d6\u13ad, \u13d7\u13c2\u13f2\u13a4\u13b5\u13c3 \u13a0\u13c1\u13d9\u13ad, \u13a0\u13d3\u13f0\u13cd\u13a9 \u13e7\u13c2\u13e2\u13a9 \u13da\u13be\u13d7\u13e9\u13cd\u13a6, \u13e7\u13c2\u13b5\u13a1\u13be\u13c3 \u13a0\u13be\u13db\u13a9\u13ad, \u13e7\u13c2\u13f2\u13de\u13d2\u13af\u13c3 \u13d5\u13a8\u13a6\u13b4\u13d7\u13ad \u13a4\u13f2\u13c3 \u13a2\u13f3\u13be\u13db\u13bf\u13d5\u13a9 \u13a3\u13cd\u13db \u13a7\u13c3\u13ae\u13db \u13a2\u13a8\u13a6\u13b5\u13e5\u13d9\u13c1\u13ad."
        },
        {
            "chapter": 11,
            "verse": 6,
            "name": "Matthew 11:6",
            "text": "\u13a0\u13b4 \u13a3\u13cf\u13f3 \u13a2\u13f3\u13b5\u13cd\u13d3\u13c1\u13d7 \u13a9\u13b6\u13c2\u13d7\u13e5\u13f2\u13d5\u13cd\u13d7\u13cd\u13ac\u13be \u13a2\u13a8\u13ce\u13cd\u13d7."
        },
        {
            "chapter": 11,
            "verse": 7,
            "name": "Matthew 11:7",
            "text": "\u13a2\u13a4\u13c1\u13c5\u13c3 \u13e5\u13cc \u13a4\u13b4\u13c5\u13b2\u13a9 \u13af\u13a0 \u13c2\u13da\u13ea\u13ce\u13b8\u13a9 \u13a4\u13c2\u13e3\u13d8 \u13e3\u13c2 \u13da\u13c3\u13ae\u13d3\u13c1\u13b8\u13a9; \u13a6\u13d9 \u13a2\u13e3\u13a6\u13d4\u13c5\u13ce \u13a2\u13be\u13a8\u13a2? \u13e9\u13d0\u13be\u13cd\u13aa \u13a4\u13c3\u13b4 \u13a4\u13d6\u13b8\u13ae\u13cd\u13ac\u13a2?"
        },
        {
            "chapter": 11,
            "verse": 8,
            "name": "Matthew 11:8",
            "text": "\u13a6\u13d9\u13a8 \u13a2\u13e3\u13a6\u13d4\u13c5\u13ce\u13a2? \u13a0\u13cd\u13a6\u13ef\u13cd\u13aa \u13d7\u13e9\u13be\u13a8 \u13e7\u13c4\u13e9\u13a2? \u13ac\u13c2\u13f3\u13c9 \u13d7\u13e9\u13be\u13a8 \u13e7\u13be\u13c4\u13e9\u13a2 \u13a4\u13c2\u13ac\u13eb\u13f3\u13af \u13d3\u13c2\u13c1\u13b8 \u13a0\u13c1\u13b0\u13a2."
        },
        {
            "chapter": 11,
            "verse": 9,
            "name": "Matthew 11:9",
            "text": "\u13a6\u13d9\u13a8 \u13a2\u13e3\u13a6\u13d4\u13c5\u13ce\u13a2? \u13a0\u13d9\u13b4\u13b0\u13cd\u13a9\u13cd\u13aa? \u13a5\u13a5, \u13a2\u13e8\u13f2\u13ce\u13ad, \u13a0\u13b4 \u13a4\u13df\u13af\u13f3 \u13a1\u13cd\u13a6\u13c9 \u13a0\u13d9\u13b4\u13b0\u13cd\u13a9."
        },
        {
            "chapter": 11,
            "verse": 10,
            "name": "Matthew 11:10",
            "text": "\u13be\u13cd\u13a9\u13cd\u13a9\u13c2 \u13af\u13a0 \u13be \u13a8\u13aa\u13ea\u13b8 \u13af\u13a0 \u13a0\u13e5\u13c3\u13ae\u13b8\u13cd\u13ac \u13e5\u13c2\u13ac\u13c5; \u13ac\u13c2\u13f3\u13c9, \u13e5\u13c5\u13b5 \u13e5\u13c5\u13cf\u13d3\u13cd\u13d7 \u13e3\u13a7\u13db \u13a2\u13ac\u13f1\u13d7\u13e2, \u13be\u13cd\u13a9 \u13d3\u13e3\u13db\u13c5\u13a2\u13cd\u13d3\u13c1\u13b5 \u13e3\u13b6\u13af\u13cd\u13d7\u13f1 \u13a2\u13ac\u13f1\u13d7\u13e2."
        },
        {
            "chapter": 11,
            "verse": 11,
            "name": "Matthew 11:11",
            "text": "\u13a4\u13d9\u13af\u13f3\u13af\u13ef \u13af\u13a0 \u13c2\u13e8\u13ea\u13ce\u13ad, \u13a0\u13c2\u13a8\u13f4 \u13ac\u13e9\u13c2\u13be\u13c4\u13aa\u13eb\u13d2\u13af \u13e5\u13a9 \u13a5\u13dd \u13a9\u13b6 \u13f3\u13be\u13c4\u13aa\u13e8 \u13ac\u13e9\u13d3\u13b5\u13c1\u13af\u13d5\u13d7 \u13e3\u13c2 \u13d7\u13d3\u13ec\u13cd\u13a9; \u13a0\u13ce\u13c3 \u13a4\u13cd\u13d7\u13a7\u13c2 \u13a6\u13b8\u13b3\u13d7 \u13a1\u13af \u13a4\u13ac\u13eb\u13f3\u13af \u13a8\u13d2 \u13a4\u13df \u13a0\u13e5\u13b8\u13c9\u13d7\u13f3 \u13a1\u13cd\u13a6\u13c9 \u13e3\u13c2."
        },
        {
            "chapter": 11,
            "verse": 12,
            "name": "Matthew 11:12",
            "text": "\u13e3\u13c2\u13c3 \u13d7\u13d3\u13ec\u13cd\u13a9 \u13a4\u13be\u13c4\u13aa\u13e8 \u13c5\u13d3\u13ac\u13d3\u13b4\u13c5\u13db \u13aa\u13af \u13a2\u13ef\u13cd\u13d8 \u13a6\u13b8\u13b3\u13d7 \u13a1\u13af \u13a4\u13ac\u13eb\u13f3\u13af \u13a8\u13d2 \u13a0\u13be\u13c1\u13b7\u13a9\u13a1\u13ad, \u13a0\u13be\u13c1\u13b7\u13a9\u13cd\u13a9\u13c3 \u13ac\u13cd\u13a6\u13a2\u13cd\u13d3\u13a9 \u13d3\u13c2\u13c2\u13f1\u13ad."
        },
        {
            "chapter": 11,
            "verse": 13,
            "name": "Matthew 11:13",
            "text": "\u13be\u13c2\u13a5\u13f0\u13c3 \u13a0\u13be\u13d9\u13b4\u13b0\u13cd\u13a9 \u13a0\u13b4 \u13d7\u13a7\u13bf\u13e9\u13db\u13cd\u13d7 \u13a0\u13be\u13d9\u13b4\u13b0\u13cd\u13ac\u13a9 \u13e3\u13c2 \u13a4\u13be\u13c4\u13aa\u13e5\u13b8 \u13a2\u13ef\u13cd\u13d8."
        },
        {
            "chapter": 11,
            "verse": 14,
            "name": "Matthew 11:14",
            "text": "\u13a2\u13f3\u13c3 \u13d7\u13a8\u13e3\u13d3\u13c2\u13b8\u13a2\u13cd\u13d7 \u13a8\u13ce\u13cd\u13d7, \u13be\u13cd\u13a9 \u13af\u13a0 \u13a2\u13b3\u13ef \u13a4\u13b7\u13af\u13cd\u13d7 \u13e5\u13a8\u13d2\u13a9."
        },
        {
            "chapter": 11,
            "verse": 15,
            "name": "Matthew 11:15",
            "text": "\u13a9\u13b6 \u13d5\u13a6\u13b5\u13b7\u13a8\u13cd\u13d7 \u13a4\u13db\u13aa\u13d7\u13f1 \u13be\u13cd\u13a9 \u13a0\u13db\u13a9\u13cd\u13a8\u13cd\u13d7."
        },
        {
            "chapter": 11,
            "verse": 16,
            "name": "Matthew 11:16",
            "text": "\u13a6\u13d9\u13a8 \u13d9\u13d3\u13a6\u13e5\u13ef\u13df\u13b6\u13cd\u13d4\u13c2 \u13af\u13a0 \u13aa\u13af \u13e3\u13c1\u13ad? \u13d7\u13c2\u13f2\u13b5\u13c9 \u13be\u13cd\u13a9\u13ef \u13a6\u13c3\u13d9\u13d7\u13f1 \u13e3\u13c2\u13c3\u13a2 \u13a0\u13b4 \u13e5\u13eb\u13d3\u13c2\u13ef\u13c2\u13cd\u13aa \u13a4\u13c1\u13d3\u13cd\u13d7;"
        },
        {
            "chapter": 11,
            "verse": 17,
            "name": "Matthew 11:17",
            "text": "\u13a0\u13b4 \u13af\u13a0 \u13e5\u13c2\u13d3\u13c2\u13ea\u13ce\u13b0\u13a2; \u13a0\u13e4\u13b7\u13a9 \u13a3\u13ac\u13d4\u13c5 \u13d5\u13e8\u13c3\u13a9\u13a1\u13b8, \u13a0\u13ce\u13c3 \u13a5\u13dd \u13f1\u13e3\u13b5\u13cd\u13a9\u13d2; \u13d9\u13e5\u13f4\u13ac\u13a9 \u13a2\u13e3\u13db\u13aa\u13d7, \u13a0\u13ce\u13c3 \u13a5\u13dd \u13f1\u13d7\u13e3\u13e0\u13f1\u13b8."
        },
        {
            "chapter": 11,
            "verse": 18,
            "name": "Matthew 11:18",
            "text": "\u13e3\u13c2\u13f0\u13c3 \u13a4\u13b7\u13e8\u13a9 \u13a5\u13dd \u13ef\u13b5\u13cd\u13d3\u13f4\u13b2\u13cd\u13a8\u13a2 \u13a0\u13b4 \u13a5\u13dd \u13ef\u13d7\u13d4\u13cd\u13a8\u13a2, \u13a0\u13ce\u13c3 \u13c2\u13a0\u13c2\u13ea\u13ad; \u13a0\u13cd\u13a9\u13be \u13a4\u13ef\u13a0."
        },
        {
            "chapter": 11,
            "verse": 19,
            "name": "Matthew 11:19",
            "text": "\u13f4\u13eb \u13a4\u13ea\u13e5 \u13a4\u13b7\u13e8 \u13a0\u13b5\u13cd\u13d3\u13f4\u13b2\u13cd\u13a6 \u13a0\u13b4 \u13a0\u13d7\u13d4\u13cd\u13a6, \u13af\u13a0\u13c3 \u13c2\u13a0\u13c2\u13ea\u13ad; \u13ac\u13c2\u13f3\u13c9 \u13a0\u13cd\u13a6\u13ef \u13a4\u13ac\u13a5\u13cd\u13a9 \u13a0\u13b5\u13cd\u13d3\u13f4\u13d7 \u13a0\u13b4 \u13a9\u13a6\u13a8-\u13a0\u13d7\u13d4\u13cd\u13d7, \u13a0\u13d5\u13b8 \u13a0\u13c2\u13a9\u13cf\u13d9\u13af \u13a0\u13b4 \u13a0\u13c2\u13cd\u13d5\u13be \u13a4\u13be\u13b5\u13a2. \u13a0\u13ce\u13c3 \u13a0\u13a6\u13d4\u13bf\u13a2 \u13e7\u13ea\u13e5 \u13a3\u13cf\u13f3 \u13a2\u13ac\u13e9\u13f0\u13b8\u13ad."
        },
        {
            "chapter": 11,
            "verse": 20,
            "name": "Matthew 11:20",
            "text": "\u13bf\u13c9\u13c3 \u13a4\u13b4\u13c5\u13b2\u13a9 \u13da\u13ac\u13cd\u13aa\u13b8\u13c5\u13a9 \u13da\u13c2\u13da\u13b2\u13a2 \u13be\u13bf \u13a4\u13df \u13a2\u13a6\u13a2 \u13a4\u13cd\u13c6\u13c2\u13aa\u13d7 \u13da\u13b8\u13eb\u13cd\u13d3\u13c1\u13b8\u13a2, \u13c5\u13d3\u13a6\u13b5\u13cd\u13d9\u13d7\u13cd\u13ac\u13a9 \u13da\u13be\u13d3\u13c5\u13db \u13c2\u13da\u13c2\u13c1\u13df\u13f4\u13d2\u13be \u13a8\u13d2\u13a2."
        },
        {
            "chapter": 11,
            "verse": 21,
            "name": "Matthew 11:21",
            "text": "\u13a4\u13f2\u13a2\u13f3 \u13a2\u13e3\u13b5\u13cd\u13d3\u13c1\u13d7 \u13aa\u13b4\u13cf\u13c2, \u13a4\u13f2\u13a2\u13f3 \u13a2\u13e3\u13b5\u13cd\u13d3\u13c1\u13d7 \u13c7\u13e3\u13f1\u13d7; \u13a2\u13f3\u13f0\u13c3 \u13a4\u13cd\u13c6\u13c2\u13aa\u13d7 \u13d5\u13a6\u13b8\u13eb\u13cd\u13d3\u13c1\u13b8 \u13c2\u13af \u13a2\u13e4\u13b2 \u13f1\u13d9\u13a6\u13b8\u13eb\u13cd\u13d3\u13c1\u13b4 \u13d4\u13ef \u13a0\u13b4 \u13cc\u13d9\u13c2, \u13aa\u13af\u13a9 \u13d7\u13ac\u13e9\u13c2\u13c1\u13df\u13f4\u13db \u13f1\u13a8\u13ce \u13da\u13be\u13d3\u13c5\u13db\u13a2, \u13e7\u13cf\u13d5\u13be \u13f1\u13da\u13be\u13c4\u13ec\u13a1 \u13a0\u13b4 \u13aa\u13cd\u13da \u13f3\u13be\u13d3\u13c5\u13b5\u13f0\u13a1\u13a2."
        },
        {
            "chapter": 11,
            "verse": 22,
            "name": "Matthew 11:22",
            "text": "\u13a0\u13ce\u13c3 \u13af\u13a0 \u13c2\u13e8\u13ea\u13ce\u13ad; \u13a1\u13cd\u13a6\u13c9 \u13a2\u13a6\u13a2 \u13a4\u13c2\u13a9\u13b5\u13f2\u13a2\u13cd\u13d7 \u13a8\u13ce\u13cd\u13d7 \u13d4\u13ef \u13a0\u13b4 \u13cc\u13d9\u13c2, \u13d7\u13ab\u13aa\u13d9\u13d7\u13f1 \u13a2\u13a6 \u13a8\u13ce\u13cd\u13d7, \u13a4\u13df\u13af\u13f3 \u13c2\u13af."
        },
        {
            "chapter": 11,
            "verse": 23,
            "name": "Matthew 11:23",
            "text": "\u13c2\u13af\u13c3 \u13a8\u13c6\u13c2 \u13a6\u13b8\u13b3\u13d7 \u13a2\u13f4\u13db \u13e4\u13e3\u13cc\u13b3\u13d3, \u13e8\u13cd\u13a9\u13c3\u13a2 \u13f4\u13d3\u13f0\u13b6\u13a5\u13d4\u13c2; \u13a2\u13f3\u13f0\u13c3 \u13a4\u13cd\u13c6\u13c2\u13aa\u13d7 \u13d5\u13a6\u13b8\u13eb\u13cd\u13d3\u13c1\u13b8 \u13c2\u13af \u13a2\u13e4\u13b2 \u13f1\u13d9\u13a6\u13b8\u13eb\u13cd\u13d3\u13c1\u13b4 \u13d0\u13d3\u13bb\u13f1, \u13a0\u13cf \u13aa\u13af \u13a8\u13d2 \u13f1\u13c2\u13ac\u13e9\u13cd\u13d5\u13c9."
        },
        {
            "chapter": 11,
            "verse": 24,
            "name": "Matthew 11:24",
            "text": "\u13a0\u13ce\u13c3 \u13af\u13a0 \u13c2\u13e8\u13ea\u13ce\u13ad; \u13a1\u13cd\u13a6\u13c9 \u13a2\u13a6\u13a2 \u13a4\u13c2\u13a9\u13b5\u13f2\u13a2\u13cd\u13d7 \u13a8\u13ce\u13cd\u13d7 \u13d0\u13d3\u13bb \u13d7\u13ab\u13aa\u13d9\u13d7\u13f1 \u13a2\u13a6 \u13a8\u13ce\u13cd\u13d7, \u13a4\u13c5\u13af\u13f3 \u13c2\u13af."
        },
        {
            "chapter": 11,
            "verse": 25,
            "name": "Matthew 11:25",
            "text": "\u13be\u13af\u13f3 \u13e5\u13cc \u13a4\u13c1\u13e8 \u13af\u13a0 \u13c4\u13ea\u13d2\u13a9; \u13ac\u13ef\u13b5\u13a1\u13b5\u13e4\u13ad \u13a1\u13d9\u13d3, \u13e3\u13ac\u13eb\u13f3\u13af \u13a6\u13b8\u13b3\u13d7 \u13a0\u13b4 \u13a1\u13b6\u13af, \u13be\u13cd\u13a9 \u13af\u13a0 \u13e5\u13d5\u13b2\u13cd\u13a6\u13b3\u13c1\u13b8 \u13a0\u13c2\u13cf\u13be\u13cc\u13c2 \u13a0\u13b4 \u13a0\u13c1\u13ef\u13d4\u13af, \u13d7\u13c2\u13f2\u13b5\u13c3 \u13e5\u13d5\u13af\u13be\u13c4\u13aa\u13eb\u13ce\u13b8."
        },
        {
            "chapter": 11,
            "verse": 26,
            "name": "Matthew 11:26",
            "text": "\u13a5\u13a5, \u13a1\u13d9\u13d3, \u13be\u13cd\u13a9\u13f0\u13c3 \u13a3\u13cf\u13f3 \u13e3\u13f0\u13b8\u13c5\u13af."
        },
        {
            "chapter": 11,
            "verse": 27,
            "name": "Matthew 11:27",
            "text": "\u13c2\u13a6\u13a5 \u13aa\u13b1\u13cd\u13d7 \u13d3\u13a9\u13f2\u13af\u13ce\u13b8 \u13a1\u13d9\u13d3, \u13a0\u13b4 \u13a5\u13dd \u13a9\u13b6 \u13ef\u13a6\u13d4\u13ad \u13a4\u13ea\u13e5 \u13a4\u13d9\u13d3\u13c9 \u13a4\u13e9\u13d2; \u13a5\u13dd \u13a0\u13b4 \u13a9\u13b6 \u13ef\u13a6\u13d4\u13ad \u13a0\u13a6\u13f4\u13b5\u13a8\u13a2 \u13a4\u13ea\u13e5 \u13a4\u13e9\u13d2, \u13a9\u13b6\u13c3 \u13be\u13cd\u13a9 \u13e5\u13be\u13c4\u13aa\u13eb\u13cf \u13a1\u13b3 \u13a4\u13ea\u13e5."
        },
        {
            "chapter": 11,
            "verse": 28,
            "name": "Matthew 11:28",
            "text": "\u13a1\u13e4\u13be, \u13a0\u13f4 \u13cd\u13a9\u13b7\u13e5, \u13c2\u13a6\u13d7\u13f3 \u13a0\u13a9\u13b5\u13ef \u13d7\u13e5\u13b8\u13eb\u13cd\u13d3\u13c1\u13af, \u13a0\u13b4 \u13a6\u13a8\u13db \u13d7\u13e3\u13b5\u13ce\u13af, \u13a0\u13f4\u13c3 \u13d3\u13e8\u13ef\u13ea\u13d0\u13b8\u13cd\u13d4\u13c2."
        },
        {
            "chapter": 11,
            "verse": 29,
            "name": "Matthew 11:29",
            "text": "\u13a2\u13e5\u13f4 \u13a0\u13c6\u13a9\u13b3\u13be\u13b6 \u13a0\u13b4 \u13cd\u13a9\u13ef\u13d5\u13b6\u13c6\u13cf, \u13a0\u13c6\u13d3\u13c5\u13d6\u13f3\u13f0\u13c3 \u13a0\u13b4 \u13a0\u13c6\u13d3\u13d9\u13b5\u13cd\u13d7\u13f3 \u13a0\u13a9\u13be\u13eb\u13f1, \u13d3\u13e5\u13e9\u13db\u13af\u13c3 \u13d7\u13e3\u13d3\u13c5\u13d9 \u13e7\u13ef\u13ea\u13d0\u13b8\u13cd\u13d7\u13f1."
        },
        {
            "chapter": 11,
            "verse": 30,
            "name": "Matthew 11:30",
            "text": "\u13a0\u13c6\u13d7\u13b3\u13be\u13b6\u13f0\u13c3 \u13c4\u13af\u13d0\u13db\u13be, \u13a6\u13b5\u13ce\u13b2\u13c3 \u13a4\u13d3\u13cc\u13a7\u13af\u13f3."
        }
    ]
}