{
    "translation": "Magyar Bibliat\u00e1rsulat \u00fajford\u00edt\u00e1s\u00fa Bibli\u00e1ja",
    "abbreviation": "hunuj",
    "lang": "hu",
    "language": "Hungarian",
    "direction": "LTR",
    "encoding": "UTF-8",
    "book_nr": 23,
    "book_name": "Isaiah",
    "chapter": 11,
    "name": "Isaiah 11",
    "verses": [
        {
            "chapter": 11,
            "verse": 1,
            "name": "Isaiah 11:1",
            "text": " Vessz\u0151sz\u00e1l hajt ki Isai t\u00f6rzs\u00f6k\u00e9r\u0151l, hajt\u00e1s sarjad gy\u00f6kereir\u0151l."
        },
        {
            "chapter": 11,
            "verse": 2,
            "name": "Isaiah 11:2",
            "text": "Az \u00dar lelke nyugszik rajta, a b\u00f6lcsess\u00e9g \u00e9s \u00e9rtelem lelke, a tan\u00e1cs \u00e9s er\u0151 lelke, az \u00dar ismeret\u00e9nek \u00e9s f\u00e9lelm\u00e9nek lelke."
        },
        {
            "chapter": 11,
            "verse": 3,
            "name": "Isaiah 11:3",
            "text": "Az \u00dar f\u00e9lelme lesz a gy\u00f6ny\u00f6r\u0171s\u00e9ge. Nem a l\u00e1tszat ut\u00e1n \u00edt\u00e9l, \u00e9s nem hallom\u00e1s ut\u00e1n d\u00f6nt,"
        },
        {
            "chapter": 11,
            "verse": 4,
            "name": "Isaiah 11:4",
            "text": "hanem igazs\u00e1gosan \u00edt\u00e9l a nincstelenek \u00fcgy\u00e9ben, \u00e9s m\u00e9lt\u00e1nyosan d\u00f6nt az orsz\u00e1g szeg\u00e9nyeinek dolg\u00e1ban. Megveri a f\u00f6ldet sz\u00e1j\u00e1nak botj\u00e1val, ajka lehelet\u00e9vel meg\u00f6li a b\u0171n\u00f6st."
        },
        {
            "chapter": 11,
            "verse": 5,
            "name": "Isaiah 11:5",
            "text": "Igazs\u00e1g lesz derek\u00e1nak \u00f6ve, cs\u00edp\u0151j\u00e9nek \u00f6ve pedig a h\u0171s\u00e9g."
        },
        {
            "chapter": 11,
            "verse": 6,
            "name": "Isaiah 11:6",
            "text": "Akkor majd a farkas a b\u00e1r\u00e1nnyal lakik, a p\u00e1rduc a g\u00f6d\u00f6ly\u00e9vel hever, a borj\u00fa, az oroszl\u00e1n \u00e9s a h\u00edzott marha egy\u00fctt lesznek, \u00e9s egy kisfi\u00fa terelgeti \u0151ket."
        },
        {
            "chapter": 11,
            "verse": 7,
            "name": "Isaiah 11:7",
            "text": "A teh\u00e9n a medv\u00e9vel legel, fiaik egy\u00fctt hever\u00e9sznek, az oroszl\u00e1n pedig szalm\u00e1t eszik, mint a marha."
        },
        {
            "chapter": 11,
            "verse": 8,
            "name": "Isaiah 11:8",
            "text": "A kisded a viperalyukn\u00e1l j\u00e1tszadozik, \u00e9s az alig elv\u00e1lasztott gyermek a m\u00e9rgesk\u00edgy\u00f3 fajzata fel\u00e9 ny\u00fajtja kez\u00e9t."
        },
        {
            "chapter": 11,
            "verse": 9,
            "name": "Isaiah 11:9",
            "text": "Nem \u00e1rt, \u00e9s nem puszt\u00edt szent hegyemen senki, mert tele lesz a f\u00f6ld az \u00dar ismeret\u00e9vel, ahogyan a tengert v\u00edz bor\u00edtja."
        },
        {
            "chapter": 11,
            "verse": 10,
            "name": "Isaiah 11:10",
            "text": "Azon a napon Isai gy\u00f6ker\u00e9hez fognak j\u00e1rulni a nemzetek, mert z\u00e1szl\u00f3k\u00e9nt magaslik ki a n\u00e9pek k\u00f6z\u00fcl, \u00e9s sz\u00e9khelye dics\u0151s\u00e9ges lesz.  "
        },
        {
            "chapter": 11,
            "verse": 11,
            "name": "Isaiah 11:11",
            "text": " Azon a napon m\u00e1sodszor is kiny\u00fajtja kez\u00e9t az \u00dar, hogy megvegye n\u00e9pe marad\u00e9k\u00e1t, mely megmarad Assz\u00edri\u00e1ban \u00e9s Egyiptomban, Patr\u00f3szban, K\u00fasban \u00e9s \u00c9l\u00e1mban, Sine\u00e1rban meg Ham\u00e1tban \u00e9s a tenger szigetein."
        },
        {
            "chapter": 11,
            "verse": 12,
            "name": "Isaiah 11:12",
            "text": "Jelt ad a nemzeteknek, \u00e9s \u00f6sszegy\u0171jti Izr\u00e1el sz\u00e9tsz\u00f3rt fiait, egybegy\u0171jti J\u00fada elsz\u00e9ledt le\u00e1nyait a f\u00f6ld n\u00e9gy sz\u00e9l\u00e9r\u0151l."
        },
        {
            "chapter": 11,
            "verse": 13,
            "name": "Isaiah 11:13",
            "text": "Megsz\u0171nik Efraim irigys\u00e9ge, J\u00fada ellens\u00e9gesked\u00e9se kiv\u00e9sz. Efraim nem irigykedik J\u00fad\u00e1ra, J\u00fada sem lesz Efraim ellens\u00e9ge."
        },
        {
            "chapter": 11,
            "verse": 14,
            "name": "Isaiah 11:14",
            "text": "Rep\u00fclnek a tenger fel\u00e9 a filiszteusok lejt\u0151j\u00e9n, egy\u00fctt ejtik pr\u00e9d\u00e1ul a keleti n\u00e9pet. R\u00e1teszik kez\u00fcket Ed\u00f3mra \u00e9s M\u00f3\u00e1bra, \u00e9s Amm\u00f3n fiai nekik engedelmeskednek."
        },
        {
            "chapter": 11,
            "verse": 15,
            "name": "Isaiah 11:15",
            "text": "Az \u00dar pedig kisz\u00e1r\u00edtja Egyiptom tenger\u00e9nek \u00f6bl\u00e9t. \u00d6kl\u00e9vel megfenyegeti az Eufr\u00e1teszt, forr\u00f3 szel\u00e9vel h\u00e9t \u00e1gra v\u00e1gja, \u00e9s saruval is j\u00e1rhat\u00f3v\u00e1 teszi."
        },
        {
            "chapter": 11,
            "verse": 16,
            "name": "Isaiah 11:16",
            "text": "Olyan \u00fatja lesz n\u00e9pe marad\u00e9k\u00e1nak, az Assz\u00edri\u00e1ban megmaradtaknak, amilyen Izr\u00e1elnek volt, amikor kij\u00f6tt Egyiptomb\u00f3l.   "
        }
    ]
}