{
    "translation": "Dead Sea Scrolls variants parallel to the Samaritan Pentateuch",
    "abbreviation": "spdss",
    "lang": "he",
    "language": "Hebrew",
    "direction": "RTL",
    "encoding": "UTF-8",
    "book_nr": 19,
    "book_name": "Psalms",
    "chapter": 8,
    "name": "Psalms 8",
    "verses": [
        {
            "chapter": 8,
            "verse": 1,
            "name": "Psalms 8:1",
            "text": ""
        },
        {
            "chapter": 8,
            "verse": 2,
            "name": "Psalms 8:2",
            "text": ""
        },
        {
            "chapter": 8,
            "verse": 3,
            "name": "Psalms 8:3",
            "text": ""
        },
        {
            "chapter": 8,
            "verse": 4,
            "name": "Psalms 8:4",
            "text": ""
        },
        {
            "chapter": 8,
            "verse": 5,
            "name": "Psalms 8:5",
            "text": ""
        },
        {
            "chapter": 8,
            "verse": 6,
            "name": "Psalms 8:6",
            "text": ""
        },
        {
            "chapter": 8,
            "verse": 7,
            "name": "Psalms 8:7",
            "text": ""
        },
        {
            "chapter": 8,
            "verse": 8,
            "name": "Psalms 8:8",
            "text": ""
        },
        {
            "chapter": 8,
            "verse": 9,
            "name": "Psalms 8:9",
            "text": ""
        },
        {
            "chapter": 8,
            "verse": 10,
            "name": "Psalms 8:10",
            "text": ""
        }
    ]
}