{
    "translation": "Neue evangelistische \u00dcbersetzung",
    "abbreviation": "gerneue",
    "lang": "de",
    "language": "German",
    "direction": "LTR",
    "encoding": "UTF-8",
    "book_nr": 12,
    "book_name": "2 Kings",
    "chapter": 1,
    "name": "2 Kings 1",
    "verses": [
        {
            "chapter": 1,
            "verse": 1,
            "name": "2 Kings 1:1",
            "text": "Nach K\u00f6nig Ahabs Tod sagten sich die Moabiter von Israel los."
        },
        {
            "chapter": 1,
            "verse": 2,
            "name": "2 Kings 1:2",
            "text": "Eines Tages st\u00fcrzte Ahasja, der neue K\u00f6nig, durch das Gitterfenster im Obergeschoss seines Palastes in Samaria und verletzte sich schwer. Da schickte er Boten mit dem Auftrag los, Baal-Sebub, den Gott der Philisterstadt Ekron zu befragen, ob er wieder gesund w\u00fcrde."
        },
        {
            "chapter": 1,
            "verse": 3,
            "name": "2 Kings 1:3",
            "text": "Aber der Engel Jahwes befahl dem Propheten Elija aus Tischbe: \"Geh den Boten des K\u00f6nigs von Samaria entgegen und sag zu ihnen: 'Gibt es denn keinen Gott in Israel, dass ihr fortgehen m\u00fcsst, um den Gott von Ekron, zu befragen?"
        },
        {
            "chapter": 1,
            "verse": 4,
            "name": "2 Kings 1:4",
            "text": "Darum l\u00e4sst Jahwe dem K\u00f6nig Folgendes ausrichten: Du wirst nicht mehr aus deinem Bett herauskommen, sondern sterben. Ja, sterben musst du!'\" Elija gehorchte."
        },
        {
            "chapter": 1,
            "verse": 5,
            "name": "2 Kings 1:5",
            "text": "Da kehrten die Boten zum K\u00f6nig zur\u00fcck. \"Wie kommt es, dass ihr so schnell wieder hier seid?\", fragte er sie."
        },
        {
            "chapter": 1,
            "verse": 6,
            "name": "2 Kings 1:6",
            "text": "Sie erwiderten: \"Ein Mann kam uns entgegen; er schickte uns zu dir zur\u00fcck und l\u00e4sst dir ausrichten: 'So spricht Jahwe: Gibt es denn keinen Gott in Israel, dass du den Baal-Sebub von Ekron befragen musst? Darum wirst du nicht mehr aus deinem Bett herauskommen, sondern sterben. Ja, sterben musst du!'\""
        },
        {
            "chapter": 1,
            "verse": 7,
            "name": "2 Kings 1:7",
            "text": "Der K\u00f6nig fragte: \"Wie sah der Mann aus, der das zu euch sagte?\""
        },
        {
            "chapter": 1,
            "verse": 8,
            "name": "2 Kings 1:8",
            "text": "\"Er trug einen Mantel aus Ziegenhaaren und hatte einen Lederg\u00fcrtel umgebunden\", erwiderten sie. \"Dann war es Elija von Tischbe\", sagte der K\u00f6nig."
        },
        {
            "chapter": 1,
            "verse": 9,
            "name": "2 Kings 1:9",
            "text": "Sofort schickte er einen Offizier mit f\u00fcnfzig Mann nach ihm los. Der fand ihn oben auf einem Berg. Er stieg zu ihm hinauf und befahl: \"Im Namen des K\u00f6nigs: Komm herunter, Gottesmann!\""
        },
        {
            "chapter": 1,
            "verse": 10,
            "name": "2 Kings 1:10",
            "text": "Elija erwiderte: \"Wenn ich wirklich ein Mann Gottes bin, dann soll Feuer vom Himmel herabfallen und dich und deine f\u00fcnfzig Mann fressen!\" Da fiel Feuer vom Himmel herab und verbrannte sie alle."
        },
        {
            "chapter": 1,
            "verse": 11,
            "name": "2 Kings 1:11",
            "text": "Daraufhin schickte der K\u00f6nig einen anderen Offizier mit f\u00fcnfzig Mann los. Auch dieser rief Elija an: \"Im Namen des K\u00f6nigs: Komm sofort herunter, Gottesmann!\""
        },
        {
            "chapter": 1,
            "verse": 12,
            "name": "2 Kings 1:12",
            "text": "Doch Elija erwiderte: \"Wenn ich wirklich ein Mann Gottes bin, dann soll Feuer vom Himmel herabfallen und dich und deine f\u00fcnfzig Mann fressen!\" Da fiel Feuer Gottes vom Himmel herab und verbrannte sie alle."
        },
        {
            "chapter": 1,
            "verse": 13,
            "name": "2 Kings 1:13",
            "text": "Zum dritten Mal schickte der K\u00f6nig einen Offizier mit f\u00fcnfzig Mann los. Der stieg auf den Berg, kniete sich vor Elija hin und flehte ihn an: \"Du Mann Gottes, lass mich und meine f\u00fcnfzig M\u00e4nner am Leben!"
        },
        {
            "chapter": 1,
            "verse": 14,
            "name": "2 Kings 1:14",
            "text": "Es ist doch Feuer vom Himmel gefallen und hat die beiden Offiziere vor mir und alle ihre Leute vernichtet. Bitte lass mein Leben etwas wert sein vor dir!\""
        },
        {
            "chapter": 1,
            "verse": 15,
            "name": "2 Kings 1:15",
            "text": "Da sagte der Engel Jahwes zu Elija: \"Geh mit ihm hinunter! Du musst dich nicht vor dem K\u00f6nig f\u00fcrchten.\" Elija stand auf und ging mit dem Offizier zum K\u00f6nig."
        },
        {
            "chapter": 1,
            "verse": 16,
            "name": "2 Kings 1:16",
            "text": "Er sagte ihm: \"So spricht Jahwe: 'Weil du Boten losgeschickt hast, um den Baal-Sebub, den Gott von Ekron, zu befragen - als ob es keinen Gott in Israel g\u00e4be, den man befragen kann -, darum wirst du nicht mehr aus deinem Bett herauskommen, sondern sterben. Ja, sterben musst du!'\""
        },
        {
            "chapter": 1,
            "verse": 17,
            "name": "2 Kings 1:17",
            "text": "So starb er denn, wie Jahwe durch Elija hatte sagen lassen. Weil er aber keinen Sohn hatte, wurde sein Bruder Joram K\u00f6nig. Das geschah im zweiten Regierungsjahr von K\u00f6nig Joram Ben-Joschafat von Juda."
        },
        {
            "chapter": 1,
            "verse": 18,
            "name": "2 Kings 1:18",
            "text": "Was sonst noch \u00fcber Ahasjas Herrschaft zu sagen ist, findet man in der Chronik der K\u00f6nige von Israel. "
        }
    ]
}