{
    "translation": "La Bible de Zadoc Khan",
    "abbreviation": "frekhan",
    "lang": "fr",
    "language": "French",
    "direction": "LTR",
    "encoding": "UTF-8",
    "book_nr": 19,
    "book_name": "Psalms",
    "chapter": 31,
    "name": "Psalms 31",
    "verses": [
        {
            "chapter": 31,
            "verse": 1,
            "name": "Psalms 31:1",
            "text": "Au chef des chantres. Psaume de David. "
        },
        {
            "chapter": 31,
            "verse": 2,
            "name": "Psalms 31:2",
            "text": "En toi, Seigneur, je m\u2019abrite! Puiss\u00e9-je n\u2019\u00eatre jamais d\u00e9\u00e7u! Dans ta justice, retire-moi du danger. "
        },
        {
            "chapter": 31,
            "verse": 3,
            "name": "Psalms 31:3",
            "text": "Incline vers moi ton oreille, d\u00e9livre-moi promptement, sois pour moi un rocher tut\u00e9laire, une forte citadelle qui puisse me prot\u00e9ger. "
        },
        {
            "chapter": 31,
            "verse": 4,
            "name": "Psalms 31:4",
            "text": "Car tu es bien mon rocher et ma citadelle, et pour l\u2019amour de ton nom tu me guides et me diriges. "
        },
        {
            "chapter": 31,
            "verse": 5,
            "name": "Psalms 31:5",
            "text": "Tu me d\u00e9gageras du filet qu\u2019on m\u2019a dress\u00e9, puisque tu es ma sauvegarde. "
        },
        {
            "chapter": 31,
            "verse": 6,
            "name": "Psalms 31:6",
            "text": "En ta main je confie mon esprit, tu me d\u00e9livres, Eternel, Dieu de v\u00e9rit\u00e9. "
        },
        {
            "chapter": 31,
            "verse": 7,
            "name": "Psalms 31:7",
            "text": "Je hais ceux qui s\u2019attachent \u00e0 de vaines idoles; pour moi, je mets ma confiance en l\u2019Eternel. "
        },
        {
            "chapter": 31,
            "verse": 8,
            "name": "Psalms 31:8",
            "text": "Je serai heureux et en joie par ta bont\u00e9, puisque tu as vu ma mis\u00e8re, reconnu les tourments de mon \u00e2me. "
        },
        {
            "chapter": 31,
            "verse": 9,
            "name": "Psalms 31:9",
            "text": "Tu ne m\u2019as pas livr\u00e9 au pouvoir de l\u2019ennemi; tu as mis mes pieds au large. "
        },
        {
            "chapter": 31,
            "verse": 10,
            "name": "Psalms 31:10",
            "text": "Sois-moi propice, \u00f4 Seigneur! Car je me trouve en d\u00e9tresse. Par le chagrin ma vue s\u2019est us\u00e9e, ainsi que mon \u00e2me et mon corps. "
        },
        {
            "chapter": 31,
            "verse": 11,
            "name": "Psalms 31:11",
            "text": "En effet, ma vie s\u2019\u00e9coule dans la peine, mes ann\u00e9es dans les g\u00e9missements; ma vigueur est tomb\u00e9e \u00e0 cause de mon iniquit\u00e9, mes membres sont \u00e0 bout de forces. "
        },
        {
            "chapter": 31,
            "verse": 12,
            "name": "Psalms 31:12",
            "text": "A cause de tous mes ennemis, je suis un objet d\u2019opprobre, de grand opprobre pour mes voisins, une cause de terreur pour mes intimes. Ceux qui me voient dans la rue s\u2019\u00e9cartent de moi. "
        },
        {
            "chapter": 31,
            "verse": 13,
            "name": "Psalms 31:13",
            "text": "Mon souvenir dispara\u00eet des c\u0153urs comme celui d\u2019un mort, je suis tel qu\u2019un vase perdu. "
        },
        {
            "chapter": 31,
            "verse": 14,
            "name": "Psalms 31:14",
            "text": "Oui, j\u2019entends les mauvais propos de la foule, r\u00e9pandant la terreur \u00e0 l\u2019entour, quand on se ligue ensemble contre moi, complotant de m\u2019enlever la vie. "
        },
        {
            "chapter": 31,
            "verse": 15,
            "name": "Psalms 31:15",
            "text": "Moi, cependant, j\u2019ai confiance en toi, Seigneur, je dis: \"Tu es mon Dieu!\" "
        },
        {
            "chapter": 31,
            "verse": 16,
            "name": "Psalms 31:16",
            "text": "Mes destin\u00e9es sont dans ta main: d\u00e9livre-moi de mes ennemis et pers\u00e9cuteurs. "
        },
        {
            "chapter": 31,
            "verse": 17,
            "name": "Psalms 31:17",
            "text": "Fais luire ta face sur ton serviteur, secours-moi par ta gr\u00e2ce. "
        },
        {
            "chapter": 31,
            "verse": 18,
            "name": "Psalms 31:18",
            "text": "Seigneur! que je ne sois point d\u00e9\u00e7u quand je t\u2019invoque! que les m\u00e9chants, eux, soient confondus et r\u00e9duits au silence du Cheol! "
        },
        {
            "chapter": 31,
            "verse": 19,
            "name": "Psalms 31:19",
            "text": "Qu\u2019elles deviennent muettes, les l\u00e8vres menteuses, qui parlent avec insolence contre le juste, par exc\u00e8s d\u2019orgueil et de m\u00e9pris! "
        },
        {
            "chapter": 31,
            "verse": 20,
            "name": "Psalms 31:20",
            "text": "Ah! qu\u2019elle est grande ta bont\u00e9, que tu tiens en r\u00e9serve pour tes adorateurs, que tu t\u00e9moignes \u00e0 ceux qui ont foi en toi, en face des fils de l\u2019homme! "
        },
        {
            "chapter": 31,
            "verse": 21,
            "name": "Psalms 31:21",
            "text": "Tu les prot\u00e8ges, \u00e0 l\u2019abri de ta face, contre les intrigues des gens, tu les mets \u00e0 couvert, dans ta tente, contre la guerre des langues. "
        },
        {
            "chapter": 31,
            "verse": 22,
            "name": "Psalms 31:22",
            "text": "Lou\u00e9 soit le Seigneur, car il a fait \u00e9clater sa bont\u00e9 pour moi, en une ville fortifi\u00e9e! "
        },
        {
            "chapter": 31,
            "verse": 23,
            "name": "Psalms 31:23",
            "text": "Et je disais, moi, dans mon trouble: \"Je suis banni loin de tes yeux! Mais tu as entendu ma voix suppliante, lorsque je t\u2019implorais. "
        },
        {
            "chapter": 31,
            "verse": 24,
            "name": "Psalms 31:24",
            "text": "Aimez l\u2019Eternel, vous tous, ses pieux adorateurs! Le Seigneur veille sur ceux qui sont fid\u00e8les, mais il paie avec usure quiconque agit avec orgueil. "
        },
        {
            "chapter": 31,
            "verse": 25,
            "name": "Psalms 31:25",
            "text": "Soyez forts, ayez le c\u0153ur ferme, vous tous qui esp\u00e9rez en l\u2019Eternel!  "
        }
    ]
}