{
    "translation": "1770 John Worsley NT",
    "abbreviation": "worsley",
    "lang": "en",
    "language": "English",
    "direction": "LTR",
    "encoding": "UTF-8",
    "book_nr": 41,
    "book_name": "Mark",
    "chapter": 6,
    "name": "Mark 6",
    "verses": [
        {
            "chapter": 6,
            "verse": 1,
            "name": "Mark 6:1",
            "text": "And He went out from thence, and came into his own country, and his disciples attended Him:"
        },
        {
            "chapter": 6,
            "verse": 2,
            "name": "Mark 6:2",
            "text": "and when the sabbath was come, He began to teach in the synagogue: and many that heard Him were astonished, and said, From whence hath He these things? and what is this wisdom which is given unto Him, that even such mighty things are done by his hands?"
        },
        {
            "chapter": 6,
            "verse": 3,
            "name": "Mark 6:3",
            "text": "Is not this the carpenter, the son of Mary, the brother of James, and Joses, and Judas, and Simon? and are not his sisters here among us? and they were prejudiced against Him."
        },
        {
            "chapter": 6,
            "verse": 4,
            "name": "Mark 6:4",
            "text": "But Jesus said unto them, A prophet is nowhere less honoured, than in his own country, and among his relations, and his own family."
        },
        {
            "chapter": 6,
            "verse": 5,
            "name": "Mark 6:5",
            "text": "And He could do no miracle there, only laying his hands on a few sick people He healed them;"
        },
        {
            "chapter": 6,
            "verse": 6,
            "name": "Mark 6:6",
            "text": "and He was amazed at their unbelief. But he went about all the villages round, teaching."
        },
        {
            "chapter": 6,
            "verse": 7,
            "name": "Mark 6:7",
            "text": "And He calleth unto Him the twelve, and sent them forth two and two, and gave them power over impure spirits;"
        },
        {
            "chapter": 6,
            "verse": 8,
            "name": "Mark 6:8",
            "text": "and ordered them to take nothing for their journey, but a staff only; no bag, nor bread, nor money in their purse:"
        },
        {
            "chapter": 6,
            "verse": 9,
            "name": "Mark 6:9",
            "text": "but to tie on their sandals, and not to put on two coats."
        },
        {
            "chapter": 6,
            "verse": 10,
            "name": "Mark 6:10",
            "text": "And He said unto them, wheresoever ye enter into a house, there stay till ye leave that place."
        },
        {
            "chapter": 6,
            "verse": 11,
            "name": "Mark 6:11",
            "text": "And whosoever will not receive you, nor hear you, when ye depart thence, shake off the dust under your feet for a testimony against them. Verily I say unto you, it shall be more tolerable for Sodom or Gomorrah in the day of judgement, than for that city."
        },
        {
            "chapter": 6,
            "verse": 12,
            "name": "Mark 6:12",
            "text": "And they went forth, and preached that men should repent."
        },
        {
            "chapter": 6,
            "verse": 13,
            "name": "Mark 6:13",
            "text": "And they cast out many demons, and anointed with oil many that were sick, and healed them."
        },
        {
            "chapter": 6,
            "verse": 14,
            "name": "Mark 6:14",
            "text": "And king Herod heard of Him, (for his name was spread abroad,) and he said, John the baptist is risen from the dead, and therefore miraculous powers appear in him."
        },
        {
            "chapter": 6,
            "verse": 15,
            "name": "Mark 6:15",
            "text": "Others said, it is Elias: and others said, it is a prophet, or like one of the prophets."
        },
        {
            "chapter": 6,
            "verse": 16,
            "name": "Mark 6:16",
            "text": "But when Herod heard of Him, he said, it is John whom I beheaded, he is risen from the dead."
        },
        {
            "chapter": 6,
            "verse": 17,
            "name": "Mark 6:17",
            "text": "For Herod had sent and seized John, and bound him in prison on account of Herodias, his brother Philip's wife, because he had married her:"
        },
        {
            "chapter": 6,
            "verse": 18,
            "name": "Mark 6:18",
            "text": "For John had said to Herod, it is not lawful for thee to have thy brother's wife."
        },
        {
            "chapter": 6,
            "verse": 19,
            "name": "Mark 6:19",
            "text": "Wherefore Herodias persecuted him, and would have taken away his life:"
        },
        {
            "chapter": 6,
            "verse": 20,
            "name": "Mark 6:20",
            "text": "but could not; for Herod revered John, knowing him to be a just and holy man, and protected him: and when he heard him he did many things according to John's instructions, and heard him willingly."
        },
        {
            "chapter": 6,
            "verse": 21,
            "name": "Mark 6:21",
            "text": "But a convenient day happening, when Herod on his birth-night gave a supper to his lords, and chief officers, and persons of distinction in Galilee; and the daughter of Herodias coming in,"
        },
        {
            "chapter": 6,
            "verse": 22,
            "name": "Mark 6:22",
            "text": "and dancing, and having pleased Herod and his guests, the king said to the young princess, Ask of me whatever thou wilt, and I will give it thee."
        },
        {
            "chapter": 6,
            "verse": 23,
            "name": "Mark 6:23",
            "text": "And he gave her his oath too, whatever thou shalt ask of me, I will give it thee, even to the half of my kingdom."
        },
        {
            "chapter": 6,
            "verse": 24,
            "name": "Mark 6:24",
            "text": "And she withdrew and consulted her mother, what to ask: and she said, The head of John the baptist."
        },
        {
            "chapter": 6,
            "verse": 25,
            "name": "Mark 6:25",
            "text": "And immediately she came in again with eagerness to the king, and said, I desire that thou wouldst give me directly the head of John the baptist in a dish."
        },
        {
            "chapter": 6,
            "verse": 26,
            "name": "Mark 6:26",
            "text": "And the king was exceedingly grieved, but on account of his oath, and those who were at table with him, he would not refuse her: but immediately sent one of his guard,"
        },
        {
            "chapter": 6,
            "verse": 27,
            "name": "Mark 6:27",
            "text": "and ordered his head to be brought:"
        },
        {
            "chapter": 6,
            "verse": 28,
            "name": "Mark 6:28",
            "text": "and he went and beheaded him in the prison, and brought his head in a dish, and gave it to the damsel, and the damsel carried it to her mother."
        },
        {
            "chapter": 6,
            "verse": 29,
            "name": "Mark 6:29",
            "text": "And his disciples hearing of it, came and took up his corpse, and laid it in a sepulchre."
        },
        {
            "chapter": 6,
            "verse": 30,
            "name": "Mark 6:30",
            "text": "And the apostles came together to Jesus, and told Him all things, both what they had done, and what they had taught."
        },
        {
            "chapter": 6,
            "verse": 31,
            "name": "Mark 6:31",
            "text": "And He said to them, Come ye yourselves apart into a retired place, and rest a little: for there were many coming and going, and they had not time even to eat."
        },
        {
            "chapter": 6,
            "verse": 32,
            "name": "Mark 6:32",
            "text": "And they went away privately in a ship into a desert place."
        },
        {
            "chapter": 6,
            "verse": 33,
            "name": "Mark 6:33",
            "text": "And the people saw them departing, and many took notice of them, and ran thither on foot from all the cities, and got before them, and came together unto Him."
        },
        {
            "chapter": 6,
            "verse": 34,
            "name": "Mark 6:34",
            "text": "And when Jesus came out of the ship, He saw a great multitude, and was moved with compassion towards them; because they were as sheep without a shepherd: and He began to teach them many things."
        },
        {
            "chapter": 6,
            "verse": 35,
            "name": "Mark 6:35",
            "text": "And when it was now late in the day, his disciples came to Him, and said, this is a desert place, and it is now late:"
        },
        {
            "chapter": 6,
            "verse": 36,
            "name": "Mark 6:36",
            "text": "dismiss them, that they may go into the country-places and villages round about, and buy themselves bread; for they have nothing to eat."
        },
        {
            "chapter": 6,
            "verse": 37,
            "name": "Mark 6:37",
            "text": "But He answered them, Do ye give them something to eat. And they say to Him, shall we go and buy two hundred penny-worth of bread, and give them to eat?"
        },
        {
            "chapter": 6,
            "verse": 38,
            "name": "Mark 6:38",
            "text": "But He saith unto them, How many loaves have ye? go and see. And when they had examined, they said, Five, and two fishes."
        },
        {
            "chapter": 6,
            "verse": 39,
            "name": "Mark 6:39",
            "text": "And He ordered them to cause all the people to sit down by companies upon the grass:"
        },
        {
            "chapter": 6,
            "verse": 40,
            "name": "Mark 6:40",
            "text": "and they sat down in an oblong square, an hundred by fifty."
        },
        {
            "chapter": 6,
            "verse": 41,
            "name": "Mark 6:41",
            "text": "And when He had taken the five loaves, and the two fishes, He looked up to heaven, and gave thanks; then He brake the loaves and gave them to his disciples, to set before them; the two fishes likewise He divided among them all."
        },
        {
            "chapter": 6,
            "verse": 42,
            "name": "Mark 6:42",
            "text": "And they did all eat and were fully satisfied."
        },
        {
            "chapter": 6,
            "verse": 43,
            "name": "Mark 6:43",
            "text": "And they took up of the fragments of the bread, and of the fishes, twelve baskets full."
        },
        {
            "chapter": 6,
            "verse": 44,
            "name": "Mark 6:44",
            "text": "And they that had eaten were about five thousand men."
        },
        {
            "chapter": 6,
            "verse": 45,
            "name": "Mark 6:45",
            "text": "And immediately He obliged his disciples to get into the ship, and to go before Him to the other side to Bethsaida, while he dismissed the people:"
        },
        {
            "chapter": 6,
            "verse": 46,
            "name": "Mark 6:46",
            "text": "and when He had sent them away, He retired into a mountain to pray."
        },
        {
            "chapter": 6,
            "verse": 47,
            "name": "Mark 6:47",
            "text": "And when the evening was come, the ship was in the midst of the sea, and He alone upon the land:"
        },
        {
            "chapter": 6,
            "verse": 48,
            "name": "Mark 6:48",
            "text": "and He saw them labouring in rowing; (for the wind was contrary:) and about the fourth watch of the night He cometh to them walking upon the sea, and would have passed by them."
        },
        {
            "chapter": 6,
            "verse": 49,
            "name": "Mark 6:49",
            "text": "But they seeing Him walking upon the water, thought it was an apparition, and cried out: for they all saw Him and were frighted."
        },
        {
            "chapter": 6,
            "verse": 50,
            "name": "Mark 6:50",
            "text": "And He immediately spake to them, and saith, Be of good courage, it is I, be not afraid."
        },
        {
            "chapter": 6,
            "verse": 51,
            "name": "Mark 6:51",
            "text": "And He went up into the ship to them, and the wind ceased, and they were exceedingly amazed in themselves, and wondered: not considering the miracle of the loaves,"
        },
        {
            "chapter": 6,
            "verse": 52,
            "name": "Mark 6:52",
            "text": "for their heart was stupified."
        },
        {
            "chapter": 6,
            "verse": 53,
            "name": "Mark 6:53",
            "text": "And they passed over and came to the country of Gennesaret, and put to shore:"
        },
        {
            "chapter": 6,
            "verse": 54,
            "name": "Mark 6:54",
            "text": "and when they came out of the ship, immediately the people knew Him, and ran through all the country,"
        },
        {
            "chapter": 6,
            "verse": 55,
            "name": "Mark 6:55",
            "text": "and carried about in beds those that were sick, where they heard He was."
        },
        {
            "chapter": 6,
            "verse": 56,
            "name": "Mark 6:56",
            "text": "And wherever He came into their towns, or cities, or villages, they laid the sick in the streets, and intreated Him that they might but touch the border of his garment, and as many as touched it were healed. "
        }
    ]
}