{
    "translation": "English Standard Version",
    "abbreviation": "esv2001",
    "lang": "en",
    "language": "English",
    "direction": "LTR",
    "encoding": "UTF-8",
    "book_nr": 17,
    "book_name": "Esther",
    "chapter": 5,
    "name": "Esther 5",
    "verses": [
        {
            "chapter": 5,
            "verse": 1,
            "name": "Esther 5:1",
            "text": "On the third day Esther put on her royal robes and stood in the inner court of the king's palace, in front of the king's quarters, while the king was sitting on his royal throne inside the throne room opposite the entrance to the palace."
        },
        {
            "chapter": 5,
            "verse": 2,
            "name": "Esther 5:2",
            "text": "And when the king saw Queen Esther standing in the court, she won favor in his sight, and he held out to Esther the golden scepter that was in his hand. Then Esther approached and touched the tip of the scepter."
        },
        {
            "chapter": 5,
            "verse": 3,
            "name": "Esther 5:3",
            "text": "And the king said to her, What is it, Queen Esther? What is your request? It shall be given you, even to the half of my kingdom."
        },
        {
            "chapter": 5,
            "verse": 4,
            "name": "Esther 5:4",
            "text": "And Esther said, If it please the king, let the king and Haman come today to a feast that I have prepared for the king."
        },
        {
            "chapter": 5,
            "verse": 5,
            "name": "Esther 5:5",
            "text": "Then the king said, Bring Haman quickly, so that we may do as Esther has asked. So the king and Haman came to the feast that Esther had prepared."
        },
        {
            "chapter": 5,
            "verse": 6,
            "name": "Esther 5:6",
            "text": "And as they were drinking wine after the feast, the king said to Esther, What is your wish? It shall be granted you. And what is your request? Even to the half of my kingdom, it shall be fulfilled."
        },
        {
            "chapter": 5,
            "verse": 7,
            "name": "Esther 5:7",
            "text": "Then Esther answered, My wish and my request is:"
        },
        {
            "chapter": 5,
            "verse": 8,
            "name": "Esther 5:8",
            "text": "If I have found favor in the sight of the king, and if it please the king to grant my wish and fulfill my request, let the king and Haman come to the feast that I will prepare for them, and tomorrow I will do as the king has said.  "
        },
        {
            "chapter": 5,
            "verse": 9,
            "name": "Esther 5:9",
            "text": "And Haman went out that day joyful and glad of heart. But when Haman saw Mordecai in the king's gate, that he neither rose nor trembled before him, he was filled with wrath against Mordecai."
        },
        {
            "chapter": 5,
            "verse": 10,
            "name": "Esther 5:10",
            "text": "Nevertheless, Haman restrained himself and went home, and he sent and brought his friends and his wife Zeresh."
        },
        {
            "chapter": 5,
            "verse": 11,
            "name": "Esther 5:11",
            "text": "And Haman recounted to them the splendor of his riches, the number of his sons, all the promotions with which the king had honored him, and how he had advanced him above the officials and the servants of the king."
        },
        {
            "chapter": 5,
            "verse": 12,
            "name": "Esther 5:12",
            "text": "Then Haman said, Even Queen Esther let no one but me come with the king to the feast she prepared. And tomorrow also I am invited by her together with the king."
        },
        {
            "chapter": 5,
            "verse": 13,
            "name": "Esther 5:13",
            "text": "Yet all this is worth nothing to me, so long as I see Mordecai the Jew sitting at the king's gate."
        },
        {
            "chapter": 5,
            "verse": 14,
            "name": "Esther 5:14",
            "text": "Then his wife Zeresh and all his friends said to him, Let a gallows fifty cubits high be made, and in the morning tell the king to have Mordecai hanged upon it. Then go joyfully with the king to the feast. This idea pleased Haman, and he had the gallows made. "
        }
    ]
}