{
    "translation": "Smith and Van Dyke",
    "abbreviation": "arabicsv",
    "lang": "ar",
    "language": "Arabic",
    "direction": "RTL",
    "encoding": "UTF-8",
    "book_nr": 26,
    "book_name": "Ezekiel",
    "chapter": 18,
    "name": "Ezekiel 18",
    "verses": [
        {
            "chapter": 18,
            "verse": 1,
            "name": "Ezekiel 18:1",
            "text": "\u0648\u064e\u0643\u064e\u0627\u0646\u064e \u0625\u0650\u0644\u064e\u064a\u064e\u0651 \u0643\u064e\u0644\u0627\u064e\u0645\u064f \u0627\u0644\u0631\u064e\u0651\u0628\u0650\u0651 \u0642\u064e\u0627\u0626\u0650\u0644\u0627\u064b:"
        },
        {
            "chapter": 18,
            "verse": 2,
            "name": "Ezekiel 18:2",
            "text": "\u00ab\u0645\u064e\u0627 \u0644\u064e\u0643\u064f\u0645\u0652 \u0623\u064e\u0646\u0652\u062a\u064f\u0645\u0652 \u062a\u064e\u0636\u0652\u0631\u0650\u0628\u064f\u0648\u0646\u064e \u0647\u0630\u064e\u0627 \u0627\u0644\u0652\u0645\u064e\u062b\u064e\u0644\u064e \u0639\u064e\u0644\u064e\u0649 \u0623\u064e\u0631\u0652\u0636\u0650 \u0625\u0650\u0633\u0652\u0631\u064e\u0627\u0626\u0650\u064a\u0644\u064e\u060c \u0642\u064e\u0627\u0626\u0650\u0644\u0650\u064a\u0646\u064e: \u0627\u0644\u0622\u0628\u064e\u0627\u0621\u064f \u0623\u064e\u0643\u064e\u0644\u064f\u0648\u0627 \u0627\u0644\u0652\u062d\u0650\u0635\u0652\u0631\u0650\u0645\u064e \u0648\u064e\u0623\u064e\u0633\u0652\u0646\u064e\u0627\u0646\u064f \u0627\u0644\u0623\u064e\u0628\u0652\u0646\u064e\u0627\u0621\u0650 \u0636\u064e\u0631\u0650\u0633\u064e\u062a\u0652\u061f"
        },
        {
            "chapter": 18,
            "verse": 3,
            "name": "Ezekiel 18:3",
            "text": "\u062d\u064e\u064a\u064c\u0651 \u0623\u064e\u0646\u064e\u0627\u060c \u064a\u064e\u0642\u064f\u0648\u0644\u064f \u0627\u0644\u0633\u064e\u0651\u064a\u0650\u0651\u062f\u064f \u0627\u0644\u0631\u064e\u0651\u0628\u064f\u0651\u060c \u0644\u0627\u064e \u064a\u064e\u0643\u064f\u0648\u0646\u064f \u0644\u064e\u0643\u064f\u0645\u0652 \u0645\u0650\u0646\u0652 \u0628\u064e\u0639\u0652\u062f\u064f \u0623\u064e\u0646\u0652 \u062a\u064e\u0636\u0652\u0631\u0650\u0628\u064f\u0648\u0627 \u0647\u0630\u064e\u0627 \u0627\u0644\u0652\u0645\u064e\u062b\u064e\u0644\u064e \u0641\u0650\u064a \u0625\u0650\u0633\u0652\u0631\u064e\u0627\u0626\u0650\u064a\u0644\u064e."
        },
        {
            "chapter": 18,
            "verse": 4,
            "name": "Ezekiel 18:4",
            "text": "\u0647\u064e\u0627 \u0643\u064f\u0644\u064f\u0651 \u0627\u0644\u0646\u064f\u0651\u0641\u064f\u0648\u0633\u0650 \u0647\u0650\u064a\u064e \u0644\u0650\u064a. \u0646\u064e\u0641\u0652\u0633\u064f \u0627\u0644\u0623\u064e\u0628\u0650 \u0643\u064e\u0646\u064e\u0641\u0652\u0633\u0650 \u0627\u0644\u0627\u0628\u0652\u0646\u0650\u060c \u0643\u0650\u0644\u0627\u064e\u0647\u064f\u0645\u064e\u0627 \u0644\u0650\u064a. \u0627\u064e\u0644\u0646\u064e\u0651\u0641\u0652\u0633\u064f \u0627\u0644\u064e\u0651\u062a\u0650\u064a \u062a\u064f\u062e\u0652\u0637\u0650\u0626\u064f \u0647\u0650\u064a\u064e \u062a\u064e\u0645\u064f\u0648\u062a\u064f."
        },
        {
            "chapter": 18,
            "verse": 5,
            "name": "Ezekiel 18:5",
            "text": "\u0648\u064e\u0627\u0644\u0625\u0650\u0646\u0652\u0633\u064e\u0627\u0646\u064f \u0627\u0644\u064e\u0651\u0630\u0650\u064a \u0643\u064e\u0627\u0646\u064e \u0628\u064e\u0627\u0631\u064b\u0651\u0627 \u0648\u064e\u0641\u064e\u0639\u064e\u0644\u064e \u062d\u064e\u0642\u064b\u0651\u0627 \u0648\u064e\u0639\u064e\u062f\u0652\u0644\u0627\u064b\u060c"
        },
        {
            "chapter": 18,
            "verse": 6,
            "name": "Ezekiel 18:6",
            "text": "\u0644\u064e\u0645\u0652 \u064a\u064e\u0623\u0652\u0643\u064f\u0644\u0652 \u0639\u064e\u0644\u064e\u0649 \u0627\u0644\u0652\u062c\u0650\u0628\u064e\u0627\u0644\u0650 \u0648\u064e\u0644\u064e\u0645\u0652 \u064a\u064e\u0631\u0652\u0641\u064e\u0639\u0652 \u0639\u064e\u064a\u0652\u0646\u064e\u064a\u0652\u0647\u0650 \u0625\u0650\u0644\u064e\u0649 \u0623\u064e\u0635\u0652\u0646\u064e\u0627\u0645\u0650 \u0628\u064e\u064a\u0652\u062a\u0650 \u0625\u0650\u0633\u0652\u0631\u064e\u0627\u0626\u0650\u064a\u0644\u064e\u060c \u0648\u064e\u0644\u064e\u0645\u0652 \u064a\u064f\u0646\u064e\u062c\u0650\u0651\u0633\u0650 \u0627\u0645\u0652\u0631\u064e\u0623\u064e\u0629\u064e \u0642\u064e\u0631\u0650\u064a\u0628\u0650\u0647\u0650\u060c \u0648\u064e\u0644\u064e\u0645\u0652 \u064a\u064e\u0642\u0652\u0631\u064f\u0628\u0650 \u0627\u0645\u0652\u0631\u064e\u0623\u064e\u0629\u064b \u0637\u064e\u0627\u0645\u0650\u062b\u064b\u0627\u060c"
        },
        {
            "chapter": 18,
            "verse": 7,
            "name": "Ezekiel 18:7",
            "text": "\u0648\u064e\u0644\u064e\u0645\u0652 \u064a\u064e\u0638\u0652\u0644\u0650\u0645\u0652 \u0625\u0650\u0646\u0652\u0633\u064e\u0627\u0646\u064b\u0627\u060c \u0628\u064e\u0644\u0652 \u0631\u064e\u062f\u064e\u0651 \u0644\u0650\u0644\u0652\u0645\u064e\u062f\u0652\u064a\u064f\u0648\u0646\u0650 \u0631\u064e\u0647\u0652\u0646\u064e\u0647\u064f\u060c \u0648\u064e\u0644\u064e\u0645\u0652 \u064a\u064e\u063a\u0652\u062a\u064e\u0635\u0650\u0628\u0650 \u0627\u063a\u0652\u062a\u0650\u0635\u064e\u0627\u0628\u064b\u0627 \u0628\u064e\u0644\u0652 \u0628\u064e\u0630\u064e\u0644\u064e \u062e\u064f\u0628\u0652\u0632\u064e\u0647\u064f \u0644\u0650\u0644\u0652\u062c\u064e\u0648\u0652\u0639\u064e\u0627\u0646\u0650\u060c \u0648\u064e\u0643\u064e\u0633\u064e\u0627 \u0627\u0644\u0652\u0639\u064f\u0631\u0652\u064a\u064e\u0627\u0646\u064e \u062b\u064e\u0648\u0652\u0628\u064b\u0627\u060c"
        },
        {
            "chapter": 18,
            "verse": 8,
            "name": "Ezekiel 18:8",
            "text": "\u0648\u064e\u0644\u064e\u0645\u0652 \u064a\u064f\u0639\u0652\u0637\u0650 \u0628\u0650\u0627\u0644\u0631\u0650\u0651\u0628\u064e\u0627\u060c \u0648\u064e\u0644\u064e\u0645\u0652 \u064a\u064e\u0623\u0652\u062e\u064f\u0630\u0652 \u0645\u064f\u0631\u064e\u0627\u0628\u064e\u062d\u064e\u0629\u064b\u060c \u0648\u064e\u0643\u064e\u0641\u064e\u0651 \u064a\u064e\u062f\u064e\u0647\u064f \u0639\u064e\u0646\u0650 \u0627\u0644\u0652\u062c\u064e\u0648\u0652\u0631\u0650\u060c \u0648\u064e\u0623\u064e\u062c\u0652\u0631\u064e\u0649 \u0627\u0644\u0652\u0639\u064e\u062f\u0652\u0644\u064e \u0627\u0644\u0652\u062d\u064e\u0642\u064e\u0651 \u0628\u064e\u064a\u0652\u0646\u064e \u0627\u0644\u0625\u0650\u0646\u0652\u0633\u064e\u0627\u0646\u0650 \u0648\u064e\u0627\u0644\u0625\u0650\u0646\u0652\u0633\u064e\u0627\u0646\u0650\u060c"
        },
        {
            "chapter": 18,
            "verse": 9,
            "name": "Ezekiel 18:9",
            "text": "\u0648\u064e\u0633\u064e\u0644\u064e\u0643\u064e \u0641\u0650\u064a \u0641\u064e\u0631\u064e\u0627\u0626\u0650\u0636\u0650\u064a \u0648\u064e\u062d\u064e\u0641\u0650\u0638\u064e \u0623\u064e\u062d\u0652\u0643\u064e\u0627\u0645\u0650\u064a \u0644\u0650\u064a\u064e\u0639\u0652\u0645\u064e\u0644\u064e \u0628\u0650\u0627\u0644\u0652\u062d\u064e\u0642\u0650\u0651 \u0641\u064e\u0647\u064f\u0648\u064e \u0628\u064e\u0627\u0631\u064c\u0651. \u062d\u064e\u064a\u064e\u0627\u0629\u064b \u064a\u064e\u062d\u0652\u064a\u064e\u0627\u060c \u064a\u064e\u0642\u064f\u0648\u0644\u064f \u0627\u0644\u0633\u064e\u0651\u064a\u0650\u0651\u062f\u064f \u0627\u0644\u0631\u064e\u0651\u0628\u064f\u0651.  "
        },
        {
            "chapter": 18,
            "verse": 10,
            "name": "Ezekiel 18:10",
            "text": "\u00ab\u0641\u064e\u0625\u0650\u0646\u0652 \u0648\u064e\u0644\u064e\u062f\u064e \u0627\u0628\u0652\u0646\u064b\u0627 \u0645\u064f\u0639\u0652\u062a\u064e\u0646\u0650\u0641\u064b\u0627 \u0633\u064e\u0641\u064e\u0651\u0627\u0643\u064e \u062f\u064e\u0645\u064d\u060c \u0641\u064e\u0641\u064e\u0639\u064e\u0644\u064e \u0634\u064e\u064a\u0652\u0626\u064b\u0627 \u0645\u0650\u0646\u0652 \u0647\u0630\u0650\u0647\u0650\u060c"
        },
        {
            "chapter": 18,
            "verse": 11,
            "name": "Ezekiel 18:11",
            "text": "\u0648\u064e\u0644\u064e\u0645\u0652 \u064a\u064e\u0641\u0652\u0639\u064e\u0644\u0652 \u0643\u064f\u0644\u064e\u0651 \u062a\u0650\u0644\u0652\u0643\u064e\u060c \u0628\u064e\u0644\u0652 \u0623\u064e\u0643\u064e\u0644\u064e \u0639\u064e\u0644\u064e\u0649 \u0627\u0644\u0652\u062c\u0650\u0628\u064e\u0627\u0644\u0650\u060c \u0648\u064e\u0646\u064e\u062c\u064e\u0651\u0633\u064e \u0627\u0645\u0652\u0631\u064e\u0623\u064e\u0629\u064e \u0642\u064e\u0631\u0650\u064a\u0628\u0650\u0647\u0650\u060c"
        },
        {
            "chapter": 18,
            "verse": 12,
            "name": "Ezekiel 18:12",
            "text": "\u0648\u064e\u0638\u064e\u0644\u064e\u0645\u064e \u0627\u0644\u0652\u0641\u064e\u0642\u0650\u064a\u0631\u064e \u0648\u064e\u0627\u0644\u0652\u0645\u0650\u0633\u0652\u0643\u0650\u064a\u0646\u064e\u060c \u0648\u064e\u0627\u063a\u0652\u062a\u064e\u0635\u064e\u0628\u064e \u0627\u063a\u0652\u062a\u0650\u0635\u064e\u0627\u0628\u064b\u0627\u060c \u0648\u064e\u0644\u064e\u0645\u0652 \u064a\u064e\u0631\u064f\u062f\u064e\u0651 \u0627\u0644\u0631\u064e\u0651\u0647\u0652\u0646\u064e\u060c \u0648\u064e\u0642\u064e\u062f\u0652 \u0631\u064e\u0641\u064e\u0639\u064e \u0639\u064e\u064a\u0652\u0646\u064e\u064a\u0652\u0647\u0650 \u0625\u0650\u0644\u064e\u0649 \u0627\u0644\u0623\u064e\u0635\u0652\u0646\u064e\u0627\u0645\u0650 \u0648\u064e\u0641\u064e\u0639\u064e\u0644\u064e \u0627\u0644\u0631\u0650\u0651\u062c\u0652\u0633\u064e\u060c"
        },
        {
            "chapter": 18,
            "verse": 13,
            "name": "Ezekiel 18:13",
            "text": "\u0648\u064e\u0623\u064e\u0639\u0652\u0637\u064e\u0649 \u0628\u0650\u0627\u0644\u0631\u0650\u0651\u0628\u064e\u0627 \u0648\u064e\u0623\u064e\u062e\u064e\u0630\u064e \u0627\u0644\u0652\u0645\u064f\u0631\u064e\u0627\u0628\u064e\u062d\u064e\u0629\u064e\u060c \u0623\u064e\u0641\u064e\u064a\u064e\u062d\u0652\u064a\u064e\u0627\u061f \u0644\u0627\u064e \u064a\u064e\u062d\u0652\u064a\u064e\u0627! \u0642\u064e\u062f\u0652 \u0639\u064e\u0645\u0650\u0644\u064e \u0643\u064f\u0644\u064e\u0651 \u0647\u0630\u0650\u0647\u0650 \u0627\u0644\u0631\u064e\u0651\u062c\u064e\u0627\u0633\u064e\u0627\u062a\u0650 \u0641\u064e\u0645\u064e\u0648\u0652\u062a\u064b\u0627 \u064a\u064e\u0645\u064f\u0648\u062a\u064f. \u062f\u064e\u0645\u064f\u0647\u064f \u064a\u064e\u0643\u064f\u0648\u0646\u064f \u0639\u064e\u0644\u064e\u0649 \u0646\u064e\u0641\u0652\u0633\u0650\u0647\u0650.  "
        },
        {
            "chapter": 18,
            "verse": 14,
            "name": "Ezekiel 18:14",
            "text": "\u00ab\u0648\u064e\u0625\u0650\u0646\u0652 \u0648\u064e\u0644\u064e\u062f\u064e \u0627\u0628\u0652\u0646\u064b\u0627 \u0631\u064e\u0623\u064e\u0649 \u062c\u064e\u0645\u0650\u064a\u0639\u064e \u062e\u064e\u0637\u064e\u0627\u064a\u064e\u0627 \u0623\u064e\u0628\u0650\u064a\u0647\u0650 \u0627\u0644\u064e\u0651\u062a\u0650\u064a \u0641\u064e\u0639\u064e\u0644\u064e\u0647\u064e\u0627\u060c \u0641\u064e\u0631\u064e\u0622\u0647\u064e\u0627 \u0648\u064e\u0644\u064e\u0645\u0652 \u064a\u064e\u0641\u0652\u0639\u064e\u0644\u0652 \u0645\u0650\u062b\u0652\u0644\u064e\u0647\u064e\u0627."
        },
        {
            "chapter": 18,
            "verse": 15,
            "name": "Ezekiel 18:15",
            "text": "\u0644\u064e\u0645\u0652 \u064a\u064e\u0623\u0652\u0643\u064f\u0644\u0652 \u0639\u064e\u0644\u064e\u0649 \u0627\u0644\u0652\u062c\u0650\u0628\u064e\u0627\u0644\u0650\u060c \u0648\u064e\u0644\u064e\u0645\u0652 \u064a\u064e\u0631\u0652\u0641\u064e\u0639\u0652 \u0639\u064e\u064a\u0652\u0646\u064e\u064a\u0652\u0647\u0650 \u0625\u0650\u0644\u064e\u0649 \u0623\u064e\u0635\u0652\u0646\u064e\u0627\u0645\u0650 \u0628\u064e\u064a\u0652\u062a\u0650 \u0625\u0650\u0633\u0652\u0631\u064e\u0627\u0626\u0650\u064a\u0644\u064e\u060c \u0648\u064e\u0644\u0627\u064e \u0646\u064e\u062c\u064e\u0651\u0633\u064e \u0627\u0645\u0652\u0631\u064e\u0623\u064e\u0629\u064e \u0642\u064e\u0631\u0650\u064a\u0628\u0650\u0647\u0650\u060c"
        },
        {
            "chapter": 18,
            "verse": 16,
            "name": "Ezekiel 18:16",
            "text": "\u0648\u064e\u0644\u0627\u064e \u0638\u064e\u0644\u064e\u0645\u064e \u0625\u0650\u0646\u0652\u0633\u064e\u0627\u0646\u064b\u0627\u060c \u0648\u064e\u0644\u0627\u064e \u0627\u0631\u0652\u062a\u064e\u0647\u064e\u0646\u064e \u0631\u064e\u0647\u0652\u0646\u064b\u0627\u060c \u0648\u064e\u0644\u0627\u064e \u0627\u063a\u0652\u062a\u064e\u0635\u064e\u0628\u064e \u0627\u063a\u0652\u062a\u0650\u0635\u064e\u0627\u0628\u064b\u0627\u060c \u0628\u064e\u0644\u0652 \u0628\u064e\u0630\u064e\u0644\u064e \u062e\u064f\u0628\u0652\u0632\u064e\u0647\u064f \u0644\u0650\u0644\u0652\u062c\u064e\u0648\u0652\u0639\u064e\u0627\u0646\u0650\u060c \u0648\u064e\u0643\u064e\u0633\u064e\u0627 \u0627\u0644\u0652\u0639\u064f\u0631\u0652\u064a\u064e\u0627\u0646\u064e \u062b\u064e\u0648\u0652\u0628\u064b\u0627"
        },
        {
            "chapter": 18,
            "verse": 17,
            "name": "Ezekiel 18:17",
            "text": "\u0648\u064e\u0631\u064e\u0641\u064e\u0639\u064e \u064a\u064e\u062f\u064e\u0647\u064f \u0639\u064e\u0646\u0650 \u0627\u0644\u0652\u0641\u064e\u0642\u0650\u064a\u0631\u0650\u060c \u0648\u064e\u0644\u064e\u0645\u0652 \u064a\u064e\u0623\u0652\u062e\u064f\u0630\u0652 \u0631\u0650\u0628\u064b\u0627 \u0648\u064e\u0644\u0627\u064e \u0645\u064f\u0631\u064e\u0627\u0628\u064e\u062d\u064e\u0629\u064b\u060c \u0628\u064e\u0644\u0652 \u0623\u064e\u062c\u0652\u0631\u064e\u0649 \u0623\u064e\u062d\u0652\u0643\u064e\u0627\u0645\u0650\u064a \u0648\u064e\u0633\u064e\u0644\u064e\u0643\u064e \u0641\u0650\u064a \u0641\u064e\u0631\u064e\u0627\u0626\u0650\u0636\u0650\u064a\u060c \u0641\u064e\u0625\u0650\u0646\u064e\u0651\u0647\u064f \u0644\u0627\u064e \u064a\u064e\u0645\u064f\u0648\u062a\u064f \u0628\u0650\u0625\u0650\u062b\u0652\u0645\u0650 \u0623\u064e\u0628\u0650\u064a\u0647\u0650. \u062d\u064e\u064a\u064e\u0627\u0629\u064b \u064a\u064e\u062d\u0652\u064a\u064e\u0627."
        },
        {
            "chapter": 18,
            "verse": 18,
            "name": "Ezekiel 18:18",
            "text": "\u0623\u064e\u0645\u064e\u0651\u0627 \u0623\u064e\u0628\u064f\u0648\u0647\u064f \u0641\u064e\u0644\u0623\u064e\u0646\u064e\u0651\u0647\u064f \u0638\u064e\u0644\u064e\u0645\u064e \u0638\u064f\u0644\u0652\u0645\u064b\u0627\u060c \u0648\u064e\u0627\u063a\u0652\u062a\u064e\u0635\u064e\u0628\u064e \u0623\u064e\u062e\u064e\u0627\u0647\u064f \u0627\u063a\u0652\u062a\u0650\u0635\u064e\u0627\u0628\u064b\u0627\u060c \u0648\u064e\u0639\u064e\u0645\u0650\u0644\u064e \u063a\u064e\u064a\u0652\u0631\u064e \u0627\u0644\u0635\u064e\u0651\u0627\u0644\u0650\u062d\u0650 \u0628\u064e\u064a\u0652\u0646\u064e \u0634\u064e\u0639\u0652\u0628\u0650\u0647\u0650\u060c \u0641\u064e\u0647\u064f\u0648\u064e\u0630\u064e\u0627 \u064a\u064e\u0645\u064f\u0648\u062a\u064f \u0628\u0650\u0625\u0650\u062b\u0652\u0645\u0650\u0647\u0650.  "
        },
        {
            "chapter": 18,
            "verse": 19,
            "name": "Ezekiel 18:19",
            "text": "\u00ab\u0648\u064e\u0623\u064e\u0646\u0652\u062a\u064f\u0645\u0652 \u062a\u064e\u0642\u064f\u0648\u0644\u064f\u0648\u0646\u064e: \u0644\u0650\u0645\u064e\u0627\u0630\u064e\u0627 \u0644\u0627\u064e \u064a\u064e\u062d\u0652\u0645\u0650\u0644\u064f \u0627\u0644\u0627\u0628\u0652\u0646\u064f \u0645\u0650\u0646\u0652 \u0625\u0650\u062b\u0652\u0645\u0650 \u0627\u0644\u0623\u064e\u0628\u0650\u061f \u0623\u064e\u0645\u064e\u0651\u0627 \u0627\u0644\u0627\u0628\u0652\u0646\u064f \u0641\u064e\u0642\u064e\u062f\u0652 \u0641\u064e\u0639\u064e\u0644\u064e \u062d\u064e\u0642\u064b\u0651\u0627 \u0648\u064e\u0639\u064e\u062f\u0652\u0644\u0627\u064b. \u062d\u064e\u0641\u0650\u0638\u064e \u062c\u064e\u0645\u0650\u064a\u0639\u064e \u0641\u064e\u0631\u064e\u0627\u0626\u0650\u0636\u0650\u064a \u0648\u064e\u0639\u064e\u0645\u0650\u0644\u064e \u0628\u0650\u0647\u064e\u0627 \u0641\u064e\u062d\u064e\u064a\u064e\u0627\u0629\u064b \u064a\u064e\u062d\u0652\u064a\u064e\u0627."
        },
        {
            "chapter": 18,
            "verse": 20,
            "name": "Ezekiel 18:20",
            "text": "\u0627\u064e\u0644\u0646\u064e\u0651\u0641\u0652\u0633\u064f \u0627\u0644\u064e\u0651\u062a\u0650\u064a \u062a\u064f\u062e\u0652\u0637\u0650\u0626\u064f \u0647\u0650\u064a\u064e \u062a\u064e\u0645\u064f\u0648\u062a\u064f. \u0627\u064e\u0644\u0627\u0628\u0652\u0646\u064f \u0644\u0627\u064e \u064a\u064e\u062d\u0652\u0645\u0650\u0644\u064f \u0645\u0650\u0646\u0652 \u0625\u0650\u062b\u0652\u0645\u0650 \u0627\u0644\u0623\u064e\u0628\u0650\u060c \u0648\u064e\u0627\u0644\u0623\u064e\u0628\u064f \u0644\u0627\u064e \u064a\u064e\u062d\u0652\u0645\u0650\u0644\u064f \u0645\u0650\u0646\u0652 \u0625\u0650\u062b\u0652\u0645\u0650 \u0627\u0644\u0627\u0628\u0652\u0646\u0650. \u0628\u0650\u0631\u064f\u0651 \u0627\u0644\u0652\u0628\u064e\u0627\u0631\u0650\u0651 \u0639\u064e\u0644\u064e\u064a\u0652\u0647\u0650 \u064a\u064e\u0643\u064f\u0648\u0646\u064f\u060c \u0648\u064e\u0634\u064e\u0631\u064f\u0651 \u0627\u0644\u0634\u0650\u0651\u0631\u0650\u0651\u064a\u0631\u0650 \u0639\u064e\u0644\u064e\u064a\u0652\u0647\u0650 \u064a\u064e\u0643\u064f\u0648\u0646\u064f."
        },
        {
            "chapter": 18,
            "verse": 21,
            "name": "Ezekiel 18:21",
            "text": "\u0641\u064e\u0625\u0650\u0630\u064e\u0627 \u0631\u064e\u062c\u064e\u0639\u064e \u0627\u0644\u0634\u0650\u0651\u0631\u0650\u0651\u064a\u0631\u064f \u0639\u064e\u0646\u0652 \u062c\u064e\u0645\u0650\u064a\u0639\u0650 \u062e\u064e\u0637\u064e\u0627\u064a\u064e\u0627\u0647\u064f \u0627\u0644\u064e\u0651\u062a\u0650\u064a \u0641\u064e\u0639\u064e\u0644\u064e\u0647\u064e\u0627 \u0648\u064e\u062d\u064e\u0641\u0650\u0638\u064e \u0643\u064f\u0644\u064e\u0651 \u0641\u064e\u0631\u064e\u0627\u0626\u0650\u0636\u0650\u064a \u0648\u064e\u0641\u064e\u0639\u064e\u0644\u064e \u062d\u064e\u0642\u064b\u0651\u0627 \u0648\u064e\u0639\u064e\u062f\u0652\u0644\u0627\u064b \u0641\u064e\u062d\u064e\u064a\u064e\u0627\u0629\u064b \u064a\u064e\u062d\u0652\u064a\u064e\u0627. \u0644\u0627\u064e \u064a\u064e\u0645\u064f\u0648\u062a\u064f."
        },
        {
            "chapter": 18,
            "verse": 22,
            "name": "Ezekiel 18:22",
            "text": "\u0643\u064f\u0644\u064f\u0651 \u0645\u064e\u0639\u064e\u0627\u0635\u0650\u064a\u0647\u0650 \u0627\u0644\u064e\u0651\u062a\u0650\u064a \u0641\u064e\u0639\u064e\u0644\u064e\u0647\u064e\u0627 \u0644\u0627\u064e \u062a\u064f\u0630\u0652\u0643\u064e\u0631\u064f \u0639\u064e\u0644\u064e\u064a\u0652\u0647\u0650. \u0641\u0650\u064a \u0628\u0650\u0631\u0650\u0651\u0647\u0650 \u0627\u0644\u064e\u0651\u0630\u0650\u064a \u0639\u064e\u0645\u0650\u0644\u064e \u064a\u064e\u062d\u0652\u064a\u064e\u0627."
        },
        {
            "chapter": 18,
            "verse": 23,
            "name": "Ezekiel 18:23",
            "text": "\u0647\u064e\u0644\u0652 \u0645\u064e\u0633\u064e\u0631\u064e\u0651\u0629\u064b \u0623\u064f\u0633\u064e\u0631\u064f\u0651 \u0628\u0650\u0645\u064e\u0648\u0652\u062a\u0650 \u0627\u0644\u0634\u0650\u0651\u0631\u0650\u0651\u064a\u0631\u0650\u061f \u064a\u064e\u0642\u064f\u0648\u0644\u064f \u0627\u0644\u0633\u064e\u0651\u064a\u0650\u0651\u062f\u064f \u0627\u0644\u0631\u064e\u0651\u0628\u064f\u0651. \u0623\u064e\u0644\u0627\u064e \u0628\u0650\u0631\u064f\u062c\u064f\u0648\u0639\u0650\u0647\u0650 \u0639\u064e\u0646\u0652 \u0637\u064f\u0631\u064f\u0642\u0650\u0647\u0650 \u0641\u064e\u064a\u064e\u062d\u0652\u064a\u064e\u0627\u061f"
        },
        {
            "chapter": 18,
            "verse": 24,
            "name": "Ezekiel 18:24",
            "text": "\u0648\u064e\u0625\u0650\u0630\u064e\u0627 \u0631\u064e\u062c\u064e\u0639\u064e \u0627\u0644\u0652\u0628\u064e\u0627\u0631\u064f\u0651 \u0639\u064e\u0646\u0652 \u0628\u0650\u0631\u0650\u0651\u0647\u0650 \u0648\u064e\u0639\u064e\u0645\u0650\u0644\u064e \u0625\u0650\u062b\u0652\u0645\u064b\u0627 \u0648\u064e\u0641\u064e\u0639\u064e\u0644\u064e \u0645\u0650\u062b\u0652\u0644\u064e \u0643\u064f\u0644\u0650\u0651 \u0627\u0644\u0631\u064e\u0651\u062c\u064e\u0627\u0633\u064e\u0627\u062a\u0650 \u0627\u0644\u064e\u0651\u062a\u0650\u064a \u064a\u064e\u0641\u0652\u0639\u064e\u0644\u064f\u0647\u064e\u0627 \u0627\u0644\u0634\u0650\u0651\u0631\u0650\u0651\u064a\u0631\u064f\u060c \u0623\u064e\u0641\u064e\u064a\u064e\u062d\u0652\u064a\u064e\u0627\u061f \u0643\u064f\u0644\u064f\u0651 \u0628\u0650\u0631\u0650\u0651\u0647\u0650 \u0627\u0644\u064e\u0651\u0630\u0650\u064a \u0639\u064e\u0645\u0650\u0644\u064e\u0647\u064f \u0644\u0627\u064e \u064a\u064f\u0630\u0652\u0643\u064e\u0631\u064f. \u0641\u0650\u064a \u062e\u0650\u064a\u064e\u0627\u0646\u064e\u062a\u0650\u0647\u0650 \u0627\u0644\u064e\u0651\u062a\u0650\u064a \u062e\u064e\u0627\u0646\u064e\u0647\u064e\u0627 \u0648\u064e\u0641\u0650\u064a \u062e\u064e\u0637\u0650\u064a\u064e\u0651\u062a\u0650\u0647\u0650 \u0627\u0644\u064e\u0651\u062a\u0650\u064a \u0623\u064e\u062e\u0652\u0637\u064e\u0623\u064e \u0628\u0650\u0647\u064e\u0627 \u064a\u064e\u0645\u064f\u0648\u062a\u064f.  "
        },
        {
            "chapter": 18,
            "verse": 25,
            "name": "Ezekiel 18:25",
            "text": "\u00ab\u0648\u064e\u0623\u064e\u0646\u0652\u062a\u064f\u0645\u0652 \u062a\u064e\u0642\u064f\u0648\u0644\u064f\u0648\u0646\u064e: \u0644\u064e\u064a\u0652\u0633\u064e\u062a\u0652 \u0637\u064e\u0631\u0650\u064a\u0642\u064f \u0627\u0644\u0631\u064e\u0651\u0628\u0650\u0651 \u0645\u064f\u0633\u0652\u062a\u064e\u0648\u0650\u064a\u064e\u0629\u064b. \u0641\u064e\u0627\u0633\u0652\u0645\u064e\u0639\u064f\u0648\u0627 \u0627\u0644\u0622\u0646\u064e \u064a\u064e\u0627 \u0628\u064e\u064a\u0652\u062a\u064e \u0625\u0650\u0633\u0652\u0631\u064e\u0627\u0626\u0650\u064a\u0644\u064e: \u0623\u064e\u0637\u064e\u0631\u0650\u064a\u0642\u0650\u064a \u0647\u0650\u064a\u064e \u063a\u064e\u064a\u0652\u0631\u064f \u0645\u064f\u0633\u0652\u062a\u064e\u0648\u0650\u064a\u064e\u0629\u064d\u061f \u0623\u064e\u0644\u064e\u064a\u0652\u0633\u064e\u062a\u0652 \u0637\u064f\u0631\u064f\u0642\u064f\u0643\u064f\u0645\u0652 \u063a\u064e\u064a\u0652\u0631\u064e \u0645\u064f\u0633\u0652\u062a\u064e\u0648\u0650\u064a\u064e\u0629\u064d\u061f"
        },
        {
            "chapter": 18,
            "verse": 26,
            "name": "Ezekiel 18:26",
            "text": "\u0625\u0650\u0630\u064e\u0627 \u0631\u064e\u062c\u064e\u0639\u064e \u0627\u0644\u0652\u0628\u064e\u0627\u0631\u064f\u0651 \u0639\u064e\u0646\u0652 \u0628\u0650\u0631\u0650\u0651\u0647\u0650 \u0648\u064e\u0639\u064e\u0645\u0650\u0644\u064e \u0625\u0650\u062b\u0652\u0645\u064b\u0627 \u0648\u064e\u0645\u064e\u0627\u062a\u064e \u0641\u0650\u064a\u0647\u0650\u060c \u0641\u064e\u0628\u0650\u0625\u0650\u062b\u0652\u0645\u0650\u0647\u0650 \u0627\u0644\u064e\u0651\u0630\u0650\u064a \u0639\u064e\u0645\u0650\u0644\u064e\u0647\u064f \u064a\u064e\u0645\u064f\u0648\u062a\u064f."
        },
        {
            "chapter": 18,
            "verse": 27,
            "name": "Ezekiel 18:27",
            "text": "\u0648\u064e\u0625\u0650\u0630\u064e\u0627 \u0631\u064e\u062c\u064e\u0639\u064e \u0627\u0644\u0634\u0650\u0651\u0631\u0650\u0651\u064a\u0631\u064f \u0639\u064e\u0646\u0652 \u0634\u064e\u0631\u0650\u0651\u0647\u0650 \u0627\u0644\u064e\u0651\u0630\u0650\u064a \u0641\u064e\u0639\u064e\u0644\u064e\u060c \u0648\u064e\u0639\u064e\u0645\u0650\u0644\u064e \u062d\u064e\u0642\u064b\u0651\u0627 \u0648\u064e\u0639\u064e\u062f\u0652\u0644\u0627\u064b\u060c \u0641\u064e\u0647\u064f\u0648\u064e \u064a\u064f\u062d\u0652\u064a\u0650\u064a \u0646\u064e\u0641\u0652\u0633\u064e\u0647\u064f."
        },
        {
            "chapter": 18,
            "verse": 28,
            "name": "Ezekiel 18:28",
            "text": "\u0631\u064e\u0623\u064e\u0649 \u0641\u064e\u0631\u064e\u062c\u064e\u0639\u064e \u0639\u064e\u0646\u0652 \u0643\u064f\u0644\u0650\u0651 \u0645\u064e\u0639\u064e\u0627\u0635\u0650\u064a\u0647\u0650 \u0627\u0644\u064e\u0651\u062a\u0650\u064a \u0639\u064e\u0645\u0650\u0644\u064e\u0647\u064e\u0627 \u0641\u064e\u062d\u064e\u064a\u064e\u0627\u0629\u064b \u064a\u064e\u062d\u0652\u064a\u064e\u0627. \u0644\u0627\u064e \u064a\u064e\u0645\u064f\u0648\u062a\u064f."
        },
        {
            "chapter": 18,
            "verse": 29,
            "name": "Ezekiel 18:29",
            "text": "\u0648\u064e\u0628\u064e\u064a\u0652\u062a\u064f \u0625\u0650\u0633\u0652\u0631\u064e\u0627\u0626\u0650\u064a\u0644\u064e \u064a\u064e\u0642\u064f\u0648\u0644\u064f: \u0644\u064e\u064a\u0652\u0633\u064e\u062a\u0652 \u0637\u064e\u0631\u0650\u064a\u0642\u064f \u0627\u0644\u0631\u064e\u0651\u0628\u0650\u0651 \u0645\u064f\u0633\u0652\u062a\u064e\u0648\u0650\u064a\u064e\u0629\u064b. \u0623\u064e\u0637\u064f\u0631\u064f\u0642\u0650\u064a \u063a\u064e\u064a\u0652\u0631\u064f \u0645\u064f\u0633\u0652\u062a\u064e\u0642\u0650\u064a\u0645\u064e\u0629\u064d \u064a\u064e\u0627 \u0628\u064e\u064a\u0652\u062a\u064e \u0625\u0650\u0633\u0652\u0631\u064e\u0627\u0626\u0650\u064a\u0644\u064e\u061f \u0623\u064e\u0644\u064e\u064a\u0652\u0633\u064e\u062a\u0652 \u0637\u064f\u0631\u064f\u0642\u064f\u0643\u064f\u0645\u0652 \u063a\u064e\u064a\u0652\u0631\u064e \u0645\u064f\u0633\u0652\u062a\u064e\u0642\u0650\u064a\u0645\u064e\u0629\u064d\u061f"
        },
        {
            "chapter": 18,
            "verse": 30,
            "name": "Ezekiel 18:30",
            "text": "\u0645\u0650\u0646\u0652 \u0623\u064e\u062c\u0652\u0644\u0650 \u0630\u0644\u0650\u0643\u064e \u0623\u064e\u0642\u0652\u0636\u0650\u064a \u0639\u064e\u0644\u064e\u064a\u0652\u0643\u064f\u0645\u0652 \u064a\u064e\u0627 \u0628\u064e\u064a\u0652\u062a\u064e \u0625\u0650\u0633\u0652\u0631\u064e\u0627\u0626\u0650\u064a\u0644\u064e\u060c \u0643\u064f\u0644\u0650\u0651 \u0648\u064e\u0627\u062d\u0650\u062f\u064d \u0643\u064e\u0637\u064f\u0631\u064f\u0642\u0650\u0647\u0650\u060c \u064a\u064e\u0642\u064f\u0648\u0644\u064f \u0627\u0644\u0633\u064e\u0651\u064a\u0650\u0651\u062f\u064f \u0627\u0644\u0631\u064e\u0651\u0628\u064f\u0651. \u062a\u064f\u0648\u0628\u064f\u0648\u0627 \u0648\u064e\u0627\u0631\u0652\u062c\u0650\u0639\u064f\u0648\u0627 \u0639\u064e\u0646\u0652 \u0643\u064f\u0644\u0650\u0651 \u0645\u064e\u0639\u064e\u0627\u0635\u0650\u064a\u0643\u064f\u0645\u0652\u060c \u0648\u064e\u0644\u0627\u064e \u064a\u064e\u0643\u064f\u0648\u0646\u064f \u0644\u064e\u0643\u064f\u0645\u064f \u0627\u0644\u0625\u0650\u062b\u0652\u0645\u064f \u0645\u064e\u0647\u0652\u0644\u064e\u0643\u064e\u0629\u064b."
        },
        {
            "chapter": 18,
            "verse": 31,
            "name": "Ezekiel 18:31",
            "text": "\u0627\u0650\u0637\u0652\u0631\u064e\u062d\u064f\u0648\u0627 \u0639\u064e\u0646\u0652\u0643\u064f\u0645\u0652 \u0643\u064f\u0644\u064e\u0651 \u0645\u064e\u0639\u064e\u0627\u0635\u0650\u064a\u0643\u064f\u0645\u064f \u0627\u0644\u064e\u0651\u062a\u0650\u064a \u0639\u064e\u0635\u064e\u064a\u0652\u062a\u064f\u0645\u0652 \u0628\u0650\u0647\u064e\u0627\u060c \u0648\u064e\u0627\u0639\u0652\u0645\u064e\u0644\u064f\u0648\u0627 \u0644\u0623\u064e\u0646\u0652\u0641\u064f\u0633\u0650\u0643\u064f\u0645\u0652 \u0642\u064e\u0644\u0652\u0628\u064b\u0627 \u062c\u064e\u062f\u0650\u064a\u062f\u064b\u0627 \u0648\u064e\u0631\u064f\u0648\u062d\u064b\u0627 \u062c\u064e\u062f\u0650\u064a\u062f\u064e\u0629\u064b. \u0641\u064e\u0644\u0650\u0645\u064e\u0627\u0630\u064e\u0627 \u062a\u064e\u0645\u064f\u0648\u062a\u064f\u0648\u0646\u064e \u064a\u064e\u0627 \u0628\u064e\u064a\u0652\u062a\u064e \u0625\u0650\u0633\u0652\u0631\u064e\u0627\u0626\u0650\u064a\u0644\u064e\u061f"
        },
        {
            "chapter": 18,
            "verse": 32,
            "name": "Ezekiel 18:32",
            "text": "\u0644\u0623\u064e\u0646\u0650\u0651\u064a \u0644\u0627\u064e \u0623\u064f\u0633\u064e\u0631\u064f\u0651 \u0628\u0650\u0645\u064e\u0648\u0652\u062a\u0650 \u0645\u064e\u0646\u0652 \u064a\u064e\u0645\u064f\u0648\u062a\u064f\u060c \u064a\u064e\u0642\u064f\u0648\u0644\u064f \u0627\u0644\u0633\u064e\u0651\u064a\u0650\u0651\u062f\u064f \u0627\u0644\u0631\u064e\u0651\u0628\u064f\u0651\u060c \u0641\u064e\u0627\u0631\u0652\u062c\u0650\u0639\u064f\u0648\u0627 \u0648\u064e\u0627\u062d\u0652\u064a\u064e\u0648\u0652\u0627. "
        }
    ]
}