{
    "translation": "Darby",
    "abbreviation": "darby",
    "lang": "fr",
    "language": "French",
    "direction": "LTR",
    "encoding": "UTF-8",
    "book_nr": 19,
    "book_name": "Psalms",
    "chapter": 13,
    "name": "Psalms 13",
    "verses": [
        {
            "chapter": 13,
            "verse": 1,
            "name": "Psalms 13:1",
            "text": "   Jusques \u00e0 quand, \u00f4 \u00c9ternel, m'oublieras-tu toujours\u00a0? Jusques \u00e0 quand cacheras-tu ta face de moi\u00a0? "
        },
        {
            "chapter": 13,
            "verse": 2,
            "name": "Psalms 13:2",
            "text": "Jusques \u00e0 quand consulterai-je dans mon \u00e2me, avec chagrin dans mon c\u0153ur, tous les jours\u00a0? Jusques \u00e0 quand mon ennemi s'\u00e9l\u00e8vera-t-il par-dessus moi\u00a0? "
        },
        {
            "chapter": 13,
            "verse": 3,
            "name": "Psalms 13:3",
            "text": "Regarde, r\u00e9ponds-moi, \u00c9ternel, mon Dieu\u00a0! Illumine mes yeux, de peur que je ne dorme [du sommeil] de la mort\u00a0; "
        },
        {
            "chapter": 13,
            "verse": 4,
            "name": "Psalms 13:4",
            "text": "De peur que mon ennemi ne dise\u00a0: J'ai eu le dessus sur lui, [et] que mes adversaires ne se r\u00e9jouissent de ce que j'aurai \u00e9t\u00e9 \u00e9branl\u00e9. "
        },
        {
            "chapter": 13,
            "verse": 5,
            "name": "Psalms 13:5",
            "text": "Mais pour moi, je me suis confi\u00e9 en ta bont\u00e9, mon c\u0153ur s'est r\u00e9joui dans ton salut.   \u2731 Je chanterai \u00e0 l'\u00c9ternel, parce qu'il m'a fait du bien.   "
        },
        {
            "chapter": 13,
            "verse": 6,
            "name": "Psalms 13:6",
            "text": ""
        }
    ]
}