{
  "translation": "GOD'S WORD to the Nations",
  "abbreviation": "godsword",
  "lang": "en",
  "language": "English",
  "direction": "LTR",
  "encoding": "UTF-8",
  "nr": 17,
  "name": "Esther",
  "chapters": [
    {
      "chapter": 1,
      "name": "Esther 1",
      "verses": [
        {
          "chapter": 1,
          "verse": 1,
          "name": "Esther 1:1",
          "text": "In the days of Xerxes the following events took place. This was the same Xerxes who ruled over 127 provinces from India to Sudan. "
        },
        {
          "chapter": 1,
          "verse": 2,
          "name": "Esther 1:2",
          "text": "At the time when King Xerxes sat on the royal throne in the fortress of Susa, "
        },
        {
          "chapter": 1,
          "verse": 3,
          "name": "Esther 1:3",
          "text": "he held a banquet in the third year of his reign. The banquet was for all his officials and advisers, that is, the military officers of the Persians and Medes, the nobles and officials of the provinces who had access to him. "
        },
        {
          "chapter": 1,
          "verse": 4,
          "name": "Esther 1:4",
          "text": "He showed them the enormous wealth of his kingdom and the costly splendor of his greatness for many days, 180 to be exact. "
        },
        {
          "chapter": 1,
          "verse": 5,
          "name": "Esther 1:5",
          "text": "When those days were over, the king held a banquet lasting seven days. This banquet was held in the enclosed garden of the king's palace for all people in the fortress of Susa, whatever their rank. "
        },
        {
          "chapter": 1,
          "verse": 6,
          "name": "Esther 1:6",
          "text": "The garden had white and violet linen curtains. These curtains were attached to silver rods and marble pillars by cords made of white and purple fine linen. Gold and silver couches were on a mosaic pavement of purple rock, white marble, pearl-like stone, and black marble. "
        },
        {
          "chapter": 1,
          "verse": 7,
          "name": "Esther 1:7",
          "text": "People drank from golden cups. No two cups were alike. The king also provided plenty of royal wine out of his royal generosity. "
        },
        {
          "chapter": 1,
          "verse": 8,
          "name": "Esther 1:8",
          "text": "The drinking followed this rule: Drink as you please. (The king had ordered all the waiters in his palace to let everyone do as he pleased.) "
        },
        {
          "chapter": 1,
          "verse": 9,
          "name": "Esther 1:9",
          "text": "Queen Vashti also held a banquet for the women at the royal palace of King Xerxes.   "
        },
        {
          "chapter": 1,
          "verse": 10,
          "name": "Esther 1:10",
          "text": "On the seventh day when the king was drunk on wine, he ordered Mehuman, Biztha, Harbona, Bigtha, Abagtha, Zethar, and Carcas, the seven eunuchs who served under King Xerxes, "
        },
        {
          "chapter": 1,
          "verse": 11,
          "name": "Esther 1:11",
          "text": "to bring Queen Vashti in front of the king, wearing her royal crown. He wanted to show the people, especially the officials, her beauty, because she was very attractive. "
        },
        {
          "chapter": 1,
          "verse": 12,
          "name": "Esther 1:12",
          "text": "But Queen Vashti refused the king's command that the eunuchs delivered to her. As a result, the king became very angry, and his rage burned inside him. "
        },
        {
          "chapter": 1,
          "verse": 13,
          "name": "Esther 1:13",
          "text": "Now, the king usually asked for advice from all the experts in royal decrees and decisions, "
        },
        {
          "chapter": 1,
          "verse": 14,
          "name": "Esther 1:14",
          "text": "from those closest to him--Carshena, Shethar, Admatha, Tarshish, Meres, Marsena, and Memucan. These seven officials of the Persians and Medes had access to the king and held the highest rank in the kingdom. The king asked these wise men who knew the times, "
        },
        {
          "chapter": 1,
          "verse": 15,
          "name": "Esther 1:15",
          "text": "\"According to the royal decrees, what must we do with Queen Vashti since she did not obey King Xerxes' command, which the eunuchs delivered?\" "
        },
        {
          "chapter": 1,
          "verse": 16,
          "name": "Esther 1:16",
          "text": "Then Memucan spoke up in the presence of the king and the officials, \"Queen Vashti has done wrong, not only against the king but also against all the officials and all the people in every province of King Xerxes. "
        },
        {
          "chapter": 1,
          "verse": 17,
          "name": "Esther 1:17",
          "text": "The news of what the queen has done will spread to all women, and they will despise their husbands. They will say, 'King Xerxes ordered Queen Vashti to be brought to him, but she would not come.' "
        },
        {
          "chapter": 1,
          "verse": 18,
          "name": "Esther 1:18",
          "text": "Today the wives of the officials in Persia and Media who have heard what the queen did will talk back to all the king's officials. There will be contempt and short tempers. "
        },
        {
          "chapter": 1,
          "verse": 19,
          "name": "Esther 1:19",
          "text": "If it pleases you, Your Majesty, issue a royal decree. It should be recorded in the decrees of the Persians and Medes, never to be repealed, that Vashti may never again appear in front of King Xerxes. Furthermore, Your Majesty, you should give her royal position to another woman who is more worthy than she. "
        },
        {
          "chapter": 1,
          "verse": 20,
          "name": "Esther 1:20",
          "text": "When you issue your decree, your whole kingdom, great as it is, will hear it. Then all the wives will honor their husbands, regardless of their status.\" "
        },
        {
          "chapter": 1,
          "verse": 21,
          "name": "Esther 1:21",
          "text": "The king and his officials approved of this, and so the king did as Memucan suggested. "
        },
        {
          "chapter": 1,
          "verse": 22,
          "name": "Esther 1:22",
          "text": "He sent official documents to all the king's provinces, to each province in its own script and to the people in each province in their own language: \"Let every husband be the ruler in his own house and speak with authority.\"  "
        }
      ]
    },
    {
      "chapter": 2,
      "name": "Esther 2",
      "verses": [
        {
          "chapter": 2,
          "verse": 1,
          "name": "Esther 2:1",
          "text": "Later, when King Xerxes got over his raging anger, he remembered Vashti, what she had done, and what had been decided against her. "
        },
        {
          "chapter": 2,
          "verse": 2,
          "name": "Esther 2:2",
          "text": "So the king's personal staff said to him, \"Search for attractive young virgins for the king. "
        },
        {
          "chapter": 2,
          "verse": 3,
          "name": "Esther 2:3",
          "text": "And appoint scouts in all the provinces of your kingdom to gather all the attractive young virgins and bring them to the fortress of Susa, to the women's quarters. There, in the care of the king's eunuch Hegai, the guardian of the women, they will have their beauty treatment. "
        },
        {
          "chapter": 2,
          "verse": 4,
          "name": "Esther 2:4",
          "text": "Then the young woman who pleases you, Your Majesty, will become queen instead of Vashti.\" The king liked the suggestion, and so he did just that. "
        },
        {
          "chapter": 2,
          "verse": 5,
          "name": "Esther 2:5",
          "text": "In the fortress of Susa there was a Jew from the tribe of Benjamin named Mordecai. He was the son of Jair, the grandson of Shimei, and the great-grandson of Kish. "
        },
        {
          "chapter": 2,
          "verse": 6,
          "name": "Esther 2:6",
          "text": "(Kish had been taken captive from Jerusalem together with the others who had gone into exile along with Judah's King Jehoiakin, whom King Nebuchadnezzar of Babylon had carried away.) "
        },
        {
          "chapter": 2,
          "verse": 7,
          "name": "Esther 2:7",
          "text": "Mordecai had raised Hadassah, also known as Esther, his uncle's daughter, because she was an orphan. The young woman had a beautiful figure and was very attractive. When her father and mother died, Mordecai adopted her as his own daughter. "
        },
        {
          "chapter": 2,
          "verse": 8,
          "name": "Esther 2:8",
          "text": "When the king's announcement and decree were heard, many young women were gathered together and brought to the fortress of Susa. They were placed in the care of Hegai. Esther also was taken to the king's palace and placed in the care of Hegai, the guardian of the women. "
        },
        {
          "chapter": 2,
          "verse": 9,
          "name": "Esther 2:9",
          "text": "The young woman pleased him and won his affection. So he immediately provided her with the beauty treatment, a daily supply of food, and seven suitable female servants from the king's palace. Then he moved her and her servants to the best place in the women's quarters. "
        },
        {
          "chapter": 2,
          "verse": 10,
          "name": "Esther 2:10",
          "text": "Esther did not reveal her nationality or her family background, because Mordecai had ordered her not to. "
        },
        {
          "chapter": 2,
          "verse": 11,
          "name": "Esther 2:11",
          "text": "Every day Mordecai would walk back and forth in front of the courtyard of the women's quarters to find out how Esther was and what was happening to her. "
        },
        {
          "chapter": 2,
          "verse": 12,
          "name": "Esther 2:12",
          "text": "Each young woman had her turn to go to King Xerxes after she had completed the required 12-month treatment for women. The time of beauty treatment was spent as follows: six months using oil of myrrh and six months using perfumes and other treatments for women. "
        },
        {
          "chapter": 2,
          "verse": 13,
          "name": "Esther 2:13",
          "text": "After that, the young woman would go to the king. Anything she wanted to take with her from the women's quarters to the king's palace was given to her. "
        },
        {
          "chapter": 2,
          "verse": 14,
          "name": "Esther 2:14",
          "text": "She would go in the evening and come back in the morning to the other quarters for women. There she would be in the care of the king's eunuch Shaashgaz, the guardian of the concubines. She never went to the king again unless the king desired her and requested her by name. "
        },
        {
          "chapter": 2,
          "verse": 15,
          "name": "Esther 2:15",
          "text": "(Esther was the daughter of Abihail, Mordecai's uncle. Mordecai had adopted her as his own daughter.) When Esther's turn came to go to the king, she asked only for what the king's eunuch Hegai, the guardian of the women, advised. Everyone who saw Esther liked her. "
        },
        {
          "chapter": 2,
          "verse": 16,
          "name": "Esther 2:16",
          "text": "So Esther was taken to King Xerxes in his royal palace in the month of Tebeth, the tenth month, in the seventh year of his reign. "
        },
        {
          "chapter": 2,
          "verse": 17,
          "name": "Esther 2:17",
          "text": "Now, the king loved Esther more than all the other women and favored her over all the other virgins. So he put the royal crown on her head and made her queen instead of Vashti. "
        },
        {
          "chapter": 2,
          "verse": 18,
          "name": "Esther 2:18",
          "text": "Then the king held a great banquet for Esther. He invited all his officials and his advisers. He also declared that day a holiday in the provinces, and he handed out gifts from his royal generosity. "
        },
        {
          "chapter": 2,
          "verse": 19,
          "name": "Esther 2:19",
          "text": "When the virgins were gathered a second time, Mordecai was sitting at the king's gate. "
        },
        {
          "chapter": 2,
          "verse": 20,
          "name": "Esther 2:20",
          "text": "Esther still had not revealed her family background or nationality, as Mordecai had ordered her. Esther always did whatever Mordecai told her, as she did when she was a child.   "
        },
        {
          "chapter": 2,
          "verse": 21,
          "name": "Esther 2:21",
          "text": "In those days, while Mordecai was sitting at the king's gate, Bigthan and Teresh, two of the king's eunuchs who guarded the entrance, became angry and planned to kill King Xerxes. "
        },
        {
          "chapter": 2,
          "verse": 22,
          "name": "Esther 2:22",
          "text": "But Mordecai found out about it and informed Queen Esther. Then Esther told the king, on behalf of Mordecai. "
        },
        {
          "chapter": 2,
          "verse": 23,
          "name": "Esther 2:23",
          "text": "When the report was investigated and found to be true, the dead bodies of Bigthan and Teresh were hung on a pole. The matter was written up in the king's presence in his official record of daily events.  "
        }
      ]
    },
    {
      "chapter": 3,
      "name": "Esther 3",
      "verses": [
        {
          "chapter": 3,
          "verse": 1,
          "name": "Esther 3:1",
          "text": "Later, King Xerxes promoted Haman. (Haman was the son of Hammedatha and was from Agag.) He gave Haman a position higher in authority than all the other officials who were with him. "
        },
        {
          "chapter": 3,
          "verse": 2,
          "name": "Esther 3:2",
          "text": "All the king's advisers were at the king's gate, kneeling and bowing to Haman with their faces touching the ground, because the king had commanded it. But Mordecai would not kneel and bow to him. "
        },
        {
          "chapter": 3,
          "verse": 3,
          "name": "Esther 3:3",
          "text": "Then the king's advisers at the king's gate asked Mordecai, \"Why do you ignore the king's command?\" "
        },
        {
          "chapter": 3,
          "verse": 4,
          "name": "Esther 3:4",
          "text": "Although they asked him day after day, he paid no attention to them. So they informed Haman to see if Mordecai's actions would be tolerated, since Mordecai had told them that he was a Jew. "
        },
        {
          "chapter": 3,
          "verse": 5,
          "name": "Esther 3:5",
          "text": "When Haman saw that Mordecai did not kneel and bow to him, Haman was infuriated. "
        },
        {
          "chapter": 3,
          "verse": 6,
          "name": "Esther 3:6",
          "text": "Because the king's advisers had informed him about Mordecai's nationality, he thought it beneath himself to kill only Mordecai. So Haman planned to wipe out Mordecai's people--all the Jews in the entire kingdom of Xerxes.   "
        },
        {
          "chapter": 3,
          "verse": 7,
          "name": "Esther 3:7",
          "text": "In Xerxes' twelfth year as king, Pur (which means the lot) was thrown in front of Haman for every day of every month, from Nisan, the first month, until Adar, the twelfth month. "
        },
        {
          "chapter": 3,
          "verse": 8,
          "name": "Esther 3:8",
          "text": "Now, Haman told King Xerxes, \"Your Majesty, there is a certain nationality scattered among--but separate from--the nationalities in all the provinces of your kingdom. Their laws differ from those of all other nationalities. They do not obey your decrees. So it is not in your interest to tolerate them, Your Majesty. "
        },
        {
          "chapter": 3,
          "verse": 9,
          "name": "Esther 3:9",
          "text": "If you approve, have the orders for their destruction be written. For this I will pay 750,000 pounds of silver to your treasurers to be put in your treasury.\" "
        },
        {
          "chapter": 3,
          "verse": 10,
          "name": "Esther 3:10",
          "text": "At that, the king removed his signet ring and gave it to Haman, the enemy of the Jews. (Haman was the son of Hammedatha and was from Agag.) "
        },
        {
          "chapter": 3,
          "verse": 11,
          "name": "Esther 3:11",
          "text": "The king told Haman, \"You can keep your silver and do with the people whatever you like.\" "
        },
        {
          "chapter": 3,
          "verse": 12,
          "name": "Esther 3:12",
          "text": "On the thirteenth day of the first month the king's scribes were summoned. All Haman's orders were written to the king's satraps, the governors of every province, and the officials of every people. They wrote to each province in its own script and to the people in each province in their own language. The orders were signed in the name of King Xerxes and sealed with the king's ring. "
        },
        {
          "chapter": 3,
          "verse": 13,
          "name": "Esther 3:13",
          "text": "Messengers were sent with official documents to all the king's provinces. The people were ordered to wipe out, kill, and destroy all the Jews--young and old, women and children--on a single day, the thirteenth day of the twelfth month, the month of Adar. Their possessions were also to be seized. "
        },
        {
          "chapter": 3,
          "verse": 14,
          "name": "Esther 3:14",
          "text": "A copy of the document was made public in a decree to every province. All the people were to be ready for this day. "
        },
        {
          "chapter": 3,
          "verse": 15,
          "name": "Esther 3:15",
          "text": "The messengers hurried out as the king told them. The decree was also issued at the fortress of Susa. So the king and Haman sat down to drink a toast, but the city of Susa was in turmoil.  "
        }
      ]
    },
    {
      "chapter": 4,
      "name": "Esther 4",
      "verses": [
        {
          "chapter": 4,
          "verse": 1,
          "name": "Esther 4:1",
          "text": "When Mordecai found out about everything that had been done, he tore his clothes and put on sackcloth and ashes. He went into the middle of the city and cried loudly and bitterly. "
        },
        {
          "chapter": 4,
          "verse": 2,
          "name": "Esther 4:2",
          "text": "He even went right up to the king's gate. (No one could enter it wearing sackcloth.) "
        },
        {
          "chapter": 4,
          "verse": 3,
          "name": "Esther 4:3",
          "text": "In every province touched by the king's command and decree, the Jews went into mourning, fasting, weeping, and wailing. Many put on sackcloth and ashes. "
        },
        {
          "chapter": 4,
          "verse": 4,
          "name": "Esther 4:4",
          "text": "Esther's servants and eunuchs came and informed her about Mordecai. The queen was stunned. She sent clothing for Mordecai to put on in place of his sackcloth, but he refused to accept it.   "
        },
        {
          "chapter": 4,
          "verse": 5,
          "name": "Esther 4:5",
          "text": "Then Esther called for Hathach, one of the king's eunuchs appointed to serve her. She commanded him to go to Mordecai and find out what was going on and why. "
        },
        {
          "chapter": 4,
          "verse": 6,
          "name": "Esther 4:6",
          "text": "So Hathach went out to Mordecai in the city square in front of the king's gate. "
        },
        {
          "chapter": 4,
          "verse": 7,
          "name": "Esther 4:7",
          "text": "Mordecai informed him about everything that had happened to him. He told him the exact amount of silver that Haman had promised to pay into the king's treasury to destroy the Jews. "
        },
        {
          "chapter": 4,
          "verse": 8,
          "name": "Esther 4:8",
          "text": "He also gave him a copy of the decree that was issued in Susa. The decree gave permission to exterminate the Jews. Hathach was supposed to show it to Esther to inform and command her to go to the king, beg him for mercy, and appeal to him for her people. "
        },
        {
          "chapter": 4,
          "verse": 9,
          "name": "Esther 4:9",
          "text": "So Hathach returned and told Esther what Mordecai had said. "
        },
        {
          "chapter": 4,
          "verse": 10,
          "name": "Esther 4:10",
          "text": "Esther spoke to Hathach and commanded him to say to Mordecai, "
        },
        {
          "chapter": 4,
          "verse": 11,
          "name": "Esther 4:11",
          "text": "\"All the king's advisers and the people in the king's provinces know that no one approaches the king in the throne room without being summoned. By law that person must be put to death. Only if the king holds out the golden scepter to him will he live. I, myself, have not been summoned to enter the king's presence for 30 days now.\" "
        },
        {
          "chapter": 4,
          "verse": 12,
          "name": "Esther 4:12",
          "text": "So Esther's servants told Mordecai what Esther said. "
        },
        {
          "chapter": 4,
          "verse": 13,
          "name": "Esther 4:13",
          "text": "Mordecai sent this answer back to Esther, \"Do not imagine that just because you are in the king's palace you will be any safer than all the rest of the Jews. "
        },
        {
          "chapter": 4,
          "verse": 14,
          "name": "Esther 4:14",
          "text": "The fact is, even if you remain silent now, someone else will help and rescue the Jews, but you and your relatives will die. And who knows, you may have gained your royal position for a time like this.\" "
        },
        {
          "chapter": 4,
          "verse": 15,
          "name": "Esther 4:15",
          "text": "Esther sent this reply back to Mordecai, "
        },
        {
          "chapter": 4,
          "verse": 16,
          "name": "Esther 4:16",
          "text": "\"Assemble all the Jews in Susa. Fast for me: Do not eat or drink at all for three entire days. My servants and I will also fast. After that, I will go to the king, even if it is against a royal decree. If I die, I die.\" "
        },
        {
          "chapter": 4,
          "verse": 17,
          "name": "Esther 4:17",
          "text": "Mordecai did just as Esther had commanded him.  "
        }
      ]
    },
    {
      "chapter": 5,
      "name": "Esther 5",
      "verses": [
        {
          "chapter": 5,
          "verse": 1,
          "name": "Esther 5:1",
          "text": "On the third day Esther put on her royal robes. She stood in the courtyard of the king's palace, facing the king's throne room. The king was sitting on the royal throne inside the palace, facing the entrance. "
        },
        {
          "chapter": 5,
          "verse": 2,
          "name": "Esther 5:2",
          "text": "When the king saw Queen Esther standing in the entrance, she won his favor. So the king held out the golden scepter that was in his hand to Esther. Esther went up to him and touched the top of the scepter. "
        },
        {
          "chapter": 5,
          "verse": 3,
          "name": "Esther 5:3",
          "text": "Then the king asked her, \"What is troubling you, Queen Esther? What would you like? Even if it is up to half of the kingdom, it will be granted to you.\" "
        },
        {
          "chapter": 5,
          "verse": 4,
          "name": "Esther 5:4",
          "text": "So Esther answered, \"If it pleases you, Your Majesty, come today with Haman to a dinner I have prepared for you.\" "
        },
        {
          "chapter": 5,
          "verse": 5,
          "name": "Esther 5:5",
          "text": "The king replied, \"Bring Haman right away, and do whatever Esther asks.\" So the king and Haman came to the dinner that Esther had prepared. "
        },
        {
          "chapter": 5,
          "verse": 6,
          "name": "Esther 5:6",
          "text": "While they were drinking wine, the king asked Esther, \"What is your request? It will be granted to you. What would you like? Even if it is up to half of the kingdom, it will be granted.\" "
        },
        {
          "chapter": 5,
          "verse": 7,
          "name": "Esther 5:7",
          "text": "Esther answered, \"My request? What would I like? "
        },
        {
          "chapter": 5,
          "verse": 8,
          "name": "Esther 5:8",
          "text": "Your Majesty, come with Haman to a dinner I will prepare for you. And tomorrow I will answer you, Your Majesty. If I have found favor with you, Your Majesty, and if it pleases you, Your Majesty, may you then grant my request and do what I would like.\"   "
        },
        {
          "chapter": 5,
          "verse": 9,
          "name": "Esther 5:9",
          "text": "When Haman left that day, he was happy and feeling good. But when Haman saw Mordecai at the king's gate, neither getting up nor trembling in his presence, Haman was furious with Mordecai. "
        },
        {
          "chapter": 5,
          "verse": 10,
          "name": "Esther 5:10",
          "text": "However, Haman controlled himself. He went home and sent for his friends and his wife Zeresh. "
        },
        {
          "chapter": 5,
          "verse": 11,
          "name": "Esther 5:11",
          "text": "Then Haman began to relate in detail to them how very rich he was, the many sons he had, and all about how the king promoted him to a position over the officials and the king's advisers. "
        },
        {
          "chapter": 5,
          "verse": 12,
          "name": "Esther 5:12",
          "text": "Haman went on to say, \"What's more, Queen Esther allowed no one except me to come with the king to the dinner she had prepared. And again tomorrow I am her invited guest together with the king. "
        },
        {
          "chapter": 5,
          "verse": 13,
          "name": "Esther 5:13",
          "text": "Yet, all this is worth nothing to me every time I see Mordecai the Jew sitting at the king's gate.\" "
        },
        {
          "chapter": 5,
          "verse": 14,
          "name": "Esther 5:14",
          "text": "Then his wife Zeresh and all his friends said to him, \"Have a pole set up, 75 feet high, and in the morning ask the king to have Mordecai's dead body hung on it. Then go with the king to the dinner in good spirits.\" Haman liked the idea, so he had the pole set up.  "
        }
      ]
    },
    {
      "chapter": 6,
      "name": "Esther 6",
      "verses": [
        {
          "chapter": 6,
          "verse": 1,
          "name": "Esther 6:1",
          "text": "That night the king could not sleep. So he told a servant to bring the official daily records, and they were read to the king. "
        },
        {
          "chapter": 6,
          "verse": 2,
          "name": "Esther 6:2",
          "text": "The records showed how Mordecai had informed him that Bigthan and Teresh, two of the king's eunuchs who guarded the entrance, had plotted a rebellion against King Xerxes. "
        },
        {
          "chapter": 6,
          "verse": 3,
          "name": "Esther 6:3",
          "text": "The king asked, \"How did I reward and promote Mordecai for this?\" The king's personal staff replied, \"Nothing was done for him.\"   "
        },
        {
          "chapter": 6,
          "verse": 4,
          "name": "Esther 6:4",
          "text": "The king asked, \"Who is in the courtyard?\" At that moment, Haman came through the courtyard to the king's palace to ask the king about hanging Mordecai on the pole he had prepared for him. "
        },
        {
          "chapter": 6,
          "verse": 5,
          "name": "Esther 6:5",
          "text": "The king's staff answered him, \"Haman happens to be standing in the courtyard.\" \"Let him come in,\" the king said. "
        },
        {
          "chapter": 6,
          "verse": 6,
          "name": "Esther 6:6",
          "text": "So Haman came in. The king then asked him, \"What should be done for the man whom the king wishes to reward?\" Haman thought to himself, \"Whom would the king wish to reward more than me?\" "
        },
        {
          "chapter": 6,
          "verse": 7,
          "name": "Esther 6:7",
          "text": "So Haman told the king, \"This is what should be done: "
        },
        {
          "chapter": 6,
          "verse": 8,
          "name": "Esther 6:8",
          "text": "The servants should bring a royal robe that the king has worn and a horse that the king has ridden, one that has a royal crest on its head. "
        },
        {
          "chapter": 6,
          "verse": 9,
          "name": "Esther 6:9",
          "text": "Give the robe and the horse to one of the king's officials, who is a noble. Put the robe on the man whom the king wishes to reward and have him ride on the horse in the city square. The king's servants are also to shout ahead of him, 'This is what is done for the man whom the king wishes to reward.'\" "
        },
        {
          "chapter": 6,
          "verse": 10,
          "name": "Esther 6:10",
          "text": "The king told Haman, \"Hurry, take the robe and the horse as you said. Do this for Mordecai the Jew who sits at the king's gate. Do not omit anything you have said.\" "
        },
        {
          "chapter": 6,
          "verse": 11,
          "name": "Esther 6:11",
          "text": "So Haman took the robe and the horse. He put the robe on Mordecai and had him ride in the city square, shouting ahead of him, \"This is what is done for the man whom the king wishes to reward.\"   "
        },
        {
          "chapter": 6,
          "verse": 12,
          "name": "Esther 6:12",
          "text": "After that, Mordecai returned to the king's gate, but Haman hurried home. He was in despair and covered his head. "
        },
        {
          "chapter": 6,
          "verse": 13,
          "name": "Esther 6:13",
          "text": "There, Haman began to relate in detail to his wife Zeresh and to all his friends everything that had happened to him. Then his counselors and his wife Zeresh told him, \"You are starting to lose power to Mordecai. If Mordecai is of Jewish descent, you will never win out over him. He will certainly lead to your downfall.\" "
        },
        {
          "chapter": 6,
          "verse": 14,
          "name": "Esther 6:14",
          "text": "While they were still speaking with him, the king's eunuchs arrived and quickly took Haman to the dinner Esther had prepared.  "
        }
      ]
    },
    {
      "chapter": 7,
      "name": "Esther 7",
      "verses": [
        {
          "chapter": 7,
          "verse": 1,
          "name": "Esther 7:1",
          "text": "So the king and Haman came to have dinner with Queen Esther. "
        },
        {
          "chapter": 7,
          "verse": 2,
          "name": "Esther 7:2",
          "text": "On the second day, while they were drinking wine, the king asked Esther, \"What is your request, Queen Esther? It will be granted to you. And what would you like? Even if it is up to half of the kingdom, it will be granted.\" "
        },
        {
          "chapter": 7,
          "verse": 3,
          "name": "Esther 7:3",
          "text": "Then Queen Esther answered, \"If I have found favor with you, Your Majesty, and if it pleases you, Your Majesty, spare my life. That is my request. And spare the life of my people. That is what I ask for. "
        },
        {
          "chapter": 7,
          "verse": 4,
          "name": "Esther 7:4",
          "text": "You see, we--my people and I--have been sold so that we can be wiped out, killed, and destroyed. If our men and women had only been sold as slaves, I would have kept silent because the enemy is not worth troubling you about, Your Majesty.\" "
        },
        {
          "chapter": 7,
          "verse": 5,
          "name": "Esther 7:5",
          "text": "Then King Xerxes interrupted Queen Esther and said, \"Who is this person? Where is the person who has dared to do this?\" "
        },
        {
          "chapter": 7,
          "verse": 6,
          "name": "Esther 7:6",
          "text": "Esther answered, \"Our vicious enemy is this wicked man Haman!\" Then Haman became panic-stricken in the presence of the king and queen.   "
        },
        {
          "chapter": 7,
          "verse": 7,
          "name": "Esther 7:7",
          "text": "The king was furious as he got up from dinner and went into the palace garden. But Haman stayed to beg Queen Esther for his life, because he saw that the king had a terrible end in mind for him. "
        },
        {
          "chapter": 7,
          "verse": 8,
          "name": "Esther 7:8",
          "text": "When the king returned from the palace garden to the palace dining room, Haman was falling on the couch where Esther was lying. The king thought, \"Is he even going to rape the queen while I'm in the palace?\" Then the king passed sentence on him, and servants covered Haman's face. "
        },
        {
          "chapter": 7,
          "verse": 9,
          "name": "Esther 7:9",
          "text": "Harbona, one of the eunuchs present with the king, said, \"What a coincidence! The 75-foot pole Haman made for Mordecai, who spoke up for the well-being of the king, is still standing at Haman's house.\" The king responded, \"Hang him on it!\" "
        },
        {
          "chapter": 7,
          "verse": 10,
          "name": "Esther 7:10",
          "text": "So servants hung Haman's dead body on the very pole he had prepared for Mordecai. Then the king got over his raging anger.  "
        }
      ]
    },
    {
      "chapter": 8,
      "name": "Esther 8",
      "verses": [
        {
          "chapter": 8,
          "verse": 1,
          "name": "Esther 8:1",
          "text": "On that same day King Xerxes gave the property of Haman, the enemy of the Jews, to Queen Esther. Also, Mordecai came to the king because Esther had told him how Mordecai was related to her. "
        },
        {
          "chapter": 8,
          "verse": 2,
          "name": "Esther 8:2",
          "text": "Then the king took off his signet ring, which he had taken from Haman, and gave it to Mordecai. And Esther put Mordecai in charge of Haman's property.   "
        },
        {
          "chapter": 8,
          "verse": 3,
          "name": "Esther 8:3",
          "text": "Esther spoke again to the king. She fell down at his feet crying and begged him to have mercy and to undo the evil plot of Haman, who was from Agag, and his conspiracy against the Jews. "
        },
        {
          "chapter": 8,
          "verse": 4,
          "name": "Esther 8:4",
          "text": "The king held out his golden scepter to Esther, and Esther got up and stood in front of the king. "
        },
        {
          "chapter": 8,
          "verse": 5,
          "name": "Esther 8:5",
          "text": "She said, \"Your Majesty, if it pleases you, and if I have found favor with you, if you consider my cause to be reasonable and if I am pleasing to you, cancel the official orders concerning the plot of Haman (who was the son of Hammedatha and was from Agag). He signed the order to destroy the Jews in all your provinces, Your Majesty. "
        },
        {
          "chapter": 8,
          "verse": 6,
          "name": "Esther 8:6",
          "text": "I cannot bear to see my people suffer such evil. And I simply cannot bear to see the destruction of my relatives.\" "
        },
        {
          "chapter": 8,
          "verse": 7,
          "name": "Esther 8:7",
          "text": "King Xerxes said to Queen Esther and Mordecai the Jew, \"I have given Haman's property to Esther, and Haman's dead body was hung on the pole because he tried to kill the Jews. "
        },
        {
          "chapter": 8,
          "verse": 8,
          "name": "Esther 8:8",
          "text": "You write what you think is best for the Jews in the king's name. Seal it also with the king's signet ring, because whatever is written in the king's name and sealed with the king's signet ring cannot be canceled.\" "
        },
        {
          "chapter": 8,
          "verse": 9,
          "name": "Esther 8:9",
          "text": "At that time on the twenty-third day of Sivan, the third month, the king's scribes were summoned. What Mordecai had ordered was written to the Jews and to the satraps, governors, and officers of the 127 provinces from India to Sudan. It was written to each province in its own script, to each people in their own language, and to the Jews in their own script and their own language. "
        },
        {
          "chapter": 8,
          "verse": 10,
          "name": "Esther 8:10",
          "text": "Mordecai wrote in King Xerxes' name and sealed the official documents with the king's signet ring. Then he sent them by messengers who rode special horses bred for speed. He wrote "
        },
        {
          "chapter": 8,
          "verse": 11,
          "name": "Esther 8:11",
          "text": "that the king had given permission for the Jews in every city to assemble, to defend themselves, to wipe out, to kill, and to destroy every armed force of the people and province that is hostile to them, even women and children, and to seize their goods. "
        },
        {
          "chapter": 8,
          "verse": 12,
          "name": "Esther 8:12",
          "text": "This was permitted on one day in all the provinces of King Xerxes, on the thirteenth day of Adar, the twelfth month. "
        },
        {
          "chapter": 8,
          "verse": 13,
          "name": "Esther 8:13",
          "text": "The copy of the document was made public in a decree to every province for all people. On that day the Jews were to be ready to take revenge on their enemies. "
        },
        {
          "chapter": 8,
          "verse": 14,
          "name": "Esther 8:14",
          "text": "The messengers rode the king's fastest horses. They left quickly, in keeping with the king's command. The decree was issued also in the fortress of Susa.   "
        },
        {
          "chapter": 8,
          "verse": 15,
          "name": "Esther 8:15",
          "text": "Mordecai went out from the presence of the king wearing the royal violet and white robe, a large gold crown, and a purple outer robe of fine linen. And the city of Susa cheered and rejoiced. "
        },
        {
          "chapter": 8,
          "verse": 16,
          "name": "Esther 8:16",
          "text": "So the Jews were cheerful, happy, joyful, and successful. "
        },
        {
          "chapter": 8,
          "verse": 17,
          "name": "Esther 8:17",
          "text": "In every province and every city where the king's message and decree arrived, the Jews were happy and joyful, feasting and enjoying a holiday. Then many common people pretended to be Jews because they were terrified of the Jews.  "
        }
      ]
    },
    {
      "chapter": 9,
      "name": "Esther 9",
      "verses": [
        {
          "chapter": 9,
          "verse": 1,
          "name": "Esther 9:1",
          "text": "On the thirteenth day of Adar, the twelfth month, the king's command and decree were to be carried out. On that very day, when the enemies of the Jews expected to overpower them, the exact opposite happened: The Jews overpowered those who hated them. "
        },
        {
          "chapter": 9,
          "verse": 2,
          "name": "Esther 9:2",
          "text": "The Jews assembled in their cities throughout all the provinces of King Xerxes to kill those who were planning to harm them. No one could stand up against them, because all the people were terrified of them. "
        },
        {
          "chapter": 9,
          "verse": 3,
          "name": "Esther 9:3",
          "text": "All the officials of the provinces, the satraps, the governors, and the king's treasurers assisted the Jews because they were terrified of Mordecai. "
        },
        {
          "chapter": 9,
          "verse": 4,
          "name": "Esther 9:4",
          "text": "Mordecai was an important man in the king's palace. Moreover, his reputation was spreading to all the provinces, since Mordecai was becoming more and more powerful. "
        },
        {
          "chapter": 9,
          "verse": 5,
          "name": "Esther 9:5",
          "text": "Then with their swords, the Jews attacked all their enemies, killing them, destroying them, and doing whatever they pleased to those who hated them. "
        },
        {
          "chapter": 9,
          "verse": 6,
          "name": "Esther 9:6",
          "text": "In the fortress of Susa the Jews killed and wiped out 500 men. "
        },
        {
          "chapter": 9,
          "verse": 7,
          "name": "Esther 9:7",
          "text": "They also killed Parshandatha, Dalphon, Aspatha, "
        },
        {
          "chapter": 9,
          "verse": 8,
          "name": "Esther 9:8",
          "text": "Poratha, Adalia, Aridatha, "
        },
        {
          "chapter": 9,
          "verse": 9,
          "name": "Esther 9:9",
          "text": "Parmashta, Arisai, Aridai, and Vaizatha. "
        },
        {
          "chapter": 9,
          "verse": 10,
          "name": "Esther 9:10",
          "text": "These were the ten sons of Haman, who was the son of Hammedatha and the enemy of the Jews. But the Jews did not seize any of their possessions. "
        },
        {
          "chapter": 9,
          "verse": 11,
          "name": "Esther 9:11",
          "text": "On that day the number of those killed in the fortress of Susa was reported to the king. "
        },
        {
          "chapter": 9,
          "verse": 12,
          "name": "Esther 9:12",
          "text": "So the king said to Queen Esther, \"In the fortress of Susa the Jews have killed and wiped out 500 men and Haman's 10 sons. What must they have done in the rest of the king's provinces! Now, what is your request? It will be granted to you. And what else would you like? It, too, will be granted.\" "
        },
        {
          "chapter": 9,
          "verse": 13,
          "name": "Esther 9:13",
          "text": "Esther said, \"If it pleases you, Your Majesty, allow the Jews in Susa to do tomorrow what was decreed for today. Let them hang Haman's ten sons on poles.\" "
        },
        {
          "chapter": 9,
          "verse": 14,
          "name": "Esther 9:14",
          "text": "The king commanded this, issuing a decree in Susa. And so they hung Haman's ten sons on poles. "
        },
        {
          "chapter": 9,
          "verse": 15,
          "name": "Esther 9:15",
          "text": "The Jews in Susa also assembled on the fourteenth day of the month of Adar and killed 300 men in Susa, but they did not seize any of their possessions. "
        },
        {
          "chapter": 9,
          "verse": 16,
          "name": "Esther 9:16",
          "text": "The other Jews who were in the king's provinces had also assembled to defend and free themselves from their enemies. They killed 75,000 of those who hated them, but they did not seize any of their possessions. "
        },
        {
          "chapter": 9,
          "verse": 17,
          "name": "Esther 9:17",
          "text": "This was on the thirteenth day of the month of Adar. On the fourteenth they rested and made it a day of feasting and celebration. "
        },
        {
          "chapter": 9,
          "verse": 18,
          "name": "Esther 9:18",
          "text": "But the Jews in Susa had assembled on the thirteenth and fourteenth. They rested on the fifteenth and made it a day of feasting and celebration. "
        },
        {
          "chapter": 9,
          "verse": 19,
          "name": "Esther 9:19",
          "text": "That is why the Jews who live in the villages and in the unwalled towns make the fourteenth day of the month of Adar a holiday for feasting and celebration. They also send gifts of food to one another.   "
        },
        {
          "chapter": 9,
          "verse": 20,
          "name": "Esther 9:20",
          "text": "Now, Mordecai wrote these things down and sent official letters to all the Jews in all the provinces of King Xerxes, near and far. "
        },
        {
          "chapter": 9,
          "verse": 21,
          "name": "Esther 9:21",
          "text": "He established the fourteenth and fifteenth days of the month of Adar as days they must observe every year. "
        },
        {
          "chapter": 9,
          "verse": 22,
          "name": "Esther 9:22",
          "text": "They were to observe them just like the days when the Jews freed themselves from their enemies. In that month their grief turned to joy and their mourning into a holiday. He declared that these days are to be days for feasting and celebrating and for sending gifts of food to one another, especially gifts to the poor. "
        },
        {
          "chapter": 9,
          "verse": 23,
          "name": "Esther 9:23",
          "text": "So the Jews accepted as tradition what they had begun, as Mordecai had written to them. "
        },
        {
          "chapter": 9,
          "verse": 24,
          "name": "Esther 9:24",
          "text": "It was because Haman, the enemy of all the Jews, had plotted against the Jews to destroy them. (Haman was the son of Hammedatha and was from Agag.) Haman had the Pur (which means the lot) thrown in order to determine when to crush and destroy them. "
        },
        {
          "chapter": 9,
          "verse": 25,
          "name": "Esther 9:25",
          "text": "But when this came to the king's attention, he ordered, in the well-known letter, that the evil plan Haman had plotted against the Jews should turn back on his own head. As a result, they hung Haman and his sons on poles. "
        },
        {
          "chapter": 9,
          "verse": 26,
          "name": "Esther 9:26",
          "text": "So the Jews called these days Purim, based on the word Pur. Therefore, because of everything that was said in this letter--both what they had seen and what had happened to them-- "
        },
        {
          "chapter": 9,
          "verse": 27,
          "name": "Esther 9:27",
          "text": "the Jews established a tradition for themselves and their descendants and for anyone who would join them. The tradition was that a person should never fail to observe these two days every year, as they were described and at their appointed time. "
        },
        {
          "chapter": 9,
          "verse": 28,
          "name": "Esther 9:28",
          "text": "So these days must be remembered and observed in every age, family, province, and city. These days of Purim must not be ignored among the Jews, and the importance of these days must never be forgotten by the generations to come. "
        },
        {
          "chapter": 9,
          "verse": 29,
          "name": "Esther 9:29",
          "text": "Abihail's daughter Queen Esther and Mordecai the Jew wrote with full authority in order to establish with this second letter the well-known celebration of Purim. "
        },
        {
          "chapter": 9,
          "verse": 30,
          "name": "Esther 9:30",
          "text": "Mordecai sent official documents granting peace and security to all the Jews in the 127 provinces of the kingdom of Xerxes. "
        },
        {
          "chapter": 9,
          "verse": 31,
          "name": "Esther 9:31",
          "text": "He did this in order to establish these days of Purim at the appointed time. Mordecai the Jew and Queen Esther established them for themselves, as they had established for themselves and their descendants the practices of fasting with sadness. "
        },
        {
          "chapter": 9,
          "verse": 32,
          "name": "Esther 9:32",
          "text": "Esther's command had established these practices of Purim, and they are written in a book.  "
        }
      ]
    },
    {
      "chapter": 10,
      "name": "Esther 10",
      "verses": [
        {
          "chapter": 10,
          "verse": 1,
          "name": "Esther 10:1",
          "text": "King Xerxes levied a tax on the country and the islands of the sea. "
        },
        {
          "chapter": 10,
          "verse": 2,
          "name": "Esther 10:2",
          "text": "All his acts of power and might along with the whole account of the greatness of Mordecai, whom the king had promoted, are recorded in the history of the kings of the Medes and Persians. "
        },
        {
          "chapter": 10,
          "verse": 3,
          "name": "Esther 10:3",
          "text": "Mordecai the Jew was ranked second only to King Xerxes. He was greatly respected by, and popular with, all of the other Jews, since he provided for the good of his people and spoke for the welfare of his fellow Jews.  "
        }
      ]
    }
  ]
}
