{
    "translation": "Japanese Raguet-yaku \u30e9\u30b2\u8a33\u300c\u6211\u4e3b\u30a4\u30a8\u30ba\u30b9\u30ad\u30ea\u30b9\u30c8\u306e\u65b0\u7d04\u8056\u66f8\u300d(1910\u5e74\u7248)",
    "abbreviation": "japraguet",
    "lang": "ja",
    "language": "Japanese",
    "direction": "LTR",
    "encoding": "UTF-8",
    "book_nr": 50,
    "book_name": "Philippians",
    "chapter": 1,
    "name": "Philippians 1",
    "verses": [
        {
            "chapter": 1,
            "verse": 1,
            "name": "Philippians 1:1",
            "text": "\u30a4\u30a8\u30ba\u30b9\u3001\u30ad\u30ea\u30b9\u30c8\u306e\u50d5\u305f\u308b\u30d1\u30a6\u30ed\u53ca\u3073\u30c1\u30e2\u30c6\u30aa\u3001\u7dcf\u3066\u30d5\u30a3\u30ea\u30c3\u30d4\u306b\u65bc\u3066\u30ad\u30ea\u30b9\u30c8\u3001\u30a4\u30a8\u30ba\u30b9\u306b\u5728\u308b\u8056\u5f92\u3001\u4e26\u306b\u76e3\u7763\u53ca\u3073\u57f7\u4e8b\u7b49\u306b[\u66f8\u7c21\u3092\u8d08\u308b]\u3002"
        },
        {
            "chapter": 1,
            "verse": 2,
            "name": "Philippians 1:2",
            "text": "\u9858\u306f\u304f\u306f\u6211\u7236\u306b\u3066\u5728\u3059\u795e\u53ca\u3073\u4e3b\u30a4\u30a8\u30ba\u30b9\u3001\u30ad\u30ea\u30b9\u30c8\u3088\u308a\u3001\u6069\u5bf5\u3068\u5e73\u5b89\u3068\u3092\u6c5d\u7b49\u306b\u8cdc\u306f\u3089\u3093\u4e8b\u3092\u3002"
        },
        {
            "chapter": 1,
            "verse": 3,
            "name": "Philippians 1:3",
            "text": "\u6211\u6c5d\u7b49\u3092\u60f3\u8d77\u3059\u6bce\u306b\u3001\u6211\u795e\u306b\u611f\u8b1d\u3057\u3001"
        },
        {
            "chapter": 1,
            "verse": 4,
            "name": "Philippians 1:4",
            "text": "\u51e1\u3066\u306e\u7948\u7977\u306b\u65bc\u3066\u5e38\u306b\u6c5d\u7b49\u4e00\u540c\u306e\u70ba\u306b\u559c\u3073\u3066\u61c7\u9858\u3057\u5949\u308b\u3002"
        },
        {
            "chapter": 1,
            "verse": 5,
            "name": "Philippians 1:5",
            "text": "\u84cb\u6c5d\u7b49\u6700\u521d\u306e\u65e5\u3088\u308a\u4eca\u306b\u81f3\u308b\u8fc4\u3001\u30ad\u30ea\u30b9\u30c8\u306e\u798f\u97f3\u306e\u70ba\u306b\u5354\u529b\u3057\u305f\u308c\u3070\u3001"
        },
        {
            "chapter": 1,
            "verse": 6,
            "name": "Philippians 1:6",
            "text": "\u6c5d\u7b49\u306e\u4e2d\u306b\u5584\u696d\u3092\u8087\u3081\u7d66\u3072\u3057\u8005\u306e\u3001\u30ad\u30ea\u30b9\u30c8\u3001\u30a4\u30a8\u30ba\u30b9\u306e\u65e5\u307e\u3067\u3001\u4e4b\u3092\u5168\u3046\u3057\u7d66\u306f\u3093\u4e8b\u3092\u4fe1\u983c\u305b\u308a\u3002"
        },
        {
            "chapter": 1,
            "verse": 7,
            "name": "Philippians 1:7",
            "text": "\u6c5d\u7b49\u4e00\u540c\u306b\u5c31\u304d\u3066\u6211\u304c\u65af\u304f\u601d\u3078\u308b\u306f\u81f3\u7576\u306e\u4e8b\u306a\u308a\u3001\u5176\u306f\u6c5d\u7b49\u6211\u5fc3\u306b\u5728\u308a\u3001\u53c8\u6211\u304c\u7e32\u7d4f\u306e\u4e2d\u306b\u5728\u308b\u306b\u3082\u3001\u798f\u97f3\u3092\u5f01\u8b77\u3057\u3066\u4e4b\u3092\u56fa\u3080\u308b\u306b\u3082\u3001\u6c5d\u7b49\u7686\u6211\u3068\u5171\u306b\u6069\u5bf5\u306b\u8207\u308c\u3070\u306a\u308a\u3002"
        },
        {
            "chapter": 1,
            "verse": 8,
            "name": "Philippians 1:8",
            "text": "\u84cb\u6211\u304c\u3001\u30ad\u30ea\u30b9\u30c8\u306e\u8178\u3092\u4ee5\u3066\u3001\u5982\u4f55\u8a31\u308a\u6c5d\u7b49\u4e00\u540c\u3092\u6200\u6155\u3075\u304b\u306f\u3001\u795e\u6211\u70ba\u306b\u4e4b\u3092\u8b49\u3057\u7d66\u3075\u3002"
        },
        {
            "chapter": 1,
            "verse": 9,
            "name": "Philippians 1:9",
            "text": "\u6211\u304c\u7948\u308b\u6240\u306f\u3001\u5373\u3061\u6c5d\u7b49\u306e\u611b\u304c\u76ca\u667a\u8b58\u3068\u51e1\u3066\u306e\u609f\u3068\u306b\u5bcc\u307f\u3001"
        },
        {
            "chapter": 1,
            "verse": 10,
            "name": "Philippians 1:10",
            "text": "\u6c5d\u7b49\u304c\u4e00\u5c64\u5584\u304d\u4e8b\u3092\u5f01\u3078\u3066\u3001\u30ad\u30ea\u30b9\u30c8\u306e\u65e5\u306b\u81f3\u308b\u307e\u3067\u6f54\u304f\u79d1\u306a\u304f\u3057\u3066\u3001"
        },
        {
            "chapter": 1,
            "verse": 11,
            "name": "Philippians 1:11",
            "text": "\u30a4\u30a8\u30ba\u30b9\u3001\u30ad\u30ea\u30b9\u30c8\u306b\u3088\u308a\u3066\u3001\u795e\u306e\u5149\u69ae\u3068\u8b83\u7f8e\u3068\u306e\u70ba\u306b\u3001\u7fa9\u306e\u597d\u679c\u306b\u6e80\u305f\u3055\u308c\u3093\u4e8b\u662f\u306a\u308a\u3002  "
        },
        {
            "chapter": 1,
            "verse": 12,
            "name": "Philippians 1:12",
            "text": "    \u5144\u5f1f\u7b49\u3088\u3001\u6211\u6c5d\u7b49\u306e\u77e5\u3089\u3093\u4e8b\u3092\u6b32\u3059\u3001\u6211\u8eab\u306b\u95a2\u3059\u308b\u4e8b\u67c4\u306f\u3001\u5374\u3066\u798f\u97f3\u306e\u88e8\u76ca\u3068\u6210\u308b\u306b\u81f3\u308a\u3057\u3053\u3068\u3092\u3002"
        },
        {
            "chapter": 1,
            "verse": 13,
            "name": "Philippians 1:13",
            "text": "\u5373\u3061\u6211\u304c\u7e32\u7d4f\u306b\u9047\u3078\u308b\u4e8b\u306e\u30ad\u30ea\u30b9\u30c8\u306e\u70ba\u306a\u308b\u306f\u3001\u8fd1\u885b\u5175\u306e\u5168\u55b6\u306b\u3082\u4f55\u8655\u306b\u3082\u660e\u306b\u77e5\u3089\u308c\u305f\u308a\u3002"
        },
        {
            "chapter": 1,
            "verse": 14,
            "name": "Philippians 1:14",
            "text": "\u65af\u3066\u5144\u5f1f\u4e2d\u306e\u591a\u6578\u306f\u3001\u6211\u7e32\u7d4f\u306e\u6545\u306b\u4e3b\u3092\u983c\u307f\u5949\u308a\u3066\u3001\u4e00\u5c64\u619a\u3089\u305a\u795e\u306e\u5fa1\u8a00\u3092\u8a9e\u308b\u306b\u81f3\u308c\u308a\u3002"
        },
        {
            "chapter": 1,
            "verse": 15,
            "name": "Philippians 1:15",
            "text": "\u5be6\u306f\u731c\u3068\u4e89\u3068\u306e\u70ba\u306b\u30ad\u30ea\u30b9\u30c8\u3092\u5ba3\u3076\u308b\u8005\u3082\u3042\u308c\u3069\u3001\u597d\u610f\u3092\u4ee5\u3066\u3059\u308b\u8005\u3082\u3042\u308a\u3001"
        },
        {
            "chapter": 1,
            "verse": 16,
            "name": "Philippians 1:16",
            "text": "\u53c8\u798f\u97f3\u3092\u5b88\u8b77\u305b\u3093\u70ba\u306b\u6211\u304c\u7f6e\u304b\u308c\u305f\u308b\u3092\u77e5\u308a\u3066\u3001\u611b\u60c5\u3088\u308a\u3059\u308b\u4eba\u3082\u3042\u308c\u3070\u3001"
        },
        {
            "chapter": 1,
            "verse": 17,
            "name": "Philippians 1:17",
            "text": "\u771e\u5fc3\u3092\u6709\u305f\u305a\u3001\u7e32\u7d4f\u306b\u65bc\u308b\u6211\u56f0\u96e3\u3092\u5897\u3055\u3093\u4e8b\u3092\u601d\u3072\u3001\u515a\u6d3e\u5fc3\u3088\u308a\u30ad\u30ea\u30b9\u30c8\u306e\u4e8b\u3092\u8aac\u304f\u8005\u3082\u3042\u308a\u3002"
        },
        {
            "chapter": 1,
            "verse": 18,
            "name": "Philippians 1:18",
            "text": "\u7136\u308a\u3068\u3066\u4f55\u304b\u3042\u3089\u3093\u3001\u5982\u4f55\u69d8\u306b\u3082\u3042\u308c\u3001\u6216\u306f\u53e3\u5be6\u3068\u3057\u3066\u306a\u308a\u3068\u3082\u3001\u6216\u306f\u771e\u5fc3\u3092\u4ee5\u3066\u306a\u308a\u3068\u3082\u3001\u30ad\u30ea\u30b9\u30c8\u5ba3\u50b3\u305b\u3089\u308c\u7d66\u3078\u3070\u3001\u6211\u306f\u4e4b\u3092\u559c\u3076\u3001[\u4ee5\u5f8c\u3082]\u5fa9\u559c\u3070\u3093\u3002"
        },
        {
            "chapter": 1,
            "verse": 19,
            "name": "Philippians 1:19",
            "text": "\u5176\u306f\u6211\u6c5d\u7b49\u306e\u7948\u3068\u30a4\u30a8\u30ba\u30b9\u3001\u30ad\u30ea\u30b9\u30c8\u306e\u970a\u306e\u52a9\u529b\u3068\u306b\u3088\u308a\u3066\u3001\u6b64\u4e8b\u306e\u6211\u6551\u3068\u306a\u308b\u3079\u304d\u3092\u77e5\u308c\u3070\u306a\u308a\u3002"
        },
        {
            "chapter": 1,
            "verse": 20,
            "name": "Philippians 1:20",
            "text": "\u662f\u6211\u304c\u5f85\u3066\u308b\u6240\u3001\u5e0c\u671b\u305b\u308b\u6240\u306b\u53f6\u3078\u308a\u3001\u5373\u3061\u6211\u4f55\u306b\u65bc\u3066\u3082\u803b\u3065\u308b\u4e8b\u306a\u304b\u308b\u3079\u304f\u3001\u5374\u3066\u4f55\u6642\u3082\u7136\u3042\u308b\u5982\u304f\u3001\u4eca\u3082\u4ea6\u6d3b\u304d\u3066\u3082\u6b7b\u3057\u3066\u3082\u3001\u30ad\u30ea\u30b9\u30c8\u306f\u5b89\u5168\u306b\u6211\u8eab\u306b\u65bc\u3066\u5d07\u3081\u3089\u308c\u7d66\u3075\u3079\u304d\u306a\u308a\u3002"
        },
        {
            "chapter": 1,
            "verse": 21,
            "name": "Philippians 1:21",
            "text": "\u84cb\u6211\u306b\u53d6\u308a\u3066\u3001\u6d3b\u304f\u308b\u306f\u30ad\u30ea\u30b9\u30c8\u306a\u308a\u3001\u6b7b\u306c\u308b\u306f\u76ca\u306a\u308a\u3002"
        },
        {
            "chapter": 1,
            "verse": 22,
            "name": "Philippians 1:22",
            "text": "\u82e5\u8089\u8eab\u306b\u65bc\u3066\u6d3b\u304f\u308b\u4e8b\u304c\u6211\u306b\u4e8b\u696d\u306e\u597d\u679c\u3042\u308b\u3079\u304f\u3070\u3001\u5176\u5b70\u3092\u64c7\u3080\u3079\u304d\u304b\u306f\u6211\u4e4b\u3092\u793a\u3055\u305a\u3001"
        },
        {
            "chapter": 1,
            "verse": 23,
            "name": "Philippians 1:23",
            "text": "\u6211\u306f\u53cc\u65b9\u306b\u631f\u307e\u308c\u308a\u3001\u7acb\u53bb\u308a\u3066\u30ad\u30ea\u30b9\u30c8\u3068\u5171\u306b\u5728\u3089\u3093\u4e8b\u3092\u671b\u3080\u3001\u662f\u6211\u306b\u53d6\u308a\u3066\u6700\u3082\u5584\u304d\u4e8b\u306a\u308a\u3001"
        },
        {
            "chapter": 1,
            "verse": 24,
            "name": "Philippians 1:24",
            "text": "\u7136\u308c\u3069\u6211\u304c\u8089\u8eab\u306b\u7559\u308b\u4e8b\u306f\u3001\u6c5d\u7b49\u306e\u70ba\u306b\u5c1a\u5fc5\u8981\u306a\u308a\u3002"
        },
        {
            "chapter": 1,
            "verse": 25,
            "name": "Philippians 1:25",
            "text": "\u65af\u304f\u78ba\u4fe1\u3059\u308b\u304c\u6545\u306b\u3001\u6211\u306f\u6c5d\u7b49\u306e\u4fe1\u4ef0\u306e\u9032\u6b69\u3068\u559c\u60a6\u3068\u3092\u4f86\u3055\u3093\u70ba\u306b\u3001\u6c5d\u7b49\u4e00\u540c\u3068\u5171\u306b\u7559\u308a\u3001\u4e14\u9017\u7559\u3059\u3079\u304d\u4e8b\u3092\u77e5\u308b\u3002"
        },
        {
            "chapter": 1,
            "verse": 26,
            "name": "Philippians 1:26",
            "text": "\u6211\u518d\u3073\u6c5d\u7b49\u306b\u81f3\u3089\u3070\u3001\u30ad\u30ea\u30b9\u30c8\u3001\u30a4\u30a8\u30ba\u30b9\u306b\u65bc\u3066\u3001\u6211\u306b\u5c31\u304d\u3066\u6c5d\u7b49\u306e\u8a87\u308b\u6240\u306f\u5f4c\u5897\u3059\u3079\u3057\u3002  "
        },
        {
            "chapter": 1,
            "verse": 27,
            "name": "Philippians 1:27",
            "text": "    \u6c5d\u7b49\u306f\u552f\u30ad\u30ea\u30b9\u30c8\u306e\u798f\u97f3\u306b\u76f8\u61c9\u3057\u304f\u751f\u6d3b\u305b\u3088\u3001\u662f\u6211\u304c\u6216\u306f\u81f3\u308a\u3066\u6c5d\u7b49\u3092\u898b\u308b\u6642\u3082\u3001\u6216\u306f\u96e2\u308c\u3066\u6c5d\u7b49\u306e\u4e8b\u3092\u805e\u304f\u6642\u3082\u3001\u6c5d\u7b49\u304c\u540c\u4e00\u306e\u7cbe\u795e\u3001\u540c\u4e00\u306e\u5fc3\u3092\u4ee5\u3066\u7acb\u3066\u308b\u4e8b\u3068\u3001\u798f\u97f3\u306e\u4fe1\u4ef0\u306e\u70ba\u306b\u4e00\u81f4\u3057\u3066\u6230\u3075\u4e8b\u3068\u3001"
        },
        {
            "chapter": 1,
            "verse": 28,
            "name": "Philippians 1:28",
            "text": "\u804a\u3082\u6575\u306b\u9a5a\u304b\u3055\u308c\u3056\u308b\u4e8b\u3068\u3092\u77e5\u3089\u3093\u70ba\u306a\u308a\u3002\u6b64\u9a5a\u304b\u3055\u308c\u3056\u308b\u4e8b\u3053\u305d\u3001\u6575\u306b\u306f\u4ea1\u6ec5\u306e\u5fb4\u3001\u6c5d\u7b49\u306b\u306f\u6551\u970a\u306e\u5fb4\u306b\u3057\u3066\u3001\u795e\u3088\u308a\u51fa\u3065\u308b\u3082\u306e\u306a\u308c\u3002"
        },
        {
            "chapter": 1,
            "verse": 29,
            "name": "Philippians 1:29",
            "text": "\u5176\u306f\u6c5d\u7b49\u30ad\u30ea\u30b9\u30c8\u306e\u70ba\u306b\u8cdc\u306f\u308a\u305f\u308b\u306f\u3001\u552f\u4e4b\u3092\u4fe1\u305a\u308b\u4e8b\u306e\u307f\u306a\u3089\u305a\u3001\u53c8\u4e4b\u304c\u70ba\u306b\u82e6\u3057\u3080\u4e8b\u306a\u308c\u3070\u306a\u308a\u3002"
        },
        {
            "chapter": 1,
            "verse": 30,
            "name": "Philippians 1:30",
            "text": "\u6c5d\u7b49\u306e\u9047\u3078\u308b\u6230\u306f\u3001\u66fe\u3066\u6211\u306b\u65bc\u3066\u898b\u3057\u6240\u3001\u53c8\u6211\u306b\u5c31\u304d\u3066\u805e\u304d\u3057\u6240\u306b\u7b49\u3057\u304d\u3082\u306e\u306a\u308a\u3002 "
        }
    ]
}