{
    "translation": "Albanian Bible",
    "abbreviation": "alb",
    "lang": "sq",
    "language": "Albanian",
    "direction": "LTR",
    "encoding": "UTF-8",
    "book_nr": 2,
    "book_name": "Exodus",
    "chapter": 20,
    "name": "Exodus 20",
    "verses": [
        {
            "chapter": 20,
            "verse": 1,
            "name": "Exodus 20:1",
            "text": "At\u00ebher\u00eb Per\u00ebndia shqiptoi t\u00ebr\u00eb k\u00ebto fjal\u00eb, duke th\u00ebn\u00eb:"
        },
        {
            "chapter": 20,
            "verse": 2,
            "name": "Exodus 20:2",
            "text": "\"Un\u00eb jam Zoti, Per\u00ebndia yt, q\u00eb t\u00eb nxori nga vendi i Egjiptit, nga sht\u00ebpia e skllav\u00ebris\u00eb."
        },
        {
            "chapter": 20,
            "verse": 3,
            "name": "Exodus 20:3",
            "text": "Nuk do t\u00eb kesh per\u00ebndi t\u00eb tjer\u00eb para meje."
        },
        {
            "chapter": 20,
            "verse": 4,
            "name": "Exodus 20:4",
            "text": "Nuk do t\u00eb b\u00ebsh skulptur\u00eb ose sh\u00ebmb\u00eblltyr\u00eb t\u00eb asnj\u00eb gj\u00ebje q\u00eb ndodhet aty n\u00eb qiejt ose k\u00ebtu posht\u00eb n\u00eb tok\u00eb ose n\u00eb uj\u00ebrat n\u00ebn tok\u00eb."
        },
        {
            "chapter": 20,
            "verse": 5,
            "name": "Exodus 20:5",
            "text": "Nuk do t\u00eb p\u00ebrkulesh para tyre dhe as do t'i sh\u00ebrbesh, sepse un\u00eb, Zoti, Per\u00ebndia yt, jam nj\u00eb Per\u00ebndi xheloz q\u00eb d\u00ebnon padrejt\u00ebsin\u00eb e et\u00ebrve mbi f\u00ebmijve t\u00eb tyre deri n\u00eb brezin e tret\u00eb dhe t\u00eb kat\u00ebrt t\u00eb atyre q\u00eb m\u00eb urrejn\u00eb,"
        },
        {
            "chapter": 20,
            "verse": 6,
            "name": "Exodus 20:6",
            "text": "dhe un\u00eb p\u00ebrdor dashamir\u00ebsi p\u00ebr mij\u00ebra, p\u00ebr ata q\u00eb m\u00eb duan dhe q\u00eb zbatojn\u00eb urdh\u00ebrimet e mia."
        },
        {
            "chapter": 20,
            "verse": 7,
            "name": "Exodus 20:7",
            "text": "Nuk do ta p\u00ebrdor\u00ebsh emrin e Zotit, t\u00eb Per\u00ebndis\u00eb t\u00ebnd, kot, sepse Zoti nuk do t\u00eb l\u00ebr\u00eb t\u00eb pand\u00ebshkuar at\u00eb q\u00eb p\u00ebrdor kot emrin e tij."
        },
        {
            "chapter": 20,
            "verse": 8,
            "name": "Exodus 20:8",
            "text": "Mbaje mend dit\u00ebn e shtun\u00eb p\u00ebr ta shenjt\u00ebruar."
        },
        {
            "chapter": 20,
            "verse": 9,
            "name": "Exodus 20:9",
            "text": "Do t\u00eb punosh gjasht\u00eb dit\u00eb dhe n\u00eb ato do t\u00eb b\u00ebsh t\u00eb gjith\u00eb pun\u00ebn t\u00ebnde;"
        },
        {
            "chapter": 20,
            "verse": 10,
            "name": "Exodus 20:10",
            "text": "por dita e shtat\u00eb \u00ebsht\u00eb e shtuna, e shenjt\u00eb p\u00ebr Zotin, Per\u00ebndin\u00eb t\u00ebnd; nuk do t\u00eb b\u00ebsh n\u00eb at\u00eb dit\u00eb asnj\u00eb pun\u00eb, as ti, as biri yt, as bija jote, as sh\u00ebrb\u00ebtori yt, as sh\u00ebrb\u00ebtorja jote, as kafsh\u00ebt e tua, as i huaji q\u00eb ndodhet brenda portave t\u00eb tua;"
        },
        {
            "chapter": 20,
            "verse": 11,
            "name": "Exodus 20:11",
            "text": "sepse n\u00eb gjasht\u00eb dit\u00eb Zoti krijoi qiejt dhe tok\u00ebn, detin dhe gjith\u00e7ka q\u00eb \u00ebsht\u00eb n\u00eb to, dhe dit\u00ebn e shtun\u00eb ai pushoi; prandaj Zoti e ka bekuar dit\u00ebn e shabatit dhe e ka shenjt\u00ebruar at\u00eb."
        },
        {
            "chapter": 20,
            "verse": 12,
            "name": "Exodus 20:12",
            "text": "Do t\u00eb nderosh atin t\u00ebnd dhe n\u00ebn\u00ebn t\u00ebnde, me q\u00ebllim q\u00eb dit\u00ebt e tua t\u00eb jen\u00eb t\u00eb gjata mbi tok\u00ebn q\u00eb Zoti, Per\u00ebndia yt, po t\u00eb jep."
        },
        {
            "chapter": 20,
            "verse": 13,
            "name": "Exodus 20:13",
            "text": "Nuk do t\u00eb vras\u00ebsh."
        },
        {
            "chapter": 20,
            "verse": 14,
            "name": "Exodus 20:14",
            "text": "Nuk do t\u00eb shkel\u00ebsh besnik\u00ebrin\u00eb bashk\u00ebshortore."
        },
        {
            "chapter": 20,
            "verse": 15,
            "name": "Exodus 20:15",
            "text": "Nuk do t\u00eb vjedh\u00ebsh."
        },
        {
            "chapter": 20,
            "verse": 16,
            "name": "Exodus 20:16",
            "text": "Nuk do t\u00eb b\u00ebsh d\u00ebshmi t\u00eb rreme kund\u00ebr t\u00eb af\u00ebrmit t\u00ebnd."
        },
        {
            "chapter": 20,
            "verse": 17,
            "name": "Exodus 20:17",
            "text": "Nuk do t\u00eb d\u00ebshirosh sht\u00ebpin\u00eb e t\u00eb af\u00ebrmit t\u00ebnd; nuk do t\u00eb d\u00ebshirosh gruan e t\u00eb af\u00ebrmit t\u00ebnd, as sh\u00ebrb\u00ebtorin e tij, as sh\u00ebrb\u00ebtoren e tij, as lop\u00ebn e tij, as gomarin e tij, as asgj\u00eb tjet\u00ebr q\u00eb \u00ebsht\u00eb e t\u00eb af\u00ebrmit t\u00ebnd\"."
        },
        {
            "chapter": 20,
            "verse": 18,
            "name": "Exodus 20:18",
            "text": "Tani t\u00ebr\u00eb populli d\u00ebgjonte bubullimat, tingullin e boris\u00eb dhe shihte shkreptimat dhe malin q\u00eb nxirrte tym. Para k\u00ebsaj pamjeje, populli dridhej dhe q\u00ebndronte larg."
        },
        {
            "chapter": 20,
            "verse": 19,
            "name": "Exodus 20:19",
            "text": "Prandaj ata i than\u00eb Moisiut: \"Fol ti me ne dhe ne do t\u00eb t\u00eb d\u00ebgjojm\u00eb, por t\u00eb mos na flas\u00eb Per\u00ebndia q\u00eb t\u00eb mos vdesim\"."
        },
        {
            "chapter": 20,
            "verse": 20,
            "name": "Exodus 20:20",
            "text": "Moisiu i tha popullit: \"Mos u trembni, sepse Per\u00ebndia erdhi q\u00eb t'ju provoj\u00eb, dhe me q\u00ebllim q\u00eb frika e tij t\u00eb jet\u00eb gjithmon\u00eb para jush, dhe k\u00ebshtu t\u00eb mos m\u00ebkatoni\"."
        },
        {
            "chapter": 20,
            "verse": 21,
            "name": "Exodus 20:21",
            "text": "Populli, pra, q\u00ebndronte larg, por Moisiu iu afrua err\u00ebsir\u00ebs s\u00eb dendur ku ndodhej Per\u00ebndia."
        },
        {
            "chapter": 20,
            "verse": 22,
            "name": "Exodus 20:22",
            "text": "Pastaj Zoti i tha Moisiut: \"Do t'u thuash k\u00ebshtu bijve t\u00eb Izraelit: \"Ju vet\u00eb e pat\u00eb q\u00eb kam folur me ju nga qielli."
        },
        {
            "chapter": 20,
            "verse": 23,
            "name": "Exodus 20:23",
            "text": "Nuk do t\u00eb b\u00ebni per\u00ebndi t\u00eb tjera af\u00ebr meje; nuk do t\u00eb b\u00ebni per\u00ebndi prej argjendi ose prej ari."
        },
        {
            "chapter": 20,
            "verse": 24,
            "name": "Exodus 20:24",
            "text": "Do t\u00eb b\u00ebsh p\u00ebr mua nj\u00eb altar prej dheu dhe mbi t\u00eb do t\u00eb ofrosh olokaustet e tua, flit\u00eb e tua t\u00eb fal\u00ebnderimit, delet dhe qet\u00eb e tua; n\u00eb \u00e7do vend ku do t\u00eb b\u00ebj q\u00eb emri im t\u00eb kujtohet, do t\u00eb vij te ti dhe do t\u00eb t\u00eb bekoj."
        },
        {
            "chapter": 20,
            "verse": 25,
            "name": "Exodus 20:25",
            "text": "Dhe n\u00eb rast se do t\u00eb nd\u00ebrtosh p\u00ebr mua nj\u00eb altar me gur\u00eb, nuk do ta nd\u00ebrtosh me gur\u00eb t\u00eb latuar; sepse duke ngritur mbi to dalt\u00ebn do t'i ndot\u00ebsh."
        },
        {
            "chapter": 20,
            "verse": 26,
            "name": "Exodus 20:26",
            "text": "Dhe nuk do t\u00eb ngjitesh n\u00eb altarin tim me an\u00eb shkallaresh, me q\u00ebllim q\u00eb mbi t\u00eb t\u00eb mos zbulohet lakuriq\u00ebsia jote\"\"."
        }
    ]
}