{
    "translation": "\u041a\u0438\u0435\u043b\u0456 \u043a\u0456\u0442\u0430\u043f",
    "abbreviation": "kaz",
    "lang": "kk",
    "language": "Kazakh",
    "direction": "RTL",
    "encoding": "UTF-8",
    "book_nr": 27,
    "book_name": "Daniel",
    "chapter": 3,
    "name": "Daniel 3",
    "verses": [
        {
            "chapter": 3,
            "verse": 1,
            "name": "Daniel 3:1",
            "text": "\u041a\u0435\u0439\u0456\u043d\u0456\u0440\u0435\u043a \u041d\u0430\u0431\u0443\u0445\u043e\u0434\u043e\u043d\u043e\u0441\u043e\u0440 \u043f\u0430\u0442\u0448\u0430 \u0430\u043b\u0442\u044b\u043d\u043d\u0430\u043d \u0431\u0456\u0440 \u043c\u04af\u0441\u0456\u043d \u0436\u0430\u0441\u0430\u0442\u044b\u043f, \u043e\u043d\u044b \u0411\u0430\u0431\u044b\u043b \u0430\u0439\u043c\u0430\u0493\u044b\u043d\u0434\u0430\u0493\u044b \u0414\u0443\u0440\u0430 \u0436\u0430\u0437\u044b\u0493\u044b\u043d\u0430 \u043e\u0440\u043d\u0430\u0442\u0443\u0493\u0430 \u0431\u04b1\u0439\u044b\u0440\u0434\u044b. \u041c\u04af\u0441\u0456\u043d\u043d\u0456\u04a3 \u0431\u0438\u0456\u043a\u0442\u0456\u0433\u0456 \u0430\u043b\u043f\u044b\u0441, \u0435\u043d\u0456 \u0430\u043b\u0442\u044b \u0448\u044b\u043d\u0442\u0430\u049b \u0431\u043e\u043b\u0434\u044b."
        },
        {
            "chapter": 3,
            "verse": 2,
            "name": "Daniel 3:2",
            "text": "\u041e\u043d\u044b\u04a3 \u0441\u0430\u043b\u0442\u0430\u043d\u0430\u0442\u043f\u0435\u043d \u0430\u0448\u044b\u043b\u0443 \u0440\u04d9\u0441\u0456\u043c\u0456\u043d\u0435 \u041d\u0430\u0431\u0443\u0445\u043e\u0434\u043e\u043d\u043e\u0441\u043e\u0440 \u043f\u0430\u0442\u0448\u0430\u043b\u044b\u0493\u044b\u043d\u044b\u04a3 \u0430\u0439\u043c\u0430\u049b \u04d9\u043c\u0456\u0440\u0448\u0456\u043b\u0435\u0440\u0456\u043d, \u049b\u043e\u043b\u0431\u0430\u0441\u0448\u044b\u043b\u0430\u0440\u044b\u043d, \u04d9\u043a\u0456\u043c\u0434\u0435\u0440\u0456\u043d, \u043a\u0435\u04a3\u0435\u0441\u0448\u0456\u043b\u0435\u0440\u0456\u043d, \u049b\u0430\u0437\u044b\u043d\u0430\u0448\u044b\u043b\u0430\u0440\u044b\u043d, \u0442\u04e9\u0440\u0435\u0448\u0456\u043b\u0435\u0440\u0456\u043d \u0436\u04d9\u043d\u0435 \u049b\u0430\u043b\u0430 \u04d9\u043a\u0456\u043c\u0434\u0435\u0440\u0456\u043d, \u044f\u0493\u043d\u0438 \u0430\u0439\u043c\u0430\u049b\u0442\u0430\u0440\u044b\u043d\u044b\u04a3 \u0431\u0430\u0440\u043b\u044b\u049b \u0431\u0438\u043b\u0435\u0443\u0448\u0456\u043b\u0435\u0440\u0456\u043d, \u0448\u0430\u049b\u044b\u0440\u0434\u044b. \u0421\u043e\u043b \u0448\u0430\u049b\u044b\u0440\u044b\u043b\u0493\u0430\u043d\u0434\u0430\u0440\u0434\u044b\u04a3 \u0431\u04d9\u0440\u0456 \u0434\u0435 \u043f\u0430\u0442\u0448\u0430 \u043e\u0440\u043d\u0430\u0442\u049b\u044b\u0437\u0493\u0430\u043d \u043c\u04af\u0441\u0456\u043d\u043d\u0456\u04a3 \u0430\u043b\u0434\u044b\u043d\u0434\u0430 \u0436\u0438\u043d\u0430\u043b\u044b\u043f \u0442\u04b1\u0440\u0493\u0430\u043d \u043a\u0435\u0437\u0434\u0435"
        },
        {
            "chapter": 3,
            "verse": 3,
            "name": "Daniel 3:3",
            "text": "\u041e\u043d\u044b\u04a3 \u0441\u0430\u043b\u0442\u0430\u043d\u0430\u0442\u043f\u0435\u043d \u0430\u0448\u044b\u043b\u0443 \u0440\u04d9\u0441\u0456\u043c\u0456\u043d\u0435 \u041d\u0430\u0431\u0443\u0445\u043e\u0434\u043e\u043d\u043e\u0441\u043e\u0440 \u043f\u0430\u0442\u0448\u0430\u043b\u044b\u0493\u044b\u043d\u044b\u04a3 \u0430\u0439\u043c\u0430\u049b \u04d9\u043c\u0456\u0440\u0448\u0456\u043b\u0435\u0440\u0456\u043d, \u049b\u043e\u043b\u0431\u0430\u0441\u0448\u044b\u043b\u0430\u0440\u044b\u043d, \u04d9\u043a\u0456\u043c\u0434\u0435\u0440\u0456\u043d, \u043a\u0435\u04a3\u0435\u0441\u0448\u0456\u043b\u0435\u0440\u0456\u043d, \u049b\u0430\u0437\u044b\u043d\u0430\u0448\u044b\u043b\u0430\u0440\u044b\u043d, \u0442\u04e9\u0440\u0435\u0448\u0456\u043b\u0435\u0440\u0456\u043d \u0436\u04d9\u043d\u0435 \u049b\u0430\u043b\u0430 \u04d9\u043a\u0456\u043c\u0434\u0435\u0440\u0456\u043d, \u044f\u0493\u043d\u0438 \u0430\u0439\u043c\u0430\u049b\u0442\u0430\u0440\u044b\u043d\u044b\u04a3 \u0431\u0430\u0440\u043b\u044b\u049b \u0431\u0438\u043b\u0435\u0443\u0448\u0456\u043b\u0435\u0440\u0456\u043d, \u0448\u0430\u049b\u044b\u0440\u0434\u044b. \u0421\u043e\u043b \u0448\u0430\u049b\u044b\u0440\u044b\u043b\u0493\u0430\u043d\u0434\u0430\u0440\u0434\u044b\u04a3 \u0431\u04d9\u0440\u0456 \u0434\u0435 \u043f\u0430\u0442\u0448\u0430 \u043e\u0440\u043d\u0430\u0442\u049b\u044b\u0437\u0493\u0430\u043d \u043c\u04af\u0441\u0456\u043d\u043d\u0456\u04a3 \u0430\u043b\u0434\u044b\u043d\u0434\u0430 \u0436\u0438\u043d\u0430\u043b\u044b\u043f \u0442\u04b1\u0440\u0493\u0430\u043d \u043a\u0435\u0437\u0434\u0435"
        },
        {
            "chapter": 3,
            "verse": 4,
            "name": "Daniel 3:4",
            "text": "\u0436\u0430\u0440\u0448\u044b \u049b\u0430\u0442\u0442\u044b \u0434\u0430\u0443\u044b\u0441\u043f\u0435\u043d \u0431\u044b\u043b\u0430\u0439 \u0434\u0435\u043f \u0436\u0430\u0440\u0438\u044f\u043b\u0430\u0434\u044b:\u00ab\u0423\u0430, \u043a\u04af\u043b\u043b\u0456 \u04b1\u043b\u0442\u0442\u0430\u0440, \u0445\u0430\u043b\u044b\u049b\u0442\u0430\u0440 \u0436\u04d9\u043d\u0435 \u0442\u0456\u043b\u0434\u0435\u0440\u0434\u0456\u04a3 \u0430\u0434\u0430\u043c\u0434\u0430\u0440\u044b, \u043f\u0430\u0442\u0448\u0430\u043d\u044b\u04a3 \u04d9\u043c\u0456\u0440\u0456\u043d\u0435 \u049b\u04b1\u043b\u0430\u049b \u0442\u04af\u0440\u0456\u04a3\u0434\u0435\u0440!"
        },
        {
            "chapter": 3,
            "verse": 5,
            "name": "Daniel 3:5",
            "text": "\u0421\u0435\u043d\u0434\u0435\u0440 \u043a\u0435\u0440\u043d\u0435\u0439, \u0441\u044b\u0431\u044b\u0437\u0493\u044b, \u0434\u043e\u043c\u0431\u044b\u0440\u0430, \u0436\u0435\u0442\u0456\u0433\u0435\u043d, \u0448\u0435\u0440\u0442\u0435\u0440, \u0441\u044b\u0440\u043d\u0430\u0439 \u0436\u04d9\u043d\u0435 \u04e9\u0437\u0433\u0435 \u0434\u0435 \u0430\u0441\u043f\u0430\u043f\u0442\u0430\u0440\u0434\u0430 \u043e\u0440\u044b\u043d\u0434\u0430\u043b\u0493\u0430\u043d \u043a\u04af\u0439\u043b\u0435\u0440\u0434\u0456 \u0434\u0435 \u0435\u0441\u0442\u0438 \u0441\u0430\u043b\u0430, \u041d\u0430\u0431\u0443\u0445\u043e\u0434\u043e\u043d\u043e\u0441\u043e\u0440 \u043f\u0430\u0442\u0448\u0430 \u0442\u04b1\u0440\u0493\u044b\u0437\u0493\u0430\u043d \u0430\u043b\u0442\u044b\u043d \u043c\u04af\u0441\u0456\u043d\u043d\u0456\u04a3 \u0430\u043b\u0434\u044b\u043d\u0434\u0430 \u0431\u0430\u0441\u0442\u0430\u0440\u044b\u04a3\u0434\u044b \u0436\u0435\u0440\u0433\u0435 \u0436\u0435\u0442\u043a\u0435\u043d\u0448\u0435 \u0438\u0456\u043f \u0442\u0430\u0493\u0437\u044b\u043c \u0435\u0442\u0456\u04a3\u0434\u0435\u0440!"
        },
        {
            "chapter": 3,
            "verse": 6,
            "name": "Daniel 3:6",
            "text": "\u041a\u0456\u043c\u0434\u0435-\u043a\u0456\u043c \u0431\u0430\u0441\u044b\u043d \u0436\u0435\u0440\u0433\u0435 \u0436\u0435\u0442\u043a\u0435\u043d\u0448\u0435 \u0438\u0456\u043f \u0442\u0430\u0493\u0437\u044b\u043c \u0435\u0442\u043f\u0435\u0441\u0435, \u0441\u043e\u043b \u0431\u0456\u0440\u0434\u0435\u043d \u043b\u0430\u0443\u043b\u0430\u043f \u0436\u0430\u043d\u044b\u043f \u0442\u04b1\u0440\u0493\u0430\u043d \u043f\u0435\u0448\u043a\u0435 \u0442\u0430\u0441\u0442\u0430\u043b\u0430\u0434\u044b!\u00bb"
        },
        {
            "chapter": 3,
            "verse": 7,
            "name": "Daniel 3:7",
            "text": "\u0421\u043e\u043d\u0434\u044b\u049b\u0442\u0430\u043d \u043a\u0435\u0440\u043d\u0435\u0439, \u0441\u044b\u0431\u044b\u0437\u0493\u044b, \u0434\u043e\u043c\u0431\u044b\u0440\u0430, \u0436\u0435\u0442\u0456\u0433\u0435\u043d, \u0448\u0435\u0440\u0442\u0435\u0440, \u0441\u044b\u0440\u043d\u0430\u0439 \u04d9\u0440\u0456 \u04e9\u0437\u0433\u0435 \u0434\u0435 \u0430\u0441\u043f\u0430\u043f\u0442\u0430\u0440\u0434\u0430 \u043e\u0440\u044b\u043d\u0434\u0430\u043b\u0493\u0430\u043d \u043a\u04af\u0439\u043b\u0435\u0440\u0434\u0456 \u0435\u0441\u0442\u0438 \u0441\u0430\u043b\u0430, \u0431\u04af\u043a\u0456\u043b \u04b1\u043b\u0442\u0442\u0430\u0440, \u0445\u0430\u043b\u044b\u049b\u0442\u0430\u0440 \u0436\u04d9\u043d\u0435 \u0442\u0456\u043b\u0434\u0435\u0440\u0434\u0456\u04a3 \u0430\u0434\u0430\u043c\u0434\u0430\u0440\u044b \u0431\u0430\u0441\u0442\u0430\u0440\u044b\u043d \u0436\u0435\u0440\u0433\u0435 \u0436\u0435\u0442\u043a\u0435\u043d\u0448\u0435 \u0438\u0456\u043f, \u041d\u0430\u0431\u0443\u0445\u043e\u0434\u043e\u043d\u043e\u0441\u043e\u0440 \u043f\u0430\u0442\u0448\u0430 \u043e\u0440\u043d\u0430\u0442\u049b\u0430\u043d \u0430\u043b\u0442\u044b\u043d \u043c\u04af\u0441\u0456\u043d\u0433\u0435 \u0442\u0430\u0493\u0437\u044b\u043c \u0435\u0442\u0442\u0456."
        },
        {
            "chapter": 3,
            "verse": 8,
            "name": "Daniel 3:8",
            "text": "\u0421\u043e\u043b \u043a\u0435\u0437\u0434\u0435 \u043a\u0435\u0439\u0431\u0456\u0440 \u0445\u0430\u043b\u0434\u0435\u0439 \u0436\u04b1\u043b\u0434\u044b\u0437\u0448\u044b\u043b\u0430\u0440\u044b \u0430\u043b\u0493\u0430 \u0448\u044b\u0493\u044b\u043f, \u044f\u04bb\u0443\u0434\u0438\u043b\u0435\u0440\u0434\u0456 \u0436\u0430\u043c\u0430\u043d\u0434\u0430\u0439 \u0431\u0430\u0441\u0442\u0430\u0434\u044b."
        },
        {
            "chapter": 3,
            "verse": 9,
            "name": "Daniel 3:9",
            "text": "\u041e\u043b\u0430\u0440 \u043f\u0430\u0442\u0448\u0430\u0493\u0430 \u0431\u044b\u043b\u0430\u0439 \u0434\u0435\u043f \u0448\u0430\u0493\u044b\u043c \u0430\u0439\u0442\u0442\u044b:\u2014 \u0423\u0430, \u043f\u0430\u0442\u0448\u0430 \u0430\u0493\u0437\u0430\u043c, \u04e9\u043c\u0456\u0440\u0456\u04a3\u0456\u0437 \u04b1\u0437\u0430\u049b \u0431\u043e\u043b\u0441\u044b\u043d!"
        },
        {
            "chapter": 3,
            "verse": 10,
            "name": "Daniel 3:10",
            "text": "\u041e, \u043f\u0430\u0442\u0448\u0430, \u0441\u0456\u0437 \u00ab\u04d8\u0440\u0431\u0456\u0440 \u0430\u0434\u0430\u043c \u043a\u0435\u0440\u043d\u0435\u0439, \u0441\u044b\u0431\u044b\u0437\u0493\u044b, \u0434\u043e\u043c\u0431\u044b\u0440\u0430, \u0436\u0435\u0442\u0456\u0433\u0435\u043d, \u0448\u0435\u0440\u0442\u0435\u0440, \u0441\u044b\u0440\u043d\u0430\u0439 \u0436\u04d9\u043d\u0435 \u04e9\u0437\u0433\u0435 \u0434\u0435 \u0430\u0441\u043f\u0430\u043f\u0442\u0430\u0440\u0434\u0430 \u043e\u0440\u044b\u043d\u0434\u0430\u043b\u0493\u0430\u043d \u043a\u04af\u0439\u043b\u0435\u0440\u0434\u0456 \u0435\u0441\u0442\u0438 \u0441\u0430\u043b\u0430 \u0430\u043b\u0442\u044b\u043d \u043c\u04af\u0441\u0456\u043d\u043d\u0456\u04a3 \u0430\u043b\u0434\u044b\u043d\u0434\u0430 \u0431\u0430\u0441\u044b\u043d \u0436\u0435\u0440\u0433\u0435 \u0436\u0435\u0442\u043a\u0435\u043d\u0448\u0435 \u0438\u0456\u043f \u0442\u0430\u0493\u0437\u044b\u043c \u0435\u0442\u0441\u0456\u043d!"
        },
        {
            "chapter": 3,
            "verse": 11,
            "name": "Daniel 3:11",
            "text": "\u041a\u0456\u043c\u0434\u0435-\u043a\u0456\u043c \u0431\u0430\u0441\u044b\u043d \u0436\u0435\u0440\u0433\u0435 \u0436\u0435\u0442\u043a\u0435\u043d\u0448\u0435 \u0438\u0456\u043f \u0442\u0430\u0493\u0437\u044b\u043c \u0435\u0442\u043f\u0435\u0441\u0435, \u0441\u043e\u043b \u043b\u0430\u0443\u043b\u0430\u043f \u0436\u0430\u043d\u044b\u043f \u0442\u04b1\u0440\u0493\u0430\u043d \u043f\u0435\u0448\u043a\u0435 \u043b\u0430\u049b\u0442\u044b\u0440\u044b\u043b\u0441\u044b\u043d!\u00bb \u2014 \u0434\u0435\u043f \u04d9\u043c\u0456\u0440 \u0435\u0442\u043a\u0435\u043d \u0435\u0434\u0456\u04a3\u0456\u0437 \u0493\u043e\u0439."
        },
        {
            "chapter": 3,
            "verse": 12,
            "name": "Daniel 3:12",
            "text": "\u041e\u0441\u044b \u0430\u0440\u0430\u0434\u0430 \u04e9\u0437\u0456\u04a3\u0456\u0437 \u0411\u0430\u0431\u044b\u043b \u0430\u0439\u043c\u0430\u0493\u044b\u043d\u044b\u04a3 \u0431\u0430\u0441\u049b\u0430\u0440\u0443\u0448\u044b\u043b\u0430\u0440\u044b \u0435\u0442\u0456\u043f \u0442\u0430\u0493\u0430\u0439\u044b\u043d\u0434\u0430\u0493\u0430\u043d \u0428\u0430\u0434\u044b\u0440\u0430\u049b, \u041c\u0438\u0441\u0430\u049b \u043f\u0435\u043d \u04d8\u0431\u0434\u0456\u043d\u0435\u0433\u043e \u0434\u0435\u0433\u0435\u043d \u044f\u04bb\u0443\u0434\u0438\u043b\u0435\u0440 \u0431\u0430\u0440. \u041e\u043b\u0430\u0440 \u043d\u0435 \u0441\u0456\u0437\u0434\u0456\u04a3 \u0431\u0435\u0440\u0433\u0435\u043d \u04d9\u043c\u0456\u0440\u0456\u04a3\u0456\u0437\u0434\u0456 \u043c\u0435\u043d\u0441\u0456\u043d\u0431\u0435\u0439\u0434\u0456, \u043d\u0435 \u0442\u04d9\u04a3\u0456\u0440\u043b\u0435\u0440\u0456\u04a3\u0456\u0437\u0433\u0435 \u0493\u0438\u0431\u0430\u0434\u0430\u0442 \u0435\u0442\u043f\u0435\u0439\u0434\u0456, \u043d\u0435 \u04e9\u0437\u0456\u04a3\u0456\u0437 \u043e\u0440\u043d\u0430\u0442\u049b\u0430\u043d \u0430\u043b\u0442\u044b\u043d \u043c\u04af\u0441\u0456\u043d\u043d\u0456\u04a3 \u0430\u043b\u0434\u044b\u043d\u0434\u0430 \u0438\u0456\u043b\u0456\u043f \u0442\u0430\u0493\u0437\u044b\u043c \u0435\u0442\u043f\u0435\u0439\u0434\u0456!"
        },
        {
            "chapter": 3,
            "verse": 13,
            "name": "Daniel 3:13",
            "text": "\u041e\u0441\u044b\u043d\u044b \u0435\u0441\u0442\u0456\u0433\u0435\u043d\u0434\u0435 \u041d\u0430\u0431\u0443\u0445\u043e\u0434\u043e\u043d\u043e\u0441\u043e\u0440 \u043f\u0430\u0442\u0448\u0430 \u049b\u0430\u0442\u0442\u044b \u0430\u0448\u0443\u043b\u0430\u043d\u044b\u043f, \u0428\u0430\u0434\u044b\u0440\u0430\u049b, \u041c\u0438\u0441\u0430\u049b \u043f\u0435\u043d \u04d8\u0431\u0434\u0456\u043d\u0435\u0433\u043e\u043d\u044b \u0430\u043b\u044b\u043f \u043a\u0435\u043b\u0443\u0433\u0435 \u0431\u04b1\u0439\u044b\u0440\u0434\u044b. \u0410\u043b\u0434\u044b\u043d\u0430 \u04d9\u043a\u0435\u043b\u0456\u043d\u0433\u0435\u043d \u04af\u0448 \u0436\u0456\u0433\u0456\u0442\u043a\u0435"
        },
        {
            "chapter": 3,
            "verse": 14,
            "name": "Daniel 3:14",
            "text": "\u043f\u0430\u0442\u0448\u0430 \u0441\u04b1\u0440\u0430\u049b \u049b\u043e\u0439\u044b\u043f \u0431\u044b\u043b\u0430\u0439 \u0434\u0435\u0434\u0456:\u2014 \u0421\u0435\u043d\u0434\u0435\u0440 \u0448\u044b\u043d\u044b\u043c\u0435\u043d \u043c\u0435\u043d\u0456\u04a3 \u0442\u04d9\u04a3\u0456\u0440\u043b\u0435\u0440\u0456\u043c\u0435 \u0434\u0435 \u0493\u0438\u0431\u0430\u0434\u0430\u0442 \u0435\u0442\u043f\u0435\u0439, \u04e9\u0437\u0456\u043c \u043e\u0440\u043d\u0430\u0442\u049b\u0430\u043d \u0430\u043b\u0442\u044b\u043d \u043c\u04af\u0441\u0456\u043d\u0433\u0435 \u0434\u0435 \u0438\u0456\u043b\u0456\u043f \u0442\u0430\u0493\u0437\u044b\u043c \u0435\u0442\u043f\u0435\u0439\u0441\u0456\u04a3\u0434\u0435\u0440 \u043c\u0435?!"
        },
        {
            "chapter": 3,
            "verse": 15,
            "name": "Daniel 3:15",
            "text": "\u0415\u043d\u0434\u0435\u0448\u0435 \u043c\u043e\u0439\u044b\u043d\u0441\u04b1\u043d\u0443\u0493\u0430 \u0434\u0430\u0439\u044b\u043d \u0431\u043e\u043b\u0441\u0430\u04a3\u0434\u0430\u0440, \u043e\u043d\u0434\u0430 \u043a\u0435\u0440\u043d\u0435\u0439, \u0441\u044b\u0431\u044b\u0437\u0493\u044b, \u0434\u043e\u043c\u0431\u044b\u0440\u0430, \u0436\u0435\u0442\u0456\u0433\u0435\u043d, \u0448\u0435\u0440\u0442\u0435\u0440, \u0441\u044b\u0440\u043d\u0430\u0439 \u0436\u04d9\u043d\u0435 \u04e9\u0437\u0433\u0435 \u0434\u0435 \u0430\u0441\u043f\u0430\u043f\u0442\u0430\u0440\u0434\u0430 \u043e\u0440\u044b\u043d\u0434\u0430\u043b\u0493\u0430\u043d \u043a\u04af\u0439\u043b\u0435\u0440\u0434\u0456 \u0435\u0441\u0442\u0438 \u0441\u0430\u043b\u0430, \u0431\u0430\u0441\u0442\u0430\u0440\u044b\u04a3\u0434\u044b \u0436\u0435\u0440\u0433\u0435 \u0436\u0435\u0442\u043a\u0435\u043d\u0448\u0435 \u0438\u0456\u043f, \u04e9\u0437\u0456\u043c \u0436\u0430\u0441\u0430\u0442\u049b\u0430\u043d \u0430\u043b\u0442\u044b\u043d \u043c\u04af\u0441\u0456\u043d\u0433\u0435 \u0442\u0430\u0493\u0437\u044b\u043c \u0435\u0442\u0456\u04a3\u0434\u0435\u0440! \u0411\u0456\u0440\u0430\u049b \u0435\u0433\u0435\u0440 \u0438\u0456\u043b\u0456\u043f \u0442\u0430\u0493\u0437\u044b\u043c \u0435\u0442\u043f\u0435\u0441\u0435\u04a3\u0434\u0435\u0440, \u0431\u0456\u0440\u0434\u0435\u043d \u043b\u0430\u0443\u043b\u0430\u043f \u0436\u0430\u043d\u044b\u043f \u0442\u04b1\u0440\u0493\u0430\u043d \u043f\u0435\u0448\u043a\u0435 \u043b\u0430\u049b\u0442\u044b\u0440\u044b\u043b\u0430\u0441\u044b\u04a3\u0434\u0430\u0440! \u0421\u043e\u043d\u0434\u0430 \u049b\u0430\u043d\u0434\u0430\u0439 \u049b\u04b1\u0434\u0430\u0439 \u0441\u0435\u043d\u0434\u0435\u0440\u0434\u0456 \u043c\u0435\u043d\u0456\u04a3 \u049b\u043e\u043b\u044b\u043c\u043d\u0430\u043d \u049b\u04b1\u0442\u049b\u0430\u0440\u044b\u043f \u0430\u043b\u0430\u0440 \u0435\u043a\u0435\u043d?!"
        },
        {
            "chapter": 3,
            "verse": 16,
            "name": "Daniel 3:16",
            "text": "\u0428\u0430\u0434\u044b\u0440\u0430\u049b, \u041c\u0438\u0441\u0430\u049b \u043f\u0435\u043d \u04d8\u0431\u0434\u0456\u043d\u0435\u0433\u043e \u041d\u0430\u0431\u0443\u0445\u043e\u0434\u043e\u043d\u043e\u0441\u043e\u0440\u0493\u0430 \u0431\u044b\u043b\u0430\u0439 \u0434\u0435\u043f \u0436\u0430\u0443\u0430\u043f \u049b\u0430\u0439\u044b\u0440\u0434\u044b:\u2014 \u0423\u0430, \u043f\u0430\u0442\u0448\u0430, \u0431\u04b1\u043b \u043c\u04d9\u0441\u0435\u043b\u0435 \u0431\u043e\u0439\u044b\u043d\u0448\u0430 \u0441\u0456\u0437\u0434\u0456\u04a3 \u0430\u043b\u0434\u044b\u04a3\u044b\u0437\u0434\u0430 \u049b\u043e\u0440\u0493\u0430\u043d\u0443\u044b\u043c\u044b\u0437\u0434\u044b\u04a3 \u049b\u0430\u0436\u0435\u0442\u0456 \u0436\u043e\u049b."
        },
        {
            "chapter": 3,
            "verse": 17,
            "name": "Daniel 3:17",
            "text": "\u0415\u0433\u0435\u0440 \u043b\u0430\u0443\u043b\u0430\u043f \u0436\u0430\u043d\u044b\u043f \u0442\u04b1\u0440\u0493\u0430\u043d \u043f\u0435\u0448\u043a\u0435 \u043b\u0430\u049b\u0442\u044b\u0440\u044b\u043b\u0441\u0430\u049b \u0442\u0430, \u0493\u0438\u0431\u0430\u0434\u0430\u0442 \u0435\u0442\u0456\u043f \u0436\u04af\u0440\u0433\u0435\u043d \u049a\u04b1\u0434\u0430\u0439\u044b\u043c\u044b\u0437\u0434\u044b\u04a3 \u0431\u0456\u0437\u0434\u0456 \u049b\u04b1\u0442\u049b\u0430\u0440\u0443\u0493\u0430 \u049b\u04b1\u0434\u0456\u0440\u0435\u0442\u0456 \u0436\u0435\u0442\u0435\u0434\u0456. \u041e\u043b \u0431\u0456\u0437\u0434\u0456 \u0441\u0456\u0437\u0434\u0456\u04a3 \u049b\u043e\u043b\u044b\u04a3\u044b\u0437\u0434\u0430\u043d \u049b\u04b1\u0442\u049b\u0430\u0440\u0430\u0442\u044b\u043d \u0431\u043e\u043b\u0430\u0434\u044b \u0434\u0430!"
        },
        {
            "chapter": 3,
            "verse": 18,
            "name": "Daniel 3:18",
            "text": "\u0422\u0456\u043f\u0442\u0456 \u0441\u043e\u043b\u0430\u0439 \u0431\u043e\u043b\u043c\u0430\u0441\u0430 \u0434\u0430, \u043c\u044b\u043d\u0430\u043d\u044b \u0431\u0456\u043b\u0456\u043f \u049b\u043e\u0439\u044b\u04a3\u044b\u0437, \u0443\u0430 \u0442\u0430\u049b\u0441\u044b\u0440: \u0441\u0456\u0437\u0434\u0456\u04a3 \u0442\u04d9\u04a3\u0456\u0440\u043b\u0435\u0440\u0456\u04a3\u0456\u0437\u0433\u0435 \u0493\u0438\u0431\u0430\u0434\u0430\u0442 \u0435\u0442\u043f\u0435\u0439\u043c\u0456\u0437 \u0434\u0435, \u043e\u0440\u043d\u0430\u0442\u049b\u0430\u043d \u0430\u043b\u0442\u044b\u043d \u043c\u04af\u0441\u0456\u043d\u0456\u04a3\u0456\u0437 \u0430\u043b\u0434\u044b\u043d\u0434\u0430 \u0438\u0456\u043b\u0456\u043f \u0442\u0430\u0493\u0437\u044b\u043c \u0435\u0442\u043f\u0435\u0439\u043c\u0456\u0437 \u0434\u0435!"
        },
        {
            "chapter": 3,
            "verse": 19,
            "name": "Daniel 3:19",
            "text": "\u041d\u0430\u0431\u0443\u0445\u043e\u0434\u043e\u043d\u043e\u0441\u043e\u0440 \u0428\u0430\u0434\u044b\u0440\u0430\u049b, \u041c\u0438\u0441\u0430\u049b \u043f\u0435\u043d \u04d8\u0431\u0434\u0456\u043d\u0435\u0433\u043e\u0433\u0435 \u049b\u0430\u04bb\u0430\u0440\u043b\u0430\u043d\u044b\u043f, \u043e\u043d\u044b\u04a3 \u043a\u0435\u0441\u043a\u0456\u043d\u0456 \u0431\u04b1\u0437\u044b\u043b\u044b\u043f \u043a\u0435\u0442\u0442\u0456. \u041e\u043b \u043f\u0435\u0448\u0442\u0456 \u0431\u04b1\u0440\u044b\u043d\u0493\u044b\u0434\u0430\u043d \u0436\u0435\u0442\u0456 \u0435\u0441\u0435 \u044b\u0441\u0442\u044b\u049b \u0435\u0442\u0456\u043f \u043e\u0442 \u0436\u0430\u0493\u044b\u043b\u0441\u044b\u043d \u0434\u0435\u043f \u04d9\u043c\u0456\u0440 \u0435\u0442\u0442\u0456."
        },
        {
            "chapter": 3,
            "verse": 20,
            "name": "Daniel 3:20",
            "text": "\u0421\u043e\u0434\u0430\u043d \u0441\u043e\u04a3 \u04d9\u0441\u043a\u0435\u0440\u0456\u043d\u0435\u043d \u0435\u04a3 \u049b\u0443\u0430\u0442\u0442\u044b \u0434\u0435\u0433\u0435\u043d \u0436\u0430\u0443\u044b\u043d\u0433\u0435\u0440\u043b\u0435\u0440\u0434\u0456\u04a3 \u0431\u0456\u0440\u0441\u044b\u043f\u044b\u0440\u0430\u0441\u044b\u043d\u0430 \u0441\u043e\u043b \u04af\u0448 \u0436\u0456\u0433\u0456\u0442\u0442\u0456 \u0431\u0430\u0439\u043b\u0430\u043f-\u043c\u0430\u0442\u0430\u043f, \u043b\u0430\u0443\u043b\u0430\u043f \u0436\u0430\u043d\u044b\u043f \u0442\u04b1\u0440\u0493\u0430\u043d \u043f\u0435\u0448\u043a\u0435 \u0442\u0430\u0441\u0442\u0430\u0443\u0493\u0430 \u0431\u04b1\u0439\u044b\u0440\u0434\u044b."
        },
        {
            "chapter": 3,
            "verse": 21,
            "name": "Daniel 3:21",
            "text": "\u041e\u0441\u044b\u043b\u0430\u0439 \u04af\u0448\u0435\u0443\u0456 \u0448\u0430\u043f\u0430\u043d\u0434\u0430\u0440\u044b, \u0448\u0430\u043b\u0431\u0430\u0440\u043b\u0430\u0440\u044b, \u0441\u04d9\u043b\u0434\u0435\u043b\u0435\u0440\u0456 \u0436\u04d9\u043d\u0435 \u0431\u0430\u0441\u049b\u0430 \u0434\u0430 \u043a\u0438\u0456\u043c\u0434\u0435\u0440\u0456\u043c\u0435\u043d \u0431\u0430\u0439\u043b\u0430\u043d\u0493\u0430\u043d \u043a\u04af\u0439\u043b\u0435\u0440\u0456 \u043b\u0430\u0443\u043b\u0430\u043f \u0436\u0430\u043d\u044b\u043f \u0442\u04b1\u0440\u0493\u0430\u043d \u043f\u0435\u0448\u0442\u0456\u04a3 \u0456\u0448\u0456\u043d\u0435 \u043b\u0430\u049b\u0442\u044b\u0440\u044b\u043b\u0434\u044b."
        },
        {
            "chapter": 3,
            "verse": 22,
            "name": "Daniel 3:22",
            "text": "\u041f\u0430\u0442\u0448\u0430\u043d\u044b\u04a3 \u0431\u04b1\u0439\u0440\u044b\u0493\u044b \u049b\u0430\u0442\u0430\u04a3 \u0436\u04d9\u043d\u0435 \u043f\u0435\u0448\u0442\u0456\u04a3 \u044b\u0441\u0442\u044b\u049b \u0431\u043e\u043b\u0493\u0430\u043d\u044b \u0441\u043e\u043d\u0448\u0430\u043b\u044b\u049b, \u0428\u0430\u0434\u044b\u0440\u0430\u049b, \u041c\u0438\u0441\u0430\u049b, \u04d8\u0431\u0434\u0456\u043d\u0435\u0433\u043e\u043d\u044b \u043f\u0435\u0448\u043a\u0435 \u043b\u0430\u049b\u0442\u044b\u0440\u044b\u043f \u0436\u0430\u0442\u049b\u0430\u043d \u0430\u0434\u0430\u043c\u0434\u0430\u0440\u0434\u044b\u04a3 \u04e9\u0437\u0434\u0435\u0440\u0456 \u043e\u0442\u049b\u0430 \u043a\u04af\u0439\u0456\u043f \u04e9\u043b\u0434\u0456."
        },
        {
            "chapter": 3,
            "verse": 23,
            "name": "Daniel 3:23",
            "text": "\u0410\u043b \u0441\u043e\u043b \u04af\u0448 \u0436\u0456\u0433\u0456\u0442 \u0428\u0430\u0434\u044b\u0440\u0430\u049b, \u041c\u0438\u0441\u0430\u049b, \u04d8\u0431\u0434\u0456\u043d\u0435\u0433\u043e \u0431\u0430\u0439\u043b\u0430\u043d\u0493\u0430\u043d \u043a\u04af\u0439\u043b\u0435\u0440\u0456 \u043b\u0430\u0443\u043b\u0430\u043f \u0436\u0430\u043d\u044b\u043f \u0442\u04b1\u0440\u0493\u0430\u043d \u043f\u0435\u0448\u0442\u0456\u04a3 \u0456\u0448\u0456\u043d\u0435 \u049b\u04b1\u043b\u0430\u043f \u0442\u04af\u0441\u0442\u0456."
        },
        {
            "chapter": 3,
            "verse": 24,
            "name": "Daniel 3:24",
            "text": "\u0411\u04b1\u0493\u0430\u043d \u049b\u0430\u0440\u0430\u043f \u0442\u04b1\u0440\u0493\u0430\u043d \u041d\u0430\u0431\u0443\u0445\u043e\u0434\u043e\u043d\u043e\u0441\u043e\u0440 \u043f\u0430\u0442\u0448\u0430 \u043a\u0435\u043d\u0435\u0442 \u0442\u0430\u04a3\u0493\u0430\u043b\u044b\u043f, \u043e\u0440\u043d\u044b\u043d\u0430\u043d \u04b1\u0448\u044b\u043f \u0442\u04b1\u0440\u044b\u043f, \u049b\u0430\u0441\u044b\u043d\u0434\u0430\u0493\u044b \u043a\u0435\u04a3\u0435\u0441\u0448\u0456\u043b\u0435\u0440\u0456\u043d\u0435\u043d:\u2014 \u0411\u0456\u0437 \u0431\u0430\u0439\u043b\u0430\u0442\u044b\u043f, \u043e\u0442\u049b\u0430 \u043b\u0430\u049b\u0442\u044b\u0440\u0442\u049b\u0430\u043d \u0430\u0434\u0430\u043c \u04af\u0448\u0435\u0443 \u0435\u043c\u0435\u0441 \u043f\u0435 \u0435\u0434\u0456? \u2014 \u0434\u0435\u043f \u0441\u04b1\u0440\u0430\u0434\u044b.\u2014 \u0414\u04d9\u043b \u0441\u043e\u043b\u0430\u0439, \u0443\u0430, \u043f\u0430\u0442\u0448\u0430 \u0430\u0493\u0437\u0430\u043c! \u2014 \u0434\u0435\u043f \u0436\u0430\u0443\u0430\u043f \u049b\u0430\u0442\u0442\u044b \u043e\u043b\u0430\u0440."
        },
        {
            "chapter": 3,
            "verse": 25,
            "name": "Daniel 3:25",
            "text": "\u0421\u043e\u043d\u0434\u0430 \u043f\u0430\u0442\u0448\u0430:\u2014 \u049a\u0430\u0440\u0430\u04a3\u0434\u0430\u0440, \u043c\u0435\u043d \u043e\u0442 \u0456\u0448\u0456\u043d\u0434\u0435 \u0435\u043c\u0456\u043d-\u0435\u0440\u043a\u0456\u043d, \u0430\u043c\u0430\u043d-\u0441\u0430\u0443 \u0436\u04af\u0440\u0433\u0435\u043d \u0442\u04e9\u0440\u0442 \u0430\u0434\u0430\u043c\u0434\u044b \u043a\u04e9\u0440\u0456\u043f \u0442\u04b1\u0440\u043c\u044b\u043d! \u0410\u043b \u0442\u04e9\u0440\u0442\u0456\u043d\u0448\u0456\u0441\u0456 \u0442\u04d9\u04a3\u0456\u0440\u0434\u0456\u04a3 \u0431\u0430\u043b\u0430\u0441\u044b \u0456\u0441\u043f\u0435\u0442\u0442\u0456 \u0435\u043a\u0435\u043d! \u2014 \u0434\u0435\u043f \u0430\u0439\u049b\u0430\u0439\u043b\u0430\u043f \u0436\u0456\u0431\u0435\u0440\u0434\u0456."
        },
        {
            "chapter": 3,
            "verse": 26,
            "name": "Daniel 3:26",
            "text": "\u0421\u043e\u0434\u0430\u043d \u043e\u043b \u043b\u0430\u0443\u043b\u0430\u043f \u0436\u0430\u043d\u044b\u043f \u0442\u04b1\u0440\u0493\u0430\u043d \u043f\u0435\u0448\u0442\u0456\u04a3 \u0430\u0443\u0437\u044b\u043d\u0430 \u049b\u0430\u0440\u0430\u0439 \u0431\u0430\u0440\u044b\u043f:\u2014 \u0423\u0430, \u0428\u0430\u0434\u044b\u0440\u0430\u049b, \u041c\u0438\u0441\u0430\u049b, \u04d8\u0431\u0434\u0456\u043d\u0435\u0433\u043e \u2014 \u0410\u043b\u043b\u0430 \u0422\u0430\u0493\u0430\u043b\u0430\u043d\u044b\u04a3 \u049b\u044b\u0437\u043c\u0435\u0442\u0448\u0456\u043b\u0435\u0440\u0456, \u0448\u044b\u0493\u044b\u043f \u0431\u0435\u0440\u0456 \u043a\u0435\u043b\u0441\u0435\u04a3\u0434\u0435\u0440 \u0435\u043a\u0435\u043d, \u2014 \u0434\u0435\u043f \u0448\u0430\u049b\u044b\u0440\u0434\u044b.\u0421\u043e\u043d\u0434\u0430 \u04af\u0448\u0435\u0443\u0456 \u043e\u0442\u0442\u044b\u04a3 \u043e\u0440\u0442\u0430\u0441\u044b\u043d\u0430\u043d \u0448\u044b\u049b\u0442\u044b."
        },
        {
            "chapter": 3,
            "verse": 27,
            "name": "Daniel 3:27",
            "text": "\u0410\u0439\u043c\u0430\u049b \u04d9\u043c\u0456\u0440\u0448\u0456\u043b\u0435\u0440\u0456, \u049b\u043e\u043b\u0431\u0430\u0441\u0448\u044b\u043b\u0430\u0440, \u04d9\u043a\u0456\u043c\u0434\u0435\u0440 \u0436\u04d9\u043d\u0435 \u043f\u0430\u0442\u0448\u0430\u043d\u044b\u04a3 \u043a\u0435\u04a3\u0435\u0441\u0448\u0456\u043b\u0435\u0440\u0456 \u04af\u0448 \u0436\u0456\u0433\u0456\u0442\u0442\u0456 \u0430\u0439\u043d\u0430\u043b\u0434\u044b\u0440\u0430 \u0436\u0438\u043d\u0430\u043b\u044b\u043f, \u043e\u0442\u0442\u044b\u04a3 \u043e\u043b\u0430\u0440\u0493\u0430 \u0435\u0448\u049b\u0430\u043d\u0434\u0430\u0439 \u0437\u0438\u044f\u043d \u0442\u0438\u0433\u0456\u0437\u0431\u0435\u0433\u0435\u043d\u0456\u043d\u0435 \u043a\u04e9\u0437\u0434\u0435\u0440\u0456 \u0436\u0435\u0442\u0442\u0456. \u04ae\u0448\u0435\u0443\u0456\u043d\u0456\u04a3 \u0448\u0430\u0448\u0442\u0430\u0440\u044b \u0434\u0430 \u043a\u04af\u0439\u043c\u0435\u043f\u0442\u0456, \u0448\u0430\u043f\u0430\u043d\u0434\u0430\u0440\u044b \u0434\u0430 \u04e9\u0440\u0442\u0435\u043d\u0431\u0435\u043f\u0442\u0456, \u0442\u0456\u043f\u0442\u0456 \u043e\u0442\u0442\u044b\u04a3 \u0438\u0456\u0441\u0456 \u0434\u0435 \u043e\u043b\u0430\u0440\u0493\u0430 \u0441\u0456\u04a3\u0431\u0435\u043f\u0442\u0456!"
        },
        {
            "chapter": 3,
            "verse": 28,
            "name": "Daniel 3:28",
            "text": "\u0421\u043e\u043d\u0434\u0430 \u041d\u0430\u0431\u0443\u0445\u043e\u0434\u043e\u043d\u043e\u0441\u043e\u0440 \u0434\u0430\u0443\u044b\u0441\u0442\u0430\u043f \u0431\u044b\u043b\u0430\u0439 \u0434\u0435\u0434\u0456:\u2014 \u0428\u0430\u0434\u044b\u0440\u0430\u049b, \u041c\u0438\u0441\u0430\u049b, \u04d8\u0431\u0434\u0456\u043d\u0435\u0433\u043e \u0441\u0438\u044b\u043d\u0493\u0430\u043d \u049a\u04b1\u0434\u0430\u0439 \u043c\u0430\u0434\u0430\u049b\u0442\u0430\u043b\u0441\u044b\u043d! \u041e\u043b \u043f\u0435\u0440\u0456\u0448\u0442\u0435\u0441\u0456\u043d \u0436\u0456\u0431\u0435\u0440\u0456\u043f, \u04e8\u0437\u0456\u043d\u0456\u04a3 \u049b\u044b\u0437\u043c\u0435\u0442\u0448\u0456\u043b\u0435\u0440\u0456\u043d \u049b\u04b1\u0442\u049b\u0430\u0440\u044b\u043f \u0430\u043b\u044b\u043f \u049b\u0430\u043b\u0434\u044b. \u041e\u043b\u0430\u0440 \u04e9\u0437\u0434\u0435\u0440\u0456 \u0441\u0438\u044b\u043d\u0493\u0430\u043d \u049a\u04b1\u0434\u0430\u0439\u0493\u0430 \u0442\u043e\u043b\u044b\u049b \u0441\u0435\u043d\u0456\u043c \u0430\u0440\u0442\u044b\u043f, \u04e9\u0437\u0433\u0435 \u0442\u04d9\u04a3\u0456\u0440\u0433\u0435 \u0493\u0438\u0431\u0430\u0434\u0430\u0442 \u0435\u0442\u0456\u043f \u0442\u0430\u0431\u044b\u043d\u0443\u0434\u0430\u043d \u0431\u0430\u0441 \u0442\u0430\u0440\u0442\u0442\u044b, \u04d9\u0440\u0456 \u043f\u0430\u0442\u0448\u0430\u043d\u044b\u04a3 \u0431\u04b1\u0439\u0440\u044b\u0493\u044b\u043d\u0430 \u0431\u0430\u0493\u044b\u043d\u0431\u0430\u0439, \u0442\u0456\u043f\u0442\u0456 \u04e9\u043c\u0456\u0440\u043b\u0435\u0440\u0456\u043d \u049b\u0438\u044e\u0493\u0430 \u0434\u0430 \u0434\u0430\u0439\u044b\u043d \u0431\u043e\u043b\u0434\u044b!"
        },
        {
            "chapter": 3,
            "verse": 29,
            "name": "Daniel 3:29",
            "text": "\u0421\u043e\u043b \u0441\u0435\u0431\u0435\u043f\u0442\u0456 \u043c\u0435\u043d\u0456\u04a3 \u0436\u0430\u0440\u043b\u044b\u0493\u044b\u043c \u043c\u044b\u043d\u0430\u0434\u0430\u0439: \u0415\u0433\u0435\u0440 \u043a\u0435\u0437 \u043a\u0435\u043b\u0433\u0435\u043d \u0445\u0430\u043b\u044b\u049b\u0442\u044b\u04a3, \u04b1\u043b\u0442\u0442\u044b\u04a3 \u043d\u0435 \u0442\u0456\u043b\u0434\u0456\u04a3 \u0430\u0434\u0430\u043c\u0434\u0430\u0440\u044b \u0428\u0430\u0434\u044b\u0440\u0430\u049b, \u041c\u0438\u0441\u0430\u049b, \u04d8\u0431\u0434\u0456\u043d\u0435\u0433\u043e \u0441\u0438\u044b\u043d\u0493\u0430\u043d \u049a\u04b1\u0434\u0430\u0439\u0493\u0430 \u0442\u0456\u043b \u0442\u0438\u0433\u0456\u0437\u0435\u0442\u0456\u043d \u0431\u043e\u043b\u0441\u0430, \u043e\u043b\u0430\u0440 \u0448\u0430\u0431\u044b\u043b\u044b\u043f \u04e9\u043b\u0442\u0456\u0440\u0456\u043b\u0456\u043f, \u04af\u0439\u043b\u0435\u0440\u0456 \u0436\u0435\u0440\u043c\u0435\u043d-\u0436\u0435\u043a\u0441\u0435\u043d \u0435\u0442\u0456\u043b\u0441\u0456\u043d! \u0421\u0435\u0431\u0435\u0431\u0456 \u0431\u0430\u0441\u049b\u0430 \u0435\u0448\u0431\u0456\u0440 \u0442\u04d9\u04a3\u0456\u0440 \u043e\u0441\u044b\u043b\u0430\u0439 \u049b\u04b1\u0442\u049b\u0430\u0440\u0430 \u0430\u043b\u043c\u0430\u0439\u0434\u044b!"
        },
        {
            "chapter": 3,
            "verse": 30,
            "name": "Daniel 3:30",
            "text": "\u0421\u043e\u0434\u0430\u043d \u043f\u0430\u0442\u0448\u0430 \u0428\u0430\u0434\u044b\u0440\u0430\u049b, \u041c\u0438\u0441\u0430\u049b, \u04d8\u0431\u0434\u0456\u043d\u0435\u0433\u043e\u043d\u044b \u0411\u0430\u0431\u044b\u043b \u0430\u0439\u043c\u0430\u0493\u044b\u043d\u0434\u0430\u0493\u044b \u0431\u04b1\u0440\u044b\u043d\u0493\u044b\u0434\u0430\u043d \u0434\u0430 \u0436\u043e\u0493\u0430\u0440\u044b \u043b\u0430\u0443\u0430\u0437\u044b\u043c\u0434\u044b \u049b\u044b\u0437\u043c\u0435\u0442\u0442\u0435\u0440\u0433\u0435 \u0442\u0430\u0493\u0430\u0439\u044b\u043d\u0434\u0430\u0434\u044b."
        },
        {
            "chapter": 3,
            "verse": 31,
            "name": "Daniel 3:31",
            "text": "\u041a\u0435\u0439\u0456\u043d\u0456\u0440\u0435\u043a \u041d\u0430\u0431\u0443\u0445\u043e\u0434\u043e\u043d\u043e\u0441\u043e\u0440 \u043f\u0430\u0442\u0448\u0430 \u0436\u0435\u0440 \u0431\u0435\u0442\u0456\u043d\u0434\u0435\u0433\u0456 \u0431\u0430\u0440\u043b\u044b\u049b \u0445\u0430\u043b\u044b\u049b\u0442\u0430\u0440, \u04b1\u043b\u0442\u0442\u0430\u0440 \u0436\u04d9\u043d\u0435 \u0442\u0456\u043b\u0434\u0435\u0440\u0434\u0456\u04a3 \u0430\u0434\u0430\u043c\u0434\u0430\u0440\u044b\u043d\u0430 \u043c\u044b\u043d\u0430 \u0445\u0430\u0442\u044b\u043d \u0436\u043e\u043b\u0434\u0430\u0434\u044b:\u00ab\u0411\u0430\u0440\u043b\u044b\u0493\u044b\u04a3\u0430 \u0430\u043c\u0430\u043d\u0434\u044b\u049b \u043f\u0435\u043d \u0442\u044b\u043d\u044b\u0448\u0442\u044b\u049b \u0442\u0456\u043b\u0435\u0439\u043c\u0456\u043d!"
        },
        {
            "chapter": 3,
            "verse": 32,
            "name": "Daniel 3:32",
            "text": "\u0410\u043b\u043b\u0430 \u0422\u0430\u0493\u0430\u043b\u0430\u043d\u044b\u04a3 \u043c\u0430\u0493\u0430\u043d \u0436\u0430\u0441\u0430\u0493\u0430\u043d \u043a\u0435\u0440\u0435\u043c\u0435\u0442 \u0442\u0435 \u0493\u0430\u0436\u0430\u043f \u0456\u0441\u0442\u0435\u0440\u0456 \u0442\u0443\u0440\u0430\u043b\u044b \u0430\u0439\u0442\u044b\u043f \u0431\u0435\u0440\u0443\u0434\u0456 \u0436\u04e9\u043d \u043a\u04e9\u0440\u0434\u0456\u043c."
        },
        {
            "chapter": 3,
            "verse": 33,
            "name": "Daniel 3:33",
            "text": "\u041e\u043d\u044b\u04a3 \u0456\u0441\u0442\u0435\u0440\u0456 \u049b\u0430\u043d\u0434\u0430\u0439 \u04b1\u043b\u044b, \u043a\u0435\u0440\u0435\u043c\u0435\u0442\u0442\u0435\u0440\u0456 \u049b\u0430\u043d\u0434\u0430\u0439 \u049b\u04b1\u0434\u0456\u0440\u0435\u0442\u0442\u0456! \u049a\u04b1\u0434\u0430\u0439\u0434\u044b\u04a3 \u041f\u0430\u0442\u0448\u0430\u043b\u044b\u0493\u044b \u043c\u04d9\u04a3\u0433\u0456\u043b\u0456\u043a, \u041e\u043d\u044b\u04a3 \u0431\u0438\u043b\u0456\u0433\u0456 \u04b1\u0440\u043f\u0430\u049b\u0442\u0430\u043d \u04b1\u0440\u043f\u0430\u049b\u049b\u0430 \u0436\u0430\u043b\u0493\u0430\u0441\u0430 \u0431\u0435\u0440\u0435\u0434\u0456. "
        },
        {
            "chapter": 3,
            "verse": 34,
            "name": "Daniel 3:34",
            "text": ""
        },
        {
            "chapter": 3,
            "verse": 35,
            "name": "Daniel 3:35",
            "text": ""
        },
        {
            "chapter": 3,
            "verse": 36,
            "name": "Daniel 3:36",
            "text": ""
        },
        {
            "chapter": 3,
            "verse": 37,
            "name": "Daniel 3:37",
            "text": ""
        },
        {
            "chapter": 3,
            "verse": 38,
            "name": "Daniel 3:38",
            "text": ""
        },
        {
            "chapter": 3,
            "verse": 39,
            "name": "Daniel 3:39",
            "text": ""
        },
        {
            "chapter": 3,
            "verse": 40,
            "name": "Daniel 3:40",
            "text": ""
        },
        {
            "chapter": 3,
            "verse": 41,
            "name": "Daniel 3:41",
            "text": ""
        },
        {
            "chapter": 3,
            "verse": 42,
            "name": "Daniel 3:42",
            "text": ""
        },
        {
            "chapter": 3,
            "verse": 43,
            "name": "Daniel 3:43",
            "text": ""
        },
        {
            "chapter": 3,
            "verse": 44,
            "name": "Daniel 3:44",
            "text": ""
        },
        {
            "chapter": 3,
            "verse": 45,
            "name": "Daniel 3:45",
            "text": ""
        },
        {
            "chapter": 3,
            "verse": 46,
            "name": "Daniel 3:46",
            "text": ""
        },
        {
            "chapter": 3,
            "verse": 47,
            "name": "Daniel 3:47",
            "text": ""
        },
        {
            "chapter": 3,
            "verse": 48,
            "name": "Daniel 3:48",
            "text": ""
        },
        {
            "chapter": 3,
            "verse": 49,
            "name": "Daniel 3:49",
            "text": ""
        },
        {
            "chapter": 3,
            "verse": 50,
            "name": "Daniel 3:50",
            "text": ""
        },
        {
            "chapter": 3,
            "verse": 51,
            "name": "Daniel 3:51",
            "text": ""
        },
        {
            "chapter": 3,
            "verse": 52,
            "name": "Daniel 3:52",
            "text": ""
        },
        {
            "chapter": 3,
            "verse": 53,
            "name": "Daniel 3:53",
            "text": ""
        },
        {
            "chapter": 3,
            "verse": 54,
            "name": "Daniel 3:54",
            "text": ""
        },
        {
            "chapter": 3,
            "verse": 55,
            "name": "Daniel 3:55",
            "text": ""
        },
        {
            "chapter": 3,
            "verse": 56,
            "name": "Daniel 3:56",
            "text": ""
        },
        {
            "chapter": 3,
            "verse": 57,
            "name": "Daniel 3:57",
            "text": ""
        },
        {
            "chapter": 3,
            "verse": 58,
            "name": "Daniel 3:58",
            "text": ""
        },
        {
            "chapter": 3,
            "verse": 59,
            "name": "Daniel 3:59",
            "text": ""
        },
        {
            "chapter": 3,
            "verse": 60,
            "name": "Daniel 3:60",
            "text": ""
        },
        {
            "chapter": 3,
            "verse": 61,
            "name": "Daniel 3:61",
            "text": ""
        },
        {
            "chapter": 3,
            "verse": 62,
            "name": "Daniel 3:62",
            "text": ""
        },
        {
            "chapter": 3,
            "verse": 63,
            "name": "Daniel 3:63",
            "text": ""
        },
        {
            "chapter": 3,
            "verse": 64,
            "name": "Daniel 3:64",
            "text": ""
        },
        {
            "chapter": 3,
            "verse": 65,
            "name": "Daniel 3:65",
            "text": ""
        },
        {
            "chapter": 3,
            "verse": 66,
            "name": "Daniel 3:66",
            "text": ""
        },
        {
            "chapter": 3,
            "verse": 67,
            "name": "Daniel 3:67",
            "text": ""
        },
        {
            "chapter": 3,
            "verse": 68,
            "name": "Daniel 3:68",
            "text": ""
        },
        {
            "chapter": 3,
            "verse": 69,
            "name": "Daniel 3:69",
            "text": ""
        },
        {
            "chapter": 3,
            "verse": 70,
            "name": "Daniel 3:70",
            "text": ""
        },
        {
            "chapter": 3,
            "verse": 71,
            "name": "Daniel 3:71",
            "text": ""
        },
        {
            "chapter": 3,
            "verse": 72,
            "name": "Daniel 3:72",
            "text": ""
        },
        {
            "chapter": 3,
            "verse": 73,
            "name": "Daniel 3:73",
            "text": ""
        },
        {
            "chapter": 3,
            "verse": 74,
            "name": "Daniel 3:74",
            "text": ""
        },
        {
            "chapter": 3,
            "verse": 75,
            "name": "Daniel 3:75",
            "text": ""
        },
        {
            "chapter": 3,
            "verse": 76,
            "name": "Daniel 3:76",
            "text": ""
        },
        {
            "chapter": 3,
            "verse": 77,
            "name": "Daniel 3:77",
            "text": ""
        },
        {
            "chapter": 3,
            "verse": 78,
            "name": "Daniel 3:78",
            "text": ""
        },
        {
            "chapter": 3,
            "verse": 79,
            "name": "Daniel 3:79",
            "text": ""
        },
        {
            "chapter": 3,
            "verse": 80,
            "name": "Daniel 3:80",
            "text": ""
        },
        {
            "chapter": 3,
            "verse": 81,
            "name": "Daniel 3:81",
            "text": ""
        },
        {
            "chapter": 3,
            "verse": 82,
            "name": "Daniel 3:82",
            "text": ""
        },
        {
            "chapter": 3,
            "verse": 83,
            "name": "Daniel 3:83",
            "text": ""
        },
        {
            "chapter": 3,
            "verse": 84,
            "name": "Daniel 3:84",
            "text": ""
        },
        {
            "chapter": 3,
            "verse": 85,
            "name": "Daniel 3:85",
            "text": ""
        },
        {
            "chapter": 3,
            "verse": 86,
            "name": "Daniel 3:86",
            "text": ""
        },
        {
            "chapter": 3,
            "verse": 87,
            "name": "Daniel 3:87",
            "text": ""
        },
        {
            "chapter": 3,
            "verse": 88,
            "name": "Daniel 3:88",
            "text": ""
        },
        {
            "chapter": 3,
            "verse": 89,
            "name": "Daniel 3:89",
            "text": ""
        },
        {
            "chapter": 3,
            "verse": 90,
            "name": "Daniel 3:90",
            "text": ""
        },
        {
            "chapter": 3,
            "verse": 91,
            "name": "Daniel 3:91",
            "text": ""
        },
        {
            "chapter": 3,
            "verse": 92,
            "name": "Daniel 3:92",
            "text": ""
        },
        {
            "chapter": 3,
            "verse": 93,
            "name": "Daniel 3:93",
            "text": ""
        },
        {
            "chapter": 3,
            "verse": 94,
            "name": "Daniel 3:94",
            "text": ""
        },
        {
            "chapter": 3,
            "verse": 95,
            "name": "Daniel 3:95",
            "text": ""
        },
        {
            "chapter": 3,
            "verse": 96,
            "name": "Daniel 3:96",
            "text": ""
        },
        {
            "chapter": 3,
            "verse": 97,
            "name": "Daniel 3:97",
            "text": ""
        },
        {
            "chapter": 3,
            "verse": 98,
            "name": "Daniel 3:98",
            "text": ""
        },
        {
            "chapter": 3,
            "verse": 99,
            "name": "Daniel 3:99",
            "text": ""
        },
        {
            "chapter": 3,
            "verse": 100,
            "name": "Daniel 3:100",
            "text": ""
        }
    ]
}