{
    "translation": "The New Testament in the Kapingamarangi language",
    "abbreviation": "kapingamarangi",
    "lang": "kpg",
    "language": "Kapingamarangi",
    "direction": "LTR",
    "encoding": "UTF-8",
    "book_nr": 4,
    "book_name": "Numbers",
    "chapter": 33,
    "name": "Numbers 33",
    "verses": [
        {
            "chapter": 33,
            "verse": 1,
            "name": "Numbers 33:1",
            "text": " Nnelekai aanei le e-hagamodongoohia nia ingoo nia gowaa ala ne-haga-tuu-aga nia waahale-laa digau Israel i-muli di-nadau hagatanga mai i Egypt nogo dagi go Moses mo Aaron."
        },
        {
            "chapter": 33,
            "verse": 2,
            "name": "Numbers 33:2",
            "text": "Mai nnelekai Dimaadua, Moses guu-hihi gi-lala nia ingoo nia gowaa ala e-haga-tuutuu-aga nadau hale-laa."
        },
        {
            "chapter": 33,
            "verse": 3,
            "name": "Numbers 33:3",
            "text": "Digau Israel ne-hagatanga i Egypt i-di madangaholu maa-lima laangi o tahi malama o-di ngadau, di laangi i-muli di Pasoobaa matagidagi. I-lala di madamada-humalia o Dimaadua, digaula ne-hagatanga i-di waahale Rameses i-mua nia golomada o digau Egypt,"
        },
        {
            "chapter": 33,
            "verse": 4,
            "name": "Numbers 33:4",
            "text": "ala nogo danudanu nadau ulu-mmaadua daane ala ne-daaligi gii-mmade go Dimaadua. Mee ne-hai nia mee aanei belee haga-modongoohia bolo Ia la-koia e-maaloo i-nia god o Egypt."
        },
        {
            "chapter": 33,
            "verse": 5,
            "name": "Numbers 33:5",
            "text": "Digau Israel ga-hagatanga i Rameses ga-haga-duu-aga nadau hale-laa i Sukkoth."
        },
        {
            "chapter": 33,
            "verse": 6,
            "name": "Numbers 33:6",
            "text": "Nomuli gei digaula ga-haga-duu nadau hale-laa i Etham i taalinga di anggowaa."
        },
        {
            "chapter": 33,
            "verse": 7,
            "name": "Numbers 33:7",
            "text": "Mai i-golo, digaula gaa-huli gi-muli gi Pi=Hahiroth, i-baahi i-dua o Baal=Zephon, gaa-noho hoohoo gi Migdol."
        },
        {
            "chapter": 33,
            "verse": 8,
            "name": "Numbers 33:8",
            "text": "Digaula ga-hagatanga i Pi=Hahiroth ga-loo-adu laa-lodo Tai Mmee, gaa-hula gi-hongo di Anggowaa o Shur. I-muli nadau taele i-nia laangi e-dolu, digaula ga-haga-duu nadau hale-laa i Marah."
        },
        {
            "chapter": 33,
            "verse": 9,
            "name": "Numbers 33:9",
            "text": "Digaula ga-hagatanga i-golo, gaa-hula gi Elim, gaa-noho i-golo, idimaa ma iai nia monowai uwa-aga e-madangaholu maa-lua i-di gowaa deelaa ge madahidu niu."
        },
        {
            "chapter": 33,
            "verse": 10,
            "name": "Numbers 33:10",
            "text": "Digaula ga-hagatanga i Elim gaa-noho hoohoo gi-di Malua o Suez."
        },
        {
            "chapter": 33,
            "verse": 11,
            "name": "Numbers 33:11",
            "text": "Nomuli, digaula gaa-noho i-lodo di Anggowaa o Sin."
        },
        {
            "chapter": 33,
            "verse": 12,
            "name": "Numbers 33:12",
            "text": "Nomuli gaa-noho i Dophkah,"
        },
        {
            "chapter": 33,
            "verse": 13,
            "name": "Numbers 33:13",
            "text": "ge nomuli i Alush."
        },
        {
            "chapter": 33,
            "verse": 14,
            "name": "Numbers 33:14",
            "text": "Nomuli go Rephidim, di gowaa ono wai ai belee inu go digaula."
        },
        {
            "chapter": 33,
            "verse": 15,
            "name": "Numbers 33:15",
            "text": "Mai Rephidim gaa-tugi di gonduu Hor, digaula ne-nohonoho i-nia gowaa aanei: di Anggowaa o Sinai, Kibroth=Hattaavah, Hazeroth, Rithmah, Rimmon=Perez, Libnah, Rissah, Kehelathah, di Gonduu Shepher, Haradah, Makheloth, Tahath, Terah, Mithkah, Hashmonah, Moseroth, Bene=Jaakan, Hor=Hagidgad, Jotbathah, Abronah, Ezion=Geber, di Anggowaa o Zin (deelaa la-go Kadesh), mo-di Gonduu Hor i taalinga tenua go Edom."
        },
        {
            "chapter": 33,
            "verse": 16,
            "name": "Numbers 33:16",
            "text": "Mai Rephidim gaa-tugi di gonduu Hor, digaula ne-nohonoho i-nia gowaa aanei: di Anggowaa o Sinai, Kibroth=Hattaavah, Hazeroth, Rithmah, Rimmon=Perez, Libnah, Rissah, Kehelathah, di Gonduu Shepher, Haradah, Makheloth, Tahath, Terah, Mithkah, Hashmonah, Moseroth, Bene=Jaakan, Hor=Hagidgad, Jotbathah, Abronah, Ezion=Geber, di Anggowaa o Zin (deelaa la-go Kadesh), mo-di Gonduu Hor i taalinga tenua go Edom."
        },
        {
            "chapter": 33,
            "verse": 17,
            "name": "Numbers 33:17",
            "text": "Mai Rephidim gaa-tugi di gonduu Hor, digaula ne-nohonoho i-nia gowaa aanei: di Anggowaa o Sinai, Kibroth=Hattaavah, Hazeroth, Rithmah, Rimmon=Perez, Libnah, Rissah, Kehelathah, di Gonduu Shepher, Haradah, Makheloth, Tahath, Terah, Mithkah, Hashmonah, Moseroth, Bene=Jaakan, Hor=Hagidgad, Jotbathah, Abronah, Ezion=Geber, di Anggowaa o Zin (deelaa la-go Kadesh), mo-di Gonduu Hor i taalinga tenua go Edom."
        },
        {
            "chapter": 33,
            "verse": 18,
            "name": "Numbers 33:18",
            "text": "Mai Rephidim gaa-tugi di gonduu Hor, digaula ne-nohonoho i-nia gowaa aanei: di Anggowaa o Sinai, Kibroth=Hattaavah, Hazeroth, Rithmah, Rimmon=Perez, Libnah, Rissah, Kehelathah, di Gonduu Shepher, Haradah, Makheloth, Tahath, Terah, Mithkah, Hashmonah, Moseroth, Bene=Jaakan, Hor=Hagidgad, Jotbathah, Abronah, Ezion=Geber, di Anggowaa o Zin (deelaa la-go Kadesh), mo-di Gonduu Hor i taalinga tenua go Edom."
        },
        {
            "chapter": 33,
            "verse": 19,
            "name": "Numbers 33:19",
            "text": "Mai Rephidim gaa-tugi di gonduu Hor, digaula ne-nohonoho i-nia gowaa aanei: di Anggowaa o Sinai, Kibroth=Hattaavah, Hazeroth, Rithmah, Rimmon=Perez, Libnah, Rissah, Kehelathah, di Gonduu Shepher, Haradah, Makheloth, Tahath, Terah, Mithkah, Hashmonah, Moseroth, Bene=Jaakan, Hor=Hagidgad, Jotbathah, Abronah, Ezion=Geber, di Anggowaa o Zin (deelaa la-go Kadesh), mo-di Gonduu Hor i taalinga tenua go Edom."
        },
        {
            "chapter": 33,
            "verse": 20,
            "name": "Numbers 33:20",
            "text": "Mai Rephidim gaa-tugi di gonduu Hor, digaula ne-nohonoho i-nia gowaa aanei: di Anggowaa o Sinai, Kibroth=Hattaavah, Hazeroth, Rithmah, Rimmon=Perez, Libnah, Rissah, Kehelathah, di Gonduu Shepher, Haradah, Makheloth, Tahath, Terah, Mithkah, Hashmonah, Moseroth, Bene=Jaakan, Hor=Hagidgad, Jotbathah, Abronah, Ezion=Geber, di Anggowaa o Zin (deelaa la-go Kadesh), mo-di Gonduu Hor i taalinga tenua go Edom."
        },
        {
            "chapter": 33,
            "verse": 21,
            "name": "Numbers 33:21",
            "text": "Mai Rephidim gaa-tugi di gonduu Hor, digaula ne-nohonoho i-nia gowaa aanei: di Anggowaa o Sinai, Kibroth=Hattaavah, Hazeroth, Rithmah, Rimmon=Perez, Libnah, Rissah, Kehelathah, di Gonduu Shepher, Haradah, Makheloth, Tahath, Terah, Mithkah, Hashmonah, Moseroth, Bene=Jaakan, Hor=Hagidgad, Jotbathah, Abronah, Ezion=Geber, di Anggowaa o Zin (deelaa la-go Kadesh), mo-di Gonduu Hor i taalinga tenua go Edom."
        },
        {
            "chapter": 33,
            "verse": 22,
            "name": "Numbers 33:22",
            "text": "Mai Rephidim gaa-tugi di gonduu Hor, digaula ne-nohonoho i-nia gowaa aanei: di Anggowaa o Sinai, Kibroth=Hattaavah, Hazeroth, Rithmah, Rimmon=Perez, Libnah, Rissah, Kehelathah, di Gonduu Shepher, Haradah, Makheloth, Tahath, Terah, Mithkah, Hashmonah, Moseroth, Bene=Jaakan, Hor=Hagidgad, Jotbathah, Abronah, Ezion=Geber, di Anggowaa o Zin (deelaa la-go Kadesh), mo-di Gonduu Hor i taalinga tenua go Edom."
        },
        {
            "chapter": 33,
            "verse": 23,
            "name": "Numbers 33:23",
            "text": "Mai Rephidim gaa-tugi di gonduu Hor, digaula ne-nohonoho i-nia gowaa aanei: di Anggowaa o Sinai, Kibroth=Hattaavah, Hazeroth, Rithmah, Rimmon=Perez, Libnah, Rissah, Kehelathah, di Gonduu Shepher, Haradah, Makheloth, Tahath, Terah, Mithkah, Hashmonah, Moseroth, Bene=Jaakan, Hor=Hagidgad, Jotbathah, Abronah, Ezion=Geber, di Anggowaa o Zin (deelaa la-go Kadesh), mo-di Gonduu Hor i taalinga tenua go Edom."
        },
        {
            "chapter": 33,
            "verse": 24,
            "name": "Numbers 33:24",
            "text": "Mai Rephidim gaa-tugi di gonduu Hor, digaula ne-nohonoho i-nia gowaa aanei: di Anggowaa o Sinai, Kibroth=Hattaavah, Hazeroth, Rithmah, Rimmon=Perez, Libnah, Rissah, Kehelathah, di Gonduu Shepher, Haradah, Makheloth, Tahath, Terah, Mithkah, Hashmonah, Moseroth, Bene=Jaakan, Hor=Hagidgad, Jotbathah, Abronah, Ezion=Geber, di Anggowaa o Zin (deelaa la-go Kadesh), mo-di Gonduu Hor i taalinga tenua go Edom."
        },
        {
            "chapter": 33,
            "verse": 25,
            "name": "Numbers 33:25",
            "text": "Mai Rephidim gaa-tugi di gonduu Hor, digaula ne-nohonoho i-nia gowaa aanei: di Anggowaa o Sinai, Kibroth=Hattaavah, Hazeroth, Rithmah, Rimmon=Perez, Libnah, Rissah, Kehelathah, di Gonduu Shepher, Haradah, Makheloth, Tahath, Terah, Mithkah, Hashmonah, Moseroth, Bene=Jaakan, Hor=Hagidgad, Jotbathah, Abronah, Ezion=Geber, di Anggowaa o Zin (deelaa la-go Kadesh), mo-di Gonduu Hor i taalinga tenua go Edom."
        },
        {
            "chapter": 33,
            "verse": 26,
            "name": "Numbers 33:26",
            "text": "Mai Rephidim gaa-tugi di gonduu Hor, digaula ne-nohonoho i-nia gowaa aanei: di Anggowaa o Sinai, Kibroth=Hattaavah, Hazeroth, Rithmah, Rimmon=Perez, Libnah, Rissah, Kehelathah, di Gonduu Shepher, Haradah, Makheloth, Tahath, Terah, Mithkah, Hashmonah, Moseroth, Bene=Jaakan, Hor=Hagidgad, Jotbathah, Abronah, Ezion=Geber, di Anggowaa o Zin (deelaa la-go Kadesh), mo-di Gonduu Hor i taalinga tenua go Edom."
        },
        {
            "chapter": 33,
            "verse": 27,
            "name": "Numbers 33:27",
            "text": "Mai Rephidim gaa-tugi di gonduu Hor, digaula ne-nohonoho i-nia gowaa aanei: di Anggowaa o Sinai, Kibroth=Hattaavah, Hazeroth, Rithmah, Rimmon=Perez, Libnah, Rissah, Kehelathah, di Gonduu Shepher, Haradah, Makheloth, Tahath, Terah, Mithkah, Hashmonah, Moseroth, Bene=Jaakan, Hor=Hagidgad, Jotbathah, Abronah, Ezion=Geber, di Anggowaa o Zin (deelaa la-go Kadesh), mo-di Gonduu Hor i taalinga tenua go Edom."
        },
        {
            "chapter": 33,
            "verse": 28,
            "name": "Numbers 33:28",
            "text": "Mai Rephidim gaa-tugi di gonduu Hor, digaula ne-nohonoho i-nia gowaa aanei: di Anggowaa o Sinai, Kibroth=Hattaavah, Hazeroth, Rithmah, Rimmon=Perez, Libnah, Rissah, Kehelathah, di Gonduu Shepher, Haradah, Makheloth, Tahath, Terah, Mithkah, Hashmonah, Moseroth, Bene=Jaakan, Hor=Hagidgad, Jotbathah, Abronah, Ezion=Geber, di Anggowaa o Zin (deelaa la-go Kadesh), mo-di Gonduu Hor i taalinga tenua go Edom."
        },
        {
            "chapter": 33,
            "verse": 29,
            "name": "Numbers 33:29",
            "text": "Mai Rephidim gaa-tugi di gonduu Hor, digaula ne-nohonoho i-nia gowaa aanei: di Anggowaa o Sinai, Kibroth=Hattaavah, Hazeroth, Rithmah, Rimmon=Perez, Libnah, Rissah, Kehelathah, di Gonduu Shepher, Haradah, Makheloth, Tahath, Terah, Mithkah, Hashmonah, Moseroth, Bene=Jaakan, Hor=Hagidgad, Jotbathah, Abronah, Ezion=Geber, di Anggowaa o Zin (deelaa la-go Kadesh), mo-di Gonduu Hor i taalinga tenua go Edom."
        },
        {
            "chapter": 33,
            "verse": 30,
            "name": "Numbers 33:30",
            "text": "Mai Rephidim gaa-tugi di gonduu Hor, digaula ne-nohonoho i-nia gowaa aanei: di Anggowaa o Sinai, Kibroth=Hattaavah, Hazeroth, Rithmah, Rimmon=Perez, Libnah, Rissah, Kehelathah, di Gonduu Shepher, Haradah, Makheloth, Tahath, Terah, Mithkah, Hashmonah, Moseroth, Bene=Jaakan, Hor=Hagidgad, Jotbathah, Abronah, Ezion=Geber, di Anggowaa o Zin (deelaa la-go Kadesh), mo-di Gonduu Hor i taalinga tenua go Edom."
        },
        {
            "chapter": 33,
            "verse": 31,
            "name": "Numbers 33:31",
            "text": "Mai Rephidim gaa-tugi di gonduu Hor, digaula ne-nohonoho i-nia gowaa aanei: di Anggowaa o Sinai, Kibroth=Hattaavah, Hazeroth, Rithmah, Rimmon=Perez, Libnah, Rissah, Kehelathah, di Gonduu Shepher, Haradah, Makheloth, Tahath, Terah, Mithkah, Hashmonah, Moseroth, Bene=Jaakan, Hor=Hagidgad, Jotbathah, Abronah, Ezion=Geber, di Anggowaa o Zin (deelaa la-go Kadesh), mo-di Gonduu Hor i taalinga tenua go Edom."
        },
        {
            "chapter": 33,
            "verse": 32,
            "name": "Numbers 33:32",
            "text": "Mai Rephidim gaa-tugi di gonduu Hor, digaula ne-nohonoho i-nia gowaa aanei: di Anggowaa o Sinai, Kibroth=Hattaavah, Hazeroth, Rithmah, Rimmon=Perez, Libnah, Rissah, Kehelathah, di Gonduu Shepher, Haradah, Makheloth, Tahath, Terah, Mithkah, Hashmonah, Moseroth, Bene=Jaakan, Hor=Hagidgad, Jotbathah, Abronah, Ezion=Geber, di Anggowaa o Zin (deelaa la-go Kadesh), mo-di Gonduu Hor i taalinga tenua go Edom."
        },
        {
            "chapter": 33,
            "verse": 33,
            "name": "Numbers 33:33",
            "text": "Mai Rephidim gaa-tugi di gonduu Hor, digaula ne-nohonoho i-nia gowaa aanei: di Anggowaa o Sinai, Kibroth=Hattaavah, Hazeroth, Rithmah, Rimmon=Perez, Libnah, Rissah, Kehelathah, di Gonduu Shepher, Haradah, Makheloth, Tahath, Terah, Mithkah, Hashmonah, Moseroth, Bene=Jaakan, Hor=Hagidgad, Jotbathah, Abronah, Ezion=Geber, di Anggowaa o Zin (deelaa la-go Kadesh), mo-di Gonduu Hor i taalinga tenua go Edom."
        },
        {
            "chapter": 33,
            "verse": 34,
            "name": "Numbers 33:34",
            "text": "Mai Rephidim gaa-tugi di gonduu Hor, digaula ne-nohonoho i-nia gowaa aanei: di Anggowaa o Sinai, Kibroth=Hattaavah, Hazeroth, Rithmah, Rimmon=Perez, Libnah, Rissah, Kehelathah, di Gonduu Shepher, Haradah, Makheloth, Tahath, Terah, Mithkah, Hashmonah, Moseroth, Bene=Jaakan, Hor=Hagidgad, Jotbathah, Abronah, Ezion=Geber, di Anggowaa o Zin (deelaa la-go Kadesh), mo-di Gonduu Hor i taalinga tenua go Edom."
        },
        {
            "chapter": 33,
            "verse": 35,
            "name": "Numbers 33:35",
            "text": "Mai Rephidim gaa-tugi di gonduu Hor, digaula ne-nohonoho i-nia gowaa aanei: di Anggowaa o Sinai, Kibroth=Hattaavah, Hazeroth, Rithmah, Rimmon=Perez, Libnah, Rissah, Kehelathah, di Gonduu Shepher, Haradah, Makheloth, Tahath, Terah, Mithkah, Hashmonah, Moseroth, Bene=Jaakan, Hor=Hagidgad, Jotbathah, Abronah, Ezion=Geber, di Anggowaa o Zin (deelaa la-go Kadesh), mo-di Gonduu Hor i taalinga tenua go Edom."
        },
        {
            "chapter": 33,
            "verse": 36,
            "name": "Numbers 33:36",
            "text": "Mai Rephidim gaa-tugi di gonduu Hor, digaula ne-nohonoho i-nia gowaa aanei: di Anggowaa o Sinai, Kibroth=Hattaavah, Hazeroth, Rithmah, Rimmon=Perez, Libnah, Rissah, Kehelathah, di Gonduu Shepher, Haradah, Makheloth, Tahath, Terah, Mithkah, Hashmonah, Moseroth, Bene=Jaakan, Hor=Hagidgad, Jotbathah, Abronah, Ezion=Geber, di Anggowaa o Zin (deelaa la-go Kadesh), mo-di Gonduu Hor i taalinga tenua go Edom."
        },
        {
            "chapter": 33,
            "verse": 37,
            "name": "Numbers 33:37",
            "text": "Mai Rephidim gaa-tugi di gonduu Hor, digaula ne-nohonoho i-nia gowaa aanei: di Anggowaa o Sinai, Kibroth=Hattaavah, Hazeroth, Rithmah, Rimmon=Perez, Libnah, Rissah, Kehelathah, di Gonduu Shepher, Haradah, Makheloth, Tahath, Terah, Mithkah, Hashmonah, Moseroth, Bene=Jaakan, Hor=Hagidgad, Jotbathah, Abronah, Ezion=Geber, di Anggowaa o Zin (deelaa la-go Kadesh), mo-di Gonduu Hor i taalinga tenua go Edom."
        },
        {
            "chapter": 33,
            "verse": 38,
            "name": "Numbers 33:38",
            "text": "Mai telekai Dimaadua, Aaron tangada hai-mee-dabu gaa-gaga gi-tomo di Gonduu Hor. Nia ngadau o-maa gu-lau-madalua maa-dolu-(123), gei mee gaa-made i-golo i tahi laangi o-di lima malama o-di madahaa ngadau i-muli di hagatanga digau Israel i Egypt."
        },
        {
            "chapter": 33,
            "verse": 39,
            "name": "Numbers 33:39",
            "text": "Mai telekai Dimaadua, Aaron tangada hai-mee-dabu gaa-gaga gi-tomo di Gonduu Hor. Nia ngadau o-maa gu-lau-madalua maa-dolu-(123), gei mee gaa-made i-golo i tahi laangi o-di lima malama o-di madahaa ngadau i-muli di hagatanga digau Israel i Egypt."
        },
        {
            "chapter": 33,
            "verse": 40,
            "name": "Numbers 33:40",
            "text": "Di king o Arad i-bahi-i-ngaaga o Canaan ne-longono bolo digau Israel e-loomoi."
        },
        {
            "chapter": 33,
            "verse": 41,
            "name": "Numbers 33:41",
            "text": "Mai di Gonduu Hor gaa-tugi-loo gi-nia gowaa maalama o Moab, digau Israel ne-hagaduu-aga nadau hale-laa i-nia gowaa aanei: Zalmonah, Punon, Oboth, nia Gowaa Mooho o Abarim i-lodo tenua Moab, Dibon=Gad, Almon=Diblathaim, di gowaa gonduu o Abarim e-hoohoo gi-di Gonduu Nebo, mo i-hongo di Anggowaa o Moab i-di baahi gi-golo di monowai Jordan e-huli-adu gi Jericho, i-mehanga Beth=Jeshimoth mo-di gowaa mehanga gonduu o Acacia."
        },
        {
            "chapter": 33,
            "verse": 42,
            "name": "Numbers 33:42",
            "text": "Mai di Gonduu Hor gaa-tugi-loo gi-nia gowaa maalama o Moab, digau Israel ne-hagaduu-aga nadau hale-laa i-nia gowaa aanei: Zalmonah, Punon, Oboth, nia Gowaa Mooho o Abarim i-lodo tenua Moab, Dibon=Gad, Almon=Diblathaim, di gowaa gonduu o Abarim e-hoohoo gi-di Gonduu Nebo, mo i-hongo di Anggowaa o Moab i-di baahi gi-golo di monowai Jordan e-huli-adu gi Jericho, i-mehanga Beth=Jeshimoth mo-di gowaa mehanga gonduu o Acacia."
        },
        {
            "chapter": 33,
            "verse": 43,
            "name": "Numbers 33:43",
            "text": "Mai di Gonduu Hor gaa-tugi-loo gi-nia gowaa maalama o Moab, digau Israel ne-hagaduu-aga nadau hale-laa i-nia gowaa aanei: Zalmonah, Punon, Oboth, nia Gowaa Mooho o Abarim i-lodo tenua Moab, Dibon=Gad, Almon=Diblathaim, di gowaa gonduu o Abarim e-hoohoo gi-di Gonduu Nebo, mo i-hongo di Anggowaa o Moab i-di baahi gi-golo di monowai Jordan e-huli-adu gi Jericho, i-mehanga Beth=Jeshimoth mo-di gowaa mehanga gonduu o Acacia."
        },
        {
            "chapter": 33,
            "verse": 44,
            "name": "Numbers 33:44",
            "text": "Mai di Gonduu Hor gaa-tugi-loo gi-nia gowaa maalama o Moab, digau Israel ne-hagaduu-aga nadau hale-laa i-nia gowaa aanei: Zalmonah, Punon, Oboth, nia Gowaa Mooho o Abarim i-lodo tenua Moab, Dibon=Gad, Almon=Diblathaim, di gowaa gonduu o Abarim e-hoohoo gi-di Gonduu Nebo, mo i-hongo di Anggowaa o Moab i-di baahi gi-golo di monowai Jordan e-huli-adu gi Jericho, i-mehanga Beth=Jeshimoth mo-di gowaa mehanga gonduu o Acacia."
        },
        {
            "chapter": 33,
            "verse": 45,
            "name": "Numbers 33:45",
            "text": "Mai di Gonduu Hor gaa-tugi-loo gi-nia gowaa maalama o Moab, digau Israel ne-hagaduu-aga nadau hale-laa i-nia gowaa aanei: Zalmonah, Punon, Oboth, nia Gowaa Mooho o Abarim i-lodo tenua Moab, Dibon=Gad, Almon=Diblathaim, di gowaa gonduu o Abarim e-hoohoo gi-di Gonduu Nebo, mo i-hongo di Anggowaa o Moab i-di baahi gi-golo di monowai Jordan e-huli-adu gi Jericho, i-mehanga Beth=Jeshimoth mo-di gowaa mehanga gonduu o Acacia."
        },
        {
            "chapter": 33,
            "verse": 46,
            "name": "Numbers 33:46",
            "text": "Mai di Gonduu Hor gaa-tugi-loo gi-nia gowaa maalama o Moab, digau Israel ne-hagaduu-aga nadau hale-laa i-nia gowaa aanei: Zalmonah, Punon, Oboth, nia Gowaa Mooho o Abarim i-lodo tenua Moab, Dibon=Gad, Almon=Diblathaim, di gowaa gonduu o Abarim e-hoohoo gi-di Gonduu Nebo, mo i-hongo di Anggowaa o Moab i-di baahi gi-golo di monowai Jordan e-huli-adu gi Jericho, i-mehanga Beth=Jeshimoth mo-di gowaa mehanga gonduu o Acacia."
        },
        {
            "chapter": 33,
            "verse": 47,
            "name": "Numbers 33:47",
            "text": "Mai di Gonduu Hor gaa-tugi-loo gi-nia gowaa maalama o Moab, digau Israel ne-hagaduu-aga nadau hale-laa i-nia gowaa aanei: Zalmonah, Punon, Oboth, nia Gowaa Mooho o Abarim i-lodo tenua Moab, Dibon=Gad, Almon=Diblathaim, di gowaa gonduu o Abarim e-hoohoo gi-di Gonduu Nebo, mo i-hongo di Anggowaa o Moab i-di baahi gi-golo di monowai Jordan e-huli-adu gi Jericho, i-mehanga Beth=Jeshimoth mo-di gowaa mehanga gonduu o Acacia."
        },
        {
            "chapter": 33,
            "verse": 48,
            "name": "Numbers 33:48",
            "text": "Mai di Gonduu Hor gaa-tugi-loo gi-nia gowaa maalama o Moab, digau Israel ne-hagaduu-aga nadau hale-laa i-nia gowaa aanei: Zalmonah, Punon, Oboth, nia Gowaa Mooho o Abarim i-lodo tenua Moab, Dibon=Gad, Almon=Diblathaim, di gowaa gonduu o Abarim e-hoohoo gi-di Gonduu Nebo, mo i-hongo di Anggowaa o Moab i-di baahi gi-golo di monowai Jordan e-huli-adu gi Jericho, i-mehanga Beth=Jeshimoth mo-di gowaa mehanga gonduu o Acacia."
        },
        {
            "chapter": 33,
            "verse": 49,
            "name": "Numbers 33:49",
            "text": "Mai di Gonduu Hor gaa-tugi-loo gi-nia gowaa maalama o Moab, digau Israel ne-hagaduu-aga nadau hale-laa i-nia gowaa aanei: Zalmonah, Punon, Oboth, nia Gowaa Mooho o Abarim i-lodo tenua Moab, Dibon=Gad, Almon=Diblathaim, di gowaa gonduu o Abarim e-hoohoo gi-di Gonduu Nebo, mo i-hongo di Anggowaa o Moab i-di baahi gi-golo di monowai Jordan e-huli-adu gi Jericho, i-mehanga Beth=Jeshimoth mo-di gowaa mehanga gonduu o Acacia."
        },
        {
            "chapter": 33,
            "verse": 50,
            "name": "Numbers 33:50",
            "text": " I-hongo di gowaa baba o Moab i-di baahi gi-golo Jordan mai Jericho, Dimaadua ga-helekai gi Moses"
        },
        {
            "chapter": 33,
            "verse": 51,
            "name": "Numbers 33:51",
            "text": "nnelekai aanei ang-gi digau Israel: \u201cGoodou ma-gaa-hula gi-di baahi i-golo di monowai Jordan e-hula gi Canaan,"
        },
        {
            "chapter": 33,
            "verse": 52,
            "name": "Numbers 33:52",
            "text": "goodou e-hai gi-hagabagi gi-daha nia daangada huogodoo o tenua deelaa. Oha-ina gi-daha nadau ada balu god huogodoo ala ne-hai gi-nia hadu mo baalanga mo nadau gowaa hai-daumaha huogodoo."
        },
        {
            "chapter": 33,
            "verse": 53,
            "name": "Numbers 33:53",
            "text": "Noho gii-mau i tenua deelaa, idimaa Au e-gowadu di-maa gi goodou."
        },
        {
            "chapter": 33,
            "verse": 54,
            "name": "Numbers 33:54",
            "text": "Duha-ina tenua i-nia madawaawa mo nia madahaanau, e-hai di hudihudi, e-wanga nia gowaa llauehe gi-nia madahaanau ala e-dogologo, gei nia gowaa lligi la-gi-wanga-ina gi-nia madahaanau ala e-hogoohi."
        },
        {
            "chapter": 33,
            "verse": 55,
            "name": "Numbers 33:55",
            "text": "Gei maa goodou ga-hagalee hagabagi digau tenua deelaa gi-daha, digau ala e-dubu i-golo la-gaa-hai nia mee e-haga-huaidu goodou gadoo be nia madageinga i-lodo godou golomada, be nia laagau duduia i-lodo godou baahi, digaula gaa-hai di-nadau dauwa adu gi goodou."
        },
        {
            "chapter": 33,
            "verse": 56,
            "name": "Numbers 33:56",
            "text": "Maa goodou ga-hagalee hagabagi digaula gi-daha, gei Au ga-haga-huaidu goodou be dagu haga-huaidu digaula.\u201d "
        }
    ]
}