{
    "translation": "Basic English Bible",
    "abbreviation": "basicenglish",
    "lang": "en",
    "language": "English",
    "direction": "LTR",
    "encoding": "",
    "book_nr": 2,
    "book_name": "Exodus",
    "chapter": 6,
    "name": "Exodus 6",
    "verses": [
        {
            "chapter": 6,
            "verse": 1,
            "name": "Exodus 6:1",
            "text": "And the Lord said to Moses, Now you will see what I am about to do to Pharaoh; for by a strong hand he will be forced to let them go, driving them out of his land because of my outstretched arm."
        },
        {
            "chapter": 6,
            "verse": 2,
            "name": "Exodus 6:2",
            "text": "And God said to Moses, I am Yahweh:"
        },
        {
            "chapter": 6,
            "verse": 3,
            "name": "Exodus 6:3",
            "text": "I let myself be seen by Abraham, Isaac, and Jacob, as God, the Ruler of all; but they had no knowledge of my name Yahweh."
        },
        {
            "chapter": 6,
            "verse": 4,
            "name": "Exodus 6:4",
            "text": "And I made an agreement with them, to give them the land of Canaan, the land of their wanderings."
        },
        {
            "chapter": 6,
            "verse": 5,
            "name": "Exodus 6:5",
            "text": "And truly my ears are open to the cry of the children of Israel whom the Egyptians keep under their yoke; and I have kept in mind my agreement."
        },
        {
            "chapter": 6,
            "verse": 6,
            "name": "Exodus 6:6",
            "text": "Say then to the children of Israel, I am Yahweh, and I will take you out from under the yoke of the Egyptians, and make you safe from their power, and will make you free by the strength of my arm after great punishments."
        },
        {
            "chapter": 6,
            "verse": 7,
            "name": "Exodus 6:7",
            "text": "And I will take you to be my people and I will be your God; and you will be certain that I am the Lord your God, who takes you out from under the yoke of the Egyptians."
        },
        {
            "chapter": 6,
            "verse": 8,
            "name": "Exodus 6:8",
            "text": "And I will be your guide into the land which I made an oath to give to Abraham, to Isaac, and to Jacob; and I will give it to you for your heritage: I am Yahweh."
        },
        {
            "chapter": 6,
            "verse": 9,
            "name": "Exodus 6:9",
            "text": "And Moses said these words to the children of Israel, but they gave no attention to him, because of the grief of their spirit and the cruel weight of their work."
        },
        {
            "chapter": 6,
            "verse": 10,
            "name": "Exodus 6:10",
            "text": "And the Lord said to Moses,"
        },
        {
            "chapter": 6,
            "verse": 11,
            "name": "Exodus 6:11",
            "text": "Go in and say to Pharaoh, king of Egypt, that he is to let the children of Israel go out of his land."
        },
        {
            "chapter": 6,
            "verse": 12,
            "name": "Exodus 6:12",
            "text": "And Moses, answering the Lord, said, See, the children of Israel will not give ear to me; how then will Pharaoh give ear to me, whose lips are unclean?"
        },
        {
            "chapter": 6,
            "verse": 13,
            "name": "Exodus 6:13",
            "text": "And the word of the Lord came to Moses and Aaron, with orders for the children of Israel and for Pharaoh, king of Egypt, to take the children of Israel out of the land of Egypt."
        },
        {
            "chapter": 6,
            "verse": 14,
            "name": "Exodus 6:14",
            "text": "These are the heads of their fathers' families: the sons of Reuben the oldest son of Israel: Hanoch and Pallu, Hezron and Carmi: these are the families of Reuben."
        },
        {
            "chapter": 6,
            "verse": 15,
            "name": "Exodus 6:15",
            "text": "And the sons of Simeon: Jemuel and Jamin and Ohad and Jachin and Zohar and Shaul, the son of a woman of Canaan: these are the families of Simeon."
        },
        {
            "chapter": 6,
            "verse": 16,
            "name": "Exodus 6:16",
            "text": "And these are the names of the sons of Levi in the order of their generations: Gershon and Kohath and Merari: and the years of Levi's life were a hundred and thirty-seven."
        },
        {
            "chapter": 6,
            "verse": 17,
            "name": "Exodus 6:17",
            "text": "The sons of Gershon: Libni and Shimei, in the order of their families."
        },
        {
            "chapter": 6,
            "verse": 18,
            "name": "Exodus 6:18",
            "text": "And the sons of Kohath: Amram and Izhar and Hebron and Uzziel: and the years of Kohath's life were a hundred and thirty-three."
        },
        {
            "chapter": 6,
            "verse": 19,
            "name": "Exodus 6:19",
            "text": "And the sons of Merari: Mahli and Mushi: these are the families of the Levites, in the order of their generations."
        },
        {
            "chapter": 6,
            "verse": 20,
            "name": "Exodus 6:20",
            "text": "And Amram took Jochebed, his father's sister, as wife; and she gave birth to Aaron and Moses: and the years of Amram's life were a hundred and thirty-seven."
        },
        {
            "chapter": 6,
            "verse": 21,
            "name": "Exodus 6:21",
            "text": "And the sons of Izhar: Korah and Nepheg and Zichri."
        },
        {
            "chapter": 6,
            "verse": 22,
            "name": "Exodus 6:22",
            "text": "And the sons of Uzziel: Mishael and Elzaphan and Sithri."
        },
        {
            "chapter": 6,
            "verse": 23,
            "name": "Exodus 6:23",
            "text": "And Aaron took as his wife Elisheba, the daughter of Amminadab, the sister of Nahshon; and she gave birth to Nadab and Abihu, Eleazar and Ithamar."
        },
        {
            "chapter": 6,
            "verse": 24,
            "name": "Exodus 6:24",
            "text": "And the sons of Korah: Assir and Elkanah and Abiasaph: these are the families of the Korahites."
        },
        {
            "chapter": 6,
            "verse": 25,
            "name": "Exodus 6:25",
            "text": "And Eleazar, Aaron's son, took as his wife one of the daughters of Putiel; and she gave birth to Phinehas. These are the heads of the families of the Levites, in the order of their families."
        },
        {
            "chapter": 6,
            "verse": 26,
            "name": "Exodus 6:26",
            "text": "These are the same Aaron and Moses to whom the Lord said, Take the children of Israel out of the land of Egypt in their armies."
        },
        {
            "chapter": 6,
            "verse": 27,
            "name": "Exodus 6:27",
            "text": "These are the men who gave orders to Pharaoh to let the children of Israel go out of Egypt: these are the same Moses and Aaron."
        },
        {
            "chapter": 6,
            "verse": 28,
            "name": "Exodus 6:28",
            "text": "And on the day when the word of the Lord came to Moses in the land of Egypt,"
        },
        {
            "chapter": 6,
            "verse": 29,
            "name": "Exodus 6:29",
            "text": "The Lord said to Moses, I am the Lord: say to Pharaoh, king of Egypt, everything I am saying to you."
        },
        {
            "chapter": 6,
            "verse": 30,
            "name": "Exodus 6:30",
            "text": "And Moses said to the Lord, My lips are unclean; how is it possible that Pharaoh will give me a hearing?"
        }
    ]
}