{
    "translation": "Shona Bible",
    "abbreviation": "shona",
    "lang": "sn",
    "language": "Shona",
    "direction": "LTR",
    "encoding": "UTF-8",
    "book_nr": 44,
    "book_name": "Acts",
    "chapter": 28,
    "name": "Acts 28",
    "verses": [
        {
            "chapter": 28,
            "verse": 1,
            "name": "Acts 28:1",
            "text": " Zvino vakati vapona, ipapo vakaziva kuti chiwi chinonzi Merita."
        },
        {
            "chapter": 28,
            "verse": 2,
            "name": "Acts 28:2",
            "text": "Zvino vatorwa vakatiitira unyoro husina kujairika; nokuti vakavesa moto, vakatigamuchira tese, nekuda kwemvura yaitanga uye nekuda kwechando."
        },
        {
            "chapter": 28,
            "verse": 3,
            "name": "Acts 28:3",
            "text": "Zvino Pauro wakati aunganidza svinga rehuni, akaisa pamoto, kwakabuda chiva kubva murudziyira, chikakwinyira paruoko rwake."
        },
        {
            "chapter": 28,
            "verse": 4,
            "name": "Acts 28:4",
            "text": "Zvino vatorwa vakati vachiona chikara chakaremberera paruoko rwake, vakataurirana vachiti: Zvirokwazvo munhu uyu imhondi, iye kunyange apukunyuka gungwa, kururama hakumutenderi kurarama."
        },
        {
            "chapter": 28,
            "verse": 5,
            "name": "Acts 28:5",
            "text": "Iye ndokuzuzira chikara mumoto, akasambokuvara."
        },
        {
            "chapter": 28,
            "verse": 6,
            "name": "Acts 28:6",
            "text": "Zvino vakatarisira kuti iye achazvimba, kana kuwira pasi pakarepo akafa; asi vakati vatarira nguva refu, vakaona pasina chinhu chisina kujairika chaitika kwaari, vakashandura fungwa dzavo voti iye ndimwari."
        },
        {
            "chapter": 28,
            "verse": 7,
            "name": "Acts 28:7",
            "text": "Zvino panharaunda yenzvimbo iyo paiva neminda yemukuru wechiwi wainzi Pubhirio; iye wakatigamuchira akatigarisa zvakanaka mazuva matatu."
        },
        {
            "chapter": 28,
            "verse": 8,
            "name": "Acts 28:8",
            "text": "Zvino zvakaitika kuti baba vaPubhirio vakange varere vakabatwa nefivhiri nemudumbu weropa; kwavari Pauro kwaakapinda, akanyengetera, akaisa maoko pamusoro pavo, akavaporesa."
        },
        {
            "chapter": 28,
            "verse": 9,
            "name": "Acts 28:9",
            "text": "Naizvozvo izvi zvakati zvaitika, vamwewo vaiva nezvirwere pachiwi vakaswedera ndokuporeswa;"
        },
        {
            "chapter": 28,
            "verse": 10,
            "name": "Acts 28:10",
            "text": "ivo vakatikudzawo nerukudzo ruzhinji, uye toenda nechikepe, vakakwidza zvinhu zvaidikanwa."
        },
        {
            "chapter": 28,
            "verse": 11,
            "name": "Acts 28:11",
            "text": " Zvino shure kwemwedzi mitatu takabva nechikepe cheArekizandiria, chakange chagara muchando pachiwi, chaiva nechiratidzo chekuti Dhiosikuri*."
        },
        {
            "chapter": 28,
            "verse": 12,
            "name": "Acts 28:12",
            "text": "Zvino tasvika paSirakuse takagara mazuva matatu."
        },
        {
            "chapter": 28,
            "verse": 13,
            "name": "Acts 28:13",
            "text": "Tabvapo tikatenderera tikasvika kuRegiomu; zvino shure kwezuva rimwe mhepo yechamhembe ikasimuka, zuva repiri tikasvika muPuteori;"
        },
        {
            "chapter": 28,
            "verse": 14,
            "name": "Acts 28:14",
            "text": "matakawana hama, tikakumbirwa kugara nadzo mazuva manomwe; saizvozvowo takaenda kuRoma."
        },
        {
            "chapter": 28,
            "verse": 15,
            "name": "Acts 28:15",
            "text": "Zvino kubva ipapo hama dzakati dzanzwa nezvedu, dzikabuda kuzotichingamidza kudzamara Apio Foramu nepaDzimba Dzevaeni Nhatu; ivo Pauro vaakati achiona, akavonga Mwari, akatsunga moyo."
        },
        {
            "chapter": 28,
            "verse": 16,
            "name": "Acts 28:16",
            "text": "Zvino takati tasvika kuRoma, mukuru wezana akakumikidza vasungwa kumutungamiriri wevarindi; asi Pauro wakatenderwa kugara ari ega, nemuuto anomurinda."
        },
        {
            "chapter": 28,
            "verse": 17,
            "name": "Acts 28:17",
            "text": "Zvino zvikaitika shure kwemazuva matatu, kuti Pauro wakadanira vaiva vakuru veVaJudha pamwe; zvino vakati vaungana, akati kwavari: Varume hama, ini ndisina kuita chinhu chinopesana nerudzi kana tsika dzemadzibaba, ndiri musungwa ndabva kuJerusarema ndakumikidzwa pamaoko eVaRoma;"
        },
        {
            "chapter": 28,
            "verse": 18,
            "name": "Acts 28:18",
            "text": "ivo vakati vandiongorora vakada kundisunungura, nokuti pakange pasina chikonzero cherufu kwandiri."
        },
        {
            "chapter": 28,
            "verse": 19,
            "name": "Acts 28:19",
            "text": "Asi VaJudha vakaramba, ndikarovererwa kuikwidza kuna Kesari, kwete kuti ndaiva nechinhu chekumhan'arira rudzi rwangu."
        },
        {
            "chapter": 28,
            "verse": 20,
            "name": "Acts 28:20",
            "text": "Naizvozvo nekuda kwechikonzero ichi ndakudanai kuti ndikuonei, nditaure nemwi; nokuti ndakamoneredzwa neketani iyi nekuda kwetariro yaIsraeri."
        },
        {
            "chapter": 28,
            "verse": 21,
            "name": "Acts 28:21",
            "text": "Zvino vakati kwaari: Isu hatina kugamuchira tsamba kubva kuJudhiya pamusoro pako, uye hakuna umwe wehama, wakati asvika, akatipira kana kutaura chinhu chakaipa pamusoro pako."
        },
        {
            "chapter": 28,
            "verse": 22,
            "name": "Acts 28:22",
            "text": "Asi tinoda kunzwa newe zvaunofunga; nokuti maererano nebato iri tinoziva kuti rinopikiswa kwese-kwese."
        },
        {
            "chapter": 28,
            "verse": 23,
            "name": "Acts 28:23",
            "text": "Zvino vakati vamutarira zuva, vazhinji vakauya kwaari kuimba yevaenzi; akavadudzira achivapupurira ushe hwaMwari, akavagombedzera zviri maererano naJesu, zvese kubva pamurairo waMozisi nevaporofita, kubva mangwanani kusvikira madekwani."
        },
        {
            "chapter": 28,
            "verse": 24,
            "name": "Acts 28:24",
            "text": "Zvino vamwe vakatenda zvinhu zvakataurwa, asi vamwe vakasatenda."
        },
        {
            "chapter": 28,
            "verse": 25,
            "name": "Acts 28:25",
            "text": "Zvino zvavakange vasingawirirani pachavo, vakaenda, Pauro ataura shoko rimwe chete rekuti: Mweya Mutsvene wakataura zvakanaka naIsaya muporofita kumadzibaba edu,"
        },
        {
            "chapter": 28,
            "verse": 26,
            "name": "Acts 28:26",
            "text": "achiti: Enda kurudzi urwu ugoti: Nekunzwa muchanzwa, uye hamungatongonzwisisi; nekuona muchaona, uye hamungatongoonesesi."
        },
        {
            "chapter": 28,
            "verse": 27,
            "name": "Acts 28:27",
            "text": "Nokuti moyo wevanhu ava wakasindimadzwa, uye nenzeve vanonzwa nemutsutsururu, nemeso avo vakavhara; kuti zvimwe vangaona nemeso, nekunzwa nenzeve, nekunzwisisa nemoyo, zvino vatendeuke, ndigovaporesa."
        },
        {
            "chapter": 28,
            "verse": 28,
            "name": "Acts 28:28",
            "text": "Naizvozvo ngazvizikanwe kwamuri, kuti ruponeso rwaMwari rwunotumirwa kuvahedheni, ivo vachanzwawo."
        },
        {
            "chapter": 28,
            "verse": 29,
            "name": "Acts 28:29",
            "text": "Zvino wakati ataura zvinhu izvi, VaJudha vakaenda, vachiita nharo huru pakati pavo."
        },
        {
            "chapter": 28,
            "verse": 30,
            "name": "Acts 28:30",
            "text": "Pauro akagara makore maviri agere muimba yake pachake yaairipira mari, uye akagamuchira vese vaipinda kwaari,"
        },
        {
            "chapter": 28,
            "verse": 31,
            "name": "Acts 28:31",
            "text": "achiparidza ushe hwaMwari, nekudzidzisa zviri maererano naIshe Jesu Kristu, neushingi hwese, pasina kudziviswa.   "
        }
    ]
}