{
    "translation": "GOD'S WORD to the Nations",
    "abbreviation": "godsword",
    "lang": "en",
    "language": "English",
    "direction": "LTR",
    "encoding": "UTF-8",
    "book_nr": 45,
    "book_name": "Romans",
    "chapter": 11,
    "name": "Romans 11",
    "verses": [
        {
            "chapter": 11,
            "verse": 1,
            "name": "Romans 11:1",
            "text": "So I ask, \"Has God rejected his people Israel?\" That's unthinkable! Consider this. I'm an Israelite myself, a descendant of Abraham from the tribe of Benjamin. "
        },
        {
            "chapter": 11,
            "verse": 2,
            "name": "Romans 11:2",
            "text": "God has not rejected his people whom he knew long ago. Don't you know what Elijah says in the Scripture passage when he complains to God about Israel? He says, "
        },
        {
            "chapter": 11,
            "verse": 3,
            "name": "Romans 11:3",
            "text": "\"Lord, they've killed your prophets and torn down your altars. I'm the only one left, and they're trying to take my life.\" "
        },
        {
            "chapter": 11,
            "verse": 4,
            "name": "Romans 11:4",
            "text": "But what was God's reply? God said, \"I've kept 7,000 people for myself who have not knelt to worship Baal.\" "
        },
        {
            "chapter": 11,
            "verse": 5,
            "name": "Romans 11:5",
            "text": "So, as there were then, there are now a few left that God has chosen by his kindness. "
        },
        {
            "chapter": 11,
            "verse": 6,
            "name": "Romans 11:6",
            "text": "If they were chosen by God's kindness, they weren't chosen because of anything they did. Otherwise, God's kindness wouldn't be kindness. "
        },
        {
            "chapter": 11,
            "verse": 7,
            "name": "Romans 11:7",
            "text": "So what does all this mean? It means that Israel has never achieved what it has been striving for. However, those whom God has chosen have achieved it. The minds of the rest of Israel were closed, "
        },
        {
            "chapter": 11,
            "verse": 8,
            "name": "Romans 11:8",
            "text": "as Scripture says, \"To this day God has given them a spirit of deep sleep. Their eyes don't see, and their ears don't hear!\" "
        },
        {
            "chapter": 11,
            "verse": 9,
            "name": "Romans 11:9",
            "text": "And David says, \"Let the table set for them become a trap and a net, a snare and a punishment for them. "
        },
        {
            "chapter": 11,
            "verse": 10,
            "name": "Romans 11:10",
            "text": "Let their vision become clouded so that they cannot see. Let them carry back-breaking burdens forever.\" "
        },
        {
            "chapter": 11,
            "verse": 11,
            "name": "Romans 11:11",
            "text": "So I ask, \"Has Israel stumbled so badly that it can't get up again?\" That's unthinkable! By Israel's failure, salvation has come to people who are not Jewish to make the Jewish people jealous. "
        },
        {
            "chapter": 11,
            "verse": 12,
            "name": "Romans 11:12",
            "text": "The fall of the Jewish people made the world spiritually rich. Their failure made people who are not Jewish spiritually rich. So the inclusion of Jewish people will make the world even richer. "
        },
        {
            "chapter": 11,
            "verse": 13,
            "name": "Romans 11:13",
            "text": "Now, I speak to you who are not Jewish. As long as I am an apostle sent to people who are not Jewish, I bring honor to my ministry. "
        },
        {
            "chapter": 11,
            "verse": 14,
            "name": "Romans 11:14",
            "text": "Perhaps I can make my people jealous and save some of them. "
        },
        {
            "chapter": 11,
            "verse": 15,
            "name": "Romans 11:15",
            "text": "If Israel's rejection means that the world has been brought back to God, what does Israel's acceptance mean? It means that Israel has come back to life. "
        },
        {
            "chapter": 11,
            "verse": 16,
            "name": "Romans 11:16",
            "text": "If the first handful of dough is holy, the whole batch of dough is holy. If the root is holy, the branches are holy. "
        },
        {
            "chapter": 11,
            "verse": 17,
            "name": "Romans 11:17",
            "text": "But some of the olive branches have been broken off, and you, a wild olive branch, have been grafted in their place. You get your nourishment from the roots of the olive tree. "
        },
        {
            "chapter": 11,
            "verse": 18,
            "name": "Romans 11:18",
            "text": "So don't brag about being better than the other branches. If you brag, remember that you don't support the root, the root supports you. "
        },
        {
            "chapter": 11,
            "verse": 19,
            "name": "Romans 11:19",
            "text": "\"Well,\" you say, \"Branches were cut off so that I could be grafted onto the tree.\" "
        },
        {
            "chapter": 11,
            "verse": 20,
            "name": "Romans 11:20",
            "text": "That's right! They were broken off because they didn't believe, but you remain on the tree because you do believe. Don't feel arrogant, but be afraid. "
        },
        {
            "chapter": 11,
            "verse": 21,
            "name": "Romans 11:21",
            "text": "If God didn't spare the natural branches, he won't spare you, either. "
        },
        {
            "chapter": 11,
            "verse": 22,
            "name": "Romans 11:22",
            "text": "Look at how kind and how severe God can be. He is severe to those who fell, but kind to you if you continue to hold on to his kindness. Otherwise, you, too, will be cut off from the tree. "
        },
        {
            "chapter": 11,
            "verse": 23,
            "name": "Romans 11:23",
            "text": "If Jewish people do not continue in their unbelief, they will be grafted onto the tree again, because God is able to do that. "
        },
        {
            "chapter": 11,
            "verse": 24,
            "name": "Romans 11:24",
            "text": "In spite of the fact that you have been cut from a wild olive tree, you have been grafted onto a cultivated one. So wouldn't it be easier for these natural branches to be grafted onto the olive tree they belong to? "
        },
        {
            "chapter": 11,
            "verse": 25,
            "name": "Romans 11:25",
            "text": "Brothers and sisters, I want you to understand this mystery so that you won't become arrogant. The minds of some Israelites have become closed until all of God's non-Jewish people are included. "
        },
        {
            "chapter": 11,
            "verse": 26,
            "name": "Romans 11:26",
            "text": "In this way Israel as a whole will be saved, as Scripture says, \"The Savior will come from Zion. He will remove godlessness from Jacob. "
        },
        {
            "chapter": 11,
            "verse": 27,
            "name": "Romans 11:27",
            "text": "My promise to them will be fulfilled when I take away their sins.\" "
        },
        {
            "chapter": 11,
            "verse": 28,
            "name": "Romans 11:28",
            "text": "The Good News made the Jewish people enemies because of you. But by God's choice they are loved because of their ancestors. "
        },
        {
            "chapter": 11,
            "verse": 29,
            "name": "Romans 11:29",
            "text": "God never changes his mind when he gives gifts or when he calls someone. "
        },
        {
            "chapter": 11,
            "verse": 30,
            "name": "Romans 11:30",
            "text": "In the past, you disobeyed God. But now God has been merciful to you because of the disobedience of the Jewish people. "
        },
        {
            "chapter": 11,
            "verse": 31,
            "name": "Romans 11:31",
            "text": "In the same way, the Jewish people have also disobeyed so that God may be merciful to them as he was to you. "
        },
        {
            "chapter": 11,
            "verse": 32,
            "name": "Romans 11:32",
            "text": "God has placed all people into the prison of their own disobedience so that he could be merciful to all people.   "
        },
        {
            "chapter": 11,
            "verse": 33,
            "name": "Romans 11:33",
            "text": "God's riches, wisdom, and knowledge are so deep that it is impossible to explain his decisions or to understand his ways. "
        },
        {
            "chapter": 11,
            "verse": 34,
            "name": "Romans 11:34",
            "text": "\"Who knows how the Lord thinks? Who can become his adviser?\" "
        },
        {
            "chapter": 11,
            "verse": 35,
            "name": "Romans 11:35",
            "text": "Who gave the Lord something which the Lord must pay back? "
        },
        {
            "chapter": 11,
            "verse": 36,
            "name": "Romans 11:36",
            "text": "Everything is from him and by him and for him. Glory belongs to him forever! Amen!  "
        }
    ]
}