{
    "translation": "The New Testament in the Kapingamarangi language",
    "abbreviation": "kapingamarangi",
    "lang": "kpg",
    "language": "Kapingamarangi",
    "direction": "LTR",
    "encoding": "UTF-8",
    "book_nr": 19,
    "book_name": "Psalms",
    "chapter": 28,
    "name": "Psalms 28",
    "verses": [
        {
            "chapter": 28,
            "verse": 1,
            "name": "Psalms 28:1",
            "text": " Meenei Dimaadua, dogu Dangada Daa, au e-gahigahi Goe. Hagalongo-mai gi dagu dangidangi! Maa nei bolo Goe digi helekai-mai, gei au ga-madalia digau ala e-hula gi-lala gi tenua o digau mmade."
        },
        {
            "chapter": 28,
            "verse": 2,
            "name": "Psalms 28:2",
            "text": "Hagalongo-mai i dogu madagoaa ma-ga-dangi-adu di hagamaamaa, i dogu madagoaa ma-ga-dahi-aga ogu lima gi doo Hale Dabuaahia."
        },
        {
            "chapter": 28,
            "verse": 3,
            "name": "Psalms 28:3",
            "text": "Hudee heia au gii-made madalia digau huaidu, mo madalia digau hai mee huaidu, ala go nia hagadilinga daangada ala e-hai nadau helekai humalia huoloo, gei nadau manawa le e-honu i-nia halahalau dangada."
        },
        {
            "chapter": 28,
            "verse": 4,
            "name": "Psalms 28:4",
            "text": " Daaligidia digaula gi-nia mee digaula ala ne-hai, mo nia huaidu digaula ala ne-hai. Daaligidia digaula i-nia mee huogodoo huaidu digaula ala ne-hai. Wanga-ina gi digaula nia mee ala e-tau ang-gi digaula!"
        },
        {
            "chapter": 28,
            "verse": 5,
            "name": "Psalms 28:5",
            "text": "Digaula e-de-heia-ginaadou nia mee a Dimaadua ne-hai, be go nia mee a-Mee ala ne-hai. Malaa, Mee ga-daaligi digaula ga-hagammaa digaula gi-daha."
        },
        {
            "chapter": 28,
            "verse": 6,
            "name": "Psalms 28:6",
            "text": " Goodou hagaamu-ina Dimaadua, i Mee dela gu-longono-Ia dagu gahigahi hagamaamaa ne-hai."
        },
        {
            "chapter": 28,
            "verse": 7,
            "name": "Psalms 28:7",
            "text": "Dimaadua e-hagaloohi gei e-abaaba au. Au e-hagadagadagagee gi Mee. Mee e-hagamaamaa au gei e-hai au gi-tenetene. Au e-hagaamu a-Mee gi-nia daahili haga-tenetene."
        },
        {
            "chapter": 28,
            "verse": 8,
            "name": "Psalms 28:8",
            "text": " Dimaadua e-hagaloohi ana daangada, Mee e-abaaba ge e-haga-dagaloaha dana king dela ne-hilihili."
        },
        {
            "chapter": 28,
            "verse": 9,
            "name": "Psalms 28:9",
            "text": "Meenei Dimaadua, haga-dagaloaha-ina au daangada, hagamaluagina-ina digau ala nia daangada ni-aau. Dagia digaula be-di hagaloohi siibi, gei Goe gi-madamada humalia i digaula gaa-hana-hua beelaa.  "
        }
    ]
}