{
    "translation": "The New Testament in the Kapingamarangi language",
    "abbreviation": "kapingamarangi",
    "lang": "kpg",
    "language": "Kapingamarangi",
    "direction": "LTR",
    "encoding": "UTF-8",
    "book_nr": 19,
    "book_name": "Psalms",
    "chapter": 36,
    "name": "Psalms 36",
    "verses": [
        {
            "chapter": 36,
            "verse": 1,
            "name": "Psalms 36:1",
            "text": " Di huaidu le e-mouli i-lodo nia manawa o digau huaidu. Digaula gu-haga-balumee a God ge gu-hagalee hagalabagau a-Mee."
        },
        {
            "chapter": 36,
            "verse": 2,
            "name": "Psalms 36:2",
            "text": "Idimaa digaula e-hai bolo ginaadou nia mee, e-hagabaubau bolo God la-hagalee gidee nadau ihala belee hagi-aga ginaadou."
        },
        {
            "chapter": 36,
            "verse": 3,
            "name": "Psalms 36:3",
            "text": "Nadau helekai le e-honu i-nia huaidu, ge e-honu i-nia kai-tilikai. Digaula gu-hagalee hai nia mee ala e-humalia ge donu."
        },
        {
            "chapter": 36,
            "verse": 4,
            "name": "Psalms 36:4",
            "text": "Digaula e-hai nadau hagataele huaidu i nadau madagoaa ma-gaa-kii i-hongo nadau moenge. Deai nadau mee humalia e-hai ai, digaula hagalee kili gi-daha di-ingoo-hua di mee huaidu."
        },
        {
            "chapter": 36,
            "verse": 5,
            "name": "Psalms 36:5",
            "text": " Meenei Dimaadua, do manawa-aloho dee-modu la-guu-tugi-loo i-di langi. Do manawa-dahi gu-haga-honu i-lala di langi."
        },
        {
            "chapter": 36,
            "verse": 6,
            "name": "Psalms 36:6",
            "text": "Oo donu la-koia e-duuduu i-nua gadoo be nia gonduu. Dau hagi-aga le e-llala gadoo be-di llala o-di moana. Nia daangada mono manu le e-madamada humalia-iei Goe."
        },
        {
            "chapter": 36,
            "verse": 7,
            "name": "Psalms 36:7",
            "text": " Meenei God, e-dahidamee behee go do manawa-aloho dee-modu! Gimaadou guu-gida madau gowaa e-duuli-ai gimaadou i-lala di malu o bakau."
        },
        {
            "chapter": 36,
            "verse": 8,
            "name": "Psalms 36:8",
            "text": "Gimaadou e-hai madau hagamiami gi au hagabae meegai ala ne-dahi-aga, gaa-hai gimaadou gi-inu-mai i-nia monowai o do dumaalia."
        },
        {
            "chapter": 36,
            "verse": 9,
            "name": "Psalms 36:9",
            "text": "Ma dela-hua Kooe dela go di hagamau o-nia mouli huogodoo. Idimaa go do maalama, gimaadou gaa-mee di-mmada gi-di maalama."
        },
        {
            "chapter": 36,
            "verse": 10,
            "name": "Psalms 36:10",
            "text": " Dudagia-adu beelaa do manawa-aloho dee-modu ang-gi digau ala e-iloo-ginaadou Goe, gei gi-heia di humalia ang-gi digau ala e-donu."
        },
        {
            "chapter": 36,
            "verse": 11,
            "name": "Psalms 36:11",
            "text": "Hudee heia digau hagamuamua gi-heebagi-mai gi-di-au be go digau huaidu e-hai au gii-lele gi-daha."
        },
        {
            "chapter": 36,
            "verse": 12,
            "name": "Psalms 36:12",
            "text": " Mmada malaa gi digau huaidu ala ne-monnono. Digaula e-mmoemmoe i-golo, e-deemee di nnoo i-nua.  "
        }
    ]
}