{
    "translation": "The New Testament in the Kapingamarangi language",
    "abbreviation": "kapingamarangi",
    "lang": "kpg",
    "language": "Kapingamarangi",
    "direction": "LTR",
    "encoding": "UTF-8",
    "book_nr": 19,
    "book_name": "Psalms",
    "chapter": 51,
    "name": "Psalms 51",
    "verses": [
        {
            "chapter": 51,
            "verse": 1,
            "name": "Psalms 51:1",
            "text": " Meenei God, Goe dumaalia-mai gi-di-au, mai i do manawa-aloho dee-odi. Goe weedee ogu huaidu gi-daha mo au mai i do dumaalia aamua."
        },
        {
            "chapter": 51,
            "verse": 2,
            "name": "Psalms 51:2",
            "text": "Gaugau-ina gi-daha mo au ogu huaidu huogodoo, haga-madammaa-ina gi-daha ogu huaidu!"
        },
        {
            "chapter": 51,
            "verse": 3,
            "name": "Psalms 51:3",
            "text": " Au e-iloo ogu huaidu, ogu huaidu e-modongoohia-eau i-nia madagoaa huogodoo."
        },
        {
            "chapter": 51,
            "verse": 4,
            "name": "Psalms 51:4",
            "text": "Au guu-hai dagu ihala, gu-hai-baahi adu gi-di-Goe, ma go Kooe hua dela ne-hai-baahi ginai au. Au guu-hai di mee huaidu dela guu-hai Kooe bolo di huaidu. Malaa, Goe e-donu-hua ma-ga-hagi-aga au, gei e-donu-hua ma-ga-haga-donu-mai au bolo au e-hala."
        },
        {
            "chapter": 51,
            "verse": 5,
            "name": "Psalms 51:5",
            "text": "Au tangada hua huaidu mai i dogu laangi ne-haanau-ai. Au ne-haanau-mai, gei au tangada hua huaidu."
        },
        {
            "chapter": 51,
            "verse": 6,
            "name": "Psalms 51:6",
            "text": " Goe e-hiihai gi-di manawa madammaa ge e-donu. Haga-honu-ina ogu hagamaanadu gi do kabemee."
        },
        {
            "chapter": 51,
            "verse": 7,
            "name": "Psalms 51:7",
            "text": "Daawa-ina gi-daha ogu huaidu, gei au ga-madammaa. Gaugau-ina au, gei au koia ga-madammaa-giagia i-nia \u2018snow\u2019."
        },
        {
            "chapter": 51,
            "verse": 8,
            "name": "Psalms 51:8",
            "text": "Heia au gi-hagalongo gi-nia lee tenetene mo manawa lamalia. Ma e-aha maa Goe gu-haga-mooho ogu dudaginga mo ogu iwi, gei au ga-manawa lamalia-laa."
        },
        {
            "chapter": 51,
            "verse": 9,
            "name": "Psalms 51:9",
            "text": "Huli gi-daha mo ogu huaidu, weedee ogu huaidu huogodoo."
        },
        {
            "chapter": 51,
            "verse": 10,
            "name": "Psalms 51:10",
            "text": " Meenei God, heia-mai gi ogu lodo di manawa madammaa, gaamai gi ogu lodo di hagataalunga hoou ge manawa-dahi."
        },
        {
            "chapter": 51,
            "verse": 11,
            "name": "Psalms 51:11",
            "text": "Hudee hudu-ina au gi-daha mo Goe. Hudee daawa-ina dau Hagataalunga-Dabu la-gi-daha mo au."
        },
        {
            "chapter": 51,
            "verse": 12,
            "name": "Psalms 51:12",
            "text": "Gaamai labelaa di tenetene dela e-hanimoi i do hagamouli. Heia au gi-hiihai e-hagalongo-adu gi-di-Goe."
        },
        {
            "chapter": 51,
            "verse": 13,
            "name": "Psalms 51:13",
            "text": "Gei au ga-aago au haganoho gi digau huaidu, gei digaula ga-maaliu-mai gi-di-Goe."
        },
        {
            "chapter": 51,
            "verse": 14,
            "name": "Psalms 51:14",
            "text": " Meenei God dogu Hagamouli, Haga-dagaloaha-ina dogu mouli, gei au ga-manawa lamalia ga-hagadele oo donu."
        },
        {
            "chapter": 51,
            "verse": 15,
            "name": "Psalms 51:15",
            "text": "Meenei Dimaadua, hagamaamaa-ina au gii-mee au di-helekai, gei au ga-hagaamu Goe."
        },
        {
            "chapter": 51,
            "verse": 16,
            "name": "Psalms 51:16",
            "text": " Goe hagalee hiihai gi-nia tigidaumaha, maa nei bolo Goe e-hiihai, gei au gaa-hai-adu gi-di-Goe. Goe hagalee e-manawa-tene gi-nia tigidaumaha-dudu."
        },
        {
            "chapter": 51,
            "verse": 17,
            "name": "Psalms 51:17",
            "text": "Meenei God, dagu tigidaumaha la-go di maaliu donu o dogu manawa. Goe hagalee bae gi-daha di maliu donu o dogu manawa mo dogu manawa hila-gi-lala."
        },
        {
            "chapter": 51,
            "verse": 18,
            "name": "Psalms 51:18",
            "text": " Meenei God, Goe gi-manawa-dumaalia gi Zion. Hagamaamaa-ina a-mee. Hauhia labelaa nia abaaba o Jerusalem."
        },
        {
            "chapter": 51,
            "verse": 19,
            "name": "Psalms 51:19",
            "text": "Malaa, gei Goe ga-manawa-tene gi-nia tigidaumaha ala e-donu mo madau tigidaumaha-dudu, gei nia kau-daane ga-tigidaumaha i-hongo dau gowaa dudu-tigidaumaha.  "
        }
    ]
}