{
    "translation": "The New Testament in the Kapingamarangi language",
    "abbreviation": "kapingamarangi",
    "lang": "kpg",
    "language": "Kapingamarangi",
    "direction": "LTR",
    "encoding": "UTF-8",
    "book_nr": 19,
    "book_name": "Psalms",
    "chapter": 57,
    "name": "Psalms 57",
    "verses": [
        {
            "chapter": 57,
            "verse": 1,
            "name": "Psalms 57:1",
            "text": " Dumaalia-mai gi-di-au, meenei God, dumaalia-mai, idimaa au e-hanadu e-halahala dogu hagamaamaa gi doo baahi. I-lala di malu oo lima e-gida-ai dogu abaaba gaa-dae-loo gi-di lawa o-nia haingadaa huogodoo."
        },
        {
            "chapter": 57,
            "verse": 2,
            "name": "Psalms 57:2",
            "text": " Au e-gahigahi dogu God dela i-di Gowaa Aamua, di God dela e-hagahumalia au gi agu mee ala e-hiihai ginai huogodoo."
        },
        {
            "chapter": 57,
            "verse": 3,
            "name": "Psalms 57:3",
            "text": "Mee ga-helekai-mai i-di langi, ga-haga-dagaloaha au. Mee ga-haga-magedaa digau ala e-hagahuaidu au. God ga-hagamodongoohia-mai dono aloho dee-modu mo dono manawa-dahi."
        },
        {
            "chapter": 57,
            "verse": 4,
            "name": "Psalms 57:4",
            "text": " Ogu hagadaumee gu-haganiga-mai dogu gili, e-hai gadoo be nia laion gai-dangada. Nia niha digaula e-hai gadoo be nia daalo mono amu maalei. Nia holole digaula e-hai gadoo be nia hulumanu-dauwa gaa."
        },
        {
            "chapter": 57,
            "verse": 5,
            "name": "Psalms 57:5",
            "text": " Meenei God, hagamodongoohia-ina do aamua i-di langi, mo do madamada i-hongo henuailala hagatau."
        },
        {
            "chapter": 57,
            "verse": 6,
            "name": "Psalms 57:6",
            "text": " Ogu hagadaumee guu-holo di-nadau gubenge belee kumi au. Au gu-deai dogu hagadagadagagee ai. Digaula guu-geli di-nadau luwa i ogu mua bolo gii-doo au gi no-lodo, gei di-maa go digaula ne-monnono gi-lodo."
        },
        {
            "chapter": 57,
            "verse": 7,
            "name": "Psalms 57:7",
            "text": " Meenei God, dogu hagadagadagagee guu-dohu, gei au ga-daahili mo-di hagaamu Goe!"
        },
        {
            "chapter": 57,
            "verse": 8,
            "name": "Psalms 57:8",
            "text": "Dogu hagataalunga, ala-aga! Dagu \u2018harp\u2019 mo dagu \u2018lyre\u2019, aala-aga! Au ga-hangahanga di laa gii-ala."
        },
        {
            "chapter": 57,
            "verse": 9,
            "name": "Psalms 57:9",
            "text": "Meenei dogu Dagi, au ga-danggee-adu gi-di-Goe i-mehanga nia henua. Au ga-hagaamu Goe i-baahi nia daangada."
        },
        {
            "chapter": 57,
            "verse": 10,
            "name": "Psalms 57:10",
            "text": "Do aloho dee-modu guu-dau i-nia madagowaa huogodoo i-di langi. Do manawa-dahi guu-tugi i-lala di langi."
        },
        {
            "chapter": 57,
            "verse": 11,
            "name": "Psalms 57:11",
            "text": "Hagamodongoohia-ina oo mahi aamua i-di langi, meenei God, mo do madamada gi-hongo henuailala hagatau.  "
        }
    ]
}