{
    "translation": "\u0423\u043a\u0440\u0430\u0457\u043d\u0441\u044c\u043a\u0430 \u0411\u0456\u0431\u043b\u0456\u044f. \u041f\u0435\u0440\u0435\u043a\u043b\u0430\u0434 \u0406\u0432\u0430\u043d\u0430 \u041e\u0433\u0456\u0454\u043d\u043a\u0430.",
    "abbreviation": "ukrainian",
    "lang": "uk",
    "language": "Ukrainian",
    "direction": "LTR",
    "encoding": "UTF-8",
    "book_nr": 18,
    "book_name": "Job",
    "chapter": 39,
    "name": "Job 39",
    "verses": [
        {
            "chapter": 39,
            "verse": 1,
            "name": "Job 39:1",
            "text": "\u0425\u0456\u0431\u0430 \u0442\u0438 \u043f\u0456\u0437\u043d\u0430\u0432 \u0447\u0430\u0441 \u043d\u0430\u0440\u043e\u0434\u0436\u0435\u043d\u043d\u044f \u0441\u043a\u0435\u043b\u044c\u043d\u0438\u0445 \u043a\u043e\u0437\u0438\u0446\u044c? \u0425\u0456\u0431\u0430 \u0442\u0438 \u043f\u0438\u043b\u044c\u043d\u0443\u0432\u0430\u0432 \u0447\u0430\u0441 \u043c\u0443\u043a \u043f\u043e\u0440\u043e\u0434\u0443 \u043b\u0430\u043d\u0456?"
        },
        {
            "chapter": 39,
            "verse": 2,
            "name": "Job 39:2",
            "text": "\u0427\u0438 \u043d\u0430 \u043c\u0456\u0441\u044f\u0446\u0456 \u043b\u0456\u0447\u0438\u0448, \u0449\u043e \u0441\u043f\u043e\u0432\u043d\u0438\u0442\u0438\u0441\u044c \u043c\u0443\u0441\u044f\u0442\u044c, \u0456 \u0432\u0456\u0434\u0430\u0454\u0448 \u0447\u0430\u0441 \u0457\u0445 \u043d\u0430\u0440\u043e\u0434\u0436\u0435\u043d\u043d\u044f,"
        },
        {
            "chapter": 39,
            "verse": 3,
            "name": "Job 39:3",
            "text": "\u043a\u043e\u043b\u0438 \u043f\u0440\u0438\u043a\u043b\u044f\u043a\u0430\u044e\u0442\u044c \u0432\u043e\u043d\u0438, \u0432\u0438\u043f\u0443\u0441\u043a\u0430\u044e\u0442\u044c \u0434\u0456\u0442\u0435\u0439 \u0441\u0432\u043e\u0457\u0445, \u0456 \u0437\u0432\u0456\u043b\u044c\u043d\u044f\u044e\u0442\u044c\u0441\u044f \u0432\u0456\u0434 \u0431\u043e\u043b\u0456\u0432 \u043f\u043e\u0440\u043e\u0434\u0443?"
        },
        {
            "chapter": 39,
            "verse": 4,
            "name": "Job 39:4",
            "text": "\u041d\u0430\u0431\u0438\u0440\u0430\u044e\u0442\u044c\u0441\u044f \u0441\u0438\u043b \u0457\u0445\u043d\u0456 \u0434\u0456\u0442\u0438, \u043d\u0430 \u043f\u043e\u043b\u0456 \u0437\u0440\u043e\u0441\u0442\u0430\u044e\u0442\u044c, \u0432\u0456\u0434\u0445\u043e\u0434\u044f\u0442\u044c \u0456 \u0431\u0456\u043b\u044c\u0448\u0435 \u0434\u043e \u043d\u0438\u0445 \u043d\u0435 \u0432\u0435\u0440\u0442\u0430\u044e\u0442\u044c\u0441\u044f."
        },
        {
            "chapter": 39,
            "verse": 5,
            "name": "Job 39:5",
            "text": "\u0425\u0442\u043e \u043f\u0443\u0441\u0442\u0438\u0432 \u043e\u0441\u043b\u0430 \u0434\u0438\u043a\u043e\u0433\u043e \u0432\u0456\u043b\u044c\u043d\u0438\u043c, \u0456 \u0445\u0442\u043e \u0440\u043e\u0437\u0432'\u044f\u0437\u0430\u0432 \u043e\u0441\u043b\u0443 \u0434\u0438\u043a\u043e\u043c\u0443 \u043f\u0443\u0442\u0430,"
        },
        {
            "chapter": 39,
            "verse": 6,
            "name": "Job 39:6",
            "text": "\u044f\u043a\u043e\u043c\u0443 \u043f\u0440\u0438\u0437\u043d\u0430\u0447\u0438\u0432 \u042f \u0441\u0442\u0435\u043f \u0439\u043e\u0433\u043e \u0434\u043e\u043c\u043e\u043c, \u0430 \u043c\u0456\u0441\u0446\u0435\u043c \u0439\u043e\u0433\u043e \u043f\u0440\u043e\u0431\u0443\u0432\u0430\u043d\u043d\u044f \u0441\u043e\u043b\u043e\u043d\u0443 \u043f\u0443\u0441\u0442\u0438\u043d\u044e?"
        },
        {
            "chapter": 39,
            "verse": 7,
            "name": "Job 39:7",
            "text": "\u0412\u0456\u043d \u0441\u043c\u0456\u0454\u0442\u044c\u0441\u044f \u0456\u0437 \u0433\u0430\u043b\u0430\u0441\u0443 \u043c\u0456\u0441\u0442\u0430, \u043d\u0435 \u0447\u0443\u0454 \u0432\u0456\u043d \u043a\u0440\u0438\u043a\u0443 \u043f\u043e\u0433\u043e\u043d\u0438\u0447\u0430."
        },
        {
            "chapter": 39,
            "verse": 8,
            "name": "Job 39:8",
            "text": "\u0429\u043e \u0437\u043d\u0430\u0445\u043e\u0434\u0438\u0442\u044c \u043f\u043e \u0433\u043e\u0440\u0430\u0445, \u0442\u043e \u043f\u0430\u0448\u0430 \u0439\u043e\u0433\u043e, \u0456 \u0448\u0443\u043a\u0430\u0454 \u0432\u0456\u043d \u0443\u0441\u044c\u043e\u0433\u043e \u0437\u0435\u043b\u0435\u043d\u043e\u0433\u043e."
        },
        {
            "chapter": 39,
            "verse": 9,
            "name": "Job 39:9",
            "text": "\u0427\u0438 \u0437\u0430\u0445\u043e\u0447\u0435 \u0441\u043b\u0443\u0436\u0438\u0442\u0438 \u0442\u043e\u0431\u0456 \u043e\u0434\u043d\u043e\u0440\u0456\u0433? \u0427\u0438 \u043f\u0440\u0438 \u044f\u0441\u043b\u0430\u0445 \u0442\u0432\u043e\u0457\u0445 \u043d\u043e\u0447\u0443\u0432\u0430\u0442\u0438\u043c\u0435 \u0432\u0456\u043d?"
        },
        {
            "chapter": 39,
            "verse": 10,
            "name": "Job 39:10",
            "text": "\u0427\u0438 \u0442\u0438 \u043e\u0434\u043d\u043e\u0440\u043e\u0433\u0430 \u043f\u0440\u0438\u0432'\u044f\u0436\u0435\u0448 \u0434\u043e \u0439\u043e\u0433\u043e \u0431\u043e\u0440\u043e\u0437\u043d\u0438 \u043f\u043e\u0432\u043e\u0440\u043e\u0437\u0437\u044f\u043c? \u0427\u0438 \u0431\u0443\u0434\u0435 \u0432\u0456\u043d \u0431\u043e\u0440\u043e\u043d\u0443\u0432\u0430\u0442\u0438 \u0437\u0430 \u0442\u043e\u0431\u043e\u044e \u0434\u043e\u043b\u0438\u043d\u0438?"
        },
        {
            "chapter": 39,
            "verse": 11,
            "name": "Job 39:11",
            "text": "\u0427\u0438 \u043f\u043e\u0432\u0456\u0440\u0438\u0448 \u0439\u043e\u043c\u0443 \u0447\u0435\u0440\u0435\u0437 \u0442\u0435, \u0449\u043e \u043c\u0430\u0454 \u0432\u0456\u043d \u0441\u0438\u043b\u0443 \u0432\u0435\u043b\u0438\u043a\u0443, \u0456 \u0441\u0432\u043e\u044e \u043f\u0440\u0430\u0446\u044e \u043d\u0430 \u043d\u044c\u043e\u0433\u043e \u043f\u043e\u043f\u0443\u0441\u0442\u0438\u0448?"
        },
        {
            "chapter": 39,
            "verse": 12,
            "name": "Job 39:12",
            "text": "\u0427\u0438 \u043f\u043e\u0432\u0456\u0440\u0438\u0448 \u0439\u043e\u043c\u0443, \u0449\u043e \u0432\u0456\u043d \u0432\u0435\u0440\u043d\u0435 \u043d\u0430\u0441\u0456\u043d\u043d\u044f \u0442\u0432\u043e\u0454, \u0456 \u0437\u0431\u0435\u0440\u0435 \u0442\u043e\u0431\u0456 \u0442\u0456\u043a?"
        },
        {
            "chapter": 39,
            "verse": 13,
            "name": "Job 39:13",
            "text": "\u041a\u0440\u0438\u043b\u043e \u0441\u0442\u0440\u0443\u0441\u0435\u0432\u0435 \u0440\u0430\u0434\u0456\u0441\u043d\u043e \u0431'\u0454\u0442\u044c\u0441\u044f, \u0447\u0438 \u0436 \u043a\u0440\u0438\u043b\u043e \u0446\u0435 \u0439 \u043f\u0456\u0440'\u0457\u043d\u0430 \u043b\u0435\u043b\u0435\u043a\u0438?"
        },
        {
            "chapter": 39,
            "verse": 14,
            "name": "Job 39:14",
            "text": "\u0411\u043e \u044f\u0439\u0446\u044f \u0441\u0432\u043e\u0457 \u0432\u0456\u043d \u043d\u0430 \u0437\u0435\u043c\u043b\u044e \u043a\u043b\u0430\u0434\u0435 \u0442\u0430 \u0432 \u043f\u043e\u0440\u043e\u0441\u0456 \u0457\u0445 \u0432\u0438\u0433\u0440\u0456\u0432\u0430\u0454,"
        },
        {
            "chapter": 39,
            "verse": 15,
            "name": "Job 39:15",
            "text": "\u0456 \u0437\u0430\u0431\u0443\u0432\u0430, \u0449\u043e \u043d\u043e\u0433\u0430 \u043c\u043e\u0436\u0435 \u0457\u0445 \u0440\u043e\u0437\u0447\u0430\u0432\u0438\u0442\u0438, \u0430 \u0437\u0432\u0456\u0440 \u043f\u043e\u043b\u044c\u043e\u0432\u0438\u0439 \u043c\u043e\u0436\u0435 \u0457\u0445 \u0440\u043e\u0437\u0442\u043e\u043f\u0442\u0430\u0442\u0438."
        },
        {
            "chapter": 39,
            "verse": 16,
            "name": "Job 39:16",
            "text": "\u0412\u0456\u043d \u0436\u043e\u0440\u0441\u0442\u043e\u043a\u0438\u0439 \u0432\u0456\u0434\u043d\u043e\u0441\u043d\u043e \u0434\u0456\u0442\u0435\u0439 \u0441\u0432\u043e\u0457\u0445, \u043d\u0456\u0431\u0438 \u0432\u043e\u043d\u0438 \u043d\u0435 \u0439\u043e\u0433\u043e, \u0430 \u0449\u043e \u043f\u0440\u0430\u0446\u044f \u0439\u043e\u0433\u043e \u043c\u043e\u0436\u0435 \u0431\u0443\u0442\u0438 \u043d\u0430\u0434\u0430\u0440\u0435\u043c\u043d\u0430, \u0442\u043e\u0433\u043e \u043d\u0435 \u0431\u043e\u0457\u0442\u044c\u0441\u044f,"
        },
        {
            "chapter": 39,
            "verse": 17,
            "name": "Job 39:17",
            "text": "\u0431\u043e \u0411\u043e\u0433 \u0443\u0447\u0438\u043d\u0438\u0432, \u0449\u043e\u0431 \u0437\u0430\u0431\u0443\u0432 \u0432\u0456\u043d \u043f\u0440\u043e \u043c\u0443\u0434\u0440\u0456\u0441\u0442\u044c, \u0456 \u043d\u0435 \u043d\u0430\u0434\u0456\u043b\u0438\u0432 \u0439\u043e\u0433\u043e \u0440\u043e\u0437\u0443\u043c\u043e\u043c."
        },
        {
            "chapter": 39,
            "verse": 18,
            "name": "Job 39:18",
            "text": "\u0410 \u0437\u0430 \u0447\u0430\u0441\u0443 \u043d\u0430\u0434\u0445\u043e\u0434\u0443 \u0441\u0442\u0440\u0456\u043b\u044c\u0446\u0456\u0432 \u0443\u0434\u0430\u0440\u044f\u0454 \u0432\u0456\u043d \u043a\u0440\u0438\u043b\u044c\u043c\u0438 \u043f\u043e\u0432\u0456\u0442\u0440\u044f, \u0456 \u0441\u043c\u0456\u0454\u0442\u044c\u0441\u044f \u0437 \u043a\u043e\u043d\u044f \u0442\u0430 \u0437 \u0439\u043e\u0433\u043e \u0432\u0435\u0440\u0445\u0456\u0432\u0446\u044f!"
        },
        {
            "chapter": 39,
            "verse": 19,
            "name": "Job 39:19",
            "text": "\u0427\u0438 \u0442\u0438 \u0441\u0438\u043b\u0443 \u043a\u043e\u043d\u0435\u0432\u0456 \u0434\u0430\u0441\u0438, \u0447\u0438 \u0448\u0438\u044e \u0439\u043e\u0433\u043e \u0442\u0438 \u0437\u043e\u0434\u044f\u0433\u043d\u0435\u0448 \u0443 \u0433\u0440\u0438\u0432\u0443?"
        },
        {
            "chapter": 39,
            "verse": 20,
            "name": "Job 39:20",
            "text": "\u0427\u0438 \u0442\u0438 \u0437\u0440\u043e\u0431\u0438\u0448, \u0449\u043e \u0431\u0443\u0434\u0435 \u0441\u043a\u0430\u043a\u0430\u0442\u0438 \u0432\u0456\u043d, \u043c\u043e\u0432 \u0441\u0430\u0440\u0430\u043d\u0430? \u0412\u0435\u043b\u0438\u0447\u043d\u0435 \u0456\u0440\u0436\u0430\u043d\u043d\u044f \u0439\u043e\u0433\u043e \u0441\u0442\u0440\u0430\u0448\u0435\u043b\u0435\u0437\u043d\u0435!"
        },
        {
            "chapter": 39,
            "verse": 21,
            "name": "Job 39:21",
            "text": "\u0411'\u0454 \u043d\u043e\u0433\u043e\u044e \u0432 \u0434\u043e\u043b\u0438\u043d\u0456 \u0442\u0430 \u0442\u0456\u0448\u0438\u0442\u044c\u0441\u044f \u0441\u0438\u043b\u043e\u044e, \u0456\u0434\u0435 \u0432\u0456\u043d \u043d\u0430\u0441\u0443\u043f\u0440\u043e\u0442\u0438 \u0437\u0431\u0440\u043e\u0457,"
        },
        {
            "chapter": 39,
            "verse": 22,
            "name": "Job 39:22",
            "text": "\u0441\u043c\u0456\u0454\u0442\u044c\u0441\u044f \u0437 \u0441\u0442\u0440\u0430\u0445\u0443 \u0439 \u043d\u0435 \u0436\u0430\u0445\u0430\u0454\u0442\u044c\u0441\u044f, \u0456 \u043d\u0435 \u0432\u0435\u0440\u0442\u0430\u0454\u0442\u044c\u0441\u044f \u0437-\u043f\u0435\u0440\u0435\u0434 \u043c\u0435\u0447\u0430,"
        },
        {
            "chapter": 39,
            "verse": 23,
            "name": "Job 39:23",
            "text": "\u0445\u043e\u0447 \u0434\u0437\u0432\u043e\u043d\u0438\u0442\u044c \u043d\u0430\u0434 \u043d\u0438\u043c \u0441\u0430\u0433\u0430\u0439\u0434\u0430\u043a, \u0432\u0456\u0441\u0442\u0440\u044f \u0441\u043f\u0438\u0441\u043e\u0432\u0435 \u0442\u0430 \u0440\u0430\u0442\u0438\u0449\u0435!"
        },
        {
            "chapter": 39,
            "verse": 24,
            "name": "Job 39:24",
            "text": "\u0412\u0456\u043d \u0456\u0437 \u0448\u0430\u043b\u0435\u043d\u0456\u0441\u0442\u044e \u0442\u0430 \u043b\u044e\u0442\u0456\u0441\u0442\u044e \u0437\u0435\u043c\u043b\u044e \u043a\u043e\u0432\u0442\u0430\u0454, \u0456 \u043d\u0435 \u0432\u0456\u0440\u0438\u0442\u044c, \u0449\u043e \u0447\u0443\u0442\u0438 \u0433\u0443\u043a \u0440\u043e\u0433\u0443."
        },
        {
            "chapter": 39,
            "verse": 25,
            "name": "Job 39:25",
            "text": "\u041f\u0440\u0438 \u043a\u043e\u0436\u043d\u043e\u043c\u0443 \u0440\u043e\u0437\u0456 \u043a\u0440\u0438\u0447\u0438\u0442\u044c \u0432\u0456\u043d: \u0406-\u0433\u0430! \u0456 \u0432\u0438\u043d\u044e\u0445\u0443\u0454 \u0437\u0434\u0430\u043b\u0435\u043a\u0430 \u0431\u0456\u0439, \u0433\u0440\u0456\u043c \u0433\u0435\u0442\u044c\u043c\u0430\u043d\u0456\u0432 \u0442\u0430 \u043a\u0440\u0438\u043a."
        },
        {
            "chapter": 39,
            "verse": 26,
            "name": "Job 39:26",
            "text": "\u0427\u0438 \u044f\u0441\u0442\u0440\u0443\u0431 \u043b\u0456\u0442\u0430\u0454 \u0442\u0432\u043e\u0454\u044e \u043f\u0440\u0435\u043c\u0443\u0434\u0440\u0456\u0441\u0442\u044e, \u043d\u0430 \u043f\u0456\u0432\u0434\u0435\u043d\u044c \u043f\u0440\u043e\u0441\u0442\u044f\u0433\u0443\u0454 \u043a\u0440\u0438\u043b\u0430 \u0441\u0432\u043e\u0457?"
        },
        {
            "chapter": 39,
            "verse": 27,
            "name": "Job 39:27",
            "text": "\u0427\u0438 \u0437 \u0442\u0432\u043e\u0439\u043e\u0433\u043e \u043d\u0430\u043a\u0430\u0437\u0443 \u043e\u0440\u0435\u043b \u043f\u0456\u0434\u0456\u0439\u043c\u0430\u0454\u0442\u044c\u0441\u044f, \u0456 \u043c\u043e\u0441\u0442\u0438\u0442\u044c \u043a\u0443\u0431\u043b\u043e \u0441\u0432\u043e\u0454 \u043d\u0430 \u0432\u0438\u0441\u043e\u0442\u0456?"
        },
        {
            "chapter": 39,
            "verse": 28,
            "name": "Job 39:28",
            "text": "\u041d\u0430 \u0441\u043a\u0435\u043b\u0456 \u0437\u0430\u043c\u0435\u0448\u043a\u0443\u0454 \u0432\u0456\u043d \u0442\u0430 \u043d\u043e\u0447\u0443\u0454, \u043d\u0430 \u0441\u043a\u0435\u043b\u044c\u043d\u0456\u043c \u0432\u0435\u0440\u0448\u043a\u0443 \u0442\u0430 \u0442\u0432\u0435\u0440\u0434\u0438\u043d\u0456,"
        },
        {
            "chapter": 39,
            "verse": 29,
            "name": "Job 39:29",
            "text": "\u0456\u0437\u0432\u0456\u0434\u0442\u0438 \u0432\u0438\u0437\u043e\u0440\u044e\u0454 \u0457\u0436\u0443, \u0434\u0430\u043b\u0435\u043a\u043e \u0432\u0434\u0438\u0432\u043b\u044f\u044e\u0442\u044c\u0441\u044f \u043e\u0447\u0456 \u0439\u043e\u0433\u043e,"
        },
        {
            "chapter": 39,
            "verse": 30,
            "name": "Job 39:30",
            "text": "\u0430 \u0439\u043e\u0433\u043e \u043f\u0442\u0430\u0448\u0435\u043d\u044f\u0442\u0430 \u043f'\u044e\u0442\u044c \u043a\u0440\u043e\u0432. \u0414\u0435 \u0436 \u0437\u0430\u0431\u0438\u0442\u0456, \u0442\u0430\u043c \u0432\u0456\u043d. "
        }
    ]
}