{
    "translation": "Czech CEP",
    "abbreviation": "cep",
    "lang": "cs",
    "language": "Czech",
    "direction": "LTR",
    "encoding": "UTF-8",
    "book_nr": 10,
    "book_name": "2 Samuel",
    "chapter": 22,
    "name": "2 Samuel 22",
    "verses": [
        {
            "chapter": 22,
            "verse": 1,
            "name": "2 Samuel 22:1",
            "text": "Slova t\u00e9to p\u00edsn\u011b p\u0159edn\u00e1\u0161el David Hospodinu v den, kdy jej Hospodin vysvobodil ze sp\u00e1r\u016f v\u0161ech jeho nep\u0159\u00e1tel i ze sp\u00e1r\u016f Saulov\u00fdch. "
        },
        {
            "chapter": 22,
            "verse": 2,
            "name": "2 Samuel 22:2",
            "text": "Pravil: \"Hospodine, skaln\u00ed \u0161t\u00edte m\u016fj, m\u00e1 pevn\u00e1 tvrzi, m\u016fj vysvoboditeli, "
        },
        {
            "chapter": 22,
            "verse": 3,
            "name": "2 Samuel 22:3",
            "text": "Bo\u017ee m\u016fj, m\u00e1 sk\u00e1lo, ut\u00edk\u00e1m se k tob\u011b, \u0161t\u00edte m\u016fj a rohu sp\u00e1sy, nedobytn\u00fd hrade, moje \u00fato\u010di\u0161t\u011b, zachr\u00e1nce m\u016fj, ty m\u011b p\u0159ed n\u00e1sil\u00edm zachra\u0148uje\u0161! "
        },
        {
            "chapter": 22,
            "verse": 4,
            "name": "2 Samuel 22:4",
            "text": "Kdy\u017e jsem vz\u00fdval Hospodina, jemu\u017e pat\u0159\u00ed chv\u00e1la, byl jsem zachr\u00e1n\u011bn p\u0159ed sv\u00fdmi nep\u0159\u00e1teli. "
        },
        {
            "chapter": 22,
            "verse": 5,
            "name": "2 Samuel 22:5",
            "text": "Ovinuly m\u011b p\u0159\u00edboje smrti, zachv\u00e1tily m\u011b drav\u00e9 proudy Ni\u010demn\u00edka, "
        },
        {
            "chapter": 22,
            "verse": 6,
            "name": "2 Samuel 22:6",
            "text": "provazy podsv\u011bt\u00ed se kolem mne st\u00e1hly, dostihly m\u011b l\u00e9\u010dky smrti. "
        },
        {
            "chapter": 22,
            "verse": 7,
            "name": "2 Samuel 22:7",
            "text": "V sou\u017een\u00ed jsem vz\u00fdval Hospodina, ke sv\u00e9mu Bohu jsem volal. Usly\u0161el m\u016fj hlas ze sv\u00e9ho chr\u00e1mu, m\u00e9 vol\u00e1n\u00ed proniklo a\u017e k jeho sluchu. "
        },
        {
            "chapter": 22,
            "verse": 8,
            "name": "2 Samuel 22:8",
            "text": "Zachv\u011bla se zem\u011b, rozt\u0159\u00e1sla se, nebesa v z\u00e1kladech se hnula, chv\u011bla se p\u0159ed jeho plamenn\u00fdm hn\u011bvem. "
        },
        {
            "chapter": 22,
            "verse": 9,
            "name": "2 Samuel 22:9",
            "text": "Z ch\u0159\u00edp\u00ed se mu valil d\u00fdm, z \u00fast s\u017e\u00edraj\u00edc\u00ed ohe\u0148, planouc\u00ed \u0159e\u0159av\u00e9 uhl\u00ed. "
        },
        {
            "chapter": 22,
            "verse": 10,
            "name": "2 Samuel 22:10",
            "text": "Sklonil nebesa a sestupoval, pod nohama \u010dern\u00e9 mra\u010dno. "
        },
        {
            "chapter": 22,
            "verse": 11,
            "name": "2 Samuel 22:11",
            "text": "Na cheruba usedl a let\u011bl, uk\u00e1zal se na perut\u00edch v\u011btru. "
        },
        {
            "chapter": 22,
            "verse": 12,
            "name": "2 Samuel 22:12",
            "text": "Temno u\u010dinil st\u00e1nkem kolem sebe, v\u00ed\u0159\u00edc\u00ed vodstvo, mra\u010dna prachu. "
        },
        {
            "chapter": 22,
            "verse": 13,
            "name": "2 Samuel 22:13",
            "text": "P\u0159ed jeho jasem vzpl\u00e1lo ho\u0159\u00edc\u00ed uhl\u00ed. "
        },
        {
            "chapter": 22,
            "verse": 14,
            "name": "2 Samuel 22:14",
            "text": "Hospodin zabur\u00e1cel z nebe, Nejvy\u0161\u0161\u00ed vydal sv\u016fj hlas. "
        },
        {
            "chapter": 22,
            "verse": 15,
            "name": "2 Samuel 22:15",
            "text": "Vyslal \u0161\u00edpy a rozehnal je, blesky je uvedl v zmatek. "
        },
        {
            "chapter": 22,
            "verse": 16,
            "name": "2 Samuel 22:16",
            "text": "Tu se objevila koryta mo\u0159e, z\u00e1klady sv\u011bta se obna\u017eily, kdy\u017e Hospodin za\u00fato\u010dil, kdy\u017e zadul sv\u00fdm hn\u011bviv\u00fdm dechem. "
        },
        {
            "chapter": 22,
            "verse": 17,
            "name": "2 Samuel 22:17",
            "text": "Vzt\u00e1hl ruku z v\u00fd\u0161e, uchopil m\u011b, vyt\u00e1hl m\u011b z nesm\u00edrn\u00e9ho vodstva. "
        },
        {
            "chapter": 22,
            "verse": 18,
            "name": "2 Samuel 22:18",
            "text": "Nep\u0159\u00edteli mocn\u00e9mu m\u011b vyrval, t\u011bm, kdo nen\u00e1vid\u011bli m\u011b, kdo zdatn\u011bj\u0161\u00ed byli. "
        },
        {
            "chapter": 22,
            "verse": 19,
            "name": "2 Samuel 22:19",
            "text": "P\u0159epadli m\u011b v den m\u00fdch b\u011bd, ale Hospodin m\u011b podep\u00edral. "
        },
        {
            "chapter": 22,
            "verse": 20,
            "name": "2 Samuel 22:20",
            "text": "U\u010dinil m\u011b voln\u00fdm, ubr\u00e1nil m\u011b, proto\u017ee si m\u011b obl\u00edbil. "
        },
        {
            "chapter": 22,
            "verse": 21,
            "name": "2 Samuel 22:21",
            "text": "Hospodin mi odplatil podle m\u00e9 spravedlnosti, odm\u011bnil m\u011b podle \u010distoty m\u00fdch rukou, "
        },
        {
            "chapter": 22,
            "verse": 22,
            "name": "2 Samuel 22:22",
            "text": "nebo\u0165 jsem dbal na Hospodinovy cesty, neodvr\u00e1til jsem se sv\u00e9voln\u011b od sv\u00e9ho Boha. "
        },
        {
            "chapter": 22,
            "verse": 23,
            "name": "2 Samuel 22:23",
            "text": "V\u0161echny jeho \u0159\u00e1dy jsem m\u011bl na z\u0159eteli, neodbo\u010dil jsem od jeho na\u0159\u00edzen\u00ed. "
        },
        {
            "chapter": 22,
            "verse": 24,
            "name": "2 Samuel 22:24",
            "text": "Jemu jsem n\u00e1le\u017eel dokonale, varoval se nepravosti. "
        },
        {
            "chapter": 22,
            "verse": 25,
            "name": "2 Samuel 22:25",
            "text": "Podle m\u00e9 spravedlnosti m\u011b Hospodin odm\u011b\u0148oval, podle \u010distoty m\u00e9 tak, jak jevila se jemu. "
        },
        {
            "chapter": 22,
            "verse": 26,
            "name": "2 Samuel 22:26",
            "text": "Ty v\u011brn\u00e9mu osv\u011bd\u010duje\u0161 v\u011brnost, mu\u017ei dokonal\u00e9mu svou dokonalost, "
        },
        {
            "chapter": 22,
            "verse": 27,
            "name": "2 Samuel 22:27",
            "text": "ryz\u00edmu svou ryzost osv\u011bd\u010duje\u0161, s neup\u0159\u00edmn\u00fdm se v\u0161ak pou\u0161t\u00ed\u0161 do z\u00e1pasu. "
        },
        {
            "chapter": 22,
            "verse": 28,
            "name": "2 Samuel 22:28",
            "text": "A lid pon\u00ed\u017een\u00fd zachra\u0148uje\u0161, ale sv\u00fdm pohledem poni\u017euje\u0161 pov\u00fd\u0161en\u00e9. "
        },
        {
            "chapter": 22,
            "verse": 29,
            "name": "2 Samuel 22:29",
            "text": "Ty jsi moje sv\u011btlo, Hospodine. Hospodin mi z\u00e1\u0159\u00ed do m\u00fdch temnot. "
        },
        {
            "chapter": 22,
            "verse": 30,
            "name": "2 Samuel 22:30",
            "text": "S tebou prob\u011bhnu i nep\u0159\u00e1telskou v\u0159avou, se sv\u00fdm Bohem zdol\u00e1m hradbu, "
        },
        {
            "chapter": 22,
            "verse": 31,
            "name": "2 Samuel 22:31",
            "text": "s Bohem, jeho\u017e cesta je tak dokonal\u00e1! To, co \u0159ekne Hospodin, je prot\u0159\u00edben\u00e9. On je \u0161t\u00edtem v\u0161ech, kte\u0159\u00ed se k n\u011bmu ut\u00edkaj\u00ed. "
        },
        {
            "chapter": 22,
            "verse": 32,
            "name": "2 Samuel 22:32",
            "text": "Kdo je B\u016fh krom Hospodina, kdo je sk\u00e1la, ne-li B\u016fh n\u00e1\u0161! "
        },
        {
            "chapter": 22,
            "verse": 33,
            "name": "2 Samuel 22:33",
            "text": "B\u016fh je m\u00e1 z\u00e1\u0161tita pevn\u00e1 a vod\u00ed m\u011b cestou dokonalou, "
        },
        {
            "chapter": 22,
            "verse": 34,
            "name": "2 Samuel 22:34",
            "text": "on d\u00e1v\u00e1 m\u00fdm noh\u00e1m hbitost lan\u011b, na m\u00fdch posv\u00e1tn\u00fdch n\u00e1vr\u0161\u00edch mi dop\u0159\u00e1v\u00e1 stanout, "
        },
        {
            "chapter": 22,
            "verse": 35,
            "name": "2 Samuel 22:35",
            "text": "u\u010d\u00ed bojovat m\u00e9 ruce a m\u00e9 pa\u017ee napnout bronzov\u00fd luk. "
        },
        {
            "chapter": 22,
            "verse": 36,
            "name": "2 Samuel 22:36",
            "text": "Podal jsi mi \u0161t\u00edt sv\u00e9 sp\u00e1sy, tv\u00e1 p\u00e9\u010de m\u00e9 s\u00edly rozmno\u017eila. "
        },
        {
            "chapter": 22,
            "verse": 37,
            "name": "2 Samuel 22:37",
            "text": "Dals volnost m\u00fdm krok\u016fm, nohy se mi nepodvrtnou. "
        },
        {
            "chapter": 22,
            "verse": 38,
            "name": "2 Samuel 22:38",
            "text": "Budu st\u00edhat nep\u0159\u00e1tele, vyhlad\u00edm je. Nevr\u00e1t\u00edm se zp\u011bt, dokud je neudol\u00e1m. "
        },
        {
            "chapter": 22,
            "verse": 39,
            "name": "2 Samuel 22:39",
            "text": "Docela je rozdrt\u00edm, u\u017e nepovstanou, pod nohy mi padnou. "
        },
        {
            "chapter": 22,
            "verse": 40,
            "name": "2 Samuel 22:40",
            "text": "Op\u00e1sals m\u011b state\u010dnost\u00ed k boji; ty, kdo povst\u00e1vaj\u00ed proti mn\u011b, s\u00e1m sraz\u00ed\u0161. "
        },
        {
            "chapter": 22,
            "verse": 41,
            "name": "2 Samuel 22:41",
            "text": "Obr\u00e1til jsi na \u00fat\u011bk m\u00e9 nep\u0159\u00e1tele, nav\u017edy uml\u010d\u00edm ty, kdo m\u011b nen\u00e1vid\u00ed. "
        },
        {
            "chapter": 22,
            "verse": 42,
            "name": "2 Samuel 22:42",
            "text": "Budou volat o pomoc, a nespas\u00ed je nikdo, volat k Hospodinu, ale neodpov\u00ed. "
        },
        {
            "chapter": 22,
            "verse": 43,
            "name": "2 Samuel 22:43",
            "text": "Roztlu\u010du je, budou jako prach zem\u011b, po\u0161lapu a podupu je jako bl\u00e1to ulic. "
        },
        {
            "chapter": 22,
            "verse": 44,
            "name": "2 Samuel 22:44",
            "text": "Dals mi vyv\u00e1znout z rozbroj\u016f m\u00e9ho lidu, jako v\u016fdce pron\u00e1rod\u016f jsi m\u011b st\u0159e\u017eil. Slou\u017eit bude mi i lid, kter\u00fd jsem neznal. "
        },
        {
            "chapter": 22,
            "verse": 45,
            "name": "2 Samuel 22:45",
            "text": "Cizinci se budou vt\u00edrat do m\u00e9 p\u0159\u00edzn\u011b, na slovo m\u011b uposlechnou. "
        },
        {
            "chapter": 22,
            "verse": 46,
            "name": "2 Samuel 22:46",
            "text": "Cizinci jak tr\u00e1va zvadnou, vypot\u00e1cej\u00ed se ze sv\u00fdch hradi\u0161\u0165. "
        },
        {
            "chapter": 22,
            "verse": 47,
            "name": "2 Samuel 22:47",
            "text": "\u017div je Hospodin! Bu\u010f po\u017eehn\u00e1na moje sk\u00e1la, vyv\u00fd\u0161en bu\u010f B\u016fh, m\u00e1 sp\u00e1sn\u00e1 sk\u00e1la! "
        },
        {
            "chapter": 22,
            "verse": 48,
            "name": "2 Samuel 22:48",
            "text": "B\u016fh, jen\u017e m\u011b pov\u011b\u0159il vykon\u00e1n\u00edm pomsty, n\u00e1rody mi pod\u0159izuje. "
        },
        {
            "chapter": 22,
            "verse": 49,
            "name": "2 Samuel 22:49",
            "text": "Ty m\u011b z rukou m\u00fdch nep\u0159\u00e1tel vytrhuje\u0161, pozved\u00e1\u0161 m\u011b nad ty, kdo proti mn\u011b povst\u00e1vaj\u00ed, ty m\u011b n\u00e1siln\u00edku vyrve\u0161. "
        },
        {
            "chapter": 22,
            "verse": 50,
            "name": "2 Samuel 22:50",
            "text": "Proto ti vzd\u00e1m, Hospodine, mezi pron\u00e1rody chv\u00e1lu, budu zp\u00edvat \u017ealmy tv\u00e9mu jm\u00e9nu. "
        },
        {
            "chapter": 22,
            "verse": 51,
            "name": "2 Samuel 22:51",
            "text": "Velk\u00e1 v\u00edt\u011bzstv\u00ed dop\u0159\u00e1v\u00e1 sv\u00e9mu kr\u00e1li, prokazuje milosrdenstv\u00ed sv\u00e9mu pomazan\u00e9mu, Davidovi a jeho potomstvu, nav\u011bky.\"  "
        }
    ]
}