{
    "translation": "Almeida Atualizada",
    "abbreviation": "almeida",
    "lang": "pt",
    "language": "Portuguese",
    "direction": "LTR",
    "encoding": "UTF-8",
    "book_nr": 7,
    "book_name": "Judges",
    "chapter": 17,
    "name": "Judges 17",
    "verses": [
        {
            "chapter": 17,
            "verse": 1,
            "name": "Judges 17:1",
            "text": "Havia um homem da regi\u00e3o montanhosa de Efraim, cujo nome era Mica."
        },
        {
            "chapter": 17,
            "verse": 2,
            "name": "Judges 17:2",
            "text": "Disse este a sua m\u00e3e: As mil e cem moedas de prata que te foram tiradas, por cuja causa lan\u00e7aste maldi\u00e7\u00f5es, e acerca das quais tamb\u00e9m me falaste, eis que esse dinheiro est\u00e1 comigo, eu o tomei. Ent\u00e3o disse sua m\u00e3e: Bendito do Senhor seja meu filho!"
        },
        {
            "chapter": 17,
            "verse": 3,
            "name": "Judges 17:3",
            "text": "E ele restituiu as mil e cem moedas de prata a sua m\u00e3e; por\u00e9m ela disse: Da minha m\u00e3o dedico solenemente este dinheiro ao Senhor a favor de meu filho, para fazer uma imagem esculpida e uma de fundi\u00e7\u00e3o; de sorte que agora to tornarei a dar."
        },
        {
            "chapter": 17,
            "verse": 4,
            "name": "Judges 17:4",
            "text": "Quando ele restituiu o dinheiro a sua m\u00e3e, ela tomou duzentas moedas de prata, e as deu ao ourives, o qual fez delas uma imagem esculpida e uma de fundi\u00e7\u00e3o, as quais ficaram em casa de Mica."
        },
        {
            "chapter": 17,
            "verse": 5,
            "name": "Judges 17:5",
            "text": "Ora, tinha este homem, Mica, uma casa de deuses; e fez um \u00e9fode e terafins, e consagrou um de seus filhos, que lhe serviu de sacerdote."
        },
        {
            "chapter": 17,
            "verse": 6,
            "name": "Judges 17:6",
            "text": "Naquelas dias n\u00e3o havia rei em Israel; cada qual fazia o que parecia bem aos seus olhos."
        },
        {
            "chapter": 17,
            "verse": 7,
            "name": "Judges 17:7",
            "text": "E havia um mancebo de Bel\u00e9m de Jud\u00e1, da fam\u00edlia de Jud\u00e1, que era levita, e peregrinava ali."
        },
        {
            "chapter": 17,
            "verse": 8,
            "name": "Judges 17:8",
            "text": "Este homem partiu da cidade de Bel\u00e9m de Jud\u00e1 para peregrinar onde quer que achasse conveniente. Seguindo ele o seu caminho, chegou \u00e0 regi\u00e3o montanhosa de Efraim, \u00e0 casa de Mica,"
        },
        {
            "chapter": 17,
            "verse": 9,
            "name": "Judges 17:9",
            "text": "o qual lhe perguntou: Donde vens? E ele lhe respondeu: Sou levita de Bel\u00e9m de Jud\u00e1, e vou peregrinar onde achar conveniente."
        },
        {
            "chapter": 17,
            "verse": 10,
            "name": "Judges 17:10",
            "text": "Ent\u00e3o lhe disse Mica: Fica comigo, e s\u00ea-me por pai e sacerdote; e cada ano te darei dez moedas de prata, o vestu\u00e1rio e o sustento. E o levita entrou."
        },
        {
            "chapter": 17,
            "verse": 11,
            "name": "Judges 17:11",
            "text": "Consentiu, pois, o levita em ficar com aquele homem, e lhe foi como um de seus filhos."
        },
        {
            "chapter": 17,
            "verse": 12,
            "name": "Judges 17:12",
            "text": "E Mica consagrou o levita, e o mancebo lhe serviu de sacerdote, e ficou em sua casa."
        },
        {
            "chapter": 17,
            "verse": 13,
            "name": "Judges 17:13",
            "text": "Ent\u00e3o disse Mica: Agora sei que o Senhor me far\u00e1 bem, porquanto tenho um levita por sacerdote. "
        }
    ]
}