{
    "translation": "Giovanni Diodati Bible (1649)",
    "abbreviation": "giovanni",
    "lang": "it",
    "language": "Italian",
    "direction": "LTR",
    "encoding": "",
    "book_nr": 61,
    "book_name": "2 Peter",
    "chapter": 1,
    "name": "2 Peter 1",
    "verses": [
        {
            "chapter": 1,
            "verse": 1,
            "name": "2 Peter 1:1",
            "text": "SIMON PIETRO, servitore ed apostolo di Ges\u00f9 Cristo, a coloro che hanno ottenuta fede di pari prezzo che noi, nella giustizia dell\u2019Iddio e Salvator nostro, Ges\u00f9 Cristo;\r"
        },
        {
            "chapter": 1,
            "verse": 2,
            "name": "2 Peter 1:2",
            "text": "grazia e pace vi sia moltiplicata nella conoscenza di Dio, e di Ges\u00f9, nostro Signore.\r"
        },
        {
            "chapter": 1,
            "verse": 3,
            "name": "2 Peter 1:3",
            "text": "SICCOME la sua potenza divina ci ha donate tutte le cose, che appartengono alla vita ed alla piet\u00e0, per la conoscenza di colui che ci ha chiamati per la sua gloria e virt\u00f9;\r"
        },
        {
            "chapter": 1,
            "verse": 4,
            "name": "2 Peter 1:4",
            "text": "per le quali ci son donate le preziose e grandissime promesse; acciocch\u00e8 per esse voi siate fatti partecipi della natura divina, essendo fuggiti dalla corruzione in concupiscenza, che \u00e8 nel mondo;\r"
        },
        {
            "chapter": 1,
            "verse": 5,
            "name": "2 Peter 1:5",
            "text": "voi ancora simigliantemente, recando a questo stesso ogni studio, sopraggiungete alla fede vostra la virt\u00f9, e alla virt\u00f9 la conoscenza;\r"
        },
        {
            "chapter": 1,
            "verse": 6,
            "name": "2 Peter 1:6",
            "text": "e alla conoscenza la continenza, e alla continenza la sofferenza, e alla sofferenza la piet\u00e0;\r"
        },
        {
            "chapter": 1,
            "verse": 7,
            "name": "2 Peter 1:7",
            "text": "e alla piet\u00e0 l\u2019amor fraterno, e all\u2019amor fraterno la carit\u00e0.\r"
        },
        {
            "chapter": 1,
            "verse": 8,
            "name": "2 Peter 1:8",
            "text": "Perciocch\u00e8, se queste cose sono ed abbondano in voi, non vi renderanno oziosi, n\u00e8 sterili nella conoscenza del Signor nostro Ges\u00f9 Cristo.\r"
        },
        {
            "chapter": 1,
            "verse": 9,
            "name": "2 Peter 1:9",
            "text": "Poich\u00e8 colui nel quale queste cose non sono, \u00e8 cieco, di corta vista, avendo dimenticato il purgamento de\u2019 suoi vecchi peccati.\r"
        },
        {
            "chapter": 1,
            "verse": 10,
            "name": "2 Peter 1:10",
            "text": "Perci\u00f2, fratelli, vie pi\u00f9 studiatevi di render ferma la vostra vocazione ed elezione; perciocch\u00e8, facendo queste cose, non v\u2019intopperete giammai.\r"
        },
        {
            "chapter": 1,
            "verse": 11,
            "name": "2 Peter 1:11",
            "text": "Imperocch\u00e8 cos\u00ec vi sar\u00e0 copiosamente porta l\u2019entrata all\u2019eterno regno del Signor nostro Ges\u00f9 Cristo.\r"
        },
        {
            "chapter": 1,
            "verse": 12,
            "name": "2 Peter 1:12",
            "text": "Perci\u00f2 io non trascurer\u00f2 di rammemorarvi del continuo queste cose; bench\u00e8 siate gi\u00e0 intendenti, e confermati nella presente verit\u00e0.\r"
        },
        {
            "chapter": 1,
            "verse": 13,
            "name": "2 Peter 1:13",
            "text": "Or io stimo esser cosa ragionevole, che, mentre io sono in questa tenda, io vi risvegli per ricordo;\r"
        },
        {
            "chapter": 1,
            "verse": 14,
            "name": "2 Peter 1:14",
            "text": "sapendo che fra poco la mia tenda ha da essere posta gi\u00f9; siccome ancora il Signor nostro Ges\u00f9 Cristo me l\u2019ha dichiarato.\r"
        },
        {
            "chapter": 1,
            "verse": 15,
            "name": "2 Peter 1:15",
            "text": "Ma io mi studier\u00f2 che ancora, dopo la mia partenza, abbiate il modo di rammemorarvi frequentemente queste cose.\r"
        },
        {
            "chapter": 1,
            "verse": 16,
            "name": "2 Peter 1:16",
            "text": "Poich\u00e8 non vi abbiamo data a conoscer la potenza e l\u2019avvenimento del Signor nostro Ges\u00f9 Cristo, andando dietro a favole artificiosamente composte; ma essendo stati spettatori della maest\u00e0 di esso.\r"
        },
        {
            "chapter": 1,
            "verse": 17,
            "name": "2 Peter 1:17",
            "text": "Perciocch\u00e8 egli ricevette da Dio Padre onore e gloria, essendogli recata una cotal voce dalla magnifica gloria: Questi \u00e8 il mio diletto Figliuolo, nel quale io ho preso il mio compiacimento.\r"
        },
        {
            "chapter": 1,
            "verse": 18,
            "name": "2 Peter 1:18",
            "text": "E noi udimmo questa voce recata dal cielo, essendo con lui sul monte santo.\r"
        },
        {
            "chapter": 1,
            "verse": 19,
            "name": "2 Peter 1:19",
            "text": "Noi abbiamo ancora la parola profetica pi\u00f9 ferma, alla quale fate bene di attendere, come ad una lampana rilucente in un luogo scuro, finch\u00e8 schiarisca il giorno, e che la stella mattutina sorga ne\u2019 cuori vostri;\r"
        },
        {
            "chapter": 1,
            "verse": 20,
            "name": "2 Peter 1:20",
            "text": "sapendo questo imprima, che alcuna profezia della scrittura non \u00e8 di particolare interpretazione.\r"
        },
        {
            "chapter": 1,
            "verse": 21,
            "name": "2 Peter 1:21",
            "text": "Perciocch\u00e8 la profezia non fu gi\u00e0 recata per volont\u00e0 umana; ma i santi uomini di Dio hanno parlato, essendo sospinti dallo Spirito Santo.\r"
        }
    ]
}