{
    "translation": "Old Public Domain Pohnpeian Bible",
    "abbreviation": "pohnold",
    "lang": "pon",
    "language": "Pohnpeian",
    "direction": "LTR",
    "encoding": "UTF-8",
    "book_nr": 3,
    "book_name": "Leviticus",
    "chapter": 27,
    "name": "Leviticus 27",
    "verses": [
        {
            "chapter": 27,
            "verse": 1,
            "name": "Leviticus 27:1",
            "text": ""
        },
        {
            "chapter": 27,
            "verse": 2,
            "name": "Leviticus 27:2",
            "text": ""
        },
        {
            "chapter": 27,
            "verse": 3,
            "name": "Leviticus 27:3",
            "text": ""
        },
        {
            "chapter": 27,
            "verse": 4,
            "name": "Leviticus 27:4",
            "text": ""
        },
        {
            "chapter": 27,
            "verse": 5,
            "name": "Leviticus 27:5",
            "text": ""
        },
        {
            "chapter": 27,
            "verse": 6,
            "name": "Leviticus 27:6",
            "text": ""
        },
        {
            "chapter": 27,
            "verse": 7,
            "name": "Leviticus 27:7",
            "text": ""
        },
        {
            "chapter": 27,
            "verse": 8,
            "name": "Leviticus 27:8",
            "text": ""
        },
        {
            "chapter": 27,
            "verse": 9,
            "name": "Leviticus 27:9",
            "text": ""
        },
        {
            "chapter": 27,
            "verse": 10,
            "name": "Leviticus 27:10",
            "text": ""
        },
        {
            "chapter": 27,
            "verse": 11,
            "name": "Leviticus 27:11",
            "text": ""
        },
        {
            "chapter": 27,
            "verse": 12,
            "name": "Leviticus 27:12",
            "text": ""
        },
        {
            "chapter": 27,
            "verse": 13,
            "name": "Leviticus 27:13",
            "text": ""
        },
        {
            "chapter": 27,
            "verse": 14,
            "name": "Leviticus 27:14",
            "text": ""
        },
        {
            "chapter": 27,
            "verse": 15,
            "name": "Leviticus 27:15",
            "text": ""
        },
        {
            "chapter": 27,
            "verse": 16,
            "name": "Leviticus 27:16",
            "text": ""
        },
        {
            "chapter": 27,
            "verse": 17,
            "name": "Leviticus 27:17",
            "text": ""
        },
        {
            "chapter": 27,
            "verse": 18,
            "name": "Leviticus 27:18",
            "text": ""
        },
        {
            "chapter": 27,
            "verse": 19,
            "name": "Leviticus 27:19",
            "text": ""
        },
        {
            "chapter": 27,
            "verse": 20,
            "name": "Leviticus 27:20",
            "text": ""
        },
        {
            "chapter": 27,
            "verse": 21,
            "name": "Leviticus 27:21",
            "text": ""
        },
        {
            "chapter": 27,
            "verse": 22,
            "name": "Leviticus 27:22",
            "text": ""
        },
        {
            "chapter": 27,
            "verse": 23,
            "name": "Leviticus 27:23",
            "text": ""
        },
        {
            "chapter": 27,
            "verse": 24,
            "name": "Leviticus 27:24",
            "text": ""
        },
        {
            "chapter": 27,
            "verse": 25,
            "name": "Leviticus 27:25",
            "text": ""
        },
        {
            "chapter": 27,
            "verse": 26,
            "name": "Leviticus 27:26",
            "text": ""
        },
        {
            "chapter": 27,
            "verse": 27,
            "name": "Leviticus 27:27",
            "text": ""
        },
        {
            "chapter": 27,
            "verse": 28,
            "name": "Leviticus 27:28",
            "text": ""
        },
        {
            "chapter": 27,
            "verse": 29,
            "name": "Leviticus 27:29",
            "text": ""
        },
        {
            "chapter": 27,
            "verse": 30,
            "name": "Leviticus 27:30",
            "text": ""
        },
        {
            "chapter": 27,
            "verse": 31,
            "name": "Leviticus 27:31",
            "text": ""
        },
        {
            "chapter": 27,
            "verse": 32,
            "name": "Leviticus 27:32",
            "text": ""
        },
        {
            "chapter": 27,
            "verse": 33,
            "name": "Leviticus 27:33",
            "text": ""
        },
        {
            "chapter": 27,
            "verse": 34,
            "name": "Leviticus 27:34",
            "text": ""
        }
    ]
}