{
    "translation": "Old Public Domain Pohnpeian Bible",
    "abbreviation": "pohnold",
    "lang": "pon",
    "language": "Pohnpeian",
    "direction": "LTR",
    "encoding": "UTF-8",
    "book_nr": 58,
    "book_name": "Hebrews",
    "chapter": 6,
    "name": "Hebrews 6",
    "verses": [
        {
            "chapter": 6,
            "verse": 1,
            "name": "Hebrews 6:1",
            "text": "I me kitail pan muei sang tapin padak en Kristus, ap kakairida o unsokela, a kaidin pur ong wia pason ni at kalukila wiawia en mela kan, de poson Kot,"
        },
        {
            "chapter": 6,
            "verse": 2,
            "name": "Hebrews 6:2",
            "text": "De padak duen paptais, o pokada pa kan poa, o duen en me melar akan ar pan maureda, o duen kadeik soutuk."
        },
        {
            "chapter": 6,
            "verse": 3,
            "name": "Hebrews 6:3",
            "text": "A i me kitail pan wiada, ma Kot pan kotin mueid ong."
        },
        {
            "chapter": 6,
            "verse": 4,
            "name": "Hebrews 6:4",
            "text": "Pwe a so kak pa \u2019rail, me marainlar, o me wewekier kisakis sang lang, o audaudkier Ngen saraui,"
        },
        {
            "chapter": 6,
            "verse": 5,
            "name": "Hebrews 6:5",
            "text": "O lolekong kilar masan en Kot mau, o manaman en muei mau kokodo,"
        },
        {
            "chapter": 6,
            "verse": 6,
            "name": "Hebrews 6:6",
            "text": "Ma irail pan pup wei sang, re solar pan kak pur ong kalula, pwe irail pein kalopuela Sapwilim en Kot o kanamenokalar i."
        },
        {
            "chapter": 6,
            "verse": 7,
            "name": "Hebrews 6:7",
            "text": "Pwe sap me lamelamur ki katau, me kin purepure moredi ong, o me kawosadang irail, me kin wia sapasap kapwa mau, iei sap o me kin ale pai ren Kot."
        },
        {
            "chapter": 6,
            "verse": 8,
            "name": "Hebrews 6:8",
            "text": "A ma a kin kawosada tuka teketek o dip, iei me sued o mau ong kariala o ni imwi a pan karongala."
        },
        {
            "chapter": 6,
            "verse": 9,
            "name": "Hebrews 6:9",
            "text": "A kompoke pat akan, se asa, me komail sota kin duota ni meakan me kareda maur, ari so, iduen at kin padapadak."
        },
        {
            "chapter": 6,
            "verse": 10,
            "name": "Hebrews 6:10",
            "text": "Pwe Kot sota sapung, o a sota kak maliela omail wiawia kan o omail dodok limpok, me komail kasansale ong mar a ni omail papaer me saraui kan, o ni omail kin papa."
        },
        {
            "chapter": 6,
            "verse": 11,
            "name": "Hebrews 6:11",
            "text": "A kit kin inong iong, amen amen komail en nantiong duedueta kasansaleda kaporo por melel lao lel imwi."
        },
        {
            "chapter": 6,
            "verse": 12,
            "name": "Hebrews 6:12",
            "text": "Pwe komail der tangangala, a komail alale sang irail, me poson o kanongama ap sosoki inau kan."
        },
        {
            "chapter": 6,
            "verse": 13,
            "name": "Hebrews 6:13",
            "text": "Pwe ni en Kot a kotin inauki ong Apraam, a kotin kaukila pein i, pwe sota me lap sang en kau kila,"
        },
        {
            "chapter": 6,
            "verse": 14,
            "name": "Hebrews 6:14",
            "text": "Masani: Melel I pan kapai uk ala o kangeder uk ala."
        },
        {
            "chapter": 6,
            "verse": 15,
            "name": "Hebrews 6:15",
            "text": "I ari auiauieta ni kanongama ap pwaida inau o."
        },
        {
            "chapter": 6,
            "verse": 16,
            "name": "Hebrews 6:16",
            "text": "Pwe aramas akan kin kaukila me lapa sang ir, o kaula kin kaimwisokala akamai karos."
        },
        {
            "chapter": 6,
            "verse": 17,
            "name": "Hebrews 6:17",
            "text": "I me Kot pil kotin kaukila, pwen kasale ong irail, me pan sosoki pai en a inau o, me a inau sota kak wukila."
        },
        {
            "chapter": 6,
            "verse": 18,
            "name": "Hebrews 6:18",
            "text": "Pwe song riau me so kak wuk, pwe Kot sota kak likam, en kamait kit ala melel, pwe kitail en tang wong kaporopor, me mi mo atail."
        },
        {
            "chapter": 6,
            "verse": 19,
            "name": "Hebrews 6:19",
            "text": "Kaporopor wet me rasong paipong en ngen atail, me melel o teng, me kak lel wong nan pera saraui."
        },
        {
            "chapter": 6,
            "verse": 20,
            "name": "Hebrews 6:20",
            "text": "Iei wasa atail saunkair kotila ia pweki kitail, Iesus, me wiala samero lapalap ni al en Melkisedek kokolata."
        }
    ]
}