{
    "translation": "Sahidica - A New Edition of the New Testament in Sahidic Coptic",
    "abbreviation": "copsahidica",
    "lang": "cop",
    "language": "Coptic",
    "direction": "LTR",
    "encoding": "UTF-8",
    "book_nr": 54,
    "book_name": "1 Timothy",
    "chapter": 5,
    "name": "1 Timothy 5",
    "verses": [
        {
            "chapter": 5,
            "verse": 1,
            "name": "1 Timothy 5:1",
            "text": " \u2c9b\u03e9\u2c97\u2c97\u2c9f \u2c99\u2ca1\u2ca3\u2c9b\u2c9f\u03e3\u2ca5\u2c9f\u2ca9. \u2c81\u2c97\u2c97\u2c81 \u2ca1\u2c81\u2ca3\u2c81\u2c95\u2c81\u2c97\u2c89\u2c93 \u2c99\u2c99\u2c9f\u2c9f\u2ca9 \u03e9\u2cb1\u2ca5 \u2c89\u2c93\u2cb1\u2ca7 \u2c9b\u03e3\u2c8f\u2ca3\u2c89 \u03e3\u2c8f\u2c99 \u03e9\u2cb1\u2ca5 \u2ca5\u2c9f\u2c9b."
        },
        {
            "chapter": 5,
            "verse": 2,
            "name": "1 Timothy 5:2",
            "text": "\u2c9b\u2c9b\u2c9f\u03ed \u2c9b\u2ca5\u03e9\u2c93\u2c99\u2c89 \u03e9\u2cb1\u2ca5 \u2c99\u2c81\u2c81\u2ca9. \u2c9b\u03e3\u2c89\u2c89\u2ca3\u2c89 \u03e3\u2c8f\u2c99 \u03e9\u2cb1\u2ca5 \u2ca5\u2cb1\u2c9b\u2c89. \u03e9\u2c9b \u2ca7\u2c83\u2c83\u2c9f \u2c9b\u2c93\u2c99. "
        },
        {
            "chapter": 5,
            "verse": 3,
            "name": "1 Timothy 5:3",
            "text": " \u2ca7\u2c81\u2c93\u2c89 \u2c9b\u2c89\u2cad\u2c8f\u2ca3\u2c81. \u2c9b\u2c89\u2cad\u2c8f\u2ca3\u2c81 \u2c9b\u2c81\u2c99\u2c89."
        },
        {
            "chapter": 5,
            "verse": 4,
            "name": "1 Timothy 5:4",
            "text": "\u2c89\u03e3\u2cb1\u2ca1\u2c89 \u2c87\u2c89 \u2c9f\u2ca9\u2cad\u2c8f\u2ca3\u2c81 \u2c89\u2ca9\u2c9b\u2ca7\u2ca5 \u03e3\u2c8f\u2ca3\u2c89 \u2c8f\u03e3\u2c8f\u2ca3\u2c89 \u2c9b\u03e3\u2c8f\u2ca3\u2c89 \u2c99\u2c81\u2ca3\u2c9f\u2ca9\u03eb\u2c93\u2ca5\u2c83\u2cb1 \u2c9b\u03e3\u2c9f\u2ca3\u2ca1 \u2c89\u03e3\u2c99\u03e3\u2c89 \u2ca1\u2c89\u2ca9\u2c8f\u2c89\u2c93 \u2c81\u2ca9\u2cb1 \u2c89\u2ca7\u2cb1\u2cb1\u2c83\u2c89 \u2c9b\u2c9f\u2ca9\u2ca7\u2c9f\u2ca9\u2c89\u2c93\u2c9f \u2c9b\u2c9b\u2c89\u2ca9\u2c89\u2c93\u2c9f\u2ca7\u2c89 \u2ca1\u2c81\u2c93 \u2c85\u2c81\u2ca3 \u2ca1\u2c89\u2ca7\u2c9b\u2c81\u2c9b\u2c9f\u2ca9\u03e5 \u2c81\u2ca9\u2cb1 \u2c89\u2ca7\u03e3\u2c8f\u2ca1 \u2c99\u2ca1\u2c89\u2c99\u2ca7\u2c9f \u2c89\u2c83\u2c9f\u2c97 \u2c99\u2ca1\u2c9b\u2c9f\u2ca9\u2ca7\u2c89."
        },
        {
            "chapter": 5,
            "verse": 5,
            "name": "1 Timothy 5:5",
            "text": "\u2ca7\u2c89\u2cad\u2c8f\u2ca3\u2c81 \u2c87\u2c89 \u2c9b\u2c81\u2c99\u2c89 \u2c81\u2ca9\u2cb1 \u2c89\u2ca7\u03ed\u2c89\u2c89\u2ca7 \u2c9f\u2ca9\u2c81\u2c81\u2ca7\u2ca5 \u2c89\u2ca5\u03e9\u2c89\u2c97\u2ca1\u2c93\u2c8d\u2c89 \u2c89\u2ca1\u2c9b\u2c9f\u2ca9\u2ca7\u2c89. \u2c81\u2ca9\u2cb1 \u2c89\u2ca5\u2c99\u2c8f\u2c9b \u2c89\u2c83\u2c9f\u2c97 \u03e9\u2c9b \u2c9b\u2ca5\u2c9f\u2ca1\u2ca5 \u2c99\u2c9b \u2c9b\u2c89\u03e3\u2c97\u2c8f\u2c97 \u2c9b\u2ca7\u2c89\u2ca9\u03e3\u2c8f \u2c99\u2c9b \u2ca1\u2c89\u03e9\u2c9f\u2c9f\u2ca9."
        },
        {
            "chapter": 5,
            "verse": 6,
            "name": "1 Timothy 5:6",
            "text": "\u2ca7\u2c89\u2ca7\u2ca5\u2ca1\u2c81\u2ca7\u2c81\u2c97\u2c81 \u2c87\u2c89 \u2c81\u2ca5\u2c99\u2c9f\u2ca9 \u2c89\u2ca5\u2c9f\u2c9b\u03e9."
        },
        {
            "chapter": 5,
            "verse": 7,
            "name": "1 Timothy 5:7",
            "text": "\u2ca1\u2c81\u2ca3\u2c81\u2c85\u2c85\u2c93\u2c97\u2c89 \u2c9b\u2c9b\u2c81\u2c93 \u03eb\u2c89 \u2c9b\u2c9b\u2c89\u2ca9\u2ca7\u2c81\u03e9\u2c9f\u2c9f\u2ca9 \u03e9\u2c9b \u2c97\u2c81\u2c81\u2ca9"
        },
        {
            "chapter": 5,
            "verse": 8,
            "name": "1 Timothy 5:8",
            "text": "\u2c89\u03e3\u03eb\u2c89 \u2c9f\u2ca9\u2c9b \u2c9f\u2ca9\u2c81 \u2c87\u2c89 \u2c89\u2c9b\u03e5\u03e5\u2c93 \u2c81\u2c9b \u2c99\u2ca1\u2ca3\u2c9f\u2c9f\u2ca9\u03e3 \u2c9b\u2c9b\u2c89\u2ca7\u2c89\u2c9b\u2c9f\u2ca9\u03e5 \u2c9b\u2c89. \u2c99\u2c81\u2c97\u2c93\u2ca5\u2ca7\u2c81 \u2c9b\u2c81 \u2ca1\u2c89\u03e5\u2c8f\u2c89\u2c93. \u2c81\u03e5\u2c81\u2ca3\u2c9b\u2c81 \u2c9b\u2ca7\u2ca1\u2c93\u2ca5\u2ca7\u2c93\u2ca5 \u2c81\u2ca9\u2cb1 \u03e5\u03e9\u2c9f\u2c9f\u2ca9 \u2c89\u2ca9\u2c81\u2ca1\u2c93\u2ca5\u2ca7\u2c9f\u2ca5."
        },
        {
            "chapter": 5,
            "verse": 9,
            "name": "1 Timothy 5:9",
            "text": "\u2ca7\u2c89\u2cad\u2c8f\u2ca3\u2c81 \u2c99\u2c81\u2ca3\u2c9f\u2ca9\u2c9f\u2ca1\u2ca5 \u2c89\u2c9b\u2ca5\u2c99\u2ca1\u2c89\u2ca5\u2c8f\u2ca7 \u2c81\u2c9b \u2c9b\u2ca5\u2c89 \u2c9b\u2ca3\u2c9f\u2c99\u2ca1\u2c89 \u2c89\u2c81\u2ca5\u03e9\u2c99\u2c9f\u2c9f\u2ca5 \u2c99\u2c9b \u2c9f\u2ca9\u03e9\u2c81\u2c93 \u2c9b\u2c9f\u2ca9\u2cb1\u2ca7"
        },
        {
            "chapter": 5,
            "verse": 10,
            "name": "1 Timothy 5:10",
            "text": "\u2c89\u2ca9\u2ca3\u2c99\u2c9b\u2ca7\u2ca3\u2c89 \u03e9\u2c81\u2ca3\u2c9f\u2ca5 \u03e9\u2c9b \u03e9\u2c89\u2c9b\u03e9\u2c83\u2c8f\u2ca9\u2c89 \u2c89\u2c9b\u2c81\u2c9b\u2c9f\u2ca9\u2c9f\u2ca9 \u03eb\u2c89 \u2c9b\u2c81\u2ca5\u2ca5\u2c81\u2c9b\u03e3 \u2c9b\u2c89\u2ca5\u03e3\u2c8f\u2ca3\u2c89 \u03eb\u2c89 \u2c9b\u2c81\u2ca5\u03e3\u2ca1 \u03e3\u2c99\u2c99\u2c9f \u2c89\u2ca3\u2c9f\u2ca5 \u03eb\u2c89 \u2c9b\u2c81\u2ca5\u2c89\u2c93\u2c81 \u2c9b\u2c9b\u2c9f\u2ca9\u2c89\u2ca3\u2c8f \u2ca7\u2c89 \u2c9b\u2c9b\u2c89\u2ca7\u2c9f\u2ca9\u2c81\u2c81\u2c83 \u03eb\u2c89 \u2c9b\u2c81\u2ca5\u2ca3\u2cb1\u03e3\u2c89 \u2c89\u2c9b\u2c89\u2ca7\u2c91\u2c97\u2c93\u2c83\u2c89 \u03eb\u2c89 \u2c9b\u2c81\u2ca5\u2c9f\u2ca9\u2c81\u03e9\u2ca5 \u2c9b\u2ca5\u2c81 \u03e9\u2cb1\u2c83 \u2c9b\u2c93\u2c99 \u2c89\u2ca7\u2c9b\u2c81\u2c9b\u2c9f\u2ca9\u2c9f\u2ca9."
        },
        {
            "chapter": 5,
            "verse": 11,
            "name": "1 Timothy 5:11",
            "text": "\u2c9b\u03e3\u2c89\u2c89\u2ca3\u2c89 \u2c87\u2c89 \u03e3\u2c8f\u2c99 \u2c9b\u2cad\u2c8f\u2ca3\u2c81 \u2ca1\u2c81\u2ca3\u2c81\u2c93\u2ca7\u2c93 \u2c99\u2c99\u2c9f\u2c9f\u2ca9 \u03e9\u2c9f\u2ca7\u2c81\u2c9b \u2c85\u2c81\u2ca3 \u2c89\u2ca9\u03e3\u2c81\u2c9b\u03eb\u2c8f\u2ca3 \u2c89\u03eb\u2c99 \u2ca1\u2c89\u2cad\u2ca3\u2c93\u2ca5\u2ca7\u2c9f\u2ca5 \u03e3\u2c81\u2ca9\u2c9f\u2ca9\u2c89\u03e3\u03eb\u2c93\u03e9\u2c81\u2c93."
        },
        {
            "chapter": 5,
            "verse": 12,
            "name": "1 Timothy 5:12",
            "text": "\u2c89\u2ca9\u2c9b\u2ca7\u2c81\u2ca9 \u2c99\u2c99\u2c81\u2ca9 \u2c9b\u2c9f\u2ca9\u03e9\u2c81\u2ca1 \u03eb\u2c89 \u2c81\u2ca9\u2c95\u2c81\u2ca7\u2c81\u2cab\u2ca3\u2c9f\u2c9b\u2c93 \u2c9b\u2ca7\u03e3\u2c9f\u2ca3\u2ca1 \u2c99\u2ca1\u2c93\u2ca5\u2ca7\u2c93\u2ca5."
        },
        {
            "chapter": 5,
            "verse": 13,
            "name": "1 Timothy 5:13",
            "text": "\u03e9\u2c81\u2c99\u2c81 \u2c87\u2c89 \u2ca5\u2c89\u03eb\u2c93\u2ca5\u2c83\u2cb1 \u2c89\u2ca3\u2c81\u2ca3\u2c85\u2c9f\u2ca5. \u2c89\u2ca9\u2c95\u2cb1\u2ca7\u2c89 \u2c89\u2c9b\u2c8f\u2c89\u2c93. \u2c9f\u2ca9 \u2c99\u2c9f\u2c9b\u2c9f\u2c9b \u2c87\u2c89 \u2c89\u2ca9\u2c9f \u2c9b\u2c81\u2ca3\u2c85\u2c9f\u2ca5. \u2c81\u2c97\u2c97\u2c81 \u2c9b\u2c95\u2c89\u03e3\u2c9f\u2ca9\u03e3\u2c9f. \u2c81\u2ca9\u2cb1 \u2c9b\u2ca3\u2c89\u03e5\u2ca7\u2cb1\u03e9 \u2c89\u2ca9\u03eb\u2cb1 \u2c9b\u2c9b\u2c89\u2ca7\u2c89\u2c99\u2c89\u03e3\u03e3\u2c89."
        },
        {
            "chapter": 5,
            "verse": 14,
            "name": "1 Timothy 5:14",
            "text": "\u03ef\u2c9f\u2ca9\u2cb1\u03e3 \u03ed\u2c89 \u2c89\u2ca7\u2ca3\u2c89 \u2c9b\u03e3\u2c89\u2c89\u2ca3\u2c89 \u03e3\u2c8f\u2c99 \u03eb\u2c93\u03e9\u2c81\u2c93 \u2c89\u03eb\u2ca1\u2c89 \u03e3\u2c8f\u2ca3\u2c89. \u2c89\u2ca3\u03eb\u2c9f\u2c89\u2c93\u2ca5 \u2c89\u2ca1\u2c89\u2ca9\u2c8f\u2c93. \u2c89\u2ca7\u2c99\u03ef \u2c97\u2c81\u2c81\u2ca9 \u2c9b\u2c81\u2cab\u2c9f\u2ca3\u2c99\u2c8f \u2c99\u2ca1\u2c89\u2ca7\u03ef \u2c9f\u2ca9\u2c83\u2c8f\u2c9b \u2c89\u2ca7\u2ca3\u2c89\u2ca9\u2ca5\u2c81\u03e9\u2c9f\u2ca9 \u2c99\u2c99\u2c9f\u2c9b."
        },
        {
            "chapter": 5,
            "verse": 15,
            "name": "1 Timothy 5:15",
            "text": "\u2c81\u03e9\u2c9f\u2c93\u2c9b\u2c89 \u2c85\u2c81\u2ca3 \u03eb\u2c93\u2c9b \u2ca7\u2c89\u2c9b\u2c9f\u2ca9 \u2c9f\u2ca9\u2c81\u03e9\u2c9f\u2ca9 \u03e9\u2c93\u2ca1\u2c81\u03e9\u2c9f\u2ca9 \u2c99\u2ca1\u2ca5\u2c81\u2ca7\u2c81\u2c9b\u2c81\u2ca5."
        },
        {
            "chapter": 5,
            "verse": 16,
            "name": "1 Timothy 5:16",
            "text": "\u2c89\u03e3\u2cb1\u2ca1\u2c89 \u2c9f\u2ca9\u2ca1\u2c93\u2ca5\u2ca7\u2c8f \u2c89\u2c9f\u2ca9\u2c9b\u2ca7\u2ca5 \u2c9f\u2ca9\u2cad\u2c8f\u2ca3\u2c81 \u2c99\u2c81\u2ca3\u2c89\u2ca5\u2ca3\u2cb1\u03e3\u2c89 \u2c89\u2ca3\u2c9f\u2ca5. \u2c81\u2ca9\u2cb1 \u2c99\u2ca1\u2ca3\u2ca7\u2ca3\u2c89\u2ca9\u03e9\u2ca3\u2c9f\u03e3 \u2c89\u2ca7\u2c89\u2c95\u2c95\u2c97\u2c8f\u2ca5\u2c93\u2c81. \u03eb\u2c89 \u2c89\u2ca5\u2c89\u2ca3\u2cb1\u03e3\u2c89 \u2c89\u2c9b\u2c89\u2cad\u2c8f\u2ca3\u2c81 \u2c9b\u2c81\u2c99\u2c89. "
        },
        {
            "chapter": 5,
            "verse": 17,
            "name": "1 Timothy 5:17",
            "text": " \u2c9b\u2c89\u2ca1\u2ca3\u2c89\u2ca5\u2c83\u2ca9\u2ca7\u2c89\u2ca3\u2c9f\u2ca5 \u2c89\u2ca7\u2ca1\u2ca3\u2c9f\u03e9\u2c93\u2ca5\u2ca7\u2c81 \u2c95\u2c81\u2c97\u2cb1\u2ca5 \u2c99\u2c81\u2ca3\u2c9f\u2ca9\u2ca7\u2c81\u2c89\u2c93\u2c9f\u2c9f\u2ca9 \u2c9b\u2c9f\u2ca9\u2ca7\u2c81\u2c89\u2c93\u2c9f \u2c89\u03e5\u2c95\u2c8f\u2c83. \u2c9b\u03e9\u2c9f\u2ca9\u2c9f \u2c87\u2c89 \u2c9b\u2c89\u2ca7\u03e9\u2c9f\u2ca5\u2c89 \u03e9\u2c99 \u2ca1\u03e3\u2c81\u03eb\u2c89 \u2c99\u2c9b \u2ca7\u2c89\u2ca5\u2c83\u2cb1."
        },
        {
            "chapter": 5,
            "verse": 18,
            "name": "1 Timothy 5:18",
            "text": "\u2ca1\u2c89\u03eb\u2c81\u2ca5 \u2c85\u2c81\u2ca3 \u2c9b\u03ed\u2c93 \u2ca7\u2c89\u2c85\u2ca3\u2c81\u2cab\u2c8f \u03eb\u2c89 \u2c9b\u2c9b\u2c89\u2c95\u03e3\u2ca7\u2c83 \u2c9f\u2ca9\u2c99\u2c81\u2ca5\u2c89 \u2c89\u03e5\u03e9\u2c89\u2c93. \u2c81\u2ca9\u2cb1 \u03eb\u2c89 \u2ca1\u2c89\u2ca3\u2c85\u2c81\u2ca7\u2c8f\u2ca5 \u2c99\u2ca1\u03e3\u2c81 \u2c99\u2ca1\u2c89\u03e5\u2c83\u2c89\u2c95\u2c89."
        },
        {
            "chapter": 5,
            "verse": 19,
            "name": "1 Timothy 5:19",
            "text": "\u2c99\u2ca1\u2ca3\u03eb\u2c93 \u2c95\u2c81\u2ca7\u2c8f\u2c85\u2c9f\u2ca3\u2c93\u2c81 \u2c89\u03e9\u2c9f\u2ca9\u2c9b \u2c89\u2ca9\u2ca1\u2ca3\u2c89\u2ca5\u2c83\u2ca9\u2ca7\u2c89\u2ca3\u2c9f\u2ca5 \u03e9\u2c93\u2c83\u2c9f\u2c97 \u2c89\u2c93\u2c99\u2c8f\u2ca7\u2c93 \u03e9\u2c93\u2ca7\u2c9b \u2c99\u2c9b\u2ca7\u2ca3\u2c89 \u2ca5\u2c9b\u2c81\u2ca9 \u2c8f\u03e3\u2c9f\u2c99\u2c9b\u2ca7"
        },
        {
            "chapter": 5,
            "verse": 20,
            "name": "1 Timothy 5:20",
            "text": "\u2c9b\u2c89\u2ca7\u2ca3\u2c9b\u2c9f\u2c83\u2c89 \u03eb\u2ca1\u2c93\u2c9f\u2c9f\u2ca9 \u2c99\u2ca1\u2c89\u2c99\u2ca7\u2c9f \u2c89\u2c83\u2c9f\u2c97 \u2c9b\u2c9f\u2ca9\u2c9f\u2c9b \u2c9b\u2c93\u2c99 \u03eb\u2c89\u2c95\u2c81\u2c81\u2ca5 \u2c89\u2ca3\u2c89 \u2ca1\u2c95\u2c89\u2ca5\u2c89\u2c89\u2ca1\u2c89 \u2ca3\u03e9\u2c9f\u2ca7\u2c89."
        },
        {
            "chapter": 5,
            "verse": 21,
            "name": "1 Timothy 5:21",
            "text": "\u03ef\u2ca3\u2c99\u2c9b\u2ca7\u2ca3\u2c89 \u2c99\u2ca1\u2c89\u2c99\u2ca7\u2c9f \u2c89\u2c83\u2c9f\u2c97 \u2c99\u2ca1\u2c9b\u2c9f\u2ca9\u2ca7\u2c89 \u2c99\u2c9b \u2ca1\u2c89\u2cad\u2ca3\u2c93\u2ca5\u2ca7\u2c9f\u2ca5 \u2c93\u2c8f\u2ca5\u2c9f\u2ca9\u2ca5. \u2c99\u2c9b \u2c9b\u2c81\u2c85\u2c85\u2c89\u2c97\u2c9f\u2ca5 \u2c89\u2ca7\u2ca5\u2c9f\u2ca7\u2ca1. \u03eb\u2c89 \u2c89\u2c95\u2c89\u03e9\u2c81\u2ca3\u2c89\u03e9 \u2c89\u2c9b\u2c81\u2c93 \u2c81\u03eb\u2c9b \u03e9\u2c81\u2ca1 \u2c9b\u2c85\u2ca3\u2c97\u2c81\u2c81\u2ca9 \u2c81\u2c9b \u2c95\u2c81\u2ca7\u2c81 \u2c9f\u2ca9\u03eb\u2c93\u03e9\u2c9f."
        },
        {
            "chapter": 5,
            "verse": 22,
            "name": "1 Timothy 5:22",
            "text": "\u2c99\u2ca1\u2ca3\u2ca7\u2c81\u2c97\u2c89 \u03ed\u2c93\u03eb \u2c89\u03eb\u2c9b \u2c97\u2c81\u2c81\u2ca9 \u03e9\u2c9b \u2c9f\u2ca9\u03ed\u2c89\u2ca1\u2c8f. \u2c81\u2ca9\u2cb1 \u2c99\u2ca1\u2ca3\u2c95\u2c9f\u2c93\u2c9b\u2cb1\u2c9b\u2c93 \u2c89\u03e9\u2c89\u2c9b\u2c9b\u2c9f\u2c83\u2c89 \u2c89\u2c9b\u2c9b\u2c9f\u2ca9\u2c95 \u2c81\u2c9b \u2c9b\u2c89. \u03e9\u2c81\u2ca3\u2c89\u03e9 \u2c89\u2ca3\u2c9f\u2c95 \u2c89\u2c95\u2c9f\u2ca9\u2c81\u2c81\u2c83."
        },
        {
            "chapter": 5,
            "verse": 23,
            "name": "1 Timothy 5:23",
            "text": "\u2c99\u2ca1\u2ca3\u2ca5\u2c89 \u2c99\u2c9f\u2c9f\u2ca9 \u03ed\u2c89. \u2c81\u2c97\u2c97\u2c81 \u2ca5\u2c89 \u2c9f\u2ca9\u2c95\u2c9f\u2ca9\u2c93 \u2c9b\u2c8f\u2ca3\u2ca1 \u2c89\u2ca7\u2c83\u2c89 \u2ca1\u2c89\u2c95\u2ca5\u2ca7\u2c9f\u2c99\u2c81\u2cad\u2c9f\u2ca5 \u2c99\u2c9b \u2c9b\u2c89\u2c95\u03e3\u2cb1\u2c9b\u2c89 \u2c89\u2ca7\u2c9f\u03e3. "
        },
        {
            "chapter": 5,
            "verse": 24,
            "name": "1 Timothy 5:24",
            "text": " \u2c89\u2ca9\u2c9b \u03e9\u2c89\u2c9b\u2ca3\u2cb1\u2c99\u2c89 \u2c89\u2ca3\u2c89 \u2c9b\u2c89\u2ca9\u2c9b\u2c9f\u2c83\u2c89 \u2c9f\u2ca9\u2c9f\u2c9b\u03e9 \u2c89\u2c83\u2c9f\u2c97 \u2c89\u2ca9\u03eb\u2c93\u2c99\u2c9f\u2c89\u2c93\u2ca7 \u03e9\u2c8f\u2ca7\u2c9f\u2ca9 \u2c89\u2ca7\u2c89\u2c95\u2ca3\u2c93\u2ca5\u2c93\u2ca5 \u2c9f\u2ca9\u2c9b \u03e9\u2c9f\u2c93\u2c9b\u2c89 \u2c87\u2c89 \u2c89\u2ca9\u2c9f\u2ca9\u2c8f\u03e9 \u2c9b\u2ca5\u2cb1\u2c9f\u2ca9."
        },
        {
            "chapter": 5,
            "verse": 25,
            "name": "1 Timothy 5:25",
            "text": "\u2c9b\u2ca7\u2c89\u2c93\u03e9\u2c89 \u2c9f\u2c9b \u2c9b\u2c95\u2c89\u03e9\u2c83\u2c8f\u2ca9\u2c89 \u2c89\u2ca7\u2c9b\u2c81\u2c9b\u2c9f\u2ca9\u2c9f\u2ca9 \u2c9f\u2ca9\u2c9f\u2c9b\u03e9 \u2c89\u2c83\u2c9f\u2c97. \u2c81\u2ca9\u2cb1 \u2c9b\u2c89\u2ca7\u2c9f \u2c9b\u2c95\u2c89\u2ca5\u2c99\u2c9f\u2ca7 \u2c9b\u2c81\u03e3\u03e9\u2cb1\u2ca1 \u2c81\u2c9b.   "
        }
    ]
}