{
  "translation": "Elberfelder (1871)",
  "abbreviation": "elberfelder",
  "lang": "de",
  "language": "German",
  "direction": "LTR",
  "encoding": "UTF-8",
  "nr": 33,
  "name": "Micha",
  "chapters": [
    {
      "chapter": 1,
      "name": "Micha 1",
      "verses": [
        {
          "chapter": 1,
          "verse": 1,
          "name": "Micha 1:1",
          "text": "Das Wort Jehovas, welches zu Micha, dem Moraschtiter d. h. von Morescheth (bei Gath) in Juda,  geschah in den Tagen Jothams, Ahas\u0092 und Hiskias, der K\u00f6nige von Juda, das er schaute \u00fcber Samaria und Jerusalem.\n\n"
        },
        {
          "chapter": 1,
          "verse": 2,
          "name": "Micha 1:2",
          "text": "H\u00f6ret, ihr V\u00f6lker alle, merke auf, du Erde und ihre F\u00fclle! Und der Herr, Jehova, sei zum Zeugen wider euch, der Herr aus seinem heiligen Palast!\n\n"
        },
        {
          "chapter": 1,
          "verse": 3,
          "name": "Micha 1:3",
          "text": "Denn siehe, Jehova geht aus von seiner St\u00e4tte und kommt herab und schreitet einher auf den H\u00f6hen der Erde.\n\n"
        },
        {
          "chapter": 1,
          "verse": 4,
          "name": "Micha 1:4",
          "text": "Und die Berge zerschmelzen unter ihm, und die T\u00e4ler spalten sich wie das Wachs vor dem Feuer, wie Wasser, ausgegossen am Abhange.\n\n"
        },
        {
          "chapter": 1,
          "verse": 5,
          "name": "Micha 1:5",
          "text": "Das alles wegen der \u00dcbertretung O. des Abfalls  Jakobs und wegen der S\u00fcnden des Hauses Israel. Von wem geht die \u00dcbertretung Jakobs aus? Ist es nicht Samaria? Und von wem die H\u00f6hen Eig. Wer ist die \u00dcbertretung Jakobs?\u0085 Und wer die H\u00f6hen usw.  Judas? Ist es nicht Jerusalem?\n\n"
        },
        {
          "chapter": 1,
          "verse": 6,
          "name": "Micha 1:6",
          "text": "So werde ich Samaria zu einem Steinhaufen des Feldes, zu Weinbergpflanzungen machen, und ich werde ihre Steine ins Tal hinabst\u00fcrzen und ihre Grundfesten entbl\u00f6\u00dfen.\n\n"
        },
        {
          "chapter": 1,
          "verse": 7,
          "name": "Micha 1:7",
          "text": "Und alle ihre gegossenen Bilder werden zerschlagen und alle ihre Hurengeschenke mit Feuer verbrannt werden, und ich werde alle ihre G\u00f6tzenbilder zur W\u00fcste machen; denn sie hat sie durch Hurenlohn gesammelt, und zum Hurenlohn sollen sie wieder werden.\n\n"
        },
        {
          "chapter": 1,
          "verse": 8,
          "name": "Micha 1:8",
          "text": "Darum will ich klagen und heulen, will entbl\u00f6\u00dft Eig. beraubt, gepl\u00fcndert  und nackt d. h. ohne Oberkleid  einhergehen; ich will eine Wehklage halten gleich den Schakalen, und eine Trauer gleich den Strau\u00dfen.\n\n"
        },
        {
          "chapter": 1,
          "verse": 9,
          "name": "Micha 1:9",
          "text": "Denn ihre Schl\u00e4ge sind t\u00f6dlich; denn es kommt bis Juda, es reicht bis an das Tor meines Volkes, bis an Jerusalem.\n\n"
        },
        {
          "chapter": 1,
          "verse": 10,
          "name": "Micha 1:10",
          "text": "Berichtet es nicht in Gath, weinet nur nicht Eig. weinet nicht weinend!  Zu Beth-Leaphra w\u00e4lze ich mich Nach and. Les.: w\u00e4lze dich  im Staube.\n\n"
        },
        {
          "chapter": 1,
          "verse": 11,
          "name": "Micha 1:11",
          "text": "Ziehe hin O. vor\u00fcber,  Bewohnerin von Schaphir, in schimpflicher Bl\u00f6\u00dfe; die Bewohnerin von Zaanan ist nicht ausgezogen; die Wehklage Beth-Ezels wird dessen Rastort von euch wegnehmen d. h. es euch unm\u00f6glich machen, dort zu rasten. O. das Ungl\u00fcck wird nicht bei Beth-Ezel stehen bleiben. \n\n"
        },
        {
          "chapter": 1,
          "verse": 12,
          "name": "Micha 1:12",
          "text": "Denn die Bewohnerin von Maroth zittert wegen ihrer Habe; denn von seiten Jehovas ist Ungl\u00fcck zum Tore Jerusalems herabgekommen.\n\n"
        },
        {
          "chapter": 1,
          "verse": 13,
          "name": "Micha 1:13",
          "text": "Spanne die Renner an den Wagen, Bewohnerin von Lachis! Der Anfang der S\u00fcnde war es n\u00e4ml. Lachis  f\u00fcr die Tochter Zion; denn in dir sind die \u00dcbertretungen Israels gefunden worden.\n\n"
        },
        {
          "chapter": 1,
          "verse": 14,
          "name": "Micha 1:14",
          "text": "Darum wirst du Morescheth-Gath ein Entlassungsgeschenk geben d. h. auf Morescheth-Gath verzichten m\u00fcssen.  Die H\u00e4user von Aksib werden zu einem tr\u00fcgerischen Bache f\u00fcr die K\u00f6nige von Israel.\n\n"
        },
        {
          "chapter": 1,
          "verse": 15,
          "name": "Micha 1:15",
          "text": "Noch werde ich den Besitznehmer dir bringen, Bewohnerin von Marescha. In den Versen 10-15 bilden die meisten St\u00e4dtenamen ein Wortspiel: Beth-Leaphra= Staubheim, Schaphir= Sch\u00f6nstadt, Zaanan= Auszug, Maroth= Bitterkeiten, Morescheth= Besitztum, Aksib= Trug, Marescha= Besitz  Bis Adullam werden kommen d. h. wahrsch. sich dort verbergen m\u00fcssen  die Edlen von Israel.\n\n"
        },
        {
          "chapter": 1,
          "verse": 16,
          "name": "Micha 1:16",
          "text": "Mache dich kahl und schere dich um der Kinder deiner Wonne willen, mache deine Glatze breit wie die des Geiers; denn sie sind von dir hinweggef\u00fchrt.\n\n"
        }
      ]
    },
    {
      "chapter": 2,
      "name": "Micha 2",
      "verses": [
        {
          "chapter": 2,
          "verse": 1,
          "name": "Micha 2:1",
          "text": "Wehe denen, die Unheil sinnen und B\u00f6ses vorbereiten auf ihren Lagern! Beim Morgenlicht f\u00fchren sie es aus, weil es in der Macht ihrer Hand steht.\n\n"
        },
        {
          "chapter": 2,
          "verse": 2,
          "name": "Micha 2:2",
          "text": "Und sie begehren nach \u00c4ckern und rauben sie, und nach H\u00e4usern und nehmen sie weg; und sie ver\u00fcben Gewalttat an dem Manne und seinem Hause, an dem Menschen und seinem Erbteil.\n\n"
        },
        {
          "chapter": 2,
          "verse": 3,
          "name": "Micha 2:3",
          "text": "Darum, so spricht Jehova: Siehe, ich sinne ein Ungl\u00fcck wider O. \u00fcber  dieses Geschlecht, aus dem ihr eure H\u00e4lse nicht ziehen und unter welchem ihr nicht hoch einhergehen werdet; denn es ist eine b\u00f6se Zeit.\n\n"
        },
        {
          "chapter": 2,
          "verse": 4,
          "name": "Micha 2:4",
          "text": "An jenem Tage wird man einen Spruch \u00fcber euch anheben und ein Klagelied anstimmen. Es ist geschehen! wird man sagen; wir sind g\u00e4nzlich verw\u00fcstet: das Teil meines Volkes vertauscht er; wie entzieht er es mir! Dem Abtr\u00fcnnigen verteilt er unsere Felder.\n\n"
        },
        {
          "chapter": 2,
          "verse": 5,
          "name": "Micha 2:5",
          "text": "Darum wirst du niemand haben, der in der Versammlung Jehovas die Me\u00dfschnur wirft, um ein Los zu bestimmen Eig. der\u0085 die Me\u00dfschnur als Los wirft. \n\n"
        },
        {
          "chapter": 2,
          "verse": 6,
          "name": "Micha 2:6",
          "text": "\"Weissaget Eig. Tr\u00e4ufelt Worte; so auch nachher  nicht\", weissagen sie die falschen Propheten.  Weissagt man nicht jenen d. h. den in v. 1 u. 2 angef\u00fchrten Gottlosen,  so wird die Schmach nicht weichen.\n\n"
        },
        {
          "chapter": 2,
          "verse": 7,
          "name": "Micha 2:7",
          "text": "Du, Haus Jakob genannt, ist Jehova ungeduldig? O. zornm\u00fctig  oder sind dies seine Taten? Sind meine Worte nicht g\u00fctig gegen den, der aufrichtig O. rechtschaffen  wandelt?\n\n"
        },
        {
          "chapter": 2,
          "verse": 8,
          "name": "Micha 2:8",
          "text": "Aber noch unl\u00e4ngst lehnte sich mein Volk als Feind auf: vom Oberkleide ziehet ihr den Mantel denen ab, die sorglos vor\u00fcbergehen, vom Kriege abgewandt sind;\n\n"
        },
        {
          "chapter": 2,
          "verse": 9,
          "name": "Micha 2:9",
          "text": "die Weiber meines Volkes vertreibet ihr aus dem Hause ihrer Wonne, von ihren Kindern nehmet ihr meinen Schmuck auf immer. -\n\n"
        },
        {
          "chapter": 2,
          "verse": 10,
          "name": "Micha 2:10",
          "text": "Machet euch auf und ziehet hin! denn dieses Land ist der Ruheort nicht, um der Verunreinigung willen, die Verderben bringt, und zwar gewaltiges Verderben.\n\n"
        },
        {
          "chapter": 2,
          "verse": 11,
          "name": "Micha 2:11",
          "text": "Wenn ein Mann da ist, der dem Winde nachgeht und betr\u00fcgerisch l\u00fcgt: \"Ich will dir weissagen von Wein und von starkem Getr\u00e4nk\", der wird ein Prophet dieses Volkes sein.\n\n"
        },
        {
          "chapter": 2,
          "verse": 12,
          "name": "Micha 2:12",
          "text": "Sammeln werde ich dich, Jakob, ganz sammeln; versammeln, ja, versammeln werde ich den \u00dcberrest Israels. Ich werde ihn zusammenbringen wie die Schafe von Bozra, wie eine Herde inmitten ihrer Trift; sie werden l\u00e4rmen vor Menge der Menschen.\n\n"
        },
        {
          "chapter": 2,
          "verse": 13,
          "name": "Micha 2:13",
          "text": "Der Durchbrecher zieht herauf vor ihnen her; sie brechen durch, und ziehen durch das Tor und gehen durch dasselbe hinaus; und ihr K\u00f6nig zieht vor ihnen her, und Jehova an ihrer Spitze.\n\n"
        }
      ]
    },
    {
      "chapter": 3,
      "name": "Micha 3",
      "verses": [
        {
          "chapter": 3,
          "verse": 1,
          "name": "Micha 3:1",
          "text": "Und ich sprach: H\u00f6ret doch, ihr H\u00e4upter Jakobs und ihr F\u00fcrsten des Hauses Israel: Ich es nicht an euch, das Recht zu kennen?\n\n"
        },
        {
          "chapter": 3,
          "verse": 2,
          "name": "Micha 3:2",
          "text": "Die ihr das Gute hasset und das B\u00f6se liebet; die ihr ihnen die Haut abziehet und das Fleisch von ihren Gebeinen;\n\n"
        },
        {
          "chapter": 3,
          "verse": 3,
          "name": "Micha 3:3",
          "text": "und die ihr das Fleisch meines Volkes fresset, und ihre Haut von ihnen abstreifet, und ihre Gebeine zerbrechet und zerst\u00fccket wie in einem Topfe und wie Fleisch inmitten des Kessels.\n\n"
        },
        {
          "chapter": 3,
          "verse": 4,
          "name": "Micha 3:4",
          "text": "Dann werden sie zu Jehova schreien, und er wird ihnen nicht antworten; und er wird sein Angesicht vor ihnen verbergen zu jener Zeit, gleichwie sie ihre Handlungen b\u00f6se gemacht haben.\n\n"
        },
        {
          "chapter": 3,
          "verse": 5,
          "name": "Micha 3:5",
          "text": "So spricht Jehova \u00fcber die Propheten, die mein Volk irref\u00fchren, welche mit ihren Z\u00e4hnen bei\u00dfen, und Frieden rufen d. h. welche, wenn sie etwas mit ihren Z\u00e4hnen zu bei\u00dfen haben, Frieden (od. Wohlfahrt) verk\u00fcndigen;  und wer ihnen nichts ins Maul gibt, wider den heiligen sie einen Krieg S. die Anm. zu   :\n\n"
        },
        {
          "chapter": 3,
          "verse": 6,
          "name": "Micha 3:6",
          "text": "Darum soll es euch Nacht werden, ohne Gesicht, und Finsternis werden, ohne Wahrsagung; und die Sonne wird \u00fcber den Propheten untergehen, und der Tag \u00fcber ihnen schwarz werden.\n\n"
        },
        {
          "chapter": 3,
          "verse": 7,
          "name": "Micha 3:7",
          "text": "Und die Seher werden besch\u00e4mt und die Wahrsager zu Schanden werden, und sie werden allesamt den Bart verh\u00fcllen, weil keine Antwort Gottes da ist.\n\n"
        },
        {
          "chapter": 3,
          "verse": 8,
          "name": "Micha 3:8",
          "text": "Ich hingegen, ich bin mit Kraft erf\u00fcllt durch den Geist Jehovas, und mit Recht und St\u00e4rke, um Jakob seine \u00dcbertretung O. seinen Abfall  kundzutun und Israel seine S\u00fcnde.\n\n"
        },
        {
          "chapter": 3,
          "verse": 9,
          "name": "Micha 3:9",
          "text": "H\u00f6ret doch dieses, ihr H\u00e4upter des Hauses Jakob und ihr F\u00fcrsten des Hauses Israel, die ihr das Recht verabscheuet und alles Gerade kr\u00fcmmet;\n\n"
        },
        {
          "chapter": 3,
          "verse": 10,
          "name": "Micha 3:10",
          "text": "die ihr Zion mit Blut bauet und Jerusalem mit Unrecht.\n\n"
        },
        {
          "chapter": 3,
          "verse": 11,
          "name": "Micha 3:11",
          "text": "Seine H\u00e4upter richten um Geschenke, und seine Priester lehren um Lohn, und seine Propheten wahrsagen um Geld; und sie st\u00fctzen sich auf Jehova und sagen: Ist nicht Jehova in unserer Mitte? kein Ungl\u00fcck wird \u00fcber uns kommen!\n\n"
        },
        {
          "chapter": 3,
          "verse": 12,
          "name": "Micha 3:12",
          "text": "Darum wird euretwegen Zion als Acker gepfl\u00fcgt werden, und Jerusalem wird zu Tr\u00fcmmerhaufen und der Berg des Hauses zu Waldesh\u00f6hen werden Vergl. . \n\n"
        }
      ]
    },
    {
      "chapter": 4,
      "name": "Micha 4",
      "verses": [
        {
          "chapter": 4,
          "verse": 1,
          "name": "Micha 4:1",
          "text": "Und es wird geschehen am Ende der Tage, da wird der Berg des Hauses Jehovas feststehen auf dem Gipfel der Berge und erhaben sein \u00fcber die H\u00fcgel. Und V\u00f6lker werden zu ihm str\u00f6men;\n\n"
        },
        {
          "chapter": 4,
          "verse": 2,
          "name": "Micha 4:2",
          "text": "und viele Nationen werden hingehen und sagen: Kommt und la\u00dft uns hinaufziehen zum Berge Jehovas und zum Hause des Gottes Jakobs! Und er wird uns belehren aus seinen Wegen, und wir wollen wandeln auf seinen Pfaden. Denn von Zion wird ausgehen das Gesetz O. die Lehre,  und das Wort Jehovas von Jerusalem;\n\n"
        },
        {
          "chapter": 4,
          "verse": 3,
          "name": "Micha 4:3",
          "text": "und er wird richten zwischen vielen V\u00f6lkern und Recht sprechen m\u00e4chtigen Nationen bis in die Ferne. Und sie werden ihre Schwerter zu Pflugmessern schmieden, und ihre Speere zu Winzermessern; nicht wird Nation wider Nation das Schwert erheben, und sie werden den Krieg nicht mehr lernen Vergl. . \n\n"
        },
        {
          "chapter": 4,
          "verse": 4,
          "name": "Micha 4:4",
          "text": "Und sie werden sitzen, ein jeder unter seinem Weinstock und unter seinem Feigenbaum, und niemand wird sie aufschrecken. Denn der Mund Jehovas der Heerscharen hat geredet.\n\n"
        },
        {
          "chapter": 4,
          "verse": 5,
          "name": "Micha 4:5",
          "text": "Denn alle V\u00f6lker werden wandeln, ein jedes im Namen seines Gottes; wir aber werden wandeln im Namen Jehovas, unseres Gottes, immer und ewiglich. -\n\n"
        },
        {
          "chapter": 4,
          "verse": 6,
          "name": "Micha 4:6",
          "text": "An jenem Tage, spricht Jehova Eig. ist der Spruch Jehovas; so auch \n\n,  werde ich das Hinkende sammeln und das Vertriebene zusammenbringen, und dem ich \u00dcbles getan habe.\n\n"
        },
        {
          "chapter": 4,
          "verse": 7,
          "name": "Micha 4:7",
          "text": "Und ich werde das Hinkende zu einem \u00dcberrest und das Weitentfernte zu einer gewaltigen Nation machen; und Jehova wird K\u00f6nig \u00fcber sie sein auf dem Berge Zion, von nun an bis in Ewigkeit.\n\n"
        },
        {
          "chapter": 4,
          "verse": 8,
          "name": "Micha 4:8",
          "text": "Und du Herdenturm, du H\u00fcgel der Tochter Zion, zu dir wird gelangen und zu dir wird kommen die fr\u00fchere Herrschaft, das K\u00f6nigtum der Tochter Jerusalem.\n\n"
        },
        {
          "chapter": 4,
          "verse": 9,
          "name": "Micha 4:9",
          "text": "Nun, warum erhebst du ein Geschrei? Ist kein K\u00f6nig in dir? oder ist dein Ratgeber umgekommen, da\u00df dich Wehen ergriffen haben der Geb\u00e4renden gleich?\n\n"
        },
        {
          "chapter": 4,
          "verse": 10,
          "name": "Micha 4:10",
          "text": "Krei\u00dfe und st\u00f6hne And. \u00fcb.: bringe (treibe) hervor,  Tochter Zion, gleich einer Geb\u00e4renden! denn nun wirst du aus der Stadt hinausziehen und auf dem Felde wohnen und bis nach Babel kommen. -Daselbst wirst du errettet werden, daselbst wird Jehova dich aus der Hand deiner Feinde erl\u00f6sen.\n\n"
        },
        {
          "chapter": 4,
          "verse": 11,
          "name": "Micha 4:11",
          "text": "Und nun haben sich viele Nationen wider dich versammelt, die da sprechen: Sie werde entweiht, und unsere Augen m\u00f6gen an Zion ihre Lust sehen!\n\n"
        },
        {
          "chapter": 4,
          "verse": 12,
          "name": "Micha 4:12",
          "text": "Aber sie kennen nicht die Gedanken Jehovas und verstehen nicht seinen Ratschlu\u00df; denn er hat sie gesammelt, wie man Garben auf die Tenne sammelt.\n\n"
        },
        {
          "chapter": 4,
          "verse": 13,
          "name": "Micha 4:13",
          "text": "Mache dich auf und drisch, Tochter Zion! Denn ich werde dein Horn zu Eisen und deine Hufe zu Erz machen, und du wirst viele V\u00f6lker zermalmen; und ich werde ihren Raub Eig. ihren unrechtm\u00e4\u00dfigen Gewinn  dem Jehova verbannen d. h. weihen; vergl.  usw.,  und ihr Verm\u00f6gen dem Herrn der ganzen Erde. - Nun dr\u00e4nge dich zusammen, Tochter des Gedr\u00e4nges: man hat eine Belagerung gegen uns gerichtet; mit dem Stabe schlagen sie den Richter Israels auf den Backen.\n\n"
        }
      ]
    },
    {
      "chapter": 5,
      "name": "Micha 5",
      "verses": [
        {
          "chapter": 5,
          "verse": 1,
          "name": "Micha 5:1",
          "text": "Und du, Bethlehem, Ephrata, zu klein, um unter den Tausenden von Juda zu sein, aus dir wird mir hervorkommen, der Herrscher \u00fcber Israel sein soll; und seine Ausg\u00e4nge d. h. Urspr\u00fcnge  sind von der Urzeit, von den Tagen der Ewigkeit her.\n\n"
        },
        {
          "chapter": 5,
          "verse": 2,
          "name": "Micha 5:2",
          "text": "Darum wird er sie dahingeben bis zur Zeit, da eine Geb\u00e4rende geboren hat; und der Rest seiner Br\u00fcder wird zur\u00fcckkehren samt And.: zu  den Kindern Israel.\n\n"
        },
        {
          "chapter": 5,
          "verse": 3,
          "name": "Micha 5:3",
          "text": "Und er wird dastehen O. auftreten  und seine Herde weiden in der Kraft Jehovas, in der Hoheit des Namens Jehovas, seines Gottes. Und sie werden wohnen d. h. ungest\u00f6rt in ihrem Lande bleiben;  denn nun wird er gro\u00df sein bis an die Enden der Erde.\n\n"
        },
        {
          "chapter": 5,
          "verse": 4,
          "name": "Micha 5:4",
          "text": "Und dieser wird Friede sein. Wenn Assyrien in unser Land kommen und wenn es in unsere Pal\u00e4ste treten wird, so werden wir sieben Hirten und acht Menschenf\u00fcrsten W. Eingesetzte, die Menschen sind  gegen dasselbe aufstellen.\n\n"
        },
        {
          "chapter": 5,
          "verse": 5,
          "name": "Micha 5:5",
          "text": "Und sie werden das Land Assyrien mit dem Schwerte weiden, und das Land Nimrods in seinen Toren; und er wird uns von Assyrien erretten, wenn es in unser Land kommen und wenn es in unsere Grenzen treten wird.\n\n"
        },
        {
          "chapter": 5,
          "verse": 6,
          "name": "Micha 5:6",
          "text": "Und der \u00dcberrest Jakobs wird inmitten vieler V\u00f6lker sein wie ein Tau von Jehova, wie Regenschauer auf das Kraut, der nicht auf Menschen wartet und nicht auf Menschenkinder harrt.\n\n"
        },
        {
          "chapter": 5,
          "verse": 7,
          "name": "Micha 5:7",
          "text": "Und der \u00dcberrest Jakobs wird unter den Nationen, inmitten vieler V\u00f6lker, sein wie ein L\u00f6we unter den Tieren des Waldes, wie ein junger L\u00f6we unter den Schafherden, der, wenn er hindurchgeht, zertritt und zerrei\u00dft, und niemand errettet. -\n\n"
        },
        {
          "chapter": 5,
          "verse": 8,
          "name": "Micha 5:8",
          "text": "Hoch erhoben sei deine Hand \u00fcber deine Bedr\u00e4nger, und alle deine Feinde m\u00f6gen ausgerottet werden!\n\n"
        },
        {
          "chapter": 5,
          "verse": 9,
          "name": "Micha 5:9",
          "text": "Und es wird geschehen an jenem Tage, spricht Jehova, da werde ich deine Rosse ausrotten aus deiner Mitte und deine Wagen vernichten.\n\n"
        },
        {
          "chapter": 5,
          "verse": 10,
          "name": "Micha 5:10",
          "text": "Und ich werde ausrotten die St\u00e4dte deines Landes und alle deine Festungen niederrei\u00dfen.\n\n"
        },
        {
          "chapter": 5,
          "verse": 11,
          "name": "Micha 5:11",
          "text": "Und ich werde die Wahrsagereien ausrotten aus deiner Hand, und du wirst keine Zauberer mehr haben.\n\n"
        },
        {
          "chapter": 5,
          "verse": 12,
          "name": "Micha 5:12",
          "text": "Und ich werde deine geschnitzten Bilder und deine Bilds\u00e4ulen aus deiner Mitte ausrotten, und du wirst dich nicht mehr niederwerfen vor dem Werke deiner H\u00e4nde.\n\n"
        },
        {
          "chapter": 5,
          "verse": 13,
          "name": "Micha 5:13",
          "text": "Und ich werde deine Ascherim herausrei\u00dfen aus deiner Mitte und deine St\u00e4dte vertilgen.\n\n"
        },
        {
          "chapter": 5,
          "verse": 14,
          "name": "Micha 5:14",
          "text": "Und ich werde in Zorn und in Grimm Rache \u00fcben an den Nationen, die nicht geh\u00f6rt haben.\n\n"
        },
        {
          "chapter": 5,
          "verse": 15,
          "name": "Micha 5:15",
          "text": "\n\n"
        }
      ]
    },
    {
      "chapter": 6,
      "name": "Micha 6",
      "verses": [
        {
          "chapter": 6,
          "verse": 1,
          "name": "Micha 6:1",
          "text": "H\u00f6ret doch, was Jehova sagt: Mache dich auf, rechte vor den Bergen und la\u00df die H\u00fcgel deine Stimme h\u00f6ren!\n\n"
        },
        {
          "chapter": 6,
          "verse": 2,
          "name": "Micha 6:2",
          "text": "H\u00f6ret, ihr Berge, den Rechtsstreit Jehovas, und ihr Unwandelbaren, ihr Grundfesten der Erde! Denn Jehova hat einen Rechtsstreit mit seinem Volke, und mit Israel wird er rechten.\n\n"
        },
        {
          "chapter": 6,
          "verse": 3,
          "name": "Micha 6:3",
          "text": "\"Mein Volk, was habe ich dir getan, und womit habe ich dich erm\u00fcdet? Lege Zeugnis gegen mich ab!\n\n"
        },
        {
          "chapter": 6,
          "verse": 4,
          "name": "Micha 6:4",
          "text": "Denn ich habe dich aus dem Lande \u00c4gypten heraufgef\u00fchrt und aus dem Diensthause Eig. dem Hause der Knechte (Sklaven)  dich erl\u00f6st; und ich habe Mose, Aaron und Mirjam vor dir hergesandt.\n\n"
        },
        {
          "chapter": 6,
          "verse": 5,
          "name": "Micha 6:5",
          "text": "Mein Volk, gedenke doch, was Balak, der K\u00f6nig von Moab, beratschlagt, und was Bileam, der Sohn Beors, ihm geantwortet hat, dessen, was von Sittim bis Gilgal geschehen ist; auf da\u00df du die gerechten Taten Jehovas erkennest.\"\n\n"
        },
        {
          "chapter": 6,
          "verse": 6,
          "name": "Micha 6:6",
          "text": "\"Womit soll ich vor Jehova treten, mich beugen vor dem Gott der H\u00f6he? Soll ich vor ihn treten mit Brandopfern, mit einj\u00e4hrigen K\u00e4lbern?\n\n"
        },
        {
          "chapter": 6,
          "verse": 7,
          "name": "Micha 6:7",
          "text": "Wird Jehova Wohlgefallen haben an Tausenden von Widdern, an Zehntausenden von Str\u00f6men \u00d6ls? Soll ich meinen Erstgeborenen geben f\u00fcr meine \u00dcbertretung, die Frucht meines Leibes f\u00fcr die S\u00fcnde meiner Seele?\"\n\n"
        },
        {
          "chapter": 6,
          "verse": 8,
          "name": "Micha 6:8",
          "text": "Er hat dir kundgetan, o Mensch, was gut ist; und was fordert Jehova von dir, als Recht zu \u00fcben und G\u00fcte zu lieben, und dem\u00fctig zu wandeln mit deinem Gott?\n\n"
        },
        {
          "chapter": 6,
          "verse": 9,
          "name": "Micha 6:9",
          "text": "Die Stimme Jehovas ruft der Stadt, und dein Name hat Weisheit im Auge O. die Weisheit hat deinen Namen im Auge; and. l.: und Weisheit ist es, deinen Namen zu f\u00fcrchten  :H\u00f6ret auf die Zuchtrute und auf den, der sie bestellt!\n\n"
        },
        {
          "chapter": 6,
          "verse": 10,
          "name": "Micha 6:10",
          "text": "Sind noch im Hause des Gesetzlosen Sch\u00e4tze der Gesetzlosigkeit und das knappe, verfluchte Epha?\n\n"
        },
        {
          "chapter": 6,
          "verse": 11,
          "name": "Micha 6:11",
          "text": "\"Sollte ich rein sein bei der Waage der Gesetzlosigkeit und bei einem Beutel mit betr\u00fcgerischen Gewichtsteinen?\"\n\n"
        },
        {
          "chapter": 6,
          "verse": 12,
          "name": "Micha 6:12",
          "text": "Ihre Reichen sind voll Gewalttat, und ihre Bewohner reden L\u00fcgen, und ihre Zunge ist Trug in ihrem Munde!\n\n"
        },
        {
          "chapter": 6,
          "verse": 13,
          "name": "Micha 6:13",
          "text": "So will auch ich dich unheilbar schlagen, dich verw\u00fcsten um deiner S\u00fcnden willen.\n\n"
        },
        {
          "chapter": 6,
          "verse": 14,
          "name": "Micha 6:14",
          "text": "Du wirst essen, aber nicht satt werden; und dein Inneres wird leer bleiben. Und du wirst fortschaffen und nicht retten; und was du rettest, werde ich dem Schwerte hingeben.\n\n"
        },
        {
          "chapter": 6,
          "verse": 15,
          "name": "Micha 6:15",
          "text": "Du wirst s\u00e4en, aber nicht ernten; du wirst Oliven keltern, aber dich nicht mit \u00d6l salben, und Most, aber keinen Wein trinken.\n\n"
        },
        {
          "chapter": 6,
          "verse": 16,
          "name": "Micha 6:16",
          "text": "Und man beobachtet eifrig die Satzungen Omris und alles Tun des Hauses Ahabs, und ihr wandelt in ihren Ratschl\u00e4gen: auf da\u00df ich dich zum Entsetzen mache und ihre d. i. der Stadt (.12)  Bewohner zum Gezisch; und ihr werdet die Schmach meines Volkes tragen.\n\n"
        }
      ]
    },
    {
      "chapter": 7,
      "name": "Micha 7",
      "verses": [
        {
          "chapter": 7,
          "verse": 1,
          "name": "Micha 7:1",
          "text": "Wehe mir! denn mir ist es wie bei der Obstlese, wie bei der Nachlese der Weinernte: keine Traube zu essen! keine Fr\u00fchfeige, die meine Seele begehrt!\n\n"
        },
        {
          "chapter": 7,
          "verse": 2,
          "name": "Micha 7:2",
          "text": "Der G\u00fctige O. Fromme  ist aus dem Lande verschwunden, und da ist kein Rechtschaffener unter den Menschen: allesamt lauern sie auf Blut, sie jagen ein jeder seinen Bruder mit dem Netze.\n\n"
        },
        {
          "chapter": 7,
          "verse": 3,
          "name": "Micha 7:3",
          "text": "Nach dem B\u00f6sen sind beide H\u00e4nde gerichtet, um es wohl auszuf\u00fchren. Der F\u00fcrst fordert, und der Richter richtet gegen Entgelt, und der Gro\u00dfe spricht die Gier seiner Seele aus O. redet das Verderben, das er begehrt,  und sie flechten es ineinander.\n\n"
        },
        {
          "chapter": 7,
          "verse": 4,
          "name": "Micha 7:4",
          "text": "Der Beste unter ihnen ist wie ein Dornstrauch, der Rechtschaffenste wie eine Dornhecke So mit Versetzung eines Buchstabens; der hebr. Text ergibt keinen klaren Sinn.  -Der Tag deiner W\u00e4chter d. h. deiner Propheten; vergl. ; ,  deine Heimsuchung, ist gekommen; dann wird ihre Verwirrung da sein.\n\n"
        },
        {
          "chapter": 7,
          "verse": 5,
          "name": "Micha 7:5",
          "text": "Trauet nicht dem Genossen, verlasset euch nicht auf den Vertrauten; verwahre die Pforten deines Mundes vor der, die an deinem Busen liegt.\n\n"
        },
        {
          "chapter": 7,
          "verse": 6,
          "name": "Micha 7:6",
          "text": "Denn der Sohn verachtet den Vater, die Tochter lehnt sich auf gegen ihre Mutter, die Schwiegertochter gegen ihre Schwiegermutter; des Mannes Feinde sind seine Hausgenossen. -\n\n"
        },
        {
          "chapter": 7,
          "verse": 7,
          "name": "Micha 7:7",
          "text": "Ich aber will nach Jehova ausschauen, will harren auf den Gott meines Heils; mein Gott wird mich erh\u00f6ren.\n\n"
        },
        {
          "chapter": 7,
          "verse": 8,
          "name": "Micha 7:8",
          "text": "Freue dich nicht \u00fcber mich, meine Feindin! denn bin ich gefallen, so stehe ich wieder auf; denn sitze ich in Finsternis, so ist Jehova mein Licht.\n\n"
        },
        {
          "chapter": 7,
          "verse": 9,
          "name": "Micha 7:9",
          "text": "Den Grimm Jehovas will ich tragen, -denn ich habe gegen ihn ges\u00fcndigt-bis er meinen Rechtsstreit f\u00fchren und mir Recht verschaffen wird. Er wird mich herausf\u00fchren an das Licht, ich werde seine Gerechtigkeit anschauen.\n\n"
        },
        {
          "chapter": 7,
          "verse": 10,
          "name": "Micha 7:10",
          "text": "Und meine Feindin soll es sehen, und Scham soll sie bedecken, die zu mir sprach: Wo ist Jehova, dein Gott? Meine Augen werden ihre Lust an ihr sehen: nun wird sie zertreten werden wie Stra\u00dfenkot.\n\n"
        },
        {
          "chapter": 7,
          "verse": 11,
          "name": "Micha 7:11",
          "text": "Ein Tag kommt, um deine Mauern aufzubauen. An jenem Tage O. an dem Tage, da deine Mauern aufgebaut werden sollen, an jenem Tage usw.  wird die Schranke entfernt werden;\n\n"
        },
        {
          "chapter": 7,
          "verse": 12,
          "name": "Micha 7:12",
          "text": "an jenem Tage, da wird man zu dir kommen von Assyrien und den St\u00e4dten Mazors S. die Anm. zu ,  und von Mazor bis zum Strome und von Meer zu Meer und von Gebirge zu Gebirge. -\n\n"
        },
        {
          "chapter": 7,
          "verse": 13,
          "name": "Micha 7:13",
          "text": "Und das Land O. die Erde  wird zur W\u00fcste werden um seiner Bewohner willen, wegen der Frucht ihrer Handlungen.\n\n"
        },
        {
          "chapter": 7,
          "verse": 14,
          "name": "Micha 7:14",
          "text": "\"Weide dein Volk mit deinem Stabe, die Herde deines Erbteils, die abgesondert wohnt im Walde, inmitten des Karmel; la\u00df sie weiden in Basan und Gilead, wie in den Tagen der Vorzeit.\"\n\n"
        },
        {
          "chapter": 7,
          "verse": 15,
          "name": "Micha 7:15",
          "text": "Wie in den Tagen, da du aus dem Lande \u00c4gypten zogest, werde ich es Wunder sehen lassen.\n\n"
        },
        {
          "chapter": 7,
          "verse": 16,
          "name": "Micha 7:16",
          "text": "Die Nationen werden es sehen und besch\u00e4mt werden \u00fcber all ihre Macht: sie werden die Hand auf den Mund legen, ihre Ohren werden taub werden;\n\n"
        },
        {
          "chapter": 7,
          "verse": 17,
          "name": "Micha 7:17",
          "text": "sie werden Staub lecken wie die Schlange, wie die kriechenden Tiere der Erde; sie werden hervorzittern aus ihren Schl\u00f6ssern; sie werden sich bebend wenden zu Jehova, unserem Gott, und vor dir sich f\u00fcrchten.\n\n"
        },
        {
          "chapter": 7,
          "verse": 18,
          "name": "Micha 7:18",
          "text": "Wer ist ein Gott El  wie du, der die Ungerechtigkeit O. Missetat, Schuld  vergibt, und die \u00dcbertretung des \u00dcberrestes seines Erbteils \u00fcbersieht Eig. hinweggeht \u00fcber?  Er beh\u00e4lt seinen Zorn nicht auf immer, denn er hat Gefallen an G\u00fcte.\n\n"
        },
        {
          "chapter": 7,
          "verse": 19,
          "name": "Micha 7:19",
          "text": "Er wird sich unser wieder erbarmen, wird unsere Ungerechtigkeiten O. Missetaten, Verschuldungen  niedertreten; und du wirst alle ihre S\u00fcnden in die Tiefen des Meeres werfen.\n\n"
        },
        {
          "chapter": 7,
          "verse": 20,
          "name": "Micha 7:20",
          "text": "Du wirst an Jakob Wahrheit, an Abraham G\u00fcte erweisen, die du von den Tagen der Vorzeit her unseren V\u00e4tern geschworen hast.\n\n"
        }
      ]
    }
  ]
}
