{
    "translation": "Veren's Contemporary Bible",
    "abbreviation": "bulveren",
    "lang": "bg",
    "language": "Bulgarian",
    "direction": "LTR",
    "encoding": "UTF-8",
    "book_nr": 19,
    "book_name": "Psalms",
    "chapter": 82,
    "name": "Psalms 82",
    "verses": [
        {
            "chapter": 82,
            "verse": 1,
            "name": "Psalms 82:1",
            "text": "<verse osisID=\"Ps.82.1\">(\u041f\u043e \u0441\u043b\u0430\u0432. 81) \u041f\u0441\u0430\u043b\u043c \u043d\u0430 \u0410\u0441\u0430\u0444. \u0411\u043e\u0433 \u0441\u0442\u043e\u0438 \u0432 \u0411\u043e\u0436\u0438\u0435\u0442\u043e \u0441\u044a\u0431\u0440\u0430\u043d\u0438\u0435, \u0441\u044a\u0434\u0438 \u0441\u0440\u0435\u0434 \u0432\u043b\u0430\u0434\u0435\u0442\u0435\u043b\u0438\u0442\u0435.</verse>"
        },
        {
            "chapter": 82,
            "verse": 2,
            "name": "Psalms 82:2",
            "text": "<verse osisID=\"Ps.82.2\">\u0414\u043e\u043a\u043e\u0433\u0430 \u0449\u0435 \u0441\u044a\u0434\u0438\u0442\u0435 \u043d\u0435\u0441\u043f\u0440\u0430\u0432\u0435\u0434\u043b\u0438\u0432\u043e \u0438 \u0449\u0435 \u043f\u043e\u043a\u0430\u0437\u0432\u0430\u0442\u0435 \u043f\u0440\u0438\u0441\u0442\u0440\u0430\u0441\u0442\u0438\u0435 \u043a\u044a\u043c \u0431\u0435\u0437\u0431\u043e\u0436\u043d\u0438\u0442\u0435? (\u0421\u0435\u043b\u0430.)</verse>"
        },
        {
            "chapter": 82,
            "verse": 3,
            "name": "Psalms 82:3",
            "text": "<verse osisID=\"Ps.82.3\">\u0421\u044a\u0434\u0435\u0442\u0435 \u043f\u0440\u0430\u0432\u043e \u0441\u0438\u0440\u043e\u043c\u0430\u0445\u0430 \u0438 \u0441\u0438\u0440\u0430\u0447\u0435\u0442\u043e, \u043e\u0442\u0434\u0430\u0439\u0442\u0435 \u0441\u043f\u0440\u0430\u0432\u0435\u0434\u043b\u0438\u0432\u043e\u0441\u0442 \u043d\u0430 \u043d\u0430\u0441\u043a\u044a\u0440\u0431\u0435\u043d\u0438\u044f \u0438 \u0431\u0435\u0434\u043d\u0438\u044f.</verse>"
        },
        {
            "chapter": 82,
            "verse": 4,
            "name": "Psalms 82:4",
            "text": "<verse osisID=\"Ps.82.4\">\u0418\u0437\u0431\u0430\u0432\u044f\u0439\u0442\u0435 \u0441\u0438\u0440\u043e\u043c\u0430\u0445\u0430 \u0438 \u043d\u0443\u0436\u0434\u0430\u0435\u0449\u0438\u044f \u0441\u0435, \u043e\u0441\u0432\u043e\u0431\u043e\u0436\u0434\u0430\u0432\u0430\u0439\u0442\u0435 \u0433\u0438 \u043e\u0442 \u0440\u044a\u043a\u0430\u0442\u0430 \u043d\u0430 \u0431\u0435\u0437\u0431\u043e\u0436\u043d\u0438\u0442\u0435!</verse>"
        },
        {
            "chapter": 82,
            "verse": 5,
            "name": "Psalms 82:5",
            "text": "<verse osisID=\"Ps.82.5\">\u0422\u0435 \u043d\u0435 \u0437\u043d\u0430\u044f\u0442 \u0438 \u043d\u0435 \u0440\u0430\u0437\u0431\u0438\u0440\u0430\u0442, \u043b\u0443\u0442\u0430\u0442 \u0441\u0435 \u0432 \u0442\u044a\u043c\u043d\u0438\u043d\u0430. \u0412\u0441\u0438\u0447\u043a\u0438\u0442\u0435 \u043e\u0441\u043d\u043e\u0432\u0438 \u043d\u0430 \u0437\u0435\u043c\u044f\u0442\u0430 \u0441\u0435 \u043a\u043b\u0430\u0442\u044f\u0442.</verse>"
        },
        {
            "chapter": 82,
            "verse": 6,
            "name": "Psalms 82:6",
            "text": "<verse osisID=\"Ps.82.6\">\u0410\u0437 \u043a\u0430\u0437\u0430\u0445: \u0411\u043e\u0433\u043e\u0432\u0435 \u0441\u0442\u0435 \u0432\u0438\u0435, \u0441\u0438\u043d\u043e\u0432\u0435 \u043d\u0430 \u0412\u0441\u0435\u0432\u0438\u0448\u043d\u0438\u044f \u0441\u0442\u0435 \u0432\u0441\u0438\u0447\u043a\u0438!</verse>"
        },
        {
            "chapter": 82,
            "verse": 7,
            "name": "Psalms 82:7",
            "text": "<verse osisID=\"Ps.82.7\">\u041d\u043e \u043a\u0430\u0442\u043e \u0447\u043e\u0432\u0435\u043a \u0449\u0435 \u0443\u043c\u0440\u0435\u0442\u0435 \u0438 \u0449\u0435 \u043f\u0430\u0434\u043d\u0435\u0442\u0435 \u043a\u0430\u0442\u043e \u0435\u0434\u0438\u043d \u043e\u0442 \u043a\u043d\u044f\u0437\u0435\u0442\u0435.</verse>"
        },
        {
            "chapter": 82,
            "verse": 8,
            "name": "Psalms 82:8",
            "text": "<verse osisID=\"Ps.82.8\">\u0421\u0442\u0430\u043d\u0438, \u0411\u043e\u0436\u0435, \u0441\u044a\u0434\u0438 \u0437\u0435\u043c\u044f\u0442\u0430, \u0437\u0430\u0449\u043e\u0442\u043e \u0422\u0438 \u0449\u0435 \u043d\u0430\u0441\u043b\u0435\u0434\u0438\u0448 \u0432\u0441\u0438\u0447\u043a\u0438 \u043d\u0430\u0440\u043e\u0434\u0438!</verse>"
        }
    ]
}