{
    "translation": "Luther (1545)",
    "abbreviation": "luther1545",
    "lang": "de",
    "language": "German",
    "direction": "LTR",
    "encoding": "UTF-8",
    "book_nr": 45,
    "book_name": "R\u00f6mer",
    "chapter": 15,
    "name": "R\u00f6mer 15",
    "verses": [
        {
            "chapter": 15,
            "verse": 1,
            "name": "R\u00f6mer 15:1",
            "text": "Wir aber, die wir stark sind, sollen der Schwachen Gebrechlichkeit tragen und nicht Gefallen an uns selber haben. "
        },
        {
            "chapter": 15,
            "verse": 2,
            "name": "R\u00f6mer 15:2",
            "text": "Es stelle sich aber ein jeglicher unter uns also, da\u00df er seinem N\u00e4chsten gefalle zum Guten, zur Besserung. "
        },
        {
            "chapter": 15,
            "verse": 3,
            "name": "R\u00f6mer 15:3",
            "text": "Denn auch Christus nicht an sich selber Gefallen hatte, sondern wie geschrieben stehet: Die Schm\u00e4hungen derer, die dich schm\u00e4hen, sind \u00fcber mich gefallen. "
        },
        {
            "chapter": 15,
            "verse": 4,
            "name": "R\u00f6mer 15:4",
            "text": "Was aber zuvor geschrieben ist, das ist uns zur Lehre geschrieben, auf da\u00df wir durch Geduld und Trost der Schrift Hoffnung haben. "
        },
        {
            "chapter": 15,
            "verse": 5,
            "name": "R\u00f6mer 15:5",
            "text": "GOtt aber der Geduld und des Trostes gebe euch, da\u00df ihr einerlei gesinnet seid untereinander nach JEsu Christo, "
        },
        {
            "chapter": 15,
            "verse": 6,
            "name": "R\u00f6mer 15:6",
            "text": "auf da\u00df ihr einm\u00fctiglich mit einem Munde lobet GOtt und den Vater unsers HErrn JEsu Christi. "
        },
        {
            "chapter": 15,
            "verse": 7,
            "name": "R\u00f6mer 15:7",
            "text": "Darum nehmet euch untereinander auf, gleichwie euch Christus hat aufgenommen zu GOttes Lobe. "
        },
        {
            "chapter": 15,
            "verse": 8,
            "name": "R\u00f6mer 15:8",
            "text": "Ich sage aber, da\u00df JEsus Christus sei ein Diener gewesen der Beschneidung um der Wahrheit willen GOttes, zu best\u00e4tigen die Verhei\u00dfung, den V\u00e4tern geschehen, "
        },
        {
            "chapter": 15,
            "verse": 9,
            "name": "R\u00f6mer 15:9",
            "text": "da\u00df die Heiden aber GOtt loben um der Barmherzigkeit willen, wie geschrieben stehet: Darum will ich dich loben unter den Heiden und deinem Namen singen. "
        },
        {
            "chapter": 15,
            "verse": 10,
            "name": "R\u00f6mer 15:10",
            "text": "Und abermal spricht er: Freuet euch, ihr Heiden, mit seinem Volk! "
        },
        {
            "chapter": 15,
            "verse": 11,
            "name": "R\u00f6mer 15:11",
            "text": "Und abermal: Lobet den HErrn, alle Heiden, und preiset ihn, alle V\u00f6lker! "
        },
        {
            "chapter": 15,
            "verse": 12,
            "name": "R\u00f6mer 15:12",
            "text": "Und abermal spricht Jesaja: Es wird sein die Wurzel Jesse, und der auferstehen wird, zu herrschen \u00fcber die Heiden; auf den werden die Heiden hoffen. "
        },
        {
            "chapter": 15,
            "verse": 13,
            "name": "R\u00f6mer 15:13",
            "text": "GOtt aber der Hoffnung erf\u00fclle euch mit aller Freude und Frieden im Glauben, da\u00df ihr v\u00f6llige Hoffnung habet durch die Kraft des Heiligen Geistes. "
        },
        {
            "chapter": 15,
            "verse": 14,
            "name": "R\u00f6mer 15:14",
            "text": "Ich wei\u00df aber fast wohl von euch, liebe Br\u00fcder, da\u00df ihr selbst voll G\u00fctigkeit seid, erf\u00fcllet mit aller Erkenntnis, da\u00df ihr euch untereinander k\u00f6nnet ermahnen. "
        },
        {
            "chapter": 15,
            "verse": 15,
            "name": "R\u00f6mer 15:15",
            "text": "Ich hab's aber dennoch gewagt und euch etwas wollen schreiben, liebe Br\u00fcder, euch zu erinnern, um der Gnade willen, die mir von GOtt gegeben ist, "
        },
        {
            "chapter": 15,
            "verse": 16,
            "name": "R\u00f6mer 15:16",
            "text": "da\u00df ich soll sein ein Diener Christi unter den Heiden zu opfern das Evangelium GOttes, auf da\u00df die Heiden ein Opfer werden, GOtt angenehm, geheiliget durch den Heiligen Geist. "
        },
        {
            "chapter": 15,
            "verse": 17,
            "name": "R\u00f6mer 15:17",
            "text": "Darum kann ich mich r\u00fchmen in JEsu Christo, da\u00df ich GOtt diene. "
        },
        {
            "chapter": 15,
            "verse": 18,
            "name": "R\u00f6mer 15:18",
            "text": "Denn ich d\u00fcrfte nicht etwas reden, wo dasselbige Christus nicht durch mich wirkte, die Heiden zum Gehorsam zu bringen durch Wort und Werk, "
        },
        {
            "chapter": 15,
            "verse": 19,
            "name": "R\u00f6mer 15:19",
            "text": "durch Kraft der Zeichen und Wunder und durch Kraft des Geistes GOttes, also da\u00df ich von Jerusalem an und umher bis an Illyrikum alles mit dem Evangelium Christi erf\u00fcllet habe, "
        },
        {
            "chapter": 15,
            "verse": 20,
            "name": "R\u00f6mer 15:20",
            "text": "und mich sonderlich geflissen, das Evangelium zu predigen, wo Christi Name nicht bekannt war, auf da\u00df ich nicht auf einen fremden Grund bauete "
        },
        {
            "chapter": 15,
            "verse": 21,
            "name": "R\u00f6mer 15:21",
            "text": "sondern wie geschrieben stehet: Welchen nicht ist von ihm verk\u00fcndiget, die sollen's sehen, und welche nicht geh\u00f6ret haben, sollen's verstehen. "
        },
        {
            "chapter": 15,
            "verse": 22,
            "name": "R\u00f6mer 15:22",
            "text": "Das ist auch die Sache, darum ich vielmal verhindert bin, zu euch zu kommen. "
        },
        {
            "chapter": 15,
            "verse": 23,
            "name": "R\u00f6mer 15:23",
            "text": "Nun ich aber nicht mehr Raum habe in diesen L\u00e4ndern, habe aber Verlangen, zu euch zu kommen, von vielen Jahren her: "
        },
        {
            "chapter": 15,
            "verse": 24,
            "name": "R\u00f6mer 15:24",
            "text": "wenn ich reisen werde nach Spanien, will ich zu euch kommen. Denn ich hoffe, da\u00df ich da durchreisen und euch sehen werde und von euch dorthin geleitet werden m\u00f6ge, so doch, da\u00df ich zuvor mich ein wenig mit euch erg\u00f6tze. "
        },
        {
            "chapter": 15,
            "verse": 25,
            "name": "R\u00f6mer 15:25",
            "text": "Nun aber fahre ich hin gen Jerusalem den Heiligen zu Dienst. "
        },
        {
            "chapter": 15,
            "verse": 26,
            "name": "R\u00f6mer 15:26",
            "text": "Denn die aus Mazedonien und Achaja haben williglich eine gemeine Steuer zusammengelegt den armen Heiligen zu Jerusalem. "
        },
        {
            "chapter": 15,
            "verse": 27,
            "name": "R\u00f6mer 15:27",
            "text": "Sie haben's williglich getan und sind auch ihre Schuldner. Denn so die Heiden sind ihrer geistlichen G\u00fcter teilhaftig worden, ist's billig, da\u00df sie ihnen auch in leiblichen G\u00fctern Dienst beweisen. "
        },
        {
            "chapter": 15,
            "verse": 28,
            "name": "R\u00f6mer 15:28",
            "text": "Wenn ich nun solches ausgerichtet und ihnen diese Frucht versiegelt habe, will ich durch euch nach Spanien ziehen. "
        },
        {
            "chapter": 15,
            "verse": 29,
            "name": "R\u00f6mer 15:29",
            "text": "Ich wei\u00df aber, wenn ich zu euch komme, da\u00df ich mit vollem Segen des Evangeliums Christi kommen werde. "
        },
        {
            "chapter": 15,
            "verse": 30,
            "name": "R\u00f6mer 15:30",
            "text": "Ich ermahne euch aber, liebe Br\u00fcder, durch unsern HErrn JEsum Christum und durch die Liebe des Geistes, da\u00df ihr mir helfet k\u00e4mpfen mit Beten f\u00fcr mich zu GOtt, "
        },
        {
            "chapter": 15,
            "verse": 31,
            "name": "R\u00f6mer 15:31",
            "text": "auf da\u00df ich errettet werde von den Ungl\u00e4ubigen in Jud\u00e4a, und da\u00df mein Dienst, den ich gen Jerusalem tue, angenehm werde den Heiligen, "
        },
        {
            "chapter": 15,
            "verse": 32,
            "name": "R\u00f6mer 15:32",
            "text": "auf da\u00df ich mit Freuden zu euch komme durch den Willen GOttes und mich mit euch erquicke. "
        },
        {
            "chapter": 15,
            "verse": 33,
            "name": "R\u00f6mer 15:33",
            "text": "Der GOtt aber des Friedens sei mit euch allen! Amen.  "
        }
    ]
}