{
    "translation": "Latvian Gl\u00fcck 8th edition",
    "abbreviation": "lvgluck8",
    "lang": "lv",
    "language": "Latvian",
    "direction": "LTR",
    "encoding": "UTF-8",
    "book_nr": 5,
    "book_name": "Deuteronomy",
    "chapter": 4,
    "name": "Deuteronomy 4",
    "verses": [
        {
            "chapter": 4,
            "verse": 1,
            "name": "Deuteronomy 4:1",
            "text": "Nu tad, Izra\u0113l, klausi tos likumus un t\u0101s tiesas, ko es jums m\u0101cu dar\u012bt, lai j\u016bs dz\u012bvojat un ien\u0101kat un iemantojat to zemi, ko Tas Kungs, j\u016bsu t\u0113vu Dievs, jums dod. "
        },
        {
            "chapter": 4,
            "verse": 2,
            "name": "Deuteronomy 4:2",
            "text": "Pie t\u0101 v\u0101rda, ko es jums pav\u0113lu, jums neko neb\u016bs pielikt, nedz no t\u0101 ko atraut, ka j\u016bs turat T\u0101 Kunga, sava Dieva, bau\u0161\u013cus, ko es jums pav\u0113lu. "
        },
        {
            "chapter": 4,
            "verse": 3,
            "name": "Deuteronomy 4:3",
            "text": "J\u016bsu acis ir redz\u0113ju\u0161as, ko Tas Kungs Ba\u0101l-Peora d\u0113\u013c dar\u012bjis; jo ikvienu, kas Ba\u0101l-Peoram dzin\u0101s paka\u013c, to Tas Kungs, j\u016bsu Dievs, ir izdeld\u0113jis no j\u016bsu vidus. "
        },
        {
            "chapter": 4,
            "verse": 4,
            "name": "Deuteronomy 4:4",
            "text": "Bet j\u016bs, kas esat pie\u0137\u0113ru\u0161ies Tam Kungam, savam Dievam, j\u016bs \u0161odien visi esat dz\u012bvi."
        },
        {
            "chapter": 4,
            "verse": 5,
            "name": "Deuteronomy 4:5",
            "text": "Redzi, es jums esmu m\u0101c\u012bjis tos likumus un t\u0101s tiesas, itin k\u0101 Tas Kungs, mans Dievs, man pav\u0113l\u0113jis, lai j\u016bs t\u0101 dar\u0101t tan\u012b zem\u0113, ko j\u016bs ejat iemantot."
        },
        {
            "chapter": 4,
            "verse": 6,
            "name": "Deuteronomy 4:6",
            "text": "Turat nu tos un dar\u0101t tos, jo \u0161\u012b b\u016bs j\u016bsu gudr\u012bba un j\u016bsu sapra\u0161ana to \u013cau\u017eu ac\u012bs, kas visus \u0161os likumus dzird\u0113s un sac\u012bs: tie\u0161\u0101m gudri un pr\u0101t\u012bgi \u013caudis ir \u0161\u012b liel\u0101 tauta."
        },
        {
            "chapter": 4,
            "verse": 7,
            "name": "Deuteronomy 4:7",
            "text": "Jo kur ir cita t\u0101da liela tauta, kam dievi tik tuvu, k\u0101 Tas Kungs, m\u016bsu Dievs, mums, cikk\u0101rt vi\u0146u piesaucam? "
        },
        {
            "chapter": 4,
            "verse": 8,
            "name": "Deuteronomy 4:8",
            "text": "Un kur ir cita t\u0101da liela tauta, kam t\u0101di taisni likumi un tiesas, k\u0101 visa \u0161\u012b bausl\u012bba, ko es \u0161odien lieku j\u016bsu priek\u0161\u0101? "
        },
        {
            "chapter": 4,
            "verse": 9,
            "name": "Deuteronomy 4:9",
            "text": "Bet sargies un sargi \u013coti savu dv\u0113seli, ka tu neaizmirsti to, ko tavas acis redz\u0113ju\u0161as, ka tas neizz\u016bd no tavas sirds vis\u0101s tava m\u016b\u017ea dien\u0101s. "
        },
        {
            "chapter": 4,
            "verse": 10,
            "name": "Deuteronomy 4:10",
            "text": "Un dari to zin\u0101mu saviem b\u0113rniem un saviem b\u0113rnu b\u0113rniem. Tai dien\u0101, kad tu st\u0101v\u0113ji priek\u0161 T\u0101 Kunga, sava Dieva, Oreb\u0101, kad Tas Kungs uz mani sac\u012bja: sapulcini man tos \u013caudis, un es tiem do\u0161u dzird\u0113t savus v\u0101rdus, lai tie m\u0101c\u0101s mani b\u012bties visas dienas, cik ilgi tie virs zemes dz\u012bvo, un lai tie tos m\u0101ca saviem b\u0113rniem, "
        },
        {
            "chapter": 4,
            "verse": 11,
            "name": "Deuteronomy 4:11",
            "text": "Tad j\u016bs pieg\u0101j\u0101t un st\u0101v\u0113j\u0101t apak\u0161\u0101 pie t\u0101 kalna, un tas kalns dega ugun\u012b l\u012bdz debess vidum; tur bija tumsa, m\u0101konis un kr\u0113sla; "
        },
        {
            "chapter": 4,
            "verse": 12,
            "name": "Deuteronomy 4:12",
            "text": "Un Tas Kungs run\u0101ja uz jums no uguns vidus; j\u016bs dzird\u0113j\u0101t to v\u0101rdu balsi, bet j\u016bs neredz\u0113j\u0101t nek\u0101du \u0123\u012bmi, balss vien bija."
        },
        {
            "chapter": 4,
            "verse": 13,
            "name": "Deuteronomy 4:13",
            "text": "Tad vi\u0146\u0161 jums pasludin\u0101ja savu der\u012bbu, ko vi\u0146\u0161 jums pav\u0113l\u0113ja dar\u012bt, (proti) tos desmit v\u0101rdus, un tos rakst\u012bja uz diviem akmens galdi\u0146iem. "
        },
        {
            "chapter": 4,
            "verse": 14,
            "name": "Deuteronomy 4:14",
            "text": "Un Tas Kungs tan\u012b laik\u0101 man pav\u0113l\u0113ja, lai es jums m\u0101cu likumus un tiesas, ko lai j\u016bs dariet tai zem\u0113, ko j\u016bs ejat iemantot."
        },
        {
            "chapter": 4,
            "verse": 15,
            "name": "Deuteronomy 4:15",
            "text": "Tad nu sarg\u0101jaties \u013coti savu dv\u0113se\u013cu labad; jo j\u016bs nek\u0101du \u0123\u012bmi neesat redz\u0113ju\u0161i tai dien\u0101, kad Tas Kungs Oreb\u0101 uz jums run\u0101ja no uguns vidus, -"
        },
        {
            "chapter": 4,
            "verse": 16,
            "name": "Deuteronomy 4:16",
            "text": "Ka j\u016bs neapgr\u0113kojaties un sev nedar\u0101t nek\u0101du elka bildi, nek\u0101da t\u0113la l\u012bdz\u012bbu, nedz v\u012bra nedz sievas \u0123\u012bmi, "
        },
        {
            "chapter": 4,
            "verse": 17,
            "name": "Deuteronomy 4:17",
            "text": "Nek\u0101da lopa \u0123\u012bmi, kas virs zemes, nek\u0101da sp\u0101rnaina putna \u0123\u012bmi, kas apak\u0161 debess skraida,"
        },
        {
            "chapter": 4,
            "verse": 18,
            "name": "Deuteronomy 4:18",
            "text": "Nek\u0101da t\u0101rpa \u0123\u012bmi, kas virs zemes lien, nek\u0101das zivs \u0123\u012bmi, kas \u016bden\u012b apak\u0161 zemes;"
        },
        {
            "chapter": 4,
            "verse": 19,
            "name": "Deuteronomy 4:19",
            "text": "Un ka tu savas acis nepacel uz debes\u012bm, uzl\u016bkodams sauli un m\u0113nesi un zvaigznes, visu debespulku, un neliecies k\u0101rdin\u0101ties, vi\u0146u priek\u0161\u0101 zem\u0113 mesties un tiem kalpot; tos Tas Kungs, tavs Dievs, ir pie\u0161\u0137\u012bris visiem \u013caud\u012bm apak\u0161 visas debess."
        },
        {
            "chapter": 4,
            "verse": 20,
            "name": "Deuteronomy 4:20",
            "text": "Bet j\u016bs Tas Kungs ir pie\u0146\u0113mis un j\u016bs izvedis no t\u0101 dzelzs cep\u013ca, no \u0112\u0123iptes, lai j\u016bs esat vi\u0146a \u012bpa\u0161a tauta, k\u0101 tas \u0161odien ir. "
        },
        {
            "chapter": 4,
            "verse": 21,
            "name": "Deuteronomy 4:21",
            "text": "Un Tas Kungs par mani dusmoj\u0101s j\u016bsu d\u0113\u013c un zv\u0113r\u0113ja, ka man neb\u016bs iet p\u0101r J\u0101rdani un ka man neb\u016bs n\u0101kt uz to labo zemi, ko Tas Kungs, tavs Dievs, tev dod par da\u013cu. "
        },
        {
            "chapter": 4,
            "verse": 22,
            "name": "Deuteronomy 4:22",
            "text": "Jo man j\u0101mirst \u0161in\u012b zem\u0113 un es neie\u0161u p\u0101r Jard\u0101ni, bet j\u016bs iesiet un iemantosiet \u0161o labo zemi."
        },
        {
            "chapter": 4,
            "verse": 23,
            "name": "Deuteronomy 4:23",
            "text": "Tad sarg\u0101jaties nu, ka j\u016bs neaizmirstat T\u0101 Kunga, sava Dieva, der\u012bbu, ko vi\u0146\u0161 ar jums der\u0113jis, ka j\u016bs sev nedar\u0101t nek\u0101du elka bildi, nek\u0101du t\u0113lu, ko Tas Kungs, tavs Dievs, ir aizliedzis."
        },
        {
            "chapter": 4,
            "verse": 24,
            "name": "Deuteronomy 4:24",
            "text": "Jo Tas Kungs, tavs Dievs, ir rijo\u0161a uguns, stiprs Dievs, dusmot\u0101js. "
        },
        {
            "chapter": 4,
            "verse": 25,
            "name": "Deuteronomy 4:25",
            "text": "Kad nu j\u016bs dzemdin\u0101siet b\u0113rnus un b\u0113rnu b\u0113rnus un tapsiet veci tai zem\u0113 un apgr\u0113kosities, dar\u012bdami k\u0101du elka bildi, jeb k\u0101das lietas t\u0113lu, un gr\u0113kosiet priek\u0161 T\u0101 Kunga, sava Dieva vaiga, vi\u0146u apkaitin\u0101dami,"
        },
        {
            "chapter": 4,
            "verse": 26,
            "name": "Deuteronomy 4:26",
            "text": "Tad p\u0101r jums \u0161odien piesaucu debesis un zemi par lieciniekiem, ka j\u016bs boj\u0101 iesiet piepe\u0161i no t\u0101s zemes virsas, uz kurieni j\u016bs ejat p\u0101r Jard\u0101ni to iemantot; j\u016bs tur ilgi nepaliksiet, bet ar izdeld\u0113\u0161anu tapsiet izdeld\u0113ti."
        },
        {
            "chapter": 4,
            "verse": 27,
            "name": "Deuteronomy 4:27",
            "text": "Un Tas Kungs j\u016bs izkais\u012bs starp taut\u0101m un no jums atliksies mazs pulci\u0146\u0161 starp pag\u0101niem, kurp Tas Kungs j\u016bs aizdz\u012bs. "
        },
        {
            "chapter": 4,
            "verse": 28,
            "name": "Deuteronomy 4:28",
            "text": "Un tur j\u016bs kalposiet dieviem, kas ir cilv\u0113ku rokas darbs, koks un akmens, kas ne redz, ne dzird, ne \u0113d, ne o\u017e. "
        },
        {
            "chapter": 4,
            "verse": 29,
            "name": "Deuteronomy 4:29",
            "text": "Tad tur j\u016bs mekl\u0113siet To Kungu, savu Dievu, un to atrad\u012bsiet, kad mekl\u0113si no visas savas sirds un no visas savas dv\u0113seles."
        },
        {
            "chapter": 4,
            "verse": 30,
            "name": "Deuteronomy 4:30",
            "text": "Kad b\u016bsi b\u0113d\u0101s un visas \u0161\u012bs lietas tev notiks n\u0101kam\u0101s dien\u0101s, tad tu atgriez\u012bsies pie T\u0101 Kunga, sava Dieva, un klaus\u012bsi vi\u0146a balsi."
        },
        {
            "chapter": 4,
            "verse": 31,
            "name": "Deuteronomy 4:31",
            "text": "Jo sirds \u017e\u0113l\u012bgs Dievs ir Tas Kungs, tavs Dievs; vi\u0146\u0161 tevi neatst\u0101s, nedz tevi izdeld\u0113s, nedz aizmirs\u012bs tavu t\u0113vu der\u012bbu, ko vi\u0146\u0161 tiem ir zv\u0113r\u0113jis."
        },
        {
            "chapter": 4,
            "verse": 32,
            "name": "Deuteronomy 4:32",
            "text": "Jo vaic\u0101 jel p\u0113c tiem pag\u0101ju\u0161iem laikiem, kas priek\u0161 tevis biju\u0161i no t\u0101s dienas, kad Dievs cilv\u0113ku virs zemes rad\u012bjis, no viena debess gala l\u012bdz otram, vai t\u0101da lieta ir notikusi, k\u0101 \u0161\u012b, vai dzird\u0113ta, k\u0101 \u0161\u012b?"
        },
        {
            "chapter": 4,
            "verse": 33,
            "name": "Deuteronomy 4:33",
            "text": "Vai k\u0101di \u013caudis dzird\u0113ju\u0161i Dieva balsi run\u0101jam no uguns vidus, k\u0101 tu esi dzird\u0113jis, un paliku\u0161i dz\u012bvi? "
        },
        {
            "chapter": 4,
            "verse": 34,
            "name": "Deuteronomy 4:34",
            "text": "Jeb vai Dievs ir ap\u0146\u0113mies iet un sev vienu tautu \u0146emt no tautu vidus caur p\u0101rbaud\u012b\u0161an\u0101m, caur z\u012bm\u0113m un caur br\u012bnumiem un caur karu un caur stipru roku un caur izstieptu elkoni un caur liel\u0101m iztr\u016bcin\u0101\u0161an\u0101m, k\u0101 visu to Tas Kungs, j\u016bsu Dievs, jums dar\u012bjis priek\u0161 j\u016bsu ac\u012bm \u0112\u0123iptes zem\u0113?"
        },
        {
            "chapter": 4,
            "verse": 35,
            "name": "Deuteronomy 4:35",
            "text": "Tev tas ir r\u0101d\u012bts, lai tu zini, ka Tas Kungs ir Dievs, cits neviens, k\u0101 tik vi\u0146\u0161. "
        },
        {
            "chapter": 4,
            "verse": 36,
            "name": "Deuteronomy 4:36",
            "text": "No debes\u012bm vi\u0146\u0161 tev licis dzird\u0113t savu balsi, tevi pam\u0101c\u012bdams, un virs zemes vi\u0146\u0161 tev r\u0101d\u012bjis savu lielo uguni, un tu vi\u0146a v\u0101rdus esi dzird\u0113jis no uguns vidus."
        },
        {
            "chapter": 4,
            "verse": 37,
            "name": "Deuteronomy 4:37",
            "text": "Un t\u0101p\u0113c, ka vi\u0146\u0161 tavus t\u0113vus bija m\u012bl\u0113jis un izredz\u0113jis vi\u0146u dzimumu p\u0113c vi\u0146iem, tad vi\u0146\u0161 tevi izvedis ar savu vaigu no \u0112\u0123iptes zemes caur savu lielo sp\u0113ku, "
        },
        {
            "chapter": 4,
            "verse": 38,
            "name": "Deuteronomy 4:38",
            "text": "Grib\u0113dams izdz\u012bt tav\u0101 priek\u0161\u0101 lielas tautas, kas jo stipras nek\u0101 tu, un tevi ievest vi\u0146u zem\u0113, un tev to dot par da\u013cu, k\u0101 tas \u0161odien ir."
        },
        {
            "chapter": 4,
            "verse": 39,
            "name": "Deuteronomy 4:39",
            "text": "T\u0101 tev \u0161odien b\u016bs zin\u0101t, un sav\u0101 sird\u012b piemin\u0113t, ka Tas Kungs ir Dievs aug\u0161\u0101 debes\u012bs un apak\u0161\u0101 virs zemes, un cits neviens."
        },
        {
            "chapter": 4,
            "verse": 40,
            "name": "Deuteronomy 4:40",
            "text": "Un tev b\u016bs tur\u0113t vi\u0146a likumus un vi\u0146a bau\u0161\u013cus, ko es tev \u0161odien pav\u0113lu, lai labi kl\u0101j\u0101s tev un taviem b\u0113rniem p\u0113c tevis, un lai tavas dienas top pagarin\u0101tas tai zem\u0113, ko Tas Kungs, tavs Dievs, tev dod m\u016b\u017e\u012bgi."
        },
        {
            "chapter": 4,
            "verse": 41,
            "name": "Deuteronomy 4:41",
            "text": "Tad Mozus at\u0161\u0137\u012bra tr\u012bs pils\u0113tas vi\u0146pus Jard\u0101nes pret saules uzl\u0113k\u0161anu, "
        },
        {
            "chapter": 4,
            "verse": 42,
            "name": "Deuteronomy 4:42",
            "text": "Ka uz turieni b\u0113gtu tas nok\u0101v\u0113js, kas savu tuv\u0101ko net\u012b\u0161i nositis, ar ko vi\u0146\u0161 agr\u0101k nebija ienaid\u0101, ka tas nob\u0113gtu uz vienu no \u0161\u012bm pils\u0113t\u0101m un paliktu dz\u012bvs, -"
        },
        {
            "chapter": 4,
            "verse": 43,
            "name": "Deuteronomy 4:43",
            "text": "Beceru tuksnes\u012b, klaj\u0101 zem\u0113, priek\u0161 R\u016bbenie\u0161iem, un Ramotu \u0122ile\u0101d\u0101 priek\u0161 Gadie\u0161iem, un Golanu B\u0101zan\u0101 priek\u0161 Manasie\u0161iem. "
        },
        {
            "chapter": 4,
            "verse": 44,
            "name": "Deuteronomy 4:44",
            "text": "\u0160\u012b nu ir t\u0101 bausl\u012bba, ko Mozus lika priek\u0161\u0101 Izra\u0113la b\u0113rniem;"
        },
        {
            "chapter": 4,
            "verse": 45,
            "name": "Deuteronomy 4:45",
            "text": "\u0160\u012bs t\u0101s liec\u012bbas un tie likumi un t\u0101s tiesas, ko Mozus uz Izra\u0113la b\u0113rniem run\u0101ja, kad tie bija izg\u0101ju\u0161i no \u0112\u0123iptes zemes,"
        },
        {
            "chapter": 4,
            "verse": 46,
            "name": "Deuteronomy 4:46",
            "text": "Vi\u0146pus Jard\u0101nes, tai ielej\u0101 Bet-Peoram pret\u012b, Ziona, Amorie\u0161u \u0137\u0113ni\u0146a zem\u0113, kas Ezbon\u0101 dz\u012bvoja, ko Mozus un Izra\u0113la b\u0113rni sak\u0101va, kad tie bija izg\u0101ju\u0161i no \u0112\u0123iptes zemes. "
        },
        {
            "chapter": 4,
            "verse": 47,
            "name": "Deuteronomy 4:47",
            "text": "Un tie vi\u0146a zemi bija iemantoju\u0161i, ir Oga, B\u0101zanas \u0137\u0113ni\u0146a, zemi, to divu Amorie\u0161u \u0137\u0113ni\u0146u zemi, kas vi\u0146pus Jard\u0101nes pret saules l\u0113k\u0161anu, "
        },
        {
            "chapter": 4,
            "verse": 48,
            "name": "Deuteronomy 4:48",
            "text": "No Aro\u0113ra, kas pie Arnonas upes krasta, l\u012bdz Ziona kalnam, tas ir Ermons,"
        },
        {
            "chapter": 4,
            "verse": 49,
            "name": "Deuteronomy 4:49",
            "text": "Un visu klajumu vi\u0146pus Jard\u0101nes pret r\u012btiem l\u012bdz klajuma ezeram apak\u0161 Pizgas pakalniem. "
        }
    ]
}