{
    "translation": "Dari Translation",
    "abbreviation": "dari",
    "lang": "prs",
    "language": "Dari",
    "direction": "RTL",
    "encoding": "UTF-8",
    "book_nr": 27,
    "book_name": "Daniel",
    "chapter": 10,
    "name": "Daniel 10",
    "verses": [
        {
            "chapter": 10,
            "verse": 1,
            "name": "Daniel 10:1",
            "text": "   \u062f\u0631 \u0633\u0627\u0644 \u0633\u0648\u0645 \u0633\u0644\u0637\u0646\u062a \u06a9\u0648\u0631\u0634\u060c \u067e\u0627\u062f\u0634\u0627\u0647 \u0641\u0627\u0631\u0633\u060c \u062f\u0627\u0646\u06cc\u0627\u0644 \u06a9\u0647 \u0628\u0650\u0644\u0637\u0634\u0632\u0631 \u0647\u0645 \u0646\u0627\u0645\u06cc\u062f\u0647 \u0645\u06cc \u0634\u062f\u060c \u0631\u0624\u06cc\u0627\u06cc \u062f\u06cc\u06af\u0631\u06cc \u062f\u06cc\u062f \u0648 \u062a\u0639\u0628\u06cc\u0631 \u0622\u0646 \u0628\u0647 \u0627\u0648 \u0622\u0634\u06a9\u0627\u0631 \u0634\u062f. \u0627\u06cc\u0646 \u0631\u0624\u06cc\u0627 \u062d\u0642\u064a\u0642\u062a \u062f\u0627\u0634\u062a \u0648\u200e \u200e\u062f\u0631\u0628\u0627\u0631\u06c0 \u06cc\u06a9 \u062c\u0646\u06af \u0628\u0632\u0631\u06af \u0628\u0648\u062f \u06a9\u0647 \u062f\u0631 \u0622\u06cc\u0646\u062f\u0647 \u0631\u062e \u0645\u06cc \u062f\u0627\u062f.   "
        },
        {
            "chapter": 10,
            "verse": 2,
            "name": "Daniel 10:2",
            "text": "\u0645\u0646\u060c \u062f\u0627\u0646\u06cc\u0627\u0644\u060c \u0648\u0642\u062a\u06cc \u0627\u06cc\u0646 \u0631\u0624\u06cc\u0627 \u0631\u0627 \u062f\u06cc\u062f\u0645\u060c \u0633\u0647 \u0647\u0641\u062a\u0647 \u0645\u0627\u062a\u0645 \u06af\u0631\u0641\u062a\u0645. "
        },
        {
            "chapter": 10,
            "verse": 3,
            "name": "Daniel 10:3",
            "text": "\u062f\u0631 \u0627\u06cc\u0646 \u0645\u062f\u062a \u0646\u0647 \u063a\u0630\u0627\u0649 \u0644\u0630\u064a\u0630 \u062e\u0648\u0631\u062f\u0645 \u0648 \u0646\u0647 \u0644\u0628 \u0628\u0647 \u06af\u0648\u0634\u062a \u0648 \u0634\u0631\u0627\u0628 \u0632\u062f\u0645 \u0648 \u0646\u0647 \u0633\u0631 \u062e\u0648\u062f \u0631\u0627 \u0686\u0631\u0628 \u0648 \u0634\u0627\u0646\u0647 \u06a9\u0631\u062f\u0645.   "
        },
        {
            "chapter": 10,
            "verse": 4,
            "name": "Daniel 10:4",
            "text": "\u062f\u0631 \u0631\u0648\u0632 \u0628\u06cc\u0633\u062a \u0648 \u0686\u0647\u0627\u0631\u0645 \u0645\u0627\u0647 \u0627\u0648\u0644 \u0633\u0627\u0644\u060c \u062f\u0631 \u06a9\u0646\u0627\u0631 \u062f\u0631\u06cc\u0627\u06cc \u0628\u0632\u0631\u06af \u062f\u062c\u0644\u0647 \u0627\u06cc\u0633\u062a\u0627\u062f\u0647 \u0628\u0648\u062f\u0645. "
        },
        {
            "chapter": 10,
            "verse": 5,
            "name": "Daniel 10:5",
            "text": "\u0648\u0642\u062a\u06cc \u0628\u0647 \u0628\u0627\u0644\u0627 \u0646\u06af\u0627\u0647 \u06a9\u0631\u062f\u0645\u060c \u0646\u0627\u06af\u0647\u0627\u0646 \u0645\u0631\u062f\u06cc \u0631\u0627 \u062f\u06cc\u062f\u0645 \u06a9\u0647 \u0644\u0628\u0627\u0633 \u0633\u0641\u06cc\u062f \u06a9\u062a\u0627\u0646\u06cc \u067e\u0648\u0634\u06cc\u062f\u0647 \u0648 \u06a9\u0645\u0631\u0628\u0646\u062f\u06cc \u0627\u0632 \u0637\u0644\u0627\u06cc \u0646\u0641\u06cc\u0633 \u0628\u0647 \u06a9\u0645\u0631 \u0628\u0633\u062a\u0647 \u0628\u0648\u062f. \u0628\u062f\u0646 \u0627\u0648 \u0645\u062b\u0644 \u06af\u0648\u0647\u0631 \u0645\u06cc \u062f\u0631\u062e\u0634\u06cc\u062f\u060c \u0631\u0648\u06cc\u0634 \u0628\u0631\u0642 \u0645\u06cc \u0632\u062f \u0648 \u0686\u0634\u0645\u0627\u0646\u0634 \u0628\u0633\u0627\u0646 \u0634\u0639\u0644\u0647 \u0647\u0627\u06cc \u0622\u062a\u0634 \u0628\u0648\u062f\u0646\u062f \u0648 \u0628\u0627\u0632\u0648\u0647\u0627 \u0648 \u067e\u0627\u0647\u0627\u06cc\u0634 \u0645\u0627\u0646\u0646\u062f \u0628\u0631\u0646\u062c \u0635\u06cc\u0642\u0644\u06cc \u0634\u062f\u0647 \u0648 \u0635\u062f\u0627\u06cc\u0634 \u0634\u0628\u06cc\u0647 \u063a\u0648\u063a\u0627\u06cc \u06af\u0631\u0648\u0647 \u0647\u0627\u06cc \u0628\u06cc\u0634\u0645\u0627\u0631 \u0645\u0631\u062f\u0645 \u0628\u0648\u062f.   "
        },
        {
            "chapter": 10,
            "verse": 6,
            "name": "Daniel 10:6",
            "text": "\u0648\u0642\u062a\u06cc \u0628\u0647 \u0628\u0627\u0644\u0627 \u0646\u06af\u0627\u0647 \u06a9\u0631\u062f\u0645\u060c \u0646\u0627\u06af\u0647\u0627\u0646 \u0645\u0631\u062f\u06cc \u0631\u0627 \u062f\u06cc\u062f\u0645 \u06a9\u0647 \u0644\u0628\u0627\u0633 \u0633\u0641\u06cc\u062f \u06a9\u062a\u0627\u0646\u06cc \u067e\u0648\u0634\u06cc\u062f\u0647 \u0648 \u06a9\u0645\u0631\u0628\u0646\u062f\u06cc \u0627\u0632 \u0637\u0644\u0627\u06cc \u0646\u0641\u06cc\u0633 \u0628\u0647 \u06a9\u0645\u0631 \u0628\u0633\u062a\u0647 \u0628\u0648\u062f. \u0628\u062f\u0646 \u0627\u0648 \u0645\u062b\u0644 \u06af\u0648\u0647\u0631 \u0645\u06cc \u062f\u0631\u062e\u0634\u06cc\u062f\u060c \u0631\u0648\u06cc\u0634 \u0628\u0631\u0642 \u0645\u06cc \u0632\u062f \u0648 \u0686\u0634\u0645\u0627\u0646\u0634 \u0628\u0633\u0627\u0646 \u0634\u0639\u0644\u0647 \u0647\u0627\u06cc \u0622\u062a\u0634 \u0628\u0648\u062f\u0646\u062f \u0648 \u0628\u0627\u0632\u0648\u0647\u0627 \u0648 \u067e\u0627\u0647\u0627\u06cc\u0634 \u0645\u0627\u0646\u0646\u062f \u0628\u0631\u0646\u062c \u0635\u06cc\u0642\u0644\u06cc \u0634\u062f\u0647 \u0648 \u0635\u062f\u0627\u06cc\u0634 \u0634\u0628\u06cc\u0647 \u063a\u0648\u063a\u0627\u06cc \u06af\u0631\u0648\u0647 \u0647\u0627\u06cc \u0628\u06cc\u0634\u0645\u0627\u0631 \u0645\u0631\u062f\u0645 \u0628\u0648\u062f.   "
        },
        {
            "chapter": 10,
            "verse": 7,
            "name": "Daniel 10:7",
            "text": "\u0627\u0632 \u0622\u0646 \u0639\u062f\u0647 \u0627\u06cc \u06a9\u0647 \u062f\u0631 \u0622\u0646\u062c\u0627 \u0627\u06cc\u0633\u062a\u0627\u062f\u0647 \u0628\u0648\u062f\u06cc\u0645\u060c \u062a\u0646\u0647\u0627 \u0645\u0646 \u0622\u0646 \u0631\u0624\u06cc\u0627 \u0631\u0627 \u062f\u06cc\u062f\u0645. \u0647\u0645\u0631\u0627\u0647\u0627\u0646 \u0645\u0646 \u0622\u0646\u0642\u062f\u0631 \u062a\u0631\u0633\u06cc\u062f\u0646\u062f \u06a9\u0647 \u067e\u0627 \u0628\u0647 \u0641\u0631\u0627\u0631 \u06af\u0630\u0627\u0634\u062a\u0646\u062f \u0648 \u062e\u0648\u062f \u0631\u0627 \u067e\u0646\u0647\u0627\u0646 \u06a9\u0631\u062f\u0646\u062f. "
        },
        {
            "chapter": 10,
            "verse": 8,
            "name": "Daniel 10:8",
            "text": "\u0645\u0646 \u062a\u0646\u0647\u0627 \u0645\u0627\u0646\u062f\u0645 \u0648 \u0628\u0647 \u0622\u0646 \u0631\u0624\u06cc\u0627\u06cc \u0639\u062c\u06cc\u0628 \u0646\u06af\u0627\u0647 \u0645\u06cc \u06a9\u0631\u062f\u0645. \u0631\u0646\u06af\u0645 \u067e\u0631\u06cc\u062f\u0647 \u0628\u0648\u062f \u0648 \u062a\u0627\u0628 \u0648 \u062a\u0648\u0627\u0646 \u0646\u062f\u0627\u0634\u062a\u0645. "
        },
        {
            "chapter": 10,
            "verse": 9,
            "name": "Daniel 10:9",
            "text": "\u0648\u0642\u062a\u06cc \u0622\u0646 \u0645\u0631\u062f \u0628\u0627 \u0645\u0646 \u0633\u062e\u0646 \u06af\u0641\u062a\u060c \u0645\u0646 \u0631\u0648 \u0628\u062e\u0627\u06a9 \u0627\u0641\u062a\u0627\u062f\u0645 \u0648 \u0628\u06cc\u0647\u0648\u0634 \u0634\u062f\u0645. "
        },
        {
            "chapter": 10,
            "verse": 10,
            "name": "Daniel 10:10",
            "text": "\u0627\u0645\u0627 \u062f\u0633\u062a\u06cc \u0645\u0631\u0627 \u0644\u0645\u0633 \u0646\u0645\u0648\u062f \u0648 \u0645\u0631\u0627 \u0628\u0631 \u062f\u0633\u062a\u0647\u0627 \u0648 \u0632\u0627\u0646\u0648\u0627\u0646\u0645 \u0628\u0644\u0646\u062f \u06a9\u0631\u062f.   "
        },
        {
            "chapter": 10,
            "verse": 11,
            "name": "Daniel 10:11",
            "text": "\u0641\u0631\u0634\u062a\u0647 \u0628\u0647 \u0645\u0646 \u06af\u0641\u062a: \u00ab\u0627\u06cc \u062f\u0627\u0646\u06cc\u0627\u0644\u060c \u0627\u06cc \u0645\u0631\u062f \u0628\u0633\u06cc\u0627\u0631 \u0639\u0632\u06cc\u0632 \u062e\u062f\u0627\u060c \u0628\u0631\u062e\u06cc\u0632 \u0648 \u0628\u0647 \u0622\u0646\u0686\u0647 \u06a9\u0647 \u0645\u06cc \u062e\u0648\u0627\u0647\u0645 \u0628\u0647 \u062a\u0648 \u0628\u06af\u0648\u06cc\u0645 \u0628\u0627 \u062f\u0642\u062a \u06af\u0648\u0634 \u0628\u062f\u0647! \u0632\u06cc\u0631\u0627 \u0628\u0631\u0627\u06cc \u0647\u0645\u06cc\u0646 \u067e\u06cc\u0634 \u062a\u0648 \u0641\u0631\u0633\u062a\u0627\u062f\u0647 \u0634\u062f\u0647 \u0627\u0645.\u00bb \u0622\u0646\u06af\u0627\u0647 \u062f\u0631 \u062d\u0627\u0644\u06cc\u06a9\u0647 \u0647\u0646\u0648\u0632 \u0645\u06cc \u0644\u0631\u0632\u06cc\u062f\u0645\u060c \u0628\u067e\u0627 \u0627\u06cc\u0633\u062a\u0627\u062f\u0645. "
        },
        {
            "chapter": 10,
            "verse": 12,
            "name": "Daniel 10:12",
            "text": "\u0628\u0639\u062f \u0628\u0647 \u0645\u0646 \u06af\u0641\u062a: \u00ab\u0627\u06cc \u062f\u0627\u0646\u06cc\u0627\u0644\u060c \u0646\u062a\u0631\u0633! \u0632\u06cc\u0631\u0627 \u0627\u0632 \u0647\u0645\u0627\u0646 \u0631\u0648\u0632 \u0627\u0648\u0644 \u06a9\u0647 \u062f\u0631 \u062d\u0636\u0648\u0631 \u062e\u062f\u0627\u06cc \u062e\u0648\u062f \u0631\u0648\u0632\u0647 \u06af\u0631\u0641\u062a\u06cc \u0648 \u0627\u0632 \u0627\u0648 \u062e\u0648\u0627\u0633\u062a\u06cc \u06a9\u0647 \u0628\u0647 \u062a\u0648 \u062f\u0627\u0646\u0634 \u0648 \u0641\u0647\u0645 \u0628\u062f\u0647\u062f\u060c \u062f\u0631\u062e\u0648\u0627\u0633\u062a \u062a\u0648 \u0642\u0628\u0648\u0644 \u0634\u062f \u0648 \u062e\u062f\u0627 \u0647\u0645\u0627\u0646 \u0631\u0648\u0632 \u0645\u0631\u0627 \u067e\u06cc\u0634 \u062a\u0648 \u0641\u0631\u0633\u062a\u0627\u062f. "
        },
        {
            "chapter": 10,
            "verse": 13,
            "name": "Daniel 10:13",
            "text": "\u0627\u0645\u0627 \u0641\u0631\u0634\u062a\u0647 \u0627\u06cc \u06a9\u0647 \u0628\u0631 \u06a9\u0634\u0648\u0631 \u0641\u0627\u0631\u0633 \u062d\u06a9\u0645\u0631\u0627\u0646\u06cc \u0645\u06cc \u06a9\u0646\u062f\u060c \u0628\u06cc\u0633\u062a \u0648 \u06cc\u06a9 \u0631\u0648\u0632 \u0628\u0627 \u0645\u0646 \u0645\u0642\u0627\u0648\u0645\u062a \u0646\u0645\u0648\u062f \u0648 \u0645\u0627\u0646\u0639 \u0622\u0645\u062f\u0646 \u0645\u0646 \u0634\u062f. \u0633\u0631\u0627\u0646\u062c\u0627\u0645 \u0645\u06cc\u06a9\u0627\u0626\u06cc\u0644 \u06a9\u0647 \u06cc\u06a9\u06cc \u0627\u0632 \u0641\u0631\u0634\u062a\u06af\u0627\u0646 \u0645\u0642\u0631\u0628 \u0627\u0633\u062a\u060c \u0628\u0647 \u06a9\u0645\u06a9 \u0645\u0646 \u0622\u0645\u062f "
        },
        {
            "chapter": 10,
            "verse": 14,
            "name": "Daniel 10:14",
            "text": "\u0648 \u0645\u0646 \u062a\u0648\u0627\u0646\u0633\u062a\u0645 \u0628\u0647 \u0627\u06cc\u0646\u062c\u0627 \u0628\u06cc\u0627\u06cc\u0645 \u0648 \u0628\u0647 \u062a\u0648 \u0628\u06af\u0648\u06cc\u0645 \u06a9\u0647 \u062f\u0631 \u0622\u06cc\u0646\u062f\u0647 \u0628\u0631\u0627\u06cc \u0642\u0648\u0645\u062a \u0686\u0647 \u062d\u0627\u062f\u062b\u0647 \u0627\u06cc \u0631\u062e \u0645\u06cc \u062f\u0647\u062f\u060c \u0632\u06cc\u0631\u0627 \u0627\u06cc\u0646 \u0631\u0624\u06cc\u0627 \u0631\u0627 \u06a9\u0647 \u062f\u06cc\u062f\u06cc \u0645\u0631\u0628\u0648\u0637 \u0628\u0647 \u0622\u06cc\u0646\u062f\u0647 \u0627\u0633\u062a.\u00bb   "
        },
        {
            "chapter": 10,
            "verse": 15,
            "name": "Daniel 10:15",
            "text": "\u062f\u0631 \u062a\u0645\u0627\u0645 \u0627\u06cc\u0646 \u0645\u062f\u062a \u0633\u0631\u0645 \u0631\u0627 \u0628\u0632\u06cc\u0631 \u0627\u0646\u062f\u0627\u062e\u062a\u0647 \u0648 \u06af\u0646\u06af \u0628\u0648\u062f\u0645. "
        },
        {
            "chapter": 10,
            "verse": 16,
            "name": "Daniel 10:16",
            "text": "\u0622\u0646\u06af\u0627\u0647 \u0622\u0646 \u0642\u0627\u0635\u062f\u06cc \u06a9\u0647 \u0634\u0628\u06cc\u0647 \u0627\u0646\u0633\u0627\u0646 \u0628\u0648\u062f\u060c \u0644\u0628\u0647\u0627\u06cc\u0645 \u0631\u0627 \u0644\u0645\u0633 \u06a9\u0631\u062f \u062a\u0627 \u0628\u062a\u0648\u0627\u0646\u0645 \u062d\u0631\u0641 \u0628\u0632\u0646\u0645. \u0645\u0646 \u0628\u0647 \u0627\u0648 \u06af\u0641\u062a\u0645: \u00ab\u0627\u06cc \u0622\u0642\u0627\u06cc \u0645\u0646\u060c \u0627\u06cc\u0646 \u0631\u0624\u06cc\u0627 \u0645\u0631\u0627 \u0628\u0642\u062f\u0631\u06cc \u062a\u0631\u0633\u0627\u0646\u062f\u0647 \u0627\u0633\u062a \u06a9\u0647 \u062f\u06cc\u06af\u0631 \u062a\u0627\u0628 \u0648 \u062a\u0648\u0627\u0646 \u062f\u0631 \u0645\u0646 \u0646\u0645\u0627\u0646\u062f\u0647 \u0627\u0633\u062a. "
        },
        {
            "chapter": 10,
            "verse": 17,
            "name": "Daniel 10:17",
            "text": "\u067e\u0633 \u0686\u06af\u0648\u0646\u0647 \u0645\u06cc \u062a\u0648\u0627\u0646\u0645 \u0628\u0627 \u062a\u0648 \u062d\u0631\u0641 \u0628\u0632\u0646\u0645\u061f \u0642\u0648\u0651\u062a \u0645\u0646 \u062a\u0645\u0627\u0645 \u0634\u062f\u0647 \u0627\u0633\u062a \u0648 \u0628\u0633\u062e\u062a\u06cc \u0646\u0641\u0633 \u0645\u06cc \u06a9\u0634\u0645.\u00bb   "
        },
        {
            "chapter": 10,
            "verse": 18,
            "name": "Daniel 10:18",
            "text": "\u0627\u0648 \u062f\u0648\u0628\u0627\u0631\u0647 \u0645\u0631\u0627 \u0644\u0645\u0633 \u06a9\u0631\u062f \u0648 \u0645\u0646 \u0642\u0648\u0651\u062a \u06cc\u0627\u0641\u062a\u0645. "
        },
        {
            "chapter": 10,
            "verse": 19,
            "name": "Daniel 10:19",
            "text": "\u0627\u0648 \u06af\u0641\u062a: \u00ab\u0627\u06cc \u0645\u0631\u062f \u0628\u0633\u06cc\u0627\u0631 \u0639\u0632\u06cc\u0632 \u062e\u062f\u0627\u060c \u0646\u062a\u0631\u0633 \u0648 \u062a\u0634\u0648\u06cc\u0634 \u0646\u06a9\u0646!\u00bb \u0648\u0642\u062a\u06cc \u0627\u06cc\u0646 \u0631\u0627 \u06af\u0641\u062a\u060c \u0642\u0648\u0651\u062a \u06cc\u0627\u0641\u062a\u0645 \u0648 \u0628\u0647 \u0627\u0648 \u06af\u0641\u062a\u0645: \u00ab\u0627\u06cc \u0622\u0642\u0627\u06cc \u0645\u0646\u060c \u062d\u0627\u0644\u0627 \u062d\u0631\u0641 \u0628\u0632\u0646 \u0632\u06cc\u0631\u0627 \u062a\u0648 \u0628\u0647 \u0645\u0646 \u0646\u06cc\u0631\u0648 \u0628\u062e\u0634\u06cc\u062f\u06cc.\u00bb "
        },
        {
            "chapter": 10,
            "verse": 20,
            "name": "Daniel 10:20",
            "text": "\u0627\u0648 \u06af\u0641\u062a: \u00ab\u0645\u06cc \u062f\u0627\u0646\u06cc \u0686\u0631\u0627 \u067e\u06cc\u0634 \u062a\u0648 \u0622\u0645\u062f\u0647 \u0627\u0645\u061f \u0645\u0646 \u0622\u0645\u062f\u0647 \u0627\u0645 \u062a\u0627 \u0628\u06af\u0648\u06cc\u0645 \u06a9\u0647 \u062f\u0631 \u06a9\u062a\u0627\u0628 \u062d\u0642 \u0686\u0647 \u0646\u0648\u0634\u062a\u0647 \u0634\u062f\u0647 \u0627\u0633\u062a. \u0648\u0642\u062a\u06cc \u0627\u0632 \u067e\u06cc\u0634 \u062a\u0648 \u0628\u0627\u0632 \u06af\u0631\u062f\u0645\u060c \u0628\u0647 \u062c\u0646\u06af \u0641\u0631\u0634\u062a\u0647 \u0627\u06cc \u06a9\u0647 \u0628\u0631 \u06a9\u0634\u0648\u0631 \u0641\u0627\u0631\u0633 \u062d\u06a9\u0648\u0645\u062a \u0645\u06cc \u06a9\u0646\u062f\u060c \u0645\u06cc \u0631\u0648\u0645 \u0648 \u0633\u067e\u0633 \u0628\u0627 \u0641\u0631\u0634\u062a\u0647 \u0627\u06cc \u06a9\u0647 \u062d\u06a9\u0645\u0631\u0648\u0627\u06cc \u06cc\u0648\u0646\u0627\u0646 \u0627\u0633\u062a\u060c \u0645\u06cc \u062c\u0646\u06af\u0645.  "
        },
        {
            "chapter": 10,
            "verse": 21,
            "name": "Daniel 10:21",
            "text": "\u0627\u0648 \u06af\u0641\u062a: \u00ab\u0645\u06cc \u062f\u0627\u0646\u06cc \u0686\u0631\u0627 \u067e\u06cc\u0634 \u062a\u0648 \u0622\u0645\u062f\u0647 \u0627\u0645\u061f \u0645\u0646 \u0622\u0645\u062f\u0647 \u0627\u0645 \u062a\u0627 \u0628\u06af\u0648\u06cc\u0645 \u06a9\u0647 \u062f\u0631 \u06a9\u062a\u0627\u0628 \u062d\u0642 \u0686\u0647 \u0646\u0648\u0634\u062a\u0647 \u0634\u062f\u0647 \u0627\u0633\u062a. \u0648\u0642\u062a\u06cc \u0627\u0632 \u067e\u06cc\u0634 \u062a\u0648 \u0628\u0627\u0632 \u06af\u0631\u062f\u0645\u060c \u0628\u0647 \u062c\u0646\u06af \u0641\u0631\u0634\u062a\u0647 \u0627\u06cc \u06a9\u0647 \u0628\u0631 \u06a9\u0634\u0648\u0631 \u0641\u0627\u0631\u0633 \u062d\u06a9\u0648\u0645\u062a \u0645\u06cc \u06a9\u0646\u062f\u060c \u0645\u06cc \u0631\u0648\u0645 \u0648 \u0633\u067e\u0633 \u0628\u0627 \u0641\u0631\u0634\u062a\u0647 \u0627\u06cc \u06a9\u0647 \u062d\u06a9\u0645\u0631\u0648\u0627\u06cc \u06cc\u0648\u0646\u0627\u0646 \u0627\u0633\u062a\u060c \u0645\u06cc \u062c\u0646\u06af\u0645.  "
        }
    ]
}