{
    "translation": "Le Nouveau Testament Version Synodale 1921 et le livre des Psaumes",
    "abbreviation": "fresynodale1921",
    "lang": "fr",
    "language": "French",
    "direction": "LTR",
    "encoding": "UTF-8",
    "book_nr": 6,
    "book_name": "Joshua",
    "chapter": 22,
    "name": "Joshua 22",
    "verses": [
        {
            "chapter": 22,
            "verse": 1,
            "name": "Joshua 22:1",
            "text": ""
        },
        {
            "chapter": 22,
            "verse": 2,
            "name": "Joshua 22:2",
            "text": ""
        },
        {
            "chapter": 22,
            "verse": 3,
            "name": "Joshua 22:3",
            "text": ""
        },
        {
            "chapter": 22,
            "verse": 4,
            "name": "Joshua 22:4",
            "text": ""
        },
        {
            "chapter": 22,
            "verse": 5,
            "name": "Joshua 22:5",
            "text": ""
        },
        {
            "chapter": 22,
            "verse": 6,
            "name": "Joshua 22:6",
            "text": ""
        },
        {
            "chapter": 22,
            "verse": 7,
            "name": "Joshua 22:7",
            "text": ""
        },
        {
            "chapter": 22,
            "verse": 8,
            "name": "Joshua 22:8",
            "text": ""
        },
        {
            "chapter": 22,
            "verse": 9,
            "name": "Joshua 22:9",
            "text": ""
        },
        {
            "chapter": 22,
            "verse": 10,
            "name": "Joshua 22:10",
            "text": ""
        },
        {
            "chapter": 22,
            "verse": 11,
            "name": "Joshua 22:11",
            "text": ""
        },
        {
            "chapter": 22,
            "verse": 12,
            "name": "Joshua 22:12",
            "text": ""
        },
        {
            "chapter": 22,
            "verse": 13,
            "name": "Joshua 22:13",
            "text": ""
        },
        {
            "chapter": 22,
            "verse": 14,
            "name": "Joshua 22:14",
            "text": ""
        },
        {
            "chapter": 22,
            "verse": 15,
            "name": "Joshua 22:15",
            "text": ""
        },
        {
            "chapter": 22,
            "verse": 16,
            "name": "Joshua 22:16",
            "text": ""
        },
        {
            "chapter": 22,
            "verse": 17,
            "name": "Joshua 22:17",
            "text": ""
        },
        {
            "chapter": 22,
            "verse": 18,
            "name": "Joshua 22:18",
            "text": ""
        },
        {
            "chapter": 22,
            "verse": 19,
            "name": "Joshua 22:19",
            "text": ""
        },
        {
            "chapter": 22,
            "verse": 20,
            "name": "Joshua 22:20",
            "text": ""
        },
        {
            "chapter": 22,
            "verse": 21,
            "name": "Joshua 22:21",
            "text": ""
        },
        {
            "chapter": 22,
            "verse": 22,
            "name": "Joshua 22:22",
            "text": ""
        },
        {
            "chapter": 22,
            "verse": 23,
            "name": "Joshua 22:23",
            "text": ""
        },
        {
            "chapter": 22,
            "verse": 24,
            "name": "Joshua 22:24",
            "text": ""
        },
        {
            "chapter": 22,
            "verse": 25,
            "name": "Joshua 22:25",
            "text": ""
        },
        {
            "chapter": 22,
            "verse": 26,
            "name": "Joshua 22:26",
            "text": ""
        },
        {
            "chapter": 22,
            "verse": 27,
            "name": "Joshua 22:27",
            "text": ""
        },
        {
            "chapter": 22,
            "verse": 28,
            "name": "Joshua 22:28",
            "text": ""
        },
        {
            "chapter": 22,
            "verse": 29,
            "name": "Joshua 22:29",
            "text": ""
        },
        {
            "chapter": 22,
            "verse": 30,
            "name": "Joshua 22:30",
            "text": ""
        },
        {
            "chapter": 22,
            "verse": 31,
            "name": "Joshua 22:31",
            "text": ""
        },
        {
            "chapter": 22,
            "verse": 32,
            "name": "Joshua 22:32",
            "text": ""
        },
        {
            "chapter": 22,
            "verse": 33,
            "name": "Joshua 22:33",
            "text": ""
        },
        {
            "chapter": 22,
            "verse": 34,
            "name": "Joshua 22:34",
            "text": ""
        }
    ]
}