{
    "translation": "Japanese Raguet-yaku \u30e9\u30b2\u8a33\u300c\u6211\u4e3b\u30a4\u30a8\u30ba\u30b9\u30ad\u30ea\u30b9\u30c8\u306e\u65b0\u7d04\u8056\u66f8\u300d(1910\u5e74\u7248)",
    "abbreviation": "japraguet",
    "lang": "ja",
    "language": "Japanese",
    "direction": "LTR",
    "encoding": "UTF-8",
    "book_nr": 44,
    "book_name": "Acts",
    "chapter": 10,
    "name": "Acts 10",
    "verses": [
        {
            "chapter": 10,
            "verse": 1,
            "name": "Acts 10:1",
            "text": "  \u30ab\u30a4\u30b6\u30ea\u30a2\u306b\u30b3\u30eb\u30cd\u30ea\u30aa\u3068\u547c\u3070\u308b\u308b\u4eba\u3042\u308a\u3001\u30a4\u30bf\u30ea\u30a2\u968a\u3068\u7a31\u3059\u308b\u8ecd\u968a\u306e\u767e\u592b\u9577\u306b\u3057\u3066\u3001"
        },
        {
            "chapter": 10,
            "verse": 2,
            "name": "Acts 10:2",
            "text": "\u4fe1\u5fc3\u6df1\u304f\u3001\u5bb6\u65cf\u4e00\u540c\u3068\u5171\u306b\u795e\u3092\u754f\u656c\u3057\u3001\u4eba\u6c11\u306b\u591a\u304f\u306e\u65bd\u8207\u3092\u884c\u3072\u3001\u5e38\u306b\u795e\u306b\u7948\u308a\u3064\u3064\u3042\u308a\u3057\u304c\u3001"
        },
        {
            "chapter": 10,
            "verse": 3,
            "name": "Acts 10:3",
            "text": "\u4e00\u65e5\u5348\u5f8c\u4e09\u6642\u9803\u3001\u5e7b\u5f71\u306e\u4e2d\u306b\u3001\u795e\u306e\u4f7f\u5df1\u304c\u8a31\u306b\u4f86\u308a\u3066\u3001\u30b3\u30eb\u30cd\u30ea\u30aa\u3088\u3001\u3068\u547c\u3079\u308b\u3092\u660e\u304b\u306b\u898b\u3057\u304b\u3070\u3001"
        },
        {
            "chapter": 10,
            "verse": 4,
            "name": "Acts 10:4",
            "text": "\u76ee\u3092\u4e4b\u306b\u6ce8\u304e\u6050\u5165\u308a\u3066\u3001\u4e3b\u3088\u3001\u662f\u306f\u4f55\u4e8b\u305e\u3084\u3001\u3068\u4e91\u3072\u3057\u306b\u5929\u4f7f\u7b54\u3078\u3051\u308b\u306f\u3001\u6c5d\u306e\u7948\u7977\u3068\u65bd\u8207\u3068\u306f\u3001\u8a18\u5ff5\u3068\u3057\u3066\u795e\u306e\u5fa1\u524d\u306b\u4e0a\u308c\u308a\u3001"
        },
        {
            "chapter": 10,
            "verse": 5,
            "name": "Acts 10:5",
            "text": "\u4eca\u4eba\u3092\u30e8\u30c3\u30da\u306b\u9063\u306f\u3057\u3066\u3001\u30da\u30c8\u30ed\u3068\u3082\u547c\u3070\u308b\u308b\u30b7\u30e2\u30f3\u3068\u4e91\u3075\u4eba\u3092\u62db\u3051\u3001"
        },
        {
            "chapter": 10,
            "verse": 6,
            "name": "Acts 10:6",
            "text": "\u6d77\u5cb8\u306b\u4f4f\u3081\u308b\u30b7\u30e2\u30f3\u3068\u4e91\u3078\u308b\u9769\u5de5\u306e\u5bb6\u306b\u5bbf\u308c\u308b\u306a\u308a\u3001\u5f7c\u6c5d\u306b\u5176\u70ba\u3059\u3079\u304d\u4e8b\u3092\u4e91\u306f\u3093\u3001\u3068\u3002"
        },
        {
            "chapter": 10,
            "verse": 7,
            "name": "Acts 10:7",
            "text": "\u5df1\u306b\u8a9e\u308c\u308b\u5929\u4f7f\u306e\u53bb\u308a\u3066\u5f8c\u3001\u30b3\u30eb\u30cd\u30ea\u30aa\u306f\u5df1\u304c\u4e8c\u4eba\u306e\u50d5\u3068\u90e8\u4e0b\u306e\u4fe1\u5fc3\u6df1\u304d\u4e00\u4eba\u306e\u5175\u5352\u3068\u3092\u547c\u3073\u3001"
        },
        {
            "chapter": 10,
            "verse": 8,
            "name": "Acts 10:8",
            "text": "\u6089\u304f\u4e8b\u60c5\u3092\u8a9e\u308a\u3066\u30e8\u30c3\u30da\u306b\u9063\u306f\u305b\u308a\u3002"
        },
        {
            "chapter": 10,
            "verse": 9,
            "name": "Acts 10:9",
            "text": "\u7fcc\u65e5\u5f7c\u7b49\u5c1a\u9014\u4e2d\u306b\u5728\u308a\u3051\u308b\u304c\u3001\u753a\u306b\u8fd1\u3065\u3051\u308b\u6642\u3001\u665d\u306e\u5341\u4e8c\u6642\u9803\u30da\u30c8\u30ed\u7948\u3089\u3093\u3068\u3066\u5e73\u5c4b\u6839\u306b\u4e0a\u308c\u308a\u3002"
        },
        {
            "chapter": 10,
            "verse": 10,
            "name": "Acts 10:10",
            "text": "\u7136\u308b\u306b\u98e2\u3091\u3066\u7269\u6b32\u3057\u304b\u308a\u3051\u308c\u3070\u3001\u4eba\u306e\u652f\u5ea6\u3059\u308b\u3046\u3061\u3001\u6c23\u3092\u596a\u306f\u308b\u308b\u5982\u304f\u306b\u306a\u308a\u3001"
        },
        {
            "chapter": 10,
            "verse": 11,
            "name": "Acts 10:11",
            "text": "\u5929\u958b\u3051\u3066\u5927\u3044\u306a\u308b\u5e03\u306e\u5982\u304d\u5668\u964d\u308a\u3001\u56db\u9685\u3092\u540a\u3055\u308c\u3066\u3001\u5929\u3088\u308a\u5730\u306b\u4e0b\u3055\u308b\u308b\u3092\u898b\u305f\u308a\u3002"
        },
        {
            "chapter": 10,
            "verse": 12,
            "name": "Acts 10:12",
            "text": "\u5176\u4e2d\u306b\u306f\u5730\u4e0a\u306e\u6709\u3086\u308b\u56db\u8db3\u306e\u3082\u306e\u3001\u530d\u3075\u3082\u306e\u3001\u53ca\u3073\u7a7a\u306e\u9ce5\u3042\u308a\u3002"
        },
        {
            "chapter": 10,
            "verse": 13,
            "name": "Acts 10:13",
            "text": "\u53c8\u8072\u3042\u308a\u3066\u3001\u30da\u30c8\u30ed\u8d77\u304d\u3088\u3001\u5c60\u308a\u3066\u98df\u305b\u3088\u3001\u3068\u4e91\u3072\u3057\u304b\u3070\u3001"
        },
        {
            "chapter": 10,
            "verse": 14,
            "name": "Acts 10:14",
            "text": "\u30da\u30c8\u30ed\u3001\u4e3b\u3088\u3001\u7136\u3089\u3058\u3001\u6211\u66fe\u3066\u7a62\u308c\u305f\u308b\u3082\u306e\u6216\u306f\u6f54\u304b\u3089\u306c\u3082\u306e\u3092\u98df\u305b\u3057\u3053\u3068\u7121\u3057\u3001\u3068\u4e91\u3072\u3051\u308b\u306b\u3001"
        },
        {
            "chapter": 10,
            "verse": 15,
            "name": "Acts 10:15",
            "text": "\u53c8\u518d\u3073\u8072\u3042\u308a\u3066\u3001\u795e\u306e\u6f54\u3081\u7d66\u3072\u3057\u3082\u306e\u3092\u3001\u6c5d\u6f54\u304b\u3089\u305a\u3068\u4e91\u3075\u3053\u3068\u52ff\u308c\u3001\u3068\u4e91\u3078\u308a\u3002"
        },
        {
            "chapter": 10,
            "verse": 16,
            "name": "Acts 10:16",
            "text": "\u65af\u306e\u5982\u304d\u4e8b\u4e09\u5ea6\u306b\u3057\u3066\u3001\u5668\u7269\u306f\u5ffd\u3061\u5929\u306b\u53d6\u4e0a\u3052\u3089\u308c\u305f\u308a\u3002"
        },
        {
            "chapter": 10,
            "verse": 17,
            "name": "Acts 10:17",
            "text": "\u30da\u30c8\u30ed\u5fc3\u306e\u4e2d\u306b\u3001\u5176\u898b\u3057\u5e7b\u5f71\u3092\u5982\u4f55\u306a\u308b\u610f\u305e\u3068\u7576\u60d1\u305b\u308b\u6298\u3057\u3082\u3001\u30b3\u30eb\u30cd\u30ea\u30aa\u3088\u308a\u9063\u306f\u3055\u308c\u305f\u308b\u4eba\u3005\u3001\u30b7\u30e2\u30f3\u306e\u5bb6\u3092\u5c0b\u306d\u3066\u9580\u524d\u306b\u7acb\u6b62\u308a\u3001"
        },
        {
            "chapter": 10,
            "verse": 18,
            "name": "Acts 10:18",
            "text": "\u97f3\u3065\u308c\u3066\u3001\u30da\u30c8\u30ed\u3068\u3082\u547c\u3070\u308b\u308b\u30b7\u30e2\u30f3\u306f\u6b64\u8655\u306b\u5bbf\u308c\u308a\u3084\u3001\u3068\u554f\u3072\u5c45\u305f\u308a\u3002"
        },
        {
            "chapter": 10,
            "verse": 19,
            "name": "Acts 10:19",
            "text": "\u30da\u30c8\u30ed\u306f\u5e7b\u5f71\u306b\u5c31\u304d\u3066\u6253\u6848\u3058\u5c45\u3051\u308b\u3092\u3001\u8056\u970a\u4e4b\u306b\u66f0\u306f\u304f\u3001\u770b\u3088\u3001\u4e09\u4eba\u306e\u7537\u6c5d\u3092\u5c0b\u306c\u3001"
        },
        {
            "chapter": 10,
            "verse": 20,
            "name": "Acts 10:20",
            "text": "\u8d77\u3061\u3066\u4e0b\u308a\u3001\u8e8a\u8e87\u3059\u308b\u4e8b\u306a\u304f\u5f7c\u7b49\u3068\u5171\u306b\u5f80\u3051\u3001\u5f7c\u7b49\u306f\u6211\u304c\u9063\u306f\u3057\u305f\u308b\u8005\u306a\u308c\u3070\u3001\u3068\u3002"
        },
        {
            "chapter": 10,
            "verse": 21,
            "name": "Acts 10:21",
            "text": "\u30da\u30c8\u30ed\u4eba\u3005\u306e\u8655\u306b\u4e0b\u308a\u3066\u4e91\u3072\u3051\u308b\u306f\u3001\u770b\u3088\u6c5d\u7b49\u306e\u5c0b\u306c\u308b\u306f\u6211\u306a\u308a\u3001\u5982\u4f55\u306a\u308b\u6545\u3042\u308a\u3066\u4f86\u308c\u308b\u305e\u3001\u3068\u3002"
        },
        {
            "chapter": 10,
            "verse": 22,
            "name": "Acts 10:22",
            "text": "\u5f7c\u7b49\u4e91\u3072\u3051\u308b\u306f\u3001\u767e\u592b\u9577\u30b3\u30eb\u30cd\u30ea\u30aa\u306f\u3001\u795e\u3092\u754f\u656c\u3057\u3066\u30e6\u30c7\u30a2\u4eba\u4e00\u822c\u306b\u597d\u8a55\u3042\u308b\u7fa9\u4eba\u306a\u308b\u304c\u3001\u8056\u306a\u308b\u5929\u4f7f\u3088\u308a\u3001\u6c5d\u3092\u5176\u5bb6\u306b\u62db\u304d\u3066\u6c5d\u306e\u8a00\u3092\u8074\u3051\u3068\u306e\u544a\u3092\u53d7\u3051\u305f\u308a\u3001\u3068\u3002"
        },
        {
            "chapter": 10,
            "verse": 23,
            "name": "Acts 10:23",
            "text": "\u662f\u306b\u65bc\u3066\u30da\u30c8\u30ed\u3001\u5f7c\u7b49\u3092\u8acb\u3058\u3066\u5bbf\u3089\u3057\u3081\u3001\u7fcc\u65e5\u8af8\u5171\u306b\u51fa\u7acb\u3057\u3051\u308b\u304c\u3001\u30e8\u30c3\u30da\u3088\u308a\u6578\u4eba\u306e\u5144\u5f1f\u4e4b\u306b\u4f34\u3078\u308a\u3002"
        },
        {
            "chapter": 10,
            "verse": 24,
            "name": "Acts 10:24",
            "text": "\u6b21\u65e5\u30ab\u30a4\u30b6\u30ea\u30a2\u306b\u5165\u308a\u3057\u306b\u3001\u30b3\u30eb\u30cd\u30ea\u30aa\u306f\u65e2\u306b\u89aa\u65cf\u53ca\u3073\u89aa\u3057\u304d\u670b\u53cb\u3092\u547c\u96c6\u3081\u3066\u3001\u5f7c\u7b49\u3092\u5f85\u53d7\u3051\u305f\u308a\u3002"
        },
        {
            "chapter": 10,
            "verse": 25,
            "name": "Acts 10:25",
            "text": "\u30da\u30c8\u30ed\u306e\u5165\u4f86\u308b\u3084\u3001\u30b3\u30eb\u30cd\u30ea\u30aa\u51fa\u8fce\u3078\u3066\u5176\u8db3\u4e0b\u306b\u4f0f\u3057\u79ae\u62dd\u305b\u3057\u304b\u3070\u3001"
        },
        {
            "chapter": 10,
            "verse": 26,
            "name": "Acts 10:26",
            "text": "\u30da\u30c8\u30ed\u4e4b\u3092\u8d77\u3057\u3066\u4e91\u3072\u3051\u308b\u306f\u3001\u7acb\u3066\u3001\u6211\u3082\u4eba\u306a\u308a\u3001\u3068\u3002"
        },
        {
            "chapter": 10,
            "verse": 27,
            "name": "Acts 10:27",
            "text": "\u65af\u3066\u76f8\u8a9e\u308a\u3064\u3064\u5185\u306b\u5165\u308a\u3001\u591a\u304f\u306e\u4eba\u306e\u96c6\u308c\u308b\u3092\u898b\u3066\u3001"
        },
        {
            "chapter": 10,
            "verse": 28,
            "name": "Acts 10:28",
            "text": "\u6b64\u4eba\u3005\u306b\u8b02\u3072\u3051\u308b\u306f\u3001\u30e6\u30c7\u30a2\u4eba\u306b\u3057\u3066\u7570\u90a6\u4eba\u306b\u9023\u308a\u6216\u306f\u8fd1\u3065\u304f\u4e8b\u306e\u639f\u306b\u9069\u306f\u3056\u308b\u306f\u3001\u6c5d\u7b49\u306e\u77e5\u308b\u6240\u306a\u308a\u3002\u7136\u308c\u3069\u4f55\u4eba\u3092\u3082\u3001\u7a62\u308c\u305f\u308b\u3082\u306e\u6f54\u304b\u3089\u306c\u3082\u306e\u3068\u8a00\u3075\u3079\u304b\u3089\u3056\u308b\u4e8b\u3092\u3001\u795e\u6211\u306b\u793a\u3057\u7d66\u3078\u308a\u3002"
        },
        {
            "chapter": 10,
            "verse": 29,
            "name": "Acts 10:29",
            "text": "\u6545\u306b\u6211\u62db\u304b\u308c\u3066\u8e8a\u8e87\u3059\u308b\u4e8b\u306a\u304f\u4f86\u308a\u3057\u304c\u3001\u6c5d\u7b49\u306b\u554f\u306f\u3093\u3001\u6211\u3092\u62db\u304d\u3057\u6240\u4ee5\u306f\u4f55\u305e\u3001\u3068\u3002"
        },
        {
            "chapter": 10,
            "verse": 30,
            "name": "Acts 10:30",
            "text": "\u30b3\u30eb\u30cd\u30ea\u30aa\u4e91\u3072\u3051\u308b\u306f\u3001\u56db\u65e5\u4ee5\u524d\u306e\u5348\u5f8c\u4e09\u6642\u3001\u6211\u5bb6\u306b\u5728\u308a\u3066\u7948\u308c\u308b\u306b\u3001\u6298\u3057\u3082\u8f1d\u3051\u308b\u8863\u670d\u3092\u7740\u3051\u305f\u308b\u4e00\u4eba\u306e\u7537\u5b50\u3001\u6211\u524d\u306b\u7acb\u3061\u3066\u4e91\u3072\u3051\u308b\u306f\u3001"
        },
        {
            "chapter": 10,
            "verse": 31,
            "name": "Acts 10:31",
            "text": "\u30b3\u30eb\u30cd\u30ea\u30aa\u3088\u3001\u6c5d\u306e\u7948\u308a\u306f\u8074\u5bb9\u308c\u3089\u308c\u3001\u6c5d\u306e\u65bd\u8207\u306f\u795e\u306e\u5fa1\u524d\u306b\u8a18\u5ff5\u305b\u3089\u308c\u305f\u308a\u3002"
        },
        {
            "chapter": 10,
            "verse": 32,
            "name": "Acts 10:32",
            "text": "\u6545\u306b\u4eba\u3092\u30e8\u30c3\u30da\u306b\u9063\u306f\u3057\u3001\u30da\u30c8\u30ed\u3068\u3082\u547c\u3070\u308b\u308b\u30b7\u30e2\u30f3\u3092\u8fce\u3048\u3088\u3001\u5f7c\u306f\u6d77\u5cb8\u306a\u308b\u9769\u5de5\u30b7\u30e2\u30f3\u306e\u5bb6\u306b\u5bbf\u308c\u308a\u3001\u3068\u3002"
        },
        {
            "chapter": 10,
            "verse": 33,
            "name": "Acts 10:33",
            "text": "\u662f\u306b\u7531\u308a\u3066\u76f4\u306b\u4eba\u3092\u6c5d\u306b\u9063\u306f\u3057\u3057\u304c\u3001\u5b9c\u304f\u3053\u305d\u4f86\u305f\u307e\u3072\u3064\u308c\u3002\u7136\u308c\u3070\u4eca\u6211\u7b49\u7686\u795e\u306e\u5fa1\u524d\u306b\u5728\u308a\u3066\u3001\u4e3b\u3088\u308a\u6c5d\u306b\u547d\u305c\u3089\u308c\u305f\u308b\u4e8b\u3092\u6089\u304f\u627f\u3089\u3093\u3068\u3059\u3001\u3068\u3002"
        },
        {
            "chapter": 10,
            "verse": 34,
            "name": "Acts 10:34",
            "text": "\u5176\u6642\u30da\u30c8\u30ed\u53e3\u3092\u958b\u304d\u3066\u4e91\u3072\u3051\u308b\u306f\u3001\u795e\u306f\u504f\u308a\u7d66\u306f\u305a\u3001"
        },
        {
            "chapter": 10,
            "verse": 35,
            "name": "Acts 10:35",
            "text": "\u4f55\u308c\u306e\u570b\u6c11\u306b\u3082\u3042\u308c\u3001\u4e4b\u3092\u754f\u656c\u3057\u3066\u7fa9\u3092\u884c\u3075\u4eba\u306f\u5fa1\u610f\u306b\u9069\u3078\u308b\u4e8b\u3001\u6211\u771e\u306b\u4e4b\u3092\u8a8d\u3080\u3002"
        },
        {
            "chapter": 10,
            "verse": 36,
            "name": "Acts 10:36",
            "text": "\u795e\u306f\u5fa1\u8a00\u3092\u30a4\u30b9\u30e9\u30a8\u30eb\u306e\u5b50\u7b49\u306b\u9001\u308a\u3001\u30a4\u30a8\u30ba\u30b9\u3001\u30ad\u30ea\u30b9\u30c8\u3092\u4ee5\u3066\u5e73\u5b89\u3092\u544a\u3052\u7d66\u3072\u3057\u304c\u3001\u4e4b\u305e\u842c\u6c11\u306e\u4e3b\u306b\u5728\u3059\u306a\u308b\u3002"
        },
        {
            "chapter": 10,
            "verse": 37,
            "name": "Acts 10:37",
            "text": "\u6c5d\u7b49\u30e6\u30c7\u30a2\u4e00\u822c\u306b\u6210\u308a\u3057\u4e8b\u3092\u77e5\u308c\u308b\u306a\u3089\u3093\u3001\u662f\u5373\u3061\u30e8\u30cf\u30cd\u306e\u5ba3\u50b3\u3078\u3057\u6d17\u79ae\u306e\u5f8c\u3001\u30ac\u30ea\u30ec\u30a2\u3088\u308a\u59cb\u308a\u3057\u4e8b\u306b\u3057\u3066\u3001"
        },
        {
            "chapter": 10,
            "verse": 38,
            "name": "Acts 10:38",
            "text": "\u795e\u306f\u30ca\u30b6\u30ec\u30c8\u3088\u308a\u51fa\u3067\u305f\u308b\u30a4\u30a8\u30ba\u30b9\u306b\u3001\u8056\u970a\u3068\u80fd\u529b\u3068\u3092\u4ee5\u3066\u6ce8\u6cb9\u3057\u7d66\u3072\u3057\u306a\u308a\u3002\u5f7c\u306f\u6148\u5584\u3092\u884c\u3072\u3001\u4e14\u51e1\u3066\u60e1\u9b54\u306b\u58d3\u3078\u3089\u308c\u305f\u308b\u4eba\u3092\u91ab\u3057\u3064\u3064\u4e16\u3092\u904e\u3057\u7d66\u3078\u308a\u3001\u662f\u795e\u5f7c\u3068\u5171\u306b\u5728\u3057\u305f\u308c\u3070\u306a\u308a\u3002"
        },
        {
            "chapter": 10,
            "verse": 39,
            "name": "Acts 10:39",
            "text": "\u6211\u7b49\u306f\u3001\u5176\u30e6\u30c7\u30a2\u4eba\u306e\u5730\u53ca\u3073\u30a8\u30eb\u30b6\u30ec\u30e0\u306b\u65bc\u3066\u70ba\u3057\u7d66\u3057\u4e00\u5207\u306e\u4e8b\u306e\u8b49\u4eba\u306a\u308b\u304c\u30e6\u30c7\u30a2\u4eba\u306f\u4e4b\u3092\u6728\u306b\u78d4\u3051\u3066\u6bba\u3057\u305f\u308c\u3069\u3082\u3001"
        },
        {
            "chapter": 10,
            "verse": 40,
            "name": "Acts 10:40",
            "text": "\u795e\u306f\u4e09\u65e5\u76ee\u306b\u4e4b\u3092\u5fa9\u6d3b\u305b\u3057\u3081\u4e14\u73fe\u308c\u3057\u3081\u7d66\u3078\u308a\u3002"
        },
        {
            "chapter": 10,
            "verse": 41,
            "name": "Acts 10:41",
            "text": "\u4f46\u5176\u306f\u4eba\u6c11\u4e00\u822c\u306b\u306f\u3042\u3089\u3067\u3001\u795e\u3088\u308a\u9810\u5b9a\u305b\u3089\u308c\u3057\u8b49\u4eba\u3001\u5373\u3061\u6b7b\u8005\u306e\u4e2d\u3088\u308a\u5fa9\u6d3b\u3057\u7d66\u3072\u305f\u308b\u5f8c\u3001\u5f7c\u3068\u5171\u306b\u98f2\u98df\u3057\u305f\u308b\u6211\u7b49\u306b\u73fe\u308c\u3057\u3081\u7d66\u3072\u3057\u306a\u308a\u3002"
        },
        {
            "chapter": 10,
            "verse": 42,
            "name": "Acts 10:42",
            "text": "\u4e14\u6211\u304c\u795e\u3088\u308a\u7acb\u3066\u3089\u308c\u3066\u3001\u751f\u8005\u3068\u6b7b\u8005\u3068\u306e\u5be9\u5224\u8005\u305f\u308b\u4e8b\u3092\u4eba\u6c11\u306b\u6559\u3078\u4e14\u8b49\u660e\u3059\u3079\u3057\u3068\u3001\u30a4\u30a8\u30ba\u30b9\u81ea\u3089\u6211\u7b49\u306b\u547d\u3058\u7d66\u3072\u3057\u306a\u308a\u3002"
        },
        {
            "chapter": 10,
            "verse": 43,
            "name": "Acts 10:43",
            "text": "\u7dcf\u3066\u4e4b\u3092\u4fe1\u305a\u308b\u4eba\u306e\u3001\u5176\u5fa1\u540d\u306b\u3088\u308a\u3066\u7f6a\u306e\u8d66\u3092\u53d7\u304f\u308b\u4e8b\u306f\u3001\u9810\u8a00\u8005\u306e\u7686\u8b49\u660e\u3057\u305f\u308b\u6240\u306a\u308a\u3001\u3068\u3002"
        },
        {
            "chapter": 10,
            "verse": 44,
            "name": "Acts 10:44",
            "text": "\u30da\u30c8\u30ed\u5c1a\u662f\u7b49\u306e\u8a00\u3092\u8a9e\u308a\u3064\u3064\u3042\u308b\u306b\u3001\u8056\u970a\u8a00\u3092\u8074\u3051\u308b\u4eba\u3005\u4e00\u540c\u306e\u4e0a\u306b\u964d\u308a\u7d66\u3072\u3001"
        },
        {
            "chapter": 10,
            "verse": 45,
            "name": "Acts 10:45",
            "text": "\u30da\u30c8\u30ed\u306b\u4f34\u3072\u4f86\u308c\u308b\u5272\u79ae\u3042\u308b\u4fe1\u5f92\u306f\u3001\u8056\u970a\u306e\u6069\u5bf5\u304c\u7570\u90a6\u4eba\u306b\u3082\u6ce8\u304c\u308c\u305f\u308b\u306b\u60d8\u679c\u3066\u305f\u308a\u3002"
        },
        {
            "chapter": 10,
            "verse": 46,
            "name": "Acts 10:46",
            "text": "\u5176\u306f\u5f7c\u7b49\u306e\u7570\u306a\u308b\u8a9e\u3092\u8a9e\u308a\u3066\u795e\u3092\u5d07\u3081\u5949\u308b\u3092\u805e\u3051\u3070\u306a\u308a\u3002"
        },
        {
            "chapter": 10,
            "verse": 47,
            "name": "Acts 10:47",
            "text": "\u662f\u306b\u65bc\u3066\u30da\u30c8\u30ed\u7b54\u3078\u3051\u308b\u306f\u3001\u6b64\u4eba\u3005\u306f\u65e2\u306b\u6211\u7b49\u306e\u5982\u304f\u8056\u970a\u3092\u8499\u308a\u305f\u308c\u3070\u3001\u8ab0\u304b\u6c34\u3092\u7981\u3058\u3066\u5176\u6d17\u305b\u3089\u308b\u308b\u3092\u62d2\u307f\u5f97\u3093\u3084\u3001\u3068\u3002"
        },
        {
            "chapter": 10,
            "verse": 48,
            "name": "Acts 10:48",
            "text": "\u65af\u3066\u5f7c\u7b49\u304c\u30a4\u30a8\u30ba\u30b9\u3001\u30ad\u30ea\u30b9\u30c8\u306e\u5fa1\u540d\u306b\u3088\u308a\u3066\u6d17\u305b\u3089\u308c\u3093\u4e8b\u3092\u547d\u305c\u3057\u304b\u3070\u3001\u5f7c\u7b49\u306f\u30da\u30c8\u30ed\u304c\u6578\u65e5\u6b64\u5bb6\u306b\u7559\u3089\u3093\u4e8b\u3092\u8acb\u3078\u308a\u3002 "
        }
    ]
}