{
    "translation": "Svenska Karl XII:s Bibel (1873)",
    "abbreviation": "swekarlxii1873",
    "lang": "sv",
    "language": "Swedish",
    "direction": "LTR",
    "encoding": "UTF-8",
    "book_nr": 31,
    "book_name": "Obadiah",
    "chapter": 1,
    "name": "Obadiah 1",
    "verses": [
        {
            "chapter": 1,
            "verse": 1,
            "name": "Obadiah 1:1",
            "text": "Detta \u00e4r Obadia syn. S\u00e5 s\u00e4ger Herren Herren om Edom: Vi hafve h\u00f6rt af Herranom, att ett b\u00e5dskap \u00e4r s\u00e4ndt ibland Hedningarna: Upp, och l\u00e5ter oss \u00f6rliga emot dem."
        },
        {
            "chapter": 1,
            "verse": 2,
            "name": "Obadiah 1:2",
            "text": "Si, jag hafver gjort dig ringa ibland Hedningarna, och mycket f\u00f6raktad."
        },
        {
            "chapter": 1,
            "verse": 3,
            "name": "Obadiah 1:3",
            "text": "Dins hjertas h\u00f6gmod hafver bedragit dig, efter du bor uti stenklyftor, p\u00e5 din h\u00f6ga slott, och s\u00e4ger i dino hjerta: Ho vill drifva mig h\u00e4r neder?"
        },
        {
            "chapter": 1,
            "verse": 4,
            "name": "Obadiah 1:4",
            "text": "Om du \u00e4n fore uppe i h\u00f6jdene, lika som en \u00f6rn, och gjorde ditt n\u00e4ste ibland stjernorna, s\u00e5 vill jag likv\u00e4l draga dig der neder, s\u00e4ger Herren."
        },
        {
            "chapter": 1,
            "verse": 5,
            "name": "Obadiah 1:5",
            "text": "Om tjufvar eller f\u00f6rh\u00e4rjare komma om nattena \u00f6fver dig, o! huru tyst skall du d\u00e5 varda; ja, de skola nog stj\u00e4la; och om vinhemtare \u00f6fver dig komma, s\u00e5 skola de icke lefva dig n\u00e5gon efterhemtning."
        },
        {
            "chapter": 1,
            "verse": 6,
            "name": "Obadiah 1:6",
            "text": "O! huru skola de utransaka Esau, och upps\u00f6ka hans h\u00e5fvor."
        },
        {
            "chapter": 1,
            "verse": 7,
            "name": "Obadiah 1:7",
            "text": "Alle de, som i f\u00f6rbund med dig \u00e4ro, de skola drifva dig bort utu landet; de m\u00e4n der du s\u00e4tter din tr\u00f6st till, de skola bedraga dig, och \u00f6fverfalla dig; de som \u00e4ta ditt br\u00f6d, de skola f\u00f6rr\u00e5da dig, f\u00f6rr \u00e4n du vetst der n\u00e5got af."
        },
        {
            "chapter": 1,
            "verse": 8,
            "name": "Obadiah 1:8",
            "text": "Hvad g\u00e4ller, s\u00e4ger Herren, jag skall p\u00e5 den tiden nederl\u00e4gga de visa i Edom, och den klokhet p\u00e5 Esau berg."
        },
        {
            "chapter": 1,
            "verse": 9,
            "name": "Obadiah 1:9",
            "text": "Ty dine starke i Theman skola f\u00f6rtvifla, p\u00e5 det de alle skola f\u00f6rg\u00e5s genom mord, p\u00e5 Esau berg."
        },
        {
            "chapter": 1,
            "verse": 10,
            "name": "Obadiah 1:10",
            "text": "F\u00f6r den or\u00e4tts skull, som emot din broder Jacob bedrifven vardt, skall du p\u00e5 all skam komma, och till evig tid f\u00f6rlagd varda."
        },
        {
            "chapter": 1,
            "verse": 11,
            "name": "Obadiah 1:11",
            "text": "Den tid, d\u00e5 du emot honom stod, d\u00e5 fr\u00e4mmande bortf\u00f6rde hans h\u00e4r f\u00e5ngnan, och utl\u00e4ndningar drogo in igenom hans portar, och kastade lott \u00f6fver Jerusalem, d\u00e5 vast du lika som en af dem."
        },
        {
            "chapter": 1,
            "verse": 12,
            "name": "Obadiah 1:12",
            "text": "Du skall intet mer se dina lust p\u00e5 dinom broder, i hans el\u00e4ndes tid, och skall icke mer gl\u00e4dja dig \u00f6fver Juda barn, i deras j\u00e4mmers tid; och skall icke tala s\u00e5 stolt ord med din mun, i deras \u00e5ngests tid."
        },
        {
            "chapter": 1,
            "verse": 13,
            "name": "Obadiah 1:13",
            "text": "Du skall icke indraga genom mins folks portar, i deras j\u00e4mmers tid; du skall icke se dina lust p\u00e5 deras olycko, uti deras j\u00e4mmers tid; du skall icke s\u00e4nda emot deras h\u00e4r, uti deras j\u00e4mmers tid."
        },
        {
            "chapter": 1,
            "verse": 14,
            "name": "Obadiah 1:14",
            "text": "Du skall icke st\u00e5 i v\u00e4gask\u00e4l, till att m\u00f6rda deras flyktiga; du skall icke f\u00f6rr\u00e5da deras qvarblefna, i deras \u00e5ngests tid."
        },
        {
            "chapter": 1,
            "verse": 15,
            "name": "Obadiah 1:15",
            "text": "Ty Herrans dag \u00e4r hardt n\u00e4r \u00f6fver alla Hedningar. Lika som du gjort hafver, s\u00e5 skall dig ske igen; och s\u00e5som du f\u00f6rtjent hafver, s\u00e5 skall det komma dig upp\u00e5 ditt hufvud igen."
        },
        {
            "chapter": 1,
            "verse": 16,
            "name": "Obadiah 1:16",
            "text": "Ty lika som I p\u00e5 mitt helga berg druckit hafven, s\u00e5 skola alle Hedningar dricka allt framgent; ja, de skola utsupat och uppsv\u00e4lgat, att det skall vara lika som der aldrig n\u00e5got varit hade."
        },
        {
            "chapter": 1,
            "verse": 17,
            "name": "Obadiah 1:17",
            "text": "Men p\u00e5 Zions berg skola \u00e4nnu somlige hulpne varda; de skola vara en helgedom, och Jacobs hus skall besitta sina besittare."
        },
        {
            "chapter": 1,
            "verse": 18,
            "name": "Obadiah 1:18",
            "text": "Och Jacobs hus skall en eld varda, och Josephs hus en l\u00e5ge, men Esau hus str\u00e5; de skola uppt\u00e4nda och f\u00f6rt\u00e4ra det, s\u00e5 att Esau huse intet skall qvart blifva; ty Herren hafver det talat."
        },
        {
            "chapter": 1,
            "verse": 19,
            "name": "Obadiah 1:19",
            "text": "Och de s\u00f6derut skola, besitta Esau berg, och de i dalomen skola besitta de Philisteer; ja, de skola besitta Ephraims mark, och Samarie mark; och BenJamin Gileads berg."
        },
        {
            "chapter": 1,
            "verse": 20,
            "name": "Obadiah 1:20",
            "text": "Och de f\u00f6rdrefne af denna Israels barnas h\u00e4r, hvilke ibland de Cananeer allt intill Zarpath \u00e4ro, och de f\u00f6rdrefne af Jerusalems stad, hvilke i Sepharad \u00e4ro, skola besitta de st\u00e4der s\u00f6derut."
        },
        {
            "chapter": 1,
            "verse": 21,
            "name": "Obadiah 1:21",
            "text": "Och fr\u00e4lsare skola uppkomma p\u00e5 Zions berg, till att d\u00f6ma Esau berg. Allts\u00e5 skall d\u00e5 riket vara Herrans.   "
        }
    ]
}