{
    "translation": "NCV Traditional",
    "abbreviation": "cnt",
    "lang": "zh",
    "language": "",
    "direction": "LTR",
    "encoding": "UTF-8",
    "book_nr": 40,
    "book_name": "Matthew",
    "chapter": 25,
    "name": "Matthew 25",
    "verses": [
        {
            "chapter": 25,
            "verse": 1,
            "name": "Matthew 25:1",
            "text": "\u201c\u90a3\u6642\uff0c\u5929\u570b\u597d\u50cf\u5341\u500b\u7ae5\u5973\uff0c\u62ff\u8457\u5979\u5011\u7684\u71c8\u51fa\u53bb\u8fce\u63a5\u65b0\u90ce\u3002"
        },
        {
            "chapter": 25,
            "verse": 2,
            "name": "Matthew 25:2",
            "text": "\u5979\u5011\u4e2d\u9593\u6709\u4e94\u500b\u662f\u611a\u8822\u7684\uff0c\u4e94\u500b\u662f\u8070\u660e\u7684\u3002"
        },
        {
            "chapter": 25,
            "verse": 3,
            "name": "Matthew 25:3",
            "text": "\u90a3\u4e9b\u611a\u8822\u7684\u62ff\u8457\u71c8\uff0c\u537b\u6c92\u6709\u5e36\u6cb9\uff1b"
        },
        {
            "chapter": 25,
            "verse": 4,
            "name": "Matthew 25:4",
            "text": "\u4f46\u90a3\u4e9b\u8070\u660e\u7684\u62ff\u8457\u71c8\uff0c\u4e5f\u628a\u6cb9\u88dd\u5728\u74f6\u88e1\u5e36\u4f86\u3002"
        },
        {
            "chapter": 25,
            "verse": 5,
            "name": "Matthew 25:5",
            "text": "\u65b0\u90ce\u5f88\u665a\u9084\u6c92\u6709\u5230\uff0c\u5979\u5011\u90fd\u6253\u778c\u7761\uff0c\u800c\u4e14\u7761\u8457\u4e86\u3002"
        },
        {
            "chapter": 25,
            "verse": 6,
            "name": "Matthew 25:6",
            "text": "\u534a\u591c\uff0c\u6709\u4eba\u558a\u53eb\uff1a\u2018\u65b0\u90ce\u4f86\u4e86\uff0c\u5feb\u51fa\u4f86\u8fce\u63a5\u4ed6\u3002\u2019"
        },
        {
            "chapter": 25,
            "verse": 7,
            "name": "Matthew 25:7",
            "text": "\u90a3\u4e9b\u7ae5\u5973\u90fd\u9192\u904e\u4f86\uff0c\u6574\u7406\u5979\u5011\u7684\u71c8\u3002"
        },
        {
            "chapter": 25,
            "verse": 8,
            "name": "Matthew 25:8",
            "text": "\u611a\u8822\u7684\u5c0d\u8070\u660e\u7684\u8aaa\uff1a\u2018\u8acb\u628a\u4f60\u5011\u7684\u6cb9\u5206\u4e00\u9ede\u7d66\u6211\u5011\uff0c\u6211\u5011\u7684\u71c8\u5feb\u8981\u6ec5\u4e86\u3002\u2019"
        },
        {
            "chapter": 25,
            "verse": 9,
            "name": "Matthew 25:9",
            "text": "\u8070\u660e\u7684\u56de\u7b54\uff1a\u2018\u9019\u4e9b\u6050\u6015\u4e0d\u5920\u6211\u5011\u5927\u5bb6\u7528\uff0c\u4e0d\u5982\u4f60\u5011\u81ea\u5df1\u5230\u8ce3\u6cb9\u7684\u5730\u65b9\u53bb\u8cb7\u5427\uff01\u2019"
        },
        {
            "chapter": 25,
            "verse": 10,
            "name": "Matthew 25:10",
            "text": "\u5979\u5011\u53bb\u8cb7\u6cb9\u7684\u6642\u5019\uff0c\u65b0\u90ce\u4f86\u4e86\uff1b\u6e96\u5099\u597d\u4e86\u7684\u7ae5\u5973\u5c31\u548c\u4ed6\u4e00\u540c\u9032\u53bb\u53c3\u52a0\u5a5a\u7b75\uff0c\u9580\u5c31\u95dc\u4e0a\u4e86\u3002"
        },
        {
            "chapter": 25,
            "verse": 11,
            "name": "Matthew 25:11",
            "text": "\u5f8c\u4f86\uff0c\u5176\u9918\u7684\u7ae5\u5973\u4e5f\u4f86\u5230\uff0c\u8aaa\uff1a\u2018\u4e3b\u554a\uff0c\u4e3b\u554a\uff0c\u7d66\u6211\u5011\u958b\u9580\u5427\uff01\u2019"
        },
        {
            "chapter": 25,
            "verse": 12,
            "name": "Matthew 25:12",
            "text": "\u65b0\u90ce\u537b\u56de\u7b54\uff1a\u2018\u6211\u5be6\u5728\u544a\u8a34\u4f60\u5011\uff0c\u6211\u4e0d\u8a8d\u8b58\u4f60\u5011\u3002\u2019"
        },
        {
            "chapter": 25,
            "verse": 13,
            "name": "Matthew 25:13",
            "text": "\u6240\u4ee5\u4f60\u5011\u8981\u8b66\u9192\uff0c\u56e0\u70ba\u4e0d\u77e5\u9053\u90a3\u65e5\u5b50\u548c\u90a3\u6642\u9593\u3002"
        },
        {
            "chapter": 25,
            "verse": 14,
            "name": "Matthew 25:14",
            "text": "\u201c\u5929\u570b\u53c8\u50cf\u4e00\u500b\u4eba\u8981\u51fa\u5916\u9060\u884c\uff0c\u5c31\u53eb\u81ea\u5df1\u7684\u50d5\u4eba\u4f86\uff0c\u628a\u7522\u696d\u4ea4\u7d66\u4ed6\u5011\u3002"
        },
        {
            "chapter": 25,
            "verse": 15,
            "name": "Matthew 25:15",
            "text": "\u4ed6\u6309\u7167\u5404\u4eba\u7684\u624d\u5e79\uff0c\u4e00\u500b\u7d66\u4e09\u842c\u500b\u9280\u5e63\uff0c\u4e00\u500b\u7d66\u4e00\u842c\u4e8c\u5343\u500b\u9280\u5e63\uff0c\u4e00\u500b\u7d66\u516d\u5343\u500b\u9280\u5e63\uff08\u539f\u6587\u4f5c\u201c\u4e94\u500b\uff0c\u4e8c\u500b\uff0c\u4e00\u500b\u4ed6\u9023\u5f97\u201d\uff1b\u4e00\u500b\u4ed6\u9023\u5f97\u7b49\u65bc\u516d\u5343\u500b\u9280\u5e63\uff09\uff0c\u7136\u5f8c\u5c31\u9060\u884c\u53bb\u4e86\u3002"
        },
        {
            "chapter": 25,
            "verse": 16,
            "name": "Matthew 25:16",
            "text": "\u90a3\u9818\u4e86\u4e09\u842c\u7684\u99ac\u4e0a\u53bb\u505a\u751f\u610f\uff0c\u53e6\u5916\u8cfa\u4e86\u4e09\u842c\u3002"
        },
        {
            "chapter": 25,
            "verse": 17,
            "name": "Matthew 25:17",
            "text": "\u90a3\u9818\u4e86\u4e00\u842c\u4e8c\u5343\u7684\u4e5f\u662f\u9019\u6a23\uff0c\u53e6\u8cfa\u4e86\u4e00\u842c\u4e8c\u5343\u3002"
        },
        {
            "chapter": 25,
            "verse": 18,
            "name": "Matthew 25:18",
            "text": "\u4f46\u90a3\u9818\u4e86\u516d\u5343\u7684\uff0c\u537b\u53bb\u628a\u5730\u6316\u958b\uff0c\u628a\u4e3b\u4eba\u7684\u9322\u85cf\u8d77\u4f86\u3002"
        },
        {
            "chapter": 25,
            "verse": 19,
            "name": "Matthew 25:19",
            "text": "\u904e\u4e86\u5f88\u4e45\uff0c\u90a3\u4e9b\u50d5\u4eba\u7684\u4e3b\u4eba\u56de\u4f86\u4e86\uff0c\u8981\u548c\u4ed6\u5011\u7b97\u5e33\u3002"
        },
        {
            "chapter": 25,
            "verse": 20,
            "name": "Matthew 25:20",
            "text": "\u90a3\u9818\u4e86\u4e09\u842c\u500b\u9280\u5e63\u7684\uff0c\u5e36\u8457\u53e6\u5916\u7684\u4e09\u842c\u524d\u4f86\uff0c\u8aaa\uff1a\u2018\u4e3b\u554a\uff0c\u4f60\u4ea4\u4e86\u4e09\u842c\u7d66\u6211\uff0c\u4f60\u770b\uff0c\u6211\u53c8\u8cfa\u4e86\u4e09\u842c\u3002\u2019"
        },
        {
            "chapter": 25,
            "verse": 21,
            "name": "Matthew 25:21",
            "text": "\u4e3b\u4eba\u5c0d\u4ed6\u8aaa\uff1a\u2018\u53c8\u826f\u5584\u53c8\u5fe0\u5fc3\u7684\u50d5\u4eba\u54ea\uff0c\u4f60\u4f5c\u5f97\u597d\uff01\u4f60\u65e2\u7136\u5728\u4e0d\u591a\u7684\u4e8b\u4e0a\u5fe0\u5fc3\uff0c\u6211\u8981\u6d3e\u4f60\u7ba1\u7406\u8a31\u591a\u7684\u4e8b\u3002\u9032\u4f86\uff0c\u4eab\u53d7\u4f60\u4e3b\u4eba\u7684\u5feb\u6a02\u5427\uff01\u2019"
        },
        {
            "chapter": 25,
            "verse": 22,
            "name": "Matthew 25:22",
            "text": "\u90a3\u9818\u4e86\u4e00\u842c\u4e8c\u5343\u7684\u4e5f\u524d\u4f86\uff0c\u8aaa\uff1a\u2018\u4e3b\u554a\uff0c\u4f60\u4ea4\u4e86\u4e00\u842c\u4e8c\u5343\u7d66\u6211\uff0c\u4f60\u770b\uff0c\u6211\u53c8\u8cfa\u4e86\u4e00\u842c\u4e8c\u5343\u3002\u2019"
        },
        {
            "chapter": 25,
            "verse": 23,
            "name": "Matthew 25:23",
            "text": "\u4e3b\u4eba\u5c0d\u4ed6\u8aaa\uff1a\u2018\u53c8\u826f\u5584\u53c8\u5fe0\u5fc3\u7684\u50d5\u4eba\u54ea\uff0c\u4f60\u4f5c\u5f97\u597d\uff01\u4f60\u65e2\u7136\u5728\u4e0d\u591a\u7684\u4e8b\u4e0a\u5fe0\u5fc3\uff0c\u6211\u8981\u6d3e\u4f60\u7ba1\u7406\u8a31\u591a\u7684\u4e8b\u3002\u9032\u4f86\uff0c\u4eab\u53d7\u4f60\u4e3b\u4eba\u7684\u5feb\u6a02\u5427\uff01\u2019"
        },
        {
            "chapter": 25,
            "verse": 24,
            "name": "Matthew 25:24",
            "text": "\u90a3\u9818\u4e86\u516d\u5343\u7684\u4e5f\u524d\u4f86\uff0c\u8aaa\uff1a\u2018\u4e3b\u554a\uff0c\u6211\u77e5\u9053\u4f60\u662f\u500b\u56b4\u53b2\u7684\u4eba\uff0c\u6c92\u6709\u6492\u7a2e\u7684\u5730\u65b9\uff0c\u4f60\u8981\u6536\u5272\uff1b\u6c92\u6709\u6563\u64ad\u7684\u5730\u65b9\uff0c\u4f60\u8981\u6536\u805a\u3002"
        },
        {
            "chapter": 25,
            "verse": 25,
            "name": "Matthew 25:25",
            "text": "\u6240\u4ee5\uff0c\u6211\u5c31\u5bb3\u6015\u8d77\u4f86\uff0c\u53bb\u628a\u4f60\u7684\u9322\u85cf\u5728\u5730\u88e1\u3002\u4f60\u770b\uff0c\u4f60\u7684\u9322\u9084\u5728\u9019\u88e1\u3002\u2019"
        },
        {
            "chapter": 25,
            "verse": 26,
            "name": "Matthew 25:26",
            "text": "\u53ef\u662f\u4e3b\u4eba\u5c0d\u4ed6\u8aaa\uff1a\u2018\u4f60\u9019\u500b\u53c8\u53ef\u60e1\u53c8\u61f6\u60f0\u7684\u50d5\u4eba\uff0c\u4f60\u65e2\u7136\u77e5\u9053\u6211\u8981\u5728\u6c92\u6709\u6492\u7a2e\u7684\u5730\u65b9\u6536\u5272\uff0c\u5728\u6c92\u6709\u6563\u64ad\u7684\u5730\u65b9\u6536\u805a\uff0c"
        },
        {
            "chapter": 25,
            "verse": 27,
            "name": "Matthew 25:27",
            "text": "\u90a3\u4f60\u5c31\u61c9\u8a72\u628a\u6211\u7684\u9322\u5b58\u5165\u9280\u884c\uff0c\u5230\u6211\u56de\u4f86\u7684\u6642\u5019\uff0c\u53ef\u4ee5\u9023\u672c\u5e36\u5229\u6536\u56de\u3002"
        },
        {
            "chapter": 25,
            "verse": 28,
            "name": "Matthew 25:28",
            "text": "\u4f60\u5011\u628a\u4ed6\u7684\u516d\u5343\u9280\u5e63\u62ff\u53bb\uff0c\u4ea4\u7d66\u90a3\u500b\u6709\u516d\u842c\u7684\u3002"
        },
        {
            "chapter": 25,
            "verse": 29,
            "name": "Matthew 25:29",
            "text": "\u56e0\u70ba\u51e1\u662f\u6709\u7684\uff0c\u9084\u8981\u7d66\u4ed6\uff0c\u4ed6\u5c31\u5145\u8db3\u6709\u9918\uff1b\u51e1\u662f\u6c92\u6709\u7684\uff0c\u5c31\u7b97\u4ed6\u6709\u751a\u9ebc\u4e5f\u8981\u62ff\u53bb\u3002"
        },
        {
            "chapter": 25,
            "verse": 30,
            "name": "Matthew 25:30",
            "text": "\u628a\u9019\u6c92\u6709\u7528\u7684\u50d5\u4eba\u4e1f\u5728\u5916\u9762\u7684\u9ed1\u6697\u88e1\uff0c\u5728\u90a3\u88e1\u5fc5\u8981\u54c0\u54ed\u5207\u9f52\u3002\u2019"
        },
        {
            "chapter": 25,
            "verse": 31,
            "name": "Matthew 25:31",
            "text": "\u201c\u7576\u4eba\u5b50\u5728\u4ed6\u7684\u69ae\u8000\u88e1\uff0c\u5e36\u8457\u6240\u6709\u7684\u4f7f\u8005\u964d\u81e8\u7684\u6642\u5019\uff0c\u4ed6\u8981\u5750\u5728\u69ae\u8000\u7684\u5bf6\u5ea7\u4e0a\u3002"
        },
        {
            "chapter": 25,
            "verse": 32,
            "name": "Matthew 25:32",
            "text": "\u842c\u65cf\u8981\u805a\u96c6\u5728\u4ed6\u9762\u524d\uff0c\u4ed6\u8981\u628a\u4ed6\u5011\u5f7c\u6b64\u5206\u958b\uff0c\u597d\u50cf\u7267\u7f8a\u4eba\u628a\u7dbf\u7f8a\u548c\u5c71\u7f8a\u5206\u958b\u4e00\u6a23\uff1a"
        },
        {
            "chapter": 25,
            "verse": 33,
            "name": "Matthew 25:33",
            "text": "\u628a\u7dbf\u7f8a\u653e\u5728\u53f3\u908a\uff0c\u5c71\u7f8a\u653e\u5728\u5de6\u908a\u3002"
        },
        {
            "chapter": 25,
            "verse": 34,
            "name": "Matthew 25:34",
            "text": "\u90a3\u6642\uff0c\u738b\u8981\u5c0d\u53f3\u908a\u7684\u8aaa\uff1a\u2018\u8499\u6211\u7236\u8cdc\u798f\u7684\uff0c\u4f86\u627f\u53d7\u5275\u4e16\u4ee5\u4f86\u70ba\u4f60\u5011\u9810\u5099\u597d\u7684\u570b\u5427\u3002"
        },
        {
            "chapter": 25,
            "verse": 35,
            "name": "Matthew 25:35",
            "text": "\u56e0\u70ba\u6211\u9913\u4e86\uff0c\u4f60\u5011\u7d66\u6211\u5403\uff1b\u6211\u6e34\u4e86\uff0c\u4f60\u5011\u7d66\u6211\u559d\uff1b\u6211\u4f5c\u65c5\u5ba2\uff0c\u4f60\u5011\u63a5\u5f85\u6211\uff1b"
        },
        {
            "chapter": 25,
            "verse": 36,
            "name": "Matthew 25:36",
            "text": "\u6211\u8d64\u8eab\u9732\u9ad4\uff0c\u4f60\u5011\u7d66\u6211\u8863\u670d\u7a7f\uff1b\u6211\u75c5\u4e86\uff0c\u4f60\u5011\u770b\u9867\u6211\uff1b\u6211\u5728\u76e3\u88e1\uff0c\u4f60\u5011\u4f86\u770b\u6211\u3002\u2019"
        },
        {
            "chapter": 25,
            "verse": 37,
            "name": "Matthew 25:37",
            "text": "\u7fa9\u4eba\u5c31\u56de\u7b54\uff1a\u2018\u4e3b\u554a\uff0c\u6211\u5011\u751a\u9ebc\u6642\u5019\u898b\u4f60\u9913\u4e86\u5c31\u7d66\u4f60\u5403\uff0c\u6e34\u4e86\u5c31\u7d66\u4f60\u559d\u5462\uff1f"
        },
        {
            "chapter": 25,
            "verse": 38,
            "name": "Matthew 25:38",
            "text": "\u53c8\u751a\u9ebc\u6642\u5019\u898b\u4f60\u4f5c\u65c5\u5ba2\u5c31\u63a5\u5f85\u4f60\uff0c\u8d64\u8eab\u9732\u9ad4\u5c31\u7d66\u4f60\u8863\u670d\u7a7f\u5462\uff1f"
        },
        {
            "chapter": 25,
            "verse": 39,
            "name": "Matthew 25:39",
            "text": "\u6216\u8005\u751a\u9ebc\u6642\u5019\u898b\u4f60\u75c5\u4e86\uff0c\u6216\u5728\u76e3\u88e1\u5c31\u4f86\u770b\u4f60\u5462\uff1f\u2019"
        },
        {
            "chapter": 25,
            "verse": 40,
            "name": "Matthew 25:40",
            "text": "\u738b\u8981\u56de\u7b54\u4ed6\u5011\uff1a\u2018\u6211\u5be6\u5728\u544a\u8a34\u4f60\u5011\uff0c\u4f60\u5011\u6240\u4f5c\u7684\uff0c\u53ea\u8981\u662f\u4f5c\u5728\u6211\u4e00\u500b\u6700\u5c0f\u7684\u5f1f\u5144\u8eab\u4e0a\uff0c\u5c31\u662f\u4f5c\u5728\u6211\u7684\u8eab\u4e0a\u4e86\u3002\u2019"
        },
        {
            "chapter": 25,
            "verse": 41,
            "name": "Matthew 25:41",
            "text": "\u201c\u738b\u4e5f\u8981\u5c0d\u5de6\u908a\u7684\u8aaa\uff1a\u2018\u4f60\u5011\u9019\u88ab\u5492\u8a5b\u7684\uff0c\u96e2\u958b\u6211\uff0c\u5230\u70ba\u9b54\u9b3c\u548c\u4ed6\u7684\u4f7f\u8005\u6240\u9810\u5099\u7684\u6c38\u706b\u88e1\u53bb\u5427\uff01"
        },
        {
            "chapter": 25,
            "verse": 42,
            "name": "Matthew 25:42",
            "text": "\u56e0\u70ba\u6211\u9913\u4e86\uff0c\u4f60\u5011\u6c92\u6709\u7d66\u6211\u5403\uff1b\u6211\u6e34\u4e86\uff0c\u4f60\u5011\u6c92\u6709\u7d66\u6211\u559d\uff1b"
        },
        {
            "chapter": 25,
            "verse": 43,
            "name": "Matthew 25:43",
            "text": "\u6211\u4f5c\u65c5\u5ba2\uff0c\u4f60\u5011\u6c92\u6709\u63a5\u5f85\u6211\uff1b\u6211\u8d64\u8eab\u9732\u9ad4\uff0c\u4f60\u5011\u6c92\u6709\u7d66\u6211\u8863\u670d\u7a7f\uff1b\u6211\u75c5\u4e86\uff0c\u6211\u5728\u76e3\u88e1\uff0c\u4f60\u5011\u6c92\u6709\u770b\u9867\u6211\u3002\u2019"
        },
        {
            "chapter": 25,
            "verse": 44,
            "name": "Matthew 25:44",
            "text": "\u4ed6\u5011\u5c31\u56de\u7b54\uff1a\u2018\u4e3b\u554a\uff0c\u6211\u5011\u751a\u9ebc\u6642\u5019\u898b\u4f60\u9913\u4e86\u3001\u6e34\u4e86\u3001\u4f5c\u65c5\u5ba2\u3001\u8d64\u8eab\u9732\u9ad4\u3001\u75c5\u4e86\uff0c\u6216\u5728\u76e3\u88e1\uff0c\u537b\u6c92\u6709\u670d\u4e8b\u4f60\u5462\uff1f\u2019"
        },
        {
            "chapter": 25,
            "verse": 45,
            "name": "Matthew 25:45",
            "text": "\u738b\u8981\u56de\u7b54\u4ed6\u5011\uff1a\u2018\u6211\u5be6\u5728\u544a\u8a34\u4f60\u5011\uff0c\u9019\u4e9b\u4e8b\u4f60\u5011\u65e2\u7136\u6c92\u6709\u4f5c\u5728\u4e00\u500b\u6700\u5c0f\u7684\u8eab\u4e0a\uff0c\u5c31\u662f\u6c92\u6709\u4f5c\u5728\u6211\u7684\u8eab\u4e0a\u4e86\u3002\u2019"
        },
        {
            "chapter": 25,
            "verse": 46,
            "name": "Matthew 25:46",
            "text": "\u4ed6\u5011\u8981\u9032\u5165\u6c38\u9060\u7684\u5211\u7f70\uff0c\u7fa9\u4eba\u537b\u8981\u9032\u5165\u6c38\u751f\u3002\u201d"
        }
    ]
}