{
    "translation": "K'ekchi' Bible",
    "abbreviation": "kekchi",
    "lang": "kek",
    "language": "Kekchi",
    "direction": "LTR",
    "encoding": "UTF-8",
    "book_nr": 32,
    "book_name": "Jonah",
    "chapter": 1,
    "name": "Jonah 1",
    "verses": [
        {
            "chapter": 1,
            "verse": 1,
            "name": "Jonah 1:1",
            "text": "  Jo\u02c8ca\u02c8in quixye li Ka\u0331cua\u02c8 re laj Jon\u00e1s li ralal laj Amitai: "
        },
        {
            "chapter": 1,
            "verse": 2,
            "name": "Jonah 1:2",
            "text": "\u2014Ayu aran sa\u02c8 li nimla tenamit N\u00ednive. Ta\u0331k\u02c8useb ut ye reheb nak yo\u0331quin chixq\u02c8uebal retal li ma\u0331usilal li yo\u0331queb chixba\u0331nunquil, chan li Ka\u0331cua\u02c8. "
        },
        {
            "chapter": 1,
            "verse": 3,
            "name": "Jonah 1:3",
            "text": "Abanan laj Jon\u00e1s inc\u02c8a\u02c8 qui-abin chiru li Ka\u0331cua\u02c8. Quie\u0331lelic ban chiru. Co\u0331 sa\u02c8 li tenamit Jope li cuan chire li palau. Aran quixtau jun li nimla jucub ac xic re Tarsis. Quixtoj re nak ta\u0331xic chi najt sa\u02c8 li tenamit Tarsis ut qui-oc sa\u02c8 li jucub. Sa\u02c8 xch\u02c8o\u0331l a\u02c8an nak yo\u0331 chixmukbal rib chiru li Ka\u0331cua\u02c8. "
        },
        {
            "chapter": 1,
            "verse": 4,
            "name": "Jonah 1:4",
            "text": "Abanan li Ka\u0331cua\u02c8 quixtakla jun li cak-sut-ik\u02c8 sa\u02c8 xbe\u0331n li palau. Numtajenak cui\u02c8chic cau li cak-sut-ik\u02c8. Que\u02c8xc\u02c8oxla nak oc re chi jachec\u02c8 li jucub. "
        },
        {
            "chapter": 1,
            "verse": 5,
            "name": "Jonah 1:5",
            "text": "C\u02c8ajo\u02c8 nak que\u02c8xucuac eb laj c\u02c8amol re li jucub ut chi xjunju\u0331nkaleb que\u02c8oc xya\u0331banquil xc\u02c8aba\u02c8 lix dioseb. Que\u02c8risi li i\u0331k ut que\u02c8xcut sa\u02c8 li palau re nak ta\u0331jebk li ra\u0331lal li jucub. Abanan laj Jon\u00e1s toj chi sa\u02c8 li nimla jucub cuan ut aran sa yo\u0331 chi cua\u0331rc. "
        },
        {
            "chapter": 1,
            "verse": 6,
            "name": "Jonah 1:6",
            "text": "Ut li nataklan sa\u02c8 li jucub co\u0331 cuan cui\u02c8 laj Jon\u00e1s ut quixye re: \u2014Ut la\u0331at, \u00bfc\u02c8a\u02c8ut nak yo\u0331cat chi cua\u0331rc? Cuaclin ut ya\u0331ba xc\u02c8aba\u02c8 la\u0331 Dios. Ma\u0331re chan nak a\u02c8an ta\u0331ril xtok\u02c8oba\u0331l ku ut toxtenk\u02c8a re nak inc\u02c8a\u02c8 to-osok\u02c8, chan. "
        },
        {
            "chapter": 1,
            "verse": 7,
            "name": "Jonah 1:7",
            "text": "Ut que\u02c8xye chi ribileb rib laj c\u02c8amol re li jucub: \u2014Kabu\u0331lihak kix re takil ani cuan xma\u0331c nak yo\u0331co chixc\u02c8ulbal li raylal a\u02c8in, chanqueb. Ut que\u02c8xbu\u0331li rixeb ut li ma\u0331c quit\u02c8ane\u02c8 sa\u02c8 xbe\u0331n laj Jon\u00e1s. "
        },
        {
            "chapter": 1,
            "verse": 8,
            "name": "Jonah 1:8",
            "text": "Ut que\u02c8xye re: \u2014Ye ke anakcuan c\u02c8a\u02c8ut nak yo\u0331co chixc\u02c8ulbal li raylal a\u02c8in. \u00bfC\u02c8a\u02c8ru la\u0331 c\u02c8anjel? \u00bfBar a\u0331tenamit? Ye ke anihat ut bar xatchal, chanqueb. "
        },
        {
            "chapter": 1,
            "verse": 9,
            "name": "Jonah 1:9",
            "text": "Quichak\u02c8oc ut quixye reheb: \u2014La\u0331in jun aj hebreo ut ninxucua ru li Ka\u0331cua\u02c8 Dios li cuan sa\u02c8 choxa, li quiyi\u0331ban re li palau ut li ruchich\u02c8och\u02c8, chan. "
        },
        {
            "chapter": 1,
            "verse": 10,
            "name": "Jonah 1:10",
            "text": "Ut laj Jon\u00e1s quixye reheb nak yo\u0331 chi e\u0331lelic chiru li Ka\u0331cua\u02c8. Ut c\u02c8ajo\u02c8 nak que\u02c8xucuac li cui\u0331nk ut que\u02c8xye re: \u2014\u00bfC\u02c8a\u02c8ut nak xaba\u0331nu chi jo\u02c8can? chanqueb. "
        },
        {
            "chapter": 1,
            "verse": 11,
            "name": "Jonah 1:11",
            "text": "Ut nak k\u02c8axal cui\u02c8chic yo\u0331 chi cacuu\u0331c lix cau ok li ha\u02c8, que\u02c8xye re: \u2014\u00bfC\u02c8a\u02c8ru takaba\u0331nu a\u0331cuiq\u02c8uin re nak ta\u0331ch\u02c8ana\u0331k ru li palau? chanqueb. "
        },
        {
            "chapter": 1,
            "verse": 12,
            "name": "Jonah 1:12",
            "text": "Laj Jon\u00e1s quixye reheb: \u2014Cutumakin sa\u02c8 li palau ut li palau ta\u0331ch\u02c8ana\u0331k ru. Ninnau nak inma\u0331c la\u0331in nak yo\u0331quex chixc\u02c8ulbal li raylal a\u02c8in. Inma\u0331c la\u0331in nak xchal li cak-sut-ik\u02c8 a\u02c8in, chan. "
        },
        {
            "chapter": 1,
            "verse": 13,
            "name": "Jonah 1:13",
            "text": "Abanan eb li cui\u0331nk li yo\u0331queb chi c\u02c8amoc re li jucub inc\u02c8a\u02c8 que\u02c8xba\u0331nu li quixye laj Jon\u00e1s. Que\u02c8xyal ban xk\u02c8e xc\u02c8ambal li jucub chire li palau chi ch\u02c8och\u02c8el. Abanan inc\u02c8a\u02c8 que\u02c8ru xban nak k\u02c8axal cui\u02c8chic cau li cak-sut-ik\u02c8 ut yo\u0331 chixcutbal rib lix cau ok li ha\u02c8 sa\u02c8 xbe\u0331neb. "
        },
        {
            "chapter": 1,
            "verse": 14,
            "name": "Jonah 1:14",
            "text": "Tojo\u02c8nak que\u02c8tijoc ut que\u02c8xtz\u02c8a\u0331ma xtenk\u02c8anquil chiru li Ka\u0331cua\u02c8 Dios ut que\u02c8xye: \u2014At nimajcual Dios, moa\u0331q\u02c8ue taxak chi ca\u0331mc xma\u0331c a cui\u0331nk a\u02c8in. Ut ma\u0331q\u02c8ue taxak sa\u02c8 kabe\u0331n lix camic xban nak la\u0331at, at Dios, xaba\u0331nu li c\u02c8a\u02c8ru xacuaj, chanqueb. "
        },
        {
            "chapter": 1,
            "verse": 15,
            "name": "Jonah 1:15",
            "text": "Nak que\u02c8rake\u02c8 chi tijoc, que\u02c8xchap laj Jon\u00e1s ut que\u02c8xcut sa\u02c8 li palau ut ch\u02c8anamil ru li palau quicana. "
        },
        {
            "chapter": 1,
            "verse": 16,
            "name": "Jonah 1:16",
            "text": "Nak que\u02c8ril li c\u02c8a\u02c8ru quixba\u0331nu li Dios, que\u02c8xxucua ru ut que\u02c8mayejac chiru ut que\u02c8xyechi\u02c8i ajcui\u02c8 re nak te\u02c8c\u02c8anjelak chiru. "
        },
        {
            "chapter": 1,
            "verse": 17,
            "name": "Jonah 1:17",
            "text": "Ut li Dios quixcauresi jun li nimla car re ta\u0331nuk\u02c8uk re laj Jon\u00e1s. Ut laj Jon\u00e1s quinuk\u02c8e\u02c8 chi jun xban li car chi inc\u02c8a\u02c8 quic\u02c8uxe\u02c8. Ut quicuan oxib cutan ut oxib k\u02c8ojyi\u0331n sa\u02c8 xsa\u02c8 li nimla car a\u02c8an. "
        }
    ]
}