{
    "translation": "Studentm\u00e5llagsbibelen fr\u00e5 1921",
    "abbreviation": "norsmb",
    "lang": "nn",
    "language": "Norwegian nynorsk",
    "direction": "LTR",
    "encoding": "UTF-8",
    "book_nr": 2,
    "book_name": "Exodus",
    "chapter": 16,
    "name": "Exodus 16",
    "verses": [
        {
            "chapter": 16,
            "verse": 1,
            "name": "Exodus 16:1",
            "text": "So tok dei ut att fr\u00e5 Elim, og femtande dagen i andre m\u00e5naden etter at dei hadde fare fr\u00e5 Egyptarlandet, kom heile Israels-lyden til Sinheidi, som ligg millom Elim og Sinai."
        },
        {
            "chapter": 16,
            "verse": 2,
            "name": "Exodus 16:2",
            "text": "Medan dei var der i \u00f8ydemarkerne, tok heile Israels-lyden til \u00e5 mukka mot Moses og Aron,"
        },
        {
            "chapter": 16,
            "verse": 3,
            "name": "Exodus 16:3",
            "text": "og sagde: \u00abDet v\u00f8re betre me hadde d\u00f8ytt for Herrens hand i Egyptarlandet, d\u00e5 me sat uppyver kj\u00f8tgrytorne og \u00e5t oss mette p\u00e5 br\u00f8d. For no hev de f\u00f8rt oss ut i villmarki, so heile denne mannefj\u00f8lden lyt d\u00f8y av svolt.\u00bb"
        },
        {
            "chapter": 16,
            "verse": 4,
            "name": "Exodus 16:4",
            "text": "D\u00e5 sagde Herren til Moses: \u00abSj\u00e5 no vil eg lata det regna br\u00f8d \u00e5t dykk fr\u00e5 himmelen, og folket skal ganga ut kvar dag og sanka det dei treng for dagen; soleis vil eg r\u00f8yna deim, um dei held seg etter lovi mi eller ikkje."
        },
        {
            "chapter": 16,
            "verse": 5,
            "name": "Exodus 16:5",
            "text": "Og n\u00e5r dei lagar til det dei kjem heim med sette dagen, d\u00e5 skal det vera ein gong til so mykje som det dei elles sankar um dagen.\u00bb"
        },
        {
            "chapter": 16,
            "verse": 6,
            "name": "Exodus 16:6",
            "text": "So sagde Moses og Aron til alt Israels-folket: \u00abI kveld skal de koma til \u00e5 sanna at det er Herren som hev f\u00f8rt dykk ut or Egyptarlandet;"
        },
        {
            "chapter": 16,
            "verse": 7,
            "name": "Exodus 16:7",
            "text": "og i morgon tidleg skal de f\u00e5 sj\u00e5 kor stor Herren er; for han hev h\u00f8yrt korleis de mukkar imot honom - kva er vel me? kann det vera verdt \u00e5 mukka mot oss?"
        },
        {
            "chapter": 16,
            "verse": 8,
            "name": "Exodus 16:8",
            "text": "De skal f\u00e5 sj\u00e5 det,\u00bb sagde Moses, \u00abn\u00e5r han gjev dykk kj\u00f8t \u00e5 eta i kveld og br\u00f8d i morgon tidleg, so de f\u00e6r metten dykkar; for Herren hev h\u00f8yrt korleis de murrar og mukkar imot honom - kva er vel me? det er ikkje oss de mukkar imot, men Herren.\u00bb"
        },
        {
            "chapter": 16,
            "verse": 9,
            "name": "Exodus 16:9",
            "text": "So Moses sagde med Aron: \u00abSeg til heile Israels-lyden: \u00abStig fram for Herrens \u00e5syn! For han hev h\u00f8yrt korleis de mukkar.\u00bb\u00bb"
        },
        {
            "chapter": 16,
            "verse": 10,
            "name": "Exodus 16:10",
            "text": "D\u00e5 hende det, medan Aron tala til heile Israels-lyden, og dei vende augo mot \u00f8ydemarki, at Herrens herlegdom synte seg i skyi."
        },
        {
            "chapter": 16,
            "verse": 11,
            "name": "Exodus 16:11",
            "text": "Og Herren tala til Moses og sagde:"
        },
        {
            "chapter": 16,
            "verse": 12,
            "name": "Exodus 16:12",
            "text": "\u00abEg hev h\u00f8yrt korleis Israels-folket mukkar. Tala du til deim og seg: \u00abI skumingi skal de f\u00e5 kj\u00f8t \u00e5 eta, og i morgon tidleg skal de f\u00e5 metta dykk med br\u00f8d, og de skal sanna, at eg er Herren, dykkar Gud.\u00bb\u00bb"
        },
        {
            "chapter": 16,
            "verse": 13,
            "name": "Exodus 16:13",
            "text": "D\u00e5 det so vart kvelden, kom engh\u00f8norne fljugande so tjukt, at dei tekte heile l\u00e6gret, og um morgonen hadde det lagt seg dalskodd rundt ikring l\u00e6gret,"
        },
        {
            "chapter": 16,
            "verse": 14,
            "name": "Exodus 16:14",
            "text": "og d\u00e5 skoddi letta, fekk dei sj\u00e5 noko fint, kornut, burtyver heidi; det l\u00e5g tunt som ei hela p\u00e5 marki."
        },
        {
            "chapter": 16,
            "verse": 15,
            "name": "Exodus 16:15",
            "text": "D\u00e5 Israels-folket s\u00e5g det, sagde dei seg imillom: \u00abKva er dette?\u00bb For dei visste ikkje kva det var. D\u00e5 sagde Moses til deim: Det er det br\u00f8det som Herren hev gjeve dykk \u00e5 eta."
        },
        {
            "chapter": 16,
            "verse": 16,
            "name": "Exodus 16:16",
            "text": "H\u00f8yr no kva Herren hev sagt: \u00abDe skal sanka av det so mykje de treng, ei kanna til manns, etter som de hev folk til; kvar skal henta \u00e5t deim som h\u00f8yrer til huset hans."
        },
        {
            "chapter": 16,
            "verse": 17,
            "name": "Exodus 16:17",
            "text": "Og Israels-folket gjorde som han sagde, og sanka, sume mykje og sume lite."
        },
        {
            "chapter": 16,
            "verse": 18,
            "name": "Exodus 16:18",
            "text": "Men d\u00e5 dei m\u00e6lte det i kannem\u00e5let, gjekk det inkje av for deim som hadde sanka mykje, og det som mindre hadde sanka, leid ingen skort; kvar hadde sanka det han turvte."
        },
        {
            "chapter": 16,
            "verse": 19,
            "name": "Exodus 16:19",
            "text": "Og Moses sagde til deim: Ingen m\u00e5 leiva noko av det til morgons.\u00bb"
        },
        {
            "chapter": 16,
            "verse": 20,
            "name": "Exodus 16:20",
            "text": "Men dei h\u00f8yrde ikkje p\u00e5 Moses, og sume etla att noko til morgonm\u00e5let; d\u00e5 kvikna det makk i det, og det stod ei vond tev av det. Og Moses vart vreid p\u00e5 deim."
        },
        {
            "chapter": 16,
            "verse": 21,
            "name": "Exodus 16:21",
            "text": "Sidan sanka dei det morgon etter morgon, kvar etter som han trong til. Men n\u00e5r soli tok til \u00e5 hita, so br\u00e5na det."
        },
        {
            "chapter": 16,
            "verse": 22,
            "name": "Exodus 16:22",
            "text": "So hende det sette dagen at dei fann ein gong til so mykje br\u00f8d som elles, tvo kannor til manns, og alle dei \u00f8vste av lyden kom og sagde det med Moses."
        },
        {
            "chapter": 16,
            "verse": 23,
            "name": "Exodus 16:23",
            "text": "D\u00e5 sagde han til deim: \u00abDet er det Herren hev sagt: \u00abI morgon er det kviledag, helgekvild for Herren.\u00bb Baka no det de vil, og koka det de vil! Men alt det som vert att, skal de leggja burt og g\u00f8yma til morgons.\u00bb"
        },
        {
            "chapter": 16,
            "verse": 24,
            "name": "Exodus 16:24",
            "text": "So lagde dei det burt til um morgonen, som Moses sagde, og det stod ingen illtev av det, og kom ikkje makk i det."
        },
        {
            "chapter": 16,
            "verse": 25,
            "name": "Exodus 16:25",
            "text": "Og Moses sagde: \u00abEt det i dag, for i dag er det kviledag for Herren; i dag finn de ikkje noko p\u00e5 marki."
        },
        {
            "chapter": 16,
            "verse": 26,
            "name": "Exodus 16:26",
            "text": "Seks dagar skal de sanka det; men den sjuande dagen er det helg; d\u00e5 er det ikkje \u00e5 finna.\u00bb"
        },
        {
            "chapter": 16,
            "verse": 27,
            "name": "Exodus 16:27",
            "text": "Likevel var det nokre av folket som gjekk ut den sjuande dagen og vilde sanka, men dei fann inkje."
        },
        {
            "chapter": 16,
            "verse": 28,
            "name": "Exodus 16:28",
            "text": "D\u00e5 sagde Herren til Moses: \u00abKor lenge skal det vara fyrr de vil lyda bodi og loverne mine?"
        },
        {
            "chapter": 16,
            "verse": 29,
            "name": "Exodus 16:29",
            "text": "Kom i hug: Herren hev gjeve dykk kviledagen; difor er det at han sette dagen gjev dykk br\u00f8d for tvo dagar. Haldt dykk no heime, kvar hj\u00e5 seg! Ingen gange burt fr\u00e5 bustaden sin sjuande dagen!\u00bb"
        },
        {
            "chapter": 16,
            "verse": 30,
            "name": "Exodus 16:30",
            "text": "Sidan heldt folket seg i ro den sjuande dagen."
        },
        {
            "chapter": 16,
            "verse": 31,
            "name": "Exodus 16:31",
            "text": "Israels-\u00e6tti kalla det br\u00f8det manna; det liktest korianderfr\u00f8; det var kvitt p\u00e5 liten, og smaka som vaflar med honning."
        },
        {
            "chapter": 16,
            "verse": 32,
            "name": "Exodus 16:32",
            "text": "Og Moses sagde: \u00abH\u00f8yr no kva Herren segjer til dykk: \u00abEin full kanna med manna skal de g\u00f8yma, mann etter mann, so etterkomarane dykkar kann sj\u00e5 det br\u00f8det eg gav dykk \u00e5 eta i \u00f8ydemarki, d\u00e5 eg fylgde dykk ut or Egyptarlandet!\u00bb\u00bb"
        },
        {
            "chapter": 16,
            "verse": 33,
            "name": "Exodus 16:33",
            "text": "So sagde han til Aron: \u00abTak ei krukka og hav upp i henne ei full kanna med manna, og set det ned for Herrens \u00e5syn, so det vert g\u00f8ymt fr\u00e5 mann til mann.\u00bb"
        },
        {
            "chapter": 16,
            "verse": 34,
            "name": "Exodus 16:34",
            "text": "Og Aron gjorde som Herren hadde sagt til Moses, og sette det ned framfor lovtavlorne: der skulde det g\u00f8ymast."
        },
        {
            "chapter": 16,
            "verse": 35,
            "name": "Exodus 16:35",
            "text": "Israels-folket \u00e5t manna i fyrti \u00e5r, til dess dei kom til bygde land; manna \u00e5t dei alt til dei kom til utenden av Kana\u2019ans-landet."
        },
        {
            "chapter": 16,
            "verse": 36,
            "name": "Exodus 16:36",
            "text": "Ei kanna, det var tiandeparten av ei skjeppa. "
        }
    ]
}