{
    "translation": "Geneva Bible (1599)",
    "abbreviation": "geneva1599",
    "lang": "en",
    "language": "English",
    "direction": "LTR",
    "encoding": "UTF-8",
    "book_nr": 19,
    "book_name": "Psalms",
    "chapter": 98,
    "name": "Psalms 98",
    "verses": [
        {
            "chapter": 98,
            "verse": 1,
            "name": "Psalms 98:1",
            "text": "A Psalme. Sing vnto the Lord a newe song: for hee hath done marueilous things: his right hand, and his holy arme haue gotten him the victorie."
        },
        {
            "chapter": 98,
            "verse": 2,
            "name": "Psalms 98:2",
            "text": "The Lord declared his saluation: his righteousnes hath he reueiled in the sight of ye nations."
        },
        {
            "chapter": 98,
            "verse": 3,
            "name": "Psalms 98:3",
            "text": "He hath remembred his mercy and his trueth toward the house of Israel: all the ends of the earth haue seene the saluation of our God."
        },
        {
            "chapter": 98,
            "verse": 4,
            "name": "Psalms 98:4",
            "text": "All the earth, sing ye loude vnto the Lord: crie out and reioyce, and sing prayses."
        },
        {
            "chapter": 98,
            "verse": 5,
            "name": "Psalms 98:5",
            "text": "Sing prayse to the Lord vpon the harpe, euen vpon the harpe with a singing voyce."
        },
        {
            "chapter": 98,
            "verse": 6,
            "name": "Psalms 98:6",
            "text": "With shalmes and sound of trumpets sing loude before the Lord the King."
        },
        {
            "chapter": 98,
            "verse": 7,
            "name": "Psalms 98:7",
            "text": "Let the sea roare, and all that therein is, the world, and they that dwell therein."
        },
        {
            "chapter": 98,
            "verse": 8,
            "name": "Psalms 98:8",
            "text": "Let the floods clap their hands, and let the mountaines reioyce together"
        },
        {
            "chapter": 98,
            "verse": 9,
            "name": "Psalms 98:9",
            "text": "Before the Lord: for he is come to iudge the earth: with righteousnesse shall hee iudge the world, and the people with equitie.  "
        }
    ]
}