{
    "translation": "OT Westminster Leningrad Codex",
    "abbreviation": "codex",
    "lang": "he",
    "language": "Hebrew",
    "direction": "RTL",
    "encoding": "UTF-8",
    "book_nr": 12,
    "book_name": "2 Kings",
    "chapter": 7,
    "name": "2 Kings 7",
    "verses": [
        {
            "chapter": 7,
            "verse": 1,
            "name": "2 Kings 7:1",
            "text": "\u05d5\u05b7\u05d9\u05b9\u05bc\u05a3\u05d0\u05de\u05b6\u05e8 \u05d0\u05b1\u05dc\u05b4\u05d9\u05e9\u05b8\u05c1\u0594\u05e2 \u05e9\u05b4\u05c1\u05de\u05b0\u05e2\u0596\u05d5\u05bc \u05d3\u05b0\u05bc\u05d1\u05b7\u05e8\u05be \u05d9\u05b0\u05d4\u05d5\u05b8\u0591\u05d4 \u05db\u05b9\u05bc\u05a3\u05d4 \u05c0 \u05d0\u05b8\u05de\u05b7\u05a3\u05e8 \u05d9\u05b0\u05d4\u05d5\u05b8\u0597\u05d4 \u05db\u05b8\u05bc\u05e2\u05b5\u05a4\u05ea \u05c0 \u05de\u05b8\u05d7\u05b8\u05e8\u0599 \u05e1\u05b0\u05d0\u05b8\u05bd\u05d4\u05be \u05e1\u05b9\u05a3\u05dc\u05b6\u05ea \u05d1\u05b0\u05bc\u05e9\u05b6\u05c1\u0597\u05e7\u05b6\u05dc \u05d5\u05b0\u05e1\u05b8\u05d0\u05ea\u05b7\u05a7\u05d9\u05b4\u05dd \u05e9\u05b0\u05c2\u05e2\u05b9\u05e8\u05b4\u059b\u05d9\u05dd \u05d1\u05b0\u05bc\u05e9\u05b6\u05c1\u0596\u05e7\u05b6\u05dc \u05d1\u05b0\u05bc\u05e9\u05b7\u05c1\u05a5\u05e2\u05b7\u05e8 \u05e9\u05b9\u05c1\u05de\u05b0\u05e8\u05bd\u05d5\u05b9\u05df\u05c3"
        },
        {
            "chapter": 7,
            "verse": 2,
            "name": "2 Kings 7:2",
            "text": "\u05d5\u05b7\u05d9\u05b7\u05bc\u05a3\u05e2\u05b7\u05df \u05d4\u05b7\u05e9\u05b8\u05bc\u05c1\u05dc\u05b4\u05a1\u05d9\u05e9\u05c1 \u05d0\u05b2\u05e9\u05b6\u05c1\u05e8\u05be \u05dc\u05b7\u05de\u05b6\u05bc\u05dc\u05b6\u05da\u05b0\u05a9 \u05e0\u05b4\u05e9\u05b0\u05c1\u05e2\u05b8\u05a8\u05df \u05e2\u05b7\u05dc\u05be \u05d9\u05b8\u05d3\u059c\u05d5\u05b9 \u05d0\u05b6\u05ea\u05be \u05d0\u05b4\u05a3\u05d9\u05e9\u05c1 \u05d4\u05b8\u05d0\u05b1\u05dc\u05b9\u05d4\u05b4\u05d9\u05dd\u05ae \u05d5\u05b7\u05d9\u05b9\u05bc\u05d0\u05de\u05b7\u05e8\u0592 \u05d4\u05b4\u05e0\u05b5\u05bc\u05a3\u05d4 \u05d9\u05b0\u05d4\u05d5\u05b8\u0597\u05d4 \u05e2\u05b9\u05e9\u05b6\u05c2\u05a4\u05d4 \u05d0\u05b2\u05e8\u05bb\u05d1\u05bc\u05d5\u05b9\u05ea\u0599 \u05d1\u05b7\u05bc\u05e9\u05b8\u05bc\u05c1\u05de\u05b7\u0594\u05d9\u05b4\u05dd \u05d4\u05b2\u05d9\u05b4\u05d4\u05b0\u05d9\u05b6\u0596\u05d4 \u05d4\u05b7\u05d3\u05b8\u05bc\u05d1\u05b8\u05a3\u05e8 \u05d4\u05b7\u05d6\u05b6\u05bc\u0591\u05d4 \u05d5\u05b7\u05d9\u05b9\u05bc\u0597\u05d0\u05de\u05b6\u05e8 \u05d4\u05b4\u05e0\u05b0\u05bc\u05db\u05b8\u05a4\u05d4 \u05e8\u05b9\u05d0\u05b6\u05d4\u0599 \u05d1\u05b0\u05bc\u05e2\u05b5\u05d9\u05e0\u05b6\u0594\u05d9\u05da\u05b8 \u05d5\u05bc\u05de\u05b4\u05e9\u05b8\u05bc\u05c1\u0596\u05dd \u05dc\u05b9\u05a5\u05d0 \u05ea\u05b9\u05d0\u05db\u05b5\u05bd\u05dc\u05c3 \u05e1\u00a0\u00a0\u00a0\u00a0\u00a0\u00a0 "
        },
        {
            "chapter": 7,
            "verse": 3,
            "name": "2 Kings 7:3",
            "text": "\u05d5\u05b0\u05d0\u05b7\u05e8\u05b0\u05d1\u05b8\u05bc\u05e2\u05b8\u05a7\u05d4 \u05d0\u05b2\u05e0\u05b8\u05e9\u05b4\u05c1\u059b\u05d9\u05dd \u05d4\u05b8\u05d9\u05a5\u05d5\u05bc \u05de\u05b0\u05e6\u05b9\u05e8\u05b8\u05e2\u05b4\u0596\u05d9\u05dd \u05e4\u05b6\u05bc\u05a3\u05ea\u05b7\u05d7 \u05d4\u05b7\u05e9\u05b8\u05bc\u05c1\u0591\u05e2\u05b7\u05e8 \u05d5\u05b7\u05d9\u05b9\u05bc\u05bd\u05d0\u05de\u05b0\u05e8\u05d5\u05bc\u0599 \u05d0\u05b4\u05a3\u05d9\u05e9\u05c1 \u05d0\u05b6\u05dc\u05be \u05e8\u05b5\u05e2\u05b5\u0594\u05d4\u05d5\u05bc \u05de\u05b8\u0597\u05d4 \u05d0\u05b2\u05e0\u05b7\u059b\u05d7\u05b0\u05e0\u05d5\u05bc \u05d9\u05b9\u05e9\u05b0\u05c1\u05d1\u05b4\u05a5\u05d9\u05dd \u05e4\u05b9\u05bc\u0596\u05d4 \u05e2\u05b7\u05d3\u05be \u05de\u05b8\u05bd\u05ea\u05b0\u05e0\u05d5\u05bc\u05c3"
        },
        {
            "chapter": 7,
            "verse": 4,
            "name": "2 Kings 7:4",
            "text": "\u05d0\u05b4\u05dd\u05be \u05d0\u05b8\u05de\u05b7\u05e8\u05b0\u05e0\u05d5\u05bc\u05a9 \u05e0\u05b8\u05d1\u05a8\u05d5\u05b9\u05d0 \u05d4\u05b8\u05e2\u05b4\u059c\u05d9\u05e8 \u05d5\u05b0\u05d4\u05b8\u05e8\u05b8\u05e2\u05b8\u05a4\u05d1 \u05d1\u05b8\u05bc\u05e2\u05b4\u05d9\u05e8\u0599 \u05d5\u05b8\u05de\u05b7\u05a3\u05ea\u05b0\u05e0\u05d5\u05bc \u05e9\u05b8\u05c1\u0594\u05dd \u05d5\u05b0\u05d0\u05b4\u05dd\u05be \u05d9\u05b8\u05e9\u05b7\u05c1\u05a5\u05d1\u05b0\u05e0\u05d5\u05bc \u05e4\u05b9\u0596\u05d4 \u05d5\u05b8\u05de\u05b8\u0591\u05ea\u05b0\u05e0\u05d5\u05bc \u05d5\u05b0\u05e2\u05b7\u05ea\u05b8\u05bc\u0597\u05d4 \u05dc\u05b0\u05db\u05d5\u05bc\u0599 \u05d5\u05b0\u05e0\u05b4\u05e4\u05b0\u05bc\u05dc\u05b8\u05d4\u0599 \u05d0\u05b6\u05dc\u05be \u05de\u05b7\u05d7\u05b2\u05e0\u05b5\u05a3\u05d4 \u05d0\u05b2\u05e8\u05b8\u0594\u05dd \u05d0\u05b4\u05dd\u05be \u05d9\u05b0\u05d7\u05b7\u05d9\u05bb\u05bc\u05a3\u05e0\u05d5\u05bc \u05e0\u05b4\u05bd\u05d7\u05b0\u05d9\u05b6\u0594\u05d4 \u05d5\u05b0\u05d0\u05b4\u05dd\u05be \u05d9\u05b0\u05de\u05b4\u05d9\u05ea\u05bb\u0596\u05e0\u05d5\u05bc \u05d5\u05b8\u05de\u05b8\u05bd\u05ea\u05b0\u05e0\u05d5\u05bc\u05c3"
        },
        {
            "chapter": 7,
            "verse": 5,
            "name": "2 Kings 7:5",
            "text": "\u05d5\u05b7\u05d9\u05b8\u05bc\u05e7\u05a3\u05d5\u05bc\u05de\u05d5\u05bc \u05d1\u05b7\u05e0\u05b6\u05bc\u0594\u05e9\u05b6\u05c1\u05e3 \u05dc\u05b8\u05d1\u0596\u05d5\u05b9\u05d0 \u05d0\u05b6\u05dc\u05be \u05de\u05b7\u05d7\u05b2\u05e0\u05b5\u05a3\u05d4 \u05d0\u05b2\u05e8\u05b8\u0591\u05dd \u05d5\u05b7\u05d9\u05b8\u05bc\u05d1\u05b9\u0597\u05d0\u05d5\u05bc \u05e2\u05b7\u05d3\u05be \u05e7\u05b0\u05e6\u05b5\u05d4\u0599 \u05de\u05b7\u05d7\u05b2\u05e0\u05b5\u05a3\u05d4 \u05d0\u05b2\u05e8\u05b8\u0594\u05dd \u05d5\u05b0\u05d4\u05b4\u05e0\u05b5\u05bc\u05a5\u05d4 \u05d0\u05b5\u05bd\u05d9\u05df\u05be \u05e9\u05b8\u05c1\u0596\u05dd \u05d0\u05b4\u05bd\u05d9\u05e9\u05c1\u05c3"
        },
        {
            "chapter": 7,
            "verse": 6,
            "name": "2 Kings 7:6",
            "text": "\u05d5\u05b7\u05d0\u05d3\u05b9\u05e0\u05b8\u059e\u05d9 \u05d4\u05b4\u05e9\u05b0\u05c1\u05de\u05b4\u05a3\u05d9\u05e2\u05b7 \u05c0 \u05d0\u05b6\u05ea\u05be \u05de\u05b7\u05d7\u05b2\u05e0\u05b5\u05a3\u05d4 \u05d0\u05b2\u05e8\u05b8\u0597\u05dd \u05e7\u05a5\u05d5\u05b9\u05dc \u05e8\u05b6\u0599\u05db\u05b6\u05d1\u0599 \u05e7\u05a3\u05d5\u05b9\u05dc \u05e1\u0594\u05d5\u05bc\u05e1 \u05e7\u0596\u05d5\u05b9\u05dc \u05d7\u05b7\u05a3\u05d9\u05b4\u05dc \u05d2\u05b8\u05bc\u05d3\u0591\u05d5\u05b9\u05dc \u05d5\u05b7\u05d9\u05b9\u05bc\u05d0\u05de\u05b0\u05e8\u059e\u05d5\u05bc \u05d0\u05b4\u05a3\u05d9\u05e9\u05c1 \u05d0\u05b6\u05dc\u05be \u05d0\u05b8\u05d7\u05b4\u0597\u05d9\u05d5 \u05d4\u05b4\u05e0\u05b5\u05bc\u05a3\u05d4 \u05e9\u05b8\u05bd\u05c2\u05db\u05b7\u05e8\u05be \u05e2\u05b8\u05dc\u05b5\u05d9\u05e0\u05d5\u05bc\u05a9 \u05de\u05b6\u05a8\u05dc\u05b6\u05da\u05b0 \u05d9\u05b4\u05e9\u05b0\u05c2\u05e8\u05b8\u05d0\u05b5\u059c\u05dc \u05d0\u05b6\u05ea\u05be \u05de\u05b7\u05dc\u05b0\u05db\u05b5\u05a7\u05d9 \u05d4\u05b7\u05d7\u05b4\u05ea\u05b4\u05bc\u059b\u05d9\u05dd \u05d5\u05b0\u05d0\u05b6\u05ea\u05be \u05de\u05b7\u05dc\u05b0\u05db\u05b5\u05a5\u05d9 \u05de\u05b4\u05e6\u05b0\u05e8\u05b7\u0596\u05d9\u05b4\u05dd \u05dc\u05b8\u05d1\u05a5\u05d5\u05b9\u05d0 \u05e2\u05b8\u05dc\u05b5\u05bd\u05d9\u05e0\u05d5\u05bc\u05c3"
        },
        {
            "chapter": 7,
            "verse": 7,
            "name": "2 Kings 7:7",
            "text": "\u05d5\u05b7\u05d9\u05b8\u05bc\u05e7\u05d5\u05bc\u05de\u05d5\u05bc\u05ae \u05d5\u05b7\u05d9\u05b8\u05bc\u05e0\u05a3\u05d5\u05bc\u05e1\u05d5\u05bc \u05d1\u05b7\u05e0\u05b6\u05bc\u05e9\u05b6\u05c1\u05e3\u0592 \u05d5\u05b7\u05d9\u05b7\u05bc\u05e2\u05b7\u05d6\u05b0\u05d1\u05a3\u05d5\u05bc \u05d0\u05b6\u05ea\u05be \u05d0\u05b8\u05d4\u05b3\u05dc\u05b5\u05d9\u05d4\u05b6\u0597\u05dd \u05d5\u05b0\u05d0\u05b6\u05ea\u05be \u05e1\u05bd\u05d5\u05bc\u05e1\u05b5\u05d9\u05d4\u05b6\u05dd\u0599 \u05d5\u05b0\u05d0\u05b6\u05ea\u05be \u05d7\u05b2\u05de\u05b9\u05a3\u05e8\u05b5\u05d9\u05d4\u05b6\u0594\u05dd \u05d4\u05b7\u05bd\u05de\u05b7\u05bc\u05d7\u05b2\u05e0\u05b6\u0596\u05d4 \u05db\u05b7\u05bc\u05d0\u05b2\u05e9\u05b6\u05c1\u05e8\u05be \u05d4\u05b4\u0591\u05d9\u05d0 \u05d5\u05b7\u05d9\u05b8\u05bc\u05e0\u05bb\u0596\u05e1\u05d5\u05bc \u05d0\u05b6\u05dc\u05be \u05e0\u05b7\u05e4\u05b0\u05e9\u05b8\u05bd\u05c1\u05dd\u05c3"
        },
        {
            "chapter": 7,
            "verse": 8,
            "name": "2 Kings 7:8",
            "text": "\u05d5\u05b7\u05d9\u05b8\u05bc\u05d1\u05b9\u05d0\u05d5\u05bc\u05a9 \u05d4\u05b7\u05bd\u05de\u05b0\u05e6\u05b9\u05e8\u05b8\u05e2\u05b4\u05a8\u05d9\u05dd \u05d4\u05b8\u05d0\u05b5\u059c\u05dc\u05b6\u05bc\u05d4 \u05e2\u05b7\u05d3\u05be \u05e7\u05b0\u05e6\u05b5\u05a3\u05d4 \u05d4\u05b7\u05bd\u05de\u05b7\u05bc\u05d7\u05b2\u05e0\u05b6\u0597\u05d4 \u05d5\u05b7\u05d9\u05b8\u05bc\u05d1\u05b9\u059c\u05d0\u05d5\u05bc \u05d0\u05b6\u05dc\u05be \u05d0\u05b9\u05a4\u05d4\u05b6\u05dc \u05d0\u05b6\u05d7\u05b8\u05d3\u0599 \u05d5\u05b7\u05d9\u05b9\u05bc\u05d0\u05db\u05b0\u05dc\u05a3\u05d5\u05bc \u05d5\u05b7\u05d9\u05b4\u05bc\u05e9\u05b0\u05c1\u05ea\u05bc\u0594\u05d5\u05bc \u05d5\u05b7\u05d9\u05b4\u05bc\u05e9\u05b0\u05c2\u05d0\u05a3\u05d5\u05bc \u05de\u05b4\u05e9\u05b8\u05bc\u05c1\u0597\u05dd \u05db\u05b6\u05bc\u05a4\u05e1\u05b6\u05e3 \u05d5\u05b0\u05d6\u05b8\u05d4\u05b8\u05d1\u0599 \u05d5\u05bc\u05d1\u05b0\u05d2\u05b8\u05d3\u05b4\u0594\u05d9\u05dd \u05d5\u05b7\u05d9\u05b5\u05bc\u05dc\u05b0\u05db\u0596\u05d5\u05bc \u05d5\u05b7\u05d9\u05b7\u05bc\u05d8\u05b0\u05de\u05b4\u0591\u05e0\u05d5\u05bc \u05d5\u05b7\u05d9\u05b8\u05bc\u05e9\u05bb\u05c1\u0597\u05d1\u05d5\u05bc \u05d5\u05b7\u05d9\u05b8\u05bc\u05d1\u05b9\u0599\u05d0\u05d5\u05bc\u0599 \u05d0\u05b6\u05dc\u05be \u05d0\u05b9\u05a3\u05d4\u05b6\u05dc \u05d0\u05b7\u05d7\u05b5\u0594\u05e8 \u05d5\u05b7\u05d9\u05b4\u05bc\u05e9\u05b0\u05c2\u05d0\u05a3\u05d5\u05bc \u05de\u05b4\u05e9\u05b8\u05bc\u05c1\u0594\u05dd \u05d5\u05b7\u05d9\u05b5\u05bc\u05dc\u05b0\u05db\u0596\u05d5\u05bc \u05d5\u05b7\u05d9\u05b7\u05bc\u05d8\u05b0\u05de\u05b4\u05bd\u05e0\u05d5\u05bc\u05c3"
        },
        {
            "chapter": 7,
            "verse": 9,
            "name": "2 Kings 7:9",
            "text": "\u05d5\u05b7\u05d9\u05b9\u05bc\u05d0\u05de\u05b0\u05e8\u05d5\u05bc\u05a9 \u05d0\u05b4\u05a8\u05d9\u05e9\u05c1 \u05d0\u05b6\u05dc\u05be \u05e8\u05b5\u05e2\u05b5\u059c\u05d4\u05d5\u05bc \u05dc\u05b9\u05bd\u05d0\u05be \u05db\u05b5\u05a3\u05df \u05c0 \u05d0\u05b2\u05e0\u05b7\u05a3\u05d7\u05b0\u05e0\u05d5\u05bc \u05e2\u05b9\u05e9\u05b4\u05c2\u0597\u05d9\u05dd \u05d4\u05b7\u05d9\u05bc\u05a4\u05d5\u05b9\u05dd \u05d4\u05b7\u05d6\u05b6\u05bc\u05d4\u0599 \u05d9\u05d5\u05b9\u05dd\u05be \u05d1\u05b0\u05bc\u05e9\u05b9\u05c2\u05e8\u05b8\u05a3\u05d4 \u05d4\u0594\u05d5\u05bc\u05d0 \u05d5\u05b7\u05d0\u05b2\u05e0\u05b7\u05a3\u05d7\u05b0\u05e0\u05d5\u05bc \u05de\u05b7\u05d7\u05b0\u05e9\u05b4\u05c1\u0597\u05d9\u05dd \u05d5\u05b0\u05d7\u05b4\u05db\u05b4\u05bc\u059b\u05d9\u05e0\u05d5\u05bc \u05e2\u05b7\u05d3\u05be \u05d0\u05a5\u05d5\u05b9\u05e8 \u05d4\u05b7\u05d1\u05b9\u05bc\u0596\u05e7\u05b6\u05e8 \u05d5\u05bc\u05de\u05b0\u05e6\u05b8\u05d0\u05b8\u05a3\u05e0\u05d5\u05bc \u05e2\u05b8\u05d5\u0591\u05d5\u05b9\u05df \u05d5\u05b0\u05e2\u05b7\u05ea\u05b8\u05bc\u05d4\u0599 \u05dc\u05b0\u05db\u05a3\u05d5\u05bc \u05d5\u05b0\u05e0\u05b8\u05d1\u05b9\u0594\u05d0\u05b8\u05d4 \u05d5\u05b0\u05e0\u05b7\u05d2\u05b4\u05bc\u0596\u05d9\u05d3\u05b8\u05d4 \u05d1\u05b5\u05bc\u05a5\u05d9\u05ea \u05d4\u05b7\u05de\u05b6\u05bc\u05bd\u05dc\u05b6\u05da\u05b0\u05c3"
        },
        {
            "chapter": 7,
            "verse": 10,
            "name": "2 Kings 7:10",
            "text": "\u05d5\u05b7\u05d9\u05b8\u05bc\u05d1\u05b9\u0597\u05d0\u05d5\u05bc \u05d5\u05b7\u05bd\u05d9\u05b4\u05bc\u05e7\u05b0\u05e8\u05b0\u05d0\u05d5\u05bc\u05ae \u05d0\u05b6\u05dc\u05be \u05e9\u05b9\u05c1\u05e2\u05b5\u05a3\u05e8 \u05d4\u05b8\u05e2\u05b4\u05d9\u05e8\u0592 \u05d5\u05b7\u05d9\u05b7\u05bc\u05d2\u05b4\u05bc\u05a4\u05d9\u05d3\u05d5\u05bc \u05dc\u05b8\u05d4\u05b6\u05dd\u0599 \u05dc\u05b5\u05d0\u05de\u05b9\u0594\u05e8 \u05d1\u05b8\u05bc\u059a\u05d0\u05e0\u05d5\u05bc \u05d0\u05b6\u05dc\u05be \u05de\u05b7\u05d7\u05b2\u05e0\u05b5\u05a3\u05d4 \u05d0\u05b2\u05e8\u05b8\u0594\u05dd \u05d5\u05b0\u05d4\u05b4\u05e0\u05b5\u05bc\u05a5\u05d4 \u05d0\u05b5\u05bd\u05d9\u05df\u05be \u05e9\u05b8\u05c1\u059b\u05dd \u05d0\u05b4\u0596\u05d9\u05e9\u05c1 \u05d5\u05b0\u05e7\u05a3\u05d5\u05b9\u05dc \u05d0\u05b8\u05d3\u05b8\u0591\u05dd \u05db\u05b4\u05bc\u05a3\u05d9 \u05d0\u05b4\u05dd\u05be \u05d4\u05b7\u05e1\u05bc\u05a4\u05d5\u05bc\u05e1 \u05d0\u05b8\u05e1\u05d5\u05bc\u05e8\u0599 \u05d5\u05b0\u05d4\u05b7\u05d7\u05b2\u05de\u05a3\u05d5\u05b9\u05e8 \u05d0\u05b8\u05e1\u0594\u05d5\u05bc\u05e8 \u05d5\u05b0\u05d0\u05b9\u05d4\u05b8\u05dc\u05b4\u0596\u05d9\u05dd \u05db\u05b7\u05bc\u05d0\u05b2\u05e9\u05b6\u05c1\u05e8\u05be \u05d4\u05b5\u05bd\u05de\u05b8\u05bc\u05d4\u05c3"
        },
        {
            "chapter": 7,
            "verse": 11,
            "name": "2 Kings 7:11",
            "text": "\u05d5\u05b7\u05d9\u05b4\u05bc\u05e7\u05b0\u05e8\u05b8\u0596\u05d0 \u05d4\u05b7\u05e9\u05b9\u05bc\u05bd\u05c1\u05e2\u05b2\u05e8\u05b4\u0591\u05d9\u05dd \u05d5\u05b7\u05d9\u05b7\u05bc\u05d2\u05b4\u05bc\u0595\u05d9\u05d3\u05d5\u05bc \u05d1\u05b5\u05bc\u05a5\u05d9\u05ea \u05d4\u05b7\u05de\u05b6\u05bc\u0596\u05dc\u05b6\u05da\u05b0 \u05e4\u05b0\u05bc\u05e0\u05b4\u05bd\u05d9\u05de\u05b8\u05d4\u05c3"
        },
        {
            "chapter": 7,
            "verse": 12,
            "name": "2 Kings 7:12",
            "text": "\u05d5\u05b7\u05d9\u05b8\u05bc\u05a8\u05e7\u05b8\u05dd \u05d4\u05b7\u05de\u05b6\u05bc\u059c\u05dc\u05b6\u05da\u05b0 \u05dc\u05b7\u0597\u05d9\u05b0\u05dc\u05b8\u05d4 \u05d5\u05b7\u05d9\u05b9\u05bc\u0599\u05d0\u05de\u05b6\u05e8\u0599 \u05d0\u05b6\u05dc\u05be \u05e2\u05b2\u05d1\u05b8\u05d3\u05b8\u0594\u05d9\u05d5 \u05d0\u05b7\u05d2\u05b4\u05bc\u05bd\u05d9\u05d3\u05b8\u05d4\u05be \u05e0\u05b8\u05bc\u05a3\u05d0 \u05dc\u05b8\u05db\u05b6\u0594\u05dd \u05d0\u05b5\u059b\u05ea \u05d0\u05b2\u05e9\u05b6\u05c1\u05e8\u05be \u05e2\u05b8\u05a5\u05e9\u05c2\u05d5\u05bc \u05dc\u05b8\u0596\u05e0\u05d5\u05bc \u05d0\u05b2\u05e8\u05b8\u0591\u05dd \u05d9\u05b8\u05d3\u05b0\u05e2\u059e\u05d5\u05bc \u05db\u05b4\u05bc\u05d9\u05be \u05e8\u05b0\u05e2\u05b5\u05d1\u05b4\u05a3\u05d9\u05dd \u05d0\u05b2\u05e0\u05b7\u0597\u05d7\u05b0\u05e0\u05d5\u05bc \u05d5\u05b7\u05d9\u05b5\u05bc\u05e6\u05b0\u05d0\u05a4\u05d5\u05bc \u05de\u05b4\u05df\u05be \u05d4\u05b7\u05bd\u05de\u05b7\u05bc\u05d7\u05b2\u05e0\u05b6\u05d4\u0599 \u05dc\u05b0\u05d4\u05b5\u05d7\u05b8\u05d1\u05b5\u05a4\u05d4\u05d1\u05d4\u05e9\u05d3\u05d4\u05d1\u05b7\u05e9\u05b8\u05bc\u05c2\u05d3\u05b6\u05d4\u0599 \u05dc\u05b5\u05d0\u05de\u05b9\u0594\u05e8 \u05db\u05b4\u05bc\u05bd\u05d9\u05be \u05d9\u05b5\u05e6\u05b0\u05d0\u05a4\u05d5\u05bc \u05de\u05b4\u05df\u05be \u05d4\u05b8\u05e2\u05b4\u05d9\u05e8\u0599 \u05d5\u05b0\u05e0\u05b4\u05ea\u05b0\u05e4\u05b0\u05bc\u05e9\u05b5\u05c2\u05a3\u05dd \u05d7\u05b7\u05d9\u05b4\u05bc\u0594\u05d9\u05dd \u05d5\u05b0\u05d0\u05b6\u05dc\u05be \u05d4\u05b8\u05e2\u05b4\u0596\u05d9\u05e8 \u05e0\u05b8\u05d1\u05b9\u05bd\u05d0\u05c3"
        },
        {
            "chapter": 7,
            "verse": 13,
            "name": "2 Kings 7:13",
            "text": "\u05d5\u05b7\u05d9\u05b7\u05bc\u05e2\u05b7\u05df\u05a9 \u05d0\u05b6\u05d7\u05b8\u05a8\u05d3 \u05de\u05b5\u05e2\u05b2\u05d1\u05b8\u05d3\u05b8\u059c\u05d9\u05d5 \u05d5\u05b7\u05d9\u05b9\u05bc\u0597\u05d0\u05de\u05b6\u05e8 \u05d5\u05b0\u05d9\u05b4\u05e7\u05b0\u05d7\u05d5\u05bc\u05be \u05e0\u05b8\u059e\u05d0 \u05d7\u05b2\u05de\u05b4\u05e9\u05b8\u05bc\u05c1\u05a3\u05d4 \u05de\u05b4\u05df\u05be \u05d4\u05b7\u05e1\u05bc\u05d5\u05bc\u05e1\u05b4\u05d9\u05dd\u05ae \u05d4\u05b7\u05bd\u05e0\u05b4\u05bc\u05e9\u05b0\u05c1\u05d0\u05b8\u05e8\u05b4\u05d9\u05dd\u05ae \u05d0\u05b2\u05e9\u05b6\u05c1\u05a3\u05e8 \u05e0\u05b4\u05e9\u05b0\u05c1\u05d0\u05b2\u05e8\u05d5\u05bc\u05be \u05d1\u05b8\u05d4\u05bc\u0592 \u05d4\u05b4\u05e0\u05b8\u05bc\u0597\u05dd \u05db\u05b0\u05bc\u05db\u05b8\u05dc\u05be\u05d4\u05d4\u05de\u05d5\u05df\u05d4\u05b2\u05de\u05a4\u05d5\u05b9\u05df \u05d9\u05b4\u05e9\u05b0\u05c2\u05e8\u05b8\u05d0\u05b5\u05dc\u0599 \u05d0\u05b2\u05e9\u05b6\u05c1\u05a3\u05e8 \u05e0\u05b4\u05e9\u05b0\u05c1\u05d0\u05b2\u05e8\u05d5\u05bc\u05be \u05d1\u05b8\u0594\u05d4\u05bc \u05d4\u05b4\u05e0\u05b8\u05bc\u0595\u05dd \u05db\u05b0\u05bc\u05db\u05b8\u05dc\u05be \u05d4\u05b2\u05de\u05a5\u05d5\u05b9\u05df \u05d9\u05b4\u05e9\u05b0\u05c2\u05e8\u05b8\u05d0\u05b5\u0596\u05dc \u05d0\u05b2\u05e9\u05b6\u05c1\u05e8\u05be \u05ea\u05b8\u05bc\u0591\u05de\u05bc\u05d5\u05bc \u05d5\u05b0\u05e0\u05b4\u05e9\u05b0\u05c1\u05dc\u05b0\u05d7\u05b8\u0596\u05d4 \u05d5\u05b0\u05e0\u05b4\u05e8\u05b0\u05d0\u05b6\u05bd\u05d4\u05c3"
        },
        {
            "chapter": 7,
            "verse": 14,
            "name": "2 Kings 7:14",
            "text": "\u05d5\u05b7\u05d9\u05b4\u05bc\u05e7\u05b0\u05d7\u0595\u05d5\u05bc \u05e9\u05b0\u05c1\u05e0\u05b5\u0596\u05d9 \u05e8\u05b6\u05a3\u05db\u05b6\u05d1 \u05e1\u05d5\u05bc\u05e1\u05b4\u0591\u05d9\u05dd \u05d5\u05b7\u05d9\u05b4\u05bc\u05e9\u05b0\u05c1\u05dc\u05b7\u05a8\u05d7 \u05d4\u05b7\u05de\u05b6\u05bc\u059c\u05dc\u05b6\u05da\u05b0 \u05d0\u05b7\u05d7\u05b2\u05e8\u05b5\u05a7\u05d9 \u05de\u05b7\u05d7\u05b2\u05e0\u05b5\u05bd\u05d4\u05be \u05d0\u05b2\u05e8\u05b8\u059b\u05dd \u05dc\u05b5\u05d0\u05de\u05b9\u0596\u05e8 \u05dc\u05b0\u05db\u05a5\u05d5\u05bc \u05d5\u05bc\u05e8\u05b0\u05d0\u05bd\u05d5\u05bc\u05c3"
        },
        {
            "chapter": 7,
            "verse": 15,
            "name": "2 Kings 7:15",
            "text": "\u05d5\u05b7\u05d9\u05b5\u05bc\u05dc\u05b0\u05db\u05a3\u05d5\u05bc \u05d0\u05b7\u05d7\u05b2\u05e8\u05b5\u05d9\u05d4\u05b6\u05dd\u05ae \u05e2\u05b7\u05d3\u05be \u05d4\u05b7\u05d9\u05b7\u05bc\u05e8\u05b0\u05d3\u05b5\u05bc\u05df\u0592 \u05d5\u05b0\u05d4\u05b4\u05e0\u05b5\u05bc\u05a3\u05d4 \u05db\u05b8\u05dc\u05be \u05d4\u05b7\u05d3\u05b6\u05bc\u0597\u05e8\u05b6\u05da\u05b0 \u05de\u05b0\u05dc\u05b5\u05d0\u05b8\u05a4\u05d4 \u05d1\u05b0\u05d2\u05b8\u05d3\u05b4\u05d9\u05dd\u0599 \u05d5\u05b0\u05db\u05b5\u05dc\u05b4\u0594\u05d9\u05dd \u05d0\u05b2\u05e9\u05b6\u05c1\u05e8\u05be \u05d4\u05b4\u05e9\u05b0\u05c1\u05dc\u05b4\u05a5\u05d9\u05db\u05d5\u05bc \u05d0\u05b2\u05e8\u05b8\u0596\u05dd\u05d1\u05d4\u05d7\u05e4\u05d6\u05dd\u05d1\u05b0\u05bc\u05d7\u05b8\u05e4\u05b0\u05d6\u05b8\u0591\u05dd \u05d5\u05b7\u05d9\u05b8\u05bc\u05e9\u05bb\u05c1\u0599\u05d1\u05d5\u05bc\u0599 \u05d4\u05b7\u05de\u05b7\u05bc\u05dc\u05b0\u05d0\u05b8\u05db\u05b4\u0594\u05d9\u05dd \u05d5\u05b7\u05d9\u05b7\u05bc\u05d2\u05b4\u05bc\u0596\u05d3\u05d5\u05bc \u05dc\u05b7\u05de\u05b6\u05bc\u05bd\u05dc\u05b6\u05da\u05b0\u05c3"
        },
        {
            "chapter": 7,
            "verse": 16,
            "name": "2 Kings 7:16",
            "text": "\u05d5\u05b7\u05d9\u05b5\u05bc\u05e6\u05b5\u05a3\u05d0 \u05d4\u05b8\u05e2\u05b8\u0594\u05dd \u05d5\u05b7\u05d9\u05b8\u05bc\u05d1\u05b9\u0595\u05d6\u05bc\u05d5\u05bc \u05d0\u05b5\u0596\u05ea \u05de\u05b7\u05d7\u05b2\u05e0\u05b5\u05a3\u05d4 \u05d0\u05b2\u05e8\u05b8\u0591\u05dd \u05d5\u05b7\u05d9\u05b0\u05d4\u05b4\u05a8\u05d9 \u05e1\u05b0\u05d0\u05b8\u05d4\u05be \u05e1\u05b9\u059c\u05dc\u05b6\u05ea \u05d1\u05b0\u05bc\u05e9\u05b6\u05c1\u0597\u05e7\u05b6\u05dc \u05d5\u05b0\u05e1\u05b8\u05d0\u05ea\u05b7\u05a7\u05d9\u05b4\u05dd \u05e9\u05b0\u05c2\u05e2\u05b9\u05e8\u05b4\u059b\u05d9\u05dd \u05d1\u05b0\u05bc\u05e9\u05b6\u05c1\u0596\u05e7\u05b6\u05dc \u05db\u05b4\u05bc\u05d3\u05b0\u05d1\u05b7\u05a5\u05e8 \u05d9\u05b0\u05d4\u05d5\u05b8\u05bd\u05d4\u05c3"
        },
        {
            "chapter": 7,
            "verse": 17,
            "name": "2 Kings 7:17",
            "text": "\u05d5\u05b0\u05d4\u05b7\u05de\u05b6\u05bc\u05dc\u05b6\u05da\u05b0\u05a9 \u05d4\u05b4\u05e4\u05b0\u05e7\u05b4\u05a8\u05d9\u05d3 \u05d0\u05b6\u05ea\u05be \u05d4\u05b7\u05e9\u05b8\u05bc\u05c1\u05dc\u05b4\u059c\u05d9\u05e9\u05c1 \u05d0\u05b2\u05e9\u05b6\u05c1\u05e8\u05be \u05e0\u05b4\u05e9\u05b0\u05c1\u05e2\u05b8\u05a4\u05df \u05e2\u05b7\u05dc\u05be \u05d9\u05b8\u05d3\u05d5\u05b9\u0599 \u05e2\u05b7\u05dc\u05be \u05d4\u05b7\u05e9\u05b7\u05bc\u05c1\u0594\u05e2\u05b7\u05e8 \u05d5\u05b7\u05d9\u05b4\u05bc\u05e8\u05b0\u05de\u05b0\u05e1\u05bb\u05a7\u05d4\u05d5\u05bc \u05d4\u05b8\u05e2\u05b8\u059b\u05dd \u05d1\u05b7\u05bc\u05e9\u05b7\u05bc\u05c1\u0596\u05e2\u05b7\u05e8 \u05d5\u05b7\u05d9\u05b8\u05bc\u05de\u05b9\u0591\u05ea \u05db\u05b7\u05bc\u05d0\u05b2\u05e9\u05b6\u05c1\u05a4\u05e8 \u05d3\u05b4\u05bc\u05d1\u05b6\u05bc\u05e8\u0599 \u05d0\u05b4\u05a3\u05d9\u05e9\u05c1 \u05d4\u05b8\u05d0\u05b1\u05dc\u05b9\u05d4\u05b4\u0594\u05d9\u05dd \u05d0\u05b2\u05e9\u05b6\u05c1\u05a3\u05e8 \u05d3\u05b4\u05bc\u05d1\u05b6\u05bc\u0594\u05e8 \u05d1\u05b0\u05bc\u05e8\u05b6\u05a5\u05d3\u05b6\u05ea \u05d4\u05b7\u05de\u05b6\u05bc\u0596\u05dc\u05b6\u05da\u05b0 \u05d0\u05b5\u05dc\u05b8\u05bd\u05d9\u05d5\u05c3"
        },
        {
            "chapter": 7,
            "verse": 18,
            "name": "2 Kings 7:18",
            "text": "\u05d5\u05b7\u05d9\u05b0\u05d4\u05b4\u0597\u05d9 \u05db\u05b0\u05bc\u05d3\u05b7\u05d1\u05b5\u05bc\u05e8\u0599 \u05d0\u05b4\u05a3\u05d9\u05e9\u05c1 \u05d4\u05b8\u05d0\u05b1\u05dc\u05b9\u05d4\u05b4\u0594\u05d9\u05dd \u05d0\u05b6\u05dc\u05be \u05d4\u05b7\u05de\u05b6\u05bc\u0596\u05dc\u05b6\u05da\u05b0 \u05dc\u05b5\u05d0\u05de\u05b9\u0591\u05e8 \u05e1\u05b8\u05d0\u05ea\u05b7\u05a8\u05d9\u05b4\u05dd \u05e9\u05b0\u05c2\u05e2\u05b9\u05e8\u05b4\u059c\u05d9\u05dd \u05d1\u05b0\u05bc\u05e9\u05b6\u05c1\u0597\u05e7\u05b6\u05dc \u05d5\u05bc\u05bd\u05e1\u05b0\u05d0\u05b8\u05d4\u05be \u05e1\u05b9\u0599\u05dc\u05b6\u05ea\u0599 \u05d1\u05b0\u05bc\u05e9\u05b6\u05c1\u0594\u05e7\u05b6\u05dc \u05d9\u05b4\u05d4\u05b0\u05d9\u05b6\u05d4\u0599 \u05db\u05b8\u05bc\u05e2\u05b5\u05a3\u05ea \u05de\u05b8\u05d7\u05b8\u0594\u05e8 \u05d1\u05b0\u05bc\u05e9\u05b7\u05c1\u0596\u05e2\u05b7\u05e8 \u05e9\u05b9\u05c1\u05de\u05b0\u05e8\u05bd\u05d5\u05b9\u05df\u05c3"
        },
        {
            "chapter": 7,
            "verse": 19,
            "name": "2 Kings 7:19",
            "text": "\u05d5\u05b7\u05d9\u05b7\u05bc\u05a8\u05e2\u05b7\u05df \u05d4\u05b7\u05e9\u05b8\u05bc\u05c1\u05dc\u05b4\u059c\u05d9\u05e9\u05c1 \u05d0\u05b6\u05ea\u05be \u05d0\u05b4\u05a3\u05d9\u05e9\u05c1 \u05d4\u05b8\u05d0\u05b1\u05dc\u05b9\u05d4\u05b4\u05d9\u05dd\u05ae \u05d5\u05b7\u05d9\u05b9\u05bc\u05d0\u05de\u05b7\u05e8\u0592 \u05d5\u05b0\u05d4\u05b4\u05e0\u05b5\u05bc\u05a3\u05d4 \u05d9\u05b0\u05d4\u05d5\u05b8\u0597\u05d4 \u05e2\u05b9\u05e9\u05b6\u05c2\u05a4\u05d4 \u05d0\u05b2\u05e8\u05bb\u05d1\u05bc\u05d5\u05b9\u05ea\u0599 \u05d1\u05b7\u05bc\u05e9\u05b8\u05bc\u05c1\u05de\u05b7\u0594\u05d9\u05b4\u05dd \u05d4\u05b2\u05d9\u05b4\u05d4\u05b0\u05d9\u05b6\u0596\u05d4 \u05db\u05b7\u05bc\u05d3\u05b8\u05bc\u05d1\u05b8\u05a3\u05e8 \u05d4\u05b7\u05d6\u05b6\u05bc\u0591\u05d4 \u05d5\u05b7\u05d9\u05b9\u05bc\u0597\u05d0\u05de\u05b6\u05e8 \u05d4\u05b4\u05e0\u05b0\u05bc\u05da\u05b8\u05a4 \u05e8\u05b9\u05d0\u05b6\u05d4\u0599 \u05d1\u05b0\u05bc\u05e2\u05b5\u05d9\u05e0\u05b6\u0594\u05d9\u05da\u05b8 \u05d5\u05bc\u05de\u05b4\u05e9\u05b8\u05bc\u05c1\u0596\u05dd \u05dc\u05b9\u05a5\u05d0 \u05ea\u05b9\u05d0\u05db\u05b5\u05bd\u05dc\u05c3"
        },
        {
            "chapter": 7,
            "verse": 20,
            "name": "2 Kings 7:20",
            "text": "\u05d5\u05b7\u05d9\u05b0\u05d4\u05b4\u05d9\u05be \u05dc\u0596\u05d5\u05b9 \u05db\u05b5\u05bc\u0591\u05df \u05d5\u05b7\u05d9\u05b4\u05bc\u05e8\u05b0\u05de\u05b0\u05e1\u05a8\u05d5\u05bc \u05d0\u05b9\u05ea\u05a5\u05d5\u05b9 \u05d4\u05b8\u05e2\u05b8\u059b\u05dd \u05d1\u05b7\u05bc\u05e9\u05b7\u05bc\u05c1\u0596\u05e2\u05b7\u05e8 \u05d5\u05b7\u05d9\u05b8\u05bc\u05de\u05b9\u05bd\u05ea\u05c3 \u05e1\u00a0\u00a0\u00a0\u00a0\u00a0\u00a0  "
        }
    ]
}