{
    "translation": "Smith and Van Dyke",
    "abbreviation": "arabicsv",
    "lang": "ar",
    "language": "Arabic",
    "direction": "RTL",
    "encoding": "UTF-8",
    "book_nr": 19,
    "book_name": "Psalms",
    "chapter": 32,
    "name": "Psalms 32",
    "verses": [
        {
            "chapter": 32,
            "verse": 1,
            "name": "Psalms 32:1",
            "text": "\u0637\u064f\u0648\u0628\u064e\u0649 \u0644\u0650\u0644\u064e\u0651\u0630\u0650\u064a \u063a\u064f\u0641\u0650\u0631\u064e \u0625\u0650\u062b\u0652\u0645\u064f\u0647\u064f \u0648\u064e\u0633\u064f\u062a\u0650\u0631\u064e\u062a\u0652 \u062e\u064e\u0637\u0650\u064a\u064e\u0651\u062a\u064f\u0647\u064f."
        },
        {
            "chapter": 32,
            "verse": 2,
            "name": "Psalms 32:2",
            "text": "\u0637\u064f\u0648\u0628\u064e\u0649 \u0644\u0650\u0631\u064e\u062c\u064f\u0644 \u0644\u0627\u064e \u064a\u064e\u062d\u0652\u0633\u0650\u0628\u064f \u0644\u064e\u0647\u064f \u0627\u0644\u0631\u064e\u0651\u0628\u064f\u0651 \u062e\u064e\u0637\u0650\u064a\u064e\u0651\u0629\u064b\u060c \u0648\u064e\u0644\u0627\u064e \u0641\u0650\u064a \u0631\u064f\u0648\u062d\u0650\u0647\u0650 \u063a\u0650\u0634\u064c\u0651.  "
        },
        {
            "chapter": 32,
            "verse": 3,
            "name": "Psalms 32:3",
            "text": "\u0644\u064e\u0645\u064e\u0651\u0627 \u0633\u064e\u0643\u064e\u062a\u064f\u0651 \u0628\u064e\u0644\u0650\u064a\u064e\u062a\u0652 \u0639\u0650\u0638\u064e\u0627\u0645\u0650\u064a \u0645\u0650\u0646\u0652 \u0632\u064e\u0641\u0650\u064a\u0631\u0650\u064a \u0627\u0644\u0652\u064a\u064e\u0648\u0652\u0645\u064e \u0643\u064f\u0644\u064e\u0651\u0647\u064f\u060c"
        },
        {
            "chapter": 32,
            "verse": 4,
            "name": "Psalms 32:4",
            "text": "\u0644\u0623\u064e\u0646\u064e\u0651 \u064a\u064e\u062f\u064e\u0643\u064e \u062b\u064e\u0642\u064f\u0644\u064e\u062a\u0652 \u0639\u064e\u0644\u064e\u064a\u064e\u0651 \u0646\u064e\u0647\u064e\u0627\u0631\u064b\u0627 \u0648\u064e\u0644\u064e\u064a\u0652\u0644\u0627\u064b. \u062a\u064e\u062d\u064e\u0648\u064e\u0651\u0644\u064e\u062a\u0652 \u0631\u064f\u0637\u064f\u0648\u0628\u064e\u062a\u0650\u064a \u0625\u0650\u0644\u064e\u0649 \u064a\u064f\u0628\u064f\u0648\u0633\u064e\u0629\u0650 \u0627\u0644\u0652\u0642\u064e\u064a\u0652\u0638\u0650. \u0633\u0650\u0644\u0627\u064e\u0647\u0652."
        },
        {
            "chapter": 32,
            "verse": 5,
            "name": "Psalms 32:5",
            "text": "\u0623\u064e\u0639\u0652\u062a\u064e\u0631\u0650\u0641\u064f \u0644\u064e\u0643\u064e \u0628\u0650\u062e\u064e\u0637\u0650\u064a\u064e\u0651\u062a\u0650\u064a \u0648\u064e\u0644\u0627\u064e \u0623\u064e\u0643\u0652\u062a\u064f\u0645\u064f \u0625\u0650\u062b\u0652\u0645\u0650\u064a. \u0642\u064f\u0644\u0652\u062a\u064f: \u00ab\u0623\u064e\u0639\u0652\u062a\u064e\u0631\u0650\u0641\u064f \u0644\u0650\u0644\u0631\u064e\u0651\u0628\u0650\u0651 \u0628\u0650\u0630\u064e\u0646\u0652\u0628\u0650\u064a\u00bb \u0648\u064e\u0623\u064e\u0646\u0652\u062a\u064e \u0631\u064e\u0641\u064e\u0639\u0652\u062a\u064e \u0623\u064e\u062b\u064e\u0627\u0645\u064e \u062e\u064e\u0637\u0650\u064a\u064e\u0651\u062a\u0650\u064a. \u0633\u0650\u0644\u0627\u064e\u0647\u0652."
        },
        {
            "chapter": 32,
            "verse": 6,
            "name": "Psalms 32:6",
            "text": "\u0644\u0650\u0647\u0630\u064e\u0627 \u064a\u064f\u0635\u064e\u0644\u0650\u0651\u064a \u0644\u064e\u0643\u064e \u0643\u064f\u0644\u064f\u0651 \u062a\u064e\u0642\u0650\u064a\u064d\u0651\u0641\u0650\u064a \u0648\u064e\u0642\u0652\u062a\u064d \u064a\u064e\u062c\u0650\u062f\u064f\u0643\u064e \u0641\u0650\u064a\u0647\u0650. \u0639\u0650\u0646\u0652\u062f\u064e \u063a\u064e\u0645\u064e\u0627\u0631\u064e\u0629\u0650 \u0627\u0644\u0652\u0645\u0650\u064a\u064e\u0627\u0647\u0650 \u0627\u0644\u0652\u0643\u064e\u062b\u0650\u064a\u0631\u064e\u0629\u0650 \u0625\u0650\u064a\u064e\u0651\u0627\u0647\u064f \u0644\u0627\u064e \u062a\u064f\u0635\u0650\u064a\u0628\u064f."
        },
        {
            "chapter": 32,
            "verse": 7,
            "name": "Psalms 32:7",
            "text": "\u0623\u064e\u0646\u0652\u062a\u064e \u0633\u0650\u062a\u0652\u0631\u064c \u0644\u0650\u064a. \u0645\u0650\u0646\u064e \u0627\u0644\u0636\u0650\u0651\u064a\u0642\u0650 \u062a\u064e\u062d\u0652\u0641\u064e\u0638\u064f\u0646\u0650\u064a. \u0628\u0650\u062a\u064e\u0631\u064e\u0646\u064f\u0651\u0645\u0650 \u0627\u0644\u0646\u064e\u0651\u062c\u064e\u0627\u0629\u0650 \u062a\u064e\u0643\u0652\u062a\u064e\u0646\u0650\u0641\u064f\u0646\u0650\u064a. \u0633\u0650\u0644\u0627\u064e\u0647\u0652.  "
        },
        {
            "chapter": 32,
            "verse": 8,
            "name": "Psalms 32:8",
            "text": "\u00ab\u0623\u064f\u0639\u064e\u0644\u0650\u0651\u0645\u064f\u0643\u064e \u0648\u064e\u0623\u064f\u0631\u0652\u0634\u0650\u062f\u064f\u0643\u064e \u0627\u0644\u0637\u064e\u0651\u0631\u0650\u064a\u0642\u064e \u0627\u0644\u064e\u0651\u062a\u0650\u064a \u062a\u064e\u0633\u0652\u0644\u064f\u0643\u064f\u0647\u064e\u0627. \u0623\u064e\u0646\u0652\u0635\u064e\u062d\u064f\u0643\u064e. \u0639\u064e\u064a\u0652\u0646\u0650\u064a \u0639\u064e\u0644\u064e\u064a\u0652\u0643\u064e."
        },
        {
            "chapter": 32,
            "verse": 9,
            "name": "Psalms 32:9",
            "text": "\u0644\u0627\u064e \u062a\u064e\u0643\u064f\u0648\u0646\u064f\u0648\u0627 \u0643\u064e\u0641\u064e\u0631\u064e\u0633\u064d \u0623\u064e\u0648\u0652 \u0628\u064e\u063a\u0652\u0644 \u0628\u0650\u0644\u0627\u064e \u0641\u064e\u0647\u0652\u0645\u064d. \u0628\u0650\u0644\u0650\u062c\u064e\u0627\u0645\u064d \u0648\u064e\u0632\u0650\u0645\u064e\u0627\u0645\u064d \u0632\u0650\u064a\u0646\u064e\u062a\u0650\u0647\u0650 \u064a\u064f\u0643\u064e\u0645\u064f\u0651 \u0644\u0650\u0626\u064e\u0644\u0627\u064e\u0651 \u064a\u064e\u062f\u0652\u0646\u064f\u0648\u064e \u0625\u0650\u0644\u064e\u064a\u0652\u0643\u064e\u00bb."
        },
        {
            "chapter": 32,
            "verse": 10,
            "name": "Psalms 32:10",
            "text": "\u0643\u064e\u062b\u0650\u064a\u0631\u064e\u0629\u064c \u0647\u0650\u064a\u064e \u0646\u064e\u0643\u064e\u0628\u064e\u0627\u062a\u064f \u0627\u0644\u0634\u0650\u0651\u0631\u0650\u0651\u064a\u0631\u0650\u060c \u0623\u064e\u0645\u064e\u0651\u0627 \u0627\u0644\u0652\u0645\u064f\u062a\u064e\u0648\u064e\u0643\u0650\u0651\u0644\u064f \u0639\u064e\u0644\u064e\u0649 \u0627\u0644\u0631\u064e\u0651\u0628\u0650\u0651 \u0641\u064e\u0627\u0644\u0631\u064e\u0651\u062d\u0652\u0645\u064e\u0629\u064f \u062a\u064f\u062d\u0650\u064a\u0637\u064f \u0628\u0650\u0647\u0650."
        },
        {
            "chapter": 32,
            "verse": 11,
            "name": "Psalms 32:11",
            "text": "\u0627\u0641\u0652\u0631\u064e\u062d\u064f\u0648\u0627 \u0628\u0650\u0627\u0644\u0631\u064e\u0651\u0628\u0650\u0651 \u0648\u064e\u0627\u0628\u0652\u062a\u064e\u0647\u0650\u062c\u064f\u0648\u0627 \u064a\u064e\u0627 \u0623\u064e\u064a\u064f\u0651\u0647\u064e\u0627 \u0627\u0644\u0635\u0650\u0651\u062f\u0650\u0651\u064a\u0642\u064f\u0648\u0646\u064e\u060c \u0648\u064e\u0627\u0647\u0652\u062a\u0650\u0641\u064f\u0648\u0627 \u064a\u064e\u0627 \u062c\u064e\u0645\u0650\u064a\u0639\u064e \u0627\u0644\u0652\u0645\u064f\u0633\u0652\u062a\u064e\u0642\u0650\u064a\u0645\u0650\u064a \u0627\u0644\u0652\u0642\u064f\u0644\u064f\u0648\u0628\u0650. "
        }
    ]
}