{
    "translation": "Latvian Gl\u00fcck 8th edition",
    "abbreviation": "lvgluck8",
    "lang": "lv",
    "language": "Latvian",
    "direction": "LTR",
    "encoding": "UTF-8",
    "book_nr": 7,
    "book_name": "Judges",
    "chapter": 10,
    "name": "Judges 10",
    "verses": [
        {
            "chapter": 10,
            "verse": 1,
            "name": "Judges 10:1",
            "text": "Un p\u0113c Abimeleka, Tolus, Dodus d\u0113la Pu\u016bs d\u0113ls, v\u012brs no \u012aza\u0161ara cilts, c\u0113l\u0101s, Izra\u0113li pest\u012bt, un dz\u012bvoja Zamir\u0101 Evra\u012bma kalnos."
        },
        {
            "chapter": 10,
            "verse": 2,
            "name": "Judges 10:2",
            "text": "Un vi\u0146\u0161 ties\u0101ja Izra\u0113li divdesmit un tr\u012bs gadus un nomira un Zamir\u0101 tapa aprakts."
        },
        {
            "chapter": 10,
            "verse": 3,
            "name": "Judges 10:3",
            "text": "Un p\u0113c vi\u0146a c\u0113l\u0101s Ja\u012brs, \u0122ile\u0101dietis, un ties\u0101ja Izra\u0113li divdesmit un divus gadus."
        },
        {
            "chapter": 10,
            "verse": 4,
            "name": "Judges 10:4",
            "text": "Un tam bija tr\u012bsdesmit d\u0113li, tie j\u0101ja uz tr\u012bsdesmit \u0113ze\u013ciem, un tiem bija tr\u012bsdesmit pils\u0113tas, ko nosauc Ja\u012bra ciemus l\u012bdz \u0161ai dienai; tie ir \u0122ile\u0101das zem\u0113."
        },
        {
            "chapter": 10,
            "verse": 5,
            "name": "Judges 10:5",
            "text": "Un Ja\u012brs nomira un tapa aprakts Kamon\u0101."
        },
        {
            "chapter": 10,
            "verse": 6,
            "name": "Judges 10:6",
            "text": "Tad Izra\u0113la b\u0113rni joproj\u0101m dar\u012bja, kas Tam Kungam nepatika, un kalpoja Ba\u0101liem un Astart\u0113m un S\u012brie\u0161u dieviem un Sidonas dieviem un Moaba dieviem un Amona b\u0113rnu dieviem un V\u012blistu dieviem un atst\u0101ja To Kungu un nekalpoja vi\u0146am."
        },
        {
            "chapter": 10,
            "verse": 7,
            "name": "Judges 10:7",
            "text": "Tad T\u0101 Kunga dusm\u012bba iedeg\u0101s pret Izra\u0113li un vi\u0146\u0161 tos p\u0101rdeva V\u012blistu rok\u0101 un Amona b\u0113rnu rok\u0101."
        },
        {
            "chapter": 10,
            "verse": 8,
            "name": "Judges 10:8",
            "text": "Un tie satrieca un samina Izra\u0113la b\u0113rnus no t\u0101 gada ies\u0101kot asto\u0146padsmit gadus, visus Izra\u0113la b\u0113rnus, kas vi\u0146pus Jard\u0101nes bija, Amorie\u0161u zem\u0113, tas ir \u0122ile\u0101d\u0101."
        },
        {
            "chapter": 10,
            "verse": 9,
            "name": "Judges 10:9",
            "text": "Un Amona b\u0113rni g\u0101ja p\u0101r Jard\u0101ni un karoja pret J\u016bdu un pret Benjaminu un pret Evra\u012bma namu, t\u0101 ka Izra\u0113lim bija \u013coti bail."
        },
        {
            "chapter": 10,
            "verse": 10,
            "name": "Judges 10:10",
            "text": "Tad Izra\u0113la b\u0113rni br\u0113ca uz To Kungu un sac\u012bja: m\u0113s pret tevi esam gr\u0113koju\u0161i, jo m\u0113s savu Dievu esam atst\u0101ju\u0161i un kalpoju\u0161i Ba\u0101liem."
        },
        {
            "chapter": 10,
            "verse": 11,
            "name": "Judges 10:11",
            "text": "Bet Tas Kungs sac\u012bja uz Izra\u0113la b\u0113rniem: vai es j\u016bs neesmu izpest\u012bjis no \u0112\u0123iptie\u0161iem un Amorie\u0161iem un Amona b\u0113rniem un V\u012blistiem"
        },
        {
            "chapter": 10,
            "verse": 12,
            "name": "Judges 10:12",
            "text": "Un Sidonie\u0161iem un Amale\u0137ie\u0161iem un Maonie\u0161iem, kad tie j\u016bs spaid\u012bja, un j\u016bs uz mani br\u0113c\u0101t?"
        },
        {
            "chapter": 10,
            "verse": 13,
            "name": "Judges 10:13",
            "text": "Tom\u0113r j\u016bs mani esat atst\u0101ju\u0161i un kalpoju\u0161i citiem dieviem, t\u0101d\u0113\u013c es j\u016bs vairs negribu izpest\u012bt."
        },
        {
            "chapter": 10,
            "verse": 14,
            "name": "Judges 10:14",
            "text": "Ejat un br\u0113ciet uz saviem dieviem, ko j\u016bs esat izmekl\u0113ju\u0161ies, lai tie j\u016bs izpest\u012b j\u016bsu b\u0113du laik\u0101. "
        },
        {
            "chapter": 10,
            "verse": 15,
            "name": "Judges 10:15",
            "text": "Bet Izra\u0113la b\u0113rni sac\u012bja uz To Kungu: m\u0113s esam gr\u0113koju\u0161i; dari tu mums, itin k\u0101 tev pat\u012bk, izgl\u0101b m\u016bs tikai \u0161o reiz'."
        },
        {
            "chapter": 10,
            "verse": 16,
            "name": "Judges 10:16",
            "text": "Un tie meta nost no sevis tos sve\u0161os dievus un kalpoja Tam Kungam. Tad vi\u0146am palika \u017e\u0113l par Izra\u0113la b\u0113d\u0101m."
        },
        {
            "chapter": 10,
            "verse": 17,
            "name": "Judges 10:17",
            "text": "Un Amona b\u0113rni tapa sasaukti un apmet\u0101s \u0122ile\u0101d\u0101 un Izra\u0113la b\u0113rni sapulc\u0113j\u0101s un apmet\u0101s Micp\u0101."
        },
        {
            "chapter": 10,
            "verse": 18,
            "name": "Judges 10:18",
            "text": "Tad tie \u013caudis, \u0122ile\u0101das virsnieki, cits uz citu sac\u012bja: kas b\u016bs tas v\u012brs, kas s\u0101ks karot pret Amona b\u0113rniem. Tam b\u016bs galvai b\u016bt p\u0101r visiem \u0122ile\u0101das iedz\u012bvot\u0101jiem. "
        }
    ]
}