{
    "translation": "Open English Bible (Commonwealth Spelling)",
    "abbreviation": "oebcth",
    "lang": "en",
    "language": "English",
    "direction": "LTR",
    "encoding": "UTF-8",
    "book_nr": 21,
    "book_name": "Ecclesiastes",
    "chapter": 7,
    "name": "Ecclesiastes 7",
    "verses": [
        {
            "chapter": 7,
            "verse": 1,
            "name": "Ecclesiastes 7:1",
            "text": ""
        },
        {
            "chapter": 7,
            "verse": 2,
            "name": "Ecclesiastes 7:2",
            "text": ""
        },
        {
            "chapter": 7,
            "verse": 3,
            "name": "Ecclesiastes 7:3",
            "text": ""
        },
        {
            "chapter": 7,
            "verse": 4,
            "name": "Ecclesiastes 7:4",
            "text": ""
        },
        {
            "chapter": 7,
            "verse": 5,
            "name": "Ecclesiastes 7:5",
            "text": ""
        },
        {
            "chapter": 7,
            "verse": 6,
            "name": "Ecclesiastes 7:6",
            "text": ""
        },
        {
            "chapter": 7,
            "verse": 7,
            "name": "Ecclesiastes 7:7",
            "text": ""
        },
        {
            "chapter": 7,
            "verse": 8,
            "name": "Ecclesiastes 7:8",
            "text": ""
        },
        {
            "chapter": 7,
            "verse": 9,
            "name": "Ecclesiastes 7:9",
            "text": ""
        },
        {
            "chapter": 7,
            "verse": 10,
            "name": "Ecclesiastes 7:10",
            "text": ""
        },
        {
            "chapter": 7,
            "verse": 11,
            "name": "Ecclesiastes 7:11",
            "text": ""
        },
        {
            "chapter": 7,
            "verse": 12,
            "name": "Ecclesiastes 7:12",
            "text": ""
        },
        {
            "chapter": 7,
            "verse": 13,
            "name": "Ecclesiastes 7:13",
            "text": ""
        },
        {
            "chapter": 7,
            "verse": 14,
            "name": "Ecclesiastes 7:14",
            "text": ""
        },
        {
            "chapter": 7,
            "verse": 15,
            "name": "Ecclesiastes 7:15",
            "text": ""
        },
        {
            "chapter": 7,
            "verse": 16,
            "name": "Ecclesiastes 7:16",
            "text": ""
        },
        {
            "chapter": 7,
            "verse": 17,
            "name": "Ecclesiastes 7:17",
            "text": ""
        },
        {
            "chapter": 7,
            "verse": 18,
            "name": "Ecclesiastes 7:18",
            "text": ""
        },
        {
            "chapter": 7,
            "verse": 19,
            "name": "Ecclesiastes 7:19",
            "text": ""
        },
        {
            "chapter": 7,
            "verse": 20,
            "name": "Ecclesiastes 7:20",
            "text": ""
        },
        {
            "chapter": 7,
            "verse": 21,
            "name": "Ecclesiastes 7:21",
            "text": ""
        },
        {
            "chapter": 7,
            "verse": 22,
            "name": "Ecclesiastes 7:22",
            "text": ""
        },
        {
            "chapter": 7,
            "verse": 23,
            "name": "Ecclesiastes 7:23",
            "text": ""
        },
        {
            "chapter": 7,
            "verse": 24,
            "name": "Ecclesiastes 7:24",
            "text": ""
        },
        {
            "chapter": 7,
            "verse": 25,
            "name": "Ecclesiastes 7:25",
            "text": ""
        },
        {
            "chapter": 7,
            "verse": 26,
            "name": "Ecclesiastes 7:26",
            "text": ""
        },
        {
            "chapter": 7,
            "verse": 27,
            "name": "Ecclesiastes 7:27",
            "text": ""
        },
        {
            "chapter": 7,
            "verse": 28,
            "name": "Ecclesiastes 7:28",
            "text": ""
        },
        {
            "chapter": 7,
            "verse": 29,
            "name": "Ecclesiastes 7:29",
            "text": ""
        }
    ]
}