{
    "translation": "Haitian Creole Bible",
    "abbreviation": "haitian",
    "lang": "ht",
    "language": "Haitian Creole",
    "direction": "LTR",
    "encoding": "UTF-8",
    "book_nr": 53,
    "book_name": "2 Thessalonians",
    "chapter": 2,
    "name": "2 Thessalonians 2",
    "verses": [
        {
            "chapter": 2,
            "verse": 1,
            "name": "2 Thessalonians 2:1",
            "text": "Ann konsidere l\u00e8 Jezikri, Sey\u00e8 nou an, va par\u00e8t pou l' sanble nou ansanm b\u00f2 kote li. Fr\u00e8 m' yo, men sa m'ap mande nou:"
        },
        {
            "chapter": 2,
            "verse": 2,
            "name": "2 Thessalonians 2:2",
            "text": "Pa kite pesonn twouble lespri nou fasil, ni f\u00e8 nou p\u00e8di t\u00e8t nou ak ankenn mesaj ki swadizan soti nan Bondye, ni ak ankenn b\u00e8l diskou, ni ak ankenn l\u00e8t mwen ta swadizan ekri nou, pou yo f\u00e8 nou kw\u00e8 jou Sey\u00e8 a rive deja."
        },
        {
            "chapter": 2,
            "verse": 3,
            "name": "2 Thessalonians 2:3",
            "text": "Pa kite pesonn twonpe nou nan ankenn jan. Paske, anvan jou sa a rive, gen yon d\u00e8nye rev\u00f2lt kont Bondye ki pou f\u00e8t. Nou gen pou nou w\u00e8 mechan ki deja kondannen pou dispar\u00e8t la vini anvan."
        },
        {
            "chapter": 2,
            "verse": 4,
            "name": "2 Thessalonians 2:4",
            "text": "Mechan sa a ap kanpe, l'ap pran pozisyon kont tout bagay l\u00e8z\u00f2m ap s\u00e8vi, kont tout bagay l\u00e8z\u00f2m konsidere pou Bondye. La f\u00e8, la f\u00e8, jouk la antre nan tanp Bondye a, la chita, la f\u00e8 t\u00e8t li pase pou Bondye."
        },
        {
            "chapter": 2,
            "verse": 5,
            "name": "2 Thessalonians 2:5",
            "text": "Nou pa chonje mwen te di nou sa l\u00e8 m' te lakay nou toujou?"
        },
        {
            "chapter": 2,
            "verse": 6,
            "name": "2 Thessalonians 2:6",
            "text": "Men, gen yon bagay k'ap anpeche lev\u00e8nman sa yo rive koulye a. Nou konnen kisa li ye: Se sak f\u00e8, mechan an p'ap par\u00e8t anvan l\u00e8 li."
        },
        {
            "chapter": 2,
            "verse": 7,
            "name": "2 Thessalonians 2:7",
            "text": "Wi, pouvwa mechan an deja ap travay anba chal. Men, anvan pou lev\u00e8nman sa yo rive, se pou moun k'ap ba l' bary\u00e8 a dispar\u00e8t."
        },
        {
            "chapter": 2,
            "verse": 8,
            "name": "2 Thessalonians 2:8",
            "text": "L\u00e8 sa a, mechan an va par\u00e8t. Sey\u00e8 Jezi va soufle ak bouch li sou li, la touye li. L'ap annik par\u00e8t nan tout pouvwa li pou l' fini n\u00e8t ak li."
        },
        {
            "chapter": 2,
            "verse": 9,
            "name": "2 Thessalonians 2:9",
            "text": "Mechan an va vini ak tout pouvwa Satan an. Li va f\u00e8 anpil mirak, anpil m\u00e8v\u00e8y ak anpil gwo siy pou bay manti."
        },
        {
            "chapter": 2,
            "verse": 10,
            "name": "2 Thessalonians 2:10",
            "text": "Li va f\u00e8 tout kalite bagay mal pou twonpe moun k'ap p\u00e8di t\u00e8t yo. Y'ap p\u00e8di t\u00e8t yo paske yo pa asepte verite ki pou ta sove yo a, yo pa renmen li."
        },
        {
            "chapter": 2,
            "verse": 11,
            "name": "2 Thessalonians 2:11",
            "text": "Se pout\u00e8t sa, Bondye ap voye yon pouvwa k'ap travay pou egare yo pi r\u00e8d, pou yo sa kw\u00e8 nan manti."
        },
        {
            "chapter": 2,
            "verse": 12,
            "name": "2 Thessalonians 2:12",
            "text": "Konsa, tout moun ki p'ap kw\u00e8 nan verite a, ki te pran plezi yo nan f\u00e8 lenjistis, yo tout pral kondannen."
        },
        {
            "chapter": 2,
            "verse": 13,
            "name": "2 Thessalonians 2:13",
            "text": "Se yon devwa pou mwen pou m' pa janm sispann di Bondye m\u00e8si pou nou, fr\u00e8 m' yo, nou menm Sey\u00e8 a renmen. Paske, Bondye chwazi nou pou nou ka premye moun ki pou delivre, gremesi pouvwa Sentespri ki f\u00e8 nou tounen moun pa l', paske nou kw\u00e8 nan verite a."
        },
        {
            "chapter": 2,
            "verse": 14,
            "name": "2 Thessalonians 2:14",
            "text": "Gremesi bon nouv\u00e8l mwen te anonse nou an, Bondye chwazi nou pou nou ka resevwa pa nou nan lwanj ki pou Jezikri, Sey\u00e8 nou an."
        },
        {
            "chapter": 2,
            "verse": 15,
            "name": "2 Thessalonians 2:15",
            "text": "Se sa ki f\u00e8, fr\u00e8 m' yo, se pou nou kenbe f\u00e8m. Pa bliye tou sa nou te aprann nan bouch mwen ak nan l\u00e8t mwen an."
        },
        {
            "chapter": 2,
            "verse": 16,
            "name": "2 Thessalonians 2:16",
            "text": "M'ap lapriy\u00e8 Jezikri, Sey\u00e8 nou an, ansanm ak Bondye, Papa nou ki renmen nou, ki f\u00e8 nou fav\u00e8, ki ban nou yon kouraj ki p'ap janm febli ansanm ak yon b\u00e8l espwa."
        },
        {
            "chapter": 2,
            "verse": 17,
            "name": "2 Thessalonians 2:17",
            "text": "M'ap mande yo pou yo f\u00f2tifye k\u00e8 nou, pou yo ban nou f\u00f2s kouraj pou nou f\u00e8 tou sa ki byen, pou nou di tou sa ki byen.  "
        }
    ]
}