{
    "translation": "\u05de\u05e7\u05e8\u05d0 \u05e2\u05dc \u05e4\u05d9 \u05d4\u05de\u05e1\u05d5\u05e8\u05d4 (Miqra `al pi ha-Mesorah)",
    "abbreviation": "mapm",
    "lang": "he",
    "language": "Hebrew",
    "direction": "RTL",
    "encoding": "UTF-8",
    "book_nr": 28,
    "book_name": "Hosea",
    "chapter": 1,
    "name": "Hosea 1",
    "verses": [
        {
            "chapter": 1,
            "verse": 1,
            "name": "Hosea 1:1",
            "text": "\u05d3\u05bc\u05b0\u05d1\u05b7\u05e8\u05be\u05d9\u05b0\u05d4\u05b9\u05d5\u05b8\u05a3\u05d4\u00a0\u05c0 \u05d0\u05b2\u05e9\u05c1\u05b6\u05a3\u05e8 \u05d4\u05b8\u05d9\u05b8\u0597\u05d4 \u05d0\u05b6\u05dc\u05be\u05d4\u05d5\u05b9\u05e9\u05c1\u05b5\u0599\u05e2\u05b7\u0599 \u05d1\u05bc\u05b6\u05df\u05be\u05d1\u05bc\u05b0\u05d0\u05b5\u05e8\u05b4\u0594\u05d9 \u05d1\u05bc\u05b4\u05d9\u05de\u05b5\u05a8\u05d9 \u05e2\u05bb\u05d6\u05bc\u05b4\u05d9\u05bc\u05b8\u05a5\u05d4 \u05d9\u05d5\u05b9\u05ea\u05b8\u059b\u05dd \u05d0\u05b8\u05d7\u05b8\u05a5\u05d6 \u05d9\u05b0\u05d7\u05b4\u05d6\u05b0\u05e7\u05b4\u05d9\u05bc\u05b8\u0596\u05d4 \u05de\u05b7\u05dc\u05b0\u05db\u05b5\u05a3\u05d9 \u05d9\u05b0\u05d4\u05d5\u05bc\u05d3\u05b8\u0591\u05d4 \u05d5\u05bc\u05d1\u05b4\u05d9\u05de\u05b5\u059b\u05d9 \u05d9\u05b8\u05e8\u05b8\u05d1\u05b0\u05e2\u05b8\u05a5\u05dd \u05d1\u05bc\u05b6\u05df\u05be\u05d9\u05d5\u05b9\u05d0\u05b8\u0596\u05e9\u05c1 \u05de\u05b6\u05a5\u05dc\u05b6\u05da\u05b0 \u05d9\u05b4\u05e9\u05c2\u05b0\u05e8\u05b8\u05d0\u05b5\u05bd\u05dc\u05c3"
        },
        {
            "chapter": 1,
            "verse": 2,
            "name": "Hosea 1:2",
            "text": "\u05ea\u05bc\u05b0\u05d7\u05b4\u05dc\u05bc\u05b7\u05a5\u05ea \u05d3\u05bc\u05b4\u05d1\u05bc\u05b6\u05e8\u05be\u05d9\u05b0\u05d4\u05b9\u05d5\u05b8\u0596\u05d4 \u05d1\u05bc\u05b0\u05d4\u05d5\u05b9\u05e9\u05c1\u05b5\u0591\u05e2\u05b7  \u05d5\u05b7\u05d9\u05bc\u05b9\u05a8\u05d0\u05de\u05b6\u05e8 \u05d9\u05b0\u05d4\u05b9\u05d5\u05b8\u059c\u05d4 \u05d0\u05b6\u05dc\u05be\u05d4\u05d5\u05b9\u05e9\u05c1\u05b5\u0597\u05e2\u05b7 \u05dc\u05b5\u05a3\u05da\u05b0 \u05e7\u05b7\u05d7\u05be\u05dc\u05b0\u05da\u05b8\u059e \u05d0\u05b5\u05a4\u05e9\u05c1\u05b6\u05ea \u05d6\u05b0\u05e0\u05d5\u05bc\u05e0\u05b4\u05d9\u05dd\u0599 \u05d5\u05b0\u05d9\u05b7\u05dc\u05b0\u05d3\u05b5\u05a3\u05d9 \u05d6\u05b0\u05e0\u05d5\u05bc\u05e0\u05b4\u0594\u05d9\u05dd \u05db\u05bc\u05b4\u05bd\u05d9\u05be\u05d6\u05b8\u05e0\u05b9\u05a4\u05d4 \u05ea\u05b4\u05d6\u05b0\u05e0\u05b6\u05d4\u0599 \u05d4\u05b8\u05d0\u05b8\u0594\u05e8\u05b6\u05e5 \u05de\u05b5\u05d0\u05b7\u05d7\u05b2\u05e8\u05b5\u0596\u05d9 \u05d9\u05b0\u05d4\u05b9\u05d5\u05b8\u05bd\u05d4\u05c3"
        },
        {
            "chapter": 1,
            "verse": 3,
            "name": "Hosea 1:3",
            "text": "\u05d5\u05b7\u05d9\u05bc\u05b5\u0599\u05dc\u05b6\u05da\u05b0\u0599 \u05d5\u05b7\u05d9\u05bc\u05b4\u05e7\u05bc\u05b7\u0594\u05d7 \u05d0\u05b6\u05ea\u05be\u05d2\u05bc\u05b9\u0596\u05de\u05b6\u05e8 \u05d1\u05bc\u05b7\u05ea\u05be\u05d3\u05bc\u05b4\u05d1\u05b0\u05dc\u05b8\u0591\u05d9\u05b4\u05dd \u05d5\u05b7\u05ea\u05bc\u05b7\u05a5\u05d4\u05b7\u05e8 \u05d5\u05b7\u05ea\u05bc\u05b5\u05dc\u05b6\u05d3\u05be\u05dc\u0596\u05d5\u05b9 \u05d1\u05bc\u05b5\u05bd\u05df\u05c3"
        },
        {
            "chapter": 1,
            "verse": 4,
            "name": "Hosea 1:4",
            "text": "\u05d5\u05b7\u05d9\u05bc\u05b9\u05a4\u05d0\u05de\u05b6\u05e8 \u05d9\u05b0\u05d4\u05b9\u05d5\u05b8\u05d4\u0599 \u05d0\u05b5\u05dc\u05b8\u0594\u05d9\u05d5 \u05e7\u05b0\u05e8\u05b8\u05a5\u05d0 \u05e9\u05c1\u05b0\u05de\u0596\u05d5\u05b9 \u05d9\u05b4\u05d6\u05b0\u05e8\u05b0\u05e2\u05b6\u0591\u05d0\u05dc \u05db\u05bc\u05b4\u05d9\u05be\u05e2\u05a3\u05d5\u05b9\u05d3 \u05de\u05b0\u05e2\u05b7\u0597\u05d8 \u05d5\u05bc\u05e4\u05b8\u05a8\u05e7\u05b7\u05d3\u05b0\u05ea\u05bc\u05b4\u059c\u05d9 \u05d0\u05b6\u05ea\u05be\u05d3\u05bc\u05b0\u05de\u05b5\u05a4\u05d9 \u05d9\u05b4\u05d6\u05b0\u05e8\u05b0\u05e2\u05b6\u05d0\u05dc\u0599 \u05e2\u05b7\u05dc\u05be\u05d1\u05bc\u05b5\u05a3\u05d9\u05ea \u05d9\u05b5\u05d4\u0594\u05d5\u05bc\u05d0 \u05d5\u05b0\u05d4\u05b4\u05a8\u05e9\u05c1\u05b0\u05d1\u05bc\u05b7\u05ea\u05bc\u05b4\u0594\u05d9 \u05de\u05b7\u05de\u05b0\u05dc\u05b0\u05db\u0596\u05d5\u05bc\u05ea \u05d1\u05bc\u05b5\u05a5\u05d9\u05ea \u05d9\u05b4\u05e9\u05c2\u05b0\u05e8\u05b8\u05d0\u05b5\u05bd\u05dc\u05c3"
        },
        {
            "chapter": 1,
            "verse": 5,
            "name": "Hosea 1:5",
            "text": "\u05d5\u05b0\u05d4\u05b8\u05d9\u05b8\u0596\u05d4 \u05d1\u05bc\u05b7\u05d9\u05bc\u05a3\u05d5\u05b9\u05dd \u05d4\u05b7\u05d4\u0591\u05d5\u05bc\u05d0 \u05d5\u05b0\u05e9\u05c1\u05b8\u05bd\u05d1\u05b7\u05e8\u05b0\u05ea\u05bc\u05b4\u05d9\u0599 \u05d0\u05b6\u05ea\u05be\u05e7\u05b6\u05a3\u05e9\u05c1\u05b6\u05ea \u05d9\u05b4\u05e9\u05c2\u05b0\u05e8\u05b8\u05d0\u05b5\u0594\u05dc \u05d1\u05bc\u05b0\u05e2\u05b5\u0596\u05de\u05b6\u05e7 \u05d9\u05b4\u05d6\u05b0\u05e8\u05b0\u05e2\u05b6\u05bd\u05d0\u05dc\u05c3"
        },
        {
            "chapter": 1,
            "verse": 6,
            "name": "Hosea 1:6",
            "text": "\u05d5\u05b7\u05ea\u05bc\u05b7\u05a4\u05d4\u05b7\u05e8 \u05e2\u05d5\u05b9\u05d3\u0599 \u05d5\u05b7\u05ea\u05bc\u05b5\u05a3\u05dc\u05b6\u05d3 \u05d1\u05bc\u05b7\u0594\u05ea \u05d5\u05b7\u05d9\u05bc\u05b9\u05a3\u05d0\u05de\u05b6\u05e8 \u05dc\u0594\u05d5\u05b9 \u05e7\u05b0\u05e8\u05b8\u05a5\u05d0 \u05e9\u05c1\u05b0\u05de\u05b8\u0596\u05d4\u05bc \u05dc\u05b9\u05a3\u05d0 \u05e8\u05bb\u05d7\u05b8\u0591\u05de\u05b8\u05d4 \u05db\u05bc\u05b4\u05d9\u05a9 \u05dc\u05b9\u05a8\u05d0 \u05d0\u05d5\u05b9\u05e1\u05b4\u059c\u05d9\u05e3 \u05e2\u0597\u05d5\u05b9\u05d3 \u05d0\u05b2\u05e8\u05b7\u05d7\u05b5\u05dd\u0599 \u05d0\u05b6\u05ea\u05be\u05d1\u05bc\u05b5\u05a3\u05d9\u05ea \u05d9\u05b4\u05e9\u05c2\u05b0\u05e8\u05b8\u05d0\u05b5\u0594\u05dc \u05db\u05bc\u05b4\u05bd\u05d9\u05be\u05e0\u05b8\u05e9\u05c2\u05b9\u05a5\u05d0 \u05d0\u05b6\u05e9\u05c2\u05bc\u05b8\u0596\u05d0 \u05dc\u05b8\u05d4\u05b6\u05bd\u05dd\u05c3"
        },
        {
            "chapter": 1,
            "verse": 7,
            "name": "Hosea 1:7",
            "text": "\u05d5\u05b0\u05d0\u05b6\u05ea\u05be\u05d1\u05bc\u05b5\u05a4\u05d9\u05ea \u05d9\u05b0\u05d4\u05d5\u05bc\u05d3\u05b8\u05d4\u0599 \u05d0\u05b2\u05e8\u05b7\u05d7\u05b5\u0594\u05dd \u05d5\u05b0\u05d4\u05d5\u05b9\u05e9\u05c1\u05b7\u05e2\u05b0\u05ea\u05bc\u05b4\u0596\u05d9\u05dd \u05d1\u05bc\u05b7\u05d9\u05d4\u05b9\u05d5\u05b8\u05a3\u05d4 \u05d0\u05b1\u05dc\u05b9\u05d4\u05b5\u05d9\u05d4\u05b6\u0591\u05dd \u05d5\u05b0\u05dc\u05b9\u05a3\u05d0 \u05d0\u05d5\u05b9\u05e9\u05c1\u05b4\u05d9\u05e2\u05b5\u0597\u05dd \u05d1\u05bc\u05b0\u05e7\u05b6\u05a4\u05e9\u05c1\u05b6\u05ea \u05d5\u05bc\u05d1\u05b0\u05d7\u05b6\u0599\u05e8\u05b6\u05d1\u0599 \u05d5\u05bc\u05d1\u05b0\u05de\u05b4\u05dc\u05b0\u05d7\u05b8\u05de\u05b8\u0594\u05d4 \u05d1\u05bc\u05b0\u05e1\u05d5\u05bc\u05e1\u05b4\u0596\u05d9\u05dd \u05d5\u05bc\u05d1\u05b0\u05e4\u05b8\u05e8\u05b8\u05e9\u05c1\u05b4\u05bd\u05d9\u05dd\u05c3"
        },
        {
            "chapter": 1,
            "verse": 8,
            "name": "Hosea 1:8",
            "text": "\u05d5\u05b7\u05ea\u05bc\u05b4\u05d2\u05b0\u05de\u05b9\u0596\u05dc \u05d0\u05b6\u05ea\u05be\u05dc\u05b9\u05a3\u05d0 \u05e8\u05bb\u05d7\u05b8\u0591\u05de\u05b8\u05d4 \u05d5\u05b7\u05ea\u05bc\u05b7\u0596\u05d4\u05b7\u05e8 \u05d5\u05b7\u05ea\u05bc\u05b5\u05a5\u05dc\u05b6\u05d3 \u05d1\u05bc\u05b5\u05bd\u05df\u05c3"
        },
        {
            "chapter": 1,
            "verse": 9,
            "name": "Hosea 1:9",
            "text": "\u05d5\u05b7\u05d9\u05bc\u05b9\u0595\u05d0\u05de\u05b6\u05e8 \u05e7\u05b0\u05e8\u05b8\u05a5\u05d0 \u05e9\u05c1\u05b0\u05de\u0596\u05d5\u05b9 \u05dc\u05b9\u05a3\u05d0 \u05e2\u05b7\u05de\u05bc\u05b4\u0591\u05d9 \u05db\u05bc\u05b4\u05a4\u05d9 \u05d0\u05b7\u05ea\u05bc\u05b6\u05dd\u0599 \u05dc\u05b9\u05a3\u05d0 \u05e2\u05b7\u05de\u05bc\u05b4\u0594\u05d9 \u05d5\u05b0\u05d0\u05b8\u05e0\u05b9\u05db\u05b4\u0596\u05d9 \u05dc\u05b9\u05d0\u05be\u05d0\u05b6\u05d4\u05b0\u05d9\u05b6\u05a5\u05d4 \u05dc\u05b8\u05db\u05b6\u05bd\u05dd\u05c3  "
        }
    ]
}