{
  "translation": "Luther (1545)",
  "abbreviation": "luther1545",
  "lang": "de",
  "language": "German",
  "direction": "LTR",
  "encoding": "UTF-8",
  "nr": 21,
  "name": "Prediger",
  "chapters": [
    {
      "chapter": 1,
      "name": "Prediger 1",
      "verses": [
        {
          "chapter": 1,
          "verse": 1,
          "name": "Prediger 1:1",
          "text": "Dies sind die Reden des Predigers, des Sohns Davids, des K\u00f6nigs zu Jerusalem. "
        },
        {
          "chapter": 1,
          "verse": 2,
          "name": "Prediger 1:2",
          "text": "Es ist alles ganz eitel, sprach der Prediger, es ist alles ganz eitel. "
        },
        {
          "chapter": 1,
          "verse": 3,
          "name": "Prediger 1:3",
          "text": "Was hat der Mensch mehr von all seiner M\u00fche, die er hat unter der Sonne? "
        },
        {
          "chapter": 1,
          "verse": 4,
          "name": "Prediger 1:4",
          "text": "Ein Geschlecht vergehet, das andere kommt; die Erde aber bleibet ewiglich. "
        },
        {
          "chapter": 1,
          "verse": 5,
          "name": "Prediger 1:5",
          "text": "Die Sonne gehet auf und gehet unter und l\u00e4uft an ihren Ort, da\u00df sie wieder daselbst aufgehe. "
        },
        {
          "chapter": 1,
          "verse": 6,
          "name": "Prediger 1:6",
          "text": "Der Wind gehet gen Mittag und kommt herum zur Mitternacht und wieder herum an den Ort, da er anfing. "
        },
        {
          "chapter": 1,
          "verse": 7,
          "name": "Prediger 1:7",
          "text": "Alle Wasser laufen ins Meer, noch wird das Meer nicht voller; an den Ort, da sie herflie\u00dfen, flie\u00dfen sie wider hin. "
        },
        {
          "chapter": 1,
          "verse": 8,
          "name": "Prediger 1:8",
          "text": "Es ist alles Tun so voll M\u00fche, da\u00df niemand ausreden kann. Das Auge siehet sich nimmer satt und das Ohr h\u00f6ret sich nimmer satt. "
        },
        {
          "chapter": 1,
          "verse": 9,
          "name": "Prediger 1:9",
          "text": "Was ist's, das geschehen ist? Eben das hernach geschehen wird. Was ist's, das man getan hat? Eben das man hernach wieder tun wird; und geschieht nichts Neues unter der Sonne. "
        },
        {
          "chapter": 1,
          "verse": 10,
          "name": "Prediger 1:10",
          "text": "Geschieht auch etwas, davon man sagen m\u00f6chte: Siehe, das ist neu? Denn es ist zuvor auch geschehen in vorigen Zeiten, die vor uns gewesen sind. "
        },
        {
          "chapter": 1,
          "verse": 11,
          "name": "Prediger 1:11",
          "text": "Man gedenkt nicht, wie es zuvor geraten ist; also auch des, das hernach kommt, wird man nicht gedenken bei denen, die hernach sein werden. "
        },
        {
          "chapter": 1,
          "verse": 12,
          "name": "Prediger 1:12",
          "text": "Ich, Prediger, war K\u00f6nig \u00fcber Israel zu Jerusalem "
        },
        {
          "chapter": 1,
          "verse": 13,
          "name": "Prediger 1:13",
          "text": "und begab mein Herz, zu suchen und zu forschen weislich alles, was man unter dem Himmel tut. Solche unselige M\u00fche hat GOtt den Menschenkindern gegeben, da\u00df sie sich drinnen m\u00fcssen qu\u00e4len. "
        },
        {
          "chapter": 1,
          "verse": 14,
          "name": "Prediger 1:14",
          "text": "Ich sah an alles Tun, das unter der Sonne geschieht; und siehe, es war alles eitel und Jammer. "
        },
        {
          "chapter": 1,
          "verse": 15,
          "name": "Prediger 1:15",
          "text": "Krumm kann nicht schlecht werden, noch der Fehl gez\u00e4hlet werden. "
        },
        {
          "chapter": 1,
          "verse": 16,
          "name": "Prediger 1:16",
          "text": "Ich sprach in meinem Herzen: Siehe, ich bin herrlich worden und habe mehr Weisheit denn alle, die vor mir gewesen sind zu Jerusalem; und mein Herz hat viel gelernt und erfahren. "
        },
        {
          "chapter": 1,
          "verse": 17,
          "name": "Prediger 1:17",
          "text": "Und gab auch mein Herz drauf, da\u00df ich lernete Weisheit und Torheit und Klugheit. Ich ward aber gewahr, da\u00df solches auch M\u00fche ist. "
        },
        {
          "chapter": 1,
          "verse": 18,
          "name": "Prediger 1:18",
          "text": "Denn wo viel Weisheit ist, da ist viel Gr\u00e4mens; und wer viel lehren, mu\u00df, der mu\u00df viel leiden.  "
        }
      ]
    },
    {
      "chapter": 2,
      "name": "Prediger 2",
      "verses": [
        {
          "chapter": 2,
          "verse": 1,
          "name": "Prediger 2:1",
          "text": "Ich sprach in meinem Herzen: Wohlan, ich will wohlleben und gute Tage haben. Aber siehe, das war auch eitel. "
        },
        {
          "chapter": 2,
          "verse": 2,
          "name": "Prediger 2:2",
          "text": "Ich sprach zum Lachen: Du bist toll und zur Freude: Was machst du? "
        },
        {
          "chapter": 2,
          "verse": 3,
          "name": "Prediger 2:3",
          "text": "Da dachte ich in meinem Herzen, meinen Leib vom Wein zu ziehen und mein Herz zur Weisheit zu ziehen, da\u00df ich ergriffe, was Torheit ist, bis ich lernete, was den Menschen gut w\u00e4re, das sie tun sollten, solange sie unter dem Himmel leben. "
        },
        {
          "chapter": 2,
          "verse": 4,
          "name": "Prediger 2:4",
          "text": "Ich tat gro\u00dfe Dinge; ich bauete H\u00e4user, pflanzte Weinberge, "
        },
        {
          "chapter": 2,
          "verse": 5,
          "name": "Prediger 2:5",
          "text": "ich machte mir G\u00e4rten und Lustg\u00e4rten und pflanzte allerlei fruchtbare B\u00e4ume drein; "
        },
        {
          "chapter": 2,
          "verse": 6,
          "name": "Prediger 2:6",
          "text": "ich machte mir Teiche, daraus zu w\u00e4ssern den Wald der gr\u00fcnenden B\u00e4ume. "
        },
        {
          "chapter": 2,
          "verse": 7,
          "name": "Prediger 2:7",
          "text": "Ich hatte Knechte und M\u00e4gde und Gesinde; ich hatte eine gr\u00f6\u00dfere Habe an Rindern und Schafen denn alle, die vor mir zu Jerusalem gewesen waren. "
        },
        {
          "chapter": 2,
          "verse": 8,
          "name": "Prediger 2:8",
          "text": "Ich sammelte mir auch Silber und Gold und von den K\u00f6nigen und L\u00e4ndern einen Schatz. Ich schaffte mir S\u00e4nger und S\u00e4ngerinnen und Wollust der Menschen, allerlei Saitenspiel, "
        },
        {
          "chapter": 2,
          "verse": 9,
          "name": "Prediger 2:9",
          "text": "und nahm zu \u00fcber alle, die vor mir zu Jerusalem gewesen waren; auch blieb Weisheit bei mir. "
        },
        {
          "chapter": 2,
          "verse": 10,
          "name": "Prediger 2:10",
          "text": "Und alles, was meine Augen w\u00fcnschten, das lie\u00df ich ihnen, und wehrete meinem Herzen keine Freude, da\u00df es fr\u00f6hlich war von aller meiner Arbeit; und das hielt ich f\u00fcr mein Teil von aller meiner Arbeit. "
        },
        {
          "chapter": 2,
          "verse": 11,
          "name": "Prediger 2:11",
          "text": "Da ich aber ansah alle meine Werke, die meine Hand getan hatte, und M\u00fche, die ich gehabt hatte, siehe, da war es alles eitel und Jammer und nichts mehr unter der Sonne. "
        },
        {
          "chapter": 2,
          "verse": 12,
          "name": "Prediger 2:12",
          "text": "Da wandte ich mich, zu sehen die Weisheit und Klugheit und Torheit. Denn wer wei\u00df, was der f\u00fcr ein Mensch werden wird nach dem K\u00f6nige, den sie schon bereit gemacht haben? "
        },
        {
          "chapter": 2,
          "verse": 13,
          "name": "Prediger 2:13",
          "text": "Da sah ich, da\u00df die Weisheit die Torheit \u00fcbertraf, wie das Licht die Finsternis, "
        },
        {
          "chapter": 2,
          "verse": 14,
          "name": "Prediger 2:14",
          "text": "da\u00df dem Weisen seine Augen im Haupt stehen; aber die Narren in Finsternis gehen, und merkte doch, da\u00df es einem gehet wie dem andern. "
        },
        {
          "chapter": 2,
          "verse": 15,
          "name": "Prediger 2:15",
          "text": "Da dachte ich in meinem Herzen: Weil es denn dem Narren gehet wie mir, warum habe ich denn nach Weisheit gestanden? Da dachte ich in meinem Herzen, da\u00df solches auch eitel sei. "
        },
        {
          "chapter": 2,
          "verse": 16,
          "name": "Prediger 2:16",
          "text": "Denn man gedenkt des Weisen nicht immerdar, ebensowenig als des Narren; und die k\u00fcnftigen Tage vergessen alles; und wie der Weise stirbt, also auch der Narr. "
        },
        {
          "chapter": 2,
          "verse": 17,
          "name": "Prediger 2:17",
          "text": "Darum verdro\u00df mich zu leben; denn es gefiel mir \u00fcbel, was unter der Sonne geschieht, da\u00df es so gar eitel und M\u00fche ist. "
        },
        {
          "chapter": 2,
          "verse": 18,
          "name": "Prediger 2:18",
          "text": "Und mich verdro\u00df alle meine Arbeit, die ich unter der Sonne hatte, da\u00df ich dieselbe einem Menschen lassen m\u00fc\u00dfte, der nach mir sein sollte. "
        },
        {
          "chapter": 2,
          "verse": 19,
          "name": "Prediger 2:19",
          "text": "Denn wer wei\u00df, ob er weise oder toll sein wird? Und soll doch herrschen in aller meiner Arbeit, die ich weislich getan habe unter der Sonne. Das ist auch eitel. "
        },
        {
          "chapter": 2,
          "verse": 20,
          "name": "Prediger 2:20",
          "text": "Darum wandte ich mich, da\u00df mein Herz ablie\u00dfe von aller Arbeit; die ich tat unter der Sonne. "
        },
        {
          "chapter": 2,
          "verse": 21,
          "name": "Prediger 2:21",
          "text": "Denn es mu\u00df ein Mensch, der seine Arbeit mit Weisheit, Vernunft und Geschicklichkeit getan hat, einem andern zum Erbteil lassen, der nicht dran gearbeitet hat. Das ist auch eitel und ein gro\u00df Ungl\u00fcck. "
        },
        {
          "chapter": 2,
          "verse": 22,
          "name": "Prediger 2:22",
          "text": "Denn was kriegt der Mensch von aller seiner Arbeit und M\u00fche seines Herzens, die er hat unter der Sonne, "
        },
        {
          "chapter": 2,
          "verse": 23,
          "name": "Prediger 2:23",
          "text": "denn alle seine Lebtage Schmerzen, mit Gr\u00e4men und Leid, da\u00df auch sein Herz des Nachts nicht ruhet? Das ist auch eitel. "
        },
        {
          "chapter": 2,
          "verse": 24,
          "name": "Prediger 2:24",
          "text": "Ist's nun nicht besser dem Menschen, essen und trinken und seine Seele guter Dinge sein in seiner Arbeit? Aber solches sah ich auch, da\u00df von GOttes Hand kommt. "
        },
        {
          "chapter": 2,
          "verse": 25,
          "name": "Prediger 2:25",
          "text": "Denn wer hat fr\u00f6hlicher gegessen und sich erg\u00f6tzet denn ich? "
        },
        {
          "chapter": 2,
          "verse": 26,
          "name": "Prediger 2:26",
          "text": "Denn dem Menschen, der ihm gef\u00e4llt, gibt er Weisheit, Vernunft und Freude; aber dem S\u00fcnder gibt er Ungl\u00fcck, da\u00df er sammle und h\u00e4ufe und doch dem gegeben werde, der GOtt gef\u00e4llt. Darum ist das auch eitel Jammer.  "
        }
      ]
    },
    {
      "chapter": 3,
      "name": "Prediger 3",
      "verses": [
        {
          "chapter": 3,
          "verse": 1,
          "name": "Prediger 3:1",
          "text": "Ein jegliches hat seine Zeit, und alles Vornehmen unter dem Himmel hat seine Stunde. "
        },
        {
          "chapter": 3,
          "verse": 2,
          "name": "Prediger 3:2",
          "text": "Geboren werden, Sterben, Pflanzen, Ausrotten, das gepflanzt ist, "
        },
        {
          "chapter": 3,
          "verse": 3,
          "name": "Prediger 3:3",
          "text": "W\u00fcrgen, Heilen, Brechen, Bauen, "
        },
        {
          "chapter": 3,
          "verse": 4,
          "name": "Prediger 3:4",
          "text": "Weinen, Lachen, Klagen, Tanzen, "
        },
        {
          "chapter": 3,
          "verse": 5,
          "name": "Prediger 3:5",
          "text": "Steine zerstreuen, Steine sammeln, Herzen, Fernen von Herzen, "
        },
        {
          "chapter": 3,
          "verse": 6,
          "name": "Prediger 3:6",
          "text": "Suchen, Verlieren, Behalten, Wegwerfen, "
        },
        {
          "chapter": 3,
          "verse": 7,
          "name": "Prediger 3:7",
          "text": "Zerrei\u00dfen, Zun\u00e4hen, Schweigen, Reden, "
        },
        {
          "chapter": 3,
          "verse": 8,
          "name": "Prediger 3:8",
          "text": "Lieben, Hassen, Streit, Friede hat seine Zeit. "
        },
        {
          "chapter": 3,
          "verse": 9,
          "name": "Prediger 3:9",
          "text": "Man arbeite, wie man will, so kann man nicht mehr ausrichten. "
        },
        {
          "chapter": 3,
          "verse": 10,
          "name": "Prediger 3:10",
          "text": "Daher sah ich die M\u00fche, die GOtt den Menschen gegeben hat, da\u00df sie drinnen geplagt werden. "
        },
        {
          "chapter": 3,
          "verse": 11,
          "name": "Prediger 3:11",
          "text": "Er aber tut alles fein zu seiner Zeit und l\u00e4\u00dft ihr Herz sich \u00e4ngsten, wie es gehen solle in der Welt; denn der Mensch kann doch nicht treffen das Werk, das GOtt tut, weder Anfang noch Ende. "
        },
        {
          "chapter": 3,
          "verse": 12,
          "name": "Prediger 3:12",
          "text": "Darum merkte ich, da\u00df nichts Besseres drinnen ist, denn fr\u00f6hlich sein und ihm g\u00fctlich tun in seinem Leben. "
        },
        {
          "chapter": 3,
          "verse": 13,
          "name": "Prediger 3:13",
          "text": "Denn eine jeglicher Mensch, der da isset und trinkt und hat guten Mut in all seiner Arbeit, das ist eine Gabe GOttes. "
        },
        {
          "chapter": 3,
          "verse": 14,
          "name": "Prediger 3:14",
          "text": "Ich merkte, da\u00df alles, was GOtt tut, das bestehet immer; man kann nichts dazutun noch abtun; und solches tut GOtt, da\u00df man sich vor ihm f\u00fcrchten soll. "
        },
        {
          "chapter": 3,
          "verse": 15,
          "name": "Prediger 3:15",
          "text": "Was GOtt tut, das stehet da; und was er tun will, das mu\u00df werden; denn er trachtet und jagt ihm nach. "
        },
        {
          "chapter": 3,
          "verse": 16,
          "name": "Prediger 3:16",
          "text": "Weiter sah ich unter der Sonne St\u00e4tte des Gerichts, da war ein gottlos Wesen, und St\u00e4tte der Gerechtigkeit, da waren Gottlose. "
        },
        {
          "chapter": 3,
          "verse": 17,
          "name": "Prediger 3:17",
          "text": "Da dachte ich in meinem Herzen: GOtt mu\u00df richten den Gerechten und Gottlosen; denn es hat alles Vornehmen seine Zeit und alle Werke. "
        },
        {
          "chapter": 3,
          "verse": 18,
          "name": "Prediger 3:18",
          "text": "Ich sprach in meinem Herzen von dem Wesen der Menschen, darin GOtt anzeigt und l\u00e4\u00dft es ansehen, als w\u00e4ren sie unter sich selbst wie das Vieh. "
        },
        {
          "chapter": 3,
          "verse": 19,
          "name": "Prediger 3:19",
          "text": "Denn es gehet dem Menschen wie dem Vieh: wie dies stirbt, so stirbt er auch, und haben alle einerlei Odem; und der Mensch hat nichts mehr denn das Vieh; denn es ist alles eitel. "
        },
        {
          "chapter": 3,
          "verse": 20,
          "name": "Prediger 3:20",
          "text": "Es f\u00e4hret alles an einen Ort; es ist alles von Staub gemacht und wird wieder zu Staub. "
        },
        {
          "chapter": 3,
          "verse": 21,
          "name": "Prediger 3:21",
          "text": "Wer wei\u00df, ob der Odem der Menschen aufw\u00e4rts fahre und der Odem des Viehes unterw\u00e4rts unter die Erde fahre? "
        },
        {
          "chapter": 3,
          "verse": 22,
          "name": "Prediger 3:22",
          "text": "Darum sah ich, da\u00df nichts Besseres ist, denn da\u00df ein Mensch fr\u00f6hlich sei in seiner Arbeit; denn das ist sein Teil. Denn wer will ihn dahin bringen, da\u00df er sehe was nach ihm geschehen wird?  "
        }
      ]
    },
    {
      "chapter": 4,
      "name": "Prediger 4",
      "verses": [
        {
          "chapter": 4,
          "verse": 1,
          "name": "Prediger 4:1",
          "text": "Ich wandte mich und sah alle, die Unrecht leiden unter der Sonne; und siehe, da waren Tr\u00e4nen derer, so Unrecht litten und hatten keinen Tr\u00f6ster; und die ihnen Unrecht taten, waren zu m\u00e4chtig, da\u00df sie keinen Tr\u00f6ster haben konnten. "
        },
        {
          "chapter": 4,
          "verse": 2,
          "name": "Prediger 4:2",
          "text": "Da lobte ich die Toten, die schon gestorben waren, mehr denn die Lebendigen, die noch das Leben hatten. "
        },
        {
          "chapter": 4,
          "verse": 3,
          "name": "Prediger 4:3",
          "text": "Und der noch nicht ist, ist besser denn alle beide, und des B\u00f6sen nicht inne wird, das unter der Sonne geschieht. "
        },
        {
          "chapter": 4,
          "verse": 4,
          "name": "Prediger 4:4",
          "text": "Ich sah an Arbeit und Geschicklichkeit in allen Sachen; da neidet einer den andern. Das ist je auch eitel und M\u00fche. "
        },
        {
          "chapter": 4,
          "verse": 5,
          "name": "Prediger 4:5",
          "text": "Denn ein Narr schl\u00e4gt die Finger ineinander und fri\u00dft sein Fleisch. "
        },
        {
          "chapter": 4,
          "verse": 6,
          "name": "Prediger 4:6",
          "text": "Es ist besser eine Hand voll mit Ruhe denn beide F\u00e4uste voll mit M\u00fche und Jammer. "
        },
        {
          "chapter": 4,
          "verse": 7,
          "name": "Prediger 4:7",
          "text": "Ich wandte mich und sah die Eitelkeit unter der Sonne. "
        },
        {
          "chapter": 4,
          "verse": 8,
          "name": "Prediger 4:8",
          "text": "Es ist ein einzelner und nicht selbander und hat weder Kind noch Br\u00fcder; noch ist seines Arbeitens kein Ende, und seine Augen werden Reichtums nicht satt. Wem arbeite ich doch und breche meiner Seele ab? Das ist je auch eitel und eine b\u00f6se M\u00fche. "
        },
        {
          "chapter": 4,
          "verse": 9,
          "name": "Prediger 4:9",
          "text": "So ist's je besser zwei denn eins; denn sie genie\u00dfen doch ihrer Arbeit wohl. "
        },
        {
          "chapter": 4,
          "verse": 10,
          "name": "Prediger 4:10",
          "text": "F\u00e4llt ihrer einer, so hilft ihm sein Gesell auf. Wehe dem, der allein ist! Wenn er f\u00e4llt, so ist kein anderer da, der ihm aufhelfe. "
        },
        {
          "chapter": 4,
          "verse": 11,
          "name": "Prediger 4:11",
          "text": "Auch wenn zwei beieinander liegen, w\u00e4rmen sie sich; wie kann ein einzelner warm werden? "
        },
        {
          "chapter": 4,
          "verse": 12,
          "name": "Prediger 4:12",
          "text": "Einer mag \u00fcberw\u00e4ltiget werden, aber zween m\u00f6gen widerstehen; denn eine dreif\u00e4ltige Schnur rei\u00dft nicht leicht entzwei. "
        },
        {
          "chapter": 4,
          "verse": 13,
          "name": "Prediger 4:13",
          "text": "Ein arm Kind, das weise ist, ist besser denn ein alter K\u00f6nig, der ein Narr ist und wei\u00df sich nicht zu h\u00fcten. "
        },
        {
          "chapter": 4,
          "verse": 14,
          "name": "Prediger 4:14",
          "text": "Es kommt einer aus dem Gef\u00e4ngnis zum K\u00f6nigreich; und einer, der in seinem K\u00f6nigreich geboren ist, verarmet. "
        },
        {
          "chapter": 4,
          "verse": 15,
          "name": "Prediger 4:15",
          "text": "Und ich sah, da\u00df alle Lebendigen unter der Sonne wandeln bei einem andern Kinde, das an jenes Statt soll aufkommen. "
        },
        {
          "chapter": 4,
          "verse": 16,
          "name": "Prediger 4:16",
          "text": "Und des Volks, das vor ihm ging, war kein Ende, und des, das ihm nachging; und wurden sein doch nicht froh. Das ist je auch eitel und ein Jammer.  "
        }
      ]
    },
    {
      "chapter": 5,
      "name": "Prediger 5",
      "verses": [
        {
          "chapter": 5,
          "verse": 1,
          "name": "Prediger 5:1",
          "text": "Bewahre deinen Fu\u00df, wenn du zum Hause GOttes gehest, und komm, da\u00df du h\u00f6rest! Das ist besser denn der Narren Opfer; denn sie wissen nicht, was sie B\u00f6ses tun. "
        },
        {
          "chapter": 5,
          "verse": 2,
          "name": "Prediger 5:2",
          "text": "Sei nicht schnell mit deinem Munde und la\u00df dein Herz nicht eilen, etwas zu reden vor GOtt; denn GOtt ist im Himmel und du auf Erden; darum la\u00df deiner Worte wenig sein. "
        },
        {
          "chapter": 5,
          "verse": 3,
          "name": "Prediger 5:3",
          "text": "Denn wo viel Sorgen ist, da kommen Tr\u00e4ume; und wo viele Worte sind, da h\u00f6ret man den Narren. "
        },
        {
          "chapter": 5,
          "verse": 4,
          "name": "Prediger 5:4",
          "text": "Wenn du GOtt ein Gel\u00fcbde tust, so verzeuch's nicht zu halten; denn er hat kein Gefallen an den Narren. Was du gelobest, das halte! "
        },
        {
          "chapter": 5,
          "verse": 5,
          "name": "Prediger 5:5",
          "text": "Es ist besser, du gelobest nichts, denn da\u00df du nicht h\u00e4ltst, was du gelobest. "
        },
        {
          "chapter": 5,
          "verse": 6,
          "name": "Prediger 5:6",
          "text": "Verh\u00e4nge deinem Mund nicht, da\u00df er dein Fleisch verf\u00fchre, und sprich vor dem Engel nicht: Ich bin unschuldig. GOtt m\u00f6chte erz\u00fcrnen \u00fcber deine Stimme und verdammen alle Werke deiner H\u00e4nde. "
        },
        {
          "chapter": 5,
          "verse": 7,
          "name": "Prediger 5:7",
          "text": "Wo viel Tr\u00e4ume sind, da ist Eitelkeit und viel Worte; aber f\u00fcrchte du GOtt! "
        },
        {
          "chapter": 5,
          "verse": 8,
          "name": "Prediger 5:8",
          "text": "Siehest du dem Armen Unrecht tun und Recht und Gerechtigkeit im Lande wegrei\u00dfen, wundere dich des Vornehmens nicht; denn es ist noch ein hoher H\u00fcter \u00fcber den Hohen, und sind noch H\u00f6here \u00fcber die beiden. "
        },
        {
          "chapter": 5,
          "verse": 9,
          "name": "Prediger 5:9",
          "text": "\u00dcber das ist der K\u00f6nig im ganzen Lande, das Feld zu bauen. "
        },
        {
          "chapter": 5,
          "verse": 10,
          "name": "Prediger 5:10",
          "text": "Wer Geld liebt, wird Gelds nimmer satt; wer Reichtum liebt, wird keinen Nutz davon haben. Das ist auch eitel. "
        },
        {
          "chapter": 5,
          "verse": 11,
          "name": "Prediger 5:11",
          "text": "Denn wo viel Guts ist, da sind viele, die es essen; und was geneu\u00dft sein, der es hat, ohne da\u00df er's mit Augen ansiehet? "
        },
        {
          "chapter": 5,
          "verse": 12,
          "name": "Prediger 5:12",
          "text": "Wer arbeitet, dem ist der Schlaf s\u00fc\u00df, er habe wenig oder viel gegessen; aber die F\u00fclle des Reichen l\u00e4\u00dft ihn nicht schlafen. "
        },
        {
          "chapter": 5,
          "verse": 13,
          "name": "Prediger 5:13",
          "text": "Es ist eine b\u00f6se Plage, die ich sah unter der Sonne, Reichtum behalten zum Schaden dem, der ihn hat. "
        },
        {
          "chapter": 5,
          "verse": 14,
          "name": "Prediger 5:14",
          "text": "Denn der Reiche kommt um mit gro\u00dfem Jammer; und so er einen Sohn gezeuget hat, dem bleibt nichts in der Hand. "
        },
        {
          "chapter": 5,
          "verse": 15,
          "name": "Prediger 5:15",
          "text": "Wie er nackend ist von seiner Mutter Leibe kommen, so f\u00e4hrt er wieder hin, wie er kommen ist, und nimmt nichts mit sich von seiner Arbeit in seiner Hand, wenn er hinf\u00e4hret. "
        },
        {
          "chapter": 5,
          "verse": 16,
          "name": "Prediger 5:16",
          "text": "Das ist eine b\u00f6se Plage, da er hinf\u00e4hret, wie er kommen ist. Was hilft's ihm denn, da\u00df er in den Wind gearbeitet hat? "
        },
        {
          "chapter": 5,
          "verse": 17,
          "name": "Prediger 5:17",
          "text": "Sein Leben, lang hat er im Finstern gegessen und in gro\u00dfem Gr\u00e4men und Krankheit und Traurigkeit. "
        },
        {
          "chapter": 5,
          "verse": 18,
          "name": "Prediger 5:18",
          "text": "So sehe ich nun das f\u00fcr gut an, da\u00df es fein sei, wenn man isset und trinket und gutes Muts ist in aller Arbeit, die einer tut unter der Sonne sein Leben lang, das ihm GOtt gibt; denn das ist sein Teil. "
        },
        {
          "chapter": 5,
          "verse": 19,
          "name": "Prediger 5:19",
          "text": "Denn welchem Menschen GOtt Reichtum und G\u00fcter und Gewalt gibt, da\u00df er davon isset und trinket f\u00fcr sein Teil und fr\u00f6hlich ist in seiner Arbeit, das ist eine Gottesgabe. "
        },
        {
          "chapter": 5,
          "verse": 20,
          "name": "Prediger 5:20",
          "text": "Denn er denkt nicht viel an das elende Leben, weil GOtt sein Herz erfreuet.  "
        }
      ]
    },
    {
      "chapter": 6,
      "name": "Prediger 6",
      "verses": [
        {
          "chapter": 6,
          "verse": 1,
          "name": "Prediger 6:1",
          "text": "Es ist ein Ungl\u00fcck, das ich sah unter der Sonne, und ist gemein bei den Menschen: "
        },
        {
          "chapter": 6,
          "verse": 2,
          "name": "Prediger 6:2",
          "text": "Einer, dem GOtt Reichtum, G\u00fcter und Ehre gegeben hat, und mangelt ihm keines, das sein Herz begehrt, und GOtt doch ihm nicht Macht gibt, desselben zu genie\u00dfen, sondern ein anderer verzehret es; das ist eitel und eine b\u00f6se Plage. "
        },
        {
          "chapter": 6,
          "verse": 3,
          "name": "Prediger 6:3",
          "text": "Wenn er gleich hundert Kinder zeugete und h\u00e4tte so langes Leben, da\u00df er viel Jahre \u00fcberlebete, und seine Seele s\u00e4ttigte sich des Guts nicht und bliebe ohne Grab, von dem spreche ich, da\u00df eine unzeitige Geburt besser sei denn er. "
        },
        {
          "chapter": 6,
          "verse": 4,
          "name": "Prediger 6:4",
          "text": "Denn in Eitelkeit kommt er und in Finsternis f\u00e4hret er dahin, und sein Name bleibt in Finsternis bedeckt, "
        },
        {
          "chapter": 6,
          "verse": 5,
          "name": "Prediger 6:5",
          "text": "wird der Sonne nicht froh und wei\u00df keine Ruhe weder hie noch da. "
        },
        {
          "chapter": 6,
          "verse": 6,
          "name": "Prediger 6:6",
          "text": "Ob er auch zweitausend Jahre lebete, so hat er nimmer keinen guten Mut. Kommt's nicht alles an einen Ort? "
        },
        {
          "chapter": 6,
          "verse": 7,
          "name": "Prediger 6:7",
          "text": "Einem jeglichen Menschen ist Arbeit aufgelegt nach seinem Ma\u00dfe; aber das Herz kann nicht dran bleiben. "
        },
        {
          "chapter": 6,
          "verse": 8,
          "name": "Prediger 6:8",
          "text": "Denn was richtet ein Weiser mehr aus weder ein Narr? Was unterstehet sich der Arme, da\u00df er unter den Lebendigen will sein? "
        },
        {
          "chapter": 6,
          "verse": 9,
          "name": "Prediger 6:9",
          "text": "Es ist besser, das gegenw\u00e4rtige Gut gebrauchen, denn nach anderm gedenken. Das ist auch Eitelkeit und Jammer. "
        },
        {
          "chapter": 6,
          "verse": 10,
          "name": "Prediger 6:10",
          "text": "Was ist's, wenn einer gleich hoch ber\u00fchmt ist, so wei\u00df man doch, da\u00df er ein Mensch ist, und kann nicht hadern mit dem, das ihm zu m\u00e4chtig ist. "
        },
        {
          "chapter": 6,
          "verse": 11,
          "name": "Prediger 6:11",
          "text": "Denn es ist des eiteln Dinges zu viel; was hat ein Mensch mehr davon? "
        },
        {
          "chapter": 6,
          "verse": 12,
          "name": "Prediger 6:12",
          "text": "Denn wer wei\u00df, was dem Menschen n\u00fctz ist im Leben, solange er lebet in seiner Eitelkeit, welches dahinf\u00e4hret wie ein Schatten? Oder wer will dem Menschen sagen, was nach ihm kommen wird unter der Sonne?  "
        }
      ]
    },
    {
      "chapter": 7,
      "name": "Prediger 7",
      "verses": [
        {
          "chapter": 7,
          "verse": 1,
          "name": "Prediger 7:1",
          "text": "Ein gut Ger\u00fccht ist besser denn gute Salbe und der Tag des Todes weder der Tag der Geburt. "
        },
        {
          "chapter": 7,
          "verse": 2,
          "name": "Prediger 7:2",
          "text": "Es ist besser, in das Klaghaus gehen denn in das Trinkhaus; in jenem ist das Ende aller Menschen, und der Lebendige nimmt's zu Herzen. "
        },
        {
          "chapter": 7,
          "verse": 3,
          "name": "Prediger 7:3",
          "text": "Es ist Trauern besser denn Lachen; denn durch Trauern wird das Herz gebessert. "
        },
        {
          "chapter": 7,
          "verse": 4,
          "name": "Prediger 7:4",
          "text": "Das Herz der Weisen ist im Klaghause und das Herz der Narren im Hause der Freuden. "
        },
        {
          "chapter": 7,
          "verse": 5,
          "name": "Prediger 7:5",
          "text": "Es ist besser h\u00f6ren das Schelten des Weisen denn h\u00f6ren den Gesang der Narren. "
        },
        {
          "chapter": 7,
          "verse": 6,
          "name": "Prediger 7:6",
          "text": "Denn das Lachen des Narren ist wie das Krachen der Dornen unter den T\u00f6pfen; und das ist auch eitel. "
        },
        {
          "chapter": 7,
          "verse": 7,
          "name": "Prediger 7:7",
          "text": "Ein Widerspenstiger macht einen Weisen unwillig und verderbt ein mildes Herz. "
        },
        {
          "chapter": 7,
          "verse": 8,
          "name": "Prediger 7:8",
          "text": "Das Ende eines Dinges ist besser denn sein Anfang. Ein geduldiger Geist ist besser denn ein hoher Geist. "
        },
        {
          "chapter": 7,
          "verse": 9,
          "name": "Prediger 7:9",
          "text": "Sei nicht schnelles Gem\u00fcts zu z\u00fcrnen; denn Zorn ruhet im Herzen eines Narren. "
        },
        {
          "chapter": 7,
          "verse": 10,
          "name": "Prediger 7:10",
          "text": "Sprich nicht: Was ist's, da\u00df die vorigen Tage besser waren denn diese? Denn du fragest solches nicht weislich. "
        },
        {
          "chapter": 7,
          "verse": 11,
          "name": "Prediger 7:11",
          "text": "Weisheit ist gut mit einem Erbgut und hilft, da\u00df sich einer der Sonne freuen kann. "
        },
        {
          "chapter": 7,
          "verse": 12,
          "name": "Prediger 7:12",
          "text": "Denn die Weisheit beschirmet, so beschirmet Geld auch; aber die Weisheit gibt das Leben dem, der sie hat. "
        },
        {
          "chapter": 7,
          "verse": 13,
          "name": "Prediger 7:13",
          "text": "Siehe an die Werke GOttes, denn wer kann das schlecht machen, das er kr\u00fcmmet? "
        },
        {
          "chapter": 7,
          "verse": 14,
          "name": "Prediger 7:14",
          "text": "Am guten Tage sei guter Dinge und den b\u00f6sen Tag nimm auch f\u00fcr gut; denn diesen schaffet GOtt neben jenem, da\u00df der Mensch nicht wissen soll, was k\u00fcnftig ist. "
        },
        {
          "chapter": 7,
          "verse": 15,
          "name": "Prediger 7:15",
          "text": "Allerlei habe ich gesehen die Zeit \u00fcber meiner Eitelkeit. Da ist ein Gerechter und gehet unter in seiner Gerechtigkeit, und ist ein Gottloser, der lange lebt in seiner Bosheit. "
        },
        {
          "chapter": 7,
          "verse": 16,
          "name": "Prediger 7:16",
          "text": "Sei nicht allzu gerecht und nicht allzu weise, da\u00df du dich nicht verderbest! "
        },
        {
          "chapter": 7,
          "verse": 17,
          "name": "Prediger 7:17",
          "text": "Sei nicht allzu gottlos und narre nicht, da\u00df du nicht sterbest zur Unzeit! "
        },
        {
          "chapter": 7,
          "verse": 18,
          "name": "Prediger 7:18",
          "text": "Es ist gut, da\u00df du dies fassest und jenes auch nicht aus deiner Hand l\u00e4ssest; denn wer GOtt f\u00fcrchtet, der entgehet dem allem. "
        },
        {
          "chapter": 7,
          "verse": 19,
          "name": "Prediger 7:19",
          "text": "Die Weisheit st\u00e4rkt den Weisen mehr denn zehn Gewaltige, die in der Stadt sind. "
        },
        {
          "chapter": 7,
          "verse": 20,
          "name": "Prediger 7:20",
          "text": "Denn es ist kein Mensch auf Erden, der Gutes tue und nicht s\u00fcndige. "
        },
        {
          "chapter": 7,
          "verse": 21,
          "name": "Prediger 7:21",
          "text": "Nimm auch nicht zu Herzen alles, was man sagt, da\u00df du nicht h\u00f6ren m\u00fcssest deinen Knecht dir fluchen. "
        },
        {
          "chapter": 7,
          "verse": 22,
          "name": "Prediger 7:22",
          "text": "Denn dein Herz wei\u00df, da\u00df du andern auch oftmals geflucht hast. "
        },
        {
          "chapter": 7,
          "verse": 23,
          "name": "Prediger 7:23",
          "text": "Solches alles habe ich versucht weislich. Ich gedachte, ich will weise sein; sie kam aber ferner von mir. "
        },
        {
          "chapter": 7,
          "verse": 24,
          "name": "Prediger 7:24",
          "text": "Es ist ferne; was wird's sein? und ist sehr tief; wer will's finden? "
        },
        {
          "chapter": 7,
          "verse": 25,
          "name": "Prediger 7:25",
          "text": "Ich kehrete mein Herz, zu erfahren und zu erforschen und zu suchen Weisheit und Kunst, zu erfahren der Gottlosen Torheit und Irrtum der Tollen, "
        },
        {
          "chapter": 7,
          "verse": 26,
          "name": "Prediger 7:26",
          "text": "und fand, da\u00df ein solches Weib, welches Herz Netz und Strick ist und ihre H\u00e4nde Bande sind, bitterer sei denn der Tod. Wer GOtt gef\u00e4llt, der wird ihr entrinnen; aber der S\u00fcnder wird durch sie gefangen. "
        },
        {
          "chapter": 7,
          "verse": 27,
          "name": "Prediger 7:27",
          "text": "Schaue, das habe ich funden, spricht der Prediger, eins nach dem andern, da\u00df ich Kunst erf\u00e4nde. "
        },
        {
          "chapter": 7,
          "verse": 28,
          "name": "Prediger 7:28",
          "text": "Und meine Seele sucht noch und hat es nicht funden. Unter tausend habe ich einen Menschen funden, aber kein Weib habe ich unter den allen funden. "
        },
        {
          "chapter": 7,
          "verse": 29,
          "name": "Prediger 7:29",
          "text": "Alleine schaue das, ich habe funden, da\u00df GOtt den Menschen hat aufrichtig gemacht; aber sie suchen viel K\u00fcnste.  "
        }
      ]
    },
    {
      "chapter": 8,
      "name": "Prediger 8",
      "verses": [
        {
          "chapter": 8,
          "verse": 1,
          "name": "Prediger 8:1",
          "text": "Wer ist so weise? und wer kann das auslegen? Die Weisheit des Menschen erleuchtet sein Angesicht; wer aber frech ist, der ist feindselig, "
        },
        {
          "chapter": 8,
          "verse": 2,
          "name": "Prediger 8:2",
          "text": "Ich halte das Wort des K\u00f6nigs und den Eid GOttes. "
        },
        {
          "chapter": 8,
          "verse": 3,
          "name": "Prediger 8:3",
          "text": "Eile nicht, zu gehen von seinem Angesicht, und bleibe nicht in b\u00f6ser Sache; denn er tut, was ihn gel\u00fcstet. "
        },
        {
          "chapter": 8,
          "verse": 4,
          "name": "Prediger 8:4",
          "text": "In des K\u00f6nigs Wort ist Gewalt, und wer mag zu ihm sagen: Was machst du? "
        },
        {
          "chapter": 8,
          "verse": 5,
          "name": "Prediger 8:5",
          "text": "Wer das Gebot h\u00e4lt, der wird nichts B\u00f6ses erfahren; aber eines Weisen Herz wei\u00df Zeit und Weise. "
        },
        {
          "chapter": 8,
          "verse": 6,
          "name": "Prediger 8:6",
          "text": "Denn ein jeglich Vornehmen hat seine Zeit und Weise; denn des Ungl\u00fccks des Menschen ist viel bei ihm. "
        },
        {
          "chapter": 8,
          "verse": 7,
          "name": "Prediger 8:7",
          "text": "Denn er wei\u00df nicht, was gewesen ist; und wer will ihm sagen, was werden soll? "
        },
        {
          "chapter": 8,
          "verse": 8,
          "name": "Prediger 8:8",
          "text": "Ein Mensch hat nicht Macht \u00fcber den Geist, dem Geist zu wehren; und hat nicht Macht zur Zeit des Sterbens und wird nicht losgelassen im Streit; und das gottlose Wesen errettet den Gottlosen nicht. "
        },
        {
          "chapter": 8,
          "verse": 9,
          "name": "Prediger 8:9",
          "text": "Das habe ich alles gesehen und gab mein Herz auf alle Werke, die unter der Sonne geschehen. Ein Mensch herrschet zuzeiten \u00fcber den andern zu seinem Ungl\u00fcck. "
        },
        {
          "chapter": 8,
          "verse": 10,
          "name": "Prediger 8:10",
          "text": "Und da sah ich Gottlose, die begraben waren, die gegangen waren und gewandelt in heiliger St\u00e4tte, und waren vergessen in der Stadt, da\u00df sie so getan hatten. Das ist auch eitel. "
        },
        {
          "chapter": 8,
          "verse": 11,
          "name": "Prediger 8:11",
          "text": "Weil nicht bald geschieht ein Urteil \u00fcber die b\u00f6sen Werke, dadurch wird das Herz der Menschen voll, B\u00f6ses zutun. "
        },
        {
          "chapter": 8,
          "verse": 12,
          "name": "Prediger 8:12",
          "text": "Ob ein S\u00fcnder hundertmal B\u00f6ses tut und doch lange lebt, so wei\u00df ich doch, da\u00df es wohlgehen wird denen, die GOtt f\u00fcrchten, die sein Angesicht scheuen. "
        },
        {
          "chapter": 8,
          "verse": 13,
          "name": "Prediger 8:13",
          "text": "Denn es wird dem Gottlosen nicht wohlgehen und wie ein Schatten nicht lange leben, die sich vor GOtt nicht f\u00fcrchten. "
        },
        {
          "chapter": 8,
          "verse": 14,
          "name": "Prediger 8:14",
          "text": "Es ist eine Eitelkeit, die auf Erden geschieht. Es sind Gerechte, denen gehet es, als h\u00e4tten sie Werke der Gottlosen, und sind Gottlose, denen gehet es, als h\u00e4tten sie Werke der Gerechten. Ich sprach: Das ist auch eitel. "
        },
        {
          "chapter": 8,
          "verse": 15,
          "name": "Prediger 8:15",
          "text": "Darum lobte ich die Freude, da\u00df der Mensch nichts Besseres hat unter der Sonne denn essen und trinken und fr\u00f6hlich sein; und solches werde ihm von der Arbeit sein Leben lang, das ihm GOtt gibt unter der Sonne. "
        },
        {
          "chapter": 8,
          "verse": 16,
          "name": "Prediger 8:16",
          "text": "Ich gab mein Herz, zu wissen die Weisheit und zu schauen die M\u00fche, die auf Erden geschieht, da\u00df auch einer weder Tag noch Nacht den Schlaf siehet mit seinen Augen. "
        },
        {
          "chapter": 8,
          "verse": 17,
          "name": "Prediger 8:17",
          "text": "Und ich sah alle Werke GOttes. Denn ein Mensch kann das Werk nicht finden, das unter der Sonne geschieht; und je mehr der Mensch arbeitet zu suchen, je weniger er findet. Wenn er gleich spricht: Ich bin weise und wei\u00df es, so kann er's doch nicht finden.  "
        }
      ]
    },
    {
      "chapter": 9,
      "name": "Prediger 9",
      "verses": [
        {
          "chapter": 9,
          "verse": 1,
          "name": "Prediger 9:1",
          "text": "Denn ich habe solches alles zu Herzen genommen, zu forschen das alles, da\u00df Gerechte und Weise sind und ihre Untertanen in GOttes Hand. Doch kennet kein Mensch weder die Liebe noch den Ha\u00df irgendeines, den er vor sich hat. "
        },
        {
          "chapter": 9,
          "verse": 2,
          "name": "Prediger 9:2",
          "text": "Es begegnet einem wie dem andern, dem Gerechten wie dem Gottlosen, dem Guten und Reinen wie dem Unreinen, dem der opfert, wie dem, der nicht opfert. Wie es dem Guten gehet, so gehet es auch dem S\u00fcnder. Wie es dem Meineidigen gehet, so gehet es auch dem, der den Eid f\u00fcrchtet. "
        },
        {
          "chapter": 9,
          "verse": 3,
          "name": "Prediger 9:3",
          "text": "Das ist ein b\u00f6ses Ding unter allem, das unter der Sonne geschieht, da\u00df es einem gehet wie dem andern; daher auch das Herz der Menschen voll Arges wird, und Torheit ist in ihrem Herzen, dieweil sie leben; danach m\u00fcssen sie sterben. "
        },
        {
          "chapter": 9,
          "verse": 4,
          "name": "Prediger 9:4",
          "text": "Denn bei allen Lebendigen ist, das man w\u00fcnschet, n\u00e4mlich Hoffnung; denn ein lebendiger Hund ist besser weder ein toter L\u00f6we. "
        },
        {
          "chapter": 9,
          "verse": 5,
          "name": "Prediger 9:5",
          "text": "Denn die Lebendigen wissen, da\u00df sie sterben werden; die Toten aber wissen nichts, sie verdienen auch nichts mehr, denn ihr Ged\u00e4chtnis ist vergessen, "
        },
        {
          "chapter": 9,
          "verse": 6,
          "name": "Prediger 9:6",
          "text": "da\u00df man sie nicht mehr liebet, noch hasset, noch neidet, und haben kein Teil mehr auf der Welt in allem, das unter der Sonne geschieht. "
        },
        {
          "chapter": 9,
          "verse": 7,
          "name": "Prediger 9:7",
          "text": "So gehe hin und i\u00df dein Brot mit Freuden, trink deinen Wein mit gutem Mut; denn dein Werk gef\u00e4llt GOtt. "
        },
        {
          "chapter": 9,
          "verse": 8,
          "name": "Prediger 9:8",
          "text": "La\u00df deine Kleider immer wei\u00df sein und la\u00df deinem Haupte Salbe nicht mangeln. "
        },
        {
          "chapter": 9,
          "verse": 9,
          "name": "Prediger 9:9",
          "text": "Brauche des Lebens mit deinem Weibe, das du lieb hast, solange du das eitle Leben hast, das dir GOtt unter der Sonne gegeben hat, solange dein eitel Leben w\u00e4hret; denn das ist dein Teil im Leben und in deiner Arbeit, die du tust unter der Sonne. "
        },
        {
          "chapter": 9,
          "verse": 10,
          "name": "Prediger 9:10",
          "text": "Alles, was dir vorhanden kommt zu tun, das tue frisch; denn in der H\u00f6lle, da du hinf\u00e4hrest, ist weder Werk, Kunst, Vernunft noch Weisheit. "
        },
        {
          "chapter": 9,
          "verse": 11,
          "name": "Prediger 9:11",
          "text": "Ich wandte mich und sah, wie es unter der Sonne zugehet, da\u00df zu laufen nicht hilft schnell sein, zum Streit hilft nicht stark sein, zur Nahrung hilft nicht geschickt sein, zum Reichtum hilft nicht klug sein; da\u00df einer angenehm sei, hilft nicht, da\u00df er ein Ding wohl k\u00f6nne, sondern alles liegt es an der Zeit und Gl\u00fcck. "
        },
        {
          "chapter": 9,
          "verse": 12,
          "name": "Prediger 9:12",
          "text": "Auch wei\u00df der Mensch seine Zeit nicht, sondern wie die Fische gefangen werden mit einem sch\u00e4dlichen Hamen, und wie die V\u00f6gel mit einem Strick gefangen werden, so werden auch die Menschen ber\u00fcckt zur b\u00f6sen Zeit, wenn sie pl\u00f6tzlich \u00fcber sie f\u00e4llt. "
        },
        {
          "chapter": 9,
          "verse": 13,
          "name": "Prediger 9:13",
          "text": "Ich habe auch diese Weisheit gesehen unter der Sonne, die mich gro\u00df deuchte, "
        },
        {
          "chapter": 9,
          "verse": 14,
          "name": "Prediger 9:14",
          "text": "da\u00df eine, kleine Stadt war und wenig Leute drinnen, und kam ein gro\u00dfer K\u00f6nig und belegte sie und bauete gro\u00dfe Bollwerke drum, "
        },
        {
          "chapter": 9,
          "verse": 15,
          "name": "Prediger 9:15",
          "text": "und ward drinnen funden ein armer weiser Mann, der dieselbe Stadt durch seine Weisheit konnte erretten; und kein Mensch gedachte desselben armen Mannes. "
        },
        {
          "chapter": 9,
          "verse": 16,
          "name": "Prediger 9:16",
          "text": "Da sprach ich: Weisheit ist ja besser denn St\u00e4rke. Noch ward des Armen Weisheit verachtet und seinen Worten nicht gehorcht. "
        },
        {
          "chapter": 9,
          "verse": 17,
          "name": "Prediger 9:17",
          "text": "Das macht der Weisen Worte gelten mehr bei den Stillen denn der Herren Schreien bei den Narren. "
        },
        {
          "chapter": 9,
          "verse": 18,
          "name": "Prediger 9:18",
          "text": "Denn Weisheit ist besser denn Harnisch; aber ein einiger Bube verderbet viel Gutes.  "
        }
      ]
    },
    {
      "chapter": 10,
      "name": "Prediger 10",
      "verses": [
        {
          "chapter": 10,
          "verse": 1,
          "name": "Prediger 10:1",
          "text": "Also verderben die sch\u00e4dlichen Fliegen gute Salben. Darum ist zuweilen besser Torheit denn Weisheit und Ehre. "
        },
        {
          "chapter": 10,
          "verse": 2,
          "name": "Prediger 10:2",
          "text": "Denn des Weisen Herz ist zu seiner Rechten; aber des Narren Herz ist zu seiner Linken. "
        },
        {
          "chapter": 10,
          "verse": 3,
          "name": "Prediger 10:3",
          "text": "Auch ob der Narr selbst n\u00e4rrisch ist in seinem Tun, noch h\u00e4lt er jedermann f\u00fcr Narren. "
        },
        {
          "chapter": 10,
          "verse": 4,
          "name": "Prediger 10:4",
          "text": "Darum wenn eines Gewaltigen Trotz wider deinen Willen fortgehet, la\u00df dich nicht entr\u00fcsten; denn Nachlassen stillet gro\u00df Ungl\u00fcck. "
        },
        {
          "chapter": 10,
          "verse": 5,
          "name": "Prediger 10:5",
          "text": "Es ist ein Ungl\u00fcck, das ich sah unter der Sonne, n\u00e4mlich Unverstand, der unter den Gewaltigen gemein ist, "
        },
        {
          "chapter": 10,
          "verse": 6,
          "name": "Prediger 10:6",
          "text": "da\u00df ein Narr sitzt in gro\u00dfer W\u00fcrde, und die Reichen hienieden sitzen. "
        },
        {
          "chapter": 10,
          "verse": 7,
          "name": "Prediger 10:7",
          "text": "Ich sah Knechte auf Rossen und F\u00fcrsten zu Fu\u00dfe gehen wie Knechte. "
        },
        {
          "chapter": 10,
          "verse": 8,
          "name": "Prediger 10:8",
          "text": "Aber wer eine Grube macht, der wird selbst dreinfallen; und wer den Zaun zerrei\u00dfet, den wird eine Schlange stechen. "
        },
        {
          "chapter": 10,
          "verse": 9,
          "name": "Prediger 10:9",
          "text": "Wer Steine wegw\u00e4lzet, der wird M\u00fche damit haben; und wer Holz spaltet, der wird davon verletzt werden. "
        },
        {
          "chapter": 10,
          "verse": 10,
          "name": "Prediger 10:10",
          "text": "Wenn ein Eisen stumpf wird und an der Schneide ungeschliffen bleibet, mu\u00df man's mit Macht wieder sch\u00e4rfen; also folgt auch Weisheit dem Flei\u00df. "
        },
        {
          "chapter": 10,
          "verse": 11,
          "name": "Prediger 10:11",
          "text": "Ein W\u00e4scher ist nichts besser denn eine Schlange, die unbeschworen sticht. "
        },
        {
          "chapter": 10,
          "verse": 12,
          "name": "Prediger 10:12",
          "text": "Die Worte aus dem Munde eines Weisen sind holdselig; aber des Narren Lippen verschlingen denselben. "
        },
        {
          "chapter": 10,
          "verse": 13,
          "name": "Prediger 10:13",
          "text": "Der Anfang seiner Worte ist Narrheit, und das Ende ist sch\u00e4dliche Torheit. "
        },
        {
          "chapter": 10,
          "verse": 14,
          "name": "Prediger 10:14",
          "text": "Ein Narr macht viel Worte; denn der Mensch wei\u00df nicht, was gewesen ist; und wer will ihm sagen, was nach ihm werden wird? "
        },
        {
          "chapter": 10,
          "verse": 15,
          "name": "Prediger 10:15",
          "text": "Die Arbeit der Narren wird ihnen sauer, weil man nicht wei\u00df, in die Stadt zu gehen. "
        },
        {
          "chapter": 10,
          "verse": 16,
          "name": "Prediger 10:16",
          "text": "Wehe dir, Land, des K\u00f6nig ein Kind ist und des F\u00fcrsten fr\u00fche essen! "
        },
        {
          "chapter": 10,
          "verse": 17,
          "name": "Prediger 10:17",
          "text": "Wohl dir, Land, des K\u00f6nig edel ist und des F\u00fcrsten zu rechter Zeit essen, zur St\u00e4rke und nicht zur Lust. "
        },
        {
          "chapter": 10,
          "verse": 18,
          "name": "Prediger 10:18",
          "text": "(Denn durch Faulheit sinken die Balken, und durch hinl\u00e4ssige H\u00e4nde wird das Haus triefend.) "
        },
        {
          "chapter": 10,
          "verse": 19,
          "name": "Prediger 10:19",
          "text": "Das macht, sie machen Brot zum Lachen, und der Wein mu\u00df die Lebendigen erfreuen, und das Geld mu\u00df ihnen alles zuwege bringen. "
        },
        {
          "chapter": 10,
          "verse": 20,
          "name": "Prediger 10:20",
          "text": "Fluche dem K\u00f6nige nicht in deinem Herzen und fluche dem Reichen nicht in deiner Schlafkammer; denn die V\u00f6gel des Himmels f\u00fchren die Stimme, und die Fittiche haben, sagen's nach.  "
        }
      ]
    },
    {
      "chapter": 11,
      "name": "Prediger 11",
      "verses": [
        {
          "chapter": 11,
          "verse": 1,
          "name": "Prediger 11:1",
          "text": "La\u00df dein Brot \u00fcber das Wasser fahren, so wirst du es finden auf lange Zeit. "
        },
        {
          "chapter": 11,
          "verse": 2,
          "name": "Prediger 11:2",
          "text": "Teile aus unter sieben und unter acht; denn du wei\u00dfest nicht, was f\u00fcr Ungl\u00fcck auf Erden kommen wird. "
        },
        {
          "chapter": 11,
          "verse": 3,
          "name": "Prediger 11:3",
          "text": "Wenn die Wolken voll sind, so geben sie Regen auf die Erde; und wenn der Baum f\u00e4llt, er falle gegen Mittag oder Mitternacht, auf welchen Ort er f\u00e4llt, da wird er liegen. "
        },
        {
          "chapter": 11,
          "verse": 4,
          "name": "Prediger 11:4",
          "text": "Wer auf den Wind achtet, der s\u00e4et nicht, und wer auf die Wolken siehet, der erntet nicht. "
        },
        {
          "chapter": 11,
          "verse": 5,
          "name": "Prediger 11:5",
          "text": "Gleichwie du nicht wei\u00dft den Weg des Windes, und wie die Gebeine in Mutterleibe bereitet werden, also kannst du auch GOttes Werk nicht wissen, das er tut \u00fcberall. "
        },
        {
          "chapter": 11,
          "verse": 6,
          "name": "Prediger 11:6",
          "text": "Fr\u00fche s\u00e4he deinen Samen und la\u00df deine Hand des Abends nicht ab; denn du wei\u00dft nicht, ob dies oder das geraten wird; und ob es beides geriete, so w\u00e4re es desto besser. "
        },
        {
          "chapter": 11,
          "verse": 7,
          "name": "Prediger 11:7",
          "text": "Es ist das Licht s\u00fc\u00df und den Augen lieblich, die Sonne zu sehen. "
        },
        {
          "chapter": 11,
          "verse": 8,
          "name": "Prediger 11:8",
          "text": "Wenn ein Mensch lange Zeit lebet und ist fr\u00f6hlich in allen Dingen, so gedenkt er doch nur der b\u00f6sen Tage, da\u00df ihrer so viel ist; denn alles, was ihm begegnet ist, ist eitel. "
        },
        {
          "chapter": 11,
          "verse": 9,
          "name": "Prediger 11:9",
          "text": "So freue dich, J\u00fcngling, in deiner Jugend und la\u00df dein Herz guter Dinge sein in deiner Jugend. Tue, was dein Herz l\u00fcstet und deinen Augen gef\u00e4llt; und wisse, da\u00df dich GOtt um des alles wird vor Gericht f\u00fchren. "
        },
        {
          "chapter": 11,
          "verse": 10,
          "name": "Prediger 11:10",
          "text": "La\u00df die Traurigkeit aus deinem Herzen und tue das \u00dcbel von deinem Leibe; denn Kindheit und Jugend ist eitel.  "
        }
      ]
    },
    {
      "chapter": 12,
      "name": "Prediger 12",
      "verses": [
        {
          "chapter": 12,
          "verse": 1,
          "name": "Prediger 12:1",
          "text": "Gedenk an deinen Sch\u00f6pfer in deiner Jugend, ehe denn die b\u00f6sen Tage kommen und die Jahre herzutreten, da du wirst sagen: Sie gefallen mir nicht, "
        },
        {
          "chapter": 12,
          "verse": 2,
          "name": "Prediger 12:2",
          "text": "ehe denn die Sonne und das Licht, Mond und Sterne finster werden und Wolken wiederkommen nach dem Regen, "
        },
        {
          "chapter": 12,
          "verse": 3,
          "name": "Prediger 12:3",
          "text": "zur Zeit, wenn die H\u00fcter im Hause zittern, und sich kr\u00fcmmen die Starken, und m\u00fc\u00dfig stehen die M\u00fcller, da\u00df ihrer so wenig worden ist, und finster werden die Gesichter durch die Fenster, "
        },
        {
          "chapter": 12,
          "verse": 4,
          "name": "Prediger 12:4",
          "text": "und die T\u00fcren auf der Gasse geschlossen werden, da\u00df die Stimme der M\u00fcllerin leise wird und erwacht, wenn der Vogel singet, und sich b\u00fccken alle T\u00f6chter des Gesangs, "
        },
        {
          "chapter": 12,
          "verse": 5,
          "name": "Prediger 12:5",
          "text": "da\u00df sich auch die Hohen f\u00fcrchten und scheuen auf dem Wege; wenn der Mandelbaum bl\u00fchet, und die Heuschrecke beladen wird, und alle Lust vergehet (denn der Mensch f\u00e4hrt hin, da er ewig bleibt, und die Kl\u00e4ger gehen umher auf der Gasse, "
        },
        {
          "chapter": 12,
          "verse": 6,
          "name": "Prediger 12:6",
          "text": "ehe denn der silberne Strick wegkomme, und die g\u00fcldene Quelle verlaufe, und der Eimer zerbreche am Born und das Rad zerbreche am Born. "
        },
        {
          "chapter": 12,
          "verse": 7,
          "name": "Prediger 12:7",
          "text": "Denn der Staub mu\u00df wieder zu der Erde kommen, wie er gewesen ist, und der Geist wieder zu GOtt, der ihn gegeben hat. "
        },
        {
          "chapter": 12,
          "verse": 8,
          "name": "Prediger 12:8",
          "text": "Es ist alles ganz eitel, sprach der Prediger, ganz eitel! "
        },
        {
          "chapter": 12,
          "verse": 9,
          "name": "Prediger 12:9",
          "text": "Derselbe Prediger war nicht allein weise, sondern lehrete auch das Volk gute Lehre und merkte und forschete und stellete viel Spr\u00fcche. "
        },
        {
          "chapter": 12,
          "verse": 10,
          "name": "Prediger 12:10",
          "text": "Er suchte, da\u00df er f\u00e4nde angenehme Worte, und schrieb recht die Worte der Wahrheit. "
        },
        {
          "chapter": 12,
          "verse": 11,
          "name": "Prediger 12:11",
          "text": "Diese Worte der Weisen sind Spie\u00dfe und N\u00e4gel, geschrieben durch die Meister der Versammlungen und von einem Hirten gegeben. "
        },
        {
          "chapter": 12,
          "verse": 12,
          "name": "Prediger 12:12",
          "text": "H\u00fcte dich, mein Sohn, vor andern mehr; denn viel B\u00fcchermachens ist kein Ende und viel Predigen macht den Leib m\u00fcde. "
        },
        {
          "chapter": 12,
          "verse": 13,
          "name": "Prediger 12:13",
          "text": "La\u00dft uns die Hauptsumma aller Lehre h\u00f6ren: F\u00fcrchte GOtt und halte seine Gebote; denn das geh\u00f6ret allen Menschen zu. "
        },
        {
          "chapter": 12,
          "verse": 14,
          "name": "Prediger 12:14",
          "text": "Denn GOtt wird alle Werke vor Gericht bringen, das verborgen ist, es sei gut oder b\u00f6se.   "
        }
      ]
    }
  ]
}
