{
  "translation": "The New Testament in the Original Greek: Byzantine Textform 2005",
  "abbreviation": "byz",
  "lang": "grc",
  "language": "Greek",
  "direction": "LTR",
  "encoding": "UTF-8",
  "nr": 64,
  "name": "3 John",
  "chapters": [
    {
      "chapter": 1,
      "name": "3 John 1",
      "verses": [
        {
          "chapter": 1,
          "verse": 1,
          "name": "3 John 1:1",
          "text": "\u03bf \u03c0\u03c1\u03b5\u03c3\u03b2\u03c5\u03c4\u03b5\u03c1\u03bf\u03c2 \u03b3\u03b1\u03b9\u03c9 \u03c4\u03c9 \u03b1\u03b3\u03b1\u03c0\u03b7\u03c4\u03c9 \u03bf\u03bd \u03b5\u03b3\u03c9 \u03b1\u03b3\u03b1\u03c0\u03c9 \u03b5\u03bd \u03b1\u03bb\u03b7\u03b8\u03b5\u03b9\u03b1 "
        },
        {
          "chapter": 1,
          "verse": 2,
          "name": "3 John 1:2",
          "text": "\u03b1\u03b3\u03b1\u03c0\u03b7\u03c4\u03b5 \u03c0\u03b5\u03c1\u03b9 \u03c0\u03b1\u03bd\u03c4\u03c9\u03bd \u03b5\u03c5\u03c7\u03bf\u03bc\u03b1\u03b9 \u03c3\u03b5 \u03b5\u03c5\u03bf\u03b4\u03bf\u03c5\u03c3\u03b8\u03b1\u03b9 \u03ba\u03b1\u03b9 \u03c5\u03b3\u03b9\u03b1\u03b9\u03bd\u03b5\u03b9\u03bd \u03ba\u03b1\u03b8\u03c9\u03c2 \u03b5\u03c5\u03bf\u03b4\u03bf\u03c5\u03c4\u03b1\u03b9 \u03c3\u03bf\u03c5 \u03b7 \u03c8\u03c5\u03c7\u03b7 "
        },
        {
          "chapter": 1,
          "verse": 3,
          "name": "3 John 1:3",
          "text": "\u03b5\u03c7\u03b1\u03c1\u03b7\u03bd \u03b3\u03b1\u03c1 \u03bb\u03b9\u03b1\u03bd \u03b5\u03c1\u03c7\u03bf\u03bc\u03b5\u03bd\u03c9\u03bd \u03b1\u03b4\u03b5\u03bb\u03c6\u03c9\u03bd \u03ba\u03b1\u03b9 \u03bc\u03b1\u03c1\u03c4\u03c5\u03c1\u03bf\u03c5\u03bd\u03c4\u03c9\u03bd \u03c3\u03bf\u03c5 \u03c4\u03b7 \u03b1\u03bb\u03b7\u03b8\u03b5\u03b9\u03b1 \u03ba\u03b1\u03b8\u03c9\u03c2 \u03c3\u03c5 \u03b5\u03bd \u03b1\u03bb\u03b7\u03b8\u03b5\u03b9\u03b1 \u03c0\u03b5\u03c1\u03b9\u03c0\u03b1\u03c4\u03b5\u03b9\u03c2 "
        },
        {
          "chapter": 1,
          "verse": 4,
          "name": "3 John 1:4",
          "text": "\u03bc\u03b5\u03b9\u03b6\u03bf\u03c4\u03b5\u03c1\u03b1\u03bd \u03c4\u03bf\u03c5\u03c4\u03c9\u03bd \u03bf\u03c5\u03ba \u03b5\u03c7\u03c9 \u03c7\u03b1\u03c1\u03b1\u03bd \u03b9\u03bd\u03b1 \u03b1\u03ba\u03bf\u03c5\u03c9 \u03c4\u03b1 \u03b5\u03bc\u03b1 \u03c4\u03b5\u03ba\u03bd\u03b1 \u03b5\u03bd \u03b1\u03bb\u03b7\u03b8\u03b5\u03b9\u03b1 \u03c0\u03b5\u03c1\u03b9\u03c0\u03b1\u03c4\u03bf\u03c5\u03bd\u03c4\u03b1 "
        },
        {
          "chapter": 1,
          "verse": 5,
          "name": "3 John 1:5",
          "text": "\u03b1\u03b3\u03b1\u03c0\u03b7\u03c4\u03b5 \u03c0\u03b9\u03c3\u03c4\u03bf\u03bd \u03c0\u03bf\u03b9\u03b5\u03b9\u03c2 \u03bf \u03b5\u03b1\u03bd \u03b5\u03c1\u03b3\u03b1\u03c3\u03b7 \u03b5\u03b9\u03c2 \u03c4\u03bf\u03c5\u03c2 \u03b1\u03b4\u03b5\u03bb\u03c6\u03bf\u03c5\u03c2 \u03ba\u03b1\u03b9 \u03b5\u03b9\u03c2 \u03c4\u03bf\u03c5\u03c2 \u03be\u03b5\u03bd\u03bf\u03c5\u03c2 "
        },
        {
          "chapter": 1,
          "verse": 6,
          "name": "3 John 1:6",
          "text": "\u03bf\u03b9 \u03b5\u03bc\u03b1\u03c1\u03c4\u03c5\u03c1\u03b7\u03c3\u03b1\u03bd \u03c3\u03bf\u03c5 \u03c4\u03b7 \u03b1\u03b3\u03b1\u03c0\u03b7 \u03b5\u03bd\u03c9\u03c0\u03b9\u03bf\u03bd \u03b5\u03ba\u03ba\u03bb\u03b7\u03c3\u03b9\u03b1\u03c2 \u03bf\u03c5\u03c2 \u03ba\u03b1\u03bb\u03c9\u03c2 \u03c0\u03bf\u03b9\u03b7\u03c3\u03b5\u03b9\u03c2 \u03c0\u03c1\u03bf\u03c0\u03b5\u03bc\u03c8\u03b1\u03c2 \u03b1\u03be\u03b9\u03c9\u03c2 \u03c4\u03bf\u03c5 \u03b8\u03b5\u03bf\u03c5 "
        },
        {
          "chapter": 1,
          "verse": 7,
          "name": "3 John 1:7",
          "text": "\u03c5\u03c0\u03b5\u03c1 \u03b3\u03b1\u03c1 \u03c4\u03bf\u03c5 \u03bf\u03bd\u03bf\u03bc\u03b1\u03c4\u03bf\u03c2 \u03b5\u03be\u03b7\u03bb\u03b8\u03bf\u03bd \u03bc\u03b7\u03b4\u03b5\u03bd \u03bb\u03b1\u03bc\u03b2\u03b1\u03bd\u03bf\u03bd\u03c4\u03b5\u03c2 \u03b1\u03c0\u03bf \u03c4\u03c9\u03bd \u03b5\u03b8\u03bd\u03c9\u03bd "
        },
        {
          "chapter": 1,
          "verse": 8,
          "name": "3 John 1:8",
          "text": "\u03b7\u03bc\u03b5\u03b9\u03c2 \u03bf\u03c5\u03bd \u03bf\u03c6\u03b5\u03b9\u03bb\u03bf\u03bc\u03b5\u03bd \u03b1\u03c0\u03bf\u03bb\u03b1\u03bc\u03b2\u03b1\u03bd\u03b5\u03b9\u03bd \u03c4\u03bf\u03c5\u03c2 \u03c4\u03bf\u03b9\u03bf\u03c5\u03c4\u03bf\u03c5\u03c2 \u03b9\u03bd\u03b1 \u03c3\u03c5\u03bd\u03b5\u03c1\u03b3\u03bf\u03b9 \u03b3\u03b9\u03bd\u03c9\u03bc\u03b5\u03b8\u03b1 \u03c4\u03b7 \u03b1\u03bb\u03b7\u03b8\u03b5\u03b9\u03b1 "
        },
        {
          "chapter": 1,
          "verse": 9,
          "name": "3 John 1:9",
          "text": "\u03b5\u03b3\u03c1\u03b1\u03c8\u03b1 \u03c4\u03b7 \u03b5\u03ba\u03ba\u03bb\u03b7\u03c3\u03b9\u03b1 \u03b1\u03bb\u03bb \u03bf \u03c6\u03b9\u03bb\u03bf\u03c0\u03c1\u03c9\u03c4\u03b5\u03c5\u03c9\u03bd \u03b1\u03c5\u03c4\u03c9\u03bd \u03b4\u03b9\u03bf\u03c4\u03c1\u03b5\u03c6\u03b7\u03c2 \u03bf\u03c5\u03ba \u03b5\u03c0\u03b9\u03b4\u03b5\u03c7\u03b5\u03c4\u03b1\u03b9 \u03b7\u03bc\u03b1\u03c2 "
        },
        {
          "chapter": 1,
          "verse": 10,
          "name": "3 John 1:10",
          "text": "\u03b4\u03b9\u03b1 \u03c4\u03bf\u03c5\u03c4\u03bf \u03b5\u03b1\u03bd \u03b5\u03bb\u03b8\u03c9 \u03c5\u03c0\u03bf\u03bc\u03bd\u03b7\u03c3\u03c9 \u03b1\u03c5\u03c4\u03bf\u03c5 \u03c4\u03b1 \u03b5\u03c1\u03b3\u03b1 \u03b1 \u03c0\u03bf\u03b9\u03b5\u03b9 \u03bb\u03bf\u03b3\u03bf\u03b9\u03c2 \u03c0\u03bf\u03bd\u03b7\u03c1\u03bf\u03b9\u03c2 \u03c6\u03bb\u03c5\u03b1\u03c1\u03c9\u03bd \u03b7\u03bc\u03b1\u03c2 \u03ba\u03b1\u03b9 \u03bc\u03b7 \u03b1\u03c1\u03ba\u03bf\u03c5\u03bc\u03b5\u03bd\u03bf\u03c2 \u03b5\u03c0\u03b9 \u03c4\u03bf\u03c5\u03c4\u03bf\u03b9\u03c2 \u03bf\u03c5\u03c4\u03b5 \u03b1\u03c5\u03c4\u03bf\u03c2 \u03b5\u03c0\u03b9\u03b4\u03b5\u03c7\u03b5\u03c4\u03b1\u03b9 \u03c4\u03bf\u03c5\u03c2 \u03b1\u03b4\u03b5\u03bb\u03c6\u03bf\u03c5\u03c2 \u03ba\u03b1\u03b9 \u03c4\u03bf\u03c5\u03c2 \u03b2\u03bf\u03c5\u03bb\u03bf\u03bc\u03b5\u03bd\u03bf\u03c5\u03c2 \u03ba\u03c9\u03bb\u03c5\u03b5\u03b9 \u03ba\u03b1\u03b9 \u03b5\u03ba \u03c4\u03b7\u03c2 \u03b5\u03ba\u03ba\u03bb\u03b7\u03c3\u03b9\u03b1\u03c2 \u03b5\u03ba\u03b2\u03b1\u03bb\u03bb\u03b5\u03b9 "
        },
        {
          "chapter": 1,
          "verse": 11,
          "name": "3 John 1:11",
          "text": "\u03b1\u03b3\u03b1\u03c0\u03b7\u03c4\u03b5 \u03bc\u03b7 \u03bc\u03b9\u03bc\u03bf\u03c5 \u03c4\u03bf \u03ba\u03b1\u03ba\u03bf\u03bd \u03b1\u03bb\u03bb\u03b1 \u03c4\u03bf \u03b1\u03b3\u03b1\u03b8\u03bf\u03bd \u03bf \u03b1\u03b3\u03b1\u03b8\u03bf\u03c0\u03bf\u03b9\u03c9\u03bd \u03b5\u03ba \u03c4\u03bf\u03c5 \u03b8\u03b5\u03bf\u03c5 \u03b5\u03c3\u03c4\u03b9\u03bd \u03bf \u03ba\u03b1\u03ba\u03bf\u03c0\u03bf\u03b9\u03c9\u03bd \u03bf\u03c5\u03c7 \u03b5\u03c9\u03c1\u03b1\u03ba\u03b5\u03bd \u03c4\u03bf\u03bd \u03b8\u03b5\u03bf\u03bd "
        },
        {
          "chapter": 1,
          "verse": 12,
          "name": "3 John 1:12",
          "text": "\u03b4\u03b7\u03bc\u03b7\u03c4\u03c1\u03b9\u03c9 \u03bc\u03b5\u03bc\u03b1\u03c1\u03c4\u03c5\u03c1\u03b7\u03c4\u03b1\u03b9 \u03c5\u03c0\u03bf \u03c0\u03b1\u03bd\u03c4\u03c9\u03bd \u03ba\u03b1\u03b9 \u03c5\u03c0 \u03b1\u03c5\u03c4\u03b7\u03c2 \u03c4\u03b7\u03c2 \u03b1\u03bb\u03b7\u03b8\u03b5\u03b9\u03b1\u03c2 \u03ba\u03b1\u03b9 \u03b7\u03bc\u03b5\u03b9\u03c2 \u03b4\u03b5 \u03bc\u03b1\u03c1\u03c4\u03c5\u03c1\u03bf\u03c5\u03bc\u03b5\u03bd \u03ba\u03b1\u03b9 \u03bf\u03b9\u03b4\u03b1\u03c4\u03b5 \u03bf\u03c4\u03b9 \u03b7 \u03bc\u03b1\u03c1\u03c4\u03c5\u03c1\u03b9\u03b1 \u03b7\u03bc\u03c9\u03bd \u03b1\u03bb\u03b7\u03b8\u03b7\u03c2 \u03b5\u03c3\u03c4\u03b9\u03bd "
        },
        {
          "chapter": 1,
          "verse": 13,
          "name": "3 John 1:13",
          "text": "\u03c0\u03bf\u03bb\u03bb\u03b1 \u03b5\u03b9\u03c7\u03bf\u03bd \u03b3\u03c1\u03b1\u03c6\u03b5\u03b9\u03bd \u03b1\u03bb\u03bb \u03bf\u03c5 \u03b8\u03b5\u03bb\u03c9 \u03b4\u03b9\u03b1 \u03bc\u03b5\u03bb\u03b1\u03bd\u03bf\u03c2 \u03ba\u03b1\u03b9 \u03ba\u03b1\u03bb\u03b1\u03bc\u03bf\u03c5 \u03c3\u03bf\u03b9 \u03b3\u03c1\u03b1\u03c8\u03b1\u03b9 "
        },
        {
          "chapter": 1,
          "verse": 14,
          "name": "3 John 1:14",
          "text": "\u03b5\u03bb\u03c0\u03b9\u03b6\u03c9 \u03b4\u03b5 \u03b5\u03c5\u03b8\u03b5\u03c9\u03c2 \u03b9\u03b4\u03b5\u03b9\u03bd \u03c3\u03b5 \u03ba\u03b1\u03b9 \u03c3\u03c4\u03bf\u03bc\u03b1 \u03c0\u03c1\u03bf\u03c2 \u03c3\u03c4\u03bf\u03bc\u03b1 \u03bb\u03b1\u03bb\u03b7\u03c3\u03bf\u03bc\u03b5\u03bd \u03b5\u03b9\u03c1\u03b7\u03bd\u03b7 \u03c3\u03bf\u03b9 \u03b1\u03c3\u03c0\u03b1\u03b6\u03bf\u03bd\u03c4\u03b1\u03b9 \u03c3\u03b5 \u03bf\u03b9 \u03c6\u03b9\u03bb\u03bf\u03b9 \u03b1\u03c3\u03c0\u03b1\u03b6\u03bf\u03c5 \u03c4\u03bf\u03c5\u03c2 \u03c6\u03b9\u03bb\u03bf\u03c5\u03c2 \u03ba\u03b1\u03c4 \u03bf\u03bd\u03bf\u03bc\u03b1   "
        }
      ]
    }
  ]
}
