{
    "translation": "Green's Literal Translation",
    "abbreviation": "litv",
    "lang": "en",
    "language": "English",
    "direction": "LTR",
    "encoding": "",
    "book_nr": 18,
    "book_name": "Job",
    "chapter": 34,
    "name": "Job 34",
    "verses": [
        {
            "chapter": 34,
            "verse": 1,
            "name": "Job 34:1",
            "text": "And Elihu answered and said: "
        },
        {
            "chapter": 34,
            "verse": 2,
            "name": "Job 34:2",
            "text": "O wise men, hear my words; and you who know, listen to me; "
        },
        {
            "chapter": 34,
            "verse": 3,
            "name": "Job 34:3",
            "text": "for the ear tries words as the palate tastes food. "
        },
        {
            "chapter": 34,
            "verse": 4,
            "name": "Job 34:4",
            "text": "Let us choose for ourselves what is right; let us know among ourselves what is good. "
        },
        {
            "chapter": 34,
            "verse": 5,
            "name": "Job 34:5",
            "text": "For Job has said, I am righteous; also, God has taken away my right; "
        },
        {
            "chapter": 34,
            "verse": 6,
            "name": "Job 34:6",
            "text": "should I lie against my right? My wound is incurable, yet I am without rebellion. "
        },
        {
            "chapter": 34,
            "verse": 7,
            "name": "Job 34:7",
            "text": "What man is like Job, who drinks up derision like water; "
        },
        {
            "chapter": 34,
            "verse": 8,
            "name": "Job 34:8",
            "text": "who goes in company with those who work iniquity, and walks with wicked men? "
        },
        {
            "chapter": 34,
            "verse": 9,
            "name": "Job 34:9",
            "text": "For he has said, It is no benefit for a man when he is accepted with God.   "
        },
        {
            "chapter": 34,
            "verse": 10,
            "name": "Job 34:10",
            "text": "So, O man of heart, listen to me; far be it from God to do wickedness; and the Almighty, to do evilly. "
        },
        {
            "chapter": 34,
            "verse": 11,
            "name": "Job 34:11",
            "text": "For He repays man's work to him; and according to a man's day, He causes him to find. "
        },
        {
            "chapter": 34,
            "verse": 12,
            "name": "Job 34:12",
            "text": "Yea, surely God will not do evilly, nor will the Almighty pervert justice. "
        },
        {
            "chapter": 34,
            "verse": 13,
            "name": "Job 34:13",
            "text": "Who has given the earth as in deposit with Him? Or who has laid the whole world? "
        },
        {
            "chapter": 34,
            "verse": 14,
            "name": "Job 34:14",
            "text": "If He sets His heart on him, if He gathers his spirit and his breath to Himself, "
        },
        {
            "chapter": 34,
            "verse": 15,
            "name": "Job 34:15",
            "text": "all flesh shall perish together, and man shall return to dust.   "
        },
        {
            "chapter": 34,
            "verse": 16,
            "name": "Job 34:16",
            "text": "But if you have understanding, hear this; listen to the sound of my words: "
        },
        {
            "chapter": 34,
            "verse": 17,
            "name": "Job 34:17",
            "text": "Shall one who hates justice restrain it ? Or will you condemn a righteous, mighty one; "
        },
        {
            "chapter": 34,
            "verse": 18,
            "name": "Job 34:18",
            "text": "who says to a king, O worthless one; to nobles, O evil one? "
        },
        {
            "chapter": 34,
            "verse": 19,
            "name": "Job 34:19",
            "text": " How much less to Him who does not lift up the face of rulers, nor regard the rich before the poor; for all of them are the work of His hands. "
        },
        {
            "chapter": 34,
            "verse": 20,
            "name": "Job 34:20",
            "text": "In a moment they die, and a people are shaken at midnight; yea, they pass away, and the mighty will be taken without a hand. "
        },
        {
            "chapter": 34,
            "verse": 21,
            "name": "Job 34:21",
            "text": "For His eyes are on the ways of a man, and He sees all his steps. "
        },
        {
            "chapter": 34,
            "verse": 22,
            "name": "Job 34:22",
            "text": "There is no darkness nor shadow of death, to hide there those who work iniquity. "
        },
        {
            "chapter": 34,
            "verse": 23,
            "name": "Job 34:23",
            "text": "For He does not still impose on man to go before God in judgment. "
        },
        {
            "chapter": 34,
            "verse": 24,
            "name": "Job 34:24",
            "text": "He will break mighty men in pieces without inquiry, and make stand others in their place. "
        },
        {
            "chapter": 34,
            "verse": 25,
            "name": "Job 34:25",
            "text": "So He knows their works; and He overturns in the night, so that they are crushed. "
        },
        {
            "chapter": 34,
            "verse": 26,
            "name": "Job 34:26",
            "text": "He strikes them for evil deeds in the place of the spectators, "
        },
        {
            "chapter": 34,
            "verse": 27,
            "name": "Job 34:27",
            "text": "for so they turned from following Him, and they did not consider all His ways so as "
        },
        {
            "chapter": 34,
            "verse": 28,
            "name": "Job 34:28",
            "text": "to cause the cry of the poor to come to Him. For He hears the cry of the afflicted. "
        },
        {
            "chapter": 34,
            "verse": 29,
            "name": "Job 34:29",
            "text": "And He gives rest; who then can condemn? And when He hides His face, who then can see Him? Even it may be against a nation and a man together, "
        },
        {
            "chapter": 34,
            "verse": 30,
            "name": "Job 34:30",
            "text": "from the reigning of ungodly men, from being snares for the people.   "
        },
        {
            "chapter": 34,
            "verse": 31,
            "name": "Job 34:31",
            "text": "For has any said to God, I have taken away; I will not pervert? "
        },
        {
            "chapter": 34,
            "verse": 32,
            "name": "Job 34:32",
            "text": "Besides what I see, You teach me; if I have done iniquity, I will not do it again. "
        },
        {
            "chapter": 34,
            "verse": 33,
            "name": "Job 34:33",
            "text": "Must He repay you because you rejected it ? For you must choose, and not I; therefore, speak what you know. "
        },
        {
            "chapter": 34,
            "verse": 34,
            "name": "Job 34:34",
            "text": "Men of heart will say to me, and a wise man who hears me will say , "
        },
        {
            "chapter": 34,
            "verse": 35,
            "name": "Job 34:35",
            "text": "Job has spoken without knowledge, and his words are not with insight. "
        },
        {
            "chapter": 34,
            "verse": 36,
            "name": "Job 34:36",
            "text": "Would that Job may be tried to the end, because his answers are like men of iniquity. "
        },
        {
            "chapter": 34,
            "verse": 37,
            "name": "Job 34:37",
            "text": "For he adds rebellion to his sin; he claps his hands among us, and multiplies his words against God.  "
        }
    ]
}