{
    "translation": "Northern Azeri Translation",
    "abbreviation": "northernazeri",
    "lang": "az",
    "language": "Azeri Northern ",
    "direction": "LTR",
    "encoding": "UTF-8",
    "book_nr": 20,
    "book_name": "Proverbs",
    "chapter": 5,
    "name": "Proverbs 5",
    "verses": [
        {
            "chapter": 5,
            "verse": 1,
            "name": "Proverbs 5:1",
            "text": "     O\u011flum, m\u0259nim hikm\u0259tim\u0259 diqq\u0259t yetir, Qula\u011f\u0131n\u0131 m\u00fcdrik s\u00f6zl\u0259rim\u0259 t\u0259r\u0259f \u00e7evir. "
        },
        {
            "chapter": 5,
            "verse": 2,
            "name": "Proverbs 5:2",
            "text": "Onda d\u0259rrak\u0259y\u0259 ba\u011flanarsan, Dilin biliyi k\u0259nara atmaz. "
        },
        {
            "chapter": 5,
            "verse": 3,
            "name": "Proverbs 5:3",
            "text": "\u018fxlaqs\u0131z qad\u0131n\u0131n doda\u011f\u0131ndan sanki bal ax\u0131r, Dili \u015firin, ya\u011fdan yum\u015faqd\u0131r. "
        },
        {
            "chapter": 5,
            "verse": 4,
            "name": "Proverbs 5:4",
            "text": "Amma aqib\u0259ti yov\u015fan kimi ac\u0131d\u0131r, \u0130kia\u011f\u0131zl\u0131 q\u0131l\u0131nc kimi k\u0259skindir. "
        },
        {
            "chapter": 5,
            "verse": 5,
            "name": "Proverbs 5:5",
            "text": "Onun ayaqlar\u0131 \u00f6l\u00fcm\u0259 apar\u0131r, Onun add\u0131mlar\u0131 \u00f6l\u00fcl\u0259r diyar\u0131na \u00e7at\u0131r. "
        },
        {
            "chapter": 5,
            "verse": 6,
            "name": "Proverbs 5:6",
            "text": "H\u0259yat yoluna fikir vermir, Yollar\u0131 dola\u015f\u0131qd\u0131r, \u00f6z\u00fc d\u0259 bilmir.   "
        },
        {
            "chapter": 5,
            "verse": 7,
            "name": "Proverbs 5:7",
            "text": "\u0130ndi, ey \u00f6vladlar, m\u0259n\u0259 qulaq as\u0131n, Dilimd\u0259n \u00e7\u0131xan s\u00f6zl\u0259rd\u0259n yay\u0131nmay\u0131n. "
        },
        {
            "chapter": 5,
            "verse": 8,
            "name": "Proverbs 5:8",
            "text": "Bel\u0259 qad\u0131ndan uzaq ol, Evinin qap\u0131s\u0131na yax\u0131n getm\u0259. "
        },
        {
            "chapter": 5,
            "verse": 9,
            "name": "Proverbs 5:9",
            "text": "Yoxsa \u015f\u0259r\u0259fini yadlara ver\u0259rs\u0259n, \u00d6mr\u00fcn\u00fc zal\u0131mlara s\u0259rf ed\u0259rs\u0259n. "
        },
        {
            "chapter": 5,
            "verse": 10,
            "name": "Proverbs 5:10",
            "text": "S\u0259nin var-yoxunu yadlar yey\u0259r, Qazanc\u0131n \u00f6zg\u0259nin evin\u0259 ged\u0259r. "
        },
        {
            "chapter": 5,
            "verse": 11,
            "name": "Proverbs 5:11",
            "text": "\u00d6mr\u00fcn\u00fcn sonu \u00e7atanda, Can\u0131nda taq\u0259t qalmayanda Ah-nal\u0259 \u00e7\u0259k\u0259r\u0259k bel\u0259 dey\u0259rs\u0259n: "
        },
        {
            "chapter": 5,
            "verse": 12,
            "name": "Proverbs 5:12",
            "text": "\u00abM\u0259n d\u0259 t\u0259rbiy\u0259y\u0259 nifr\u0259t etdim, \u00dcr\u0259yimd\u0259 m\u0259z\u0259mm\u0259tl\u0259r\u0259 g\u00fcld\u00fcm! "
        },
        {
            "chapter": 5,
            "verse": 13,
            "name": "Proverbs 5:13",
            "text": "M\u00fc\u0259llimimin s\u00f6z\u00fcn\u0259 baxmad\u0131m, T\u0259rbiy\u0259\u00e7il\u0259rim\u0259 qulaq asmad\u0131m. "
        },
        {
            "chapter": 5,
            "verse": 14,
            "name": "Proverbs 5:14",
            "text": "Camaat\u0131n v\u0259 icman\u0131n aras\u0131nda Az qala h\u0259r c\u00fcr b\u0259laya d\u00fc\u015f\u0259c\u0259kdim\u00bb.      "
        },
        {
            "chapter": 5,
            "verse": 15,
            "name": "Proverbs 5:15",
            "text": "\u00d6z su anbar\u0131ndan, \u00d6z quyunun i\u00e7m\u0259li suyundan i\u00e7. "
        },
        {
            "chapter": 5,
            "verse": 16,
            "name": "Proverbs 5:16",
            "text": "Niy\u0259 s\u0259nin qaynaqlar\u0131n k\u00fc\u00e7\u0259l\u0259r\u0259, Su arxlar\u0131n meydanlara ax\u0131b getsin? "
        },
        {
            "chapter": 5,
            "verse": 17,
            "name": "Proverbs 5:17",
            "text": "Onlar yaln\u0131z s\u0259ninki olsun, Yadlara paylama. "
        },
        {
            "chapter": 5,
            "verse": 18,
            "name": "Proverbs 5:18",
            "text": "Qoy \u00e7e\u015fm\u0259n b\u0259r\u0259k\u0259tli olsun, G\u0259nc ik\u0259n evl\u0259ndiyin arvad\u0131nla xo\u015fb\u0259xt ya\u015fa! "
        },
        {
            "chapter": 5,
            "verse": 19,
            "name": "Proverbs 5:19",
            "text": "Sevimli maral\u0131n, g\u00f6z\u0259l ceyran\u0131n H\u0259mi\u015f\u0259 s\u0259ni \u00f6z d\u00f6\u015fl\u0259ri il\u0259 doydursun, Onun e\u015fqi il\u0259 m\u0259st ol. "
        },
        {
            "chapter": 5,
            "verse": 20,
            "name": "Proverbs 5:20",
            "text": "O\u011flum, niy\u0259 \u0259xlaqs\u0131z qad\u0131nla m\u0259st olmal\u0131san, Yad arvad\u0131 qoynuna almal\u0131san?   "
        },
        {
            "chapter": 5,
            "verse": 21,
            "name": "Proverbs 5:21",
            "text": "\u0130nsanlar\u0131n yollar\u0131 R\u0259bbin g\u00f6z\u00fc qar\u015f\u0131s\u0131ndad\u0131r, Onlar\u0131n h\u0259r add\u0131mlar\u0131n\u0131 yoxlay\u0131r. "
        },
        {
            "chapter": 5,
            "verse": 22,
            "name": "Proverbs 5:22",
            "text": "\u015e\u0259r insan \u00f6z t\u0259qsirl\u0259rin\u0259 g\u00f6r\u0259 tutular, G\u00fcnah\u0131n\u0131n k\u0259m\u0259ndin\u0259 dolanar. "
        },
        {
            "chapter": 5,
            "verse": 23,
            "name": "Proverbs 5:23",
            "text": "T\u0259rbiy\u0259sizliyi \u00fcz\u00fcnd\u0259n h\u0259lak olar, H\u0259dsiz s\u0259fehliyi \u00fcz\u00fcnd\u0259n azar.    "
        }
    ]
}