{
    "translation": "Sveto pismo Kralja Jakoba (1769)",
    "abbreviation": "slokjva",
    "lang": "sl",
    "language": "Slovene",
    "direction": "LTR",
    "encoding": "UTF-8",
    "book_nr": 52,
    "book_name": "1 Thessalonians",
    "chapter": 1,
    "name": "1 Thessalonians 1",
    "verses": [
        {
            "chapter": 1,
            "verse": 1,
            "name": "1 Thessalonians 1:1",
            "text": "Pavel in Silv\u00e1n ter Tim\u00f3tej tesalon\u00ed\u0161ki cerkvi, ki je v Bogu O\u010detu in v Gospodu Jezusu Kristusu: \"Bodi vam milost in mir od Boga, na\u0161ega O\u010deta in Gospoda Jezusa Kristusa. "
        },
        {
            "chapter": 1,
            "verse": 2,
            "name": "1 Thessalonians 1:2",
            "text": "Vedno se za vas vse zahvaljujemo Bogu in vas omenjamo v na\u0161ih molitvah; "
        },
        {
            "chapter": 1,
            "verse": 3,
            "name": "1 Thessalonians 1:3",
            "text": "ko se v o\u010deh Boga in na\u0161ega O\u010deta brez prenehanja spominjamo va\u0161ega dela vere in truda ljubezni ter potrpe\u017eljivosti upanja v na\u0161em Gospodu Jezusu Kristusu; "
        },
        {
            "chapter": 1,
            "verse": 4,
            "name": "1 Thessalonians 1:4",
            "text": "ker poznamo, ljubljeni bratje, va\u0161o izvolitev od Boga. "
        },
        {
            "chapter": 1,
            "verse": 5,
            "name": "1 Thessalonians 1:5",
            "text": "Kajti na\u0161 evangelij ni pri\u0161el k vam samo z besedo, temve\u010d tudi z mo\u010djo in s Svetim Duhom in z velikim zagotovilom; kakor veste kak\u0161ne vrste ljudje smo bili med vami zaradi vas. "
        },
        {
            "chapter": 1,
            "verse": 6,
            "name": "1 Thessalonians 1:6",
            "text": "In vi ste postali na\u0161i in Gospodovi posnemovalci, ker ste besedo sprejeli v veliki stiski, z veseljem Svetega Duha: "
        },
        {
            "chapter": 1,
            "verse": 7,
            "name": "1 Thessalonians 1:7",
            "text": "tako da ste bili zgledi vsem, ki verujejo v Makedoniji in Ahaji. "
        },
        {
            "chapter": 1,
            "verse": 8,
            "name": "1 Thessalonians 1:8",
            "text": "Kajti od vas se je beseda na\u0161ega Gospoda prenesla ne samo po Makedoniji in Ahaji, temve\u010d se je va\u0161a do Boga usmerjena vera raz\u0161irila tudi po vsakem kraju naokoli; tako da nam ni treba ni\u010d govoriti, "
        },
        {
            "chapter": 1,
            "verse": 9,
            "name": "1 Thessalonians 1:9",
            "text": "kajti oni sami so o nas oznanjali kak\u0161ne vrste vstop smo imeli k vam in kako ste se od malikov obrnili k Bogu, da slu\u017eite \u017eivemu in resni\u010dnemu Bogu; "
        },
        {
            "chapter": 1,
            "verse": 10,
            "name": "1 Thessalonians 1:10",
            "text": "in da pri\u010dakujete iz nebes njegovega Sina, katerega je dvignil od mrtvih, cel\u00f3 Jezusa, ki nas je osvobodil pred besom, ki pride. "
        }
    ]
}