{
    "translation": "Reina Valera (1909)",
    "abbreviation": "valera",
    "lang": "es",
    "language": "Spanish",
    "direction": "LTR",
    "encoding": "UTF-8",
    "book_nr": 48,
    "book_name": "Galatians",
    "chapter": 1,
    "name": "Galatians 1",
    "verses": [
        {
            "chapter": 1,
            "verse": 1,
            "name": "Galatians 1:1",
            "text": "PABLO, ap\u00f3stol, (no de los hombres ni por hombre, mas por Jesucristo y por Dios el Padre, que lo resucit\u00f3 de los muertos),"
        },
        {
            "chapter": 1,
            "verse": 2,
            "name": "Galatians 1:2",
            "text": "Y todos los hermanos que est\u00e1n conmigo, \u00e1 las iglesias de Galacia:"
        },
        {
            "chapter": 1,
            "verse": 3,
            "name": "Galatians 1:3",
            "text": "Gracia sea \u00e1 vosotros, y paz de Dios el Padre, y de nuestro Se\u00f1or Jesucristo,"
        },
        {
            "chapter": 1,
            "verse": 4,
            "name": "Galatians 1:4",
            "text": "El cual se di\u00f3 \u00e1 s\u00ed mismo por nuestros pecados para librarnos de este presente siglo malo, conforme \u00e1 la voluntad de Dios y Padre nuestro;"
        },
        {
            "chapter": 1,
            "verse": 5,
            "name": "Galatians 1:5",
            "text": "Al cual sea la gloria por siglos de siglos. Am\u00e9n.  "
        },
        {
            "chapter": 1,
            "verse": 6,
            "name": "Galatians 1:6",
            "text": "  Estoy maravillado de que tan pronto os hay\u00e1is traspasado del que os llam\u00f3 \u00e1 la gracia de Cristo, \u00e1 otro evangelio:"
        },
        {
            "chapter": 1,
            "verse": 7,
            "name": "Galatians 1:7",
            "text": "No que hay otro, sino que hay algunos que os inquietan, y quieren pervertir el evangelio de Cristo."
        },
        {
            "chapter": 1,
            "verse": 8,
            "name": "Galatians 1:8",
            "text": "Mas aun si nosotros \u00f3 un \u00e1ngel del cielo os anunciare otro evangelio del que os hemos anunciado, sea anatema."
        },
        {
            "chapter": 1,
            "verse": 9,
            "name": "Galatians 1:9",
            "text": "Como antes hemos dicho, tambi\u00e9n ahora decimos otra vez: Si alguno os anunciare otro evangelio del que hab\u00e9is recibido, sea anatema.  "
        },
        {
            "chapter": 1,
            "verse": 10,
            "name": "Galatians 1:10",
            "text": "  Porque, \u00bfpersuado yo ahora \u00e1 hombres \u00f3 \u00e1 Dios? \u00bf\u00f3 busco de agradar \u00e1 hombres? Cierto, que si todav\u00eda agradara \u00e1 los hombres, no ser\u00eda siervo de Cristo."
        },
        {
            "chapter": 1,
            "verse": 11,
            "name": "Galatians 1:11",
            "text": "Mas os hago saber, hermanos, que el evangelio que ha sido anunciado por m\u00ed, no es seg\u00fan hombre;"
        },
        {
            "chapter": 1,
            "verse": 12,
            "name": "Galatians 1:12",
            "text": "Pues ni yo lo recib\u00ed, ni lo aprend\u00ed de hombre, sino por revelaci\u00f3n de Jesucristo."
        },
        {
            "chapter": 1,
            "verse": 13,
            "name": "Galatians 1:13",
            "text": "Porque ya hab\u00e9is o\u00eddo acerca de mi conducta otro tiempo en el Juda\u00edsmo, que persegu\u00eda sobremanera la iglesia de Dios, y la destru\u00eda;"
        },
        {
            "chapter": 1,
            "verse": 14,
            "name": "Galatians 1:14",
            "text": "Y aprovechaba en el Juda\u00edsmo sobre muchos de mis iguales en mi naci\u00f3n, siendo muy m\u00e1s celador que todos de las tradiciones de mis padres."
        },
        {
            "chapter": 1,
            "verse": 15,
            "name": "Galatians 1:15",
            "text": "Mas cuando plugo \u00e1 Dios, que me apart\u00f3 desde el vientre de mi madre, y me llam\u00f3 por su gracia,"
        },
        {
            "chapter": 1,
            "verse": 16,
            "name": "Galatians 1:16",
            "text": "Revelar \u00e1 su Hijo en m\u00ed, para que le predicase entre los Gentiles, luego no confer\u00ed con carne y sangre;"
        },
        {
            "chapter": 1,
            "verse": 17,
            "name": "Galatians 1:17",
            "text": "Ni fu\u00ed \u00e1 Jerusalem \u00e1 los que eran ap\u00f3stoles antes que yo; sino que me fu\u00ed \u00e1 la Arabia, y volv\u00ed de nuevo \u00e1 Damasco."
        },
        {
            "chapter": 1,
            "verse": 18,
            "name": "Galatians 1:18",
            "text": "Despu\u00e9s, pasados tres a\u00f1os, fu\u00ed \u00e1 Jerusalem \u00e1 ver \u00e1 Pedro, y estuve con \u00e9l quince d\u00edas."
        },
        {
            "chapter": 1,
            "verse": 19,
            "name": "Galatians 1:19",
            "text": "Mas \u00e1 ning\u00fan otro de los ap\u00f3stoles vi, sino \u00e1 Jacobo el hermano del Se\u00f1or."
        },
        {
            "chapter": 1,
            "verse": 20,
            "name": "Galatians 1:20",
            "text": "Y en esto que os escribo, he aqu\u00ed delante de Dios, no miento."
        },
        {
            "chapter": 1,
            "verse": 21,
            "name": "Galatians 1:21",
            "text": "Despu\u00e9s fu\u00ed \u00e1 las partes de Siria y de Cilicia;"
        },
        {
            "chapter": 1,
            "verse": 22,
            "name": "Galatians 1:22",
            "text": "Y no era conocido de vista \u00e1 las iglesias de Judea, que eran en Cristo;"
        },
        {
            "chapter": 1,
            "verse": 23,
            "name": "Galatians 1:23",
            "text": "Solamente hab\u00edan o\u00eddo decir: Aquel que en otro tiempo nos persegu\u00eda, ahora anuncia la fe que en otro tiempo destru\u00eda."
        },
        {
            "chapter": 1,
            "verse": 24,
            "name": "Galatians 1:24",
            "text": "Y glorificaban \u00e1 Dios en m\u00ed.   "
        }
    ]
}