{
  "translation": "Giovanni Diodati Bible (1649)",
  "abbreviation": "giovanni",
  "lang": "it",
  "language": "Italian",
  "direction": "LTR",
  "encoding": "",
  "nr": 54,
  "name": "1 Timothy",
  "chapters": [
    {
      "chapter": 1,
      "name": "1 Timothy 1",
      "verses": [
        {
          "chapter": 1,
          "verse": 1,
          "name": "1 Timothy 1:1",
          "text": "PAOLO, apostolo di Ges\u00f9 Cristo, per comandamento di Dio, nostro Salvatore; e del Signor Ges\u00f9 Cristo, nostra speranza;\r"
        },
        {
          "chapter": 1,
          "verse": 2,
          "name": "1 Timothy 1:2",
          "text": "a Timoteo, mio vero figliuolo in fede; grazia, misericordia, e pace, da Dio nostro padre, e da Cristo Ges\u00f9, nostro Signore.\r"
        },
        {
          "chapter": 1,
          "verse": 3,
          "name": "1 Timothy 1:3",
          "text": "SICCOME io ti esortai di rimanere in Efeso, quando io andava in Macedonia, fa\u2019 che tu dinunzi ad alcuni che non insegnino dottrina diversa.\r"
        },
        {
          "chapter": 1,
          "verse": 4,
          "name": "1 Timothy 1:4",
          "text": "E che non attendano a favole, ed a genealogie senza fine; le quali producono piuttosto quistioni, che edificazion di Dio, che \u00e8 in fede.\r"
        },
        {
          "chapter": 1,
          "verse": 5,
          "name": "1 Timothy 1:5",
          "text": "Or il fine del comandamento \u00e8 carit\u00e0, di cuor puro, e di buona coscienza, e di fede non finta.\r"
        },
        {
          "chapter": 1,
          "verse": 6,
          "name": "1 Timothy 1:6",
          "text": "Dalle quali cose alcuni essendosi sviati, si son rivolti ad un vano parlare;\r"
        },
        {
          "chapter": 1,
          "verse": 7,
          "name": "1 Timothy 1:7",
          "text": "volendo esser dottori della legge, non intendendo n\u00e8 le cose che dicono, n\u00e8 quelle delle quali affermano.\r"
        },
        {
          "chapter": 1,
          "verse": 8,
          "name": "1 Timothy 1:8",
          "text": "Or noi sappiamo che la legge \u00e8 buona, se alcuno l\u2019usa legittimamente.\r"
        },
        {
          "chapter": 1,
          "verse": 9,
          "name": "1 Timothy 1:9",
          "text": "Sapendo questo: che la legge non \u00e8 posta al giusto, ma agl\u2019iniqui, e ribelli, agli empi, e peccatori, agli scellerati, e profani, agli uccisori di padri e madri,\r"
        },
        {
          "chapter": 1,
          "verse": 10,
          "name": "1 Timothy 1:10",
          "text": "a\u2019 micidiali, a\u2019 fornicatori, a quelli che usano co\u2019 maschi, a\u2019 rubatori d\u2019uomini, a\u2019 falsari, agli spergiuratori; e se vi \u00e8 alcun\u2019altra cosa contraria alla sana dottrina;\r"
        },
        {
          "chapter": 1,
          "verse": 11,
          "name": "1 Timothy 1:11",
          "text": "secondo l\u2019evangelo della gloria del beato Iddio, il qual m\u2019\u00e8 stato fidato.\r"
        },
        {
          "chapter": 1,
          "verse": 12,
          "name": "1 Timothy 1:12",
          "text": "E rendo grazie a Cristo nostro Signore, il qual mi fortifica, ch\u2019egli mi ha reputato fedele, ponendo al ministerio me,\r"
        },
        {
          "chapter": 1,
          "verse": 13,
          "name": "1 Timothy 1:13",
          "text": "il quale innanzi era bestemmiatore, e persecutore, ed ingiurioso; ma misericordia mi \u00e8 stata fatta, perciocch\u00e8 io lo feci ignorantemente, non avendo la fede.\r"
        },
        {
          "chapter": 1,
          "verse": 14,
          "name": "1 Timothy 1:14",
          "text": "Ma la grazia del Signor nostro \u00e8 soprabbondata, con fede e carit\u00e0, che \u00e8 in Cristo Ges\u00f9.\r"
        },
        {
          "chapter": 1,
          "verse": 15,
          "name": "1 Timothy 1:15",
          "text": "Certa \u00e8 questa parola, e degna d\u2019essere accettata per ogni maniera: che Cristo Ges\u00f9 \u00e8 venuto nel mondo, per salvare i peccatori, de\u2019 quali io sono il primo.\r"
        },
        {
          "chapter": 1,
          "verse": 16,
          "name": "1 Timothy 1:16",
          "text": "Ma, per questo mi \u00e8 stata fatta misericordia, acciocch\u00e8 Ges\u00f9 Cristo mostrasse in me primieramente tutta la sua clemenza, per essere esempio a coloro che per l\u2019avvenire crederebbero in lui a vita eterna.\r"
        },
        {
          "chapter": 1,
          "verse": 17,
          "name": "1 Timothy 1:17",
          "text": "Or al Re de\u2019 secoli, immortale, invisibile, a Dio solo savio, sia onore, e gloria ne\u2019 secoli de\u2019 secoli. Amen.\r"
        },
        {
          "chapter": 1,
          "verse": 18,
          "name": "1 Timothy 1:18",
          "text": "Io ti raccomando questo comandamento, o figliuol Timoteo: che secondo le profezie che innanzi sono state di te, tu guerreggi, in virt\u00f9 d\u2019esse, la buona guerra.\r"
        },
        {
          "chapter": 1,
          "verse": 19,
          "name": "1 Timothy 1:19",
          "text": "Avendo fede, e buona coscienza; la quale avendo alcuni gettata via, hanno fatto naufragio intorno alla fede.\r"
        },
        {
          "chapter": 1,
          "verse": 20,
          "name": "1 Timothy 1:20",
          "text": "De\u2019 quali \u00e8 Imeneo, ed Alessandro, i quali io ho dati in man di Satana, acciocch\u00e8 sieno castigati, ed ammaestrati a non bestemmiare.\r"
        }
      ]
    },
    {
      "chapter": 2,
      "name": "1 Timothy 2",
      "verses": [
        {
          "chapter": 2,
          "verse": 1,
          "name": "1 Timothy 2:1",
          "text": "IO esorto adunque, innanzi ad ogni cosa, che si facciano preghiere, orazioni, richieste, e ringraziamenti per tutti gli uomini.\r"
        },
        {
          "chapter": 2,
          "verse": 2,
          "name": "1 Timothy 2:2",
          "text": "Pei re, e per tutti quelli che sono in dignit\u00e0; acciocch\u00e8 possiam menare una tranquilla e quieta vita, in ogni piet\u00e0 ed onest\u00e0.\r"
        },
        {
          "chapter": 2,
          "verse": 3,
          "name": "1 Timothy 2:3",
          "text": "Perciocch\u00e8 quest\u2019\u00e8 buono ed accettevole nel cospetto di Dio, nostro Salvatore.\r"
        },
        {
          "chapter": 2,
          "verse": 4,
          "name": "1 Timothy 2:4",
          "text": "Il quale vuole che tutti gli uomini sieno salvati, e che vengano alla conoscenza della verit\u00e0.\r"
        },
        {
          "chapter": 2,
          "verse": 5,
          "name": "1 Timothy 2:5",
          "text": "Perciocch\u00e8 v\u2019\u00e8 un sol Dio, ed anche un sol Mediatore di Dio, e degli uomini: Cristo Ges\u00f9 uomo.\r"
        },
        {
          "chapter": 2,
          "verse": 6,
          "name": "1 Timothy 2:6",
          "text": "Il quale ha dato s\u00e8 stesso per prezzo di riscatto per tutti; secondo la testimonianza riserbata a\u2019 propri tempi.\r"
        },
        {
          "chapter": 2,
          "verse": 7,
          "name": "1 Timothy 2:7",
          "text": "A che io sono stato costituito banditore, ed apostolo io dico verit\u00e0 in Cristo, non mento, dottor de\u2019 Gentili in fede, e verit\u00e0.\r"
        },
        {
          "chapter": 2,
          "verse": 8,
          "name": "1 Timothy 2:8",
          "text": "Io voglio adunque che gli uomini facciano orazione in ogni luogo, alzando le mani pure, senza ira e disputazione.\r"
        },
        {
          "chapter": 2,
          "verse": 9,
          "name": "1 Timothy 2:9",
          "text": "SIMIGLIANTEMENTE ancora che le donne si adornino d\u2019abito onesto, con verecondia e modestia; non di trecce, o d\u2019oro, o di perle, o di vestimenti preziosi;\r"
        },
        {
          "chapter": 2,
          "verse": 10,
          "name": "1 Timothy 2:10",
          "text": "ma come si conviene a donne che fanno professione di servire a Dio per opere buone.\r"
        },
        {
          "chapter": 2,
          "verse": 11,
          "name": "1 Timothy 2:11",
          "text": "La donna impari con silenzio, in ogni soggezione.\r"
        },
        {
          "chapter": 2,
          "verse": 12,
          "name": "1 Timothy 2:12",
          "text": "Ma io non permetto alla donna d\u2019insegnare, n\u00e8 d\u2019usare autorit\u00e0 sopra il marito; ma ordino che stia in silenzio.\r"
        },
        {
          "chapter": 2,
          "verse": 13,
          "name": "1 Timothy 2:13",
          "text": "Perciocch\u00e8 Adamo fu creato il primo, e poi Eva.\r"
        },
        {
          "chapter": 2,
          "verse": 14,
          "name": "1 Timothy 2:14",
          "text": "E Adamo non fu sedotto; ma la donna, essendo stata sedotta, fu in cagion di trasgressione.\r"
        },
        {
          "chapter": 2,
          "verse": 15,
          "name": "1 Timothy 2:15",
          "text": "Ma pure sar\u00e0 salvata, partorendo figliuoli, se saranno perseverate in fede, e carit\u00e0, e santificazione, con onest\u00e0.\r"
        }
      ]
    },
    {
      "chapter": 3,
      "name": "1 Timothy 3",
      "verses": [
        {
          "chapter": 3,
          "verse": 1,
          "name": "1 Timothy 3:1",
          "text": "CERTA \u00e8 questa parola: Se alcuno desidera l\u2019ufficio di vescovo, desidera una buona opera.\r"
        },
        {
          "chapter": 3,
          "verse": 2,
          "name": "1 Timothy 3:2",
          "text": "Bisogna adunque che il vescovo sia irreprensibile, marito d\u2019una sola moglie, sobrio, vigilante, temperato, onesto, volonteroso albergator de\u2019 forestieri, atto ad insegnare;\r"
        },
        {
          "chapter": 3,
          "verse": 3,
          "name": "1 Timothy 3:3",
          "text": "non dato al vino, non percotitore, non disonestamente cupido del guadagno; ma benigno, non contenzioso, non avaro.\r"
        },
        {
          "chapter": 3,
          "verse": 4,
          "name": "1 Timothy 3:4",
          "text": "Che governi bene la sua propria famiglia, che tenga i figliuoli in soggezione, con ogni gravit\u00e0.\r"
        },
        {
          "chapter": 3,
          "verse": 5,
          "name": "1 Timothy 3:5",
          "text": "Ma, se alcuno non sa governar la sua propria famiglia, come avr\u00e0 egli cura della chiesa di Dio?\r"
        },
        {
          "chapter": 3,
          "verse": 6,
          "name": "1 Timothy 3:6",
          "text": "Che non sia novizio; acciocch\u00e8 divenendo gonfio, non cada nel giudicio del diavolo.\r"
        },
        {
          "chapter": 3,
          "verse": 7,
          "name": "1 Timothy 3:7",
          "text": "Or conviene che egli abbia ancora buona testimonianza da que\u2019 di fuori, acciocch\u00e8 non cada in vituperio, e nel laccio del diavolo.\r"
        },
        {
          "chapter": 3,
          "verse": 8,
          "name": "1 Timothy 3:8",
          "text": "Parimente bisogna che i diaconi sieno gravi, non doppi in parole, non dati a molto vino, non disonestamente cupidi del guadagno.\r"
        },
        {
          "chapter": 3,
          "verse": 9,
          "name": "1 Timothy 3:9",
          "text": "Che ritengano il misterio della fede in pura coscienza.\r"
        },
        {
          "chapter": 3,
          "verse": 10,
          "name": "1 Timothy 3:10",
          "text": "Or questi ancora sieno prima provati, poi servano, se sono irreprensibili.\r"
        },
        {
          "chapter": 3,
          "verse": 11,
          "name": "1 Timothy 3:11",
          "text": "Simigliantemente sieno le lor mogli gravi, non calunniatrici, sobrie, fedeli in ogni cosa.\r"
        },
        {
          "chapter": 3,
          "verse": 12,
          "name": "1 Timothy 3:12",
          "text": "I diaconi sien mariti d\u2019una sola moglie, governando bene i figliuoli, e le proprie famiglie.\r"
        },
        {
          "chapter": 3,
          "verse": 13,
          "name": "1 Timothy 3:13",
          "text": "Perciocch\u00e8 coloro che avranno ben servito si acquistano un buon grado, e gran libert\u00e0 nella fede, ch\u2019\u00e8 in Cristo Ges\u00f9.\r"
        },
        {
          "chapter": 3,
          "verse": 14,
          "name": "1 Timothy 3:14",
          "text": "Io ti scrivo queste cose, sperando di venir tosto a te.\r"
        },
        {
          "chapter": 3,
          "verse": 15,
          "name": "1 Timothy 3:15",
          "text": "E se pur tardo, acciocch\u00e8 tu sappi come si convien conversar nella casa di Dio, che \u00e8 la chiesa dell\u2019Iddio vivente, colonna e sostegno della verit\u00e0.\r"
        },
        {
          "chapter": 3,
          "verse": 16,
          "name": "1 Timothy 3:16",
          "text": "E senza veruna contradizione, grande \u00e8 il misterio della piet\u00e0: Iddio \u00e8 stato manifestato in carne, \u00e8 stato giustificato in Ispirito, \u00e8 apparito agli angeli, \u00e8 stato predicato a\u2019 Gentili, \u00e8 stato creduto nel mondo, \u00e8 stato elevato in gloria.\r"
        }
      ]
    },
    {
      "chapter": 4,
      "name": "1 Timothy 4",
      "verses": [
        {
          "chapter": 4,
          "verse": 1,
          "name": "1 Timothy 4:1",
          "text": "OR lo Spirito dice espressamente, che negli ultimi tempi alcuni apostateranno dalla fede, attendendo a spiriti seduttori, e a dottrine diaboliche;\r"
        },
        {
          "chapter": 4,
          "verse": 2,
          "name": "1 Timothy 4:2",
          "text": "d\u2019uomini che proporranno cose false per ipocrisia, cauterizzati nella propria coscienza.\r"
        },
        {
          "chapter": 4,
          "verse": 3,
          "name": "1 Timothy 4:3",
          "text": "Che vieteranno il maritarsi, e comanderanno d\u2019astenersi da\u2019 cibi, che Iddio ha creati, acciocch\u00e8 i fedeli, e quelli che hanno conosciuta la verit\u00e0, li usino con rendimento di grazie.\r"
        },
        {
          "chapter": 4,
          "verse": 4,
          "name": "1 Timothy 4:4",
          "text": "Poich\u00e8 ogni cosa creata da Dio \u00e8 buona, e niuna \u00e8 da riprovare, essendo usata con rendimento di grazie;\r"
        },
        {
          "chapter": 4,
          "verse": 5,
          "name": "1 Timothy 4:5",
          "text": "perciocch\u00e8 ella \u00e8 santificata per la parola di Dio, e per l\u2019orazione.\r"
        },
        {
          "chapter": 4,
          "verse": 6,
          "name": "1 Timothy 4:6",
          "text": "RAPPRESENTANDO queste cose a\u2019 fratelli, tu sarai buon ministro di Ges\u00f9 Cristo, nudrito nelle parole della fede, e della buona dottrina, la qual tu hai ben compresa.\r"
        },
        {
          "chapter": 4,
          "verse": 7,
          "name": "1 Timothy 4:7",
          "text": "Ma schiva le favole profane, e da vecchie; ed esercitati alla piet\u00e0.\r"
        },
        {
          "chapter": 4,
          "verse": 8,
          "name": "1 Timothy 4:8",
          "text": "Perciocch\u00e8 l\u2019esercizio corporale \u00e8 utile a poca cosa; ma la piet\u00e0 \u00e8 utile ad ogni cosa, avendo la promessa della vita presente, e della futura.\r"
        },
        {
          "chapter": 4,
          "verse": 9,
          "name": "1 Timothy 4:9",
          "text": "Certa \u00e8 questa parola, a degna d\u2019essere accettata per ogni maniera.\r"
        },
        {
          "chapter": 4,
          "verse": 10,
          "name": "1 Timothy 4:10",
          "text": "Poich\u00e8 per questo travagliamo, e siamo vituperati; perciocch\u00e8 abbiamo sperato nell\u2019Iddio vivente, il quale \u00e8 Salvator di tutti gli uomini, principalmente de\u2019 fedeli.\r"
        },
        {
          "chapter": 4,
          "verse": 11,
          "name": "1 Timothy 4:11",
          "text": "Annunzia queste cose, ed insegnale.\r"
        },
        {
          "chapter": 4,
          "verse": 12,
          "name": "1 Timothy 4:12",
          "text": "Niuno sprezzi la tua giovanezza; ma sii esempio de\u2019 fedeli, in parola, in conversazione, in carit\u00e0, in ispirito, in fede, in castit\u00e0.\r"
        },
        {
          "chapter": 4,
          "verse": 13,
          "name": "1 Timothy 4:13",
          "text": "Attendi alla lettura, all\u2019esortazione, alla dottrina, finch\u00e8 io venga.\r"
        },
        {
          "chapter": 4,
          "verse": 14,
          "name": "1 Timothy 4:14",
          "text": "Non trascurare il dono che \u00e8 in te, il quale ti \u00e8 stato dato per profezia, con l\u2019imposizion delle mani del collegio degli anziani.\r"
        },
        {
          "chapter": 4,
          "verse": 15,
          "name": "1 Timothy 4:15",
          "text": "Medita queste cose, e datti interamente ad esse; acciocch\u00e8 il tuo avanzamento sia manifesto fra tutti.\r"
        },
        {
          "chapter": 4,
          "verse": 16,
          "name": "1 Timothy 4:16",
          "text": "Attendi a te stesso, e alla dottrina; persevera in queste cose; perciocch\u00e8, facendo questo, salverai te stesso, e coloro che ti ascoltano.\r"
        }
      ]
    },
    {
      "chapter": 5,
      "name": "1 Timothy 5",
      "verses": [
        {
          "chapter": 5,
          "verse": 1,
          "name": "1 Timothy 5:1",
          "text": "NON isgridar l\u2019uomo attempato, ma esortalo come padre,\r"
        },
        {
          "chapter": 5,
          "verse": 2,
          "name": "1 Timothy 5:2",
          "text": "i giovani come fratelli, le donne attempate come madri, le giovani come sorelle, in ogni castit\u00e0.\r"
        },
        {
          "chapter": 5,
          "verse": 3,
          "name": "1 Timothy 5:3",
          "text": "Onora le vedove, che son veramente vedove.\r"
        },
        {
          "chapter": 5,
          "verse": 4,
          "name": "1 Timothy 5:4",
          "text": "Ma, se alcuna vedova ha dei figliuoli, o de\u2019 nipoti, imparino essi imprima d\u2019usar piet\u00e0 inverso que\u2019 di casa loro, e rendere il cambio a\u2019 loro antenati; perciocch\u00e8 quest\u2019\u00e8 buono ed accettevole nel cospetto di Dio.\r"
        },
        {
          "chapter": 5,
          "verse": 5,
          "name": "1 Timothy 5:5",
          "text": "Or quella che \u00e8 veramente vedova, e lasciata sola, spera in Dio, e persevera in preghiere ed orazioni, notte e giorno.\r"
        },
        {
          "chapter": 5,
          "verse": 6,
          "name": "1 Timothy 5:6",
          "text": "Ma la voluttuosa, vivendo, \u00e8 morta.\r"
        },
        {
          "chapter": 5,
          "verse": 7,
          "name": "1 Timothy 5:7",
          "text": "Anche queste cose annunzia, acciocch\u00e8 sieno irreprensibili.\r"
        },
        {
          "chapter": 5,
          "verse": 8,
          "name": "1 Timothy 5:8",
          "text": "Che se alcuno non provvede ai suoi, e principalmente a que\u2019 di casa sua, egli ha rinnegata la fede, ed \u00e8 peggiore che un infedele.\r"
        },
        {
          "chapter": 5,
          "verse": 9,
          "name": "1 Timothy 5:9",
          "text": "Sia la vedova assunta nel numero delle vedove, non di minore et\u00e0 che di sessant\u2019anni, la qual sia stata moglie d\u2019un sol marito.\r"
        },
        {
          "chapter": 5,
          "verse": 10,
          "name": "1 Timothy 5:10",
          "text": "Che abbia testimonianza d\u2019opere buone: se ha nudriti i suoi figliuoli, se ha albergati i forestieri, se ha lavati i piedi dei santi, se ha sovvenuti gli afflitti, se del continuo \u00e8 ita dietro ad ogni buona opera.\r"
        },
        {
          "chapter": 5,
          "verse": 11,
          "name": "1 Timothy 5:11",
          "text": "Ma rifiuta le vedove pi\u00f9 giovani, perciocch\u00e8, dopo che hanno lussuriato contro a Cristo, vogliono maritarsi,\r"
        },
        {
          "chapter": 5,
          "verse": 12,
          "name": "1 Timothy 5:12",
          "text": "avendo condannazione, perciocch\u00e8 hanno rotta la prima fede.\r"
        },
        {
          "chapter": 5,
          "verse": 13,
          "name": "1 Timothy 5:13",
          "text": "Ed anche, essendo, oltre a ci\u00f2, oziose, imparano ad andare attorno per le case; e non sol sono oziose, ma anche cianciatrici e curiose, parlando di cose che non si convengono.\r"
        },
        {
          "chapter": 5,
          "verse": 14,
          "name": "1 Timothy 5:14",
          "text": "Io voglio adunque che le giovani vedove si maritino, faccian figliuoli, sieno madri di famiglia, non dieno all\u2019avversario alcuna occasione di maldicenza.\r"
        },
        {
          "chapter": 5,
          "verse": 15,
          "name": "1 Timothy 5:15",
          "text": "Poich\u00e8 gi\u00e0 alcune si sono sviate dietro a Satana.\r"
        },
        {
          "chapter": 5,
          "verse": 16,
          "name": "1 Timothy 5:16",
          "text": "Se alcun uomo, o donna fedele, ha delle vedove, sovvenga loro, e non sia la chiesa gravata, acciocch\u00e8 possa bastare a sovvenir quelle che son veramente vedove.\r"
        },
        {
          "chapter": 5,
          "verse": 17,
          "name": "1 Timothy 5:17",
          "text": "GLI anziani, che fanno bene l\u2019ufficio della presidenza, sien reputati degni di doppio onore; principalmente quelli che faticano nella parola e nella dottrina.\r"
        },
        {
          "chapter": 5,
          "verse": 18,
          "name": "1 Timothy 5:18",
          "text": "Perciocch\u00e8 la scrittura dice: Non metter la museruola in bocca al bue che trebbia; e: L\u2019operaio \u00e8 degno del suo premio.\r"
        },
        {
          "chapter": 5,
          "verse": 19,
          "name": "1 Timothy 5:19",
          "text": "Non ricevere accusa contro all\u2019anziano, se non in su due o tre testimoni.\r"
        },
        {
          "chapter": 5,
          "verse": 20,
          "name": "1 Timothy 5:20",
          "text": "Riprendi, nel cospetto di tutti, quelli che peccano; acciocch\u00e8 gli altri ancora abbian timore.\r"
        },
        {
          "chapter": 5,
          "verse": 21,
          "name": "1 Timothy 5:21",
          "text": "Io ti scongiuro davanti a Dio, e il Signor Ges\u00f9 Cristo, e gli angeli eletti, che tu osservi queste cose senza pregiudicio, non facendo nulla per parzialit\u00e0.\r"
        },
        {
          "chapter": 5,
          "verse": 22,
          "name": "1 Timothy 5:22",
          "text": "Non imporre tosto le mani ad alcuno, e non partecipare i peccati altrui; conserva te stesso puro.\r"
        },
        {
          "chapter": 5,
          "verse": 23,
          "name": "1 Timothy 5:23",
          "text": "Non usar pi\u00f9 per l\u2019innanzi acqua sola nel tuo bere, ma usa un poco di vino, per lo tuo stomaco, e per le frequenti tue infermit\u00e0.\r"
        },
        {
          "chapter": 5,
          "verse": 24,
          "name": "1 Timothy 5:24",
          "text": "D\u2019alcuni uomini i peccati son manifesti, prima che sian giudicati; ma ve ne sono altri che si vedono solo dopo.\r"
        },
        {
          "chapter": 5,
          "verse": 25,
          "name": "1 Timothy 5:25",
          "text": "Le buone opere d\u2019alcuni altres\u00ec son manifeste; e quelle che sono altrimenti non possono essere occultate.\r"
        }
      ]
    },
    {
      "chapter": 6,
      "name": "1 Timothy 6",
      "verses": [
        {
          "chapter": 6,
          "verse": 1,
          "name": "1 Timothy 6:1",
          "text": "TUTTI i servi che son sotto il giogo reputino i lor signori degni d\u2019ogni onore, acciocch\u00e8 non sia bestemmiato il nome di Dio, e la dottrina.\r"
        },
        {
          "chapter": 6,
          "verse": 2,
          "name": "1 Timothy 6:2",
          "text": "E quelli che hanno signori fedeli non li sprezzino, perch\u00e8 son fratelli; anzi molto pi\u00f9 li servano, perciocch\u00e8 son fedeli e diletti, i quali hanno ricevuto il beneficio. Insegna queste cose, ed esorta ad esse.\r"
        },
        {
          "chapter": 6,
          "verse": 3,
          "name": "1 Timothy 6:3",
          "text": "SE alcuno insegna diversa dottrina, e non si attiene alle sane parole del Signor nostro Ges\u00f9 Cristo, ed alla dottrina che \u00e8 secondo piet\u00e0,\r"
        },
        {
          "chapter": 6,
          "verse": 4,
          "name": "1 Timothy 6:4",
          "text": "esso \u00e8 gonfio, non sapendo nulla, ma languendo intorno a quistioni, e risse di parole, dalle quali nascono invidia, contenzione, maldicenze, mali sospetti;\r"
        },
        {
          "chapter": 6,
          "verse": 5,
          "name": "1 Timothy 6:5",
          "text": "vane disputazioni d\u2019uomini corrotti della mente e privi della verit\u00e0, che stimano la piet\u00e0 esser guadagno; ritratti da tali.\r"
        },
        {
          "chapter": 6,
          "verse": 6,
          "name": "1 Timothy 6:6",
          "text": "Or veramente la piet\u00e0, con contentamento d\u2019animo, \u00e8 gran guadagno.\r"
        },
        {
          "chapter": 6,
          "verse": 7,
          "name": "1 Timothy 6:7",
          "text": "Poich\u00e8 non abbiam portato nulla nel mondo, e chiaro \u00e8 che altres\u00ec non ne possiamo portar nulla fuori;\r"
        },
        {
          "chapter": 6,
          "verse": 8,
          "name": "1 Timothy 6:8",
          "text": "ma, avendo da nudrirci e da coprirci, saremo di ci\u00f2 contenti.\r"
        },
        {
          "chapter": 6,
          "verse": 9,
          "name": "1 Timothy 6:9",
          "text": "Ma coloro che vogliono arricchire cadono in tentazione, ed in laccio, ed in molte concupiscenze insensate e nocive, le quali affondano gli uomini in distruzione e perdizione.\r"
        },
        {
          "chapter": 6,
          "verse": 10,
          "name": "1 Timothy 6:10",
          "text": "Perciocch\u00e8 la radice di tutti i mali \u00e8 l\u2019avarizia; alla quale alcuni datisi, si sono smarriti dalla fede, e si son fitti in molte doglie.\r"
        },
        {
          "chapter": 6,
          "verse": 11,
          "name": "1 Timothy 6:11",
          "text": "Ma tu, o uomo di Dio, fuggi queste cose; e procaccia giustizia, piet\u00e0, fede, carit\u00e0, sofferenza, mansuetudine.\r"
        },
        {
          "chapter": 6,
          "verse": 12,
          "name": "1 Timothy 6:12",
          "text": "Combatti il buon combattimento della fede, afferra la vita eterna, alla quale sei stato chiamato e ne hai fatta la buona confessione davanti a molti testimoni.\r"
        },
        {
          "chapter": 6,
          "verse": 13,
          "name": "1 Timothy 6:13",
          "text": "Io t\u2019ingiungo nel cospetto di Dio, il qual vivifica tutte le cose, e di Cristo Ges\u00f9, che testimoni\u00f2 davanti a Ponzio Pilato la buona confessione,\r"
        },
        {
          "chapter": 6,
          "verse": 14,
          "name": "1 Timothy 6:14",
          "text": "che tu osservi questo comandamento, essendo immacolato ed irreprensibile, fino all\u2019apparizione del Signor nostro Ges\u00f9 Cristo.\r"
        },
        {
          "chapter": 6,
          "verse": 15,
          "name": "1 Timothy 6:15",
          "text": "La quale a\u2019 suoi tempi mostrer\u00e0 il beato e solo Principe, il Re dei re, e il Signor de\u2019 signori.\r"
        },
        {
          "chapter": 6,
          "verse": 16,
          "name": "1 Timothy 6:16",
          "text": "Il qual solo ha immortalit\u00e0 ed abita una luce inaccessibile; il quale niun uomo ha veduto, n\u00e8 pu\u00f2 vedere; al quale sia onore ed imperio eterno. Amen.\r"
        },
        {
          "chapter": 6,
          "verse": 17,
          "name": "1 Timothy 6:17",
          "text": "Dinunzia a\u2019 ricchi nel presente secolo, che non sieno d\u2019animo altiero, che non pongano la loro speranza nell\u2019incertitudine delle ricchezze; ma nell\u2019Iddio vivente, il qual ci porge doviziosamente ogni cosa, per goderne.\r"
        },
        {
          "chapter": 6,
          "verse": 18,
          "name": "1 Timothy 6:18",
          "text": "Che faccian del bene, che sien ricchi in buone opere, pronti a distribuire, comunichevoli;\r"
        },
        {
          "chapter": 6,
          "verse": 19,
          "name": "1 Timothy 6:19",
          "text": "facendosi un tesoro d\u2019un buon fondamento per l\u2019avvenire, acciocch\u00e8 conseguano la vita eterna.\r"
        },
        {
          "chapter": 6,
          "verse": 20,
          "name": "1 Timothy 6:20",
          "text": "O Timoteo, guarda il deposito, schivando le profane vanit\u00e0 di parole, e le contradizioni della falsamente nominata scienza;\r"
        },
        {
          "chapter": 6,
          "verse": 21,
          "name": "1 Timothy 6:21",
          "text": "della quale alcuni facendo professione, si sono sviati dalla fede. La grazia sia teco. Amen.\r"
        }
      ]
    }
  ]
}
