{
    "translation": "New Heart English Bible: Jehovah Edition",
    "abbreviation": "nhebje",
    "lang": "en",
    "language": "English",
    "direction": "LTR",
    "encoding": "UTF-8",
    "book_nr": 23,
    "book_name": "Isaiah",
    "chapter": 51,
    "name": "Isaiah 51",
    "verses": [
        {
            "chapter": 51,
            "verse": 1,
            "name": "Isaiah 51:1",
            "text": "\"Listen to me, you who follow after righteousness, you who seek Jehovah: look to the rock you were cut from, and to the hold of the pit you were dug from."
        },
        {
            "chapter": 51,
            "verse": 2,
            "name": "Isaiah 51:2",
            "text": "Look to Abraham your father, and to Sarah who bore you; for when he was but one I called him, and I blessed him, and made him many."
        },
        {
            "chapter": 51,
            "verse": 3,
            "name": "Isaiah 51:3",
            "text": "For Jehovah has comforted Zion; he has comforted all her waste places, and has made her wilderness like Eden, and her desert like the garden of Jehovah; joy and gladness shall be found therein, thanksgiving, and the voice of melody. "
        },
        {
            "chapter": 51,
            "verse": 4,
            "name": "Isaiah 51:4",
            "text": "\"Attend to me, my people; and give ear to me, my nation: for a law shall go forth from me, and I will establish my justice for a light of the peoples."
        },
        {
            "chapter": 51,
            "verse": 5,
            "name": "Isaiah 51:5",
            "text": "My righteousness is near, my salvation is gone forth, and my arms shall judge the peoples; the islands shall wait for me, and on my arm shall they trust."
        },
        {
            "chapter": 51,
            "verse": 6,
            "name": "Isaiah 51:6",
            "text": "Lift up your eyes to the heavens, and look on the earth beneath; for the heavens shall vanish away like smoke, and the earth shall wax old like a garment; and those who dwell therein shall die in the same way: but my salvation shall be forever, and my righteousness shall not be abolished. "
        },
        {
            "chapter": 51,
            "verse": 7,
            "name": "Isaiah 51:7",
            "text": "\"Listen to me, you who know righteousness, the people in whose heart is my law; do not fear the reproach of men, neither be dismayed at their insults."
        },
        {
            "chapter": 51,
            "verse": 8,
            "name": "Isaiah 51:8",
            "text": "For the moth shall eat them up like a garment, and the worm shall eat them like wool; but my righteousness shall be forever, and my salvation to all generations.\" "
        },
        {
            "chapter": 51,
            "verse": 9,
            "name": "Isaiah 51:9",
            "text": "Awake, awake, put on strength, arm of Jehovah; awake, as in the days of old, the generations of ancient times. Isn't it you who cut Rahab in pieces, who pierced the monster?"
        },
        {
            "chapter": 51,
            "verse": 10,
            "name": "Isaiah 51:10",
            "text": "Isn't it you who dried up the sea, the waters of the great deep; who made the depths of the sea a way for the redeemed to pass over?"
        },
        {
            "chapter": 51,
            "verse": 11,
            "name": "Isaiah 51:11",
            "text": "The ransomed of Jehovah shall return, and come with singing to Zion; and everlasting joy shall be on their heads. They shall obtain gladness and joy. Sorrow and sighing shall flee away. "
        },
        {
            "chapter": 51,
            "verse": 12,
            "name": "Isaiah 51:12",
            "text": "\"I, even I, am he who comforts you: who are you, that you are afraid of man who shall die, and of the son of man who shall be made as grass;"
        },
        {
            "chapter": 51,
            "verse": 13,
            "name": "Isaiah 51:13",
            "text": "and have forgotten Jehovah your Maker, who stretched forth the heavens, and laid the foundations of the earth; and fear continually all the day because of the fury of the oppressor, when he makes ready to destroy? and where is the fury of the oppressor?"
        },
        {
            "chapter": 51,
            "verse": 14,
            "name": "Isaiah 51:14",
            "text": "The captive exile shall speedily be freed; and he shall not die and go down into the pit, neither shall his bread fail."
        },
        {
            "chapter": 51,
            "verse": 15,
            "name": "Isaiah 51:15",
            "text": "For I am Jehovah your God, who stirs up the sea, so that its waves roar: Jehovah of hosts is his name."
        },
        {
            "chapter": 51,
            "verse": 16,
            "name": "Isaiah 51:16",
            "text": "I have put my words in your mouth, and have covered you in the shadow of my hand, that I may plant the heavens, and lay the foundations of the earth, and tell Zion, 'You are my people.'\" "
        },
        {
            "chapter": 51,
            "verse": 17,
            "name": "Isaiah 51:17",
            "text": "Awake, awake, stand up, Jerusalem, that have drunk at the hand of Jehovah the cup of his wrath; you have drunken the bowl of the cup of staggering, and drained it."
        },
        {
            "chapter": 51,
            "verse": 18,
            "name": "Isaiah 51:18",
            "text": "There is none to guide her among all the sons whom she has brought forth; neither is there any who takes her by the hand among all the sons who she has brought up."
        },
        {
            "chapter": 51,
            "verse": 19,
            "name": "Isaiah 51:19",
            "text": "These two things have happened to you. Who will bemoan you? Desolation and destruction, and the famine and the sword; how shall I comfort you?"
        },
        {
            "chapter": 51,
            "verse": 20,
            "name": "Isaiah 51:20",
            "text": "Your sons have fainted, they lie at the head of all the streets, as an antelope in a net; they are full of the wrath of Jehovah, the rebuke of your God."
        },
        {
            "chapter": 51,
            "verse": 21,
            "name": "Isaiah 51:21",
            "text": "Therefore hear now this, you afflicted, and drunken, but not with wine:"
        },
        {
            "chapter": 51,
            "verse": 22,
            "name": "Isaiah 51:22",
            "text": "Thus says your Lord Jehovah, and your God who pleads the cause of his people, \"Behold, I have taken out of your hand the cup of staggering, even the bowl of the cup of my wrath; you shall no more drink it again:"
        },
        {
            "chapter": 51,
            "verse": 23,
            "name": "Isaiah 51:23",
            "text": "and I will put it into the hand of those who afflict you, who have said to your soul, 'Bow down, that we may walk over you;' and you have laid your back as the ground, and as the street, to those who walk over.\"  "
        }
    ]
}