{
    "translation": "\u0423\u043a\u0440\u0430\u0457\u043d\u0441\u044c\u043a\u0430 \u0411\u0456\u0431\u043b\u0456\u044f. \u041f\u0435\u0440\u0435\u043a\u043b\u0430\u0434 \u0406\u0432\u0430\u043d\u0430 \u041e\u0433\u0456\u0454\u043d\u043a\u0430.",
    "abbreviation": "ukrainian",
    "lang": "uk",
    "language": "Ukrainian",
    "direction": "LTR",
    "encoding": "UTF-8",
    "book_nr": 19,
    "book_name": "Psalms",
    "chapter": 112,
    "name": "Psalms 112",
    "verses": [
        {
            "chapter": 112,
            "verse": 1,
            "name": "Psalms 112:1",
            "text": "\u0410\u043b\u0456\u043b\u0443\u044f! \u0411\u043b\u0430\u0436\u0435\u043d \u043c\u0443\u0436, \u0449\u043e \u0431\u043e\u0457\u0442\u044c\u0441\u044f \u0413\u043e\u0441\u043f\u043e\u0434\u0430, \u0449\u043e \u0437\u0430\u043f\u043e\u0432\u0456\u0434\u0456 \u0419\u043e\u0433\u043e \u043b\u044e\u0431\u0438\u0442\u044c!"
        },
        {
            "chapter": 112,
            "verse": 2,
            "name": "Psalms 112:2",
            "text": "\u0411\u0443\u0434\u0435 \u0441\u0438\u043b\u044c\u043d\u0438\u043c \u043d\u0430\u0441\u0456\u043d\u043d\u044f \u0439\u043e\u0433\u043e \u043d\u0430 \u0437\u0435\u043c\u043b\u0456, \u0431\u0443\u0434\u0435 \u043f\u043e\u0431\u043b\u0430\u0433\u043e\u0441\u043b\u043e\u0432\u043b\u0435\u043d\u0438\u0439 \u0440\u0456\u0434 \u0431\u0435\u0437\u043d\u0435\u0432\u0438\u043d\u043d\u0438\u0445!"
        },
        {
            "chapter": 112,
            "verse": 3,
            "name": "Psalms 112:3",
            "text": "\u0411\u0430\u0433\u0430\u0442\u0441\u0442\u0432\u043e \u0439 \u0434\u043e\u0441\u0442\u0430\u0442\u043e\u043a \u0443 \u0434\u043e\u043c\u0456 \u0439\u043e\u0433\u043e, \u0430 \u043f\u0440\u0430\u0432\u0434\u0430 \u0439\u043e\u0433\u043e \u043f\u0440\u043e\u0431\u0443\u0432\u0430\u0454 \u043d\u0430\u0432\u0456\u043a\u0438!"
        },
        {
            "chapter": 112,
            "verse": 4,
            "name": "Psalms 112:4",
            "text": "\u0421\u0432\u0456\u0442\u043b\u043e \u0441\u0445\u043e\u0434\u0438\u0442\u044c \u0443 \u0442\u0435\u043c\u0440\u044f\u0432\u0456 \u0434\u043b\u044f \u0441\u043f\u0440\u0430\u0432\u0435\u0434\u043b\u0438\u0432\u0438\u0445, \u0412\u0456\u043d \u043b\u0430\u0441\u043a\u0430\u0432\u0438\u0439, \u0456 \u043c\u0438\u043b\u043e\u0441\u0442\u0438\u0432\u0438\u0439, \u0456 \u043f\u0440\u0430\u0432\u0435\u0434\u043d\u0438\u0439!"
        },
        {
            "chapter": 112,
            "verse": 5,
            "name": "Psalms 112:5",
            "text": "\u0414\u043e\u0431\u0440\u0438\u0439 \u043c\u0443\u0436 \u043c\u0438\u043b\u043e\u0441\u0442\u0438\u0432\u0438\u0439 \u0442\u0430 \u043f\u043e\u0437\u0438\u0447\u0430\u0454, \u0443\u0434\u0435\u0440\u0436\u0443\u0454 \u0441\u043f\u0440\u0430\u0432\u0438 \u0441\u0432\u043e\u0457 \u0441\u043f\u0440\u0430\u0432\u0435\u0434\u043b\u0438\u0432\u0456\u0441\u0442\u044e,"
        },
        {
            "chapter": 112,
            "verse": 6,
            "name": "Psalms 112:6",
            "text": "\u0456 \u043d\u0430\u0432\u0456\u043a\u0438 \u0432\u0456\u043d \u043d\u0435 \u0437\u0430\u0445\u0438\u0442\u0430\u0454\u0442\u044c\u0441\u044f, \u0443 \u0432\u0456\u0447\u043d\u0456\u0439 \u043f\u0430\u043c'\u044f\u0442\u0456 \u043f\u0440\u0430\u0432\u0435\u0434\u043d\u0438\u0439 \u0431\u0443\u0434\u0435!"
        },
        {
            "chapter": 112,
            "verse": 7,
            "name": "Psalms 112:7",
            "text": "\u041d\u0435 \u0431\u043e\u0457\u0442\u044c\u0441\u044f \u0432\u0456\u043d \u0437\u0432\u0456\u0441\u0442\u043a\u0438 \u043b\u0438\u0445\u043e\u0457, \u0439\u043e\u0433\u043e \u0441\u0435\u0440\u0446\u0435 \u043c\u0456\u0446\u043d\u0435, \u043d\u0430\u0434\u0456\u044e \u0441\u043a\u043b\u0430\u0434\u0430\u0454 \u043d\u0430 \u0413\u043e\u0441\u043f\u043e\u0434\u0430!"
        },
        {
            "chapter": 112,
            "verse": 8,
            "name": "Psalms 112:8",
            "text": "\u0423\u043c\u0456\u0446\u043d\u0435\u043d\u0435 \u0441\u0435\u0440\u0446\u0435 \u0439\u043e\u0433\u043e \u043d\u0435 \u0431\u043e\u0457\u0442\u044c\u0441\u044f, \u0431\u043e \u0432\u0456\u043d \u0431\u0430\u0447\u0438\u0442\u044c \u043d\u0435\u0449\u0430\u0441\u0442\u044f \u043f\u043e\u043c\u0456\u0436 \u0432\u043e\u0440\u043e\u0433\u0430\u043c\u0438 \u0441\u0432\u043e\u0457\u043c\u0438!"
        },
        {
            "chapter": 112,
            "verse": 9,
            "name": "Psalms 112:9",
            "text": "\u0412\u0456\u043d \u0449\u0435\u0434\u0440\u043e \u0443\u0431\u043e\u0433\u0438\u043c \u0434\u0430\u0454, \u0439\u043e\u0433\u043e \u043f\u0440\u0430\u0432\u0434\u0430 \u043d\u0430\u0432\u0456\u043a\u0438 \u0441\u0442\u043e\u0457\u0442\u044c, \u0439\u043e\u0433\u043e \u0440\u0456\u0433 \u043f\u0456\u0434\u0456\u0439\u043c\u0430\u0454\u0442\u044c\u0441\u044f \u0432 \u0441\u043b\u0430\u0432\u0456!"
        },
        {
            "chapter": 112,
            "verse": 10,
            "name": "Psalms 112:10",
            "text": "\u0426\u0435 \u0431\u0430\u0447\u0438\u0442\u044c \u0431\u0435\u0437\u0431\u043e\u0436\u043d\u0438\u0439 \u0442\u0430 \u0433\u043d\u0456\u0432\u0430\u0454\u0442\u044c\u0441\u044f, \u0441\u043a\u0440\u0435\u0433\u043e\u0447\u0435 \u0437\u0443\u0431\u0430\u043c\u0438 \u0441\u0432\u043e\u0457\u043c\u0438 \u0442\u0430 \u0442\u0430\u043d\u0435... \u0411\u0430\u0436\u0430\u043d\u043d\u044f \u0431\u0435\u0437\u0431\u043e\u0436\u043d\u0438\u0445 \u0437\u0430\u0433\u0438\u043d\u0435! "
        }
    ]
}