{
    "translation": "American Standard Version",
    "abbreviation": "asv",
    "lang": "en",
    "language": "English",
    "direction": "LTR",
    "encoding": "",
    "book_nr": 30,
    "book_name": "Amos",
    "chapter": 4,
    "name": "Amos 4",
    "verses": [
        {
            "chapter": 4,
            "verse": 1,
            "name": "Amos 4:1",
            "text": "Hear this word, ye kine of Bashan, that are in the mountain of Samaria, that oppress the poor, that crush the needy, that say unto their lords, Bring, and let us drink."
        },
        {
            "chapter": 4,
            "verse": 2,
            "name": "Amos 4:2",
            "text": "The Lord Jehovah hath sworn by his holiness, that, lo, the days shall come upon you, that they shall take you away with hooks, and your residue with fish-hooks."
        },
        {
            "chapter": 4,
            "verse": 3,
            "name": "Amos 4:3",
            "text": "And ye shall go out at the breaches, every one straight before her; and ye shall cast <FI>yourselves<Fi> into Harmon, saith Jehovah."
        },
        {
            "chapter": 4,
            "verse": 4,
            "name": "Amos 4:4",
            "text": "Come to Beth-el, and transgress; to Gilgal, <FI>and<Fi> multiply transgression; and bring your sacrifices every morning, <FI>and<Fi> your tithes every three days;"
        },
        {
            "chapter": 4,
            "verse": 5,
            "name": "Amos 4:5",
            "text": "and offer a sacrifice of thanksgiving of that which is leavened, and proclaim freewill-offerings and publish them: for this pleaseth you, O ye children of Israel, saith the Lord Jehovah."
        },
        {
            "chapter": 4,
            "verse": 6,
            "name": "Amos 4:6",
            "text": "And I also have given you cleanness of teeth in all your cities, and want of bread in all your places; yet have ye not returned unto me, saith Jehovah."
        },
        {
            "chapter": 4,
            "verse": 7,
            "name": "Amos 4:7",
            "text": "And I also have withholden the rain from you, when there were yet three months to the harvest; and I caused it to rain upon one city, and caused it not to rain upon another city: one piece was rained upon, and the piece whereupon it rained not withered."
        },
        {
            "chapter": 4,
            "verse": 8,
            "name": "Amos 4:8",
            "text": "So two or three cities wandered unto one city to drink water, and were not satisfied: yet have ye not returned unto me, saith Jehovah."
        },
        {
            "chapter": 4,
            "verse": 9,
            "name": "Amos 4:9",
            "text": "I have smitten you with blasting and mildew: the multitude of your gardens and your vineyards and your fig-trees and your olive-trees hath the palmer-worm devoured: yet have ye not returned unto me, saith Jehovah."
        },
        {
            "chapter": 4,
            "verse": 10,
            "name": "Amos 4:10",
            "text": "I have sent among you the pestilence after the manner of Egypt: your young men have I slain with the sword, and have carried away your horses; and I have made the stench of your camp to come up even into your nostrils: yet have ye not returned unto me, saith Jehovah."
        },
        {
            "chapter": 4,
            "verse": 11,
            "name": "Amos 4:11",
            "text": "I have overthrown <FI>cities<Fi> among you, as when God overthrew Sodom and Gomorrah, and ye were as a brand plucked out of the burning: yet have ye not returned unto me, saith Jehovah."
        },
        {
            "chapter": 4,
            "verse": 12,
            "name": "Amos 4:12",
            "text": "Therefore thus will I do unto thee, O Israel; <FI>and<Fi> because I will do this unto thee, prepare to meet thy God, O Israel."
        },
        {
            "chapter": 4,
            "verse": 13,
            "name": "Amos 4:13",
            "text": "For, lo, he that formeth the mountains, and createth the wind, and declareth unto man what is his thought; that maketh the morning darkness, and treadeth upon the high places of the earth\u2014Jehovah, the God of hosts, is his name."
        }
    ]
}