{
    "translation": "Smith and Van Dyke",
    "abbreviation": "arabicsv",
    "lang": "ar",
    "language": "Arabic",
    "direction": "RTL",
    "encoding": "UTF-8",
    "book_nr": 23,
    "book_name": "Isaiah",
    "chapter": 57,
    "name": "Isaiah 57",
    "verses": [
        {
            "chapter": 57,
            "verse": 1,
            "name": "Isaiah 57:1",
            "text": "\u0628\u064e\u0627\u062f\u064e \u0627\u0644\u0635\u0650\u0651\u062f\u0650\u0651\u064a\u0642\u064f \u0648\u064e\u0644\u064e\u064a\u0652\u0633\u064e \u0623\u064e\u062d\u064e\u062f\u064c \u064a\u064e\u0636\u064e\u0639\u064f \u0630\u0644\u0650\u0643\u064e \u0641\u0650\u064a \u0642\u064e\u0644\u0652\u0628\u0650\u0647\u0650. \u0648\u064e\u0631\u0650\u062c\u064e\u0627\u0644\u064f \u0627\u0644\u0625\u0650\u062d\u0652\u0633\u064e\u0627\u0646\u0650 \u064a\u064f\u0636\u064e\u0645\u064f\u0651\u0648\u0646\u064e\u060c \u0648\u064e\u0644\u064e\u064a\u0652\u0633\u064e \u0645\u064e\u0646\u0652 \u064a\u064e\u0641\u0652\u0637\u064e\u0646\u064f \u0628\u0650\u0623\u064e\u0646\u064e\u0651\u0647\u064f \u0645\u0650\u0646\u0652 \u0648\u064e\u062c\u0652\u0647\u0650 \u0627\u0644\u0634\u064e\u0651\u0631\u0650\u0651 \u064a\u064f\u0636\u064e\u0645\u064f\u0651 \u0627\u0644\u0635\u0650\u0651\u062f\u0650\u0651\u064a\u0642\u064f."
        },
        {
            "chapter": 57,
            "verse": 2,
            "name": "Isaiah 57:2",
            "text": "\u064a\u064e\u062f\u0652\u062e\u064f\u0644\u064f \u0627\u0644\u0633\u064e\u0651\u0644\u0627\u064e\u0645\u064e. \u064a\u064e\u0633\u0652\u062a\u064e\u0631\u0650\u064a\u062d\u064f\u0648\u0646\u064e \u0641\u0650\u064a \u0645\u064e\u0636\u064e\u0627\u062c\u0650\u0639\u0650\u0647\u0650\u0645\u0650. \u0627\u0644\u0633\u064e\u0651\u0627\u0644\u0650\u0643\u064f \u0628\u0650\u0627\u0644\u0627\u0633\u0652\u062a\u0650\u0642\u064e\u0627\u0645\u064e\u0629\u0650.  "
        },
        {
            "chapter": 57,
            "verse": 3,
            "name": "Isaiah 57:3",
            "text": "\u00ab\u0623\u064e\u0645\u064e\u0651\u0627 \u0623\u064e\u0646\u0652\u062a\u064f\u0645\u0652 \u0641\u064e\u062a\u064e\u0642\u064e\u062f\u064e\u0651\u0645\u064f\u0648\u0627 \u0625\u0650\u0644\u064e\u0649 \u0647\u064f\u0646\u064e\u0627 \u064a\u064e\u0627 \u0628\u064e\u0646\u0650\u064a \u0627\u0644\u0633\u064e\u0651\u0627\u062d\u0650\u0631\u064e\u0629\u0650\u060c \u0646\u064e\u0633\u0652\u0644\u064e \u0627\u0644\u0652\u0641\u064e\u0627\u0633\u0650\u0642\u0650 \u0648\u064e\u0627\u0644\u0632\u064e\u0651\u0627\u0646\u0650\u064a\u064e\u0629\u0650."
        },
        {
            "chapter": 57,
            "verse": 4,
            "name": "Isaiah 57:4",
            "text": "\u0628\u0650\u0645\u064e\u0646\u0652 \u062a\u064e\u0633\u0652\u062e\u064e\u0631\u064f\u0648\u0646\u064e\u060c \u0648\u064e\u0639\u064e\u0644\u064e\u0649 \u0645\u064e\u0646\u0652 \u062a\u064e\u0641\u0652\u063a\u064e\u0631\u064f\u0648\u0646\u064e \u0627\u0644\u0652\u0641\u064e\u0645\u064e \u0648\u064e\u062a\u064e\u062f\u0652\u0644\u064e\u0639\u064f\u0648\u0646\u064e \u0627\u0644\u0644\u0650\u0651\u0633\u064e\u0627\u0646\u064e\u061f \u0623\u064e\u0645\u064e\u0627 \u0623\u064e\u0646\u0652\u062a\u064f\u0645\u0652 \u0623\u064e\u0648\u0652\u0644\u0627\u064e\u062f\u064f \u0627\u0644\u0652\u0645\u064e\u0639\u0652\u0635\u0650\u064a\u064e\u0629\u0650\u060c \u0646\u064e\u0633\u0652\u0644\u064f \u0627\u0644\u0652\u0643\u064e\u0630\u0650\u0628\u0650\u061f"
        },
        {
            "chapter": 57,
            "verse": 5,
            "name": "Isaiah 57:5",
            "text": "\u0627\u0644\u0652\u0645\u064f\u062a\u064e\u0648\u064e\u0642\u0650\u0651\u062f\u064f\u0648\u0646\u064e \u0625\u0650\u0644\u064e\u0649 \u0627\u0644\u0623\u064e\u0635\u0652\u0646\u064e\u0627\u0645\u0650 \u062a\u064e\u062d\u0652\u062a\u064e \u0643\u064f\u0644\u0650\u0651 \u0634\u064e\u062c\u064e\u0631\u064e\u0629\u064d \u062e\u064e\u0636\u0652\u0631\u064e\u0627\u0621\u064e\u060c \u0627\u0644\u0652\u0642\u064e\u0627\u062a\u0650\u0644\u064f\u0648\u0646\u064e \u0627\u0644\u0623\u064e\u0648\u0652\u0644\u0627\u064e\u062f\u064e \u0641\u0650\u064a \u0627\u0644\u0623\u064e\u0648\u0652\u062f\u0650\u064a\u064e\u0629\u0650 \u062a\u064e\u062d\u0652\u062a\u064e \u0634\u064f\u0642\u064f\u0648\u0642\u0650 \u0627\u0644\u0652\u0645\u064e\u0639\u064e\u0627\u0642\u0650\u0644\u0650."
        },
        {
            "chapter": 57,
            "verse": 6,
            "name": "Isaiah 57:6",
            "text": "\u0641\u0650\u064a \u062d\u0650\u062c\u064e\u0627\u0631\u064e\u0629\u0650 \u0627\u0644\u0652\u0648\u064e\u0627\u062f\u0650\u064a \u0627\u0644\u0652\u0645\u064f\u0644\u0652\u0633\u0650 \u0646\u064e\u0635\u0650\u064a\u0628\u064f\u0643\u0650. \u062a\u0650\u0644\u0652\u0643\u064e \u0647\u0650\u064a\u064e \u0642\u064f\u0631\u0652\u0639\u064e\u062a\u064f\u0643\u0650. \u0644\u0650\u062a\u0650\u0644\u0652\u0643\u064e \u0633\u064e\u0643\u064e\u0628\u0652\u062a\u0650 \u0633\u064e\u0643\u0650\u064a\u0628\u064b\u0627 \u0648\u064e\u0623\u064e\u0635\u0652\u0639\u064e\u062f\u0652\u062a\u0650 \u062a\u064e\u0642\u0652\u062f\u0650\u0645\u064e\u0629\u064b. \u0623\u064e\u0639\u064e\u0646\u0652 \u0647\u0630\u0650\u0647\u0650 \u0623\u064e\u062a\u064e\u0639\u064e\u0632\u064e\u0651\u0649\u061f"
        },
        {
            "chapter": 57,
            "verse": 7,
            "name": "Isaiah 57:7",
            "text": "\u0639\u064e\u0644\u064e\u0649 \u062c\u064e\u0628\u064e\u0644 \u0639\u064e\u0627\u0644 \u0648\u064e\u0645\u064f\u0631\u0652\u062a\u064e\u0641\u0650\u0639\u064d \u0648\u064e\u0636\u064e\u0639\u0652\u062a\u0650 \u0645\u064e\u0636\u0652\u062c\u064e\u0639\u064e\u0643\u0650\u060c \u0648\u064e\u0625\u0650\u0644\u064e\u0649 \u0647\u064f\u0646\u064e\u0627\u0643\u064e \u0635\u064e\u0639\u0650\u062f\u0652\u062a\u0650 \u0644\u0650\u062a\u064e\u0630\u0652\u0628\u064e\u062d\u0650\u064a \u0630\u064e\u0628\u0650\u064a\u062d\u064e\u0629\u064b."
        },
        {
            "chapter": 57,
            "verse": 8,
            "name": "Isaiah 57:8",
            "text": "\u0648\u064e\u0631\u064e\u0627\u0621\u064e \u0627\u0644\u0652\u0628\u064e\u0627\u0628\u0650 \u0648\u064e\u0627\u0644\u0652\u0642\u064e\u0627\u0626\u0650\u0645\u064e\u0629\u0650 \u0648\u064e\u0636\u064e\u0639\u0652\u062a\u0650 \u062a\u064e\u0630\u0652\u0643\u064e\u0627\u0631\u064e\u0643\u0650\u060c \u0644\u0623\u064e\u0646\u064e\u0651\u0643\u0650 \u0644\u0650\u063a\u064e\u064a\u0652\u0631\u0650\u064a \u0643\u064e\u0634\u064e\u0641\u0652\u062a\u0650 \u0648\u064e\u0635\u064e\u0639\u0650\u062f\u0652\u062a\u0650. \u0623\u064e\u0648\u0652\u0633\u064e\u0639\u0652\u062a\u0650 \u0645\u064e\u0636\u0652\u062c\u064e\u0639\u064e\u0643\u0650 \u0648\u064e\u0642\u064e\u0637\u064e\u0639\u0652\u062a\u0650 \u0644\u0650\u0646\u064e\u0641\u0652\u0633\u0650\u0643\u0650 \u0639\u064e\u0647\u0652\u062f\u064b\u0627 \u0645\u064e\u0639\u064e\u0647\u064f\u0645\u0652. \u0623\u064e\u062d\u0652\u0628\u064e\u0628\u0652\u062a\u0650 \u0645\u064e\u0636\u0652\u062c\u064e\u0639\u064e\u0647\u064f\u0645\u0652. \u0646\u064e\u0638\u064e\u0631\u0652\u062a\u0650 \u0641\u064f\u0631\u0652\u0635\u064e\u0629\u064b."
        },
        {
            "chapter": 57,
            "verse": 9,
            "name": "Isaiah 57:9",
            "text": "\u0648\u064e\u0633\u0650\u0631\u0652\u062a\u0650 \u0625\u0650\u0644\u064e\u0649 \u0627\u0644\u0652\u0645\u064e\u0644\u0650\u0643\u0650 \u0628\u0650\u0627\u0644\u062f\u064f\u0651\u0647\u0652\u0646\u0650\u060c \u0648\u064e\u0623\u064e\u0643\u0652\u062b\u064e\u0631\u0652\u062a\u0650 \u0623\u064e\u0637\u0652\u064a\u064e\u0627\u0628\u064e\u0643\u0650\u060c \u0648\u064e\u0623\u064e\u0631\u0652\u0633\u064e\u0644\u0652\u062a\u0650 \u0631\u064f\u0633\u064f\u0644\u064e\u0643\u0650 \u0625\u0650\u0644\u064e\u0649 \u0628\u064f\u0639\u0652\u062f\u064d \u0648\u064e\u0646\u064e\u0632\u064e\u0644\u0652\u062a\u0650 \u062d\u064e\u062a\u064e\u0651\u0649 \u0625\u0650\u0644\u064e\u0649 \u0627\u0644\u0652\u0647\u064e\u0627\u0648\u0650\u064a\u064e\u0629\u0650."
        },
        {
            "chapter": 57,
            "verse": 10,
            "name": "Isaiah 57:10",
            "text": "\u0628\u0650\u0637\u064f\u0648\u0644\u0650 \u0623\u064e\u0633\u0652\u0641\u064e\u0627\u0631\u0650\u0643\u0650 \u0623\u064e\u0639\u0652\u064a\u064e\u064a\u0652\u062a\u0650\u060c \u0648\u064e\u0644\u064e\u0645\u0652 \u062a\u064e\u0642\u064f\u0648\u0644\u0650\u064a: \u064a\u064e\u0626\u0650\u0633\u0652\u062a\u064f. \u0634\u064e\u0647\u0652\u0648\u064e\u062a\u064e\u0643\u0650 \u0648\u064e\u062c\u064e\u062f\u0652\u062a\u0650\u060c \u0644\u0650\u0630\u0644\u0650\u0643\u064e \u0644\u064e\u0645\u0652 \u062a\u064e\u0636\u0652\u0639\u064f\u0641\u0650\u064a."
        },
        {
            "chapter": 57,
            "verse": 11,
            "name": "Isaiah 57:11",
            "text": "\u0648\u064e\u0645\u0650\u0645\u064e\u0651\u0646\u0652 \u062e\u064e\u0634\u0650\u064a\u062a\u0650 \u0648\u064e\u062e\u0650\u0641\u0652\u062a\u0650 \u062d\u064e\u062a\u064e\u0651\u0649 \u062e\u064f\u0646\u0652\u062a\u0650\u060c \u0648\u064e\u0625\u0650\u064a\u064e\u0651\u0627\u064a\u064e \u0644\u064e\u0645\u0652 \u062a\u064e\u0630\u0652\u0643\u064f\u0631\u0650\u064a\u060c \u0648\u064e\u0644\u0627\u064e \u0648\u064e\u0636\u064e\u0639\u0652\u062a\u0650 \u0641\u0650\u064a \u0642\u064e\u0644\u0652\u0628\u0650\u0643\u0650\u061f \u0623\u064e\u0645\u064e\u0651\u0627 \u0623\u064e\u0646\u064e\u0627 \u0633\u064e\u0627\u0643\u0650\u062a\u064c\u060c \u0648\u064e\u0630\u0644\u0650\u0643\u064e \u0645\u064f\u0646\u0652\u0630\u064f \u0627\u0644\u0652\u0642\u064e\u062f\u0650\u064a\u0645\u0650\u060c \u0641\u064e\u0625\u0650\u064a\u064e\u0651\u0627\u064a\u064e \u0644\u064e\u0645\u0652 \u062a\u064e\u062e\u064e\u0627\u0641\u0650\u064a."
        },
        {
            "chapter": 57,
            "verse": 12,
            "name": "Isaiah 57:12",
            "text": "\u0623\u064e\u0646\u064e\u0627 \u0623\u064f\u062e\u0652\u0628\u0650\u0631\u064f \u0628\u0650\u0628\u0650\u0631\u0650\u0651\u0643\u0650 \u0648\u064e\u0628\u0650\u0623\u064e\u0639\u0652\u0645\u064e\u0627\u0644\u0650\u0643\u0650 \u0641\u064e\u0644\u0627\u064e \u062a\u064f\u0641\u0650\u064a\u062f\u064f\u0643\u0650.  "
        },
        {
            "chapter": 57,
            "verse": 13,
            "name": "Isaiah 57:13",
            "text": "\u0625\u0650\u0630\u0652 \u062a\u064e\u0635\u0652\u0631\u064f\u062e\u0650\u064a\u0646\u064e \u0641\u064e\u0644\u0652\u064a\u064f\u0646\u0652\u0642\u0650\u0630\u0652\u0643\u0650 \u062c\u064f\u0645\u064f\u0648\u0639\u064f\u0643\u0650. \u0648\u064e\u0644\u0643\u0650\u0646\u0650 \u0627\u0644\u0631\u0650\u0651\u064a\u062d\u064f \u062a\u064e\u062d\u0652\u0645\u0650\u0644\u064f\u0647\u064f\u0645\u0652 \u0643\u064f\u0644\u064e\u0651\u0647\u064f\u0645\u0652. \u062a\u064e\u0623\u0652\u062e\u064f\u0630\u064f\u0647\u064f\u0645\u0652 \u0646\u064e\u0641\u064e\u062e\u064e\u0629\u064c. \u0623\u064e\u0645\u064e\u0651\u0627 \u0627\u0644\u0652\u0645\u064f\u062a\u064e\u0648\u064e\u0643\u0650\u0651\u0644\u064f \u0639\u064e\u0644\u064e\u064a\u064e\u0651 \u0641\u064e\u064a\u064e\u0645\u0652\u0644\u0650\u0643\u064f \u0627\u0644\u0623\u064e\u0631\u0652\u0636\u064e \u0648\u064e\u064a\u064e\u0631\u0650\u062b\u064f \u062c\u064e\u0628\u064e\u0644\u064e \u0642\u064f\u062f\u0652\u0633\u0650\u064a\u00bb.  "
        },
        {
            "chapter": 57,
            "verse": 14,
            "name": "Isaiah 57:14",
            "text": "\u0648\u064e\u064a\u064e\u0642\u064f\u0648\u0644\u064f: \u00ab\u0623\u064e\u0639\u0650\u062f\u064f\u0651\u0648\u0627\u060c \u0623\u064e\u0639\u0650\u062f\u064f\u0651\u0648\u0627. \u0647\u064e\u064a\u0650\u0651\u0626\u064f\u0648\u0627 \u0627\u0644\u0637\u064e\u0651\u0631\u0650\u064a\u0642\u064e. \u0627\u0631\u0652\u0641\u064e\u0639\u064f\u0648\u0627 \u0627\u0644\u0652\u0645\u064e\u0639\u0652\u062b\u064e\u0631\u064e\u0629\u064e \u0645\u0650\u0646\u0652 \u0637\u064e\u0631\u0650\u064a\u0642\u0650 \u0634\u064e\u0639\u0652\u0628\u0650\u064a\u00bb."
        },
        {
            "chapter": 57,
            "verse": 15,
            "name": "Isaiah 57:15",
            "text": "\u0644\u0623\u064e\u0646\u064e\u0651\u0647\u064f \u0647\u0643\u064e\u0630\u064e\u0627 \u0642\u064e\u0627\u0644\u064e \u0627\u0644\u0652\u0639\u064e\u0644\u0650\u064a\u064f\u0651 \u0627\u0644\u0652\u0645\u064f\u0631\u0652\u062a\u064e\u0641\u0650\u0639\u064f\u060c \u0633\u064e\u0627\u0643\u0650\u0646\u064f \u0627\u0644\u0623\u064e\u0628\u064e\u062f\u0650\u060c \u0627\u0644\u0652\u0642\u064f\u062f\u064f\u0651\u0648\u0633\u064f \u0627\u0633\u0652\u0645\u064f\u0647\u064f: \u00ab\u0641\u0650\u064a \u0627\u0644\u0652\u0645\u064e\u0648\u0652\u0636\u0650\u0639\u0650 \u0627\u0644\u0652\u0645\u064f\u0631\u0652\u062a\u064e\u0641\u0650\u0639\u0650 \u0627\u0644\u0652\u0645\u064f\u0642\u064e\u062f\u064e\u0651\u0633\u0650 \u0623\u064e\u0633\u0652\u0643\u064f\u0646\u064f\u060c \u0648\u064e\u0645\u064e\u0639\u064e \u0627\u0644\u0652\u0645\u064f\u0646\u0652\u0633\u064e\u062d\u0650\u0642\u0650 \u0648\u064e\u0627\u0644\u0652\u0645\u064f\u062a\u064e\u0648\u064e\u0627\u0636\u0650\u0639\u0650 \u0627\u0644\u0631\u064f\u0651\u0648\u062d\u0650\u060c \u0644\u0623\u064f\u062d\u0652\u064a\u0650\u064a\u064e \u0631\u064f\u0648\u062d\u064e \u0627\u0644\u0652\u0645\u064f\u062a\u064e\u0648\u064e\u0627\u0636\u0650\u0639\u0650\u064a\u0646\u064e\u060c \u0648\u064e\u0644\u0623\u064f\u062d\u0652\u064a\u0650\u064a\u064e \u0642\u064e\u0644\u0652\u0628\u064e \u0627\u0644\u0652\u0645\u064f\u0646\u0652\u0633\u064e\u062d\u0650\u0642\u0650\u064a\u0646\u064e."
        },
        {
            "chapter": 57,
            "verse": 16,
            "name": "Isaiah 57:16",
            "text": "\u0644\u0623\u064e\u0646\u0650\u0651\u064a \u0644\u0627\u064e \u0623\u064f\u062e\u064e\u0627\u0635\u0650\u0645\u064f \u0625\u0650\u0644\u064e\u0649 \u0627\u0644\u0623\u064e\u0628\u064e\u062f\u0650\u060c \u0648\u064e\u0644\u0627\u064e \u0623\u064e\u063a\u0652\u0636\u064e\u0628\u064f \u0625\u0650\u0644\u064e\u0649 \u0627\u0644\u062f\u064e\u0651\u0647\u0652\u0631\u0650. \u0644\u0623\u064e\u0646\u064e\u0651 \u0627\u0644\u0631\u064f\u0651\u0648\u062d\u064e \u064a\u064f\u063a\u0652\u0634\u064e\u0649 \u0639\u064e\u0644\u064e\u064a\u0652\u0647\u064e\u0627 \u0623\u064e\u0645\u064e\u0627\u0645\u0650\u064a\u060c \u0648\u064e\u0627\u0644\u0646\u064e\u0651\u0633\u064e\u0645\u064e\u0627\u062a\u064f \u0627\u0644\u064e\u0651\u062a\u0650\u064a \u0635\u064e\u0646\u064e\u0639\u0652\u062a\u064f\u0647\u064e\u0627."
        },
        {
            "chapter": 57,
            "verse": 17,
            "name": "Isaiah 57:17",
            "text": "\u0645\u0650\u0646\u0652 \u0623\u064e\u062c\u0652\u0644\u0650 \u0625\u0650\u062b\u0652\u0645\u0650 \u0645\u064e\u0643\u0652\u0633\u064e\u0628\u0650\u0647\u0650 \u063a\u064e\u0636\u0650\u0628\u0652\u062a\u064f \u0648\u064e\u0636\u064e\u0631\u064e\u0628\u0652\u062a\u064f\u0647\u064f. \u0627\u064e\u0633\u0652\u062a\u064e\u062a\u064e\u0631\u0652\u062a\u064f \u0648\u064e\u063a\u064e\u0636\u0650\u0628\u0652\u062a\u064f\u060c \u0641\u064e\u0630\u064e\u0647\u064e\u0628\u064e \u0639\u064e\u0627\u0635\u0650\u064a\u064b\u0627 \u0641\u0650\u064a \u0637\u064e\u0631\u0650\u064a\u0642\u0650 \u0642\u064e\u0644\u0652\u0628\u0650\u0647\u0650."
        },
        {
            "chapter": 57,
            "verse": 18,
            "name": "Isaiah 57:18",
            "text": "\u0631\u064e\u0623\u064e\u064a\u0652\u062a\u064f \u0637\u064f\u0631\u064f\u0642\u064e\u0647\u064f \u0648\u064e\u0633\u064e\u0623\u064e\u0634\u0652\u0641\u0650\u064a\u0647\u0650 \u0648\u064e\u0623\u064e\u0642\u064f\u0648\u062f\u064f\u0647\u064f\u060c \u0648\u064e\u0623\u064e\u0631\u064f\u062f\u064f\u0651 \u062a\u064e\u0639\u0652\u0632\u0650\u064a\u064e\u0627\u062a\u064d \u0644\u064e\u0647\u064f \u0648\u064e\u0644\u0650\u0646\u064e\u0627\u0626\u0650\u062d\u0650\u064a\u0647\u0650"
        },
        {
            "chapter": 57,
            "verse": 19,
            "name": "Isaiah 57:19",
            "text": "\u062e\u064e\u0627\u0644\u0650\u0642\u064b\u0627 \u062b\u064e\u0645\u064e\u0631\u064e \u0627\u0644\u0634\u064e\u0651\u0641\u064e\u062a\u064e\u064a\u0652\u0646\u0650. \u0633\u064e\u0644\u0627\u064e\u0645\u064c \u0633\u064e\u0644\u0627\u064e\u0645\u064c \u0644\u0650\u0644\u0652\u0628\u064e\u0639\u0650\u064a\u062f\u0650 \u0648\u064e\u0644\u0650\u0644\u0652\u0642\u064e\u0631\u0650\u064a\u0628\u0650\u060c \u0642\u064e\u0627\u0644\u064e \u0627\u0644\u0631\u064e\u0651\u0628\u064f\u0651\u060c \u0648\u064e\u0633\u064e\u0623\u064e\u0634\u0652\u0641\u0650\u064a\u0647\u0650."
        },
        {
            "chapter": 57,
            "verse": 20,
            "name": "Isaiah 57:20",
            "text": "\u0623\u064e\u0645\u064e\u0651\u0627 \u0627\u0644\u0623\u064e\u0634\u0652\u0631\u064e\u0627\u0631\u064f \u0641\u064e\u0643\u064e\u0627\u0644\u0652\u0628\u064e\u062d\u0652\u0631\u0650 \u0627\u0644\u0652\u0645\u064f\u0636\u0652\u0637\u064e\u0631\u0650\u0628\u0650 \u0644\u0623\u064e\u0646\u064e\u0651\u0647\u064f \u0644\u0627\u064e \u064a\u064e\u0633\u0652\u062a\u064e\u0637\u0650\u064a\u0639\u064f \u0623\u064e\u0646\u0652 \u064a\u064e\u0647\u0652\u062f\u064e\u0623\u064e\u060c \u0648\u064e\u062a\u064e\u0642\u0652\u0630\u0650\u0641\u064f \u0645\u0650\u064a\u064e\u0627\u0647\u064f\u0647\u064f \u062d\u064e\u0645\u0652\u0623\u064e\u0629\u064b \u0648\u064e\u0637\u0650\u064a\u0646\u064b\u0627."
        },
        {
            "chapter": 57,
            "verse": 21,
            "name": "Isaiah 57:21",
            "text": "\u0644\u064e\u064a\u0652\u0633\u064e \u0633\u064e\u0644\u0627\u064e\u0645\u064c\u060c \u0642\u064e\u0627\u0644\u064e \u0625\u0650\u0644\u0647\u0650\u064a\u060c \u0644\u0650\u0644\u0623\u064e\u0634\u0652\u0631\u064e\u0627\u0631\u0650. "
        }
    ]
}