{
    "translation": "Masoretic Text parallel to the Samaritan Pentateuch",
    "abbreviation": "spmt",
    "lang": "he",
    "language": "Hebrew",
    "direction": "RTL",
    "encoding": "UTF-8",
    "book_nr": 28,
    "book_name": "Hosea",
    "chapter": 3,
    "name": "Hosea 3",
    "verses": [
        {
            "chapter": 3,
            "verse": 1,
            "name": "Hosea 3:1",
            "text": ""
        },
        {
            "chapter": 3,
            "verse": 2,
            "name": "Hosea 3:2",
            "text": ""
        },
        {
            "chapter": 3,
            "verse": 3,
            "name": "Hosea 3:3",
            "text": ""
        },
        {
            "chapter": 3,
            "verse": 4,
            "name": "Hosea 3:4",
            "text": ""
        },
        {
            "chapter": 3,
            "verse": 5,
            "name": "Hosea 3:5",
            "text": ""
        }
    ]
}