{
    "translation": "New Heart English Bible: Messianic Edition",
    "abbreviation": "nhebme",
    "lang": "en",
    "language": "English",
    "direction": "LTR",
    "encoding": "UTF-8",
    "book_nr": 19,
    "book_name": "Psalms",
    "chapter": 97,
    "name": "Psalms 97",
    "verses": [
        {
            "chapter": 97,
            "verse": 1,
            "name": "Psalms 97:1",
            "text": "The Lord reigns! Let the earth rejoice! Let the multitude of islands be glad! "
        },
        {
            "chapter": 97,
            "verse": 2,
            "name": "Psalms 97:2",
            "text": "Clouds and darkness are around him. Righteousness and justice are the foundation of his throne. "
        },
        {
            "chapter": 97,
            "verse": 3,
            "name": "Psalms 97:3",
            "text": "A fire goes before him, and burns up his adversaries on every side. "
        },
        {
            "chapter": 97,
            "verse": 4,
            "name": "Psalms 97:4",
            "text": "His lightning lights up the world. The earth sees, and trembles. "
        },
        {
            "chapter": 97,
            "verse": 5,
            "name": "Psalms 97:5",
            "text": "The mountains melt like wax at the presence of the Lord, at the presence of the Lord of the whole earth. "
        },
        {
            "chapter": 97,
            "verse": 6,
            "name": "Psalms 97:6",
            "text": "The heavens declare his righteousness. All the peoples have seen his glory. "
        },
        {
            "chapter": 97,
            "verse": 7,
            "name": "Psalms 97:7",
            "text": "Let all them be shamed who serve engraved images, who boast in their idols. Worship him, all you gods! "
        },
        {
            "chapter": 97,
            "verse": 8,
            "name": "Psalms 97:8",
            "text": "Zion heard and was glad. The daughters of Judah rejoiced, because of your judgments, Lord. "
        },
        {
            "chapter": 97,
            "verse": 9,
            "name": "Psalms 97:9",
            "text": "For you, Lord, are most high above all the earth. You are exalted far above all gods. "
        },
        {
            "chapter": 97,
            "verse": 10,
            "name": "Psalms 97:10",
            "text": "You who love the Lord, hate evil. He preserves the souls of his holy ones. He delivers them out of the hand of the wicked. "
        },
        {
            "chapter": 97,
            "verse": 11,
            "name": "Psalms 97:11",
            "text": "Light is sown for the righteous, and gladness for the upright in heart. "
        },
        {
            "chapter": 97,
            "verse": 12,
            "name": "Psalms 97:12",
            "text": "Be glad in the Lord, you righteous people! Give thanks to his holy Name.  "
        }
    ]
}