{
    "translation": "Sveto pismo Kralja Jakoba (1769)",
    "abbreviation": "slokjva",
    "lang": "sl",
    "language": "Slovene",
    "direction": "LTR",
    "encoding": "UTF-8",
    "book_nr": 59,
    "book_name": "James",
    "chapter": 2,
    "name": "James 2",
    "verses": [
        {
            "chapter": 2,
            "verse": 1,
            "name": "James 2:1",
            "text": "Moji bratje, vere na\u0161ega Gospoda Jezusa Kristusa, Gospoda slave, ne imejte z oziranjem na osebe. "
        },
        {
            "chapter": 2,
            "verse": 2,
            "name": "James 2:2",
            "text": "Kajti \u010de pride v va\u0161 zbor mo\u017e z zlatim prstanom ter \u010dedno obleko in pride tudi reve\u017e v grdem obla\u010dilu; "
        },
        {
            "chapter": 2,
            "verse": 3,
            "name": "James 2:3",
            "text": "vi pa se ozirate k tistemu, ki nosi elegantno obla\u010dilo ter mu re\u010dete: \"S\u00e9di tukaj na dobro mesto;\" revnemu pa re\u010dete: \"Stoj tukaj ali s\u00e9di tukaj pod mojo pru\u010dko:\" "
        },
        {
            "chapter": 2,
            "verse": 4,
            "name": "James 2:4",
            "text": "ali niste potem v sebi pristranski in ste postali sodniki s hudobnimi mislimi? "
        },
        {
            "chapter": 2,
            "verse": 5,
            "name": "James 2:5",
            "text": "Poslu\u0161ajte, moji ljubljeni bratje: \"Ali ni Bog izbral revnih tega sveta, bogatih v veri in dedi\u010dev kraljestva, katerega je obljubil tem, ki ga ljubijo?\" "
        },
        {
            "chapter": 2,
            "verse": 6,
            "name": "James 2:6",
            "text": "Toda vi ste prezirali revnega. Ali vas ne zatirajo bogata\u0161i in vas vle\u010dejo pred sodne stole? "
        },
        {
            "chapter": 2,
            "verse": 7,
            "name": "James 2:7",
            "text": "Ali ne preklinjajo tega vrednega imena po katerem ste poklicani? "
        },
        {
            "chapter": 2,
            "verse": 8,
            "name": "James 2:8",
            "text": "\u010ce izpolnjujete kraljevsko postavo glede pisma: \"Svojega bli\u017enjega bo\u0161 ljubil kakor samega sebe,\" delate pravilno: "
        },
        {
            "chapter": 2,
            "verse": 9,
            "name": "James 2:9",
            "text": "toda \u010de se ozirate na osebe, storite greh in ste po postavi prepri\u010devani kot prestopniki. "
        },
        {
            "chapter": 2,
            "verse": 10,
            "name": "James 2:10",
            "text": "Kajti kdorkoli se bo dr\u017eal celotne postave in se vendar prekr\u0161i v eni to\u010dki, je kriv vseh. "
        },
        {
            "chapter": 2,
            "verse": 11,
            "name": "James 2:11",
            "text": "Kajti kdor je rekel: \"Ne zagre\u0161i zakonolomstva,\" je rekel tudi: \"Ne ubij.\" Torej \u010de ne zagre\u0161i\u0161 zakonolomstva, vendar \u010de ubije\u0161, si postal prestopnik postave. "
        },
        {
            "chapter": 2,
            "verse": 12,
            "name": "James 2:12",
            "text": "Tako govorite in tako delajte, kakor tisti, ki bodo sojeni po postavi svobode. "
        },
        {
            "chapter": 2,
            "verse": 13,
            "name": "James 2:13",
            "text": "Kajti tisti, ki ni pokazal nobenega usmiljenja, bo prejel sodbo brez usmiljenja; in usmiljenje se razveseljuje zoper sodbo. "
        },
        {
            "chapter": 2,
            "verse": 14,
            "name": "James 2:14",
            "text": "Kaj to koristi, moji bratje, \u010detudi \u010dlovek re\u010de, [da] ima vero, nima pa del? Ali ga lahko vera re\u0161i? "
        },
        {
            "chapter": 2,
            "verse": 15,
            "name": "James 2:15",
            "text": "\u010ce sta brat ali sestra naga in brez dnevne hrane, "
        },
        {
            "chapter": 2,
            "verse": 16,
            "name": "James 2:16",
            "text": "pa jima kdo izmed vas re\u010de: \"Odidita v miru, bodita  ogreta in nasi\u010dena;\" \u010deprav jima ne daste teh stvari, ki so potrebne telesu; kaj to koristi? "
        },
        {
            "chapter": 2,
            "verse": 17,
            "name": "James 2:17",
            "text": "Prav tako vera, \u010de ta nima del, je sama zase mrtva. "
        },
        {
            "chapter": 2,
            "verse": 18,
            "name": "James 2:18",
            "text": "Da, \u010dlovek lahko re\u010de: \"Ti ima\u0161 vero, jaz pa imam dela: poka\u017ei mi svojo vero brez svojih del in pokazal ti bom mojo vero iz mojih del. "
        },
        {
            "chapter": 2,
            "verse": 19,
            "name": "James 2:19",
            "text": "Ti veruje\u0161, da obstaja en Bog; pravilno ravna\u0161: tudi hudi\u010di verujejo in trepetajo.\" "
        },
        {
            "chapter": 2,
            "verse": 20,
            "name": "James 2:20",
            "text": "Toda ho\u010de\u0161 spoznati, oh prazni \u010dlovek, da je vera brez del mrtva? "
        },
        {
            "chapter": 2,
            "verse": 21,
            "name": "James 2:21",
            "text": "Ali ni bil na\u0161 o\u010de Abraham opravi\u010den z deli, ko je na oltarju daroval Izaka, svojega sina? "
        },
        {
            "chapter": 2,
            "verse": 22,
            "name": "James 2:22",
            "text": "Vidi\u0161 kako je vera sodelovala z njegovimi deli in je vera z deli postala popolna? "
        },
        {
            "chapter": 2,
            "verse": 23,
            "name": "James 2:23",
            "text": "Izpolnjeno pa je bilo pismo, ki pravi: 'Abraham je veroval Bogu in to mu je bilo pripisano v pravi\u010dnost:' in imenovan je bil: \"Bo\u017eji prijatelj.\" "
        },
        {
            "chapter": 2,
            "verse": 24,
            "name": "James 2:24",
            "text": "Vidite torej kako, da je \u010dlovek opravi\u010den z deli in ne samo iz vere. "
        },
        {
            "chapter": 2,
            "verse": 25,
            "name": "James 2:25",
            "text": "Ali ni bila prav tako tudi pocestnica Rah\u00e1ba opravi\u010dena z deli, ko je sprejela poslanca in ju odposlala [po] drugi poti? "
        },
        {
            "chapter": 2,
            "verse": 26,
            "name": "James 2:26",
            "text": "Kajti kakor je telo brez duha mrtvo, tako je tudi vera brez del mrtva. "
        }
    ]
}