{
    "translation": "Martin (1744)",
    "abbreviation": "martin",
    "lang": "fr",
    "language": "French",
    "direction": "LTR",
    "encoding": "UTF-8",
    "book_nr": 24,
    "book_name": "Jeremiah",
    "chapter": 43,
    "name": "Jeremiah 43",
    "verses": [
        {
            "chapter": 43,
            "verse": 1,
            "name": "Jeremiah 43:1",
            "text": " Or il arriva qu'aussit\u00f4t que J\u00e9r\u00e9mie eut achev\u00e9 de prononcer \u00e0 tout le peuple toutes les paroles de l'Eternel leur Dieu, pour lesquelles l'Eternel leur Dieu l'avait envoy\u00e9 vers eux, savoir toutes ces choses-l\u00e0 ;"
        },
        {
            "chapter": 43,
            "verse": 2,
            "name": "Jeremiah 43:2",
            "text": "Hazaria fils de Hosahja, et Johanan fils de Kar\u00e9ah, et tous ces hommes fiers, dirent \u00e0 J\u00e9r\u00e9mie : tu prof\u00e8res des mensonges ; l'Eternel notre Dieu ne t'a pas envoy\u00e9 nous dire : n'entrez point en Egypte pour y s\u00e9journer."
        },
        {
            "chapter": 43,
            "verse": 3,
            "name": "Jeremiah 43:3",
            "text": "Mais Baruc fils de N\u00e9rija t'incite contre nous, afin de nous livrer entre les mains des Cald\u00e9ens, pour nous faire mourir, et pour nous faire transporter \u00e0 Babylone."
        },
        {
            "chapter": 43,
            "verse": 4,
            "name": "Jeremiah 43:4",
            "text": "Ainsi Johanan fils de Kar\u00e9ah, et tous les Capitaines des gens de guerre, et tout le peuple n'\u00e9cout\u00e8rent point la voix de l'Eternel, pour demeurer au pays de Juda."
        },
        {
            "chapter": 43,
            "verse": 5,
            "name": "Jeremiah 43:5",
            "text": "Car Johanan fils de Kar\u00e9ah, et tous les Capitaines des gens de guerre prirent tout le r\u00e9sidu de ceux de Juda qui \u00e9taient retourn\u00e9s de toutes les nations, parmi lesquelles ils avaient \u00e9t\u00e9 chass\u00e9s, pour demeurer dans le pays de Juda ;"
        },
        {
            "chapter": 43,
            "verse": 6,
            "name": "Jeremiah 43:6",
            "text": "Les hommes, et les femmes, et les enfants, et les filles du Roi, et toutes les personnes que N\u00e9buzar-adan pr\u00e9v\u00f4t de l'h\u00f4tel avait laiss\u00e9es avec Gu\u00e9dalia fils d'Ahikam, fils de Saphan ; ils prirent aussi J\u00e9r\u00e9mie le Proph\u00e8te, et Baruc fils de N\u00e9rija ;"
        },
        {
            "chapter": 43,
            "verse": 7,
            "name": "Jeremiah 43:7",
            "text": "Et ils entr\u00e8rent au pays d'Egypte, car ils n'ob\u00e9irent point \u00e0 la voix de l'Eternel ; et ils vinrent jusqu'\u00e0 Taphn\u00e9s."
        },
        {
            "chapter": 43,
            "verse": 8,
            "name": "Jeremiah 43:8",
            "text": "Alors la parole de l'Eternel fut adress\u00e9e \u00e0 J\u00e9r\u00e9mie dans Taphn\u00e9s, en disant :"
        },
        {
            "chapter": 43,
            "verse": 9,
            "name": "Jeremiah 43:9",
            "text": "Prends en ta main de grosses pierres, et les cache dans l'argile, en la tuilerie qui est \u00e0 l'entr\u00e9e de la maison de Pharaon \u00e0 Taphn\u00e9s, les Juifs le voyant ;"
        },
        {
            "chapter": 43,
            "verse": 10,
            "name": "Jeremiah 43:10",
            "text": "Et leur dis : Ainsi a dit l'Eternel des arm\u00e9es, le Dieu d'Isra\u00ebl : voici, je m'en vais mander et faire venir N\u00e9bucadnetsar Roi de Babylone mon serviteur, et je mettrai son tr\u00f4ne sur ces pierres que j'ai cach\u00e9es, et il \u00e9tendra son pavillon sur elles ;"
        },
        {
            "chapter": 43,
            "verse": 11,
            "name": "Jeremiah 43:11",
            "text": "Et il viendra et frappera le pays d'Egypte. Ceux qui sont destin\u00e9s \u00e0 la mort, iront \u00e0 la mort ; et ceux qui sont destin\u00e9s \u00e0 la captivit\u00e9, iront en captivit\u00e9 ; et ceux qui sont destin\u00e9s \u00e0 l'\u00e9p\u00e9e, seront livr\u00e9s \u00e0 l'\u00e9p\u00e9e."
        },
        {
            "chapter": 43,
            "verse": 12,
            "name": "Jeremiah 43:12",
            "text": "Et j'allumerai le feu dans les maisons des dieux d'Egypte, et N\u00e9bucadnetsar les br\u00fblera, et il emm\u00e8nera captifs ceux d'Egypte, et il se parera des richesses du pays d'Egypte, comme le pasteur s'enveloppe de son v\u00eatement, et il en sortira en paix."
        },
        {
            "chapter": 43,
            "verse": 13,
            "name": "Jeremiah 43:13",
            "text": "Il brisera aussi les statues de la maison du soleil qui est au pays d'Egypte, et br\u00fblera au feu les maisons des dieux d'Egypte."
        }
    ]
}