{
    "translation": "Revised King James New Testament",
    "abbreviation": "rkjnt",
    "lang": "en",
    "language": "English",
    "direction": "LTR",
    "encoding": "",
    "book_nr": 54,
    "book_name": "1 Timothy",
    "chapter": 1,
    "name": "1 Timothy 1",
    "verses": [
        {
            "chapter": 1,
            "verse": 1,
            "name": "1 Timothy 1:1",
            "text": "Paul, an apostle of Christ Jesus by the commandment of God our Saviour, and of Jesus Christ, our hope;"
        },
        {
            "chapter": 1,
            "verse": 2,
            "name": "1 Timothy 1:2",
            "text": "To Timothy, my true son in the faith: Grace, mercy, and peace, from God our Father and Christ Jesus our Lord."
        },
        {
            "chapter": 1,
            "verse": 3,
            "name": "1 Timothy 1:3",
            "text": "As I urged you when I went to Macedonia, remain at Ephesus, that you might warn certain men not to teach any other doctrine,"
        },
        {
            "chapter": 1,
            "verse": 4,
            "name": "1 Timothy 1:4",
            "text": "Nor to give heed to myths and endless genealogies, which promote useless speculation, rather than godly training, which is by faith."
        },
        {
            "chapter": 1,
            "verse": 5,
            "name": "1 Timothy 1:5",
            "text": "Now the aim of this commandment is love from a pure heart, and a good conscience, and a sincere faith:"
        },
        {
            "chapter": 1,
            "verse": 6,
            "name": "1 Timothy 1:6",
            "text": "From which some have swerved, turning aside to vain discussion;"
        },
        {
            "chapter": 1,
            "verse": 7,
            "name": "1 Timothy 1:7",
            "text": "Desiring to be teachers of the law; but understanding neither what they say, nor the matters about which they make such confident assertions."
        },
        {
            "chapter": 1,
            "verse": 8,
            "name": "1 Timothy 1:8",
            "text": "But we know that the law is good, if a man uses it lawfully;"
        },
        {
            "chapter": 1,
            "verse": 9,
            "name": "1 Timothy 1:9",
            "text": "Understanding this, that the law is not made for a righteous man, but for the lawless and disobedient, for the ungodly and for sinners, for unholy and profane, for murderers of fathers and murderers of mothers, for manslayers,"
        },
        {
            "chapter": 1,
            "verse": 10,
            "name": "1 Timothy 1:10",
            "text": "For adulterers, for those who defile themselves with men, for kidnappers, for liars, for perjurers, and for whatever else is contrary to sound doctrine;"
        },
        {
            "chapter": 1,
            "verse": 11,
            "name": "1 Timothy 1:11",
            "text": "According to the glorious gospel of the blessed God, which was committed to my trust."
        },
        {
            "chapter": 1,
            "verse": 12,
            "name": "1 Timothy 1:12",
            "text": "And I thank Christ Jesus our Lord, who has strengthened me, for he counted me faithful, putting me into the ministry;"
        },
        {
            "chapter": 1,
            "verse": 13,
            "name": "1 Timothy 1:13",
            "text": "Though I was formerly a blasphemer, and a persecutor, and a violent man: but I obtained mercy, because I did it ignorantly in unbelief."
        },
        {
            "chapter": 1,
            "verse": 14,
            "name": "1 Timothy 1:14",
            "text": "And the grace of our Lord overflowed for me, along with the faith and love which are in Christ Jesus."
        },
        {
            "chapter": 1,
            "verse": 15,
            "name": "1 Timothy 1:15",
            "text": "This is a trustworthy saying, and worthy of full acceptance, that Christ Jesus came into the world to save sinners; of whom I am the foremost."
        },
        {
            "chapter": 1,
            "verse": 16,
            "name": "1 Timothy 1:16",
            "text": "Yet for this reason I obtained mercy, that in me as the foremost, Jesus Christ might show forth his unlimited patience, as a pattern for those who would believe in him for eternal life."
        },
        {
            "chapter": 1,
            "verse": 17,
            "name": "1 Timothy 1:17",
            "text": "Now to the King eternal, immortal, invisible, the only God, be honour and glory for ever and ever. Amen."
        },
        {
            "chapter": 1,
            "verse": 18,
            "name": "1 Timothy 1:18",
            "text": "This charge I commit to you, son Timothy, according to the prophecies once made about you, that by them you might fight the good fight;"
        },
        {
            "chapter": 1,
            "verse": 19,
            "name": "1 Timothy 1:19",
            "text": "Holding on to faith and a good conscience; which some have rejected and so shipwrecked their faith:"
        },
        {
            "chapter": 1,
            "verse": 20,
            "name": "1 Timothy 1:20",
            "text": "Among whom are Hymenaeus and Alexander; whom I have delivered to Satan, that they may learn not to blaspheme."
        }
    ]
}