{
    "translation": "Studentm\u00e5llagsbibelen fr\u00e5 1921",
    "abbreviation": "norsmb",
    "lang": "nn",
    "language": "Norwegian nynorsk",
    "direction": "LTR",
    "encoding": "UTF-8",
    "book_nr": 33,
    "book_name": "Micah",
    "chapter": 2,
    "name": "Micah 2",
    "verses": [
        {
            "chapter": 2,
            "verse": 1,
            "name": "Micah 2:1",
            "text": "Us\u00e6le dei som tenkjer ut urett og fyrebur vondt, med dei ligg p\u00e5 lega si. Straks det lyser av dag, set dei det i verk! for di det stend i deira magt."
        },
        {
            "chapter": 2,
            "verse": 2,
            "name": "Micah 2:2",
            "text": "Og dei lystar etter annan manns \u00e5krar og ranar deim, etter hus og tek deim. Dei gjer vald b\u00e5de mot mannen og huset hans, b\u00e5de mot bonden og eigedomen hans."
        },
        {
            "chapter": 2,
            "verse": 3,
            "name": "Micah 2:3",
            "text": "Difor taler Herren soleis: Sj\u00e5, eg vil tenkja ut det som vondt er imot denne \u00e6tti, og de skal ikkje f\u00e5 til \u00e5 smetta halsarne dykkar utor eller ganga so bratte i nakken heretter. For det vert ei vond tid."
        },
        {
            "chapter": 2,
            "verse": 4,
            "name": "Micah 2:4",
            "text": "Den dagen skal sume kveda ei nidvisa um dykk og sume syngja ein syrgjesong, og dei skal segja: \u00abNo er det slutt,\u00bb segjer dei, \u00abreint til avgrunns me gjekk. No skifter han arven ut som folket mitt fekk. Sj\u00e5, kor han tek han ifr\u00e5 meg! Gardarne v\u00e5re no eiga skal folk som burt ifr\u00e5 Herren fall.\u00bb"
        },
        {
            "chapter": 2,
            "verse": 5,
            "name": "Micah 2:5",
            "text": "So skal du ingen hava som strekkjer m\u00e6letr\u00e5d kring jord i Herrens lyd."
        },
        {
            "chapter": 2,
            "verse": 6,
            "name": "Micah 2:6",
            "text": "\u00abHaldt upp med denne preikingi!\u00bb So preikar dei. \u00abUm slikt skal dei ikkje preika! Det er d\u00e5 ikkje m\u00e5te p\u00e5 h\u00e6dingsord!\u00bb"
        },
        {
            "chapter": 2,
            "verse": 7,
            "name": "Micah 2:7",
            "text": "Er dette s\u00f8meleg tale, du Jakobs hus? Er Herren kanskje br\u00e5lyndt? Hev gjerningarne hans synt noko slikt? Er ikkje mykje heller ordi mine gode imot den som fer reideleg \u00e5t?"
        },
        {
            "chapter": 2,
            "verse": 8,
            "name": "Micah 2:8",
            "text": "Men alt lenge hev no folket mitt reist seg imot meg som uvenerne mine: De dreg k\u00e5pa av kl\u00e6di p\u00e5 folk som fredsame gjeng vegen sin framum, og ikkje vil vita av strid."
        },
        {
            "chapter": 2,
            "verse": 9,
            "name": "Micah 2:9",
            "text": "Kvinnorne i folket mitt driv de ut ifr\u00e5 heimarne deira, som var gleda deira; fr\u00e5 borni deira tek de for alle tider prydnaden min."
        },
        {
            "chapter": 2,
            "verse": 10,
            "name": "Micah 2:10",
            "text": "Upp med dykk og gakk dykkar veg! For dette er ikkje nokon kvilestad, for den sulking skuld som valdar tyning, ja, skr\u00e6meleg tyning."
        },
        {
            "chapter": 2,
            "verse": 11,
            "name": "Micah 2:11",
            "text": "Kom ein med vind og svik og laug og sagde: \u00abEg vil preika for deg um vin og sterk drykk,\u00bb sj\u00e5 det vilde vera ein preikar for dette folket!"
        },
        {
            "chapter": 2,
            "verse": 12,
            "name": "Micah 2:12",
            "text": "Samla, ja, samla vil eg deg, Jakob, so mange du er; sanka, ja, sanka eg leivningen av Israel. Eg vil f\u00f8ra deim saman som sauer til ei kvi, som ein buskap til sitt beite, so det vert dyn av menneskje."
        },
        {
            "chapter": 2,
            "verse": 13,
            "name": "Micah 2:13",
            "text": "Vegbr\u00f8ytaren fer fyre deim; dei bryt seg igjenom og stimar fram gjenom grindi og slepp ut; kongen deira fer fyre deim, og Herren er i brodden for deim. "
        }
    ]
}