{
    "translation": "Bible in Pohnpeian language",
    "abbreviation": "pohnpeian",
    "lang": "pon",
    "language": "Pohnpeian",
    "direction": "LTR",
    "encoding": "UTF-8",
    "book_nr": 22,
    "book_name": "Song of Solomon",
    "chapter": 1,
    "name": "Song of Solomon 1",
    "verses": [
        {
            "chapter": 1,
            "verse": 1,
            "name": "Song of Solomon 1:1",
            "text": "En Solomon melkahka me keieu kaselel. Liho   "
        },
        {
            "chapter": 1,
            "verse": 2,
            "name": "Song of Solomon 1:2",
            "text": "Komw kin metik wasa koaros ni paliwereiet; omwi limpoak me inenen iou sang wain. "
        },
        {
            "chapter": 1,
            "verse": 3,
            "name": "Song of Solomon 1:3",
            "text": "Mwaromwi kin katamandohng ie pwohmwahu en kalepemwi; sohte lih emen kak katokihedi eh limpoakohng komwi. "
        },
        {
            "chapter": 1,
            "verse": 4,
            "name": "Song of Solomon 1:4",
            "text": "Komwi ketikiniehda, kita eri tangdoaui; komwi en wiahla ei nanmwarki oh ketikiniehla nan sapwellimomwi pere. Kita pahn pereperenpene, sak wain, oh kalakalapwungki ata limpoak. Iei me lih koaros kin limpoak kihong komwi! "
        },
        {
            "chapter": 1,
            "verse": 5,
            "name": "Song of Solomon 1:5",
            "text": "Lihen Serusalem kan, I me toantoal ahpw masamwahu, toantoal rasehng impwal kan nan sapwtehn en Kedar, ahpw kaselel rasehng kahdeng kaselel kan nan tehnpesen Solomon. "
        },
        {
            "chapter": 1,
            "verse": 6,
            "name": "Song of Solomon 1:6",
            "text": "Kumwail dehr wiahkin ie me I me sakanakan pwehki pohn kiliet, pwe karakar en ketipin me kahrehda. Riei ko me lingeringerda pahi oh itonehng ie I en doadoahk nan mwetin wain. Ihme kahrehda sohla ei ahnsoun apwalih paliwereiet. "
        },
        {
            "chapter": 1,
            "verse": 7,
            "name": "Song of Solomon 1:7",
            "text": "Ei mwohnlimpoak, ndahdo mahs, Ia wasa me komw pahn kamwenge ie noumwi sihpw kan? Ia wasa re pahn rukusang ie karakar en ketipin ninsouwas? Dahme I en rapahkinkomwihki nanpwungen silepen sihpw teikan?  Ohlo   "
        },
        {
            "chapter": 1,
            "verse": 8,
            "name": "Song of Solomon 1:8",
            "text": "Kowe me keieu kaselel nanpwaungen lih akan, ia duwe, ke sohte ese wasao? Idawehnowei pelin sihpwo; rapahkihda wasa me noumw kuht kan pahn mwenge ie limwahn impwal kan en silepen sihpw kan.   "
        },
        {
            "chapter": 1,
            "verse": 9,
            "name": "Song of Solomon 1:9",
            "text": "Kowe, ei mwohnlimpoak, ohl akan kin mwasimwasingkin uhk, 2 rasehng oahs wol akan ar kin inangih oahs lih kaselel me kin tangahki tehnweren Parao werennansapw en mahwen kan. "
        },
        {
            "chapter": 1,
            "verse": 10,
            "name": "Song of Solomon 1:10",
            "text": "Pitenmoangomw lingan pohn likin sepomw oh mwotoudi ni tepinweromw rasehng kisin takai kesempwal kan. "
        },
        {
            "chapter": 1,
            "verse": 11,
            "name": "Song of Solomon 1:11",
            "text": "Se pahn wiahiong uhk ehu elin sihn kohl me silper pahn kapwata.  Liho   "
        },
        {
            "chapter": 1,
            "verse": 12,
            "name": "Song of Solomon 1:12",
            "text": "Ei nanmwarki ketin kipekip nan mwoale, oh pwohmwahu en ei leh kipehdi wasa. "
        },
        {
            "chapter": 1,
            "verse": 13,
            "name": "Song of Solomon 1:13",
            "text": "Ei mwohnlimpoak pwohtik pwohmwahu en mir ni eh kipekip pohn ei dihdi kat. "
        },
        {
            "chapter": 1,
            "verse": 14,
            "name": "Song of Solomon 1:14",
            "text": "Ei mwohnlimpoak rasehng rohs en nansapw akan me kin masal nan mwetin wain kan nan Engkedi.  Ohlo   "
        },
        {
            "chapter": 1,
            "verse": 15,
            "name": "Song of Solomon 1:15",
            "text": "Ia uwen omw kaselel, ei mwohnlimpoak; ia uwen poaren mesomw kan eh lingalingki omw limpoak!  Liho   "
        },
        {
            "chapter": 1,
            "verse": 16,
            "name": "Song of Solomon 1:16",
            "text": "Soangen omwi silang mwahu, ei mwohnlimpoak; ia uwen omwi kin kaparanihiehda! Dihpw kan pahn wia ata peht; "
        },
        {
            "chapter": 1,
            "verse": 17,
            "name": "Song of Solomon 1:17",
            "text": "tuhke sidar me pahn wia lohlo en imwata, oh tuhke saiprus me pahn wia denso.    "
        }
    ]
}