{
    "translation": "Green's Modern King James Version",
    "abbreviation": "mkjv",
    "lang": "en",
    "language": "English",
    "direction": "LTR",
    "encoding": "",
    "book_nr": 19,
    "book_name": "Psalms",
    "chapter": 67,
    "name": "Psalms 67",
    "verses": [
        {
            "chapter": 67,
            "verse": 1,
            "name": "Psalms 67:1",
            "text": "To the Chief Musician. On stringed instruments. A Psalm. A Song. May God be merciful to us, and bless us, and cause His face to shine on us. Selah. "
        },
        {
            "chapter": 67,
            "verse": 2,
            "name": "Psalms 67:2",
            "text": "So that Your way may be known on earth, Your salvation among all nations. "
        },
        {
            "chapter": 67,
            "verse": 3,
            "name": "Psalms 67:3",
            "text": "Let the peoples praise You, O God; let all the peoples thank You. "
        },
        {
            "chapter": 67,
            "verse": 4,
            "name": "Psalms 67:4",
            "text": "O let the nations be glad and sing for joy; for You shall judge the peoples righteously and govern the nations on earth. Selah. "
        },
        {
            "chapter": 67,
            "verse": 5,
            "name": "Psalms 67:5",
            "text": "Let the peoples give thanks to You, O God; let all the peoples praise You. "
        },
        {
            "chapter": 67,
            "verse": 6,
            "name": "Psalms 67:6",
            "text": "The earth shall yield its increase; and God, our own God, shall bless us. "
        },
        {
            "chapter": 67,
            "verse": 7,
            "name": "Psalms 67:7",
            "text": "God shall bless us; and all the ends of the earth shall fear Him.  "
        }
    ]
}