{
  "translation": "Revised King James New Testament",
  "abbreviation": "rkjnt",
  "lang": "en",
  "language": "English",
  "direction": "LTR",
  "encoding": "",
  "nr": 53,
  "name": "2 Thessalonians",
  "chapters": [
    {
      "chapter": 1,
      "name": "2 Thessalonians 1",
      "verses": [
        {
          "chapter": 1,
          "verse": 1,
          "name": "2 Thessalonians 1:1",
          "text": "Paul, and Silvanus, and Timothy, to the church of the Thessalonians in God our Father and the Lord Jesus Christ:"
        },
        {
          "chapter": 1,
          "verse": 2,
          "name": "2 Thessalonians 1:2",
          "text": "Grace to you, and peace, from God our Father and the Lord Jesus Christ."
        },
        {
          "chapter": 1,
          "verse": 3,
          "name": "2 Thessalonians 1:3",
          "text": "We ought always to thank God for you, brethren, as is fitting, because your faith grows abundantly, and the love of every one of you for each other grows greater;"
        },
        {
          "chapter": 1,
          "verse": 4,
          "name": "2 Thessalonians 1:4",
          "text": "So that we ourselves boast of you in the churches of God for your steadfastness and faith in all the persecutions and tribulations which you endure:"
        },
        {
          "chapter": 1,
          "verse": 5,
          "name": "2 Thessalonians 1:5",
          "text": "Which is evidence of the righteous judgment of God, that you may be counted worthy of the kingdom of God, for which you suffer."
        },
        {
          "chapter": 1,
          "verse": 6,
          "name": "2 Thessalonians 1:6",
          "text": "It is a righteous thing for God to repay with affliction those who afflict you;"
        },
        {
          "chapter": 1,
          "verse": 7,
          "name": "2 Thessalonians 1:7",
          "text": "And to give rest to you who are afflicted, along with us, when the Lord Jesus shall be revealed from heaven with his mighty angels in flaming fire,"
        },
        {
          "chapter": 1,
          "verse": 8,
          "name": "2 Thessalonians 1:8",
          "text": "Taking vengeance on those who do not know God, and who do not obey the gospel of our Lord Jesus Christ."
        },
        {
          "chapter": 1,
          "verse": 9,
          "name": "2 Thessalonians 1:9",
          "text": "They shall be punished with eternal ruin and exclusion from the presence of the Lord, and from the glory of his power;"
        },
        {
          "chapter": 1,
          "verse": 10,
          "name": "2 Thessalonians 1:10",
          "text": "When he shall come to be glorified in his saints on that day, and to be marveled at among all those who believe, including you, because our testimony among you was believed."
        },
        {
          "chapter": 1,
          "verse": 11,
          "name": "2 Thessalonians 1:11",
          "text": "With this in mind we pray always for you, that our God may count you worthy of his calling, and would with power fulfill every good purpose and work of faith:"
        },
        {
          "chapter": 1,
          "verse": 12,
          "name": "2 Thessalonians 1:12",
          "text": "That the name of our Lord Jesus Christ may be glorified in you, and you in him, according to the grace of our God and the Lord Jesus Christ."
        }
      ]
    },
    {
      "chapter": 2,
      "name": "2 Thessalonians 2",
      "verses": [
        {
          "chapter": 2,
          "verse": 1,
          "name": "2 Thessalonians 2:1",
          "text": "Now, regarding the coming of our Lord Jesus Christ, and our being gathered to him, we ask you, brethren,"
        },
        {
          "chapter": 2,
          "verse": 2,
          "name": "2 Thessalonians 2:2",
          "text": "That you not be quickly shaken in mind, or alarmed, either by spirit, or by word, or by letter purporting to be from us, saying that the day of Christ is at hand."
        },
        {
          "chapter": 2,
          "verse": 3,
          "name": "2 Thessalonians 2:3",
          "text": "Let no man deceive you in any way: for that day shall not come, until there is first a falling away, and the man of lawlessness is revealed, the son of perdition;"
        },
        {
          "chapter": 2,
          "verse": 4,
          "name": "2 Thessalonians 2:4",
          "text": "Who opposes and exalts himself above all that is called God, or that is worshipped; so that he sits as God in the temple of God, proclaiming himself to be God."
        },
        {
          "chapter": 2,
          "verse": 5,
          "name": "2 Thessalonians 2:5",
          "text": "Do you not remember, that when I was yet with you, I told you these things?"
        },
        {
          "chapter": 2,
          "verse": 6,
          "name": "2 Thessalonians 2:6",
          "text": "And you know what restrains him now, that he might be revealed in his time."
        },
        {
          "chapter": 2,
          "verse": 7,
          "name": "2 Thessalonians 2:7",
          "text": "For the mystery of lawlessness is already at work: only he who now restrains it will do so, until he is taken out of the way."
        },
        {
          "chapter": 2,
          "verse": 8,
          "name": "2 Thessalonians 2:8",
          "text": "And then shall the lawless one be revealed, whom the Lord shall slay with the breath of his mouth, and shall destroy by the brightness of his coming."
        },
        {
          "chapter": 2,
          "verse": 9,
          "name": "2 Thessalonians 2:9",
          "text": "The coming of the lawless one is through the working of Satan, with all power and signs and lying wonders,"
        },
        {
          "chapter": 2,
          "verse": 10,
          "name": "2 Thessalonians 2:10",
          "text": "And with all wicked deception for those who perish; because they did not receive the love of the truth, that they might be saved."
        },
        {
          "chapter": 2,
          "verse": 11,
          "name": "2 Thessalonians 2:11",
          "text": "And for this reason God shall send them a strong delusion, that they should believe a lie:"
        },
        {
          "chapter": 2,
          "verse": 12,
          "name": "2 Thessalonians 2:12",
          "text": "That all those might be condemned who did not believe the truth, but took pleasure in unrighteousness."
        },
        {
          "chapter": 2,
          "verse": 13,
          "name": "2 Thessalonians 2:13",
          "text": "But we ought always to give thanks to God for you, brethren beloved of the Lord, because God has from the beginning chosen you for salvation through sanctification by the Spirit and belief in the truth:"
        },
        {
          "chapter": 2,
          "verse": 14,
          "name": "2 Thessalonians 2:14",
          "text": "To this he called you through our gospel, to obtain the glory of our Lord Jesus Christ."
        },
        {
          "chapter": 2,
          "verse": 15,
          "name": "2 Thessalonians 2:15",
          "text": "Therefore, brethren, stand fast, and hold to the traditions which you have been taught by us, whether by word, or by letter."
        },
        {
          "chapter": 2,
          "verse": 16,
          "name": "2 Thessalonians 2:16",
          "text": "Now may our Lord Jesus Christ himself, and God our Father, who has loved us, and has given us eternal comfort and good hope through grace,"
        },
        {
          "chapter": 2,
          "verse": 17,
          "name": "2 Thessalonians 2:17",
          "text": "Comfort your hearts, and establish you in every good work and word."
        }
      ]
    },
    {
      "chapter": 3,
      "name": "2 Thessalonians 3",
      "verses": [
        {
          "chapter": 3,
          "verse": 1,
          "name": "2 Thessalonians 3:1",
          "text": "Finally, brethren, pray for us, that the word of the Lord may spread rapidly, and be glorified, even as it did with you:"
        },
        {
          "chapter": 3,
          "verse": 2,
          "name": "2 Thessalonians 3:2",
          "text": "And that we may be delivered from wicked and evil men: for not all have faith."
        },
        {
          "chapter": 3,
          "verse": 3,
          "name": "2 Thessalonians 3:3",
          "text": "But the Lord is faithful, who shall establish you, and keep you from evil."
        },
        {
          "chapter": 3,
          "verse": 4,
          "name": "2 Thessalonians 3:4",
          "text": "And we have confidence in the Lord regarding you, that you are doing and will continue to do the things which we command."
        },
        {
          "chapter": 3,
          "verse": 5,
          "name": "2 Thessalonians 3:5",
          "text": "May the Lord direct your hearts into the love of God, and into the steadfastness of Christ."
        },
        {
          "chapter": 3,
          "verse": 6,
          "name": "2 Thessalonians 3:6",
          "text": "Now we command you, brethren, in the name of our Lord Jesus Christ, that you keep away from every brother who is idle and does not walk according to the tradition which you received from us."
        },
        {
          "chapter": 3,
          "verse": 7,
          "name": "2 Thessalonians 3:7",
          "text": "For you yourselves know how you ought to imitate us: for we were not idle among you;"
        },
        {
          "chapter": 3,
          "verse": 8,
          "name": "2 Thessalonians 3:8",
          "text": "Nor did we eat any man's bread without paying; but with labour and toil we worked night and day, that we might not be a burden to any of you:"
        },
        {
          "chapter": 3,
          "verse": 9,
          "name": "2 Thessalonians 3:9",
          "text": "Not because we do not have the right, but to make ourselves an example for you to follow."
        },
        {
          "chapter": 3,
          "verse": 10,
          "name": "2 Thessalonians 3:10",
          "text": "For even when we were with you, we gave you this command: if any will not work, neither shall he eat."
        },
        {
          "chapter": 3,
          "verse": 11,
          "name": "2 Thessalonians 3:11",
          "text": "For we hear that there are some among you who walk in idleness, not working at all, mere busybodies."
        },
        {
          "chapter": 3,
          "verse": 12,
          "name": "2 Thessalonians 3:12",
          "text": "Now those who are such we command and exhort by our Lord Jesus Christ, that they work quietly, and eat their own bread."
        },
        {
          "chapter": 3,
          "verse": 13,
          "name": "2 Thessalonians 3:13",
          "text": "But you, brethren, do not be weary in doing good."
        },
        {
          "chapter": 3,
          "verse": 14,
          "name": "2 Thessalonians 3:14",
          "text": "And if any man will not obey our instruction in this letter, note that man, and do not associate with him, that he may be ashamed."
        },
        {
          "chapter": 3,
          "verse": 15,
          "name": "2 Thessalonians 3:15",
          "text": "Yet do not count him as an enemy, but warn him as a brother."
        },
        {
          "chapter": 3,
          "verse": 16,
          "name": "2 Thessalonians 3:16",
          "text": "Now may the Lord of peace himself give you peace always in all ways. The Lord be with you all."
        },
        {
          "chapter": 3,
          "verse": 17,
          "name": "2 Thessalonians 3:17",
          "text": "I, Paul, write this greeting with my own hand, which is the mark of all my letters: this is the way I write."
        },
        {
          "chapter": 3,
          "verse": 18,
          "name": "2 Thessalonians 3:18",
          "text": "The grace of our Lord Jesus Christ be with you all."
        }
      ]
    }
  ]
}
