{
    "translation": "Green's Literal Translation",
    "abbreviation": "litv",
    "lang": "en",
    "language": "English",
    "direction": "LTR",
    "encoding": "",
    "book_nr": 54,
    "book_name": "1 Timothy",
    "chapter": 3,
    "name": "1 Timothy 3",
    "verses": [
        {
            "chapter": 3,
            "verse": 1,
            "name": "1 Timothy 3:1",
            "text": "Faithful is the Word: If anyone reaches out to overseership, he desires a good work. "
        },
        {
            "chapter": 3,
            "verse": 2,
            "name": "1 Timothy 3:2",
            "text": "Then it behooves the overseer to be blameless, husband of one wife, temperate, sensible, well-ordered, hospitable, apt at teaching; "
        },
        {
            "chapter": 3,
            "verse": 3,
            "name": "1 Timothy 3:3",
            "text": "not a drinker, not a contentious one, not greedy of ill gain, but gentle, not quarrelsome, not loving money; "
        },
        {
            "chapter": 3,
            "verse": 4,
            "name": "1 Timothy 3:4",
            "text": "ruling his own house well, having children in subjection with all respect. "
        },
        {
            "chapter": 3,
            "verse": 5,
            "name": "1 Timothy 3:5",
            "text": "But if anyone does not know to rule his own house, how will he care for a church of God? "
        },
        {
            "chapter": 3,
            "verse": 6,
            "name": "1 Timothy 3:6",
            "text": " He should not be a novice, lest being puffed up he may fall into the Devil's judgment. "
        },
        {
            "chapter": 3,
            "verse": 7,
            "name": "1 Timothy 3:7",
            "text": "But he must also have a good witness from those outside, that he not fall into reproach and into a snare of the Devil.   "
        },
        {
            "chapter": 3,
            "verse": 8,
            "name": "1 Timothy 3:8",
            "text": "Likewise, deacons to be reverent, not double-tongued, not addicted to much wine, not greedy of ill gain, "
        },
        {
            "chapter": 3,
            "verse": 9,
            "name": "1 Timothy 3:9",
            "text": "having the mystery of the faith with a pure conscience. "
        },
        {
            "chapter": 3,
            "verse": 10,
            "name": "1 Timothy 3:10",
            "text": "And also let these be tested first, then let them serve, being without reproach. "
        },
        {
            "chapter": 3,
            "verse": 11,
            "name": "1 Timothy 3:11",
            "text": "Likewise, their wives to be reverent, not slanderers, temperate, faithful in all things. "
        },
        {
            "chapter": 3,
            "verse": 12,
            "name": "1 Timothy 3:12",
            "text": "Let deacons be husbands of one wife, ruling their own households and children well. "
        },
        {
            "chapter": 3,
            "verse": 13,
            "name": "1 Timothy 3:13",
            "text": "For those having served well gain a good grade for themselves and much boldness in faith, those in Christ Jesus.   "
        },
        {
            "chapter": 3,
            "verse": 14,
            "name": "1 Timothy 3:14",
            "text": "I write these things to you, hoping to come to you shortly. "
        },
        {
            "chapter": 3,
            "verse": 15,
            "name": "1 Timothy 3:15",
            "text": "But if I delay, that you may know how to behave in the house of God, which is the church of the living God, the pillar and foundation of the truth. "
        },
        {
            "chapter": 3,
            "verse": 16,
            "name": "1 Timothy 3:16",
            "text": "And confessedly, great is the mystery of godliness: God was manifested in flesh, was justified in Spirit, was seen by angels, was proclaimed among nations, was believed on in the world, was taken up in glory.  "
        }
    ]
}