{
    "translation": "Catholic Public Domain Version",
    "abbreviation": "cpdv",
    "lang": "en",
    "language": "English",
    "direction": "LTR",
    "encoding": "UTF-8",
    "book_nr": 13,
    "book_name": "1 Chronicles",
    "chapter": 1,
    "name": "1 Chronicles 1",
    "verses": [
        {
            "chapter": 1,
            "verse": 1,
            "name": "1 Chronicles 1:1",
            "text": "Adam, Seth, Enos,"
        },
        {
            "chapter": 1,
            "verse": 2,
            "name": "1 Chronicles 1:2",
            "text": "Cainan, Mahalalel, Jared,"
        },
        {
            "chapter": 1,
            "verse": 3,
            "name": "1 Chronicles 1:3",
            "text": "Enoch, Methuselah, Lamech,"
        },
        {
            "chapter": 1,
            "verse": 4,
            "name": "1 Chronicles 1:4",
            "text": "Noah, Shem, Ham, and Japheth."
        },
        {
            "chapter": 1,
            "verse": 5,
            "name": "1 Chronicles 1:5",
            "text": "The sons of Japheth: Gomer, and Magog, and Madai, and Javan, Tubal, Meshech, Tiras."
        },
        {
            "chapter": 1,
            "verse": 6,
            "name": "1 Chronicles 1:6",
            "text": "And the sons of Gomer: Ashkenaz, and Riphath, and Togarmah."
        },
        {
            "chapter": 1,
            "verse": 7,
            "name": "1 Chronicles 1:7",
            "text": "And the sons of Javan: Elishah and Tarshish, Kittim and Rodanim."
        },
        {
            "chapter": 1,
            "verse": 8,
            "name": "1 Chronicles 1:8",
            "text": "The sons of Ham: Cush, and Mizraim, and Put, and Canaan."
        },
        {
            "chapter": 1,
            "verse": 9,
            "name": "1 Chronicles 1:9",
            "text": "And the sons of Cush: Seba, and Havilah, Sabtah, and Raamah, and Sabteca. And the sons of Raamah: Sheba and Dadan."
        },
        {
            "chapter": 1,
            "verse": 10,
            "name": "1 Chronicles 1:10",
            "text": "Then Cush conceived Nimrod, and he began to be powerful upon the earth."
        },
        {
            "chapter": 1,
            "verse": 11,
            "name": "1 Chronicles 1:11",
            "text": "Truly, Mizraim conceived Ludim, and Anamim, and Lehabim, and Naphtuhim,"
        },
        {
            "chapter": 1,
            "verse": 12,
            "name": "1 Chronicles 1:12",
            "text": "as well as Pathrusim and Casluhim: from these the Philistines and the Caphtorim went forth."
        },
        {
            "chapter": 1,
            "verse": 13,
            "name": "1 Chronicles 1:13",
            "text": "Truly, Canaan conceived Sidon, his firstborn, as well as the Hittite,"
        },
        {
            "chapter": 1,
            "verse": 14,
            "name": "1 Chronicles 1:14",
            "text": "and the Jebusite, and the Amorite, and the Girgashite,"
        },
        {
            "chapter": 1,
            "verse": 15,
            "name": "1 Chronicles 1:15",
            "text": "and the Hivite, and the Arkite, and the Sinite,"
        },
        {
            "chapter": 1,
            "verse": 16,
            "name": "1 Chronicles 1:16",
            "text": "and also the Arvadian, and the Samarite, and the Hamathite."
        },
        {
            "chapter": 1,
            "verse": 17,
            "name": "1 Chronicles 1:17",
            "text": "The sons of Shem: Elam, and Asshur, and Arphaxad, and Lud, and Aram, and Uz, and Hul, and Gether, and Meshech."
        },
        {
            "chapter": 1,
            "verse": 18,
            "name": "1 Chronicles 1:18",
            "text": "Then Arphaxad conceived Shelah, who also himself conceived Eber."
        },
        {
            "chapter": 1,
            "verse": 19,
            "name": "1 Chronicles 1:19",
            "text": "And to Eber were born two sons. The name of one was Peleg, because in his days the earth was divided. And the name of his brother was Joktan."
        },
        {
            "chapter": 1,
            "verse": 20,
            "name": "1 Chronicles 1:20",
            "text": "Then Joktan conceived Almodad, and Sheleph, and Hazarmaveth, and Jerah,"
        },
        {
            "chapter": 1,
            "verse": 21,
            "name": "1 Chronicles 1:21",
            "text": "as well as Hadoram, and Uzal, and Diklah,"
        },
        {
            "chapter": 1,
            "verse": 22,
            "name": "1 Chronicles 1:22",
            "text": "and then Obal, and Abimael, and Sheba, indeed "
        },
        {
            "chapter": 1,
            "verse": 23,
            "name": "1 Chronicles 1:23",
            "text": "also Ophir, and Havilah, and Jobab. All these are the sons of Joktan."
        },
        {
            "chapter": 1,
            "verse": 24,
            "name": "1 Chronicles 1:24",
            "text": "Shem, Arphaxad, Shelah,"
        },
        {
            "chapter": 1,
            "verse": 25,
            "name": "1 Chronicles 1:25",
            "text": "Eber, Peleg, Reu,"
        },
        {
            "chapter": 1,
            "verse": 26,
            "name": "1 Chronicles 1:26",
            "text": "Serug, Nahor, Terah,"
        },
        {
            "chapter": 1,
            "verse": 27,
            "name": "1 Chronicles 1:27",
            "text": "Abram, the same is Abraham."
        },
        {
            "chapter": 1,
            "verse": 28,
            "name": "1 Chronicles 1:28",
            "text": "And the sons of Abraham: Isaac and Ishmael."
        },
        {
            "chapter": 1,
            "verse": 29,
            "name": "1 Chronicles 1:29",
            "text": "And these are their generations: the firstborn of Ishmael, Nebaioth, and then Kedar, and Adbeel, and Mibsam,"
        },
        {
            "chapter": 1,
            "verse": 30,
            "name": "1 Chronicles 1:30",
            "text": "and Mishma, and Dumah, Massa, Hadad, and Tema,"
        },
        {
            "chapter": 1,
            "verse": 31,
            "name": "1 Chronicles 1:31",
            "text": "Jetur, Naphish, Kedemah. These are the sons of Ishmael."
        },
        {
            "chapter": 1,
            "verse": 32,
            "name": "1 Chronicles 1:32",
            "text": "And the sons of Keturah, the concubine of Abraham, whom she conceived: Zimran, Jokshan, Medan, Midian, Ishbak, and Shuah. And the sons of Jokshan: Sheba and Dedan. And the sons of Dedan: Asshurim, and Letushim, and Leummim."
        },
        {
            "chapter": 1,
            "verse": 33,
            "name": "1 Chronicles 1:33",
            "text": "And the sons of Midian: Ephah, and Epher, and Hanoch, and Abida, and Eldaah. All these are the sons of Keturah."
        },
        {
            "chapter": 1,
            "verse": 34,
            "name": "1 Chronicles 1:34",
            "text": "Now Abraham conceived Isaac, whose sons were Esau and Israel."
        },
        {
            "chapter": 1,
            "verse": 35,
            "name": "1 Chronicles 1:35",
            "text": "The sons of Esau: Eliphaz, Reuel, Jeush, Jalam, and Korah."
        },
        {
            "chapter": 1,
            "verse": 36,
            "name": "1 Chronicles 1:36",
            "text": "The sons of Eliphaz: Teman, Omar, Zepho, Gatam, Kenez, and by Timna, Amalek."
        },
        {
            "chapter": 1,
            "verse": 37,
            "name": "1 Chronicles 1:37",
            "text": "The sons of Reuel: Nahath, Zerah, Shammah, Mizzah."
        },
        {
            "chapter": 1,
            "verse": 38,
            "name": "1 Chronicles 1:38",
            "text": "The sons of Seir: Lotan, Shobal, Zibeon, Anah, Dishon, Ezer, Dishan."
        },
        {
            "chapter": 1,
            "verse": 39,
            "name": "1 Chronicles 1:39",
            "text": "The sons of Lotan: Hori, Heman. Now the sister of Lotan was Timna."
        },
        {
            "chapter": 1,
            "verse": 40,
            "name": "1 Chronicles 1:40",
            "text": "The sons of Shobal: Alian, and Manahath, and Ebal, Shephi, and Onam. The sons of Zibeon: Aiah and Anah. The sons of Anah: Dishon."
        },
        {
            "chapter": 1,
            "verse": 41,
            "name": "1 Chronicles 1:41",
            "text": "The sons of Dishon: Hamran, and Esheban, and Ithran, and Cheran."
        },
        {
            "chapter": 1,
            "verse": 42,
            "name": "1 Chronicles 1:42",
            "text": "The sons of Ezer: Bilhan, and Zaavan, and Akan. The sons of Dishan: Uz and Aran."
        },
        {
            "chapter": 1,
            "verse": 43,
            "name": "1 Chronicles 1:43",
            "text": "Now these are the kings who reigned in the land of Edom, before there was a king over the sons of Israel: Bela, the son of Beor; and the name of his city was Dinhabah."
        },
        {
            "chapter": 1,
            "verse": 44,
            "name": "1 Chronicles 1:44",
            "text": "Then Bela died, and Jobab, the son of Zerah, from Bozrah, reigned in his place."
        },
        {
            "chapter": 1,
            "verse": 45,
            "name": "1 Chronicles 1:45",
            "text": "And when Jobab also had died, Husham, from the land of the Temanites, reigned in his place."
        },
        {
            "chapter": 1,
            "verse": 46,
            "name": "1 Chronicles 1:46",
            "text": "Then Husham also passed away, and Hadad, the son of Bedad, reigned in his place. And he struck the Midianites in the land of Moab. The name of his city was Avith."
        },
        {
            "chapter": 1,
            "verse": 47,
            "name": "1 Chronicles 1:47",
            "text": "And when Hadad also had died, Samlah from Masrekah reigned in his place."
        },
        {
            "chapter": 1,
            "verse": 48,
            "name": "1 Chronicles 1:48",
            "text": "Then Samlah also died, and Shaul from Rehoboth, which is situated beside a river, reigned in his place."
        },
        {
            "chapter": 1,
            "verse": 49,
            "name": "1 Chronicles 1:49",
            "text": "Shaul also having died, Baal-hanan, the son of Achbor, reigned in his place."
        },
        {
            "chapter": 1,
            "verse": 50,
            "name": "1 Chronicles 1:50",
            "text": "Then he too died, and Hadar reigned in his place. And the name of his city was Pau. And his wife was called Mehetabel, the daughter of Matred, the daughter of Mezahab."
        },
        {
            "chapter": 1,
            "verse": 51,
            "name": "1 Chronicles 1:51",
            "text": "And Hadar having died, there began to be commanders in Edom in place of kings: commander Thamna, commander Alvah, commander Jetheth,"
        },
        {
            "chapter": 1,
            "verse": 52,
            "name": "1 Chronicles 1:52",
            "text": "commander Oholibamah, commander Elah, commander Pinon,"
        },
        {
            "chapter": 1,
            "verse": 53,
            "name": "1 Chronicles 1:53",
            "text": "commander Kanez, commander Teman, commander Mibzar,"
        },
        {
            "chapter": 1,
            "verse": 54,
            "name": "1 Chronicles 1:54",
            "text": "commander Magdiel, commander Iram. These are the commanders of Edom. "
        }
    ]
}