{
    "translation": "Lithuanian",
    "abbreviation": "lithuanian",
    "lang": "lt",
    "language": "Lithuanian",
    "direction": "LTR",
    "encoding": "UTF-8",
    "book_nr": 2,
    "book_name": "Exodus",
    "chapter": 31,
    "name": "Exodus 31",
    "verses": [
        {
            "chapter": 31,
            "verse": 1,
            "name": "Exodus 31:1",
            "text": "Ir Vie\u0161pats kalb\u0117jo Mozei: "
        },
        {
            "chapter": 31,
            "verse": 2,
            "name": "Exodus 31:2",
            "text": "\u201eA\u0161 pa\u0161aukiau vardu H\u016bro s\u016bnaus \u016ario s\u016bn\u0173 Becalel\u012f i\u0161 Judo gimin\u0117s "
        },
        {
            "chapter": 31,
            "verse": 3,
            "name": "Exodus 31:3",
            "text": "ir j\u012f pripild\u017eiau Dievo dvasios, i\u0161minties, sumanumo, pa\u017einimo ir amato i\u0161manymo, "
        },
        {
            "chapter": 31,
            "verse": 4,
            "name": "Exodus 31:4",
            "text": "kad sugeb\u0117t\u0173 visk\u0105 padaryti i\u0161 aukso, sidabro, vario, "
        },
        {
            "chapter": 31,
            "verse": 5,
            "name": "Exodus 31:5",
            "text": "brangi\u0173 akmen\u0173 ir med\u017eio. "
        },
        {
            "chapter": 31,
            "verse": 6,
            "name": "Exodus 31:6",
            "text": "Daviau jam pad\u0117j\u0117j\u0105 Ahisamako s\u016bn\u0173 Oholiab\u0105 i\u0161 Dano gimin\u0117s; kiekvienam daviau i\u0161mint\u012f padaryti visk\u0105, apie k\u0105 tau kalb\u0117jau. "
        },
        {
            "chapter": 31,
            "verse": 7,
            "name": "Exodus 31:7",
            "text": "Jie padarys Susitikimo palapin\u0119, Liudijimo skryni\u0105, jos dangt\u012f ir visus palapin\u0117s reikmenis: "
        },
        {
            "chapter": 31,
            "verse": 8,
            "name": "Exodus 31:8",
            "text": "stal\u0105 su jo priedais, gryno aukso \u017evakid\u0119 su jos priedais, aukurus smilkymui "
        },
        {
            "chapter": 31,
            "verse": 9,
            "name": "Exodus 31:9",
            "text": "ir deginamosioms aukoms bei visus j\u0173 reikmenis, praustuv\u0119 su jos stovu, "
        },
        {
            "chapter": 31,
            "verse": 10,
            "name": "Exodus 31:10",
            "text": "tarnavimo apdarus ir \u0161ventus drabu\u017eius kunigui Aaronui ir jo s\u016bnums, kad b\u016bt\u0173 man kunigais, "
        },
        {
            "chapter": 31,
            "verse": 11,
            "name": "Exodus 31:11",
            "text": "patepimo aliej\u0173, kvepian\u010dius smilkalus \u0161ventyklai \u2013 visk\u0105, k\u0105 tau \u012fsakiau, jie padarys\u201c. "
        },
        {
            "chapter": 31,
            "verse": 12,
            "name": "Exodus 31:12",
            "text": "Vie\u0161pats toliau kalb\u0117jo Mozei: "
        },
        {
            "chapter": 31,
            "verse": 13,
            "name": "Exodus 31:13",
            "text": "\u201eKalb\u0117k izraelitams: \u2018Privalote laikytis sabato, nes tai yra \u017eenklas tarp man\u0119s ir j\u016bs\u0173 kart\u0173 kartoms, kad \u017einotum\u0117te, jog A\u0161 esu Vie\u0161pats, kuris jus pa\u0161ventinu. "
        },
        {
            "chapter": 31,
            "verse": 14,
            "name": "Exodus 31:14",
            "text": "Laikykit\u0117s sabato, nes jis \u0161ventas; kas j\u012f suter\u0161, turi mirti. Kas dirbs t\u0105 dien\u0105, bus i\u0161naikintas i\u0161 savo tautos. "
        },
        {
            "chapter": 31,
            "verse": 15,
            "name": "Exodus 31:15",
            "text": "\u0160e\u0161ias dienas dirbsite, o septintoji diena yra sabatas \u2013 poilsis, pa\u0161v\u0119stas Vie\u0161pa\u010diui. Kiekvienas, kuris dirbs sabato dien\u0105, turi mirti. "
        },
        {
            "chapter": 31,
            "verse": 16,
            "name": "Exodus 31:16",
            "text": "Izraelitai privalo laikytis sabato per visas savo kartas kaip am\u017einos sandoros "
        },
        {
            "chapter": 31,
            "verse": 17,
            "name": "Exodus 31:17",
            "text": "tarp man\u0119s ir Izraelio vaik\u0173. Nes Vie\u0161pats per \u0161e\u0161ias dienas suk\u016br\u0117 dang\u0173 ir \u017eem\u0119, o septint\u0105j\u0105 dien\u0105 ils\u0117josi ir atsigaivino\u2019\u201c. "
        },
        {
            "chapter": 31,
            "verse": 18,
            "name": "Exodus 31:18",
            "text": "Baig\u0119s kalb\u0117ti, Vie\u0161pats dav\u0117 Mozei ant Sinajaus kalno dvi akmenines liudijimo plok\u0161tes, para\u0161ytas Dievo pir\u0161tu.  "
        }
    ]
}