{
    "translation": "Open English Bible (US Spelling)",
    "abbreviation": "oeb",
    "lang": "en",
    "language": "English",
    "direction": "LTR",
    "encoding": "UTF-8",
    "book_nr": 26,
    "book_name": "Ezekiel",
    "chapter": 44,
    "name": "Ezekiel 44",
    "verses": [
        {
            "chapter": 44,
            "verse": 1,
            "name": "Ezekiel 44:1",
            "text": ""
        },
        {
            "chapter": 44,
            "verse": 2,
            "name": "Ezekiel 44:2",
            "text": ""
        },
        {
            "chapter": 44,
            "verse": 3,
            "name": "Ezekiel 44:3",
            "text": ""
        },
        {
            "chapter": 44,
            "verse": 4,
            "name": "Ezekiel 44:4",
            "text": ""
        },
        {
            "chapter": 44,
            "verse": 5,
            "name": "Ezekiel 44:5",
            "text": ""
        },
        {
            "chapter": 44,
            "verse": 6,
            "name": "Ezekiel 44:6",
            "text": ""
        },
        {
            "chapter": 44,
            "verse": 7,
            "name": "Ezekiel 44:7",
            "text": ""
        },
        {
            "chapter": 44,
            "verse": 8,
            "name": "Ezekiel 44:8",
            "text": ""
        },
        {
            "chapter": 44,
            "verse": 9,
            "name": "Ezekiel 44:9",
            "text": ""
        },
        {
            "chapter": 44,
            "verse": 10,
            "name": "Ezekiel 44:10",
            "text": ""
        },
        {
            "chapter": 44,
            "verse": 11,
            "name": "Ezekiel 44:11",
            "text": ""
        },
        {
            "chapter": 44,
            "verse": 12,
            "name": "Ezekiel 44:12",
            "text": ""
        },
        {
            "chapter": 44,
            "verse": 13,
            "name": "Ezekiel 44:13",
            "text": ""
        },
        {
            "chapter": 44,
            "verse": 14,
            "name": "Ezekiel 44:14",
            "text": ""
        },
        {
            "chapter": 44,
            "verse": 15,
            "name": "Ezekiel 44:15",
            "text": ""
        },
        {
            "chapter": 44,
            "verse": 16,
            "name": "Ezekiel 44:16",
            "text": ""
        },
        {
            "chapter": 44,
            "verse": 17,
            "name": "Ezekiel 44:17",
            "text": ""
        },
        {
            "chapter": 44,
            "verse": 18,
            "name": "Ezekiel 44:18",
            "text": ""
        },
        {
            "chapter": 44,
            "verse": 19,
            "name": "Ezekiel 44:19",
            "text": ""
        },
        {
            "chapter": 44,
            "verse": 20,
            "name": "Ezekiel 44:20",
            "text": ""
        },
        {
            "chapter": 44,
            "verse": 21,
            "name": "Ezekiel 44:21",
            "text": ""
        },
        {
            "chapter": 44,
            "verse": 22,
            "name": "Ezekiel 44:22",
            "text": ""
        },
        {
            "chapter": 44,
            "verse": 23,
            "name": "Ezekiel 44:23",
            "text": ""
        },
        {
            "chapter": 44,
            "verse": 24,
            "name": "Ezekiel 44:24",
            "text": ""
        },
        {
            "chapter": 44,
            "verse": 25,
            "name": "Ezekiel 44:25",
            "text": ""
        },
        {
            "chapter": 44,
            "verse": 26,
            "name": "Ezekiel 44:26",
            "text": ""
        },
        {
            "chapter": 44,
            "verse": 27,
            "name": "Ezekiel 44:27",
            "text": ""
        },
        {
            "chapter": 44,
            "verse": 28,
            "name": "Ezekiel 44:28",
            "text": ""
        },
        {
            "chapter": 44,
            "verse": 29,
            "name": "Ezekiel 44:29",
            "text": ""
        },
        {
            "chapter": 44,
            "verse": 30,
            "name": "Ezekiel 44:30",
            "text": ""
        },
        {
            "chapter": 44,
            "verse": 31,
            "name": "Ezekiel 44:31",
            "text": ""
        }
    ]
}