{
    "translation": "Svenska Karl XII:s Bibel (1873)",
    "abbreviation": "swekarlxii1873",
    "lang": "sv",
    "language": "Swedish",
    "direction": "LTR",
    "encoding": "UTF-8",
    "book_nr": 41,
    "book_name": "Mark",
    "chapter": 6,
    "name": "Mark 6",
    "verses": [
        {
            "chapter": 6,
            "verse": 1,
            "name": "Mark 6:1",
            "text": "Och han gick ut d\u00e4dan, och kom in uti sitt f\u00e4dernesland; och hans L\u00e4rjungar f\u00f6ljde honom."
        },
        {
            "chapter": 6,
            "verse": 2,
            "name": "Mark 6:2",
            "text": "Och n\u00e4r Sabbathen kom, begynte han l\u00e4ra i Synagogon; och m\u00e5nge, som det h\u00f6rde, f\u00f6rundrade sig storliga, s\u00e4gande: Hvadan kommer honom detta? Och hvad visdom \u00e4r denne, som honom gifven \u00e4r, och s\u00e5dana krafter, som ske igenom hans h\u00e4nder?"
        },
        {
            "chapter": 6,
            "verse": 3,
            "name": "Mark 6:3",
            "text": "\u00c4r icke denne den timbermannen, Marie Son, Jacobi broder, och Jose, och Jude och Simons? \u00c4ro ock icke hans systrar h\u00e4r n\u00e4r oss? Och de f\u00f6rargades p\u00e5 honom."
        },
        {
            "chapter": 6,
            "verse": 4,
            "name": "Mark 6:4",
            "text": "D\u00e5 sade Jesus till dem: En Prophet varder icke f\u00f6raktad, utan i sitt f\u00e4dernesland, och ibland sina fr\u00e4nder, och sitt folk."
        },
        {
            "chapter": 6,
            "verse": 5,
            "name": "Mark 6:5",
            "text": "Och han kunde der ingen kraft g\u00f6ra, utan det att han lade h\u00e4nderna p\u00e5 n\u00e5gra f\u00e5 sjuka, och botade dem."
        },
        {
            "chapter": 6,
            "verse": 6,
            "name": "Mark 6:6",
            "text": "Och han f\u00f6rundrade sig p\u00e5 deras otro; och han gick omkring i byarna allest\u00e4ds deromkring, och l\u00e4rde."
        },
        {
            "chapter": 6,
            "verse": 7,
            "name": "Mark 6:7",
            "text": "Och han kallade f\u00f6r sig de tolf, tog till att uts\u00e4nda dem, tv\u00e5 och tv\u00e5; gifvandes dem magt emot de orena andar;"
        },
        {
            "chapter": 6,
            "verse": 8,
            "name": "Mark 6:8",
            "text": "Och b\u00f6d dem, att de intet skulle taga med sig till v\u00e4gs, utan k\u00e4ppen allena; icke skr\u00e4ppo, icke br\u00f6d, inga penningar i pungen;"
        },
        {
            "chapter": 6,
            "verse": 9,
            "name": "Mark 6:9",
            "text": "Utan de skulle vara skodde; och att de icke skulle kl\u00e4da sig uti tv\u00e5 kjortlar;"
        },
        {
            "chapter": 6,
            "verse": 10,
            "name": "Mark 6:10",
            "text": "Och sade till dem: Hvar som helst I ing\u00e5n uti ett hus, blifven der, tilldess I dragen d\u00e4dan."
        },
        {
            "chapter": 6,
            "verse": 11,
            "name": "Mark 6:11",
            "text": "Och hvilken som icke anammar eder, eller icke h\u00f6rer eder, g\u00e5r derut, och skudder af eder det stoft, som \u00e4r under edra f\u00f6tter till vittnesb\u00f6rd \u00f6fver dem. Sannerliga s\u00e4ger jag eder: Dr\u00e4geligare varder Sodome och Gomorre p\u00e5 domedag, \u00e4n dem stadenom."
        },
        {
            "chapter": 6,
            "verse": 12,
            "name": "Mark 6:12",
            "text": "Och de gingo ut, och predikade, att man skulle b\u00e4ttra sig;"
        },
        {
            "chapter": 6,
            "verse": 13,
            "name": "Mark 6:13",
            "text": "Och utdrefvo m\u00e5nga djeflar, och smorde m\u00e5nga kranka med oljo, och botade dem."
        },
        {
            "chapter": 6,
            "verse": 14,
            "name": "Mark 6:14",
            "text": "Och fick Konung Herodes detta h\u00f6ra; ty hans namn var redo kunnigt; och sade: Den Johannes, som d\u00f6pte, \u00e4r uppst\u00e5nden ifr\u00e5 de d\u00f6da; och derf\u00f6re g\u00f6r han s\u00e5dana krafter."
        },
        {
            "chapter": 6,
            "verse": 15,
            "name": "Mark 6:15",
            "text": "Somlige sade: Det \u00e4r Elias; och somlige sade: Det \u00e4r en Prophet, eller s\u00e5som en af Propheterna."
        },
        {
            "chapter": 6,
            "verse": 16,
            "name": "Mark 6:16",
            "text": "D\u00e5 Herodes s\u00e5dant h\u00f6rde, sade han: Denne \u00e4r Johannes, som jag halsh\u00f6gg; han \u00e4r uppst\u00e5nden ifr\u00e5 de d\u00f6da."
        },
        {
            "chapter": 6,
            "verse": 17,
            "name": "Mark 6:17",
            "text": "Ty Herodes hade s\u00e4ndt bort, och l\u00e5tit gripa Johannes, och satt honom i f\u00e4ngelse, f\u00f6r Herodias, sins broders Philippi hustrus skull; ty han hade tagit henne till hustru;"
        },
        {
            "chapter": 6,
            "verse": 18,
            "name": "Mark 6:18",
            "text": "Men Johannes sade till Herodes: Dig \u00e4r icke lofligit att hafva dins broders hustru."
        },
        {
            "chapter": 6,
            "verse": 19,
            "name": "Mark 6:19",
            "text": "Men Herodias gick efter hans argesta, och hade gerna dr\u00e4pit honom; och kunde dock icke komma dess vid;"
        },
        {
            "chapter": 6,
            "verse": 20,
            "name": "Mark 6:20",
            "text": "Ty Herodes fruktade Johannem, vetandes att han var en from och helig man; och aktade honom, och lydde honom i m\u00e5ng stycke, och h\u00f6rde honom gerna."
        },
        {
            "chapter": 6,
            "verse": 21,
            "name": "Mark 6:21",
            "text": "D\u00e5 nu en bel\u00e4gen dag kom, att Herodes p\u00e5 sin f\u00f6delsedag gaf de \u00f6fversta, och h\u00f6fvitsm\u00e4n, och de yppersta i Galileen, en aftonkost;"
        },
        {
            "chapter": 6,
            "verse": 22,
            "name": "Mark 6:22",
            "text": "Gick Herodias dotter in, och dansade, och det behagade Herodi, och dem der med honom s\u00e5to vid bordet. D\u00e5 sade Konungen till pigona: Bed utaf mig hvad du vill, jag vill gifva dig det;"
        },
        {
            "chapter": 6,
            "verse": 23,
            "name": "Mark 6:23",
            "text": "Och svor henne en ed; Hvad du bedjande varder af mig, vill jag gifva dig, allt intill h\u00e4lften af mitt rike."
        },
        {
            "chapter": 6,
            "verse": 24,
            "name": "Mark 6:24",
            "text": "Hon gick ut, och sade till sina moder: Hvad skall jag bedja? Hon sade: Johannis D\u00f6parens hufvud."
        },
        {
            "chapter": 6,
            "verse": 25,
            "name": "Mark 6:25",
            "text": "Och hon gick straxt med hast in till Konungen, och bad, s\u00e4gandes: Jag vill, att du gifver mig nu straxt, p\u00e5 ett fat, Johannis D\u00f6parens hufvud."
        },
        {
            "chapter": 6,
            "verse": 26,
            "name": "Mark 6:26",
            "text": "D\u00e5 vardt Konungen bedr\u00f6fvad; dock, f\u00f6r edens skull, och f\u00f6r deras skull, som der s\u00e5to vid bordet, ville han icke visa henne af;"
        },
        {
            "chapter": 6,
            "verse": 27,
            "name": "Mark 6:27",
            "text": "Utan straxt s\u00e4nde Konungen b\u00f6delen, och b\u00f6d inhemta hans hufvud. Han gick \u00e5stad, och halsh\u00f6gg honom i f\u00e5ngahuset;"
        },
        {
            "chapter": 6,
            "verse": 28,
            "name": "Mark 6:28",
            "text": "Och bar fram hans hufvud p\u00e5 ett fat, och fick pigone; och pigan fick det sine moder."
        },
        {
            "chapter": 6,
            "verse": 29,
            "name": "Mark 6:29",
            "text": "D\u00e5 hans l\u00e4rjungar det sporde, kommo de, och togo hans lekamen upp, och begrofvo honom."
        },
        {
            "chapter": 6,
            "verse": 30,
            "name": "Mark 6:30",
            "text": "Och Apostlarna f\u00f6rsamlades till Jesum, och f\u00f6rkunnade honom all stycke; och hvad de gjort och l\u00e4rt hade."
        },
        {
            "chapter": 6,
            "verse": 31,
            "name": "Mark 6:31",
            "text": "D\u00e5 sade han till dem: Kommer I allene afsides med mig uti \u00f6demarken, och hviler eder n\u00e5got litet; ty der voro m\u00e5nge, som gingo till och ifr\u00e5, s\u00e5 att de hade icke tid till att \u00e4ta."
        },
        {
            "chapter": 6,
            "verse": 32,
            "name": "Mark 6:32",
            "text": "Och s\u00e5 for han bort afsides till skepps uti \u00f6demarken."
        },
        {
            "chapter": 6,
            "verse": 33,
            "name": "Mark 6:33",
            "text": "Och folket s\u00e5g, att de foro sina f\u00e4rde; och m\u00e5nge k\u00e4nde honom, och lupo dit tillsammans af alla st\u00e4der, till fot, och kommo fram f\u00f6rr \u00e4n de, och f\u00f6rsamlades till honom."
        },
        {
            "chapter": 6,
            "verse": 34,
            "name": "Mark 6:34",
            "text": "S\u00e5 gick Jesus ut, och fick se det myckna folket, och varkunnade sig \u00f6fver dem; f\u00f6rty de voro s\u00e5som f\u00e5r, de ingen herdan hade; och begynte l\u00e4ra dem mycket."
        },
        {
            "chapter": 6,
            "verse": 35,
            "name": "Mark 6:35",
            "text": "Och d\u00e5 nu dagen var fast framliden, gingo hans L\u00e4rjungar till honom, och sade: H\u00e4r \u00e4r \u00f6knen, och tiden \u00e4r fast f\u00f6rliden;"
        },
        {
            "chapter": 6,
            "verse": 36,
            "name": "Mark 6:36",
            "text": "Sl\u00e4pp dem ifr\u00e5 dig, att de m\u00e5ga g\u00e5 bort i byarna och torpen h\u00e4r omkring, och k\u00f6pa sig br\u00f6d; ty de hafva intet \u00e4ta."
        },
        {
            "chapter": 6,
            "verse": 37,
            "name": "Mark 6:37",
            "text": "D\u00e5 svarade han dem, och sade: Gifver I dem \u00e4ta. D\u00e5 sade de till honom: Skole vi g\u00e5 bort, och k\u00f6pa f\u00f6r tuhundrade penningar br\u00f6d, och gifva dem \u00e4ta?"
        },
        {
            "chapter": 6,
            "verse": 38,
            "name": "Mark 6:38",
            "text": "D\u00e5 sade han till dem: Huru m\u00e5ng br\u00f6d hafven I? G\u00e5r, och ser till. Och sedan de hade sett till, sade de: Fem, och tv\u00e5 fiskar."
        },
        {
            "chapter": 6,
            "verse": 39,
            "name": "Mark 6:39",
            "text": "D\u00e5 b\u00f6d han dem, att de skulle s\u00e4tta sig alle i matskap, i gr\u00f6na gr\u00e4set."
        },
        {
            "chapter": 6,
            "verse": 40,
            "name": "Mark 6:40",
            "text": "Och de satte sig i hopar, hundrade och hundrade, femtio och femtio."
        },
        {
            "chapter": 6,
            "verse": 41,
            "name": "Mark 6:41",
            "text": "Och s\u00e5 tog han de fem br\u00f6d och de tv\u00e5 fiskar; och upplyfte sin \u00f6gon till himmelen, tackade, och br\u00f6t br\u00f6den, och fick sinom L\u00e4rjungom, att de skulle l\u00e4gga f\u00f6r dem; och de tv\u00e5 fiskar bytte han emellan dem alla."
        },
        {
            "chapter": 6,
            "verse": 42,
            "name": "Mark 6:42",
            "text": "Och de \u00e5to alle, och vordo m\u00e4tte;"
        },
        {
            "chapter": 6,
            "verse": 43,
            "name": "Mark 6:43",
            "text": "Och togo sedan upp tolf korgar fulla med styckom, och fiskomen."
        },
        {
            "chapter": 6,
            "verse": 44,
            "name": "Mark 6:44",
            "text": "Och de der \u00e4tit hade, voro vid femtusend m\u00e4n."
        },
        {
            "chapter": 6,
            "verse": 45,
            "name": "Mark 6:45",
            "text": "Och straxt dref han sina L\u00e4rjungar, att de skulle g\u00e5 till skepps, och fara f\u00f6r honom \u00f6fver hafvet till Bethsaida, medan han skiljde folket ifr\u00e5 sig."
        },
        {
            "chapter": 6,
            "verse": 46,
            "name": "Mark 6:46",
            "text": "Och n\u00e4r han hade skiljt dem ifr\u00e5 sig, gick han d\u00e4dan upp p\u00e5 ett berg, till att bedja."
        },
        {
            "chapter": 6,
            "verse": 47,
            "name": "Mark 6:47",
            "text": "Och d\u00e5 aftonen kom, var skeppet midt p\u00e5 hafvet, och han p\u00e5 landet allena."
        },
        {
            "chapter": 6,
            "verse": 48,
            "name": "Mark 6:48",
            "text": "Och han s\u00e5g att de hade plats med roende; ty v\u00e4dret var dem emot. Och vid fjerde v\u00e4kten om nattena kom han till dem, g\u00e5ngandes p\u00e5 hafvet; och han ville g\u00e5 framom dem."
        },
        {
            "chapter": 6,
            "verse": 49,
            "name": "Mark 6:49",
            "text": "Och n\u00e4r de s\u00e5go honom g\u00e5ngandes p\u00e5 hafvet, mente de det hade varit ett sp\u00f6kelse, och ropade;"
        },
        {
            "chapter": 6,
            "verse": 50,
            "name": "Mark 6:50",
            "text": "Ty de s\u00e5go honom alle, och vordo f\u00f6rskr\u00e4ckte. D\u00e5 talade han dem straxt till, och sade till dem: Varer vid en god tr\u00f6st, jag \u00e4ret; varer icke r\u00e4dde."
        },
        {
            "chapter": 6,
            "verse": 51,
            "name": "Mark 6:51",
            "text": "Och han steg upp till dem i skeppet, och v\u00e4dret stillade sig; och de vordo storliga f\u00f6rskr\u00e4ckte, f\u00f6rundrande vid sig sjelfva \u00f6fverm\u00e5tton."
        },
        {
            "chapter": 6,
            "verse": 52,
            "name": "Mark 6:52",
            "text": "Ty de hade icke f\u00e5tt f\u00f6rst\u00e5nd af br\u00f6den; ty deras hjerta var f\u00f6rblindadt."
        },
        {
            "chapter": 6,
            "verse": 53,
            "name": "Mark 6:53",
            "text": "Och d\u00e5 de \u00f6fverfarne voro, kommo de till det landet Genesaret, och lade der i hamn."
        },
        {
            "chapter": 6,
            "verse": 54,
            "name": "Mark 6:54",
            "text": "Och n\u00e4r de gingo utu skeppet, k\u00e4nde de honom straxt;"
        },
        {
            "chapter": 6,
            "verse": 55,
            "name": "Mark 6:55",
            "text": "Och lupo omkring allan den lands\u00e4ndan; och begynte omkringf\u00f6ra de sjuka p\u00e5 s\u00e4ngar, dit de h\u00f6rde han var."
        },
        {
            "chapter": 6,
            "verse": 56,
            "name": "Mark 6:56",
            "text": "Och hvar han ingick, i byar, eller st\u00e4der, eller torp, der lade de kranka p\u00e5 gatorna, och b\u00e5do honom, att de \u00e5tminstone m\u00e5tte taga p\u00e5 hans kl\u00e4def\u00e5ll; och s\u00e5 m\u00e5nge, som kommo vid honom, de vordo helbregda.  "
        }
    ]
}