{
    "translation": "Schlachter (1951)",
    "abbreviation": "schlachter",
    "lang": "de",
    "language": "German",
    "direction": "LTR",
    "encoding": "",
    "book_nr": 23,
    "book_name": "Jesaja",
    "chapter": 57,
    "name": "Jesaja 57",
    "verses": [
        {
            "chapter": 57,
            "verse": 1,
            "name": "Jesaja 57:1",
            "text": "Der Gerechte kommt um, und kein Mensch nimmt es zu Herzen; und begnadigte M\u00e4nner werden hinweggerafft, ohne da\u00df jemand bemerkt, da\u00df der Gerechte vor dem Ungl\u00fcck weggerafft wird."
        },
        {
            "chapter": 57,
            "verse": 2,
            "name": "Jesaja 57:2",
            "text": "Er geht zum Frieden ein; sie ruhen auf ihren Lagern, ein jeder, der gerade Wege ging."
        },
        {
            "chapter": 57,
            "verse": 3,
            "name": "Jesaja 57:3",
            "text": "Ihr aber, kommt hierher, ihr Kinder der Zauberin, Same des Ehebrechers und der, die Unzucht getrieben hat!"
        },
        {
            "chapter": 57,
            "verse": 4,
            "name": "Jesaja 57:4",
            "text": "ber wen wollt ihr euch lustig machen? Gegen wen wollt ihr das Maul aufsperren und die Zunge herausstrecken? Seid ihr nicht Kinder der \u00dcbertretung, ein falscher Same?"
        },
        {
            "chapter": 57,
            "verse": 5,
            "name": "Jesaja 57:5",
            "text": "Ihr ergl\u00fcht f\u00fcr die G\u00f6tzen unter jedem gr\u00fcnen Baum, ihr opfert die Kindlein an den B\u00e4chen unter Felsenkl\u00fcften."
        },
        {
            "chapter": 57,
            "verse": 6,
            "name": "Jesaja 57:6",
            "text": "Bei den glatten Bachsteinen ist dein Teil; sie sind dein Los; ihnen hast du auch Trankopfer ausgegossen und Speisopfer dargebracht; sollte ich mich dar\u00fcber tr\u00f6sten?"
        },
        {
            "chapter": 57,
            "verse": 7,
            "name": "Jesaja 57:7",
            "text": "Du hast dein Lager auf einen hohen und erhabenen Berg gestellt; auch dort bist du hinaufgestiegen und hast Opfer gebracht;"
        },
        {
            "chapter": 57,
            "verse": 8,
            "name": "Jesaja 57:8",
            "text": "und hinter T\u00fcr und Pfosten hast du dein Andenken gesetzt; denn du hast dich von mir abgewandt, du bist hinaufgestiegen und hast dein Bett weit gemacht und dir von ihnen <FI>den Buhlerlohn<Fi>  ausbedungen; du liebtest ihren Umgang, beachtetest ihren Wink."
        },
        {
            "chapter": 57,
            "verse": 9,
            "name": "Jesaja 57:9",
            "text": "Du bist zum K\u00f6nige gezogen, in \u00d6l gebadet, und hast dich flei\u00dfig gesalbt; du hast deine Boten in die weiteste Ferne geschickt und dich erniedrigt bis zum Totenreich."
        },
        {
            "chapter": 57,
            "verse": 10,
            "name": "Jesaja 57:10",
            "text": "Du bist m\u00fcde geworden von der Menge deiner Wege, hast aber nicht gesagt: Es ist vergeblich! Du hast noch Lebensunterhalt gefunden, darum wurdest du nicht matt."
        },
        {
            "chapter": 57,
            "verse": 11,
            "name": "Jesaja 57:11",
            "text": "Vor wem hast du dich so gescheut und gef\u00fcrchtet, da\u00df du mich verleugnet und meiner nicht mehr gedacht hast und ich dir g\u00e4nzlich aus dem Sinn gekommen bin? Habe ich nicht dazu geschwiegen, und das seit langer Zeit? Aber du willst mich doch nicht f\u00fcrchten!"
        },
        {
            "chapter": 57,
            "verse": 12,
            "name": "Jesaja 57:12",
            "text": "Darum will ich jetzt deine Gerechtigkeit und deine Taten bekanntmachen; sie werden dir nichts n\u00fctzen!"
        },
        {
            "chapter": 57,
            "verse": 13,
            "name": "Jesaja 57:13",
            "text": "Wenn du dann schreist, so m\u00f6gen dich die erretten, die du gesammelt hast; aber ein einziger Windsto\u00df wird sie alle davontragen, ein Hauch wird sie wegnehmen. Wer aber auf mich vertraut, der wird das Land ererben und meinen heiligen Berg besitzen."
        },
        {
            "chapter": 57,
            "verse": 14,
            "name": "Jesaja 57:14",
            "text": "Und er wird sagen: Machet Bahn, machet Bahn! Ebnet den Weg! Hebet jeden Ansto\u00df aus dem Wege meines Volkes!"
        },
        {
            "chapter": 57,
            "verse": 15,
            "name": "Jesaja 57:15",
            "text": "Denn also spricht der Hohe und Erhabene, der ewig wohnt und dessen Name heilig ist: In der H\u00f6he und im Heiligtum wohne ich und bei dem, welcher eines zerschlagenen und gedem\u00fctigten Geistes ist, auf da\u00df ich belebe den Geist der Gedem\u00fctigten und das Herz der Zerschlagenen erquicke."
        },
        {
            "chapter": 57,
            "verse": 16,
            "name": "Jesaja 57:16",
            "text": "Denn ich hadere nicht ewig und z\u00fcrne nicht ohne Ende; denn ihr Geist w\u00fcrde vor mir verschmachten und die Seelen, die ich gemacht habe."
        },
        {
            "chapter": 57,
            "verse": 17,
            "name": "Jesaja 57:17",
            "text": "ber seine s\u00fcndhafte Habgier ward ich zornig, und ich schlug ihn, verbarg mich und z\u00fcrnte; da wandte er sich noch weiter ab auf seinen selbsterw\u00e4hlten Wegen."
        },
        {
            "chapter": 57,
            "verse": 18,
            "name": "Jesaja 57:18",
            "text": "Seine Wege habe ich gesehen; dennoch will ich ihn heilen und ihn leiten und ihm und seinen Trauernden mit Tr\u00f6stungen vergelten,"
        },
        {
            "chapter": 57,
            "verse": 19,
            "name": "Jesaja 57:19",
            "text": "indem ich Frucht der Lippen schaffe: Friede, Friede den Fernen und den Nahen, spricht der HERR; ja, ihn will ich heilen!"
        },
        {
            "chapter": 57,
            "verse": 20,
            "name": "Jesaja 57:20",
            "text": "Aber die Gottlosen sind wie das aufgeregte Meer, welches nicht ruhig sein kann, dessen Wellen Kot und Unrat auswerfen."
        },
        {
            "chapter": 57,
            "verse": 21,
            "name": "Jesaja 57:21",
            "text": "Keinen Frieden, spricht mein Gott, gibt es f\u00fcr die Gottlosen!"
        }
    ]
}