{
    "translation": "Svenska Karl XII:s Bibel (1873)",
    "abbreviation": "swekarlxii1873",
    "lang": "sv",
    "language": "Swedish",
    "direction": "LTR",
    "encoding": "UTF-8",
    "book_nr": 19,
    "book_name": "Psalms",
    "chapter": 84,
    "name": "Psalms 84",
    "verses": [
        {
            "chapter": 84,
            "verse": 1,
            "name": "Psalms 84:1",
            "text": "En Psalm Korah barnas, p\u00e5 Gittith, till att f\u00f6resjunga."
        },
        {
            "chapter": 84,
            "verse": 2,
            "name": "Psalms 84:2",
            "text": "Huru lustige \u00e4ro dina boningar, Herre Zebaoth!"
        },
        {
            "chapter": 84,
            "verse": 3,
            "name": "Psalms 84:3",
            "text": "Min sj\u00e4l l\u00e4ngtar och tr\u00e4ngtar efter Herrans g\u00e5rdar. Min kropp och sj\u00e4l fr\u00f6jda sig uti lefvandes Gudi."
        },
        {
            "chapter": 84,
            "verse": 4,
            "name": "Psalms 84:4",
            "text": "Ty foglen hafver funnit ett hus, och svalan sitt bo, der de sina ungar l\u00e4gga; n\u00e4mliga ditt altare, Herre Zebaoth, min Konung och min Gud."
        },
        {
            "chapter": 84,
            "verse": 5,
            "name": "Psalms 84:5",
            "text": "Salige \u00e4ro de som i dino huse bo, de lofva dig till evig tid. Sela."
        },
        {
            "chapter": 84,
            "verse": 6,
            "name": "Psalms 84:6",
            "text": "Salige \u00e4ro de menniskor, som dig f\u00f6r sin starkhet h\u00e5lla, och af hjertat efter dig vandra;"
        },
        {
            "chapter": 84,
            "verse": 7,
            "name": "Psalms 84:7",
            "text": "De der g\u00e5 genom j\u00e4mmerdalen, och g\u00f6ra der k\u00e4llor; och l\u00e4rarena varda med mycken v\u00e4lsignelse prydde."
        },
        {
            "chapter": 84,
            "verse": 8,
            "name": "Psalms 84:8",
            "text": "De vinna den ena segren efter den andra, att man se m\u00e5, att den r\u00e4tte Guden \u00e4r i Zion."
        },
        {
            "chapter": 84,
            "verse": 9,
            "name": "Psalms 84:9",
            "text": "Herre Gud Zebaoth, h\u00f6r min b\u00f6n; akta h\u00e4rtill, Jacobs Gud. Sela."
        },
        {
            "chapter": 84,
            "verse": 10,
            "name": "Psalms 84:10",
            "text": "Gud, v\u00e5r sk\u00f6ld, sk\u00e5da dock; se upp\u00e5 din smordas rike."
        },
        {
            "chapter": 84,
            "verse": 11,
            "name": "Psalms 84:11",
            "text": "Ty en dag uti dina g\u00e5rdar \u00e4r b\u00e4ttre, \u00e4n eljest tusende. Jag vill heldre vakta d\u00f6rrena uti mins Guds huse, \u00e4n l\u00e4nge bo uti de ogudaktigas hyddom."
        },
        {
            "chapter": 84,
            "verse": 12,
            "name": "Psalms 84:12",
            "text": "Ty Herren Gud \u00e4r sol och sk\u00f6ld. Herren gifver n\u00e5d och \u00e4ro; dem frommom skall intet godt fattas. Herre Zebaoth, s\u00e4ll \u00e4r den menniska, som sig f\u00f6rl\u00e5ter upp\u00e5 dig.  "
        }
    ]
}