{
    "translation": "The Emphasised Bible by J. B. Rotherham",
    "abbreviation": "rotherham",
    "lang": "en",
    "language": "English",
    "direction": "LTR",
    "encoding": "UTF-8",
    "book_nr": 18,
    "book_name": "Job",
    "chapter": 8,
    "name": "Job 8",
    "verses": [
        {
            "chapter": 8,
            "verse": 1,
            "name": "Job 8:1",
            "text": "Then responded Bildad the Shuhite, and said:\u2014"
        },
        {
            "chapter": 8,
            "verse": 2,
            "name": "Job 8:2",
            "text": "How long wilt thou speak these things? Or, as a mighty wind, shall be the sayings of thy mouth?"
        },
        {
            "chapter": 8,
            "verse": 3,
            "name": "Job 8:3",
            "text": "Should, GOD, pervert justice? Or, the Almighty, pervert righteousness?"
        },
        {
            "chapter": 8,
            "verse": 4,
            "name": "Job 8:4",
            "text": "Though, thy children, sinned against him, and he delivered them into the hand of their transgression,"
        },
        {
            "chapter": 8,
            "verse": 5,
            "name": "Job 8:5",
            "text": "Yet, if, thou thyself, wilt diligently seek unto GOD,\u2014and, unto the Almighty, wilt make supplication;"
        },
        {
            "chapter": 8,
            "verse": 6,
            "name": "Job 8:6",
            "text": "If, pure and upright, thou thyself, art, surely, now, will he answer thy prayer, and will prosper thy righteous habitation:"
        },
        {
            "chapter": 8,
            "verse": 7,
            "name": "Job 8:7",
            "text": "So shall thy beginning appear small,\u2014when, thy latter end, he shall greatly increase! "
        },
        {
            "chapter": 8,
            "verse": 8,
            "name": "Job 8:8",
            "text": " For inquire, I pray thee, of a former generation, and prepare thyself for the research of their fathers;\u2014"
        },
        {
            "chapter": 8,
            "verse": 9,
            "name": "Job 8:9",
            "text": "For, of yesterday, are, we, and cannot know, for, a shadow, are our days upon earth:"
        },
        {
            "chapter": 8,
            "verse": 10,
            "name": "Job 8:10",
            "text": "Shall, they, not teach thee\u2014tell thee, and, out of their memory, bring forth words?"
        },
        {
            "chapter": 8,
            "verse": 11,
            "name": "Job 8:11",
            "text": "Can the paper-reed grow up, without a marsh? Or the rush grow up, without water?"
        },
        {
            "chapter": 8,
            "verse": 12,
            "name": "Job 8:12",
            "text": "Though while still, in its freshness, it be not plucked off, yet, before any kind of grass, it doth wither:"
        },
        {
            "chapter": 8,
            "verse": 13,
            "name": "Job 8:13",
            "text": "So, shall be the latter end of all who forget GOD, and, the hope of the impious, shall perish:"
        },
        {
            "chapter": 8,
            "verse": 14,
            "name": "Job 8:14",
            "text": "Whose trust shall be contemptible,\u2014and, a spider\u2019s web, his confidence:"
        },
        {
            "chapter": 8,
            "verse": 15,
            "name": "Job 8:15",
            "text": "He leaneth upon his house, and it will not stand, he holdeth it fast, and it will not remain erect."
        },
        {
            "chapter": 8,
            "verse": 16,
            "name": "Job 8:16",
            "text": "Full of moisture he is, before the sun, and, over his garden, his shoot goeth forth:"
        },
        {
            "chapter": 8,
            "verse": 17,
            "name": "Job 8:17",
            "text": "Over a heap, his roots are entwined, a place of stones, he descrieth;"
        },
        {
            "chapter": 8,
            "verse": 18,
            "name": "Job 8:18",
            "text": "If one destroy him out of his place, then will it disown him [saying] \u2014I have not seen thee."
        },
        {
            "chapter": 8,
            "verse": 19,
            "name": "Job 8:19",
            "text": "Lo! that, is the joy of his way,\u2014and, out of the dust, shall others spring up. "
        },
        {
            "chapter": 8,
            "verse": 20,
            "name": "Job 8:20",
            "text": " Lo! GOD, will not reject a blameless man, neither will he grasp the hand of evil-doers:"
        },
        {
            "chapter": 8,
            "verse": 21,
            "name": "Job 8:21",
            "text": "At length he shall fill with laughter thy mouth, and thy lips, with a shout of triumph:"
        },
        {
            "chapter": 8,
            "verse": 22,
            "name": "Job 8:22",
            "text": "They who hate thee, shall be clothed with shame, but, the tent of the lawless, shall not be!  "
        }
    ]
}