{
    "translation": "Haitian Creole Bible",
    "abbreviation": "haitian",
    "lang": "ht",
    "language": "Haitian Creole",
    "direction": "LTR",
    "encoding": "UTF-8",
    "book_nr": 41,
    "book_name": "Mark",
    "chapter": 6,
    "name": "Mark 6",
    "verses": [
        {
            "chapter": 6,
            "verse": 1,
            "name": "Mark 6:1",
            "text": "Jezi kite kote l' te ye a, li ale nan lavil kote l' te grandi a. Disip li yo te ale av\u00e8 l' tou."
        },
        {
            "chapter": 6,
            "verse": 2,
            "name": "Mark 6:2",
            "text": "L\u00e8 jou repo a rive, li k\u00f2manse moutre moun ki te nan sinag\u00f2g la anpil bagay. Foul moun ki t'ap koute l' yo te sezi anpil, yo t'ap di konsa: -Kote l' jwenn tout bagay sa yo? Kil\u00e8s ki ba l' konesans sa yo? Kouman li f\u00e8 f\u00e8 tout mirak sa yo?"
        },
        {
            "chapter": 6,
            "verse": 3,
            "name": "Mark 6:3",
            "text": "Se pa ti b\u00f2s chapant pitit Mari a? Se pa fr\u00e8 Jak, J\u00f2z, Jid ak Simon an? Apa tout s\u00e8 l' yo la av\u00e8k nou? Se sa ki f\u00e8 li te tounen pou yo yon okazyon tonbe nan peche."
        },
        {
            "chapter": 6,
            "verse": 4,
            "name": "Mark 6:4",
            "text": "L\u00e8 sa a, Jezi di yo: -Yon pwof\u00e8t jwenn resp\u00e8 toupatou, esepte nan peyi l', lakay li ak nan fanmi li."
        },
        {
            "chapter": 6,
            "verse": 5,
            "name": "Mark 6:5",
            "text": "Se konsa li pa t' kapab f\u00e8 okenn mirak la, esepte pou de ou twa moun malad. Li te mete men sou t\u00e8t yo, li geri yo."
        },
        {
            "chapter": 6,
            "verse": 6,
            "name": "Mark 6:6",
            "text": "Jezi te sezi w\u00e8 jan yo pa t' kw\u00e8 nan li. Apre sa, Jezi te mache nan tout ti bouk nan vwazinaj la. Li t'ap moutre moun yo anpil bagay."
        },
        {
            "chapter": 6,
            "verse": 7,
            "name": "Mark 6:7",
            "text": "L\u00e8 sa a, Jezi rele douz disip li yo, li voye yo de pa de. Li ba yo pouvwa chase move lespri."
        },
        {
            "chapter": 6,
            "verse": 8,
            "name": "Mark 6:8",
            "text": "Li pase yo l\u00f2d sa a: -Pa pran anyen pou vwayaj la, esepte yon baton. Pa pote ni pen, ni sak. Pa mete lajan nan p\u00f2ch nou."
        },
        {
            "chapter": 6,
            "verse": 9,
            "name": "Mark 6:9",
            "text": "Nou m\u00e8t mete sapat nan pye nou. Men, pa mete de rad sou nou."
        },
        {
            "chapter": 6,
            "verse": 10,
            "name": "Mark 6:10",
            "text": "Epi li di yo ank\u00f2: -L\u00e8 nou rive nan yon lavil, rete nan yon s\u00e8l kay, kay kote y'a resevwa nou an, jouk nou pati."
        },
        {
            "chapter": 6,
            "verse": 11,
            "name": "Mark 6:11",
            "text": "Men, si nou rive yon kote nou w\u00e8 pesonn pa vle resevwa nou, pesonn pa vle koute nou, ale f\u00e8 wout nou. Souke pousy\u00e8 pye nou. Konsa, yo p'ap ka di nou pa t' av\u00e8ti yo."
        },
        {
            "chapter": 6,
            "verse": 12,
            "name": "Mark 6:12",
            "text": "Douz disip yo pati; y' al mache bay nouv\u00e8l la pou tout moun tounen vin jwenn Bondye."
        },
        {
            "chapter": 6,
            "verse": 13,
            "name": "Mark 6:13",
            "text": "Yo te chase anpil move lespri. Yo te pase lwil sou anpil moun malad, yo te geri yo."
        },
        {
            "chapter": 6,
            "verse": 14,
            "name": "Mark 6:14",
            "text": "Wa Ew\u00f2d te tande pale sou Jezi, paske yo t'ap nonmen non l' toupatou. Gen moun ki t'ap di: -Se Jan Batis ki leve pami m\u00f2 yo, se pout\u00e8t sa li kapab f\u00e8 tout mirak sa yo."
        },
        {
            "chapter": 6,
            "verse": 15,
            "name": "Mark 6:15",
            "text": "Gen l\u00f2t ki t'ap di tou: -Se Eli. Epi gen l\u00f2t ank\u00f2 ki t'ap di: -Se yon pwof\u00e8t tankou ansyen pwof\u00e8t yo."
        },
        {
            "chapter": 6,
            "verse": 16,
            "name": "Mark 6:16",
            "text": "Men, l\u00e8 Ew\u00f2d tande sa, li di konsa: -Se Jan wi. Mwen te f\u00e8 koupe t\u00e8t li. Men, li tounen vivan ank\u00f2."
        },
        {
            "chapter": 6,
            "verse": 17,
            "name": "Mark 6:17",
            "text": "Se Ew\u00f2d menm ki te voye arete Jan. Li te f\u00e8 mete l' nan prizon pout\u00e8t Ewodyad. Ew\u00f2d te pran Ewodyad, madanm Filip, fr\u00e8 li, pou madanm li."
        },
        {
            "chapter": 6,
            "verse": 18,
            "name": "Mark 6:18",
            "text": "Se konsa, Jan te di li: -Ou pa gen dwa pran madanm fr\u00e8 ou pou madanm ou."
        },
        {
            "chapter": 6,
            "verse": 19,
            "name": "Mark 6:19",
            "text": "Ewodyad te kenbe Jan nan k\u00e8. Li te vle f\u00e8 yo touye li."
        },
        {
            "chapter": 6,
            "verse": 20,
            "name": "Mark 6:20",
            "text": "Men, li pa t' kapab, paske Ew\u00f2d pou t\u00e8t pa l' te gen yon krentif pou Jan. Li te konnen Jan se yon nonm dwat ki t'ap viv pou Bondye. Se sak f\u00e8 li te pwoteje li. Li te renmen tande l' pale tou, menm si apre sa k\u00e8 l' te boulv\u00e8se."
        },
        {
            "chapter": 6,
            "verse": 21,
            "name": "Mark 6:21",
            "text": "Jou Ewodyad t'ap tann lan vin rive. Se te jou f\u00e8t Ew\u00f2d. Jou sa a, Ew\u00f2d te f\u00e8 yon f\u00e8t pou tout zotobre nan gouv\u00e8nman l' lan, ansanm ak gwo ch\u00e8f nan lame a ak l\u00f2t grann\u00e8g nan peyi Galile a."
        },
        {
            "chapter": 6,
            "verse": 22,
            "name": "Mark 6:22",
            "text": "Pitit fi Ewodyad la antre nan sal resepsyon an: li danse, li danse. Sa te f\u00e8 Ew\u00f2d ak envite l' yo plezi anpil. Wa a di madmwaz\u00e8l la konsa: -Mande m' nenp\u00f2t sa ou vle, m'ap ba ou li."
        },
        {
            "chapter": 6,
            "verse": 23,
            "name": "Mark 6:23",
            "text": "Ew\u00f2d s\u00e8mante ba li, li di l' konsa: -Tou sa ou mande, m'ap ba ou li, te m\u00e8t mwatye nan peyi m'ap gouv\u00e8nen an."
        },
        {
            "chapter": 6,
            "verse": 24,
            "name": "Mark 6:24",
            "text": "Madmwaz\u00e8l la soti, li al di manman li: -Kisa m' ta mande? Manman an reponn li: -Mande t\u00e8t Jan Batis."
        },
        {
            "chapter": 6,
            "verse": 25,
            "name": "Mark 6:25",
            "text": "Jenn fi a prese tounen kote wa a, li f\u00e8 l' demann sa a: -Mwen ta vle pou ou ban mwen t\u00e8t Jan Batis koulye a, nan yon plato."
        },
        {
            "chapter": 6,
            "verse": 26,
            "name": "Mark 6:26",
            "text": "K\u00e8 wa a kase. Men, li pa t' kapab di li non ank\u00f2, ak\u00f2z gwo s\u00e8man li te fin f\u00e8 devan tout envite yo."
        },
        {
            "chapter": 6,
            "verse": 27,
            "name": "Mark 6:27",
            "text": "Menm l\u00e8 a, li voye yon gad av\u00e8k l\u00f2d pou li al chache t\u00e8t Jan Batis pote vini."
        },
        {
            "chapter": 6,
            "verse": 28,
            "name": "Mark 6:28",
            "text": "Gad la koupe t\u00e8t Jan Batis nan prizon an; li pote l' vini nan yon plato. Li bay madmwaz\u00e8l la t\u00e8t la; madmwaz\u00e8l la menm pote l' bay manman li."
        },
        {
            "chapter": 6,
            "verse": 29,
            "name": "Mark 6:29",
            "text": "L\u00e8 patizan Jan yo tande sa, yo vin pran k\u00f2 a, yo mete l' nan yon kavo."
        },
        {
            "chapter": 6,
            "verse": 30,
            "name": "Mark 6:30",
            "text": "L\u00e8 ap\u00f2t yo tounen vin jwenn Jezi, yo rakonte l' tou sa yo te f\u00e8 ak tou sa yo te di."
        },
        {
            "chapter": 6,
            "verse": 31,
            "name": "Mark 6:31",
            "text": "L\u00e8 sa a, te sit\u00e8lman gen moun ki t'ap ale vini, Jezi ak disip li yo pa t' menm gen tan pou yo manje. Se pout\u00e8t sa Jezi di disip li yo: -Ann al av\u00e8 m' yon kote ki pa gen moun pou nou ka pran yon ti repo."
        },
        {
            "chapter": 6,
            "verse": 32,
            "name": "Mark 6:32",
            "text": "Epi, yo pati pou kont yo nan yon kann\u00f2t pou y' ale yon kote ki pa gen moun."
        },
        {
            "chapter": 6,
            "verse": 33,
            "name": "Mark 6:33",
            "text": "Men, anpil moun te w\u00e8 l\u00e8 y' ale, yo te rekon\u00e8t yo. Se konsa, yo kouri soti nan tout bouk yo, yo gen tan rive kote Jezi taprale av\u00e8k disip li yo anvan li."
        },
        {
            "chapter": 6,
            "verse": 34,
            "name": "Mark 6:34",
            "text": "L\u00e8 Jezi rive pou l' debake sot nan kann\u00f2t la, li w\u00e8 tout bann moun yo. K\u00e8 l' f\u00e8 l' mal pou yo, paske yo te tankou yon bann mouton san gad\u00f2. Lamenm, li tanmen esplike yo anpil bagay."
        },
        {
            "chapter": 6,
            "verse": 35,
            "name": "Mark 6:35",
            "text": "L\u00e8 li te k\u00f2manse f\u00e8 ta, disip yo pwoche b\u00f2 kote Jezi, yo di li: -Li fin ta, wi. Pa gen moun rete b\u00f2 isit la."
        },
        {
            "chapter": 6,
            "verse": 36,
            "name": "Mark 6:36",
            "text": "Voye moun yo ale non pou yo ka achte manje nan bouk yo."
        },
        {
            "chapter": 6,
            "verse": 37,
            "name": "Mark 6:37",
            "text": "Jezi reponn yo: -Poukisa nou pa ba yo manje nou menm pito? Disip yo mande li: -Ou ta vle poun al achte pen pou mil (1.000) goud poun bay tout moun sa yo manje? Jezi reponn yo:"
        },
        {
            "chapter": 6,
            "verse": 38,
            "name": "Mark 6:38",
            "text": "-Konbe pen nou gen la a? Ale w\u00e8 non. L\u00e8 yo fin jwenn konbe pen yo genyen an, yo di l' konsa: -Nou gen senk pen ak de pwason."
        },
        {
            "chapter": 6,
            "verse": 39,
            "name": "Mark 6:39",
            "text": "L\u00e8 sa a, Jezi pase l\u00f2d pou disip li yo f\u00e8 tout moun chita at\u00e8 sou z\u00e8b la, ti gwoup b\u00f2 isit, ti gwoup b\u00f2 la."
        },
        {
            "chapter": 6,
            "verse": 40,
            "name": "Mark 6:40",
            "text": "Moun yo menm chita pa ranje san moun, ranje senkant moun."
        },
        {
            "chapter": 6,
            "verse": 41,
            "name": "Mark 6:41",
            "text": "Apre sa, Jezi pran senk pen yo ak de pwason yo, li leve je l' nan sy\u00e8l la, li di Bondye m\u00e8si. Li kase pen yo an moso, li renm\u00e8t yo bay disip li yo pou yo mache bay moun yo. Li f\u00e8 menm bagay ak de pwason yo."
        },
        {
            "chapter": 6,
            "verse": 42,
            "name": "Mark 6:42",
            "text": "Tout moun manje vant plen."
        },
        {
            "chapter": 6,
            "verse": 43,
            "name": "Mark 6:43",
            "text": "Disip yo ranmase tout ti moso pen yo ansanm ak r\u00e8s pwason yo. Yo plen douz panyen pote ale."
        },
        {
            "chapter": 6,
            "verse": 44,
            "name": "Mark 6:44",
            "text": "Te gen senkmil (5.000) moun antou ki te jwenn pen pou yo manje."
        },
        {
            "chapter": 6,
            "verse": 45,
            "name": "Mark 6:45",
            "text": "Touswit apre sa, Jezi f\u00e8 disip li yo moute nan yon kann\u00f2t, li voye yo devan l\u00f2t b\u00f2 lanm\u00e8 a, nan direksyon Betsayda. Jezi menm te rete d\u00e8y\u00e8 pou l' voye foul moun yo ale."
        },
        {
            "chapter": 6,
            "verse": 46,
            "name": "Mark 6:46",
            "text": "Apre li fin ranvwaye yo, li al lapriy\u00e8 sou yon ti m\u00f2n."
        },
        {
            "chapter": 6,
            "verse": 47,
            "name": "Mark 6:47",
            "text": "L\u00e8 sol\u00e8y fin kouche, kann\u00f2t la te nan mitan lanm\u00e8 a toujou. Jezi te pou kont li at\u00e8."
        },
        {
            "chapter": 6,
            "verse": 48,
            "name": "Mark 6:48",
            "text": "Li w\u00e8 disip yo te gen anpil traka pou yo naje zaviwon yo, paske van an te kontr\u00e8 pou yo. V\u00e8 twaz\u00e8 nan maten, Jezi pran mache sou dlo lanm\u00e8 a pou li al jwenn disip yo. Li te pr\u00e8t pou depase yo."
        },
        {
            "chapter": 6,
            "verse": 49,
            "name": "Mark 6:49",
            "text": "L\u00e8 yo w\u00e8 l' ap mache sou dlo a, yo te kw\u00e8 se te yon revenan. Yo pran rele."
        },
        {
            "chapter": 6,
            "verse": 50,
            "name": "Mark 6:50",
            "text": "Yo tout yo te w\u00e8 li, yo tout te p\u00e8. Menm l\u00e8 a, Jezi pale av\u00e8k yo, li di yo konsa: -Pran t\u00e8t nou non. Se mwen menm. Nou pa bezwen p\u00e8."
        },
        {
            "chapter": 6,
            "verse": 51,
            "name": "Mark 6:51",
            "text": "Li moute b\u00f2 kote yo nan kann\u00f2t la, van an vin tonbe. Se pa ti sezi disip yo te sezi."
        },
        {
            "chapter": 6,
            "verse": 52,
            "name": "Mark 6:52",
            "text": "Yo pa t' konprann sans mirak pen an, paske lespri yo te bouche toujou."
        },
        {
            "chapter": 6,
            "verse": 53,
            "name": "Mark 6:53",
            "text": "Yo fin trav\u00e8se lanm\u00e8 a, yo f\u00e8 t\u00e8 toupre lavil Jenezar\u00e8t. Yo mare kann\u00f2t la at\u00e8."
        },
        {
            "chapter": 6,
            "verse": 54,
            "name": "Mark 6:54",
            "text": "Kou yo soti nan kann\u00f2t la, lamenm moun yo rekon\u00e8t Jezi."
        },
        {
            "chapter": 6,
            "verse": 55,
            "name": "Mark 6:55",
            "text": "P\u00e8p la kouri nan tout peyi a; yo pote malad yo tou kouche sou nat ba li kote yo tande li te ye a."
        },
        {
            "chapter": 6,
            "verse": 56,
            "name": "Mark 6:56",
            "text": "Toupatou kote Jezi te rive, kit nan bouk, kit nan lavil ou andey\u00f2, yo te mete malad yo sou plas piblik, yo te mande Jezi pou l' te kite yo manyen b\u00f2 rad li ase. Tout moun ki te manyen rad li te geri.  "
        }
    ]
}