{
    "translation": "NCV Traditional",
    "abbreviation": "cnt",
    "lang": "zh",
    "language": "",
    "direction": "LTR",
    "encoding": "UTF-8",
    "book_nr": 4,
    "book_name": "Numbers",
    "chapter": 16,
    "name": "Numbers 16",
    "verses": [
        {
            "chapter": 16,
            "verse": 1,
            "name": "Numbers 16:1",
            "text": "\u5229\u672a\u7684\u66fe\u5b6b\u3001\u54e5\u8f44\u7684\u5b6b\u5b50\u3001\u4ee5\u65af\u54c8\u7684\u5152\u5b50\u53ef\u62c9\uff0c\u548c\u6d41\u672c\u5b50\u5b6b\u4e2d\u4ee5\u5229\u62bc\u7684\u5152\u5b50\u5927\u574d\u3001\u4e9e\u6bd4\u862d\uff0c\u8207\u6bd4\u52d2\u7684\u5152\u5b50\u5b89\uff0c\u5e36\u8457\u4eba\u4f86\uff0c"
        },
        {
            "chapter": 16,
            "verse": 2,
            "name": "Numbers 16:2",
            "text": "\u53cd\u6297\u6469\u897f\uff0c\u9084\u6709\u4ee5\u8272\u5217\u4eba\u4e2d\u7684\u4e8c\u767e\u4e94\u5341\u500b\u4eba\uff0c\u5c31\u662f\u6703\u773e\u7684\u9818\u8896\uff1b\u6703\u773e\u4e2d\u88ab\u9078\u51fa\u6709\u540d\u671b\u7684\u4eba\u3002"
        },
        {
            "chapter": 16,
            "verse": 3,
            "name": "Numbers 16:3",
            "text": "\u4ed6\u5011\u805a\u96c6\u8d77\u4f86\u53cd\u6297\u6469\u897f\u548c\u4e9e\u502b\uff0c\u5c0d\u4ed6\u5011\u8aaa\uff1a\u201c\u4f60\u5011\u592a\u904e\u5206\u4e86\uff0c\u5168\u9ad4\u6703\u773e\u500b\u500b\u90fd\u662f\u8056\u6f54\u7684\uff0c\u8036\u548c\u83ef\u4e5f\u5728\u4ed6\u5011\u4e2d\u9593\uff0c\u4f60\u5011\u70ba\u751a\u9ebc\u9ad8\u62ac\u81ea\u5df1\uff0c\u8d85\u904e\u8036\u548c\u83ef\u7684\u6703\u773e\u5462\uff1f\u201d"
        },
        {
            "chapter": 16,
            "verse": 4,
            "name": "Numbers 16:4",
            "text": "\u6469\u897f\u807d\u898b\u4e86\uff0c\u5c31\u81c9\u4f0f\u65bc\u5730\uff0c"
        },
        {
            "chapter": 16,
            "verse": 5,
            "name": "Numbers 16:5",
            "text": "\u5c0d\u53ef\u62c9\u548c\u4ed6\u7684\u540c\u9ee8\u8aaa\uff1a\u201c\u5230\u4e86\u65e9\u6668\uff0c\u8036\u548c\u83ef\u5c31\u8981\u4f7f\u4eba\u77e5\u9053\u8ab0\u662f\u5c6c\u4ed6\u7684\uff1b\u8ab0\u662f\u8056\u6f54\u7684\uff0c\u5c31\u53eb\u8ab0\u89aa\u8fd1\u4ed6\uff1b\u8ab0\u662f\u4ed6\u63c0\u9078\u7684\uff0c\u5c31\u53eb\u8ab0\u89aa\u8fd1\u4ed6\u3002"
        },
        {
            "chapter": 16,
            "verse": 6,
            "name": "Numbers 16:6",
            "text": "\u4f60\u5011\u8981\u9019\u6a23\u4f5c\uff1a\u53ef\u62c9\u548c\u4f60\u7684\u540c\u9ee8\uff0c\u4f60\u5011\u8981\u62ff\u9999\u7210\u4f86\uff1b"
        },
        {
            "chapter": 16,
            "verse": 7,
            "name": "Numbers 16:7",
            "text": "\u660e\u5929\u4f60\u5011\u8981\u5728\u8036\u548c\u83ef\u9762\u524d\uff0c\u628a\u706b\u76db\u5728\u7210\u4e2d\uff0c\u628a\u9999\u653e\u5728\u4e0a\u9762\uff1b\u8036\u548c\u83ef\u63c0\u9078\u8ab0\uff0c\u8ab0\u5c31\u662f\u8056\u6f54\u7684\uff0c\u4f60\u5011\u5229\u672a\u4eba\u592a\u904e\u5206\u4e86\u3002\u201d"
        },
        {
            "chapter": 16,
            "verse": 8,
            "name": "Numbers 16:8",
            "text": "\u6469\u897f\u53c8\u5c0d\u53ef\u62c9\u8aaa\uff1a\u201c\u5229\u672a\u4eba\u54ea\uff0c\u8acb\u807d\u3002"
        },
        {
            "chapter": 16,
            "verse": 9,
            "name": "Numbers 16:9",
            "text": "\u4ee5\u8272\u5217\u7684\u3000\u795e\u628a\u4f60\u5011\u5f9e\u4ee5\u8272\u5217\u6703\u773e\u4e2d\u5206\u5225\u51fa\u4f86\uff0c\u4f7f\u4f60\u5011\u89aa\u8fd1\u4ed6\uff0c\u8fa6\u7406\u8036\u548c\u83ef\u5e33\u5e55\u7684\u4e8b\u52d9\uff0c\u53c8\u7ad9\u5728\u6703\u773e\u9762\u524d\u66ff\u4ed6\u5011\u4f9b\u8077\uff1b"
        },
        {
            "chapter": 16,
            "verse": 10,
            "name": "Numbers 16:10",
            "text": "\u8036\u548c\u83ef\u53c8\u4f7f\u4f60\u548c\u4f60\u6240\u6709\u7684\u5144\u5f1f\uff0c\u5c31\u662f\u5229\u672a\u7684\u5b50\u5b6b\uff0c\u4e00\u540c\u89aa\u8fd1\u4ed6\uff0c\u9019\u5728\u4f60\u5011\u770b\u4f86\u662f\u5c0f\u4e8b\u55ce\uff1f\u4f60\u5011\u9084\u8981\u5c0b\u6c42\u796d\u53f8\u8077\u5206\u55ce\uff1f"
        },
        {
            "chapter": 16,
            "verse": 11,
            "name": "Numbers 16:11",
            "text": "\u6240\u4ee5\u4f60\u548c\u4f60\u7684\u540c\u9ee8\u805a\u96c6\u8d77\u4f86\u53cd\u6297\u8036\u548c\u83ef\uff1b\u4e9e\u502b\u7b97\u751a\u9ebc\u5462\uff1f\u4f60\u5011\u7adf\u5411\u4ed6\u767c\u6028\u8a00\u3002\u201d"
        },
        {
            "chapter": 16,
            "verse": 12,
            "name": "Numbers 16:12",
            "text": "\u6469\u897f\u6d3e\u4eba\u53bb\u628a\u4ee5\u5229\u62bc\u7684\u5152\u5b50\u5927\u574d\u548c\u4e9e\u6bd4\u862d\u53eb\u4f86\uff1b\u4ed6\u5011\u8aaa\uff1a\u201c\u6211\u5011\u4e0d\u4e0a\u53bb\u3002"
        },
        {
            "chapter": 16,
            "verse": 13,
            "name": "Numbers 16:13",
            "text": "\u4f60\u628a\u6211\u5011\u5f9e\u6d41\u5976\u8207\u871c\u7684\u5730\u5e36\u4e0a\u4f86\uff0c\u8981\u5728\u66e0\u91ce\u6bba\u6b7b\u6211\u5011\uff0c\u9019\u7b97\u5c0f\u4e8b\u55ce\uff1f\u4f60\u9084\u8981\u81ea\u7acb\u70ba\u738b\u7ba1\u8f44\u6211\u5011\u55ce\uff1f"
        },
        {
            "chapter": 16,
            "verse": 14,
            "name": "Numbers 16:14",
            "text": "\u6cc1\u4e14\u4f60\u6c92\u6709\u628a\u6211\u5011\u9818\u5230\u6d41\u5976\u8207\u871c\u7684\u5730\uff0c\u4e5f\u6c92\u6709\u628a\u7530\u5730\u548c\u8461\u8404\u5712\u7d66\u6211\u5011\u4f5c\u7522\u696d\u3002\u96e3\u9053\u4f60\u8981\u628a\u9019\u4e9b\u4eba\u7684\u773c\u775b\u525c\u51fa\u4f86\u55ce\uff1f\u6211\u5011\u4e0d\u4e0a\u53bb\u3002\u201d"
        },
        {
            "chapter": 16,
            "verse": 15,
            "name": "Numbers 16:15",
            "text": "\u65bc\u662f\u6469\u897f\u5927\u6012\uff0c\u5c0d\u8036\u548c\u83ef\u8aaa\uff1a\u201c\u6c42\u4f60\u4e0d\u8981\u6085\u7d0d\u4ed6\u5011\u7684\u79ae\u7269\uff0c\u6211\u6c92\u6709\u596a\u904e\u4ed6\u5011\u4e00\u982d\u9a62\uff0c\u4e5f\u6c92\u6709\u5bb3\u904e\u4ed6\u5011\u4e00\u500b\u4eba\u3002\u201d"
        },
        {
            "chapter": 16,
            "verse": 16,
            "name": "Numbers 16:16",
            "text": "\u6469\u897f\u5c0d\u53ef\u62c9\u8aaa\uff1a\u201c\u660e\u5929\u4f60\u548c\u4f60\u7684\u540c\u9ee8\uff0c\u4ee5\u53ca\u4e9e\u502b\uff0c\u90fd\u8981\u7ad9\u5728\u8036\u548c\u83ef\u9762\u524d\u3002"
        },
        {
            "chapter": 16,
            "verse": 17,
            "name": "Numbers 16:17",
            "text": "\u4f60\u5011\u5404\u4eba\u8981\u62ff\u8457\u81ea\u5df1\u7684\u9999\u7210\uff0c\u628a\u9999\u76db\u5728\u4e0a\u9762\uff1b\u4f60\u5011\u5404\u4eba\u8981\u628a\u81ea\u5df1\u7684\u9999\u7210\u5e36\u5230\u8036\u548c\u83ef\u9762\u524d\uff0c\u5171\u4e8c\u767e\u4e94\u5341\u500b\u9999\u7210\uff1b\u4f60\u548c\u4e9e\u502b\u4e5f\u5404\u4eba\u62ff\u8457\u81ea\u5df1\u7684\u9999\u7210\u3002\u201d"
        },
        {
            "chapter": 16,
            "verse": 18,
            "name": "Numbers 16:18",
            "text": "\u65bc\u662f\uff0c\u4ed6\u5011\u5404\u4eba\u62ff\u8457\u81ea\u5df1\u7684\u9999\u7210\uff0c\u76db\u4e0a\u706b\uff0c\u52a0\u4e0a\u9999\uff0c\u8207\u6469\u897f\u548c\u4e9e\u502b\u4e00\u540c\u7ad9\u5728\u6703\u5e55\u9580\u53e3\u3002"
        },
        {
            "chapter": 16,
            "verse": 19,
            "name": "Numbers 16:19",
            "text": "\u53ef\u62c9\u53ec\u805a\u4e86\u5168\u9ad4\u6703\u773e\u5230\u6703\u5e55\u9580\u53e3\uff0c\u4f86\u653b\u64ca\u6469\u897f\u548c\u4e9e\u502b\uff0c\u8036\u548c\u83ef\u7684\u69ae\u5149\u5c31\u5411\u5168\u9ad4\u6703\u773e\u986f\u73fe\u3002"
        },
        {
            "chapter": 16,
            "verse": 20,
            "name": "Numbers 16:20",
            "text": "\u8036\u548c\u83ef\u5c0d\u6469\u897f\u548c\u4e9e\u502b\u8aaa\uff1a"
        },
        {
            "chapter": 16,
            "verse": 21,
            "name": "Numbers 16:21",
            "text": "\u201c\u4f60\u5011\u8981\u96e2\u958b\u9019\u6703\u773e\uff0c\u6211\u597d\u5728\u7728\u773c\u9593\u628a\u4ed6\u5011\u541e\u6ec5\u3002\u201d"
        },
        {
            "chapter": 16,
            "verse": 22,
            "name": "Numbers 16:22",
            "text": "\u6469\u897f\u548c\u4e9e\u502b\u5c31\u4fef\u4f0f\u5728\u5730\uff0c\u8aaa\uff1a\u201c\u3000\u795e\u554a\uff0c\u842c\u4eba\u4e4b\u9748\u7684\u3000\u795e\u554a\uff0c\u4e00\u4eba\u72af\u7f6a\uff0c\u4f60\u5c31\u8981\u5411\u5168\u9ad4\u6703\u773e\u767c\u6012\u55ce\uff1f\u201d"
        },
        {
            "chapter": 16,
            "verse": 23,
            "name": "Numbers 16:23",
            "text": "\u8036\u548c\u83ef\u5c0d\u6469\u897f\u8aaa\uff1a"
        },
        {
            "chapter": 16,
            "verse": 24,
            "name": "Numbers 16:24",
            "text": "\u201c\u4f60\u8981\u5429\u5490\u6703\u773e\u8aaa\uff1a\u2018\u4f60\u5011\u8981\u96e2\u958b\u53ef\u62c9\u3001\u5927\u574d\u3001\u4e9e\u6bd4\u862d\u5e33\u5e55\u7684\u56db\u5468\u3002\u2019\u201d"
        },
        {
            "chapter": 16,
            "verse": 25,
            "name": "Numbers 16:25",
            "text": "\u65bc\u662f\u6469\u897f\u8d77\u4f86\uff0c\u5230\u5927\u574d\u548c\u4e9e\u6bd4\u862d\u90a3\u88e1\u53bb\uff1b\u4ee5\u8272\u5217\u7684\u9577\u8001\u4e5f\u96a8\u8457\u4ed6\u53bb\u4e86\u3002"
        },
        {
            "chapter": 16,
            "verse": 26,
            "name": "Numbers 16:26",
            "text": "\u6469\u897f\u544a\u8a34\u6703\u773e\uff1a\u201c\u4f60\u5011\u8981\u9060\u96e2\u9019\u4e9b\u60e1\u4eba\u7684\u5e33\u5e55\uff0c\u51e1\u662f\u4ed6\u5011\u7684\u6771\u897f\uff0c\u4f60\u5011\u90fd\u4e0d\u53ef\u6478\uff0c\u514d\u5f97\u4f60\u5011\u56e0\u4ed6\u5011\u7684\u4e00\u5207\u7f6a\u60e1\u540c\u906d\u6bc0\u6ec5\u3002\u201d"
        },
        {
            "chapter": 16,
            "verse": 27,
            "name": "Numbers 16:27",
            "text": "\u65bc\u662f\uff0c\u773e\u4eba\u96e2\u958b\u4e86\u53ef\u62c9\u3001\u5927\u574d\u3001\u4e9e\u6bd4\u862d\u5e33\u5e55\u7684\u56db\u5468\uff1b\u5927\u574d\u3001\u4e9e\u6bd4\u862d\u5c31\u5e36\u8457\u59bb\u5b50\u3001\u5152\u5973\u548c\u5c0f\u5b69\u51fa\u4f86\uff0c\u7ad9\u5728\u81ea\u5df1\u7684\u5e33\u5e55\u9580\u53e3\u3002"
        },
        {
            "chapter": 16,
            "verse": 28,
            "name": "Numbers 16:28",
            "text": "\u6469\u897f\u8aaa\uff1a\u201c\u7531\u6b64\u4f60\u5011\u53ef\u4ee5\u77e5\u9053\uff0c\u6211\u4f5c\u9019\u4e00\u5207\u4e8b\uff0c\u662f\u8036\u548c\u83ef\u6d3e\u6211\u4f5c\u7684\uff0c\u4e26\u4e0d\u662f\u51fa\u65bc\u6211\u81ea\u5df1\u7684\u5fc3\u610f\u3002"
        },
        {
            "chapter": 16,
            "verse": 29,
            "name": "Numbers 16:29",
            "text": "\u5982\u679c\u9019\u4e9b\u4eba\u6b7b\u4ea1\u50cf\u4e00\u822c\u4eba\u6b7b\u4ea1\u4e00\u6a23\uff0c\u6216\u662f\u4ed6\u5011\u6240\u906d\u9047\u7684\u50cf\u4e00\u822c\u4eba\u7684\u906d\u9047\u4e00\u6a23\uff0c\u90a3\u9ebc\u5c31\u4e0d\u662f\u8036\u548c\u83ef\u6d3e\u6211\u4f86\u7684\u3002"
        },
        {
            "chapter": 16,
            "verse": 30,
            "name": "Numbers 16:30",
            "text": "\u5982\u679c\u8036\u548c\u83ef\u4f5c\u4e00\u4ef6\u65b0\u4e8b\uff0c\u4f7f\u5730\u958b\u53e3\uff0c\u628a\u4ed6\u5011\u548c\u4ed6\u5011\u6240\u6709\u7684\u90fd\u541e\u4e0b\u53bb\uff0c\u53eb\u4ed6\u5011\u6d3b\u6d3b\u5730\u4e0b\u5230\u9670\u9593\uff0c\u9019\u6a23\u4f60\u5011\u5c31\u77e5\u9053\u9019\u4e9b\u4eba\u662f\u85d0\u8996\u8036\u548c\u83ef\u4e86\u3002\u201d"
        },
        {
            "chapter": 16,
            "verse": 31,
            "name": "Numbers 16:31",
            "text": "\u6469\u897f\u8aaa\u5b8c\u4e86\u9019\u4e00\u5207\u8a71\uff0c\u4ed6\u5011\u8173\u4e0b\u7684\u5730\u5c31\u88c2\u958b\u3002"
        },
        {
            "chapter": 16,
            "verse": 32,
            "name": "Numbers 16:32",
            "text": "\u5730\u958b\u4e86\u53e3\uff0c\u628a\u4ed6\u5011\u548c\u4ed6\u5011\u7684\u5bb6\u7737\uff0c\u4ee5\u53ca\u4e00\u5207\u5c6c\u53ef\u62c9\u7684\u4eba\u548c\u8ca1\u7269\uff0c\u90fd\u541e\u4e86\u4e0b\u53bb\u3002"
        },
        {
            "chapter": 16,
            "verse": 33,
            "name": "Numbers 16:33",
            "text": "\u9019\u6a23\uff0c\u4ed6\u5011\u548c\u4e00\u5207\u5c6c\u4ed6\u5011\u7684\uff0c\u90fd\u6d3b\u6d3b\u5730\u4e0b\u5230\u9670\u9593\uff0c\u5730\u5728\u4ed6\u5011\u4e0a\u9762\u5408\u9589\uff0c\u4ed6\u5011\u5c31\u5f9e\u6703\u773e\u4e2d\u6ec5\u4ea1\u4e86\u3002"
        },
        {
            "chapter": 16,
            "verse": 34,
            "name": "Numbers 16:34",
            "text": "\u5728\u4ed6\u5011\u56db\u5468\u7684\u4ee5\u8272\u5217\u773e\u4eba\uff0c\u807d\u898b\u4ed6\u5011\u7684\u547c\u53eb\uff0c\u5c31\u90fd\u9003\u8dd1\uff0c\u8aaa\uff1a\u201c\u6050\u6015\u5730\u4e5f\u628a\u6211\u5011\u541e\u4e0b\u53bb\u3002\u201d"
        },
        {
            "chapter": 16,
            "verse": 35,
            "name": "Numbers 16:35",
            "text": "\u53c8\u6709\u706b\u5f9e\u8036\u548c\u83ef\u90a3\u88e1\u51fa\u4f86\uff0c\u628a\u90a3\u737b\u9999\u7684\u4e8c\u767e\u4e94\u5341\u500b\u4eba\u541e\u6ec5\u4e86\u3002"
        },
        {
            "chapter": 16,
            "verse": 36,
            "name": "Numbers 16:36",
            "text": "\u8036\u548c\u83ef\u5c0d\u6469\u897f\u8aaa\uff1a"
        },
        {
            "chapter": 16,
            "verse": 37,
            "name": "Numbers 16:37",
            "text": "\u201c\u4f60\u8981\u5429\u5490\u4e9e\u502b\u796d\u53f8\u7684\u5152\u5b50\u4ee5\u5229\u4e9e\u6492\uff0c\u53eb\u4ed6\u628a\u90a3\u4e9b\u9999\u7210\u5f9e\u706b\u4e2d\u62fe\u8d77\u4f86\uff0c\u628a\u706b\u6492\u5728\u5225\u8655\uff0c\u56e0\u70ba\u90a3\u4e9b\u9999\u7210\u662f\u8056\u7684\uff1b"
        },
        {
            "chapter": 16,
            "verse": 38,
            "name": "Numbers 16:38",
            "text": "\u90a3\u4e9b\u81ea\u5bb3\u5df1\u547d\u7684\u4eba\u7684\u9999\u7210\u4e5f\u662f\u8056\u7684\uff0c\u4f60\u5011\u8981\u628a\u5b83\u5011\u9318\u6210\u8584\u7247\uff0c\u7528\u4f86\u5305\u84cb\u796d\u58c7\uff1b\u90a3\u4e9b\u9999\u7210\u672c\u662f\u4ed6\u5011\u5728\u8036\u548c\u83ef\u9762\u524d\u737b\u904e\u7684\uff0c\u6240\u4ee5\u5df2\u7d93\u6210\u70ba\u8056\u7684\uff0c\u4e26\u4e14\u53ef\u4ee5\u7d66\u4ee5\u8272\u5217\u4f5c\u9452\u6212\u3002\u201d"
        },
        {
            "chapter": 16,
            "verse": 39,
            "name": "Numbers 16:39",
            "text": "\u65bc\u662f\uff0c\u4ee5\u5229\u4e9e\u6492\u796d\u53f8\u628a\u88ab\u706b\u711a\u71d2\u7684\u4eba\u737b\u904e\u7684\u9285\u9999\u7210\u62ff\u8d77\u4f86\uff0c\u53eb\u4eba\u9318\u6210\u8584\u7247\uff0c\u7528\u4f86\u5305\u84cb\u796d\u58c7\uff0c"
        },
        {
            "chapter": 16,
            "verse": 40,
            "name": "Numbers 16:40",
            "text": "\u7d66\u4ee5\u8272\u5217\u4eba\u4f5c\u9452\u6212\uff0c\u53eb\u4e0d\u662f\u4e9e\u502b\u5b50\u5b6b\u7684\u5916\u4eba\uff0c\u4e0d\u53ef\u8fd1\u524d\u4f86\uff0c\u5728\u8036\u548c\u83ef\u9762\u524d\u71d2\u9999\uff0c\u514d\u5f97\u4ed6\u50cf\u53ef\u62c9\u548c\u4ed6\u7684\u540c\u9ee8\u6709\u4e00\u6a23\u7684\u906d\u9047\uff1b\u9019\u662f\u7167\u8457\u8036\u548c\u83ef\u85c9\u6469\u897f\u5429\u5490\u4ee5\u5229\u4e9e\u6492\u7684\u3002"
        },
        {
            "chapter": 16,
            "verse": 41,
            "name": "Numbers 16:41",
            "text": "\u7b2c\u4e8c\u5929\uff0c\u4ee5\u8272\u5217\u5168\u9ad4\u6703\u773e\u90fd\u5411\u6469\u897f\u548c\u4e9e\u502b\u767c\u6028\u8a00\uff0c\u8aaa\uff1a\u201c\u4f60\u5011\u5bb3\u6b7b\u4e86\u8036\u548c\u83ef\u7684\u5b50\u6c11\u3002\u201d"
        },
        {
            "chapter": 16,
            "verse": 42,
            "name": "Numbers 16:42",
            "text": "\u6703\u773e\u805a\u96c6\u653b\u64ca\u6469\u897f\u548c\u4e9e\u502b\u7684\u6642\u5019\uff0c\u4ed6\u5011\u8f49\u8eab\u5411\u6703\u5e55\u89c0\u770b\uff0c\u898b\u6709\u96f2\u5f69\u906e\u84cb\u6703\u5e55\uff0c\u8036\u548c\u83ef\u7684\u69ae\u5149\u986f\u73fe\u51fa\u4f86\u3002"
        },
        {
            "chapter": 16,
            "verse": 43,
            "name": "Numbers 16:43",
            "text": "\u6469\u897f\u548c\u4e9e\u502b\u5c31\u4f86\u5230\u6703\u5e55\u524d\u9762\u3002"
        },
        {
            "chapter": 16,
            "verse": 44,
            "name": "Numbers 16:44",
            "text": "\u8036\u548c\u83ef\u5429\u5490\u6469\u897f\u8aaa\uff1a"
        },
        {
            "chapter": 16,
            "verse": 45,
            "name": "Numbers 16:45",
            "text": "\u201c\u4f60\u5011\u8981\u96e2\u958b\u9019\u6703\u773e\uff0c\u6211\u597d\u5728\u7728\u773c\u9593\u628a\u4ed6\u5011\u6d88\u6ec5\u3002\u201d\u4ed6\u5011\u4e8c\u4eba\u5c31\u4fef\u4f0f\u5728\u5730\u3002"
        },
        {
            "chapter": 16,
            "verse": 46,
            "name": "Numbers 16:46",
            "text": "\u6469\u897f\u5c0d\u4e9e\u502b\u8aaa\uff1a\u201c\u4f60\u8981\u62ff\u8457\u9999\u7210\uff0c\u628a\u58c7\u4e0a\u7684\u706b\u76db\u5728\u88e1\u982d\uff0c\u53c8\u52a0\u4e0a\u9999\uff0c\u5feb\u5feb\u5e36\u5230\u6703\u773e\u90a3\u88e1\u53bb\uff0c\u70ba\u4ed6\u5011\u8d16\u7f6a\uff0c\u56e0\u70ba\u6709\u9707\u6012\u5f9e\u8036\u548c\u83ef\u9762\u524d\u51fa\u4f86\uff0c\u761f\u75ab\u5df2\u7d93\u958b\u59cb\u4e86\u3002\u201d"
        },
        {
            "chapter": 16,
            "verse": 47,
            "name": "Numbers 16:47",
            "text": "\u4e9e\u502b\u7167\u8457\u6469\u897f\u5429\u5490\u7684\u628a\u9999\u7210\u62ff\u4f86\uff0c\u8dd1\u5230\u6703\u773e\u4e2d\u9593\uff0c\u679c\u7136\uff0c\u761f\u75ab\u5df2\u7d93\u5728\u4eba\u6c11\u4e2d\u9593\u958b\u59cb\u4e86\uff1b\u4ed6\u5c31\u52a0\u4e0a\u9999\uff0c\u70ba\u4eba\u6c11\u8d16\u7f6a\u3002"
        },
        {
            "chapter": 16,
            "verse": 48,
            "name": "Numbers 16:48",
            "text": "\u4ed6\u7ad9\u5728\u6b7b\u4eba\u8207\u6d3b\u4eba\u4e2d\u9593\uff0c\u761f\u75ab\u5c31\u6b62\u4f4f\u4e86\u3002"
        },
        {
            "chapter": 16,
            "verse": 49,
            "name": "Numbers 16:49",
            "text": "\u9664\u4e86\u56e0\u53ef\u62c9\u4e8b\u4ef6\u6b7b\u4ea1\u7684\u4ee5\u5916\uff0c\u56e0\u761f\u75ab\u6b7b\u4ea1\u7684\u6709\u4e00\u842c\u56db\u5343\u4e03\u767e\u4eba\u3002"
        },
        {
            "chapter": 16,
            "verse": 50,
            "name": "Numbers 16:50",
            "text": "\u4e9e\u502b\u56de\u5230\u6703\u5e55\u9580\u53e3\u6469\u897f\u90a3\u88e1\uff0c\u761f\u75ab\u5df2\u7d93\u6b62\u4f4f\u4e86\u3002\uff08\u672c\u7ae0\u7b2c36~50\u7bc0\u5728\u300a\u99ac\u7d22\u62c9\u6284\u672c\u300b\u70ba17:1~15\uff09"
        }
    ]
}