{
    "translation": "Luther (1545)",
    "abbreviation": "luther1545",
    "lang": "de",
    "language": "German",
    "direction": "LTR",
    "encoding": "UTF-8",
    "book_nr": 24,
    "book_name": "Jeremia",
    "chapter": 47,
    "name": "Jeremia 47",
    "verses": [
        {
            "chapter": 47,
            "verse": 1,
            "name": "Jeremia 47:1",
            "text": "Dies ist das Wort des HErrn, das zum Propheten Jeremia geschah wider die Philister, ehe denn Pharao Gaza schlug. "
        },
        {
            "chapter": 47,
            "verse": 2,
            "name": "Jeremia 47:2",
            "text": "So spricht der HErr: Siehe, es kommen Wasser herauf von Mitternacht, die eine Flut machen werden und beide, Land und was drinnen ist, beide, St\u00e4dte und die, so drinnen wohnen, wegrei\u00dfen werden, da\u00df die Leute werden schreien und alle Einwohner im Lande heulen "
        },
        {
            "chapter": 47,
            "verse": 3,
            "name": "Jeremia 47:3",
            "text": "vor dem Get\u00fcmmel ihrer starken Rosse, so dahertraben, und vor dem Rasseln ihrer Wagen und Poltern ihrer R\u00e4der, da\u00df sich die V\u00e4ter nicht werden umsehen nach den Kindern, so verzagt werden sie sein "
        },
        {
            "chapter": 47,
            "verse": 4,
            "name": "Jeremia 47:4",
            "text": "vor dem Tage, so da kommt, zu verst\u00f6ren alle Philister und auszureuten Tyrus und Zidon samt ihren andern Gehilfen. Denn der HErr wird die Philister, die das \u00dcbrige sind aus der Insel Kaphthor, verst\u00f6ren. "
        },
        {
            "chapter": 47,
            "verse": 5,
            "name": "Jeremia 47:5",
            "text": "Gaza wird kahl werden und Askalon samt den \u00dcbrigen in ihren Gr\u00fcnden verderbet. Wie lange ritzest du dich? "
        },
        {
            "chapter": 47,
            "verse": 6,
            "name": "Jeremia 47:6",
            "text": "O du Schwert des HErrn, wann willst du doch aufh\u00f6ren? Fahre doch in deine Scheide und ruhe und sei still! "
        },
        {
            "chapter": 47,
            "verse": 7,
            "name": "Jeremia 47:7",
            "text": "Aber wie kannst du aufh\u00f6ren, weil der HErr dir Befehl getan hat wider Askalon, der dich wider die Anfurt am Meer bestellet?  "
        }
    ]
}