{
    "translation": "NCV Traditional",
    "abbreviation": "cnt",
    "lang": "zh",
    "language": "",
    "direction": "LTR",
    "encoding": "UTF-8",
    "book_nr": 11,
    "book_name": "1 Kings",
    "chapter": 19,
    "name": "1 Kings 19",
    "verses": [
        {
            "chapter": 19,
            "verse": 1,
            "name": "1 Kings 19:1",
            "text": "\u4e9e\u54c8\u628a\u4ee5\u5229\u4e9e\u6240\u884c\u7684\u4e00\u5207\uff0c\u548c\u4ed6\u7528\u5200\u6bba\u6b7b\u773e\u5148\u77e5\u7684\u4e00\u5207\u4e8b\uff0c\u90fd\u544a\u8a34\u4e86\u8036\u6d17\u5225\u3002"
        },
        {
            "chapter": 19,
            "verse": 2,
            "name": "1 Kings 19:2",
            "text": "\u8036\u6d17\u5225\u5c31\u5dee\u6d3e\u4e00\u500b\u4f7f\u8005\u53bb\u898b\u4ee5\u5229\u4e9e\u8aaa\uff1a\u201c\u660e\u5929\u9019\u500b\u6642\u5019\uff0c\u5982\u679c\u6211\u4e0d\u4f7f\u4f60\u7684\u6027\u547d\uff0c\u50cf\u90a3\u4e9b\u4eba\u4e00\u6a23\uff0c\u9858\u795e\u660e\u61f2\u7f70\u6211\uff0c\u4e26\u4e14\u52a0\u500d\u61f2\u7f70\u6211\u3002\u201d"
        },
        {
            "chapter": 19,
            "verse": 3,
            "name": "1 Kings 19:3",
            "text": "\u4ee5\u5229\u4e9e\u5bb3\u6015\uff0c\u5c31\u8d77\u4f86\uff0c\u9003\u547d\u53bb\u4e86\u3002\u4ed6\u5230\u4e86\u7336\u5927\u7684\u5225\u662f\u5df4\uff0c\u5c31\u628a\u81ea\u5df1\u7684\u50d5\u4eba\u7559\u5728\u90a3\u88e1\u3002"
        },
        {
            "chapter": 19,
            "verse": 4,
            "name": "1 Kings 19:4",
            "text": "\u4ed6\u81ea\u5df1\u537b\u5728\u66e0\u91ce\u8d70\u4e86\u4e00\u5929\u7684\u8def\uff0c\u4f86\u5230\u4e00\u68f5\u7f85\u9a30\u6a39\u4e0b\uff0c\u5c31\u5750\u5728\u90a3\u88e1\u6c42\u6b7b\uff0c\u8aaa\uff1a\u201c\u8036\u548c\u83ef\u554a\uff0c\u73fe\u5728\u5df2\u7d93\u5920\u4e86\uff0c\u6c42\u4f60\u53d6\u6211\u7684\u6027\u547d\u5427\uff0c\u56e0\u70ba\u6211\u4e26\u4e0d\u6bd4\u6211\u7684\u5217\u7956\u597d\u3002\u201d"
        },
        {
            "chapter": 19,
            "verse": 5,
            "name": "1 Kings 19:5",
            "text": "\u4ed6\u8eba\u5728\u90a3\u68f5\u7f85\u9a30\u6a39\u4e0b\uff0c\u7761\u8457\u4e86\u3002\u5ffd\u7136\u6709\u4e00\u4f4d\u5929\u4f7f\u62cd\u4ed6\uff0c\u8aaa\uff1a\u201c\u8d77\u4f86\uff0c\u5403\u5427\uff01\u201d"
        },
        {
            "chapter": 19,
            "verse": 6,
            "name": "1 Kings 19:6",
            "text": "\u4ed6\u5f35\u773c\u4e00\u770b\uff0c\u53ea\u898b\u982d\u65c1\u6709\u7528\u70ad\u706b\u70e4\u7684\u9905\u548c\u4e00\u74f6\u6c34\u3002\u4ed6\u5c31\u8d77\u4f86\u5403\u559d\uff0c\u7136\u5f8c\u53c8\u8eba\u4e0b\u53bb\u3002"
        },
        {
            "chapter": 19,
            "verse": 7,
            "name": "1 Kings 19:7",
            "text": "\u8036\u548c\u83ef\u7684\u4f7f\u8005\u7b2c\u4e8c\u6b21\u56de\u4f86\u62cd\u4ed6\uff0c\u8aaa\uff1a\u201c\u8d77\u4f86\u5403\u5427\uff01\u56e0\u70ba\u4f60\u8981\u8d70\u7684\u8def\u7a0b\u592a\u9060\u4e86\u3002\u201d"
        },
        {
            "chapter": 19,
            "verse": 8,
            "name": "1 Kings 19:8",
            "text": "\u65bc\u662f\u4ed6\u8d77\u4f86\u5403\u559d\uff0c\u9760\u8457\u90a3\u98df\u7269\u7684\u529b\u91cf\uff0c\u4ed6\u8d70\u4e86\u56db\u5341\u665d\u591c\uff0c\u76f4\u8d70\u5230\u3000\u795e\u7684\u5c71\uff0c\u5c31\u662f\u4f55\u70c8\u5c71\u3002"
        },
        {
            "chapter": 19,
            "verse": 9,
            "name": "1 Kings 19:9",
            "text": "\u4ed6\u5728\u90a3\u88e1\u9032\u4e86\u4e00\u500b\u6d1e\uff0c\u5c31\u5728\u6d1e\u88e1\u904e\u591c\u3002\u8036\u548c\u83ef\u7684\u8a71\u81e8\u5230\u4ed6\uff0c\u8aaa\uff1a\u201c\u4ee5\u5229\u4e9e\u554a\uff0c\u4f60\u5728\u9019\u88e1\u5e79\u751a\u9ebc\uff1f\u201d"
        },
        {
            "chapter": 19,
            "verse": 10,
            "name": "1 Kings 19:10",
            "text": "\u4ed6\u8aaa\uff1a\u201c\u6211\u70ba\u8036\u548c\u83ef\u842c\u8ecd\u7684\u3000\u795e\u5927\u767c\u71b1\u5fc3\uff0c\u56e0\u70ba\u4ee5\u8272\u5217\u4eba\u80cc\u68c4\u4e86\u4f60\u7684\u7d04\uff0c\u62c6\u6bc0\u4e86\u4f60\u7684\u796d\u58c7\uff0c\u7528\u5200\u6bba\u6b7b\u4e86\u4f60\u7684\u773e\u5148\u77e5\uff0c\u53ea\u5269\u4e0b\u6211\u4e00\u500b\u4eba\uff0c\u4ed6\u5011\u9084\u5728\u5c0b\u7d22\uff0c\u8981\u53d6\u53bb\u6211\u7684\u6027\u547d\u3002\u201d"
        },
        {
            "chapter": 19,
            "verse": 11,
            "name": "1 Kings 19:11",
            "text": "\u8036\u548c\u83ef\u8aaa\uff1a\u201c\u4f60\u51fa\u4f86\u7ad9\u5728\u5c71\u4e0a\uff0c\u5728\u6211\u8036\u548c\u83ef\u9762\u524d\u3002\u201d\u90a3\u6642\uff0c\u8036\u548c\u83ef\u5f9e\u90a3\u88e1\u7d93\u904e\u3002\u5728\u8036\u548c\u83ef\u9762\u524d\u6709\u5f37\u70c8\u7684\u5927\u98a8\uff0c\u5c71\u5d29\u77f3\u788e\uff0c\u4f46\u8036\u548c\u83ef\u4e0d\u5728\u98a8\u4e2d\uff1b\u98a8\u904e\u4ee5\u5f8c\u6709\u5730\u9707\uff0c\u4f46\u8036\u548c\u83ef\u4e5f\u4e0d\u5728\u5730\u9707\u4e2d\uff1b"
        },
        {
            "chapter": 19,
            "verse": 12,
            "name": "1 Kings 19:12",
            "text": "\u5730\u9707\u904e\u5f8c\u6709\u706b\uff0c\u8036\u548c\u83ef\u4e5f\u4e0d\u5728\u706b\u4e2d\uff1b\u706b\u5f8c\u6709\u4f4e\u5fae\u67d4\u548c\u7684\u8072\u97f3\u3002"
        },
        {
            "chapter": 19,
            "verse": 13,
            "name": "1 Kings 19:13",
            "text": "\u4ee5\u5229\u4e9e\u807d\u898b\u4e86\uff0c\u5c31\u7528\u81ea\u5df1\u7684\u5916\u8863\u8499\u8457\u81c9\uff0c\u8d70\u51fa\u4f86\uff0c\u7ad9\u5728\u6d1e\u53e3\u3002\u5ffd\u7136\u6709\u8072\u97f3\u5411\u4ed6\u8aaa\uff1a\u201c\u4ee5\u5229\u4e9e\u554a\uff0c\u4f60\u5728\u9019\u88e1\u5e79\u751a\u9ebc\uff1f\u201d"
        },
        {
            "chapter": 19,
            "verse": 14,
            "name": "1 Kings 19:14",
            "text": "\u4ee5\u5229\u4e9e\u8aaa\uff1a\u201c\u6211\u70ba\u8036\u548c\u83ef\u842c\u8ecd\u7684\u3000\u795e\u5927\u767c\u71b1\u5fc3\uff0c\u56e0\u70ba\u4ee5\u8272\u5217\u4eba\u80cc\u68c4\u4e86\u4f60\u7684\u7d04\uff0c\u62c6\u6bc0\u4e86\u4f60\u7684\u796d\u58c7\uff0c\u7528\u5200\u6bba\u4e86\u4f60\u7684\u773e\u5148\u77e5\uff0c\u53ea\u5269\u4e0b\u6211\u4e00\u500b\u4eba\uff0c\u4ed6\u5011\u9084\u5728\u5c0b\u7d22\uff0c\u8981\u53d6\u53bb\u6211\u7684\u6027\u547d\u3002\u201d"
        },
        {
            "chapter": 19,
            "verse": 15,
            "name": "1 Kings 19:15",
            "text": "\u8036\u548c\u83ef\u5c0d\u4ed6\u8aaa\uff1a\u201c\u4f60\u96e2\u53bb\u5427\uff0c\u5f9e\u4f60\u4f86\u7684\u8def\u56de\u5230\u5927\u99ac\u58eb\u9769\u7684\u66e0\u91ce\u53bb\u3002\u4f60\u5230\u4e86\u90a3\u88e1\uff0c\u5c31\u8981\u818f\u54c8\u859b\u4f5c\u4e9e\u862d\u738b\u3002"
        },
        {
            "chapter": 19,
            "verse": 16,
            "name": "1 Kings 19:16",
            "text": "\u53c8\u8981\u818f\u5be7\u793a\u7684\u5b6b\u5b50\u8036\u6236\u4f5c\u4ee5\u8272\u5217\u738b\uff0c\u9084\u8981\u818f\u4e9e\u4f2f\uff0e\u7c73\u4f55\u62c9\u4eba\u6c99\u6cd5\u7684\u5152\u5b50\u4ee5\u5229\u6c99\u63a5\u7e8c\u4f60\u4f5c\u5148\u77e5\u3002"
        },
        {
            "chapter": 19,
            "verse": 17,
            "name": "1 Kings 19:17",
            "text": "\u5c07\u4f86\u9003\u5f97\u904e\u54c8\u859b\u7684\u5200\u7684\uff0c\u5fc5\u88ab\u8036\u6236\u6bba\u6b7b\uff1b\u9003\u5f97\u904e\u8036\u6236\u7684\u5200\u7684\uff0c\u5fc5\u88ab\u4ee5\u5229\u6c99\u6bba\u6b7b\u3002"
        },
        {
            "chapter": 19,
            "verse": 18,
            "name": "1 Kings 19:18",
            "text": "\u4f46\u6211\u5728\u4ee5\u8272\u5217\u4eba\u4e2d\u7559\u4e0b\u4e03\u5343\u4eba\uff0c\u4ed6\u5011\u5168\u662f\u672a\u66fe\u5411\u5df4\u529b\u5c48\u904e\u819d\u7684\uff0c\u4e5f\u672a\u66fe\u8207\u5df4\u529b\u89aa\u904e\u5634\u7684\u3002\u201d"
        },
        {
            "chapter": 19,
            "verse": 19,
            "name": "1 Kings 19:19",
            "text": "\u65bc\u662f\u4ee5\u5229\u4e9e\u96e2\u958b\u90a3\u88e1\u53bb\u4e86\u3002\u4ed6\u9047\u898b\u6c99\u6cd5\u7684\u5152\u5b50\u4ee5\u5229\u6c99\u6b63\u5728\u8015\u7530\u3002\u5728\u4ed6\u9762\u524d\u6709\u5341\u4e8c\u5c0d\u725b\uff0c\u4ed6\u81ea\u5df1\u6b63\u5728\u8d95\u8457\u7b2c\u5341\u4e8c\u5c0d\u725b\u3002\u4ee5\u5229\u4e9e\u8d70\u904e\u4ed6\u90a3\u88e1\u53bb\uff0c\u628a\u81ea\u5df1\u7684\u5916\u8863\u62ab\u5728\u4ee5\u5229\u6c99\u8eab\u4e0a\u3002"
        },
        {
            "chapter": 19,
            "verse": 20,
            "name": "1 Kings 19:20",
            "text": "\u4ee5\u5229\u6c99\u5c31\u6487\u4e0b\u90a3\u4e9b\u725b\uff0c\u8dd1\u5728\u4ee5\u5229\u4e9e\u7684\u5f8c\u9762\uff0c\u8aaa\uff1a\u201c\u8acb\u4f60\u5141\u8a31\u6211\u8207\u7236\u6bcd\u89aa\u543b\u5225\uff0c\u7136\u5f8c\u6211\u5c31\u8ddf\u96a8\u4f60\u3002\u201d\u4ee5\u5229\u4e9e\u5c0d\u4ed6\u8aaa\uff1a\u201c\u4f60\u56de\u53bb\u5427\uff01\u6211\u5411\u4f60\u4f5c\u4e86\u751a\u9ebc\u5462\uff1f\u201d"
        },
        {
            "chapter": 19,
            "verse": 21,
            "name": "1 Kings 19:21",
            "text": "\u4ee5\u5229\u6c99\u5c31\u96e2\u958b\u4ed6\u56de\u53bb\u4e86\u3002\u4ed6\u727d\u4e86\u4e00\u5c0d\u725b\u4f86\u5bb0\u4e86\uff0c\u7528\u5957\u725b\u7684\u5668\u5177\u628a\u725b\u716e\u719f\uff0c\u5c31\u5206\u7d66\u773e\u4eba\uff0c\u4ed6\u5011\u90fd\u5403\u4e86\u3002\u7136\u5f8c\u4ee5\u5229\u6c99\u5c31\u8d77\u4f86\uff0c\u8ddf\u96a8\u4ee5\u5229\u4e9e\uff0c\u670d\u4e8b\u4ed6\u3002"
        }
    ]
}