{
    "translation": "Finnish Bible (1776)",
    "abbreviation": "finnish1776",
    "lang": "fi",
    "language": "Finnish",
    "direction": "LTR",
    "encoding": "",
    "book_nr": 42,
    "book_name": "Luke",
    "chapter": 1,
    "name": "Luke 1",
    "verses": [
        {
            "chapter": 1,
            "verse": 1,
            "name": "Luke 1:1",
            "text": "Ett\u00e4 moni on ruvennut j\u00e4rjest\u00e4ns\u00e4 kirjoittamaan niist\u00e4 asioista, joista meill\u00e4 t\u00e4ydellinen tieto on,"
        },
        {
            "chapter": 1,
            "verse": 2,
            "name": "Luke 1:2",
            "text": "Niinkuin ne meille sanoneet ovat, jotka sen alusta itse n\u00e4hneet ja sananpalveliat olleet ovat:"
        },
        {
            "chapter": 1,
            "verse": 3,
            "name": "Luke 1:3",
            "text": "N\u00e4kyy my\u00f6s minulle se hyv\u00e4ksi, sitte kuin min\u00e4 alusta kaikki visusti tutkinut olen, ett\u00e4 min\u00e4 niit\u00e4 j\u00e4rjest\u00e4ns\u00e4 sinulle kirjoittaisin, hyv\u00e4 Teophilus:"
        },
        {
            "chapter": 1,
            "verse": 4,
            "name": "Luke 1:4",
            "text": "Ett\u00e4s ymm\u00e4rt\u00e4isit selki\u00e4sti niiden asiain vahvan totuuden, joista sin\u00e4 opetettu olet."
        },
        {
            "chapter": 1,
            "verse": 5,
            "name": "Luke 1:5",
            "text": "Herodeksen, Juudean kuninkaan, aikana oli pappi, Sakarias nimelt\u00e4, Abian vuorosta; ja h\u00e4nen em\u00e4nt\u00e4ns\u00e4 Aaronin tytt\u00e4rist\u00e4, ja h\u00e4nen nimens\u00e4 Elisabet."
        },
        {
            "chapter": 1,
            "verse": 6,
            "name": "Luke 1:6",
            "text": "Ja he olivat molemmat hurskaita Jumalan edess\u00e4, vaeltavaiset kaikissa Herran k\u00e4skyiss\u00e4 ja s\u00e4\u00e4dyiss\u00e4 laittamattomasti,"
        },
        {
            "chapter": 1,
            "verse": 7,
            "name": "Luke 1:7",
            "text": "Ja heill\u00e4 ei ollut lasta; sill\u00e4 Elisabet oli hedelm\u00e4t\u00f6in, ja he olivat jo molemmat ij\u00e4lliset."
        },
        {
            "chapter": 1,
            "verse": 8,
            "name": "Luke 1:8",
            "text": "Ja tapahtui, kuin h\u00e4n vuorollansa papin virkaa toimitti Jumalan edess\u00e4,"
        },
        {
            "chapter": 1,
            "verse": 9,
            "name": "Luke 1:9",
            "text": "Papin viran tavan j\u00e4lkeen, lankesi arpa h\u00e4nelle, ett\u00e4 h\u00e4nen piti suitsuttaman, sitte kuin h\u00e4n oli mennyt sis\u00e4lle Herran templiin."
        },
        {
            "chapter": 1,
            "verse": 10,
            "name": "Luke 1:10",
            "text": "Ja kaikki kansan paljous rukoili ulkona suitsutuksen aikana."
        },
        {
            "chapter": 1,
            "verse": 11,
            "name": "Luke 1:11",
            "text": "Mutta h\u00e4nelle ilmestyi Herran enkeli, seisoin suitsutusalttarin oikealla puolella."
        },
        {
            "chapter": 1,
            "verse": 12,
            "name": "Luke 1:12",
            "text": "Ja kuin Sakarias h\u00e4nen n\u00e4ki, h\u00e4mm\u00e4styi h\u00e4n ja pelko lankesi h\u00e4nen p\u00e4\u00e4llenss\u00e4."
        },
        {
            "chapter": 1,
            "verse": 13,
            "name": "Luke 1:13",
            "text": "Mutta enkeli sanoi h\u00e4nelle: \u00e4l\u00e4 pelk\u00e4\u00e4, Sakarias! sill\u00e4 sinun rukoukses on kuultu ja sinun em\u00e4nt\u00e4s Elisabet synnytt\u00e4\u00e4 sinulle pojan, ja sinun pit\u00e4\u00e4 kutsuman h\u00e4nen nimens\u00e4 Johannes."
        },
        {
            "chapter": 1,
            "verse": 14,
            "name": "Luke 1:14",
            "text": "Ja sinulle tulee ilo ja ihastus, ja monta iloitsevat h\u00e4nen syntymisest\u00e4ns\u00e4."
        },
        {
            "chapter": 1,
            "verse": 15,
            "name": "Luke 1:15",
            "text": "Sill\u00e4 h\u00e4n tulee suureksi Herran edess\u00e4, ja viinaa ja v\u00e4kev\u00e4\u00e4 juomaa ei h\u00e4n juo, ja h\u00e4n t\u00e4ytet\u00e4\u00e4n Pyh\u00e4ll\u00e4 Hengell\u00e4 jo \u00e4itins\u00e4 kohdusta."
        },
        {
            "chapter": 1,
            "verse": 16,
            "name": "Luke 1:16",
            "text": "ja h\u00e4n k\u00e4\u00e4nt\u00e4\u00e4 monta Israelin lapsista Herran, heid\u00e4n Jumalansa tyk\u00f6."
        },
        {
            "chapter": 1,
            "verse": 17,
            "name": "Luke 1:17",
            "text": "Ja h\u00e4n k\u00e4y edell\u00e4 h\u00e4nen edess\u00e4ns\u00e4 Eliaan Hengell\u00e4 ja voimalla, k\u00e4\u00e4nt\u00e4in is\u00e4in syd\u00e4met lasten tyk\u00f6 ja tottelemattomat hurskasten toimen tyk\u00f6, toimittaakseen Herralle valmistetun kansan."
        },
        {
            "chapter": 1,
            "verse": 18,
            "name": "Luke 1:18",
            "text": "Ja Sakarias sanoi enkelille: mist\u00e4 min\u00e4 sen ymm\u00e4rr\u00e4n? sill\u00e4 min\u00e4 olen vanha ja em\u00e4nt\u00e4ni on jo ij\u00e4llinen."
        },
        {
            "chapter": 1,
            "verse": 19,
            "name": "Luke 1:19",
            "text": "Niin enkeli vastasi ja sanoi h\u00e4nelle: min\u00e4 olen Gabriel, joka seison Jumalan edess\u00e4, ja olen l\u00e4hetetty puhumaan sinulle ja saattamaan n\u00e4it\u00e4 iloisia sanomia sinulle."
        },
        {
            "chapter": 1,
            "verse": 20,
            "name": "Luke 1:20",
            "text": "Ja katso, sin\u00e4 tulet kielett\u00f6m\u00e4ksi ja et saa puhua hamaan siihen p\u00e4iv\u00e4\u00e4n asti, jona n\u00e4m\u00e4 tapahtuvat, ettet uskonut sanojani, jotka ajallansa t\u00e4ytet\u00e4\u00e4n."
        },
        {
            "chapter": 1,
            "verse": 21,
            "name": "Luke 1:21",
            "text": "Mutta kansa odotti Sakariasta, ja ihmetteliv\u00e4t, ett\u00e4 h\u00e4n niin templiss\u00e4 viipyi."
        },
        {
            "chapter": 1,
            "verse": 22,
            "name": "Luke 1:22",
            "text": "Vaan kuin h\u00e4n tuli ulos, niin ei h\u00e4n saanut puhua heille. Ja he ymm\u00e4rsiv\u00e4t, ett\u00e4 h\u00e4n oli n\u00e4yn templiss\u00e4 n\u00e4hnyt. Ja h\u00e4n viittasi heille, ja j\u00e4i myk\u00e4ksi."
        },
        {
            "chapter": 1,
            "verse": 23,
            "name": "Luke 1:23",
            "text": "Ja tapahtui, ett\u00e4 h\u00e4nen virkansa p\u00e4iv\u00e4t olivat t\u00e4ytetyt, niin h\u00e4n meni kotiansa."
        },
        {
            "chapter": 1,
            "verse": 24,
            "name": "Luke 1:24",
            "text": "Mutta niiden p\u00e4iv\u00e4in j\u00e4lkeen tuli h\u00e4nen em\u00e4nt\u00e4ns\u00e4 Elisabet raskaaksi ja salasi itsens\u00e4 viisi kuukautta, sanoen:"
        },
        {
            "chapter": 1,
            "verse": 25,
            "name": "Luke 1:25",
            "text": "Ja n\u00e4in on Herra minulle tehnyt niin\u00e4 p\u00e4ivin\u00e4, kuin h\u00e4n minun puoleeni katsoi, ett\u00e4 h\u00e4n ottais pois minun yl\u00f6nkatseeni ihmisten seassa."
        },
        {
            "chapter": 1,
            "verse": 26,
            "name": "Luke 1:26",
            "text": "Mutta kuudentena kuukautena l\u00e4hetettiin enkeli Gabriel Jumalalta Galilean kaupunkiin, jonka nimi oli Nasaret,"
        },
        {
            "chapter": 1,
            "verse": 27,
            "name": "Luke 1:27",
            "text": "Neitseen tyk\u00f6, joka oli kihlattu miehelle, jonka nimi oli Joseph, Davidin huoneesta; ja neitseen nimi oli Maria."
        },
        {
            "chapter": 1,
            "verse": 28,
            "name": "Luke 1:28",
            "text": "Ja enkeli tuli sis\u00e4lle h\u00e4nen tyk\u00f6ns\u00e4 ja sanoi: terve, armoitettu! Herra on sinun kanssas: siunattu sin\u00e4 vaimoin seassa!"
        },
        {
            "chapter": 1,
            "verse": 29,
            "name": "Luke 1:29",
            "text": "Mutta kuin h\u00e4n n\u00e4ki h\u00e4nen, h\u00e4mm\u00e4styi h\u00e4n h\u00e4nen puheestansa ja ajatteli, millinen se tervehdys oli."
        },
        {
            "chapter": 1,
            "verse": 30,
            "name": "Luke 1:30",
            "text": "Ja enkeli sanoi h\u00e4nelle: \u00e4l\u00e4 pelk\u00e4\u00e4, Maria! sill\u00e4 sin\u00e4 l\u00f6ysit armon Jumalan tyk\u00f6n\u00e4."
        },
        {
            "chapter": 1,
            "verse": 31,
            "name": "Luke 1:31",
            "text": "Ja katso, sin\u00e4 siit\u00e4t kohdussas ja synnyt\u00e4t Pojan, ja sinun pit\u00e4\u00e4 kutsua h\u00e4nen nimens\u00e4 Jesus."
        },
        {
            "chapter": 1,
            "verse": 32,
            "name": "Luke 1:32",
            "text": "Sen pit\u00e4\u00e4 oleman suuren ja pit\u00e4\u00e4 kutsuttaman Ylimm\u00e4isen Pojaksi. Ja Herra Jumala antaa h\u00e4nelle Davidin h\u00e4nen is\u00e4ns\u00e4 istuimen,"
        },
        {
            "chapter": 1,
            "verse": 33,
            "name": "Luke 1:33",
            "text": "Ja h\u00e4nen pit\u00e4\u00e4 Jakobin huoneen kuningas ijankaikkisesti oleman ja h\u00e4nen valtakunnallansa ei pid\u00e4 loppua oleman."
        },
        {
            "chapter": 1,
            "verse": 34,
            "name": "Luke 1:34",
            "text": "Niin sanoi Maria enkelille: kuinka t\u00e4m\u00e4 tulee, sill\u00e4 en min\u00e4 miehest\u00e4 mit\u00e4\u00e4n tied\u00e4?"
        },
        {
            "chapter": 1,
            "verse": 35,
            "name": "Luke 1:35",
            "text": "Ja enkeli vastasi ja sanoi h\u00e4nelle: Pyh\u00e4 Henki tulee sinun p\u00e4\u00e4lles ja Ylimm\u00e4isen voima varjoo sinun: sent\u00e4hden my\u00f6s se pyh\u00e4, joka sinusta syntyy, pit\u00e4\u00e4 kutsuttaman Jumalan Pojaksi."
        },
        {
            "chapter": 1,
            "verse": 36,
            "name": "Luke 1:36",
            "text": "Ja katso, Elisabet sinun lankos siitti my\u00f6s pojan vanhalla ij\u00e4ll\u00e4ns\u00e4, ja t\u00e4m\u00e4 on kuudes kuukausi h\u00e4nelle, joka kutsuttiin hedelm\u00e4tt\u00f6m\u00e4ksi."
        },
        {
            "chapter": 1,
            "verse": 37,
            "name": "Luke 1:37",
            "text": "Sill\u00e4 ei Jumalan edess\u00e4 ole yht\u00e4\u00e4n asiaa mahdotointa."
        },
        {
            "chapter": 1,
            "verse": 38,
            "name": "Luke 1:38",
            "text": "Niin sanoi Maria: katso, Herran piika! tapahtukoon minulle sinun sanas j\u00e4lkeen! Ja enkeli l\u00e4ksi h\u00e4nen tyk\u00f6\u00e4ns\u00e4."
        },
        {
            "chapter": 1,
            "verse": 39,
            "name": "Luke 1:39",
            "text": "Mutta Maria nousi niin\u00e4 p\u00e4ivin\u00e4 ja meni kiiruusti yl\u00f6s m\u00e4kikyliin Juudan kaupunkiin."
        },
        {
            "chapter": 1,
            "verse": 40,
            "name": "Luke 1:40",
            "text": "Ja tuli Sakariaan huoneeseen ja tervehti Elisabetia."
        },
        {
            "chapter": 1,
            "verse": 41,
            "name": "Luke 1:41",
            "text": "Ja tapahtui, kuin Elisabet kuuli Marian tervehdyksen, hypp\u00e4si lapsi h\u00e4nen kohdussansa. Ja Elisabet t\u00e4ytettiin Pyh\u00e4ll\u00e4 Hengell\u00e4,"
        },
        {
            "chapter": 1,
            "verse": 42,
            "name": "Luke 1:42",
            "text": "Ja h\u00e4n huusi suurella \u00e4\u00e4nell\u00e4 ja sanoi: siunattu olet sin\u00e4 vaimoin seassa, ja siunattu on sinun kohtus hedelm\u00e4!"
        },
        {
            "chapter": 1,
            "verse": 43,
            "name": "Luke 1:43",
            "text": "Ja kusta se minulle tulee, ett\u00e4 minun Herrani \u00e4iti tulee minun tyk\u00f6ni?"
        },
        {
            "chapter": 1,
            "verse": 44,
            "name": "Luke 1:44",
            "text": "Sill\u00e4 katso, kuin sinun tervehdykses \u00e4\u00e4ni tuli minun korviini, hypp\u00e4si lapsi ilosta minun kohdussani."
        },
        {
            "chapter": 1,
            "verse": 45,
            "name": "Luke 1:45",
            "text": "Ja autuas sin\u00e4, joka uskoit; sill\u00e4 ne t\u00e4ytet\u00e4\u00e4n, mitk\u00e4 sinulle ovat sanotut Herralta."
        },
        {
            "chapter": 1,
            "verse": 46,
            "name": "Luke 1:46",
            "text": "Ja Maria sanoi: Minun sieluni suuresti ylist\u00e4\u00e4 Herraa,"
        },
        {
            "chapter": 1,
            "verse": 47,
            "name": "Luke 1:47",
            "text": "Ja minun henkeni iloitsee Jumalassa, minun vapahtajassani,"
        },
        {
            "chapter": 1,
            "verse": 48,
            "name": "Luke 1:48",
            "text": "Ett\u00e4 h\u00e4n katsoi piikansa n\u00f6yryytt\u00e4; sill\u00e4 katso, t\u00e4stedes pit\u00e4\u00e4 kaikkein sukukuntain minua autuaaksi kutsuttaman:"
        },
        {
            "chapter": 1,
            "verse": 49,
            "name": "Luke 1:49",
            "text": "Sill\u00e4 Voimallinen on suuria ihmeit\u00e4 tehnyt minun kohtaani, ja h\u00e4nen nimens\u00e4 on pyh\u00e4,"
        },
        {
            "chapter": 1,
            "verse": 50,
            "name": "Luke 1:50",
            "text": "Ja h\u00e4nen laupiutensa pysyy suvusta sukuun niille, jotka h\u00e4nt\u00e4 pelk\u00e4\u00e4v\u00e4t."
        },
        {
            "chapter": 1,
            "verse": 51,
            "name": "Luke 1:51",
            "text": "H\u00e4n osoitti voiman k\u00e4sivarrellansa ja hajotti koriat heid\u00e4n syd\u00e4mens\u00e4 mielest\u00e4."
        },
        {
            "chapter": 1,
            "verse": 52,
            "name": "Luke 1:52",
            "text": "Voimalliset on h\u00e4n kukistanut istuimelta ja korotti n\u00f6yr\u00e4t."
        },
        {
            "chapter": 1,
            "verse": 53,
            "name": "Luke 1:53",
            "text": "Isoovat t\u00e4ytti h\u00e4n hyvyydell\u00e4 ja j\u00e4tti rikkaat tyhj\u00e4ksi."
        },
        {
            "chapter": 1,
            "verse": 54,
            "name": "Luke 1:54",
            "text": "H\u00e4n korjasi palvelijansa Israelin, muistain omaa laupiuttansa,"
        },
        {
            "chapter": 1,
            "verse": 55,
            "name": "Luke 1:55",
            "text": "(Niinkuin h\u00e4n on puhunut meid\u00e4n isillemme, Abrahamille ja h\u00e4nen siemenellens\u00e4) ijankaikkisesti."
        },
        {
            "chapter": 1,
            "verse": 56,
            "name": "Luke 1:56",
            "text": "Ja Maria oli h\u00e4nen tyk\u00f6n\u00e4ns\u00e4 l\u00e4hes kolme kuukautta ja palasi kotiansa."
        },
        {
            "chapter": 1,
            "verse": 57,
            "name": "Luke 1:57",
            "text": "Mutta Elisabetin synnytt\u00e4misen aika t\u00e4ytettiin, ja h\u00e4n synnytti pojan."
        },
        {
            "chapter": 1,
            "verse": 58,
            "name": "Luke 1:58",
            "text": "Ja h\u00e4nen kyl\u00e4llisens\u00e4 ja lankonsa kuulivat, ett\u00e4 Herra oli tehnyt suuren laupiuden h\u00e4nen kanssansa, ja he iloitsivat h\u00e4nen kanssansa."
        },
        {
            "chapter": 1,
            "verse": 59,
            "name": "Luke 1:59",
            "text": "Ja tapahtui kahdeksantena p\u00e4iv\u00e4n\u00e4, ett\u00e4 he tulivat lasta ymp\u00e4rileikkaamaan, ja kutsuivat h\u00e4nen is\u00e4ns\u00e4 nimelt\u00e4 Sakarias."
        },
        {
            "chapter": 1,
            "verse": 60,
            "name": "Luke 1:60",
            "text": "Niin vastasi h\u00e4nen \u00e4itins\u00e4 ja sanoi: ei suinkaan; vaan h\u00e4n pit\u00e4\u00e4 kutsuttaman Johannes."
        },
        {
            "chapter": 1,
            "verse": 61,
            "name": "Luke 1:61",
            "text": "Ja he sanoivat h\u00e4nelle: ei ole ket\u00e4\u00e4n sinun sukukunnassas, joka kutsutaan sill\u00e4 nimell\u00e4."
        },
        {
            "chapter": 1,
            "verse": 62,
            "name": "Luke 1:62",
            "text": "Niin he viittasivat h\u00e4nen is\u00e4llens\u00e4, miksi h\u00e4n tahtoi h\u00e4nen nimitt\u00e4\u00e4."
        },
        {
            "chapter": 1,
            "verse": 63,
            "name": "Luke 1:63",
            "text": "Ja h\u00e4n anoi taulua ja kirjoitti: Johannes on h\u00e4nen nimens\u00e4. Ja kaikki ihmetteliv\u00e4t."
        },
        {
            "chapter": 1,
            "verse": 64,
            "name": "Luke 1:64",
            "text": "Niin kohta aukeni h\u00e4nen suunsa ja h\u00e4nen kielens\u00e4, ja puhui kiitt\u00e4in Jumalaa."
        },
        {
            "chapter": 1,
            "verse": 65,
            "name": "Luke 1:65",
            "text": "Ja pelko tuli kaikkein heid\u00e4n kyl\u00e4llistens\u00e4 p\u00e4\u00e4lle, ja kaikissa Juudean m\u00e4kikyliss\u00e4 ilmoitettiin kaikki n\u00e4m\u00e4 sanat."
        },
        {
            "chapter": 1,
            "verse": 66,
            "name": "Luke 1:66",
            "text": "Ja kaikki , jotka t\u00e4m\u00e4n kuulivat, panivat syd\u00e4miins\u00e4, sanoen: mink\u00e4s luulet t\u00e4st\u00e4 lapsesta tulevan? Sill\u00e4 Herran k\u00e4si oli h\u00e4nen kanssaan."
        },
        {
            "chapter": 1,
            "verse": 67,
            "name": "Luke 1:67",
            "text": "Ja Sakarias ja h\u00e4nen is\u00e4ns\u00e4 t\u00e4ytettiin Pyh\u00e4ll\u00e4 Hengell\u00e4 ja ennusti, sanoen:"
        },
        {
            "chapter": 1,
            "verse": 68,
            "name": "Luke 1:68",
            "text": "Kiitetty olkoon Herra, Israelin Jumala! sill\u00e4 h\u00e4n on etsinyt ja lunastanut kansansa,"
        },
        {
            "chapter": 1,
            "verse": 69,
            "name": "Luke 1:69",
            "text": "Ja on meille korottanut autuuden sarven, Davidin palveliansa huoneessa,"
        },
        {
            "chapter": 1,
            "verse": 70,
            "name": "Luke 1:70",
            "text": "Niinkuin h\u00e4n on muinen puhunut pyh\u00e4in prophetainsa suun kautta,"
        },
        {
            "chapter": 1,
            "verse": 71,
            "name": "Luke 1:71",
            "text": "Vapahtaaksensa meit\u00e4 meid\u00e4n vihollisiltamme ja kaikkein k\u00e4dest\u00e4, jotka meit\u00e4 vihaavat:"
        },
        {
            "chapter": 1,
            "verse": 72,
            "name": "Luke 1:72",
            "text": "Osoittaaksensa laupiutta meid\u00e4n isillemme ja muistaaksensa pyh\u00e4\u00e4 liittoansa,"
        },
        {
            "chapter": 1,
            "verse": 73,
            "name": "Luke 1:73",
            "text": "Ja sit\u00e4 valaa, jonka h\u00e4n vannoi Abrahamille, meid\u00e4n is\u00e4llemme, meille antaaksensa:"
        },
        {
            "chapter": 1,
            "verse": 74,
            "name": "Luke 1:74",
            "text": "Ett\u00e4 me, vapahdetut vihollistemme k\u00e4dest\u00e4, h\u00e4nt\u00e4 pelk\u00e4\u00e4m\u00e4tt\u00e4 palvelesimme,"
        },
        {
            "chapter": 1,
            "verse": 75,
            "name": "Luke 1:75",
            "text": "Pyhyydess\u00e4 ja hurskaudessa h\u00e4nen edess\u00e4ns\u00e4 kaikkena meid\u00e4n elinaikanamme."
        },
        {
            "chapter": 1,
            "verse": 76,
            "name": "Luke 1:76",
            "text": "Ja sin\u00e4 poikainen pit\u00e4\u00e4 kutsuttaman Ylimm\u00e4isen prophetaksi; sill\u00e4 sinun pit\u00e4\u00e4 k\u00e4ym\u00e4n Herran kasvoin edess\u00e4, valmistamaan h\u00e4nen teit\u00e4ns\u00e4,"
        },
        {
            "chapter": 1,
            "verse": 77,
            "name": "Luke 1:77",
            "text": "Ja antaman autuuden tunnon h\u00e4nen kansallensa, heid\u00e4in synteins\u00e4 anteeksi saamiseksi,"
        },
        {
            "chapter": 1,
            "verse": 78,
            "name": "Luke 1:78",
            "text": "Meid\u00e4n Jumalan syd\u00e4mellisen laupiuden kautta, jolla meit\u00e4 on etsinyt koitto ylh\u00e4\u00e4lt\u00e4,"
        },
        {
            "chapter": 1,
            "verse": 79,
            "name": "Luke 1:79",
            "text": "Valaisemaan niille, jotka pimeiss\u00e4 ja kuolon varjoissa istuvat, ja ojentamaan meid\u00e4n jalkamme rauhan tielle."
        },
        {
            "chapter": 1,
            "verse": 80,
            "name": "Luke 1:80",
            "text": "Mutta lapsi kasvoi ja vahvistui hengess\u00e4, ja oli korvessa siihen p\u00e4iv\u00e4\u00e4n asti, jona h\u00e4nen piti Israelin kansan eteen tuleman."
        }
    ]
}