{
    "translation": "Maori",
    "abbreviation": "maori",
    "lang": "mi",
    "language": "Maori",
    "direction": "LTR",
    "encoding": "",
    "book_nr": 1,
    "book_name": "Genesis",
    "chapter": 6,
    "name": "Genesis 6",
    "verses": [
        {
            "chapter": 6,
            "verse": 1,
            "name": "Genesis 6:1",
            "text": "Na ka timata te tangata te tini haere ki runga ki te mata o te whenua, a ka whanau a ratou tamahine,"
        },
        {
            "chapter": 6,
            "verse": 2,
            "name": "Genesis 6:2",
            "text": "Ka kite nga tama a te Atua i nga tamahine a te tangata, he ataahua; na ka tango ratou i a ratou i pai ai o ratou katoa, hei wahine ma ratou."
        },
        {
            "chapter": 6,
            "verse": 3,
            "name": "Genesis 6:3",
            "text": "Na ka mea a Ihowa, E kore toku wairua e whakawa tonu i te tangata, he kikokiko nei ano hoki ia: na kia kotahi rau kia rua tekau tau ona ra."
        },
        {
            "chapter": 6,
            "verse": 4,
            "name": "Genesis 6:4",
            "text": "He roroa nga tangata o te whenua i aua ra, a i muri iho, i te haerenga o nga tama a te Atua ki nga tamahine a te tangata, a ka whanau a ratou tamariki, ko ratou nga marohirohi o mua, he tangata whai ingoa."
        },
        {
            "chapter": 6,
            "verse": 5,
            "name": "Genesis 6:5",
            "text": "A ka kite te Atua he nui te kino o te tangata i runga i te whenua, he kino hoki nga tokonga ake o nga whakaaro katoa o tona ngakau i nga wa katoa."
        },
        {
            "chapter": 6,
            "verse": 6,
            "name": "Genesis 6:6",
            "text": "Na ka puta ke te whakaaro o Ihowa i hanga ai e ia te tangata ki runga ki te whenua, a ka pouri tona ngakau."
        },
        {
            "chapter": 6,
            "verse": 7,
            "name": "Genesis 6:7",
            "text": "Na ka mea a Ihowa, Ka whakangaromia atu e ahau i te mata o te whenua te tangata i hanga nei e ahau; te tangata, te kirehe, te mea ngokingoki, me nga manu o te rangi; kua puta ke hoki toku whakaaro i hanga ai ratou e ahau."
        },
        {
            "chapter": 6,
            "verse": 8,
            "name": "Genesis 6:8",
            "text": "Ko Noa ia i manakohia e Ihowa."
        },
        {
            "chapter": 6,
            "verse": 9,
            "name": "Genesis 6:9",
            "text": "Ko nga whakatupuranga enei o Noa: ko Noa he tangata tika, he ngakau tapatahi i ona whakatupuranga: i haereere tahi a Noa i te Atua."
        },
        {
            "chapter": 6,
            "verse": 10,
            "name": "Genesis 6:10",
            "text": "A whanau ake nga tama a Noa tokotoru, ko Hema, ko Hama, ko Iapeta."
        },
        {
            "chapter": 6,
            "verse": 11,
            "name": "Genesis 6:11",
            "text": "Na kua kino te whenua i te aroaro o Ihowa, kua ki katoa hoki te whenua i te tutu."
        },
        {
            "chapter": 6,
            "verse": 12,
            "name": "Genesis 6:12",
            "text": "Na ka titiro te Atua ki te whenua, kua kino; kua he hoki te ara o nga kikokiko katoa o runga o te whenua."
        },
        {
            "chapter": 6,
            "verse": 13,
            "name": "Genesis 6:13",
            "text": "Na ka mea te Atua ki a Noa, Kua tae mai ki toku aroaro te mutunga o nga kikokiko katoa; no te mea kua ki i a ratou te whenua i te tutu; na, ka whakangaromia ratou tahi ko te whenua e ahau."
        },
        {
            "chapter": 6,
            "verse": 14,
            "name": "Genesis 6:14",
            "text": "Hanga e koe tetahi aaka mou ki te rakau kopera; me hanga e koe etahi ruma ki roto i te aaka, ka pani ai i roto, i waho, ki te ware."
        },
        {
            "chapter": 6,
            "verse": 15,
            "name": "Genesis 6:15",
            "text": "Na kia penei tau hanga i taua mea: Kia toru rau whatianga te roa o te aaka, kia rima tekau whatianga te whanui, ko te teitei kia toru tekau whatianga."
        },
        {
            "chapter": 6,
            "verse": 16,
            "name": "Genesis 6:16",
            "text": "Me hanga e koe he matapihi mo te aaka, kia kotahi te whatianga ki raro iho i te tuanui, e whakaotia ai e koe; a ko te tatau o te aaka me whakanoho e koe ki tona taha; ka mea ai koe he papanga ruma, to raro, te tuarua, me te tuatoru."
        },
        {
            "chapter": 6,
            "verse": 17,
            "name": "Genesis 6:17",
            "text": "Na ko ahau, tenei ahau te tuku atu nei i te waipuke ki runga ki te whenua, hei whakangaro i nga kikokiko katoa e whai manawa ora ana i raro i te rangi; a ka mate nga mea katoa i runga i te whenua."
        },
        {
            "chapter": 6,
            "verse": 18,
            "name": "Genesis 6:18",
            "text": "Otiia ka whakamana e ahau taku kawenata ki a koe; me haere koe ki roto ki te aaka, koutou tahi ko au tama, ko tau wahine, ko nga wahine ano hoki a au tama."
        },
        {
            "chapter": 6,
            "verse": 19,
            "name": "Genesis 6:19",
            "text": "Me mau e koe ki roto ki te aaka etahi o nga mea ora katoa o nga kikokiko katoa, kia rua o ia ahua, o ia ahua, kia ora tahi ai me koe; he te toa, hei te uha."
        },
        {
            "chapter": 6,
            "verse": 20,
            "name": "Genesis 6:20",
            "text": "Ko etahi o nga manu o ia ahua, o ia ahua, o nga kararehe hoki o ia ahua, o ia ahua, o nga mea ngokingoki katoa o te whenua o ia ahua, o ia ahua kia tatakirua o te katoa e haere ki a koe, kia ora ai."
        },
        {
            "chapter": 6,
            "verse": 21,
            "name": "Genesis 6:21",
            "text": "Tangohia mai hoki mau etahi o nga kai katoa e kainga ana, me amene mai ki a koe; a hei ka tena mau, ma ratou hoki."
        },
        {
            "chapter": 6,
            "verse": 22,
            "name": "Genesis 6:22",
            "text": "Na ka meatia e Noa; rite tonu ki nga mea katoa i whakahaua mai e te Atua ki a ia tana i mea ai."
        }
    ]
}