{
    "translation": "Pyh\u00e4 Raamattu (STLK 2017)",
    "abbreviation": "finstlk2017",
    "lang": "fi",
    "language": "Finnish",
    "direction": "LTR",
    "encoding": "UTF-8",
    "book_nr": 26,
    "book_name": "Ezekiel",
    "chapter": 46,
    "name": "Ezekiel 46",
    "verses": [
        {
            "chapter": 46,
            "verse": 1,
            "name": "Ezekiel 46:1",
            "text": "\"N\u00e4in sanoo Herra, Herra: Sisemm\u00e4n esipihan portti, se, joka antaa it\u00e4\u00e4n p\u00e4in, olkoon suljettuna kuusi ty\u00f6p\u00e4iv\u00e4\u00e4. Mutta sapatinp\u00e4iv\u00e4n\u00e4 se avattakoon, ja avattakoon se my\u00f6s uudenkuun p\u00e4iv\u00e4n\u00e4. "
        },
        {
            "chapter": 46,
            "verse": 2,
            "name": "Ezekiel 46:2",
            "text": "Silloin tulkoon ruhtinas porttieteisen kautta ulkoa ja asettukoon portin ovipieleen. Kun papit uhraavat h\u00e4nen polttouhriaan ja rauhanuhriaan, niin h\u00e4n kumartaen rukoilkoon portin kynnyksell\u00e4 ja menk\u00f6\u00f6n sitten ulos. Mutta porttia \u00e4lk\u00f6\u00f6n suljettako ennen iltaa. "
        },
        {
            "chapter": 46,
            "verse": 3,
            "name": "Ezekiel 46:3",
            "text": "Mutta maan kansa kumartaen rukoilkoon sen portin ovella sapatteina ja uusinakuina Herran edess\u00e4."
        },
        {
            "chapter": 46,
            "verse": 4,
            "name": "Ezekiel 46:4",
            "text": "Polttouhrina, jonka ruhtinas tuo Herralle sapatinp\u00e4iv\u00e4n\u00e4, olkoon kuusi virheet\u00f6nt\u00e4 karitsaa ja virheet\u00f6n p\u00e4ssi; "
        },
        {
            "chapter": 46,
            "verse": 5,
            "name": "Ezekiel 46:5",
            "text": "ja ruokauhrina eefa-mitta p\u00e4ssi\u00e4 kohti, mutta ruokauhrina karitsoita kohti se, mit\u00e4 h\u00e4n voi ja tahtoo antaa, sek\u00e4 hiin-mitta \u00f6ljy\u00e4 eefaa kohti. "
        },
        {
            "chapter": 46,
            "verse": 6,
            "name": "Ezekiel 46:6",
            "text": "Uudenkuun p\u00e4iv\u00e4n\u00e4 olkoon polttouhrina: virheet\u00f6n mulli, kuusi karitsaa ja p\u00e4ssi, kaikki virheett\u00f6mi\u00e4; "
        },
        {
            "chapter": 46,
            "verse": 7,
            "name": "Ezekiel 46:7",
            "text": "ja ruokauhrina h\u00e4n uhratkoon eefan mullia kohti ja eefan p\u00e4ssi\u00e4 kohti sek\u00e4 karitsoita kohti sen, mit\u00e4 h\u00e4n saa hankituksi, sek\u00e4 \u00f6ljy\u00e4 hiin-mitan eefaa kohti. "
        },
        {
            "chapter": 46,
            "verse": 8,
            "name": "Ezekiel 46:8",
            "text": "Kun ruhtinas tulee, tulkoon porttieteisen kautta ja menk\u00f6\u00f6n ulos samaa tiet\u00e4.  "
        },
        {
            "chapter": 46,
            "verse": 9,
            "name": "Ezekiel 46:9",
            "text": " Mutta kun maan kansa tulee juhlina Herran eteen, niin se, joka pohjoisportin kautta tuli kumartaen rukoilemaan, menk\u00f6\u00f6n ulos etel\u00e4portin kautta, ja se, joka tuli etel\u00e4portin kautta, menk\u00f6\u00f6n ulos pohjoisportin kautta. Kukaan \u00e4lk\u00f6\u00f6n palatko sen portin kautta, josta tuli, vaan menk\u00f6\u00f6n ulos vastakkaisesta."
        },
        {
            "chapter": 46,
            "verse": 10,
            "name": "Ezekiel 46:10",
            "text": "Ruhtinas tulkoon heid\u00e4n joukossaan, kun he tulevat, ja menk\u00f6\u00f6n ulos, kun he menev\u00e4t. "
        },
        {
            "chapter": 46,
            "verse": 11,
            "name": "Ezekiel 46:11",
            "text": " Juhlina ja juhla-aikoina olkoon ruokauhri: eefa mullia kohti ja eefa p\u00e4ssi\u00e4 kohti sek\u00e4 karitsoita kohti se, mit\u00e4 kukin voi antaa, sek\u00e4 \u00f6ljy\u00e4 hiin-mitta eefaa kohti. "
        },
        {
            "chapter": 46,
            "verse": 12,
            "name": "Ezekiel 46:12",
            "text": "Milloin ruhtinas uhraa vapaaehtoisia lahjoja, polttouhrin tai rauhanuhrin vapaaehtoisena lahjana Herralle, avattakoon h\u00e4nelle portti, joka antaa it\u00e4\u00e4n, ja h\u00e4n uhratkoon polttouhrinsa sek\u00e4 rauhanuhrinsa samoin, kuin h\u00e4n uhraa sapatinp\u00e4iv\u00e4n\u00e4, ja menk\u00f6\u00f6n ulos. H\u00e4nen l\u00e4hdetty\u00e4\u00e4n suljettakoon portti.  "
        },
        {
            "chapter": 46,
            "verse": 13,
            "name": "Ezekiel 46:13",
            "text": " Uhraa vuoden vanha virheet\u00f6n karitsa joka p\u00e4iv\u00e4 polttouhriksi Herralle. Uhraa se joka aamu. "
        },
        {
            "chapter": 46,
            "verse": 14,
            "name": "Ezekiel 46:14",
            "text": "Sen lis\u00e4ksi uhraa ruokauhriksi joka aamu kuudennes eefaa sek\u00e4 \u00f6ljy\u00e4 kolmannes hiin-mittaa ydinjauhojen kostuttamiseksi. T\u00e4m\u00e4 on ruokauhri Herralle \u2013 ikiaikainen, pysyv\u00e4 s\u00e4\u00e4d\u00f6s."
        },
        {
            "chapter": 46,
            "verse": 15,
            "name": "Ezekiel 46:15",
            "text": "Uhratkaa joka aamu karitsa, ruokauhri ja \u00f6ljy jokap\u00e4iv\u00e4iseksi polttouhriksi. "
        },
        {
            "chapter": 46,
            "verse": 16,
            "name": "Ezekiel 46:16",
            "text": " N\u00e4in sanoo Herra, Herra: Jos ruhtinas antaa jollekin pojistaan lahjan, se on t\u00e4m\u00e4n perint\u00f6osa. Se on tuleva h\u00e4nen pojilleen. Se on perint\u00f6osana heid\u00e4n omaisuuttaan. "
        },
        {
            "chapter": 46,
            "verse": 17,
            "name": "Ezekiel 46:17",
            "text": "Mutta jos h\u00e4n antaa lahjan perint\u00f6osastaan jollekin palvelijoistaan, olkoon se t\u00e4m\u00e4n oma vapautusvuoteen saakka, mutta sitten palatkoon ruhtinaalle. Seh\u00e4n on h\u00e4nen perint\u00f6osaansa ja on tuleva h\u00e4nen pojilleen. "
        },
        {
            "chapter": 46,
            "verse": 18,
            "name": "Ezekiel 46:18",
            "text": "\u00c4lk\u00f6\u00f6nk\u00e4 ruhtinas ottako kansan perint\u00f6osia, niin ett\u00e4 sortaisi heit\u00e4 pois heid\u00e4n perint\u00f6maaltaan. Omasta perint\u00f6maastaan h\u00e4n antakoon perint\u00f6osia pojilleen, ettei kukaan kansastani tulisi h\u00e4\u00e4detyksi pois omalta perint\u00f6maaltaan.\"  "
        },
        {
            "chapter": 46,
            "verse": 19,
            "name": "Ezekiel 46:19",
            "text": " H\u00e4n vei minut siit\u00e4 sis\u00e4\u00e4nk\u00e4yt\u00e4v\u00e4st\u00e4, joka oli portin sivusein\u00e4m\u00e4ll\u00e4, niiden kammioiden luo, jotka olivat pyhitettyj\u00e4 papeille ja jotka antoivat pohjoiseen. Katso, siell\u00e4 oli er\u00e4s paikka kauimpana l\u00e4ntt\u00e4 kohti. "
        },
        {
            "chapter": 46,
            "verse": 20,
            "name": "Ezekiel 46:20",
            "text": "H\u00e4n sanoi minulle: \"T\u00e4m\u00e4 on paikka, miss\u00e4 pappien on keitett\u00e4v\u00e4 vikauhri ja syntiuhri sek\u00e4 leivottava ruokauhri, etteiv\u00e4t veisi ulos sit\u00e4 ulompaan esipihaan pyhitt\u00e4\u00e4kseen kansan.\"  "
        },
        {
            "chapter": 46,
            "verse": 21,
            "name": "Ezekiel 46:21",
            "text": " Sitten h\u00e4n vei minut ulompaan esipihaan ja johdatti minut esipihan nelj\u00e4n nurkkauksen ohi, ja katso, esipihan joka nurkkauksessa oli piha. "
        },
        {
            "chapter": 46,
            "verse": 22,
            "name": "Ezekiel 46:22",
            "text": "Esipihan nelj\u00e4ss\u00e4 nurkkauksessa oli suljetut pihat, nelj\u00e4nkymmenen pituiset ja kolmenkymmenen levyiset. N\u00e4m\u00e4 nelj\u00e4 nurkkapihaa olivat yht\u00e4 suuret."
        },
        {
            "chapter": 46,
            "verse": 23,
            "name": "Ezekiel 46:23",
            "text": "Niiss\u00e4 nelj\u00e4ss\u00e4 oli ymp\u00e4riins\u00e4 kivikeh\u00e4, ja alas kivikeh\u00e4\u00e4n oli tehty keittoliesi\u00e4."
        },
        {
            "chapter": 46,
            "verse": 24,
            "name": "Ezekiel 46:24",
            "text": "Sitten h\u00e4n sanoi minulle: \"N\u00e4m\u00e4 ovat keitti\u00f6tilat, joissa temppelipalvelijat keitt\u00e4v\u00e4t kansan teurasuhrit.\"   "
        }
    ]
}