{
    "translation": "World English Bible: Messianic Edition",
    "abbreviation": "webme",
    "lang": "en",
    "language": "English",
    "direction": "LTR",
    "encoding": "UTF-8",
    "book_nr": 40,
    "book_name": "Matthew",
    "chapter": 15,
    "name": "Matthew 15",
    "verses": [
        {
            "chapter": 15,
            "verse": 1,
            "name": "Matthew 15:1",
            "text": "Then Pharisees and scribes came to Yeshua from Jerusalem, saying,"
        },
        {
            "chapter": 15,
            "verse": 2,
            "name": "Matthew 15:2",
            "text": "\u201cWhy do your disciples disobey the tradition of the elders? For they don\u2019t wash their hands when they eat bread.\u201d  "
        },
        {
            "chapter": 15,
            "verse": 3,
            "name": "Matthew 15:3",
            "text": "  He answered them, \u201cWhy do you also disobey the commandment of God because of your tradition? "
        },
        {
            "chapter": 15,
            "verse": 4,
            "name": "Matthew 15:4",
            "text": "For God commanded, \u2018Honor your father and your mother,\u2019and, \u2018He who speaks evil of father or mother, let him be put to death.\u2019"
        },
        {
            "chapter": 15,
            "verse": 5,
            "name": "Matthew 15:5",
            "text": "But you say, \u2018Whoever may tell his father or his mother, \u201cWhatever help you might otherwise have gotten from me is a gift devoted to God,\u201d "
        },
        {
            "chapter": 15,
            "verse": 6,
            "name": "Matthew 15:6",
            "text": "he shall not honor his father or mother.\u2019 You have made the commandment of God void because of your tradition. "
        },
        {
            "chapter": 15,
            "verse": 7,
            "name": "Matthew 15:7",
            "text": "You hypocrites! Well did Isaiah prophesy of you, saying,  "
        },
        {
            "chapter": 15,
            "verse": 8,
            "name": "Matthew 15:8",
            "text": "\u2018These people draw near to me with their mouth, and honor me with their lips; but their heart is far from me. "
        },
        {
            "chapter": 15,
            "verse": 9,
            "name": "Matthew 15:9",
            "text": "And in vain do they worship me, teaching as doctrine rules made by men.\u2019\u201d   "
        },
        {
            "chapter": 15,
            "verse": 10,
            "name": "Matthew 15:10",
            "text": "  He summoned the multitude, and said to them, \u201cHear, and understand. "
        },
        {
            "chapter": 15,
            "verse": 11,
            "name": "Matthew 15:11",
            "text": "That which enters into the mouth doesn\u2019t defile the man; but that which proceeds out of the mouth, this defiles the man.\u201d  "
        },
        {
            "chapter": 15,
            "verse": 12,
            "name": "Matthew 15:12",
            "text": "  Then the disciples came, and said to him, \u201cDo you know that the Pharisees were offended, when they heard this saying?\u201d  "
        },
        {
            "chapter": 15,
            "verse": 13,
            "name": "Matthew 15:13",
            "text": "  But he answered, \u201cEvery plant which my heavenly Father didn\u2019t plant will be uprooted. "
        },
        {
            "chapter": 15,
            "verse": 14,
            "name": "Matthew 15:14",
            "text": "Leave them alone. They are blind guides of the blind. If the blind guide the blind, both will fall into a pit.\u201d  "
        },
        {
            "chapter": 15,
            "verse": 15,
            "name": "Matthew 15:15",
            "text": "  Peter answered him, \u201cExplain the parable to us.\u201d  "
        },
        {
            "chapter": 15,
            "verse": 16,
            "name": "Matthew 15:16",
            "text": "  So Yeshua said, \u201cDo you also still not understand? "
        },
        {
            "chapter": 15,
            "verse": 17,
            "name": "Matthew 15:17",
            "text": "Don\u2019t you understand that whatever goes into the mouth passes into the belly, and then out of the body? "
        },
        {
            "chapter": 15,
            "verse": 18,
            "name": "Matthew 15:18",
            "text": "But the things which proceed out of the mouth come out of the heart, and they defile the man. "
        },
        {
            "chapter": 15,
            "verse": 19,
            "name": "Matthew 15:19",
            "text": "For out of the heart come evil thoughts, murders, adulteries, sexual sins, thefts, false testimony, and blasphemies. "
        },
        {
            "chapter": 15,
            "verse": 20,
            "name": "Matthew 15:20",
            "text": "These are the things which defile the man; but to eat with unwashed hands doesn\u2019t defile the man.\u201d  "
        },
        {
            "chapter": 15,
            "verse": 21,
            "name": "Matthew 15:21",
            "text": "  Yeshua went out from there, and withdrew into the region of Tyre and Sidon."
        },
        {
            "chapter": 15,
            "verse": 22,
            "name": "Matthew 15:22",
            "text": "Behold, a Canaanite woman came out from those borders, and cried, saying, \u201cHave mercy on me, Lord, you son of David! My daughter is severely possessed by a demon!\u201d  "
        },
        {
            "chapter": 15,
            "verse": 23,
            "name": "Matthew 15:23",
            "text": "  But he answered her not a word.   His disciples came and begged him, saying, \u201cSend her away; for she cries after us.\u201d  "
        },
        {
            "chapter": 15,
            "verse": 24,
            "name": "Matthew 15:24",
            "text": "  But he answered, \u201cI wasn\u2019t sent to anyone but the lost sheep of the house of Israel.\u201d  "
        },
        {
            "chapter": 15,
            "verse": 25,
            "name": "Matthew 15:25",
            "text": "  But she came and worshiped him, saying, \u201cLord, help me.\u201d  "
        },
        {
            "chapter": 15,
            "verse": 26,
            "name": "Matthew 15:26",
            "text": "  But he answered, \u201cIt is not appropriate to take the children\u2019s bread and throw it to the dogs.\u201d  "
        },
        {
            "chapter": 15,
            "verse": 27,
            "name": "Matthew 15:27",
            "text": "  But she said, \u201cYes, Lord, but even the dogs eat the crumbs which fall from their masters\u2019 table.\u201d  "
        },
        {
            "chapter": 15,
            "verse": 28,
            "name": "Matthew 15:28",
            "text": "  Then Yeshua answered her, \u201cWoman, great is your faith! Be it done to you even as you desire.\u201d And her daughter was healed from that hour.  "
        },
        {
            "chapter": 15,
            "verse": 29,
            "name": "Matthew 15:29",
            "text": "  Yeshua departed there, and came near to the sea of Galilee; and he went up into the mountain, and sat there."
        },
        {
            "chapter": 15,
            "verse": 30,
            "name": "Matthew 15:30",
            "text": "Great multitudes came to him, having with them the lame, blind, mute, maimed, and many others, and they put them down at his feet. He healed them,"
        },
        {
            "chapter": 15,
            "verse": 31,
            "name": "Matthew 15:31",
            "text": "so that the multitude wondered when they saw the mute speaking, injured whole, lame walking, and blind seeing\u2014and they glorified the God of Israel.  "
        },
        {
            "chapter": 15,
            "verse": 32,
            "name": "Matthew 15:32",
            "text": "  Yeshua summoned his disciples and said, \u201cI have compassion on the multitude, because they continue with me now three days and have nothing to eat. I don\u2019t want to send them away fasting, or they might faint on the way.\u201d   "
        },
        {
            "chapter": 15,
            "verse": 33,
            "name": "Matthew 15:33",
            "text": "  The disciples said to him, \u201cWhere should we get so many loaves in a deserted place as to satisfy so great a multitude?\u201d  "
        },
        {
            "chapter": 15,
            "verse": 34,
            "name": "Matthew 15:34",
            "text": "  Yeshua said to them, \u201cHow many loaves do you have?\u201d   They said, \u201cSeven, and a few small fish.\u201d  "
        },
        {
            "chapter": 15,
            "verse": 35,
            "name": "Matthew 15:35",
            "text": "  He commanded the multitude to sit down on the ground;"
        },
        {
            "chapter": 15,
            "verse": 36,
            "name": "Matthew 15:36",
            "text": "and he took the seven loaves and the fish. He gave thanks and broke them, and gave to the disciples, and the disciples to the multitudes."
        },
        {
            "chapter": 15,
            "verse": 37,
            "name": "Matthew 15:37",
            "text": "They all ate, and were filled. They took up seven baskets full of the broken pieces that were left over."
        },
        {
            "chapter": 15,
            "verse": 38,
            "name": "Matthew 15:38",
            "text": "Those who ate were four thousand men, besides women and children."
        },
        {
            "chapter": 15,
            "verse": 39,
            "name": "Matthew 15:39",
            "text": "Then he sent away the multitudes, got into the boat, and came into the borders of Magdala.   "
        }
    ]
}