{
    "translation": "Urdu Geo Version Latin Script (UGV)",
    "abbreviation": "urdugeoroman",
    "lang": "ur",
    "language": "Urdu",
    "direction": "RTL",
    "encoding": "UTF-8",
    "book_nr": 40,
    "book_name": "Matthew",
    "chapter": 16,
    "name": "Matthew 16",
    "verses": [
        {
            "chapter": 16,
            "verse": 1,
            "name": "Matthew 16:1",
            "text": " ek din far\u012bs\u012b aur sad\u016bq\u012b \u012bs\u0101 ke p\u0101s \u0101e. use parakhne ke lie unho\u1e45 ne mut\u0101lab\u0101 kiy\u0101 ki wuh unhe\u1e45 \u0101sm\u0101n k\u012b taraf se ko\u012b il\u0101h\u012b nish\u0101n dikh\u0101e t\u0101ki us k\u0101 i\u1e33htiy\u0101r s\u0101bit ho j\u0101e."
        },
        {
            "chapter": 16,
            "verse": 2,
            "name": "Matthew 16:2",
            "text": "lekin us ne jaw\u0101b diy\u0101, \u201csh\u0101m ko tum kahte ho, \u2018kal mausam s\u0101f hog\u0101 ky\u016b\u1e45ki \u0101sm\u0101n sur\u1e33h nazar \u0101t\u0101 hai.\u2019"
        },
        {
            "chapter": 16,
            "verse": 3,
            "name": "Matthew 16:3",
            "text": "aur subh ke waqt kahte ho, \u2018\u0101j t\u016bf\u0101n hog\u0101 ky\u016b\u1e45ki \u0101sm\u0101n sur\u1e33h hai aur b\u0101dal chh\u0101e hue hai\u1e45.\u2019 \u0121harz tum \u0101sm\u0101n k\u012b h\u0101lat par \u0121haur karke sah\u012bh nat\u012bj\u0101 nik\u0101l lete ho, lekin zam\u0101no\u1e45 k\u012b al\u0101mato\u1e45 par \u0121haur karke sah\u012bh nat\u012bje tak pahu\u1e45chn\u0101 tumh\u0101re bas k\u012b b\u0101t nah\u012b\u1e45 hai."
        },
        {
            "chapter": 16,
            "verse": 4,
            "name": "Matthew 16:4",
            "text": "sirf shar\u012br aur zin\u0101k\u0101r nasl il\u0101h\u012b nish\u0101n k\u0101 taq\u0101z\u0101 kart\u012b hai. lekin use ko\u012b bh\u012b il\u0101h\u012b nish\u0101n pesh nah\u012b\u1e45 kiy\u0101 j\u0101eg\u0101 siw\u0101e y\u016bnus nab\u012b ke nish\u0101n ke.\u201d yih kah kar \u012bs\u0101 unhe\u1e45 chho\u1e5b kar chal\u0101 gay\u0101."
        },
        {
            "chapter": 16,
            "verse": 5,
            "name": "Matthew 16:5",
            "text": " jh\u012bl ko p\u0101r karte waqt sh\u0101gird apne s\u0101th kh\u0101n\u0101 l\u0101n\u0101 bh\u016bl gae the."
        },
        {
            "chapter": 16,
            "verse": 6,
            "name": "Matthew 16:6",
            "text": "\u012bs\u0101 ne un se kah\u0101, \u201c\u1e33habard\u0101r, far\u012bsiyo\u1e45 aur sad\u016bqiyo\u1e45 ke \u1e33ham\u012br se hoshy\u0101r rahn\u0101.\u201d"
        },
        {
            "chapter": 16,
            "verse": 7,
            "name": "Matthew 16:7",
            "text": "sh\u0101gird \u0101pas me\u1e45 bahs karne lage, \u201cwuh is lie kah rahe ho\u1e45ge ki ham kh\u0101n\u0101 s\u0101th nah\u012b\u1e45 l\u0101e.\u201d"
        },
        {
            "chapter": 16,
            "verse": 8,
            "name": "Matthew 16:8",
            "text": "\u012bs\u0101 ko m\u0101l\u016bm hu\u0101 ki wuh ky\u0101 soch rahe hai\u1e45. us ne kah\u0101, \u201ctum \u0101pas me\u1e45 ky\u016b\u1e45 bahs kar rahe ho ki ham\u0101re p\u0101s ro\u1e6d\u012b nah\u012b\u1e45 hai?"
        },
        {
            "chapter": 16,
            "verse": 9,
            "name": "Matthew 16:9",
            "text": "ky\u0101 tum abh\u012b tak nah\u012b\u1e45 samajhte? ky\u0101 tumhe\u1e45 y\u0101d nah\u012b\u1e45 ki mai\u1e45 ne p\u0101\u1e45ch ro\u1e6diy\u0101\u1e45 le kar 5,000 \u0101dmiyo\u1e45 ko kh\u0101n\u0101 khil\u0101 diy\u0101 aur ki tum ne bache hue \u1e6duk\u1e5bo\u1e45 ke kitne \u1e6dokre u\u1e6dh\u0101e the?"
        },
        {
            "chapter": 16,
            "verse": 10,
            "name": "Matthew 16:10",
            "text": "y\u0101 ky\u0101 tum bh\u016bl gae ho ki mai\u1e45 ne s\u0101t ro\u1e6diy\u0101\u1e45 le kar 4,000 \u0101dmiyo\u1e45 ko kh\u0101n\u0101 khil\u0101y\u0101 aur ki tum ne bache hue \u1e6duk\u1e5bo\u1e45 ke kitne \u1e6dokre u\u1e6dh\u0101e the?"
        },
        {
            "chapter": 16,
            "verse": 11,
            "name": "Matthew 16:11",
            "text": "tum ky\u016b\u1e45 nah\u012b\u1e45 samajhte ki mai\u1e45 tum se kh\u0101ne k\u012b b\u0101t nah\u012b\u1e45 kar rah\u0101? suno mer\u012b b\u0101t! far\u012bsiyo\u1e45 aur sad\u016bqiyo\u1e45 ke \u1e33ham\u012br se hoshy\u0101r raho!\u201d"
        },
        {
            "chapter": 16,
            "verse": 12,
            "name": "Matthew 16:12",
            "text": "phir unhe\u1e45 samajh \u0101\u012b ki \u012bs\u0101 unhe\u1e45 ro\u1e6d\u012b ke \u1e33ham\u012br se \u0101g\u0101h nah\u012b\u1e45 kar rah\u0101 th\u0101 balki far\u012bsiyo\u1e45 aur sad\u016bqiyo\u1e45 k\u012b t\u0101l\u012bm se."
        },
        {
            "chapter": 16,
            "verse": 13,
            "name": "Matthew 16:13",
            "text": " jab \u012bs\u0101 qaisariy\u0101-filipp\u012b ke il\u0101qe me\u1e45 pahu\u1e45ch\u0101 to us ne sh\u0101girdo\u1e45 se p\u016bchh\u0101, \u201cibn-e-\u0101dam logo\u1e45 ke nazd\u012bk kaun hai?\u201d"
        },
        {
            "chapter": 16,
            "verse": 14,
            "name": "Matthew 16:14",
            "text": "unho\u1e45 ne jaw\u0101b diy\u0101, \u201ckuchh kahte hai\u1e45 yahy\u0101 baptism\u0101 dene w\u0101l\u0101, kuchh yih ki \u0101p ily\u0101s nab\u012b hai\u1e45. kuchh yih bh\u012b kahte hai\u1e45 ki yarmiy\u0101h y\u0101 nabiyo\u1e45 me\u1e45 se ek.\u201d"
        },
        {
            "chapter": 16,
            "verse": 15,
            "name": "Matthew 16:15",
            "text": "us ne p\u016bchh\u0101, \u201clekin tumh\u0101re nazd\u012bk mai\u1e45 kaun h\u016b\u1e45?\u201d"
        },
        {
            "chapter": 16,
            "verse": 16,
            "name": "Matthew 16:16",
            "text": "patras ne jaw\u0101b diy\u0101, \u201c\u0101p zind\u0101 \u1e33hud\u0101 ke farzand mas\u012bh hai\u1e45.\u201d"
        },
        {
            "chapter": 16,
            "verse": 17,
            "name": "Matthew 16:17",
            "text": "\u012bs\u0101 ne kah\u0101, \u201csham\u0101\u016bn bin y\u016bnus, t\u016b mub\u0101rak hai, ky\u016b\u1e45ki kis\u012b ins\u0101n ne tujh par yih z\u0101hir nah\u012b\u1e45 kiy\u0101 balki mere \u0101sm\u0101n\u012b b\u0101p ne."
        },
        {
            "chapter": 16,
            "verse": 18,
            "name": "Matthew 16:18",
            "text": "mai\u1e45 tujhe yih bh\u012b bat\u0101t\u0101 h\u016b\u1e45 ki t\u016b patras y\u0101n\u012b patthar hai, aur is\u012b patthar par mai\u1e45 apn\u012b jam\u0101'at ko t\u0101m\u012br kar\u016b\u1e45ga, ais\u012b jam\u0101'at jis par p\u0101t\u0101l ke darw\u0101ze bh\u012b \u0121h\u0101lib nah\u012b\u1e45 \u0101e\u1e45ge."
        },
        {
            "chapter": 16,
            "verse": 19,
            "name": "Matthew 16:19",
            "text": "mai\u1e45 tujhe \u0101sm\u0101n k\u012b b\u0101dsh\u0101h\u012b k\u012b kunjiy\u0101\u1e45 de d\u016b\u1e45g\u0101. jo kuchh t\u016b zam\u012bn par b\u0101ndheg\u0101 wuh \u0101sm\u0101n par bh\u012b bandheg\u0101. aur jo kuchh t\u016b zam\u012bn par kholeg\u0101 wuh \u0101sm\u0101n par bh\u012b khuleg\u0101.\u201d"
        },
        {
            "chapter": 16,
            "verse": 20,
            "name": "Matthew 16:20",
            "text": "phir \u012bs\u0101 ne apne sh\u0101girdo\u1e45 ko hukm diy\u0101, \u201ckis\u012b ko bh\u012b na bat\u0101o ki mai\u1e45 mas\u012bh h\u016b\u1e45.\u201d"
        },
        {
            "chapter": 16,
            "verse": 21,
            "name": "Matthew 16:21",
            "text": " us waqt se \u012bs\u0101 apne sh\u0101girdo\u1e45 par w\u0101zih karne lag\u0101, \u201cl\u0101zim hai ki mai\u1e45 yar\u016bshalam j\u0101 kar qaum ke buzurgo\u1e45, r\u0101hnum\u0101 im\u0101mo\u1e45 aur shar\u012bat ke ulam\u0101 ke h\u0101tho\u1e45 bahut dukh u\u1e6dh\u0101\u016b\u1e45. mujhe qatl kiy\u0101 j\u0101eg\u0101, lekin t\u012bsre din mai\u1e45 j\u012b u\u1e6dh\u016b\u1e45g\u0101.\u201d"
        },
        {
            "chapter": 16,
            "verse": 22,
            "name": "Matthew 16:22",
            "text": "is par patras use ek taraf le j\u0101 kar samjh\u0101ne lag\u0101. \u201cai \u1e33hud\u0101wand, all\u0101h na kare ki yih kabh\u012b bh\u012b \u0101p ke s\u0101th ho.\u201d"
        },
        {
            "chapter": 16,
            "verse": 23,
            "name": "Matthew 16:23",
            "text": "\u012bs\u0101 ne mu\u1e5b kar patras se kah\u0101, \u201cshait\u0101n, mere s\u0101mne se ha\u1e6d j\u0101! t\u016b mere lie \u1e6dhokar k\u0101 b\u0101is hai, ky\u016b\u1e45ki t\u016b all\u0101h k\u012b soch nah\u012b\u1e45 rakht\u0101 balki ins\u0101n k\u012b.\u201d"
        },
        {
            "chapter": 16,
            "verse": 24,
            "name": "Matthew 16:24",
            "text": "phir \u012bs\u0101 ne apne sh\u0101girdo\u1e45 se kah\u0101, \u201cjo mere p\u012bchhe \u0101n\u0101 ch\u0101he wuh apne \u0101p k\u0101 ink\u0101r kare aur apn\u012b sal\u012bb u\u1e6dh\u0101 kar mere p\u012bchhe ho le."
        },
        {
            "chapter": 16,
            "verse": 25,
            "name": "Matthew 16:25",
            "text": "ky\u016b\u1e45ki jo apn\u012b j\u0101n ko bach\u0101e rakhn\u0101 ch\u0101he wuh use kho deg\u0101. lekin jo mer\u012b \u1e33h\u0101tir apn\u012b j\u0101n kho de wuh\u012b use p\u0101 leg\u0101."
        },
        {
            "chapter": 16,
            "verse": 26,
            "name": "Matthew 16:26",
            "text": "ky\u0101 f\u0101id\u0101 hai agar kis\u012b ko p\u016br\u012b duniy\u0101 h\u0101sil ho j\u0101e, lekin wuh apn\u012b j\u0101n se mahr\u016bm ho j\u0101e? ins\u0101n apn\u012b j\u0101n ke badle ky\u0101 de sakt\u0101 hai?"
        },
        {
            "chapter": 16,
            "verse": 27,
            "name": "Matthew 16:27",
            "text": "ky\u016b\u1e45ki ibn-e-\u0101dam apne b\u0101p ke jal\u0101l me\u1e45 apne farishto\u1e45 ke s\u0101th \u0101eg\u0101, aur us waqt wuh har ek ko us ke k\u0101m k\u0101 badl\u0101 deg\u0101."
        },
        {
            "chapter": 16,
            "verse": 28,
            "name": "Matthew 16:28",
            "text": "mai\u1e45 tumhe\u1e45 sach bat\u0101t\u0101 h\u016b\u1e45, yah\u0101\u1e45 kuchh aise log kha\u1e5be hai\u1e45 jo marne se pahle h\u012b ibn-e-\u0101dam ko us k\u012b b\u0101dsh\u0101h\u012b me\u1e45 \u0101te hue dekhe\u1e45ge.\u201d  "
        }
    ]
}