{
    "translation": "Masoretic Text parallel to the Samaritan Pentateuch",
    "abbreviation": "spmt",
    "lang": "he",
    "language": "Hebrew",
    "direction": "RTL",
    "encoding": "UTF-8",
    "book_nr": 24,
    "book_name": "Jeremiah",
    "chapter": 10,
    "name": "Jeremiah 10",
    "verses": [
        {
            "chapter": 10,
            "verse": 1,
            "name": "Jeremiah 10:1",
            "text": ""
        },
        {
            "chapter": 10,
            "verse": 2,
            "name": "Jeremiah 10:2",
            "text": ""
        },
        {
            "chapter": 10,
            "verse": 3,
            "name": "Jeremiah 10:3",
            "text": ""
        },
        {
            "chapter": 10,
            "verse": 4,
            "name": "Jeremiah 10:4",
            "text": ""
        },
        {
            "chapter": 10,
            "verse": 5,
            "name": "Jeremiah 10:5",
            "text": ""
        },
        {
            "chapter": 10,
            "verse": 6,
            "name": "Jeremiah 10:6",
            "text": ""
        },
        {
            "chapter": 10,
            "verse": 7,
            "name": "Jeremiah 10:7",
            "text": ""
        },
        {
            "chapter": 10,
            "verse": 8,
            "name": "Jeremiah 10:8",
            "text": ""
        },
        {
            "chapter": 10,
            "verse": 9,
            "name": "Jeremiah 10:9",
            "text": ""
        },
        {
            "chapter": 10,
            "verse": 10,
            "name": "Jeremiah 10:10",
            "text": ""
        },
        {
            "chapter": 10,
            "verse": 11,
            "name": "Jeremiah 10:11",
            "text": ""
        },
        {
            "chapter": 10,
            "verse": 12,
            "name": "Jeremiah 10:12",
            "text": ""
        },
        {
            "chapter": 10,
            "verse": 13,
            "name": "Jeremiah 10:13",
            "text": ""
        },
        {
            "chapter": 10,
            "verse": 14,
            "name": "Jeremiah 10:14",
            "text": ""
        },
        {
            "chapter": 10,
            "verse": 15,
            "name": "Jeremiah 10:15",
            "text": ""
        },
        {
            "chapter": 10,
            "verse": 16,
            "name": "Jeremiah 10:16",
            "text": ""
        },
        {
            "chapter": 10,
            "verse": 17,
            "name": "Jeremiah 10:17",
            "text": ""
        },
        {
            "chapter": 10,
            "verse": 18,
            "name": "Jeremiah 10:18",
            "text": ""
        },
        {
            "chapter": 10,
            "verse": 19,
            "name": "Jeremiah 10:19",
            "text": ""
        },
        {
            "chapter": 10,
            "verse": 20,
            "name": "Jeremiah 10:20",
            "text": ""
        },
        {
            "chapter": 10,
            "verse": 21,
            "name": "Jeremiah 10:21",
            "text": ""
        },
        {
            "chapter": 10,
            "verse": 22,
            "name": "Jeremiah 10:22",
            "text": ""
        },
        {
            "chapter": 10,
            "verse": 23,
            "name": "Jeremiah 10:23",
            "text": ""
        },
        {
            "chapter": 10,
            "verse": 24,
            "name": "Jeremiah 10:24",
            "text": ""
        },
        {
            "chapter": 10,
            "verse": 25,
            "name": "Jeremiah 10:25",
            "text": ""
        }
    ]
}