{
    "translation": "Det Norsk Bibelselskap (1930)",
    "abbreviation": "bibelselskap",
    "lang": "nb",
    "language": "Norwegian bokmal",
    "direction": "LTR",
    "encoding": "UTF-8",
    "book_nr": 19,
    "book_name": "Psalms",
    "chapter": 76,
    "name": "Psalms 76",
    "verses": [
        {
            "chapter": 76,
            "verse": 1,
            "name": "Psalms 76:1",
            "text": "Til sangmesteren p\u00e5 strengelek; en salme av Asaf; en sang."
        },
        {
            "chapter": 76,
            "verse": 2,
            "name": "Psalms 76:2",
            "text": "Gud er kjent i Juda, hans navn er stort i Israel."
        },
        {
            "chapter": 76,
            "verse": 3,
            "name": "Psalms 76:3",
            "text": "Og han reiste sin hytte i Salem og sin bolig p\u00e5 Sion."
        },
        {
            "chapter": 76,
            "verse": 4,
            "name": "Psalms 76:4",
            "text": "Der s\u00f8nderbr\u00f8t han buens lyn, skjold og sverd og krig. Sela."
        },
        {
            "chapter": 76,
            "verse": 5,
            "name": "Psalms 76:5",
            "text": "Str\u00e5lende er du, herlig fremfor r\u00f8verfjellene."
        },
        {
            "chapter": 76,
            "verse": 6,
            "name": "Psalms 76:6",
            "text": "Mennene med det sterke hjerte er blitt et rov; de sover sin s\u00f8vn, og ingen av de veldige menn fant sine hender."
        },
        {
            "chapter": 76,
            "verse": 7,
            "name": "Psalms 76:7",
            "text": "Ved din trusel, Jakobs Gud, falt b\u00e5de vogn og hest i dyp s\u00f8vn."
        },
        {
            "chapter": 76,
            "verse": 8,
            "name": "Psalms 76:8",
            "text": "Du - forferdelig er du, og hvem kan bli st\u00e5ende for ditt \u00e5syn n\u00e5r du blir vred?"
        },
        {
            "chapter": 76,
            "verse": 9,
            "name": "Psalms 76:9",
            "text": "Fra himmelen lot du h\u00f8re dom; jorden fryktet og blev stille,"
        },
        {
            "chapter": 76,
            "verse": 10,
            "name": "Psalms 76:10",
            "text": "da Gud reiste sig til dom for \u00e5 frelse alle saktmodige p\u00e5 jorden. Sela."
        },
        {
            "chapter": 76,
            "verse": 11,
            "name": "Psalms 76:11",
            "text": "For menneskets vrede blir dig til pris; med enda st\u00f8rre vrede omgjorder du dig."
        },
        {
            "chapter": 76,
            "verse": 12,
            "name": "Psalms 76:12",
            "text": "Gj\u00f8r l\u00f8fter og gi Herren eders Gud det I har lovt! Alle de som er omkring ham, skal komme med gaver til den Forferdelige. Han kuer fyrstenes stolte \u00e5nd, forferdelig for kongene p\u00e5 jorden."
        }
    ]
}