{
    "translation": "Old Public Domain Pohnpeian Bible",
    "abbreviation": "pohnold",
    "lang": "pon",
    "language": "Pohnpeian",
    "direction": "LTR",
    "encoding": "UTF-8",
    "book_nr": 19,
    "book_name": "Psalms",
    "chapter": 56,
    "name": "Psalms 56",
    "verses": [
        {
            "chapter": 56,
            "verse": 1,
            "name": "Psalms 56:1",
            "text": "MAING Kot, kom kotin maki ong ia, pwe aramas akan ngiringir ong ia; re kin peipei o kamasak ia ni ran karos."
        },
        {
            "chapter": 56,
            "verse": 2,
            "name": "Psalms 56:2",
            "text": "Ai imwintiti kan kin ngiringir nin ran karos, pwe me toto pei ong ia ni ar aklapalap."
        },
        {
            "chapter": 56,
            "verse": 3,
            "name": "Psalms 56:3",
            "text": "Ni ai masak i kin kaporoporeki komui."
        },
        {
            "chapter": 56,
            "verse": 4,
            "name": "Psalms 56:4",
            "text": "I pan kapinga masan en Kot, i pan kaporoporeki Kot o pan sota masak, da me aramas kak wiai ong ia?"
        },
        {
            "chapter": 56,
            "verse": 5,
            "name": "Psalms 56:5",
            "text": "Ran karos re kin kawukila ai lokaia, re kin madamadauata, duen ar pan kawe ia la."
        },
        {
            "chapter": 56,
            "verse": 6,
            "name": "Psalms 56:6",
            "text": "Re pokon pena, o masamasan, o kanakanai ong kaimwin n\u00e4 i kat, duen ar pan kak kame ia la."
        },
        {
            "chapter": 56,
            "verse": 7,
            "name": "Psalms 56:7",
            "text": "Iaduen, re pan kak pitila ni ar morsuet? Maing Kot, kom kotin kasapokala song en aramas due met,"
        },
        {
            "chapter": 56,
            "verse": 8,
            "name": "Psalms 56:8",
            "text": "Kom kotin wadok pena al en ai pitilar akan, o kotin kolekol pena pil en mas ai nan sapwilim omui dal o. Pwe kaidin karos kileledier nan sapwilim omui puk o?"
        },
        {
            "chapter": 56,
            "verse": 9,
            "name": "Psalms 56:9",
            "text": "Ai imwintiti kan ap pan sapale wei ni ran o me i pan likelikwir; Iet me i asa, me Kot sauas pa i."
        },
        {
            "chapter": 56,
            "verse": 10,
            "name": "Psalms 56:10",
            "text": "I pan kapinga masan en Kot; i pan kapinga masan en Ieowa."
        },
        {
            "chapter": 56,
            "verse": 11,
            "name": "Psalms 56:11",
            "text": "I kaporoporeki Kot, ap sota masak, pwe da me aramas akan pan kak wiai ong ia?"
        },
        {
            "chapter": 56,
            "verse": 12,
            "name": "Psalms 56:12",
            "text": "Maing Kot, i inauki ong komui, me i pan mairongki danke ong komui;"
        },
        {
            "chapter": 56,
            "verse": 13,
            "name": "Psalms 56:13",
            "text": "Pwe kom kotin dorelar ngen i sang mela o n\u00e4, i kat sang ai krisidi, pwe i en weweid mon silang en Kot nan marain en me maur akan. "
        }
    ]
}