{
    "translation": "B\u00edblia Livre",
    "abbreviation": "porblivre",
    "lang": "pt",
    "language": "Portuguese",
    "direction": "LTR",
    "encoding": "UTF-8",
    "book_nr": 24,
    "book_name": "Jeremiah",
    "chapter": 19,
    "name": "Jeremiah 19",
    "verses": [
        {
            "chapter": 19,
            "verse": 1,
            "name": "Jeremiah 19:1",
            "text": "Assim diz o SENHOR: Vai, e compra uma jarra de barro de oleiro, e toma contigo dos anci\u00e3os do povo e dos anci\u00e3os dos sacerdotes; "
        },
        {
            "chapter": 19,
            "verse": 2,
            "name": "Jeremiah 19:2",
            "text": "E sai ao vale do filho de Hinom, que fica \u00e0 entrada da porta oriental; e ali declara as palavras que eu te disser. "
        },
        {
            "chapter": 19,
            "verse": 3,
            "name": "Jeremiah 19:3",
            "text": "E dize: Ouvi a palavra do SENHOR, \u00f3 reis de Jud\u00e1, e moradores de Jerusal\u00e9m. Assim diz o SENHOR dos ex\u00e9rcitos, Deus de Israel: Eis que trarei calamidade sobre este lugar, de tal modo que quem o ouvir, lhe retinir\u00e3o os ouvidos. "
        },
        {
            "chapter": 19,
            "verse": 4,
            "name": "Jeremiah 19:4",
            "text": "Pois me abandonaram, e profanaram  este lugar, e queimaram nele incenso a outros deuses, que nunca tinham conhecido, nem eles, nem seus pais, nem os reis de Jud\u00e1; e encheram este lugar com sangue de inocentes; "
        },
        {
            "chapter": 19,
            "verse": 5,
            "name": "Jeremiah 19:5",
            "text": "E edificaram altos a Baal, para queimarem a fogo seus filhos como ofertas de queima para Baal; coisa esta que nunca lhes mandei, nem falei, nem jamais pensei em meu cora\u00e7\u00e3o. "
        },
        {
            "chapter": 19,
            "verse": 6,
            "name": "Jeremiah 19:6",
            "text": "Por isso eis v\u00eam dias, diz o SENHOR, que este lugar n\u00e3o se chamar\u00e1 mais Tofete, nem Vale do filho de Hinom, mas sim Vale da Matan\u00e7a. "
        },
        {
            "chapter": 19,
            "verse": 7,
            "name": "Jeremiah 19:7",
            "text": "E tornarei vazio o conselho de Jud\u00e1 e de Jerusal\u00e9m neste lugar; e os farei cair \u00e0 espada diante de seus inimigos, e nas m\u00e3os dos que buscam tirar suas vidas;  e darei seus cad\u00e1veres por comida \u00e0s aves do c\u00e9u e aos animais da terra; "
        },
        {
            "chapter": 19,
            "verse": 8,
            "name": "Jeremiah 19:8",
            "text": "E farei desta cidade espanto e assovio; todo aquele que passar por ela se espantar\u00e1 e assoviar\u00e1 por causa de todas as suas pragas. "
        },
        {
            "chapter": 19,
            "verse": 9,
            "name": "Jeremiah 19:9",
            "text": "E farei com que comam a carne de seus filhos e a carne de suas filhas; e cada um comer\u00e1 a carne de seu pr\u00f3ximo durante o cerco e a opress\u00e3o com que os seus inimigos e os que buscam tirar suas vidas lhes oprimir\u00e3o. "
        },
        {
            "chapter": 19,
            "verse": 10,
            "name": "Jeremiah 19:10",
            "text": "Ent\u00e3o quebrar\u00e1s a jarra perante os olhos dos homens que tiverem ido contigo, "
        },
        {
            "chapter": 19,
            "verse": 11,
            "name": "Jeremiah 19:11",
            "text": "E lhes dir\u00e1s: Assim diz o SENHOR dos ex\u00e9rcitos: Assim quebrarei a este povo e a esta cidade, como quem quebra um vaso de oleiro, que n\u00e3o pode mais ser restaurado; e em Tofete ser\u00e3o enterrados, pois n\u00e3o haver\u00e1 outro lugar para enterrar. "
        },
        {
            "chapter": 19,
            "verse": 12,
            "name": "Jeremiah 19:12",
            "text": "Assim farei a este lugar, diz o SENHOR, e a seus moradores, para fazer desta cidade como a Tofete. "
        },
        {
            "chapter": 19,
            "verse": 13,
            "name": "Jeremiah 19:13",
            "text": "E as casas de Jerusal\u00e9m, e as casas dos reis de Jud\u00e1, ser\u00e3o imundas tal como o lugar de Tofete; todas as casas sobre cujos telhados foi queimado incenso a todo o ex\u00e9rcito do c\u00e9u,  e derramaram ofertas de bebida a deuses estrangeiros. "
        },
        {
            "chapter": 19,
            "verse": 14,
            "name": "Jeremiah 19:14",
            "text": "Ent\u00e3o voltou Jeremias de Tofete, onde o SENHOR tinha lhe mandado profetizar, e se p\u00f4s em p\u00e9 no p\u00e1tio da casa do SENHOR, e disse a todo o povo: "
        },
        {
            "chapter": 19,
            "verse": 15,
            "name": "Jeremiah 19:15",
            "text": "Assim diz o SENHOR dos ex\u00e9rcitos, Deus de Israel: Eis que eu trago sobre esta cidade e sobre todas as suas vilas todo o mal  que falei contra ela; pois endureceram seu pesco\u00e7o para n\u00e3o ouvirem minhas palavras. "
        }
    ]
}