{
    "translation": "Urdu Geo Version Latin Script (UGV)",
    "abbreviation": "urdugeoroman",
    "lang": "ur",
    "language": "Urdu",
    "direction": "RTL",
    "encoding": "UTF-8",
    "book_nr": 19,
    "book_name": "Psalms",
    "chapter": 33,
    "name": "Psalms 33",
    "verses": [
        {
            "chapter": 33,
            "verse": 1,
            "name": "Psalms 33:1",
            "text": " ai r\u0101stb\u0101zo, rab k\u012b \u1e33hush\u012b man\u0101o! ky\u016b\u1e45ki mun\u0101sib hai ki s\u012bdh\u012b r\u0101h par chalne w\u0101le us k\u012b sat\u0101ish kare\u1e45."
        },
        {
            "chapter": 33,
            "verse": 2,
            "name": "Psalms 33:2",
            "text": "sarod baj\u0101 kar rab k\u012b hamd-o-san\u0101 karo. us k\u012b tamj\u012bd me\u1e45 das t\u0101ro\u1e45 w\u0101l\u0101 s\u0101z baj\u0101o."
        },
        {
            "chapter": 33,
            "verse": 3,
            "name": "Psalms 33:3",
            "text": "us k\u012b tamj\u012bd me\u1e45 nay\u0101 g\u012bt g\u0101o, mah\u0101rat se s\u0101z baj\u0101 kar \u1e33hush\u012b ke n\u0101re lag\u0101o."
        },
        {
            "chapter": 33,
            "verse": 4,
            "name": "Psalms 33:4",
            "text": "ky\u016b\u1e45ki rab k\u0101 kal\u0101m sachch\u0101 hai, aur wuh har k\u0101m waf\u0101d\u0101r\u012b se kart\u0101 hai."
        },
        {
            "chapter": 33,
            "verse": 5,
            "name": "Psalms 33:5",
            "text": "use r\u0101stb\u0101z\u012b aur ins\u0101f py\u0101re hai\u1e45, duniy\u0101 rab k\u012b shafqat se bhar\u012b hu\u012b hai."
        },
        {
            "chapter": 33,
            "verse": 6,
            "name": "Psalms 33:6",
            "text": "rab ke kahne par \u0101sm\u0101n \u1e33halaq hu\u0101, us ke mu\u1e45h ke dam se sit\u0101ro\u1e45 k\u0101 p\u016br\u0101 lashkar wuj\u016bd me\u1e45 \u0101y\u0101."
        },
        {
            "chapter": 33,
            "verse": 7,
            "name": "Psalms 33:7",
            "text": "wuh samundar ke p\u0101n\u012b k\u0101 ba\u1e5b\u0101 \u1e0dher jam\u0101 kart\u0101, p\u0101n\u012b k\u012b gahr\u0101iyo\u1e45 ko god\u0101mo\u1e45 me\u1e45 mahf\u016bz rakht\u0101 hai."
        },
        {
            "chapter": 33,
            "verse": 8,
            "name": "Psalms 33:8",
            "text": "kul duniy\u0101 rab k\u0101 \u1e33hauf m\u0101ne, zam\u012bn ke tam\u0101m b\u0101shinde us se dahshat kh\u0101e\u1e45."
        },
        {
            "chapter": 33,
            "verse": 9,
            "name": "Psalms 33:9",
            "text": "ky\u016b\u1e45ki us ne farm\u0101y\u0101 to fauran wuj\u016bd me\u1e45 \u0101y\u0101, us ne hukm diy\u0101 to us\u012b waqt q\u0101im hu\u0101."
        },
        {
            "chapter": 33,
            "verse": 10,
            "name": "Psalms 33:10",
            "text": "rab aqw\u0101m k\u0101 mans\u016bb\u0101 n\u0101k\u0101m hone det\u0101, wuh ummato\u1e45 ke ir\u0101do\u1e45 ko shikast det\u0101 hai."
        },
        {
            "chapter": 33,
            "verse": 11,
            "name": "Psalms 33:11",
            "text": "lekin rab k\u0101 mans\u016bb\u0101 hamesh\u0101 tak k\u0101my\u0101b raht\u0101, us ke dil ke ir\u0101de pusht-dar-pusht q\u0101im rahte hai\u1e45. "
        },
        {
            "chapter": 33,
            "verse": 12,
            "name": "Psalms 33:12",
            "text": "mub\u0101rak hai wuh qaum jis k\u0101 \u1e33hud\u0101 rab hai, wuh qaum jise us ne chun kar apn\u012b m\u012br\u0101s ban\u0101 liy\u0101 hai. "
        },
        {
            "chapter": 33,
            "verse": 13,
            "name": "Psalms 33:13",
            "text": "rab \u0101sm\u0101n se nazar \u1e0d\u0101l kar tam\u0101m ins\u0101no\u1e45 k\u0101 mul\u0101haz\u0101 kart\u0101 hai."
        },
        {
            "chapter": 33,
            "verse": 14,
            "name": "Psalms 33:14",
            "text": "apne ta\u1e33ht se wuh zam\u012bn ke tam\u0101m b\u0101shindo\u1e45 k\u0101 mu\u0101in\u0101 kart\u0101 hai."
        },
        {
            "chapter": 33,
            "verse": 15,
            "name": "Psalms 33:15",
            "text": "jis ne un sab ke dilo\u1e45 ko tashk\u012bl diy\u0101 wuh un ke tam\u0101m k\u0101mo\u1e45 par dhy\u0101n det\u0101 hai. "
        },
        {
            "chapter": 33,
            "verse": 16,
            "name": "Psalms 33:16",
            "text": "b\u0101dsh\u0101h k\u012b ba\u1e5b\u012b fauj use nah\u012b\u1e45 chhu\u1e5b\u0101t\u012b, aur s\u016brme k\u012b ba\u1e5b\u012b t\u0101qat use nah\u012b\u1e45 bach\u0101t\u012b."
        },
        {
            "chapter": 33,
            "verse": 17,
            "name": "Psalms 33:17",
            "text": "gho\u1e5b\u0101 bh\u012b madad nah\u012b\u1e45 kar sakt\u0101. jo us par umm\u012bd rakhe wuh dhok\u0101 kh\u0101eg\u0101. us k\u012b ba\u1e5b\u012b t\u0101qat chhu\u1e6dk\u0101r\u0101 nah\u012b\u1e45 det\u012b."
        },
        {
            "chapter": 33,
            "verse": 18,
            "name": "Psalms 33:18",
            "text": "yaq\u012bnan rab k\u012b \u0101\u1e45kh un par lag\u012b raht\u012b hai jo us k\u0101 \u1e33hauf m\u0101nte aur us k\u012b mehrb\u0101n\u012b ke intiz\u0101r me\u1e45 rahte hai\u1e45,"
        },
        {
            "chapter": 33,
            "verse": 19,
            "name": "Psalms 33:19",
            "text": "ki wuh un k\u012b j\u0101n maut se bach\u0101e aur k\u0101l me\u1e45 mahf\u016bz rakhe. "
        },
        {
            "chapter": 33,
            "verse": 20,
            "name": "Psalms 33:20",
            "text": "ham\u0101r\u012b j\u0101n rab ke intiz\u0101r me\u1e45 hai. wuh\u012b ham\u0101r\u0101 sah\u0101r\u0101, ham\u0101r\u012b \u1e0dh\u0101l hai."
        },
        {
            "chapter": 33,
            "verse": 21,
            "name": "Psalms 33:21",
            "text": "ham\u0101r\u0101 dil us me\u1e45 \u1e33hush hai, ky\u016b\u1e45ki ham us ke muqaddas n\u0101m par bharos\u0101 rakhte hai\u1e45. "
        },
        {
            "chapter": 33,
            "verse": 22,
            "name": "Psalms 33:22",
            "text": "ai rab, ter\u012b mehrb\u0101n\u012b ham par rahe, ky\u016b\u1e45ki ham tujh par umm\u012bd rakhte hai\u1e45.  "
        }
    ]
}