{
    "translation": "Masoretic Text parallel to the Samaritan Pentateuch",
    "abbreviation": "spmt",
    "lang": "he",
    "language": "Hebrew",
    "direction": "RTL",
    "encoding": "UTF-8",
    "book_nr": 33,
    "book_name": "Micah",
    "chapter": 1,
    "name": "Micah 1",
    "verses": [
        {
            "chapter": 1,
            "verse": 1,
            "name": "Micah 1:1",
            "text": ""
        },
        {
            "chapter": 1,
            "verse": 2,
            "name": "Micah 1:2",
            "text": ""
        },
        {
            "chapter": 1,
            "verse": 3,
            "name": "Micah 1:3",
            "text": ""
        },
        {
            "chapter": 1,
            "verse": 4,
            "name": "Micah 1:4",
            "text": ""
        },
        {
            "chapter": 1,
            "verse": 5,
            "name": "Micah 1:5",
            "text": ""
        },
        {
            "chapter": 1,
            "verse": 6,
            "name": "Micah 1:6",
            "text": ""
        },
        {
            "chapter": 1,
            "verse": 7,
            "name": "Micah 1:7",
            "text": ""
        },
        {
            "chapter": 1,
            "verse": 8,
            "name": "Micah 1:8",
            "text": ""
        },
        {
            "chapter": 1,
            "verse": 9,
            "name": "Micah 1:9",
            "text": ""
        },
        {
            "chapter": 1,
            "verse": 10,
            "name": "Micah 1:10",
            "text": ""
        },
        {
            "chapter": 1,
            "verse": 11,
            "name": "Micah 1:11",
            "text": ""
        },
        {
            "chapter": 1,
            "verse": 12,
            "name": "Micah 1:12",
            "text": ""
        },
        {
            "chapter": 1,
            "verse": 13,
            "name": "Micah 1:13",
            "text": ""
        },
        {
            "chapter": 1,
            "verse": 14,
            "name": "Micah 1:14",
            "text": ""
        },
        {
            "chapter": 1,
            "verse": 15,
            "name": "Micah 1:15",
            "text": ""
        },
        {
            "chapter": 1,
            "verse": 16,
            "name": "Micah 1:16",
            "text": ""
        }
    ]
}