{
    "translation": "Schlachter (1951)",
    "abbreviation": "schlachter",
    "lang": "de",
    "language": "German",
    "direction": "LTR",
    "encoding": "",
    "book_nr": 35,
    "book_name": "Habakuk",
    "chapter": 3,
    "name": "Habakuk 3",
    "verses": [
        {
            "chapter": 3,
            "verse": 1,
            "name": "Habakuk 3:1",
            "text": "Ein Gebet des Propheten Habakuk, nach Art einer Ode."
        },
        {
            "chapter": 3,
            "verse": 2,
            "name": "Habakuk 3:2",
            "text": "O HERR, ich habe die Kunde von dir vernommen, ich bin erschrocken. O HERR, belebe dein Werk inmitten der Jahre! Inmitten der Jahre tue dich kund! Im Zorn sei eingedenk deiner Barmherzigkeit!"
        },
        {
            "chapter": 3,
            "verse": 3,
            "name": "Habakuk 3:3",
            "text": "Gott kommt von Teman her und der Heilige vom Berge Paran (Pause). Seine Pracht bedeckt den Himmel, und seines Lobes ist die Erde voll."
        },
        {
            "chapter": 3,
            "verse": 4,
            "name": "Habakuk 3:4",
            "text": "Ein Glanz entsteht, wie Licht; Strahlen gehen aus seiner Hand hervor, und daselbst ist seine Kraft verborgen."
        },
        {
            "chapter": 3,
            "verse": 5,
            "name": "Habakuk 3:5",
            "text": "Vor ihm her geht die Pestilenz, und die Seuche folgt ihm auf dem Fu\u00dfe."
        },
        {
            "chapter": 3,
            "verse": 6,
            "name": "Habakuk 3:6",
            "text": "Bleibt er stehen, so erbebt die Erde, sieht er die V\u00f6lker an, so schrecken sie auf, und die uralten Berge zerstieben, es sinken die ewigen H\u00fcgel; er wandelt ewige Pfade."
        },
        {
            "chapter": 3,
            "verse": 7,
            "name": "Habakuk 3:7",
            "text": "In N\u00f6ten sehe ich die H\u00fctten Kuschans, es zittern die Zelte des Landes Midian."
        },
        {
            "chapter": 3,
            "verse": 8,
            "name": "Habakuk 3:8",
            "text": "Ist der HERR \u00fcber die Str\u00f6me ergrimmt? Ergie\u00dft sich dein Zorn \u00fcber die Fl\u00fcsse, dein Grimm \u00fcber das Meer, da\u00df du auf deinen Rossen reitest, auf deinen Wagen des Heils?"
        },
        {
            "chapter": 3,
            "verse": 9,
            "name": "Habakuk 3:9",
            "text": "Blo\u00df, enth\u00fcllt ist dein Bogen; deine Eide sind die Pfeile, gem\u00e4\u00df deinem Wort (Pause). Durch Str\u00f6me zerteilst du das Land."
        },
        {
            "chapter": 3,
            "verse": 10,
            "name": "Habakuk 3:10",
            "text": "Wenn die Berge dich sehen, erzittern sie; die Wasserfluten wogen einher, der Ozean l\u00e4\u00dft seine Stimme h\u00f6ren, hoch gehen seine Wellen."
        },
        {
            "chapter": 3,
            "verse": 11,
            "name": "Habakuk 3:11",
            "text": "Sonne und Mond bleiben in ihrer Wohnung beim Leuchten deiner fliegenden Pfeile, beim Glanz deines blitzenden Speers."
        },
        {
            "chapter": 3,
            "verse": 12,
            "name": "Habakuk 3:12",
            "text": "Im Grimm schreitest du \u00fcber die Erde, im Zorn zerdrischest du die Heiden."
        },
        {
            "chapter": 3,
            "verse": 13,
            "name": "Habakuk 3:13",
            "text": "Du ziehst aus zum Heil deines Volkes, zum Heil deines Gesalbten; du zerschmetterst das Haupt von dem Hause des Gottlosen, entbl\u00f6\u00dfest den Grund bis an den Hals (Pause)."
        },
        {
            "chapter": 3,
            "verse": 14,
            "name": "Habakuk 3:14",
            "text": "Du durchbohrst mit ihren eigenen Speeren das Haupt seiner Horden; sie st\u00fcrmten einher, um mich in die Flucht zu schlagen, und erhoben ihr Freudengeschrei, als wollten sie den Elenden im Verborgenen verzehren."
        },
        {
            "chapter": 3,
            "verse": 15,
            "name": "Habakuk 3:15",
            "text": "Du betrittst das Meer mit deinen Rossen, die sch\u00e4umenden Wassermassen."
        },
        {
            "chapter": 3,
            "verse": 16,
            "name": "Habakuk 3:16",
            "text": "Als ich das h\u00f6rte, erzitterte mein Leib; ob dieser Stimme erbebten meine Lippen; F\u00e4ulnis drang in mein Gebein, und meine F\u00fc\u00dfe zitterten, denn sollte ich ruhig sein k\u00f6nnen am Tage der Not, da gegen das Volk heranzieht, der es angreifen will?"
        },
        {
            "chapter": 3,
            "verse": 17,
            "name": "Habakuk 3:17",
            "text": "Denn der Feigenbaum wird nicht ausschlagen und der Weinstock keinen Ertrag abwerfen; die Frucht des \u00d6lbaums wird tr\u00fcgen, und die \u00c4cker werden keine Nahrung liefern; die Schafe werden aus den H\u00fcrden verschwinden und kein Rind mehr in den St\u00e4llen sein."
        },
        {
            "chapter": 3,
            "verse": 18,
            "name": "Habakuk 3:18",
            "text": "Ich aber will mich im HERRN freuen und frohlocken \u00fcber den Gott meines Heils!"
        },
        {
            "chapter": 3,
            "verse": 19,
            "name": "Habakuk 3:19",
            "text": "Der HERR, der Herr, ist meine Kraft; er hat meine F\u00fc\u00dfe denen der Hindinnen gleich gemacht und wird mich auf meine H\u00f6hen treten lassen! Dem Vorsteher, auf meinem Saiteninstrument."
        }
    ]
}