{
    "translation": "Klingon Language Version of the World English Bible",
    "abbreviation": "klv",
    "lang": "tlh",
    "language": "",
    "direction": "LTR",
    "encoding": "",
    "book_nr": 5,
    "book_name": "Deuteronomy",
    "chapter": 13,
    "name": "Deuteronomy 13",
    "verses": [
        {
            "chapter": 13,
            "verse": 1,
            "name": "Deuteronomy 13:1",
            "text": "       chugh  pa'  Hu'  Daq the midst  vo'  SoH a  leghwI'pu',  joq a dreamer  vo' dreams,  je  ghaH  nob  SoH a sign  joq a wonder,"
        },
        {
            "chapter": 13,
            "verse": 2,
            "name": "Deuteronomy 13:2",
            "text": "       je the sign  joq the wonder  ghoS  Daq  juS,  vo'  nuq  ghaH  jatlhta'  Daq  SoH,  ja'ta', \u201c chaw'  maH  jaH after  latlh  Qunpu'\u201d ( nuq  SoH  ghaj  ghobe'  Sovta') \u201c je chaw'  maH  toy'  chaH;\u201d"
        },
        {
            "chapter": 13,
            "verse": 3,
            "name": "Deuteronomy 13:3",
            "text": "       SoH  DIchDaq  ghobe'  'Ij  Daq the  mu'mey  vo'  vetlh  leghwI'pu',  joq  Daq  vetlh dreamer  vo' dreams:  vaD  joH'a'  lIj  joH'a' proves  SoH,  Daq  Sov whether SoH  muSHa'  joH'a'  lIj  joH'a'  tlhej  Hoch  lIj  tIq  je  tlhej  Hoch  lIj  qa'."
        },
        {
            "chapter": 13,
            "verse": 4,
            "name": "Deuteronomy 13:4",
            "text": "       SoH  DIchDaq  yIt after  joH'a'  lIj  joH'a',  je  taHvIp  ghaH,  je  pol  Daj  ra'ta'ghach mu'mey,  je obey  Daj  ghogh,  je  SoH  DIchDaq  toy' ghaH,  je cleave  Daq  ghaH."
        },
        {
            "chapter": 13,
            "verse": 5,
            "name": "Deuteronomy 13:5",
            "text": "       vetlh  leghwI'pu',  joq  vetlh dreamer  vo' dreams,  DIchDaq  taH  lan  Daq  Hegh, because  ghaH  ghajtaH  jatlhpu' rebellion  Daq  joH'a'  lIj  joH'a',  'Iv  qempu' SoH  pa'  vo' the  puH  vo' Egypt,  je  toDta'  SoH  pa'  vo' the  tuq  vo' bondage,  Daq draw  SoH aside  pa'  vo' the way  nuq  joH'a'  lIj  joH'a' ra'ta'  SoH  Daq  yIt  Daq.  vaj  SoH  DIchDaq  lan  DoH the  mIghtaHghach  vo' the midst  vo'  SoH."
        },
        {
            "chapter": 13,
            "verse": 6,
            "name": "Deuteronomy 13:6",
            "text": "       chugh  lIj  loDnI', the  puqloD  vo'  lIj  SoS,  joq  lIj  puqloD,  joq  lIj  puqbe',  joq the  be'nal  vo'  lIj bosom,  joq  lIj friend,  'Iv  ghaH as  lIj ghaj  qa', entice  SoH secretly,  ja'ta', \u201c chaw'  maH  jaH  je  toy'  latlh  Qunpu',\u201d  nuq  SoH  ghaj  ghobe'  Sovta',  SoH,  ghobe'  lIj  vavpu';"
        },
        {
            "chapter": 13,
            "verse": 7,
            "name": "Deuteronomy 13:7",
            "text": "       vo' the  Qunpu'  vo' the  ghotpu'  'Iv  'oH around  SoH,  Sum  Daq  SoH,  joq  Hop  litHa'  vo'  SoH,  vo' the  wa'  pItlh  vo' the  tera'  'ach  Daq the  latlh  pItlh vo' the  tera';"
        },
        {
            "chapter": 13,
            "verse": 8,
            "name": "Deuteronomy 13:8",
            "text": "       SoH  DIchDaq  ghobe' consent  Daq  ghaH,  ghobe'  'Ij  Daq  ghaH;  ghobe'  DIchDaq  lIj  mIn pity  ghaH,  ghobe'  DIchDaq  SoH spare,  ghobe'  DIchDaq  SoH conceal ghaH:"
        },
        {
            "chapter": 13,
            "verse": 9,
            "name": "Deuteronomy 13:9",
            "text": "       'ach  SoH  DIchDaq  DIch  HoH  ghaH;  lIj  ghop  DIchDaq  taH  wa'Dich  Daq  ghaH  Daq  lan  ghaH  Daq  Hegh,  je afterwards the  ghop  vo'  Hoch the  ghotpu."
        },
        {
            "chapter": 13,
            "verse": 10,
            "name": "Deuteronomy 13:10",
            "text": "      SoH  DIchDaq  nagh  ghaH  Daq  Hegh  tlhej  naghmey, because  ghaH  ghajtaH  nejta'  Daq draw  SoH  DoH  vo'  joH'a'  lIj  joH'a',  'Iv  qempu'  SoH  pa'  vo' the     puH  vo' Egypt,  pa'  vo' the  tuq  vo' bondage."
        },
        {
            "chapter": 13,
            "verse": 11,
            "name": "Deuteronomy 13:11",
            "text": "      Hoch Israel  DIchDaq  Qoy,  je  taHvIp,  je  DIchDaq  ghobe'  ta'  vay'  latlh such  mIghtaHghach as  vam  ghaH  Daq the midst  vo'  SoH."
        },
        {
            "chapter": 13,
            "verse": 12,
            "name": "Deuteronomy 13:12",
            "text": "      chugh  SoH  DIchDaq  Qoy  ja' concerning  wa'  vo'  lIj  vengmey,  nuq  joH'a'  lIj  joH'a'  nob  SoH  Daq  yIn  pa',  ja'ta',"
        },
        {
            "chapter": 13,
            "verse": 13,
            "name": "Deuteronomy 13:13",
            "text": "      Dich base fellows  'oH  ghoSta'  pa'  vo' the midst  vo'  SoH,  je  ghaj drawn  DoH the  nganpu'  vo'  chaj  veng,  ja'ta', \u201c chaw'  maH  jaH  je     toy'  latlh  Qunpu',\u201d  nuq  SoH  ghaj  ghobe'  Sovta';"
        },
        {
            "chapter": 13,
            "verse": 14,
            "name": "Deuteronomy 13:14",
            "text": "      vaj  SoH  DIchDaq inquire,  je  chenmoH search,  je  tlhob diligently;  je,  yIlegh,  chugh  'oH  taH  vIt,  je the  Doch  Dich,  vetlh such     qabqu'boghghach  ghaH  ta'pu'  Daq the midst  vo'  SoH,"
        },
        {
            "chapter": 13,
            "verse": 15,
            "name": "Deuteronomy 13:15",
            "text": "      SoH  DIchDaq  DIch  mup the  nganpu'  vo'  vetlh  veng  tlhej the edge  vo' the  'etlh, destroying  'oH utterly,  je  Hoch  vetlh  ghaH therein  je    its livestock,  tlhej the edge  vo' the  'etlh."
        },
        {
            "chapter": 13,
            "verse": 16,
            "name": "Deuteronomy 13:16",
            "text": "      SoH  DIchDaq  tay'moH  Hoch its  non  Daq the midst  vo' its street,  je  DIchDaq  meQ  tlhej  qul the  veng,  je  Hoch its  non  Hoch whit,  Daq     joH'a'  lIj  joH'a':  je  'oH  DIchDaq  taH a heap  reH;  'oH  DIchDaq  ghobe'  taH  chenta' again."
        },
        {
            "chapter": 13,
            "verse": 17,
            "name": "Deuteronomy 13:17",
            "text": "      pa'  DIchDaq cleave  pagh  vo' the devoted  Doch  Daq  lIj  ghop;  vetlh  joH'a' may  tlhe'  vo' the fierceness  vo'  Daj  QeH,  je  cha'  SoH     pung,  je  ghaj compassion  Daq  SoH,  je multiply  SoH, as  ghaH  ghajtaH sworn  Daq  lIj  vavpu';"
        },
        {
            "chapter": 13,
            "verse": 18,
            "name": "Deuteronomy 13:18",
            "text": "      ghorgh  SoH  DIchDaq  'Ij  Daq the  ghogh  vo'  joH'a'  lIj  joH'a',  Daq  pol  Hoch  Daj  ra'ta'ghach mu'mey  nuq  jIH  ra'ta'ghach mu'mey  SoH  vam  jaj,  Daq  ta'  vetlh  nuq     ghaH  nIH  Daq the  mInDu'  vo'  joH'a'  lIj  joH'a'."
        }
    ]
}