{
    "translation": "English Jubilee 2000 Bible",
    "abbreviation": "jubilee2000",
    "lang": "en",
    "language": "English",
    "direction": "LTR",
    "encoding": "",
    "book_nr": 45,
    "book_name": "Romans",
    "chapter": 3,
    "name": "Romans 3",
    "verses": [
        {
            "chapter": 3,
            "verse": 1,
            "name": "Romans 3:1",
            "text": "What advantage then has the Jew? or what profit [is there] of circumcision?"
        },
        {
            "chapter": 3,
            "verse": 2,
            "name": "Romans 3:2",
            "text": "Much in every way: first, certainly, that the oracles of God have been entrusted unto them."
        },
        {
            "chapter": 3,
            "verse": 3,
            "name": "Romans 3:3",
            "text": "For what if some of them did not believe? Shall their unbelief have made the truth of God without effect?"
        },
        {
            "chapter": 3,
            "verse": 4,
            "name": "Romans 3:4",
            "text": "No, in no wise: for God is true, and every man a liar; as it is written, That thou might be justified in thy words and might overcome when thou dost judge."
        },
        {
            "chapter": 3,
            "verse": 5,
            "name": "Romans 3:5",
            "text": "And if our iniquity commends the righteousness of God, what shall we say? Shall [for this reason] God be unjust who sends punishment? (I speak as a man.)"
        },
        {
            "chapter": 3,
            "verse": 6,
            "name": "Romans 3:6",
            "text": "No, in no wise: for then how shall God judge the world?"
        },
        {
            "chapter": 3,
            "verse": 7,
            "name": "Romans 3:7",
            "text": "For if the truth of God has more abounded through my lie unto his glory, why even so am I also judged as a sinner?"
        },
        {
            "chapter": 3,
            "verse": 8,
            "name": "Romans 3:8",
            "text": "And why not say (as we are slanderously reported, and as some affirm that we say), Let us do evil, that good may come? The condemnation of whom is just."
        },
        {
            "chapter": 3,
            "verse": 9,
            "name": "Romans 3:9",
            "text": "What then? Are we better [than they]? No, in no wise; for we have before proved both Jews and Gentiles that they are all under sin;"
        },
        {
            "chapter": 3,
            "verse": 10,
            "name": "Romans 3:10",
            "text": "as it is written, There is no one righteous, no, not one;"
        },
        {
            "chapter": 3,
            "verse": 11,
            "name": "Romans 3:11",
            "text": "there is no one that understands; there is no one that seeks after God."
        },
        {
            "chapter": 3,
            "verse": 12,
            "name": "Romans 3:12",
            "text": "They are all gone out of the way; they are together become unprofitable; there is no one that does good, no, not one."
        },
        {
            "chapter": 3,
            "verse": 13,
            "name": "Romans 3:13",
            "text": "Their throat [is] an open sepulchre; with their tongues they have used deceit; the poison of asps [is] under their lips,"
        },
        {
            "chapter": 3,
            "verse": 14,
            "name": "Romans 3:14",
            "text": "whose mouth [is] full of cursing and bitterness;"
        },
        {
            "chapter": 3,
            "verse": 15,
            "name": "Romans 3:15",
            "text": "their feet [are] swift to shed blood;"
        },
        {
            "chapter": 3,
            "verse": 16,
            "name": "Romans 3:16",
            "text": "destruction and misery [are] in their ways,"
        },
        {
            "chapter": 3,
            "verse": 17,
            "name": "Romans 3:17",
            "text": "and the way of peace they have not known;"
        },
        {
            "chapter": 3,
            "verse": 18,
            "name": "Romans 3:18",
            "text": "there is no fear of God before their eyes."
        },
        {
            "chapter": 3,
            "verse": 19,
            "name": "Romans 3:19",
            "text": "Now we know that all that the law says, it says to those who are under the law, that every mouth may be stopped, and all the world may submit themselves unto God."
        },
        {
            "chapter": 3,
            "verse": 20,
            "name": "Romans 3:20",
            "text": "For by the deeds of the law, no flesh shall be justified in his sight; for by the law [is] the knowledge of sin."
        },
        {
            "chapter": 3,
            "verse": 21,
            "name": "Romans 3:21",
            "text": "But now, without the law, the righteousness of God has been manifested, being witnessed by the law and the prophets:"
        },
        {
            "chapter": 3,
            "verse": 22,
            "name": "Romans 3:22",
            "text": "the righteousness, that is, of God by the faith of Jesus, the Christ, for all and upon all those that believe in him, for there is no difference;"
        },
        {
            "chapter": 3,
            "verse": 23,
            "name": "Romans 3:23",
            "text": "for all have sinned and are made destitute of the glory of God,"
        },
        {
            "chapter": 3,
            "verse": 24,
            "name": "Romans 3:24",
            "text": "[being] justified freely by his grace through the redemption that is in Jesus, the Christ,"
        },
        {
            "chapter": 3,
            "verse": 25,
            "name": "Romans 3:25",
            "text": "whom God purposed for reconciliation through faith in his blood for the manifestation of his righteousness, for the remission of sins that are past, by the patience of God,"
        },
        {
            "chapter": 3,
            "verse": 26,
            "name": "Romans 3:26",
            "text": "manifesting in this time his righteousness that he [only] be the just [one] and the justifier of him that is of the faith of Jesus."
        },
        {
            "chapter": 3,
            "verse": 27,
            "name": "Romans 3:27",
            "text": "Where is boasting then? It is excluded. By what law? of works? No, but by [the] law of faith."
        },
        {
            "chapter": 3,
            "verse": 28,
            "name": "Romans 3:28",
            "text": "Therefore, we conclude that [a] man is justified by faith without the deeds of the law."
        },
        {
            "chapter": 3,
            "verse": 29,
            "name": "Romans 3:29",
            "text": "[Is he] the God of the Jews only? [Is he] not also of the Gentiles? Yes, of the Gentiles also,"
        },
        {
            "chapter": 3,
            "verse": 30,
            "name": "Romans 3:30",
            "text": "seeing [it is] one God who shall justify the circumcision by faith and [the] uncircumcision by faith."
        },
        {
            "chapter": 3,
            "verse": 31,
            "name": "Romans 3:31",
            "text": "Do we then make void the law through faith? No, in no wise; to the contrary, we establish the law.:"
        }
    ]
}