{
    "translation": "Studentm\u00e5llagsbibelen fr\u00e5 1921",
    "abbreviation": "norsmb",
    "lang": "nn",
    "language": "Norwegian nynorsk",
    "direction": "LTR",
    "encoding": "UTF-8",
    "book_nr": 38,
    "book_name": "Zechariah",
    "chapter": 11,
    "name": "Zechariah 11",
    "verses": [
        {
            "chapter": 11,
            "verse": 1,
            "name": "Zechariah 11:1",
            "text": "Lat upp portarne dine, Libanon, so elden kann \u00f8yda cedertrei dine!"
        },
        {
            "chapter": 11,
            "verse": 2,
            "name": "Zechariah 11:2",
            "text": "Jamra deg, du cypressa, for cederen er fallen, dei herlege trei av\u00f8ydde! Jamra dykk, de Basan-eiker: for tjukkaste skogen er sokken!"
        },
        {
            "chapter": 11,
            "verse": 3,
            "name": "Zechariah 11:3",
            "text": "H\u00f8yr, kor hyrdingarne jamrar; for di deira herlegdom er lagd i \u00f8yde! H\u00f8yr, kor dei unge l\u00f8vorne burar; for Jordans prydnad er herja!"
        },
        {
            "chapter": 11,
            "verse": 4,
            "name": "Zechariah 11:4",
            "text": "So sagde Herren min Gud: R\u00f8kta slagtesauerne!"
        },
        {
            "chapter": 11,
            "verse": 5,
            "name": "Zechariah 11:5",
            "text": "For dei som kj\u00f8per deim, slagtar deim utan \u00e5 b\u00f8ta for det, og dei som sel deim segjer: \u00abLova vere Herren! Eg vert d\u00e5 rik!\u00bb Og hyrdingarne deira sparer deim ikkje."
        },
        {
            "chapter": 11,
            "verse": 6,
            "name": "Zechariah 11:6",
            "text": "For no vil eg ikkje meir spara folket i landet, segjer Herren; men eg vil lata menneski falla i henderne p\u00e5 kvarandre og i henderne p\u00e5 kongen sin, og dei skal \u00f8yda landet, og eg vil ikkje fria fr\u00e5 deira vald."
        },
        {
            "chapter": 11,
            "verse": 7,
            "name": "Zechariah 11:7",
            "text": "So tok eg til \u00e5 r\u00f8kta slagtesauerne, ja, dei ringaste av sauerne, og eg tok meg tvo stavar, den eine kalla eg Godvilje, og den andre kalla eg Sameining. Eg gj\u00e6tte d\u00e5 sauerne,"
        },
        {
            "chapter": 11,
            "verse": 8,
            "name": "Zechariah 11:8",
            "text": "og eg gjorde dei tri hyrdingarne til inkjes p\u00e5 ein m\u00e5nad. D\u00e5 leiddest eg ved deim, og dei stygdest og ved meg,"
        },
        {
            "chapter": 11,
            "verse": 9,
            "name": "Zechariah 11:9",
            "text": "og so sagde eg: \u00abEg vil ikkje lenger vera hyrdingen dykkar. Lat dei d\u00f8y som vil d\u00f8y, og lat det \u00f8ydast som vil \u00f8ydast, og dei som vert att, f\u00e6r eta kvarandre upp!\u00bb"
        },
        {
            "chapter": 11,
            "verse": 10,
            "name": "Zechariah 11:10",
            "text": "So tok eg staven min Godvilje og braut honom sund til \u00e5 l\u00f8ysa upp pakti som eg hadde gjort med alle folki."
        },
        {
            "chapter": 11,
            "verse": 11,
            "name": "Zechariah 11:11",
            "text": "Og ho vart gjord til inkjes same dagen, og d\u00e5 fekk dei sanna dei arme sauerne som ansa p\u00e5 meg, at det var Herrens ord."
        },
        {
            "chapter": 11,
            "verse": 12,
            "name": "Zechariah 11:12",
            "text": "Din\u00e6st sagde eg til deim: \u00abUm de so synest, so gjev meg l\u00f8ni mi, og synest de ikkje det er verdt, so lat det vera!\u00bb D\u00e5 vog dei upp tretti sylvdalar til l\u00f8n \u00e5t meg."
        },
        {
            "chapter": 11,
            "verse": 13,
            "name": "Zechariah 11:13",
            "text": "D\u00e5 sagde Herren til meg: Sleng honom burt til pottemakaren, den herlege prisen som dei hev verdsett meg til! Og eg tok dei tretti sylvdalarne og kasta deim inn i Herrens hus, burt til pottemakaren."
        },
        {
            "chapter": 11,
            "verse": 14,
            "name": "Zechariah 11:14",
            "text": "So braut eg sund den andre staven min, Sameining, til \u00e5 l\u00f8ysa upp brorskapen millom Juda og Israel."
        },
        {
            "chapter": 11,
            "verse": 15,
            "name": "Zechariah 11:15",
            "text": "Og Herren sagde til meg: Tak deg no atter hyrdingreidskap, som ein skarvehyrding."
        },
        {
            "chapter": 11,
            "verse": 16,
            "name": "Zechariah 11:16",
            "text": "For sj\u00e5, eg let ein hyrding risa upp i landet, ein som ikkje bryr seg um dei burtkomne, ikkje leitar etter dei villfarne, ikkje heilar dei brotne og ikkje syter for dei friske; men kj\u00f8tet av dei feite et han, og klauverne deira riv han av."
        },
        {
            "chapter": 11,
            "verse": 17,
            "name": "Zechariah 11:17",
            "text": "Us\u00e6l den skarvehyrdingen som svik sauerne! Sverd yver armen hans og yver h\u00f8gre auga hans! Visna, ja, visna skal armen hans, og h\u00f8gre auga hans verta blindt. "
        }
    ]
}