{
    "translation": "Shona Bible",
    "abbreviation": "shona",
    "lang": "sn",
    "language": "Shona",
    "direction": "LTR",
    "encoding": "UTF-8",
    "book_nr": 26,
    "book_name": "Ezekiel",
    "chapter": 9,
    "name": "Ezekiel 9",
    "verses": [
        {
            "chapter": 9,
            "verse": 1,
            "name": "Ezekiel 9:1",
            "text": ""
        },
        {
            "chapter": 9,
            "verse": 2,
            "name": "Ezekiel 9:2",
            "text": ""
        },
        {
            "chapter": 9,
            "verse": 3,
            "name": "Ezekiel 9:3",
            "text": ""
        },
        {
            "chapter": 9,
            "verse": 4,
            "name": "Ezekiel 9:4",
            "text": ""
        },
        {
            "chapter": 9,
            "verse": 5,
            "name": "Ezekiel 9:5",
            "text": ""
        },
        {
            "chapter": 9,
            "verse": 6,
            "name": "Ezekiel 9:6",
            "text": ""
        },
        {
            "chapter": 9,
            "verse": 7,
            "name": "Ezekiel 9:7",
            "text": ""
        },
        {
            "chapter": 9,
            "verse": 8,
            "name": "Ezekiel 9:8",
            "text": ""
        },
        {
            "chapter": 9,
            "verse": 9,
            "name": "Ezekiel 9:9",
            "text": ""
        },
        {
            "chapter": 9,
            "verse": 10,
            "name": "Ezekiel 9:10",
            "text": ""
        },
        {
            "chapter": 9,
            "verse": 11,
            "name": "Ezekiel 9:11",
            "text": ""
        }
    ]
}