{
    "translation": "NT Textus Receptus (1550 1894) Parsed",
    "abbreviation": "textusreceptus",
    "lang": "grc",
    "language": "Greek",
    "direction": "LTR",
    "encoding": "UTF-8",
    "book_nr": 61,
    "book_name": "2 Peter",
    "chapter": 3,
    "name": "2 Peter 3",
    "verses": [
        {
            "chapter": 3,
            "verse": 1,
            "name": "2 Peter 3:1",
            "text": "\u03c4\u03b1\u03c5\u03c4\u03b7\u03bd \u03b7\u03b4\u03b7 \u03b1\u03b3\u03b1\u03c0\u03b7\u03c4\u03bf\u03b9 \u03b4\u03b5\u03c5\u03c4\u03b5\u03c1\u03b1\u03bd \u03c5\u03bc\u03b9\u03bd \u03b3\u03c1\u03b1\u03c6\u03c9 \u03b5\u03c0\u03b9\u03c3\u03c4\u03bf\u03bb\u03b7\u03bd \u03b5\u03bd \u03b1\u03b9\u03c2 \u03b4\u03b9\u03b5\u03b3\u03b5\u03b9\u03c1\u03c9 \u03c5\u03bc\u03c9\u03bd \u03b5\u03bd \u03c5\u03c0\u03bf\u03bc\u03bd\u03b7\u03c3\u03b5\u03b9 \u03c4\u03b7\u03bd \u03b5\u03b9\u03bb\u03b9\u03ba\u03c1\u03b9\u03bd\u03b7 \u03b4\u03b9\u03b1\u03bd\u03bf\u03b9\u03b1\u03bd "
        },
        {
            "chapter": 3,
            "verse": 2,
            "name": "2 Peter 3:2",
            "text": "\u03bc\u03bd\u03b7\u03c3\u03b8\u03b7\u03bd\u03b1\u03b9 \u03c4\u03c9\u03bd \u03c0\u03c1\u03bf\u03b5\u03b9\u03c1\u03b7\u03bc\u03b5\u03bd\u03c9\u03bd \u03c1\u03b7\u03bc\u03b1\u03c4\u03c9\u03bd \u03c5\u03c0\u03bf \u03c4\u03c9\u03bd \u03b1\u03b3\u03b9\u03c9\u03bd \u03c0\u03c1\u03bf\u03c6\u03b7\u03c4\u03c9\u03bd \u03ba\u03b1\u03b9 \u03c4\u03b7\u03c2 \u03c4\u03c9\u03bd \u03b1\u03c0\u03bf\u03c3\u03c4\u03bf\u03bb\u03c9\u03bd \u03b7\u03bc\u03c9\u03bd \u03b5\u03bd\u03c4\u03bf\u03bb\u03b7\u03c2 \u03c4\u03bf\u03c5 \u03ba\u03c5\u03c1\u03b9\u03bf\u03c5 \u03ba\u03b1\u03b9 \u03c3\u03c9\u03c4\u03b7\u03c1\u03bf\u03c2 "
        },
        {
            "chapter": 3,
            "verse": 3,
            "name": "2 Peter 3:3",
            "text": "\u03c4\u03bf\u03c5\u03c4\u03bf \u03c0\u03c1\u03c9\u03c4\u03bf\u03bd \u03b3\u03b9\u03bd\u03c9\u03c3\u03ba\u03bf\u03bd\u03c4\u03b5\u03c2 \u03bf\u03c4\u03b9 \u03b5\u03bb\u03b5\u03c5\u03c3\u03bf\u03bd\u03c4\u03b1\u03b9 \u03b5\u03c0 \u03b5\u03c3\u03c7\u03b1\u03c4\u03bf\u03c5 \u03c4\u03c9\u03bd \u03b7\u03bc\u03b5\u03c1\u03c9\u03bd \u03b5\u03bc\u03c0\u03b1\u03b9\u03ba\u03c4\u03b1\u03b9 \u03ba\u03b1\u03c4\u03b1 \u03c4\u03b1\u03c2 \u03b9\u03b4\u03b9\u03b1\u03c2 \u03b1\u03c5\u03c4\u03c9\u03bd \u03b5\u03c0\u03b9\u03b8\u03c5\u03bc\u03b9\u03b1\u03c2 \u03c0\u03bf\u03c1\u03b5\u03c5\u03bf\u03bc\u03b5\u03bd\u03bf\u03b9 "
        },
        {
            "chapter": 3,
            "verse": 4,
            "name": "2 Peter 3:4",
            "text": "\u03ba\u03b1\u03b9 \u03bb\u03b5\u03b3\u03bf\u03bd\u03c4\u03b5\u03c2 \u03c0\u03bf\u03c5 \u03b5\u03c3\u03c4\u03b9\u03bd \u03b7 \u03b5\u03c0\u03b1\u03b3\u03b3\u03b5\u03bb\u03b9\u03b1 \u03c4\u03b7\u03c2 \u03c0\u03b1\u03c1\u03bf\u03c5\u03c3\u03b9\u03b1\u03c2 \u03b1\u03c5\u03c4\u03bf\u03c5 \u03b1\u03c6 \u03b7\u03c2 \u03b3\u03b1\u03c1 \u03bf\u03b9 \u03c0\u03b1\u03c4\u03b5\u03c1\u03b5\u03c2 \u03b5\u03ba\u03bf\u03b9\u03bc\u03b7\u03b8\u03b7\u03c3\u03b1\u03bd \u03c0\u03b1\u03bd\u03c4\u03b1 \u03bf\u03c5\u03c4\u03c9\u03c2 \u03b4\u03b9\u03b1\u03bc\u03b5\u03bd\u03b5\u03b9 \u03b1\u03c0 \u03b1\u03c1\u03c7\u03b7\u03c2 \u03ba\u03c4\u03b9\u03c3\u03b5\u03c9\u03c2 "
        },
        {
            "chapter": 3,
            "verse": 5,
            "name": "2 Peter 3:5",
            "text": "\u03bb\u03b1\u03bd\u03b8\u03b1\u03bd\u03b5\u03b9 \u03b3\u03b1\u03c1 \u03b1\u03c5\u03c4\u03bf\u03c5\u03c2 \u03c4\u03bf\u03c5\u03c4\u03bf \u03b8\u03b5\u03bb\u03bf\u03bd\u03c4\u03b1\u03c2 \u03bf\u03c4\u03b9 \u03bf\u03c5\u03c1\u03b1\u03bd\u03bf\u03b9 \u03b7\u03c3\u03b1\u03bd \u03b5\u03ba\u03c0\u03b1\u03bb\u03b1\u03b9 \u03ba\u03b1\u03b9 \u03b3\u03b7 \u03b5\u03be \u03c5\u03b4\u03b1\u03c4\u03bf\u03c2 \u03ba\u03b1\u03b9 \u03b4\u03b9 \u03c5\u03b4\u03b1\u03c4\u03bf\u03c2 \u03c3\u03c5\u03bd\u03b5\u03c3\u03c4\u03c9\u03c3\u03b1 \u03c4\u03c9 \u03c4\u03bf\u03c5 \u03b8\u03b5\u03bf\u03c5 \u03bb\u03bf\u03b3\u03c9 "
        },
        {
            "chapter": 3,
            "verse": 6,
            "name": "2 Peter 3:6",
            "text": "\u03b4\u03b9 \u03c9\u03bd \u03bf \u03c4\u03bf\u03c4\u03b5 \u03ba\u03bf\u03c3\u03bc\u03bf\u03c2 \u03c5\u03b4\u03b1\u03c4\u03b9 \u03ba\u03b1\u03c4\u03b1\u03ba\u03bb\u03c5\u03c3\u03b8\u03b5\u03b9\u03c2 \u03b1\u03c0\u03c9\u03bb\u03b5\u03c4\u03bf "
        },
        {
            "chapter": 3,
            "verse": 7,
            "name": "2 Peter 3:7",
            "text": "\u03bf\u03b9 \u03b4\u03b5 \u03bd\u03c5\u03bd \u03bf\u03c5\u03c1\u03b1\u03bd\u03bf\u03b9 \u03ba\u03b1\u03b9 \u03b7 \u03b3\u03b7 \u03b1\u03c5\u03c4\u03bf\u03c5 \u03c4\u03c9 \u03b1\u03c5\u03c4\u03c9 \u03bb\u03bf\u03b3\u03c9 \u03c4\u03b5\u03b8\u03b7\u03c3\u03b1\u03c5\u03c1\u03b9\u03c3\u03bc\u03b5\u03bd\u03bf\u03b9 \u03b5\u03b9\u03c3\u03b9\u03bd \u03c0\u03c5\u03c1\u03b9 \u03c4\u03b7\u03c1\u03bf\u03c5\u03bc\u03b5\u03bd\u03bf\u03b9 \u03b5\u03b9\u03c2 \u03b7\u03bc\u03b5\u03c1\u03b1\u03bd \u03ba\u03c1\u03b9\u03c3\u03b5\u03c9\u03c2 \u03ba\u03b1\u03b9 \u03b1\u03c0\u03c9\u03bb\u03b5\u03b9\u03b1\u03c2 \u03c4\u03c9\u03bd \u03b1\u03c3\u03b5\u03b2\u03c9\u03bd \u03b1\u03bd\u03b8\u03c1\u03c9\u03c0\u03c9\u03bd "
        },
        {
            "chapter": 3,
            "verse": 8,
            "name": "2 Peter 3:8",
            "text": "\u03b5\u03bd \u03b4\u03b5 \u03c4\u03bf\u03c5\u03c4\u03bf \u03bc\u03b7 \u03bb\u03b1\u03bd\u03b8\u03b1\u03bd\u03b5\u03c4\u03c9 \u03c5\u03bc\u03b1\u03c2 \u03b1\u03b3\u03b1\u03c0\u03b7\u03c4\u03bf\u03b9 \u03bf\u03c4\u03b9 \u03bc\u03b9\u03b1 \u03b7\u03bc\u03b5\u03c1\u03b1 \u03c0\u03b1\u03c1\u03b1 \u03ba\u03c5\u03c1\u03b9\u03c9 \u03c9\u03c2 \u03c7\u03b9\u03bb\u03b9\u03b1 \u03b5\u03c4\u03b7 \u03ba\u03b1\u03b9 \u03c7\u03b9\u03bb\u03b9\u03b1 \u03b5\u03c4\u03b7 \u03c9\u03c2 \u03b7\u03bc\u03b5\u03c1\u03b1 \u03bc\u03b9\u03b1 "
        },
        {
            "chapter": 3,
            "verse": 9,
            "name": "2 Peter 3:9",
            "text": "\u03bf\u03c5 \u03b2\u03c1\u03b1\u03b4\u03c5\u03bd\u03b5\u03b9 \u03bf \u03ba\u03c5\u03c1\u03b9\u03bf\u03c2 \u03c4\u03b7\u03c2 \u03b5\u03c0\u03b1\u03b3\u03b3\u03b5\u03bb\u03b9\u03b1\u03c2 \u03c9\u03c2 \u03c4\u03b9\u03bd\u03b5\u03c2 \u03b2\u03c1\u03b1\u03b4\u03c5\u03c4\u03b7\u03c4\u03b1 \u03b7\u03b3\u03bf\u03c5\u03bd\u03c4\u03b1\u03b9 \u03b1\u03bb\u03bb\u03b1 \u03bc\u03b1\u03ba\u03c1\u03bf\u03b8\u03c5\u03bc\u03b5\u03b9 \u03b5\u03b9\u03c2 \u03b7\u03bc\u03b1\u03c2 \u03bc\u03b7 \u03b2\u03bf\u03c5\u03bb\u03bf\u03bc\u03b5\u03bd\u03bf\u03c2 \u03c4\u03b9\u03bd\u03b1\u03c2 \u03b1\u03c0\u03bf\u03bb\u03b5\u03c3\u03b8\u03b1\u03b9 \u03b1\u03bb\u03bb\u03b1 \u03c0\u03b1\u03bd\u03c4\u03b1\u03c2 \u03b5\u03b9\u03c2 \u03bc\u03b5\u03c4\u03b1\u03bd\u03bf\u03b9\u03b1\u03bd \u03c7\u03c9\u03c1\u03b7\u03c3\u03b1\u03b9 "
        },
        {
            "chapter": 3,
            "verse": 10,
            "name": "2 Peter 3:10",
            "text": "\u03b7\u03be\u03b5\u03b9 \u03b4\u03b5 \u03b7 \u03b7\u03bc\u03b5\u03c1\u03b1 \u03ba\u03c5\u03c1\u03b9\u03bf\u03c5 \u03c9\u03c2 \u03ba\u03bb\u03b5\u03c0\u03c4\u03b7\u03c2 \u03b5\u03bd \u03bd\u03c5\u03ba\u03c4\u03b9 \u03b5\u03bd \u03b7 \u03bf\u03b9 \u03bf\u03c5\u03c1\u03b1\u03bd\u03bf\u03b9 \u03c1\u03bf\u03b9\u03b6\u03b7\u03b4\u03bf\u03bd \u03c0\u03b1\u03c1\u03b5\u03bb\u03b5\u03c5\u03c3\u03bf\u03bd\u03c4\u03b1\u03b9 \u03c3\u03c4\u03bf\u03b9\u03c7\u03b5\u03b9\u03b1 \u03b4\u03b5 \u03ba\u03b1\u03c5\u03c3\u03bf\u03c5\u03bc\u03b5\u03bd\u03b1 \u03bb\u03c5\u03b8\u03b7\u03c3\u03bf\u03bd\u03c4\u03b1\u03b9 \u03ba\u03b1\u03b9 \u03b3\u03b7 \u03ba\u03b1\u03b9 \u03c4\u03b1 \u03b5\u03bd \u03b1\u03c5\u03c4\u03b7 \u03b5\u03c1\u03b3\u03b1 \u03ba\u03b1\u03c4\u03b1\u03ba\u03b1\u03b7\u03c3\u03b5\u03c4\u03b1\u03b9 "
        },
        {
            "chapter": 3,
            "verse": 11,
            "name": "2 Peter 3:11",
            "text": "\u03c4\u03bf\u03c5\u03c4\u03c9\u03bd \u03bf\u03c5\u03bd \u03c0\u03b1\u03bd\u03c4\u03c9\u03bd \u03bb\u03c5\u03bf\u03bc\u03b5\u03bd\u03c9\u03bd \u03c0\u03bf\u03c4\u03b1\u03c0\u03bf\u03c5\u03c2 \u03b4\u03b5\u03b9 \u03c5\u03c0\u03b1\u03c1\u03c7\u03b5\u03b9\u03bd \u03c5\u03bc\u03b1\u03c2 \u03b5\u03bd \u03b1\u03b3\u03b9\u03b1\u03b9\u03c2 \u03b1\u03bd\u03b1\u03c3\u03c4\u03c1\u03bf\u03c6\u03b1\u03b9\u03c2 \u03ba\u03b1\u03b9 \u03b5\u03c5\u03c3\u03b5\u03b2\u03b5\u03b9\u03b1\u03b9\u03c2 "
        },
        {
            "chapter": 3,
            "verse": 12,
            "name": "2 Peter 3:12",
            "text": "\u03c0\u03c1\u03bf\u03c3\u03b4\u03bf\u03ba\u03c9\u03bd\u03c4\u03b1\u03c2 \u03ba\u03b1\u03b9 \u03c3\u03c0\u03b5\u03c5\u03b4\u03bf\u03bd\u03c4\u03b1\u03c2 \u03c4\u03b7\u03bd \u03c0\u03b1\u03c1\u03bf\u03c5\u03c3\u03b9\u03b1\u03bd \u03c4\u03b7\u03c2 \u03c4\u03bf\u03c5 \u03b8\u03b5\u03bf\u03c5 \u03b7\u03bc\u03b5\u03c1\u03b1\u03c2 \u03b4\u03b9 \u03b7\u03bd \u03bf\u03c5\u03c1\u03b1\u03bd\u03bf\u03b9 \u03c0\u03c5\u03c1\u03bf\u03c5\u03bc\u03b5\u03bd\u03bf\u03b9 \u03bb\u03c5\u03b8\u03b7\u03c3\u03bf\u03bd\u03c4\u03b1\u03b9 \u03ba\u03b1\u03b9 \u03c3\u03c4\u03bf\u03b9\u03c7\u03b5\u03b9\u03b1 \u03ba\u03b1\u03c5\u03c3\u03bf\u03c5\u03bc\u03b5\u03bd\u03b1 \u03c4\u03b7\u03ba\u03b5\u03c4\u03b1\u03b9 "
        },
        {
            "chapter": 3,
            "verse": 13,
            "name": "2 Peter 3:13",
            "text": "\u03ba\u03b1\u03b9\u03bd\u03bf\u03c5\u03c2 \u03b4\u03b5 \u03bf\u03c5\u03c1\u03b1\u03bd\u03bf\u03c5\u03c2 \u03ba\u03b1\u03b9 \u03b3\u03b7\u03bd \u03ba\u03b1\u03b9\u03bd\u03b7\u03bd \u03ba\u03b1\u03c4\u03b1 \u03c4\u03bf \u03b5\u03c0\u03b1\u03b3\u03b3\u03b5\u03bb\u03bc\u03b1 \u03b1\u03c5\u03c4\u03bf\u03c5 \u03c0\u03c1\u03bf\u03c3\u03b4\u03bf\u03ba\u03c9\u03bc\u03b5\u03bd \u03b5\u03bd \u03bf\u03b9\u03c2 \u03b4\u03b9\u03ba\u03b1\u03b9\u03bf\u03c3\u03c5\u03bd\u03b7 \u03ba\u03b1\u03c4\u03bf\u03b9\u03ba\u03b5\u03b9 "
        },
        {
            "chapter": 3,
            "verse": 14,
            "name": "2 Peter 3:14",
            "text": "\u03b4\u03b9\u03bf \u03b1\u03b3\u03b1\u03c0\u03b7\u03c4\u03bf\u03b9 \u03c4\u03b1\u03c5\u03c4\u03b1 \u03c0\u03c1\u03bf\u03c3\u03b4\u03bf\u03ba\u03c9\u03bd\u03c4\u03b5\u03c2 \u03c3\u03c0\u03bf\u03c5\u03b4\u03b1\u03c3\u03b1\u03c4\u03b5 \u03b1\u03c3\u03c0\u03b9\u03bb\u03bf\u03b9 \u03ba\u03b1\u03b9 \u03b1\u03bc\u03c9\u03bc\u03b7\u03c4\u03bf\u03b9 \u03b1\u03c5\u03c4\u03c9 \u03b5\u03c5\u03c1\u03b5\u03b8\u03b7\u03bd\u03b1\u03b9 \u03b5\u03bd \u03b5\u03b9\u03c1\u03b7\u03bd\u03b7 "
        },
        {
            "chapter": 3,
            "verse": 15,
            "name": "2 Peter 3:15",
            "text": "\u03ba\u03b1\u03b9 \u03c4\u03b7\u03bd \u03c4\u03bf\u03c5 \u03ba\u03c5\u03c1\u03b9\u03bf\u03c5 \u03b7\u03bc\u03c9\u03bd \u03bc\u03b1\u03ba\u03c1\u03bf\u03b8\u03c5\u03bc\u03b9\u03b1\u03bd \u03c3\u03c9\u03c4\u03b7\u03c1\u03b9\u03b1\u03bd \u03b7\u03b3\u03b5\u03b9\u03c3\u03b8\u03b5 \u03ba\u03b1\u03b8\u03c9\u03c2 \u03ba\u03b1\u03b9 \u03bf \u03b1\u03b3\u03b1\u03c0\u03b7\u03c4\u03bf\u03c2 \u03b7\u03bc\u03c9\u03bd \u03b1\u03b4\u03b5\u03bb\u03c6\u03bf\u03c2 \u03c0\u03b1\u03c5\u03bb\u03bf\u03c2 \u03ba\u03b1\u03c4\u03b1 \u03c4\u03b7\u03bd \u03b1\u03c5\u03c4\u03c9 \u03b4\u03bf\u03b8\u03b5\u03b9\u03c3\u03b1\u03bd \u03c3\u03bf\u03c6\u03b9\u03b1\u03bd \u03b5\u03b3\u03c1\u03b1\u03c8\u03b5\u03bd \u03c5\u03bc\u03b9\u03bd "
        },
        {
            "chapter": 3,
            "verse": 16,
            "name": "2 Peter 3:16",
            "text": "\u03c9\u03c2 \u03ba\u03b1\u03b9 \u03b5\u03bd \u03c0\u03b1\u03c3\u03b1\u03b9\u03c2 \u03c4\u03b1\u03b9\u03c2 \u03b5\u03c0\u03b9\u03c3\u03c4\u03bf\u03bb\u03b1\u03b9\u03c2 \u03bb\u03b1\u03bb\u03c9\u03bd \u03b5\u03bd \u03b1\u03c5\u03c4\u03b1\u03b9\u03c2 \u03c0\u03b5\u03c1\u03b9 \u03c4\u03bf\u03c5\u03c4\u03c9\u03bd \u03b5\u03bd \u03bf\u03b9\u03c2 \u03b5\u03c3\u03c4\u03b9\u03bd \u03b4\u03c5\u03c3\u03bd\u03bf\u03b7\u03c4\u03b1 \u03c4\u03b9\u03bd\u03b1 \u03b1 \u03bf\u03b9 \u03b1\u03bc\u03b1\u03b8\u03b5\u03b9\u03c2 \u03ba\u03b1\u03b9 \u03b1\u03c3\u03c4\u03b7\u03c1\u03b9\u03ba\u03c4\u03bf\u03b9 \u03c3\u03c4\u03c1\u03b5\u03b2\u03bb\u03bf\u03c5\u03c3\u03b9\u03bd \u03c9\u03c2 \u03ba\u03b1\u03b9 \u03c4\u03b1\u03c2 \u03bb\u03bf\u03b9\u03c0\u03b1\u03c2 \u03b3\u03c1\u03b1\u03c6\u03b1\u03c2 \u03c0\u03c1\u03bf\u03c2 \u03c4\u03b7\u03bd \u03b9\u03b4\u03b9\u03b1\u03bd \u03b1\u03c5\u03c4\u03c9\u03bd \u03b1\u03c0\u03c9\u03bb\u03b5\u03b9\u03b1\u03bd "
        },
        {
            "chapter": 3,
            "verse": 17,
            "name": "2 Peter 3:17",
            "text": "\u03c5\u03bc\u03b5\u03b9\u03c2 \u03bf\u03c5\u03bd \u03b1\u03b3\u03b1\u03c0\u03b7\u03c4\u03bf\u03b9 \u03c0\u03c1\u03bf\u03b3\u03b9\u03bd\u03c9\u03c3\u03ba\u03bf\u03bd\u03c4\u03b5\u03c2 \u03c6\u03c5\u03bb\u03b1\u03c3\u03c3\u03b5\u03c3\u03b8\u03b5 \u03b9\u03bd\u03b1 \u03bc\u03b7 \u03c4\u03b7 \u03c4\u03c9\u03bd \u03b1\u03b8\u03b5\u03c3\u03bc\u03c9\u03bd \u03c0\u03bb\u03b1\u03bd\u03b7 \u03c3\u03c5\u03bd\u03b1\u03c0\u03b1\u03c7\u03b8\u03b5\u03bd\u03c4\u03b5\u03c2 \u03b5\u03ba\u03c0\u03b5\u03c3\u03b7\u03c4\u03b5 \u03c4\u03bf\u03c5 \u03b9\u03b4\u03b9\u03bf\u03c5 \u03c3\u03c4\u03b7\u03c1\u03b9\u03b3\u03bc\u03bf\u03c5 "
        },
        {
            "chapter": 3,
            "verse": 18,
            "name": "2 Peter 3:18",
            "text": "\u03b1\u03c5\u03be\u03b1\u03bd\u03b5\u03c4\u03b5 \u03b4\u03b5 \u03b5\u03bd \u03c7\u03b1\u03c1\u03b9\u03c4\u03b9 \u03ba\u03b1\u03b9 \u03b3\u03bd\u03c9\u03c3\u03b5\u03b9 \u03c4\u03bf\u03c5 \u03ba\u03c5\u03c1\u03b9\u03bf\u03c5 \u03b7\u03bc\u03c9\u03bd \u03ba\u03b1\u03b9 \u03c3\u03c9\u03c4\u03b7\u03c1\u03bf\u03c2 \u03b9\u03b7\u03c3\u03bf\u03c5 \u03c7\u03c1\u03b9\u03c3\u03c4\u03bf\u03c5 \u03b1\u03c5\u03c4\u03c9 \u03b7 \u03b4\u03bf\u03be\u03b1 \u03ba\u03b1\u03b9 \u03bd\u03c5\u03bd \u03ba\u03b1\u03b9 \u03b5\u03b9\u03c2 \u03b7\u03bc\u03b5\u03c1\u03b1\u03bd \u03b1\u03b9\u03c9\u03bd\u03bf\u03c2 \u03b1\u03bc\u03b7\u03bd   "
        }
    ]
}