{
    "translation": "The Emphasised Bible by J. B. Rotherham",
    "abbreviation": "rotherham",
    "lang": "en",
    "language": "English",
    "direction": "LTR",
    "encoding": "UTF-8",
    "book_nr": 7,
    "book_name": "Judges",
    "chapter": 5,
    "name": "Judges 5",
    "verses": [
        {
            "chapter": 5,
            "verse": 1,
            "name": "Judges 5:1",
            "text": "Then sang Deborah, and Barak, son of Abinoam,\u2014on that day, saying:\u2014"
        },
        {
            "chapter": 5,
            "verse": 2,
            "name": "Judges 5:2",
            "text": "For the leadership of leaders in Israel, For the volunteering of the people,\u2014Bless ye Yahweh!"
        },
        {
            "chapter": 5,
            "verse": 3,
            "name": "Judges 5:3",
            "text": "Hear, ye kings! Give ear, ye princes! I, unto Yahweh,\u2014I, will sing, Will make melody to Yahweh, God of Israel."
        },
        {
            "chapter": 5,
            "verse": 4,
            "name": "Judges 5:4",
            "text": "O Yahweh! When thou didst come forth out of Seir, When thou didst march along out of the field of Edom, Earth, trembled, Heaven also, poured forth,\u2014Yea, dark clouds, poured forth waters;"
        },
        {
            "chapter": 5,
            "verse": 5,
            "name": "Judges 5:5",
            "text": "From, mountains, came down streams In presence of Yahweh,\u2014From this Sinai, In presence of Yahweh, God of Israel. "
        },
        {
            "chapter": 5,
            "verse": 6,
            "name": "Judges 5:6",
            "text": " In the days of Shamgar son of Anath, in the days of Jael, the roads were forsaken,\u2014and, the frequenters of highways, betook them to roundabout paths:"
        },
        {
            "chapter": 5,
            "verse": 7,
            "name": "Judges 5:7",
            "text": "There was a failure of rulers, in Israel, a failure,\u2014until I arose, a Deborah, arose, a mother in Israel:\u2014"
        },
        {
            "chapter": 5,
            "verse": 8,
            "name": "Judges 5:8",
            "text": "They chose gods that were new, Then,\u2014war at the gates! Was there, a shield, to be seen? or a spear? among forty thousand in Israel?"
        },
        {
            "chapter": 5,
            "verse": 9,
            "name": "Judges 5:9",
            "text": "My heart [saith] \u2014for the governors of Israel, for the volunteers among the people, Bless ye Yahweh!"
        },
        {
            "chapter": 5,
            "verse": 10,
            "name": "Judges 5:10",
            "text": "Ye that ride on white asses, ye that sit on carpets, and ye that walk upon the road, speak!"
        },
        {
            "chapter": 5,
            "verse": 11,
            "name": "Judges 5:11",
            "text": "In the place of the noise of bowmen among the wells, there, laud ye\u2014the righteous acts of Yahweh, the righteous acts of his rule over Israel. Then, had come down to the gates the people of Yahweh. "
        },
        {
            "chapter": 5,
            "verse": 12,
            "name": "Judges 5:12",
            "text": " Awake! awake! Deborah, Awake! awake! utter words of song,\u2014Arise! Barak, and bind fast thy captives, O son of Abinoam!"
        },
        {
            "chapter": 5,
            "verse": 13,
            "name": "Judges 5:13",
            "text": "Then, came down a remnant to the nobles\u2014a people,\u2014Yahweh, came down with me against the mighty."
        },
        {
            "chapter": 5,
            "verse": 14,
            "name": "Judges 5:14",
            "text": "Out of Ephraim, [came down] they whose root was in Amalek, After thee, Benjamin, among thy tribes,\u2014Out of Machir, had come down governors, And, out of Zebulun, such as bear aloft the staff of the marshal;"
        },
        {
            "chapter": 5,
            "verse": 15,
            "name": "Judges 5:15",
            "text": "And, my princes in Issachar, were with Deborah, yea, Issachar, was the support of Barak, Into the vale rushed they forth at his feet. Among the divisions of Reuben, great were the resolves of the heart:"
        },
        {
            "chapter": 5,
            "verse": 16,
            "name": "Judges 5:16",
            "text": "Wherefore abodes thou among the folds? To hear the mocking of the flocks? The divisions of Reuben, had great counsellings of heart."
        },
        {
            "chapter": 5,
            "verse": 17,
            "name": "Judges 5:17",
            "text": "Gilead, beyond the Jordan, took his rest, but, Dan, wherefore remained he with the ships? Asher, abode by the shore of the seas, and, by his creeks, must needs rest."
        },
        {
            "chapter": 5,
            "verse": 18,
            "name": "Judges 5:18",
            "text": "Zebulun\u2014a people that scorned their souls unto death; and, Naphtali,\u2014upon the heights of the field."
        },
        {
            "chapter": 5,
            "verse": 19,
            "name": "Judges 5:19",
            "text": "On came kings, they fought, Then, fought the kings of Canaan, In Taanach, by the waters of Megiddo,\u2014Plunder of silver, they took not away!"
        },
        {
            "chapter": 5,
            "verse": 20,
            "name": "Judges 5:20",
            "text": "From heaven, was the battle fought,\u2014The stars in their courses, fought against Sisera."
        },
        {
            "chapter": 5,
            "verse": 21,
            "name": "Judges 5:21",
            "text": "The torrent of Kishon, swept them away, the torrent of olden times, the torrent of Kishon! Let my soul march along, with victorious strength!"
        },
        {
            "chapter": 5,
            "verse": 22,
            "name": "Judges 5:22",
            "text": "Then, stamped hoofs of horses, With the gallopings, gallopings of his mighty steeds."
        },
        {
            "chapter": 5,
            "verse": 23,
            "name": "Judges 5:23",
            "text": "Curse ye Meroz, saith the messenger of Yahweh, Curse ye with a curse, the inhabitants thereof,\u2014because they came not in to the help of Yahweh, to the help of Yahweh, against the mighty. "
        },
        {
            "chapter": 5,
            "verse": 24,
            "name": "Judges 5:24",
            "text": " Blessed above women, shall be Jael, wife of Heber the Kenite,\u2014Above women in the tent, be blessed:"
        },
        {
            "chapter": 5,
            "verse": 25,
            "name": "Judges 5:25",
            "text": "Water, he asked, Milk, she gave,\u2014In a bowl for nobles, presented cream:"
        },
        {
            "chapter": 5,
            "verse": 26,
            "name": "Judges 5:26",
            "text": "Her hand, to the tent-pin, put she forth, and, her right hand, to the toilers\u2019 mallet,\u2014Then smote she Sisera, She shattered his head, Yea she split open and pierced through his temples:"
        },
        {
            "chapter": 5,
            "verse": 27,
            "name": "Judges 5:27",
            "text": "Between her feet, he bowed\u2014he fell, he lay,\u2014Between her feet, he bowed\u2014he fell, Where he bowed, There, he fell\u2014destroyed!"
        },
        {
            "chapter": 5,
            "verse": 28,
            "name": "Judges 5:28",
            "text": "Through the window, looked out and shrilly cried, The mother of Sisera, through the lattice,\u2014Why is his chariot ashamed to come? Why delay the wheels of his chariot?"
        },
        {
            "chapter": 5,
            "verse": 29,
            "name": "Judges 5:29",
            "text": "The wise ladies, her princesses, responded,\u2014Nay! she, returned answer to, herself:\u2014"
        },
        {
            "chapter": 5,
            "verse": 30,
            "name": "Judges 5:30",
            "text": "Is it not They keep finding\u2014dividing spoil, One damsel, two damsels, to every several hero, Spoil, of divers coloured raiment for Sisera, Spoil, of divers coloured raiment, embroidered, Coloured raiment richly embroidered, on the necks of them who are taken as spoil?"
        },
        {
            "chapter": 5,
            "verse": 31,
            "name": "Judges 5:31",
            "text": "So, perish all thine enemies, O Yahweh, But be, they who love him, as the going forth of the sun, in his might! And the land had rest forty years.  "
        }
    ]
}