{
    "translation": "The Lexham English Bible",
    "abbreviation": "leb",
    "lang": "en",
    "language": "English",
    "direction": "LTR",
    "encoding": "UTF-8",
    "book_nr": 20,
    "book_name": "Proverbs",
    "chapter": 27,
    "name": "Proverbs 27",
    "verses": [
        {
            "chapter": 27,
            "verse": 1,
            "name": "Proverbs 27:1",
            "text": "  Do not boast \u231eabout tomorrow\u231f, for you do not know what the day will bring. "
        },
        {
            "chapter": 27,
            "verse": 2,
            "name": "Proverbs 27:2",
            "text": "May another praise you and not your own mouth, a stranger and not your own lips. "
        },
        {
            "chapter": 27,
            "verse": 3,
            "name": "Proverbs 27:3",
            "text": "Heavy is a stone and weighty is sand, but the provocation of a fool is heavier than both of them. "
        },
        {
            "chapter": 27,
            "verse": 4,
            "name": "Proverbs 27:4",
            "text": "Cruel is wrath and overwhelming is anger, but who will stand before jealousy? "
        },
        {
            "chapter": 27,
            "verse": 5,
            "name": "Proverbs 27:5",
            "text": "Better a rebuke that is open than a love that is hidden. "
        },
        {
            "chapter": 27,
            "verse": 6,
            "name": "Proverbs 27:6",
            "text": "The wounds of a friend mean well, but the kisses of an enemy are profane. "
        },
        {
            "chapter": 27,
            "verse": 7,
            "name": "Proverbs 27:7",
            "text": "An \u231eappetite\u231f that is sated spurns honey, but to an \u231eappetite\u231f that is ravenous, all bitterness is sweet. "
        },
        {
            "chapter": 27,
            "verse": 8,
            "name": "Proverbs 27:8",
            "text": "Like a bird that strays from its nest, so is a man who strays from his place. "
        },
        {
            "chapter": 27,
            "verse": 9,
            "name": "Proverbs 27:9",
            "text": "Perfume and incense will gladden a heart, and the pleasantness of one\u2019s friend is \u231epersonal advice\u231f. "
        },
        {
            "chapter": 27,
            "verse": 10,
            "name": "Proverbs 27:10",
            "text": "As for your friend and a friend of your father, do not forsake them, and the house of your brother, do not enter on the day of your calamity. Better is a close neighbor than a distant brother. "
        },
        {
            "chapter": 27,
            "verse": 11,
            "name": "Proverbs 27:11",
            "text": "Be wise, my child, and make my heart glad, and I will answer him who reproaches me with a word. "
        },
        {
            "chapter": 27,
            "verse": 12,
            "name": "Proverbs 27:12",
            "text": "When the clever sees danger, he hides; the simple go on and suffer. "
        },
        {
            "chapter": 27,
            "verse": 13,
            "name": "Proverbs 27:13",
            "text": "Take his garment, for he gives surety to a stranger, and to \u231ean adulteress\u231f\u2014so take his pledge. "
        },
        {
            "chapter": 27,
            "verse": 14,
            "name": "Proverbs 27:14",
            "text": "He who blesses his neighbor with a loud voice early in the morning, a curse will be reckoned to him. "
        },
        {
            "chapter": 27,
            "verse": 15,
            "name": "Proverbs 27:15",
            "text": "Dripping constantly on a day of heavy rain and a woman of contention are alike. "
        },
        {
            "chapter": 27,
            "verse": 16,
            "name": "Proverbs 27:16",
            "text": "In restraining her, he restrains wind, and his right hand will grasp oil. "
        },
        {
            "chapter": 27,
            "verse": 17,
            "name": "Proverbs 27:17",
            "text": "As iron sharpens iron, so \u231eone man sharpens another\u231f. "
        },
        {
            "chapter": 27,
            "verse": 18,
            "name": "Proverbs 27:18",
            "text": "He who tends a fig tree will eat its fruit, and he who guards his master will be honored. "
        },
        {
            "chapter": 27,
            "verse": 19,
            "name": "Proverbs 27:19",
            "text": "As the waters reflect \u231eface to face\u231f, so the heart of a person reflects the person. "
        },
        {
            "chapter": 27,
            "verse": 20,
            "name": "Proverbs 27:20",
            "text": "Sheol and Abaddon will not be satisfied, and the eyes of a person will not be satisfied either. "
        },
        {
            "chapter": 27,
            "verse": 21,
            "name": "Proverbs 27:21",
            "text": "A crucible is for the silver, and a furnace for the gold, but a man is tested by the mouth of him who praises him. "
        },
        {
            "chapter": 27,
            "verse": 22,
            "name": "Proverbs 27:22",
            "text": "If you crush a fool in the mortar with the pestle \u231ealong with\u231f the crushed grain, it will not drive folly from upon him. "
        },
        {
            "chapter": 27,
            "verse": 23,
            "name": "Proverbs 27:23",
            "text": "You will surely know the \u231econdition\u231f of your flock; your heart attends to the herds. "
        },
        {
            "chapter": 27,
            "verse": 24,
            "name": "Proverbs 27:24",
            "text": "For riches are not forever, nor a crown for generation after generation. "
        },
        {
            "chapter": 27,
            "verse": 25,
            "name": "Proverbs 27:25",
            "text": "When the grass is gone, then green growth will appear, and the herbs of the mountains will be gathered. "
        },
        {
            "chapter": 27,
            "verse": 26,
            "name": "Proverbs 27:26",
            "text": "Lambs will be your clothing, and goats the price of the field. "
        },
        {
            "chapter": 27,
            "verse": 27,
            "name": "Proverbs 27:27",
            "text": "And there will be enough goats\u2019 milk for your food, for the food of your household and the \u231enourishment\u231f of your maidservants.    "
        }
    ]
}