{
    "translation": "Thai from kjv",
    "abbreviation": "thai",
    "lang": "th",
    "language": "Thai",
    "direction": "LTR",
    "encoding": "UTF-8",
    "book_nr": 6,
    "book_name": "Joshua",
    "chapter": 2,
    "name": "Joshua 2",
    "verses": [
        {
            "chapter": 2,
            "verse": 1,
            "name": "Joshua 2:1",
            "text": "\u0e15\u0e48\u0e2d\u0e21\u0e32\u0e42\u0e22\u0e0a\u0e39\u0e27\u0e32\u0e1a\u0e38\u0e15\u0e23\u0e0a\u0e32\u0e22\u0e19\u0e39\u0e19\u0e44\u0e14\u0e49\u0e43\u0e0a\u0e49\u0e0a\u0e32\u0e22\u0e2a\u0e2d\u0e07\u0e04\u0e19\u0e08\u0e32\u0e01\u0e40\u0e21\u0e37\u0e2d\u0e07\u0e0a\u0e34\u0e17\u0e18\u0e34\u0e21\u0e40\u0e1b\u0e47\u0e19\u0e01\u0e32\u0e23\u0e25\u0e31\u0e1a\u0e43\u0e2b\u0e49\u0e44\u0e1b\u0e2a\u0e2d\u0e14\u0e41\u0e19\u0e21 \u0e01\u0e25\u0e48\u0e32\u0e27\u0e27\u0e48\u0e32 \u201c\u0e08\u0e07\u0e44\u0e1b\u0e15\u0e23\u0e27\u0e08\u0e14\u0e39\u0e41\u0e1c\u0e48\u0e19\u0e14\u0e34\u0e19\u0e19\u0e31\u0e49\u0e19 \u0e41\u0e25\u0e30\u0e40\u0e21\u0e37\u0e2d\u0e07\u0e40\u0e22\u0e23\u0e35\u0e42\u0e04\u0e14\u0e49\u0e27\u0e22\u201d \u0e04\u0e19\u0e17\u0e31\u0e49\u0e07\u0e2a\u0e2d\u0e07\u0e01\u0e47\u0e44\u0e1b \u0e40\u0e02\u0e49\u0e32\u0e44\u0e1b\u0e43\u0e19\u0e40\u0e23\u0e37\u0e2d\u0e19\u0e02\u0e2d\u0e07\u0e2b\u0e0d\u0e34\u0e07\u0e42\u0e2a\u0e40\u0e20\u0e13\u0e35\u0e04\u0e19\u0e2b\u0e19\u0e36\u0e48\u0e07\u0e0a\u0e37\u0e48\u0e2d\u0e23\u0e32\u0e2b\u0e31\u0e1a \u0e41\u0e25\u0e30\u0e1e\u0e31\u0e01\u0e2d\u0e22\u0e39\u0e48\u0e17\u0e35\u0e48\u0e19\u0e31\u0e48\u0e19"
        },
        {
            "chapter": 2,
            "verse": 2,
            "name": "Joshua 2:2",
            "text": "\u0e21\u0e35\u0e04\u0e19\u0e17\u0e39\u0e25\u0e01\u0e29\u0e31\u0e15\u0e23\u0e34\u0e22\u0e4c\u0e40\u0e21\u0e37\u0e2d\u0e07\u0e40\u0e22\u0e23\u0e35\u0e42\u0e04\u0e27\u0e48\u0e32 \u201c\u0e14\u0e39\u0e40\u0e16\u0e34\u0e14 \u0e21\u0e35\u0e0a\u0e32\u0e22\u0e2d\u0e34\u0e2a\u0e23\u0e32\u0e40\u0e2d\u0e25\u0e1a\u0e32\u0e07\u0e04\u0e19\u0e40\u0e02\u0e49\u0e32\u0e21\u0e32\u0e04\u0e37\u0e19\u0e19\u0e35\u0e49 \u0e40\u0e1e\u0e37\u0e48\u0e2d\u0e08\u0e30\u0e2a\u0e2d\u0e14\u0e41\u0e19\u0e21\u0e14\u0e39\u0e41\u0e1c\u0e48\u0e19\u0e14\u0e34\u0e19\u201d"
        },
        {
            "chapter": 2,
            "verse": 3,
            "name": "Joshua 2:3",
            "text": "\u0e1d\u0e48\u0e32\u0e22\u0e01\u0e29\u0e31\u0e15\u0e23\u0e34\u0e22\u0e4c\u0e40\u0e21\u0e37\u0e2d\u0e07\u0e40\u0e22\u0e23\u0e35\u0e42\u0e04\u0e08\u0e36\u0e07\u0e43\u0e0a\u0e49\u0e04\u0e19\u0e44\u0e1b\u0e2a\u0e31\u0e48\u0e07\u0e23\u0e32\u0e2b\u0e31\u0e1a\u0e27\u0e48\u0e32 \u201c\u0e08\u0e07\u0e2a\u0e48\u0e07\u0e04\u0e19\u0e40\u0e2b\u0e25\u0e48\u0e32\u0e19\u0e31\u0e49\u0e19\u0e0b\u0e36\u0e48\u0e07\u0e21\u0e32\u0e2b\u0e32\u0e40\u0e08\u0e49\u0e32\u0e43\u0e19\u0e1a\u0e49\u0e32\u0e19\u0e02\u0e2d\u0e07\u0e40\u0e08\u0e49\u0e32\u0e2d\u0e2d\u0e01\u0e21\u0e32\u0e43\u0e2b\u0e49\u0e40\u0e23\u0e32 \u0e40\u0e1e\u0e23\u0e32\u0e30\u0e40\u0e02\u0e32\u0e21\u0e32\u0e40\u0e1e\u0e37\u0e48\u0e2d\u0e08\u0e30\u0e2a\u0e2d\u0e14\u0e41\u0e19\u0e21\u0e14\u0e39\u0e17\u0e31\u0e48\u0e27\u0e41\u0e1c\u0e48\u0e19\u0e14\u0e34\u0e19\u0e02\u0e2d\u0e07\u0e40\u0e23\u0e32\u201d"
        },
        {
            "chapter": 2,
            "verse": 4,
            "name": "Joshua 2:4",
            "text": "\u0e41\u0e15\u0e48\u0e2b\u0e0d\u0e34\u0e07\u0e19\u0e31\u0e49\u0e19\u0e44\u0e14\u0e49\u0e0b\u0e48\u0e2d\u0e19\u0e0a\u0e32\u0e22\u0e17\u0e31\u0e49\u0e07\u0e2a\u0e2d\u0e07\u0e40\u0e2a\u0e35\u0e22\u0e41\u0e25\u0e49\u0e27\u0e08\u0e36\u0e07\u0e01\u0e25\u0e48\u0e32\u0e27\u0e27\u0e48\u0e32 \u201c\u0e21\u0e35\u0e1c\u0e39\u0e49\u0e0a\u0e32\u0e22\u0e21\u0e32\u0e2b\u0e32\u0e02\u0e49\u0e32\u0e1e\u0e40\u0e08\u0e49\u0e32\u0e08\u0e23\u0e34\u0e07 \u0e41\u0e15\u0e48\u0e40\u0e02\u0e32\u0e21\u0e32\u0e08\u0e32\u0e01\u0e44\u0e2b\u0e19\u0e02\u0e49\u0e32\u0e1e\u0e40\u0e08\u0e49\u0e32\u0e44\u0e21\u0e48\u0e17\u0e23\u0e32\u0e1a"
        },
        {
            "chapter": 2,
            "verse": 5,
            "name": "Joshua 2:5",
            "text": "\u0e15\u0e48\u0e2d\u0e21\u0e32\u0e40\u0e21\u0e37\u0e48\u0e2d\u0e08\u0e30\u0e1b\u0e34\u0e14\u0e1b\u0e23\u0e30\u0e15\u0e39\u0e40\u0e21\u0e37\u0e2d\u0e07\u0e43\u0e19\u0e40\u0e27\u0e25\u0e32\u0e1e\u0e25\u0e1a\u0e04\u0e48\u0e33 \u0e04\u0e19\u0e40\u0e2b\u0e25\u0e48\u0e32\u0e19\u0e31\u0e49\u0e19\u0e01\u0e47\u0e2d\u0e2d\u0e01\u0e44\u0e1b\u0e41\u0e25\u0e49\u0e27 \u0e40\u0e02\u0e32\u0e44\u0e1b\u0e17\u0e32\u0e07\u0e44\u0e2b\u0e19\u0e02\u0e49\u0e32\u0e1e\u0e40\u0e08\u0e49\u0e32\u0e44\u0e21\u0e48\u0e17\u0e23\u0e32\u0e1a \u0e08\u0e07\u0e23\u0e35\u0e1a\u0e15\u0e32\u0e21\u0e40\u0e02\u0e32\u0e44\u0e1b\u0e40\u0e16\u0e34\u0e14 \u0e04\u0e07\u0e17\u0e31\u0e19\u0e40\u0e02\u0e32\u201d"
        },
        {
            "chapter": 2,
            "verse": 6,
            "name": "Joshua 2:6",
            "text": "\u0e41\u0e15\u0e48\u0e2b\u0e0d\u0e34\u0e07\u0e19\u0e31\u0e49\u0e19\u0e44\u0e14\u0e49\u0e1e\u0e32\u0e04\u0e19\u0e17\u0e31\u0e49\u0e07\u0e2a\u0e2d\u0e07\u0e02\u0e36\u0e49\u0e19\u0e1a\u0e19\u0e2b\u0e25\u0e31\u0e07\u0e04\u0e32\u0e41\u0e25\u0e49\u0e27\u0e0b\u0e48\u0e2d\u0e19\u0e15\u0e31\u0e27\u0e40\u0e02\u0e32\u0e44\u0e27\u0e49\u0e43\u0e15\u0e49\u0e15\u0e49\u0e19\u0e1b\u0e48\u0e32\u0e19\u0e0b\u0e36\u0e48\u0e07\u0e27\u0e32\u0e07\u0e25\u0e33\u0e14\u0e31\u0e1a\u0e15\u0e32\u0e01\u0e44\u0e27\u0e49\u0e17\u0e35\u0e48\u0e14\u0e32\u0e14\u0e1f\u0e49\u0e32\u0e1a\u0e19\u0e2b\u0e25\u0e31\u0e07\u0e04\u0e32\u0e19\u0e31\u0e49\u0e19"
        },
        {
            "chapter": 2,
            "verse": 7,
            "name": "Joshua 2:7",
            "text": "\u0e40\u0e02\u0e32\u0e17\u0e31\u0e49\u0e07\u0e2b\u0e25\u0e32\u0e22\u0e01\u0e47\u0e44\u0e25\u0e48\u0e15\u0e32\u0e21\u0e04\u0e19\u0e17\u0e31\u0e49\u0e07\u0e2a\u0e2d\u0e07\u0e44\u0e1b\u0e17\u0e32\u0e07\u0e41\u0e21\u0e48\u0e19\u0e49\u0e33\u0e08\u0e2d\u0e23\u0e4c\u0e41\u0e14\u0e19\u0e08\u0e19\u0e16\u0e36\u0e07\u0e17\u0e48\u0e32\u0e02\u0e49\u0e32\u0e21 \u0e1e\u0e2d\u0e04\u0e19\u0e17\u0e35\u0e48\u0e44\u0e25\u0e48\u0e15\u0e32\u0e21\u0e19\u0e31\u0e49\u0e19\u0e2d\u0e2d\u0e01\u0e44\u0e1b\u0e41\u0e25\u0e49\u0e27\u0e40\u0e02\u0e32\u0e01\u0e47\u0e1b\u0e34\u0e14\u0e1b\u0e23\u0e30\u0e15\u0e39\u0e40\u0e21\u0e37\u0e2d\u0e07"
        },
        {
            "chapter": 2,
            "verse": 8,
            "name": "Joshua 2:8",
            "text": "\u0e40\u0e21\u0e37\u0e48\u0e2d\u0e0a\u0e32\u0e22\u0e17\u0e31\u0e49\u0e07\u0e2a\u0e2d\u0e07\u0e04\u0e19\u0e22\u0e31\u0e07\u0e44\u0e21\u0e48\u0e19\u0e2d\u0e19\u0e2b\u0e0d\u0e34\u0e07\u0e19\u0e31\u0e49\u0e19\u0e01\u0e47\u0e02\u0e36\u0e49\u0e19\u0e44\u0e1b\u0e2b\u0e32\u0e40\u0e02\u0e32\u0e1a\u0e19\u0e2b\u0e25\u0e31\u0e07\u0e04\u0e32"
        },
        {
            "chapter": 2,
            "verse": 9,
            "name": "Joshua 2:9",
            "text": "\u0e01\u0e25\u0e48\u0e32\u0e27\u0e41\u0e01\u0e48\u0e0a\u0e32\u0e22\u0e19\u0e31\u0e49\u0e19\u0e27\u0e48\u0e32 \u201c\u0e14\u0e34\u0e09\u0e31\u0e19\u0e17\u0e23\u0e32\u0e1a\u0e41\u0e25\u0e49\u0e27\u0e27\u0e48\u0e32 \u0e1e\u0e23\u0e30\u0e40\u0e22\u0e42\u0e2e\u0e27\u0e32\u0e2b\u0e4c\u0e1b\u0e23\u0e30\u0e17\u0e32\u0e19\u0e41\u0e1c\u0e48\u0e19\u0e14\u0e34\u0e19\u0e19\u0e35\u0e49\u0e41\u0e01\u0e48\u0e1e\u0e27\u0e01\u0e17\u0e48\u0e32\u0e19 \u0e04\u0e27\u0e32\u0e21\u0e04\u0e23\u0e49\u0e32\u0e21\u0e01\u0e25\u0e31\u0e27\u0e15\u0e48\u0e2d\u0e17\u0e48\u0e32\u0e19\u0e44\u0e14\u0e49\u0e15\u0e01\u0e2d\u0e22\u0e39\u0e48\u0e1a\u0e19\u0e40\u0e23\u0e32\u0e17\u0e31\u0e49\u0e07\u0e2b\u0e25\u0e32\u0e22 \u0e41\u0e25\u0e30\u0e1a\u0e23\u0e23\u0e14\u0e32\u0e0a\u0e32\u0e27\u0e41\u0e1c\u0e48\u0e19\u0e14\u0e34\u0e19\u0e01\u0e47\u0e04\u0e23\u0e31\u0e48\u0e19\u0e04\u0e23\u0e49\u0e32\u0e21\u0e15\u0e48\u0e2d\u0e17\u0e48\u0e32\u0e19"
        },
        {
            "chapter": 2,
            "verse": 10,
            "name": "Joshua 2:10",
            "text": "\u0e40\u0e1e\u0e23\u0e32\u0e30\u0e40\u0e23\u0e32\u0e17\u0e31\u0e49\u0e07\u0e2b\u0e25\u0e32\u0e22\u0e44\u0e14\u0e49\u0e22\u0e34\u0e19\u0e40\u0e23\u0e37\u0e48\u0e2d\u0e07\u0e17\u0e35\u0e48\u0e1e\u0e23\u0e30\u0e40\u0e22\u0e42\u0e2e\u0e27\u0e32\u0e2b\u0e4c\u0e17\u0e23\u0e07\u0e01\u0e23\u0e30\u0e17\u0e33\u0e43\u0e2b\u0e49\u0e17\u0e30\u0e40\u0e25\u0e41\u0e14\u0e07\u0e41\u0e2b\u0e49\u0e07\u0e44\u0e1b\u0e15\u0e48\u0e2d\u0e2b\u0e19\u0e49\u0e32\u0e17\u0e48\u0e32\u0e19\u0e40\u0e21\u0e37\u0e48\u0e2d\u0e17\u0e48\u0e32\u0e19\u0e2d\u0e2d\u0e01\u0e08\u0e32\u0e01\u0e2d\u0e35\u0e22\u0e34\u0e1b\u0e15\u0e4c \u0e41\u0e25\u0e30\u0e40\u0e23\u0e37\u0e48\u0e2d\u0e07\u0e01\u0e32\u0e23\u0e17\u0e35\u0e48\u0e17\u0e48\u0e32\u0e19\u0e44\u0e14\u0e49\u0e01\u0e23\u0e30\u0e17\u0e33\u0e41\u0e01\u0e48\u0e01\u0e29\u0e31\u0e15\u0e23\u0e34\u0e22\u0e4c\u0e17\u0e31\u0e49\u0e07\u0e2a\u0e2d\u0e07\u0e02\u0e2d\u0e07\u0e04\u0e19\u0e2d\u0e32\u0e42\u0e21\u0e44\u0e23\u0e15\u0e4c \u0e0b\u0e36\u0e48\u0e07\u0e2d\u0e22\u0e39\u0e48\u0e1f\u0e32\u0e01\u0e41\u0e21\u0e48\u0e19\u0e49\u0e33\u0e08\u0e2d\u0e23\u0e4c\u0e41\u0e14\u0e19\u0e02\u0e49\u0e32\u0e07\u0e42\u0e19\u0e49\u0e19 \u0e04\u0e37\u0e2d\u0e01\u0e29\u0e31\u0e15\u0e23\u0e34\u0e22\u0e4c\u0e2a\u0e34\u0e42\u0e2b\u0e19\u0e41\u0e25\u0e30\u0e42\u0e2d\u0e01 \u0e1c\u0e39\u0e49\u0e0b\u0e36\u0e48\u0e07\u0e17\u0e48\u0e32\u0e19\u0e17\u0e31\u0e49\u0e07\u0e2b\u0e25\u0e32\u0e22\u0e44\u0e14\u0e49\u0e17\u0e33\u0e25\u0e32\u0e22\u0e40\u0e2a\u0e35\u0e22\u0e2a\u0e34\u0e49\u0e19"
        },
        {
            "chapter": 2,
            "verse": 11,
            "name": "Joshua 2:11",
            "text": "\u0e40\u0e1e\u0e23\u0e32\u0e30\u0e40\u0e23\u0e37\u0e48\u0e2d\u0e07\u0e17\u0e48\u0e32\u0e19\u0e19\u0e35\u0e49\u0e41\u0e2b\u0e25\u0e30 \u0e1e\u0e2d\u0e40\u0e23\u0e32\u0e44\u0e14\u0e49\u0e22\u0e34\u0e19\u0e02\u0e48\u0e32\u0e27\u0e19\u0e35\u0e49 \u0e08\u0e34\u0e15\u0e43\u0e08\u0e02\u0e2d\u0e07\u0e40\u0e23\u0e32\u0e01\u0e47\u0e25\u0e30\u0e25\u0e32\u0e22\u0e44\u0e1b \u0e44\u0e21\u0e48\u0e21\u0e35\u0e04\u0e27\u0e32\u0e21\u0e01\u0e25\u0e49\u0e32\u0e2b\u0e32\u0e0d\u0e40\u0e2b\u0e25\u0e37\u0e2d\u0e2d\u0e22\u0e39\u0e48\u0e43\u0e19\u0e2a\u0e31\u0e01\u0e04\u0e19\u0e2b\u0e19\u0e36\u0e48\u0e07\u0e40\u0e25\u0e22 \u0e40\u0e1e\u0e23\u0e32\u0e30\u0e1e\u0e23\u0e30\u0e40\u0e22\u0e42\u0e2e\u0e27\u0e32\u0e2b\u0e4c\u0e1e\u0e23\u0e30\u0e40\u0e08\u0e49\u0e32\u0e02\u0e2d\u0e07\u0e17\u0e48\u0e32\u0e19\u0e40\u0e1b\u0e47\u0e19\u0e1e\u0e23\u0e30\u0e40\u0e08\u0e49\u0e32\u0e02\u0e2d\u0e07\u0e2a\u0e27\u0e23\u0e23\u0e04\u0e4c\u0e40\u0e1a\u0e37\u0e49\u0e2d\u0e07\u0e1a\u0e19\u0e41\u0e25\u0e30\u0e42\u0e25\u0e01\u0e40\u0e1a\u0e37\u0e49\u0e2d\u0e07\u0e25\u0e48\u0e32\u0e07"
        },
        {
            "chapter": 2,
            "verse": 12,
            "name": "Joshua 2:12",
            "text": "\u0e09\u0e30\u0e19\u0e31\u0e49\u0e19\u0e1a\u0e31\u0e14\u0e19\u0e35\u0e49\u0e02\u0e2d\u0e17\u0e48\u0e32\u0e19\u0e2a\u0e32\u0e1a\u0e32\u0e19\u0e43\u0e2b\u0e49\u0e14\u0e34\u0e09\u0e31\u0e19\u0e43\u0e19\u0e1e\u0e23\u0e30\u0e19\u0e32\u0e21\u0e1e\u0e23\u0e30\u0e40\u0e22\u0e42\u0e2e\u0e27\u0e32\u0e2b\u0e4c\u0e27\u0e48\u0e32 \u0e40\u0e21\u0e37\u0e48\u0e2d\u0e14\u0e34\u0e09\u0e31\u0e19\u0e44\u0e14\u0e49\u0e2a\u0e33\u0e41\u0e14\u0e07\u0e04\u0e27\u0e32\u0e21\u0e40\u0e21\u0e15\u0e15\u0e32\u0e15\u0e48\u0e2d\u0e17\u0e48\u0e32\u0e19\u0e41\u0e25\u0e49\u0e27 \u0e17\u0e48\u0e32\u0e19\u0e08\u0e30\u0e41\u0e2a\u0e14\u0e07\u0e04\u0e27\u0e32\u0e21\u0e40\u0e21\u0e15\u0e15\u0e32\u0e15\u0e48\u0e2d\u0e40\u0e23\u0e37\u0e2d\u0e19\u0e1a\u0e34\u0e14\u0e32\u0e02\u0e2d\u0e07\u0e14\u0e34\u0e09\u0e31\u0e19\u0e41\u0e25\u0e30\u0e43\u0e2b\u0e49\u0e21\u0e35\u0e2b\u0e21\u0e32\u0e22\u0e2a\u0e33\u0e04\u0e31\u0e0d\u0e2d\u0e31\u0e19\u0e41\u0e19\u0e48\u0e19\u0e2d\u0e19\u0e15\u0e48\u0e2d\u0e01\u0e31\u0e19"
        },
        {
            "chapter": 2,
            "verse": 13,
            "name": "Joshua 2:13",
            "text": "\u0e41\u0e25\u0e30\u0e02\u0e2d\u0e44\u0e27\u0e49\u0e0a\u0e35\u0e27\u0e34\u0e15\u0e1a\u0e34\u0e14\u0e32\u0e21\u0e32\u0e23\u0e14\u0e32 \u0e1e\u0e35\u0e48\u0e19\u0e49\u0e2d\u0e07\u0e0a\u0e32\u0e22\u0e2b\u0e0d\u0e34\u0e07 \u0e41\u0e25\u0e30\u0e17\u0e38\u0e01\u0e04\u0e19\u0e17\u0e35\u0e48\u0e40\u0e1b\u0e47\u0e19\u0e02\u0e2d\u0e07\u0e27\u0e07\u0e28\u0e4c\u0e0d\u0e32\u0e15\u0e34\u0e19\u0e35\u0e49 \u0e43\u0e2b\u0e49\u0e0a\u0e35\u0e27\u0e34\u0e15\u0e40\u0e23\u0e32\u0e23\u0e2d\u0e14\u0e08\u0e32\u0e01\u0e15\u0e32\u0e22\u201d"
        },
        {
            "chapter": 2,
            "verse": 14,
            "name": "Joshua 2:14",
            "text": "\u0e0a\u0e32\u0e22\u0e19\u0e31\u0e49\u0e19\u0e08\u0e36\u0e07\u0e15\u0e2d\u0e1a\u0e19\u0e32\u0e07\u0e27\u0e48\u0e32 \u201c\u0e0a\u0e35\u0e27\u0e34\u0e15\u0e02\u0e2d\u0e07\u0e40\u0e23\u0e32\u0e40\u0e1e\u0e37\u0e48\u0e2d\u0e0a\u0e35\u0e27\u0e34\u0e15\u0e02\u0e2d\u0e07\u0e40\u0e08\u0e49\u0e32\u0e19\u0e48\u0e30\u0e2b\u0e23\u0e37\u0e2d \u0e16\u0e49\u0e32\u0e40\u0e08\u0e49\u0e32\u0e44\u0e21\u0e48\u0e41\u0e1e\u0e23\u0e48\u0e07\u0e1e\u0e23\u0e32\u0e22\u0e40\u0e23\u0e37\u0e48\u0e2d\u0e07\u0e02\u0e2d\u0e07\u0e40\u0e23\u0e32\u0e19\u0e35\u0e49\u0e41\u0e01\u0e48\u0e1c\u0e39\u0e49\u0e43\u0e14 \u0e40\u0e23\u0e32\u0e08\u0e30\u0e21\u0e35\u0e04\u0e27\u0e32\u0e21\u0e40\u0e21\u0e15\u0e15\u0e32\u0e41\u0e25\u0e30\u0e08\u0e23\u0e34\u0e07\u0e43\u0e08\u0e15\u0e48\u0e2d\u0e40\u0e08\u0e49\u0e32 \u0e40\u0e21\u0e37\u0e48\u0e2d\u0e1e\u0e23\u0e30\u0e40\u0e22\u0e42\u0e2e\u0e27\u0e32\u0e2b\u0e4c\u0e1b\u0e23\u0e30\u0e17\u0e32\u0e19\u0e41\u0e1c\u0e48\u0e19\u0e14\u0e34\u0e19\u0e19\u0e35\u0e49\u0e41\u0e01\u0e48\u0e40\u0e23\u0e32\u201d"
        },
        {
            "chapter": 2,
            "verse": 15,
            "name": "Joshua 2:15",
            "text": "\u0e41\u0e25\u0e49\u0e27\u0e19\u0e32\u0e07\u0e08\u0e36\u0e07\u0e40\u0e2d\u0e32\u0e40\u0e0a\u0e37\u0e2d\u0e01\u0e2b\u0e22\u0e48\u0e2d\u0e19\u0e40\u0e02\u0e32\u0e17\u0e31\u0e49\u0e07\u0e2a\u0e2d\u0e07\u0e25\u0e07\u0e17\u0e32\u0e07\u0e2b\u0e19\u0e49\u0e32\u0e15\u0e48\u0e32\u0e07 \u0e40\u0e1e\u0e23\u0e32\u0e30\u0e1a\u0e49\u0e32\u0e19\u0e02\u0e2d\u0e07\u0e19\u0e32\u0e07\u0e15\u0e31\u0e49\u0e07\u0e2d\u0e22\u0e39\u0e48\u0e17\u0e35\u0e48\u0e01\u0e33\u0e41\u0e1e\u0e07\u0e40\u0e21\u0e37\u0e2d\u0e07 \u0e19\u0e32\u0e07\u0e2d\u0e32\u0e28\u0e31\u0e22\u0e2d\u0e22\u0e39\u0e48\u0e43\u0e19\u0e01\u0e33\u0e41\u0e1e\u0e07"
        },
        {
            "chapter": 2,
            "verse": 16,
            "name": "Joshua 2:16",
            "text": "\u0e19\u0e32\u0e07\u0e08\u0e36\u0e07\u0e1a\u0e2d\u0e01\u0e40\u0e02\u0e32\u0e27\u0e48\u0e32 \u201c\u0e08\u0e07\u0e02\u0e36\u0e49\u0e19\u0e44\u0e1b\u0e1a\u0e19\u0e20\u0e39\u0e40\u0e02\u0e32 \u0e14\u0e49\u0e27\u0e22\u0e40\u0e01\u0e23\u0e07\u0e27\u0e48\u0e32\u0e1c\u0e39\u0e49\u0e17\u0e35\u0e48\u0e44\u0e25\u0e48\u0e15\u0e32\u0e21\u0e08\u0e30\u0e1e\u0e1a\u0e40\u0e02\u0e49\u0e32 \u0e08\u0e07\u0e0b\u0e48\u0e2d\u0e19\u0e15\u0e31\u0e27\u0e2d\u0e22\u0e39\u0e48\u0e2a\u0e32\u0e21\u0e27\u0e31\u0e19\u0e08\u0e19\u0e01\u0e27\u0e48\u0e32\u0e1c\u0e39\u0e49\u0e17\u0e35\u0e48\u0e44\u0e25\u0e48\u0e15\u0e32\u0e21\u0e08\u0e30\u0e01\u0e25\u0e31\u0e1a \u0e41\u0e25\u0e49\u0e27\u0e08\u0e36\u0e07\u0e04\u0e48\u0e2d\u0e22\u0e2d\u0e2d\u0e01\u0e40\u0e14\u0e34\u0e19\u0e15\u0e48\u0e2d\u0e44\u0e1b\u201d"
        },
        {
            "chapter": 2,
            "verse": 17,
            "name": "Joshua 2:17",
            "text": "\u0e0a\u0e32\u0e22\u0e19\u0e31\u0e49\u0e19\u0e08\u0e36\u0e07\u0e1e\u0e39\u0e14\u0e01\u0e31\u0e1a\u0e19\u0e32\u0e07\u0e27\u0e48\u0e32 \u201c\u0e1d\u0e48\u0e32\u0e22\u0e40\u0e23\u0e32\u0e08\u0e30\u0e44\u0e21\u0e48\u0e43\u0e2b\u0e49\u0e1c\u0e34\u0e14\u0e04\u0e33\u0e2a\u0e32\u0e1a\u0e32\u0e19\u0e0b\u0e36\u0e48\u0e07\u0e40\u0e08\u0e49\u0e32\u0e44\u0e14\u0e49\u0e43\u0e2b\u0e49\u0e40\u0e23\u0e32\u0e2a\u0e32\u0e1a\u0e32\u0e19\u0e19\u0e31\u0e49\u0e19"
        },
        {
            "chapter": 2,
            "verse": 18,
            "name": "Joshua 2:18",
            "text": "\u0e14\u0e39\u0e40\u0e16\u0e34\u0e14 \u0e40\u0e21\u0e37\u0e48\u0e2d\u0e40\u0e23\u0e32\u0e22\u0e01\u0e40\u0e02\u0e49\u0e32\u0e21\u0e32\u0e43\u0e19\u0e41\u0e1c\u0e48\u0e19\u0e14\u0e34\u0e19\u0e19\u0e35\u0e49 \u0e40\u0e08\u0e49\u0e32\u0e08\u0e07\u0e40\u0e2d\u0e32\u0e14\u0e49\u0e32\u0e22\u0e41\u0e14\u0e07\u0e19\u0e35\u0e49\u0e1c\u0e39\u0e01\u0e44\u0e27\u0e49\u0e17\u0e35\u0e48\u0e2b\u0e19\u0e49\u0e32\u0e15\u0e48\u0e32\u0e07\u0e0b\u0e36\u0e48\u0e07\u0e40\u0e08\u0e49\u0e32\u0e2b\u0e22\u0e48\u0e2d\u0e19\u0e40\u0e23\u0e32\u0e25\u0e07\u0e44\u0e1b\u0e19\u0e31\u0e49\u0e19 \u0e41\u0e25\u0e30\u0e40\u0e08\u0e49\u0e32\u0e08\u0e07\u0e23\u0e27\u0e1a\u0e23\u0e27\u0e21\u0e1a\u0e34\u0e14\u0e32\u0e21\u0e32\u0e23\u0e14\u0e32 \u0e1e\u0e35\u0e48\u0e19\u0e49\u0e2d\u0e07 \u0e41\u0e25\u0e30\u0e04\u0e23\u0e31\u0e27\u0e40\u0e23\u0e37\u0e2d\u0e19\u0e02\u0e2d\u0e07\u0e1a\u0e34\u0e14\u0e32\u0e17\u0e31\u0e49\u0e07\u0e2a\u0e34\u0e49\u0e19\u0e40\u0e02\u0e49\u0e32\u0e21\u0e32\u0e44\u0e27\u0e49\u0e43\u0e19\u0e1a\u0e49\u0e32\u0e19"
        },
        {
            "chapter": 2,
            "verse": 19,
            "name": "Joshua 2:19",
            "text": "\u0e16\u0e49\u0e32\u0e21\u0e35\u0e1c\u0e39\u0e49\u0e43\u0e14\u0e2d\u0e2d\u0e01\u0e44\u0e1b\u0e17\u0e35\u0e48\u0e16\u0e19\u0e19\u0e19\u0e2d\u0e01\u0e1b\u0e23\u0e30\u0e15\u0e39\u0e1a\u0e49\u0e32\u0e19 \u0e43\u0e2b\u0e49\u0e42\u0e25\u0e2b\u0e34\u0e15\u0e02\u0e2d\u0e07\u0e1c\u0e39\u0e49\u0e19\u0e31\u0e49\u0e19\u0e15\u0e01\u0e1a\u0e19\u0e28\u0e35\u0e23\u0e29\u0e30\u0e02\u0e2d\u0e07\u0e1c\u0e39\u0e49\u0e19\u0e31\u0e49\u0e19\u0e40\u0e2d\u0e07 \u0e1d\u0e48\u0e32\u0e22\u0e40\u0e23\u0e32\u0e44\u0e21\u0e48\u0e21\u0e35\u0e04\u0e27\u0e32\u0e21\u0e1c\u0e34\u0e14 \u0e41\u0e15\u0e48\u0e16\u0e49\u0e32\u0e21\u0e35\u0e04\u0e19\u0e2b\u0e19\u0e36\u0e48\u0e07\u0e04\u0e19\u0e43\u0e14\u0e22\u0e01\u0e21\u0e37\u0e2d\u0e02\u0e36\u0e49\u0e19\u0e17\u0e33\u0e23\u0e49\u0e32\u0e22\u0e1c\u0e39\u0e49\u0e43\u0e14\u0e17\u0e35\u0e48\u0e2d\u0e22\u0e39\u0e48\u0e01\u0e31\u0e1a\u0e40\u0e08\u0e49\u0e32\u0e43\u0e19\u0e40\u0e23\u0e37\u0e2d\u0e19 \u0e43\u0e2b\u0e49\u0e42\u0e25\u0e2b\u0e34\u0e15\u0e02\u0e2d\u0e07\u0e04\u0e19\u0e19\u0e31\u0e49\u0e19\u0e15\u0e01\u0e1a\u0e19\u0e28\u0e35\u0e23\u0e29\u0e30\u0e02\u0e2d\u0e07\u0e40\u0e23\u0e32\u0e40\u0e16\u0e34\u0e14"
        },
        {
            "chapter": 2,
            "verse": 20,
            "name": "Joshua 2:20",
            "text": "\u0e41\u0e15\u0e48\u0e16\u0e49\u0e32\u0e40\u0e08\u0e49\u0e32\u0e41\u0e1e\u0e23\u0e48\u0e07\u0e1e\u0e23\u0e32\u0e22\u0e40\u0e23\u0e37\u0e48\u0e2d\u0e07\u0e02\u0e2d\u0e07\u0e40\u0e23\u0e32\u0e19\u0e35\u0e49\u0e41\u0e01\u0e48\u0e1c\u0e39\u0e49\u0e43\u0e14 \u0e40\u0e23\u0e32\u0e01\u0e47\u0e1e\u0e49\u0e19\u0e08\u0e32\u0e01\u0e04\u0e33\u0e2a\u0e32\u0e1a\u0e32\u0e19\u0e0b\u0e36\u0e48\u0e07\u0e40\u0e08\u0e49\u0e32\u0e43\u0e2b\u0e49\u0e40\u0e23\u0e32\u0e2a\u0e32\u0e1a\u0e32\u0e19\u0e44\u0e27\u0e49\u0e19\u0e31\u0e49\u0e19\u201d"
        },
        {
            "chapter": 2,
            "verse": 21,
            "name": "Joshua 2:21",
            "text": "\u0e19\u0e32\u0e07\u0e08\u0e36\u0e07\u0e01\u0e25\u0e48\u0e32\u0e27\u0e27\u0e48\u0e32 \u201c\u0e43\u0e2b\u0e49\u0e40\u0e1b\u0e47\u0e19\u0e44\u0e1b\u0e15\u0e32\u0e21\u0e04\u0e33\u0e02\u0e2d\u0e07\u0e17\u0e48\u0e32\u0e19\u0e40\u0e16\u0e34\u0e14\u201d \u0e41\u0e25\u0e49\u0e27\u0e19\u0e32\u0e07\u0e01\u0e47\u0e2a\u0e48\u0e07\u0e04\u0e19\u0e17\u0e31\u0e49\u0e07\u0e2a\u0e2d\u0e07\u0e19\u0e31\u0e49\u0e19\u0e44\u0e1b \u0e40\u0e02\u0e32\u0e01\u0e47\u0e44\u0e1b \u0e19\u0e32\u0e07\u0e08\u0e36\u0e07\u0e40\u0e2d\u0e32\u0e14\u0e49\u0e32\u0e22\u0e41\u0e14\u0e07\u0e1c\u0e39\u0e01\u0e44\u0e27\u0e49\u0e17\u0e35\u0e48\u0e2b\u0e19\u0e49\u0e32\u0e15\u0e48\u0e32\u0e07"
        },
        {
            "chapter": 2,
            "verse": 22,
            "name": "Joshua 2:22",
            "text": "\u0e04\u0e19\u0e17\u0e31\u0e49\u0e07\u0e2a\u0e2d\u0e07\u0e2d\u0e2d\u0e01\u0e44\u0e1b\u0e41\u0e25\u0e49\u0e27\u0e1b\u0e35\u0e19\u0e02\u0e36\u0e49\u0e19\u0e44\u0e1b\u0e1a\u0e19\u0e20\u0e39\u0e40\u0e02\u0e32\u0e1e\u0e31\u0e01\u0e2d\u0e22\u0e39\u0e48\u0e17\u0e35\u0e48\u0e19\u0e31\u0e48\u0e19\u0e2a\u0e32\u0e21\u0e27\u0e31\u0e19 \u0e08\u0e19\u0e1c\u0e39\u0e49\u0e17\u0e35\u0e48\u0e44\u0e25\u0e48\u0e15\u0e32\u0e21\u0e01\u0e25\u0e31\u0e1a \u0e40\u0e1e\u0e23\u0e32\u0e30\u0e1c\u0e39\u0e49\u0e17\u0e35\u0e48\u0e44\u0e25\u0e48\u0e15\u0e32\u0e21\u0e19\u0e31\u0e49\u0e19\u0e44\u0e14\u0e49\u0e04\u0e49\u0e19\u0e2b\u0e32\u0e2d\u0e22\u0e39\u0e48\u0e15\u0e25\u0e2d\u0e14\u0e17\u0e32\u0e07\u0e01\u0e47\u0e44\u0e21\u0e48\u0e1e\u0e1a"
        },
        {
            "chapter": 2,
            "verse": 23,
            "name": "Joshua 2:23",
            "text": "\u0e0a\u0e32\u0e22\u0e17\u0e31\u0e49\u0e07\u0e2a\u0e2d\u0e07\u0e01\u0e47\u0e25\u0e07\u0e08\u0e32\u0e01\u0e20\u0e39\u0e40\u0e02\u0e32\u0e2d\u0e35\u0e01 \u0e41\u0e25\u0e30\u0e02\u0e49\u0e32\u0e21\u0e44\u0e1b\u0e2b\u0e32\u0e42\u0e22\u0e0a\u0e39\u0e27\u0e32\u0e1a\u0e38\u0e15\u0e23\u0e0a\u0e32\u0e22\u0e19\u0e39\u0e19 \u0e41\u0e25\u0e49\u0e27\u0e40\u0e25\u0e48\u0e32\u0e40\u0e2b\u0e15\u0e38\u0e01\u0e32\u0e23\u0e13\u0e4c\u0e17\u0e31\u0e49\u0e07\u0e2a\u0e34\u0e49\u0e19\u0e0b\u0e36\u0e48\u0e07\u0e40\u0e01\u0e34\u0e14\u0e41\u0e01\u0e48\u0e15\u0e19\u0e43\u0e2b\u0e49\u0e1f\u0e31\u0e07"
        },
        {
            "chapter": 2,
            "verse": 24,
            "name": "Joshua 2:24",
            "text": "\u0e41\u0e25\u0e30\u0e40\u0e02\u0e32\u0e01\u0e25\u0e48\u0e32\u0e27\u0e41\u0e01\u0e48\u0e42\u0e22\u0e0a\u0e39\u0e27\u0e32\u0e27\u0e48\u0e32 \u201c\u0e1e\u0e23\u0e30\u0e40\u0e22\u0e42\u0e2e\u0e27\u0e32\u0e2b\u0e4c\u0e17\u0e23\u0e07\u0e21\u0e2d\u0e1a\u0e41\u0e1c\u0e48\u0e19\u0e14\u0e34\u0e19\u0e19\u0e31\u0e49\u0e19\u0e17\u0e31\u0e49\u0e07\u0e2b\u0e21\u0e14\u0e44\u0e27\u0e49\u0e43\u0e19\u0e21\u0e37\u0e2d\u0e40\u0e23\u0e32\u0e41\u0e19\u0e48\u0e19\u0e2d\u0e19\u0e41\u0e25\u0e49\u0e27 \u0e41\u0e25\u0e30\u0e22\u0e34\u0e48\u0e07\u0e01\u0e27\u0e48\u0e32\u0e19\u0e31\u0e49\u0e19\u0e2d\u0e35\u0e01\u0e1a\u0e23\u0e23\u0e14\u0e32\u0e0a\u0e32\u0e27\u0e1a\u0e49\u0e32\u0e19\u0e0a\u0e32\u0e27\u0e40\u0e21\u0e37\u0e2d\u0e07\u0e43\u0e19\u0e41\u0e1c\u0e48\u0e19\u0e14\u0e34\u0e19\u0e19\u0e35\u0e49 \u0e01\u0e47\u0e21\u0e35\u0e43\u0e08\u0e04\u0e23\u0e31\u0e48\u0e19\u0e04\u0e23\u0e49\u0e32\u0e21\u0e44\u0e1b \u0e40\u0e1e\u0e23\u0e32\u0e30\u0e40\u0e23\u0e32\u0e40\u0e1b\u0e47\u0e19\u0e40\u0e2b\u0e15\u0e38\u201d  "
        }
    ]
}