{
    "translation": "Pyha Raamattu (1933 1938)",
    "abbreviation": "pyharaamattu1933",
    "lang": "fi",
    "language": "Finnish",
    "direction": "LTR",
    "encoding": "",
    "book_nr": 11,
    "book_name": "1 Kings",
    "chapter": 17,
    "name": "1 Kings 17",
    "verses": [
        {
            "chapter": 17,
            "verse": 1,
            "name": "1 Kings 17:1",
            "text": "Tisbel\u00e4inen Elia, er\u00e4s Gileadiin asettuneita siirtolaisia, sanoi Ahabille: \"Niin totta kuin Herra, Israelin Jumala, el\u00e4\u00e4, jonka edess\u00e4 min\u00e4 seison: n\u00e4in\u00e4 vuosina ei tule kastetta eik\u00e4 sadetta muutoin kuin minun sanani kautta\"."
        },
        {
            "chapter": 17,
            "verse": 2,
            "name": "1 Kings 17:2",
            "text": "Ja h\u00e4nelle tuli t\u00e4m\u00e4 Herran sana:"
        },
        {
            "chapter": 17,
            "verse": 3,
            "name": "1 Kings 17:3",
            "text": "\"Mene pois t\u00e4\u00e4lt\u00e4 ja k\u00e4\u00e4nny it\u00e4\u00e4n p\u00e4in ja k\u00e4tkeydy Keritin purolle, joka on Jordanin it\u00e4puolella."
        },
        {
            "chapter": 17,
            "verse": 4,
            "name": "1 Kings 17:4",
            "text": "Sin\u00e4 saat juoda purosta, ja min\u00e4 olen k\u00e4skenyt kaarneiden el\u00e4tt\u00e4\u00e4 sinua siell\u00e4.\""
        },
        {
            "chapter": 17,
            "verse": 5,
            "name": "1 Kings 17:5",
            "text": "Niin h\u00e4n meni ja teki Herran sanan mukaan: h\u00e4n meni ja asettui Keritin purolle, joka on Jordanin it\u00e4puolella."
        },
        {
            "chapter": 17,
            "verse": 6,
            "name": "1 Kings 17:6",
            "text": "Ja kaarneet toivat h\u00e4nelle leip\u00e4\u00e4 ja lihaa aamuin sek\u00e4 leip\u00e4\u00e4 ja lihaa illoin, ja h\u00e4n joi purosta."
        },
        {
            "chapter": 17,
            "verse": 7,
            "name": "1 Kings 17:7",
            "text": "Mutta jonkun ajan kuluttua puro kuivui, koska siin\u00e4 maassa ei ollut satanut."
        },
        {
            "chapter": 17,
            "verse": 8,
            "name": "1 Kings 17:8",
            "text": "Ja h\u00e4nelle tuli t\u00e4m\u00e4 Herran sana:"
        },
        {
            "chapter": 17,
            "verse": 9,
            "name": "1 Kings 17:9",
            "text": "\"Nouse ja mene Sarpatiin, joka on Siidonin aluetta, ja asetu sinne. Katso, min\u00e4 olen k\u00e4skenyt leskivaimon el\u00e4tt\u00e4\u00e4 sinua siell\u00e4.\""
        },
        {
            "chapter": 17,
            "verse": 10,
            "name": "1 Kings 17:10",
            "text": "Niin h\u00e4n nousi ja meni Sarpatiin. Ja kun h\u00e4n tuli kaupungin portille, niin katso, siell\u00e4 oli leskivaimo ker\u00e4ilem\u00e4ss\u00e4 puita. H\u00e4n huusi t\u00e4lle ja sanoi: \"Tuo minulle v\u00e4h\u00e4n vett\u00e4 astiassa juodakseni\"."
        },
        {
            "chapter": 17,
            "verse": 11,
            "name": "1 Kings 17:11",
            "text": "Kun h\u00e4n meni hakemaan, huusi h\u00e4n h\u00e4nelle ja sanoi: \"Tuo minulle my\u00f6s palanen leip\u00e4\u00e4 k\u00e4dess\u00e4si\"."
        },
        {
            "chapter": 17,
            "verse": 12,
            "name": "1 Kings 17:12",
            "text": "Mutta h\u00e4n vastasi: \"Niin totta kuin Herra, sinun Jumalasi, el\u00e4\u00e4, minulla ei ole leip\u00e4kakkuakaan, vaan ainoastaan kourallinen jauhoja ruukussa ja v\u00e4h\u00e4n \u00f6ljy\u00e4 astiassa. Ja katso, ker\u00e4tty\u00e4ni pari puuta min\u00e4 menen leipomaan itselleni ja pojalleni, sy\u00f6d\u00e4ksemme ja sitten kuollaksemme.\""
        },
        {
            "chapter": 17,
            "verse": 13,
            "name": "1 Kings 17:13",
            "text": "Niin Elia sanoi h\u00e4nelle: \"\u00c4l\u00e4 pelk\u00e4\u00e4; mene ja tee, niinkuin olet sanonut. Mutta leivo minulle ensin pieni kaltiainen ja tuo se minulle. Leivo sitten itsellesi ja pojallesi."
        },
        {
            "chapter": 17,
            "verse": 14,
            "name": "1 Kings 17:14",
            "text": "Sill\u00e4 n\u00e4in sanoo Herra, Israelin Jumala: Jauhot eiv\u00e4t lopu ruukusta, eik\u00e4 \u00f6ljy\u00e4 ole puuttuva astiasta siihen p\u00e4iv\u00e4\u00e4n asti, jona Herra antaa sateen maan p\u00e4\u00e4lle.\""
        },
        {
            "chapter": 17,
            "verse": 15,
            "name": "1 Kings 17:15",
            "text": "Niin h\u00e4n meni ja teki, niinkuin Elia oli sanonut. Ja h\u00e4nell\u00e4 sek\u00e4 my\u00f6s Elialla ja vaimon perheell\u00e4 oli sy\u00f6t\u00e4v\u00e4\u00e4 pitk\u00e4ksi aikaa."
        },
        {
            "chapter": 17,
            "verse": 16,
            "name": "1 Kings 17:16",
            "text": "Jauhot eiv\u00e4t loppuneet ruukusta, eik\u00e4 \u00f6ljy\u00e4 puuttunut astiasta, sen Herran sanan mukaan, jonka h\u00e4n oli Elian kautta puhunut."
        },
        {
            "chapter": 17,
            "verse": 17,
            "name": "1 Kings 17:17",
            "text": "Sen j\u00e4lkeen vaimon, talon em\u00e4nn\u00e4n, poika sairastui; ja h\u00e4nen tautinsa k\u00e4vi hyvin kovaksi, niin ettei h\u00e4ness\u00e4 en\u00e4\u00e4 ollut henke\u00e4."
        },
        {
            "chapter": 17,
            "verse": 18,
            "name": "1 Kings 17:18",
            "text": "Silloin vaimo sanoi Elialle: \"Mit\u00e4 minulla on tekemist\u00e4 sinun kanssasi, Jumalan mies? Sin\u00e4 olet tullut minun luokseni saattamaan minun pahat tekoni muistoon ja tuottamaan kuoleman minun pojalleni.\""
        },
        {
            "chapter": 17,
            "verse": 19,
            "name": "1 Kings 17:19",
            "text": "Mutta h\u00e4n sanoi h\u00e4nelle: \"Anna poikasi minulle\". Ja h\u00e4n otti t\u00e4m\u00e4n h\u00e4nen sylist\u00e4\u00e4n ja vei h\u00e4net yliskammioon, jossa asui, ja pani h\u00e4net vuoteellensa."
        },
        {
            "chapter": 17,
            "verse": 20,
            "name": "1 Kings 17:20",
            "text": "Ja h\u00e4n huusi Herraa ja sanoi: \"Herra, minun Jumalani, oletko tehnyt niin pahoin t\u00e4t\u00e4 leske\u00e4 kohtaan, jonka vieraana min\u00e4 olen, ett\u00e4 olet surmannut h\u00e4nen poikansa?\""
        },
        {
            "chapter": 17,
            "verse": 21,
            "name": "1 Kings 17:21",
            "text": "Sitten h\u00e4n ojentautui pojan yli kolme kertaa, huusi Herraa ja sanoi: \"Herra, minun Jumalani, anna t\u00e4m\u00e4n pojan sielun tulla h\u00e4neen takaisin\"."
        },
        {
            "chapter": 17,
            "verse": 22,
            "name": "1 Kings 17:22",
            "text": "Ja Herra kuuli Eliaa, ja pojan sielu tuli h\u00e4neen takaisin, ja h\u00e4n virkosi henkiin."
        },
        {
            "chapter": 17,
            "verse": 23,
            "name": "1 Kings 17:23",
            "text": "Ja Elia otti pojan ja toi h\u00e4net yliskammiosta alas huoneeseen ja antoi h\u00e4net h\u00e4nen \u00e4idillens\u00e4. Ja Elia sanoi: \"Katso, poikasi el\u00e4\u00e4\"."
        },
        {
            "chapter": 17,
            "verse": 24,
            "name": "1 Kings 17:24",
            "text": "Niin vaimo sanoi Elialle: \"Nyt min\u00e4 tied\u00e4n, ett\u00e4 sin\u00e4 olet Jumalan mies ja ett\u00e4 Herran sana sinun suussasi on tosi\"."
        }
    ]
}