{
    "translation": "Martin (1744)",
    "abbreviation": "martin",
    "lang": "fr",
    "language": "French",
    "direction": "LTR",
    "encoding": "UTF-8",
    "book_nr": 14,
    "book_name": "2 Chronicles",
    "chapter": 36,
    "name": "2 Chronicles 36",
    "verses": [
        {
            "chapter": 36,
            "verse": 1,
            "name": "2 Chronicles 36:1",
            "text": " Alors le peuple du pays prit J\u00e9hoachaz fils de Josias, et on l'\u00e9tablit Roi \u00e0 J\u00e9rusalem en la place de son p\u00e8re."
        },
        {
            "chapter": 36,
            "verse": 2,
            "name": "2 Chronicles 36:2",
            "text": "J\u00e9hoachaz \u00e9tait \u00e2g\u00e9 de vingt et trois ans quand il commen\u00e7a \u00e0 r\u00e9gner, et il r\u00e9gna trois mois \u00e0 J\u00e9rusalem."
        },
        {
            "chapter": 36,
            "verse": 3,
            "name": "2 Chronicles 36:3",
            "text": "Et le Roi d'Egypte le d\u00e9posa \u00e0 J\u00e9rusalem, et condamna le pays \u00e0 une amende de cent talents d'argent, et d'un talent d'or."
        },
        {
            "chapter": 36,
            "verse": 4,
            "name": "2 Chronicles 36:4",
            "text": "Et le Roi d'Egypte \u00e9tablit pour Roi sur Juda et sur J\u00e9rusalem Eliakim fr\u00e8re de Joachaz, et lui changea son nom, l'appelant J\u00e9hojakim ; puis N\u00e9c\u00f2 prit J\u00e9hoachaz, fr\u00e8re de J\u00e9hojakim, et l'emmena en Egypte."
        },
        {
            "chapter": 36,
            "verse": 5,
            "name": "2 Chronicles 36:5",
            "text": "J\u00e9hojakim \u00e9tait \u00e2g\u00e9 de vingt-cinq ans quand il commen\u00e7a \u00e0 r\u00e9gner, et il r\u00e9gna onze ans \u00e0 J\u00e9rusalem, et fit ce qui d\u00e9pla\u00eet \u00e0 l'Eternel son Dieu."
        },
        {
            "chapter": 36,
            "verse": 6,
            "name": "2 Chronicles 36:6",
            "text": "N\u00e9bucadnetsar Roi de Babylone monta contre lui, et le lia de doubles cha\u00eenes d'airain pour le mener \u00e0 Babylone."
        },
        {
            "chapter": 36,
            "verse": 7,
            "name": "2 Chronicles 36:7",
            "text": "N\u00e9bucadnetsar emporta aussi \u00e0 Babylone des vaisseaux de la maison de l'Eternel, et les mit dans son Temple \u00e0 Babylone."
        },
        {
            "chapter": 36,
            "verse": 8,
            "name": "2 Chronicles 36:8",
            "text": "Or le reste des faits de J\u00e9hojakim, et ses abominations, lesquelles il fit, et ce qui fut trouv\u00e9 en lui, voil\u00e0 ces choses sont \u00e9crites au Livre des Rois d'Isra\u00ebl et de Juda, et J\u00e9hojachin son fils r\u00e9gna en sa place."
        },
        {
            "chapter": 36,
            "verse": 9,
            "name": "2 Chronicles 36:9",
            "text": "J\u00e9hojachin \u00e9tait \u00e2g\u00e9 de huit ans quand il commen\u00e7a \u00e0 r\u00e9gner, et il r\u00e9gna trois mois et dix jours \u00e0 J\u00e9rusalem, et il fit ce qui d\u00e9pla\u00eet \u00e0 l'Eternel."
        },
        {
            "chapter": 36,
            "verse": 10,
            "name": "2 Chronicles 36:10",
            "text": "Et l'ann\u00e9e suivante le Roi N\u00e9bucadnetsar envoya, et le fit emmener \u00e0 Babylone avec les vaisseaux pr\u00e9cieux de la maison de l'Eternel, et \u00e9tablit pour Roi sur Juda et sur J\u00e9rusalem S\u00e9d\u00e9cias son fr\u00e8re."
        },
        {
            "chapter": 36,
            "verse": 11,
            "name": "2 Chronicles 36:11",
            "text": "S\u00e9d\u00e9cias \u00e9tait \u00e2g\u00e9 de vingt et un ans quand il commen\u00e7a \u00e0 r\u00e9gner, et il r\u00e9gna onze ans \u00e0 J\u00e9rusalem."
        },
        {
            "chapter": 36,
            "verse": 12,
            "name": "2 Chronicles 36:12",
            "text": "Il fit ce qui d\u00e9pla\u00eet \u00e0 l'Eternel son Dieu, et ne s'humilia point pour tout ce que lui disait J\u00e9r\u00e9mie le Proph\u00e8te, qui lui parlait de la part de l'Eternel."
        },
        {
            "chapter": 36,
            "verse": 13,
            "name": "2 Chronicles 36:13",
            "text": "Et m\u00eame il se rebella contre le Roi N\u00e9bucadnetsar, qui l'avait fait jurer par le Nom de Dieu ; et il roidit son cou, et obstina son coeur pour ne retourner point \u00e0 l'Eternel le Dieu d'Isra\u00ebl."
        },
        {
            "chapter": 36,
            "verse": 14,
            "name": "2 Chronicles 36:14",
            "text": "Pareillement tous les principaux des Sacrificateurs, et le peuple, continu\u00e8rent de plus en plus \u00e0 p\u00e9cher gri\u00e8vement, selon toutes les abominations des nations ; et souill\u00e8rent la maison que l'Eternel avait sanctifi\u00e9e dans J\u00e9rusalem."
        },
        {
            "chapter": 36,
            "verse": 15,
            "name": "2 Chronicles 36:15",
            "text": "Or l'Eternel le Dieu de leurs p\u00e8res les avait somm\u00e9s par ses messagers, qu'il avait envoy\u00e9s en toute diligence, parce qu'il \u00e9tait touch\u00e9 de compassion envers son peuple, et envers sa demeure."
        },
        {
            "chapter": 36,
            "verse": 16,
            "name": "2 Chronicles 36:16",
            "text": "Mais ils se moquaient des messagers de Dieu, ils m\u00e9prisaient ses paroles, et ils traitaient ses Proph\u00e8tes de S\u00e9ducteurs, jusqu'\u00e0 ce que la fureur de l'Eternel s'alluma tellement contre son peuple, qu'il n'y eut plus de rem\u00e8de."
        },
        {
            "chapter": 36,
            "verse": 17,
            "name": "2 Chronicles 36:17",
            "text": "C'est pourquoi il fit venir contre eux le Roi des Cald\u00e9ens, qui tua leurs jeunes gens avec l'\u00e9p\u00e9e dans la maison de leur Sanctuaire, et il ne fut point touch\u00e9 de compassion envers les jeunes hommes, ni envers les filles, ni envers les vieillards et d\u00e9cr\u00e9pits ; il les livra tous entre ses mains."
        },
        {
            "chapter": 36,
            "verse": 18,
            "name": "2 Chronicles 36:18",
            "text": "Et il fit apporter \u00e0 Babylone tous les vaisseaux de la maison de Dieu, grands et petits, et les tr\u00e9sors de la maison de l'Eternel, et les tr\u00e9sors du Roi, et ceux de ses principaux officiers."
        },
        {
            "chapter": 36,
            "verse": 19,
            "name": "2 Chronicles 36:19",
            "text": "On br\u00fbla aussi la maison de Dieu, on d\u00e9molit les murailles de J\u00e9rusalem ; et on mit en feu tous ses palais, et on ruina tout ce qu'il y avait d'exquis."
        },
        {
            "chapter": 36,
            "verse": 20,
            "name": "2 Chronicles 36:20",
            "text": "Puis le roi de Babylone transporta \u00e0 Babylone tous ceux qui \u00e9taient \u00e9chapp\u00e9s de l'\u00e9p\u00e9e ; et ils lui furent esclaves, \u00e0 lui et \u00e0 ses fils, jusqu' au temps de la Monarchie des Perses."
        },
        {
            "chapter": 36,
            "verse": 21,
            "name": "2 Chronicles 36:21",
            "text": "Afin que la parole de l'Eternel, prononc\u00e9e par J\u00e9r\u00e9mie, f\u00fbt accomplie, jusqu'\u00e0 ce que la terre e\u00fbt pris plaisir \u00e0 ses Sabbats et durant tous les jours qu'elle demeura d\u00e9sol\u00e9e, elle se reposa, pour accomplir les soixante-dix ann\u00e9es."
        },
        {
            "chapter": 36,
            "verse": 22,
            "name": "2 Chronicles 36:22",
            "text": "0r la premi\u00e8re ann\u00e9e de Cyrus Roi de Perse, afin que la parole de l'Eternel prononc\u00e9e par J\u00e9r\u00e9mie f\u00fbt accomplie, l'Eternel excita l'esprit de Cyrus Roi de Perse, qui fit publier dans tout son Royaume, et m\u00eame par Lettres, en disant :"
        },
        {
            "chapter": 36,
            "verse": 23,
            "name": "2 Chronicles 36:23",
            "text": "Ainsi a dit Cyrus, Roi de Perse : L'Eternel, le Dieu des cieux, m'a donn\u00e9 tous les Royaumes de la terre, lui-m\u00eame m'a ordonn\u00e9 de lui b\u00e2tir une maison \u00e0 J\u00e9rusalem, en Jud\u00e9e. Qui est-ce d'entre vous de tout son peuple qui s'y veuille employer ? L'Eternel son Dieu soit avec lui, et qu'il monte."
        }
    ]
}