{
    "translation": "Hangul King James Version",
    "abbreviation": "korhkjv",
    "lang": "ko",
    "language": "Korean",
    "direction": "LTR",
    "encoding": "UTF-8",
    "book_nr": 19,
    "book_name": "Psalms",
    "chapter": 88,
    "name": "Psalms 88",
    "verses": [
        {
            "chapter": 88,
            "verse": 1,
            "name": "Psalms 88:1",
            "text": " \uc624 \uc8fc \ub0b4 \uad6c\uc6d0\uc758 \ud558\ub098\ub2d8\uc774\uc5ec, \ub0b4\uac00 \ubc24\ub0ae\uc73c\ub85c \uc8fc \uc55e\uc5d0\uc11c \ubd80\ub974\uc9d6\uc5c8\uc0ac\uc624\ub2c8"
        },
        {
            "chapter": 88,
            "verse": 2,
            "name": "Psalms 88:2",
            "text": "\ub098\uc758 \uae30\ub3c4\uac00 \uc8fc \uc55e\uc5d0 \uc774\ub974\uac8c \ud558\uc2dc\uba70 \ub098\uc758 \ubd80\ub974\uc9d6\uc74c\uc5d0 \uc8fc\uc758 \uadc0\ub97c \uae30\uc6b8\uc774\uc18c\uc11c."
        },
        {
            "chapter": 88,
            "verse": 3,
            "name": "Psalms 88:3",
            "text": "\ub0b4 \ud63c\uc774 \uace0\ub09c\ub4e4\ub85c \uac00\ub4dd\ud558\uace0 \ub0b4 \uc0dd\uba85\uc774 \ubb34\ub364\uc5d0 \uac00\uae4c\uc774 \uc774\ub974\ub098\uc774\ub2e4."
        },
        {
            "chapter": 88,
            "verse": 4,
            "name": "Psalms 88:4",
            "text": "\ub098\ub294 \uad6c\ub369\uc774\ub85c \ub0b4\ub824\uac00\ub294 \uc790\ub4e4\uacfc \ud568\uaed8 \uacc4\uc218\ub418\uace0 \uae30\ub825\uc774 \uc5c6\ub294 \uc790 \uac19\uc73c\uba70"
        },
        {
            "chapter": 88,
            "verse": 5,
            "name": "Psalms 88:5",
            "text": "\ubb34\ub364 \uc18d\uc5d0 \ub204\uc6cc \uc788\ub294 \uc8fd\uc784 \ub2f9\ud55c \uc790\ub4e4\uac19\uc774 \uc8fd\uc740 \uc790\ub4e4 \uac00\uc6b4\ub370\uc11c \uc790\uc720\ub86d\ub098\uc774\ub2e4. \uc8fc\uaed8\uc11c \uadf8\ub4e4\uc744 \ub2e4\uc2dc\ub294 \uae30\uc5b5\ud558\uc9c0 \uc544\ub2c8\ud558\uc2dc\ub098\ub2c8 \uadf8\ub4e4\uc740 \uc8fc\uc758 \uc190\uc5d0\uc11c \ub04a\uc5b4\uc84c\ub098\uc774\ub2e4."
        },
        {
            "chapter": 88,
            "verse": 6,
            "name": "Psalms 88:6",
            "text": "\uc8fc\uaed8\uc11c \ub098\ub97c \uac00\uc7a5 \ub0ae\uc740 \uad6c\ub369\uc774\uc640 \uc5b4\ub460\uacfc \uae4a\uc74c\ub4e4 \uc18d\uc5d0 \ub450\uc168\uc0ac\uc624\uba70"
        },
        {
            "chapter": 88,
            "verse": 7,
            "name": "Psalms 88:7",
            "text": "\uc8fc\uc758 \uc9c4\ub178\ub85c \ub098\ub97c \uc2ec\ud788 \ub204\ub974\uc2dc\uace0 \uc8fc\uc758 \ubaa8\ub4e0 \ud30c\ub3c4\ub85c \ub098\ub97c \uad34\ub86d\uac8c \ud558\uc168\ub098\uc774\ub2e4. \uc140\ub77c."
        },
        {
            "chapter": 88,
            "verse": 8,
            "name": "Psalms 88:8",
            "text": "\uc8fc\uaed8\uc11c \ub0b4\uac00 \uc544\ub294 \uc790\ub4e4\uc744 \ub0b4\uac8c\uc11c \uba40\ub9ac \ub5a0\ub098\uac8c \ud558\uc2dc\uace0 \ub098\ub85c \ud558\uc5ec\uae08 \uadf8\ub4e4\uc5d0\uac8c \uac00\uc99d\ud55c \uac83\uc774 \ub418\uac8c \ud558\uc168\uc0ac\uc624\ub2c8 \ub098\ub294 \uac07\ud600\uc11c \ub098\uc544\uac08 \uc218 \uc5c6\ub098\uc774\ub2e4."
        },
        {
            "chapter": 88,
            "verse": 9,
            "name": "Psalms 88:9",
            "text": "\uace0\ub09c\uc73c\ub85c \uc778\ud558\uc5ec \ub0b4 \ub208\uc774 \uc560\uace1\ud558\ub098\uc774\ub2e4. \uc8fc\uc5ec, \ub0b4\uac00 \ub0a0\ub9c8\ub2e4 \uc8fc\ub97c \ubd80\ub974\uba70 \uc8fc\ub97c \ud5a5\ud574 \ub0b4 \ub450 \uc190\uc744 \ub0b4\ubc00\uc5c8\ub098\uc774\ub2e4."
        },
        {
            "chapter": 88,
            "verse": 10,
            "name": "Psalms 88:10",
            "text": "\uc8fc\uaed8\uc11c \uc8fd\uc740 \uc790\ub4e4\uc5d0\uac8c \uc774\uc801\ub4e4\uc744 \ubcf4\uc774\uc2dc\uaca0\ub098\uc774\uae4c? \uc8fd\uc740 \uc790\ub4e4\uc774 \uc77c\uc5b4\ub098 \uc8fc\ub97c \ucc2c\uc591\ud558\ub9ac\uc774\uae4c? \uc140\ub77c."
        },
        {
            "chapter": 88,
            "verse": 11,
            "name": "Psalms 88:11",
            "text": "\uc8fc\uc758 \uc778\uc790\ud558\uc2ec\uc774 \ubb34\ub364 \uc18d\uc5d0\uc11c \ubc1d\ud788 \ub4dc\ub7ec\ub098\ub9ac\uc774\uae4c? \uc8fc\uc758 \uc2e0\uc2e4\ud558\uc2ec\uc774 \ud30c\uba78 \uc18d\uc5d0\uc11c \ubc1d\ud788 \ub4dc\ub7ec\ub098\ub9ac\uc774\uae4c?"
        },
        {
            "chapter": 88,
            "verse": 12,
            "name": "Psalms 88:12",
            "text": "\uc8fc\uc758 \uc774\uc801\ub4e4\uc774 \uc5b4\ub460 \uc18d\uc5d0\uc11c \uc54c\ub824\uc9c0\ub9ac\uc774\uae4c? \uc8fc\uc758 \uc758\uac00 \ub9dd\uac01\uc758 \ub545\uc5d0\uc11c \uc54c\ub824\uc9c0\ub9ac\uc774\uae4c?"
        },
        {
            "chapter": 88,
            "verse": 13,
            "name": "Psalms 88:13",
            "text": "\uadf8\ub7ec\ub098, \uc624 \uc8fc\uc5ec, \ub0b4\uac00 \uc8fc\uaed8 \ubd80\ub974\uc9d6\uc5c8\uc0ac\uc624\ub2c8 \uc544\uce68\uc5d0 \ub098\uc758 \uae30\ub3c4\uac00 \uc8fc\ubcf4\ub2e4 \uc55e\uc11c \uac00\ub9ac\uc774\ub2e4."
        },
        {
            "chapter": 88,
            "verse": 14,
            "name": "Psalms 88:14",
            "text": "\uc8fc\uc5ec, \uc5b4\ucc0c\ud558\uc5ec \ub098\uc758 \ud63c\uc744 \ub358\uc838 \ubc84\ub9ac\uc2dc\ub098\uc774\uae4c? \uc5b4\ucc0c\ud558\uc5ec \uc8fc\uc758 \uc5bc\uad74\uc744 \ub0b4\uac8c \uc228\uae30\uc2dc\ub098\uc774\uae4c?"
        },
        {
            "chapter": 88,
            "verse": 15,
            "name": "Psalms 88:15",
            "text": "\ub0b4\uac00 \uc5b4\ub9b4 \uc801\ubd80\ud130 \uace0\ub09c\uc744 \ub2f9\ud558\uace0 \uc8fd\uc744 \uac01\uc624\uac00 \ub418\uc5c8\uc0ac\uc624\uba70 \uc8fc\uc758 \ub450\ub824\uc6c0\uc744 \uacaa\uc744 \ub54c\uc5d0 \ub9c8\uc74c\uc774 \ud63c\ub780\ud558\uc600\ub098\uc774\ub2e4."
        },
        {
            "chapter": 88,
            "verse": 16,
            "name": "Psalms 88:16",
            "text": "\uc8fc\uc758 \ub9f9\ub82c\ud55c \uc9c4\ub178\uac00 \ub0b4 \uc704\ub85c \ub118\uc5b4\uac00\uace0 \uc8fc\uc758 \ub450\ub824\uc6c0\uc774 \ub098\ub97c \ub04a\uc5c8\ub098\uc774\ub2e4."
        },
        {
            "chapter": 88,
            "verse": 17,
            "name": "Psalms 88:17",
            "text": "\uadf8\uac83\ub4e4\uc774 \ub0a0\ub9c8\ub2e4 \ubb3c\uac19\uc774 \uc640\uc11c \ub098\ub97c \uc5d0\uc6cc\uc2f8\uba70 \ub2e4 \uac19\uc774 \ub098\ub97c \ub458\ub7ec\uc30c\ub098\uc774\ub2e4."
        },
        {
            "chapter": 88,
            "verse": 18,
            "name": "Psalms 88:18",
            "text": "\uc8fc\uaed8\uc11c \ub098\uc758 \uc0ac\ub791\ud558\ub294 \uc790\uc640 \uce5c\uad6c\ub97c \ub0b4\uac8c\uc11c \uba40\ub9ac \ub5a0\ub098\uac8c \ud558\uc2dc\uba70 \ub0b4\uac00 \uc544\ub294 \uc790\ub4e4\uc744 \uc5b4\ub460 \uc18d\uc5d0 \ub450\uc168\ub098\uc774\ub2e4.   "
        }
    ]
}