{
    "translation": "Sveto pismo Kralja Jakoba (1769)",
    "abbreviation": "slokjva",
    "lang": "sl",
    "language": "Slovene",
    "direction": "LTR",
    "encoding": "UTF-8",
    "book_nr": 14,
    "book_name": "2 Chronicles",
    "chapter": 7,
    "name": "2 Chronicles 7",
    "verses": [
        {
            "chapter": 7,
            "verse": 1,
            "name": "2 Chronicles 7:1",
            "text": ""
        },
        {
            "chapter": 7,
            "verse": 2,
            "name": "2 Chronicles 7:2",
            "text": ""
        },
        {
            "chapter": 7,
            "verse": 3,
            "name": "2 Chronicles 7:3",
            "text": ""
        },
        {
            "chapter": 7,
            "verse": 4,
            "name": "2 Chronicles 7:4",
            "text": ""
        },
        {
            "chapter": 7,
            "verse": 5,
            "name": "2 Chronicles 7:5",
            "text": ""
        },
        {
            "chapter": 7,
            "verse": 6,
            "name": "2 Chronicles 7:6",
            "text": ""
        },
        {
            "chapter": 7,
            "verse": 7,
            "name": "2 Chronicles 7:7",
            "text": ""
        },
        {
            "chapter": 7,
            "verse": 8,
            "name": "2 Chronicles 7:8",
            "text": ""
        },
        {
            "chapter": 7,
            "verse": 9,
            "name": "2 Chronicles 7:9",
            "text": ""
        },
        {
            "chapter": 7,
            "verse": 10,
            "name": "2 Chronicles 7:10",
            "text": ""
        },
        {
            "chapter": 7,
            "verse": 11,
            "name": "2 Chronicles 7:11",
            "text": ""
        },
        {
            "chapter": 7,
            "verse": 12,
            "name": "2 Chronicles 7:12",
            "text": ""
        },
        {
            "chapter": 7,
            "verse": 13,
            "name": "2 Chronicles 7:13",
            "text": ""
        },
        {
            "chapter": 7,
            "verse": 14,
            "name": "2 Chronicles 7:14",
            "text": ""
        },
        {
            "chapter": 7,
            "verse": 15,
            "name": "2 Chronicles 7:15",
            "text": ""
        },
        {
            "chapter": 7,
            "verse": 16,
            "name": "2 Chronicles 7:16",
            "text": ""
        },
        {
            "chapter": 7,
            "verse": 17,
            "name": "2 Chronicles 7:17",
            "text": ""
        },
        {
            "chapter": 7,
            "verse": 18,
            "name": "2 Chronicles 7:18",
            "text": ""
        },
        {
            "chapter": 7,
            "verse": 19,
            "name": "2 Chronicles 7:19",
            "text": ""
        },
        {
            "chapter": 7,
            "verse": 20,
            "name": "2 Chronicles 7:20",
            "text": ""
        },
        {
            "chapter": 7,
            "verse": 21,
            "name": "2 Chronicles 7:21",
            "text": ""
        },
        {
            "chapter": 7,
            "verse": 22,
            "name": "2 Chronicles 7:22",
            "text": ""
        }
    ]
}