{
    "translation": "World English Bible: British Edition",
    "abbreviation": "webbe",
    "lang": "en",
    "language": "English",
    "direction": "LTR",
    "encoding": "UTF-8",
    "book_nr": 24,
    "book_name": "Jeremiah",
    "chapter": 33,
    "name": "Jeremiah 33",
    "verses": [
        {
            "chapter": 33,
            "verse": 1,
            "name": "Jeremiah 33:1",
            "text": "Moreover the LORD\u2019s word came to Jeremiah the second time, while he was yet shut up in the court of the guard, saying,"
        },
        {
            "chapter": 33,
            "verse": 2,
            "name": "Jeremiah 33:2",
            "text": "Thus says the LORD who does it, the LORD who forms it to establish it; the LORD is his name:"
        },
        {
            "chapter": 33,
            "verse": 3,
            "name": "Jeremiah 33:3",
            "text": "Call to me, and I will answer you, and will show you great things, and difficult, which you don\u2019t know."
        },
        {
            "chapter": 33,
            "verse": 4,
            "name": "Jeremiah 33:4",
            "text": "For thus says the LORD, the God of Israel, concerning the houses of this city, and concerning the houses of the kings of Judah, which are broken down to make a defence against the mounds and against the sword;"
        },
        {
            "chapter": 33,
            "verse": 5,
            "name": "Jeremiah 33:5",
            "text": "while men come to fight with the Chaldeans, and to fill them with the dead bodies of men, whom I have killed in my anger and in my wrath, and for all whose wickedness I have hidden my face from this city:"
        },
        {
            "chapter": 33,
            "verse": 6,
            "name": "Jeremiah 33:6",
            "text": "Behold, I will bring it health and cure, and I will cure them; and I will reveal to them abundance of peace and truth."
        },
        {
            "chapter": 33,
            "verse": 7,
            "name": "Jeremiah 33:7",
            "text": "I will cause the captivity of Judah and the captivity of Israel to return, and will build them, as at the first."
        },
        {
            "chapter": 33,
            "verse": 8,
            "name": "Jeremiah 33:8",
            "text": "I will cleanse them from all their iniquity, by which they have sinned against me; and I will pardon all their iniquities, by which they have sinned against me, and by which they have transgressed against me."
        },
        {
            "chapter": 33,
            "verse": 9,
            "name": "Jeremiah 33:9",
            "text": "This city shall be to me for a name of joy, for a praise and for a glory, before all the nations of the earth, which shall hear all the good that I do to them, and shall fear and tremble for all the good and for all the peace that I procure to it."
        },
        {
            "chapter": 33,
            "verse": 10,
            "name": "Jeremiah 33:10",
            "text": "Thus says the LORD: Yet again there shall be heard in this place, about which you say, It is waste, without man and without animal, even in the cities of Judah, and in the streets of Jerusalem, that are desolate, without man and without inhabitant and without animal,"
        },
        {
            "chapter": 33,
            "verse": 11,
            "name": "Jeremiah 33:11",
            "text": "the voice of joy and the voice of gladness, the voice of the bridegroom and the voice of the bride, the voice of those who say, Give thanks to the LORD of Armies, for the LORD is good, for his loving kindness endures forever; who bring thanksgiving into the LORD\u2019s house. For I will cause the captivity of the land to return as at the first, says the LORD."
        },
        {
            "chapter": 33,
            "verse": 12,
            "name": "Jeremiah 33:12",
            "text": "Thus says the LORD of Armies: Yet again shall there be in this place, which is waste, without man and without animal, and in all its cities, a habitation of shepherds causing their flocks to lie down."
        },
        {
            "chapter": 33,
            "verse": 13,
            "name": "Jeremiah 33:13",
            "text": "In the cities of the hill country, in the cities of the lowland, and in the cities of the South, and in the land of Benjamin, and in the places about Jerusalem, and in the cities of Judah, shall the flocks again pass under the hands of him who numbers them, says the LORD."
        },
        {
            "chapter": 33,
            "verse": 14,
            "name": "Jeremiah 33:14",
            "text": "Behold, the days come, says the LORD, that I will perform that good word which I have spoken concerning the house of Israel and concerning the house of Judah."
        },
        {
            "chapter": 33,
            "verse": 15,
            "name": "Jeremiah 33:15",
            "text": "In those days, and at that time, will I cause a Branch of righteousness to grow up to David; and he shall execute justice and righteousness in the land."
        },
        {
            "chapter": 33,
            "verse": 16,
            "name": "Jeremiah 33:16",
            "text": "In those days shall Judah be saved, and Jerusalem shall dwell safely; and this is the name by which she shall be called: the LORD our righteousness."
        },
        {
            "chapter": 33,
            "verse": 17,
            "name": "Jeremiah 33:17",
            "text": "For thus says the LORD: David shall never want a man to sit on the throne of the house of Israel;"
        },
        {
            "chapter": 33,
            "verse": 18,
            "name": "Jeremiah 33:18",
            "text": "neither shall the priests the Levites want a man before me to offer burnt offerings, and to burn meal offerings, and to do sacrifice continually."
        },
        {
            "chapter": 33,
            "verse": 19,
            "name": "Jeremiah 33:19",
            "text": "the LORD\u2019s word came to Jeremiah, saying,"
        },
        {
            "chapter": 33,
            "verse": 20,
            "name": "Jeremiah 33:20",
            "text": "Thus says the LORD: If you can break my covenant of the day, and my covenant of the night, so that there shall not be day and night in their season;"
        },
        {
            "chapter": 33,
            "verse": 21,
            "name": "Jeremiah 33:21",
            "text": "then may also my covenant be broken with David my servant, that he shall not have a son to reign on his throne; and with the Levites the priests, my ministers."
        },
        {
            "chapter": 33,
            "verse": 22,
            "name": "Jeremiah 33:22",
            "text": "As the army of the sky can\u2019t be numbered, neither the sand of the sea measured; so I will multiply the seed of David my servant, and the Levites who minister to me."
        },
        {
            "chapter": 33,
            "verse": 23,
            "name": "Jeremiah 33:23",
            "text": "the LORD\u2019s word came to Jeremiah, saying,"
        },
        {
            "chapter": 33,
            "verse": 24,
            "name": "Jeremiah 33:24",
            "text": "Don\u2019t consider what this people has spoken, saying, The two families which the LORD chose, he has cast them off? thus do they despise my people, that they should be no more a nation before them."
        },
        {
            "chapter": 33,
            "verse": 25,
            "name": "Jeremiah 33:25",
            "text": "Thus says the LORD: If my covenant of day and night fails, if I have not appointed the ordinances of heaven and earth;"
        },
        {
            "chapter": 33,
            "verse": 26,
            "name": "Jeremiah 33:26",
            "text": "then I will also cast away the seed of Jacob, and of David my servant, so that I will not take of his seed to be rulers over the seed of Abraham, Isaac, and Jacob: for I will cause their captivity to return, and will have mercy on them.  "
        }
    ]
}