{
    "translation": "NCV Simplified",
    "abbreviation": "cns",
    "lang": "zh",
    "language": "",
    "direction": "LTR",
    "encoding": "UTF-8",
    "book_nr": 20,
    "book_name": "Proverbs",
    "chapter": 20,
    "name": "Proverbs 20",
    "verses": [
        {
            "chapter": 20,
            "verse": 1,
            "name": "Proverbs 20:1",
            "text": "\t\u9152\u80fd\u4f7f\u4eba\u72c2\u653e\uff0c\u70c8\u9152\u80fd\u4f7f\u4eba\u55a7\u54d7\uff1b\u6240\u6709\u56e0\u9189\u9152\u800c\u72af\u9519\u7684\uff0c\u90fd\u6ca1\u6709\u667a\u6167\u3002"
        },
        {
            "chapter": 20,
            "verse": 2,
            "name": "Proverbs 20:2",
            "text": "\u738b\u7684\u9707\u6012\u597d\u50cf\u72ee\u5b50\u7684\u543c\u53eb\uff1b\u89e6\u6012\u4ed6\u7684\u662f\u81ea\u5bb3\u5df1\u547d\u3002"
        },
        {
            "chapter": 20,
            "verse": 3,
            "name": "Proverbs 20:3",
            "text": "\u5e73\u606f\u7eb7\u4e89\u5c31\u662f\u4eba\u7684\u8363\u8000\uff1b\u53ea\u6709\u611a\u5984\u4eba\u4e2a\u4e2a\u90fd\u7231\u4e89\u6267\u3002"
        },
        {
            "chapter": 20,
            "verse": 4,
            "name": "Proverbs 20:4",
            "text": "\u61d2\u60f0\u4eba\u51ac\u5929\u4e0d\u8015\u79cd\uff1b\u5230\u6536\u5272\u7684\u65f6\u5019\uff0c\u51fa\u53bb\u6c42\u98df\uff0c\u5fc5\u4e00\u65e0\u6240\u5f97\u3002"
        },
        {
            "chapter": 20,
            "verse": 5,
            "name": "Proverbs 20:5",
            "text": "\u4eba\u5fc3\u91cc\u7684\u8c0b\u7565\u5982\u540c\u6df1\u6c34\uff0c\u552f\u6709\u806a\u660e\u4eba\u80fd\u6c72\u5f15\u51fa\u6765\u3002"
        },
        {
            "chapter": 20,
            "verse": 6,
            "name": "Proverbs 20:6",
            "text": "\u5f88\u591a\u4eba\u81ea\u79f0\u5fe0\u8bda\uff0c\u4f46\u4fe1\u5b9e\u7684\u4eba\uff0c\u8c01\u80fd\u9047\u7740\u5462\uff1f"
        },
        {
            "chapter": 20,
            "verse": 7,
            "name": "Proverbs 20:7",
            "text": "\u884c\u4e3a\u5b8c\u5168\u7684\u4e49\u4eba\uff0c\u4ed6\u7684\u540e\u4ee3\u662f\u6709\u798f\u7684\u3002"
        },
        {
            "chapter": 20,
            "verse": 8,
            "name": "Proverbs 20:8",
            "text": "\u541b\u738b\u5750\u5728\u5ba1\u5224\u7684\u4f4d\u4e0a\uff0c\u4ed6\u7684\u773c\u76ee\u67e5\u5bdf\u4e00\u5207\u6076\u4e8b\u3002"
        },
        {
            "chapter": 20,
            "verse": 9,
            "name": "Proverbs 20:9",
            "text": "\u8c01\u80fd\u8bf4\uff1a\u201c\u6211\u6d01\u51c0\u4e86\u6211\u7684\u5fc3\uff0c\u6211\u662f\u6e05\u6d01\u65e0\u7f6a\u7684\u201d\uff1f"
        },
        {
            "chapter": 20,
            "verse": 10,
            "name": "Proverbs 20:10",
            "text": "\u4e0d\u540c\u7684\u6cd5\u7801\uff0c\u4e0d\u540c\u7684\u91cf\u5668\uff0c\u4e24\u6837\u90fd\u662f\u8036\u548c\u534e\u6240\u538c\u6076\u7684\u3002"
        },
        {
            "chapter": 20,
            "verse": 11,
            "name": "Proverbs 20:11",
            "text": "\u5b69\u7ae5\u7684\u884c\u52a8\u662f\u5426\u6e05\u6d01\u6b63\u76f4\uff0c\u51ed\u4ed6\u7684\u884c\u4e3a\u5c31\u53ef\u4ee5\u628a\u4ed6\u81ea\u5df1\u663e\u660e\u51fa\u6765\u3002"
        },
        {
            "chapter": 20,
            "verse": 12,
            "name": "Proverbs 20:12",
            "text": "\u80fd\u542c\u7684\u8033\u6735\u548c\u80fd\u770b\u7684\u773c\u775b\uff0c\u4e24\u6837\u90fd\u662f\u8036\u548c\u534e\u6240\u9020\u7684\u3002"
        },
        {
            "chapter": 20,
            "verse": 13,
            "name": "Proverbs 20:13",
            "text": "\u4e0d\u8981\u8d2a\u7761\uff0c\u514d\u5f97\u4f60\u8d2b\u7a77\uff1b\u7741\u5f00\u773c\u775b\uff0c\u4f60\u624d\u6709\u9971\u9910\u3002"
        },
        {
            "chapter": 20,
            "verse": 14,
            "name": "Proverbs 20:14",
            "text": "\u4e70\u4e1c\u897f\u7684\u8bf4\uff1a\u201c\u4e0d\u597d\uff0c\u4e0d\u597d\uff01\u201d\u79bb\u53bb\u4ee5\u540e\uff0c\u4ed6\u5c31\u81ea\u5938\u3002"
        },
        {
            "chapter": 20,
            "verse": 15,
            "name": "Proverbs 20:15",
            "text": "\u867d\u6709\u91d1\u5b50\u3001\u8bb8\u591a\u7ea2\u5b9d\u77f3\u548c\u5b9d\u5668\uff0c\u4f46\u5145\u6ee1\u77e5\u8bc6\u7684\u5634\u5507\u6bd4\u8fd9\u4e00\u5207\u66f4\u5b9d\u8d35\u3002"
        },
        {
            "chapter": 20,
            "verse": 16,
            "name": "Proverbs 20:16",
            "text": "\u8c01\u4e3a\u964c\u751f\u4eba\u4f5c\u4fdd\u8bc1\u4eba\uff0c\u5c31\u62ff\u53bb\u8c01\u7684\u8863\u670d\uff1b\u8c01\u66ff\u5993\u5973\u4f5c\u4fdd\u8bc1\u4eba\uff0c\u8c01\u5c31\u8981\u4f5c\u62c5\u4fdd\u3002"
        },
        {
            "chapter": 20,
            "verse": 17,
            "name": "Proverbs 20:17",
            "text": "\u6b3a\u9a97\u5f97\u6765\u7684\u98df\u7269\uff0c\u4eba\u603b\u89c9\u5f97\u7518\u751c\uff1b\u4e8b\u540e\u4ed6\u7684\u53e3\u5fc5\u5145\u6ee1\u6c99\u77f3\u3002"
        },
        {
            "chapter": 20,
            "verse": 18,
            "name": "Proverbs 20:18",
            "text": "\u8ba1\u5212\u8981\u6709\u7b79\u7b97\u624d\u80fd\u786e\u7acb\uff1b\u4f5c\u6218\u4e5f\u8981\u501a\u9760\u667a\u8c0b\u3002"
        },
        {
            "chapter": 20,
            "verse": 19,
            "name": "Proverbs 20:19",
            "text": "\u5230\u5904\u642c\u5f04\u662f\u975e\u7684\uff0c\u6cc4\u9732\u79d8\u5bc6\uff1b\u597d\u8bf4\u95f2\u8a00\u7684\uff0c\u4e0d\u53ef\u4e0e\u4ed6\u7ed3\u4ea4\u3002"
        },
        {
            "chapter": 20,
            "verse": 20,
            "name": "Proverbs 20:20",
            "text": "\u5492\u9a82\u7236\u6bcd\u7684\uff0c\u4ed6\u7684\u706f\u5fc5\u5728\u6f06\u9ed1\u7684\u5e7d\u6697\u4e2d\u7184\u706d\u3002"
        },
        {
            "chapter": 20,
            "verse": 21,
            "name": "Proverbs 20:21",
            "text": "\u8d77\u521d\u8fc5\u901f\u5f97\u6765\u7684\u4ea7\u4e1a\uff0c\u6700\u540e\u5374\u4e0d\u662f\u798f\u6c14\u3002"
        },
        {
            "chapter": 20,
            "verse": 22,
            "name": "Proverbs 20:22",
            "text": "\u4f60\u4e0d\u8981\u8bf4\uff1a\u201c\u6211\u8981\u4ee5\u6076\u62a5\u6076\u201d\uff1b\u8981\u7b49\u5019\u8036\u548c\u534e\uff0c\u4ed6\u5fc5\u62ef\u6551\u4f60\u3002"
        },
        {
            "chapter": 20,
            "verse": 23,
            "name": "Proverbs 20:23",
            "text": "\u4e0d\u540c\u7684\u6cd5\u7801\u662f\u8036\u548c\u534e\u6240\u538c\u6076\u7684\uff1b\u8be1\u8bc8\u7684\u5929\u5e73\uff0c\u4e5f\u662f\u90aa\u6076\u7684\u3002"
        },
        {
            "chapter": 20,
            "verse": 24,
            "name": "Proverbs 20:24",
            "text": "\u4eba\u7684\u811a\u6b65\u662f\u7531\u8036\u548c\u534e\u6240\u5b9a\uff0c\u4eba\u600e\u80fd\u660e\u767d\u81ea\u5df1\u7684\u9053\u8def\u5462\uff1f"
        },
        {
            "chapter": 20,
            "verse": 25,
            "name": "Proverbs 20:25",
            "text": "\u5982\u679c\u6709\u4eba\u8f7b\u7387\u5730\u8bf4\uff1a\u201c\u8fd9\u662f\u5f52\u3000\u795e\u4e3a\u5723\u4e4b\u7269\u201d\uff0c\u8bb8\u613f\u4ee5\u540e\u624d\u91cd\u65b0\u8003\u8651\uff0c\u5c31\u662f\u81ea\u9677\u7f51\u7f57\u3002"
        },
        {
            "chapter": 20,
            "verse": 26,
            "name": "Proverbs 20:26",
            "text": "\u667a\u6167\u7684\u738b\u7c38\u6563\u6076\u4eba\uff0c\u5e76\u7528\u8f66\u8f6e\u78be\u4ed6\u4eec\u3002"
        },
        {
            "chapter": 20,
            "verse": 27,
            "name": "Proverbs 20:27",
            "text": "\u4eba\u7684\u7075\u662f\u8036\u548c\u534e\u7684\u706f\uff0c\u63a2\u7167\u4eba\u7684\u810f\u8151\u3002"
        },
        {
            "chapter": 20,
            "verse": 28,
            "name": "Proverbs 20:28",
            "text": "\u6148\u7231\u548c\u4fe1\u5b9e\u4fdd\u62a4\u541b\u738b\uff0c\u4ed6\u7684\u738b\u4f4d\u4e5f\u501f\u6148\u7231\u7ef4\u6301\u3002"
        },
        {
            "chapter": 20,
            "verse": 29,
            "name": "Proverbs 20:29",
            "text": "\u6c14\u529b\u662f\u5e74\u8f7b\u4eba\u7684\u8363\u8000\uff0c\u767d\u53d1\u662f\u8001\u5e74\u4eba\u7684\u5c0a\u8363\u3002"
        },
        {
            "chapter": 20,
            "verse": 30,
            "name": "Proverbs 20:30",
            "text": "\u97ad\u4f24\u80fd\u9664\u51c0\u4eba\u7684\u90aa\u6076\uff0c\u8d23\u6253\u80fd\u6d17\u51c0\u4eba\u7684\u810f\u8151\u3002"
        }
    ]
}