{
    "translation": "Finnish Bible (1776)",
    "abbreviation": "finnish1776",
    "lang": "fi",
    "language": "Finnish",
    "direction": "LTR",
    "encoding": "",
    "book_nr": 11,
    "book_name": "1 Kings",
    "chapter": 21,
    "name": "1 Kings 21",
    "verses": [
        {
            "chapter": 21,
            "verse": 1,
            "name": "1 Kings 21:1",
            "text": "Sitte tapahtui, ett\u00e4 Nabotilla Jisreelil\u00e4isell\u00e4 oli viinam\u00e4ki Jisreeliss\u00e4, l\u00e4sn\u00e4 Ahabin Samarian kuninkaan huonetta."
        },
        {
            "chapter": 21,
            "verse": 2,
            "name": "1 Kings 21:2",
            "text": "Ja Ahab puhui Nabotille ja sanoi: anna minulle viinam\u00e4kes kaalimaaksi, ett\u00e4 se on niin l\u00e4sn\u00e4 huonettani, ja min\u00e4 annan sinulle sen edest\u00e4 paremman viinam\u00e4en: eli jos sinun niin kelpaa, niin min\u00e4 annan sinulle hopiaa niin paljo kuin se maksaa."
        },
        {
            "chapter": 21,
            "verse": 3,
            "name": "1 Kings 21:3",
            "text": "Mutta Nabot sanoi Ahabille: Herra varjelkoon minua antamasta sinulle is\u00e4ini perint\u00f6\u00e4!"
        },
        {
            "chapter": 21,
            "verse": 4,
            "name": "1 Kings 21:4",
            "text": "Niin Ahab tuli kotiansa pahalla mielell\u00e4 ja vihoissansa, sen sanan t\u00e4hden mink\u00e4 Nabot Jisreelil\u00e4inen h\u00e4nelle puhunut oli, sanoen: en min\u00e4 anna sinulle is\u00e4ini perint\u00f6\u00e4; ja h\u00e4n heitt\u00e4ysi vuoteesen, k\u00e4\u00e4nsi kasvonsa ja ei sy\u00f6nyt leip\u00e4\u00e4."
        },
        {
            "chapter": 21,
            "verse": 5,
            "name": "1 Kings 21:5",
            "text": "Niin tuli Isebel h\u00e4nen em\u00e4nt\u00e4ns\u00e4 h\u00e4nen tyk\u00f6ns\u00e4 ja sanoi h\u00e4nelle: mik\u00e4 se on, ett\u00e4 henkes on niin murheellinen, ja et sy\u00f6 leip\u00e4\u00e4?"
        },
        {
            "chapter": 21,
            "verse": 6,
            "name": "1 Kings 21:6",
            "text": "Niin h\u00e4n sanoi h\u00e4nelle: min\u00e4 olen puhutellut Nabotia Jisreelil\u00e4ist\u00e4 ja sanonut: anna minulle viinam\u00e4kes rahan edest\u00e4, eli jos tahdot, niin min\u00e4 annan sinulle toisen viinam\u00e4en sen edest\u00e4. Mutta h\u00e4n sanoi: en min\u00e4 anna sinulle viinam\u00e4ke\u00e4ni."
        },
        {
            "chapter": 21,
            "verse": 7,
            "name": "1 Kings 21:7",
            "text": "Niin Isebel h\u00e4nen em\u00e4nt\u00e4ns\u00e4 sanoi h\u00e4nelle: sin\u00e4 hallitset nyt Israelin valtakunnan. Nouse ja sy\u00f6 leip\u00e4\u00e4 ja ole hyv\u00e4ll\u00e4 mielell\u00e4: min\u00e4 saatan sinulle Nabotin Jisreelil\u00e4isen viinam\u00e4en."
        },
        {
            "chapter": 21,
            "verse": 8,
            "name": "1 Kings 21:8",
            "text": "Ja h\u00e4n kirjoitti kirjan Ahabin nimell\u00e4, ja lukitsi sen h\u00e4nen sinetill\u00e4ns\u00e4, ja l\u00e4hetti sen kirjan vanhimpain ja ylimm\u00e4isten tyk\u00f6, jotka h\u00e4nen kaupungissansa asuivat Nabotin kanssa."
        },
        {
            "chapter": 21,
            "verse": 9,
            "name": "1 Kings 21:9",
            "text": "Ja kirjoitti n\u00e4in kirjaan, sanoen: kuuluttakaat paasto, ja asettakaat Nabot istumaan ylimm\u00e4iseksi kansan sekaan,"
        },
        {
            "chapter": 21,
            "verse": 10,
            "name": "1 Kings 21:10",
            "text": "Ja tuokaat kaksi pahanjuonista miest\u00e4 h\u00e4nt\u00e4 vastaan, jotka tunnustavat ja sanovat: sin\u00e4 olet kironnut Jumalaa ja kuningasta: ja viek\u00e4\u00e4t h\u00e4nt\u00e4 ulos ja kivitt\u00e4k\u00e4\u00e4t h\u00e4nt\u00e4 kuoliaaksi."
        },
        {
            "chapter": 21,
            "verse": 11,
            "name": "1 Kings 21:11",
            "text": "Niin vanhimmat ja sen kaupungin ylimm\u00e4iset, jotka h\u00e4nen kaupungissansa asuivat, tekiv\u00e4t niinkuin Isebel heid\u00e4n k\u00e4skenyt oli ja niinkuin kirjassa kirjoitettu oli, jonka h\u00e4n heid\u00e4n tyk\u00f6ns\u00e4 l\u00e4hett\u00e4nyt oli:"
        },
        {
            "chapter": 21,
            "verse": 12,
            "name": "1 Kings 21:12",
            "text": "Kuuluttivat paaston, ja antoivat Nabotin istua ylimm\u00e4iseksi kansan seassa."
        },
        {
            "chapter": 21,
            "verse": 13,
            "name": "1 Kings 21:13",
            "text": "Niin tul kaksi pahanjuonista miest\u00e4 ja istui h\u00e4nen kohdallensa, ja tunnustivat Nabotia vastaan kansan edess\u00e4 ja sanoivat: Nabot on kironnut Jumalaa ja kuningasta; niin veiv\u00e4t he h\u00e4nen kaupungista ulos ja kivittiv\u00e4t h\u00e4nen juuri kuoliaaksi."
        },
        {
            "chapter": 21,
            "verse": 14,
            "name": "1 Kings 21:14",
            "text": "Ja he l\u00e4hettiv\u00e4t Isebelin tyk\u00f6, sanoen: Nabot on kivitetty ja kuollut."
        },
        {
            "chapter": 21,
            "verse": 15,
            "name": "1 Kings 21:15",
            "text": "Kun isebel kuuli Nabotin kivitetyksi ja kuolleksi, sanoi h\u00e4n Ahabille: nouse ja omista Nabotin Jisreelil\u00e4isen viinam\u00e4ki, jonka h\u00e4n sinulta on kielt\u00e4nyt rahan edest\u00e4; sill\u00e4 ei Nabot el\u00e4, vaan on kuollut."
        },
        {
            "chapter": 21,
            "verse": 16,
            "name": "1 Kings 21:16",
            "text": "Kuin Ahab kuuli Nabotin kuolleeksi, nousi h\u00e4n menem\u00e4\u00e4n ja omistamaan Nabotin Jisreelil\u00e4isen viinam\u00e4ke\u00e4."
        },
        {
            "chapter": 21,
            "verse": 17,
            "name": "1 Kings 21:17",
            "text": "Mutta Herran sana tuli Elialle Tisbil\u00e4iselle ja sanoi:"
        },
        {
            "chapter": 21,
            "verse": 18,
            "name": "1 Kings 21:18",
            "text": "Nouse ja mene Ahabia Israelin kuningasta vastaan, joka on Samariassa, (katso, h\u00e4n on Nabotin viinam\u00e4ess\u00e4, jota h\u00e4n on mennyt omistamaan.)"
        },
        {
            "chapter": 21,
            "verse": 19,
            "name": "1 Kings 21:19",
            "text": "Ja puhu h\u00e4nelle ja sano: n\u00e4in sanoo Herra: pitik\u00f6 sinun tappaman, ja viel\u00e4 p\u00e4\u00e4lliseksi omistaman? Ja sinun pit\u00e4\u00e4 puhuman h\u00e4nelle ja sanoman: n\u00e4in sanoo Herra: siin\u00e4 paikassa, jossa koirat nuoleskelivat Nabotin veren, pit\u00e4\u00e4 koirain sinunkin vertas nuoleskeleman."
        },
        {
            "chapter": 21,
            "verse": 20,
            "name": "1 Kings 21:20",
            "text": "Ja Ahab saboi Elialle: l\u00f6ysitk\u00f6s nyt minun, sin\u00e4 minun vihamieheni? H\u00e4n sanoi: l\u00f6ysin, ett\u00e4s olet sinus myynyt pahaa tekem\u00e4\u00e4n Herran silm\u00e4in edess\u00e4."
        },
        {
            "chapter": 21,
            "verse": 21,
            "name": "1 Kings 21:21",
            "text": "Katso, min\u00e4 annan tulla pahuuden sinun p\u00e4\u00e4lles, ja otan sinun sukukuntas pois, ja h\u00e4vit\u00e4n Ahabilta sen, joka vett\u00e4ns\u00e4 sein\u00e4\u00e4n heitt\u00e4\u00e4, ja suljetun ja hylj\u00e4tyn Israelissa."
        },
        {
            "chapter": 21,
            "verse": 22,
            "name": "1 Kings 21:22",
            "text": "Ja teen sinun huonees niinkuin Jerobeaminkin Nebatin pojan huoneen, ja niinkuin Baesan Ahian pojan huoneen, sen vihoittamisen t\u00e4hden, mill\u00e4 sin\u00e4 minua vihoittanut olet, ja saattanut Israelin synti\u00e4 tekem\u00e4\u00e4n."
        },
        {
            "chapter": 21,
            "verse": 23,
            "name": "1 Kings 21:23",
            "text": "Ja Herra puhui my\u00f6s Isebelille ja sanoi: koirain pit\u00e4\u00e4 sy\u00f6m\u00e4n Isebelin Jisreelin muurin tyk\u00f6n\u00e4."
        },
        {
            "chapter": 21,
            "verse": 24,
            "name": "1 Kings 21:24",
            "text": "Joka Ahabista kuolee kaupungissa, se pit\u00e4\u00e4 koirilta sy\u00f6t\u00e4m\u00e4n, ja jos joku kuolee kedolla, se pit\u00e4\u00e4 taivaan linnuilta sy\u00f6t\u00e4m\u00e4n."
        },
        {
            "chapter": 21,
            "verse": 25,
            "name": "1 Kings 21:25",
            "text": "Tosin ei yht\u00e4\u00e4n ollut, joka niin oli itsens\u00e4 myynyt pahaa tekem\u00e4\u00e4n Herran edess\u00e4 kuin Ahab; sill\u00e4 h\u00e4nen em\u00e4nt\u00e4ns\u00e4 Isebel vietteli h\u00e4nen."
        },
        {
            "chapter": 21,
            "verse": 26,
            "name": "1 Kings 21:26",
            "text": "Ja teki aivan suuret kauhistukset, seuraten ep\u00e4jumalia, kaiken sen j\u00e4lkeen kuin Amorilaiset tehneet olivat, jotka Herra ajoi Israelin lasten edest\u00e4 pois."
        },
        {
            "chapter": 21,
            "verse": 27,
            "name": "1 Kings 21:27",
            "text": "Koska Ahab n\u00e4m\u00e4t sanat kuuli, rep\u00e4isi h\u00e4n vaatteensa, ja puki s\u00e4kin ihollensa ja paastosi, ja makasi s\u00e4kiss\u00e4 ja k\u00e4vi suruissansa."
        },
        {
            "chapter": 21,
            "verse": 28,
            "name": "1 Kings 21:28",
            "text": "Ja Herran sana tuli Elian Tisbil\u00e4isen tyk\u00f6 ja sanoi:"
        },
        {
            "chapter": 21,
            "verse": 29,
            "name": "1 Kings 21:29",
            "text": "Etk\u00f6s n\u00e4hnyt, kuinka Ahab n\u00f6yryytti itsens\u00e4 minun edess\u00e4ni? ett\u00e4 h\u00e4n itsens\u00e4 niin n\u00f6yryytt\u00e4\u00e4 minun edess\u00e4ni, en min\u00e4 saata sit\u00e4 pahaa h\u00e4nen aikanansa; mutta h\u00e4nen poikansa aikana saatan min\u00e4 pahan h\u00e4nen huoneensa p\u00e4\u00e4lle."
        }
    ]
}