{
    "translation": "Svenska Karl XII:s Bibel (1873)",
    "abbreviation": "swekarlxii1873",
    "lang": "sv",
    "language": "Swedish",
    "direction": "LTR",
    "encoding": "UTF-8",
    "book_nr": 40,
    "book_name": "Matthew",
    "chapter": 13,
    "name": "Matthew 13",
    "verses": [
        {
            "chapter": 13,
            "verse": 1,
            "name": "Matthew 13:1",
            "text": "P\u00e5 den dagen gick Jesus ut af huset, och satte sig utmed hafvet."
        },
        {
            "chapter": 13,
            "verse": 2,
            "name": "Matthew 13:2",
            "text": "Och der f\u00f6rsamlades mycket folk till honom, s\u00e5 att han steg uti ett skepp, och satte sig; och allt folket stod p\u00e5 strandene."
        },
        {
            "chapter": 13,
            "verse": 3,
            "name": "Matthew 13:3",
            "text": "Och han talade med dem m\u00e5ngahanda i liknelser, s\u00e4gandes: Si, en s\u00e4desman gick ut, och skulle s\u00e5."
        },
        {
            "chapter": 13,
            "verse": 4,
            "name": "Matthew 13:4",
            "text": "Och n\u00e4r han s\u00e5dde, f\u00f6ll somt vid v\u00e4gen; och kommo foglarna, och \u00e5to det upp."
        },
        {
            "chapter": 13,
            "verse": 5,
            "name": "Matthew 13:5",
            "text": "Somt f\u00f6ll p\u00e5 sten\u00f6ren, der det hade icke mycken jord; och gick snart upp, ty det hade icke djupa jord."
        },
        {
            "chapter": 13,
            "verse": 6,
            "name": "Matthew 13:6",
            "text": "Men n\u00e4r solen gick upp, f\u00f6rvissnade det; och efter det hade inga r\u00f6tter, torkades det bort."
        },
        {
            "chapter": 13,
            "verse": 7,
            "name": "Matthew 13:7",
            "text": "Och somt f\u00f6ll ibland t\u00f6rne; och t\u00f6rnebuskarna uppv\u00e4xte, och f\u00f6rqvafde det."
        },
        {
            "chapter": 13,
            "verse": 8,
            "name": "Matthew 13:8",
            "text": "Och somt f\u00f6ll i goda jord, och gjorde frukt; somt hundradefaldt, somt sextiofaldt, och somt tretiofaldt."
        },
        {
            "chapter": 13,
            "verse": 9,
            "name": "Matthew 13:9",
            "text": "Hvilken som hafver \u00f6ron till att h\u00f6ra, han h\u00f6re."
        },
        {
            "chapter": 13,
            "verse": 10,
            "name": "Matthew 13:10",
            "text": "D\u00e5 stego L\u00e4rjungarna fram, och sade till honom: Hvi talar du till dem med liknelser?"
        },
        {
            "chapter": 13,
            "verse": 11,
            "name": "Matthew 13:11",
            "text": "D\u00e5 svarade han dem, och sade: Eder \u00e4r gifvet att veta himmelrikets l\u00f6nlighet; men dem \u00e4r det icke gifvet."
        },
        {
            "chapter": 13,
            "verse": 12,
            "name": "Matthew 13:12",
            "text": "Ty hvilken som hafver, honom skall gifvas, att han skall nog hafva; men den som icke hafver, af honom skall ock varda taget det han hafver."
        },
        {
            "chapter": 13,
            "verse": 13,
            "name": "Matthew 13:13",
            "text": "F\u00f6rdenskull talar jag dem till med liknelser; ty med seende \u00f6gon se de intet, och med h\u00f6rande \u00f6ron h\u00f6ra de intet; ty de f\u00f6rst\u00e5t icke."
        },
        {
            "chapter": 13,
            "verse": 14,
            "name": "Matthew 13:14",
            "text": "Och p\u00e5 dem varder fullkomnad Esaie Prophetie, som s\u00e4ger: Med \u00f6ronen skolen I h\u00f6ra, och skolen icke f\u00f6rst\u00e5t; och med seende \u00f6gon skolen I se, och skolen icke f\u00f6rnimmat."
        },
        {
            "chapter": 13,
            "verse": 15,
            "name": "Matthew 13:15",
            "text": "Ty detta folks hjerta \u00e4r f\u00f6rstockadt, och deras \u00f6ron h\u00f6ra illa, och deras \u00f6gon hafva de igenlyckt; p\u00e5 det de icke ens skulle se med \u00f6gonen, och h\u00f6ra med \u00f6ronen, och f\u00f6rst\u00e5t med hjertat, och omv\u00e4nda sig, att jag m\u00e5tte hela dem."
        },
        {
            "chapter": 13,
            "verse": 16,
            "name": "Matthew 13:16",
            "text": "Men salig \u00e4ro edor \u00f6gon, att de se, och edor \u00f6ron, att de h\u00f6ra."
        },
        {
            "chapter": 13,
            "verse": 17,
            "name": "Matthew 13:17",
            "text": "Sannerliga s\u00e4ger jag eder, att m\u00e5nge Propheter och r\u00e4ttf\u00e4rdige hafva beg\u00e4rat se det I sen, och fingo dock icke set, och h\u00f6ra det I h\u00f6ren, och fingo dock icke h\u00f6rat."
        },
        {
            "chapter": 13,
            "verse": 18,
            "name": "Matthew 13:18",
            "text": "S\u00e5 h\u00f6rer nu I denna liknelsen om s\u00e4desmannen."
        },
        {
            "chapter": 13,
            "verse": 19,
            "name": "Matthew 13:19",
            "text": "Hvar n\u00e5gor h\u00f6rer ordet om riket, och f\u00f6rst\u00e5r det icke, s\u00e5 kommer den onde, och rifver det bort, som s\u00e5dt \u00e4r i hans hjerta; det \u00e4r den som vid v\u00e4gen s\u00e5dder var."
        },
        {
            "chapter": 13,
            "verse": 20,
            "name": "Matthew 13:20",
            "text": "Men den som var s\u00e5dder p\u00e5 sten\u00f6ren, \u00e4r den som h\u00f6rer ordet, och tager det straxt gladeliga."
        },
        {
            "chapter": 13,
            "verse": 21,
            "name": "Matthew 13:21",
            "text": "Men han hafver ingen rot i sig sjelf, utan st\u00e5r till en tid; och n\u00e4r bedr\u00f6fvelsen och f\u00f6rf\u00f6ljelsen p\u00e5komma f\u00f6r ordets skull, straxt f\u00f6rargas han."
        },
        {
            "chapter": 13,
            "verse": 22,
            "name": "Matthew 13:22",
            "text": "Men den som var s\u00e5dder ibland t\u00f6rne, \u00e4r den som h\u00f6rer ordet; och desse verldenes bekymmer, och rikedomsens svek f\u00f6rqv\u00e4fver ordet; och han blifver utan frukt."
        },
        {
            "chapter": 13,
            "verse": 23,
            "name": "Matthew 13:23",
            "text": "Men den som var s\u00e5dder i goda jord, \u00e4r den som h\u00f6rer ordet, och f\u00f6rst\u00e5r det; och b\u00e4r ocks\u00e5 frukt, s\u00e5 att somt g\u00f6r hundradefaldt, somt sextiofaldt, och somt tretiofaldt."
        },
        {
            "chapter": 13,
            "verse": 24,
            "name": "Matthew 13:24",
            "text": "En annor liknelse satte han dem f\u00f6re, och sade: Himmelriket \u00e4r likt ene mennisko, som s\u00e5dde goda s\u00e4d i sin \u00e5ker;"
        },
        {
            "chapter": 13,
            "verse": 25,
            "name": "Matthew 13:25",
            "text": "Men d\u00e5 folket sof, kom hans ov\u00e4n, och s\u00e5dde ogr\u00e4s midt ibland hvetet; och gick sin v\u00e4g."
        },
        {
            "chapter": 13,
            "verse": 26,
            "name": "Matthew 13:26",
            "text": "D\u00e5 nu s\u00e4den v\u00e4xte, och bar frukt, syntes ock ogr\u00e4set."
        },
        {
            "chapter": 13,
            "verse": 27,
            "name": "Matthew 13:27",
            "text": "D\u00e5 gingo husbondans tjenare fram, och sade till honom: Herre, s\u00e5dde du icke goda s\u00e4d i din \u00e5ker? Hvadan hafver han d\u00e5 ogr\u00e4s?"
        },
        {
            "chapter": 13,
            "verse": 28,
            "name": "Matthew 13:28",
            "text": "D\u00e5 sade han till dem: Det hafver ov\u00e4nnen gjort. Sade tjenarena till honom: Vill du, att vi g\u00e5m, och hemte det bort?"
        },
        {
            "chapter": 13,
            "verse": 29,
            "name": "Matthew 13:29",
            "text": "D\u00e5 sade han: Nej, p\u00e5 det att, n\u00e4r I upprycken ogr\u00e4set, I icke skolen ock dermed upprycka hvetet."
        },
        {
            "chapter": 13,
            "verse": 30,
            "name": "Matthew 13:30",
            "text": "L\u00e5ter b\u00e5da v\u00e4xa intill sk\u00f6rdetiden; och i sk\u00f6rdetiden vill jag s\u00e4ga sk\u00f6rdem\u00e4nnomen: Hemter f\u00f6rst ogr\u00e4set samman, och binder det i knippor, till att uppbr\u00e4nnas; men hvetet f\u00f6rsamler i mina lado."
        },
        {
            "chapter": 13,
            "verse": 31,
            "name": "Matthew 13:31",
            "text": "En annor liknelse satte han dem f\u00f6re, och sade: Himmelriket \u00e4r likt ett senapskorn, som en man tog, och s\u00e5dde i sin \u00e5ker;"
        },
        {
            "chapter": 13,
            "verse": 32,
            "name": "Matthew 13:32",
            "text": "Hvilket minst \u00e4r af all fr\u00f6; men n\u00e4r det varder uppv\u00e4xt, \u00e4r det st\u00f6rst ibland krydder, och blifver ett tr\u00e4, s\u00e5 att foglarna under himmelen komma, och g\u00f6ra sin n\u00e4ste p\u00e5 dess qvistar."
        },
        {
            "chapter": 13,
            "verse": 33,
            "name": "Matthew 13:33",
            "text": "En annor liknelse sade han till dem: Himmelriket \u00e4r likt enom surdeg, hvilken en qvinna tog, och blandade i tre skeppor mj\u00f6l, tilldess det blef alltsammans surt."
        },
        {
            "chapter": 13,
            "verse": 34,
            "name": "Matthew 13:34",
            "text": "Detta allt talade Jesus i liknelser till folket; och utan liknelse talade han intet till dem;"
        },
        {
            "chapter": 13,
            "verse": 35,
            "name": "Matthew 13:35",
            "text": "Att det skulle fullkomnas, som sagdt var genom Propheten som sade: Jag skall \u00f6ppna min mun i liknelser, och skall uttala det hemligit varit hafver ifr\u00e5 verldenes begynnelse."
        },
        {
            "chapter": 13,
            "verse": 36,
            "name": "Matthew 13:36",
            "text": "D\u00e5 skiljde Jesus folket ifr\u00e5 sig, och kom hem. Och hans L\u00e4rjungar stego fram till honom, och sade: Uttyd oss denna liknelsen om \u00e5krens ogr\u00e4s."
        },
        {
            "chapter": 13,
            "verse": 37,
            "name": "Matthew 13:37",
            "text": "D\u00e5 svarade han, och sade till dem: Menniskones Son \u00e4r den som den goda s\u00e4dena s\u00e5r."
        },
        {
            "chapter": 13,
            "verse": 38,
            "name": "Matthew 13:38",
            "text": "\u00c5kren \u00e4r verlden; den goda s\u00e4den \u00e4ro riksens barn; ogr\u00e4set \u00e4ro hins ondas barn."
        },
        {
            "chapter": 13,
            "verse": 39,
            "name": "Matthew 13:39",
            "text": "Ov\u00e4nnen, som s\u00e5dde, \u00e4r djefvulen; sk\u00f6rdetiden \u00e4r verldenes \u00e4nde; sk\u00f6rdem\u00e4nnerna \u00e4ro \u00c4nglarna."
        },
        {
            "chapter": 13,
            "verse": 40,
            "name": "Matthew 13:40",
            "text": "S\u00e5som nu ogr\u00e4set hemtas samman, och br\u00e4nnes upp med eld, s\u00e5 skall det ske p\u00e5 denna verldenes \u00e4nda."
        },
        {
            "chapter": 13,
            "verse": 41,
            "name": "Matthew 13:41",
            "text": "Menniskones Son skall s\u00e4nda sina \u00c4nglar, och de skola f\u00f6rsamla all f\u00f6rargelse utaf hans rike, och dem som illa g\u00f6ra;"
        },
        {
            "chapter": 13,
            "verse": 42,
            "name": "Matthew 13:42",
            "text": "Och skola kasta dem uti en brinnande ugn; der skall vara gr\u00e5t och tandagnisslan."
        },
        {
            "chapter": 13,
            "verse": 43,
            "name": "Matthew 13:43",
            "text": "D\u00e5 skola de r\u00e4ttf\u00e4rdige skina s\u00e5som solen i deras faders rike. Hvilken \u00f6ron hafver till att h\u00f6ra, han h\u00f6re."
        },
        {
            "chapter": 13,
            "verse": 44,
            "name": "Matthew 13:44",
            "text": "\u00c5ter \u00e4r himmelriket likt enom skatt, som f\u00f6rdold var uti en \u00e5ker, hvilken en man fann, och f\u00f6rdolde honom; och af r\u00e4tto gl\u00e4dje, som han hafver deraf, g\u00e5r han bort, och s\u00e4ljer allt det han hafver, och k\u00f6per den \u00e5kren."
        },
        {
            "chapter": 13,
            "verse": 45,
            "name": "Matthew 13:45",
            "text": "\u00c5ter \u00e4r himmelriket likt enom k\u00f6pman, som s\u00f6kte efter goda perlor."
        },
        {
            "chapter": 13,
            "verse": 46,
            "name": "Matthew 13:46",
            "text": "Och n\u00e4r han hade funnit ena kosteliga perlo, gick han bort, och s\u00e5lde allt det han \u00e4gde, och k\u00f6pte henne."
        },
        {
            "chapter": 13,
            "verse": 47,
            "name": "Matthew 13:47",
            "text": "\u00c5ter \u00e4r himmelriket likt ene not, som kastades i hafvet, och f\u00f6rsamlade allahanda fiskar."
        },
        {
            "chapter": 13,
            "verse": 48,
            "name": "Matthew 13:48",
            "text": "Och n\u00e4r hon vardt full, drogo de henne till lands, och s\u00e5to s\u00e5 och hemte ut de goda i sin k\u00e4ril; men de onda kastade de bort."
        },
        {
            "chapter": 13,
            "verse": 49,
            "name": "Matthew 13:49",
            "text": "S\u00e5 skall det ock ske p\u00e5 verldenes \u00e4nda: \u00c4nglarna skola utg\u00e5, och skilja de onda ifr\u00e5 de r\u00e4ttvisa;"
        },
        {
            "chapter": 13,
            "verse": 50,
            "name": "Matthew 13:50",
            "text": "Och kasta dem i en brinnande ugn; der skall vara gr\u00e5t och tandagnisslan."
        },
        {
            "chapter": 13,
            "verse": 51,
            "name": "Matthew 13:51",
            "text": "D\u00e5 sade Jesus till dem: F\u00f6rstoden I detta allt? Sade de till honom: Ja, Herre."
        },
        {
            "chapter": 13,
            "verse": 52,
            "name": "Matthew 13:52",
            "text": "D\u00e5 sade han till dem: Derf\u00f6re, hvar och en Skriftl\u00e4rd, som till himmelriket l\u00e4rd \u00e4r, han \u00e4r lik en husbonda, som af sin fatabur b\u00e4r fram nytt och gammalt."
        },
        {
            "chapter": 13,
            "verse": 53,
            "name": "Matthew 13:53",
            "text": "Och det begaf sig, n\u00e4r Jesus hade lyktat dessa liknelser, gick han d\u00e4dan;"
        },
        {
            "chapter": 13,
            "verse": 54,
            "name": "Matthew 13:54",
            "text": "Och kom i sitt f\u00e4dernesland, och l\u00e4rde i deras Synagogo, s\u00e5 att de ock f\u00f6rundrade sig storliga, och sade: Hvadan kommer denne s\u00e5dana visdom och krafter?"
        },
        {
            "chapter": 13,
            "verse": 55,
            "name": "Matthew 13:55",
            "text": "\u00c4r han icke en timbermans son? Heter icke hans moder Maria; och hans br\u00f6der, Jacob, och Joses, och Simon, och Judas?"
        },
        {
            "chapter": 13,
            "verse": 56,
            "name": "Matthew 13:56",
            "text": "Och hans systrar, \u00e4ro de icke alla n\u00e4r oss? Hvadan kommer honom d\u00e5 allt detta?"
        },
        {
            "chapter": 13,
            "verse": 57,
            "name": "Matthew 13:57",
            "text": "Och de f\u00f6rargades \u00f6fver honom. Men Jesus sade till dem: En Prophet \u00e4r icke f\u00f6raktad, utan i sitt f\u00e4dernesland, och i sitt hus."
        },
        {
            "chapter": 13,
            "verse": 58,
            "name": "Matthew 13:58",
            "text": "Och han gjorde der icke m\u00e5ng tecken, f\u00f6r deras otros skull.  "
        }
    ]
}