{
  "1": "d12f02856b4822471ecbdc486d7f6b176fb7f14b",
  "2": "1dcc8084db9c99a9f9c94bb3868bad8cb1b51d70",
  "3": "56b24dc8745ee3da0b89e5961e40076f64e2d613",
  "4": "cc9505d2672cd0b5934de69d7a4e122abcf88379",
  "5": "cd8c9a151cb1df0f46daba7b42d5556b10847ec0",
  "6": "793a57650a4601f7391ef899f602f4e28870d1b2",
  "7": "3bbcfb92a480d61aadcb4fcc3c17d2908472adee",
  "8": "0fce1eed4888c47db7e7eac47e71072c9f1358a2",
  "9": "470a11172a5392f37436664585badfa1d14789db",
  "10": "368397fcc9a059a84f8d1476dadb8c939e67ab15",
  "11": "bbff18494fb317d9a8bedf9a9bea1a122794eef6",
  "12": "75ef4fbc13f0db7888d42f5cd687bdf1b71c786b",
  "13": "522a1f5ca69659dc52609cb6d9aa7402cab15683",
  "14": "26900abf9055003b5cc6c2d16d3f0f632aa81eab",
  "15": "ab7b53fe8a5d2347e97e42ca1ecc4f35e21d2178",
  "16": "64798fc7dba6ded08bd604267215acac28e47486",
  "17": "367f2a3889ce8f67542cb02550aacf835b7acf19",
  "18": "18e8b567227a778ba159a96bcb3b5bdb8e492c5c",
  "19": "76b082a073abe7804d4931f756cab2032f559ffa",
  "20": "dba02340e185d021b6def2e8b7460aca237ed770",
  "21": "70fdc617377a0f0412c4666c5047dfaf6f5d0357",
  "22": "6223a81c6a7fbb3246b9ae71d90a2aa24b16bd3a",
  "23": "b70d67fa35d0b5ed98e80c1c97797dd4288b993d",
  "24": "c8fd17965f36dfd751ad4865edaa66f1b7f76665",
  "25": "757161a6cae548c3f95c014ed9d8641128940b99",
  "26": "9f12d6c16a40b8395f053edf3fa7b8840fcff29d",
  "27": "4008e78b6058853a25a871ab54716786e94ae48f",
  "28": "6801f3d340f0ad071b2f912cef4238f1f7c1806b",
  "29": "0b4b0ef57cd0056ddcf6afe19814f72b7c5bc54e",
  "30": "a74c9e05131dce418a2fb06f3c51ffbfdc589dbe",
  "31": "00b49d710af032826afa148de8edd91f1c31319f",
  "32": "5b3ac3b1da28d37e3b31d42bbba20d4ab67bc9b1",
  "33": "0308e9fe33b53ea40fc39a7981cb8b67e6660736",
  "34": "4a37b4fa54ef35d0b23761b9eb13a438847581b2",
  "35": "98ba94ba175e27b4e1e14cd173c294790ee4b6a4",
  "36": "6fb8f5e75adc64bda989b9c015db6053c7fe538f",
  "37": "6e5600e7163b92df4e371c59e0bb71860c97bc83",
  "38": "d6cf031ccdd8c4b82c7d4f10420d5d5febdb7057",
  "39": "9fd033a9297757ce232d15f15e16251059a7313c",
  "40": "62ac36387dbdb4835f58b8de06452cf31be611b2",
  "41": "0cf2b1b9925116c9d11d122e787d8fc3ccfe2620",
  "42": "156abb141f297f1f00084de546a91476b5b78e63",
  "43": "d76f84ed4c58997213e851a967257761353c7907",
  "44": "ca6b0f4c522eb8187457c0c687b290f02e140e97",
  "45": "bcf1572b9f9267c6c6b93262a84e167358f70e00",
  "46": "5927b223d23af6a530a9d8a0392364886fdc3327",
  "47": "d53f051983747a4336de498b7256ab696e44fafe",
  "48": "d81d41fdce70ab8901aaf176b0cbf3288b58a868",
  "49": "f061eab42e3837e28e5e5711b11bc0c0d48b3980",
  "50": "18318e7e0d3c5133ee1eb457e1f5f3ddf149426c",
  "51": "ecbf8e11a45ab149a4fcfb5e2eab122a7eff125e",
  "52": "26057dafd036e6dff5d8cefc65d4b7e6a7376719",
  "53": "5eccfeae14dfaee9a67fe719d616abc309b2508f",
  "54": "0a8ad783608f9f473c47dac3101511b9da08b9da",
  "55": "01a6e2e796dd9ac91a759e58f92debbf3a4b0c36",
  "56": "2f6d7f3468e9f439e94a3edb75a0ff7ed1cb4d3c",
  "57": "2f2764d64eec226c2ea1d8346c635b484af660ed",
  "58": "67325c5f36c50b981f16b7b564e61ddf028db8b2",
  "59": "c8cec0d30362fc93075c72986fa6c8b3c4ea9834",
  "60": "0aef9308d9a5b8df9f77c50a4df6e54743b79131",
  "61": "7fa4269e1679fe5eb761dbe4e403da4f038826e7",
  "62": "b2abc01d8d6c43daf78d083e8233a60c01528449",
  "63": "81509e14883058190e3d47a6b36cf731763f37e0",
  "64": "2890a863b38271c86ce9c3a74d56647938799788",
  "65": "99a5b1c851c6bd674abd80ab162a9d82e95ac74d",
  "66": "5c47564453ef4ac379ce6f4647a7fcf1411da55c"
}
