{
    "translation": "NT Westcott Hort UBS4 variants Parsed",
    "abbreviation": "westcotthort",
    "lang": "grc",
    "language": "Greek",
    "direction": "LTR",
    "encoding": "UTF-8",
    "book_nr": 56,
    "book_name": "Titus",
    "chapter": 2,
    "name": "Titus 2",
    "verses": [
        {
            "chapter": 2,
            "verse": 1,
            "name": "Titus 2:1",
            "text": "\u03c3\u03c5 \u03b4\u03b5 \u03bb\u03b1\u03bb\u03b5\u03b9 \u03b1 \u03c0\u03c1\u03b5\u03c0\u03b5\u03b9 \u03c4\u03b7 \u03c5\u03b3\u03b9\u03b1\u03b9\u03bd\u03bf\u03c5\u03c3\u03b7 \u03b4\u03b9\u03b4\u03b1\u03c3\u03ba\u03b1\u03bb\u03b9\u03b1 "
        },
        {
            "chapter": 2,
            "verse": 2,
            "name": "Titus 2:2",
            "text": "\u03c0\u03c1\u03b5\u03c3\u03b2\u03c5\u03c4\u03b1\u03c2 \u03bd\u03b7\u03c6\u03b1\u03bb\u03b9\u03bf\u03c5\u03c2 \u03b5\u03b9\u03bd\u03b1\u03b9 \u03c3\u03b5\u03bc\u03bd\u03bf\u03c5\u03c2 \u03c3\u03c9\u03c6\u03c1\u03bf\u03bd\u03b1\u03c2 \u03c5\u03b3\u03b9\u03b1\u03b9\u03bd\u03bf\u03bd\u03c4\u03b1\u03c2 \u03c4\u03b7 \u03c0\u03b9\u03c3\u03c4\u03b5\u03b9 \u03c4\u03b7 \u03b1\u03b3\u03b1\u03c0\u03b7 \u03c4\u03b7 \u03c5\u03c0\u03bf\u03bc\u03bf\u03bd\u03b7 "
        },
        {
            "chapter": 2,
            "verse": 3,
            "name": "Titus 2:3",
            "text": "\u03c0\u03c1\u03b5\u03c3\u03b2\u03c5\u03c4\u03b9\u03b4\u03b1\u03c2 \u03c9\u03c3\u03b1\u03c5\u03c4\u03c9\u03c2 \u03b5\u03bd \u03ba\u03b1\u03c4\u03b1\u03c3\u03c4\u03b7\u03bc\u03b1\u03c4\u03b9 \u03b9\u03b5\u03c1\u03bf\u03c0\u03c1\u03b5\u03c0\u03b5\u03b9\u03c2 \u03bc\u03b7 \u03b4\u03b9\u03b1\u03b2\u03bf\u03bb\u03bf\u03c5\u03c2 \u03bc\u03b7\u03b4\u03b5 \u03bc\u03b7 \u03bf\u03b9\u03bd\u03c9 \u03c0\u03bf\u03bb\u03bb\u03c9 \u03b4\u03b5\u03b4\u03bf\u03c5\u03bb\u03c9\u03bc\u03b5\u03bd\u03b1\u03c2 \u03ba\u03b1\u03bb\u03bf\u03b4\u03b9\u03b4\u03b1\u03c3\u03ba\u03b1\u03bb\u03bf\u03c5\u03c2 "
        },
        {
            "chapter": 2,
            "verse": 4,
            "name": "Titus 2:4",
            "text": "\u03b9\u03bd\u03b1 \u03c3\u03c9\u03c6\u03c1\u03bf\u03bd\u03b9\u03b6\u03c9\u03c3\u03b9\u03bd \u03c4\u03b1\u03c2 \u03bd\u03b5\u03b1\u03c2 \u03c6\u03b9\u03bb\u03b1\u03bd\u03b4\u03c1\u03bf\u03c5\u03c2 \u03b5\u03b9\u03bd\u03b1\u03b9 \u03c6\u03b9\u03bb\u03bf\u03c4\u03b5\u03ba\u03bd\u03bf\u03c5\u03c2 "
        },
        {
            "chapter": 2,
            "verse": 5,
            "name": "Titus 2:5",
            "text": "\u03c3\u03c9\u03c6\u03c1\u03bf\u03bd\u03b1\u03c2 \u03b1\u03b3\u03bd\u03b1\u03c2 \u03bf\u03b9\u03ba\u03bf\u03c5\u03c1\u03b3\u03bf\u03c5\u03c2 \u03b1\u03b3\u03b1\u03b8\u03b1\u03c2 \u03c5\u03c0\u03bf\u03c4\u03b1\u03c3\u03c3\u03bf\u03bc\u03b5\u03bd\u03b1\u03c2 \u03c4\u03bf\u03b9\u03c2 \u03b9\u03b4\u03b9\u03bf\u03b9\u03c2 \u03b1\u03bd\u03b4\u03c1\u03b1\u03c3\u03b9\u03bd \u03b9\u03bd\u03b1 \u03bc\u03b7 \u03bf \u03bb\u03bf\u03b3\u03bf\u03c2 \u03c4\u03bf\u03c5 \u03b8\u03b5\u03bf\u03c5 \u03b2\u03bb\u03b1\u03c3\u03c6\u03b7\u03bc\u03b7\u03c4\u03b1\u03b9 "
        },
        {
            "chapter": 2,
            "verse": 6,
            "name": "Titus 2:6",
            "text": "\u03c4\u03bf\u03c5\u03c2 \u03bd\u03b5\u03c9\u03c4\u03b5\u03c1\u03bf\u03c5\u03c2 \u03c9\u03c3\u03b1\u03c5\u03c4\u03c9\u03c2 \u03c0\u03b1\u03c1\u03b1\u03ba\u03b1\u03bb\u03b5\u03b9 \u03c3\u03c9\u03c6\u03c1\u03bf\u03bd\u03b5\u03b9\u03bd "
        },
        {
            "chapter": 2,
            "verse": 7,
            "name": "Titus 2:7",
            "text": "\u03c0\u03b5\u03c1\u03b9 \u03c0\u03b1\u03bd\u03c4\u03b1 \u03c3\u03b5\u03b1\u03c5\u03c4\u03bf\u03bd \u03c0\u03b1\u03c1\u03b5\u03c7\u03bf\u03bc\u03b5\u03bd\u03bf\u03c2 \u03c4\u03c5\u03c0\u03bf\u03bd \u03ba\u03b1\u03bb\u03c9\u03bd \u03b5\u03c1\u03b3\u03c9\u03bd \u03b5\u03bd \u03c4\u03b7 \u03b4\u03b9\u03b4\u03b1\u03c3\u03ba\u03b1\u03bb\u03b9\u03b1 \u03b1\u03c6\u03b8\u03bf\u03c1\u03b9\u03b1\u03bd \u03c3\u03b5\u03bc\u03bd\u03bf\u03c4\u03b7\u03c4\u03b1 "
        },
        {
            "chapter": 2,
            "verse": 8,
            "name": "Titus 2:8",
            "text": "\u03bb\u03bf\u03b3\u03bf\u03bd \u03c5\u03b3\u03b9\u03b7 \u03b1\u03ba\u03b1\u03c4\u03b1\u03b3\u03bd\u03c9\u03c3\u03c4\u03bf\u03bd \u03b9\u03bd\u03b1 \u03bf \u03b5\u03be \u03b5\u03bd\u03b1\u03bd\u03c4\u03b9\u03b1\u03c2 \u03b5\u03bd\u03c4\u03c1\u03b1\u03c0\u03b7 \u03bc\u03b7\u03b4\u03b5\u03bd \u03b5\u03c7\u03c9\u03bd \u03bb\u03b5\u03b3\u03b5\u03b9\u03bd \u03c0\u03b5\u03c1\u03b9 \u03b7\u03bc\u03c9\u03bd \u03c6\u03b1\u03c5\u03bb\u03bf\u03bd "
        },
        {
            "chapter": 2,
            "verse": 9,
            "name": "Titus 2:9",
            "text": "\u03b4\u03bf\u03c5\u03bb\u03bf\u03c5\u03c2 \u03b9\u03b4\u03b9\u03bf\u03b9\u03c2 \u03b4\u03b5\u03c3\u03c0\u03bf\u03c4\u03b1\u03b9\u03c2 \u03c5\u03c0\u03bf\u03c4\u03b1\u03c3\u03c3\u03b5\u03c3\u03b8\u03b1\u03b9 \u03b5\u03bd \u03c0\u03b1\u03c3\u03b9\u03bd \u03b5\u03c5\u03b1\u03c1\u03b5\u03c3\u03c4\u03bf\u03c5\u03c2 \u03b5\u03b9\u03bd\u03b1\u03b9 \u03bc\u03b7 \u03b1\u03bd\u03c4\u03b9\u03bb\u03b5\u03b3\u03bf\u03bd\u03c4\u03b1\u03c2 "
        },
        {
            "chapter": 2,
            "verse": 10,
            "name": "Titus 2:10",
            "text": "\u03bc\u03b7 \u03bd\u03bf\u03c3\u03c6\u03b9\u03b6\u03bf\u03bc\u03b5\u03bd\u03bf\u03c5\u03c2 \u03b1\u03bb\u03bb\u03b1 \u03c0\u03b1\u03c3\u03b1\u03bd \u03c0\u03b9\u03c3\u03c4\u03b9\u03bd \u03b5\u03bd\u03b4\u03b5\u03b9\u03ba\u03bd\u03c5\u03bc\u03b5\u03bd\u03bf\u03c5\u03c2 \u03b1\u03b3\u03b1\u03b8\u03b7\u03bd \u03b9\u03bd\u03b1 \u03c4\u03b7\u03bd \u03b4\u03b9\u03b4\u03b1\u03c3\u03ba\u03b1\u03bb\u03b9\u03b1\u03bd \u03c4\u03b7\u03bd \u03c4\u03bf\u03c5 \u03c3\u03c9\u03c4\u03b7\u03c1\u03bf\u03c2 \u03b7\u03bc\u03c9\u03bd \u03b8\u03b5\u03bf\u03c5 \u03ba\u03bf\u03c3\u03bc\u03c9\u03c3\u03b9\u03bd \u03b5\u03bd \u03c0\u03b1\u03c3\u03b9\u03bd "
        },
        {
            "chapter": 2,
            "verse": 11,
            "name": "Titus 2:11",
            "text": "\u03b5\u03c0\u03b5\u03c6\u03b1\u03bd\u03b7 \u03b3\u03b1\u03c1 \u03b7 \u03c7\u03b1\u03c1\u03b9\u03c2 \u03c4\u03bf\u03c5 \u03b8\u03b5\u03bf\u03c5 \u03c3\u03c9\u03c4\u03b7\u03c1\u03b9\u03bf\u03c2 \u03c0\u03b1\u03c3\u03b9\u03bd \u03b1\u03bd\u03b8\u03c1\u03c9\u03c0\u03bf\u03b9\u03c2 "
        },
        {
            "chapter": 2,
            "verse": 12,
            "name": "Titus 2:12",
            "text": "\u03c0\u03b1\u03b9\u03b4\u03b5\u03c5\u03bf\u03c5\u03c3\u03b1 \u03b7\u03bc\u03b1\u03c2 \u03b9\u03bd\u03b1 \u03b1\u03c1\u03bd\u03b7\u03c3\u03b1\u03bc\u03b5\u03bd\u03bf\u03b9 \u03c4\u03b7\u03bd \u03b1\u03c3\u03b5\u03b2\u03b5\u03b9\u03b1\u03bd \u03ba\u03b1\u03b9 \u03c4\u03b1\u03c2 \u03ba\u03bf\u03c3\u03bc\u03b9\u03ba\u03b1\u03c2 \u03b5\u03c0\u03b9\u03b8\u03c5\u03bc\u03b9\u03b1\u03c2 \u03c3\u03c9\u03c6\u03c1\u03bf\u03bd\u03c9\u03c2 \u03ba\u03b1\u03b9 \u03b4\u03b9\u03ba\u03b1\u03b9\u03c9\u03c2 \u03ba\u03b1\u03b9 \u03b5\u03c5\u03c3\u03b5\u03b2\u03c9\u03c2 \u03b6\u03b7\u03c3\u03c9\u03bc\u03b5\u03bd \u03b5\u03bd \u03c4\u03c9 \u03bd\u03c5\u03bd \u03b1\u03b9\u03c9\u03bd\u03b9 "
        },
        {
            "chapter": 2,
            "verse": 13,
            "name": "Titus 2:13",
            "text": "\u03c0\u03c1\u03bf\u03c3\u03b4\u03b5\u03c7\u03bf\u03bc\u03b5\u03bd\u03bf\u03b9 \u03c4\u03b7\u03bd \u03bc\u03b1\u03ba\u03b1\u03c1\u03b9\u03b1\u03bd \u03b5\u03bb\u03c0\u03b9\u03b4\u03b1 \u03ba\u03b1\u03b9 \u03b5\u03c0\u03b9\u03c6\u03b1\u03bd\u03b5\u03b9\u03b1\u03bd \u03c4\u03b7\u03c2 \u03b4\u03bf\u03be\u03b7\u03c2 \u03c4\u03bf\u03c5 \u03bc\u03b5\u03b3\u03b1\u03bb\u03bf\u03c5 \u03b8\u03b5\u03bf\u03c5 \u03ba\u03b1\u03b9 \u03c3\u03c9\u03c4\u03b7\u03c1\u03bf\u03c2 \u03b7\u03bc\u03c9\u03bd \u03c7\u03c1\u03b9\u03c3\u03c4\u03bf\u03c5 \u03b9\u03b7\u03c3\u03bf\u03c5 \u03b9\u03b7\u03c3\u03bf\u03c5 \u03c7\u03c1\u03b9\u03c3\u03c4\u03bf\u03c5  "
        },
        {
            "chapter": 2,
            "verse": 14,
            "name": "Titus 2:14",
            "text": "\u03bf\u03c2 \u03b5\u03b4\u03c9\u03ba\u03b5\u03bd \u03b5\u03b1\u03c5\u03c4\u03bf\u03bd \u03c5\u03c0\u03b5\u03c1 \u03b7\u03bc\u03c9\u03bd \u03b9\u03bd\u03b1 \u03bb\u03c5\u03c4\u03c1\u03c9\u03c3\u03b7\u03c4\u03b1\u03b9 \u03b7\u03bc\u03b1\u03c2 \u03b1\u03c0\u03bf \u03c0\u03b1\u03c3\u03b7\u03c2 \u03b1\u03bd\u03bf\u03bc\u03b9\u03b1\u03c2 \u03ba\u03b1\u03b9 \u03ba\u03b1\u03b8\u03b1\u03c1\u03b9\u03c3\u03b7 \u03b5\u03b1\u03c5\u03c4\u03c9 \u03bb\u03b1\u03bf\u03bd \u03c0\u03b5\u03c1\u03b9\u03bf\u03c5\u03c3\u03b9\u03bf\u03bd \u03b6\u03b7\u03bb\u03c9\u03c4\u03b7\u03bd \u03ba\u03b1\u03bb\u03c9\u03bd \u03b5\u03c1\u03b3\u03c9\u03bd "
        },
        {
            "chapter": 2,
            "verse": 15,
            "name": "Titus 2:15",
            "text": "\u03c4\u03b1\u03c5\u03c4\u03b1 \u03bb\u03b1\u03bb\u03b5\u03b9 \u03ba\u03b1\u03b9 \u03c0\u03b1\u03c1\u03b1\u03ba\u03b1\u03bb\u03b5\u03b9 \u03ba\u03b1\u03b9 \u03b5\u03bb\u03b5\u03b3\u03c7\u03b5 \u03bc\u03b5\u03c4\u03b1 \u03c0\u03b1\u03c3\u03b7\u03c2 \u03b5\u03c0\u03b9\u03c4\u03b1\u03b3\u03b7\u03c2 \u03bc\u03b7\u03b4\u03b5\u03b9\u03c2 \u03c3\u03bf\u03c5 \u03c0\u03b5\u03c1\u03b9\u03c6\u03c1\u03bf\u03bd\u03b5\u03b9\u03c4\u03c9  "
        }
    ]
}