{
    "translation": "Haitian Creole Bible",
    "abbreviation": "haitian",
    "lang": "ht",
    "language": "Haitian Creole",
    "direction": "LTR",
    "encoding": "UTF-8",
    "book_nr": 46,
    "book_name": "1 Corinthians",
    "chapter": 16,
    "name": "1 Corinthians 16",
    "verses": [
        {
            "chapter": 16,
            "verse": 1,
            "name": "1 Corinthians 16:1",
            "text": "Kanta lajan nou t'ap ranmase pou ede p\u00e8p Bondye ki lavil Jerizal\u00e8m lan, se pou nou f\u00e8 tankou mwen te di legliz nan peyi Galasi yo f\u00e8."
        },
        {
            "chapter": 16,
            "verse": 2,
            "name": "1 Corinthians 16:2",
            "text": "Chak premye jou nan senmenn lan, se pou chak moun mete yon ti lajan apa dapre sa yo te f\u00e8. Y'a sere l' lakay yo. Konsa, nou p'ap bezwen tann se l\u00e8 m' rive lakay nou pou n'ap chache lajan an."
        },
        {
            "chapter": 16,
            "verse": 3,
            "name": "1 Corinthians 16:3",
            "text": "L\u00e8 m' ava rive, n'a chwazi k\u00e8k moun pou m' voye pote kado nou f\u00e8 a ale lavil Jerizal\u00e8m ak yon l\u00e8t rek\u00f2mandasyon."
        },
        {
            "chapter": 16,
            "verse": 4,
            "name": "1 Corinthians 16:4",
            "text": "Si sa merite pou m' ale tou, y'a f\u00e8 vwayaj la ansanm av\u00e8 mwen."
        },
        {
            "chapter": 16,
            "verse": 5,
            "name": "1 Corinthians 16:5",
            "text": "M'a vin lakay nou l\u00e8 m'a fin pase nan peyi Masedwan. Paske, f\u00f2k mwen pase la anvan."
        },
        {
            "chapter": 16,
            "verse": 6,
            "name": "1 Corinthians 16:6",
            "text": "Mwen ka rete pase k\u00e8k jou lakay nou. Mwen ka menm pase tout sezon fredi a av\u00e8 nou. Apre sa, n'a ka ede m' ale kote m'a gen pou mwen ale a."
        },
        {
            "chapter": 16,
            "verse": 7,
            "name": "1 Corinthians 16:7",
            "text": "Fwa sa a, mwen pa vle w\u00e8 nou anpasan konsa. Mwen ta renmen rete pase k\u00e8k tan ak nou, si Bondye vle."
        },
        {
            "chapter": 16,
            "verse": 8,
            "name": "1 Corinthians 16:8",
            "text": "Men, mwen f\u00e8 lide rete isit nan lavil Ef\u00e8z jouk pou f\u00e8t Lapannk\u00f2t."
        },
        {
            "chapter": 16,
            "verse": 9,
            "name": "1 Corinthians 16:9",
            "text": "Paske nan lavil sa a, mwen jwenn yon bon okazyon pou m' f\u00e8 travay mwen, atout gen anpil moun ki pa vle w\u00e8 mwen."
        },
        {
            "chapter": 16,
            "verse": 10,
            "name": "1 Corinthians 16:10",
            "text": "Si Timote rive b\u00f2 kote nou ye a, n'a f\u00e8 yon jan pou l' santi l' lakay li nan mitan nou, paske se menm jan av\u00e8 mwen li travay pou Sey\u00e8 a."
        },
        {
            "chapter": 16,
            "verse": 11,
            "name": "1 Corinthians 16:11",
            "text": "Pa kite pesonn meprize li. Se pou nou ede l' pou li ka kontinye vwayaj li ak k\u00e8 poze, pou l' ka tounen vin jwenn mwen. Paske, n'ap tann li ak fr\u00e8 yo."
        },
        {
            "chapter": 16,
            "verse": 12,
            "name": "1 Corinthians 16:12",
            "text": "Kanta fr\u00e8 Apol\u00f2s, mwen pa t' manke ankouraje l' pou l' te vin lakay nou. Men, sanble lide li pa sou sa koulye a. Enben, la f\u00e8 vwayaj la l\u00e8 la kapab."
        },
        {
            "chapter": 16,
            "verse": 13,
            "name": "1 Corinthians 16:13",
            "text": "Pa bliye k\u00f2 nou. Kenbe f\u00e8m nan konfyans nou. Mete kouraj sou nou. Pa moutre nou f\u00e8b."
        },
        {
            "chapter": 16,
            "verse": 14,
            "name": "1 Corinthians 16:14",
            "text": "Se pou nou f\u00e8 tout bagay av\u00e8k renmen nan k\u00e8 nou."
        },
        {
            "chapter": 16,
            "verse": 15,
            "name": "1 Corinthians 16:15",
            "text": "Fr\u00e8 m' yo, nou konnen Estefanas ak tout fanmi li. Nou konnen se yo menm premye moun nan peyi Lakayi ki te mete konfyans yo nan Kris la. Tout moun nan fanmi an te ofri t\u00e8t yo pou s\u00e8vi p\u00e8p Bondye a."
        },
        {
            "chapter": 16,
            "verse": 16,
            "name": "1 Corinthians 16:16",
            "text": "Enben, moun konsa ansanm ak moun nou w\u00e8 k'ap travay ak yo epi k'ap s\u00e8vi ak yo, nou m\u00e8t kite yo mennen nou."
        },
        {
            "chapter": 16,
            "verse": 17,
            "name": "1 Corinthians 16:17",
            "text": "Mwen pa manke kontan pou Estefanas, F\u00f2tenatis, Akaykis ki vin w\u00e8 mwen. Yo f\u00e8 m' santi se tankou si se nou menm menm ki te la av\u00e8k mwen."
        },
        {
            "chapter": 16,
            "verse": 18,
            "name": "1 Corinthians 16:18",
            "text": "Yo remoute kouraj mwen, menm jan yo te remoute kouraj nou. Moun konsa, se pou nou konnen ki jan pou nou konsidere yo."
        },
        {
            "chapter": 16,
            "verse": 19,
            "name": "1 Corinthians 16:19",
            "text": "Legliz ki nan peyi Lazi yo voye bonjou pou nou. Akilas ak Prisil ansanm ak legliz ki reyini lakay yo a voye yon pak\u00e8t bonjou pou nou nan Sey\u00e8 a."
        },
        {
            "chapter": 16,
            "verse": 20,
            "name": "1 Corinthians 16:20",
            "text": "Tout fr\u00e8 ki isit yo voye bonjou pou nou tou. Nou menm, b\u00f2 pa nou, yonn di l\u00f2t bonjou pou mwen, yonn bo l\u00f2t tankou moun k'ap viv pou Bondye."
        },
        {
            "chapter": 16,
            "verse": 21,
            "name": "1 Corinthians 16:21",
            "text": "M'ap ekri nou sa ak men pa m': P\u00f2l voye bonjou pou nou tout."
        },
        {
            "chapter": 16,
            "verse": 22,
            "name": "1 Corinthians 16:22",
            "text": "Si yon moun pa renmen Sey\u00e8 a, madichon pou li. Sey\u00e8 nou, vini non!"
        },
        {
            "chapter": 16,
            "verse": 23,
            "name": "1 Corinthians 16:23",
            "text": "Se pou benediksyon Jezi Sey\u00e8 a toujou la av\u00e8 nou."
        },
        {
            "chapter": 16,
            "verse": 24,
            "name": "1 Corinthians 16:24",
            "text": "Mwen renmen nou tout nan Jezikri.   "
        }
    ]
}