{
    "translation": "A Conservative Version",
    "abbreviation": "acv",
    "lang": "en",
    "language": "English",
    "direction": "LTR",
    "encoding": "",
    "book_nr": 16,
    "book_name": "Nehemiah",
    "chapter": 13,
    "name": "Nehemiah 13",
    "verses": [
        {
            "chapter": 13,
            "verse": 1,
            "name": "Nehemiah 13:1",
            "text": "On that day they read in the book of Moses in the audience of the people, and in it was found written that an Ammonite and a Moabite should not enter into the assembly of God forever,"
        },
        {
            "chapter": 13,
            "verse": 2,
            "name": "Nehemiah 13:2",
            "text": "because they did not meet the sons of Israel with bread and with water, but hired Balaam against them, to curse them. However our God turned the curse into a blessing."
        },
        {
            "chapter": 13,
            "verse": 3,
            "name": "Nehemiah 13:3",
            "text": "And it came to pass, when they had heard the law, that they separated from Israel all the mixed multitude."
        },
        {
            "chapter": 13,
            "verse": 4,
            "name": "Nehemiah 13:4",
            "text": "Now before this, Eliashib the priest, who was appointed over the chambers of the house of our God, being allied to Tobiah,"
        },
        {
            "chapter": 13,
            "verse": 5,
            "name": "Nehemiah 13:5",
            "text": "had prepared for him a great chamber, where formerly they laid the meal offerings, the frankincense, and the vessels, and the tithes of the grain, the new wine, and the oil, which were given by commandment to the Levites, and the singers, and the porters, and the heave offerings for the priests."
        },
        {
            "chapter": 13,
            "verse": 6,
            "name": "Nehemiah 13:6",
            "text": "But in all this time I was not at Jerusalem, for in the thirty-second year of Artaxerxes king of Babylon I went to the king. And after certain days I asked leave of the king,"
        },
        {
            "chapter": 13,
            "verse": 7,
            "name": "Nehemiah 13:7",
            "text": "and I came to Jerusalem, and understood the evil that Eliashib had done for Tobiah, in preparing him a chamber in the courts of the house of God."
        },
        {
            "chapter": 13,
            "verse": 8,
            "name": "Nehemiah 13:8",
            "text": "And it grieved me greatly. Therefore I cast forth all the household stuff of Tobiah out of the chamber."
        },
        {
            "chapter": 13,
            "verse": 9,
            "name": "Nehemiah 13:9",
            "text": "Then I commanded, and they cleansed the chambers. And there I brought again the vessels of the house of God, with the meal offerings and the frankincense."
        },
        {
            "chapter": 13,
            "verse": 10,
            "name": "Nehemiah 13:10",
            "text": "And I perceived that the portions of the Levites had not been given them, so that the Levites and the singers, who did the work, had fled each one to his field."
        },
        {
            "chapter": 13,
            "verse": 11,
            "name": "Nehemiah 13:11",
            "text": "Then I contended with the rulers, and said, Why is the house of God forsaken? And I gathered them together, and set them in their place."
        },
        {
            "chapter": 13,
            "verse": 12,
            "name": "Nehemiah 13:12",
            "text": "Then all Judah brought the tithe of the grain and the new wine and the oil to the treasuries."
        },
        {
            "chapter": 13,
            "verse": 13,
            "name": "Nehemiah 13:13",
            "text": "And I made treasurers over the treasuries, Shelemiah the priest, and Zadok the scribe, and of the Levites, Pedaiah, and next to them was Hanan the son of Zaccur, the son of Mattaniah. For they were counted faithful, and their business was to distribute to their brothers."
        },
        {
            "chapter": 13,
            "verse": 14,
            "name": "Nehemiah 13:14",
            "text": "Remember me, O my God, concerning this, and do not wipe out my good deeds that I have done for the house of my God, and for the observances of it."
        },
        {
            "chapter": 13,
            "verse": 15,
            "name": "Nehemiah 13:15",
            "text": "In those days I saw in Judah some men treading wine-presses on the sabbath, and bringing in sheaves, and loading donkeys therewith, as also wine, grapes, and figs, and all manner of burdens, which they brought into Jerusalem on the sabbath day. And I testified against them in the day in which they sold foods."
        },
        {
            "chapter": 13,
            "verse": 16,
            "name": "Nehemiah 13:16",
            "text": "There dwelt men of Tyre also in it who brought in fish, and all manner of wares, and sold on the sabbath to the sons of Judah, and in Jerusalem."
        },
        {
            "chapter": 13,
            "verse": 17,
            "name": "Nehemiah 13:17",
            "text": "Then I contended with the ranking men of Judah, and said to them, What evil thing is this that ye do, and profane the sabbath day?"
        },
        {
            "chapter": 13,
            "verse": 18,
            "name": "Nehemiah 13:18",
            "text": "Did not your fathers thus, and did not our God bring all this evil upon us, and upon this city? Yet ye bring more wrath upon Israel by profaning the sabbath."
        },
        {
            "chapter": 13,
            "verse": 19,
            "name": "Nehemiah 13:19",
            "text": "And it came to pass that, when the gates of Jerusalem began to be dark before the sabbath, I commanded that the doors should be shut, and commanded that they should not be opened till after the sabbath. And I set some of my servants over the gates that there should be no burden brought in on the sabbath day."
        },
        {
            "chapter": 13,
            "verse": 20,
            "name": "Nehemiah 13:20",
            "text": "So the merchants and sellers of all kind of wares lodged outside Jerusalem once or twice."
        },
        {
            "chapter": 13,
            "verse": 21,
            "name": "Nehemiah 13:21",
            "text": "Then I testified against them, and said to them, Why do ye lodge outside the wall? If ye do so again, I will lay hands on you. From that time forth they came no more on the sabbath."
        },
        {
            "chapter": 13,
            "verse": 22,
            "name": "Nehemiah 13:22",
            "text": "And I commanded the Levites that they should purify themselves, and that they should come and keep the gates, to sanctify the sabbath day. Remember to me, O my God, this also, and spare me according to the greatness of thy loving kindness."
        },
        {
            "chapter": 13,
            "verse": 23,
            "name": "Nehemiah 13:23",
            "text": "In those days also I saw the Jews who had married women of Ashdod, of Ammon, and of Moab."
        },
        {
            "chapter": 13,
            "verse": 24,
            "name": "Nehemiah 13:24",
            "text": "And their sons spoke half in the speech of Ashdod, and could not speak in the Jews' language, but according to the language of each people."
        },
        {
            "chapter": 13,
            "verse": 25,
            "name": "Nehemiah 13:25",
            "text": "And I contended with them, and cursed them, and smote certain of them, and plucked off their hair, and made them swear by God, saying, Ye shall not give your daughters to their sons, nor take their daughters for your sons, or for yourselves."
        },
        {
            "chapter": 13,
            "verse": 26,
            "name": "Nehemiah 13:26",
            "text": "Did not Solomon king of Israel sin by these things? Yet there was no king like him among many nations, and he was beloved of his God, and God made him king over all Israel. Nevertheless foreign women caused even him to sin."
        },
        {
            "chapter": 13,
            "verse": 27,
            "name": "Nehemiah 13:27",
            "text": "Shall we then hearken to you to do all this great evil, to trespass against our God in marrying foreign women?"
        },
        {
            "chapter": 13,
            "verse": 28,
            "name": "Nehemiah 13:28",
            "text": "And one of the sons of Joiada, the son of Eliashib the high priest, was son-in-law to Sanballat the Horonite. Therefore I chased him from me."
        },
        {
            "chapter": 13,
            "verse": 29,
            "name": "Nehemiah 13:29",
            "text": "Remember them, O my God, because they have defiled the priesthood, and the covenant of the priesthood, and of the Levites."
        },
        {
            "chapter": 13,
            "verse": 30,
            "name": "Nehemiah 13:30",
            "text": "Thus I cleansed them from all foreigners, and appointed charges for the priests and for the Levites, each one in his work,"
        },
        {
            "chapter": 13,
            "verse": 31,
            "name": "Nehemiah 13:31",
            "text": "and for the wood offering, at times appointed, and for the first-fruits. Remember me, O my God, for good."
        }
    ]
}