{
    "translation": "El Evangelio segun S. Lucas, traducido al Roman\u00ed, \u00f3 dialecto de los Gitanos de Espa\u00f1a",
    "abbreviation": "calo",
    "lang": "rmq",
    "language": "Calo",
    "direction": "LTR",
    "encoding": "UTF-8",
    "book_nr": 42,
    "book_name": "Luke",
    "chapter": 7,
    "name": "Luke 7",
    "verses": [
        {
            "chapter": 7,
            "verse": 1,
            "name": "Luke 7:1",
            "text": "Y pur acab\u00f3 de penar sarias oconas vardas \u00e1 la sueti, sos junelaba, se chal\u00f3 andr\u00e9 Capharna\u00fam."
        },
        {
            "chapter": 7,
            "verse": 2,
            "name": "Luke 7:2",
            "text": "Y sinaba ot\u00e9 baribu merdo y casi \u00e1 la meripen yeque lacr\u00f3 de yeque Centurion; sos sinaba baribu pachibelado de \u00f3."
        },
        {
            "chapter": 7,
            "verse": 3,
            "name": "Luke 7:3",
            "text": "Y pur junel\u00f3 penar de Jesus, bichab\u00f3 \u00e1 \u00f3 yeques pures es Chuti, manguelandole, que abillase \u00e1 chibar lacho \u00e1 desquero lacr\u00f3."
        },
        {
            "chapter": 7,
            "verse": 4,
            "name": "Luke 7:4",
            "text": "Y junos, yescotria que abill\u00e1ron \u00e1 Jesus, le querelaban barias instancias, penando: Merece que le otorguisareles ocono."
        },
        {
            "chapter": 7,
            "verse": 5,
            "name": "Luke 7:5",
            "text": "Presas camela \u00e1 amari rati: y \u00f3 amangue ha querdi yeque cangri."
        },
        {
            "chapter": 7,
            "verse": 6,
            "name": "Luke 7:6",
            "text": "Y Jesus chalaba sat junos.\u00a0 Y pur sinaba sunparal \u00e9 quer, bichab\u00f3 \u00e1 \u00f3 el Centurion desqueres monres, penando: Era\u00f1\u00f3, na ustileles ocona trabajo, que menda na sinelo cabalico de que chales andr\u00e9 de minrio guer."
        },
        {
            "chapter": 7,
            "verse": 7,
            "name": "Luke 7:7",
            "text": "Por ocono ni aun he penchabado mangue cabalico de nichobelar \u00e1 orotarte: Tami penlo sat yeque varda, y sinar\u00e1 chibado lacho minrio lacr\u00f3."
        },
        {
            "chapter": 7,
            "verse": 8,
            "name": "Luke 7:8",
            "text": "Presas menda tambien sinelo manu chitado ostely de las vardas de averes, y terelo jundunares ostely de mangue; y penelo \u00e1 ocona: Cha, y chala; y al aver; Abillel, y abillela; y al lacro de mangue: Querel ocono, y querela."
        },
        {
            "chapter": 7,
            "verse": 9,
            "name": "Luke 7:9",
            "text": "Pur Jesus junelo ocono, se zib\u00f3: y dicando palal \u00e1 la sueti, que o plasta\u00f1aba, pen\u00f3: Aromali sangue penelo, que ni andr\u00e9 Israel he alachado f\u00e9 tan bari."
        },
        {
            "chapter": 7,
            "verse": 10,
            "name": "Luke 7:10",
            "text": "Y pur junos limbidi\u00e1ron al quer sos habian sinado bichabados, alach\u00e1ron sasto al lacr\u00f3, sos habia sinado merdo."
        },
        {
            "chapter": 7,
            "verse": 11,
            "name": "Luke 7:11",
            "text": "Y anac\u00f3 despues, que chalaba \u00e1 yeque foros araquerado Naim: y desqueres discipules chalaban sat \u00f3, y yeque bari plasta\u00f1i de sueti."
        },
        {
            "chapter": 7,
            "verse": 12,
            "name": "Luke 7:12",
            "text": "Y pur abill\u00f3 sunparal de la bundal e foros, he acoi que sicobaban abr\u00ed \u00e1 yeque mulo, chaboro colcoro de sun dai, sos sinaba piuli, y abillaba sat sir\u00f3 baribustri sueti e foros."
        },
        {
            "chapter": 7,
            "verse": 13,
            "name": "Luke 7:13",
            "text": "Yescotria que la dic\u00f3 o Era\u00f1\u00f3, perelalo de canrea por sir\u00f3, le pen\u00f3: Na orobeles."
        },
        {
            "chapter": 7,
            "verse": 14,
            "name": "Luke 7:14",
            "text": "Y chal\u00f3 sunparal, y pajab\u00f3 \u00e1 la jestar\u00ed e mul\u00f3.\u00a0 Y junos sos lo lligueraban, se sustil\u00e1ron.\u00a0 Y pen\u00f3: B\u00e9doro, \u00e1 tucue penelo, costunatucue."
        },
        {
            "chapter": 7,
            "verse": 15,
            "name": "Luke 7:15",
            "text": "Y se bejel\u00f3 \u00f3 sos habia sinado mul\u00f3, y se chib\u00f3 \u00e1 chamuliar, y le di\u00f1\u00f3 \u00e1 sun dai."
        },
        {
            "chapter": 7,
            "verse": 16,
            "name": "Luke 7:16",
            "text": "Y terel\u00e1ron os sares dal baro, y majarificaban \u00e1 Deb\u00e9l, penando; Propheta baro se ha ardi\u00f1ado andr\u00e9 amangue; y Deb\u00e9l ha abillado \u00e1 sun sueti."
        },
        {
            "chapter": 7,
            "verse": 17,
            "name": "Luke 7:17",
            "text": "Y o chimusolano de ocona zibo voltisar\u00f3 por sari Jud\u00e9a, y por sari a pu."
        },
        {
            "chapter": 7,
            "verse": 18,
            "name": "Luke 7:18",
            "text": "Y pen\u00e1ron \u00e1 Juan desqueres discipules sarias oconas buchias."
        },
        {
            "chapter": 7,
            "verse": 19,
            "name": "Luke 7:19",
            "text": "Y Juan araquer\u00f3 dui es discipules de \u00f3, y os bichab\u00f3 \u00e1 Jesus, penando: \u00bfSinelas tucue \u00f3 sos ha de abillar, \u00f3 ujaramos \u00e1 aver?"
        },
        {
            "chapter": 7,
            "verse": 20,
            "name": "Luke 7:20",
            "text": "Y sasta abillasen \u00e1 \u00f3 oconas manuces, le pen\u00e1ron; Juan o Bautista ha bichabado amangue \u00e1 tucue, y penela; \u00bfSinelas tucue \u00f3 sos ha de abillar, \u00f3 ujaramos \u00e1 aver."
        },
        {
            "chapter": 7,
            "verse": 21,
            "name": "Luke 7:21",
            "text": "Y Jesus andr\u00e9 ocola matejo chiros chib\u00f3 lacho \u00e1 baribustr\u00e9s de merdip\u00e9nes, y de llagas, y de bengues chores, y di\u00f1\u00f3 vista \u00e1 butr\u00e9s perpentas."
        },
        {
            "chapter": 7,
            "verse": 22,
            "name": "Luke 7:22",
            "text": "Y despues os rudel\u00f3, penando: Chalad, y penad \u00e1 Juan, ma habeis junelado y dicado: Que os perpentas diquelan, os langues pirelan, os zarapiosos sinelan chibados lacho, os cajuques junelan, os mules ardi\u00f1elan, \u00e1 os chorores sinela pucanado o Evangelio."
        },
        {
            "chapter": 7,
            "verse": 23,
            "name": "Luke 7:23",
            "text": "Y majar\u00f3 sinela \u00f3, sos na sinare escandalizado andr\u00e9 mangue."
        },
        {
            "chapter": 7,
            "verse": 24,
            "name": "Luke 7:24",
            "text": "Y pur hubieron chalado os discipules de Juan, se chib\u00f3 \u00e1 penar \u00e1 la sueti de Juan: \u00bfQu\u00e9 chalasteis \u00e1 dicar andr\u00e9 o desierto? \u00bfsalchuyo chalabeado del bear?"
        },
        {
            "chapter": 7,
            "verse": 25,
            "name": "Luke 7:25",
            "text": "\u00bfTami qu\u00e9 chalasteis abr\u00ed \u00e1 dicar?\u00a0 \u00bfManu chito de coneles laches?\u00a0 Aromali junos sos chibelan coneles laches, y se parbarelan andr\u00e9 delicias, andr\u00e9 os quer\u00e9s es Crallises sinelan."
        },
        {
            "chapter": 7,
            "verse": 26,
            "name": "Luke 7:26",
            "text": "Tami qu\u00e9 chalasteis abr\u00ed \u00e1 dicar?\u00a0 Propheta?\u00a0 Aromali sangue penelo, y fet\u00e9r que Propheta:"
        },
        {
            "chapter": 7,
            "verse": 27,
            "name": "Luke 7:27",
            "text": "Ocona sinela, del que sinela randado: He acoi bichabelo minrio Manfariel anglal de tun chiche, sos julabar\u00e1 tun drun anglal de tucue."
        },
        {
            "chapter": 7,
            "verse": 28,
            "name": "Luke 7:28",
            "text": "Presas menda penelo sangue, que andr\u00e9 os chindados de romias, na sinela fet\u00e9r Propheta, que Juan o Bautista; tami o mendesquero andr\u00e9 o chim de Deb\u00e9l, sinela fet\u00e9r que \u00f3."
        },
        {
            "chapter": 7,
            "verse": 29,
            "name": "Luke 7:29",
            "text": "Y sari a sueti, y os Publicanes, sos le junel\u00e1ron, di\u00f1\u00e1ron chimusolano \u00e1 Deb\u00e9l, junos sos habian sinado muchobelados sal o bautismo de Juan."
        },
        {
            "chapter": 7,
            "verse": 30,
            "name": "Luke 7:30",
            "text": "Tami os Phariseyes, y os Chandes de la Eschastra girel\u00e1ron o consejo de Deb\u00e9l andr\u00e9 s\u00ed matejos, ocolas sos na habian sinado muchobelados por \u00f3."
        },
        {
            "chapter": 7,
            "verse": 31,
            "name": "Luke 7:31",
            "text": "Y pen\u00f3 o Era\u00f1\u00f3: Pues \u00e1 coin penar\u00e9, que se semejan os manuces de ocona rati, y \u00e1 coin se nichobelan?"
        },
        {
            "chapter": 7,
            "verse": 32,
            "name": "Luke 7:32",
            "text": "Semejantes sinelan \u00e1 os chabores, sos sinelan bejelados andr\u00e9 \u00f3 masquero chamuliando andr\u00e9 s\u00ed, y penando: A sangue hemos giyabelado sat pajandias, y na quelasteis: \u00e1 sangue hemos endechado, y na orobasteis."
        },
        {
            "chapter": 7,
            "verse": 33,
            "name": "Luke 7:33",
            "text": "Presas abill\u00f3 Juan o Bautista, sos na jamaba manro, ni piyaba mol, y penelais: Bengui terela."
        },
        {
            "chapter": 7,
            "verse": 34,
            "name": "Luke 7:34",
            "text": "Abill\u00f3 o Chaboro e manu, sos jamela, y piyela, y penelais: He acoi manu jamador, y matogaro, monro de Publicanes y chor\u00e9s."
        },
        {
            "chapter": 7,
            "verse": 35,
            "name": "Luke 7:35",
            "text": "Tami a chaneleria ha sinado justificada por sares desqueres chabores."
        },
        {
            "chapter": 7,
            "verse": 36,
            "name": "Luke 7:36",
            "text": "Y le mangaba yeque Pharis\u00e9o, que chalase \u00e1 jamar sat \u00f3: y habiendo chalado andr\u00e9 o quer e Pharis\u00e9o, se bejel\u00f3 \u00e1 la mensalle."
        },
        {
            "chapter": 7,
            "verse": 37,
            "name": "Luke 7:37",
            "text": "Y yeque cadchi chumascon\u00e1, sos sinaba andr\u00e9 o foros, chanelando que sinaba \u00e1 la mensalle andr\u00e9 o quer e Pharis\u00e9o, lliguer\u00f3 yeque pigote de alabastro, perelalo de ampio lacho:"
        },
        {
            "chapter": 7,
            "verse": 38,
            "name": "Luke 7:38",
            "text": "Y sinchitandose \u00e1 desqueres pindr\u00e9s palal de \u00f3, se chib\u00f3 \u00e1 muchobelarle sat la pani de sus aquias os pindr\u00e9s, y os enjugaba sat o bal de desquero jer\u00f3, y le chupendiaba os pindr\u00e9s, y os ampiaba sat o ampio."
        },
        {
            "chapter": 7,
            "verse": 39,
            "name": "Luke 7:39",
            "text": "Y pur ocono dic\u00f3 o Pharis\u00e9o, sos le terelaba convidado, pen\u00f3 andr\u00e9 s\u00ed matejo: Si ocona manu sinaba Propheta, chanelaria mistos ma, y coin sinela a cadchi, sos le pajabela; presas sinela chori."
        },
        {
            "chapter": 7,
            "verse": 40,
            "name": "Luke 7:40",
            "text": "Y Jesus le rudel\u00f3, penando: Sim\u00f3n, camelo penar \u00e1 tucue yeque buchi.\u00a0 Y \u00f3 rudel\u00f3: Duquendio, pen."
        },
        {
            "chapter": 7,
            "verse": 41,
            "name": "Luke 7:41",
            "text": "Dui debisar\u00e1ron jayere \u00e1 yeque manu: o yeque le debisar\u00f3 pansch cientos cal\u00e9s, y o aver cincuenta."
        },
        {
            "chapter": 7,
            "verse": 42,
            "name": "Luke 7:42",
            "text": "Tami sasta na terelasen chichi de que plasararle, se los estom\u00f3 \u00e1 os dui.\u00a0 \u00bfPues cual es dui le camela fet\u00e9r?"
        },
        {
            "chapter": 7,
            "verse": 43,
            "name": "Luke 7:43",
            "text": "Rudel\u00f3 Sim\u00f3n, y pen\u00f3: Penchabelo, que ocola, \u00e1 coin estom\u00f3 but\u00e9r.\u00a0 Y Jesus le pen\u00f3: Mistos has penchabado."
        },
        {
            "chapter": 7,
            "verse": 44,
            "name": "Luke 7:44",
            "text": "Y volta\u00f1andose acia a cadchi, pen\u00f3 \u00e1 Sim\u00f3n: \u00bfDiquelas ocona cadchi?\u00a0 Menda me chal\u00e9 andr\u00e9 tun quer, na di\u00f1aste mangue pani somia os pindr\u00e9s: tami ocona sat a pani de desquerias aquias ha muchobelado minr\u00e9s pindr\u00e9s, y os ha enjugado sat desqueres bales."
        },
        {
            "chapter": 7,
            "verse": 45,
            "name": "Luke 7:45",
            "text": "Na di\u00f1aste mangue chupendi: tami ocona, desde que abill\u00f3 andr\u00e9, na ha mucado de chupendarme os pindr\u00e9s."
        },
        {
            "chapter": 7,
            "verse": 46,
            "name": "Luke 7:46",
            "text": "Na ampiaste minrio jer\u00f3 sat ampio; tami ocona sat ampio lacho ha ampiado minres pindr\u00e9s."
        },
        {
            "chapter": 7,
            "verse": 47,
            "name": "Luke 7:47",
            "text": "Pre o matejo penelo; que estomados le sinelan os baribustres grecos de sir\u00f3, presas camel\u00f3 baribu.\u00a0 Tami al que mendesquero se estoma, mendesquero camela."
        },
        {
            "chapter": 7,
            "verse": 48,
            "name": "Luke 7:48",
            "text": "Y pen\u00f3 \u00e1 sir\u00f3: Estomados \u00e1 tucue sinelan os grecos."
        },
        {
            "chapter": 7,
            "verse": 49,
            "name": "Luke 7:49",
            "text": "Y ocolas sos jamelaban ot\u00e9, se chib\u00e1ron \u00e1 penar enr\u00e9 si: \u00bfCoin sinela ocona, sos aun os grecos estoma?"
        },
        {
            "chapter": 7,
            "verse": 50,
            "name": "Luke 7:50",
            "text": "Y pen\u00f3 \u00e1 la cadchi: Tun f\u00e9 ha chibado tucue sasti: Chatucue andr\u00e9 paz. "
        }
    ]
}