{
    "translation": "Spanish 1858 Reina Valera New Testament",
    "abbreviation": "spavnt",
    "lang": "es",
    "language": "Spanish",
    "direction": "LTR",
    "encoding": "UTF-8",
    "book_nr": 47,
    "book_name": "2 Corinthians",
    "chapter": 6,
    "name": "2 Corinthians 6",
    "verses": [
        {
            "chapter": 6,
            "verse": 1,
            "name": "2 Corinthians 6:1",
            "text": "Y AS\u00cd [nosotros, como] ayudadores juntamente [con \u00e9l, os] exhortamos tambien \u00e1 que no recibais en vano la gracia de Dios,"
        },
        {
            "chapter": 6,
            "verse": 2,
            "name": "2 Corinthians 6:2",
            "text": "(Porque dice: En tiempo aceptable te he oido, y en dia de salud te he socorrido: h\u00e9 aqu\u00ed ahora el tiempo aceptable; h\u00e9 aqu\u00ed ahora el dia de salud.)"
        },
        {
            "chapter": 6,
            "verse": 3,
            "name": "2 Corinthians 6:3",
            "text": "No dando \u00e1 nadie ningun escandalo, porque el ministerio [nuestro] no sea vituperado:"
        },
        {
            "chapter": 6,
            "verse": 4,
            "name": "2 Corinthians 6:4",
            "text": "Antes habi\u00e9ndonos en todas cosas como ministros de Dios, en mucha paciencia, en tribulaciones, en necesidades, en angustias,"
        },
        {
            "chapter": 6,
            "verse": 5,
            "name": "2 Corinthians 6:5",
            "text": "En azotes, en c\u00e1rceles, en alborotos, en trabajos, en vigilias, en ayunos,"
        },
        {
            "chapter": 6,
            "verse": 6,
            "name": "2 Corinthians 6:6",
            "text": "En castidad, en ciencia, en longanimidad, en bondad, en Esp\u00edritu Santo, en amor no fingido,"
        },
        {
            "chapter": 6,
            "verse": 7,
            "name": "2 Corinthians 6:7",
            "text": "En palabra de verdad, en potencia de Dios, en armas de justicia \u00e1 diestro y \u00e1 siniestro,"
        },
        {
            "chapter": 6,
            "verse": 8,
            "name": "2 Corinthians 6:8",
            "text": "Por honra y por deshonra, por infamia y por buena fama; como enga\u00f1adores, mas hombres de verdad,"
        },
        {
            "chapter": 6,
            "verse": 9,
            "name": "2 Corinthians 6:9",
            "text": "Como ignorados, mas conocidos; como muriendo, mas h\u00e9 aqu\u00ed vivimos; como castigados, mas no muertos;"
        },
        {
            "chapter": 6,
            "verse": 10,
            "name": "2 Corinthians 6:10",
            "text": "Como doloridos, mas siempre gozosos; como pobres, enriqueciendo \u00e1 muchos; como no teniendo nada, mas posey\u00e9ndolo todo."
        },
        {
            "chapter": 6,
            "verse": 11,
            "name": "2 Corinthians 6:11",
            "text": "Nuestra boca esta abierta \u00e1 vosotros, oh Corintios; nuestro corazon es ensanchado."
        },
        {
            "chapter": 6,
            "verse": 12,
            "name": "2 Corinthians 6:12",
            "text": "No estais estrechos en nosotros; mas estais estrechos en vuestras [propias] entra\u00f1as."
        },
        {
            "chapter": 6,
            "verse": 13,
            "name": "2 Corinthians 6:13",
            "text": "Pues para corresponder al propio modo, (como \u00e1 hijos hablo,) ensanch\u00e1os tambien vosotros."
        },
        {
            "chapter": 6,
            "verse": 14,
            "name": "2 Corinthians 6:14",
            "text": "No os junteis en yugo con los infieles, porque \u00bfqu\u00e9 compa\u00f1\u00eda tiene la justicia con la injusticia? y \u00bfqu\u00e9 comunion la luz con las tinieblas,"
        },
        {
            "chapter": 6,
            "verse": 15,
            "name": "2 Corinthians 6:15",
            "text": "Y \u00bfqu\u00e9 concordia Cristo con Belial? \u00f3 \u00bfqu\u00e9 parte el fiel con el infiel?"
        },
        {
            "chapter": 6,
            "verse": 16,
            "name": "2 Corinthians 6:16",
            "text": "Y \u00bfqu\u00e9 concierto el templo de Dios con los \u00eddolos? Porque vosotros sois el templo del Dios viviente, como Dios dijo: Habitar\u00e9 y andar\u00e9 en ellos; y ser\u00e9 el Dios de ellos, y ellos ser\u00e1n mi pueblo."
        },
        {
            "chapter": 6,
            "verse": 17,
            "name": "2 Corinthians 6:17",
            "text": "Por lo cual salid de en medio de ellos, y apart\u00e1os, dice el Se\u00f1or; y no toqueis lo inmundo; y yo os recibir\u00e9,"
        },
        {
            "chapter": 6,
            "verse": 18,
            "name": "2 Corinthians 6:18",
            "text": "Y ser\u00e9 \u00e1 vosotros Padre, y vosotros me ser\u00e9is \u00e1 m\u00ed hijos \u00e9 hijas, dice el Se\u00f1or Todopoderoso."
        }
    ]
}