{
    "translation": "Green's Modern King James Version",
    "abbreviation": "mkjv",
    "lang": "en",
    "language": "English",
    "direction": "LTR",
    "encoding": "",
    "book_nr": 44,
    "book_name": "Acts",
    "chapter": 11,
    "name": "Acts 11",
    "verses": [
        {
            "chapter": 11,
            "verse": 1,
            "name": "Acts 11:1",
            "text": "And the apostles and brothers who were in Judea heard that the nations had also received the Word of God. "
        },
        {
            "chapter": 11,
            "verse": 2,
            "name": "Acts 11:2",
            "text": "And when Peter had come up to Jerusalem, those of the circumcision contended with him, "
        },
        {
            "chapter": 11,
            "verse": 3,
            "name": "Acts 11:3",
            "text": "saying, You went in to uncircumcised men and ate with them. "
        },
        {
            "chapter": 11,
            "verse": 4,
            "name": "Acts 11:4",
            "text": "But Peter related the matter from the beginning and explained it by order to them, saying, "
        },
        {
            "chapter": 11,
            "verse": 5,
            "name": "Acts 11:5",
            "text": "I was in the city of Joppa praying. And in an ecstasy I saw a vision, a certain vessel like a sheet coming down, let down from the sky by four corners. And it came even to me. "
        },
        {
            "chapter": 11,
            "verse": 6,
            "name": "Acts 11:6",
            "text": "When I had fastened my eyes on it, I looked and saw four-footed animals of the earth, and wild beasts, and reptiles, and birds of the heaven. "
        },
        {
            "chapter": 11,
            "verse": 7,
            "name": "Acts 11:7",
            "text": "And I heard a voice saying to me, Arise, Peter! Kill and eat! "
        },
        {
            "chapter": 11,
            "verse": 8,
            "name": "Acts 11:8",
            "text": "But I said, Not so, Lord, for nothing common or unclean has at any time entered into my mouth. "
        },
        {
            "chapter": 11,
            "verse": 9,
            "name": "Acts 11:9",
            "text": "But the voice answered me again from the heaven, What God has made clean, you do not call common. "
        },
        {
            "chapter": 11,
            "verse": 10,
            "name": "Acts 11:10",
            "text": "And this was done three times, and all were drawn up again into the heaven. "
        },
        {
            "chapter": 11,
            "verse": 11,
            "name": "Acts 11:11",
            "text": "And behold, immediately three men stood at house in which I was, sent from Caesarea to me. "
        },
        {
            "chapter": 11,
            "verse": 12,
            "name": "Acts 11:12",
            "text": "And the Spirit told me to go with them, not discriminating. And these six brothers went with me, and we entered the man's house. "
        },
        {
            "chapter": 11,
            "verse": 13,
            "name": "Acts 11:13",
            "text": "And he declared to us how he had seen an angel in his house, who stood and said to him, Send men to Joppa and call for Simon whose last name is Peter, "
        },
        {
            "chapter": 11,
            "verse": 14,
            "name": "Acts 11:14",
            "text": "who will tell you words by which you and all your house shall be saved. "
        },
        {
            "chapter": 11,
            "verse": 15,
            "name": "Acts 11:15",
            "text": "And as I began to speak, the Holy Spirit fell on them, as on us at the beginning. "
        },
        {
            "chapter": 11,
            "verse": 16,
            "name": "Acts 11:16",
            "text": "And I remembered the Word of the Lord, how He said, John indeed baptized with water, but you shall be baptized with the Holy Spirit. "
        },
        {
            "chapter": 11,
            "verse": 17,
            "name": "Acts 11:17",
            "text": "Therefore because God gave them the same gift to us who believed on the Lord Jesus Christ, who was I to be able to prevent God? "
        },
        {
            "chapter": 11,
            "verse": 18,
            "name": "Acts 11:18",
            "text": "When they heard these things, they were silent and glorified God, saying, Then God has also granted repentance to life to the nations.   "
        },
        {
            "chapter": 11,
            "verse": 19,
            "name": "Acts 11:19",
            "text": "Then, indeed, they who were scattered abroad by the persecution that rose about Stephen traveled as far as Phoenicia and Cyprus and Antioch, preaching the Word to no one except the Jews. "
        },
        {
            "chapter": 11,
            "verse": 20,
            "name": "Acts 11:20",
            "text": "And some of them were men of Cyprus and Cyrene; who, when they had come to Antioch, spoke to the Hellenists, preaching the gospel of the Lord Jesus. "
        },
        {
            "chapter": 11,
            "verse": 21,
            "name": "Acts 11:21",
            "text": "And the hand of the Lord was with them, and a great number believed and turned to the Lord. "
        },
        {
            "chapter": 11,
            "verse": 22,
            "name": "Acts 11:22",
            "text": "And the Word was heard in the ears of the church in Jerusalem. And they sent out Barnabas, that he should go as far as Antioch; "
        },
        {
            "chapter": 11,
            "verse": 23,
            "name": "Acts 11:23",
            "text": "who was glad when he had come and had seen the grace of God. And he exhorted all with purpose of heart to remain near to the Lord. "
        },
        {
            "chapter": 11,
            "verse": 24,
            "name": "Acts 11:24",
            "text": "For he was a good man and full of the Holy Spirit and faith. And many people were added to the Lord. "
        },
        {
            "chapter": 11,
            "verse": 25,
            "name": "Acts 11:25",
            "text": "And Barnabas went out to Tarsus to seek Saul. "
        },
        {
            "chapter": 11,
            "verse": 26,
            "name": "Acts 11:26",
            "text": "And finding him, it was a whole year they were gathered to them in the church and taught a considerable crowd. And the disciples were first called Christians in Antioch.   "
        },
        {
            "chapter": 11,
            "verse": 27,
            "name": "Acts 11:27",
            "text": "And in these days prophets from Jerusalem came to Antioch. "
        },
        {
            "chapter": 11,
            "verse": 28,
            "name": "Acts 11:28",
            "text": "And one of them named Agabus stood up and signified by the Spirit that there should be great famine over the world (which also happened in the days of Claudius Caesar). "
        },
        {
            "chapter": 11,
            "verse": 29,
            "name": "Acts 11:29",
            "text": "And the disciples, as any were prospered, determined each of them to send for ministry to those brothers who lived in Judea, "
        },
        {
            "chapter": 11,
            "verse": 30,
            "name": "Acts 11:30",
            "text": "which they also did, sending to the elders by the hand of Barnabas and Saul.  "
        }
    ]
}