{
    "translation": "Persian Holy Bible (Tarjumeh-ye Ghadeem)",
    "abbreviation": "faropv",
    "lang": "fa",
    "language": "Persian",
    "direction": "RTL",
    "encoding": "UTF-8",
    "book_nr": 5,
    "book_name": "Deuteronomy",
    "chapter": 20,
    "name": "Deuteronomy 20",
    "verses": [
        {
            "chapter": 20,
            "verse": 1,
            "name": "Deuteronomy 20:1",
            "text": "   \u0686\u0648\u0646 \u0628\u0631\u0627\u06cc \u0645\u0642\u0627\u062a\u0644\u0647 \u0628\u0627 \u062f\u0634\u0645\u0646 \u062e\u0648\u062f \u0628\u06cc\u0631\u0648\u0646 \u0631\u0648\u06cc\u060c \u0648 \u0627\u0633\u0628\u0647\u0627 \u0648 \u0627\u0631\u0627\u0628\u0647\u200c\u0647\u0627 \u0648 \u0642\u0648\u0645\u06cc \u0631\u0627 \u0632\u06cc\u0627\u062f\u0647 \u0627\u0632 \u062e\u0648\u062f\u0628\u06cc\u0646\u06cc\u060c \u0627\u0632 \u0627\u06cc\u0634\u0627\u0646 \u0645\u062a\u0631\u0633 \u0632\u06cc\u0631\u0627 \u06cc\u0647\u0648\u0647 \u062e\u062f\u0627\u06cc\u062a \u06a9\u0647 \u062a\u0648 \u0631\u0627 \u0627\u0632 \u0632\u0645\u06cc\u0646 \u0645\u0635\u0631 \u0628\u0631\u0622\u0648\u0631\u062f\u0647 \u0627\u0633\u062a\u060c \u0628\u0627 \u062a\u0648\u0633\u062a. "
        },
        {
            "chapter": 20,
            "verse": 2,
            "name": "Deuteronomy 20:2",
            "text": "\u0648\u0686\u0648\u0646 \u0628\u0647 \u062c\u0646\u06af \u0646\u0632\u062f\u06cc\u06a9 \u0634\u0648\u06cc\u062f \u0622\u0646\u06af\u0627\u0647 \u06a9\u0627\u0647\u0646 \u067e\u06cc\u0634 \u0622\u0645\u062f\u0647\u060c \u0642\u0648\u0645 \u0631\u0627 \u0645\u062e\u0627\u0637\u0628 \u0633\u0627\u0632\u062f. "
        },
        {
            "chapter": 20,
            "verse": 3,
            "name": "Deuteronomy 20:3",
            "text": "\u0648 \u0627\u06cc\u0634\u0627\u0646 \u0631\u0627 \u06af\u0648\u06cc\u062f: \u00ab\u0627\u06cc \u0627\u0633\u0631\u0627\u0626\u06cc\u0644 \u0628\u0634\u0646\u0648\u06cc\u062f \u0634\u0645\u0627 \u0627\u0645\u0631\u0648\u0632 \u0628\u0631\u0627\u06cc \u0645\u0642\u0627\u062a\u0644\u0647 \u0628\u0627\u062f\u0634\u0645\u0646\u0627\u0646 \u062e\u0648\u062f \u067e\u06cc\u0634 \u0645\u06cc\u200c\u0631\u0648\u06cc\u062f\u060c \u062f\u0644 \u0634\u0645\u0627 \u0636\u0639\u06cc\u0641 \u0646\u0634\u0648\u062f\u060c \u0648 \u0627\u0632 \u0627\u06cc\u0634\u0627\u0646 \u062a\u0631\u0633\u0627\u0646 \u0648 \u0644\u0631\u0632\u0627\u0646 \u0648 \u0647\u0631\u0627\u0633\u0627\u0646 \u0645\u0628\u0627\u0634\u06cc\u062f. "
        },
        {
            "chapter": 20,
            "verse": 4,
            "name": "Deuteronomy 20:4",
            "text": "\u0632\u06cc\u0631\u0627 \u06cc\u0647\u0648\u0647\u060c \u062e\u062f\u0627\u06cc \u0634\u0645\u0627\u060c \u0628\u0627 \u0634\u0645\u0627 \u0645\u06cc\u200c\u0631\u0648\u062f\u060c \u062a\u0627 \u0628\u0631\u0627\u06cc \u0634\u0645\u0627 \u0628\u0627 \u062f\u0634\u0645\u0646\u0627\u0646 \u0634\u0645\u0627 \u062c\u0646\u06af \u06a9\u0631\u062f\u0647 \u0634\u0645\u0627 \u0631\u0627\u0646\u062c\u0627\u062a \u062f\u0647\u062f.\u00bb "
        },
        {
            "chapter": 20,
            "verse": 5,
            "name": "Deuteronomy 20:5",
            "text": "\u0648 \u0633\u0631\u0648\u0631\u0627\u0646\u060c \u0642\u0648\u0645 \u0631\u0627 \u062e\u0637\u0627\u0628 \u06a9\u0631\u062f\u0647\u060c \u06af\u0648\u06cc\u0646\u062f: \u00ab\u06a9\u06cc\u0633\u062a \u06a9\u0647 \u062e\u0627\u0646\u0647 \u0646\u0648 \u0628\u0646\u0627 \u06a9\u0631\u062f\u0647\u060c \u0622\u0646 \u0631\u0627\u062a\u062e\u0635\u06cc\u0635 \u0646\u06a9\u0631\u062f\u0647 \u0627\u0633\u062a\u061b \u0627\u0648 \u0631\u0648\u0627\u0646\u0647 \u0634\u062f\u0647\u060c \u0628\u0647 \u062e\u0627\u0646\u0647 \u062e\u0648\u062f\u0628\u0631\u06af\u0631\u062f\u062f\u060c \u0645\u0628\u0627\u062f\u0627 \u062f\u0631 \u062c\u0646\u06af \u0628\u0645\u06cc\u0631\u062f \u0648 \u062f\u06cc\u06af\u0631\u06cc \u0622\u0646 \u0631\u0627\u062a\u062e\u0635\u06cc\u0635 \u0646\u0645\u0627\u06cc\u062f. "
        },
        {
            "chapter": 20,
            "verse": 6,
            "name": "Deuteronomy 20:6",
            "text": "\u0648 \u06a9\u06cc\u0633\u062a \u06a9\u0647 \u062a\u0627\u06a9\u0633\u062a\u0627\u0646\u06cc \u063a\u0631\u0633 \u0646\u0645\u0648\u062f\u0647\u060c \u0622\u0646 \u0631\u0627 \u062d\u0644\u0627\u0644 \u0646\u06a9\u0631\u062f\u0647 \u0627\u0633\u062a\u061b \u0627\u0648 \u0631\u0648\u0627\u0646\u0647 \u0634\u062f\u0647\u060c \u0628\u0647 \u062e\u0627\u0646\u0647 \u062e\u0648\u062f \u0628\u0631\u06af\u0631\u062f\u062f\u060c \u0645\u0628\u0627\u062f\u0627 \u062f\u0631 \u062c\u0646\u06af \u0628\u0645\u06cc\u0631\u062f\u060c \u0648\u062f\u06cc\u06af\u0631\u06cc \u0622\u0646 \u0631\u0627 \u062d\u0644\u0627\u0644 \u06a9\u0646\u062f. "
        },
        {
            "chapter": 20,
            "verse": 7,
            "name": "Deuteronomy 20:7",
            "text": "\u0648 \u06a9\u06cc\u0633\u062a \u06a9\u0647 \u062f\u062e\u062a\u0631\u06cc \u0646\u0627\u0645\u0632\u062f \u06a9\u0631\u062f\u0647\u060c \u0628\u0647 \u0646\u06a9\u0627\u062d \u062f\u0631 \u0646\u06cc\u0627\u0648\u0631\u062f\u0647 \u0627\u0633\u062a\u060c \u0627\u0648 \u0631\u0648\u0627\u0646\u0647 \u0634\u062f\u0647\u060c \u0628\u0647 \u062e\u0627\u0646\u0647 \u062e\u0648\u062f \u0628\u0631\u06af\u0631\u062f\u062f\u060c \u0645\u0628\u0627\u062f\u0627 \u062f\u0631 \u062c\u0646\u06af \u0628\u0645\u06cc\u0631\u062f \u0648\u062f\u06cc\u06af\u0631\u06cc \u0627\u0648 \u0631\u0627 \u0628\u0647 \u0646\u06a9\u0627\u062d \u062f\u0631\u0622\u0648\u0631\u062f.\u00bb "
        },
        {
            "chapter": 20,
            "verse": 8,
            "name": "Deuteronomy 20:8",
            "text": "\u0648 \u0633\u0631\u0648\u0631\u0627\u0646 \u0646\u06cc\u0632\u0642\u0648\u0645 \u0631\u0627 \u062e\u0637\u0627\u0628 \u06a9\u0631\u062f\u0647\u060c \u06af\u0648\u06cc\u0646\u062f: \u00ab\u06a9\u06cc\u0633\u062a \u06a9\u0647 \u062a\u0631\u0633\u0627\u0646 \u0648\u0636\u0639\u06cc\u0641 \u062f\u0644 \u0627\u0633\u062a\u061b \u0627\u0648 \u0631\u0648\u0627\u0646\u0647 \u0634\u062f\u0647\u060c \u0628\u0647 \u062e\u0627\u0646\u0647\u200c\u0627\u0634 \u0628\u0631\u06af\u0631\u062f\u062f\u060c \u0645\u0628\u0627\u062f\u0627 \u062f\u0644 \u0628\u0631\u0627\u062f\u0631\u0627\u0646\u0634 \u0645\u062b\u0644 \u062f\u0644 \u0627\u0648 \u06af\u062f\u0627\u062e\u062a\u0647 \u0634\u0648\u062f.\u00bb "
        },
        {
            "chapter": 20,
            "verse": 9,
            "name": "Deuteronomy 20:9",
            "text": "\u0648 \u0686\u0648\u0646 \u0633\u0631\u0648\u0631\u0627\u0646 \u0627\u0632 \u062a\u06a9\u0644\u0645 \u0646\u0645\u0648\u062f\u0646 \u0628\u0647 \u0642\u0648\u0645 \u0641\u0627\u0631\u063a \u0634\u0648\u0646\u062f\u060c \u0628\u0631 \u0633\u0631 \u0642\u0648\u0645\u060c \u0633\u0631\u062f\u0627\u0631\u0627\u0646 \u0644\u0634\u06a9\u0631 \u0645\u0642\u0631\u0631\u0633\u0627\u0632\u0646\u062f.   "
        },
        {
            "chapter": 20,
            "verse": 10,
            "name": "Deuteronomy 20:10",
            "text": "\u0686\u0648\u0646 \u0628\u0647 \u0634\u0647\u0631\u06cc \u0646\u0632\u062f\u06cc\u06a9 \u0622\u06cc\u06cc \u062a\u0627 \u0628\u0627 \u0622\u0646 \u062c\u0646\u06af \u0646\u0645\u0627\u06cc\u06cc\u060c \u0622\u0646 \u0631\u0627 \u0628\u0631\u0627\u06cc \u0635\u0644\u062d \u0646\u062f\u0627 \u0628\u06a9\u0646. "
        },
        {
            "chapter": 20,
            "verse": 11,
            "name": "Deuteronomy 20:11",
            "text": "\u0648 \u0627\u06af\u0631 \u062a\u0648 \u0631\u0627\u062c\u0648\u0627\u0628 \u0635\u0644\u062d \u0628\u062f\u0647\u062f\u060c \u0648 \u062f\u0631\u0648\u0627\u0632\u0647\u200c\u0647\u0627 \u0631\u0627 \u0628\u0631\u0627\u06cc \u062a\u0648\u0628\u06af\u0634\u0627\u06cc\u062f\u060c \u0622\u0646\u06af\u0627\u0647 \u062a\u0645\u0627\u0645\u06cc \u0642\u0648\u0645\u06cc \u06a9\u0647 \u062f\u0631 \u0622\u0646 \u06cc\u0627\u0641\u062a \u0634\u0648\u0646\u062f\u060c \u0628\u0647 \u062a\u0648 \u062c\u0632\u06cc\u0647 \u062f\u0647\u0646\u062f \u0648 \u062a\u0648 \u0631\u0627 \u062e\u062f\u0645\u062a \u0646\u0645\u0627\u06cc\u0646\u062f. "
        },
        {
            "chapter": 20,
            "verse": 12,
            "name": "Deuteronomy 20:12",
            "text": "\u0648 \u0627\u06af\u0631 \u0628\u0627\u062a\u0648 \u0635\u0644\u062d \u0646\u06a9\u0631\u062f\u0647\u060c \u0628\u0627 \u062a\u0648 \u062c\u0646\u06af \u0646\u0645\u0627\u06cc\u0646\u062f\u060c \u067e\u0633 \u0622\u0646 \u0631\u0627\u0645\u062d\u0627\u0635\u0631\u0647 \u06a9\u0646. "
        },
        {
            "chapter": 20,
            "verse": 13,
            "name": "Deuteronomy 20:13",
            "text": "\u0648 \u0686\u0648\u0646 \u06cc\u0647\u0648\u0647\u060c \u062e\u062f\u0627\u06cc\u062a\u060c \u0622\u0646 \u0631\u0627 \u0628\u0647\u200c\u062f\u0633\u062a \u062a\u0648 \u0628\u0633\u067e\u0627\u0631\u062f\u060c \u062c\u0645\u06cc\u0639 \u0630\u06a9\u0648\u0631\u0627\u0646\u0634 \u0631\u0627 \u0628\u0647 \u062f\u0645 \u0634\u0645\u0634\u06cc\u0631\u0628\u06a9\u0634. "
        },
        {
            "chapter": 20,
            "verse": 14,
            "name": "Deuteronomy 20:14",
            "text": "\u0644\u06cc\u06a9\u0646 \u0632\u0646\u0627\u0646 \u0648 \u0627\u0637\u0641\u0627\u0644 \u0648 \u0628\u0647\u0627\u06cc\u0645 \u0648 \u0622\u0646\u0686\u0647 \u062f\u0631\u0634\u0647\u0631 \u0628\u0627\u0634\u062f\u060c \u06cc\u0639\u0646\u06cc \u062a\u0645\u0627\u0645\u06cc \u063a\u0646\u06cc\u0645\u062a\u0634 \u0631\u0627 \u0628\u0631\u0627\u06cc \u062e\u0648\u062f \u0628\u0647 \u062a\u0627\u0631\u0627\u062c \u0628\u0628\u0631\u060c \u0648 \u063a\u0646\u0627\u06cc\u0645 \u062f\u0634\u0645\u0646\u0627\u0646 \u062e\u0648\u062f \u0631\u0627 \u06a9\u0647 \u06cc\u0647\u0648\u0647 \u062e\u062f\u0627\u06cc\u062a \u0628\u0647 \u062a\u0648 \u062f\u0647\u062f\u060c \u0628\u062e\u0648\u0631. "
        },
        {
            "chapter": 20,
            "verse": 15,
            "name": "Deuteronomy 20:15",
            "text": "\u0628\u0647 \u0647\u0645\u0647 \u0634\u0647\u0631\u0647\u0627\u06cc\u06cc \u06a9\u0647 \u0627\u0632 \u062a\u0648 \u0628\u0633\u06cc\u0627\u0631 \u062f\u0648\u0631\u0646\u062f \u06a9\u0647 \u0627\u0632 \u0634\u0647\u0631\u0647\u0627\u06cc \u0627\u06cc\u0646 \u0627\u0645\u062a\u0647\u0627 \u0646\u0628\u0627\u0634\u0646\u062f\u060c \u0686\u0646\u06cc\u0646 \u0631\u0641\u062a\u0627\u0631 \u0646\u0645\u0627. "
        },
        {
            "chapter": 20,
            "verse": 16,
            "name": "Deuteronomy 20:16",
            "text": "\u0627\u0645\u0627 \u0627\u0632 \u0634\u0647\u0631\u0647\u0627\u06cc \u0627\u06cc\u0646 \u0627\u0645\u062a\u0647\u0627\u06cc\u06cc \u06a9\u0647 \u06cc\u0647\u0648\u0647\u060c \u062e\u062f\u0627\u06cc\u062a\u060c \u062a\u0648 \u0631\u0627 \u0628\u0647 \u0645\u0644\u06a9\u06cc\u062a \u0645\u06cc\u200c\u062f\u0647\u062f\u060c \u0647\u06cc\u0686 \u0630\u06cc \u0646\u0641\u0633 \u0631\u0627 \u0632\u0646\u062f\u0647 \u0645\u06af\u0630\u0627\u0631. "
        },
        {
            "chapter": 20,
            "verse": 17,
            "name": "Deuteronomy 20:17",
            "text": "\u0628\u0644\u06a9\u0647 \u0627\u06cc\u0634\u0627\u0646 \u0631\u0627\u060c \u06cc\u0639\u0646\u06cc \u062d\u062a\u06cc\u0627\u0646 \u0648 \u0627\u0645\u0648\u0631\u06cc\u0627\u0646 \u0648 \u06a9\u0646\u0639\u0627\u0646\u06cc\u0627\u0646 \u0648 \u0641\u0631\u0632\u06cc\u0627\u0646 \u0648 \u062d\u0648\u06cc\u0627\u0646 \u0648\u06cc\u0628\u0648\u0633\u06cc\u0627\u0646 \u0631\u0627\u060c \u0686\u0646\u0627\u0646\u06a9\u0647 \u06cc\u0647\u0648\u0647\u060c \u062e\u062f\u0627\u06cc\u062a\u060c \u062a\u0648 \u0631\u0627 \u0627\u0645\u0631\u0641\u0631\u0645\u0648\u062f\u0647 \u0627\u0633\u062a\u060c \u0628\u0627\u0644\u06a9\u0644 \u0647\u0644\u0627\u06a9 \u0633\u0627\u0632. "
        },
        {
            "chapter": 20,
            "verse": 18,
            "name": "Deuteronomy 20:18",
            "text": "\u062a\u0627 \u0634\u0645\u0627 \u0631\u0627\u062a\u0639\u0644\u06cc\u0645 \u0646\u062f\u0647\u0646\u062f \u06a9\u0647 \u0645\u0648\u0627\u0641\u0642 \u0647\u0645\u0647 \u0631\u062c\u0627\u0633\u0627\u062a\u06cc \u06a9\u0647 \u0627\u06cc\u0634\u0627\u0646 \u0628\u0627\u062e\u062f\u0627\u06cc\u0627\u0646 \u062e\u0648\u062f \u0639\u0645\u0644 \u0645\u06cc\u200c\u0646\u0645\u0648\u062f\u0646\u062f\u060c \u0639\u0645\u0644 \u0646\u0645\u0627\u06cc\u06cc\u062f. \u0648 \u0628\u0647 \u06cc\u0647\u0648\u0647\u060c \u062e\u062f\u0627\u06cc \u062e\u0648\u062f\u060c \u06af\u0646\u0627\u0647 \u06a9\u0646\u06cc\u062f.   "
        },
        {
            "chapter": 20,
            "verse": 19,
            "name": "Deuteronomy 20:19",
            "text": "\u0686\u0648\u0646 \u0628\u0631\u0627\u06cc \u06af\u0631\u0641\u062a\u0646 \u0634\u0647\u0631\u06cc \u0628\u0627 \u0622\u0646 \u062c\u0646\u06af \u06a9\u0646\u06cc\u060c \u0648\u0622\u0646 \u0631\u0627 \u0631\u0648\u0632\u0647\u0627\u06cc \u0628\u0633\u06cc\u0627\u0631 \u0645\u062d\u0627\u0635\u0631\u0647 \u0646\u0645\u0627\u06cc\u06cc\u060c \u062a\u0628\u0631 \u0628\u0631 \u062f\u0631\u062e\u062a\u0647\u0627\u06cc\u0634 \u0645\u0632\u0646 \u0648 \u0622\u0646\u0647\u0627 \u0631\u0627 \u062a\u0644\u0641 \u0645\u0633\u0627\u0632. \u0686\u0648\u0646\u06a9\u0647 \u0627\u0632\u0622\u0646\u0647\u0627 \u0645\u06cc\u200c\u062e\u0648\u0631\u06cc \u067e\u0633 \u0622\u0646\u0647\u0627 \u0631\u0627 \u0642\u0637\u0639 \u0645\u0646\u0645\u0627\u060c \u0632\u06cc\u0631\u0627 \u0622\u06cc\u0627\u062f\u0631\u062e\u062a \u0635\u062d\u0631\u0627 \u0627\u0646\u0633\u0627\u0646 \u0627\u0633\u062a \u062a\u0627 \u0622\u0646 \u0631\u0627 \u0645\u062d\u0627\u0635\u0631\u0647 \u0646\u0645\u0627\u06cc\u06cc\u061f "
        },
        {
            "chapter": 20,
            "verse": 20,
            "name": "Deuteronomy 20:20",
            "text": "\u0648 \u0627\u0645\u0627 \u062f\u0631\u062e\u062a\u06cc \u06a9\u0647 \u0645\u06cc\u062f\u0627\u0646\u06cc \u062f\u0631\u062e\u062a\u06cc \u0646\u06cc\u0633\u062a \u06a9\u0647 \u0627\u0632 \u0622\u0646 \u062e\u0648\u0631\u062f\u0647 \u0634\u0648\u062f \u0622\u0646 \u0631\u0627 \u062a\u0644\u0641 \u0633\u0627\u062e\u062a\u0647\u060c \u0642\u0637\u0639 \u0646\u0645\u0627 \u0648\u0633\u0646\u06af\u0631\u06cc \u0628\u0631 \u0634\u0647\u0631\u06cc \u06a9\u0647 \u0628\u0627 \u062a\u0648 \u062c\u0646\u06af \u0645\u06cc\u200c\u06a9\u0646\u062f\u060c \u0628\u0646\u0627 \u06a9\u0646 \u062a\u0627\u0645\u0646\u0647\u062f\u0645 \u0634\u0648\u062f.   "
        }
    ]
}