{
    "translation": "Kitaabka Quduuska Ah",
    "abbreviation": "somkqa",
    "lang": "so",
    "language": "Somali",
    "direction": "LTR",
    "encoding": "UTF-8",
    "book_nr": 24,
    "book_name": "Jeremiah",
    "chapter": 4,
    "name": "Jeremiah 4",
    "verses": [
        {
            "chapter": 4,
            "verse": 1,
            "name": "Jeremiah 4:1",
            "text": "Rabbigu wuxuu leeyahay, Dadka Israa\u2019iilow, haddaad soo noqotaan, waa inaad xaggayga u soo noqotaan, oo haddaad karaahiyadiinna hortayda ka fogaysaanna innaba laydin dhaqdhaqaajin maayo. "
        },
        {
            "chapter": 4,
            "verse": 2,
            "name": "Jeremiah 4:2",
            "text": "Oo haddaad si run iyo caddaalad iyo xaqnimo ah ugu dhaarataan, Rabbigu waa nool yahay, de markaas quruumuhu isagay ku ducaysan doonaan, oo isagay ku faani doonaan.   "
        },
        {
            "chapter": 4,
            "verse": 3,
            "name": "Jeremiah 4:3",
            "text": "Rabbigu wuxuu dadka dalka Yahuudah iyo reer Yeruusaalem ku leeyahay, Dhulkiinna jeexan jabsada, oo qodxan dhexdood waxba ha ku beeranina. "
        },
        {
            "chapter": 4,
            "verse": 4,
            "name": "Jeremiah 4:4",
            "text": "Raggiinna dalka Yahuudah iyo kuwa Yeruusaalem degganow, Rabbiga isu guda, oo iska gooya buuryada qalbigiinna, si ayan cadhadaydu u soo bixin sida dab oo kale, oo ayan u hurin si aan innaba loo demin karin sharka falimihiinna aawadiis.      "
        },
        {
            "chapter": 4,
            "verse": 5,
            "name": "Jeremiah 4:5",
            "text": "Dalka Yahuudah ka dhex sheega, oo Yeruusaalem ka dhex naadiya, oo waxaad tidhaahdaan, War dalka dhexdiisa buunka ku dhufta, oo aad u qayliya, oo waxaad tidhaahdaan, Isa soo urursada, oo ina keena aynu magaalooyinka deyrka leh galnee. "
        },
        {
            "chapter": 4,
            "verse": 6,
            "name": "Jeremiah 4:6",
            "text": "Calan u taaga xagga Siyoon, carara oo ha joogsanina, waayo, anigu waxaan xagga woqooyi ka keeni doonaa masiibo iyo halligaad weyn. "
        },
        {
            "chapter": 4,
            "verse": 7,
            "name": "Jeremiah 4:7",
            "text": "Libaax baa ka soo baxay jiqdiisa, quruumo baabbi\u2019iyihiina wuu soo kacay, oo wuxuu meeshiisii uga soo baxay inuu dalkaaga cidlo ka dhigo, oo magaalooyinkaagana waa la baabbi\u2019in doonaa, oo qofna ma degganaan doono. "
        },
        {
            "chapter": 4,
            "verse": 8,
            "name": "Jeremiah 4:8",
            "text": "Taas aawadeed dhar joonyad ah guntada, oo baroorta, oo qayliya, waayo, cadhadii Rabbiga oo kululayd nagama noqon. "
        },
        {
            "chapter": 4,
            "verse": 9,
            "name": "Jeremiah 4:9",
            "text": "Oo Rabbigu wuxuu leeyahay, Waxaa maalintaas noqon doona in boqorka qalbigiisa iyo amiirrada qalbigooduba ay kharribmaan, oo wadaaddaduna way yaabi doonaan, oo nebiyaduna way fajici doonaan. "
        },
        {
            "chapter": 4,
            "verse": 10,
            "name": "Jeremiah 4:10",
            "text": "Markaasaan idhi, Sayidow, Rabbiyow, sida xaqiiqada ah dadkan iyo Yeruusaalemba aad iyo aad baad u khiyaanaysay, waayo, iyagoo seefi naftooda soo gaadhaysa ayaad ku tidhaahdaa, Nabad baad helaysaan. "
        },
        {
            "chapter": 4,
            "verse": 11,
            "name": "Jeremiah 4:11",
            "text": "Oo wakhtigaas waxaa dadkan iyo Yeruusaalemba lagu odhan doonaa, Dadkayga dabayl kulul ayaa uga iman doonta xagga meelaha dhaadheer ee cidlada ku yaal, mana ahaan doonto mid wax haadinaysa amase wax safaynaysa, "
        },
        {
            "chapter": 4,
            "verse": 12,
            "name": "Jeremiah 4:12",
            "text": "laakiinse waxay ahaan doontaa dabayl xoog badan oo amarkayga ku imanaysa, oo weliba haatan anigu xukunkoodii waan ku hadli doonaa. "
        },
        {
            "chapter": 4,
            "verse": 13,
            "name": "Jeremiah 4:13",
            "text": "Bal eega, isagu wuxuu u iman doonaa sida daruur oo kale, oo gaadhifardoodyadiisuna waxay ahaan doonaan sida dabayl cirwareen ah oo kale, oo fardihiisuna xataa gorgorrada way ka sii dheereeyaan. Annagaa hoognay! Waayo, waannu baabba\u2019nay. "
        },
        {
            "chapter": 4,
            "verse": 14,
            "name": "Jeremiah 4:14",
            "text": "Yeruusaalemay, qalbigaaga xumaanta ka maydh, si aad u badbaaddo aawadeed. Ilaa goormay fikirradaada sharka ahu kugu sii dhex jirayaan? "
        },
        {
            "chapter": 4,
            "verse": 15,
            "name": "Jeremiah 4:15",
            "text": "Waayo, xagga Daan cod baa ka yeedhaya, oo buuraha Efrayimna belaayo baa laga naadiyaa. "
        },
        {
            "chapter": 4,
            "verse": 16,
            "name": "Jeremiah 4:16",
            "text": "Quruumaha u diga oo Yeruusaalem ogeysiiya in ilaallo ay dal fog ka imanayaan, oo ay magaalooyinkii dalka Yahuudah ku qaylinayaan. "
        },
        {
            "chapter": 4,
            "verse": 17,
            "name": "Jeremiah 4:17",
            "text": "Rabbigu wuxuu leeyahay, Sida kuwa beer dhawraya ayay hareeraheeda kaga kacsan yihiin, maxaa yeelay, iyadu way igu caasiyowday. "
        },
        {
            "chapter": 4,
            "verse": 18,
            "name": "Jeremiah 4:18",
            "text": "Jidkaaga iyo falimahaaga ayaa waxyaalahan kuu keenay, tanu waa belaayadaada, wayna qadhaadh tahay, oo waxay gaadhaysaa xataa ilaa qalbigaaga. "
        },
        {
            "chapter": 4,
            "verse": 19,
            "name": "Jeremiah 4:19",
            "text": "Calooshaydiiyey, calooshaydiiyey! Aniga qalbigaa i xanuunaya, oo wadnahaa i fig leh. Iskamana aamusi karo, maxaa yeelay, naftaydiiyey, waxaad maqashay buunka dhawaaqiisii iyo qayladii dagaalka. "
        },
        {
            "chapter": 4,
            "verse": 20,
            "name": "Jeremiah 4:20",
            "text": "Belaayo baa belaayay ku soo kor dhacday, ayaa lagu dhawaaqay, waayo, dalkii oo dhan waa baabba\u2019ay. Teendhooyinkaygii haddiiba way baabbe\u2019een, oo daahyadaydiina daqiiqad qudha ayay dhammaadeen. "
        },
        {
            "chapter": 4,
            "verse": 21,
            "name": "Jeremiah 4:21",
            "text": "Ilaa goormaan calanka arkayaa, oo aan buunka dhawaaqiisa sii maqlayaa? "
        },
        {
            "chapter": 4,
            "verse": 22,
            "name": "Jeremiah 4:22",
            "text": "Waayo, dadkaygu waa nacasyo, oo aniga ima ay yaqaaniin. Iyagu waa carruur caqlidaran, oo innaba waxgarasho ma leh. Inay xumaan sameeyaan way u caqli badan yihiin, laakiinse inay samaan sameeyaan innaba aqoon uma leh.   "
        },
        {
            "chapter": 4,
            "verse": 23,
            "name": "Jeremiah 4:23",
            "text": "Bal eega, dhulkaan fiiriyey, oo waxaan arkay inuusan qaab lahayn oo uu madhan yahay, oo haddana samooyinkaan fiiriyey, oo iyana innaba iftiin ma ay lahayn. "
        },
        {
            "chapter": 4,
            "verse": 24,
            "name": "Jeremiah 4:24",
            "text": "Buurahaan fiiriyey, oo waxaan arkay inay gariirayeen, oo kurihii oo dhammuna way wada dhaqdhaqaaqayeen. "
        },
        {
            "chapter": 4,
            "verse": 25,
            "name": "Jeremiah 4:25",
            "text": "Oo haddana wax baan fiiriyey, oo ninna ma jirin, oo haaddii hawada oo dhammuna way wada carareen. "
        },
        {
            "chapter": 4,
            "verse": 26,
            "name": "Jeremiah 4:26",
            "text": "Oo haddana wax baan fiiriyey, oo waxaan arkay dhulkii midhaha badnaa oo abaaroobay, oo magaalooyinkeedii oo dhammuna Rabbiga hortiisa ayay ku dundunsanaayeen cadhadiisii kululayd daraaddeed. "
        },
        {
            "chapter": 4,
            "verse": 27,
            "name": "Jeremiah 4:27",
            "text": "Waayo, Rabbigu wuxuu leeyahay, Dalka oo dhammu wuu cidloobi doonaa, laakiinse anigu kulligiis wada baabbi\u2019in maayo. "
        },
        {
            "chapter": 4,
            "verse": 28,
            "name": "Jeremiah 4:28",
            "text": "Taas aawadeed dhulku wuu u barooran doonaa, oo samooyinka sarena way u madoobaan doonaan, maxaa yeelay, waxan anigaa ku hadlay, oo anigaa u qastiyey, oo innaba ka qoomamoon maayo, kana soo noqon maayo marnaba. "
        },
        {
            "chapter": 4,
            "verse": 29,
            "name": "Jeremiah 4:29",
            "text": "Magaalada oo dhammu waxay ka qixi doontaa qaylada fardoleyda iyo qaansoleyda, oo jiqday ku carari doonaan, dhagaxyada dushoodana way fuuli doonaan, magaalo kastana waa laga tegi doonaa, oo nin qudhuhuna ma degganaan doono. "
        },
        {
            "chapter": 4,
            "verse": 30,
            "name": "Jeremiah 4:30",
            "text": "Oo markii lagu dhoco bal maxaad samayn doontaa? In kastoo aad dhar guduudan xidhatid, iyo in kastoo aad dahab isku sharraxdid, iyo in kastoo aad indhakuul iska badisidba, waxtarla\u2019aan baad isu qurxinaysaa, waayo, kuwii ku caashaqi jiray way ku wada quudhsadaan, oo waxay doonayaan inay nafta kaa qaadaan. "
        },
        {
            "chapter": 4,
            "verse": 31,
            "name": "Jeremiah 4:31",
            "text": "Waayo, waxaan maqlay cod sidii naag foolanaysa, iyo qaylo sidii mid ilmaheedii ugu horreeyey dhalaysa, waana codkii magaalada Siyoon, oo taahaysa, oo gacmaheeda kala fidisa, oo waxay tidhaahdaa, anigaa haatan hoogay! Waayo, naftaydii aad bay ugu daallan tahay gacankudhiiglayaasha aawadood.    "
        }
    ]
}