{
    "translation": "Polish Biblia Gdanska (1881)",
    "abbreviation": "polgdanska",
    "lang": "pl",
    "language": "Polish",
    "direction": "LTR",
    "encoding": "UTF-8",
    "book_nr": 38,
    "book_name": "Zechariah",
    "chapter": 13,
    "name": "Zechariah 13",
    "verses": [
        {
            "chapter": 13,
            "verse": 1,
            "name": "Zechariah 13:1",
            "text": "W on dzie\u0144 b\u0119dzie otworzona studnica domowi Dawidowemu i obywatelom Jeruzalemskim na omycie grzechu i nieczysto\u015bci."
        },
        {
            "chapter": 13,
            "verse": 2,
            "name": "Zechariah 13:2",
            "text": "I stanie si\u0119 dnia onego, m\u00f3wi Pan zast\u0119p\u00f3w, \u017ce wykorzeni\u0119 imiona ba\u0142wan\u00f3w z ziemi, tak, \u017ce nie b\u0119d\u0105 wi\u0119cej wspominane; dotego i tych prorok\u00f3w i ducha nieczystego znios\u0119 z ziemi."
        },
        {
            "chapter": 13,
            "verse": 3,
            "name": "Zechariah 13:3",
            "text": "I stanie si\u0119, gdyby kto dalej prorokowa\u0142, \u017ce mu rzekn\u0105 ojciec jego i matka jego, kt\u00f3rzy go sp\u0142odzili: Nie b\u0119dziesz \u017cy\u0142, przeto \u017ce\u015b k\u0142amstwo m\u00f3wi\u0142 w imieniu Pa\u0144skiem; i przebij\u0105 go ojciec jego i matka jego, kt\u00f3rzy go sp\u0142odzili, \u017ce prorokowa\u0142."
        },
        {
            "chapter": 13,
            "verse": 4,
            "name": "Zechariah 13:4",
            "text": "I stanie si\u0119 dnia onego, \u017ce si\u0119 zawstydz\u0105 oni prorocy, ka\u017cdy za widzenie swoje, gdyby prorokowali, i nie oblek\u0105 si\u0119 w sukni\u0119 kosmat\u0105, aby k\u0142amali;"
        },
        {
            "chapter": 13,
            "verse": 5,
            "name": "Zechariah 13:5",
            "text": "Ale ka\u017cdy rzecze: Nie jestem ja prorokiem, ale rolnikiem; bo mi\u0119 tego nauczono od dzieci\u0144stwa mego."
        },
        {
            "chapter": 13,
            "verse": 6,
            "name": "Zechariah 13:6",
            "text": "A je\u017celi mu kto rzecze: C\u00f3\u017c to masz za rany na r\u0119kach twoich? Tedy rzecze: Temi jestem zraniony w domu tych, kt\u00f3rzy mi\u0119 mi\u0142uj\u0105."
        },
        {
            "chapter": 13,
            "verse": 7,
            "name": "Zechariah 13:7",
            "text": "O mieczu! ocknij si\u0119 na pasterza mego, i na m\u0119\u017ca towarzysza mego, m\u00f3wi Pan zast\u0119p\u00f3w; uderz pasterza, a owce rozproszone b\u0119d\u0105; ale za\u015b obr\u00f3c\u0119 r\u0119k\u0119 moj\u0119 ku maluczkim."
        },
        {
            "chapter": 13,
            "verse": 8,
            "name": "Zechariah 13:8",
            "text": "Bo si\u0119 stanie po tej wszystkiej ziemi, m\u00f3wi Pan, \u017ce dwie cz\u0119\u015bci w niej wytracone b\u0119d\u0105 i pomr\u0105, a trzecia zostanie w niej."
        },
        {
            "chapter": 13,
            "verse": 9,
            "name": "Zechariah 13:9",
            "text": "I wwiod\u0119 i on\u0119 trzeci\u0105 cz\u0119\u015b\u0107 do ognia, a wyp\u0142awi\u0119 je jako p\u0142awi\u0105 srebro, a do\u015bwiadcza\u0107 ich b\u0119d\u0119, jako do\u015bwiadczaj\u0105 z\u0142ota; ka\u017cdy b\u0119dzie wzywa\u0142 imienia mego, a Ja go wys\u0142ucham: rzek\u0119: Ty\u015b lud m\u00f3j, a on rzecze: Ty\u015b Pan B\u00f3g m\u00f3j."
        }
    ]
}