{
    "translation": "Catholic Public Domain Version",
    "abbreviation": "cpdv",
    "lang": "en",
    "language": "English",
    "direction": "LTR",
    "encoding": "UTF-8",
    "book_nr": 16,
    "book_name": "Nehemiah",
    "chapter": 12,
    "name": "Nehemiah 12",
    "verses": [
        {
            "chapter": 12,
            "verse": 1,
            "name": "Nehemiah 12:1",
            "text": "Now these are the priests and the Levites who ascended with Zerubbabel, the son of Shealtiel, and Jeshua: Seraiah, Jeremiah, Ezra,"
        },
        {
            "chapter": 12,
            "verse": 2,
            "name": "Nehemiah 12:2",
            "text": "Amariah, Malluch, Hattush,"
        },
        {
            "chapter": 12,
            "verse": 3,
            "name": "Nehemiah 12:3",
            "text": "Shecaniah, Rehum, Meremoth,"
        },
        {
            "chapter": 12,
            "verse": 4,
            "name": "Nehemiah 12:4",
            "text": "Iddo, Ginnethon, Abijah,"
        },
        {
            "chapter": 12,
            "verse": 5,
            "name": "Nehemiah 12:5",
            "text": "Mijamin, Maadiah, Bilgah,"
        },
        {
            "chapter": 12,
            "verse": 6,
            "name": "Nehemiah 12:6",
            "text": "Shemaiah, and Joiarib, Jedaiah, Sallu, Amok, Hilkiah, Jedaiah."
        },
        {
            "chapter": 12,
            "verse": 7,
            "name": "Nehemiah 12:7",
            "text": "These were the leaders of the priests and of their brothers, in the days of Jeshua."
        },
        {
            "chapter": 12,
            "verse": 8,
            "name": "Nehemiah 12:8",
            "text": "And the Levites, Jeshua, Binnui, Kadmiel, Sherebiah, Judah, Mattaniah, they and their brothers were over the hymns,"
        },
        {
            "chapter": 12,
            "verse": 9,
            "name": "Nehemiah 12:9",
            "text": "with Bakbukiah, as well as Hannai, and their brothers, each one in his office."
        },
        {
            "chapter": 12,
            "verse": 10,
            "name": "Nehemiah 12:10",
            "text": "Now Jeshua conceived Joiakim, and Joiakim conceived Eliashib, and Eliashib conceived Joiada,"
        },
        {
            "chapter": 12,
            "verse": 11,
            "name": "Nehemiah 12:11",
            "text": "and Joiada conceived Jonathan, and Jonathan conceived Jaddua."
        },
        {
            "chapter": 12,
            "verse": 12,
            "name": "Nehemiah 12:12",
            "text": "And in the days of Joiakim, the priests and the leaders of the families were: of Seraiah, Meraiah; of Jeremiah, Hananiah;"
        },
        {
            "chapter": 12,
            "verse": 13,
            "name": "Nehemiah 12:13",
            "text": "of Ezra, Meshullam; of Amariah, Jehohanan;"
        },
        {
            "chapter": 12,
            "verse": 14,
            "name": "Nehemiah 12:14",
            "text": "of Maluchi, Jonathan; of Shebaniah, Joseph;"
        },
        {
            "chapter": 12,
            "verse": 15,
            "name": "Nehemiah 12:15",
            "text": "of Harim, Adna; of Meraioth, Helkai;"
        },
        {
            "chapter": 12,
            "verse": 16,
            "name": "Nehemiah 12:16",
            "text": "of Adaiah, Zechariah; of Ginnethon, Meshullam;"
        },
        {
            "chapter": 12,
            "verse": 17,
            "name": "Nehemiah 12:17",
            "text": "of Abijah, Zichri; of Mijamin and Moadiah, Piltai;"
        },
        {
            "chapter": 12,
            "verse": 18,
            "name": "Nehemiah 12:18",
            "text": "of Bilgah, Shammua; of Shemaiah, Jehonathan;"
        },
        {
            "chapter": 12,
            "verse": 19,
            "name": "Nehemiah 12:19",
            "text": "of Joiarib, Mattenai; of Jedaiah, Uzzi;"
        },
        {
            "chapter": 12,
            "verse": 20,
            "name": "Nehemiah 12:20",
            "text": "of Sallai, Kallai; of Amok, Eber;"
        },
        {
            "chapter": 12,
            "verse": 21,
            "name": "Nehemiah 12:21",
            "text": "of Hilkiah, Hashabiah; of Jedaiah, Nethanel."
        },
        {
            "chapter": 12,
            "verse": 22,
            "name": "Nehemiah 12:22",
            "text": "The Levites, in the days of Eliashib, and Joiada, and Johanan, and Jaddua, and the priests, were written according to the leaders of the families, during the reign of Darius the Persian."
        },
        {
            "chapter": 12,
            "verse": 23,
            "name": "Nehemiah 12:23",
            "text": "The sons of Levi, according to the leaders of the families, were written in the book of the words of those days, even to the days of Johanan, the son of Eliashib."
        },
        {
            "chapter": 12,
            "verse": 24,
            "name": "Nehemiah 12:24",
            "text": "Now the leaders of the Levites were Hashabiah, Sherebiah, and Jeshua, the son of Kadmiel, and their brothers, in their turns, so that they would praise and confess, according to the precept of David, the man of God. And they served equally and in order."
        },
        {
            "chapter": 12,
            "verse": 25,
            "name": "Nehemiah 12:25",
            "text": "Mattaniah, and Bakbukiah, Obadiah, Meshullam, Talmon, Akkub, were keepers of the gates and of the vestibules before the gates."
        },
        {
            "chapter": 12,
            "verse": 26,
            "name": "Nehemiah 12:26",
            "text": "These were in the days of Joiakim, the son of Jeshua, the son of Jozadak, and in the days of Nehemiah, the governor, and of Ezra, the priest and scribe."
        },
        {
            "chapter": 12,
            "verse": 27,
            "name": "Nehemiah 12:27",
            "text": "Now at the dedication of the wall of Jerusalem, they sought the Levites from all their places, so that they might bring them to Jerusalem, and so that they might keep the dedication, and rejoice with thanksgiving, and with singing, and with cymbals, psalteries, and lyres."
        },
        {
            "chapter": 12,
            "verse": 28,
            "name": "Nehemiah 12:28",
            "text": "Now the sons of the singing men were gathered from the plains surrounding Jerusalem, and from the villages of Netophati,"
        },
        {
            "chapter": 12,
            "verse": 29,
            "name": "Nehemiah 12:29",
            "text": "and from the house of Gilgal, and from the regions of Geba and Azmaveth. For the singing men had built villages for themselves around Jerusalem."
        },
        {
            "chapter": 12,
            "verse": 30,
            "name": "Nehemiah 12:30",
            "text": "And the priests and the Levites were cleansed, and they cleansed the people, and the gates, and the wall."
        },
        {
            "chapter": 12,
            "verse": 31,
            "name": "Nehemiah 12:31",
            "text": "Then I caused the leaders of Judah to ascend the wall, and I appointed two great choirs to give praise. And they went to the right upon the wall, toward the dung gate."
        },
        {
            "chapter": 12,
            "verse": 32,
            "name": "Nehemiah 12:32",
            "text": "And after them went Hoshaiah, and one half part of the leadership of Judah,"
        },
        {
            "chapter": 12,
            "verse": 33,
            "name": "Nehemiah 12:33",
            "text": "and Azariah, Ezra, and Meshullam, Judah, and Benjamin, and Shemaiah, and Jeremiah."
        },
        {
            "chapter": 12,
            "verse": 34,
            "name": "Nehemiah 12:34",
            "text": "And some of the sons of the priests went forth with trumpets: Zachariah, the son of Jonathan, the son of Shemaiah, the son of Mattaniah, the son of Micaiah, the son of Zaccur, the son of Asaph."
        },
        {
            "chapter": 12,
            "verse": 35,
            "name": "Nehemiah 12:35",
            "text": "And his brothers, Shemaiah, and Azarel, Milalai, Gilalai, Maai, Nethanel, and Judah, and Hanani, went forth with the canticles of David, the man of God. And Ezra, the scribe, was before them at the fountain gate."
        },
        {
            "chapter": 12,
            "verse": 36,
            "name": "Nehemiah 12:36",
            "text": "And opposite them, they ascended by the steps of the city of David, at the ascent of the wall above the house of David, and as far as the water gate to the east."
        },
        {
            "chapter": 12,
            "verse": 37,
            "name": "Nehemiah 12:37",
            "text": "And the second choir of those who gave thanks went forth on the opposite side, and I went after them, and one half part of the people were upon the wall, and upon the tower of the furnaces, as far as the widest wall,"
        },
        {
            "chapter": 12,
            "verse": 38,
            "name": "Nehemiah 12:38",
            "text": "and above the gate of Ephraim, and above the ancient gate, and above the fish gate, and the tower of Hananel, and the tower of Hamath, and as far as the flock gate. And they stood still at the watch gate."
        },
        {
            "chapter": 12,
            "verse": 39,
            "name": "Nehemiah 12:39",
            "text": "And the two choirs of those who gave praise stood still at the house of God, with myself and one half part of the magistrates who were with me."
        },
        {
            "chapter": 12,
            "verse": 40,
            "name": "Nehemiah 12:40",
            "text": "And the priests, Eliakim, Maaseiah, Mijamin, Micaiah, Elioenai, Zechariah, Hananiah, went forth with trumpets,"
        },
        {
            "chapter": 12,
            "verse": 41,
            "name": "Nehemiah 12:41",
            "text": "with Maaseiah, and Shemaiah, and Eleazar, and Uzzi, and Jehohanan, and Malchijah, and Elam, and Ezer. And the singers were singing clearly, and Jezrahiah was their foremost leader."
        },
        {
            "chapter": 12,
            "verse": 42,
            "name": "Nehemiah 12:42",
            "text": "And on that day, they immolated great sacrifices, and they rejoiced. For God had caused them to rejoice with great joy. And their wives and children also were glad. And the rejoicing of Jerusalem was heard from far away."
        },
        {
            "chapter": 12,
            "verse": 43,
            "name": "Nehemiah 12:43",
            "text": "On that day also, they enrolled men over the storehouses of the treasury, for the libations, and for the first-fruits, and for the tithes, so that the leaders of the city might bring these in, by them, with proper thanksgiving, for the priests and the Levites. For Judah was rejoicing in the priests and the Levites who were assisting."
        },
        {
            "chapter": 12,
            "verse": 44,
            "name": "Nehemiah 12:44",
            "text": "And they kept the vigil of their God, and the vigil of expiation, with the singing men and the gatekeepers, in accord with the precept of David, and of Solomon, his son."
        },
        {
            "chapter": 12,
            "verse": 45,
            "name": "Nehemiah 12:45",
            "text": "For in the days of David and Asaph, from the beginning, there were leaders appointed over the singers, to give praise in verses, and to confess to God."
        },
        {
            "chapter": 12,
            "verse": 46,
            "name": "Nehemiah 12:46",
            "text": "And all of Israel, in the days of Zerubbabel, and in the days of Nehemiah, gave portions to the singing men and to the gatekeepers, for each day, and they sanctified the Levites, and the Levites sanctified the sons of Aaron. "
        }
    ]
}