{
    "translation": "Urdu Geo Version Latin Script (UGV)",
    "abbreviation": "urdugeoroman",
    "lang": "ur",
    "language": "Urdu",
    "direction": "RTL",
    "encoding": "UTF-8",
    "book_nr": 20,
    "book_name": "Proverbs",
    "chapter": 9,
    "name": "Proverbs 9",
    "verses": [
        {
            "chapter": 9,
            "verse": 1,
            "name": "Proverbs 9:1",
            "text": " hikmat ne apn\u0101 ghar t\u0101m\u012br karke apne lie s\u0101t sat\u016bn tar\u0101sh lie hai\u1e45."
        },
        {
            "chapter": 9,
            "verse": 2,
            "name": "Proverbs 9:2",
            "text": "apne j\u0101nwaro\u1e45 ko zabah karne aur apn\u012b mai tayy\u0101r karne ke b\u0101d us ne apn\u012b mez bichh\u0101\u012b hai."
        },
        {
            "chapter": 9,
            "verse": 3,
            "name": "Proverbs 9:3",
            "text": "ab us ne apn\u012b naukar\u0101niyo\u1e45 ko bhej\u0101 hai, aur \u1e33hud bh\u012b logo\u1e45 ko shahr k\u012b bulandiyo\u1e45 se ziy\u0101fat karne k\u012b d\u0101wat det\u012b hai,"
        },
        {
            "chapter": 9,
            "verse": 4,
            "name": "Proverbs 9:4",
            "text": "\u201cjo s\u0101d\u0101lauh hai, wuh mere p\u0101s \u0101e.\u201d n\u0101samajh logo\u1e45 se wuh kaht\u012b hai,"
        },
        {
            "chapter": 9,
            "verse": 5,
            "name": "Proverbs 9:5",
            "text": "\u201c\u0101o, mer\u012b ro\u1e6d\u012b kh\u0101o, wuh mai piyo jo mai\u1e45 ne tayy\u0101r kar rakh\u012b hai."
        },
        {
            "chapter": 9,
            "verse": 6,
            "name": "Proverbs 9:6",
            "text": "apn\u012b s\u0101d\u0101lauh r\u0101ho\u1e45 se b\u0101z \u0101o to j\u012bte rahoge, samajh k\u012b r\u0101h par chal pa\u1e5bo.\u201d "
        },
        {
            "chapter": 9,
            "verse": 7,
            "name": "Proverbs 9:7",
            "text": "jo l\u0101n-t\u0101n karne w\u0101le ko t\u0101l\u012bm de us k\u012b apn\u012b rusw\u0101\u012b ho j\u0101eg\u012b, aur jo bed\u012bn ko \u1e0d\u0101n\u1e6de use nuqs\u0101n pahu\u1e45cheg\u0101."
        },
        {
            "chapter": 9,
            "verse": 8,
            "name": "Proverbs 9:8",
            "text": "l\u0101n-t\u0101n karne w\u0101le k\u012b mal\u0101mat na kar warn\u0101 wuh tujh se nafrat kareg\u0101. d\u0101nishmand k\u012b mal\u0101mat kar to wuh tujh se muhabbat kareg\u0101."
        },
        {
            "chapter": 9,
            "verse": 9,
            "name": "Proverbs 9:9",
            "text": "d\u0101nishmand ko hid\u0101yat de to us k\u012b hikmat maz\u012bd ba\u1e5bheg\u012b, r\u0101stb\u0101z ko t\u0101l\u012bm de to wuh apne ilm me\u1e45 iz\u0101f\u0101 kareg\u0101."
        },
        {
            "chapter": 9,
            "verse": 10,
            "name": "Proverbs 9:10",
            "text": "rab k\u0101 \u1e33hauf m\u0101nane se h\u012b hikmat shur\u016b hot\u012b hai, qudd\u016bs \u1e33hud\u0101 ko j\u0101nane se h\u012b samajh h\u0101sil hot\u012b hai."
        },
        {
            "chapter": 9,
            "verse": 11,
            "name": "Proverbs 9:11",
            "text": "mujh se h\u012b ter\u012b umr ke dino\u1e45 aur s\u0101lo\u1e45 me\u1e45 iz\u0101f\u0101 hog\u0101."
        },
        {
            "chapter": 9,
            "verse": 12,
            "name": "Proverbs 9:12",
            "text": "agar t\u016b d\u0101nishmand ho to \u1e33hud is se f\u0101id\u0101 u\u1e6dh\u0101eg\u0101, agar l\u0101n-t\u0101n karne w\u0101l\u0101 ho to tujhe h\u012b is k\u0101 nuqs\u0101n jheln\u0101 pa\u1e5beg\u0101."
        },
        {
            "chapter": 9,
            "verse": 13,
            "name": "Proverbs 9:13",
            "text": " ham\u0101qat b\u012bb\u012b belag\u0101m aur n\u0101samajh hai, wuh kuchh nah\u012b\u1e45 j\u0101nt\u012b."
        },
        {
            "chapter": 9,
            "verse": 14,
            "name": "Proverbs 9:14",
            "text": "us k\u0101 ghar shahr k\u012b buland\u012b par w\u0101qe hai. darw\u0101ze ke p\u0101s kurs\u012b par bai\u1e6dh\u012b"
        },
        {
            "chapter": 9,
            "verse": 15,
            "name": "Proverbs 9:15",
            "text": "wuh guzarne w\u0101lo\u1e45 ko jo s\u012bdh\u012b r\u0101h par chalte hai\u1e45 \u016b\u1e45ch\u012b \u0101w\u0101z se d\u0101wat det\u012b hai,"
        },
        {
            "chapter": 9,
            "verse": 16,
            "name": "Proverbs 9:16",
            "text": "\u201cjo s\u0101d\u0101lauh hai wuh mere p\u0101s \u0101e.\u201d jo n\u0101samajh hai\u1e45 un se wuh kaht\u012b hai,"
        },
        {
            "chapter": 9,
            "verse": 17,
            "name": "Proverbs 9:17",
            "text": "\u201cchor\u012b k\u0101 p\u0101n\u012b m\u012b\u1e6dh\u0101 aur posh\u012bdag\u012b me\u1e45 kh\u0101\u012b ga\u012b ro\u1e6d\u012b laz\u012bz hot\u012b hai.\u201d"
        },
        {
            "chapter": 9,
            "verse": 18,
            "name": "Proverbs 9:18",
            "text": "lekin unhe\u1e45 m\u0101l\u016bm nah\u012b\u1e45 ki ham\u0101qat b\u012bb\u012b ke ghar me\u1e45 sirf murdo\u1e45 k\u012b r\u016bh bast\u012b hai\u1e45, ki us ke mehm\u0101n p\u0101t\u0101l k\u012b gahr\u0101iyo\u1e45 me\u1e45 rahte hai\u1e45.  "
        }
    ]
}